1900
-0.404602, 1, 1, 332, 500
-0.434596, 1, 129, 332, 384
-0.482197, 1, 225, 332, 480
-0.523811, 1, 33, 332, 288
-0.564008, 33, 1, 288, 500
-0.745858, 33, 257, 288, 500
-0.775914, 33, 161, 288, 416
-0.824866, 65, 65, 320, 320
-0.867892, 145, 225, 272, 480
-0.870258, 17, 1, 144, 500
-0.87525, 97, 161, 224, 416
-0.880013, 81, 1, 208, 500
-0.885219, 81, 65, 208, 320
-0.885736, 193, 129, 320, 384
-0.891055, 193, 225, 320, 480
-0.90263, 17, 129, 144, 384
-0.903187, 1, 177, 332, 304
-0.906494, 209, 1, 332, 500
-0.908502, 1, 369, 332, 496
-0.90988, 1, 305, 332, 432
-0.91058, 129, 1, 256, 500
-0.913937, 1, 257, 332, 384
-0.915219, 1, 97, 332, 224
-0.915793, 145, 129, 272, 384
-0.916627, 1, 1, 128, 256
-0.920266, 65, 257, 192, 500
-0.926027, 161, 33, 288, 288
-0.930103, 1, 225, 128, 480
-0.934814, 81, 97, 208, 224
-0.937, 1, 49, 332, 176
-0.939033, 1, 1, 332, 128
-0.939158, 33, 97, 288, 224
-0.942838, 97, 113, 160, 240
-0.944013, 65, 305, 320, 432
-0.945333, 1, 257, 256, 384
-0.946363, 1, 177, 256, 304
-0.947491, 1, 369, 256, 496
-0.948338, 153, 97, 216, 224
-0.948935, 129, 97, 256, 224
-0.949062, 81, 145, 208, 272
-0.9496, 209, 33, 332, 288
-0.950765, 193, 257, 320, 384
-0.951982, 17, 161, 144, 288
-0.953132, 177, 241, 240, 368
-0.953641, 185, 177, 248, 304
-0.954168, 129, 81, 192, 208
-0.954626, 129, 145, 256, 272
-0.954837, 1, 17, 256, 144
-0.954915, 193, 321, 320, 448
-0.955308, 193, 129, 256, 256
-0.955339, 177, 161, 304, 288
-0.956127, 129, 193, 256, 320
-0.956871, 201, 369, 264, 496
-0.957413, 1, 97, 128, 224
-0.958328, 145, 321, 272, 448
-0.958898, 129, 257, 256, 384
-0.959773, 89, 33, 152, 160
-0.960254, 177, 209, 304, 336
-0.960275, 65, 97, 128, 224
-0.96034, 137, 257, 200, 384
-0.960783, 257, 241, 320, 368
-0.960809, 89, 153, 152, 216
-0.96088, 177, 369, 304, 496
-0.962431, 105, 89, 168, 152
-0.962694, 153, 145, 216, 272
-0.963121, 49, 145, 112, 272
-0.963177, 201, 321, 264, 448
-0.963513, 89, 177, 152, 304
-0.963678, 97, 353, 224, 480
-0.96388, 105, 113, 168, 176
-0.9639, 225, 353, 288, 480
-0.964026, 153, 305, 216, 432
-0.964026, 177, 185, 240, 248
-0.964211, 81, 193, 208, 320
-0.964327, 209, 177, 272, 304
-0.964548, 161, 193, 224, 320
-0.965095, 17, 49, 144, 176
-0.965782, 129, 97, 192, 160
-0.965806, 65, 49, 128, 176
-0.966377, 161, 369, 224, 496
-0.966543, 209, 257, 272, 384
-0.966652, 49, 353, 112, 480
-0.967016, 257, 289, 320, 416
-0.96731, 81, 49, 208, 176
-0.967544, 129, 129, 192, 256
-0.967597, 249, 377, 312, 440
-0.967615, 57, 161, 120, 224
-0.96765, 153, 105, 216, 168
-0.967989, 209, 153, 272, 216
-0.968382, 169, 145, 232, 208
-0.968519, 89, 273, 152, 400
-0.96857, 129, 33, 192, 160
-0.968664, 209, 185, 272, 248
-0.968938, 97, 305, 224, 432
-0.969093, 225, 305, 288, 432
-0.969279, 265, 369, 328, 496
-0.969459, 177, 305, 240, 432
-0.969653, 249, 425, 312, 488
-0.969863, 25, 193, 88, 256
-0.969916, 121, 321, 184, 448
-0.970357, 177, 113, 304, 240
-0.970472, 65, 113, 128, 176
-0.970509, 113, 257, 176, 384
-0.970525, 1, 145, 64, 272
-0.970565, 41, 1, 104, 128
-0.970849, 65, 257, 128, 384
-0.970927, 33, 209, 160, 336
-0.971709, 185, 265, 248, 328
-0.971746, 145, 153, 208, 216
-0.971918, 41, 97, 104, 224
-0.972173, 209, 209, 272, 272
-0.972268, 241, 345, 304, 408
-0.972491, 265, 345, 328, 408
-0.972555, 1, 369, 128, 496
-0.97262, 33, 257, 160, 384
-0.972884, 129, 121, 192, 184
-0.973142, 81, 81, 144, 144
-0.973237, 161, 385, 224, 448
-0.973263, 137, 73, 200, 136
-0.97328, 153, 49, 216, 176
-0.973599, 89, 369, 152, 496
-0.973616, 57, 185, 120, 248
-0.973646, 241, 177, 304, 304
-0.974011, 81, 241, 208, 368
-0.974102, 89, 177, 152, 240
-0.97422, 121, 209, 184, 336
-0.974312, 105, 49, 168, 112
-0.974387, 177, 225, 240, 480
-0.974594, 81, 313, 144, 376
-0.974652, 89, 225, 152, 352
-0.97483, 129, 49, 256, 176
-0.975048, 257, 265, 320, 328
-0.975123, 25, 161, 88, 288
-0.975286, 41, 401, 104, 464
-0.97531, 193, 145, 224, 272
-0.975336, 25, 217, 88, 280
-0.975348, 217, 393, 280, 456
-0.975466, 65, 1, 128, 128
-0.975469, 177, 225, 240, 288
-0.975551, 273, 417, 332, 480
-0.975589, 81, 89, 208, 152
-0.975636, 161, 417, 224, 480
-0.975722, 201, 345, 264, 408
-0.975851, 161, 265, 224, 328
-0.9759, 109, 81, 140, 208
-0.975904, 65, 137, 128, 200
-0.975971, 97, 113, 128, 240
-0.976063, 105, 121, 136, 184
-0.976144, 97, 145, 128, 208
-0.976144, 1, 65, 64, 192
-0.97617, 1, 1, 128, 128
-0.976338, 193, 225, 224, 352
-0.976425, 161, 65, 224, 320
-0.976706, 137, 129, 200, 384
-0.976939, 49, 1, 176, 128
-0.97697, 117, 81, 148, 144
-0.976984, 193, 177, 224, 240
-0.977151, 1, 401, 128, 464
-0.977382, 49, 337, 176, 464
-0.977476, 185, 129, 248, 384
-0.977495, 177, 65, 304, 192
-0.977821, 145, 297, 208, 360
-0.977896, 81, 121, 208, 184
-0.977943, 9, 369, 72, 496
-0.977985, 33, 161, 160, 224
-0.978095, 225, 129, 288, 256
-0.978103, 121, 321, 184, 384
-0.978174, 121, 369, 184, 496
-0.978229, 97, 153, 224, 216
-0.978347, 265, 193, 328, 320
-0.978401, 193, 153, 224, 216
-0.978418, 185, 409, 248, 472
-0.97856, 33, 89, 96, 152
-0.978633, 157, 81, 188, 208
-0.978717, 65, 209, 128, 336
-0.978789, 169, 289, 232, 352
-0.978791, 201, 225, 264, 480
-0.979008, 273, 385, 332, 448
-0.979062, 257, 257, 320, 500
-0.979203, 249, 401, 312, 464
-0.979386, 113, 193, 240, 256
-0.979401, 41, 209, 104, 336
-0.979513, 161, 161, 288, 224
-0.979524, 17, 401, 80, 464
-0.979561, 41, 129, 104, 192
-0.979846, 265, 313, 328, 376
-0.979853, 193, 129, 256, 192
-0.979897, 57, 81, 120, 144
-0.979939, 233, 257, 296, 320
-0.97997, 97, 401, 160, 464
-0.980084, 201, 433, 264, 496
-0.980124, 141, 89, 172, 152
-0.98022, 1, 225, 64, 352
-0.980292, 73, 57, 136, 120
-0.980436, 177, 193, 304, 256
-0.980585, 57, 217, 120, 280
-0.980625, 137, 257, 200, 320
-0.980793, 65, 417, 192, 480
-0.980819, 89, 321, 152, 448
-0.981007, 153, 97, 184, 160
-0.981015, 241, 369, 272, 496
-0.981034, 105, 297, 168, 360
-0.981077, 89, 337, 152, 400
-0.981077, 1, 377, 64, 440
-0.981107, 241, 321, 304, 384
-0.981127, 65, 393, 192, 456
-0.981246, 1, 1, 64, 128
-0.981319, 201, 81, 264, 208
-0.981367, 225, 417, 288, 480
-0.981398, 257, 353, 288, 416
-0.981447, 269, 385, 300, 448
-0.981487, 49, 65, 176, 128
-0.981612, 281, 417, 312, 480
-0.981612, 137, 409, 200, 472
-0.981642, 245, 321, 276, 448
-0.981765, 81, 129, 112, 256
-0.981816, 73, 417, 136, 480
-0.981837, 233, 193, 296, 256
-0.981864, 117, 33, 148, 160
-0.981883, 89, 161, 152, 416
-0.981927, 65, 17, 128, 80
-0.981945, 217, 313, 280, 376
-0.981992, 17, 17, 80, 80
-0.982016, 129, 177, 192, 240
-0.982049, 93, 49, 124, 176
-0.982086, 137, 81, 168, 208
-0.982147, 177, 65, 240, 192
-0.982149, 25, 161, 88, 224
-0.982165, 41, 257, 104, 384
-0.982167, 213, 177, 244, 304
-0.982197, 17, 129, 144, 192
-0.982234, 97, 65, 160, 320
-0.982252, 233, 233, 296, 296
-0.982287, 81, 81, 112, 208
-0.982335, 185, 377, 248, 440
-0.982545, 177, 105, 240, 168
-0.98262, 89, 113, 120, 176
-0.982644, 49, 257, 112, 320
-0.982709, 233, 225, 296, 352
-0.982745, 93, 161, 124, 288
-0.982784, 293, 417, 324, 480
-0.982827, 137, 385, 200, 448
-0.982834, 185, 393, 216, 456
-0.982859, 81, 153, 112, 216
-0.982947, 41, 49, 104, 176
-0.982968, 49, 65, 112, 320
-0.982988, 213, 185, 244, 248
-0.983082, 209, 313, 332, 376
-0.983127, 1, 129, 64, 192
-0.983259, 25, 57, 88, 120
-0.983278, 225, 257, 288, 500
-0.983334, 157, 129, 188, 192
-0.983371, 197, 225, 228, 288
-0.983388, 265, 145, 328, 272
-0.983392, 113, 145, 176, 208
-0.983396, 41, 337, 72, 464
-0.983402, 257, 233, 320, 296
-0.983413, 153, 177, 216, 240
-0.983413, 217, 369, 280, 432
-0.983452, 161, 217, 288, 280
-0.983482, 33, 313, 160, 376
-0.983498, 97, 201, 160, 264
-0.983551, 93, 89, 124, 152
-0.983608, 129, 113, 256, 176
-0.983633, 185, 273, 216, 400
-0.983663, 201, 337, 232, 464
-0.98368, 153, 233, 216, 296
-0.98368, 177, 321, 240, 384
-0.98374, 9, 321, 72, 448
-0.983781, 241, 297, 304, 360
-0.983835, 193, 201, 224, 264
-0.983837, 153, 209, 216, 272
-0.983868, 53, 193, 84, 256
-0.983899, 201, 233, 264, 296
-0.983912, 161, 313, 288, 376
-0.983941, 33, 17, 160, 80
-0.984074, 177, 361, 304, 424
-0.984091, 89, 249, 152, 312
-0.984101, 1, 321, 128, 448
-0.984134, 1, 81, 128, 144
-0.984139, 65, 185, 192, 248
-0.984155, 1, 185, 64, 248
-0.984192, 49, 305, 112, 432
-0.984295, 273, 289, 332, 352
-0.9843, 169, 97, 200, 224
-0.984354, 145, 409, 272, 472
-0.984405, 73, 401, 104, 464
-0.984433, 249, 161, 312, 416
-0.984457, 245, 353, 276, 416
-0.98453, 57, 377, 120, 440
-0.984587, 209, 169, 332, 232
-0.984599, 285, 385, 316, 448
-0.984612, 81, 257, 208, 320
-0.984616, 177, 353, 240, 416
-0.984704, 97, 369, 128, 496
-0.984714, 181, 177, 212, 304
-0.984726, 161, 385, 192, 448
-0.984743, 209, 241, 332, 304
-0.984752, 49, 41, 176, 104
-0.98479, 33, 177, 64, 304
-0.9848, 209, 417, 332, 480
-0.98488, 177, 385, 304, 448
-0.984915, 161, 273, 288, 336
-0.984987, 249, 169, 312, 232
-0.985018, 225, 337, 256, 464
-0.985033, 121, 81, 152, 208
-0.985043, 137, 65, 168, 128
-0.985087, 1, 217, 64, 280
-0.985204, 145, 129, 176, 256
-0.985302, 73, 289, 136, 352
-0.985356, 157, 289, 188, 416
-0.985362, 41, 25, 104, 88
-0.985403, 17, 425, 144, 488
-0.985457, 49, 1, 112, 500
-0.985487, 165, 305, 196, 368
-0.985646, 1, 105, 128, 168
-0.98568, 49, 49, 112, 112
-0.985752, 33, 401, 64, 464
-0.985763, 129, 89, 256, 152
-0.985763, 205, 225, 236, 352
-0.985778, 105, 305, 136, 368
-0.985837, 33, 361, 96, 424
-0.985871, 17, 193, 144, 256
-0.985884, 185, 369, 216, 496
-0.9859, 277, 345, 308, 408
-0.985919, 29, 185, 60, 248
-0.985958, 41, 329, 104, 392
-0.985963, 169, 257, 200, 384
-0.985999, 85, 209, 116, 336
-0.986001, 105, 273, 168, 336
-0.986036, 125, 321, 156, 384
-0.986058, 109, 145, 140, 208
-0.986121, 181, 81, 212, 208
-0.986174, 97, 1, 224, 128
-0.986187, 33, 289, 160, 352
-0.986274, 61, 393, 92, 456
-0.986295, 113, 233, 240, 296
-0.986321, 97, 313, 224, 376
-0.986371, 97, 281, 224, 344
-0.986419, 9, 89, 72, 152
-0.986428, 177, 137, 304, 200
-0.986439, 153, 225, 216, 480
-0.98648, 169, 81, 232, 144
-0.986561, 209, 97, 272, 352
-0.986589, 181, 193, 212, 256
-0.986616, 257, 377, 288, 440
-0.98667, 209, 281, 332, 344
-0.98674, 105, 97, 136, 160
-0.986743, 265, 209, 328, 272
-0.986761, 209, 401, 240, 464
-0.986798, 209, 209, 240, 272
-0.986825, 65, 161, 128, 416
-0.986852, 165, 409, 196, 472
-0.98691, 285, 305, 316, 368
-0.986989, 133, 113, 164, 176
-0.987037, 113, 25, 176, 88
-0.987038, 1, 377, 128, 440
-0.98705, 85, 425, 116, 488
-0.987051, 197, 401, 228, 464
-0.987062, 89, 225, 152, 288
-0.987066, 65, 369, 192, 432
-0.987096, 49, 393, 80, 456
-0.987177, 237, 329, 268, 392
-0.987226, 105, 1, 168, 500
-0.987254, 121, 265, 152, 328
-0.987258, 157, 129, 188, 256
-0.987431, 173, 337, 204, 464
-0.987446, 1, 337, 128, 400
-0.987469, 129, 65, 256, 128
-0.987488, 209, 217, 332, 280
-0.987511, 161, 433, 288, 496
-0.987582, 121, 33, 184, 288
-0.987603, 145, 329, 208, 392
-0.987646, 141, 33, 172, 160
-0.98765, 25, 241, 88, 304
-0.987698, 137, 1, 200, 500
-0.987768, 1, 57, 128, 120
-0.987781, 57, 353, 88, 480
-0.987791, 49, 161, 80, 224
-0.987794, 161, 241, 288, 304
-0.987804, 41, 1, 104, 64
-0.987893, 129, 89, 160, 152
-0.987897, 1, 65, 64, 128
-0.987907, 169, 1, 232, 500
-0.987913, 97, 1, 128, 128
-0.987951, 121, 225, 184, 480
-0.987975, 125, 297, 156, 360
-0.987994, 177, 289, 208, 352
-0.988014, 209, 265, 272, 328
-0.988069, 89, 377, 152, 440
-0.988083, 177, 113, 208, 176
-0.988097, 261, 433, 292, 496
-0.988117, 65, 233, 192, 296
-0.988145, 157, 265, 188, 328
-0.988147, 1, 41, 64, 104
-0.988176, 97, 65, 128, 128
-0.988185, 25, 433, 88, 496
-0.988262, 73, 353, 104, 480
-0.988305, 181, 417, 212, 480
-0.988307, 57, 17, 88, 80
-0.988326, 201, 129, 232, 192
-0.988345, 273, 161, 332, 416
-0.988356, 173, 265, 204, 328
-0.988398, 165, 105, 196, 168
-0.98847, 25, 1, 88, 500
-0.98849, 109, 49, 140, 112
-0.988516, 17, 265, 144, 328
-0.988522, 177, 337, 304, 400
-0.988544, 73, 1, 104, 128
-0.988551, 81, 1, 144, 500
-0.988561, 129, 233, 192, 296
-0.988656, 9, 1, 72, 256
-0.988694, 113, 377, 176, 440
-0.988705, 181, 225, 212, 352
-0.988739, 217, 257, 248, 384
-0.988771, 65, 353, 128, 416
-0.988781, 289, 281, 320, 344
-0.988791, 213, 129, 244, 256
-0.988841, 129, 385, 256, 448
-0.988858, 217, 337, 248, 400
-0.988894, 81, 17, 208, 80
-0.98898, 49, 41, 80, 104
-0.989031, 265, 329, 296, 392
-0.989032, 189, 129, 220, 192
-0.989038, 297, 385, 328, 448
-0.989082, 197, 329, 228, 392
-0.989091, 25, 1, 56, 128
-0.989133, 117, 105, 148, 168
-0.989191, 77, 121, 108, 184
-0.989195, 185, 257, 216, 320
-0.989217, 289, 273, 320, 400
-0.989233, 89, 185, 120, 248
-0.989262, 129, 49, 192, 112
-0.989267, 9, 145, 40, 272
-0.989343, 213, 369, 244, 496
-0.989371, 265, 225, 296, 352
-0.989372, 129, 177, 160, 240
-0.989387, 1, 217, 128, 280
-0.989465, 241, 273, 272, 400
-0.989482, 129, 113, 192, 144
-0.989494, 281, 369, 312, 496
-0.9896, 49, 33, 80, 160
-0.989646, 1, 161, 64, 224
-0.989672, 209, 161, 240, 224
-0.989756, 293, 321, 324, 448
-0.989777, 109, 129, 140, 256
-0.989798, 257, 321, 288, 448
-0.989798, 173, 241, 204, 304
-0.989855, 193, 97, 224, 224
-0.989866, 129, 101, 192, 132
-0.989879, 169, 193, 200, 320
-0.989914, 9, 97, 72, 352
-0.989962, 17, 193, 80, 448
-0.989977, 173, 385, 204, 448
-0.989987, 9, 1, 40, 128
-0.990061, 89, 153, 152, 184
-0.990067, 1, 313, 64, 376
-0.990076, 97, 209, 128, 336
-0.990109, 101, 169, 132, 232
-0.990162, 65, 345, 192, 408
-0.990175, 229, 193, 260, 320
-0.990246, 157, 73, 188, 136
-0.990246, 269, 409, 300, 472
-0.990265, 301, 321, 332, 384
-0.990312, 185, 193, 248, 224
-0.990341, 301, 257, 332, 384
-0.990344, 85, 393, 116, 456
-0.990345, 57, 257, 120, 500
-0.99036, 49, 217, 80, 280
-0.990436, 105, 117, 168, 148
-0.990455, 153, 117, 216, 148
-0.990456, 89, 25, 152, 88
-0.990491, 89, 257, 120, 384
-0.99051, 129, 177, 160, 304
-0.990518, 9, 353, 72, 416
-0.99054, 17, 393, 48, 456
-0.990541, 97, 41, 224, 104
-0.990545, 117, 353, 148, 480
-0.990561, 37, 209, 68, 272
-0.990607, 137, 249, 168, 312
-0.990611, 257, 233, 288, 296
-0.990629, 289, 337, 320, 400
-0.990632, 73, 193, 104, 320
-0.990634, 25, 113, 56, 240
-0.99064, 169, 165, 232, 196
-0.990646, 253, 273, 284, 400
-0.990677, 49, 433, 112, 496
-0.990705, 157, 369, 188, 496
-0.990721, 265, 421, 328, 452
-0.990732, 185, 181, 248, 212
-0.990743, 129, 89, 192, 120
-0.99076, 229, 385, 260, 448
-0.990764, 65, 81, 96, 208
-0.990768, 93, 321, 124, 448
-0.99077, 89, 89, 152, 120
-0.990795, 145, 129, 176, 192
-0.990802, 89, 177, 152, 208
-0.990807, 161, 1, 288, 128
-0.990809, 129, 33, 160, 160
-0.990816, 105, 281, 136, 344
-0.990822, 165, 161, 196, 224
-0.990864, 165, 33, 196, 160
-0.990867, 97, 1, 160, 64
-0.990879, 257, 405, 320, 436
-0.990884, 29, 129, 60, 192
-0.990886, 21, 369, 52, 496
-0.990892, 209, 105, 272, 168
-0.9909, 113, 77, 176, 108
-0.990903, 209, 185, 272, 216
-0.99093, 249, 417, 280, 480
-0.990934, 177, 205, 240, 236
-0.99094, 177, 409, 240, 440
-0.990945, 137, 25, 200, 88
-0.99095, 41, 81, 72, 208
-0.99096, 257, 465, 320, 496
-0.990975, 93, 305, 124, 368
-0.990978, 169, 105, 232, 136
-0.990979, 89, 165, 152, 196
-0.990982, 49, 305, 112, 368
-0.990986, 169, 153, 232, 184
-0.991025, 229, 409, 260, 472
-0.99104, 209, 1, 272, 500
-0.991056, 49, 369, 80, 432
-0.991088, 121, 201, 184, 264
-0.991093, 277, 289, 308, 416
-0.991103, 265, 337, 328, 368
-0.991116, 61, 217, 92, 280
-0.991121, 25, 201, 88, 232
-0.991123, 25, 413, 88, 444
-0.991133, 49, 329, 80, 392
-0.991155, 181, 153, 212, 216
-0.991156, 49, 161, 112, 192
-0.991162, 245, 393, 276, 456
-0.991177, 209, 213, 272, 244
-0.991179, 249, 437, 312, 468
-0.991193, 61, 369, 92, 432
-0.991197, 189, 321, 220, 448
-0.991207, 97, 409, 160, 440
-0.991224, 1, 425, 64, 488
-0.991231, 161, 313, 224, 344
-0.991242, 121, 353, 184, 416
-0.991258, 9, 273, 72, 400
-0.991267, 257, 277, 320, 308
-0.991281, 177, 217, 240, 248
-0.991288, 45, 177, 76, 304
-0.991326, 1, 413, 64, 444
-0.991335, 161, 261, 224, 292
-0.991373, 41, 185, 72, 248
-0.991379, 269, 353, 300, 480
-0.99138, 41, 1, 72, 64
-0.99139, 153, 129, 216, 160
-0.991393, 105, 313, 168, 344
-0.991394, 97, 105, 160, 136
-0.9914, 145, 169, 208, 200
-0.991401, 209, 161, 272, 192
-0.991403, 257, 389, 320, 420
-0.991421, 77, 257, 108, 384
-0.991447, 121, 57, 152, 120
-0.991451, 73, 321, 136, 352
-0.991458, 37, 329, 68, 392
-0.991467, 193, 289, 256, 352
-0.99148, 145, 321, 176, 448
-0.991493, 161, 421, 224, 452
-0.991495, 61, 193, 92, 320
-0.991504, 49, 173, 112, 204
-0.991506, 129, 361, 256, 424
-0.991512, 57, 413, 120, 444
-0.991513, 65, 149, 128, 180
-0.99152, 241, 361, 304, 392
-0.991527, 169, 397, 232, 428
-0.991527, 33, 225, 64, 352
-0.991543, 253, 321, 284, 384
-0.991543, 185, 273, 248, 304
-0.991549, 89, 189, 152, 220
-0.991562, 269, 297, 300, 360
-0.991586, 129, 337, 256, 400
-0.991589, 201, 393, 264, 424
-0.99159, 233, 393, 296, 424
-0.991593, 145, 181, 208, 212
-0.991601, 241, 453, 304, 484
-0.991606, 41, 401, 104, 432
-0.991606, 273, 185, 332, 248
-0.991607, 281, 241, 312, 304
-0.991615, 209, 173, 272, 204
-0.991624, 233, 361, 264, 424
-0.991627, 273, 293, 332, 324
-0.991647, 233, 261, 296, 292
-0.991666, 201, 433, 264, 464
-0.991677, 81, 429, 144, 460
-0.991678, 273, 373, 332, 404
-0.99168, 177, 329, 240, 360
-0.991682, 73, 117, 136, 148
-0.991684, 169, 141, 232, 172
-0.991688, 241, 177, 272, 240
-0.991696, 77, 177, 108, 240
-0.991697, 233, 349, 296, 380
-0.991705, 153, 273, 216, 304
-0.99171, 81, 341, 144, 372
-0.99171, 193, 257, 256, 288
-0.991724, 273, 349, 332, 380
-0.991724, 265, 453, 328, 484
-0.991726, 17, 141, 80, 172
-0.99175, 193, 149, 256, 180
-0.991755, 25, 225, 88, 256
-0.991765, 61, 81, 92, 144
-0.991796, 301, 265, 332, 328
-0.991805, 41, 97, 104, 128
-0.991809, 229, 273, 260, 400
-0.991809, 49, 209, 112, 240
-0.991828, 61, 17, 92, 144
-0.991833, 177, 357, 240, 388
-0.991834, 137, 413, 200, 444
-0.991849, 145, 285, 208, 316
-0.991858, 65, 81, 128, 112
-0.991864, 97, 129, 160, 160
-0.991872, 65, 185, 128, 216
-0.991874, 233, 373, 296, 404
-0.991889, 69, 1, 100, 64
-0.991891, 65, 137, 128, 168
-0.991905, 89, 141, 152, 172
-0.991913, 65, 197, 128, 228
-0.99192, 117, 305, 148, 432
-0.99192, 209, 257, 240, 320
-0.991935, 209, 413, 272, 444
-0.991936, 57, 425, 120, 456
-0.991937, 1, 205, 64, 236
-0.991947, 129, 305, 192, 336
-0.991948, 1, 241, 128, 304
-0.991953, 177, 229, 240, 260
-0.991958, 209, 197, 272, 228
-0.991958, 129, 129, 192, 160
-0.991968, 217, 129, 280, 192
-0.991968, 65, 57, 96, 120
-0.991976, 265, 265, 328, 296
-0.991994, 145, 197, 208, 228
-0.992004, 133, 321, 164, 448
-0.992008, 141, 257, 172, 384
-0.992011, 145, 393, 208, 424
-0.992013, 249, 325, 312, 356
-0.992026, 37, 161, 68, 224
-0.992032, 97, 257, 160, 500
-0.992033, 17, 201, 48, 264
-0.992034, 121, 189, 184, 220
-0.992038, 169, 301, 232, 332
-0.992046, 73, 57, 136, 88
-0.992053, 197, 353, 228, 416
-0.992063, 233, 1, 296, 500
-0.992076, 33, 345, 96, 376
-0.992083, 293, 209, 324, 336
-0.992095, 193, 425, 224, 488
-0.992096, 193, 245, 256, 276
-0.992101, 233, 465, 296, 496
-0.992103, 129, 329, 192, 360
-0.992103, 57, 37, 120, 68
-0.992106, 153, 245, 216, 276
-0.99211, 1, 393, 64, 424
-0.992113, 25, 33, 88, 64
-0.992125, 1, 21, 64, 52
-0.992143, 1, 1, 64, 500
-0.992156, 105, 349, 168, 380
-0.992156, 113, 397, 176, 428
-0.992164, 237, 145, 268, 272
-0.992165, 177, 113, 304, 176
-0.992182, 97, 201, 160, 232
-0.992187, 273, 1, 332, 500
-0.992191, 201, 361, 264, 392
-0.992194, 233, 289, 296, 320
-0.992198, 137, 317, 200, 348
-0.9922, 209, 225, 272, 256
-0.992201, 241, 417, 304, 448
-0.992217, 73, 69, 136, 100
-0.992218, 49, 333, 112, 364
-0.99222, 65, 21, 128, 52
-0.992225, 97, 325, 160, 356
-0.99223, 161, 93, 224, 124
-0.992241, 1, 145, 32, 208
-0.992246, 153, 313, 184, 376
-0.992253, 193, 137, 256, 168
-0.992262, 89, 261, 152, 292
-0.992275, 97, 49, 160, 80
-0.992277, 89, 293, 152, 324
-0.992282, 209, 349, 272, 380
-0.992283, 57, 221, 120, 252
-0.992294, 125, 153, 156, 216
-0.992301, 233, 405, 296, 436
-0.992301, 41, 85, 104, 116
-0.992308, 145, 161, 176, 224
-0.992315, 161, 433, 224, 464
-0.992323, 9, 93, 72, 124
-0.992327, 185, 285, 248, 316
-0.992376, 97, 41, 128, 104
-0.992383, 117, 85, 148, 116
-0.992406, 113, 337, 144, 400
-0.992441, 161, 1, 224, 128
-0.992572, 93, 153, 124, 184
-0.992579, 217, 313, 248, 376
-0.992601, 257, 369, 288, 496
-0.99261, 81, 89, 112, 152
-0.99263, 157, 109, 188, 140
-0.992701, 21, 225, 52, 352
-0.992704, 277, 241, 308, 368
-0.992705, 193, 165, 224, 196
-0.992712, 193, 181, 224, 212
-0.992729, 77, 161, 108, 192
-0.992751, 45, 401, 76, 432
-0.992757, 193, 205, 224, 236
-0.992758, 153, 417, 184, 480
-0.99277, 273, 265, 304, 328
-0.99277, 105, 121, 136, 152
-0.992774, 165, 313, 196, 344
-0.992775, 125, 257, 156, 384
-0.992801, 73, 369, 104, 432
-0.992823, 193, 193, 224, 224
-0.992826, 289, 421, 320, 452
-0.992833, 81, 425, 112, 456
-0.992835, 145, 97, 176, 128
-0.992844, 213, 197, 244, 228
-0.992845, 141, 113, 172, 144
-0.992862, 101, 141, 132, 172
-0.992863, 25, 409, 56, 440
-0.992868, 117, 101, 148, 132
-0.99287, 93, 165, 124, 196
-0.992883, 265, 341, 296, 372
-0.992892, 93, 425, 124, 456
-0.992895, 73, 65, 136, 320
-0.992897, 157, 129, 188, 160
-0.992905, 181, 405, 212, 436
-0.992916, 37, 1, 68, 128
-0.992939, 169, 117, 200, 148
-0.99294, 109, 309, 140, 340
-0.992954, 273, 417, 304, 448
-0.992956, 157, 241, 188, 368
-0.992967, 265, 389, 296, 420
-0.992977, 89, 117, 120, 148
-0.99298, 97, 93, 128, 124
-0.99299, 269, 433, 300, 464
-0.992996, 109, 409, 140, 440
-0.993001, 213, 185, 244, 216
-0.993003, 37, 413, 68, 444
-0.993005, 137, 85, 168, 116
-0.993007, 81, 173, 112, 204
-0.993008, 53, 197, 84, 228
-0.993009, 37, 189, 68, 220
-0.993012, 33, 201, 64, 232
-0.993022, 213, 209, 244, 240
-0.993036, 89, 141, 120, 172
-0.993044, 137, 265, 168, 296
-0.993045, 197, 329, 228, 360
-0.993046, 189, 145, 220, 176
-0.993056, 277, 405, 308, 436
-0.993057, 201, 133, 232, 164
-0.993065, 157, 97, 188, 128
-0.993066, 277, 469, 308, 500
-0.993078, 177, 305, 208, 336
-0.993082, 181, 129, 212, 256
-0.993085, 105, 289, 136, 416
-0.993086, 261, 401, 292, 432
-0.993086, 129, 113, 160, 144
-0.993087, 205, 221, 236, 252
-0.993087, 225, 145, 256, 272
-0.993091, 193, 233, 224, 264
-0.993092, 261, 461, 292, 492
-0.993093, 213, 305, 244, 432
-0.993093, 289, 293, 320, 324
-0.993108, 97, 181, 128, 212
-0.993112, 193, 405, 224, 436
-0.993115, 97, 81, 128, 112
-0.993124, 281, 433, 312, 464
-0.993125, 289, 393, 320, 424
-0.993125, 73, 413, 104, 444
-0.993129, 257, 429, 288, 460
-0.99313, 281, 337, 312, 368
-0.993134, 301, 421, 332, 452
-0.993137, 249, 325, 280, 356
-0.99314, 61, 409, 92, 440
-0.993143, 165, 417, 196, 448
-0.993145, 229, 393, 260, 424
-0.993152, 193, 417, 224, 448
-0.993153, 201, 145, 232, 176
-0.993156, 245, 377, 276, 408
-0.993157, 189, 133, 220, 164
-0.993165, 61, 397, 92, 428
-0.993166, 197, 357, 228, 388
-0.993166, 245, 405, 276, 436
-0.993167, 217, 357, 248, 388
-0.99317, 173, 257, 204, 288
-0.99317, 165, 301, 196, 332
-0.993171, 109, 153, 140, 184
-0.993174, 97, 105, 128, 136
-0.993176, 169, 97, 200, 128
-0.993178, 225, 409, 256, 440
-0.993181, 281, 381, 312, 412
-0.993181, 53, 209, 84, 240
-0.993181, 181, 201, 212, 232
-0.993182, 93, 129, 124, 160
-0.993187, 253, 337, 284, 368
-0.993188, 209, 413, 240, 444
-0.993191, 277, 457, 308, 488
-0.993193, 213, 173, 244, 204
-0.993194, 249, 225, 280, 352
-0.993195, 117, 73, 148, 104
-0.993202, 253, 365, 284, 396
-0.993212, 125, 181, 156, 212
-0.993215, 57, 221, 88, 252
-0.993217, 237, 345, 268, 376
-0.99322, 117, 113, 148, 144
-0.99322, 193, 1, 256, 256
-0.993223, 45, 345, 76, 376
-0.993223, 261, 449, 292, 480
-0.993229, 37, 133, 68, 164
-0.993237, 293, 469, 324, 500
-0.993241, 277, 445, 308, 476
-0.993241, 277, 325, 308, 356
-0.993245, 49, 413, 80, 444
-0.993252, 177, 417, 208, 448
-0.993255, 113, 345, 144, 376
-0.993255, 237, 417, 268, 448
-0.993262, 49, 185, 80, 216
-0.993263, 205, 397, 236, 428
-0.993265, 193, 245, 224, 276
-0.993273, 173, 393, 204, 424
-0.993273, 153, 409, 184, 440
-0.993276, 301, 385, 332, 416
-0.993282, 209, 157, 240, 188
-0.993283, 81, 185, 112, 216
-0.993284, 121, 401, 152, 432
-0.993285, 301, 409, 332, 440
-0.993286, 197, 437, 228, 468
-0.993288, 233, 197, 264, 228
-0.993288, 261, 417, 292, 448
-0.993291, 181, 317, 212, 348
-0.993292, 177, 189, 208, 220
-0.993292, 69, 217, 100, 248
-0.993295, 101, 297, 132, 328
-0.993297, 241, 361, 272, 392
-0.993297, 105, 49, 136, 80
-0.993299, 53, 25, 84, 56
-0.993299, 265, 369, 296, 400
-0.9933, 25, 145, 56, 176
-0.9933, 81, 197, 112, 228
-0.993304, 129, 101, 160, 132
-0.993344, 41, 161, 104, 416
-0.993497, 57, 241, 88, 368
-0.993518, 65, 377, 320, 440
-0.993598, 21, 49, 52, 176
-0.993617, 265, 97, 328, 224
-0.99364, 265, 273, 296, 400
-0.993687, 69, 145, 100, 272
-0.99369, 33, 113, 288, 176
-0.99376, 137, 369, 168, 496
-0.993835, 1, 201, 256, 264
-0.993867, 293, 369, 324, 496
-0.993903, 97, 137, 112, 200
-0.993919, 193, 81, 320, 144
-0.993985, 45, 225, 76, 352
-0.994022, 1, 145, 332, 208
-0.994067, 1, 409, 256, 472
-0.994072, 65, 89, 320, 152
-0.994076, 129, 9, 256, 72
-0.9941, 33, 225, 288, 288
-0.994239, 53, 129, 84, 256
-0.994258, 21, 177, 52, 304
-0.994305, 249, 177, 280, 304
-0.994412, 37, 273, 68, 400
-0.994502, 273, 65, 332, 320
-0.994505, 107, 113, 122, 176
-0.994506, 269, 161, 300, 288
-0.994615, 203, 129, 218, 192
-0.994664, 81, 109, 208, 140
-0.994686, 115, 89, 130, 152
-0.994701, 81, 97, 208, 128
-0.994716, 1, 177, 256, 240
-0.99474, 65, 157, 192, 188
-0.994741, 85, 1, 116, 128
-0.994742, 1, 417, 332, 480
-0.994797, 9, 209, 40, 336
-0.994832, 37, 129, 68, 256
-0.994852, 205, 81, 236, 208
-0.994982, 285, 161, 316, 288
-0.995008, 201, 289, 232, 416
-0.99501, 57, 305, 88, 432
-0.995068, 5, 65, 36, 192
-0.99509, 1, 413, 128, 444
-0.995107, 33, 65, 288, 128
-0.995119, 153, 33, 184, 160
-0.995133, 109, 89, 124, 152
-0.995147, 133, 129, 164, 256
-0.995157, 65, 353, 320, 416
-0.995181, 33, 153, 288, 216
-0.995232, 97, 145, 224, 176
-0.995249, 161, 41, 288, 104
-0.995261, 85, 369, 116, 496
-0.995357, 129, 205, 256, 236
-0.995363, 65, 209, 192, 272
-0.995396, 129, 193, 256, 224
-0.995407, 1, 217, 332, 280
-0.995416, 81, 85, 208, 116
-0.995442, 65, 433, 320, 496
-0.995477, 81, 121, 208, 152
-0.995479, 1, 305, 332, 368
-0.995521, 91, 153, 106, 216
-0.995532, 1, 313, 256, 376
-0.995532, 177, 1, 304, 64
-0.99557, 95, 177, 110, 240
-0.995573, 81, 417, 208, 448
-0.995579, 65, 281, 320, 344
-0.9956, 177, 193, 304, 224
-0.995626, 285, 385, 300, 448
-0.995632, 169, 145, 200, 272
-0.995674, 1, 257, 256, 320
-0.995679, 113, 113, 128, 176
-0.995702, 39, 393, 54, 456
-0.995712, 103, 153, 118, 216
-0.995724, 295, 409, 310, 472
-0.995732, 65, 405, 192, 436
-0.995751, 57, 185, 72, 248
-0.995787, 177, 205, 304, 236
-0.995811, 111, 57, 126, 120
-0.995822, 17, 161, 144, 192
-0.995826, 249, 129, 280, 256
-0.995846, 1, 369, 32, 496
-0.995861, 145, 417, 272, 448
-0.995877, 141, 89, 156, 152
-0.995885, 97, 169, 224, 200
-0.995919, 285, 425, 300, 488
-0.995921, 259, 353, 274, 416
-0.995934, 209, 193, 224, 256
-0.995938, 193, 417, 320, 448
-0.995976, 141, 177, 172, 304
-0.995982, 83, 401, 98, 464
-0.995984, 65, 33, 320, 96
-0.995987, 297, 161, 328, 288
-0.99601, 167, 97, 182, 160
-0.996016, 301, 393, 316, 456
-0.996038, 129, 181, 256, 212
-0.996047, 1, 393, 332, 456
-0.996049, 183, 385, 198, 448
-0.996051, 193, 321, 320, 352
-0.996054, 179, 305, 194, 368
-0.996065, 295, 385, 310, 448
-0.996085, 1, 101, 128, 132
-0.996086, 301, 417, 316, 480
-0.99611, 209, 401, 224, 464
-0.996114, 193, 169, 208, 232
-0.996114, 1, 17, 332, 80
-0.996118, 31, 185, 46, 248
-0.996122, 77, 401, 92, 464
-0.996123, 269, 353, 284, 416
-0.996132, 109, 225, 140, 352
-0.996136, 33, 85, 160, 116
-0.996137, 209, 225, 224, 288
-0.996139, 277, 345, 292, 408
-0.996164, 177, 405, 304, 436
-0.99617, 189, 129, 220, 384
-0.99617, 41, 177, 56, 240
-0.996175, 67, 193, 82, 256
-0.996192, 81, 305, 112, 432
-0.996192, 215, 185, 230, 248
-0.996193, 101, 113, 116, 176
-0.9962, 157, 89, 172, 152
-0.996212, 193, 225, 224, 480
-0.996226, 173, 289, 188, 352
-0.996229, 33, 181, 160, 212
-0.996229, 131, 81, 146, 144
-0.996251, 1, 121, 332, 184
-0.996263, 81, 193, 208, 224
-0.996271, 129, 121, 256, 152
-0.996277, 185, 273, 200, 336
-0.996341, 309, 409, 324, 472
-0.996363, 203, 401, 218, 464
-0.996368, 65, 393, 80, 456
-0.996371, 277, 393, 292, 456
-0.996385, 1, 201, 128, 232
-0.996401, 209, 429, 332, 460
-0.996406, 113, 313, 240, 344
-0.996435, 131, 313, 146, 376
-0.996444, 177, 181, 304, 212
-0.996458, 129, 93, 256, 124
-0.996464, 95, 409, 110, 472
-0.996481, 121, 81, 136, 144
-0.996487, 215, 401, 230, 464
-0.996488, 33, 1, 288, 64
-0.996496, 281, 321, 296, 384
-0.996499, 177, 409, 192, 472
-0.996514, 195, 233, 210, 296
-0.996534, 17, 149, 144, 180
-0.996542, 193, 193, 208, 256
-0.996547, 161, 229, 288, 260
-0.996549, 193, 277, 320, 308
-0.996558, 141, 65, 156, 128
-0.996562, 251, 353, 266, 416
-0.996563, 31, 401, 46, 464
-0.996568, 225, 81, 288, 208
-0.996568, 295, 281, 310, 344
-0.996579, 203, 185, 218, 248
-0.996593, 205, 153, 220, 216
-0.996608, 97, 269, 224, 300
-0.996612, 145, 277, 272, 308
-0.996617, 169, 121, 184, 184
-0.99662, 61, 17, 76, 80
-0.996622, 159, 129, 174, 192
-0.996632, 1, 425, 128, 456
-0.996641, 233, 65, 296, 320
-0.996642, 241, 409, 256, 472
-0.996655, 45, 401, 60, 464
-0.996662, 129, 257, 144, 320
-0.996665, 161, 161, 288, 192
-0.99667, 1, 265, 332, 328
-0.996674, 203, 217, 218, 280
-0.996678, 151, 89, 166, 152
-0.996679, 45, 201, 60, 264
-0.996679, 103, 81, 118, 144
-0.996685, 1, 169, 332, 232
-0.996688, 237, 97, 268, 224
-0.996691, 197, 401, 212, 464
-0.996705, 277, 369, 292, 432
-0.996713, 129, 217, 256, 248
-0.996714, 93, 129, 124, 384
-0.996729, 1, 81, 332, 144
-0.996735, 153, 65, 168, 128
-0.996736, 29, 209, 44, 272
-0.996745, 271, 377, 286, 440
-0.99676, 39, 201, 54, 264
-0.996773, 161, 309, 288, 340
-0.996781, 191, 393, 206, 456
-0.996805, 1, 217, 128, 248
-0.996813, 25, 321, 56, 448
-0.996822, 81, 181, 208, 212
-0.996824, 267, 321, 282, 384
-0.996825, 145, 437, 272, 468
-0.996827, 175, 105, 190, 168
-0.996836, 307, 433, 322, 496
-0.99685, 215, 217, 230, 280
-0.996853, 209, 221, 332, 252
-0.996863, 283, 345, 298, 408
-0.996865, 39, 145, 54, 208
-0.996872, 117, 49, 132, 112
-0.996876, 113, 433, 240, 496
-0.996878, 301, 281, 316, 344
-0.996879, 187, 209, 202, 272
-0.996886, 241, 385, 256, 448
-0.996903, 139, 265, 154, 328
-0.996906, 161, 149, 288, 180
-0.996922, 237, 321, 252, 384
-0.996922, 51, 329, 66, 392
-0.996931, 213, 345, 228, 408
-0.996939, 285, 257, 316, 500
-0.996946, 145, 265, 272, 296
-0.996947, 209, 349, 332, 380
-0.996958, 205, 425, 220, 488
-0.996964, 167, 385, 182, 448
-0.996964, 177, 385, 192, 448
-0.996998, 129, 109, 256, 140
-0.99701, 129, 325, 256, 356
-0.997019, 317, 433, 332, 496
-0.997031, 249, 393, 264, 456
-0.997031, 175, 265, 190, 328
-0.997041, 193, 333, 320, 364
-0.997046, 223, 401, 238, 464
-0.99706, 177, 361, 304, 392
-0.997067, 187, 185, 202, 248
-0.997075, 1, 113, 128, 144
-0.997082, 293, 257, 308, 320
-0.997082, 203, 321, 218, 384
-0.997085, 209, 249, 332, 280
-0.997094, 65, 257, 192, 288
-0.997095, 59, 49, 74, 112
-0.997097, 53, 33, 68, 96
-0.99711, 45, 329, 60, 392
-0.997112, 249, 417, 264, 480
-0.997121, 263, 417, 278, 480
-0.997131, 17, 33, 144, 64
-0.997137, 109, 137, 124, 200
-0.997143, 209, 369, 224, 432
-0.997146, 81, 429, 208, 460
-0.997146, 67, 17, 82, 80
-0.997161, 111, 17, 126, 80
-0.997167, 85, 377, 100, 440
-0.997169, 89, 425, 104, 488
-0.99717, 287, 305, 302, 368
-0.997171, 209, 289, 332, 320
-0.997175, 51, 153, 66, 216
-0.997176, 211, 161, 226, 224
-0.997182, 113, 157, 240, 188
-0.997185, 71, 217, 86, 280
-0.997186, 63, 137, 78, 200
-0.997193, 267, 233, 282, 296
-0.997196, 53, 81, 84, 208
-0.99721, 181, 225, 212, 480
-0.997212, 105, 97, 136, 352
-0.997212, 261, 329, 276, 392
-0.997216, 83, 329, 98, 392
-0.997222, 65, 389, 192, 420
-0.997222, 249, 329, 264, 392
-0.997225, 81, 81, 96, 144
-0.997229, 45, 17, 60, 80
-0.997234, 97, 149, 112, 180
-0.997239, 95, 97, 110, 160
-0.997241, 109, 113, 124, 144
-0.997245, 49, 325, 176, 356
-0.997246, 167, 289, 182, 352
-0.997246, 177, 393, 304, 424
-0.99725, 17, 137, 144, 168
-0.997255, 51, 185, 66, 248
-0.997255, 259, 377, 274, 440
-0.997273, 43, 121, 58, 184
-0.997273, 275, 257, 290, 320
-0.997277, 255, 425, 270, 488
-0.99728, 57, 393, 72, 456
-0.997282, 209, 373, 332, 404
-0.997283, 177, 453, 304, 484
-0.997284, 193, 257, 208, 320
-0.997287, 95, 421, 110, 452
-0.997288, 33, 73, 160, 104
-0.997291, 201, 97, 232, 352
-0.997308, 161, 249, 288, 280
-0.997347, 209, 465, 332, 496
-0.997366, 65, 133, 192, 164
-0.997382, 161, 289, 288, 320
-0.997397, 103, 137, 118, 168
-0.997406, 1, 397, 128, 428
-0.997418, 225, 257, 256, 500
-0.997423, 33, 229, 160, 260
-0.997431, 33, 353, 160, 384
-0.997448, 49, 205, 176, 236
-0.997484, 1, 377, 128, 408
-0.997494, 129, 401, 256, 432
-0.997496, 17, 21, 144, 52
-0.997508, 209, 225, 240, 480
-0.997523, 169, 113, 184, 144
-0.997554, 39, 409, 54, 440
-0.997559, 81, 297, 208, 328
-0.997581, 291, 409, 306, 440
-0.997606, 181, 33, 212, 160
-0.997622, 107, 125, 122, 156
-0.997626, 65, 217, 192, 248
-0.997633, 1, 241, 332, 304
-0.997634, 209, 301, 332, 332
-0.997643, 81, 73, 208, 104
-0.997659, 1, 193, 332, 256
-0.997662, 209, 165, 332, 196
-0.997674, 119, 85, 134, 116
-0.997703, 17, 337, 144, 368
-0.99771, 193, 265, 320, 296
-0.99772, 297, 421, 312, 452
-0.997734, 97, 285, 224, 316
-0.997738, 113, 229, 240, 260
-0.997741, 177, 313, 192, 344
-0.997744, 163, 117, 178, 148
-0.997789, 81, 129, 112, 384
-0.997789, 275, 333, 290, 364
-0.997789, 115, 97, 130, 128
-0.997804, 129, 133, 256, 164
-0.997817, 171, 305, 186, 336
-0.99782, 109, 85, 124, 116
-0.997839, 185, 17, 248, 144
-0.997848, 203, 133, 218, 164
-0.997864, 59, 189, 74, 220
-0.997865, 49, 273, 176, 304
-0.997871, 33, 45, 160, 76
-0.997885, 281, 417, 296, 448
-0.99789, 91, 173, 106, 204
-0.997898, 301, 225, 332, 480
-0.997901, 195, 405, 210, 436
-0.997904, 109, 101, 124, 132
-0.997911, 179, 417, 194, 448
-0.997916, 1, 437, 128, 468
-0.997922, 69, 221, 84, 252
-0.997923, 99, 161, 114, 192
-0.997932, 203, 145, 218, 176
-0.997963, 163, 97, 178, 128
-0.997967, 157, 117, 172, 148
-0.997974, 151, 117, 166, 148
-0.997983, 1, 257, 128, 288
-0.998001, 285, 433, 300, 464
-0.998005, 291, 421, 306, 452
-0.998008, 129, 161, 160, 416
-0.998018, 281, 337, 296, 368
-0.998027, 33, 309, 160, 340
-0.998044, 177, 297, 192, 328
-0.998046, 129, 81, 256, 112
-0.998046, 101, 177, 116, 208
-0.998056, 81, 337, 208, 368
-0.998058, 283, 405, 298, 436
-0.99806, 97, 37, 224, 68
-0.998067, 101, 425, 116, 456
-0.998073, 85, 1, 116, 256
-0.998073, 141, 93, 156, 124
-0.998077, 277, 385, 292, 416
-0.998078, 187, 193, 202, 224
-0.998082, 271, 345, 286, 376
-0.998087, 273, 225, 304, 480
-0.99809, 111, 73, 126, 104
-0.998095, 175, 117, 190, 148
-0.998097, 177, 133, 304, 164
-0.998104, 17, 125, 144, 156
-0.998104, 1, 41, 332, 104
-0.998117, 161, 465, 288, 496
-0.998124, 283, 469, 298, 500
-0.998124, 207, 213, 222, 244
-0.998125, 17, 61, 144, 92
-0.998128, 129, 261, 144, 292
-0.998133, 65, 373, 192, 404
-0.998133, 193, 441, 320, 472
-0.998135, 1, 1, 128, 32
-0.998137, 249, 257, 280, 500
-0.998139, 207, 325, 222, 356
-0.998139, 45, 413, 60, 444
-0.998139, 29, 217, 44, 248
-0.998149, 51, 397, 66, 428
-0.998152, 187, 409, 202, 440
-0.998155, 117, 409, 132, 440
-0.998159, 267, 365, 282, 396
-0.99816, 203, 157, 218, 188
-0.998164, 97, 241, 224, 272
-0.998166, 273, 429, 288, 460
-0.998167, 91, 161, 106, 192
-0.998167, 283, 325, 298, 356
-0.998172, 201, 405, 216, 436
-0.998174, 63, 221, 78, 252
-0.998179, 31, 197, 46, 228
-0.998189, 123, 73, 138, 104
-0.99819, 129, 341, 256, 372
-0.998192, 209, 1, 332, 128
-0.998196, 81, 49, 208, 80
-0.998202, 113, 253, 240, 284
-0.998203, 215, 193, 230, 224
-0.998206, 183, 305, 198, 336
-0.998208, 33, 241, 160, 272
-0.998209, 173, 65, 204, 320
-0.998214, 303, 421, 318, 452
-0.998218, 159, 129, 174, 160
-0.998219, 205, 193, 220, 224
-0.998222, 81, 1, 208, 32
-0.998223, 175, 105, 190, 136
-0.998224, 173, 421, 188, 452
-0.998225, 51, 341, 66, 372
-0.998229, 61, 393, 76, 424
-0.99823, 205, 229, 220, 260
-0.998239, 211, 177, 226, 208
-0.998242, 275, 417, 290, 448
-0.998244, 33, 293, 160, 324
-0.998244, 285, 161, 316, 416
-0.99825, 317, 461, 332, 492
-0.998251, 1, 345, 332, 408
-0.998257, 141, 113, 156, 144
-0.998269, 59, 405, 74, 436
-0.998273, 291, 433, 306, 464
-0.998274, 241, 409, 256, 440
-0.998276, 115, 109, 130, 140
-0.998281, 237, 193, 268, 448
-0.998284, 131, 89, 146, 120
-0.99829, 51, 185, 66, 216
-0.998292, 257, 361, 272, 392
-0.998292, 185, 397, 200, 428
-0.998301, 277, 357, 292, 388
-0.998311, 209, 417, 224, 448
-0.998311, 211, 141, 226, 172
-0.998316, 89, 425, 104, 456
-0.998318, 85, 413, 100, 444
-0.99832, 281, 373, 296, 404
-0.998321, 169, 101, 184, 132
-0.998323, 139, 265, 154, 296
-0.998325, 279, 449, 294, 480
-0.998328, 101, 125, 116, 156
-0.998338, 277, 405, 292, 436
-0.998341, 273, 465, 288, 496
-0.998342, 139, 81, 154, 112
-0.998342, 95, 193, 110, 224
-0.998344, 283, 393, 298, 424
-0.998356, 205, 437, 220, 468
-0.998358, 155, 85, 170, 116
-0.998366, 85, 151, 116, 166
-0.998366, 61, 405, 92, 420
-0.998366, 213, 187, 244, 202
-0.998366, 29, 207, 60, 222
-0.998367, 293, 321, 324, 336
-0.998367, 161, 413, 192, 428
-0.998368, 213, 173, 244, 188
-0.998368, 301, 423, 332, 438
-0.998368, 33, 417, 64, 432
-0.998368, 25, 135, 56, 150
-0.998369, 189, 431, 220, 446
-0.998369, 213, 211, 244, 226
-0.998369, 285, 445, 316, 460
-0.99837, 57, 341, 88, 356
-0.99837, 53, 203, 84, 218
-0.99837, 41, 193, 72, 208
-0.99837, 285, 339, 316, 354
-0.99837, 97, 177, 128, 192
-0.99837, 81, 225, 112, 480
-0.998371, 261, 383, 292, 398
-0.998371, 253, 333, 284, 348
-0.998371, 65, 17, 192, 48
-0.998372, 201, 147, 232, 162
-0.998372, 189, 141, 220, 156
-0.998372, 193, 261, 224, 276
-0.998372, 243, 393, 258, 424
-0.998373, 277, 409, 308, 424
-0.998374, 37, 133, 52, 164
-0.998374, 221, 361, 252, 376
-0.998375, 241, 371, 272, 386
-0.998375, 117, 271, 148, 286
-0.998375, 65, 209, 80, 240
-0.998375, 189, 151, 220, 166
-0.998376, 53, 31, 84, 46
-0.998377, 265, 467, 296, 482
-0.998377, 53, 227, 84, 242
-0.998377, 101, 409, 132, 424
-0.998378, 37, 343, 68, 358
-0.998378, 195, 237, 210, 268
-0.99838, 105, 157, 136, 172
-0.998381, 89, 145, 120, 160
-0.998381, 193, 173, 224, 188
-0.998381, 211, 225, 226, 256
-0.998382, 89, 101, 120, 116
-0.998384, 299, 281, 314, 312
-0.998385, 281, 425, 312, 440
-0.998385, 297, 295, 328, 310
-0.998386, 269, 345, 300, 360
-0.998386, 137, 271, 168, 286
-0.998388, 133, 83, 164, 98
-0.998388, 121, 311, 152, 326
-0.998389, 97, 115, 128, 130
-0.998389, 49, 91, 80, 106
-0.998389, 173, 263, 204, 278
-0.998389, 253, 365, 284, 380
-0.998392, 89, 137, 120, 152
-0.998392, 97, 95, 128, 110
-0.998393, 101, 139, 132, 154
-0.998394, 205, 229, 236, 244
-0.998394, 241, 325, 272, 340
-0.998394, 97, 87, 128, 102
-0.998394, 197, 205, 212, 236
-0.998395, 61, 411, 92, 426
-0.998395, 177, 313, 208, 328
-0.998395, 177, 307, 208, 322
-0.998396, 141, 113, 172, 128
-0.998396, 77, 175, 108, 190
-0.998397, 271, 381, 286, 412
-0.998399, 109, 315, 140, 330
-0.998399, 103, 313, 118, 344
-0.998399, 97, 189, 128, 204
-0.998399, 293, 435, 324, 450
-0.9984, 173, 421, 204, 436
-0.9984, 265, 407, 296, 422
-0.998401, 193, 199, 224, 214
-0.998401, 259, 393, 274, 424
-0.998402, 205, 327, 236, 342
-0.998402, 75, 409, 90, 440
-0.998404, 213, 369, 244, 384
-0.998404, 199, 417, 214, 448
-0.998405, 101, 145, 132, 160
-0.998405, 117, 83, 148, 98
-0.998405, 205, 223, 236, 238
-0.998406, 193, 185, 208, 216
-0.998406, 303, 321, 318, 352
-0.998406, 177, 415, 208, 430
-0.998408, 201, 361, 232, 376
-0.998408, 299, 297, 314, 328
-0.998408, 65, 61, 192, 92
-0.998408, 265, 349, 280, 380
-0.998409, 117, 111, 148, 126
-0.998409, 53, 195, 84, 210
-0.998409, 157, 97, 172, 128
-0.99841, 249, 409, 264, 440
-0.998411, 137, 99, 168, 114
-0.998411, 153, 109, 184, 124
-0.998411, 251, 349, 266, 380
-0.998411, 213, 213, 228, 244
-0.998413, 193, 213, 224, 228
-0.998413, 213, 193, 244, 208
-0.998414, 233, 351, 264, 366
-0.998415, 195, 257, 210, 288
-0.998415, 289, 419, 320, 434
-0.998415, 197, 367, 228, 382
-0.998416, 285, 295, 316, 310
-0.998416, 273, 437, 304, 452
-0.998417, 97, 183, 128, 198
-0.998419, 153, 129, 184, 384
-0.998419, 113, 349, 144, 364
-0.99842, 93, 123, 124, 138
-0.998421, 265, 391, 296, 406
-0.998421, 253, 401, 284, 416
-0.998421, 97, 109, 128, 124
-0.998422, 213, 129, 244, 384
-0.998422, 281, 473, 312, 488
-0.998423, 109, 117, 140, 132
-0.998423, 161, 381, 288, 412
-0.998425, 65, 223, 96, 238
-0.998425, 165, 109, 196, 124
-0.998425, 113, 409, 144, 424
-0.998425, 259, 433, 274, 464
-0.998425, 193, 327, 224, 342
-0.998428, 185, 409, 216, 424
-0.998429, 189, 193, 220, 208
-0.99843, 37, 407, 68, 422
-0.99843, 25, 1, 56, 256
-0.99843, 117, 101, 148, 116
-0.99843, 101, 133, 132, 148
-0.99843, 89, 431, 120, 446
-0.998432, 47, 197, 62, 228
-0.998434, 281, 333, 312, 348
-0.998435, 193, 207, 224, 222
-0.998436, 165, 317, 196, 332
-0.998436, 193, 167, 224, 182
-0.998438, 77, 169, 108, 184
-0.998441, 297, 387, 328, 402
-0.998441, 193, 185, 224, 200
-0.998442, 193, 179, 224, 194
-0.998442, 97, 151, 128, 166
-0.998444, 33, 409, 48, 440
-0.998445, 281, 387, 312, 402
-0.998445, 33, 201, 64, 216
-0.998446, 269, 425, 300, 440
-0.998447, 137, 91, 168, 106
-0.998448, 127, 345, 142, 376
-0.998451, 77, 163, 108, 178
-0.998451, 67, 393, 82, 424
-0.998452, 53, 201, 68, 232
-0.998452, 57, 341, 72, 372
-0.998454, 261, 431, 292, 446
-0.998455, 117, 95, 148, 110
-0.998455, 115, 125, 130, 156
-0.998462, 93, 171, 124, 186
-0.998463, 293, 429, 324, 444
-0.998464, 251, 361, 266, 392
-0.998465, 41, 197, 56, 228
-0.998466, 261, 225, 292, 480
-0.998469, 93, 425, 124, 440
-0.998471, 165, 307, 196, 322
-0.998474, 157, 117, 188, 132
-0.998475, 45, 413, 76, 428
-0.998482, 105, 123, 136, 138
-0.998482, 93, 165, 124, 180
-0.998483, 93, 157, 124, 172
-0.998489, 281, 431, 312, 446
-0.998493, 37, 97, 68, 352
-0.998497, 257, 431, 320, 446
-0.998498, 129, 117, 192, 132
-0.998504, 141, 129, 172, 384
-0.998505, 1, 273, 128, 304
-0.998507, 89, 159, 152, 174
-0.998507, 269, 339, 300, 354
-0.998525, 81, 425, 112, 440
-0.998525, 185, 193, 248, 208
-0.998525, 25, 411, 56, 426
-0.998526, 97, 121, 160, 136
-0.998534, 209, 153, 332, 184
-0.998539, 117, 89, 148, 104
-0.998548, 129, 105, 192, 120
-0.998552, 169, 167, 232, 182
-0.998554, 129, 111, 192, 126
-0.998557, 89, 153, 152, 168
-0.998563, 129, 97, 192, 112
-0.998564, 185, 185, 248, 200
-0.998566, 113, 127, 176, 142
-0.998567, 105, 87, 168, 102
-0.998569, 265, 475, 328, 490
-0.998571, 113, 389, 240, 420
-0.998575, 177, 217, 240, 232
-0.998577, 21, 193, 52, 448
-0.998577, 273, 353, 332, 368
-0.998577, 273, 295, 332, 310
-0.998577, 89, 181, 152, 196
-0.99858, 209, 237, 332, 268
-0.998582, 209, 325, 272, 340
-0.998583, 217, 359, 280, 374
-0.998583, 249, 409, 312, 424
-0.998583, 169, 161, 232, 176
-0.998588, 25, 203, 88, 218
-0.998591, 49, 163, 112, 178
-0.998591, 97, 93, 160, 108
-0.998592, 273, 385, 332, 400
-0.998592, 217, 351, 280, 366
-0.998593, 209, 189, 272, 204
-0.998594, 65, 147, 128, 162
-0.998595, 49, 153, 112, 168
-0.998595, 41, 413, 104, 428
-0.998596, 265, 391, 328, 406
-0.998596, 241, 391, 304, 406
-0.998596, 89, 187, 152, 202
-0.998598, 97, 427, 160, 442
-0.9986, 241, 439, 304, 454
-0.998601, 145, 189, 208, 204
-0.998601, 177, 409, 240, 424
-0.998603, 89, 175, 152, 190
-0.998604, 73, 121, 136, 136
-0.998604, 57, 427, 120, 442
-0.998605, 17, 415, 80, 430
-0.998606, 97, 115, 160, 130
-0.998608, 89, 349, 152, 364
-0.998609, 25, 221, 88, 236
-0.99861, 89, 165, 152, 180
-0.998611, 201, 435, 264, 450
-0.998611, 161, 273, 224, 288
-0.998612, 249, 325, 312, 340
-0.998613, 241, 403, 304, 418
-0.998614, 209, 207, 272, 222
-0.998614, 185, 179, 248, 194
-0.998614, 49, 195, 112, 210
-0.998616, 177, 205, 240, 220
-0.998616, 249, 259, 312, 274
-0.998617, 65, 169, 128, 184
-0.998618, 225, 261, 288, 276
-0.998619, 161, 107, 224, 122
-0.998619, 193, 169, 256, 184
-0.998619, 49, 175, 112, 190
-0.998619, 185, 199, 248, 214
-0.998621, 241, 453, 304, 468
-0.998621, 193, 157, 256, 172
-0.998621, 129, 89, 192, 104
-0.998621, 273, 441, 332, 456
-0.998622, 153, 405, 216, 420
-0.998622, 249, 269, 312, 284
-0.998623, 89, 193, 152, 208
-0.998623, 257, 419, 320, 434
-0.998623, 265, 485, 328, 500
-0.998623, 113, 407, 176, 422
-0.998624, 153, 129, 216, 144
-0.998624, 25, 31, 88, 46
-0.998625, 169, 135, 232, 150
-0.998625, 257, 465, 320, 480
-0.998625, 169, 327, 232, 342
-0.998627, 73, 89, 136, 104
-0.998627, 209, 177, 272, 192
-0.998627, 57, 189, 120, 204
-0.998627, 217, 331, 280, 346
-0.998628, 177, 251, 240, 266
-0.998628, 209, 221, 272, 236
-0.998628, 153, 267, 216, 282
-0.998629, 169, 113, 232, 128
-0.998629, 241, 357, 304, 372
-0.99863, 177, 211, 240, 226
-0.99863, 265, 425, 328, 440
-0.998631, 177, 415, 240, 430
-0.998631, 57, 223, 120, 238
-0.998631, 161, 279, 224, 294
-0.998632, 65, 433, 128, 448
-0.998633, 209, 183, 272, 198
-0.998633, 121, 311, 184, 326
-0.998633, 193, 259, 256, 274
-0.998634, 137, 415, 200, 430
-0.998635, 169, 155, 232, 170
-0.998635, 257, 339, 320, 354
-0.998635, 209, 195, 272, 210
-0.998635, 241, 363, 304, 378
-0.998638, 25, 229, 88, 244
-0.998638, 89, 147, 152, 162
-0.998639, 113, 81, 176, 96
-0.998639, 97, 315, 160, 330
-0.998639, 49, 89, 112, 104
-0.998639, 153, 261, 216, 276
-0.998639, 177, 317, 240, 332
-0.99864, 169, 433, 232, 448
-0.99864, 225, 289, 288, 304
-0.998643, 145, 307, 208, 322
-0.998643, 177, 223, 240, 238
-0.998643, 169, 145, 232, 160
-0.998644, 17, 409, 80, 424
-0.998644, 81, 409, 144, 424
-0.998644, 185, 299, 248, 314
-0.998645, 81, 51, 144, 66
-0.998645, 209, 163, 272, 178
-0.998647, 201, 401, 264, 416
-0.998647, 201, 409, 264, 424
-0.998647, 209, 213, 272, 228
-0.998648, 145, 299, 208, 314
-0.998648, 249, 351, 312, 366
-0.998648, 153, 399, 216, 414
-0.998649, 257, 447, 320, 462
-0.998649, 49, 441, 176, 472
-0.998649, 81, 321, 144, 336
-0.998649, 209, 369, 272, 384
-0.998649, 161, 427, 224, 442
-0.99865, 57, 421, 120, 436
-0.99865, 145, 199, 208, 214
-0.99865, 1, 141, 64, 156
-0.998651, 177, 359, 240, 374
-0.998655, 169, 257, 200, 500
-0.998662, 121, 1, 152, 256
-0.998663, 113, 61, 240, 92
-0.998684, 141, 1, 172, 256
-0.998689, 103, 113, 118, 240
-0.998711, 97, 225, 128, 480
-0.998715, 209, 49, 332, 112
-0.998743, 17, 365, 144, 396
-0.998744, 301, 129, 332, 384
-0.998759, 177, 113, 304, 144
-0.998775, 1, 325, 128, 356
-0.998786, 165, 81, 180, 208
-0.998814, 97, 357, 224, 388
-0.998824, 249, 129, 280, 384
-0.998836, 1, 369, 332, 432
-0.998837, 157, 257, 188, 500
-0.998849, 209, 25, 332, 88
-0.99885, 95, 177, 110, 304
-0.998857, 113, 97, 128, 224
-0.998893, 169, 161, 200, 416
-0.998911, 69, 65, 100, 320
-0.998926, 207, 225, 222, 352
-0.998927, 249, 321, 264, 448
-0.998939, 205, 129, 220, 256
-0.998951, 97, 113, 112, 240
-0.998954, 1, 449, 128, 480
-0.998962, 273, 129, 304, 384
-0.998969, 107, 49, 122, 176
-0.998972, 159, 81, 174, 208
-0.998986, 21, 97, 52, 352
-0.998992, 113, 373, 240, 404
-0.998996, 195, 145, 210, 272
-0.999018, 197, 369, 212, 496
-0.999025, 137, 257, 168, 500
-0.999031, 101, 65, 116, 192
-0.99904, 113, 21, 240, 52
-0.999041, 53, 193, 84, 448
-0.999042, 171, 81, 186, 208
-0.999056, 161, 5, 288, 36
-0.999056, 117, 161, 148, 416
-0.999061, 245, 369, 260, 496
-0.999107, 129, 49, 256, 80
-0.999116, 39, 177, 54, 304
-0.999118, 185, 257, 200, 384
-0.999119, 57, 65, 88, 320
-0.999128, 225, 161, 256, 416
-0.999132, 195, 193, 210, 320
-0.999137, 207, 337, 222, 464
-0.999142, 171, 289, 186, 416
-0.999143, 37, 193, 68, 448
-0.999143, 109, 1, 140, 256
-0.999145, 69, 193, 100, 448
-0.999146, 161, 25, 288, 56
-0.999151, 177, 81, 304, 112
-0.999151, 189, 33, 220, 288
-0.999152, 153, 33, 184, 288
-0.999153, 89, 161, 104, 288
-0.999155, 215, 177, 230, 304
-0.999171, 103, 161, 118, 288
-0.999176, 117, 49, 132, 176
-0.999177, 201, 241, 216, 368
-0.999178, 179, 305, 194, 432
-0.999181, 207, 177, 222, 304
-0.999183, 193, 97, 320, 128
-0.999187, 237, 97, 268, 352
-0.999199, 41, 113, 56, 240
-0.999206, 125, 33, 140, 160
-0.999213, 291, 241, 306, 368
-0.99922, 189, 369, 204, 496
-0.999233, 261, 129, 292, 384
-0.999239, 239, 305, 254, 432
-0.999244, 189, 177, 204, 304
-0.999245, 239, 353, 254, 480
-0.999255, 9, 97, 40, 352
-0.999259, 51, 337, 66, 464
-0.999272, 149, 81, 164, 208
-0.999277, 37, 1, 68, 256
-0.999277, 61, 337, 76, 464
-0.999286, 259, 305, 274, 432
-0.999297, 169, 369, 184, 496
-0.999299, 31, 161, 46, 288
-0.999305, 97, 1, 128, 256
-0.999305, 201, 177, 216, 304
-0.999305, 201, 321, 216, 448
-0.999312, 89, 225, 104, 352
-0.999312, 249, 273, 264, 400
-0.999314, 297, 257, 312, 384
-0.99932, 91, 97, 106, 224
-0.999322, 97, 225, 112, 352
-0.999322, 1, 193, 32, 448
-0.999322, 161, 69, 288, 100
-0.999324, 215, 241, 230, 368
-0.999327, 1, 145, 16, 272
-0.999347, 95, 49, 110, 176
-0.999348, 163, 369, 178, 496
-0.99935, 51, 177, 66, 304
-0.99935, 259, 369, 274, 496
-0.999351, 45, 337, 60, 464
-0.999355, 95, 369, 110, 496
-0.999359, 65, 1, 80, 128
-0.99936, 139, 97, 154, 224
-0.99936, 127, 337, 142, 464
-0.999361, 281, 289, 296, 416
-0.999368, 163, 305, 178, 432
-0.99937, 157, 129, 172, 256
-0.999371, 191, 241, 206, 368
-0.999372, 267, 369, 282, 496
-0.999373, 241, 257, 256, 384
-0.999375, 85, 113, 100, 240
-0.999377, 73, 81, 88, 208
-0.999378, 113, 453, 240, 484
-0.99938, 255, 241, 270, 368
-0.999385, 61, 177, 76, 304
-0.999391, 233, 177, 248, 304
-0.999393, 103, 1, 118, 128
-0.999397, 207, 289, 222, 416
-0.999399, 125, 257, 156, 500
-0.999399, 233, 369, 248, 496
-0.999399, 31, 209, 46, 336
-0.999404, 273, 353, 288, 480
-0.999404, 251, 369, 266, 496
-0.999407, 297, 321, 312, 448
-0.999409, 135, 33, 150, 160
-0.999411, 151, 129, 166, 256
-0.999411, 223, 177, 238, 304
-0.999412, 295, 369, 310, 496
-0.999412, 171, 241, 186, 368
-0.999414, 303, 289, 318, 416
-0.999418, 29, 1, 44, 128
-0.99942, 39, 369, 54, 496
-0.99942, 163, 33, 178, 160
-0.999424, 179, 209, 194, 336
-0.999425, 303, 241, 318, 368
-0.999427, 173, 129, 188, 256
-0.999428, 157, 321, 172, 448
-0.999428, 213, 353, 228, 480
-0.999429, 309, 257, 324, 384
-0.999432, 167, 129, 182, 256
-0.999433, 157, 33, 172, 160
-0.999436, 9, 145, 24, 272
-0.999445, 283, 353, 298, 480
-0.999446, 285, 209, 300, 336
-0.999448, 133, 97, 148, 224
-0.999448, 133, 161, 148, 288
-0.999449, 277, 225, 292, 352
-0.999452, 177, 257, 192, 384
-0.999453, 117, 369, 132, 496
-0.999454, 225, 369, 240, 496
-0.999457, 79, 65, 94, 192
-0.999459, 89, 49, 104, 176
-0.999459, 129, 257, 144, 384
-0.99946, 33, 113, 48, 240
-0.99946, 43, 1, 58, 128
-0.999461, 219, 369, 234, 496
-0.999461, 87, 1, 102, 128
-0.999463, 229, 241, 244, 368
-0.999463, 173, 33, 188, 160
-0.999465, 123, 81, 138, 208
-0.999466, 267, 305, 282, 432
-0.999466, 199, 97, 214, 224
-0.999467, 289, 321, 304, 448
-0.999471, 73, 1, 88, 128
-0.999473, 3, 97, 18, 224
-0.999476, 137, 305, 152, 432
-0.999479, 193, 97, 208, 224
-0.999481, 49, 49, 64, 176
-0.999483, 109, 145, 124, 272
-0.999484, 185, 321, 200, 448
-0.999486, 213, 305, 228, 432
-0.999486, 223, 241, 238, 368
-0.999487, 83, 225, 98, 352
-0.999487, 59, 1, 74, 128
-0.999491, 177, 81, 192, 208
-0.999493, 117, 1, 132, 128
-0.9995, 267, 225, 282, 352
-0.999507, 205, 81, 220, 208
-0.999571, 63, 405, 78, 420
-0.999572, 235, 325, 250, 340
-0.999572, 201, 433, 216, 448
-0.999572, 295, 437, 310, 452
-0.999572, 49, 415, 64, 430
-0.999573, 95, 141, 110, 156
-0.999574, 167, 103, 182, 118
-0.999574, 287, 437, 302, 452
-0.999574, 245, 411, 260, 426
-0.999576, 63, 91, 78, 106
-0.999576, 283, 463, 298, 478
-0.999577, 89, 427, 104, 442
-0.999577, 265, 429, 280, 444
-0.999577, 189, 411, 204, 426
-0.999578, 263, 435, 278, 450
-0.999579, 47, 201, 62, 216
-0.99958, 313, 387, 328, 402
-0.99958, 211, 149, 226, 164
-0.99958, 135, 353, 150, 368
-0.99958, 37, 137, 52, 152
-0.99958, 207, 191, 222, 206
-0.999581, 259, 401, 274, 416
-0.999581, 299, 423, 314, 438
-0.999582, 273, 383, 288, 398
-0.999583, 173, 107, 188, 122
-0.999583, 101, 187, 116, 202
-0.999583, 171, 119, 186, 134
-0.999583, 251, 361, 266, 376
-0.999584, 279, 407, 294, 422
-0.999584, 277, 429, 292, 444
-0.999585, 275, 343, 290, 358
-0.999585, 253, 353, 268, 368
-0.999585, 257, 365, 272, 380
-0.999585, 143, 113, 158, 128
-0.999586, 125, 409, 140, 424
-0.999586, 91, 147, 106, 162
-0.999587, 197, 403, 212, 418
-0.999588, 255, 321, 270, 336
-0.999588, 189, 403, 204, 418
-0.999588, 205, 439, 220, 454
-0.99959, 51, 191, 66, 206
-0.99959, 137, 269, 152, 284
-0.999591, 77, 413, 92, 428
-0.999592, 151, 89, 166, 104
-0.999592, 107, 113, 122, 128
-0.999593, 307, 475, 322, 490
-0.999594, 203, 159, 218, 174
-0.999595, 167, 111, 182, 126
-0.999595, 183, 309, 198, 324
-0.999596, 131, 267, 146, 282
-0.999597, 123, 309, 138, 324
-0.999598, 305, 439, 320, 454
-0.999599, 97, 433, 112, 448
-0.999601, 203, 149, 218, 164
-0.999601, 141, 95, 156, 110
-0.999602, 307, 389, 322, 404
-0.999602, 281, 435, 296, 450
-0.999604, 91, 177, 106, 192
-0.999604, 245, 321, 260, 336
-0.999605, 109, 93, 124, 108
-0.999605, 217, 221, 232, 236
-0.999606, 55, 199, 70, 214
-0.999606, 285, 473, 300, 488
-0.999606, 109, 101, 124, 116
-0.999606, 179, 419, 194, 434
-0.999607, 123, 81, 138, 96
-0.999608, 63, 399, 78, 414
-0.999609, 33, 411, 48, 426
-0.999609, 283, 331, 298, 346
-0.999609, 129, 305, 144, 320
-0.999609, 217, 189, 232, 204
-0.99961, 281, 343, 296, 358
-0.99961, 287, 341, 302, 356
-0.99961, 293, 417, 308, 432
-0.99961, 285, 423, 300, 438
-0.999611, 209, 215, 224, 230
-0.999612, 207, 229, 222, 244
-0.999614, 299, 429, 314, 444
-0.999618, 73, 221, 88, 236
-0.99962, 99, 173, 114, 188
-0.999622, 115, 95, 130, 110
-0.999622, 239, 415, 254, 430
-0.999623, 215, 369, 230, 384
-0.999625, 137, 89, 152, 104
-0.999625, 279, 391, 294, 406
-0.999627, 281, 337, 296, 352
-0.999628, 61, 199, 76, 214
-0.999629, 125, 87, 140, 102
-0.999629, 97, 165, 112, 180
-0.999629, 89, 171, 104, 186
-0.999632, 299, 295, 314, 310
-0.999634, 127, 349, 142, 364
-0.999634, 173, 113, 188, 128
-0.999635, 173, 315, 188, 330
-0.999636, 109, 107, 124, 122
-0.999636, 43, 417, 58, 432
-0.999636, 211, 327, 226, 342
-0.999636, 51, 409, 66, 424
-0.999637, 105, 139, 120, 154
-0.999637, 99, 181, 114, 196
-0.999639, 251, 327, 266, 342
-0.99964, 97, 159, 112, 174
-0.99964, 179, 315, 194, 330
-0.999641, 285, 65, 316, 320
-0.999642, 203, 141, 218, 156
-0.999643, 195, 409, 210, 424
-0.999649, 51, 341, 66, 356
-0.999651, 101, 427, 116, 442
-0.999653, 291, 423, 306, 438
-0.999655, 113, 113, 128, 128
-0.999656, 279, 385, 294, 400
-0.999657, 67, 223, 82, 238
-0.999663, 287, 409, 302, 424
-0.999663, 111, 87, 126, 102
-0.999666, 101, 151, 116, 166
-0.999666, 105, 133, 120, 148
-0.999667, 177, 309, 192, 324
-0.999669, 107, 127, 122, 142
-0.99967, 285, 429, 300, 444
-0.999671, 245, 327, 260, 342
-0.999675, 205, 327, 220, 342
-0.999678, 171, 309, 186, 324
-0.999687, 57, 193, 72, 208
-0.999695, 293, 431, 308, 446
-0.999696, 117, 409, 132, 424
-0.999699, 275, 337, 290, 352
-0.999701, 103, 145, 118, 160
-0.999706, 119, 87, 134, 102
-0.999724, 109, 119, 124, 134
-0.999724, 5, 1, 36, 256
-0.999744, 109, 257, 140, 500
-0.999773, 39, 411, 54, 426
-0.999805, 95, 425, 110, 440
-0.999965, 213, 33, 244, 288
-1.00004, 257, 33, 288, 288
-1.0001, 225, 65, 256, 320
-1.0003, 201, 1, 232, 256
-1.00034, 301, 33, 332, 288
-1.00063, 273, 1, 304, 256
-1.00082, 237, 1, 268, 256
-1.00323, 209, 33, 272, 160
-1.00467, 241, 1, 304, 128
-1.0068, 249, 49, 312, 176
-1.00837, 265, 1, 328, 128
-1.0095, 273, 49, 332, 176
