1972
-0.317577, 1, 97, 500, 352
-0.342167, 1, 1, 500, 375
-0.395375, 129, 1, 384, 375
-0.44231, 1, 1, 500, 256
-0.486478, 193, 65, 448, 320
-0.508036, 225, 1, 480, 375
-0.55045, 97, 65, 352, 320
-0.623301, 33, 1, 288, 375
-0.6317, 1, 129, 256, 375
-0.725778, 1, 33, 256, 288
-0.831695, 113, 97, 240, 352
-0.844961, 193, 1, 320, 375
-0.846816, 65, 129, 192, 375
-0.852533, 193, 33, 320, 288
-0.856351, 1, 145, 500, 272
-0.857066, 305, 1, 432, 375
-0.859031, 241, 1, 368, 375
-0.860027, 289, 65, 416, 320
-0.8605, 241, 33, 368, 288
-0.862816, 113, 1, 240, 375
-0.882676, 1, 97, 500, 224
-0.882775, 161, 129, 288, 375
-0.886384, 97, 1, 224, 256
-0.889502, 353, 97, 480, 352
-0.892276, 65, 1, 192, 375
-0.892379, 353, 1, 480, 256
-0.894928, 49, 33, 176, 288
-0.896179, 369, 1, 496, 375
-0.897886, 161, 145, 416, 272
-0.898699, 65, 145, 320, 272
-0.900355, 1, 193, 500, 320
-0.900813, 193, 81, 448, 208
-0.905578, 1, 1, 128, 375
-0.906874, 1, 33, 128, 288
-0.907138, 17, 129, 144, 375
-0.90864, 161, 193, 416, 320
-0.909551, 209, 129, 336, 375
-0.911025, 1, 49, 500, 176
-0.912789, 145, 1, 272, 256
-0.914316, 97, 97, 352, 224
-0.917322, 33, 209, 288, 336
-0.917739, 257, 129, 500, 256
-0.921542, 1, 1, 500, 128
-0.922433, 129, 145, 256, 272
-0.923378, 49, 177, 176, 304
-0.926109, 257, 129, 320, 256
-0.928201, 161, 65, 288, 192
-0.928656, 305, 97, 432, 224
-0.929823, 129, 145, 192, 272
-0.930532, 217, 129, 280, 256
-0.930742, 217, 177, 280, 304
-0.930924, 289, 145, 416, 272
-0.931138, 225, 129, 352, 256
-0.931699, 241, 65, 368, 192
-0.931931, 177, 177, 304, 304
-0.932394, 257, 177, 500, 304
-0.932695, 361, 97, 424, 224
-0.934934, 377, 161, 440, 288
-0.935802, 337, 129, 400, 256
-0.936033, 385, 113, 448, 240
-0.936143, 177, 145, 240, 272
-0.936831, 57, 177, 120, 304
-0.937174, 289, 97, 352, 224
-0.937708, 249, 81, 312, 208
-0.937911, 153, 145, 216, 272
-0.938881, 97, 145, 160, 272
-0.939719, 297, 177, 360, 304
-0.939836, 353, 97, 480, 224
-0.940659, 241, 177, 368, 304
-0.940755, 337, 145, 464, 272
-0.941091, 81, 129, 208, 256
-0.941842, 97, 193, 224, 320
-0.943781, 1, 241, 500, 368
-0.943894, 225, 65, 288, 192
-0.944193, 153, 193, 216, 320
-0.944654, 257, 161, 320, 224
-0.94476, 225, 33, 480, 160
-0.944865, 129, 17, 384, 144
-0.945054, 113, 193, 176, 320
-0.945364, 337, 81, 400, 208
-0.946024, 177, 129, 304, 256
-0.946185, 1, 49, 256, 176
-0.94658, 257, 113, 320, 176
-0.946768, 153, 209, 216, 272
-0.946974, 273, 17, 400, 144
-0.948259, 201, 65, 264, 192
-0.948767, 265, 177, 328, 304
-0.948956, 193, 17, 320, 144
-0.949436, 233, 137, 296, 200
-0.949476, 81, 193, 144, 320
-0.949988, 361, 145, 424, 208
-0.95068, 105, 233, 168, 296
-0.950743, 353, 177, 416, 304
-0.950964, 281, 145, 344, 208
-0.951291, 1, 97, 256, 224
-0.951585, 217, 185, 280, 248
-0.951616, 257, 73, 320, 136
-0.95239, 169, 97, 232, 224
-0.952771, 257, 225, 500, 352
-0.953007, 1, 1, 256, 128
-0.95404, 1, 177, 128, 304
-0.954241, 377, 177, 440, 240
-0.954355, 113, 161, 176, 224
-0.954562, 313, 65, 376, 192
-0.954788, 313, 129, 376, 256
-0.955056, 193, 193, 256, 320
-0.955095, 289, 193, 416, 320
-0.955879, 361, 105, 424, 168
-0.956001, 33, 177, 96, 304
-0.95613, 321, 145, 384, 208
-0.956261, 49, 225, 176, 352
-0.956458, 321, 177, 384, 304
-0.956468, 281, 89, 344, 152
-0.956715, 105, 201, 168, 264
-0.956869, 57, 201, 120, 264
-0.957008, 225, 89, 288, 152
-0.957226, 281, 33, 344, 160
-0.957994, 185, 153, 248, 216
-0.958131, 369, 49, 496, 176
-0.95863, 241, 177, 304, 304
-0.958757, 129, 209, 192, 272
-0.958888, 65, 233, 128, 296
-0.958893, 145, 153, 208, 216
-0.959157, 417, 145, 480, 272
-0.959182, 385, 145, 448, 208
-0.959197, 65, 177, 128, 240
-0.95949, 89, 161, 152, 224
-0.959632, 145, 121, 208, 184
-0.95966, 177, 209, 240, 272
-0.960627, 417, 81, 480, 208
-0.960764, 281, 113, 344, 176
-0.960857, 185, 177, 248, 240
-0.960946, 353, 169, 416, 232
-0.961132, 129, 185, 192, 248
-0.961785, 361, 209, 424, 272
-0.962083, 257, 137, 320, 200
-0.962328, 81, 201, 144, 264
-0.962519, 361, 49, 424, 176
-0.962696, 217, 113, 280, 176
-0.962928, 321, 49, 448, 176
-0.963007, 249, 33, 312, 160
-0.963515, 65, 129, 128, 256
-0.963707, 33, 129, 160, 256
-0.963792, 245, 129, 276, 256
-0.964074, 257, 233, 320, 296
-0.964255, 329, 193, 392, 256
-0.964626, 265, 201, 328, 264
-0.964689, 313, 225, 376, 288
-0.964838, 145, 249, 208, 312
-0.964938, 113, 17, 240, 144
-0.965194, 337, 193, 464, 320
-0.965273, 401, 113, 432, 240
-0.96559, 153, 185, 216, 248
-0.965773, 385, 121, 448, 184
-0.965961, 113, 65, 240, 192
-0.965981, 185, 17, 248, 144
-0.966394, 225, 161, 288, 224
-0.966464, 41, 113, 104, 240
-0.96648, 113, 97, 176, 224
-0.966497, 297, 169, 360, 232
-0.966536, 113, 137, 176, 200
-0.966719, 281, 65, 344, 128
-0.967101, 49, 65, 176, 192
-0.967124, 41, 225, 104, 352
-0.967274, 353, 1, 480, 128
-0.967315, 89, 129, 152, 375
-0.967527, 81, 1, 144, 128
-0.967569, 225, 17, 288, 144
-0.967743, 177, 241, 240, 304
-0.967978, 281, 97, 312, 224
-0.967986, 257, 33, 320, 288
-0.968273, 209, 137, 272, 200
-0.968284, 273, 121, 304, 184
-0.968286, 409, 105, 472, 168
-0.968321, 289, 225, 352, 288
-0.968347, 241, 161, 368, 224
-0.968578, 49, 201, 176, 264
-0.968626, 329, 1, 392, 128
-0.968758, 169, 113, 232, 176
-0.9688, 337, 217, 400, 280
-0.968848, 193, 225, 320, 352
-0.968895, 177, 185, 304, 248
-0.968948, 137, 129, 200, 375
-0.968955, 369, 65, 432, 320
-0.968989, 201, 225, 264, 288
-0.969165, 169, 97, 232, 352
-0.969297, 329, 169, 392, 232
-0.969339, 305, 169, 432, 232
-0.969466, 137, 97, 200, 224
-0.969512, 405, 137, 436, 200
-0.969597, 397, 177, 428, 240
-0.969721, 241, 193, 304, 256
-0.969895, 145, 225, 272, 352
-0.969934, 321, 145, 448, 208
-0.969965, 257, 49, 320, 112
-0.970122, 241, 225, 368, 352
-0.970178, 305, 81, 368, 144
-0.970474, 97, 209, 224, 272
-0.970539, 57, 33, 120, 160
-0.970558, 89, 97, 152, 224
-0.970563, 1, 65, 128, 192
-0.970598, 361, 145, 392, 208
-0.970645, 233, 129, 264, 256
-0.970666, 389, 105, 420, 168
-0.970727, 113, 129, 176, 375
-0.9708, 209, 33, 272, 288
-0.970836, 257, 193, 384, 256
-0.971018, 129, 241, 384, 368
-0.971159, 225, 217, 288, 280
-0.971252, 337, 89, 400, 152
-0.971298, 401, 185, 464, 248
-0.971302, 245, 177, 276, 304
-0.971329, 257, 65, 288, 192
-0.97147, 305, 97, 336, 224
-0.971605, 377, 145, 408, 208
-0.971627, 301, 145, 332, 208
-0.971719, 25, 209, 88, 272
-0.971962, 385, 185, 416, 248
-0.971976, 265, 161, 296, 224
-0.972034, 177, 137, 304, 200
-0.972047, 225, 185, 256, 248
-0.972108, 41, 177, 104, 240
-0.972205, 161, 145, 192, 272
-0.972218, 273, 81, 304, 144
-0.972318, 189, 209, 220, 272
-0.972366, 277, 161, 308, 224
-0.9724, 145, 145, 176, 272
-0.972596, 141, 137, 172, 200
-0.972741, 377, 1, 440, 128
-0.972814, 129, 161, 256, 224
-0.972826, 289, 145, 320, 208
-0.973081, 201, 145, 232, 272
-0.973254, 177, 209, 208, 272
-0.973276, 417, 145, 480, 208
-0.973289, 129, 145, 160, 272
-0.97329, 49, 177, 176, 240
-0.973306, 225, 65, 288, 128
-0.973335, 241, 73, 368, 136
-0.973337, 281, 33, 344, 288
-0.973351, 41, 233, 104, 296
-0.973396, 193, 105, 256, 168
-0.973534, 133, 161, 164, 224
-0.973584, 393, 161, 424, 288
-0.973658, 389, 145, 420, 208
-0.9737, 257, 225, 320, 352
-0.973749, 185, 73, 248, 136
-0.973852, 209, 153, 240, 216
-0.973884, 65, 97, 128, 352
-0.973904, 221, 145, 252, 272
-0.973912, 177, 217, 304, 280
-0.973929, 77, 193, 108, 320
-0.97397, 369, 129, 400, 256
-0.974052, 49, 233, 176, 296
-0.97411, 345, 65, 408, 320
-0.974187, 245, 193, 276, 256
-0.974249, 313, 153, 344, 216
-0.974297, 77, 201, 108, 264
-0.974368, 81, 1, 144, 64
-0.974421, 121, 233, 152, 296
-0.974455, 265, 201, 296, 264
-0.97464, 245, 137, 276, 200
-0.974761, 17, 49, 80, 176
-0.974766, 297, 193, 360, 256
-0.974883, 325, 153, 356, 216
-0.97495, 337, 153, 368, 216
-0.974976, 1, 17, 128, 144
-0.974989, 121, 201, 152, 264
-0.975041, 281, 41, 344, 104
-0.975074, 77, 169, 108, 232
-0.975083, 241, 81, 272, 208
-0.975125, 261, 121, 292, 184
-0.975167, 293, 129, 324, 256
-0.975231, 289, 105, 320, 168
-0.975237, 89, 33, 152, 288
-0.97543, 273, 225, 400, 288
-0.975632, 313, 33, 376, 288
-0.975773, 1, 225, 128, 352
-0.975855, 317, 97, 348, 224
-0.97586, 409, 97, 472, 352
-0.975915, 193, 89, 320, 152
-0.975926, 93, 233, 124, 296
-0.975949, 373, 81, 404, 208
-0.976007, 81, 153, 208, 216
-0.97604, 89, 41, 152, 104
-0.976083, 93, 161, 124, 224
-0.976106, 153, 153, 184, 216
-0.976128, 25, 1, 88, 128
-0.976198, 289, 81, 416, 144
-0.976264, 209, 193, 240, 320
-0.976294, 61, 193, 92, 256
-0.976375, 133, 201, 164, 264
-0.976389, 97, 249, 224, 312
-0.976398, 337, 97, 368, 224
-0.976444, 313, 113, 376, 176
-0.976563, 369, 169, 400, 232
-0.976612, 405, 161, 436, 288
-0.97663, 261, 129, 292, 256
-0.976665, 321, 105, 448, 168
-0.976733, 225, 113, 352, 176
-0.976852, 329, 145, 360, 272
-0.9769, 129, 121, 256, 184
-0.976901, 149, 209, 180, 272
-0.976917, 305, 145, 336, 272
-0.976939, 197, 185, 228, 248
-0.976953, 233, 153, 264, 216
-0.976977, 137, 225, 168, 288
-0.977119, 389, 113, 420, 240
-0.977131, 369, 137, 496, 200
-0.977247, 109, 233, 140, 296
-0.977426, 113, 145, 144, 272
-0.977542, 161, 49, 288, 112
-0.977575, 349, 145, 380, 208
-0.977593, 57, 1, 120, 64
-0.977598, 225, 233, 352, 296
-0.977776, 189, 145, 220, 272
-0.977777, 93, 145, 124, 272
-0.977848, 409, 161, 440, 224
-0.977962, 329, 225, 392, 352
-0.978015, 357, 113, 388, 240
-0.978074, 249, 129, 312, 375
-0.978095, 261, 89, 292, 152
-0.978325, 329, 1, 392, 64
-0.978365, 9, 145, 72, 272
-0.978388, 233, 241, 296, 304
-0.978395, 129, 185, 256, 248
-0.978435, 185, 177, 216, 240
-0.978446, 249, 1, 312, 64
-0.97847, 161, 185, 192, 248
-0.978473, 381, 161, 412, 288
-0.978527, 321, 193, 448, 256
-0.978592, 65, 153, 128, 216
-0.978618, 77, 145, 108, 272
-0.978671, 173, 113, 204, 240
-0.978688, 277, 145, 308, 272
-0.978733, 337, 113, 400, 176
-0.978768, 145, 241, 272, 304
-0.978905, 249, 73, 280, 136
-0.978906, 289, 1, 352, 64
-0.97892, 209, 209, 240, 272
-0.978939, 177, 161, 304, 224
-0.97894, 161, 209, 192, 272
-0.97894, 269, 65, 300, 192
-0.978971, 101, 193, 132, 320
-0.978997, 301, 169, 332, 232
-0.979073, 381, 209, 412, 272
-0.979074, 393, 209, 456, 272
-0.979091, 305, 17, 368, 144
-0.979173, 57, 73, 120, 136
-0.979331, 145, 33, 208, 160
-0.979367, 225, 33, 288, 96
-0.979386, 265, 177, 296, 304
-0.979443, 177, 161, 208, 288
-0.979464, 153, 121, 184, 184
-0.97948, 413, 185, 444, 248
-0.979483, 341, 145, 372, 272
-0.979495, 257, 137, 384, 200
-0.979525, 289, 169, 320, 232
-0.979581, 89, 185, 120, 248
-0.979618, 317, 161, 348, 288
-0.979667, 233, 177, 264, 304
-0.979694, 293, 177, 324, 304
-0.979702, 49, 209, 80, 272
-0.979775, 249, 25, 312, 88
-0.979811, 177, 153, 208, 216
-0.97984, 61, 177, 92, 304
-0.979871, 185, 49, 248, 112
-0.979916, 105, 201, 136, 264
-0.979945, 121, 161, 152, 224
-0.97998, 153, 193, 184, 320
-0.980033, 161, 241, 224, 368
-0.980062, 413, 113, 444, 240
-0.980072, 89, 193, 120, 320
-0.980129, 393, 65, 456, 192
-0.980157, 177, 113, 304, 176
-0.980229, 221, 97, 252, 224
-0.980241, 249, 105, 280, 168
-0.980257, 121, 193, 152, 320
-0.980278, 217, 129, 280, 375
-0.980312, 89, 137, 152, 200
-0.980537, 129, 73, 256, 136
-0.980542, 285, 73, 316, 136
-0.98055, 161, 1, 288, 64
-0.980567, 141, 193, 172, 320
-0.980591, 321, 217, 448, 280
-0.980655, 273, 113, 400, 176
-0.980778, 165, 249, 196, 312
-0.980787, 273, 9, 400, 72
-0.980794, 241, 49, 368, 112
-0.980814, 293, 65, 324, 192
-0.980838, 221, 145, 252, 208
-0.980887, 129, 33, 192, 288
-0.981002, 257, 1, 320, 375
-0.981021, 17, 161, 80, 224
-0.98106, 353, 65, 384, 192
-0.981119, 193, 241, 224, 304
-0.981216, 81, 257, 144, 320
-0.981229, 69, 233, 100, 296
-0.981231, 17, 185, 80, 248
-0.981253, 233, 33, 296, 288
-0.981289, 161, 65, 224, 128
-0.981301, 329, 65, 392, 128
-0.981374, 185, 9, 248, 72
-0.981383, 401, 113, 432, 176
-0.9814, 305, 225, 368, 352
-0.981453, 401, 81, 464, 144
-0.981457, 313, 233, 344, 296
-0.981472, 377, 97, 408, 160
-0.981565, 149, 249, 180, 312
-0.981729, 313, 185, 344, 248
-0.981748, 197, 153, 228, 216
-0.981794, 1, 57, 64, 120
-0.981797, 177, 249, 208, 312
-0.981807, 357, 161, 388, 288
-0.981862, 361, 233, 424, 296
-0.981876, 97, 49, 160, 176
-0.981927, 57, 49, 120, 112
-0.981989, 265, 233, 296, 296
-0.98232, 165, 193, 196, 320
-0.982392, 145, 177, 176, 240
-0.982432, 193, 25, 320, 88
-0.982481, 369, 105, 496, 168
-0.982482, 401, 1, 464, 256
-0.982503, 345, 225, 376, 288
-0.982569, 353, 73, 480, 136
-0.982617, 193, 129, 256, 375
-0.982646, 361, 81, 424, 144
-0.982752, 365, 225, 396, 288
-0.982793, 377, 209, 440, 336
-0.9828, 113, 113, 176, 176
-0.982861, 49, 185, 80, 248
-0.982896, 169, 1, 232, 375
-0.98296, 353, 169, 480, 232
-0.982965, 277, 233, 308, 296
-0.983006, 25, 25, 88, 88
-0.983033, 425, 145, 456, 272
-0.983133, 121, 49, 184, 176
-0.983161, 201, 249, 264, 312
-0.983208, 385, 233, 448, 296
-0.983251, 121, 257, 184, 320
-0.983255, 321, 89, 352, 152
-0.983284, 81, 73, 208, 136
-0.983302, 413, 105, 444, 168
-0.983311, 229, 73, 260, 136
-0.983341, 225, 225, 288, 352
-0.983352, 129, 137, 160, 200
-0.983365, 333, 225, 364, 288
-0.983418, 233, 113, 264, 176
-0.983431, 1, 65, 128, 128
-0.983458, 185, 97, 216, 224
-0.983463, 137, 249, 168, 312
-0.983483, 249, 233, 280, 296
-0.983632, 349, 185, 380, 248
-0.983644, 429, 129, 460, 192
-0.983673, 165, 153, 196, 216
-0.983684, 81, 233, 112, 296
-0.983702, 81, 129, 208, 192
-0.983715, 177, 1, 240, 256
-0.983906, 1, 225, 128, 288
-0.983937, 89, 65, 152, 128
-0.98398, 9, 193, 72, 320
-0.983982, 65, 169, 96, 232
-0.983984, 301, 113, 332, 176
-0.983989, 281, 225, 344, 352
-0.984003, 353, 225, 416, 352
-0.984005, 173, 185, 204, 248
-0.984023, 97, 241, 224, 368
-0.984088, 289, 1, 352, 375
-0.984176, 121, 1, 184, 128
-0.984177, 433, 65, 496, 128
-0.984226, 213, 185, 244, 248
-0.984272, 49, 17, 176, 144
-0.984279, 221, 193, 252, 320
-0.984323, 17, 97, 80, 224
-0.984343, 289, 233, 320, 296
-0.9844, 33, 129, 96, 375
-0.984412, 253, 169, 284, 232
-0.984461, 345, 209, 376, 336
-0.984502, 433, 89, 496, 152
-0.984653, 425, 177, 456, 240
-0.984682, 205, 233, 236, 296
-0.984693, 161, 65, 192, 192
-0.984754, 325, 185, 356, 248
-0.984783, 225, 9, 288, 72
-0.984796, 41, 1, 104, 256
-0.984843, 109, 161, 140, 224
-0.984888, 209, 1, 272, 375
-0.9849, 209, 65, 240, 192
-0.984906, 281, 49, 312, 176
-0.984941, 57, 25, 120, 88
-0.984989, 289, 57, 416, 120
-0.984997, 25, 65, 88, 128
-0.98501, 317, 209, 348, 272
-0.985141, 361, 89, 392, 152
-0.985195, 301, 233, 332, 296
-0.985274, 169, 113, 200, 176
-0.985285, 425, 97, 456, 224
-0.98529, 273, 129, 336, 375
-0.985368, 217, 73, 248, 136
-0.985401, 313, 129, 344, 192
-0.985404, 305, 89, 336, 152
-0.985405, 137, 81, 200, 144
-0.985555, 405, 209, 436, 272
-0.985699, 1, 1, 64, 128
-0.985709, 65, 241, 128, 368
-0.985743, 369, 49, 496, 112
-0.985744, 137, 241, 200, 368
-0.985776, 221, 113, 252, 176
-0.985792, 1, 177, 128, 240
-0.985804, 433, 33, 496, 288
-0.985859, 81, 49, 208, 112
-0.985918, 25, 1, 88, 64
-0.985951, 113, 1, 240, 64
-0.985984, 289, 33, 416, 96
-0.985994, 425, 153, 456, 216
-0.986105, 185, 241, 248, 368
-0.986114, 261, 65, 292, 128
-0.986125, 369, 9, 432, 72
-0.986169, 197, 225, 228, 352
-0.986211, 369, 209, 400, 336
-0.986223, 433, 121, 496, 184
-0.986248, 317, 49, 348, 176
-0.986266, 121, 1, 184, 375
-0.986266, 401, 193, 464, 320
-0.986315, 301, 193, 332, 256
-0.986321, 265, 257, 328, 320
-0.986357, 377, 1, 440, 375
-0.986444, 425, 169, 488, 232
-0.986566, 141, 97, 172, 224
-0.986611, 57, 257, 120, 320
-0.986619, 329, 1, 392, 375
-0.98674, 361, 201, 392, 264
-0.986767, 45, 193, 76, 320
-0.986804, 353, 1, 416, 375
-0.986824, 173, 1, 204, 128
-0.986944, 161, 89, 224, 152
-0.986982, 121, 1, 184, 64
-0.987026, 1, 249, 128, 312
-0.987041, 33, 153, 160, 216
-0.987051, 229, 217, 260, 280
-0.987058, 153, 1, 216, 256
-0.987113, 1, 201, 128, 264
-0.98714, 81, 1, 144, 375
-0.987169, 225, 1, 352, 64
-0.987187, 113, 25, 240, 88
-0.987235, 49, 257, 176, 320
-0.987352, 1, 41, 128, 104
-0.987417, 173, 65, 204, 192
-0.987428, 65, 1, 128, 256
-0.987469, 249, 1, 280, 128
-0.987517, 305, 249, 368, 312
-0.987545, 329, 249, 392, 312
-0.987581, 229, 49, 260, 176
-0.987647, 105, 169, 168, 200
-0.987667, 305, 209, 336, 336
-0.987693, 197, 81, 228, 208
-0.987702, 369, 193, 496, 256
-0.987769, 329, 25, 392, 88
-0.987803, 425, 105, 456, 168
-0.987857, 61, 225, 92, 352
-0.987867, 217, 193, 280, 224
-0.98788, 353, 25, 480, 88
-0.987903, 29, 33, 60, 96
-0.98794, 129, 41, 192, 104
-0.987977, 373, 73, 404, 136
-0.98803, 365, 121, 396, 184
-0.988047, 189, 121, 220, 184
-0.988061, 209, 257, 336, 320
-0.988137, 61, 113, 92, 240
-0.988145, 329, 129, 360, 192
-0.988148, 145, 1, 208, 375
-0.988158, 141, 113, 172, 176
-0.988213, 129, 65, 160, 192
-0.98822, 41, 153, 104, 216
-0.988224, 177, 225, 208, 352
-0.988228, 129, 97, 256, 160
-0.988314, 97, 225, 352, 288
-0.988342, 293, 17, 324, 144
-0.988378, 97, 145, 352, 208
-0.988407, 269, 1, 300, 128
-0.988484, 305, 249, 432, 312
-0.988557, 113, 137, 144, 200
-0.988563, 93, 209, 124, 272
-0.988569, 337, 185, 368, 248
-0.988602, 357, 209, 388, 336
-0.988605, 249, 189, 312, 220
-0.988621, 281, 185, 344, 216
-0.988634, 281, 97, 344, 128
-0.98865, 385, 173, 448, 204
-0.988748, 177, 81, 208, 144
-0.988757, 417, 209, 480, 272
-0.988807, 161, 201, 416, 264
-0.98883, 337, 33, 368, 160
-0.988847, 81, 237, 144, 268
-0.988868, 341, 113, 372, 176
-0.988872, 257, 145, 320, 176
-0.988889, 33, 1, 64, 128
-0.988914, 1, 89, 64, 152
-0.988915, 377, 121, 408, 184
-0.988943, 225, 145, 288, 176
-0.988965, 321, 129, 384, 375
-0.988998, 169, 209, 232, 240
-0.989026, 33, 193, 288, 256
-0.989049, 333, 89, 364, 152
-0.989051, 57, 1, 120, 375
-0.989059, 249, 101, 312, 132
-0.989068, 329, 101, 392, 132
-0.989087, 217, 1, 248, 128
-0.989088, 353, 105, 416, 136
-0.989094, 265, 117, 328, 148
-0.989094, 73, 177, 136, 208
-0.989122, 17, 33, 80, 288
-0.989142, 241, 133, 304, 164
-0.989143, 261, 225, 292, 352
-0.989145, 137, 157, 200, 188
-0.989172, 1, 17, 128, 80
-0.989184, 345, 177, 408, 208
-0.989194, 65, 189, 128, 220
-0.989235, 417, 1, 480, 375
-0.989273, 249, 81, 312, 112
-0.989298, 225, 265, 288, 328
-0.989304, 305, 97, 368, 128
-0.98932, 277, 201, 308, 264
-0.989345, 161, 273, 224, 336
-0.989375, 281, 157, 344, 188
-0.989379, 193, 113, 448, 176
-0.989397, 249, 177, 312, 208
-0.98942, 453, 65, 484, 192
-0.98943, 105, 185, 168, 216
-0.989431, 313, 181, 376, 212
-0.989446, 233, 1, 296, 375
-0.989477, 393, 185, 456, 216
-0.989499, 409, 17, 472, 144
-0.989542, 105, 233, 168, 264
-0.989564, 177, 181, 240, 212
-0.989576, 289, 109, 352, 140
-0.989609, 317, 209, 348, 336
-0.989618, 289, 241, 416, 368
-0.989649, 437, 129, 468, 256
-0.989675, 353, 1, 480, 64
-0.9897, 1, 153, 500, 216
-0.989702, 137, 197, 200, 228
-0.989724, 177, 197, 240, 228
-0.989751, 225, 169, 480, 232
-0.989773, 465, 49, 496, 176
-0.989779, 369, 49, 432, 112
-0.989782, 377, 145, 440, 176
-0.989785, 113, 157, 176, 188
-0.98985, 281, 173, 344, 204
-0.989893, 33, 121, 160, 184
-0.98994, 225, 109, 288, 140
-0.989961, 377, 209, 440, 240
-0.990028, 257, 205, 320, 236
-0.990029, 49, 205, 112, 236
-0.99003, 281, 145, 344, 176
-0.990043, 193, 145, 448, 208
-0.990049, 201, 229, 264, 260
-0.990049, 281, 77, 344, 108
-0.990066, 81, 165, 144, 196
-0.990067, 353, 189, 416, 220
-0.990082, 201, 205, 264, 236
-0.9901, 333, 209, 364, 336
-0.990107, 257, 69, 320, 100
-0.99011, 113, 209, 176, 240
-0.990144, 209, 181, 272, 212
-0.99016, 153, 181, 216, 212
-0.990188, 257, 257, 384, 320
-0.990197, 257, 165, 320, 196
-0.990209, 185, 241, 248, 272
-0.990211, 353, 217, 416, 248
-0.990227, 129, 229, 192, 260
-0.990252, 57, 233, 120, 264
-0.990274, 225, 97, 288, 128
-0.990307, 305, 49, 368, 112
-0.990324, 161, 41, 224, 104
-0.990417, 129, 145, 192, 176
-0.990417, 289, 201, 352, 232
-0.990459, 225, 81, 288, 112
-0.99046, 225, 225, 288, 256
-0.990465, 337, 149, 400, 180
-0.990469, 377, 133, 440, 164
-0.990472, 385, 161, 448, 192
-0.990555, 145, 209, 208, 240
-0.99057, 361, 117, 424, 148
-0.990592, 113, 81, 176, 144
-0.990599, 193, 73, 448, 136
-0.990689, 365, 33, 396, 160
-0.990689, 401, 137, 464, 168
-0.990703, 169, 221, 232, 252
-0.990713, 193, 157, 256, 188
-0.990719, 329, 197, 392, 228
-0.990724, 241, 241, 304, 272
-0.990735, 401, 117, 464, 148
-0.990736, 33, 169, 288, 232
-0.990743, 193, 101, 256, 132
-0.99076, 217, 133, 280, 164
-0.990816, 377, 197, 440, 228
-0.990821, 1, 201, 500, 264
-0.990822, 353, 165, 416, 196
-0.990832, 73, 201, 136, 232
-0.990838, 417, 153, 480, 184
-0.990839, 97, 65, 128, 192
-0.990845, 49, 177, 112, 208
-0.990882, 89, 153, 152, 184
-0.990903, 329, 89, 392, 120
-0.990907, 201, 217, 264, 248
-0.990909, 65, 249, 128, 280
-0.990915, 161, 157, 224, 188
-0.990942, 129, 169, 192, 200
-0.990978, 297, 129, 360, 375
-0.990993, 277, 209, 308, 336
-0.990995, 281, 65, 344, 96
-0.990998, 257, 225, 320, 256
-0.991107, 305, 157, 368, 188
-0.991133, 41, 245, 104, 276
-0.991147, 201, 89, 264, 120
-0.991156, 409, 169, 472, 200
-0.991176, 113, 97, 144, 224
-0.991196, 225, 65, 288, 96
-0.991208, 1, 225, 256, 288
-0.991212, 185, 273, 248, 336
-0.99122, 161, 9, 224, 72
-0.991223, 265, 129, 328, 160
-0.991232, 105, 197, 168, 228
-0.991242, 321, 217, 384, 248
-0.991257, 305, 85, 368, 116
-0.991273, 305, 141, 368, 172
-0.991295, 353, 241, 480, 304
-0.991299, 369, 229, 432, 260
-0.991307, 193, 225, 448, 288
-0.99131, 433, 33, 496, 160
-0.991349, 281, 225, 344, 256
-0.991367, 369, 217, 496, 280
-0.991386, 353, 93, 416, 124
-0.9914, 33, 189, 96, 220
-0.991403, 97, 273, 224, 336
-0.991403, 313, 169, 376, 200
-0.991425, 137, 133, 200, 164
-0.991436, 1, 177, 500, 240
-0.99144, 385, 65, 416, 192
-0.991443, 65, 81, 128, 208
-0.991445, 161, 169, 224, 200
-0.991451, 249, 25, 312, 56
-0.991468, 153, 145, 216, 176
-0.991471, 289, 9, 352, 40
-0.991499, 89, 65, 152, 96
-0.991519, 209, 257, 272, 288
-0.991522, 193, 137, 256, 168
-0.991526, 81, 9, 144, 40
-0.99154, 353, 201, 416, 232
-0.991548, 89, 249, 152, 280
-0.991555, 161, 249, 224, 280
-0.991566, 381, 209, 412, 336
-0.991591, 313, 229, 376, 260
-0.991622, 273, 237, 336, 268
-0.991631, 161, 237, 224, 268
-0.991653, 185, 69, 248, 100
-0.991663, 25, 217, 88, 248
-0.991665, 33, 229, 96, 260
-0.991666, 89, 49, 152, 80
-0.99168, 393, 105, 456, 136
-0.991716, 329, 1, 392, 32
-0.991721, 233, 157, 296, 188
-0.991728, 49, 261, 112, 292
-0.991748, 49, 209, 176, 240
-0.991758, 33, 249, 288, 312
-0.991768, 257, 193, 500, 256
-0.991773, 81, 25, 144, 56
-0.991786, 225, 53, 288, 84
-0.991792, 289, 37, 352, 68
-0.991817, 57, 65, 120, 96
-0.991818, 81, 225, 144, 256
-0.991821, 249, 57, 312, 88
-0.991826, 161, 273, 288, 336
-0.991837, 169, 89, 232, 120
-0.991855, 345, 229, 408, 260
-0.992029, 1, 89, 128, 152
-0.99204, 21, 33, 52, 160
-0.992064, 233, 225, 264, 352
-0.992075, 305, 49, 336, 176
-0.992142, 125, 165, 156, 196
-0.992145, 305, 97, 336, 128
-0.992168, 193, 209, 224, 240
-0.992175, 289, 145, 320, 176
-0.992188, 273, 125, 304, 156
-0.99223, 265, 137, 296, 168
-0.992256, 285, 101, 316, 132
-0.992259, 137, 169, 168, 200
-0.992271, 177, 209, 208, 240
-0.992294, 405, 173, 436, 204
-0.992316, 297, 189, 328, 220
-0.992318, 97, 193, 128, 224
-0.99232, 381, 105, 412, 136
-0.992323, 277, 189, 308, 220
-0.992323, 177, 197, 304, 228
-0.99235, 405, 137, 436, 168
-0.992351, 133, 153, 164, 184
-0.992353, 81, 233, 112, 264
-0.992364, 289, 101, 416, 132
-0.992376, 273, 109, 304, 140
-0.992397, 317, 185, 348, 216
-0.992397, 65, 97, 192, 160
-0.992411, 125, 233, 156, 264
-0.992414, 369, 101, 400, 132
-0.99242, 405, 185, 436, 216
-0.992441, 317, 101, 348, 132
-0.992444, 377, 177, 408, 208
-0.992445, 417, 173, 448, 204
-0.992447, 205, 185, 236, 216
-0.992451, 113, 169, 144, 200
-0.992465, 145, 137, 176, 168
-0.992471, 261, 109, 292, 140
-0.992495, 245, 141, 276, 172
-0.992496, 329, 97, 360, 128
-0.992503, 289, 165, 320, 196
-0.992506, 165, 209, 196, 240
-0.99251, 297, 177, 328, 208
-0.992521, 389, 201, 420, 232
-0.992529, 65, 233, 96, 264
-0.992534, 261, 185, 292, 216
-0.992535, 345, 97, 376, 128
-0.992538, 253, 85, 284, 116
-0.992539, 201, 197, 232, 228
-0.992539, 237, 185, 268, 216
-0.992546, 57, 197, 88, 228
-0.992553, 73, 205, 104, 236
-0.992558, 397, 125, 428, 156
-0.992561, 393, 181, 424, 212
-0.992562, 137, 209, 168, 240
-0.992564, 277, 153, 308, 184
-0.992578, 113, 237, 144, 268
-0.992582, 185, 197, 216, 228
-0.992586, 413, 161, 444, 192
-0.992586, 137, 229, 168, 260
-0.992589, 297, 109, 328, 140
-0.9926, 65, 245, 96, 276
-0.992605, 221, 193, 252, 224
-0.992614, 241, 89, 272, 120
-0.992617, 349, 173, 380, 204
-0.992632, 145, 157, 176, 188
-0.992636, 257, 97, 288, 128
-0.992647, 213, 229, 244, 260
-0.99265, 245, 229, 276, 260
-0.992652, 73, 177, 104, 208
-0.992656, 329, 185, 360, 216
-0.992661, 301, 153, 332, 184
-0.992671, 277, 177, 308, 208
-0.992674, 385, 165, 416, 196
-0.992675, 357, 101, 388, 132
-0.992691, 205, 209, 236, 240
-0.992695, 93, 173, 124, 204
-0.992695, 157, 157, 188, 188
-0.9927, 253, 129, 284, 160
-0.992708, 365, 177, 396, 208
-0.992708, 313, 173, 344, 204
-0.992717, 277, 89, 308, 120
-0.992719, 269, 69, 300, 100
-0.992723, 229, 93, 260, 124
-0.992725, 101, 237, 132, 268
-0.992751, 241, 101, 272, 132
-0.992758, 189, 177, 220, 208
-0.99277, 173, 197, 204, 228
-0.992774, 265, 197, 296, 228
-0.992785, 245, 197, 276, 228
-0.992788, 265, 85, 296, 116
-0.992791, 285, 117, 316, 148
-0.992791, 229, 221, 260, 252
-0.992792, 217, 153, 248, 184
-0.992797, 101, 161, 132, 192
-0.9928, 133, 141, 164, 172
-0.992806, 341, 153, 372, 184
-0.992811, 369, 189, 400, 220
-0.992814, 265, 157, 296, 188
-0.99282, 329, 173, 360, 204
-0.99282, 109, 189, 140, 220
-0.992821, 417, 185, 448, 216
-0.992821, 85, 189, 116, 220
-0.992824, 357, 189, 388, 220
-0.992826, 313, 157, 344, 188
-0.992827, 245, 217, 276, 248
-0.992833, 57, 185, 88, 216
-0.992838, 113, 157, 144, 188
-0.992845, 385, 1, 416, 128
-0.992851, 317, 89, 348, 120
-0.992865, 193, 165, 224, 196
-0.992867, 145, 197, 176, 228
-0.992867, 157, 197, 188, 228
-0.992867, 125, 209, 156, 240
-0.992871, 49, 145, 80, 272
-0.992871, 345, 185, 376, 216
-0.992873, 373, 149, 404, 180
-0.992881, 381, 189, 412, 220
-0.992882, 153, 213, 184, 244
-0.99289, 393, 109, 424, 140
-0.992891, 241, 69, 272, 100
-0.992894, 217, 101, 248, 132
-0.992896, 289, 81, 320, 112
-0.992902, 381, 217, 412, 248
-0.992904, 233, 237, 264, 268
-0.992906, 225, 141, 256, 172
-0.99291, 225, 81, 256, 112
-0.992919, 209, 241, 240, 272
-0.992925, 169, 157, 200, 188
-0.992926, 325, 157, 356, 188
-0.992927, 225, 185, 352, 216
-0.992932, 405, 201, 436, 232
-0.992935, 249, 185, 280, 216
-0.99295, 201, 153, 232, 184
-0.992954, 365, 165, 396, 196
-0.992958, 277, 165, 308, 196
-0.99296, 265, 225, 296, 256
-0.992966, 449, 129, 480, 256
-0.992968, 53, 229, 84, 260
-0.992974, 217, 217, 248, 248
-0.992977, 275, 121, 290, 184
-0.992979, 361, 153, 392, 184
-0.992983, 329, 109, 360, 140
-0.992991, 345, 109, 376, 140
-0.993191, 1, 129, 500, 192
-0.993218, 1, 225, 500, 288
-0.99322, 129, 177, 384, 240
-0.993255, 289, 189, 416, 220
-0.993357, 409, 65, 440, 192
-0.993365, 49, 177, 176, 208
-0.993382, 177, 109, 304, 140
-0.99341, 33, 113, 64, 240
-0.993417, 81, 161, 208, 192
-0.993475, 17, 1, 80, 375
-0.993477, 1, 105, 500, 168
-0.993486, 77, 97, 108, 224
-0.9935, 241, 97, 368, 128
-0.993525, 97, 73, 352, 136
-0.993554, 129, 33, 384, 96
-0.993555, 9, 33, 40, 160
-0.993567, 129, 221, 256, 252
-0.993618, 321, 177, 448, 208
-0.99364, 73, 201, 88, 264
-0.993694, 129, 157, 256, 188
-0.993695, 273, 201, 400, 232
-0.993698, 399, 105, 414, 168
-0.993711, 129, 17, 160, 144
-0.993744, 269, 113, 284, 176
-0.993758, 273, 177, 400, 208
-0.99376, 405, 113, 420, 176
-0.993764, 377, 145, 392, 208
-0.993781, 327, 153, 342, 216
-0.993807, 193, 229, 320, 260
-0.993809, 137, 161, 152, 224
-0.993814, 305, 145, 320, 208
-0.993819, 351, 153, 366, 216
-0.993824, 49, 237, 176, 268
-0.993845, 277, 161, 292, 224
-0.99385, 129, 209, 256, 240
-0.993852, 197, 17, 228, 144
-0.99389, 267, 185, 282, 248
-0.993891, 441, 81, 472, 208
-0.993911, 129, 177, 256, 208
-0.993912, 97, 121, 352, 184
-0.993918, 231, 177, 246, 240
-0.99393, 269, 89, 284, 152
-0.993973, 125, 233, 140, 296
-0.993988, 267, 161, 282, 224
-0.993998, 65, 25, 192, 88
-0.994007, 385, 145, 400, 208
-0.994018, 391, 145, 406, 208
-0.994047, 361, 145, 376, 208
-0.994049, 49, 1, 80, 128
-0.994065, 305, 229, 432, 260
-0.99407, 241, 77, 368, 108
-0.994078, 193, 209, 208, 272
-0.994121, 335, 153, 350, 216
-0.994138, 241, 185, 256, 248
-0.994143, 397, 169, 412, 232
-0.994144, 233, 153, 248, 216
-0.994153, 295, 145, 310, 208
-0.994155, 97, 189, 224, 220
-0.994159, 289, 153, 416, 184
-0.99417, 63, 185, 78, 248
-0.994172, 241, 145, 256, 208
-0.994177, 133, 233, 148, 296
-0.994211, 145, 241, 176, 368
-0.994226, 139, 233, 154, 296
-0.99423, 97, 233, 112, 296
-0.99423, 145, 161, 160, 224
-0.994234, 147, 137, 162, 200
-0.994247, 317, 153, 332, 216
-0.99426, 229, 1, 260, 128
-0.994305, 249, 225, 280, 352
-0.994309, 89, 241, 152, 368
-0.99431, 417, 193, 448, 320
-0.994311, 193, 97, 320, 128
-0.994357, 289, 89, 416, 120
-0.994368, 113, 233, 240, 264
-0.99437, 291, 105, 306, 168
-0.994397, 129, 201, 144, 264
-0.994408, 425, 161, 440, 224
-0.994411, 283, 97, 298, 160
-0.994419, 301, 169, 316, 232
-0.99443, 371, 145, 386, 208
-0.994431, 85, 1, 116, 128
-0.994443, 187, 209, 202, 272
-0.994446, 193, 145, 320, 176
-0.994447, 195, 177, 210, 240
-0.994455, 149, 225, 164, 288
-0.994457, 201, 177, 216, 240
-0.994472, 221, 153, 236, 216
-0.994483, 33, 49, 288, 112
-0.994509, 137, 201, 152, 264
-0.99451, 159, 209, 174, 272
-0.994522, 353, 1, 416, 128
-0.994545, 115, 233, 130, 296
-0.994549, 407, 177, 422, 240
-0.99455, 1, 73, 256, 136
-0.994566, 275, 89, 290, 152
-0.994577, 337, 241, 464, 368
-0.994579, 417, 129, 432, 192
-0.994581, 141, 137, 156, 200
-0.994599, 257, 49, 500, 112
-0.994606, 241, 109, 368, 140
-0.994608, 399, 145, 414, 208
-0.99461, 153, 185, 168, 248
-0.994634, 117, 201, 132, 264
-0.994641, 161, 153, 176, 216
-0.994671, 155, 129, 170, 192
-0.994677, 321, 165, 448, 196
-0.994682, 63, 209, 78, 272
-0.994683, 123, 201, 138, 264
-0.994689, 311, 153, 326, 216
-0.994712, 143, 201, 158, 264
-0.994722, 155, 153, 170, 216
-0.99474, 345, 153, 360, 216
-0.994742, 407, 137, 422, 200
-0.994749, 297, 105, 312, 168
-0.994751, 317, 1, 348, 128
-0.994782, 269, 137, 284, 200
-0.994786, 177, 209, 192, 272
-0.994797, 69, 33, 100, 160
-0.994806, 99, 161, 114, 224
-0.99481, 105, 233, 120, 296
-0.994812, 49, 189, 176, 220
-0.994822, 161, 65, 288, 96
-0.994835, 183, 185, 198, 248
-0.994846, 189, 185, 204, 248
-0.994863, 289, 225, 320, 352
-0.994874, 261, 137, 276, 200
-0.994898, 205, 153, 220, 216
-0.994929, 281, 121, 296, 184
-0.994947, 97, 97, 352, 160
-0.994967, 247, 185, 262, 248
-0.994985, 89, 169, 104, 232
-0.994987, 33, 49, 64, 176
-0.995002, 129, 141, 256, 172
-0.995006, 87, 201, 102, 264
-0.995017, 257, 185, 272, 248
-0.995017, 205, 201, 220, 264
-0.995036, 247, 145, 262, 208
-0.995038, 337, 149, 464, 180
-0.995052, 305, 113, 432, 144
-0.995067, 185, 49, 216, 176
-0.995077, 273, 65, 400, 96
-0.99508, 79, 169, 94, 232
-0.995086, 79, 201, 94, 264
-0.995102, 65, 249, 192, 280
-0.995105, 131, 161, 146, 224
-0.995113, 391, 177, 406, 240
-0.995113, 135, 137, 150, 200
-0.995117, 9, 129, 72, 375
-0.995118, 241, 161, 368, 192
-0.995121, 199, 209, 214, 272
-0.995125, 107, 161, 122, 224
-0.995128, 425, 185, 440, 248
-0.995132, 161, 129, 176, 192
-0.995146, 415, 185, 430, 248
-0.995228, 225, 185, 240, 248
-0.995253, 193, 153, 208, 216
-0.995264, 263, 105, 278, 168
-0.995275, 65, 1, 192, 64
-0.995293, 273, 193, 288, 256
-0.995294, 177, 241, 304, 272
-0.995295, 295, 81, 310, 144
-0.995303, 193, 157, 320, 188
-0.995335, 175, 249, 190, 312
-0.995348, 257, 233, 384, 264
-0.995359, 165, 241, 196, 368
-0.995361, 397, 209, 428, 336
-0.995391, 381, 217, 396, 280
-0.995403, 1, 81, 500, 144
-0.995409, 219, 201, 234, 264
-0.995415, 193, 85, 320, 116
-0.995416, 199, 153, 214, 216
-0.995419, 177, 217, 304, 248
-0.995431, 1, 145, 256, 208
-0.995441, 263, 73, 278, 136
-0.995461, 433, 129, 496, 375
-0.995472, 225, 197, 352, 228
-0.99549, 71, 225, 86, 288
-0.995504, 177, 177, 304, 208
-0.995514, 287, 73, 302, 136
-0.995541, 289, 137, 304, 200
-0.995542, 185, 249, 200, 312
-0.995545, 165, 249, 180, 312
-0.995553, 369, 97, 496, 128
-0.995557, 101, 1, 132, 128
-0.995578, 33, 1, 288, 64
-0.995607, 227, 153, 242, 216
-0.99564, 385, 169, 400, 232
-0.995647, 167, 185, 182, 248
-0.995654, 411, 113, 426, 176
-0.995654, 151, 249, 166, 312
-0.995654, 193, 249, 208, 312
-0.99567, 193, 53, 320, 84
-0.995671, 241, 121, 368, 152
-0.995673, 159, 249, 174, 312
-0.995707, 113, 241, 176, 368
-0.995715, 393, 105, 408, 168
-0.995716, 225, 209, 352, 240
-0.995752, 283, 161, 298, 224
-0.995758, 205, 241, 220, 304
-0.995772, 431, 153, 446, 216
-0.995777, 249, 105, 264, 168
-0.995779, 211, 153, 226, 216
-0.99578, 251, 73, 266, 136
-0.995814, 1, 173, 128, 204
-0.995815, 375, 225, 390, 288
-0.99582, 225, 73, 240, 136
-0.995822, 161, 33, 288, 64
-0.995827, 49, 149, 176, 180
-0.995831, 369, 165, 496, 196
-0.995849, 91, 233, 106, 296
-0.995852, 241, 113, 256, 176
-0.995854, 335, 185, 350, 248
-0.995855, 317, 233, 332, 296
-0.995857, 99, 185, 114, 248
-0.995861, 289, 77, 416, 108
-0.995862, 305, 217, 432, 248
-0.995876, 109, 129, 140, 375
-0.995883, 257, 221, 384, 252
-0.995897, 239, 217, 254, 280
-0.995918, 281, 73, 296, 136
-0.995935, 397, 49, 428, 176
-0.995943, 57, 201, 72, 264
-0.995944, 93, 129, 124, 375
-0.99595, 187, 161, 202, 224
-0.995951, 73, 177, 88, 240
-0.995957, 465, 1, 496, 128
-0.995958, 49, 97, 80, 224
-0.996002, 129, 249, 384, 312
-0.996023, 117, 17, 148, 144
-0.99604, 189, 129, 220, 375
-0.996133, 273, 53, 400, 84
-0.996141, 193, 1, 448, 64
-0.996152, 49, 49, 80, 176
-0.996166, 129, 129, 160, 375
-0.996173, 369, 109, 496, 140
-0.996178, 141, 129, 172, 375
-0.996195, 161, 129, 288, 160
-0.996213, 1, 249, 500, 312
-0.996216, 265, 65, 296, 320
-0.99622, 241, 37, 368, 68
-0.996221, 177, 129, 208, 375
-0.996224, 421, 49, 452, 176
-0.996244, 209, 65, 336, 96
-0.996266, 1, 121, 256, 184
-0.996274, 201, 65, 232, 320
-0.996281, 161, 5, 288, 36
-0.996288, 225, 173, 352, 204
-0.996289, 241, 141, 368, 172
-0.99629, 161, 21, 288, 52
-0.996299, 337, 189, 464, 220
-0.996324, 257, 249, 500, 312
-0.996338, 241, 25, 368, 56
-0.996369, 401, 97, 432, 352
-0.996377, 241, 1, 368, 32
-0.996407, 1, 189, 128, 220
-0.996434, 353, 213, 480, 244
-0.996448, 85, 49, 116, 176
-0.996463, 381, 65, 412, 320
-0.996478, 353, 85, 480, 116
-0.996493, 129, 77, 256, 108
-0.996514, 1, 57, 500, 120
-0.996528, 81, 69, 208, 100
-0.996536, 49, 221, 176, 252
-0.996593, 99, 189, 114, 220
-0.99661, 241, 261, 368, 292
-0.996613, 369, 137, 496, 168
-0.996627, 165, 129, 196, 375
-0.996627, 129, 245, 256, 276
-0.996637, 1, 69, 128, 100
-0.99665, 273, 13, 400, 44
-0.99665, 153, 129, 184, 375
-0.996651, 337, 201, 464, 232
-0.996675, 33, 25, 288, 88
-0.996689, 277, 65, 308, 320
-0.996726, 33, 161, 160, 192
-0.996739, 65, 273, 320, 336
-0.99677, 1, 233, 128, 264
-0.996772, 81, 97, 112, 352
-0.996781, 145, 93, 272, 124
-0.996801, 409, 1, 440, 128
-0.996817, 257, 25, 500, 88
-0.996839, 321, 249, 448, 280
-0.996847, 149, 165, 164, 196
-0.996878, 301, 101, 316, 132
-0.99689, 1, 261, 128, 292
-0.996917, 465, 129, 496, 256
-0.996928, 277, 109, 292, 140
-0.996929, 337, 125, 464, 156
-0.996978, 1, 205, 128, 236
-0.996982, 369, 33, 400, 288
-0.997011, 419, 173, 434, 204
-0.997032, 139, 233, 154, 264
-0.997038, 393, 105, 408, 136
-0.997085, 113, 25, 240, 56
-0.997087, 289, 145, 304, 176
-0.997088, 429, 177, 444, 208
-0.997088, 113, 13, 240, 44
-0.997089, 283, 113, 298, 144
-0.99709, 253, 33, 284, 288
-0.997097, 61, 205, 76, 236
-0.997099, 213, 33, 244, 288
-0.997103, 129, 237, 144, 268
-0.997105, 157, 177, 172, 208
-0.997106, 179, 209, 194, 240
-0.997107, 241, 33, 272, 288
-0.99713, 69, 229, 84, 260
-0.997137, 129, 33, 160, 288
-0.997138, 139, 157, 154, 188
-0.99714, 305, 1, 432, 32
-0.997143, 133, 165, 148, 196
-0.997152, 353, 73, 480, 104
-0.997163, 1, 17, 500, 80
-0.997172, 315, 177, 330, 208
-0.997175, 299, 145, 314, 176
-0.99719, 317, 101, 332, 132
-0.997203, 113, 37, 240, 68
-0.997209, 69, 129, 100, 375
-0.997213, 113, 169, 128, 200
-0.997215, 321, 189, 336, 220
-0.997221, 107, 173, 122, 204
-0.997226, 311, 97, 326, 128
-0.997228, 81, 233, 96, 264
-0.997234, 177, 269, 304, 300
-0.997236, 289, 65, 320, 320
-0.997244, 1, 221, 128, 252
-0.997249, 413, 129, 444, 375
-0.997254, 327, 177, 342, 208
-0.997257, 369, 177, 496, 208
-0.997257, 415, 129, 430, 160
-0.997264, 69, 193, 84, 224
-0.997267, 129, 109, 256, 140
-0.99729, 105, 189, 120, 220
-0.997295, 75, 233, 90, 264
-0.997308, 63, 225, 78, 256
-0.997318, 399, 109, 414, 140
-0.997326, 113, 53, 240, 84
-0.997329, 277, 121, 292, 152
-0.997329, 401, 1, 432, 256
-0.99733, 225, 245, 352, 276
-0.997333, 157, 157, 172, 188
-0.997348, 325, 101, 340, 132
-0.99735, 143, 169, 158, 200
-0.997357, 189, 209, 204, 240
-0.997361, 287, 189, 302, 220
-0.997363, 291, 105, 306, 136
-0.997363, 351, 173, 366, 204
-0.997368, 49, 273, 176, 304
-0.997388, 177, 33, 208, 288
-0.997398, 321, 177, 336, 208
-0.997407, 113, 1, 240, 32
-0.997411, 321, 33, 352, 288
-0.997413, 263, 185, 278, 216
-0.997419, 257, 141, 272, 172
-0.997423, 353, 61, 480, 92
-0.997424, 81, 137, 208, 168
-0.997431, 101, 177, 116, 208
-0.997446, 253, 101, 268, 132
-0.997447, 289, 41, 416, 72
-0.997448, 229, 193, 244, 224
-0.997449, 147, 229, 162, 260
-0.997453, 155, 209, 170, 240
-0.997456, 415, 189, 430, 220
-0.997461, 207, 209, 222, 240
-0.997462, 423, 161, 438, 192
-0.997464, 333, 97, 348, 128
-0.99747, 289, 29, 416, 60
-0.997473, 263, 133, 278, 164
-0.997476, 199, 205, 214, 236
-0.997484, 311, 189, 326, 220
-0.997488, 399, 181, 414, 212
-0.997489, 1, 273, 128, 336
-0.997491, 285, 101, 300, 132
-0.997491, 117, 237, 132, 268
-0.997492, 255, 89, 270, 120
-0.997498, 279, 157, 294, 188
-0.997504, 341, 97, 356, 128
-0.997508, 347, 97, 362, 128
-0.997515, 147, 153, 162, 184
-0.997516, 113, 189, 128, 220
-0.99752, 117, 33, 148, 288
-0.99752, 123, 237, 138, 268
-0.997523, 263, 81, 278, 112
-0.997529, 289, 141, 416, 172
-0.997529, 123, 165, 138, 196
-0.997532, 167, 201, 182, 232
-0.997537, 361, 181, 376, 212
-0.997565, 97, 33, 128, 288
-0.997566, 193, 197, 208, 228
-0.997581, 369, 129, 400, 375
-0.997582, 371, 101, 386, 132
-0.997583, 407, 125, 422, 156
-0.997585, 211, 173, 226, 204
-0.997593, 351, 185, 366, 216
-0.997593, 269, 125, 284, 156
-0.997594, 345, 173, 360, 204
-0.997598, 271, 101, 286, 132
-0.997599, 1, 57, 128, 88
-0.997601, 187, 197, 202, 228
-0.997608, 65, 81, 192, 112
-0.997613, 149, 177, 164, 208
-0.997615, 393, 193, 408, 224
-0.997616, 239, 217, 254, 248
-0.997616, 387, 177, 402, 208
-0.997626, 149, 209, 164, 240
-0.997634, 65, 57, 192, 88
-0.997636, 263, 97, 278, 128
-0.997639, 189, 33, 220, 288
-0.997641, 161, 257, 288, 288
-0.997646, 359, 101, 374, 132
-0.997652, 253, 185, 268, 216
-0.997654, 213, 193, 228, 224
-0.997678, 1, 45, 128, 76
-0.997679, 237, 101, 252, 132
-0.997685, 309, 177, 324, 208
-0.997694, 113, 121, 240, 152
-0.997696, 157, 33, 188, 288
-0.9977, 269, 145, 284, 176
-0.997704, 285, 157, 300, 188
-0.997705, 385, 101, 400, 132
-0.997708, 215, 153, 230, 184
-0.997717, 357, 65, 388, 320
-0.997725, 331, 193, 346, 224
-0.997725, 409, 169, 424, 200
-0.997739, 379, 101, 394, 132
-0.997746, 317, 157, 332, 188
-0.997747, 295, 181, 310, 212
-0.997755, 97, 97, 224, 128
-0.997756, 149, 137, 164, 168
-0.997762, 143, 209, 158, 240
-0.997762, 339, 173, 354, 204
-0.997768, 221, 185, 236, 216
-0.997772, 403, 201, 418, 232
-0.997773, 285, 177, 300, 208
-0.997774, 1, 33, 128, 64
-0.997778, 243, 89, 258, 120
-0.997782, 305, 153, 320, 184
-0.997784, 277, 97, 292, 128
-0.997789, 17, 249, 144, 280
-0.997789, 201, 193, 216, 224
-0.99779, 369, 241, 496, 272
-0.997793, 301, 189, 316, 220
-0.997794, 209, 13, 336, 44
-0.997796, 305, 33, 336, 288
-0.997798, 75, 205, 90, 236
-0.997801, 139, 145, 154, 176
-0.997802, 321, 13, 448, 44
-0.997809, 157, 197, 172, 228
-0.997811, 353, 97, 368, 128
-0.997816, 93, 197, 108, 228
-0.997816, 1, 85, 128, 116
-0.997819, 393, 169, 408, 200
-0.99782, 345, 65, 376, 320
-0.997826, 333, 181, 348, 212
-0.997835, 245, 101, 260, 132
-0.99784, 79, 245, 94, 276
-0.997841, 247, 181, 262, 212
-0.997843, 221, 205, 236, 236
-0.997846, 353, 45, 480, 76
-0.997852, 201, 157, 216, 188
-0.997857, 129, 149, 144, 180
-0.997857, 391, 205, 406, 236
-0.997863, 347, 153, 362, 184
-0.997865, 163, 157, 178, 188
-0.99787, 425, 65, 456, 320
-0.997873, 91, 237, 106, 268
-0.997877, 233, 229, 248, 260
-0.997878, 249, 89, 264, 120
-0.99788, 335, 157, 350, 188
-0.997882, 65, 261, 192, 292
-0.997882, 403, 169, 418, 200
-0.997957, 141, 33, 172, 288
-0.99796, 113, 277, 240, 308
-0.998, 453, 33, 484, 288
-0.998034, 353, 1, 480, 32
-0.998072, 353, 25, 480, 56
-0.998084, 49, 281, 176, 344
-0.998097, 225, 33, 256, 288
-0.998111, 245, 129, 276, 375
-0.998222, 113, 257, 240, 288
-0.998226, 1, 21, 128, 52
-0.998246, 57, 129, 88, 375
-0.998286, 1, 97, 256, 160
-0.998355, 353, 225, 480, 256
-0.998367, 257, 151, 320, 166
-0.998377, 217, 197, 280, 212
-0.998386, 105, 171, 168, 186
-0.998386, 333, 33, 364, 288
-0.998403, 247, 129, 262, 256
-0.998414, 89, 179, 152, 194
-0.998418, 345, 105, 408, 120
-0.998418, 377, 177, 440, 192
-0.998428, 217, 191, 280, 206
-0.998432, 217, 155, 280, 170
-0.998433, 281, 151, 344, 166
-0.998438, 65, 191, 128, 206
-0.998438, 249, 77, 312, 92
-0.998439, 353, 181, 416, 196
-0.99844, 241, 183, 304, 198
-0.99844, 257, 191, 320, 206
-0.998441, 273, 201, 336, 216
-0.998443, 65, 201, 128, 216
-0.998444, 385, 185, 448, 200
-0.998444, 369, 13, 496, 44
-0.998447, 281, 79, 344, 94
-0.998447, 369, 191, 432, 206
-0.99845, 169, 211, 232, 226
-0.998451, 65, 237, 128, 252
-0.998454, 289, 103, 352, 118
-0.998459, 209, 103, 272, 118
-0.998459, 121, 233, 152, 248
-0.998459, 121, 155, 184, 170
-0.998459, 357, 103, 388, 118
-0.99846, 209, 211, 240, 226
-0.998461, 265, 121, 296, 136
-0.998462, 385, 211, 416, 226
-0.998464, 233, 103, 264, 118
-0.998464, 265, 147, 296, 162
-0.998464, 145, 179, 176, 194
-0.998464, 61, 235, 92, 250
-0.998465, 353, 113, 416, 128
-0.998465, 65, 185, 128, 200
-0.998465, 233, 149, 296, 164
-0.998466, 145, 139, 176, 154
-0.998466, 117, 155, 148, 170
-0.998467, 221, 157, 252, 172
-0.998468, 273, 195, 304, 210
-0.998468, 189, 157, 220, 172
-0.998468, 213, 231, 244, 246
-0.998468, 253, 101, 284, 116
-0.998469, 337, 197, 368, 212
-0.99847, 385, 219, 416, 234
-0.998471, 269, 133, 300, 148
-0.998472, 289, 193, 320, 208
-0.998473, 145, 173, 176, 188
-0.998474, 201, 157, 232, 172
-0.998474, 249, 203, 312, 218
-0.998474, 73, 177, 104, 192
-0.998474, 349, 183, 380, 198
-0.998475, 249, 111, 312, 126
-0.998475, 97, 181, 128, 196
-0.998475, 345, 189, 376, 204
-0.998475, 169, 157, 232, 172
-0.998476, 177, 197, 240, 212
-0.998477, 297, 191, 360, 206
-0.998478, 201, 111, 232, 126
-0.998479, 413, 165, 444, 180
-0.99848, 325, 199, 356, 214
-0.99848, 405, 125, 436, 140
-0.998481, 377, 169, 408, 184
-0.998483, 405, 139, 436, 154
-0.998483, 57, 207, 88, 222
-0.998483, 329, 191, 360, 206
-0.998483, 93, 169, 124, 184
-0.998484, 217, 129, 248, 375
-0.998484, 93, 237, 124, 252
-0.998485, 257, 157, 320, 172
-0.998485, 345, 221, 408, 236
-0.998485, 361, 187, 392, 202
-0.998486, 385, 171, 448, 186
-0.998487, 249, 197, 312, 212
-0.998487, 153, 221, 216, 236
-0.998487, 241, 101, 304, 116
-0.998487, 349, 195, 380, 210
-0.998488, 69, 207, 100, 222
-0.998488, 269, 127, 300, 142
-0.998489, 305, 113, 336, 128
-0.99849, 297, 199, 360, 214
-0.99849, 281, 113, 344, 128
-0.99849, 245, 149, 276, 164
-0.99849, 73, 173, 136, 188
-0.998491, 141, 165, 172, 180
-0.998491, 373, 195, 404, 210
-0.998491, 185, 189, 248, 204
-0.998492, 417, 177, 448, 192
-0.998493, 277, 121, 308, 136
-0.998493, 393, 121, 424, 136
-0.998494, 257, 129, 288, 144
-0.998495, 105, 185, 168, 200
-0.998495, 281, 183, 344, 198
-0.998497, 161, 221, 192, 236
-0.998498, 229, 185, 260, 200
-0.998499, 257, 139, 288, 154
-0.998499, 221, 197, 252, 212
-0.998499, 145, 173, 208, 188
-0.9985, 273, 115, 304, 130
-0.9985, 281, 159, 344, 174
-0.9985, 197, 215, 228, 230
-0.9985, 297, 159, 328, 174
-0.9985, 81, 243, 144, 258
-0.998501, 345, 197, 408, 212
-0.998501, 285, 179, 316, 194
-0.998501, 377, 149, 440, 164
-0.998501, 129, 151, 160, 166
-0.998504, 121, 241, 152, 256
-0.998507, 125, 163, 156, 178
-0.998508, 205, 189, 236, 204
-0.998508, 273, 189, 304, 204
-0.998509, 145, 211, 176, 226
-0.99851, 121, 165, 184, 180
-0.99851, 313, 103, 344, 118
-0.99851, 57, 201, 88, 216
-0.998511, 409, 131, 440, 146
-0.998512, 313, 103, 376, 118
-0.998513, 77, 185, 108, 200
-0.998513, 361, 169, 424, 184
-0.998513, 373, 177, 404, 192
-0.998514, 297, 97, 328, 112
-0.998516, 309, 199, 340, 214
-0.998516, 137, 231, 168, 246
-0.998517, 121, 177, 184, 192
-0.998518, 273, 181, 304, 196
-0.998518, 273, 101, 304, 116
-0.998518, 89, 165, 152, 180
-0.99852, 397, 167, 428, 182
-0.998521, 241, 185, 272, 200
-0.998522, 321, 195, 384, 210
-0.998522, 217, 203, 280, 218
-0.998522, 201, 239, 264, 254
-0.998523, 329, 189, 392, 204
-0.998523, 293, 187, 324, 202
-0.998524, 265, 105, 328, 120
-0.998525, 209, 105, 240, 120
-0.998525, 361, 227, 424, 242
-0.998526, 265, 153, 296, 168
-0.998526, 77, 237, 108, 252
-0.998527, 329, 183, 392, 198
-0.998527, 369, 105, 400, 120
-0.998528, 273, 119, 336, 134
-0.998528, 129, 149, 192, 164
-0.998529, 377, 183, 408, 198
-0.998529, 141, 151, 172, 166
-0.99853, 249, 143, 312, 158
-0.99853, 377, 205, 440, 220
-0.998531, 353, 175, 416, 190
-0.998531, 89, 193, 152, 208
-0.998532, 253, 183, 284, 198
-0.998532, 293, 201, 324, 216
-0.998534, 329, 111, 392, 126
-0.998535, 217, 185, 280, 200
-0.998536, 129, 205, 192, 220
-0.998536, 373, 189, 404, 204
-0.998537, 189, 209, 220, 224
-0.998537, 81, 253, 144, 268
-0.998537, 65, 179, 128, 194
-0.998538, 377, 219, 440, 234
-0.998539, 265, 205, 296, 220
-0.998539, 405, 145, 436, 160
-0.998539, 49, 207, 112, 222
-0.998539, 417, 113, 432, 240
-0.99854, 377, 211, 440, 226
-0.998541, 137, 145, 168, 160
-0.998541, 361, 193, 392, 208
-0.998542, 305, 111, 368, 126
-0.998542, 385, 115, 416, 130
-0.998542, 193, 111, 256, 126
-0.998543, 405, 179, 436, 194
-0.998543, 249, 131, 312, 146
-0.998543, 281, 109, 312, 124
-0.998544, 185, 247, 248, 262
-0.998544, 257, 233, 320, 248
-0.998544, 261, 111, 292, 126
-0.998546, 285, 161, 316, 176
-0.998547, 349, 177, 380, 192
-0.998547, 389, 203, 420, 218
-0.998548, 257, 189, 288, 204
-0.99855, 401, 121, 464, 136
-0.99855, 221, 105, 252, 120
-0.99855, 417, 183, 448, 198
-0.998551, 401, 131, 464, 146
-0.998551, 105, 233, 168, 248
-0.998552, 317, 193, 348, 208
-0.998552, 93, 201, 124, 216
-0.998553, 145, 213, 208, 228
-0.998554, 145, 159, 208, 174
-0.998554, 289, 73, 352, 88
-0.998554, 257, 177, 320, 192
-0.998555, 217, 81, 280, 96
-0.998557, 273, 159, 304, 174
-0.998557, 85, 177, 116, 192
-0.998557, 257, 209, 320, 224
-0.998558, 289, 95, 352, 110
-0.998559, 113, 177, 144, 192
-0.99856, 237, 193, 268, 208
-0.99856, 201, 229, 264, 244
-0.998561, 377, 131, 440, 146
-0.998562, 305, 189, 336, 204
-0.998563, 89, 199, 152, 214
-0.998563, 89, 209, 152, 224
-0.998564, 97, 157, 160, 172
-0.998564, 401, 137, 464, 152
-0.998566, 193, 217, 256, 232
-0.998566, 153, 193, 216, 208
-0.998566, 265, 97, 328, 112
-0.998566, 361, 181, 392, 196
-0.998567, 269, 77, 300, 92
-0.998567, 281, 85, 344, 100
-0.998568, 305, 227, 368, 242
-0.998568, 287, 65, 302, 192
-0.998569, 317, 183, 348, 198
-0.998569, 193, 157, 256, 172
-0.99857, 321, 95, 384, 110
-0.998572, 437, 97, 468, 352
-0.998572, 249, 123, 312, 138
-0.998572, 201, 223, 264, 238
-0.998573, 165, 215, 196, 230
-0.998573, 217, 215, 280, 230
-0.998574, 97, 175, 128, 190
-0.998575, 113, 211, 176, 226
-0.998575, 409, 163, 472, 178
-0.998576, 365, 171, 396, 186
-0.998577, 385, 165, 448, 180
-0.998578, 193, 203, 256, 218
-0.998579, 401, 143, 464, 158
-0.99858, 277, 203, 308, 218
-0.99858, 177, 181, 240, 196
-0.99858, 225, 111, 288, 126
-0.998581, 261, 195, 292, 210
-0.998581, 137, 229, 200, 244
-0.998581, 109, 171, 140, 186
-0.998581, 305, 129, 320, 256
-0.998581, 201, 209, 264, 224
-0.998583, 41, 235, 104, 250
-0.998584, 225, 239, 288, 254
-0.998585, 249, 87, 312, 102
-0.998585, 369, 121, 432, 136
-0.998586, 145, 165, 208, 180
-0.998587, 225, 137, 288, 152
-0.998588, 241, 163, 304, 178
-0.998588, 397, 185, 428, 200
-0.998588, 209, 147, 272, 162
-0.998589, 225, 129, 288, 144
-0.99859, 385, 177, 416, 192
-0.998591, 217, 187, 248, 202
-0.998591, 97, 191, 128, 206
-0.998591, 305, 157, 368, 172
-0.998592, 205, 199, 236, 214
-0.998593, 233, 129, 248, 256
-0.998593, 105, 239, 168, 254
-0.998593, 133, 177, 164, 192
-0.998593, 17, 221, 80, 236
-0.998595, 385, 111, 448, 126
-0.998595, 405, 173, 436, 188
-0.998596, 69, 33, 100, 288
-0.998597, 321, 177, 384, 192
-0.998598, 417, 171, 480, 186
-0.998601, 137, 157, 168, 172
-0.998604, 133, 171, 164, 186
-0.998607, 177, 211, 208, 226
-0.99861, 381, 107, 412, 122
-0.998611, 167, 145, 182, 272
-0.998618, 305, 183, 336, 198
-0.998625, 121, 171, 152, 186
-0.998626, 293, 105, 324, 120
-0.998641, 33, 133, 160, 164
-0.998641, 257, 129, 272, 256
-0.998647, 413, 1, 444, 256
-0.998662, 289, 151, 320, 166
-0.998671, 147, 145, 162, 272
-0.998674, 141, 145, 156, 272
-0.998679, 255, 65, 270, 192
-0.998683, 401, 97, 416, 224
-0.998712, 281, 97, 296, 224
-0.998721, 395, 113, 410, 240
-0.998723, 217, 145, 232, 272
-0.998726, 465, 33, 496, 288
-0.998727, 289, 261, 416, 292
-0.998741, 65, 121, 192, 152
-0.998745, 391, 161, 406, 288
-0.99875, 157, 145, 172, 272
-0.998761, 241, 129, 256, 256
-0.998765, 299, 129, 314, 256
-0.998765, 225, 161, 240, 288
-0.998766, 243, 81, 258, 208
-0.998774, 237, 177, 252, 304
-0.998776, 1, 9, 128, 40
-0.998779, 405, 145, 420, 272
-0.998794, 273, 249, 400, 280
-0.998809, 257, 177, 272, 304
-0.998812, 133, 145, 148, 272
-0.998813, 311, 97, 326, 224
-0.998813, 211, 145, 226, 272
-0.998825, 407, 97, 422, 224
-0.99883, 269, 161, 284, 288
-0.99883, 333, 97, 348, 224
-0.998832, 77, 177, 92, 304
-0.998845, 175, 145, 190, 272
-0.998854, 139, 193, 154, 320
-0.998858, 339, 97, 354, 224
-0.998862, 183, 145, 198, 272
-0.998863, 323, 129, 338, 256
-0.998874, 115, 145, 130, 272
-0.998874, 311, 145, 326, 272
-0.998875, 293, 97, 308, 224
-0.998877, 423, 145, 438, 272
-0.998889, 251, 177, 266, 304
-0.998896, 237, 81, 252, 208
-0.998899, 109, 145, 124, 272
-0.998902, 411, 161, 426, 288
-0.998916, 41, 1, 72, 256
-0.998919, 115, 193, 130, 320
-0.99892, 243, 177, 258, 304
-0.998923, 217, 193, 232, 320
-0.998924, 383, 129, 398, 256
-0.998929, 249, 65, 264, 192
-0.998932, 71, 177, 86, 304
-0.99894, 157, 193, 172, 320
-0.998941, 339, 145, 354, 272
-0.998951, 87, 193, 102, 320
-0.998953, 269, 65, 284, 192
-0.99896, 373, 113, 388, 240
-0.998964, 263, 129, 278, 256
-0.99897, 317, 97, 332, 224
-0.99897, 397, 161, 412, 288
-0.998971, 109, 193, 124, 320
-0.998973, 305, 177, 320, 304
-0.998973, 347, 97, 362, 224
-0.998974, 177, 193, 192, 320
-0.998974, 189, 145, 204, 272
-0.998982, 195, 145, 210, 272
-0.998985, 99, 145, 114, 272
-0.99899, 331, 161, 346, 288
-0.998994, 317, 161, 332, 288
-0.998997, 121, 145, 136, 272
-0.998998, 129, 193, 144, 320
-0.999011, 351, 145, 366, 272
-0.999018, 93, 193, 108, 320
-0.999029, 281, 145, 296, 272
-0.999031, 127, 129, 142, 256
-0.999034, 121, 193, 136, 320
-0.999036, 45, 129, 76, 375
-0.999039, 57, 33, 88, 288
-0.999039, 103, 193, 118, 320
-0.999044, 385, 81, 400, 208
-0.999054, 93, 145, 108, 272
-0.999057, 361, 65, 376, 192
-0.999067, 151, 193, 166, 320
-0.999071, 87, 145, 102, 272
-0.999071, 367, 129, 382, 256
-0.999072, 261, 81, 276, 208
-0.999075, 323, 65, 338, 192
-0.999076, 417, 177, 432, 304
-0.999076, 181, 97, 196, 224
-0.999079, 299, 81, 314, 208
-0.999081, 299, 177, 314, 304
-0.999081, 345, 161, 360, 288
-0.999084, 227, 113, 242, 240
-0.999085, 275, 81, 290, 208
-0.999088, 175, 97, 190, 224
-0.999091, 65, 177, 80, 304
-0.999092, 205, 145, 220, 272
-0.999118, 183, 193, 198, 320
-0.999128, 171, 193, 186, 320
-0.999128, 379, 81, 394, 208
-0.999131, 267, 209, 282, 336
-0.999132, 229, 129, 260, 375
-0.999139, 305, 81, 320, 208
-0.99914, 353, 97, 368, 224
-0.999145, 385, 193, 400, 320
-0.999145, 81, 129, 96, 256
-0.999147, 163, 193, 178, 320
-0.999151, 367, 81, 382, 208
-0.999157, 219, 1, 234, 128
-0.999159, 147, 97, 162, 224
-0.999169, 373, 65, 388, 192
-0.999172, 357, 177, 372, 304
-0.999174, 195, 97, 210, 224
-0.999178, 325, 177, 340, 304
-0.999181, 429, 129, 444, 256
-0.999182, 263, 33, 278, 160
-0.999183, 209, 225, 224, 352
-0.999184, 373, 161, 388, 288
-0.999186, 275, 129, 290, 256
-0.999195, 145, 193, 160, 320
-0.999203, 169, 65, 184, 192
-0.999214, 275, 177, 290, 304
-0.999214, 191, 193, 206, 320
-0.999222, 287, 113, 302, 240
-0.99923, 69, 225, 84, 352
-0.999237, 229, 65, 244, 192
-0.999242, 187, 97, 202, 224
-0.999246, 293, 49, 308, 176
-0.999249, 153, 97, 168, 224
-0.999249, 231, 177, 246, 304
-0.999273, 203, 225, 218, 352
-0.999276, 359, 129, 374, 256
-0.999279, 363, 177, 378, 304
-0.999281, 221, 97, 236, 224
-0.999285, 349, 209, 364, 336
-0.999292, 207, 81, 222, 208
-0.99931, 301, 129, 332, 375
-0.999331, 29, 1, 60, 256
-0.999336, 161, 273, 416, 336
-0.999433, 449, 129, 480, 375
-0.999468, 13, 1, 44, 256
-0.999514, 313, 129, 344, 375
-0.999605, 85, 1, 116, 256
-0.999652, 211, 107, 226, 122
-0.999655, 121, 177, 136, 192
-0.999655, 281, 159, 296, 174
-0.999657, 243, 185, 258, 200
-0.999657, 315, 201, 330, 216
-0.999657, 123, 241, 138, 256
-0.999658, 109, 171, 124, 186
-0.999658, 303, 99, 318, 114
-0.999659, 325, 191, 340, 206
-0.999659, 327, 179, 342, 194
-0.999659, 135, 177, 150, 192
-0.999659, 299, 187, 314, 202
-0.999661, 411, 173, 426, 188
-0.999661, 373, 103, 388, 118
-0.999661, 209, 157, 224, 172
-0.999662, 233, 253, 248, 268
-0.999663, 93, 237, 108, 252
-0.999663, 361, 185, 376, 200
-0.999663, 253, 101, 268, 116
-0.999664, 103, 173, 118, 188
-0.999664, 329, 199, 344, 214
-0.999665, 391, 175, 406, 190
-0.999665, 401, 185, 416, 200
-0.999666, 75, 237, 90, 252
-0.999667, 183, 211, 198, 226
-0.999668, 229, 227, 244, 242
-0.99967, 301, 159, 316, 174
-0.99967, 291, 107, 306, 122
-0.99967, 81, 237, 96, 252
-0.99967, 141, 157, 156, 172
-0.99967, 297, 199, 312, 214
-0.999671, 159, 133, 174, 148
-0.999671, 339, 189, 354, 204
-0.999672, 61, 225, 76, 240
-0.999672, 357, 175, 372, 190
-0.999673, 411, 125, 426, 140
-0.999673, 77, 181, 92, 196
-0.999673, 135, 163, 150, 178
-0.999673, 269, 77, 284, 92
-0.999673, 407, 205, 422, 220
-0.999675, 275, 189, 290, 204
-0.999675, 367, 193, 382, 208
-0.999675, 317, 103, 332, 118
-0.999676, 395, 181, 410, 196
-0.999677, 289, 151, 304, 166
-0.999677, 141, 175, 156, 190
-0.999677, 289, 203, 304, 218
-0.999678, 293, 187, 308, 202
-0.999678, 157, 211, 172, 226
-0.999679, 403, 227, 418, 242
-0.999679, 97, 181, 112, 196
-0.999679, 235, 219, 250, 234
-0.999681, 283, 201, 298, 216
-0.999681, 169, 157, 184, 172
-0.999683, 385, 189, 400, 204
-0.999683, 147, 155, 162, 170
-0.999685, 61, 207, 76, 222
-0.999685, 375, 189, 390, 204
-0.999686, 379, 177, 394, 192
-0.999686, 223, 191, 238, 206
-0.999686, 363, 173, 378, 188
-0.999687, 231, 195, 246, 210
-0.999688, 217, 107, 232, 122
-0.999688, 327, 185, 342, 200
-0.999689, 369, 179, 384, 194
-0.999689, 215, 157, 230, 172
-0.999689, 385, 105, 400, 120
-0.999691, 153, 137, 168, 152
-0.999692, 147, 231, 162, 246
-0.999692, 351, 187, 366, 202
-0.999692, 71, 207, 86, 222
-0.999693, 229, 105, 244, 120
-0.999693, 319, 191, 334, 206
-0.999694, 103, 201, 118, 216
-0.999696, 67, 201, 82, 216
-0.999698, 105, 187, 120, 202
-0.999699, 331, 191, 346, 206
-0.999699, 405, 179, 420, 194
-0.999699, 397, 109, 412, 124
-0.999699, 275, 123, 290, 138
-0.999699, 105, 181, 120, 196
-0.9997, 275, 111, 290, 126
-0.9997, 261, 141, 276, 156
-0.9997, 223, 105, 238, 120
-0.9997, 319, 183, 334, 198
-0.999702, 145, 143, 160, 158
-0.999702, 307, 105, 322, 120
-0.999703, 423, 169, 438, 184
-0.999704, 325, 129, 356, 375
-0.999705, 407, 119, 422, 134
-0.999706, 311, 181, 326, 196
-0.999707, 363, 179, 378, 194
-0.999708, 155, 173, 170, 188
-0.999709, 201, 209, 216, 224
-0.99971, 417, 139, 432, 154
-0.99971, 113, 177, 128, 192
-0.99971, 397, 175, 412, 190
-0.999711, 301, 149, 316, 164
-0.999714, 265, 135, 280, 150
-0.999715, 219, 197, 234, 212
-0.999715, 287, 159, 302, 174
-0.999717, 61, 201, 76, 216
-0.999718, 127, 177, 142, 192
-0.999719, 391, 107, 406, 122
-0.99972, 151, 167, 166, 182
-0.999721, 379, 105, 394, 120
-0.999724, 415, 131, 430, 146
-0.999724, 97, 203, 112, 218
-0.999727, 129, 165, 144, 180
-0.999727, 281, 119, 296, 134
-0.999728, 177, 213, 192, 228
-0.99973, 351, 177, 366, 192
-0.99973, 97, 175, 112, 190
-0.99973, 271, 129, 286, 144
-0.999731, 259, 191, 274, 206
-0.999734, 125, 171, 140, 186
-0.999735, 267, 203, 282, 218
-0.999736, 277, 205, 292, 220
-0.999736, 67, 231, 82, 246
-0.999738, 115, 171, 130, 186
-0.999743, 297, 107, 312, 122
-0.999747, 131, 153, 146, 168
-0.999758, 141, 231, 156, 246
-0.99976, 147, 175, 162, 190
-0.999765, 99, 191, 114, 206
-0.999765, 419, 177, 434, 192
-0.999775, 29, 97, 60, 352
-0.999779, 139, 147, 154, 162
-0.999782, 287, 113, 302, 128
-0.999783, 143, 169, 158, 184
-0.999787, 135, 171, 150, 186
-0.999818, 429, 183, 444, 198
-0.999849, 469, 129, 500, 375
-0.999909, 437, 1, 468, 256
-0.999945, 1, 1, 32, 256
-0.999961, 9, 129, 40, 375
-0.999991, 1, 273, 500, 336
-1.00024, 1, 297, 128, 360
-1.00062, 369, 313, 496, 375
-1.00098, 353, 265, 480, 328
-1.00098, 65, 297, 320, 360
-1.00149, 241, 289, 368, 352
-1.00152, 113, 305, 240, 368
-1.0016, 65, 305, 192, 368
-1.00166, 257, 281, 500, 344
-1.0017, 161, 297, 288, 360
-1.00172, 17, 241, 80, 368
-1.00188, 257, 305, 500, 368
-1.00188, 433, 193, 496, 320
-1.00192, 161, 313, 416, 375
-1.00201, 209, 313, 336, 375
-1.00213, 257, 313, 384, 375
-1.00222, 321, 297, 448, 360
-1.00227, 305, 273, 432, 336
-1.00275, 369, 289, 496, 352
-1.00333, 1, 297, 500, 360
-1.00701, 409, 241, 472, 368
-1.01081, 433, 241, 496, 368
