1952
-0.541583, 1, 97, 500, 352
-0.58685, 1, 1, 500, 256
-0.65609, 1, 1, 500, 360
-0.661485, 97, 65, 352, 320
-0.678679, 97, 1, 352, 360
-0.687297, 225, 1, 480, 360
-0.735333, 1, 1, 256, 360
-0.778044, 1, 97, 256, 352
-0.858382, 225, 97, 480, 352
-0.86927, 257, 1, 500, 256
-0.889185, 129, 97, 256, 352
-0.892236, 1, 145, 500, 272
-0.896979, 97, 145, 352, 272
-0.898479, 145, 1, 272, 360
-0.903005, 177, 97, 304, 352
-0.903481, 1, 209, 500, 336
-0.91121, 273, 97, 400, 352
-0.921227, 225, 1, 352, 360
-0.921417, 49, 97, 176, 352
-0.925724, 33, 1, 160, 360
-0.925811, 257, 209, 500, 336
-0.929075, 161, 193, 416, 320
-0.932462, 81, 1, 208, 360
-0.93359, 1, 97, 500, 224
-0.936018, 225, 65, 352, 320
-0.937744, 113, 129, 240, 256
-0.938135, 113, 1, 240, 256
-0.938496, 273, 1, 400, 360
-0.938815, 65, 209, 320, 336
-0.945083, 161, 193, 288, 320
-0.946582, 321, 1, 448, 256
-0.946805, 1, 1, 256, 256
-0.947156, 273, 1, 400, 256
-0.947181, 257, 209, 384, 336
-0.947242, 241, 161, 304, 288
-0.947452, 353, 97, 480, 352
-0.948422, 281, 209, 344, 336
-0.949416, 209, 161, 336, 288
-0.950307, 145, 225, 208, 352
-0.950352, 161, 145, 288, 272
-0.950685, 129, 129, 192, 256
-0.952348, 177, 1, 304, 256
-0.952542, 369, 1, 496, 256
-0.952976, 177, 209, 240, 336
-0.953314, 1, 65, 128, 320
-0.953398, 337, 1, 464, 360
-0.953878, 97, 97, 352, 224
-0.954133, 225, 209, 288, 336
-0.95625, 193, 145, 448, 272
-0.956688, 97, 209, 224, 336
-0.957178, 193, 265, 256, 328
-0.957536, 249, 209, 312, 336
-0.957629, 305, 177, 368, 304
-0.957873, 209, 209, 336, 336
-0.958163, 1, 49, 500, 176
-0.958472, 265, 161, 328, 288
-0.959085, 169, 257, 232, 320
-0.959216, 65, 1, 192, 256
-0.960955, 305, 193, 432, 320
-0.96139, 297, 201, 360, 264
-0.961485, 225, 273, 288, 336
-0.962517, 201, 209, 264, 336
-0.962622, 121, 209, 184, 336
-0.962654, 1, 1, 500, 128
-0.96306, 217, 145, 280, 272
-0.964267, 1, 161, 256, 288
-0.96517, 113, 81, 240, 208
-0.965183, 225, 97, 480, 224
-0.966603, 321, 201, 384, 264
-0.966662, 257, 161, 384, 288
-0.966682, 129, 129, 192, 192
-0.967338, 249, 249, 312, 312
-0.967632, 145, 249, 208, 312
-0.968344, 193, 129, 256, 256
-0.96846, 217, 153, 280, 216
-0.969741, 145, 177, 208, 304
-0.970097, 433, 297, 496, 360
-0.970317, 217, 297, 280, 360
-0.970463, 273, 185, 336, 248
-0.971088, 177, 289, 240, 352
-0.971353, 249, 169, 312, 232
-0.971975, 257, 113, 384, 240
-0.972332, 65, 161, 192, 288
-0.972376, 205, 265, 236, 328
-0.972818, 153, 129, 216, 256
-0.973015, 345, 201, 408, 264
-0.973282, 305, 145, 432, 272
-0.973305, 273, 233, 336, 296
-0.973378, 329, 177, 392, 304
-0.973679, 121, 161, 184, 224
-0.973783, 401, 289, 464, 352
-0.973906, 169, 225, 232, 288
-0.973979, 209, 241, 272, 304
-0.974384, 161, 81, 288, 208
-0.974517, 177, 265, 304, 328
-0.974591, 97, 177, 160, 304
-0.975122, 41, 289, 104, 352
-0.975177, 129, 225, 192, 288
-0.975193, 193, 145, 256, 208
-0.975386, 209, 97, 336, 224
-0.975486, 245, 265, 276, 328
-0.975542, 181, 257, 212, 320
-0.975647, 137, 273, 200, 336
-0.975747, 225, 265, 256, 328
-0.976257, 305, 209, 432, 272
-0.976318, 81, 273, 144, 336
-0.976754, 249, 209, 312, 272
-0.976877, 113, 129, 240, 192
-0.977044, 273, 297, 336, 360
-0.977085, 137, 65, 200, 192
-0.977103, 33, 97, 160, 224
-0.977598, 1, 65, 256, 192
-0.977725, 105, 273, 168, 336
-0.977759, 265, 113, 328, 240
-0.977775, 325, 201, 356, 264
-0.977921, 369, 209, 432, 272
-0.97806, 153, 241, 184, 304
-0.978106, 393, 217, 456, 280
-0.978237, 265, 161, 296, 288
-0.978306, 289, 209, 320, 336
-0.978532, 273, 209, 336, 272
-0.978561, 169, 81, 232, 208
-0.978611, 201, 289, 232, 352
-0.978689, 1, 273, 64, 336
-0.978752, 217, 97, 280, 224
-0.978821, 193, 209, 224, 336
-0.979058, 269, 225, 300, 352
-0.979198, 193, 265, 224, 328
-0.979235, 313, 225, 376, 352
-0.979317, 177, 233, 304, 296
-0.979385, 65, 297, 128, 360
-0.97946, 161, 225, 192, 352
-0.979515, 137, 193, 200, 256
-0.979591, 129, 201, 256, 264
-0.979624, 209, 201, 272, 264
-0.979783, 237, 209, 268, 336
-0.979814, 241, 113, 304, 240
-0.979823, 297, 225, 360, 288
-0.979843, 217, 209, 248, 336
-0.979863, 241, 185, 368, 248
-0.979875, 313, 129, 376, 256
-0.979877, 353, 145, 416, 272
-0.979968, 261, 257, 292, 320
-0.98005, 137, 209, 168, 336
-0.98016, 97, 281, 224, 344
-0.980161, 141, 121, 172, 184
-0.980231, 253, 161, 284, 288
-0.980429, 169, 249, 200, 312
-0.980432, 253, 209, 284, 336
-0.980527, 97, 193, 160, 256
-0.980534, 17, 297, 144, 360
-0.980578, 353, 297, 416, 360
-0.980585, 309, 177, 340, 304
-0.980638, 377, 289, 440, 352
-0.9808, 297, 209, 328, 272
-0.9808, 129, 129, 160, 256
-0.980817, 129, 257, 256, 320
-0.980878, 137, 97, 200, 352
-0.981009, 189, 289, 220, 352
-0.98116, 153, 113, 216, 176
-0.981175, 337, 201, 368, 264
-0.981225, 113, 153, 240, 216
-0.981298, 9, 225, 72, 352
-0.981528, 277, 177, 308, 304
-0.981794, 437, 289, 468, 352
-0.981854, 321, 297, 384, 360
-0.981895, 353, 225, 416, 352
-0.981952, 49, 209, 176, 336
-0.981978, 309, 193, 340, 256
-0.981993, 257, 225, 384, 288
-0.982046, 289, 129, 352, 256
-0.982098, 161, 153, 288, 216
-0.982217, 137, 297, 200, 360
-0.982316, 249, 281, 312, 344
-0.9824, 289, 161, 320, 288
-0.982753, 273, 249, 304, 312
-0.982878, 369, 297, 496, 360
-0.982914, 97, 65, 160, 192
-0.983109, 193, 289, 320, 352
-0.98316, 1, 273, 128, 336
-0.983398, 361, 201, 392, 264
-0.983464, 181, 225, 212, 352
-0.983484, 169, 201, 232, 264
-0.983539, 205, 209, 236, 336
-0.983586, 53, 281, 84, 344
-0.983659, 185, 97, 248, 352
-0.983759, 209, 209, 336, 272
-0.983759, 225, 249, 352, 312
-0.983896, 281, 65, 344, 320
-0.983954, 97, 129, 160, 256
-0.984051, 153, 137, 216, 200
-0.984057, 149, 225, 180, 352
-0.984141, 193, 81, 256, 208
-0.984301, 105, 121, 168, 184
-0.984305, 97, 233, 224, 296
-0.984449, 349, 201, 380, 264
-0.984562, 417, 289, 448, 352
-0.984819, 181, 225, 212, 288
-0.984855, 1, 113, 256, 240
-0.984913, 41, 265, 104, 328
-0.985078, 233, 97, 296, 352
-0.985132, 269, 289, 300, 352
-0.985158, 177, 121, 240, 184
-0.98522, 133, 209, 164, 272
-0.985354, 129, 145, 160, 208
-0.985542, 321, 177, 352, 304
-0.985563, 285, 209, 316, 272
-0.985564, 353, 217, 480, 280
-0.985586, 161, 97, 224, 352
-0.985615, 249, 161, 280, 224
-0.985708, 237, 289, 268, 352
-0.985751, 113, 177, 240, 240
-0.985766, 169, 177, 200, 304
-0.985877, 297, 177, 360, 240
-0.985886, 125, 193, 156, 320
-0.985925, 241, 297, 368, 360
-0.986032, 237, 161, 268, 288
-0.986041, 145, 201, 176, 264
-0.986288, 297, 185, 328, 248
-0.986307, 213, 289, 244, 352
-0.986335, 293, 233, 324, 296
-0.986344, 337, 177, 368, 304
-0.986381, 321, 297, 448, 360
-0.986386, 165, 225, 196, 288
-0.986465, 33, 49, 160, 176
-0.986632, 233, 153, 264, 216
-0.986639, 1, 225, 128, 352
-0.986681, 49, 201, 176, 264
-0.986705, 413, 209, 444, 272
-0.98671, 105, 217, 168, 280
-0.986738, 121, 281, 152, 344
-0.98674, 161, 273, 192, 336
-0.986741, 145, 297, 272, 360
-0.986744, 353, 193, 480, 320
-0.98693, 97, 49, 352, 176
-0.986977, 225, 297, 256, 360
-0.98703, 249, 241, 280, 304
-0.987084, 309, 217, 340, 280
-0.987162, 193, 185, 320, 248
-0.987171, 353, 145, 480, 272
-0.987211, 9, 249, 72, 312
-0.987214, 81, 169, 144, 232
-0.98725, 137, 273, 168, 336
-0.987266, 273, 225, 304, 288
-0.987344, 113, 105, 240, 168
-0.987428, 209, 161, 336, 224
-0.987545, 141, 129, 172, 256
-0.987608, 249, 289, 280, 352
-0.987652, 237, 241, 268, 304
-0.987685, 153, 177, 184, 304
-0.987686, 225, 177, 288, 240
-0.987737, 257, 97, 320, 352
-0.987787, 297, 297, 360, 360
-0.987801, 9, 297, 72, 360
-0.987849, 49, 273, 176, 336
-0.987944, 301, 225, 332, 352
-0.987962, 377, 209, 440, 336
-0.987982, 113, 97, 176, 352
-0.988037, 149, 273, 180, 336
-0.988143, 349, 177, 380, 304
-0.988176, 205, 129, 236, 256
-0.988193, 265, 145, 328, 208
-0.988214, 49, 225, 112, 352
-0.988238, 1, 273, 32, 336
-0.988267, 305, 185, 432, 248
-0.988289, 333, 297, 364, 360
-0.988346, 217, 241, 248, 304
-0.988401, 225, 1, 480, 128
-0.988419, 129, 105, 192, 168
-0.988547, 197, 233, 228, 296
-0.988586, 201, 177, 264, 240
-0.988598, 209, 97, 272, 352
-0.988622, 329, 177, 392, 240
-0.98866, 369, 185, 432, 248
-0.988721, 213, 145, 244, 208
-0.988775, 217, 129, 280, 192
-0.988819, 121, 193, 152, 256
-0.98886, 261, 169, 292, 232
-0.988892, 177, 265, 240, 296
-0.988961, 173, 297, 204, 360
-0.989136, 97, 297, 160, 360
-0.989165, 345, 209, 408, 240
-0.98921, 69, 289, 100, 352
-0.989229, 141, 233, 172, 296
-0.989234, 261, 225, 292, 288
-0.989313, 97, 97, 160, 160
-0.989417, 229, 193, 260, 256
-0.989422, 225, 145, 256, 272
-0.98956, 409, 225, 472, 352
-0.989588, 393, 193, 456, 256
-0.989644, 373, 201, 404, 264
-0.989659, 377, 213, 440, 244
-0.989677, 321, 209, 384, 240
-0.989716, 65, 129, 192, 192
-0.989768, 265, 113, 296, 240
-0.989847, 245, 113, 276, 240
-0.98986, 457, 297, 488, 360
-0.989946, 129, 201, 384, 264
-0.989989, 145, 277, 208, 308
-0.990008, 129, 129, 192, 160
-0.990039, 121, 249, 184, 312
-0.990087, 397, 209, 428, 272
-0.990201, 257, 181, 320, 212
-0.99024, 181, 177, 212, 304
-0.990242, 225, 269, 288, 300
-0.990249, 169, 161, 232, 224
-0.990265, 185, 289, 248, 320
-0.990265, 201, 269, 264, 300
-0.990299, 401, 293, 464, 324
-0.990307, 117, 145, 148, 272
-0.990315, 289, 213, 352, 244
-0.990364, 201, 305, 264, 336
-0.990374, 169, 305, 232, 336
-0.990398, 193, 161, 224, 288
-0.99041, 213, 193, 244, 256
-0.990465, 321, 317, 384, 348
-0.990583, 353, 297, 384, 360
-0.990616, 33, 169, 160, 232
-0.990667, 17, 265, 48, 328
-0.990671, 157, 105, 188, 168
-0.990673, 161, 289, 224, 320
-0.990674, 329, 329, 392, 360
-0.990697, 353, 313, 416, 344
-0.990716, 153, 129, 184, 256
-0.990724, 233, 293, 296, 324
-0.990743, 29, 273, 60, 336
-0.990795, 401, 217, 464, 248
-0.990829, 161, 1, 224, 360
-0.990866, 433, 305, 496, 336
-0.990866, 137, 117, 200, 148
-0.990894, 365, 297, 396, 360
-0.990898, 289, 229, 352, 260
-0.990962, 321, 225, 384, 288
-0.990967, 313, 221, 376, 252
-0.990969, 225, 281, 288, 312
-0.990975, 241, 137, 304, 200
-0.990996, 153, 129, 184, 192
-0.990998, 249, 257, 312, 288
-0.991013, 201, 193, 232, 256
-0.991109, 401, 309, 464, 340
-0.991113, 97, 153, 352, 216
-0.991153, 281, 169, 312, 232
-0.991163, 49, 277, 112, 308
-0.991187, 225, 161, 288, 192
-0.991246, 145, 249, 208, 280
-0.991249, 29, 297, 60, 360
-0.99126, 89, 97, 152, 352
-0.991282, 361, 177, 392, 304
-0.991294, 201, 153, 264, 184
-0.991303, 101, 289, 132, 352
-0.991312, 353, 325, 416, 356
-0.991315, 241, 137, 368, 200
-0.991326, 361, 301, 424, 332
-0.991356, 177, 325, 240, 356
-0.991364, 9, 289, 72, 320
-0.991371, 137, 213, 200, 244
-0.991381, 297, 201, 360, 232
-0.991381, 209, 293, 272, 324
-0.991413, 249, 169, 312, 200
-0.991419, 129, 141, 192, 172
-0.991433, 41, 281, 72, 344
-0.991455, 289, 325, 352, 356
-0.991474, 321, 305, 384, 336
-0.991478, 281, 301, 344, 332
-0.991494, 113, 281, 176, 312
-0.991497, 9, 277, 72, 308
-0.991517, 57, 321, 120, 352
-0.991539, 105, 221, 168, 252
-0.991587, 193, 253, 256, 284
-0.991593, 249, 229, 312, 260
-0.991593, 377, 317, 440, 348
-0.991597, 241, 201, 272, 264
-0.991613, 9, 329, 72, 360
-0.991629, 257, 217, 500, 280
-0.991661, 33, 289, 96, 320
-0.991664, 129, 237, 192, 268
-0.991672, 129, 153, 192, 184
-0.991681, 169, 277, 232, 308
-0.991688, 345, 221, 408, 252
-0.991723, 161, 121, 288, 184
-0.991778, 217, 253, 280, 284
-0.991787, 169, 253, 232, 284
-0.991789, 265, 217, 328, 248
-0.991814, 161, 229, 224, 260
-0.991815, 33, 1, 288, 128
-0.99182, 153, 265, 216, 296
-0.991823, 281, 241, 344, 272
-0.991826, 321, 225, 352, 288
-0.991858, 73, 297, 136, 328
-0.99189, 121, 165, 184, 196
-0.991902, 377, 225, 440, 256
-0.991908, 401, 321, 464, 352
-0.99191, 425, 217, 456, 280
-0.991936, 137, 201, 200, 232
-0.99194, 145, 301, 208, 332
-0.991973, 33, 317, 96, 348
-0.991989, 201, 325, 264, 356
-0.991997, 193, 197, 256, 228
-0.992004, 225, 177, 288, 208
-0.992005, 281, 297, 312, 360
-0.99201, 105, 129, 168, 160
-0.992021, 377, 145, 440, 272
-0.992028, 129, 121, 160, 184
-0.992035, 9, 317, 72, 348
-0.992042, 433, 317, 496, 348
-0.992047, 121, 177, 184, 208
-0.992048, 257, 289, 320, 320
-0.992071, 253, 193, 284, 256
-0.992106, 113, 297, 176, 328
-0.992111, 249, 197, 312, 228
-0.992113, 353, 185, 480, 248
-0.992118, 1, 305, 64, 336
-0.992126, 225, 305, 288, 336
-0.992137, 81, 285, 144, 316
-0.992164, 1, 193, 500, 256
-0.992198, 321, 97, 448, 224
-0.992203, 217, 205, 280, 236
-0.99221, 201, 1, 264, 360
-0.99222, 129, 1, 192, 360
-0.992228, 89, 317, 152, 348
-0.99223, 201, 217, 264, 248
-0.992233, 97, 329, 160, 360
-0.992234, 65, 105, 192, 168
-0.992254, 425, 293, 488, 324
-0.992258, 405, 297, 436, 360
-0.992271, 433, 329, 496, 360
-0.992355, 273, 193, 336, 224
-0.99238, 81, 273, 112, 336
-0.992382, 129, 325, 192, 356
-0.992402, 257, 305, 320, 336
-0.992418, 137, 289, 200, 320
-0.992422, 177, 213, 240, 244
-0.992423, 177, 97, 208, 224
-0.992437, 185, 261, 216, 292
-0.992444, 217, 193, 280, 224
-0.99245, 369, 201, 432, 232
-0.992461, 137, 225, 200, 256
-0.992469, 313, 297, 344, 360
-0.99247, 241, 241, 304, 272
-0.992471, 145, 297, 176, 360
-0.992478, 257, 273, 384, 336
-0.99248, 349, 209, 380, 240
-0.992482, 373, 209, 404, 240
-0.992485, 265, 325, 328, 356
-0.992494, 197, 265, 228, 296
-0.992504, 169, 137, 232, 168
-0.992523, 225, 49, 480, 176
-0.992542, 297, 313, 360, 344
-0.992545, 397, 213, 428, 244
-0.992552, 401, 229, 464, 260
-0.992557, 321, 197, 384, 228
-0.99256, 1, 265, 64, 296
-0.992562, 233, 329, 296, 360
-0.992564, 249, 277, 312, 308
-0.992588, 177, 121, 208, 184
-0.992593, 97, 209, 160, 240
-0.992593, 181, 273, 212, 304
-0.992617, 141, 129, 172, 160
-0.992618, 245, 269, 276, 300
-0.992628, 169, 273, 200, 304
-0.992661, 361, 213, 392, 244
-0.992661, 253, 297, 284, 328
-0.992675, 333, 209, 364, 240
-0.992691, 161, 125, 224, 156
-0.992693, 9, 297, 40, 360
-0.992698, 313, 129, 344, 256
-0.992705, 97, 197, 160, 228
-0.992709, 385, 209, 416, 240
-0.992712, 261, 265, 292, 296
-0.992717, 225, 317, 288, 348
-0.992723, 177, 149, 240, 180
-0.99273, 173, 257, 204, 288
-0.992739, 181, 285, 212, 316
-0.99274, 313, 293, 376, 324
-0.992767, 41, 301, 104, 332
-0.992767, 145, 313, 208, 344
-0.992781, 401, 205, 464, 236
-0.992781, 321, 213, 352, 244
-0.992783, 113, 309, 176, 340
-0.992785, 105, 117, 168, 148
-0.992788, 425, 293, 456, 324
-0.99279, 305, 97, 368, 352
-0.992798, 409, 217, 440, 248
-0.992808, 249, 285, 280, 316
-0.992811, 345, 177, 376, 240
-0.992815, 273, 253, 336, 284
-0.992816, 281, 177, 344, 208
-0.992827, 209, 113, 336, 176
-0.992829, 225, 269, 256, 300
-0.992841, 209, 265, 240, 296
-0.99286, 177, 241, 240, 272
-0.992874, 273, 257, 304, 288
-0.992876, 237, 289, 268, 320
-0.992895, 301, 217, 332, 248
-0.992896, 73, 273, 136, 304
-0.992896, 297, 237, 328, 268
-0.992906, 121, 189, 184, 220
-0.992911, 345, 321, 376, 352
-0.992921, 421, 221, 452, 252
-0.992923, 129, 225, 384, 288
-0.992925, 265, 173, 296, 204
-0.992932, 209, 305, 240, 336
-0.992933, 145, 97, 176, 160
-0.992936, 225, 285, 256, 316
-0.992937, 137, 281, 168, 312
-0.992939, 437, 297, 468, 328
-0.99294, 197, 293, 228, 324
-0.992944, 157, 121, 188, 152
-0.992961, 281, 177, 312, 208
-0.992964, 205, 325, 236, 356
-0.992966, 333, 321, 364, 352
-0.992978, 261, 249, 292, 280
-0.99298, 437, 317, 468, 348
-0.99299, 241, 213, 304, 244
-0.992991, 241, 301, 272, 332
-0.992993, 157, 277, 188, 308
-0.992996, 49, 313, 80, 344
-0.993002, 209, 289, 240, 320
-0.993002, 361, 317, 392, 348
-0.993004, 129, 217, 160, 248
-0.993022, 313, 225, 344, 256
-0.993024, 161, 289, 192, 320
-0.993028, 153, 329, 216, 360
-0.993028, 465, 309, 496, 340
-0.993032, 65, 309, 128, 340
-0.993037, 425, 225, 488, 256
-0.993042, 81, 173, 144, 204
-0.993042, 45, 325, 76, 356
-0.993043, 73, 97, 136, 224
-0.993045, 13, 273, 44, 304
-0.993054, 197, 309, 228, 340
-0.993064, 197, 253, 228, 284
-0.993065, 265, 289, 296, 320
-0.993065, 33, 277, 64, 308
-0.993067, 425, 317, 456, 348
-0.993072, 145, 117, 176, 148
-0.993078, 225, 297, 256, 328
-0.993083, 261, 277, 292, 308
-0.993084, 245, 161, 276, 192
-0.993087, 353, 305, 384, 336
-0.993089, 149, 217, 180, 248
-0.993094, 33, 289, 64, 320
-0.993096, 453, 301, 484, 332
-0.993097, 273, 165, 336, 196
-0.993099, 33, 321, 64, 352
-0.993099, 153, 241, 184, 272
-0.993099, 333, 309, 364, 340
-0.993104, 113, 169, 144, 232
-0.993106, 81, 281, 112, 312
-0.993113, 413, 293, 444, 324
-0.993126, 65, 281, 96, 312
-0.993126, 93, 317, 124, 348
-0.99313, 49, 293, 80, 324
-0.993132, 113, 281, 144, 312
-0.993134, 233, 157, 264, 188
-0.993135, 281, 245, 312, 276
-0.993135, 357, 329, 388, 360
-0.993135, 325, 225, 356, 256
-0.993136, 129, 1, 384, 128
-0.993138, 269, 301, 300, 332
-0.993138, 65, 321, 96, 352
-0.99314, 137, 141, 168, 172
-0.993145, 161, 193, 224, 224
-0.993148, 89, 185, 152, 216
-0.993149, 221, 309, 252, 340
-0.99315, 165, 245, 196, 276
-0.993151, 97, 257, 352, 320
-0.993153, 53, 277, 84, 308
-0.993158, 345, 221, 376, 252
-0.993164, 105, 233, 168, 264
-0.993169, 277, 229, 308, 260
-0.993169, 17, 285, 48, 316
-0.993182, 225, 205, 256, 236
-0.993186, 433, 225, 464, 256
-0.993187, 317, 321, 348, 352
-0.993191, 65, 297, 96, 328
-0.9932, 105, 301, 136, 332
-0.993201, 5, 285, 36, 316
-0.993202, 9, 321, 40, 352
-0.993203, 141, 233, 172, 264
-0.993205, 401, 325, 432, 356
-0.993213, 249, 257, 280, 288
-0.993217, 149, 289, 180, 320
-0.993218, 265, 313, 296, 344
-0.993219, 253, 309, 284, 340
-0.993219, 33, 309, 64, 340
-0.993221, 413, 305, 444, 336
-0.993231, 321, 201, 352, 232
-0.993241, 301, 189, 332, 220
-0.993243, 385, 221, 416, 252
-0.993243, 141, 205, 172, 236
-0.993246, 185, 301, 216, 332
-0.993253, 1, 269, 32, 300
-0.993257, 213, 149, 244, 180
-0.993261, 117, 317, 148, 348
-0.993263, 1, 249, 128, 312
-0.993264, 125, 161, 156, 192
-0.99327, 117, 293, 148, 324
-0.993271, 289, 221, 320, 252
-0.993276, 309, 205, 340, 236
-0.993277, 205, 205, 236, 236
-0.993278, 389, 313, 420, 344
-0.99328, 125, 173, 156, 204
-0.993281, 117, 201, 148, 232
-0.993288, 77, 301, 108, 332
-0.993288, 133, 301, 164, 332
-0.993288, 241, 313, 272, 344
-0.993298, 157, 229, 188, 260
-0.9933, 193, 281, 224, 312
-0.9933, 369, 329, 400, 360
-0.993301, 257, 1, 320, 360
-0.993307, 361, 201, 392, 232
-0.993312, 373, 221, 404, 252
-0.993313, 21, 329, 52, 360
-0.993315, 217, 325, 248, 356
-0.993315, 197, 145, 228, 208
-0.993317, 253, 173, 284, 204
-0.993318, 245, 205, 276, 236
-0.993322, 129, 125, 160, 156
-0.993329, 217, 97, 248, 224
-0.993348, 161, 269, 288, 300
-0.993358, 129, 169, 160, 232
-0.993364, 337, 65, 400, 320
-0.99352, 225, 1, 288, 360
-0.993534, 321, 217, 448, 248
-0.993537, 417, 217, 480, 280
-0.993592, 157, 201, 188, 264
-0.993615, 237, 265, 252, 328
-0.993662, 97, 177, 352, 240
-0.993664, 145, 81, 176, 208
-0.993674, 1, 297, 256, 360
-0.993732, 165, 129, 196, 256
-0.993783, 89, 297, 120, 360
-0.993797, 373, 177, 404, 304
-0.993869, 469, 297, 500, 360
-0.993906, 385, 201, 416, 264
-0.993909, 205, 265, 220, 328
-0.99394, 109, 97, 140, 224
-0.994009, 165, 129, 196, 192
-0.994031, 65, 265, 96, 328
-0.994074, 247, 265, 262, 328
-0.994084, 209, 49, 336, 176
-0.994135, 161, 297, 192, 360
-0.994168, 271, 257, 286, 320
-0.994191, 337, 97, 400, 224
-0.994191, 161, 97, 288, 160
-0.994213, 273, 257, 336, 320
-0.994213, 277, 129, 308, 256
-0.994254, 179, 249, 194, 312
-0.994281, 425, 273, 488, 336
-0.994305, 273, 201, 304, 264
-0.994312, 81, 137, 144, 200
-0.994317, 337, 273, 464, 336
-0.994357, 33, 233, 288, 296
-0.994369, 301, 297, 332, 360
-0.99438, 329, 225, 360, 352
-0.994386, 273, 161, 400, 224
-0.994404, 217, 265, 232, 328
-0.994423, 89, 1, 152, 360
-0.994425, 233, 97, 264, 224
-0.994484, 193, 257, 208, 320
-0.994506, 341, 225, 372, 352
-0.994508, 125, 65, 156, 192
-0.994578, 325, 129, 356, 256
-0.994619, 193, 97, 224, 224
-0.994625, 225, 193, 480, 256
-0.994639, 255, 265, 270, 328
-0.994682, 1, 169, 500, 232
-0.994739, 249, 65, 312, 192
-0.994757, 225, 265, 240, 328
-0.994769, 385, 97, 448, 352
-0.994832, 263, 265, 278, 328
-0.994844, 401, 225, 432, 352
-0.994855, 121, 1, 184, 256
-0.994858, 199, 265, 214, 328
-0.994885, 133, 297, 164, 360
-0.994903, 81, 33, 208, 160
-0.994903, 231, 265, 246, 328
-0.994919, 327, 201, 342, 264
-0.994984, 129, 289, 384, 352
-0.994993, 265, 145, 296, 208
-0.995005, 393, 297, 424, 360
-0.995069, 33, 1, 96, 360
-0.995085, 157, 65, 188, 192
-0.995101, 333, 201, 348, 264
-0.995105, 49, 225, 176, 288
-0.995147, 129, 217, 256, 248
-0.995198, 1, 257, 500, 320
-0.995215, 289, 97, 320, 224
-0.995248, 177, 289, 304, 320
-0.995253, 203, 289, 218, 352
-0.995257, 273, 209, 400, 240
-0.995283, 301, 129, 332, 256
-0.995339, 209, 217, 240, 280
-0.995343, 345, 129, 376, 256
-0.995353, 339, 201, 354, 264
-0.995372, 131, 153, 146, 216
-0.995385, 167, 241, 182, 304
-0.995404, 211, 265, 226, 328
-0.995417, 225, 297, 480, 360
-0.995434, 113, 133, 240, 164
-0.995448, 185, 249, 200, 312
-0.995465, 177, 245, 304, 276
-0.995478, 189, 121, 220, 184
-0.995526, 401, 265, 464, 328
-0.995605, 367, 201, 382, 264
-0.995626, 299, 209, 314, 272
-0.995634, 97, 277, 224, 308
-0.995641, 81, 249, 144, 312
-0.995644, 13, 225, 44, 352
-0.995663, 155, 233, 170, 296
-0.99568, 249, 1, 312, 256
-0.995686, 129, 205, 256, 236
-0.995721, 345, 201, 360, 264
-0.995725, 237, 129, 268, 192
-0.995743, 177, 201, 208, 264
-0.995755, 305, 209, 320, 272
-0.995825, 225, 249, 480, 312
-0.995845, 1, 233, 500, 296
-0.995848, 361, 201, 376, 264
-0.995856, 143, 121, 158, 184
-0.995872, 97, 129, 352, 192
-0.995882, 229, 289, 244, 352
-0.995898, 113, 145, 240, 176
-0.995902, 369, 97, 496, 224
-0.995915, 73, 281, 88, 344
-0.995934, 385, 145, 416, 272
-0.995944, 161, 241, 176, 304
-0.995971, 217, 289, 232, 352
-0.995972, 173, 241, 188, 304
-0.995979, 1, 145, 500, 208
-0.995998, 269, 289, 284, 352
-0.996, 209, 221, 336, 252
-0.996028, 273, 249, 400, 312
-0.996072, 149, 121, 164, 184
-0.996076, 315, 193, 330, 256
-0.996109, 113, 161, 240, 192
-0.996118, 353, 301, 480, 332
-0.996126, 239, 289, 254, 352
-0.996127, 145, 229, 272, 260
-0.996143, 263, 289, 278, 352
-0.996164, 177, 257, 304, 288
-0.996185, 351, 201, 366, 264
-0.996194, 97, 289, 224, 320
-0.99621, 49, 249, 176, 312
-0.996218, 321, 313, 448, 344
-0.996235, 197, 289, 212, 352
-0.996262, 321, 325, 448, 356
-0.996262, 277, 257, 292, 320
-0.99629, 221, 169, 252, 232
-0.996314, 159, 209, 174, 272
-0.996315, 277, 289, 292, 352
-0.996344, 325, 177, 356, 240
-0.996348, 193, 169, 448, 232
-0.996374, 257, 65, 384, 192
-0.996384, 247, 289, 262, 352
-0.996426, 149, 201, 164, 264
-0.996428, 283, 249, 298, 312
-0.996429, 185, 225, 200, 288
-0.996436, 291, 217, 306, 280
-0.996436, 177, 161, 304, 192
-0.996445, 1, 257, 256, 320
-0.996459, 447, 289, 462, 352
-0.996459, 137, 81, 200, 144
-0.996474, 273, 225, 400, 256
-0.996477, 225, 185, 352, 216
-0.996484, 9, 1, 72, 360
-0.996486, 427, 289, 442, 352
-0.996496, 53, 257, 84, 320
-0.996517, 205, 81, 236, 208
-0.996518, 357, 297, 372, 360
-0.996532, 1, 265, 16, 328
-0.996535, 11, 265, 26, 328
-0.996549, 321, 201, 336, 264
-0.996557, 255, 161, 270, 224
-0.99657, 49, 281, 176, 312
-0.996599, 55, 281, 70, 344
-0.996613, 413, 225, 444, 352
-0.996614, 193, 317, 320, 348
-0.99662, 285, 257, 316, 320
-0.996624, 289, 249, 304, 312
-0.996631, 165, 217, 180, 280
-0.996636, 429, 225, 460, 352
-0.996656, 225, 1, 288, 256
-0.996659, 381, 297, 412, 360
-0.996674, 245, 241, 260, 304
-0.996676, 81, 81, 208, 144
-0.996683, 97, 249, 224, 280
-0.996687, 261, 161, 276, 224
-0.996695, 301, 233, 316, 296
-0.996705, 417, 209, 432, 272
-0.99671, 149, 233, 164, 296
-0.996714, 393, 1, 456, 256
-0.996715, 225, 209, 352, 240
-0.996716, 137, 209, 152, 272
-0.996721, 189, 281, 204, 344
-0.996726, 373, 201, 388, 264
-0.996731, 241, 305, 368, 336
-0.996735, 83, 273, 98, 336
-0.996737, 389, 209, 420, 336
-0.996757, 433, 289, 448, 352
-0.99676, 431, 209, 446, 272
-0.996762, 53, 225, 84, 352
-0.996772, 345, 273, 408, 336
-0.996774, 179, 217, 194, 280
-0.996775, 49, 329, 176, 360
-0.996776, 145, 325, 272, 356
-0.996783, 193, 173, 320, 204
-0.996786, 209, 297, 224, 360
-0.996791, 321, 1, 448, 128
-0.996803, 225, 253, 352, 284
-0.996818, 279, 225, 294, 288
-0.996825, 321, 205, 448, 236
-0.996827, 1, 281, 128, 312
-0.996833, 125, 97, 156, 160
-0.996846, 241, 197, 368, 228
-0.996848, 439, 289, 454, 352
-0.99687, 217, 241, 232, 304
-0.996879, 145, 305, 272, 336
-0.996889, 369, 1, 432, 256
-0.996891, 155, 273, 170, 336
-0.996891, 45, 297, 60, 360
-0.996893, 255, 241, 270, 304
-0.996893, 411, 209, 426, 272
-0.996898, 237, 241, 252, 304
-0.996902, 425, 209, 440, 272
-0.996903, 143, 209, 158, 272
-0.996911, 261, 241, 276, 304
-0.996913, 221, 217, 252, 280
-0.996922, 49, 317, 176, 348
-0.996927, 459, 297, 474, 360
-0.996966, 171, 217, 186, 280
-0.99697, 419, 297, 434, 360
-0.996976, 253, 289, 268, 352
-0.996982, 111, 281, 126, 344
-0.996983, 137, 137, 152, 200
-0.996986, 361, 129, 392, 256
-0.997, 129, 193, 144, 256
-0.997011, 215, 193, 230, 256
-0.997012, 65, 225, 192, 256
-0.997019, 1, 1, 128, 128
-0.99703, 303, 177, 318, 240
-0.997033, 1, 209, 256, 272
-0.997034, 225, 285, 352, 316
-0.997035, 61, 281, 76, 344
-0.997055, 57, 1, 120, 360
-0.997064, 425, 193, 488, 256
-0.99707, 17, 273, 32, 336
-0.997088, 149, 273, 164, 336
-0.997098, 481, 297, 496, 360
-0.997104, 141, 177, 172, 240
-0.997106, 323, 225, 338, 288
-0.997109, 1, 313, 128, 344
-0.997109, 369, 221, 496, 252
-0.997143, 97, 297, 112, 360
-0.997143, 1, 297, 128, 328
-0.997147, 201, 225, 216, 288
-0.997149, 227, 241, 242, 304
-0.99715, 273, 1, 400, 128
-0.997152, 39, 297, 54, 360
-0.997157, 249, 153, 264, 216
-0.997164, 241, 317, 368, 348
-0.997175, 155, 129, 170, 192
-0.997182, 189, 257, 204, 288
-0.997186, 353, 225, 384, 352
-0.997186, 401, 1, 464, 360
-0.99719, 281, 1, 344, 360
-0.997192, 453, 289, 468, 352
-0.997193, 113, 185, 240, 216
-0.997196, 363, 297, 378, 360
-0.997207, 123, 273, 138, 336
-0.997207, 225, 137, 480, 200
-0.997211, 1, 281, 500, 344
-0.997228, 183, 257, 198, 288
-0.997229, 181, 273, 196, 336
-0.997229, 97, 265, 128, 328
-0.997237, 191, 233, 206, 296
-0.997243, 369, 317, 496, 348
-0.997254, 305, 1, 368, 256
-0.997256, 221, 193, 236, 256
-0.997271, 247, 193, 262, 256
-0.997273, 285, 217, 300, 280
-0.997286, 133, 281, 148, 344
-0.997294, 223, 297, 238, 360
-0.997297, 193, 301, 320, 332
-0.9973, 65, 237, 192, 268
-0.997305, 45, 273, 60, 336
-0.997307, 97, 301, 224, 332
-0.997311, 161, 149, 288, 180
-0.997315, 267, 233, 282, 296
-0.997331, 255, 193, 270, 256
-0.997336, 193, 197, 320, 228
-0.997338, 425, 1, 488, 360
-0.99734, 9, 49, 72, 176
-0.99734, 113, 121, 240, 152
-0.997347, 237, 153, 252, 216
-0.997358, 359, 313, 374, 344
-0.997365, 175, 273, 190, 336
-0.997367, 285, 297, 300, 360
-0.997373, 113, 265, 240, 296
-0.997379, 67, 281, 82, 344
-0.997385, 103, 289, 118, 352
-0.997393, 425, 1, 488, 256
-0.997395, 265, 269, 280, 300
-0.997401, 273, 241, 400, 272
-0.997403, 259, 265, 274, 296
-0.997429, 243, 153, 258, 216
-0.997445, 177, 1, 240, 256
-0.997447, 367, 209, 382, 240
-0.997448, 325, 297, 340, 360
-0.997451, 269, 169, 284, 232
-0.997451, 199, 289, 214, 320
-0.997455, 213, 121, 244, 184
-0.997456, 211, 241, 226, 304
-0.99746, 225, 129, 256, 192
-0.99746, 305, 1, 368, 360
-0.997461, 125, 161, 140, 224
-0.997462, 305, 273, 368, 336
-0.997462, 375, 213, 390, 244
-0.997468, 33, 297, 48, 360
-0.997481, 229, 145, 244, 208
-0.997487, 393, 97, 456, 224
-0.997492, 139, 185, 154, 248
-0.997493, 65, 129, 192, 160
-0.997495, 379, 201, 394, 264
-0.997495, 161, 273, 176, 336
-0.997496, 117, 257, 148, 320
-0.997503, 331, 297, 346, 360
-0.997506, 225, 233, 352, 264
-0.997517, 89, 1, 152, 256
-0.997518, 1, 177, 256, 240
-0.997519, 353, 209, 368, 240
-0.997521, 145, 125, 160, 156
-0.997526, 191, 269, 206, 300
-0.997533, 17, 129, 144, 192
-0.997536, 185, 273, 200, 304
-0.997564, 399, 213, 414, 244
-0.997574, 383, 209, 398, 240
-0.997574, 97, 313, 224, 344
-0.997575, 161, 1, 288, 128
-0.99759, 413, 217, 428, 248
-0.997596, 1, 121, 256, 184
-0.997597, 361, 1, 424, 360
-0.997599, 1, 329, 128, 360
-0.997606, 1, 249, 32, 312
-0.997615, 181, 161, 212, 224
-0.997621, 137, 97, 168, 352
-0.997625, 1, 121, 500, 184
-0.997649, 239, 285, 254, 316
-0.997651, 225, 273, 480, 336
-0.997661, 359, 209, 374, 240
-0.997671, 49, 205, 176, 236
-0.997671, 177, 209, 304, 240
-0.997687, 225, 265, 352, 296
-0.997695, 407, 217, 422, 248
-0.997707, 177, 253, 192, 284
-0.997714, 229, 289, 244, 320
-0.99772, 369, 205, 496, 236
-0.99773, 263, 281, 278, 312
-0.997731, 313, 225, 344, 352
-0.997732, 401, 145, 464, 272
-0.997733, 199, 269, 214, 300
-0.997741, 49, 297, 176, 328
-0.997743, 273, 329, 400, 360
-0.997745, 365, 177, 396, 240
-0.997757, 215, 301, 230, 332
-0.997763, 237, 297, 252, 328
-0.997774, 293, 161, 324, 224
-0.997775, 337, 205, 352, 236
-0.997781, 253, 137, 284, 200
-0.997781, 347, 209, 362, 240
-0.997793, 253, 269, 268, 300
-0.997795, 97, 225, 160, 352
-0.997797, 357, 325, 372, 356
-0.997803, 179, 273, 194, 304
-0.997806, 365, 317, 380, 348
-0.997809, 33, 225, 64, 352
-0.997811, 485, 317, 500, 348
-0.997826, 117, 121, 148, 184
-0.997826, 235, 269, 250, 300
-0.997827, 209, 329, 336, 360
-0.99783, 271, 261, 286, 292
-0.997831, 289, 137, 416, 200
-0.997839, 65, 117, 192, 148
-0.997847, 393, 209, 408, 240
-0.99785, 255, 281, 270, 312
-0.997853, 269, 97, 300, 352
-0.99786, 429, 293, 444, 324
-0.997864, 317, 217, 332, 248
-0.997865, 361, 97, 424, 224
-0.997868, 353, 313, 368, 344
-0.997869, 245, 297, 260, 328
-0.997871, 325, 213, 340, 244
-0.997875, 275, 249, 290, 280
-0.997881, 221, 301, 236, 332
-0.997889, 213, 289, 228, 320
-0.997896, 413, 185, 444, 248
-0.997898, 205, 285, 220, 316
-0.997907, 281, 245, 296, 276
-0.997914, 139, 217, 154, 248
-0.997921, 419, 217, 434, 248
-0.997927, 215, 265, 230, 296
-0.997928, 207, 309, 222, 340
-0.997936, 261, 297, 276, 328
-0.997941, 255, 293, 270, 324
-0.997944, 269, 289, 284, 320
-0.997958, 33, 81, 160, 144
-0.997963, 331, 209, 346, 240
-0.997983, 229, 269, 244, 300
-0.997984, 1, 153, 256, 216
-0.997986, 205, 269, 220, 300
-0.99799, 485, 305, 500, 336
-0.998, 363, 329, 378, 360
-0.998012, 97, 173, 224, 204
-0.998024, 173, 277, 188, 308
-0.998028, 293, 177, 308, 208
-0.998051, 165, 285, 180, 316
-0.998054, 1, 269, 128, 300
-0.998056, 347, 321, 362, 352
-0.998058, 231, 301, 246, 332
-0.998059, 247, 269, 262, 300
-0.998061, 223, 269, 238, 300
-0.998071, 195, 257, 210, 288
-0.998078, 309, 169, 340, 232
-0.998092, 51, 277, 66, 308
-0.998094, 193, 285, 208, 316
-0.998095, 289, 65, 320, 320
-0.998097, 301, 237, 316, 268
-0.998104, 129, 165, 144, 196
-0.998143, 329, 325, 344, 356
-0.998147, 165, 97, 196, 352
-0.998151, 423, 297, 438, 328
-0.998171, 451, 313, 466, 344
-0.998174, 219, 313, 234, 344
-0.998178, 247, 309, 262, 340
-0.998193, 249, 97, 280, 352
-0.998193, 161, 125, 288, 156
-0.998196, 71, 321, 86, 352
-0.998196, 337, 1, 400, 360
-0.998196, 223, 285, 238, 316
-0.998206, 311, 217, 326, 248
-0.998207, 305, 301, 432, 332
-0.998208, 245, 285, 260, 316
-0.998209, 241, 269, 256, 300
-0.998217, 391, 221, 406, 252
-0.998223, 147, 229, 162, 260
-0.998227, 131, 297, 146, 328
-0.998227, 185, 285, 200, 316
-0.998232, 77, 293, 92, 324
-0.998239, 167, 273, 182, 304
-0.998246, 397, 145, 428, 272
-0.99825, 371, 309, 386, 340
-0.998252, 199, 301, 214, 332
-0.998264, 143, 137, 158, 168
-0.998271, 163, 229, 178, 260
-0.998272, 97, 329, 224, 360
-0.998274, 33, 165, 160, 196
-0.998275, 49, 289, 64, 320
-0.998277, 87, 281, 102, 312
-0.998278, 179, 285, 194, 316
-0.99828, 425, 193, 456, 256
-0.998281, 437, 221, 452, 252
-0.998282, 13, 285, 28, 316
-0.998285, 263, 253, 278, 284
-0.99829, 455, 301, 470, 332
-0.998291, 65, 329, 80, 360
-0.998292, 33, 189, 160, 220
-0.998293, 329, 225, 344, 256
-0.998296, 171, 233, 186, 264
-0.998298, 207, 321, 222, 352
-0.998301, 283, 173, 298, 204
-0.998306, 291, 249, 306, 280
-0.998311, 71, 281, 86, 312
-0.998312, 157, 241, 172, 272
-0.998315, 151, 117, 166, 148
-0.998316, 275, 289, 290, 320
-0.998322, 245, 65, 276, 192
-0.998323, 323, 325, 338, 356
-0.998323, 339, 325, 354, 356
-0.998338, 281, 257, 296, 288
-0.998339, 81, 281, 96, 312
-0.998348, 125, 277, 140, 308
-0.99835, 253, 305, 268, 336
-0.998351, 193, 97, 224, 352
-0.998352, 401, 185, 432, 248
-0.998354, 1, 269, 16, 300
-0.998356, 443, 221, 458, 252
-0.998356, 75, 305, 90, 336
-0.998365, 141, 217, 172, 232
-0.998365, 209, 209, 240, 224
-0.998365, 145, 281, 160, 312
-0.998366, 273, 307, 304, 322
-0.998366, 105, 287, 136, 302
-0.998367, 165, 245, 180, 276
-0.998367, 479, 309, 494, 340
-0.998367, 405, 227, 436, 242
-0.998367, 477, 325, 492, 356
-0.998367, 237, 309, 252, 340
-0.998367, 421, 315, 452, 330
-0.998368, 431, 221, 446, 252
-0.998368, 345, 211, 376, 226
-0.998368, 141, 123, 172, 138
-0.998368, 149, 243, 180, 258
-0.998369, 297, 239, 328, 254
-0.99837, 233, 207, 264, 222
-0.998372, 453, 309, 484, 324
-0.998373, 201, 327, 232, 342
-0.998373, 21, 331, 52, 346
-0.998374, 141, 237, 172, 252
-0.998374, 371, 321, 386, 352
-0.998375, 45, 283, 76, 298
-0.998376, 373, 129, 404, 256
-0.998376, 221, 153, 252, 168
-0.998376, 469, 309, 500, 324
-0.998377, 173, 259, 204, 274
-0.998378, 225, 309, 256, 324
-0.998379, 261, 293, 292, 308
-0.99838, 77, 295, 108, 310
-0.99838, 261, 183, 292, 198
-0.998381, 209, 295, 240, 310
-0.998381, 225, 289, 256, 304
-0.998382, 233, 159, 264, 174
-0.998382, 329, 315, 360, 330
-0.998382, 345, 221, 360, 252
-0.998382, 269, 301, 300, 316
-0.998383, 29, 293, 60, 308
-0.998383, 225, 317, 256, 332
-0.998384, 73, 305, 104, 320
-0.998384, 57, 301, 88, 316
-0.998385, 301, 211, 332, 226
-0.998385, 145, 223, 176, 238
-0.998386, 33, 305, 64, 320
-0.998386, 135, 281, 150, 312
-0.998387, 433, 313, 464, 328
-0.998387, 53, 315, 84, 330
-0.998387, 65, 295, 96, 310
-0.998387, 377, 225, 408, 352
-0.998387, 151, 129, 166, 160
-0.998387, 245, 287, 276, 302
-0.998388, 149, 97, 180, 352
-0.998388, 441, 297, 472, 312
-0.998388, 173, 335, 204, 350
-0.998388, 401, 215, 432, 230
-0.998389, 393, 227, 424, 242
-0.99839, 313, 217, 344, 232
-0.998391, 267, 313, 282, 344
-0.998391, 153, 221, 168, 252
-0.998392, 159, 285, 174, 316
-0.998392, 145, 73, 272, 136
-0.998392, 161, 345, 192, 360
-0.998393, 49, 341, 80, 356
-0.998393, 45, 333, 76, 348
-0.998394, 145, 279, 176, 294
-0.998394, 117, 293, 148, 308
-0.998394, 181, 281, 212, 296
-0.998396, 333, 337, 364, 352
-0.998397, 281, 253, 312, 268
-0.998397, 113, 281, 144, 296
-0.998398, 249, 311, 280, 326
-0.998398, 447, 293, 462, 324
-0.998398, 313, 345, 344, 360
-0.998399, 133, 279, 164, 294
-0.998399, 19, 277, 34, 308
-0.9984, 213, 301, 244, 316
-0.998401, 169, 289, 200, 304
-0.998402, 157, 135, 188, 150
-0.998403, 313, 337, 344, 352
-0.998403, 237, 311, 268, 326
-0.998403, 213, 289, 244, 304
-0.998406, 341, 217, 372, 232
-0.998408, 253, 177, 284, 192
-0.998408, 5, 321, 36, 336
-0.998409, 161, 249, 192, 264
-0.998409, 157, 277, 188, 292
-0.99841, 377, 221, 408, 236
-0.99841, 33, 145, 160, 176
-0.998411, 265, 171, 296, 186
-0.998411, 193, 313, 224, 328
-0.998412, 349, 311, 380, 326
-0.998414, 45, 325, 76, 340
-0.998414, 361, 325, 392, 340
-0.998416, 81, 289, 112, 304
-0.998417, 257, 287, 288, 302
-0.998417, 273, 259, 304, 274
-0.998418, 1, 287, 32, 302
-0.998418, 221, 323, 252, 338
-0.998419, 61, 279, 92, 294
-0.998421, 357, 219, 388, 234
-0.998421, 157, 127, 188, 142
-0.998423, 249, 297, 280, 312
-0.998425, 185, 307, 216, 322
-0.998426, 277, 183, 308, 198
-0.998426, 333, 343, 364, 358
-0.998427, 353, 319, 384, 334
-0.998428, 177, 269, 240, 284
-0.998429, 181, 275, 212, 290
-0.998429, 273, 247, 304, 262
-0.99843, 313, 229, 344, 244
-0.99843, 29, 287, 60, 302
-0.99843, 357, 213, 388, 228
-0.998433, 33, 331, 64, 346
-0.998433, 237, 303, 268, 318
-0.998436, 341, 323, 372, 338
-0.998438, 325, 217, 356, 232
-0.99844, 329, 225, 360, 240
-0.99844, 157, 283, 188, 298
-0.99844, 53, 289, 84, 304
-0.998442, 137, 289, 168, 304
-0.998442, 205, 309, 236, 324
-0.998442, 9, 327, 40, 342
-0.998445, 13, 281, 44, 296
-0.998446, 193, 295, 224, 310
-0.998447, 169, 273, 200, 288
-0.998449, 205, 321, 236, 336
-0.998452, 389, 213, 420, 228
-0.998452, 141, 139, 172, 154
-0.998455, 69, 225, 100, 352
-0.998456, 245, 269, 276, 284
-0.998458, 369, 215, 400, 230
-0.998459, 353, 331, 384, 346
-0.998459, 193, 289, 224, 304
-0.998462, 261, 265, 292, 280
-0.998466, 193, 113, 448, 176
-0.998467, 237, 297, 268, 312
-0.998467, 345, 223, 376, 238
-0.998469, 25, 325, 56, 340
-0.99847, 201, 303, 232, 318
-0.99847, 241, 149, 368, 180
-0.998471, 225, 303, 256, 318
-0.998475, 277, 175, 308, 190
-0.998479, 425, 295, 456, 310
-0.998488, 181, 287, 212, 302
-0.998489, 277, 145, 308, 208
-0.998489, 249, 305, 280, 320
-0.998491, 433, 227, 464, 242
-0.998491, 193, 303, 256, 318
-0.998496, 385, 223, 448, 238
-0.998498, 189, 269, 220, 284
-0.9985, 389, 219, 420, 234
-0.998506, 369, 329, 496, 360
-0.998509, 185, 263, 216, 278
-0.998511, 353, 213, 416, 228
-0.998512, 129, 129, 192, 144
-0.998519, 405, 221, 436, 236
-0.998527, 409, 297, 472, 312
-0.998531, 265, 177, 296, 192
-0.998531, 1, 287, 64, 302
-0.998533, 329, 223, 392, 238
-0.998534, 377, 215, 440, 230
-0.998538, 297, 217, 360, 232
-0.998548, 421, 223, 452, 238
-0.998549, 201, 267, 232, 282
-0.99855, 249, 175, 312, 190
-0.998553, 257, 183, 320, 198
-0.998555, 313, 329, 376, 344
-0.99856, 185, 309, 248, 324
-0.99856, 201, 291, 264, 306
-0.998563, 353, 219, 416, 234
-0.998567, 321, 335, 384, 350
-0.99857, 321, 319, 384, 334
-0.998571, 25, 293, 88, 308
-0.998571, 33, 49, 96, 176
-0.998572, 225, 267, 288, 282
-0.998575, 217, 301, 280, 316
-0.998576, 345, 313, 408, 328
-0.998579, 161, 275, 224, 290
-0.998579, 49, 291, 112, 306
-0.99858, 129, 139, 192, 154
-0.998583, 225, 307, 288, 322
-0.998585, 141, 129, 172, 144
-0.998586, 129, 277, 192, 292
-0.998586, 161, 291, 224, 306
-0.998588, 321, 213, 384, 228
-0.998591, 433, 309, 496, 324
-0.998591, 321, 313, 384, 328
-0.998591, 41, 281, 104, 296
-0.998592, 305, 343, 368, 358
-0.998593, 153, 307, 216, 322
-0.998594, 33, 299, 96, 314
-0.998595, 137, 227, 200, 242
-0.998596, 129, 151, 192, 166
-0.998596, 393, 303, 456, 318
-0.998596, 9, 281, 72, 296
-0.998597, 225, 287, 288, 302
-0.998597, 161, 285, 224, 300
-0.998598, 281, 337, 344, 352
-0.998599, 193, 297, 256, 312
-0.9986, 217, 323, 280, 338
-0.998602, 225, 177, 288, 192
-0.998602, 385, 319, 448, 334
-0.998604, 409, 223, 472, 238
-0.998605, 169, 299, 232, 314
-0.998605, 201, 269, 264, 284
-0.998606, 201, 157, 264, 172
-0.998607, 9, 331, 72, 346
-0.998608, 97, 281, 160, 296
-0.998609, 361, 225, 424, 240
-0.998609, 241, 169, 368, 200
-0.99861, 353, 327, 416, 342
-0.99861, 1, 225, 32, 352
-0.998611, 177, 323, 240, 338
-0.998612, 345, 319, 408, 334
-0.998612, 209, 209, 272, 224
-0.998614, 433, 303, 496, 318
-0.998614, 193, 285, 256, 300
-0.998614, 353, 307, 416, 322
-0.998615, 161, 263, 224, 278
-0.998615, 25, 343, 88, 358
-0.998616, 129, 145, 192, 160
-0.998617, 185, 263, 248, 278
-0.998617, 401, 309, 464, 324
-0.998618, 345, 335, 408, 350
-0.998619, 217, 317, 280, 332
-0.99862, 297, 207, 360, 222
-0.99862, 249, 263, 312, 278
-0.99862, 305, 227, 368, 242
-0.99862, 409, 317, 472, 332
-0.998621, 137, 123, 200, 138
-0.998622, 249, 313, 312, 328
-0.998622, 73, 287, 136, 302
-0.998623, 265, 303, 328, 318
-0.998624, 9, 325, 72, 340
-0.998624, 129, 339, 192, 354
-0.998626, 217, 165, 280, 180
-0.998627, 9, 317, 72, 332
-0.998628, 273, 209, 336, 224
-0.998628, 433, 317, 496, 332
-0.998629, 241, 293, 304, 308
-0.998629, 49, 305, 112, 320
-0.99863, 185, 315, 248, 330
-0.99863, 209, 261, 272, 276
-0.99863, 73, 297, 136, 312
-0.998632, 121, 167, 184, 182
-0.998633, 129, 217, 192, 232
-0.998633, 265, 227, 328, 242
-0.998633, 233, 183, 296, 198
-0.998634, 401, 229, 464, 244
-0.998636, 137, 285, 200, 300
-0.998637, 225, 171, 288, 186
-0.998639, 241, 301, 304, 316
-0.998639, 57, 333, 120, 348
-0.99864, 25, 287, 88, 302
-0.998641, 17, 337, 80, 352
-0.998642, 161, 313, 224, 328
-0.998642, 281, 343, 344, 358
-0.998642, 57, 345, 120, 360
-0.998643, 233, 207, 296, 222
-0.998643, 145, 233, 208, 248
-0.998643, 49, 269, 176, 300
-0.998644, 289, 235, 352, 250
-0.998644, 169, 337, 232, 352
-0.998645, 249, 213, 312, 228
-0.998646, 401, 217, 464, 232
-0.998647, 249, 247, 312, 262
-0.998649, 113, 239, 176, 254
-0.99865, 329, 341, 392, 356
-0.998651, 137, 253, 200, 268
-0.998652, 129, 247, 192, 262
-0.998652, 113, 289, 176, 304
-0.998653, 305, 303, 368, 318
-0.998653, 153, 345, 216, 360
-0.998653, 289, 325, 352, 340
-0.998654, 273, 309, 336, 324
-0.998655, 1, 275, 64, 290
-0.998655, 129, 157, 192, 172
-0.998656, 105, 131, 168, 146
-0.998658, 49, 325, 112, 340
-0.998658, 9, 303, 72, 318
-0.998658, 225, 281, 288, 296
-0.998659, 113, 173, 176, 188
-0.998659, 81, 303, 144, 318
-0.998659, 193, 151, 256, 166
-0.998659, 1, 293, 64, 308
-0.99866, 57, 339, 120, 354
-0.99866, 105, 233, 168, 248
-0.998661, 273, 297, 336, 312
-0.998662, 377, 311, 440, 326
-0.998666, 97, 105, 352, 168
-0.998681, 1, 65, 64, 320
-0.998688, 425, 97, 488, 352
-0.998694, 229, 97, 260, 352
-0.998695, 201, 1, 264, 256
-0.998697, 313, 65, 344, 320
-0.998703, 333, 225, 364, 288
-0.998725, 33, 177, 160, 208
-0.998729, 145, 169, 208, 232
-0.998735, 129, 249, 160, 312
-0.998779, 377, 265, 440, 328
-0.99879, 305, 289, 432, 320
-0.998798, 273, 1, 400, 64
-0.998831, 209, 97, 240, 352
-0.998848, 145, 1, 208, 256
-0.998851, 225, 1, 352, 64
-0.998882, 273, 253, 400, 284
-0.998883, 209, 137, 336, 168
-0.998894, 143, 209, 158, 336
-0.998899, 125, 97, 156, 352
-0.998939, 137, 129, 152, 256
-0.998941, 155, 225, 170, 352
-0.998956, 187, 225, 202, 352
-0.998957, 259, 209, 274, 336
-0.998971, 177, 97, 208, 352
-0.998988, 239, 209, 254, 336
-0.998993, 177, 185, 304, 216
-0.999002, 285, 177, 300, 304
-0.999005, 271, 225, 286, 352
-0.999009, 293, 193, 308, 320
-0.999009, 321, 1, 448, 64
-0.999013, 285, 225, 300, 352
-0.999024, 289, 173, 416, 204
-0.999026, 279, 225, 294, 352
-0.999027, 211, 225, 226, 352
-0.999028, 227, 209, 242, 336
-0.999029, 273, 185, 400, 216
-0.999029, 265, 209, 280, 336
-0.999031, 259, 161, 274, 288
-0.999038, 221, 209, 236, 336
-0.999046, 129, 109, 256, 140
-0.999059, 197, 225, 212, 352
-0.999076, 225, 1, 352, 128
-0.999079, 203, 209, 218, 336
-0.999094, 131, 129, 146, 256
-0.999098, 345, 97, 376, 352
-0.999101, 279, 161, 294, 288
-0.999119, 241, 113, 304, 176
-0.99912, 161, 225, 176, 352
-0.999122, 303, 161, 318, 288
-0.999123, 249, 209, 264, 336
-0.999124, 301, 65, 332, 320
-0.999128, 233, 209, 248, 336
-0.999129, 269, 161, 284, 288
-0.99914, 257, 97, 384, 160
-0.999147, 169, 225, 184, 352
-0.999148, 299, 209, 314, 336
-0.999165, 331, 177, 346, 304
-0.999168, 161, 89, 224, 152
-0.999176, 339, 177, 354, 304
-0.999183, 181, 225, 196, 352
-0.999198, 145, 173, 272, 204
-0.999208, 365, 97, 396, 352
-0.999208, 309, 177, 324, 304
-0.999214, 175, 225, 190, 352
-0.999221, 145, 1, 272, 64
-0.999229, 161, 137, 288, 168
-0.99923, 253, 161, 268, 288
-0.999231, 315, 177, 330, 304
-0.999237, 325, 177, 340, 304
-0.999244, 369, 289, 496, 320
-0.999249, 347, 177, 362, 304
-0.999256, 149, 209, 164, 336
-0.999268, 143, 129, 158, 256
-0.999271, 135, 193, 150, 320
-0.999276, 155, 177, 170, 304
-0.999306, 333, 97, 364, 352
-0.999312, 321, 229, 448, 260
-0.999312, 245, 145, 260, 272
-0.999312, 305, 105, 432, 168
-0.999328, 357, 177, 372, 304
-0.999352, 369, 1, 496, 64
-0.999353, 185, 177, 200, 304
-0.999371, 17, 105, 144, 168
-0.999386, 237, 145, 252, 272
-0.999392, 179, 145, 194, 272
-0.999397, 257, 113, 272, 240
-0.999416, 211, 177, 226, 304
-0.999417, 167, 177, 182, 304
-0.99943, 297, 145, 312, 272
-0.99943, 277, 1, 308, 256
-0.999433, 337, 193, 464, 224
-0.999434, 191, 177, 206, 304
-0.999435, 369, 1, 496, 128
-0.999436, 365, 177, 380, 304
-0.999446, 305, 225, 320, 352
-0.999447, 127, 177, 142, 304
-0.999448, 267, 113, 282, 240
-0.999459, 161, 161, 176, 288
-0.999473, 149, 145, 164, 272
-0.999474, 371, 177, 386, 304
-0.999476, 173, 161, 188, 288
-0.999483, 1, 49, 128, 112
-0.999496, 207, 129, 222, 256
-0.999504, 197, 177, 212, 304
-0.999511, 251, 113, 266, 240
-0.999512, 213, 129, 228, 256
-0.999517, 291, 145, 306, 272
-0.999533, 131, 81, 146, 208
-0.999533, 231, 129, 246, 256
-0.999537, 377, 177, 392, 304
-0.999538, 201, 129, 216, 256
-0.999541, 353, 161, 480, 224
-0.999546, 323, 129, 338, 256
-0.99955, 219, 129, 234, 256
-0.99955, 139, 65, 154, 192
-0.999559, 113, 97, 144, 352
-0.999569, 337, 129, 352, 256
-0.999571, 225, 129, 240, 256
-0.999577, 243, 97, 258, 224
-0.999578, 311, 225, 326, 352
-0.99958, 49, 323, 64, 338
-0.99958, 149, 97, 164, 224
-0.999581, 81, 305, 96, 320
-0.999581, 143, 139, 158, 154
-0.999582, 353, 311, 368, 326
-0.999582, 13, 327, 28, 342
-0.999582, 257, 165, 272, 180
-0.999583, 321, 339, 336, 354
-0.999583, 151, 225, 166, 240
-0.999583, 289, 305, 304, 320
-0.999584, 203, 325, 218, 340
-0.999584, 381, 225, 396, 240
-0.999585, 155, 239, 170, 254
-0.999585, 177, 253, 192, 268
-0.999586, 1, 275, 16, 290
-0.999586, 61, 333, 76, 348
-0.999586, 331, 343, 346, 358
-0.999586, 331, 129, 346, 256
-0.999586, 253, 295, 268, 310
-0.999586, 203, 307, 218, 322
-0.999587, 81, 299, 96, 314
-0.999587, 55, 291, 70, 306
-0.999587, 17, 345, 32, 360
-0.999587, 159, 289, 174, 304
-0.999589, 71, 289, 86, 304
-0.999589, 329, 227, 344, 242
-0.999589, 183, 285, 198, 300
-0.999589, 369, 219, 384, 234
-0.99959, 147, 279, 162, 294
-0.99959, 179, 345, 194, 360
-0.99959, 257, 307, 272, 322
-0.99959, 271, 301, 286, 316
-0.999591, 213, 267, 228, 282
-0.999591, 399, 215, 414, 230
-0.999591, 313, 129, 328, 256
-0.999592, 141, 225, 156, 240
-0.999592, 145, 217, 160, 232
-0.999592, 149, 235, 164, 250
-0.999593, 431, 293, 446, 308
-0.999594, 227, 319, 242, 334
-0.999594, 265, 275, 280, 290
-0.999594, 45, 329, 60, 344
-0.999594, 287, 245, 302, 260
-0.999595, 49, 289, 64, 304
-0.999595, 261, 179, 276, 194
-0.999596, 357, 225, 372, 352
-0.999597, 187, 277, 202, 292
-0.999597, 175, 289, 190, 304
-0.999597, 27, 283, 42, 298
-0.999598, 215, 311, 230, 326
-0.999598, 271, 181, 286, 196
-0.999599, 295, 181, 310, 196
-0.999599, 151, 285, 166, 300
-0.9996, 351, 325, 366, 340
-0.9996, 391, 215, 406, 230
-0.999601, 401, 209, 416, 336
-0.999601, 199, 331, 214, 346
-0.999601, 173, 345, 188, 360
-0.999601, 283, 259, 298, 274
-0.999601, 229, 289, 244, 304
-0.999602, 173, 113, 188, 240
-0.999603, 377, 215, 392, 230
-0.999603, 155, 129, 170, 256
-0.999603, 165, 247, 180, 262
-0.999604, 159, 283, 174, 298
-0.999604, 347, 217, 362, 232
-0.999604, 21, 289, 36, 304
-0.999604, 253, 287, 268, 302
-0.999605, 231, 303, 246, 318
-0.999606, 257, 1, 288, 256
-0.999606, 285, 177, 300, 192
-0.999606, 361, 219, 376, 234
-0.999606, 273, 113, 288, 240
-0.999606, 67, 343, 82, 358
-0.999607, 263, 293, 278, 308
-0.999607, 37, 327, 52, 342
-0.999608, 75, 297, 90, 312
-0.999609, 351, 223, 366, 238
-0.999609, 245, 297, 260, 312
-0.999609, 197, 295, 212, 310
-0.999609, 339, 341, 354, 356
-0.99961, 289, 255, 304, 270
-0.99961, 203, 301, 218, 316
-0.999611, 357, 333, 372, 348
-0.999613, 203, 267, 218, 282
-0.999613, 275, 263, 290, 278
-0.999613, 341, 217, 356, 232
-0.999614, 185, 259, 200, 274
-0.999614, 263, 285, 278, 300
-0.999614, 269, 267, 284, 282
-0.999618, 11, 283, 26, 298
-0.999619, 269, 293, 284, 308
-0.999619, 209, 313, 224, 328
-0.99962, 239, 289, 254, 304
-0.99962, 365, 1, 396, 256
-0.999621, 361, 309, 376, 324
-0.999621, 217, 321, 232, 336
-0.999621, 367, 319, 382, 334
-0.999622, 197, 307, 212, 322
-0.999622, 237, 303, 252, 318
-0.999623, 385, 217, 400, 232
-0.999624, 383, 177, 398, 304
-0.999626, 207, 293, 222, 308
-0.999626, 409, 223, 424, 238
-0.999626, 353, 317, 368, 332
-0.999627, 239, 295, 254, 310
-0.999628, 279, 251, 294, 266
-0.99963, 255, 269, 270, 284
-0.99963, 225, 303, 240, 318
-0.999631, 249, 311, 264, 326
-0.999631, 247, 305, 262, 320
-0.999632, 165, 285, 180, 300
-0.999633, 363, 329, 378, 344
-0.999633, 393, 221, 408, 236
-0.999633, 205, 287, 220, 302
-0.999634, 231, 297, 246, 312
-0.999635, 349, 129, 364, 256
-0.999638, 485, 317, 500, 332
-0.999638, 17, 283, 32, 298
-0.99964, 81, 291, 96, 306
-0.999641, 357, 213, 372, 228
-0.999642, 177, 275, 192, 290
-0.999642, 447, 227, 462, 242
-0.999644, 399, 221, 414, 236
-0.999647, 179, 97, 194, 224
-0.999648, 439, 225, 454, 352
-0.999649, 145, 127, 160, 142
-0.99965, 215, 303, 230, 318
-0.999651, 279, 175, 294, 190
-0.999653, 27, 327, 42, 342
-0.999653, 233, 81, 248, 208
-0.999655, 257, 301, 272, 316
-0.999655, 363, 225, 378, 352
-0.999658, 343, 129, 358, 256
-0.999658, 393, 145, 408, 272
-0.999658, 279, 113, 294, 240
-0.999659, 269, 173, 284, 188
-0.999661, 357, 327, 372, 342
-0.999661, 123, 97, 138, 224
-0.999662, 415, 221, 430, 236
-0.999663, 185, 97, 200, 224
-0.999667, 197, 287, 212, 302
-0.999667, 195, 129, 210, 256
-0.999669, 435, 225, 450, 240
-0.999672, 217, 105, 280, 168
-0.999678, 425, 223, 440, 238
-0.999679, 359, 315, 374, 330
-0.999683, 325, 225, 340, 352
-0.999685, 285, 113, 300, 240
-0.999686, 211, 81, 226, 208
-0.999687, 169, 65, 184, 192
-0.999692, 331, 225, 346, 352
-0.999692, 261, 267, 276, 282
-0.999692, 195, 81, 210, 208
-0.999693, 185, 271, 200, 286
-0.999693, 117, 225, 132, 352
-0.999694, 201, 81, 216, 208
-0.999696, 191, 269, 206, 284
-0.999696, 221, 81, 236, 208
-0.999698, 345, 225, 360, 352
-0.999704, 351, 225, 366, 352
-0.999706, 441, 227, 456, 242
-0.999709, 451, 225, 466, 352
-0.999711, 17, 209, 32, 336
-0.999714, 359, 129, 374, 256
-0.999718, 425, 225, 440, 352
-0.999718, 147, 49, 162, 176
-0.999727, 227, 81, 242, 208
-0.999728, 107, 225, 122, 352
-0.99973, 89, 225, 120, 352
-0.999731, 415, 225, 430, 352
-0.999733, 407, 145, 422, 272
-0.999734, 365, 129, 380, 256
-0.999735, 369, 121, 496, 184
-0.999736, 399, 145, 414, 272
-0.999736, 191, 263, 206, 278
-0.999741, 155, 65, 170, 192
-0.999742, 197, 265, 212, 280
-0.999744, 433, 225, 448, 352
-0.999751, 317, 225, 332, 352
-0.999758, 209, 89, 336, 152
-0.999758, 375, 129, 390, 256
-0.999765, 65, 81, 320, 144
-0.999765, 177, 113, 304, 144
-0.99977, 65, 105, 192, 136
-0.999772, 129, 1, 160, 256
-0.999772, 325, 1, 356, 256
-0.999773, 57, 49, 120, 176
-0.999776, 391, 209, 406, 336
-0.999779, 1, 97, 500, 160
-0.999779, 161, 65, 176, 192
-0.999779, 337, 225, 352, 352
-0.99978, 381, 129, 396, 256
-0.99978, 23, 209, 38, 336
-0.999784, 307, 113, 322, 240
-0.99979, 345, 1, 376, 256
-0.999792, 53, 225, 68, 352
-0.999797, 257, 65, 272, 192
-0.9998, 129, 225, 144, 352
-0.999803, 407, 225, 422, 352
-0.999838, 221, 1, 252, 256
-0.999891, 377, 97, 408, 352
-0.999902, 237, 1, 268, 256
-0.999905, 377, 1, 408, 256
-0.999909, 353, 25, 480, 88
-0.999922, 13, 65, 44, 320
-0.999934, 1, 65, 32, 320
-0.999947, 97, 1, 224, 64
-0.999952, 401, 97, 432, 352
-0.999972, 425, 1, 456, 256
-0.999974, 365, 225, 396, 352
-0.999991, 369, 49, 496, 176
-1, 405, 1, 436, 256
-1.00002, 109, 1, 140, 256
-1.00004, 389, 1, 420, 256
-1.00004, 389, 97, 420, 352
-1.00004, 193, 1, 448, 64
-1.00005, 113, 225, 144, 352
-1.00005, 273, 277, 400, 308
-1.00006, 437, 1, 468, 256
-1.00008, 453, 1, 484, 256
-1.00011, 209, 1, 240, 256
-1.00011, 193, 1, 224, 256
-1.00012, 153, 1, 184, 256
-1.00012, 417, 97, 448, 352
-1.00013, 97, 57, 224, 120
-1.00013, 129, 97, 256, 128
-1.00014, 433, 97, 464, 352
-1.00017, 445, 97, 476, 352
-1.00017, 469, 1, 500, 256
-1.00019, 453, 225, 484, 352
-1.0002, 57, 65, 88, 320
-1.0002, 29, 65, 60, 320
-1.00022, 177, 1, 208, 256
-1.00022, 33, 1, 96, 128
-1.00024, 173, 49, 204, 176
-1.00024, 277, 81, 308, 208
-1.00025, 17, 1, 144, 64
-1.00025, 141, 1, 172, 256
-1.00026, 49, 57, 176, 120
-1.00029, 361, 97, 424, 352
-1.0003, 469, 97, 500, 352
-1.00031, 1, 257, 128, 288
-1.00031, 77, 65, 108, 320
-1.00032, 241, 1, 368, 32
-1.00032, 369, 17, 496, 48
-1.00033, 369, 233, 496, 264
-1.00034, 65, 93, 192, 124
-1.00036, 177, 101, 304, 132
-1.00038, 41, 65, 72, 320
-1.00038, 369, 97, 496, 160
-1.00039, 321, 9, 448, 40
-1.00041, 193, 1, 320, 32
-1.00042, 97, 1, 224, 32
-1.00043, 17, 125, 144, 156
-1.00043, 33, 65, 96, 320
-1.00044, 241, 101, 368, 132
-1.00044, 17, 5, 144, 36
-1.00045, 49, 257, 176, 288
-1.00045, 97, 1, 128, 256
-1.00045, 273, 13, 400, 44
-1.00046, 241, 113, 368, 144
-1.00047, 369, 29, 496, 60
-1.00047, 65, 65, 128, 320
-1.00048, 101, 97, 132, 352
-1.0005, 145, 1, 272, 32
-1.0005, 97, 81, 224, 112
-1.0005, 209, 125, 336, 156
-1.0005, 161, 85, 288, 116
-1.00051, 289, 161, 416, 192
-1.00051, 17, 97, 144, 128
-1.00053, 1, 73, 128, 104
-1.00053, 345, 225, 408, 288
-1.00056, 97, 69, 224, 100
-1.00058, 161, 81, 416, 144
-1.00059, 1, 109, 128, 140
-1.00059, 273, 133, 400, 164
-1.0006, 321, 25, 448, 56
-1.00061, 369, 5, 496, 36
-1.00062, 97, 1, 352, 64
-1.00063, 1, 57, 256, 120
-1.00063, 369, 41, 496, 72
-1.00064, 209, 89, 336, 120
-1.00064, 177, 13, 304, 44
-1.00064, 369, 145, 496, 176
-1.00064, 17, 85, 144, 116
-1.00065, 49, 65, 176, 96
-1.00065, 165, 1, 196, 256
-1.00066, 305, 117, 432, 148
-1.00068, 161, 73, 288, 104
-1.00068, 257, 89, 500, 152
-1.00069, 321, 37, 448, 68
-1.0007, 321, 145, 448, 176
-1.00072, 193, 97, 256, 160
-1.00075, 409, 145, 440, 272
-1.00078, 113, 49, 144, 176
-1.00084, 9, 1, 72, 128
-1.00084, 257, 65, 288, 192
-1.0009, 257, 25, 500, 88
-1.00092, 305, 145, 368, 208
-1.00095, 1, 1, 256, 64
-1.00097, 217, 49, 280, 176
-1.00098, 457, 97, 488, 352
-1.00103, 305, 25, 432, 88
-1.00103, 89, 97, 120, 352
-1.00108, 305, 81, 432, 144
-1.00112, 97, 57, 352, 120
-1.00113, 321, 49, 448, 176
-1.00113, 113, 73, 176, 136
-1.00118, 433, 225, 496, 352
-1.00118, 193, 49, 224, 176
-1.00121, 13, 49, 44, 176
-1.00125, 73, 209, 136, 336
-1.00125, 209, 65, 336, 128
-1.00126, 441, 225, 472, 352
-1.00129, 257, 73, 384, 136
-1.0013, 225, 57, 480, 120
-1.00133, 389, 97, 420, 224
-1.00151, 1, 1, 500, 64
-1.00154, 97, 49, 128, 176
-1.00159, 41, 241, 104, 304
-1.00159, 37, 49, 68, 176
-1.00161, 1, 49, 32, 176
-1.00162, 73, 1, 136, 128
-1.00165, 425, 113, 488, 240
-1.00167, 25, 49, 56, 176
-1.0017, 129, 25, 384, 88
-1.0017, 77, 49, 108, 176
-1.00171, 305, 65, 368, 192
-1.00173, 1, 1, 32, 128
-1.00175, 265, 1, 328, 128
-1.00177, 1, 33, 256, 96
-1.00178, 81, 33, 208, 96
-1.0018, 369, 57, 496, 120
-1.00181, 17, 25, 144, 88
-1.00184, 1, 73, 500, 136
-1.00185, 53, 49, 84, 176
-1.00185, 161, 49, 288, 112
-1.00193, 337, 249, 464, 312
-1.00204, 105, 1, 168, 128
-1.00206, 401, 97, 432, 224
-1.00213, 241, 25, 368, 88
-1.00217, 345, 1, 408, 128
-1.00219, 193, 25, 320, 88
-1.0022, 65, 49, 96, 176
-1.00221, 1, 25, 500, 88
-1.00224, 321, 1, 384, 128
-1.00229, 21, 1, 52, 128
-1.00229, 417, 97, 448, 224
-1.0023, 305, 57, 432, 120
-1.00238, 145, 33, 176, 160
-1.00246, 369, 1, 432, 128
-1.00251, 225, 1, 288, 64
-1.00255, 145, 25, 272, 88
-1.00255, 249, 1, 312, 64
-1.00258, 273, 65, 336, 192
-1.00262, 137, 1, 200, 128
-1.00265, 421, 145, 452, 272
-1.00267, 305, 1, 368, 64
-1.00267, 329, 1, 392, 64
-1.0027, 1, 225, 128, 288
-1.00271, 429, 97, 460, 224
-1.00276, 257, 49, 384, 112
-1.00276, 1, 49, 500, 112
-1.00278, 17, 161, 144, 288
-1.00279, 225, 49, 256, 176
-1.00283, 353, 1, 416, 64
-1.00288, 89, 1, 120, 128
-1.00291, 105, 1, 136, 128
-1.00295, 289, 1, 352, 128
-1.00295, 101, 225, 132, 352
-1.00297, 305, 81, 336, 208
-1.00298, 217, 1, 280, 128
-1.00299, 25, 89, 88, 152
-1.00299, 65, 1, 96, 128
-1.00302, 273, 1, 336, 64
-1.00302, 397, 1, 428, 128
-1.00305, 241, 1, 304, 128
-1.00306, 377, 1, 408, 128
-1.00311, 177, 1, 240, 64
-1.00311, 129, 17, 160, 144
-1.00312, 53, 1, 84, 128
-1.0032, 1, 201, 128, 264
-1.00322, 461, 113, 492, 240
-1.00327, 73, 89, 136, 152
-1.00328, 297, 1, 328, 128
-1.00329, 393, 1, 456, 64
-1.0033, 337, 1, 368, 128
-1.00332, 265, 121, 328, 184
-1.00334, 77, 1, 108, 128
-1.00336, 265, 97, 328, 160
-1.00337, 193, 1, 256, 128
-1.00341, 117, 1, 148, 128
-1.00341, 357, 1, 388, 128
-1.00341, 441, 113, 472, 240
-1.00345, 1, 89, 64, 152
-1.0035, 161, 1, 224, 128
-1.00357, 25, 65, 88, 128
-1.00357, 65, 65, 128, 128
-1.00357, 201, 1, 264, 64
-1.00361, 49, 97, 112, 224
-1.00361, 385, 121, 448, 184
-1.00361, 41, 1, 72, 128
-1.00364, 49, 97, 112, 160
-1.00366, 377, 97, 440, 160
-1.00368, 185, 73, 248, 136
-1.00369, 237, 1, 268, 128
-1.00369, 377, 65, 408, 192
-1.0037, 313, 113, 376, 176
-1.0037, 337, 121, 400, 184
-1.00375, 433, 1, 496, 64
-1.00375, 433, 121, 496, 184
-1.00377, 285, 1, 316, 128
-1.00382, 289, 97, 352, 160
-1.00382, 409, 113, 472, 176
-1.00382, 325, 1, 356, 128
-1.00384, 185, 1, 216, 128
-1.00384, 337, 65, 368, 192
-1.00385, 209, 1, 240, 128
-1.00387, 225, 1, 256, 128
-1.00387, 253, 1, 284, 128
-1.00387, 269, 1, 300, 128
-1.00387, 357, 65, 388, 192
-1.00396, 361, 121, 424, 184
-1.00396, 169, 1, 200, 128
-1.00403, 1, 65, 64, 128
-1.00409, 9, 177, 72, 304
-1.00413, 97, 97, 128, 224
-1.00415, 393, 1, 456, 128
-1.00425, 197, 1, 228, 128
-1.00426, 25, 97, 88, 224
-1.00431, 129, 1, 192, 64
-1.00433, 233, 81, 296, 144
-1.00438, 409, 137, 472, 200
-1.00447, 289, 121, 352, 184
-1.00454, 17, 1, 80, 64
-1.0046, 161, 65, 224, 128
-1.00461, 1, 97, 64, 224
-1.00463, 353, 97, 416, 160
-1.00477, 153, 1, 216, 64
-1.0048, 417, 65, 480, 192
-1.00483, 425, 1, 488, 128
-1.00498, 73, 1, 136, 64
-1.00502, 105, 1, 168, 64
-1.00518, 89, 57, 152, 120
-1.00518, 321, 89, 384, 152
-1.00519, 369, 49, 432, 176
-1.00523, 17, 113, 80, 176
-1.00528, 385, 145, 448, 208
-1.00574, 329, 49, 392, 176
-1.00661, 393, 49, 456, 176
-1.00806, 33, 177, 96, 304
-1.01077, 73, 145, 136, 272
-1.01177, 425, 177, 488, 304
