1977
-0.298469, 1, 1, 500, 375
-0.44641, 1, 97, 500, 352
-0.489938, 1, 1, 500, 256
-0.4958, 129, 1, 384, 375
-0.542962, 33, 1, 288, 375
-0.612657, 225, 1, 480, 375
-0.633238, 1, 1, 256, 256
-0.63857, 1, 129, 256, 375
-0.65974, 97, 129, 352, 375
-0.718844, 129, 1, 384, 256
-0.754185, 225, 129, 480, 375
-0.818172, 257, 1, 500, 256
-0.855428, 129, 1, 256, 375
-0.858029, 193, 129, 320, 375
-0.860049, 81, 129, 208, 375
-0.860239, 33, 97, 160, 352
-0.860839, 129, 129, 256, 375
-0.862179, 81, 1, 208, 375
-0.865003, 145, 1, 272, 256
-0.865379, 177, 1, 304, 375
-0.869596, 1, 1, 128, 375
-0.877725, 241, 129, 368, 375
-0.881, 1, 161, 500, 288
-0.881602, 81, 1, 208, 256
-0.894454, 1, 225, 500, 352
-0.89559, 369, 1, 496, 375
-0.898174, 273, 1, 400, 375
-0.89822, 225, 1, 352, 375
-0.903975, 1, 1, 500, 128
-0.905308, 17, 1, 144, 256
-0.906239, 337, 129, 464, 375
-0.908206, 289, 129, 416, 375
-0.908508, 129, 161, 384, 288
-0.911055, 225, 241, 480, 368
-0.912109, 1, 161, 256, 288
-0.915154, 129, 177, 256, 304
-0.917465, 209, 33, 336, 288
-0.919351, 321, 1, 448, 375
-0.921356, 65, 209, 320, 336
-0.922193, 369, 1, 496, 256
-0.927212, 1, 1, 256, 128
-0.928321, 65, 113, 320, 240
-0.929501, 81, 129, 208, 256
-0.930067, 289, 33, 416, 288
-0.93186, 177, 145, 304, 272
-0.932079, 241, 177, 368, 304
-0.932548, 153, 161, 216, 288
-0.932755, 1, 113, 500, 240
-0.935181, 1, 49, 500, 176
-0.935634, 225, 193, 480, 320
-0.936173, 177, 145, 240, 272
-0.936403, 97, 1, 352, 128
-0.93744, 225, 161, 288, 288
-0.938386, 33, 145, 160, 272
-0.938424, 129, 129, 256, 256
-0.93914, 153, 97, 216, 224
-0.939772, 425, 241, 488, 368
-0.940279, 41, 145, 104, 272
-0.941174, 193, 193, 256, 320
-0.942567, 337, 209, 400, 336
-0.943237, 193, 193, 320, 320
-0.943617, 121, 177, 184, 304
-0.943964, 161, 1, 288, 128
-0.944775, 153, 193, 216, 256
-0.945364, 225, 1, 480, 128
-0.945557, 113, 1, 240, 128
-0.946965, 97, 81, 224, 208
-0.947085, 217, 225, 280, 352
-0.947293, 145, 81, 272, 208
-0.94772, 201, 145, 264, 272
-0.948429, 49, 193, 176, 320
-0.948469, 113, 113, 176, 240
-0.948884, 433, 1, 496, 128
-0.949564, 225, 201, 288, 264
-0.949985, 241, 209, 304, 336
-0.950207, 153, 1, 216, 128
-0.95023, 241, 225, 368, 352
-0.950333, 369, 1, 496, 128
-0.950611, 161, 113, 416, 240
-0.95087, 161, 241, 288, 368
-0.950887, 129, 49, 384, 176
-0.951007, 137, 161, 200, 224
-0.951504, 1, 193, 64, 320
-0.952105, 161, 209, 224, 336
-0.952168, 185, 185, 248, 248
-0.952413, 433, 265, 496, 328
-0.952497, 9, 145, 72, 272
-0.953091, 113, 169, 176, 232
-0.953263, 81, 177, 144, 304
-0.954001, 121, 201, 184, 264
-0.954022, 225, 225, 288, 288
-0.954287, 169, 153, 232, 216
-0.9543, 81, 209, 144, 272
-0.955069, 49, 185, 112, 248
-0.955852, 289, 193, 352, 320
-0.955944, 113, 225, 240, 352
-0.955975, 321, 225, 448, 352
-0.956236, 241, 169, 304, 232
-0.95633, 361, 209, 424, 336
-0.956458, 377, 1, 440, 128
-0.956545, 369, 209, 496, 336
-0.956639, 1, 193, 128, 320
-0.956773, 257, 265, 320, 328
-0.956783, 177, 1, 240, 128
-0.956952, 1, 65, 256, 192
-0.957018, 169, 217, 232, 280
-0.957715, 169, 129, 232, 192
-0.957883, 425, 297, 488, 360
-0.957888, 129, 1, 192, 128
-0.95807, 65, 1, 192, 128
-0.958328, 201, 225, 264, 288
-0.959407, 321, 1, 448, 128
-0.959568, 57, 113, 120, 176
-0.960058, 401, 1, 464, 128
-0.960378, 49, 81, 176, 208
-0.96053, 1, 201, 64, 264
-0.960631, 329, 217, 392, 280
-0.960764, 337, 241, 400, 304
-0.960909, 65, 113, 128, 240
-0.961225, 1, 65, 128, 192
-0.961287, 217, 265, 280, 328
-0.961303, 233, 1, 296, 128
-0.961448, 257, 193, 320, 256
-0.961547, 65, 25, 128, 88
-0.961703, 145, 113, 208, 176
-0.961966, 177, 97, 240, 224
-0.961982, 73, 185, 136, 248
-0.96208, 249, 145, 312, 272
-0.962797, 145, 137, 208, 200
-0.962813, 225, 129, 352, 256
-0.962895, 209, 177, 272, 240
-0.963415, 257, 113, 500, 240
-0.964305, 169, 17, 232, 80
-0.964649, 265, 193, 328, 320
-0.964661, 321, 177, 448, 304
-0.964793, 105, 225, 168, 288
-0.964898, 289, 185, 352, 248
-0.965049, 149, 145, 180, 272
-0.965183, 57, 161, 120, 224
-0.965254, 129, 225, 192, 288
-0.965503, 25, 193, 88, 320
-0.965841, 137, 49, 200, 176
-0.965865, 113, 145, 176, 208
-0.965933, 225, 1, 352, 128
-0.9662, 121, 225, 184, 352
-0.966502, 209, 153, 272, 216
-0.966646, 321, 161, 384, 288
-0.966688, 165, 113, 196, 240
-0.966828, 129, 185, 256, 248
-0.966942, 329, 1, 392, 64
-0.967332, 369, 9, 432, 72
-0.967338, 41, 97, 104, 224
-0.967659, 181, 177, 212, 240
-0.967776, 169, 105, 232, 168
-0.968031, 401, 209, 464, 336
-0.968034, 297, 265, 360, 328
-0.968208, 273, 113, 400, 240
-0.968221, 25, 193, 88, 256
-0.968234, 253, 249, 284, 312
-0.968797, 161, 161, 288, 224
-0.968915, 49, 193, 112, 320
-0.968957, 313, 225, 376, 352
-0.969011, 65, 33, 128, 160
-0.969022, 385, 305, 448, 368
-0.969053, 9, 97, 72, 224
-0.969085, 321, 281, 384, 344
-0.969133, 249, 233, 312, 296
-0.969349, 269, 225, 300, 288
-0.969389, 177, 1, 240, 256
-0.969461, 153, 33, 216, 288
-0.969489, 249, 297, 312, 360
-0.969868, 209, 129, 272, 192
-0.969877, 233, 1, 296, 64
-0.96994, 97, 209, 224, 272
-0.969954, 169, 193, 200, 256
-0.969993, 9, 169, 72, 232
-0.970225, 425, 241, 488, 304
-0.970276, 161, 209, 288, 272
-0.97036, 361, 217, 424, 280
-0.970478, 265, 169, 328, 232
-0.970506, 201, 97, 264, 224
-0.970586, 241, 257, 368, 320
-0.970708, 157, 169, 188, 232
-0.970781, 81, 161, 144, 224
-0.970841, 149, 201, 180, 264
-0.970896, 81, 169, 208, 232
-0.97093, 361, 281, 424, 344
-0.970935, 209, 1, 272, 128
-0.971048, 105, 9, 168, 72
-0.971093, 329, 193, 392, 256
-0.971162, 345, 1, 408, 128
-0.971166, 225, 289, 288, 352
-0.97126, 137, 129, 200, 375
-0.971263, 189, 129, 220, 256
-0.971294, 457, 249, 488, 312
-0.971607, 1, 17, 128, 144
-0.971792, 33, 161, 96, 224
-0.97191, 17, 113, 80, 176
-0.971918, 237, 193, 268, 256
-0.972086, 257, 169, 288, 232
-0.972168, 33, 97, 96, 352
-0.972188, 401, 241, 464, 304
-0.972238, 41, 137, 104, 200
-0.972249, 169, 129, 232, 375
-0.972262, 245, 161, 276, 288
-0.972349, 257, 193, 288, 256
-0.972431, 241, 193, 368, 256
-0.972461, 161, 49, 224, 176
-0.972656, 169, 161, 200, 288
-0.972762, 81, 137, 208, 200
-0.972865, 129, 129, 256, 192
-0.972894, 269, 193, 300, 256
-0.972916, 261, 209, 292, 336
-0.972945, 409, 273, 472, 336
-0.972967, 73, 129, 136, 375
-0.973005, 249, 217, 280, 280
-0.973097, 177, 185, 304, 248
-0.973313, 209, 161, 336, 224
-0.973323, 297, 209, 360, 272
-0.973464, 229, 225, 260, 288
-0.973508, 433, 9, 496, 72
-0.973533, 137, 9, 200, 72
-0.97356, 201, 145, 232, 272
-0.973611, 197, 145, 228, 208
-0.973907, 261, 273, 292, 336
-0.974002, 169, 161, 200, 224
-0.974105, 461, 241, 492, 368
-0.974166, 57, 217, 120, 280
-0.974187, 49, 201, 176, 264
-0.974198, 1, 113, 128, 176
-0.97423, 193, 201, 224, 264
-0.974304, 21, 201, 52, 264
-0.974309, 97, 225, 160, 352
-0.974386, 281, 145, 344, 272
-0.974635, 209, 209, 240, 336
-0.974655, 145, 89, 208, 152
-0.974699, 217, 129, 280, 375
-0.975015, 229, 209, 260, 336
-0.97512, 425, 193, 488, 320
-0.975337, 213, 145, 244, 272
-0.975446, 269, 249, 300, 312
-0.975468, 81, 113, 208, 176
-0.975515, 361, 313, 424, 375
-0.975532, 289, 257, 320, 320
-0.975566, 97, 9, 224, 72
-0.975582, 225, 201, 256, 264
-0.975673, 1, 193, 32, 256
-0.97568, 89, 129, 152, 256
-0.975702, 465, 273, 496, 336
-0.975729, 241, 281, 368, 344
-0.975764, 273, 33, 400, 160
-0.975777, 193, 233, 320, 296
-0.975902, 181, 1, 212, 128
-0.975951, 25, 217, 88, 280
-0.975962, 369, 161, 432, 288
-0.976, 193, 17, 256, 80
-0.976079, 97, 33, 160, 160
-0.976115, 273, 281, 304, 344
-0.97614, 237, 161, 268, 224
-0.976153, 157, 129, 188, 192
-0.976182, 177, 129, 208, 192
-0.976193, 241, 217, 368, 280
-0.976264, 245, 281, 276, 344
-0.976271, 177, 97, 208, 224
-0.976282, 409, 17, 472, 80
-0.976294, 245, 241, 276, 368
-0.976427, 105, 201, 136, 264
-0.976465, 173, 217, 204, 280
-0.976496, 149, 193, 180, 320
-0.976497, 149, 97, 180, 224
-0.976528, 273, 169, 304, 232
-0.97656, 269, 161, 300, 288
-0.976735, 289, 241, 352, 368
-0.97674, 1, 193, 128, 256
-0.976759, 65, 129, 96, 256
-0.976829, 81, 233, 144, 296
-0.976944, 321, 129, 448, 256
-0.976958, 145, 17, 272, 80
-0.977091, 297, 177, 328, 240
-0.97714, 41, 185, 72, 248
-0.977229, 69, 105, 100, 168
-0.977264, 89, 25, 120, 88
-0.977297, 309, 185, 340, 248
-0.977389, 97, 33, 160, 96
-0.977418, 257, 145, 288, 272
-0.977467, 1, 97, 64, 352
-0.97762, 181, 153, 212, 216
-0.977647, 273, 217, 336, 280
-0.977662, 241, 129, 304, 375
-0.97777, 181, 177, 212, 304
-0.977835, 109, 161, 140, 288
-0.97785, 437, 281, 468, 344
-0.977999, 121, 121, 184, 184
-0.978227, 193, 129, 256, 375
-0.97825, 297, 241, 360, 304
-0.978274, 1, 153, 128, 216
-0.978295, 321, 209, 352, 336
-0.978297, 361, 241, 424, 304
-0.978298, 197, 193, 228, 320
-0.978322, 193, 249, 256, 312
-0.978427, 217, 225, 248, 288
-0.978476, 81, 121, 144, 184
-0.978481, 41, 33, 104, 96
-0.978556, 225, 1, 352, 64
-0.97859, 241, 145, 304, 208
-0.97861, 121, 305, 184, 368
-0.978673, 105, 25, 136, 88
-0.978681, 229, 161, 260, 288
-0.978812, 29, 129, 60, 256
-0.978832, 273, 1, 336, 128
-0.978875, 65, 1, 128, 64
-0.978968, 325, 193, 356, 256
-0.978971, 193, 1, 224, 128
-0.979088, 77, 25, 108, 88
-0.979094, 113, 233, 240, 296
-0.979105, 109, 145, 140, 208
-0.979112, 49, 145, 80, 272
-0.979198, 49, 225, 176, 288
-0.979356, 213, 137, 244, 200
-0.979375, 425, 217, 488, 280
-0.979379, 113, 129, 176, 375
-0.979384, 133, 225, 164, 288
-0.979415, 193, 241, 256, 368
-0.979468, 193, 81, 320, 208
-0.979493, 369, 249, 496, 312
-0.979515, 161, 1, 192, 128
-0.979538, 321, 241, 448, 304
-0.979569, 21, 193, 52, 320
-0.979724, 145, 1, 208, 375
-0.979765, 225, 65, 480, 192
-0.979842, 441, 305, 472, 368
-0.979843, 337, 49, 464, 176
-0.979898, 57, 193, 88, 256
-0.979908, 225, 153, 256, 216
-0.980053, 201, 1, 264, 256
-0.980061, 261, 297, 292, 360
-0.980154, 353, 313, 480, 375
-0.980184, 257, 169, 384, 232
-0.980225, 445, 257, 476, 320
-0.980234, 57, 193, 88, 320
-0.980255, 309, 177, 340, 304
-0.980259, 41, 33, 104, 160
-0.980269, 289, 161, 352, 224
-0.980301, 241, 249, 272, 312
-0.980361, 145, 169, 176, 232
-0.980509, 273, 209, 304, 336
-0.980604, 89, 201, 120, 264
-0.980625, 17, 89, 80, 152
-0.980635, 209, 185, 240, 248
-0.980719, 117, 201, 148, 264
-0.98075, 289, 265, 416, 328
-0.980776, 237, 137, 268, 200
-0.980839, 69, 201, 100, 264
-0.980845, 257, 1, 320, 64
-0.980898, 373, 1, 404, 128
-0.980913, 109, 225, 140, 288
-0.98108, 17, 145, 48, 272
-0.981104, 333, 265, 364, 328
-0.981144, 369, 273, 496, 336
-0.981189, 409, 1, 440, 128
-0.981203, 57, 153, 88, 216
-0.981266, 161, 209, 192, 336
-0.981286, 321, 9, 448, 72
-0.981338, 365, 225, 396, 352
-0.981345, 461, 1, 492, 128
-0.98141, 129, 129, 160, 256
-0.981423, 377, 225, 408, 352
-0.981425, 285, 177, 316, 240
-0.981428, 385, 265, 448, 328
-0.981442, 449, 225, 480, 352
-0.981552, 361, 1, 392, 64
-0.981554, 265, 241, 328, 368
-0.981619, 97, 33, 224, 96
-0.981639, 289, 161, 320, 288
-0.981643, 89, 113, 120, 176
-0.981647, 205, 225, 236, 288
-0.981672, 37, 121, 68, 184
-0.981674, 137, 145, 168, 208
-0.981777, 177, 1, 240, 375
-0.981786, 281, 129, 344, 375
-0.981809, 129, 33, 192, 96
-0.981843, 181, 105, 212, 168
-0.981966, 65, 241, 192, 368
-0.982, 297, 1, 360, 128
-0.982094, 305, 193, 432, 256
-0.982103, 465, 297, 496, 360
-0.982133, 161, 257, 288, 320
-0.982162, 193, 137, 320, 200
-0.982205, 81, 89, 208, 152
-0.982226, 237, 1, 268, 128
-0.982247, 209, 161, 240, 224
-0.982266, 177, 281, 304, 344
-0.982291, 345, 25, 408, 88
-0.982298, 193, 49, 256, 176
-0.982318, 369, 161, 496, 288
-0.982345, 1, 193, 32, 320
-0.982391, 89, 145, 120, 208
-0.982492, 321, 33, 384, 160
-0.98254, 401, 1, 432, 64
-0.982541, 193, 169, 224, 232
-0.982643, 1, 49, 64, 176
-0.982671, 9, 145, 72, 208
-0.98271, 73, 129, 104, 192
-0.982789, 193, 225, 224, 288
-0.982851, 241, 97, 304, 224
-0.982882, 97, 225, 128, 288
-0.982919, 329, 129, 392, 375
-0.982955, 197, 121, 228, 184
-0.982971, 161, 217, 192, 280
-0.98317, 421, 305, 452, 368
-0.983204, 49, 33, 176, 96
-0.983264, 1, 89, 128, 152
-0.983271, 157, 105, 188, 168
-0.983342, 217, 313, 280, 375
-0.983361, 373, 289, 404, 352
-0.983365, 281, 289, 344, 352
-0.983401, 1, 241, 128, 368
-0.983454, 1, 225, 128, 288
-0.983491, 73, 33, 136, 288
-0.9835, 465, 9, 496, 72
-0.983516, 385, 1, 416, 128
-0.983522, 89, 129, 120, 256
-0.98356, 369, 17, 496, 80
-0.983618, 129, 81, 160, 208
-0.983693, 437, 241, 468, 368
-0.983776, 145, 105, 272, 168
-0.983868, 377, 313, 408, 375
-0.983929, 457, 225, 488, 288
-0.983957, 357, 289, 388, 352
-0.983999, 133, 209, 164, 336
-0.984006, 169, 81, 232, 144
-0.984031, 365, 313, 396, 375
-0.984045, 305, 169, 432, 232
-0.984062, 369, 225, 496, 288
-0.984084, 337, 305, 400, 368
-0.984105, 157, 49, 188, 176
-0.984122, 81, 257, 144, 320
-0.984166, 17, 113, 48, 176
-0.984281, 353, 49, 416, 176
-0.984316, 121, 265, 184, 328
-0.984403, 397, 1, 428, 128
-0.984421, 265, 137, 328, 200
-0.98444, 289, 25, 352, 88
-0.984461, 417, 1, 480, 256
-0.984465, 321, 249, 352, 312
-0.984474, 385, 217, 448, 280
-0.984498, 177, 49, 208, 176
-0.984515, 1, 1, 64, 375
-0.984517, 361, 225, 392, 288
-0.984543, 281, 201, 312, 264
-0.984559, 249, 145, 280, 208
-0.984637, 89, 169, 120, 232
-0.984728, 469, 249, 500, 312
-0.984731, 57, 113, 88, 176
-0.984743, 445, 1, 476, 128
-0.984778, 85, 225, 116, 288
-0.984811, 97, 33, 160, 288
-0.98483, 177, 305, 304, 368
-0.984831, 105, 113, 136, 240
-0.984883, 177, 9, 208, 72
-0.984971, 237, 9, 268, 72
-0.984984, 69, 177, 100, 240
-0.98508, 113, 1, 144, 64
-0.985127, 289, 241, 320, 368
-0.98519, 449, 281, 480, 344
-0.985219, 337, 49, 400, 112
-0.985227, 69, 177, 100, 304
-0.985234, 49, 1, 176, 64
-0.985309, 345, 209, 376, 336
-0.985325, 381, 9, 412, 72
-0.985326, 369, 1, 432, 256
-0.985367, 193, 105, 256, 168
-0.985386, 129, 193, 160, 256
-0.98543, 53, 97, 84, 224
-0.985445, 433, 145, 496, 272
-0.985478, 37, 209, 68, 336
-0.985544, 169, 41, 232, 104
-0.985582, 229, 257, 260, 320
-0.985593, 89, 33, 120, 160
-0.985607, 121, 145, 152, 208
-0.985627, 241, 313, 368, 375
-0.985659, 333, 209, 364, 336
-0.985673, 121, 225, 152, 288
-0.985708, 45, 209, 76, 272
-0.985711, 81, 1, 144, 375
-0.985723, 201, 1, 264, 375
-0.985745, 137, 121, 168, 184
-0.985762, 89, 193, 120, 320
-0.985768, 169, 105, 200, 168
-0.985788, 29, 153, 60, 216
-0.985795, 393, 1, 456, 256
-0.98583, 285, 281, 316, 344
-0.985845, 161, 9, 192, 72
-0.985973, 45, 161, 76, 224
-0.985987, 269, 145, 300, 208
-0.985993, 261, 1, 292, 64
-0.986008, 289, 289, 416, 352
-0.986054, 401, 145, 464, 208
-0.986111, 89, 1, 120, 64
-0.986125, 429, 1, 460, 128
-0.986129, 313, 41, 376, 104
-0.986132, 369, 97, 496, 224
-0.986199, 5, 105, 36, 168
-0.986203, 201, 97, 232, 224
-0.986352, 149, 225, 180, 288
-0.986374, 17, 273, 144, 336
-0.986386, 117, 209, 148, 336
-0.986389, 65, 49, 128, 112
-0.986404, 225, 177, 256, 240
-0.986433, 329, 225, 360, 288
-0.986467, 33, 209, 64, 272
-0.986517, 413, 17, 444, 80
-0.986535, 69, 153, 100, 216
-0.98667, 321, 217, 448, 280
-0.98668, 309, 257, 340, 320
-0.986712, 321, 169, 352, 232
-0.98679, 169, 241, 232, 304
-0.986798, 129, 169, 160, 232
-0.986802, 21, 297, 52, 360
-0.98682, 105, 177, 136, 240
-0.986854, 409, 193, 472, 256
-0.986861, 305, 1, 368, 64
-0.9869, 321, 273, 352, 336
-0.986918, 101, 121, 132, 184
-0.986939, 217, 17, 248, 144
-0.986974, 273, 1, 400, 64
-0.986993, 321, 161, 352, 288
-0.987044, 149, 1, 180, 128
-0.987053, 353, 89, 416, 152
-0.987076, 69, 33, 100, 160
-0.987118, 465, 193, 496, 320
-0.987161, 145, 273, 208, 336
-0.987235, 129, 1, 192, 256
-0.987254, 65, 25, 96, 88
-0.987345, 201, 17, 232, 80
-0.987349, 9, 65, 40, 192
-0.987487, 305, 41, 432, 104
-0.987522, 65, 89, 128, 152
-0.987535, 389, 225, 420, 352
-0.987709, 153, 197, 216, 228
-0.987761, 145, 305, 208, 368
-0.987776, 189, 81, 220, 208
-0.987778, 49, 1, 112, 375
-0.987787, 369, 193, 432, 256
-0.98785, 305, 129, 368, 375
-0.987897, 385, 65, 448, 128
-0.987953, 65, 193, 320, 256
-0.987958, 1, 25, 128, 88
-0.987964, 273, 145, 400, 208
-0.98808, 193, 25, 320, 88
-0.988099, 9, 209, 72, 240
-0.988143, 253, 1, 284, 128
-0.988145, 121, 1, 184, 375
-0.988225, 369, 153, 432, 216
-0.988236, 169, 161, 232, 192
-0.988283, 145, 81, 272, 144
-0.988309, 241, 33, 304, 288
-0.988334, 169, 217, 232, 248
-0.988354, 337, 169, 400, 232
-0.988408, 225, 1, 288, 375
-0.988422, 433, 193, 496, 256
-0.988457, 17, 1, 80, 256
-0.988478, 217, 25, 280, 88
-0.988485, 33, 273, 96, 336
-0.988505, 313, 169, 376, 232
-0.988549, 1, 225, 64, 288
-0.988558, 145, 173, 208, 204
-0.988679, 145, 57, 208, 120
-0.98868, 433, 193, 464, 320
-0.988685, 329, 73, 392, 136
-0.988692, 1, 297, 64, 360
-0.98871, 113, 157, 176, 188
-0.988712, 269, 113, 300, 240
-0.988715, 433, 281, 496, 312
-0.988718, 81, 213, 144, 244
-0.988718, 137, 217, 200, 248
-0.988746, 225, 221, 288, 252
-0.988751, 17, 1, 80, 128
-0.988808, 69, 81, 100, 208
-0.988826, 65, 29, 128, 60
-0.988937, 345, 161, 408, 288
-0.988938, 361, 129, 424, 375
-0.988976, 201, 221, 264, 252
-0.989016, 113, 209, 176, 240
-0.989031, 453, 177, 484, 304
-0.989153, 145, 49, 176, 176
-0.989179, 169, 121, 232, 152
-0.989189, 337, 1, 400, 375
-0.989206, 65, 169, 320, 232
-0.989215, 5, 145, 36, 272
-0.989219, 41, 157, 104, 188
-0.989224, 393, 1, 456, 375
-0.989244, 113, 189, 176, 220
-0.989265, 225, 97, 256, 224
-0.989317, 185, 181, 248, 212
-0.989318, 433, 269, 496, 300
-0.989331, 81, 153, 144, 184
-0.989353, 377, 33, 440, 96
-0.989373, 129, 217, 384, 280
-0.989384, 185, 201, 248, 232
-0.989416, 425, 329, 488, 360
-0.989424, 41, 109, 104, 140
-0.989437, 205, 1, 236, 128
-0.989473, 225, 189, 288, 220
-0.98948, 209, 209, 272, 240
-0.98952, 81, 113, 144, 144
-0.989537, 209, 161, 272, 192
-0.989551, 425, 341, 488, 372
-0.98957, 241, 261, 304, 292
-0.989581, 225, 273, 480, 336
-0.989583, 117, 81, 148, 208
-0.989595, 137, 161, 200, 192
-0.989598, 161, 49, 288, 112
-0.9896, 33, 1, 96, 64
-0.989612, 257, 41, 384, 104
-0.98964, 73, 185, 136, 216
-0.989643, 425, 169, 488, 232
-0.989646, 401, 161, 464, 288
-0.989653, 361, 121, 424, 184
-0.989662, 329, 229, 392, 260
-0.989763, 1, 221, 64, 252
-0.989764, 65, 41, 128, 72
-0.989778, 289, 197, 352, 228
-0.989778, 237, 113, 268, 240
-0.989795, 57, 241, 120, 304
-0.989797, 369, 201, 496, 264
-0.989798, 329, 217, 392, 248
-0.989824, 109, 1, 140, 128
-0.989847, 97, 97, 160, 160
-0.989891, 49, 217, 112, 248
-0.989905, 241, 233, 304, 264
-0.989931, 381, 177, 412, 304
-0.989932, 209, 113, 336, 176
-0.989935, 425, 317, 488, 348
-0.989946, 33, 145, 96, 176
-0.989951, 97, 33, 160, 64
-0.989953, 113, 221, 176, 252
-0.990008, 41, 201, 104, 232
-0.990014, 153, 149, 216, 180
-0.99002, 169, 229, 232, 260
-0.990034, 181, 225, 212, 352
-0.990111, 137, 117, 200, 148
-0.990111, 249, 277, 312, 308
-0.990129, 65, 273, 192, 336
-0.990132, 289, 185, 352, 216
-0.990148, 81, 57, 208, 120
-0.990155, 241, 205, 304, 236
-0.99016, 241, 157, 304, 188
-0.990192, 81, 225, 144, 256
-0.990196, 177, 149, 240, 180
-0.990201, 113, 257, 240, 320
-0.990205, 1, 297, 128, 360
-0.990231, 377, 97, 440, 160
-0.990251, 225, 277, 288, 308
-0.990255, 89, 81, 152, 208
-0.990268, 249, 297, 312, 328
-0.990269, 201, 145, 264, 176
-0.990285, 33, 189, 96, 220
-0.990289, 321, 281, 384, 312
-0.990336, 33, 225, 288, 288
-0.990356, 17, 109, 80, 140
-0.990356, 265, 213, 328, 244
-0.99036, 329, 113, 392, 240
-0.990385, 217, 289, 280, 320
-0.990408, 257, 193, 320, 224
-0.990417, 265, 173, 328, 204
-0.990429, 137, 229, 200, 260
-0.990432, 97, 169, 160, 200
-0.990435, 421, 225, 452, 352
-0.990439, 329, 241, 392, 272
-0.990467, 81, 201, 144, 232
-0.990469, 353, 221, 416, 252
-0.990475, 425, 253, 488, 284
-0.990481, 161, 193, 416, 256
-0.990484, 209, 173, 272, 204
-0.990516, 273, 121, 400, 184
-0.990536, 353, 41, 480, 104
-0.99054, 289, 261, 352, 292
-0.990543, 145, 185, 208, 216
-0.990544, 377, 49, 440, 176
-0.990563, 201, 273, 264, 304
-0.990587, 193, 233, 256, 264
-0.990621, 169, 17, 232, 48
-0.990663, 305, 1, 368, 375
-0.99068, 9, 197, 72, 228
-0.990682, 425, 305, 488, 336
-0.990687, 305, 113, 368, 240
-0.990693, 89, 81, 120, 208
-0.990708, 369, 9, 432, 40
-0.990732, 25, 221, 88, 252
-0.990735, 25, 1, 88, 375
-0.990793, 9, 153, 72, 184
-0.990803, 105, 117, 168, 148
-0.990815, 249, 1, 312, 375
-0.99082, 353, 233, 416, 264
-0.990831, 409, 49, 472, 176
-0.990832, 225, 297, 480, 360
-0.990837, 273, 1, 336, 375
-0.990846, 41, 169, 104, 200
-0.990854, 297, 113, 328, 240
-0.990874, 329, 253, 392, 284
-0.990906, 233, 9, 296, 40
-0.990919, 1, 185, 500, 248
-0.990924, 241, 245, 304, 276
-0.990951, 169, 133, 232, 164
-0.990958, 361, 297, 424, 328
-0.991005, 249, 321, 312, 352
-0.991014, 193, 25, 256, 56
-0.991016, 433, 293, 496, 324
-0.991021, 321, 293, 384, 324
-0.99109, 321, 205, 384, 236
-0.991103, 433, 13, 496, 44
-0.991109, 9, 165, 72, 196
-0.99112, 57, 141, 120, 172
-0.991123, 73, 165, 136, 196
-0.991124, 361, 309, 424, 340
-0.991125, 337, 1, 400, 32
-0.991131, 313, 173, 376, 204
-0.991132, 145, 105, 208, 136
-0.991139, 137, 137, 200, 168
-0.991179, 357, 1, 388, 128
-0.991182, 169, 109, 232, 140
-0.991186, 385, 313, 448, 344
-0.99119, 289, 277, 352, 308
-0.991192, 225, 241, 480, 304
-0.991197, 113, 257, 176, 288
-0.991233, 313, 193, 376, 224
-0.991249, 77, 129, 108, 256
-0.991254, 241, 169, 304, 200
-0.991281, 201, 245, 264, 276
-0.991281, 49, 229, 112, 260
-0.991283, 433, 129, 496, 375
-0.991291, 65, 9, 320, 72
-0.991313, 113, 145, 176, 176
-0.991348, 73, 101, 136, 132
-0.991359, 137, 37, 200, 68
-0.991393, 41, 33, 104, 64
-0.991394, 217, 317, 280, 348
-0.9914, 401, 265, 464, 296
-0.99142, 97, 145, 352, 208
-0.991465, 137, 17, 200, 48
-0.99149, 81, 141, 144, 172
-0.991504, 257, 309, 320, 340
-0.991511, 341, 161, 372, 288
-0.991522, 9, 181, 72, 212
-0.991526, 265, 1, 328, 32
-0.991543, 213, 97, 244, 224
-0.991554, 353, 245, 416, 276
-0.991566, 265, 261, 328, 292
-0.991571, 385, 293, 448, 324
-0.991572, 409, 129, 472, 375
-0.991585, 409, 281, 472, 312
-0.9916, 425, 241, 488, 272
-0.991624, 249, 345, 312, 375
-0.991632, 289, 289, 352, 320
-0.99164, 1, 113, 256, 176
-0.991646, 121, 305, 184, 336
-0.991657, 217, 257, 280, 288
-0.991669, 97, 45, 160, 76
-0.991674, 169, 29, 232, 60
-0.991825, 65, 249, 320, 312
-0.991833, 65, 249, 192, 312
-0.991884, 273, 65, 400, 128
-0.991911, 129, 281, 256, 344
-0.991967, 177, 217, 208, 248
-0.991993, 229, 225, 260, 256
-0.992002, 193, 169, 224, 200
-0.992043, 21, 209, 52, 240
-0.992115, 217, 213, 248, 244
-0.992118, 1, 145, 256, 208
-0.992134, 189, 213, 220, 244
-0.99214, 453, 253, 484, 284
-0.992154, 105, 209, 136, 336
-0.992158, 225, 1, 480, 64
-0.992186, 37, 213, 68, 244
-0.9922, 197, 201, 228, 232
-0.992201, 129, 153, 256, 184
-0.992255, 169, 193, 184, 256
-0.992264, 361, 177, 392, 304
-0.992266, 85, 33, 116, 64
-0.992299, 169, 197, 200, 228
-0.992326, 201, 217, 232, 248
-0.992332, 149, 213, 180, 244
-0.992337, 309, 225, 340, 352
-0.99234, 69, 109, 100, 140
-0.992342, 109, 145, 140, 176
-0.992343, 417, 1, 480, 375
-0.992353, 201, 157, 232, 188
-0.992362, 257, 97, 288, 224
-0.992363, 129, 157, 160, 188
-0.992368, 73, 29, 104, 60
-0.992371, 97, 29, 128, 60
-0.992374, 113, 37, 144, 68
-0.992377, 229, 213, 260, 244
-0.99238, 165, 213, 196, 244
-0.992396, 257, 189, 288, 220
-0.992398, 177, 165, 304, 196
-0.992409, 229, 157, 260, 188
-0.992411, 149, 197, 180, 228
-0.992411, 325, 113, 356, 240
-0.99242, 269, 245, 300, 276
-0.992427, 249, 245, 280, 276
-0.992429, 261, 281, 292, 312
-0.99245, 453, 269, 484, 300
-0.992455, 181, 189, 212, 220
-0.992456, 65, 305, 192, 368
-0.992462, 229, 197, 260, 228
-0.992463, 353, 169, 480, 232
-0.992468, 13, 197, 44, 228
-0.992475, 1, 209, 32, 240
-0.992485, 273, 281, 304, 312
-0.992493, 269, 233, 300, 264
-0.992508, 181, 165, 212, 196
-0.992514, 209, 201, 240, 232
-0.992517, 257, 225, 288, 256
-0.992519, 213, 149, 244, 180
-0.992522, 153, 121, 184, 152
-0.992525, 81, 109, 112, 140
-0.992531, 269, 257, 300, 288
-0.992535, 345, 1, 408, 256
-0.992539, 441, 329, 472, 360
-0.992547, 9, 301, 40, 332
-0.992561, 141, 157, 172, 188
-0.992571, 321, 65, 448, 128
-0.992579, 49, 213, 80, 244
-0.992579, 333, 281, 364, 312
-0.992581, 321, 193, 352, 224
-0.992588, 261, 213, 292, 244
-0.992593, 181, 177, 212, 208
-0.992594, 269, 197, 300, 228
-0.992598, 249, 261, 280, 292
-0.992603, 21, 153, 52, 184
-0.992606, 153, 169, 184, 200
-0.99261, 465, 273, 496, 304
-0.99261, 197, 145, 228, 176
-0.99262, 249, 213, 280, 244
-0.992628, 245, 233, 276, 264
-0.992634, 53, 161, 84, 192
-0.992636, 65, 205, 96, 236
-0.992641, 289, 261, 320, 292
-0.992646, 65, 217, 96, 248
-0.992647, 265, 297, 296, 328
-0.992648, 69, 153, 100, 184
-0.992649, 169, 169, 200, 200
-0.992652, 89, 153, 120, 184
-0.992654, 213, 165, 244, 196
-0.99266, 1, 221, 32, 252
-0.992665, 245, 177, 276, 208
-0.992676, 353, 145, 480, 208
-0.992676, 89, 45, 120, 76
-0.992677, 209, 229, 240, 260
-0.992678, 65, 193, 96, 224
-0.992679, 225, 217, 480, 280
-0.992679, 117, 157, 148, 188
-0.99268, 157, 133, 188, 164
-0.992682, 261, 321, 292, 352
-0.992682, 465, 13, 496, 44
-0.992688, 25, 221, 56, 252
-0.992697, 89, 121, 120, 152
-0.992704, 101, 49, 132, 176
-0.992706, 213, 137, 244, 168
-0.992718, 197, 129, 228, 160
-0.992719, 73, 41, 104, 72
-0.99272, 177, 153, 208, 184
-0.992722, 197, 229, 228, 260
-0.992727, 129, 173, 256, 204
-0.99273, 149, 185, 180, 216
-0.992732, 309, 113, 340, 240
-0.992734, 41, 1, 104, 256
-0.992737, 241, 289, 272, 320
-0.992737, 257, 201, 288, 232
-0.992739, 49, 109, 80, 140
-0.992739, 193, 181, 224, 212
-0.992746, 257, 165, 288, 196
-0.992749, 321, 257, 352, 288
-0.99275, 105, 205, 136, 236
-0.99275, 465, 261, 496, 292
-0.992751, 321, 33, 384, 288
-0.992753, 45, 149, 76, 180
-0.992754, 161, 169, 176, 232
-0.992756, 149, 241, 180, 368
-0.992756, 141, 117, 172, 148
-0.992757, 441, 277, 472, 308
-0.992762, 373, 297, 404, 328
-0.992764, 181, 17, 212, 48
-0.992772, 129, 33, 160, 64
-0.992775, 237, 145, 268, 176
-0.992777, 245, 193, 276, 224
-0.992786, 89, 165, 120, 196
-0.992787, 53, 201, 84, 232
-0.992791, 213, 177, 244, 208
-0.992797, 261, 309, 292, 340
-0.992802, 17, 289, 48, 320
-0.992803, 53, 225, 84, 256
-0.992803, 57, 173, 88, 204
-0.992813, 325, 213, 356, 244
-0.992815, 149, 225, 180, 256
-0.992817, 117, 113, 148, 144
-0.99282, 5, 1, 36, 128
-0.99282, 177, 117, 208, 148
-0.99282, 345, 285, 376, 316
-0.992836, 145, 37, 176, 68
-0.992841, 85, 209, 116, 240
-0.992841, 129, 169, 160, 200
-0.992848, 69, 165, 100, 196
-0.992852, 441, 317, 472, 348
-0.992852, 165, 117, 196, 148
-0.992857, 1, 109, 128, 140
-0.992859, 229, 237, 260, 268
-0.992859, 1, 197, 32, 228
-0.99286, 369, 121, 496, 184
-0.992863, 1, 109, 32, 140
-0.992864, 245, 165, 276, 196
-0.992867, 101, 133, 132, 164
-0.992868, 281, 197, 312, 228
-0.992868, 441, 341, 472, 372
-0.992868, 161, 169, 416, 232
-0.992869, 61, 121, 92, 152
-0.992869, 277, 213, 308, 244
-0.99287, 177, 129, 208, 160
-0.992872, 37, 105, 68, 136
-0.992873, 225, 169, 256, 200
-0.992924, 1, 313, 500, 375
-0.992999, 361, 1, 424, 375
-0.99304, 257, 249, 272, 312
-0.99305, 1, 1, 128, 64
-0.993177, 129, 217, 256, 248
-0.993211, 409, 225, 440, 352
-0.993234, 41, 97, 72, 224
-0.993238, 21, 81, 52, 208
-0.993241, 173, 169, 188, 232
-0.993246, 113, 305, 240, 368
-0.99327, 129, 201, 256, 232
-0.993313, 97, 281, 352, 344
-0.993321, 277, 201, 292, 264
-0.993338, 1, 209, 500, 272
-0.993372, 179, 193, 194, 256
-0.993387, 241, 261, 368, 292
-0.993422, 49, 113, 176, 144
-0.993436, 109, 193, 124, 256
-0.993455, 1, 41, 256, 104
-0.993467, 193, 81, 320, 144
-0.993481, 369, 113, 432, 240
-0.993515, 49, 161, 176, 192
-0.99352, 251, 249, 266, 312
-0.993553, 305, 313, 432, 375
-0.99361, 285, 249, 300, 312
-0.993621, 1, 1, 500, 64
-0.993628, 273, 97, 400, 160
-0.993638, 265, 97, 328, 224
-0.993647, 271, 193, 286, 256
-0.993656, 25, 241, 88, 368
-0.993665, 1, 65, 128, 128
-0.993686, 129, 189, 256, 220
-0.993701, 357, 49, 388, 176
-0.993701, 249, 193, 264, 256
-0.993701, 263, 209, 278, 272
-0.993781, 253, 225, 268, 288
-0.993809, 457, 249, 472, 312
-0.993812, 191, 169, 206, 232
-0.993845, 377, 129, 408, 256
-0.993848, 103, 217, 118, 280
-0.993857, 193, 197, 320, 228
-0.993859, 153, 153, 168, 216
-0.993878, 401, 113, 464, 240
-0.993885, 1, 249, 128, 312
-0.993891, 301, 1, 332, 128
-0.993899, 125, 1, 156, 128
-0.993924, 269, 169, 284, 232
-0.99394, 113, 137, 240, 168
-0.993947, 119, 145, 134, 208
-0.993951, 1, 265, 500, 328
-0.993955, 223, 217, 238, 280
-0.993958, 321, 89, 448, 152
-0.993966, 255, 185, 270, 248
-0.993973, 177, 181, 304, 212
-0.994004, 231, 201, 246, 264
-0.994007, 185, 177, 200, 240
-0.994035, 107, 25, 122, 88
-0.994055, 441, 145, 472, 272
-0.994061, 81, 217, 208, 248
-0.994068, 265, 33, 328, 288
-0.994069, 289, 65, 352, 192
-0.994073, 249, 161, 264, 224
-0.994076, 297, 33, 360, 288
-0.994079, 1, 241, 64, 368
-0.994089, 137, 1, 168, 128
-0.994128, 119, 193, 134, 256
-0.99414, 179, 153, 194, 216
-0.994153, 475, 273, 490, 336
-0.994208, 265, 249, 280, 312
-0.99422, 369, 97, 496, 160
-0.994241, 97, 305, 352, 368
-0.994252, 345, 17, 376, 144
-0.994254, 1, 153, 128, 184
-0.994258, 247, 225, 262, 288
-0.994271, 161, 237, 288, 268
-0.994275, 241, 281, 368, 312
-0.994291, 113, 129, 128, 192
-0.994297, 63, 193, 78, 256
-0.994328, 375, 225, 390, 288
-0.994366, 111, 217, 126, 280
-0.994373, 273, 225, 288, 288
-0.99439, 49, 177, 176, 208
-0.994483, 265, 1, 296, 128
-0.994504, 469, 249, 484, 312
-0.99452, 155, 129, 170, 192
-0.994534, 1, 25, 500, 88
-0.994535, 307, 177, 322, 240
-0.994538, 185, 201, 200, 264
-0.994542, 199, 201, 214, 264
-0.994544, 161, 129, 176, 192
-0.994566, 257, 273, 272, 336
-0.994576, 239, 225, 254, 288
-0.994582, 259, 161, 274, 224
-0.9946, 1, 241, 500, 304
-0.994601, 49, 205, 176, 236
-0.994618, 385, 129, 448, 375
-0.994633, 97, 117, 224, 148
-0.994636, 433, 49, 496, 176
-0.994657, 81, 37, 208, 68
-0.99466, 49, 149, 176, 180
-0.994672, 177, 153, 304, 184
-0.994703, 287, 193, 302, 256
-0.994706, 167, 169, 182, 232
-0.994727, 217, 137, 232, 200
-0.994727, 73, 225, 136, 352
-0.994739, 81, 25, 96, 88
-0.994743, 267, 273, 282, 336
-0.99475, 129, 33, 384, 96
-0.994752, 445, 273, 460, 336
-0.994776, 155, 185, 170, 248
-0.994792, 21, 193, 36, 256
-0.994796, 451, 265, 466, 328
-0.994824, 179, 217, 194, 280
-0.994825, 33, 125, 160, 156
-0.994853, 257, 177, 500, 240
-0.994867, 119, 169, 134, 232
-0.994905, 217, 225, 232, 288
-0.994912, 337, 193, 352, 256
-0.994941, 231, 225, 246, 288
-0.994944, 117, 217, 132, 280
-0.994947, 241, 293, 368, 324
-0.994967, 83, 105, 98, 168
-0.994985, 369, 73, 496, 136
-0.995007, 81, 229, 208, 260
-0.995085, 197, 161, 212, 224
-0.9951, 377, 65, 408, 192
-0.995102, 205, 185, 220, 248
-0.995103, 125, 145, 140, 208
-0.995111, 239, 193, 254, 256
-0.99512, 263, 185, 278, 248
-0.995128, 145, 125, 272, 156
-0.995129, 241, 245, 368, 276
-0.995162, 375, 313, 390, 375
-0.99517, 129, 89, 384, 152
-0.995173, 287, 225, 302, 288
-0.99518, 157, 105, 172, 168
-0.995192, 295, 177, 310, 240
-0.9952, 277, 161, 292, 224
-0.995224, 17, 1, 48, 128
-0.995257, 369, 245, 496, 276
-0.995259, 181, 1, 212, 256
-0.995263, 315, 177, 330, 240
-0.99527, 69, 193, 84, 256
-0.995287, 11, 193, 26, 256
-0.995289, 59, 153, 74, 216
-0.995289, 203, 145, 218, 208
-0.995294, 27, 193, 42, 256
-0.995298, 75, 185, 90, 248
-0.995299, 193, 193, 208, 256
-0.995302, 241, 181, 368, 212
-0.995304, 201, 49, 232, 176
-0.995322, 325, 17, 356, 144
-0.995333, 209, 213, 336, 244
-0.995335, 17, 221, 144, 252
-0.995344, 277, 281, 292, 344
-0.995346, 213, 185, 228, 248
-0.995355, 287, 169, 302, 232
-0.995355, 441, 297, 456, 360
-0.995371, 81, 189, 208, 220
-0.995374, 239, 153, 254, 216
-0.995378, 477, 249, 492, 312
-0.995381, 113, 153, 128, 216
-0.995393, 33, 201, 48, 264
-0.995395, 241, 201, 368, 232
-0.995421, 379, 1, 394, 64
-0.995439, 281, 113, 312, 240
-0.995443, 145, 21, 272, 52
-0.995448, 5, 201, 20, 264
-0.99545, 209, 225, 224, 288
-0.995451, 99, 33, 114, 96
-0.995463, 453, 97, 484, 224
-0.995503, 73, 121, 88, 184
-0.99551, 397, 177, 428, 304
-0.995525, 321, 233, 448, 264
-0.995539, 335, 265, 350, 328
-0.995558, 257, 1, 384, 32
-0.995587, 145, 217, 160, 280
-0.99559, 287, 273, 302, 336
-0.995616, 1, 161, 500, 224
-0.99562, 321, 277, 448, 308
-0.995635, 321, 121, 448, 184
-0.995638, 301, 177, 316, 240
-0.995645, 81, 49, 208, 80
-0.995645, 197, 241, 228, 368
-0.995651, 1, 189, 128, 220
-0.995686, 103, 193, 118, 256
-0.995696, 231, 137, 246, 200
-0.995725, 379, 289, 394, 352
-0.995728, 75, 33, 90, 96
-0.995743, 365, 1, 380, 64
-0.995748, 87, 25, 102, 88
-0.99577, 385, 289, 400, 352
-0.995781, 67, 121, 82, 184
-0.995786, 251, 281, 266, 344
-0.995811, 81, 101, 208, 132
-0.995819, 209, 57, 336, 120
-0.995845, 73, 161, 88, 224
-0.995849, 33, 137, 160, 168
-0.995853, 213, 161, 228, 224
-0.995854, 173, 9, 188, 72
-0.995878, 137, 225, 152, 288
-0.995878, 321, 245, 448, 276
-0.995879, 181, 129, 196, 192
-0.995888, 193, 129, 224, 375
-0.995893, 279, 249, 294, 312
-0.995893, 51, 177, 66, 240
-0.9959, 81, 13, 208, 44
-0.995918, 463, 249, 478, 312
-0.995924, 1, 165, 128, 196
-0.995927, 345, 265, 360, 328
-0.995936, 1, 209, 128, 240
-0.995937, 243, 1, 258, 64
-0.99594, 27, 297, 42, 360
-0.995948, 231, 177, 246, 240
-0.995968, 149, 121, 164, 184
-0.995968, 369, 345, 496, 375
-0.99597, 325, 185, 340, 248
-0.995975, 327, 209, 342, 272
-0.995977, 191, 145, 206, 208
-0.995978, 93, 25, 108, 88
-0.995978, 125, 217, 140, 280
-0.995997, 161, 193, 176, 256
-0.996018, 161, 249, 288, 280
-0.996037, 97, 225, 112, 288
-0.996046, 245, 257, 260, 320
-0.996048, 193, 225, 320, 256
-0.996048, 369, 281, 496, 312
-0.996058, 321, 13, 448, 44
-0.996059, 113, 25, 128, 88
-0.99607, 241, 233, 368, 264
-0.996077, 369, 289, 384, 352
-0.99609, 369, 305, 496, 336
-0.996096, 191, 225, 206, 288
-0.996099, 177, 141, 304, 172
-0.996101, 409, 1, 424, 64
-0.996109, 295, 265, 310, 328
-0.996139, 257, 305, 384, 336
-0.996166, 313, 1, 344, 128
-0.996184, 149, 129, 180, 375
-0.996188, 1, 289, 500, 352
-0.996208, 97, 121, 352, 184
-0.996238, 1, 89, 256, 152
-0.996264, 369, 257, 496, 288
-0.99628, 193, 145, 448, 208
-0.996284, 181, 97, 212, 352
-0.99632, 433, 97, 496, 224
-0.996329, 289, 257, 416, 288
-0.996346, 65, 97, 96, 352
-0.996359, 389, 65, 420, 192
-0.996361, 129, 33, 256, 64
-0.996383, 369, 329, 496, 360
-0.996391, 305, 289, 432, 320
-0.996398, 161, 33, 192, 288
-0.99642, 177, 289, 304, 320
-0.996458, 17, 29, 144, 60
-0.996521, 209, 9, 336, 40
-0.996547, 129, 105, 256, 136
-0.996556, 241, 345, 368, 375
-0.996572, 321, 221, 448, 252
-0.996583, 245, 129, 276, 375
-0.996583, 9, 241, 40, 368
-0.996585, 77, 97, 108, 352
-0.996605, 177, 301, 304, 332
-0.996607, 193, 261, 320, 292
-0.996624, 109, 129, 140, 375
-0.996626, 177, 273, 304, 304
-0.99664, 305, 197, 432, 228
-0.996663, 229, 97, 260, 352
-0.996671, 29, 97, 60, 352
-0.996672, 177, 317, 304, 348
-0.996673, 225, 25, 480, 88
-0.996681, 469, 145, 500, 272
-0.99671, 305, 1, 432, 32
-0.996736, 105, 29, 120, 60
-0.996736, 225, 165, 352, 196
-0.99677, 257, 217, 384, 248
-0.996779, 57, 17, 88, 144
-0.996782, 241, 317, 368, 348
-0.996806, 251, 265, 266, 296
-0.996821, 33, 41, 160, 72
-0.996824, 65, 25, 192, 56
-0.996825, 369, 293, 496, 324
-0.996826, 1, 65, 256, 128
-0.996829, 201, 1, 232, 256
-0.996881, 353, 1, 480, 32
-0.996888, 125, 149, 140, 180
-0.996894, 257, 129, 288, 375
-0.9969, 97, 257, 224, 288
-0.996909, 287, 201, 302, 232
-0.996909, 193, 121, 448, 184
-0.996928, 81, 25, 96, 56
-0.996934, 129, 57, 384, 120
-0.996951, 89, 33, 120, 288
-0.996951, 249, 173, 264, 204
-0.996957, 259, 181, 274, 212
-0.996973, 369, 269, 496, 300
-0.996976, 267, 225, 282, 256
-0.99698, 273, 197, 288, 228
-0.997012, 469, 253, 484, 284
-0.997016, 353, 25, 480, 56
-0.997018, 189, 173, 204, 204
-0.997021, 257, 261, 272, 292
-0.997023, 195, 169, 210, 200
-0.997032, 49, 97, 80, 352
-0.997035, 369, 317, 496, 348
-0.997044, 169, 129, 200, 375
-0.997058, 177, 329, 304, 360
-0.997067, 369, 233, 496, 264
-0.99707, 265, 189, 280, 220
-0.997088, 213, 129, 244, 375
-0.997089, 249, 225, 264, 256
-0.997099, 33, 213, 48, 244
-0.997102, 277, 213, 292, 244
-0.997104, 157, 117, 172, 148
-0.997105, 1, 129, 500, 192
-0.997122, 255, 245, 270, 276
-0.997125, 305, 181, 432, 212
-0.997136, 1, 97, 128, 128
-0.997147, 17, 129, 48, 375
-0.997154, 229, 221, 244, 252
-0.997155, 223, 213, 238, 244
-0.997158, 463, 249, 478, 280
-0.997164, 171, 197, 186, 228
-0.997181, 241, 329, 368, 360
-0.997188, 365, 97, 396, 224
-0.997196, 375, 233, 390, 264
-0.997203, 61, 213, 76, 244
-0.997206, 285, 257, 300, 288
-0.997209, 115, 133, 130, 164
-0.997218, 25, 201, 40, 232
-0.997219, 153, 157, 168, 188
-0.997227, 191, 213, 206, 244
-0.997247, 111, 213, 126, 244
-0.997261, 255, 225, 270, 256
-0.997263, 181, 217, 196, 248
-0.997292, 249, 213, 264, 244
-0.997294, 249, 193, 264, 224
-0.997298, 259, 213, 274, 244
-0.997299, 103, 209, 118, 240
-0.997312, 239, 161, 254, 192
-0.997315, 33, 233, 160, 264
-0.997319, 179, 177, 194, 208
-0.997321, 457, 253, 472, 284
-0.997324, 161, 93, 288, 124
-0.997334, 283, 189, 298, 220
-0.997341, 217, 213, 232, 244
-0.997345, 111, 145, 126, 176
-0.997358, 119, 149, 134, 180
-0.997359, 285, 129, 316, 375
-0.99736, 117, 221, 132, 252
-0.997364, 109, 201, 124, 232
-0.997365, 145, 45, 272, 76
-0.997388, 65, 197, 80, 228
-0.997391, 1, 297, 128, 328
-0.997392, 75, 193, 90, 224
-0.997397, 145, 157, 160, 188
-0.997399, 259, 201, 274, 232
-0.997402, 247, 237, 262, 268
-0.997403, 25, 293, 40, 324
-0.997417, 477, 277, 492, 308
-0.997418, 241, 153, 368, 184
-0.997427, 215, 149, 230, 180
-0.997444, 219, 137, 234, 168
-0.997447, 77, 225, 108, 352
-0.997449, 195, 181, 210, 212
-0.997461, 281, 201, 296, 232
-0.997469, 321, 209, 448, 240
-0.99747, 225, 21, 352, 52
-0.997471, 265, 213, 280, 244
-0.997471, 153, 193, 168, 224
-0.997472, 213, 1, 244, 256
-0.997476, 13, 297, 28, 328
-0.997476, 201, 209, 216, 240
-0.99748, 49, 257, 176, 288
-0.997491, 117, 201, 132, 232
-0.997493, 51, 213, 66, 244
-0.997494, 85, 109, 100, 140
-0.997497, 145, 9, 272, 40
-0.997503, 239, 225, 254, 256
-0.997507, 283, 213, 298, 244
-0.99751, 249, 157, 264, 188
-0.997516, 353, 37, 480, 68
-0.997517, 263, 257, 278, 288
-0.997522, 49, 241, 112, 368
-0.997534, 241, 33, 368, 64
-0.997537, 203, 197, 218, 228
-0.997541, 269, 129, 300, 375
-0.997542, 97, 129, 128, 375
-0.997544, 205, 169, 220, 200
-0.997545, 91, 33, 106, 64
-0.997547, 65, 1, 96, 256
-0.997548, 65, 153, 80, 184
-0.997548, 457, 269, 472, 300
-0.997554, 369, 13, 496, 44
-0.997555, 209, 129, 336, 160
-0.997556, 309, 197, 324, 228
-0.997559, 285, 269, 300, 300
-0.997564, 321, 129, 352, 375
-0.99757, 215, 161, 230, 192
-0.997572, 377, 345, 392, 375
-0.997581, 337, 113, 368, 240
-0.997584, 161, 129, 176, 160
-0.997588, 111, 33, 126, 64
-0.99759, 1, 97, 500, 160
-0.997593, 83, 45, 98, 76
-0.997597, 1, 281, 256, 344
-0.997605, 137, 129, 168, 375
-0.997605, 205, 157, 220, 188
-0.997609, 169, 121, 184, 152
-0.997615, 293, 201, 308, 232
-0.997616, 375, 221, 390, 252
-0.997624, 323, 189, 338, 220
-0.997629, 169, 217, 184, 248
-0.997641, 159, 197, 174, 228
-0.997642, 245, 141, 260, 172
-0.997651, 103, 45, 118, 76
-0.997655, 289, 165, 416, 196
-0.997659, 115, 165, 130, 196
-0.997662, 63, 105, 78, 136
-0.997663, 231, 149, 246, 180
-0.997665, 263, 241, 278, 272
-0.997666, 231, 197, 246, 228
-0.997667, 229, 209, 244, 240
-0.997673, 277, 225, 292, 256
-0.997676, 309, 129, 340, 375
-0.997681, 113, 269, 240, 300
-0.997682, 77, 41, 92, 72
-0.997685, 249, 253, 264, 284
-0.997688, 7, 205, 22, 236
-0.997692, 315, 197, 330, 228
-0.997694, 155, 169, 170, 200
-0.997706, 305, 301, 432, 332
-0.997707, 273, 45, 400, 76
-0.997708, 335, 273, 350, 304
-0.997709, 325, 201, 340, 232
-0.997709, 259, 165, 274, 196
-0.99771, 109, 133, 124, 164
-0.997711, 213, 129, 228, 160
-0.997717, 315, 185, 330, 216
-0.997719, 239, 213, 254, 244
-0.997719, 277, 185, 292, 216
-0.997727, 379, 309, 394, 340
-0.997734, 261, 273, 276, 304
-0.997735, 103, 221, 118, 252
-0.997741, 59, 161, 74, 192
-0.997757, 129, 281, 256, 312
-0.997758, 265, 317, 280, 348
-0.99776, 221, 161, 236, 192
-0.997764, 179, 161, 194, 192
-0.997772, 285, 245, 300, 276
-0.997779, 151, 145, 166, 176
-0.997785, 385, 297, 400, 328
-0.997785, 223, 201, 238, 232
-0.997785, 131, 157, 146, 188
-0.9978, 43, 213, 58, 244
-0.997801, 379, 297, 394, 328
-0.997804, 177, 345, 304, 375
-0.997808, 273, 237, 288, 268
-0.997809, 75, 109, 90, 140
-0.99782, 443, 329, 458, 360
-0.997821, 203, 185, 218, 216
-0.997826, 19, 209, 34, 240
-0.997838, 97, 37, 112, 68
-0.997839, 347, 281, 362, 312
-0.997861, 65, 1, 192, 32
-0.997868, 229, 1, 260, 256
-0.997872, 289, 121, 416, 152
-0.997877, 305, 25, 432, 56
-0.997915, 297, 97, 328, 352
-0.997919, 409, 1, 440, 256
-0.997952, 13, 33, 44, 288
-0.997953, 1, 177, 128, 208
-0.997973, 161, 57, 288, 88
-0.998017, 1, 269, 128, 300
-0.998034, 161, 81, 288, 112
-0.998057, 1, 57, 128, 88
-0.998081, 425, 1, 456, 256
-0.998106, 369, 221, 496, 252
-0.998123, 149, 33, 180, 288
-0.998133, 289, 137, 416, 168
-0.998145, 81, 245, 208, 276
-0.998149, 65, 269, 192, 300
-0.998159, 321, 61, 448, 92
-0.998194, 321, 49, 448, 80
-0.998198, 193, 117, 320, 148
-0.998217, 125, 97, 156, 352
-0.998234, 321, 313, 448, 344
-0.998235, 353, 177, 480, 208
-0.998236, 1, 309, 128, 340
-0.998273, 101, 1, 132, 256
-0.998281, 1, 49, 500, 112
-0.998336, 9, 221, 72, 236
-0.998339, 161, 69, 288, 100
-0.998352, 381, 1, 412, 256
-0.998354, 369, 197, 496, 228
-0.998361, 341, 129, 372, 375
-0.998364, 153, 197, 216, 212
-0.998365, 1, 285, 128, 316
-0.998387, 177, 33, 304, 64
-0.99839, 137, 171, 200, 186
-0.998401, 17, 111, 80, 126
-0.998404, 65, 309, 192, 340
-0.998412, 9, 213, 72, 228
-0.998412, 217, 221, 280, 236
-0.998423, 89, 117, 152, 132
-0.998431, 49, 113, 112, 128
-0.998437, 169, 167, 232, 182
-0.998437, 185, 213, 248, 228
-0.998439, 225, 161, 288, 176
-0.998442, 137, 229, 200, 244
-0.998443, 49, 227, 112, 242
-0.998446, 113, 211, 176, 226
-0.998447, 1, 129, 32, 375
-0.998449, 81, 227, 144, 242
-0.99845, 153, 223, 216, 238
-0.99845, 129, 121, 192, 136
-0.998451, 41, 159, 104, 174
-0.998452, 437, 1, 468, 256
-0.998452, 433, 277, 496, 292
-0.998455, 113, 201, 176, 216
-0.998455, 65, 43, 128, 58
-0.998463, 425, 353, 488, 368
-0.998463, 113, 167, 176, 182
-0.998466, 241, 199, 304, 214
-0.998466, 153, 215, 216, 230
-0.998467, 65, 31, 128, 46
-0.998468, 241, 265, 304, 280
-0.99847, 137, 165, 200, 180
-0.998471, 169, 113, 184, 240
-0.998471, 201, 227, 264, 242
-0.998473, 425, 345, 488, 360
-0.998473, 209, 211, 272, 226
-0.998477, 113, 159, 176, 174
-0.998477, 169, 233, 232, 248
-0.99848, 153, 203, 216, 218
-0.998481, 441, 335, 472, 350
-0.998482, 185, 189, 248, 204
-0.998482, 321, 201, 352, 216
-0.998482, 249, 213, 280, 228
-0.998483, 229, 167, 260, 182
-0.998483, 273, 167, 304, 182
-0.998484, 225, 161, 256, 176
-0.998484, 257, 253, 288, 268
-0.998485, 201, 163, 232, 178
-0.998486, 237, 193, 268, 208
-0.998486, 81, 221, 144, 236
-0.998488, 113, 219, 176, 234
-0.998488, 425, 333, 488, 348
-0.998488, 433, 283, 496, 298
-0.998488, 177, 221, 240, 236
-0.998488, 441, 327, 472, 342
-0.998489, 145, 177, 208, 192
-0.998489, 157, 163, 188, 178
-0.99849, 213, 209, 244, 224
-0.99849, 177, 123, 208, 138
-0.99849, 269, 235, 300, 250
-0.99849, 65, 207, 96, 222
-0.99849, 241, 205, 304, 220
-0.998491, 197, 147, 228, 162
-0.998491, 129, 169, 160, 184
-0.998492, 153, 121, 216, 136
-0.998493, 113, 229, 176, 244
-0.998493, 165, 171, 196, 186
-0.998493, 49, 165, 80, 180
-0.998494, 257, 235, 288, 250
-0.998495, 209, 171, 272, 186
-0.998496, 81, 209, 144, 224
-0.998496, 233, 235, 296, 250
-0.998496, 189, 221, 220, 236
-0.998498, 65, 37, 128, 52
-0.998498, 449, 1, 480, 256
-0.998499, 261, 279, 292, 294
-0.998499, 41, 165, 104, 180
-0.998499, 273, 285, 304, 300
-0.9985, 333, 285, 364, 300
-0.998501, 369, 129, 400, 375
-0.998501, 177, 165, 208, 180
-0.998502, 21, 159, 52, 174
-0.998502, 205, 171, 236, 186
-0.998502, 5, 215, 36, 230
-0.998502, 129, 119, 160, 134
-0.998504, 37, 111, 68, 126
-0.998505, 73, 111, 136, 126
-0.998505, 289, 269, 320, 284
-0.998505, 1, 205, 64, 220
-0.998505, 133, 39, 164, 54
-0.998505, 425, 359, 488, 374
-0.998506, 277, 197, 308, 212
-0.998507, 73, 37, 104, 52
-0.998507, 329, 221, 392, 236
-0.998507, 185, 203, 248, 218
-0.998508, 201, 221, 232, 236
-0.998508, 177, 135, 208, 150
-0.998508, 261, 291, 292, 306
-0.998509, 337, 231, 400, 246
-0.998509, 145, 183, 208, 198
-0.998509, 113, 193, 176, 208
-0.998509, 321, 261, 352, 276
-0.998509, 165, 231, 196, 246
-0.99851, 225, 213, 256, 228
-0.99851, 261, 299, 292, 314
-0.99851, 73, 157, 136, 172
-0.998511, 149, 217, 180, 232
-0.998511, 433, 327, 496, 342
-0.998511, 209, 201, 272, 216
-0.998511, 257, 181, 288, 196
-0.998513, 265, 325, 296, 340
-0.998513, 1, 205, 32, 220
-0.998514, 197, 153, 228, 168
-0.998514, 337, 245, 400, 260
-0.998514, 65, 219, 96, 234
-0.998514, 97, 35, 160, 50
-0.998515, 17, 207, 48, 222
-0.998515, 245, 239, 276, 254
-0.998515, 189, 177, 220, 192
-0.998516, 269, 241, 300, 256
-0.998516, 241, 259, 304, 274
-0.998518, 245, 179, 276, 194
-0.998518, 169, 175, 232, 190
-0.998519, 201, 161, 264, 176
-0.998519, 169, 161, 232, 176
-0.998519, 337, 237, 400, 252
-0.99852, 129, 159, 160, 174
-0.99852, 165, 197, 196, 212
-0.998521, 113, 115, 176, 130
-0.998522, 453, 259, 484, 274
-0.998523, 81, 215, 144, 230
-0.998524, 425, 311, 488, 326
-0.998525, 309, 263, 340, 278
-0.998525, 241, 167, 304, 182
-0.998526, 197, 129, 228, 144
-0.998526, 249, 259, 280, 274
-0.998527, 49, 221, 112, 236
-0.998527, 145, 115, 208, 130
-0.998528, 425, 339, 488, 354
-0.99853, 249, 245, 280, 260
-0.99853, 201, 209, 232, 224
-0.998531, 261, 259, 292, 274
-0.998531, 237, 223, 268, 238
-0.998532, 137, 209, 200, 224
-0.998532, 53, 211, 84, 226
-0.998533, 113, 41, 144, 56
-0.998533, 105, 43, 168, 58
-0.998533, 241, 217, 304, 232
-0.998533, 209, 233, 240, 248
-0.998534, 121, 235, 184, 250
-0.998535, 273, 279, 304, 294
-0.998535, 177, 227, 240, 242
-0.998536, 213, 163, 244, 178
-0.998536, 61, 121, 92, 136
-0.998536, 33, 153, 96, 168
-0.998536, 21, 225, 52, 240
-0.998536, 153, 191, 216, 206
-0.998537, 201, 203, 232, 218
-0.998537, 201, 147, 264, 162
-0.998538, 149, 171, 180, 186
-0.998538, 269, 247, 300, 262
-0.998538, 245, 185, 276, 200
-0.998538, 57, 215, 120, 230
-0.998539, 269, 253, 300, 268
-0.99854, 101, 117, 132, 132
-0.99854, 229, 143, 260, 158
-0.99854, 5, 305, 36, 320
-0.99854, 209, 195, 272, 210
-0.998541, 137, 159, 200, 174
-0.998541, 25, 227, 88, 242
-0.998542, 185, 181, 248, 196
-0.998542, 109, 149, 140, 164
-0.998543, 177, 125, 240, 140
-0.998544, 1, 227, 64, 242
-0.998544, 169, 145, 232, 160
-0.998545, 149, 211, 180, 226
-0.998545, 225, 227, 288, 242
-0.998546, 149, 195, 180, 210
-0.998546, 425, 255, 488, 270
-0.998547, 453, 271, 484, 286
-0.998547, 269, 215, 300, 230
-0.998547, 233, 241, 296, 256
-0.998548, 217, 145, 248, 160
-0.998549, 185, 195, 248, 210
-0.998549, 433, 321, 496, 336
-0.99855, 273, 291, 304, 306
-0.99855, 169, 131, 232, 146
-0.99855, 149, 201, 180, 216
-0.998551, 105, 207, 136, 222
-0.998551, 73, 185, 136, 200
-0.998551, 425, 271, 488, 286
-0.998551, 225, 187, 288, 202
-0.998552, 169, 137, 232, 152
-0.998552, 161, 21, 224, 36
-0.998552, 249, 297, 312, 312
-0.998552, 217, 295, 280, 310
-0.998553, 237, 161, 268, 176
-0.998554, 117, 117, 148, 132
-0.998555, 369, 11, 432, 26
-0.998555, 225, 279, 288, 294
-0.998556, 433, 305, 496, 320
-0.998556, 77, 1, 108, 256
-0.998556, 297, 209, 360, 224
-0.998556, 193, 235, 256, 250
-0.998557, 297, 261, 360, 276
-0.998558, 189, 213, 220, 228
-0.998558, 241, 211, 304, 226
-0.998558, 265, 199, 328, 214
-0.998559, 361, 247, 424, 262
-0.99856, 265, 217, 328, 232
-0.99856, 165, 221, 196, 236
-0.998561, 185, 191, 216, 206
-0.998561, 161, 209, 224, 224
-0.998561, 237, 211, 268, 226
-0.998561, 217, 257, 280, 272
-0.998561, 73, 165, 136, 180
-0.998561, 161, 121, 192, 136
-0.998562, 81, 203, 144, 218
-0.998562, 249, 289, 312, 304
-0.998563, 49, 191, 112, 206
-0.998564, 273, 189, 336, 204
-0.998564, 25, 201, 88, 216
-0.998564, 193, 171, 224, 186
-0.998565, 241, 193, 304, 208
-0.998566, 433, 291, 496, 306
-0.998566, 321, 287, 384, 302
-0.998567, 209, 181, 272, 196
-0.998567, 225, 285, 288, 300
-0.998567, 73, 191, 136, 206
-0.998567, 189, 165, 220, 180
-0.998567, 41, 173, 104, 188
-0.998568, 213, 215, 244, 230
-0.998569, 201, 141, 264, 156
-0.99857, 257, 173, 320, 188
-0.998573, 259, 209, 274, 336
-0.998574, 249, 219, 280, 234
-0.998577, 257, 197, 288, 212
-0.99858, 17, 303, 48, 318
-0.99858, 41, 221, 72, 236
-0.998583, 177, 227, 208, 242
-0.998583, 17, 109, 48, 124
-0.998583, 149, 119, 180, 134
-0.998584, 57, 225, 88, 240
-0.998585, 77, 31, 108, 46
-0.998585, 149, 227, 180, 242
-0.998587, 49, 111, 80, 126
-0.998587, 237, 229, 268, 244
-0.998591, 213, 227, 244, 242
-0.998595, 197, 229, 228, 244
-0.998598, 289, 263, 320, 278
-0.9986, 21, 219, 52, 234
-0.998602, 225, 225, 256, 240
-0.998606, 101, 33, 132, 48
-0.998606, 85, 41, 116, 56
-0.998607, 281, 1, 312, 256
-0.998608, 21, 213, 52, 228
-0.998612, 41, 213, 72, 228
-0.998616, 257, 225, 288, 240
-0.998616, 89, 115, 120, 130
-0.998619, 113, 129, 128, 256
-0.99862, 1, 223, 32, 238
-0.998621, 165, 215, 196, 230
-0.998621, 225, 219, 256, 234
-0.998622, 177, 217, 208, 232
-0.998634, 257, 191, 288, 206
-0.998636, 155, 113, 170, 240
-0.998645, 269, 189, 300, 204
-0.998656, 249, 177, 264, 304
-0.998656, 237, 217, 268, 232
-0.998657, 461, 129, 492, 375
-0.998663, 457, 253, 488, 268
-0.998665, 177, 171, 208, 186
-0.998671, 229, 235, 260, 250
-0.998678, 69, 113, 100, 128
-0.998681, 219, 209, 234, 336
-0.998686, 159, 161, 174, 288
-0.998691, 265, 225, 280, 352
-0.998721, 461, 1, 492, 256
-0.998725, 183, 1, 198, 128
-0.998726, 119, 145, 134, 272
-0.998731, 277, 193, 292, 320
-0.998733, 287, 193, 302, 320
-0.998747, 257, 161, 272, 288
-0.998748, 175, 113, 190, 240
-0.998748, 249, 1, 280, 256
-0.998756, 375, 225, 390, 352
-0.998763, 225, 49, 480, 112
-0.998768, 63, 145, 78, 272
-0.998778, 161, 113, 176, 240
-0.998781, 171, 161, 186, 288
-0.998783, 179, 161, 194, 288
-0.998796, 249, 225, 264, 352
-0.998809, 153, 161, 168, 288
-0.998813, 325, 193, 340, 320
-0.998817, 191, 145, 206, 272
-0.99883, 357, 129, 388, 375
-0.998831, 205, 129, 220, 256
-0.998834, 183, 81, 198, 208
-0.998839, 301, 1, 332, 256
-0.998848, 227, 209, 242, 336
-0.998853, 393, 1, 424, 256
-0.998864, 265, 177, 280, 304
-0.998887, 213, 209, 228, 336
-0.99891, 271, 161, 286, 288
-0.998922, 459, 241, 474, 368
-0.998924, 215, 129, 230, 256
-0.998934, 451, 241, 466, 368
-0.99894, 191, 1, 206, 128
-0.998942, 165, 161, 180, 288
-0.998949, 125, 145, 140, 272
-0.998951, 473, 241, 488, 368
-0.998957, 233, 209, 248, 336
-0.998967, 197, 161, 212, 288
-0.998968, 281, 241, 296, 368
-0.998982, 337, 177, 352, 304
-0.998983, 465, 225, 480, 352
-0.998992, 197, 113, 212, 240
-0.998993, 243, 209, 258, 336
-0.998995, 137, 33, 168, 288
-0.998999, 479, 241, 494, 368
-0.999009, 369, 241, 384, 368
-0.999017, 69, 129, 84, 256
-0.999025, 191, 97, 206, 224
-0.999026, 389, 1, 404, 128
-0.999027, 199, 1, 214, 128
-0.999033, 171, 209, 186, 336
-0.999033, 79, 97, 94, 224
-0.99904, 109, 177, 124, 304
-0.999042, 229, 161, 244, 288
-0.999053, 49, 161, 64, 288
-0.999062, 409, 1, 424, 128
-0.999069, 29, 129, 44, 256
-0.999073, 149, 81, 164, 208
-0.999074, 221, 161, 236, 288
-0.999076, 443, 1, 458, 128
-0.99908, 291, 145, 306, 272
-0.999086, 77, 145, 92, 272
-0.999086, 423, 1, 438, 128
-0.999095, 177, 1, 192, 128
-0.999095, 463, 1, 478, 128
-0.999106, 237, 161, 252, 288
-0.999107, 417, 1, 432, 128
-0.999113, 35, 129, 50, 256
-0.99912, 147, 193, 162, 320
-0.999121, 239, 1, 254, 128
-0.999129, 207, 209, 222, 336
-0.999131, 485, 241, 500, 368
-0.999132, 473, 1, 488, 128
-0.999136, 103, 193, 118, 320
-0.999138, 479, 1, 494, 128
-0.99914, 395, 1, 410, 128
-0.999143, 385, 129, 416, 375
-0.999145, 281, 145, 296, 272
-0.999146, 35, 193, 50, 320
-0.999149, 67, 193, 82, 320
-0.999157, 449, 1, 464, 128
-0.999159, 457, 1, 472, 128
-0.999163, 169, 1, 184, 128
-0.999171, 385, 241, 400, 368
-0.999174, 121, 193, 136, 320
-0.999176, 175, 65, 190, 192
-0.999182, 243, 161, 258, 288
-0.999189, 119, 97, 134, 224
-0.999189, 107, 113, 122, 240
-0.999189, 205, 1, 220, 128
-0.999194, 61, 193, 76, 320
-0.999195, 17, 145, 32, 272
-0.9992, 57, 129, 72, 256
-0.999209, 25, 1, 56, 256
-0.999209, 55, 177, 70, 304
-0.999211, 321, 1, 352, 256
-0.999213, 331, 209, 346, 336
-0.999214, 77, 33, 92, 160
-0.99922, 247, 1, 262, 128
-0.999223, 17, 193, 32, 320
-0.999224, 317, 177, 332, 304
-0.999225, 287, 241, 302, 368
-0.999225, 185, 161, 200, 288
-0.999227, 145, 129, 160, 256
-0.999231, 25, 177, 40, 304
-0.999233, 269, 33, 300, 288
-0.999236, 163, 209, 178, 336
-0.999241, 97, 193, 112, 320
-0.999242, 157, 1, 172, 128
-0.999244, 5, 193, 20, 320
-0.999245, 253, 1, 268, 128
-0.99925, 403, 1, 418, 128
-0.999251, 177, 209, 192, 336
-0.999253, 233, 1, 248, 128
-0.999256, 161, 65, 176, 192
-0.999256, 143, 81, 158, 208
-0.999262, 443, 241, 458, 368
-0.999262, 271, 209, 286, 336
-0.999267, 475, 193, 490, 320
-0.999268, 217, 17, 232, 144
-0.999273, 89, 129, 104, 256
-0.999277, 347, 209, 362, 336
-0.999279, 89, 209, 104, 336
-0.999281, 141, 209, 156, 336
-0.999282, 135, 209, 150, 336
-0.999283, 249, 129, 264, 256
-0.999286, 257, 97, 500, 160
-0.99929, 153, 209, 168, 336
-0.999291, 457, 193, 472, 320
-0.999294, 429, 1, 444, 128
-0.999301, 373, 177, 388, 304
-0.999309, 127, 209, 142, 336
-0.99931, 17, 1, 32, 128
-0.999313, 433, 129, 464, 375
-0.999317, 83, 193, 98, 320
-0.99932, 11, 193, 26, 320
-0.999321, 375, 1, 390, 128
-0.999371, 365, 1, 396, 256
-0.999448, 113, 33, 144, 288
-0.999461, 397, 129, 428, 375
-0.999534, 1, 33, 32, 288
-0.999585, 421, 129, 452, 375
-0.999601, 409, 129, 440, 375
-0.999617, 1, 305, 256, 368
-0.999667, 37, 1, 68, 256
-0.999669, 171, 125, 186, 140
-0.999669, 27, 203, 42, 218
-0.999669, 115, 145, 130, 160
-0.999669, 81, 119, 96, 134
-0.999669, 263, 191, 278, 206
-0.999671, 247, 285, 262, 300
-0.999672, 131, 117, 146, 132
-0.999672, 147, 119, 162, 134
-0.999672, 275, 235, 290, 250
-0.999672, 73, 155, 88, 170
-0.999673, 107, 115, 122, 130
-0.999673, 79, 111, 94, 126
-0.999674, 269, 215, 284, 230
-0.999674, 97, 115, 112, 130
-0.999674, 63, 155, 78, 170
-0.999675, 249, 167, 264, 182
-0.999675, 225, 49, 288, 176
-0.999676, 271, 187, 286, 202
-0.999676, 75, 189, 90, 204
-0.999676, 311, 263, 326, 278
-0.999677, 377, 357, 392, 372
-0.999677, 25, 219, 40, 234
-0.999678, 103, 213, 118, 228
-0.999678, 105, 49, 120, 64
-0.999679, 243, 237, 258, 252
-0.999679, 175, 231, 190, 246
-0.99968, 67, 217, 82, 232
-0.99968, 255, 209, 270, 224
-0.999681, 477, 277, 492, 292
-0.999681, 463, 251, 478, 266
-0.999682, 285, 275, 300, 290
-0.999682, 107, 31, 122, 46
-0.999682, 63, 111, 78, 126
-0.999683, 375, 245, 390, 260
-0.999683, 283, 217, 298, 232
-0.999683, 215, 217, 230, 232
-0.999683, 203, 193, 218, 208
-0.999684, 299, 263, 314, 278
-0.999685, 79, 45, 94, 60
-0.999685, 95, 41, 110, 56
-0.999686, 187, 219, 202, 234
-0.999686, 155, 127, 170, 142
-0.999687, 251, 247, 266, 262
-0.999687, 67, 227, 82, 242
-0.999687, 257, 247, 272, 262
-0.999688, 231, 153, 246, 168
-0.999689, 175, 171, 190, 186
-0.999689, 17, 111, 32, 126
-0.999689, 249, 209, 264, 224
-0.99969, 109, 205, 124, 220
-0.999691, 75, 199, 90, 214
-0.999692, 277, 217, 292, 232
-0.999692, 219, 141, 234, 156
-0.999695, 69, 195, 84, 210
-0.999695, 257, 73, 500, 136
-0.999695, 269, 229, 284, 244
-0.999695, 283, 209, 298, 224
-0.999697, 243, 141, 258, 156
-0.999698, 117, 117, 132, 132
-0.999699, 7, 221, 22, 236
-0.999699, 13, 223, 28, 238
-0.999699, 31, 107, 46, 122
-0.9997, 251, 259, 266, 274
-0.999704, 33, 213, 48, 228
-0.999704, 223, 217, 238, 232
-0.999706, 91, 115, 106, 130
-0.999706, 239, 231, 254, 246
-0.999706, 161, 133, 176, 148
-0.999706, 317, 263, 332, 278
-0.999707, 159, 195, 174, 210
-0.999707, 117, 207, 132, 222
-0.999708, 103, 225, 118, 240
-0.999708, 13, 303, 28, 318
-0.99971, 241, 161, 256, 176
-0.999711, 285, 269, 300, 284
-0.999712, 229, 219, 244, 234
-0.999713, 25, 305, 40, 320
-0.999714, 249, 161, 264, 176
-0.999714, 251, 279, 266, 294
-0.999717, 1, 73, 500, 136
-0.999717, 25, 209, 40, 224
-0.999717, 283, 197, 298, 212
-0.999719, 53, 215, 68, 230
-0.99972, 189, 173, 204, 188
-0.99972, 59, 213, 74, 228
-0.999722, 169, 197, 184, 212
-0.999723, 47, 213, 62, 228
-0.999724, 277, 207, 292, 222
-0.999725, 265, 235, 280, 250
-0.999727, 127, 149, 142, 164
-0.999728, 121, 149, 136, 164
-0.99973, 251, 273, 266, 288
-0.999731, 153, 193, 168, 208
-0.999731, 221, 227, 236, 242
-0.999731, 249, 231, 264, 246
-0.999732, 305, 263, 320, 278
-0.999733, 247, 225, 262, 240
-0.999733, 255, 225, 270, 240
-0.999734, 71, 113, 86, 128
-0.999738, 277, 189, 292, 204
-0.999741, 21, 225, 36, 240
-0.999743, 255, 235, 270, 250
-0.999744, 229, 213, 244, 228
-0.999746, 53, 1, 84, 256
-0.999746, 285, 261, 300, 276
-0.999747, 225, 141, 240, 156
-0.999747, 251, 265, 266, 280
-0.999747, 291, 263, 306, 278
-0.999749, 155, 119, 170, 134
-0.999749, 215, 225, 230, 240
-0.999752, 469, 253, 484, 268
-0.999756, 263, 247, 278, 262
-0.999756, 259, 217, 274, 232
-0.999757, 229, 229, 244, 244
-0.99976, 19, 219, 34, 234
-0.99976, 273, 201, 288, 216
-0.999761, 259, 255, 274, 270
-0.999763, 249, 241, 264, 256
-0.999765, 255, 241, 270, 256
-0.999765, 349, 1, 380, 256
-0.999765, 257, 267, 272, 282
-0.999768, 85, 113, 100, 128
-0.999769, 269, 195, 284, 210
-0.99977, 265, 223, 280, 238
-0.999773, 195, 171, 210, 186
-0.999774, 255, 179, 270, 194
-0.999778, 257, 261, 272, 276
-0.99978, 179, 215, 194, 230
-0.999781, 449, 129, 480, 375
-0.999783, 239, 219, 254, 234
-0.999783, 249, 215, 264, 230
-0.999786, 181, 171, 196, 186
-0.999788, 263, 241, 278, 256
-0.999808, 61, 223, 76, 238
-0.999808, 249, 173, 264, 188
-0.999812, 259, 185, 274, 200
-0.99996, 337, 1, 368, 256
-1.00021, 125, 1, 156, 256
-1.00426, 265, 49, 328, 176
