1965
-0.355605, 1, 129, 375, 384
-0.376868, 1, 1, 375, 500
-0.378757, 1, 225, 375, 480
-0.468496, 1, 1, 256, 500
-0.550025, 1, 1, 375, 256
-0.567152, 97, 161, 352, 416
-0.575248, 129, 1, 375, 500
-0.604911, 1, 97, 256, 352
-0.63452, 1, 193, 256, 448
-0.693959, 97, 257, 352, 500
-0.746242, 97, 65, 352, 320
-0.762047, 1, 1, 256, 256
-0.833012, 1, 1, 128, 500
-0.847972, 1, 257, 128, 500
-0.850063, 17, 65, 144, 320
-0.851313, 1, 225, 375, 352
-0.852436, 225, 193, 352, 448
-0.858404, 49, 225, 176, 480
-0.866402, 1, 177, 375, 304
-0.87484, 97, 193, 224, 448
-0.881686, 241, 97, 368, 352
-0.883034, 49, 1, 176, 500
-0.884364, 177, 161, 304, 416
-0.886781, 241, 1, 368, 500
-0.89455, 1, 273, 375, 400
-0.896195, 1, 161, 128, 416
-0.898916, 97, 1, 224, 256
-0.903252, 97, 97, 224, 352
-0.903461, 113, 1, 240, 500
-0.907667, 1, 337, 375, 464
-0.912053, 193, 1, 320, 500
-0.913287, 161, 257, 288, 500
-0.914203, 1, 97, 375, 224
-0.916127, 1, 241, 256, 368
-0.917896, 97, 177, 352, 304
-0.91936, 1, 337, 256, 464
-0.920903, 241, 177, 368, 304
-0.922597, 1, 129, 256, 256
-0.92791, 193, 65, 320, 320
-0.930166, 257, 225, 320, 352
-0.930297, 17, 209, 80, 336
-0.93165, 273, 177, 336, 304
-0.931896, 241, 225, 368, 352
-0.932002, 1, 193, 256, 320
-0.933341, 97, 273, 352, 400
-0.933594, 1, 289, 128, 416
-0.934456, 1, 129, 64, 256
-0.935805, 1, 289, 256, 416
-0.936763, 49, 241, 176, 368
-0.936961, 97, 225, 352, 352
-0.937575, 1, 49, 375, 176
-0.937631, 297, 209, 360, 336
-0.937681, 97, 113, 352, 240
-0.939982, 57, 257, 120, 384
-0.940887, 81, 257, 144, 384
-0.941897, 89, 305, 152, 432
-0.942778, 161, 193, 288, 320
-0.942935, 193, 241, 320, 368
-0.943193, 17, 65, 144, 192
-0.94427, 97, 225, 224, 352
-0.944642, 1, 353, 128, 480
-0.945306, 33, 257, 96, 384
-0.945644, 249, 177, 312, 304
-0.946363, 1, 201, 64, 264
-0.947448, 49, 305, 176, 432
-0.949193, 97, 177, 224, 304
-0.949823, 97, 321, 352, 448
-0.949838, 145, 33, 272, 288
-0.950824, 1, 209, 128, 336
-0.951312, 273, 273, 336, 400
-0.95182, 265, 249, 328, 312
-0.951851, 241, 273, 368, 400
-0.952005, 97, 65, 352, 192
-0.952882, 297, 161, 360, 288
-0.952902, 81, 305, 144, 368
-0.952915, 113, 81, 176, 208
-0.95328, 17, 129, 144, 256
-0.953795, 241, 1, 368, 256
-0.954389, 305, 273, 368, 400
-0.954541, 281, 193, 344, 256
-0.955048, 305, 233, 368, 296
-0.955759, 65, 17, 320, 144
-0.956153, 97, 129, 224, 256
-0.956878, 113, 209, 176, 336
-0.956926, 1, 1, 375, 128
-0.957102, 73, 65, 136, 192
-0.957286, 1, 81, 256, 208
-0.957389, 113, 305, 176, 432
-0.957398, 49, 305, 112, 432
-0.957404, 225, 129, 352, 256
-0.95741, 193, 177, 256, 304
-0.957497, 17, 233, 80, 296
-0.957821, 17, 273, 80, 336
-0.958007, 305, 273, 368, 336
-0.958084, 225, 161, 288, 288
-0.958592, 105, 321, 168, 384
-0.959129, 113, 161, 176, 288
-0.960455, 49, 193, 176, 320
-0.960749, 57, 305, 120, 368
-0.960774, 265, 169, 328, 232
-0.960993, 305, 209, 368, 272
-0.961039, 257, 217, 320, 280
-0.961266, 9, 297, 72, 360
-0.961331, 41, 273, 104, 336
-0.961385, 233, 257, 296, 384
-0.961446, 9, 257, 72, 384
-0.961891, 33, 297, 96, 360
-0.962092, 41, 209, 104, 336
-0.962709, 241, 177, 304, 240
-0.96293, 225, 321, 352, 448
-0.963155, 5, 201, 36, 264
-0.963735, 49, 353, 176, 480
-0.964194, 25, 433, 88, 496
-0.964532, 145, 193, 208, 320
-0.96468, 113, 289, 240, 416
-0.964812, 265, 193, 296, 320
-0.965094, 257, 321, 320, 448
-0.965115, 113, 257, 176, 384
-0.965136, 41, 353, 104, 480
-0.965387, 1, 129, 64, 192
-0.965498, 313, 113, 375, 240
-0.965507, 185, 193, 248, 256
-0.965625, 65, 281, 128, 344
-0.966081, 81, 225, 144, 480
-0.96648, 37, 209, 68, 336
-0.966844, 17, 297, 144, 360
-0.966982, 49, 225, 112, 480
-0.967177, 289, 113, 352, 240
-0.967212, 9, 337, 72, 464
-0.967226, 305, 177, 336, 304
-0.967404, 9, 193, 72, 448
-0.967854, 97, 81, 224, 208
-0.967878, 113, 97, 176, 160
-0.967901, 145, 241, 272, 368
-0.96791, 241, 249, 304, 312
-0.967965, 273, 281, 336, 344
-0.968242, 289, 193, 352, 448
-0.968342, 265, 193, 328, 448
-0.968789, 65, 353, 128, 480
-0.968827, 9, 145, 40, 272
-0.968848, 81, 209, 144, 336
-0.968881, 1, 401, 64, 464
-0.9692, 37, 201, 68, 264
-0.969341, 285, 177, 316, 304
-0.969344, 309, 193, 340, 256
-0.969414, 297, 145, 360, 208
-0.969541, 257, 113, 320, 240
-0.969863, 113, 217, 176, 280
-0.970002, 9, 121, 40, 184
-0.970014, 177, 145, 304, 272
-0.970114, 41, 241, 104, 304
-0.970374, 81, 337, 144, 400
-0.97047, 249, 329, 312, 392
-0.970547, 81, 17, 208, 144
-0.970639, 289, 169, 352, 232
-0.970838, 289, 305, 352, 368
-0.970951, 57, 257, 88, 384
-0.971207, 281, 217, 344, 280
-0.971222, 17, 65, 80, 192
-0.971412, 97, 337, 224, 464
-0.97152, 225, 217, 288, 280
-0.971663, 225, 369, 352, 496
-0.972127, 241, 185, 368, 248
-0.972184, 109, 313, 140, 376
-0.972257, 161, 289, 288, 416
-0.972329, 21, 145, 52, 272
-0.972354, 169, 193, 232, 320
-0.972395, 217, 185, 280, 248
-0.972489, 313, 225, 344, 352
-0.972496, 5, 193, 36, 320
-0.972642, 1, 153, 64, 216
-0.97268, 105, 17, 168, 144
-0.972681, 1, 33, 64, 288
-0.97287, 313, 281, 344, 344
-0.973098, 137, 257, 200, 384
-0.973299, 241, 225, 368, 288
-0.973411, 105, 225, 168, 480
-0.973433, 241, 249, 368, 312
-0.973592, 269, 241, 300, 368
-0.973712, 217, 249, 280, 312
-0.973723, 301, 169, 332, 232
-0.973758, 225, 113, 288, 240
-0.973969, 33, 201, 96, 264
-0.974007, 121, 313, 152, 376
-0.974022, 113, 129, 176, 192
-0.974037, 65, 65, 128, 128
-0.974075, 97, 257, 128, 384
-0.974101, 45, 265, 76, 328
-0.974164, 225, 209, 288, 336
-0.974209, 45, 257, 76, 384
-0.974259, 269, 217, 300, 280
-0.974337, 129, 321, 192, 384
-0.97439, 225, 281, 352, 344
-0.974436, 225, 81, 352, 208
-0.974493, 9, 177, 72, 240
-0.974617, 177, 369, 304, 496
-0.974658, 313, 113, 375, 176
-0.974658, 81, 241, 144, 304
-0.974834, 105, 73, 168, 136
-0.97484, 81, 289, 112, 416
-0.974987, 313, 161, 344, 224
-0.97507, 1, 273, 128, 336
-0.975076, 1, 1, 128, 128
-0.975094, 109, 257, 140, 384
-0.975298, 25, 409, 88, 472
-0.975357, 301, 225, 332, 352
-0.975399, 105, 289, 168, 352
-0.975445, 233, 305, 296, 432
-0.975606, 265, 145, 328, 208
-0.975688, 285, 241, 316, 368
-0.975702, 17, 201, 48, 264
-0.975702, 269, 241, 300, 304
-0.975702, 289, 121, 352, 184
-0.97584, 1, 321, 64, 384
-0.97584, 33, 241, 160, 304
-0.97585, 273, 337, 336, 400
-0.97591, 313, 225, 375, 480
-0.97603, 97, 265, 160, 328
-0.976047, 1, 177, 32, 240
-0.976128, 81, 113, 144, 240
-0.976222, 53, 297, 84, 360
-0.97624, 269, 113, 300, 240
-0.976249, 137, 145, 200, 272
-0.976289, 117, 305, 148, 432
-0.976355, 249, 273, 312, 336
-0.976356, 305, 97, 368, 352
-0.976661, 289, 233, 320, 296
-0.97669, 25, 193, 56, 320
-0.976849, 289, 193, 320, 256
-0.97695, 249, 361, 312, 424
-0.976965, 37, 233, 68, 296
-0.977103, 89, 353, 152, 480
-0.977109, 81, 65, 144, 320
-0.977301, 309, 241, 340, 304
-0.977301, 33, 273, 64, 336
-0.977329, 225, 321, 288, 384
-0.977508, 61, 265, 92, 328
-0.977635, 345, 233, 375, 296
-0.977755, 25, 225, 56, 288
-0.977764, 129, 369, 375, 496
-0.978044, 89, 305, 120, 368
-0.978053, 49, 1, 112, 128
-0.978098, 49, 265, 176, 328
-0.978178, 113, 129, 176, 384
-0.978182, 69, 257, 100, 384
-0.978239, 73, 17, 136, 144
-0.978326, 137, 305, 200, 432
-0.978337, 17, 113, 144, 176
-0.978406, 5, 145, 36, 208
-0.97851, 1, 425, 64, 488
-0.978653, 49, 401, 112, 464
-0.978731, 269, 177, 300, 240
-0.978762, 233, 353, 296, 480
-0.978839, 317, 137, 348, 200
-0.978993, 305, 129, 336, 256
-0.979061, 225, 273, 288, 336
-0.979075, 241, 193, 304, 448
-0.979123, 193, 177, 224, 240
-0.97921, 329, 129, 360, 192
-0.979226, 325, 177, 356, 304
-0.979233, 193, 177, 320, 240
-0.97924, 185, 241, 248, 368
-0.979266, 193, 257, 320, 320
-0.97929, 113, 209, 240, 272
-0.979294, 193, 217, 320, 280
-0.979296, 193, 169, 256, 232
-0.979311, 233, 153, 296, 216
-0.979357, 65, 297, 96, 360
-0.979488, 225, 377, 288, 440
-0.979554, 113, 177, 240, 240
-0.979689, 137, 297, 200, 360
-0.979724, 345, 257, 375, 320
-0.979728, 297, 89, 360, 152
-0.979731, 341, 225, 372, 352
-0.979785, 73, 89, 136, 152
-0.979926, 81, 329, 208, 392
-0.980026, 329, 265, 360, 328
-0.980052, 65, 1, 128, 500
-0.980105, 249, 97, 312, 352
-0.980109, 209, 193, 240, 256
-0.980164, 17, 321, 144, 384
-0.980194, 289, 321, 352, 448
-0.98023, 185, 217, 248, 280
-0.980289, 1, 209, 128, 272
-0.980309, 25, 409, 56, 472
-0.980321, 97, 233, 224, 296
-0.980346, 289, 257, 320, 320
-0.980356, 25, 321, 88, 384
-0.980514, 161, 185, 224, 248
-0.980539, 257, 241, 288, 368
-0.980539, 297, 273, 328, 400
-0.980545, 37, 313, 68, 376
-0.980567, 9, 1, 72, 500
-0.980718, 101, 289, 132, 352
-0.980729, 105, 305, 136, 432
-0.980759, 209, 257, 272, 384
-0.980808, 49, 217, 176, 280
-0.980887, 325, 129, 356, 256
-0.980925, 301, 217, 332, 280
-0.980945, 313, 65, 375, 192
-0.980965, 21, 121, 52, 184
-0.981004, 33, 185, 160, 248
-0.981074, 49, 337, 112, 400
-0.981101, 273, 337, 304, 400
-0.981105, 13, 97, 44, 224
-0.981117, 313, 297, 375, 360
-0.98112, 153, 209, 216, 272
-0.98122, 41, 49, 104, 176
-0.981228, 105, 241, 168, 304
-0.981256, 73, 425, 136, 488
-0.981304, 73, 265, 104, 328
-0.981351, 133, 321, 164, 384
-0.981513, 105, 345, 168, 408
-0.981536, 85, 241, 116, 368
-0.981551, 289, 169, 320, 232
-0.981646, 25, 273, 56, 400
-0.981839, 257, 177, 288, 240
-0.981945, 21, 297, 52, 360
-0.981957, 113, 193, 176, 256
-0.981974, 185, 161, 248, 416
-0.981982, 313, 169, 375, 232
-0.982059, 129, 305, 160, 432
-0.98211, 49, 233, 80, 296
-0.982131, 1, 305, 32, 368
-0.982141, 49, 433, 112, 496
-0.982182, 81, 161, 144, 288
-0.982282, 329, 217, 360, 280
-0.982441, 257, 145, 288, 272
-0.982487, 81, 121, 144, 184
-0.982501, 197, 201, 228, 264
-0.982587, 21, 177, 52, 240
-0.982644, 17, 49, 80, 112
-0.982721, 25, 65, 88, 320
-0.982797, 329, 161, 360, 224
-0.982808, 201, 401, 264, 464
-0.98283, 85, 273, 116, 336
-0.982912, 33, 1, 96, 500
-0.982915, 301, 281, 332, 344
-0.982964, 93, 305, 124, 432
-0.982979, 1, 433, 128, 496
-0.983002, 97, 289, 224, 352
-0.983023, 113, 1, 176, 256
-0.983054, 9, 49, 40, 176
-0.98311, 1, 361, 128, 424
-0.983145, 329, 289, 360, 352
-0.983178, 265, 305, 328, 368
-0.98321, 9, 1, 72, 128
-0.983221, 21, 273, 52, 336
-0.983228, 217, 161, 280, 416
-0.983325, 105, 241, 136, 304
-0.983339, 97, 97, 224, 160
-0.983559, 261, 321, 292, 384
-0.983576, 37, 417, 68, 480
-0.983791, 265, 105, 328, 168
-0.983828, 49, 425, 80, 488
-0.983972, 145, 193, 208, 448
-0.984026, 97, 337, 128, 400
-0.984067, 121, 81, 152, 208
-0.984071, 161, 289, 224, 416
-0.984143, 65, 353, 192, 416
-0.984198, 317, 289, 348, 416
-0.984237, 161, 241, 224, 368
-0.984242, 209, 177, 240, 304
-0.984244, 257, 249, 288, 312
-0.984248, 1, 345, 64, 408
-0.984294, 97, 65, 128, 192
-0.984314, 221, 185, 252, 248
-0.984341, 13, 401, 44, 464
-0.984344, 233, 297, 296, 360
-0.984369, 25, 113, 88, 176
-0.984393, 1, 49, 128, 112
-0.984396, 17, 89, 144, 152
-0.984416, 41, 49, 104, 112
-0.984553, 325, 105, 356, 168
-0.984596, 17, 385, 144, 448
-0.984614, 17, 137, 144, 200
-0.984619, 185, 129, 248, 256
-0.984666, 69, 305, 100, 432
-0.984742, 117, 81, 148, 144
-0.984773, 269, 145, 300, 208
-0.98483, 225, 113, 352, 176
-0.984871, 57, 305, 88, 432
-0.984915, 121, 241, 152, 368
-0.984924, 329, 185, 360, 248
-0.984925, 61, 209, 92, 336
-0.984996, 97, 257, 224, 320
-0.985, 341, 281, 372, 344
-0.985117, 65, 425, 192, 488
-0.985131, 245, 225, 276, 352
-0.985151, 201, 361, 264, 424
-0.985203, 89, 1, 152, 500
-0.985246, 145, 241, 272, 304
-0.985291, 121, 145, 152, 272
-0.985386, 77, 297, 108, 360
-0.98545, 17, 409, 144, 472
-0.985452, 241, 305, 368, 368
-0.98548, 257, 217, 288, 280
-0.98549, 49, 209, 80, 336
-0.985505, 225, 361, 352, 424
-0.985543, 261, 113, 292, 176
-0.985554, 73, 361, 136, 424
-0.985559, 225, 153, 352, 216
-0.98557, 21, 353, 52, 480
-0.985616, 1, 281, 32, 344
-0.985641, 41, 161, 104, 288
-0.985691, 281, 65, 344, 320
-0.985837, 257, 97, 288, 224
-0.985923, 97, 153, 224, 216
-0.985963, 289, 65, 352, 192
-0.985965, 17, 145, 48, 208
-0.986005, 325, 225, 356, 352
-0.986091, 257, 289, 288, 416
-0.986178, 97, 121, 224, 184
-0.986234, 1, 241, 32, 368
-0.986258, 81, 217, 144, 280
-0.986313, 29, 49, 60, 176
-0.986349, 105, 209, 136, 336
-0.986452, 25, 321, 56, 384
-0.986475, 9, 225, 40, 288
-0.986488, 209, 369, 272, 496
-0.986584, 133, 257, 164, 384
-0.986616, 9, 353, 40, 480
-0.986624, 5, 425, 36, 488
-0.986649, 181, 193, 212, 320
-0.986649, 273, 289, 304, 416
-0.986709, 185, 353, 248, 480
-0.986757, 333, 273, 364, 400
-0.986843, 273, 361, 336, 424
-0.986861, 193, 249, 256, 312
-0.986897, 161, 97, 288, 224
-0.986907, 113, 169, 176, 232
-0.98694, 153, 353, 216, 480
-0.986994, 145, 241, 208, 304
-0.987054, 121, 289, 152, 352
-0.987125, 337, 105, 368, 168
-0.987171, 185, 425, 248, 488
-0.98725, 257, 153, 288, 216
-0.987253, 13, 241, 44, 368
-0.987277, 121, 337, 152, 400
-0.98739, 89, 49, 152, 112
-0.987417, 245, 177, 276, 304
-0.98745, 85, 353, 116, 480
-0.987454, 209, 305, 272, 432
-0.987503, 85, 337, 116, 400
-0.987526, 193, 329, 320, 392
-0.987536, 225, 89, 352, 152
-0.9876, 161, 289, 224, 352
-0.987661, 313, 81, 344, 208
-0.987704, 285, 289, 316, 416
-0.987732, 69, 353, 100, 480
-0.987772, 217, 257, 280, 500
-0.987776, 185, 305, 248, 432
-0.987816, 13, 321, 44, 384
-0.98782, 121, 353, 184, 480
-0.98786, 153, 361, 216, 424
-0.987936, 117, 105, 148, 168
-0.987975, 1, 393, 32, 456
-0.987998, 81, 73, 208, 136
-0.988024, 333, 241, 364, 304
-0.98803, 109, 81, 140, 208
-0.988206, 25, 433, 56, 496
-0.988208, 121, 193, 152, 320
-0.988348, 17, 221, 80, 252
-0.98836, 97, 401, 224, 464
-0.9884, 1, 97, 32, 224
-0.988492, 289, 1, 352, 500
-0.988495, 193, 177, 224, 304
-0.988556, 305, 345, 368, 408
-0.988562, 97, 265, 128, 328
-0.988581, 33, 353, 64, 480
-0.988644, 185, 201, 216, 264
-0.988681, 273, 337, 304, 464
-0.988694, 309, 305, 340, 368
-0.988738, 109, 337, 140, 400
-0.98874, 285, 321, 316, 384
-0.988749, 265, 189, 328, 220
-0.988757, 113, 1, 176, 500
-0.988779, 125, 209, 156, 272
-0.988787, 1, 233, 64, 264
-0.988803, 193, 273, 256, 336
-0.988935, 305, 285, 368, 316
-0.988961, 257, 257, 320, 288
-0.988965, 137, 297, 168, 360
-0.989002, 69, 241, 100, 304
-0.98902, 345, 273, 375, 400
-0.989033, 1, 305, 32, 432
-0.989073, 281, 129, 312, 256
-0.989099, 281, 205, 344, 236
-0.989114, 25, 361, 88, 424
-0.989121, 177, 377, 240, 440
-0.989169, 177, 281, 304, 344
-0.989234, 321, 241, 352, 304
-0.989247, 225, 65, 288, 320
-0.989308, 57, 209, 120, 272
-0.989354, 57, 353, 88, 480
-0.989439, 141, 81, 172, 208
-0.989449, 313, 1, 375, 500
-0.989474, 313, 229, 375, 260
-0.989475, 129, 313, 256, 376
-0.989548, 233, 177, 264, 304
-0.98956, 209, 169, 240, 232
-0.989563, 305, 241, 368, 272
-0.989576, 293, 113, 324, 240
-0.989579, 257, 273, 288, 336
-0.989593, 337, 113, 368, 240
-0.98962, 1, 129, 64, 160
-0.989628, 209, 297, 272, 360
-0.989636, 313, 217, 344, 280
-0.989659, 1, 209, 64, 240
-0.989695, 93, 65, 124, 128
-0.989732, 85, 249, 116, 312
-0.989756, 89, 145, 152, 208
-0.989766, 305, 269, 368, 300
-0.989786, 161, 145, 224, 272
-0.989788, 37, 305, 68, 432
-0.989801, 41, 305, 104, 336
-0.989829, 33, 161, 160, 224
-0.989863, 245, 233, 276, 296
-0.989895, 17, 281, 80, 312
-0.989895, 73, 309, 136, 340
-0.989921, 225, 345, 288, 408
-0.98994, 265, 177, 328, 208
-0.989965, 245, 273, 276, 400
-0.989969, 113, 85, 176, 116
-0.989982, 297, 181, 360, 212
-0.990019, 81, 49, 208, 112
-0.99004, 241, 201, 304, 232
-0.990093, 105, 329, 168, 360
-0.990111, 141, 305, 172, 432
-0.990119, 9, 309, 72, 340
-0.99015, 241, 337, 368, 400
-0.990168, 265, 237, 328, 268
-0.990181, 169, 241, 232, 304
-0.990188, 125, 233, 156, 296
-0.99019, 41, 49, 72, 176
-0.99019, 73, 433, 104, 496
-0.990248, 201, 193, 264, 224
-0.990256, 221, 193, 252, 320
-0.990269, 265, 1, 328, 500
-0.990292, 305, 257, 368, 288
-0.990304, 177, 153, 304, 216
-0.990324, 113, 141, 176, 172
-0.990389, 289, 281, 320, 344
-0.990389, 9, 197, 72, 228
-0.990409, 137, 1, 200, 128
-0.990417, 89, 345, 152, 376
-0.990422, 233, 193, 264, 256
-0.990427, 145, 329, 176, 392
-0.990447, 41, 277, 104, 308
-0.990503, 17, 245, 80, 276
-0.990522, 177, 305, 304, 368
-0.990531, 81, 185, 144, 248
-0.990559, 273, 297, 304, 360
-0.990563, 17, 269, 80, 300
-0.990575, 241, 181, 304, 212
-0.990611, 33, 265, 288, 328
-0.990626, 1, 201, 375, 264
-0.990702, 265, 217, 328, 248
-0.990713, 65, 341, 128, 372
-0.990719, 313, 137, 375, 168
-0.990724, 225, 253, 288, 284
-0.990739, 33, 441, 96, 472
-0.990755, 313, 297, 375, 328
-0.990757, 25, 113, 88, 240
-0.990764, 9, 293, 72, 324
-0.990768, 313, 113, 344, 176
-0.99077, 117, 33, 148, 160
-0.990774, 97, 185, 352, 248
-0.990779, 1, 149, 64, 180
-0.990799, 185, 205, 248, 236
-0.990813, 49, 361, 112, 424
-0.990818, 289, 193, 352, 224
-0.990827, 137, 65, 200, 192
-0.990832, 281, 249, 344, 280
-0.990851, 113, 113, 176, 144
-0.990877, 225, 401, 288, 464
-0.990878, 1, 177, 256, 240
-0.990912, 33, 233, 96, 264
-0.990932, 113, 97, 176, 128
-0.990942, 113, 341, 176, 372
-0.990947, 113, 237, 176, 268
-0.990987, 9, 421, 72, 452
-0.990989, 177, 193, 240, 224
-0.99099, 297, 305, 328, 368
-0.991003, 113, 129, 176, 160
-0.991037, 281, 261, 344, 292
-0.99109, 1, 233, 375, 296
-0.991091, 301, 129, 332, 192
-0.991093, 1, 321, 64, 352
-0.991104, 225, 241, 288, 272
-0.991127, 33, 293, 96, 324
-0.991175, 241, 213, 304, 244
-0.991197, 145, 49, 272, 176
-0.991206, 33, 209, 96, 240
-0.991244, 313, 121, 375, 152
-0.991252, 297, 309, 360, 340
-0.991262, 37, 57, 68, 120
-0.991277, 77, 1, 108, 128
-0.991296, 61, 417, 92, 480
-0.991301, 129, 361, 256, 424
-0.991304, 217, 265, 280, 296
-0.991305, 49, 65, 112, 320
-0.991306, 9, 437, 72, 468
-0.991327, 257, 281, 320, 312
-0.99134, 305, 209, 368, 240
-0.991355, 257, 269, 320, 300
-0.991384, 181, 177, 212, 240
-0.991424, 137, 177, 200, 240
-0.991461, 129, 105, 160, 168
-0.991471, 113, 209, 176, 240
-0.991477, 137, 1, 200, 256
-0.99149, 33, 317, 96, 348
-0.991493, 281, 289, 344, 320
-0.991513, 265, 361, 296, 424
-0.991518, 41, 429, 104, 460
-0.991535, 9, 25, 72, 88
-0.991545, 281, 273, 344, 304
-0.991567, 13, 97, 44, 160
-0.991585, 65, 289, 128, 320
-0.991586, 257, 369, 320, 400
-0.991618, 249, 341, 312, 372
-0.99163, 49, 209, 80, 272
-0.991641, 73, 73, 136, 104
-0.991642, 109, 265, 140, 328
-0.991643, 105, 81, 136, 144
-0.991662, 65, 49, 96, 176
-0.991663, 13, 305, 44, 432
-0.991677, 49, 353, 112, 384
-0.991692, 65, 465, 128, 496
-0.9917, 233, 325, 296, 356
-0.99171, 113, 225, 176, 256
-0.991742, 185, 233, 248, 264
-0.991759, 97, 309, 160, 340
-0.991769, 113, 153, 176, 184
-0.991792, 265, 81, 328, 144
-0.991793, 57, 265, 120, 296
-0.991798, 145, 1, 208, 500
-0.991808, 289, 169, 352, 200
-0.991812, 65, 449, 128, 480
-0.991819, 25, 385, 88, 448
-0.991855, 289, 133, 352, 164
-0.991856, 225, 225, 288, 256
-0.991856, 105, 1, 136, 128
-0.991866, 273, 301, 336, 332
-0.991881, 1, 209, 256, 272
-0.991882, 33, 453, 96, 484
-0.991898, 245, 377, 276, 440
-0.991901, 33, 257, 96, 288
-0.99191, 25, 89, 88, 152
-0.991914, 137, 333, 200, 364
-0.991932, 145, 201, 208, 232
-0.991946, 1, 105, 64, 168
-0.991947, 41, 245, 104, 276
-0.991961, 81, 245, 144, 276
-0.991965, 297, 153, 360, 184
-0.991977, 273, 357, 336, 388
-0.992, 73, 89, 136, 120
-0.992013, 289, 225, 352, 256
-0.992014, 41, 465, 104, 496
-0.992017, 37, 225, 68, 256
-0.992037, 81, 357, 144, 388
-0.992052, 105, 73, 168, 104
-0.992053, 193, 225, 224, 352
-0.992061, 341, 129, 372, 192
-0.992087, 301, 181, 332, 212
-0.992097, 1, 185, 64, 216
-0.992099, 201, 217, 264, 248
-0.9921, 265, 165, 328, 196
-0.99211, 81, 137, 144, 168
-0.992114, 217, 181, 280, 212
-0.992134, 245, 265, 276, 328
-0.992152, 273, 321, 336, 352
-0.992155, 281, 89, 312, 152
-0.992156, 53, 1, 84, 128
-0.992158, 89, 17, 120, 144
-0.992162, 1, 333, 64, 364
-0.992163, 25, 249, 56, 312
-0.992163, 241, 105, 304, 168
-0.992167, 1, 209, 32, 240
-0.992178, 161, 433, 288, 496
-0.992187, 13, 129, 44, 160
-0.992188, 145, 245, 208, 276
-0.99219, 145, 97, 208, 352
-0.992194, 313, 169, 375, 200
-0.992201, 9, 61, 72, 92
-0.992217, 77, 361, 108, 424
-0.992219, 313, 369, 375, 432
-0.992221, 65, 241, 320, 304
-0.992225, 245, 177, 276, 240
-0.992228, 217, 277, 280, 308
-0.992233, 233, 1, 296, 500
-0.992245, 281, 189, 312, 220
-0.992247, 249, 353, 312, 384
-0.992265, 145, 321, 208, 352
-0.992266, 129, 385, 192, 448
-0.992269, 221, 401, 252, 464
-0.992269, 1, 169, 64, 200
-0.992285, 37, 213, 68, 244
-0.992286, 73, 117, 136, 148
-0.992289, 73, 105, 136, 136
-0.992291, 113, 193, 176, 224
-0.992291, 121, 129, 152, 192
-0.992295, 81, 321, 144, 352
-0.992303, 25, 125, 88, 156
-0.992306, 25, 225, 56, 256
-0.992312, 1, 45, 64, 76
-0.992316, 301, 197, 332, 228
-0.992318, 81, 257, 144, 288
-0.992323, 145, 213, 208, 244
-0.992326, 49, 69, 112, 100
-0.992327, 269, 245, 300, 276
-0.992329, 217, 205, 280, 236
-0.992333, 209, 393, 272, 424
-0.99234, 289, 237, 320, 268
-0.992341, 1, 33, 32, 96
-0.992343, 25, 329, 88, 360
-0.992346, 185, 245, 248, 276
-0.992352, 121, 325, 152, 356
-0.992354, 97, 297, 352, 360
-0.992367, 33, 177, 96, 240
-0.992368, 1, 265, 375, 328
-0.992385, 173, 209, 204, 272
-0.992385, 105, 341, 136, 372
-0.992397, 257, 65, 320, 192
-0.992399, 17, 309, 144, 340
-0.992402, 105, 249, 168, 280
-0.992414, 241, 169, 304, 200
-0.992417, 289, 121, 352, 152
-0.99242, 313, 189, 344, 220
-0.992421, 121, 305, 184, 336
-0.992427, 273, 341, 336, 372
-0.992432, 73, 209, 104, 336
-0.992439, 29, 201, 60, 232
-0.992445, 201, 381, 264, 412
-0.99246, 37, 281, 68, 312
-0.992474, 265, 201, 296, 232
-0.992491, 193, 393, 320, 456
-0.992508, 1, 193, 32, 224
-0.992509, 269, 257, 300, 288
-0.992512, 289, 177, 320, 208
-0.992525, 313, 353, 375, 480
-0.992527, 313, 285, 344, 316
-0.992528, 21, 313, 52, 344
-0.992542, 301, 249, 332, 280
-0.992565, 309, 209, 340, 240
-0.992569, 177, 353, 304, 416
-0.992572, 89, 345, 120, 376
-0.992591, 57, 301, 88, 332
-0.992597, 5, 229, 36, 260
-0.992604, 269, 181, 300, 212
-0.992609, 25, 213, 56, 244
-0.99262, 49, 273, 80, 304
-0.992627, 153, 321, 216, 384
-0.992634, 301, 237, 332, 268
-0.992639, 25, 97, 56, 224
-0.99266, 25, 237, 56, 268
-0.992663, 37, 309, 68, 340
-0.992681, 285, 249, 316, 280
-0.992703, 85, 65, 116, 192
-0.992706, 25, 273, 56, 304
-0.992707, 313, 177, 344, 208
-0.99271, 265, 233, 296, 264
-0.992725, 1, 145, 32, 176
-0.992731, 285, 201, 316, 232
-0.992734, 97, 329, 352, 392
-0.992738, 269, 221, 300, 252
-0.99274, 101, 305, 132, 336
-0.992741, 57, 285, 88, 316
-0.992742, 329, 289, 360, 320
-0.992774, 17, 153, 48, 184
-0.992775, 317, 133, 348, 164
-0.992784, 1, 165, 32, 196
-0.992785, 21, 289, 52, 320
-0.992799, 345, 249, 375, 280
-0.992806, 1, 317, 32, 348
-0.992808, 313, 241, 344, 272
-0.992811, 309, 225, 340, 256
-0.992819, 41, 325, 72, 356
-0.992821, 37, 293, 68, 324
-0.992823, 13, 189, 44, 220
-0.992825, 37, 265, 68, 296
-0.992844, 37, 241, 68, 272
-0.992854, 345, 233, 375, 264
-0.992855, 77, 293, 108, 324
-0.992872, 345, 281, 375, 312
-0.992876, 329, 221, 360, 252
-0.992878, 9, 285, 40, 316
-0.992886, 137, 333, 168, 364
-0.992889, 193, 189, 224, 220
-0.992891, 1, 177, 32, 208
-0.992893, 281, 217, 312, 248
-0.992903, 109, 321, 140, 352
-0.99291, 273, 361, 304, 392
-0.992912, 137, 121, 200, 184
-0.99292, 53, 229, 84, 260
-0.992925, 13, 209, 44, 240
-0.992928, 69, 465, 100, 496
-0.992934, 81, 309, 112, 340
-0.992934, 221, 189, 252, 220
-0.992946, 329, 265, 360, 296
-0.992948, 225, 241, 256, 368
-0.992951, 257, 181, 288, 212
-0.992958, 329, 301, 360, 332
-0.992966, 277, 233, 308, 264
-0.992966, 261, 117, 292, 148
-0.992969, 113, 309, 144, 340
-0.992972, 329, 237, 360, 268
-0.992986, 269, 169, 300, 200
-0.992986, 245, 129, 276, 256
-0.992988, 313, 309, 344, 340
-0.992993, 149, 209, 180, 336
-0.992995, 29, 421, 60, 452
-0.993001, 333, 125, 364, 156
-0.993002, 17, 325, 48, 356
-0.993004, 333, 137, 364, 168
-0.99301, 209, 197, 240, 228
-0.993011, 257, 245, 288, 276
-0.993013, 29, 325, 60, 356
-0.993024, 69, 305, 100, 336
-0.993039, 5, 201, 20, 264
-0.993045, 341, 297, 372, 328
-0.993045, 189, 205, 220, 236
-0.993048, 281, 261, 312, 292
-0.993052, 273, 345, 304, 376
-0.993053, 317, 297, 348, 328
-0.993055, 61, 273, 92, 304
-0.993056, 65, 41, 128, 104
-0.993057, 317, 273, 348, 304
-0.993062, 117, 345, 148, 376
-0.993063, 17, 141, 48, 172
-0.993066, 333, 277, 364, 308
-0.99307, 117, 125, 148, 156
-0.993071, 1, 433, 32, 464
-0.993079, 297, 225, 328, 256
-0.993082, 313, 165, 344, 196
-0.993084, 53, 241, 84, 272
-0.993089, 25, 437, 56, 468
-0.993097, 321, 121, 352, 152
-0.993098, 1, 125, 32, 156
-0.993103, 113, 85, 144, 116
-0.993109, 49, 261, 80, 292
-0.993113, 313, 153, 344, 184
-0.993115, 329, 173, 360, 204
-0.993117, 53, 437, 84, 468
-0.99313, 261, 369, 292, 400
-0.993136, 49, 25, 176, 88
-0.993136, 133, 145, 164, 272
-0.993138, 293, 261, 324, 292
-0.993139, 209, 209, 240, 240
-0.993143, 37, 437, 68, 468
-0.993144, 89, 297, 120, 328
-0.993145, 93, 317, 124, 348
-0.993148, 261, 341, 292, 372
-0.993153, 205, 185, 236, 216
-0.993158, 253, 197, 284, 228
-0.993168, 301, 301, 332, 332
-0.993174, 5, 241, 36, 272
-0.993178, 257, 169, 288, 200
-0.993181, 285, 345, 316, 376
-0.993182, 117, 137, 148, 168
-0.993184, 25, 189, 56, 220
-0.993189, 41, 425, 72, 456
-0.993189, 117, 113, 148, 144
-0.993193, 345, 269, 375, 300
-0.993193, 65, 445, 96, 476
-0.993249, 97, 209, 352, 272
-0.993298, 265, 249, 280, 312
-0.993299, 177, 97, 304, 160
-0.993327, 21, 201, 36, 264
-0.99335, 185, 65, 248, 320
-0.993352, 281, 233, 296, 296
-0.993376, 241, 33, 368, 160
-0.993385, 129, 1, 256, 128
-0.993402, 177, 257, 240, 500
-0.993412, 41, 1, 72, 128
-0.993469, 45, 353, 76, 480
-0.993474, 261, 337, 292, 464
-0.993507, 161, 161, 224, 224
-0.993524, 133, 209, 164, 336
-0.993529, 337, 65, 368, 192
-0.993546, 209, 1, 272, 500
-0.993554, 281, 81, 312, 208
-0.993598, 185, 297, 248, 360
-0.993612, 1, 17, 128, 80
-0.993665, 47, 201, 62, 264
-0.99367, 17, 121, 32, 184
-0.993686, 97, 353, 128, 480
-0.993692, 129, 337, 256, 400
-0.993705, 97, 113, 352, 176
-0.993713, 1, 153, 256, 216
-0.993719, 33, 145, 64, 272
-0.993766, 313, 281, 328, 344
-0.993776, 63, 265, 78, 328
-0.993778, 225, 249, 352, 280
-0.99378, 25, 137, 88, 200
-0.993788, 109, 145, 140, 272
-0.993814, 123, 313, 138, 376
-0.993846, 49, 273, 64, 336
-0.993846, 65, 1, 96, 128
-0.993863, 309, 233, 324, 296
-0.993864, 129, 273, 375, 336
-0.993868, 269, 177, 284, 240
-0.993893, 271, 113, 286, 176
-0.993913, 1, 289, 375, 352
-0.993916, 11, 145, 26, 208
-0.993921, 17, 177, 32, 240
-0.993924, 49, 161, 80, 288
-0.993926, 1, 409, 256, 472
-0.993969, 337, 177, 368, 304
-0.993995, 241, 289, 368, 320
-0.994066, 117, 313, 132, 376
-0.994089, 269, 217, 284, 280
-0.994096, 145, 145, 176, 272
-0.994103, 65, 377, 192, 440
-0.99413, 23, 121, 38, 184
-0.994159, 319, 281, 334, 344
-0.9942, 97, 161, 352, 224
-0.994209, 1, 289, 256, 352
-0.994209, 351, 233, 366, 296
-0.994223, 129, 361, 192, 424
-0.994237, 169, 209, 200, 336
-0.99426, 313, 193, 328, 256
-0.994262, 81, 401, 144, 464
-0.994269, 1, 385, 256, 448
-0.994297, 29, 121, 44, 184
-0.994314, 327, 281, 342, 344
-0.994314, 275, 209, 290, 272
-0.994315, 97, 369, 160, 432
-0.994339, 209, 145, 272, 208
-0.994402, 11, 121, 26, 184
-0.994438, 303, 217, 318, 280
-0.994468, 49, 241, 64, 304
-0.994484, 333, 281, 348, 344
-0.994515, 129, 313, 144, 376
-0.994518, 1, 161, 16, 224
-0.994535, 9, 177, 24, 240
-0.994625, 357, 233, 372, 296
-0.99463, 97, 89, 352, 152
-0.994638, 325, 145, 340, 208
-0.994641, 305, 177, 320, 240
-0.994656, 1, 113, 256, 176
-0.994683, 153, 385, 216, 448
-0.994701, 297, 321, 328, 448
-0.994713, 275, 177, 290, 240
-0.994716, 57, 265, 72, 328
-0.994723, 137, 97, 200, 160
-0.994725, 17, 273, 144, 304
-0.994727, 323, 177, 338, 240
-0.994732, 33, 321, 160, 352
-0.994737, 161, 305, 192, 432
-0.994739, 311, 169, 326, 232
-0.994749, 13, 201, 28, 264
-0.994749, 323, 201, 338, 264
-0.994752, 285, 337, 316, 464
-0.994759, 273, 249, 288, 312
-0.99477, 349, 257, 364, 320
-0.99479, 145, 393, 272, 456
-0.994794, 33, 201, 48, 264
-0.994801, 49, 233, 176, 264
-0.994801, 225, 65, 352, 128
-0.994807, 135, 321, 150, 384
-0.994822, 295, 233, 310, 296
-0.994824, 325, 81, 356, 208
-0.994829, 241, 193, 368, 224
-0.994847, 17, 137, 144, 168
-0.994864, 1, 297, 128, 328
-0.994869, 1, 105, 375, 168
-0.994883, 97, 305, 112, 368
-0.994891, 65, 353, 320, 416
-0.994905, 41, 201, 56, 264
-0.994907, 33, 433, 288, 496
-0.994908, 53, 297, 68, 360
-0.994923, 137, 17, 168, 144
-0.994929, 241, 229, 368, 260
-0.99494, 17, 153, 32, 216
-0.994944, 53, 49, 84, 176
-0.994947, 113, 353, 144, 480
-0.994955, 43, 241, 58, 304
-0.994961, 241, 205, 368, 236
-0.994983, 271, 137, 286, 200
-0.994987, 177, 241, 304, 272
-0.995022, 211, 193, 226, 256
-0.995046, 241, 269, 368, 300
-0.995056, 329, 121, 344, 184
-0.995093, 1, 329, 256, 392
-0.995098, 289, 369, 352, 496
-0.995103, 339, 265, 354, 328
-0.995129, 241, 217, 368, 248
-0.995134, 105, 225, 136, 480
-0.995147, 229, 353, 260, 480
-0.995169, 1, 177, 375, 240
-0.995186, 23, 177, 38, 240
-0.995191, 113, 205, 240, 236
-0.995193, 107, 313, 122, 376
-0.995239, 293, 193, 308, 256
-0.995264, 141, 321, 156, 384
-0.995275, 193, 273, 224, 400
-0.995276, 71, 273, 86, 336
-0.9953, 77, 273, 92, 336
-0.995314, 197, 177, 212, 240
-0.995345, 313, 193, 344, 448
-0.99535, 315, 241, 330, 304
-0.995352, 193, 193, 320, 224
-0.995401, 157, 257, 188, 384
-0.995408, 97, 237, 224, 268
-0.995443, 67, 297, 82, 360
-0.995443, 317, 169, 332, 232
-0.995451, 201, 353, 232, 480
-0.995456, 177, 1, 240, 500
-0.995468, 25, 145, 40, 208
-0.995488, 43, 273, 58, 336
-0.995492, 17, 117, 144, 148
-0.995496, 55, 233, 70, 296
-0.9955, 331, 161, 346, 224
-0.995529, 89, 281, 104, 344
-0.995573, 91, 305, 106, 368
-0.995595, 281, 209, 296, 272
-0.99561, 323, 241, 338, 304
-0.99561, 115, 289, 130, 352
-0.995613, 301, 241, 316, 304
-0.995613, 241, 369, 272, 496
-0.995619, 285, 193, 316, 448
-0.995653, 21, 281, 36, 344
-0.995665, 297, 169, 312, 232
-0.995671, 173, 289, 204, 416
-0.995674, 1, 337, 375, 400
-0.995675, 181, 241, 212, 368
-0.995721, 265, 161, 296, 416
-0.995733, 27, 201, 42, 264
-0.995739, 39, 305, 54, 368
-0.995742, 97, 137, 352, 200
-0.995748, 77, 225, 108, 480
-0.995752, 145, 73, 272, 136
-0.995756, 97, 273, 112, 336
-0.995762, 109, 289, 124, 352
-0.995786, 49, 221, 176, 252
-0.995798, 307, 281, 322, 344
-0.99582, 1, 129, 16, 192
-0.995838, 103, 289, 118, 352
-0.995839, 89, 257, 120, 500
-0.995843, 59, 297, 74, 360
-0.995867, 81, 337, 208, 368
-0.995873, 297, 225, 328, 480
-0.99588, 271, 329, 286, 392
-0.995888, 15, 305, 30, 368
-0.995945, 37, 233, 52, 296
-0.995958, 27, 289, 42, 352
-0.995971, 1, 345, 128, 376
-0.995975, 29, 313, 44, 376
-0.995985, 31, 409, 46, 472
-0.995987, 1, 417, 375, 480
-0.995989, 205, 185, 220, 248
-0.995996, 25, 1, 56, 128
-0.995997, 193, 261, 320, 292
-0.995999, 83, 281, 98, 344
-0.996004, 5, 193, 36, 448
-0.996005, 17, 285, 144, 316
-0.996024, 225, 181, 352, 212
-0.996025, 177, 209, 304, 240
-0.99603, 33, 261, 160, 292
-0.996034, 197, 129, 228, 256
-0.996044, 77, 297, 92, 360
-0.996046, 17, 245, 144, 276
-0.996055, 197, 201, 212, 264
-0.996059, 33, 205, 160, 236
-0.996078, 309, 257, 324, 320
-0.996091, 289, 217, 304, 280
-0.996102, 145, 257, 176, 384
-0.996112, 13, 281, 28, 344
-0.996122, 213, 353, 244, 480
-0.996148, 71, 233, 86, 296
-0.996153, 33, 193, 64, 448
-0.996168, 97, 249, 224, 280
-0.996169, 45, 417, 60, 480
-0.996178, 97, 305, 224, 336
-0.996193, 241, 301, 368, 332
-0.996196, 213, 129, 244, 256
-0.996201, 45, 305, 60, 368
-0.996207, 21, 225, 36, 288
-0.996209, 121, 105, 136, 168
-0.99621, 37, 409, 52, 472
-0.996216, 1, 225, 16, 288
-0.996222, 193, 277, 320, 308
-0.99625, 127, 89, 142, 152
-0.996264, 289, 169, 304, 232
-0.996271, 335, 137, 350, 200
-0.996273, 97, 337, 112, 400
-0.996276, 21, 401, 36, 464
-0.996289, 277, 337, 292, 400
-0.996308, 121, 281, 136, 344
-0.996309, 65, 225, 96, 480
-0.996312, 281, 185, 296, 248
-0.996335, 1, 137, 375, 200
-0.996353, 289, 249, 304, 312
-0.99636, 1, 233, 128, 264
-0.996364, 135, 297, 150, 360
-0.996368, 21, 313, 36, 376
-0.996374, 345, 233, 360, 296
-0.996375, 359, 257, 374, 320
-0.996377, 333, 305, 348, 368
-0.996406, 21, 425, 36, 488
-0.996417, 217, 177, 232, 240
-0.99642, 227, 185, 242, 248
-0.996421, 49, 349, 176, 380
-0.996426, 145, 121, 272, 184
-0.996435, 37, 281, 52, 344
-0.996436, 49, 465, 176, 496
-0.996437, 103, 337, 118, 400
-0.996437, 97, 225, 224, 256
-0.996449, 17, 97, 48, 352
-0.996455, 241, 385, 368, 448
-0.996475, 261, 153, 276, 216
-0.996481, 339, 289, 354, 352
-0.996512, 113, 433, 240, 496
-0.996521, 129, 113, 144, 176
-0.996524, 81, 325, 208, 356
-0.996543, 65, 65, 320, 128
-0.996544, 263, 177, 278, 240
-0.996544, 97, 121, 224, 152
-0.996566, 119, 241, 134, 304
-0.996569, 1, 217, 128, 248
-0.996569, 329, 257, 344, 320
-0.996585, 259, 249, 274, 312
-0.99661, 49, 225, 80, 480
-0.996622, 325, 161, 356, 416
-0.996626, 97, 185, 224, 216
-0.996628, 225, 117, 352, 148
-0.99666, 301, 237, 316, 268
-0.996729, 1, 393, 375, 456
-0.996757, 1, 313, 375, 376
-0.996769, 5, 65, 36, 320
-0.996771, 1, 441, 128, 472
-0.996774, 17, 421, 144, 452
-0.99678, 145, 253, 272, 284
-0.996798, 281, 245, 296, 276
-0.9968, 21, 225, 52, 480
-0.996803, 13, 189, 28, 220
-0.996804, 1, 333, 128, 364
-0.996811, 49, 453, 176, 484
-0.996814, 1, 53, 128, 84
-0.996819, 97, 149, 224, 180
-0.996822, 81, 85, 208, 116
-0.996835, 97, 137, 224, 168
-0.996906, 317, 185, 332, 216
-0.996917, 345, 193, 375, 448
-0.996919, 65, 293, 192, 324
-0.99695, 307, 185, 322, 216
-0.996963, 17, 149, 144, 180
-0.996972, 17, 77, 144, 108
-0.996974, 193, 293, 320, 324
-0.997036, 33, 193, 160, 224
-0.997041, 97, 97, 224, 128
-0.997053, 193, 221, 320, 252
-0.997057, 269, 185, 284, 216
-0.997066, 97, 109, 224, 140
-0.997073, 177, 181, 304, 212
-0.997076, 241, 369, 368, 400
-0.997096, 275, 201, 290, 232
-0.997108, 65, 41, 320, 104
-0.997133, 271, 117, 286, 148
-0.997138, 31, 225, 46, 256
-0.997152, 29, 129, 44, 160
-0.997197, 121, 225, 152, 480
-0.997208, 55, 305, 70, 336
-0.997209, 311, 229, 326, 260
-0.997223, 5, 197, 20, 228
-0.997238, 101, 65, 132, 320
-0.99724, 13, 149, 28, 180
-0.997242, 97, 173, 224, 204
-0.997256, 265, 257, 280, 288
-0.997284, 333, 289, 348, 320
-0.997293, 129, 337, 256, 368
-0.997302, 1, 89, 256, 152
-0.997303, 241, 409, 368, 472
-0.997305, 9, 177, 24, 208
-0.997308, 31, 213, 46, 244
-0.997327, 269, 201, 284, 232
-0.997351, 21, 209, 36, 240
-0.997359, 109, 341, 124, 372
-0.997366, 97, 349, 224, 380
-0.997369, 225, 129, 352, 160
-0.997373, 1, 209, 16, 240
-0.997373, 329, 133, 344, 164
-0.997406, 1, 65, 128, 96
-0.997413, 277, 97, 308, 352
-0.997414, 65, 361, 192, 392
-0.997419, 19, 189, 34, 220
-0.997427, 275, 181, 290, 212
-0.99743, 117, 337, 132, 368
-0.997433, 97, 377, 352, 440
-0.997462, 301, 97, 332, 352
-0.997479, 297, 257, 312, 288
-0.99748, 97, 25, 224, 88
-0.997482, 273, 253, 288, 284
-0.997483, 7, 129, 22, 160
-0.997494, 313, 197, 328, 228
-0.997498, 49, 1, 176, 64
-0.997506, 95, 349, 110, 380
-0.997506, 17, 401, 144, 432
-0.99751, 301, 181, 316, 212
-0.997512, 309, 241, 324, 272
-0.997513, 7, 161, 22, 192
-0.997526, 275, 237, 290, 268
-0.997528, 289, 189, 304, 220
-0.997531, 17, 125, 32, 156
-0.997531, 257, 369, 320, 496
-0.997539, 125, 325, 140, 356
-0.997541, 275, 213, 290, 244
-0.997566, 1, 465, 128, 496
-0.997567, 353, 229, 368, 260
-0.997567, 137, 329, 152, 360
-0.997569, 283, 193, 298, 224
-0.99758, 225, 149, 352, 180
-0.997584, 1, 81, 375, 144
-0.997586, 1, 177, 16, 208
-0.997595, 103, 345, 118, 376
-0.997614, 43, 325, 58, 356
-0.997622, 307, 197, 322, 228
-0.997627, 65, 301, 80, 332
-0.997649, 275, 225, 290, 256
-0.997652, 97, 269, 224, 300
-0.997653, 27, 149, 42, 180
-0.997654, 65, 441, 192, 472
-0.997654, 97, 401, 352, 464
-0.997658, 281, 213, 296, 244
-0.997667, 329, 257, 360, 500
-0.997674, 295, 181, 310, 212
-0.997681, 49, 221, 64, 252
-0.997686, 283, 257, 298, 288
-0.997687, 303, 225, 318, 256
-0.997691, 323, 205, 338, 236
-0.997701, 291, 245, 306, 276
-0.997705, 309, 289, 324, 320
-0.997706, 333, 65, 364, 320
-0.997706, 225, 105, 352, 136
-0.99771, 41, 217, 56, 248
-0.997711, 129, 317, 256, 348
-0.997712, 81, 65, 208, 96
-0.997716, 323, 189, 338, 220
-0.997721, 59, 273, 74, 304
-0.997732, 351, 245, 366, 276
-0.997744, 39, 313, 54, 344
-0.997761, 29, 33, 60, 288
-0.997764, 323, 149, 338, 180
-0.997766, 13, 285, 28, 316
-0.997766, 269, 257, 300, 500
-0.997768, 43, 201, 58, 232
-0.997771, 17, 105, 144, 136
-0.997772, 17, 1, 48, 256
-0.997775, 303, 249, 318, 280
-0.997776, 129, 393, 256, 424
-0.997777, 35, 273, 50, 304
-0.99778, 27, 277, 42, 308
-0.997786, 1, 389, 128, 420
-0.997788, 323, 137, 338, 168
-0.997795, 269, 237, 284, 268
-0.997796, 193, 169, 320, 200
-0.997804, 161, 1, 224, 256
-0.997807, 339, 293, 354, 324
-0.997812, 121, 97, 152, 352
-0.997815, 309, 173, 324, 204
-0.997816, 133, 225, 164, 480
-0.997818, 1, 453, 128, 484
-0.997819, 253, 97, 284, 352
-0.997821, 65, 273, 80, 304
-0.997837, 49, 305, 64, 336
-0.997872, 265, 65, 296, 320
-0.997875, 49, 281, 64, 312
-0.997882, 1, 161, 16, 192
-0.997889, 315, 173, 330, 204
-0.997904, 209, 161, 240, 416
-0.997906, 131, 325, 146, 356
-0.997908, 209, 341, 336, 372
-0.997911, 17, 365, 144, 396
-0.997912, 51, 321, 66, 352
-0.997921, 271, 129, 286, 160
-0.997929, 31, 317, 46, 348
-0.997929, 331, 145, 346, 176
-0.99793, 21, 285, 36, 316
-0.997936, 7, 145, 22, 176
-0.997936, 117, 1, 148, 256
-0.997943, 327, 169, 342, 200
-0.997951, 277, 341, 292, 372
-0.997951, 193, 361, 320, 392
-0.997956, 21, 149, 36, 180
-0.997957, 269, 161, 284, 192
-0.997963, 317, 285, 332, 316
-0.997963, 1, 141, 16, 172
-0.997965, 59, 293, 74, 324
-0.997972, 283, 181, 298, 212
-0.997973, 281, 233, 296, 264
-0.997979, 89, 293, 104, 324
-0.99798, 1, 233, 16, 264
-0.99798, 225, 93, 352, 124
-0.997982, 325, 269, 340, 300
-0.997984, 23, 133, 38, 164
-0.997992, 69, 285, 84, 316
-0.997997, 7, 209, 22, 240
-0.997999, 143, 329, 158, 360
-0.997999, 347, 257, 362, 288
-0.998, 193, 325, 320, 356
-0.998, 127, 129, 142, 160
-0.998, 197, 185, 212, 216
-0.998001, 49, 245, 64, 276
-0.99801, 15, 173, 30, 204
-0.998011, 269, 213, 284, 244
-0.998012, 347, 285, 362, 316
-0.99802, 213, 193, 228, 224
-0.998021, 117, 321, 132, 352
-0.998022, 301, 197, 316, 228
-0.998027, 313, 97, 344, 352
-0.998028, 129, 49, 256, 112
-0.998032, 315, 241, 330, 272
-0.998032, 359, 245, 374, 276
-0.998036, 49, 209, 64, 240
-0.99804, 337, 277, 352, 308
-0.998042, 241, 161, 368, 192
-0.998043, 37, 325, 52, 356
-0.998048, 261, 181, 276, 212
-0.998048, 23, 225, 38, 256
-0.998048, 79, 297, 94, 328
-0.998051, 85, 309, 100, 340
-0.998055, 95, 313, 110, 344
-0.998058, 43, 273, 58, 304
-0.998059, 173, 193, 204, 448
-0.998061, 1, 17, 256, 80
-0.998063, 33, 141, 48, 172
-0.998065, 33, 201, 48, 232
-0.998067, 73, 469, 88, 500
-0.998069, 103, 301, 118, 332
-0.998075, 271, 141, 286, 172
-0.998076, 321, 233, 336, 264
-0.998077, 241, 317, 368, 348
-0.998079, 309, 305, 324, 336
-0.998092, 321, 245, 336, 276
-0.998095, 65, 281, 192, 312
-0.998096, 39, 285, 54, 316
-0.998104, 113, 405, 240, 436
-0.998106, 1, 377, 128, 408
-0.998137, 145, 229, 272, 260
-0.998163, 145, 193, 272, 224
-0.998168, 33, 177, 160, 208
-0.998281, 41, 33, 72, 288
-0.998282, 289, 97, 320, 352
-0.998304, 97, 161, 224, 192
-0.998336, 33, 89, 160, 120
-0.998352, 1, 41, 375, 104
-0.99836, 271, 193, 286, 320
-0.998371, 209, 397, 336, 428
-0.998373, 257, 257, 288, 500
-0.998384, 65, 373, 192, 404
-0.998391, 193, 425, 320, 456
-0.998399, 17, 225, 80, 240
-0.9984, 329, 233, 360, 248
-0.998402, 85, 303, 116, 318
-0.998402, 21, 439, 52, 454
-0.998402, 261, 217, 292, 232
-0.998403, 281, 193, 344, 208
-0.998403, 329, 299, 360, 314
-0.998403, 305, 295, 336, 310
-0.998405, 37, 313, 68, 328
-0.998406, 29, 141, 60, 156
-0.998406, 121, 83, 152, 98
-0.998406, 1, 185, 32, 200
-0.998408, 41, 267, 72, 282
-0.998409, 11, 145, 26, 272
-0.998409, 321, 289, 352, 304
-0.998409, 89, 315, 120, 330
-0.998409, 61, 275, 92, 290
-0.99841, 17, 155, 48, 170
-0.99841, 105, 351, 136, 366
-0.998411, 65, 429, 192, 460
-0.998413, 241, 381, 368, 412
-0.998414, 257, 253, 288, 268
-0.998414, 209, 199, 240, 214
-0.998414, 273, 367, 304, 382
-0.998414, 193, 193, 224, 208
-0.998415, 317, 301, 348, 316
-0.998415, 261, 265, 292, 280
-0.998415, 325, 125, 356, 140
-0.998416, 53, 243, 84, 258
-0.998416, 329, 307, 360, 322
-0.998418, 261, 117, 292, 132
-0.998419, 17, 193, 48, 208
-0.99842, 313, 249, 344, 264
-0.99842, 105, 337, 136, 352
-0.99842, 309, 213, 340, 228
-0.998421, 345, 231, 375, 246
-0.998422, 193, 187, 224, 202
-0.998422, 125, 329, 156, 344
-0.998423, 249, 257, 312, 272
-0.998423, 53, 231, 84, 246
-0.998423, 1, 239, 64, 254
-0.998424, 113, 323, 144, 338
-0.998424, 37, 297, 68, 312
-0.998426, 301, 261, 332, 276
-0.998426, 297, 205, 328, 220
-0.998427, 13, 143, 44, 158
-0.998431, 1, 179, 32, 194
-0.998432, 265, 207, 296, 222
-0.998432, 193, 207, 224, 222
-0.998433, 65, 303, 96, 318
-0.998434, 285, 207, 316, 222
-0.998435, 1, 203, 32, 218
-0.998435, 329, 227, 360, 242
-0.998437, 1, 191, 32, 206
-0.998439, 333, 283, 364, 298
-0.998439, 1, 153, 32, 168
-0.998439, 77, 351, 108, 366
-0.998441, 271, 113, 286, 240
-0.998442, 317, 155, 348, 170
-0.998443, 93, 341, 124, 356
-0.998444, 41, 305, 104, 320
-0.998444, 277, 243, 308, 258
-0.998444, 289, 181, 320, 196
-0.998445, 345, 279, 375, 294
-0.998445, 193, 413, 320, 444
-0.998446, 17, 233, 80, 248
-0.998446, 9, 291, 40, 306
-0.998447, 337, 131, 368, 146
-0.998448, 13, 319, 44, 334
-0.998448, 265, 187, 328, 202
-0.99845, 337, 137, 368, 152
-0.99845, 97, 307, 128, 322
-0.998451, 161, 373, 288, 404
-0.998451, 117, 341, 148, 356
-0.998452, 309, 289, 340, 304
-0.998453, 301, 181, 332, 196
-0.998454, 193, 161, 224, 416
-0.998454, 257, 193, 320, 208
-0.998454, 285, 213, 316, 228
-0.998454, 297, 247, 328, 262
-0.998458, 265, 203, 328, 218
-0.998458, 29, 203, 60, 218
-0.998459, 37, 243, 68, 258
-0.998461, 1, 323, 64, 338
-0.998462, 17, 219, 80, 234
-0.998463, 89, 345, 152, 360
-0.998463, 325, 135, 356, 150
-0.998464, 289, 253, 320, 268
-0.998467, 265, 237, 296, 252
-0.998468, 313, 243, 344, 258
-0.998469, 297, 295, 360, 310
-0.998469, 17, 145, 32, 272
-0.998472, 89, 353, 120, 368
-0.998472, 145, 277, 272, 308
-0.998472, 1, 135, 64, 150
-0.998473, 33, 319, 64, 334
-0.998475, 33, 273, 64, 288
-0.998476, 5, 231, 36, 246
-0.998476, 9, 207, 72, 222
-0.998479, 205, 205, 236, 220
-0.998479, 269, 249, 300, 264
-0.998479, 281, 201, 312, 216
-0.998482, 265, 243, 296, 258
-0.998485, 289, 261, 320, 276
-0.998489, 1, 319, 32, 334
-0.998489, 281, 209, 344, 224
-0.99849, 161, 445, 288, 476
-0.998491, 345, 255, 375, 270
-0.998492, 269, 195, 300, 210
-0.998492, 269, 189, 300, 204
-0.998493, 45, 283, 76, 298
-0.998493, 53, 237, 84, 252
-0.998493, 33, 287, 64, 302
-0.998497, 9, 299, 72, 314
-0.998497, 313, 195, 344, 210
-0.998499, 5, 241, 36, 256
-0.9985, 65, 351, 128, 366
-0.9985, 309, 231, 340, 246
-0.9985, 313, 245, 375, 260
-0.998503, 9, 283, 40, 298
-0.998503, 57, 313, 120, 328
-0.998504, 273, 181, 336, 196
-0.998513, 297, 253, 360, 268
-0.998516, 21, 289, 52, 304
-0.998516, 289, 187, 352, 202
-0.998517, 1, 361, 375, 424
-0.998518, 29, 279, 60, 294
-0.998518, 297, 239, 360, 254
-0.998518, 281, 215, 344, 230
-0.998519, 305, 271, 368, 286
-0.998519, 297, 235, 328, 250
-0.99852, 301, 253, 332, 268
-0.99852, 17, 213, 80, 228
-0.99852, 77, 309, 108, 324
-0.998521, 113, 87, 176, 102
-0.998521, 273, 247, 336, 262
-0.998522, 273, 217, 304, 232
-0.998525, 289, 187, 320, 202
-0.998525, 17, 245, 80, 260
-0.998528, 1, 317, 64, 332
-0.998528, 17, 229, 48, 244
-0.998528, 37, 327, 68, 342
-0.998528, 233, 195, 296, 210
-0.998529, 113, 143, 176, 158
-0.998529, 277, 237, 308, 252
-0.998529, 25, 243, 56, 258
-0.998532, 17, 281, 80, 296
-0.998533, 241, 185, 304, 200
-0.998534, 25, 273, 88, 288
-0.998534, 301, 193, 332, 208
-0.998536, 281, 221, 344, 236
-0.998539, 241, 357, 368, 388
-0.99854, 13, 135, 44, 150
-0.998543, 49, 321, 80, 336
-0.998545, 113, 339, 176, 354
-0.998546, 273, 183, 304, 198
-0.998546, 25, 219, 56, 234
-0.998546, 129, 433, 375, 496
-0.998549, 297, 289, 360, 304
-0.998549, 265, 201, 296, 216
-0.99855, 313, 231, 375, 246
-0.99855, 297, 199, 360, 214
-0.998551, 241, 205, 304, 220
-0.998554, 25, 441, 88, 456
-0.998554, 313, 183, 344, 198
-0.998555, 281, 231, 344, 246
-0.998557, 305, 301, 368, 316
-0.998557, 309, 207, 340, 222
-0.998558, 313, 137, 375, 152
-0.99856, 273, 253, 336, 268
-0.99856, 305, 277, 368, 292
-0.998561, 29, 209, 60, 224
-0.998564, 37, 237, 68, 252
-0.998564, 49, 277, 80, 292
-0.998565, 257, 263, 320, 278
-0.998567, 185, 195, 248, 210
-0.998569, 305, 259, 368, 274
-0.99857, 265, 241, 328, 256
-0.99857, 113, 333, 176, 348
-0.998571, 113, 149, 176, 164
-0.998571, 129, 1, 256, 64
-0.998573, 23, 113, 38, 240
-0.998574, 9, 209, 40, 224
-0.998576, 225, 251, 288, 266
-0.998576, 25, 239, 88, 254
-0.998577, 53, 305, 84, 320
-0.998577, 305, 283, 368, 298
-0.998578, 1, 141, 64, 156
-0.998579, 113, 97, 176, 112
-0.998579, 169, 203, 232, 218
-0.998579, 81, 305, 144, 320
-0.998579, 33, 321, 96, 336
-0.998581, 1, 289, 64, 304
-0.998581, 217, 267, 280, 282
-0.998582, 33, 165, 160, 196
-0.998582, 177, 385, 304, 416
-0.998582, 297, 241, 328, 256
-0.998582, 113, 117, 176, 132
-0.998586, 319, 177, 334, 304
-0.998586, 33, 287, 96, 302
-0.998586, 313, 189, 344, 204
-0.998587, 37, 219, 68, 234
-0.998589, 113, 133, 176, 148
-0.998589, 45, 193, 60, 320
-0.99859, 17, 325, 48, 340
-0.998591, 37, 231, 68, 246
-0.998591, 71, 225, 86, 352
-0.998592, 305, 225, 368, 240
-0.998592, 25, 237, 56, 252
-0.998592, 113, 123, 176, 138
-0.998593, 105, 81, 168, 96
-0.998593, 217, 273, 280, 288
-0.998595, 25, 313, 88, 328
-0.998595, 65, 343, 128, 358
-0.998595, 193, 201, 256, 216
-0.998596, 1, 193, 64, 208
-0.998597, 225, 213, 288, 228
-0.998597, 105, 343, 136, 358
-0.998597, 59, 257, 74, 384
-0.998599, 41, 279, 104, 294
-0.998599, 209, 191, 272, 206
-0.9986, 257, 223, 320, 238
-0.9986, 257, 215, 320, 230
-0.998601, 217, 259, 280, 274
-0.998601, 93, 347, 124, 362
-0.998602, 185, 209, 248, 224
-0.998602, 305, 211, 368, 226
-0.998602, 257, 269, 320, 284
-0.998605, 313, 307, 375, 322
-0.998605, 13, 149, 44, 164
-0.998605, 113, 345, 176, 360
-0.998605, 1, 275, 64, 290
-0.998606, 113, 109, 176, 124
-0.998606, 1, 161, 16, 288
-0.998608, 9, 201, 72, 216
-0.998609, 1, 147, 64, 162
-0.99861, 13, 129, 44, 144
-0.99861, 17, 129, 80, 144
-0.998611, 81, 319, 144, 334
-0.998611, 281, 261, 344, 276
-0.998612, 113, 103, 176, 118
-0.998612, 89, 351, 152, 366
-0.998613, 89, 339, 152, 354
-0.998614, 9, 431, 72, 446
-0.998614, 113, 237, 176, 252
-0.998614, 297, 157, 360, 172
-0.998615, 33, 327, 96, 342
-0.998616, 305, 265, 368, 280
-0.998617, 1, 437, 64, 452
-0.998617, 249, 341, 312, 356
-0.998618, 297, 143, 360, 158
-0.998618, 249, 251, 312, 266
-0.998621, 257, 235, 320, 250
-0.998623, 65, 465, 128, 480
-0.998624, 305, 193, 368, 208
-0.998624, 149, 193, 180, 448
-0.998625, 225, 221, 288, 236
-0.998627, 9, 329, 72, 344
-0.998627, 269, 257, 300, 272
-0.998628, 257, 285, 320, 300
-0.998628, 289, 135, 352, 150
-0.998628, 113, 243, 176, 258
-0.998629, 121, 319, 184, 334
-0.99863, 241, 329, 368, 360
-0.99863, 97, 311, 160, 326
-0.99863, 65, 299, 128, 314
-0.998631, 49, 435, 112, 450
-0.998631, 1, 311, 64, 326
-0.998632, 225, 235, 288, 250
-0.998633, 9, 153, 72, 168
-0.998633, 301, 199, 332, 214
-0.998635, 41, 293, 104, 308
-0.998635, 281, 195, 312, 210
-0.998635, 225, 227, 288, 242
-0.998636, 313, 131, 375, 146
-0.998636, 145, 207, 208, 222
-0.998637, 281, 305, 344, 320
-0.998637, 1, 251, 64, 266
-0.998638, 113, 207, 176, 222
-0.998638, 265, 373, 328, 388
-0.998638, 33, 461, 96, 476
-0.998638, 185, 215, 248, 230
-0.998662, 301, 187, 332, 202
-0.998671, 193, 313, 320, 344
-0.998671, 129, 361, 256, 392
-0.998678, 323, 129, 338, 256
-0.99869, 129, 305, 144, 432
-0.998692, 31, 145, 46, 272
-0.998694, 9, 193, 24, 320
-0.998698, 37, 225, 68, 240
-0.998699, 301, 225, 316, 352
-0.998704, 145, 265, 272, 296
-0.998716, 221, 161, 252, 416
-0.998728, 145, 297, 272, 328
-0.998743, 277, 193, 292, 320
-0.998745, 303, 177, 318, 304
-0.998746, 89, 161, 120, 416
-0.998751, 265, 193, 280, 320
-0.998757, 311, 161, 326, 288
-0.998758, 319, 225, 334, 352
-0.998763, 21, 193, 36, 320
-0.998768, 65, 257, 80, 384
-0.998782, 141, 1, 172, 256
-0.998785, 309, 225, 324, 352
-0.99879, 99, 257, 114, 384
-0.998792, 51, 209, 66, 336
-0.998802, 325, 177, 340, 304
-0.99881, 97, 417, 224, 448
-0.998817, 145, 97, 176, 352
-0.998819, 283, 209, 298, 336
-0.998823, 121, 257, 136, 384
-0.998829, 15, 193, 30, 320
-0.998833, 267, 241, 282, 368
-0.998852, 349, 209, 364, 336
-0.998856, 161, 457, 288, 488
-0.998856, 291, 177, 306, 304
-0.998858, 177, 113, 304, 144
-0.998865, 65, 389, 192, 420
-0.998875, 325, 225, 340, 352
-0.99888, 23, 65, 38, 192
-0.99888, 39, 193, 54, 320
-0.998884, 93, 257, 108, 384
-0.998902, 85, 289, 100, 416
-0.998906, 49, 53, 176, 84
-0.998906, 145, 133, 272, 164
-0.998907, 13, 97, 28, 224
-0.998912, 237, 161, 268, 416
-0.998912, 57, 129, 88, 384
-0.998914, 53, 257, 68, 384
-0.998924, 297, 161, 312, 288
-0.998924, 241, 77, 368, 108
-0.998932, 115, 257, 130, 384
-0.998934, 123, 305, 138, 432
-0.998949, 77, 241, 92, 368
-0.998949, 105, 257, 120, 384
-0.998954, 161, 1, 224, 128
-0.998957, 37, 273, 52, 400
-0.998957, 95, 305, 110, 432
-0.998965, 127, 257, 142, 384
-0.998969, 293, 225, 308, 352
-0.99898, 161, 193, 192, 448
-0.998981, 27, 209, 42, 336
-0.998983, 273, 241, 288, 368
-0.999007, 343, 225, 358, 352
-0.999012, 133, 129, 164, 384
-0.999012, 277, 113, 292, 240
-0.999012, 79, 289, 94, 416
-0.999034, 329, 113, 344, 240
-0.999037, 287, 257, 302, 384
-0.999043, 135, 305, 150, 432
-0.999044, 45, 241, 60, 368
-0.999047, 311, 273, 326, 400
-0.999059, 129, 429, 256, 460
-0.99906, 57, 209, 72, 336
-0.999063, 65, 405, 192, 436
-0.999067, 29, 97, 44, 224
-0.999078, 177, 101, 304, 132
-0.999085, 121, 81, 136, 208
-0.99909, 161, 349, 288, 380
-0.999092, 87, 241, 102, 368
-0.999092, 317, 129, 332, 256
-0.999093, 1, 209, 16, 336
-0.999097, 129, 1, 160, 256
-0.999101, 145, 417, 272, 448
-0.999108, 283, 161, 298, 288
-0.999113, 117, 305, 132, 432
-0.999129, 5, 369, 20, 496
-0.999131, 317, 289, 332, 416
-0.999134, 361, 209, 375, 336
-0.999143, 355, 209, 370, 336
-0.999147, 71, 273, 86, 400
-0.999156, 345, 97, 375, 352
-0.999157, 5, 113, 20, 240
-0.999163, 331, 161, 346, 288
-0.999163, 263, 129, 278, 256
-0.999165, 15, 49, 30, 176
-0.999168, 161, 1, 192, 256
-0.999182, 101, 305, 116, 432
-0.999184, 197, 177, 212, 304
-0.999199, 261, 241, 276, 368
-0.999205, 191, 193, 206, 320
-0.99921, 279, 273, 294, 400
-0.999211, 305, 289, 320, 416
-0.999213, 129, 81, 144, 208
-0.999219, 337, 129, 352, 256
-0.999222, 225, 257, 256, 500
-0.999226, 325, 289, 340, 416
-0.999227, 297, 273, 312, 400
-0.999231, 335, 289, 350, 416
-0.999231, 129, 469, 256, 500
-0.999235, 29, 49, 44, 176
-0.999238, 53, 33, 84, 288
-0.999248, 23, 353, 38, 480
-0.999248, 11, 369, 26, 496
-0.999251, 1, 41, 128, 72
-0.999253, 225, 177, 240, 304
-0.999254, 63, 209, 78, 336
-0.999255, 125, 129, 140, 256
-0.999259, 37, 145, 52, 272
-0.999267, 273, 321, 288, 448
-0.999273, 107, 305, 122, 432
-0.999273, 313, 1, 344, 256
-0.999278, 129, 85, 256, 116
-0.999286, 33, 225, 48, 352
-0.999289, 33, 353, 48, 480
-0.999298, 109, 65, 124, 192
-0.9993, 117, 209, 132, 336
-0.999304, 43, 305, 58, 432
-0.999306, 45, 129, 76, 384
-0.999308, 271, 65, 286, 192
-0.999314, 135, 257, 150, 384
-0.999323, 17, 353, 32, 480
-0.999324, 89, 65, 120, 320
-0.999329, 31, 273, 46, 400
-0.999334, 349, 257, 364, 384
-0.999346, 87, 353, 102, 480
-0.999347, 307, 113, 322, 240
-0.999359, 237, 177, 252, 304
-0.999361, 301, 113, 316, 240
-0.999363, 351, 161, 366, 288
-0.999364, 317, 81, 332, 208
-0.999365, 13, 305, 28, 432
-0.999368, 9, 241, 24, 368
-0.999372, 35, 49, 50, 176
-0.99938, 63, 305, 78, 432
-0.99938, 49, 41, 176, 72
-0.999381, 47, 353, 62, 480
-0.999384, 153, 81, 168, 208
-0.999385, 267, 289, 282, 416
-0.999401, 19, 241, 34, 368
-0.999404, 81, 353, 96, 480
-0.999406, 137, 81, 152, 208
-0.999408, 333, 241, 348, 368
-0.999408, 341, 289, 356, 416
-0.999409, 155, 129, 170, 256
-0.999411, 207, 177, 222, 304
-0.999418, 141, 305, 156, 432
-0.999422, 113, 373, 240, 404
-0.999424, 141, 241, 156, 368
-0.999427, 355, 257, 370, 384
-0.99943, 329, 65, 344, 192
-0.999435, 123, 209, 138, 336
-0.999526, 65, 1, 96, 256
-0.999539, 197, 257, 228, 500
-0.999575, 97, 457, 224, 488
-0.999584, 177, 89, 304, 120
-0.999627, 193, 33, 320, 160
-0.999628, 147, 335, 162, 350
-0.999629, 13, 285, 28, 300
-0.999629, 311, 231, 326, 246
-0.99963, 39, 219, 54, 234
-0.999632, 361, 255, 375, 270
-0.999633, 9, 169, 24, 184
-0.999633, 323, 181, 338, 196
-0.999633, 27, 289, 42, 304
-0.999634, 57, 239, 72, 254
-0.999635, 37, 333, 52, 348
-0.999635, 303, 207, 318, 222
-0.999635, 263, 255, 278, 270
-0.999635, 67, 305, 82, 320
-0.999636, 121, 341, 136, 356
-0.999636, 3, 171, 18, 186
-0.999636, 323, 235, 338, 250
-0.999637, 217, 201, 232, 216
-0.999638, 347, 277, 362, 292
-0.999639, 329, 183, 344, 198
-0.999639, 5, 323, 20, 338
-0.99964, 313, 1, 375, 256
-0.99964, 15, 183, 30, 198
-0.99964, 309, 291, 324, 306
-0.999641, 15, 191, 30, 206
-0.999641, 1, 187, 16, 202
-0.999642, 271, 123, 286, 138
-0.999642, 313, 209, 328, 224
-0.999643, 47, 217, 62, 232
-0.999643, 27, 281, 42, 296
-0.999644, 309, 255, 324, 270
-0.999645, 277, 1, 308, 256
-0.999645, 115, 345, 130, 360
-0.999645, 63, 319, 78, 334
-0.999646, 27, 155, 42, 170
-0.999647, 5, 199, 20, 214
-0.999648, 21, 291, 36, 306
-0.999649, 21, 283, 36, 298
-0.99965, 209, 205, 224, 220
-0.99965, 5, 145, 20, 160
-0.99965, 49, 223, 64, 238
-0.99965, 347, 283, 362, 298
-0.999651, 331, 149, 346, 164
-0.999652, 31, 139, 46, 154
-0.999652, 31, 325, 46, 340
-0.999654, 325, 205, 340, 220
-0.999656, 79, 307, 94, 322
-0.999656, 39, 225, 54, 240
-0.999657, 267, 185, 282, 200
-0.999657, 351, 255, 366, 270
-0.999659, 327, 135, 342, 150
-0.999659, 303, 253, 318, 268
-0.999659, 329, 155, 344, 170
-0.99966, 53, 279, 68, 294
-0.999661, 275, 207, 290, 222
-0.999661, 47, 283, 62, 298
-0.999662, 271, 129, 286, 144
-0.999662, 287, 187, 302, 202
-0.999663, 305, 189, 320, 204
-0.999664, 285, 239, 300, 254
-0.999665, 33, 279, 48, 294
-0.999665, 1, 211, 16, 226
-0.999666, 21, 151, 36, 166
-0.999666, 269, 217, 284, 232
-0.999668, 317, 181, 332, 196
-0.999668, 7, 163, 22, 178
-0.999669, 33, 145, 48, 160
-0.999669, 31, 233, 46, 248
-0.999672, 291, 259, 306, 274
-0.999675, 291, 195, 306, 210
-0.999676, 217, 65, 248, 320
-0.999677, 35, 287, 50, 302
-0.999677, 275, 257, 290, 272
-0.999678, 63, 275, 78, 290
-0.99968, 13, 197, 28, 212
-0.999681, 269, 247, 284, 262
-0.999682, 9, 185, 24, 200
-0.999683, 21, 189, 36, 204
-0.999683, 41, 277, 56, 292
-0.999683, 5, 139, 20, 154
-0.999684, 211, 197, 226, 212
-0.999685, 321, 197, 336, 212
-0.999686, 31, 129, 46, 144
-0.999687, 273, 185, 288, 200
-0.999688, 11, 129, 26, 144
-0.999688, 31, 217, 46, 232
-0.99969, 305, 199, 320, 214
-0.999692, 49, 323, 64, 338
-0.999695, 323, 241, 338, 256
-0.999695, 115, 339, 130, 354
-0.999696, 311, 199, 326, 214
-0.999696, 311, 239, 326, 254
-0.999697, 353, 231, 368, 246
-0.999698, 279, 249, 294, 264
-0.9997, 275, 243, 290, 258
-0.9997, 281, 257, 296, 272
-0.999702, 305, 247, 320, 262
-0.999702, 269, 205, 284, 220
-0.999704, 5, 177, 20, 192
-0.999704, 95, 347, 110, 362
-0.999705, 307, 183, 322, 198
-0.999706, 107, 345, 122, 360
-0.999708, 297, 189, 312, 204
-0.999713, 265, 261, 280, 276
-0.999714, 57, 319, 72, 334
-0.999714, 323, 187, 338, 202
-0.999714, 73, 129, 104, 384
-0.999719, 275, 215, 290, 230
-0.999719, 19, 127, 34, 142
-0.999719, 315, 245, 330, 260
-0.99972, 21, 209, 36, 224
-0.99972, 269, 193, 284, 208
-0.999721, 323, 151, 338, 166
-0.999722, 299, 241, 314, 256
-0.999725, 101, 345, 116, 360
-0.999726, 3, 193, 18, 208
-0.999727, 41, 327, 56, 342
-0.999728, 281, 195, 296, 210
-0.99973, 297, 261, 312, 276
-0.99973, 31, 227, 46, 242
-0.999737, 9, 191, 24, 206
-0.999737, 281, 201, 296, 216
-0.999739, 13, 151, 28, 166
-0.999744, 249, 1, 280, 256
-0.999748, 25, 129, 40, 144
-0.999751, 271, 117, 286, 132
-0.999753, 279, 237, 294, 252
-0.999757, 157, 97, 188, 352
-0.999758, 305, 233, 320, 248
-0.99976, 317, 189, 332, 204
-0.99977, 269, 199, 284, 214
-0.999772, 193, 65, 224, 320
-0.999773, 269, 255, 284, 270
-0.999774, 275, 201, 290, 216
-0.999775, 241, 257, 272, 500
-0.999778, 275, 195, 290, 210
-0.999779, 27, 149, 42, 164
-0.999785, 311, 189, 326, 204
-0.99979, 185, 257, 216, 500
-0.999822, 305, 241, 320, 256
-0.999876, 77, 1, 108, 256
-0.999915, 225, 433, 352, 496
-0.999932, 169, 97, 200, 352
-0.999935, 205, 65, 236, 320
-0.99997, 177, 1, 208, 256
-1.00004, 297, 1, 328, 256
-1.00005, 181, 97, 212, 352
-1.00005, 213, 257, 244, 500
-1.00007, 161, 97, 224, 224
-1.00009, 177, 1, 304, 64
-1.00012, 177, 33, 304, 96
-1.00015, 237, 65, 268, 320
-1.00017, 241, 33, 368, 96
-1.00037, 249, 1, 312, 256
-1.00045, 97, 1, 352, 64
-1.00069, 217, 65, 280, 192
-1.00073, 225, 1, 352, 64
-1.00074, 345, 1, 375, 256
-1.00131, 1, 17, 375, 80
-1.00197, 297, 17, 360, 144
-1.00342, 273, 17, 336, 144
-1.00403, 185, 1, 248, 128
-1.00418, 225, 17, 288, 144
-1.00505, 249, 17, 312, 144
-1.00629, 161, 49, 224, 176
-1.00821, 185, 49, 248, 176
-1.01421, 49, 113, 112, 240
