1966
-0.400926, 1, 1, 500, 256
-0.431621, 1, 1, 500, 375
-0.446977, 129, 1, 384, 375
-0.48795, 257, 1, 500, 375
-0.535126, 33, 1, 288, 256
-0.560407, 1, 97, 500, 352
-0.567728, 129, 1, 384, 256
-0.569584, 1, 1, 256, 375
-0.632501, 257, 33, 500, 288
-0.647265, 65, 97, 320, 352
-0.77135, 161, 97, 416, 352
-0.829291, 209, 1, 336, 256
-0.834394, 129, 1, 256, 256
-0.849072, 241, 1, 368, 375
-0.850939, 129, 1, 256, 375
-0.859854, 257, 129, 500, 375
-0.870377, 193, 1, 320, 375
-0.877828, 353, 1, 480, 375
-0.881937, 129, 97, 256, 352
-0.885122, 257, 33, 384, 288
-0.885797, 1, 1, 500, 128
-0.886322, 305, 1, 432, 375
-0.887112, 81, 1, 208, 256
-0.888858, 17, 1, 144, 256
-0.892483, 129, 17, 384, 144
-0.895303, 305, 33, 432, 288
-0.896446, 369, 33, 496, 288
-0.897478, 65, 1, 192, 375
-0.898951, 177, 97, 304, 352
-0.901564, 17, 1, 144, 375
-0.901673, 1, 49, 500, 176
-0.904258, 49, 97, 176, 352
-0.907261, 1, 65, 256, 192
-0.911935, 65, 129, 320, 256
-0.913939, 129, 65, 384, 192
-0.917897, 369, 129, 496, 375
-0.919, 225, 129, 352, 375
-0.925295, 177, 33, 304, 160
-0.926793, 1, 97, 500, 224
-0.927516, 185, 49, 248, 176
-0.930721, 33, 17, 288, 144
-0.931572, 241, 1, 368, 128
-0.932894, 65, 209, 320, 336
-0.93381, 257, 49, 500, 176
-0.936294, 129, 17, 256, 144
-0.936936, 1, 161, 500, 288
-0.937248, 225, 17, 288, 144
-0.937722, 137, 1, 200, 128
-0.938746, 161, 49, 224, 176
-0.939359, 137, 49, 200, 176
-0.939411, 113, 97, 240, 224
-0.939866, 249, 1, 312, 128
-0.941267, 209, 65, 272, 192
-0.943296, 321, 129, 448, 375
-0.944274, 65, 65, 192, 192
-0.944338, 185, 1, 248, 128
-0.945042, 225, 1, 480, 128
-0.946371, 17, 65, 144, 192
-0.947041, 1, 97, 128, 352
-0.948021, 161, 113, 416, 240
-0.948243, 225, 49, 352, 176
-0.949087, 273, 1, 336, 128
-0.949315, 81, 17, 208, 144
-0.949754, 97, 33, 160, 160
-0.950171, 241, 97, 368, 224
-0.950221, 169, 97, 232, 224
-0.951317, 297, 1, 360, 128
-0.951592, 209, 129, 272, 256
-0.951642, 273, 129, 400, 375
-0.951984, 137, 81, 200, 144
-0.952312, 185, 89, 248, 152
-0.952458, 273, 65, 336, 192
-0.953247, 305, 17, 432, 144
-0.954165, 209, 33, 272, 96
-0.955081, 1, 17, 128, 144
-0.95557, 113, 81, 176, 208
-0.955873, 185, 65, 248, 128
-0.956053, 73, 65, 136, 192
-0.956559, 257, 97, 500, 224
-0.956708, 161, 1, 224, 128
-0.958153, 225, 193, 288, 256
-0.959902, 289, 65, 352, 128
-0.960035, 249, 17, 312, 80
-0.960123, 137, 97, 200, 224
-0.960202, 161, 97, 288, 224
-0.960205, 249, 97, 312, 224
-0.960226, 65, 17, 128, 144
-0.960416, 209, 57, 272, 120
-0.960492, 289, 1, 352, 64
-0.960622, 249, 49, 312, 176
-0.960891, 185, 33, 248, 96
-0.961429, 49, 193, 176, 320
-0.961445, 289, 25, 352, 88
-0.96165, 1, 241, 500, 368
-0.961698, 113, 225, 176, 352
-0.961742, 225, 161, 480, 288
-0.962039, 97, 225, 224, 352
-0.962099, 217, 177, 280, 304
-0.962124, 145, 57, 208, 120
-0.962427, 97, 57, 160, 120
-0.963057, 289, 65, 416, 192
-0.96306, 321, 1, 384, 128
-0.963184, 25, 65, 88, 192
-0.963224, 225, 9, 288, 72
-0.96381, 49, 113, 176, 240
-0.964212, 265, 49, 328, 112
-0.96449, 137, 105, 200, 168
-0.964654, 169, 113, 232, 176
-0.965097, 113, 89, 176, 152
-0.965487, 129, 145, 256, 272
-0.965551, 209, 97, 272, 160
-0.965563, 297, 65, 360, 192
-0.965829, 9, 17, 72, 144
-0.966181, 369, 49, 496, 176
-0.966574, 225, 137, 288, 200
-0.966778, 49, 65, 112, 192
-0.966893, 113, 297, 176, 360
-0.967053, 209, 33, 240, 96
-0.967131, 97, 129, 160, 256
-0.967177, 81, 241, 144, 368
-0.967696, 25, 73, 88, 136
-0.968102, 201, 201, 264, 264
-0.96818, 225, 33, 256, 96
-0.968385, 49, 57, 112, 120
-0.968713, 113, 273, 176, 336
-0.968801, 129, 113, 256, 176
-0.968823, 121, 129, 184, 192
-0.968888, 193, 33, 320, 96
-0.969043, 313, 41, 376, 104
-0.969529, 137, 33, 200, 96
-0.969816, 225, 33, 288, 288
-0.970092, 417, 121, 480, 184
-0.970098, 205, 65, 236, 192
-0.970134, 49, 241, 176, 368
-0.970493, 233, 41, 296, 104
-0.970528, 113, 33, 176, 96
-0.970614, 169, 9, 232, 72
-0.970717, 1, 81, 64, 144
-0.970735, 425, 49, 488, 176
-0.970762, 137, 89, 168, 152
-0.97087, 137, 225, 200, 352
-0.971126, 253, 17, 284, 144
-0.971269, 209, 193, 336, 320
-0.971316, 97, 113, 160, 176
-0.971408, 369, 97, 496, 224
-0.971498, 265, 1, 328, 256
-0.971505, 321, 49, 384, 176
-0.971688, 425, 65, 488, 128
-0.971692, 221, 49, 252, 176
-0.971776, 241, 145, 368, 272
-0.971817, 41, 17, 104, 144
-0.971953, 97, 177, 160, 304
-0.972522, 185, 1, 248, 256
-0.972528, 321, 65, 384, 128
-0.972646, 161, 209, 416, 336
-0.972695, 129, 89, 256, 152
-0.972781, 89, 81, 152, 144
-0.972813, 201, 161, 264, 224
-0.972994, 181, 49, 212, 176
-0.973079, 401, 49, 464, 112
-0.973149, 145, 57, 272, 120
-0.973314, 209, 17, 240, 144
-0.973409, 81, 73, 208, 136
-0.973412, 257, 97, 320, 160
-0.973542, 89, 313, 152, 375
-0.97363, 121, 145, 184, 272
-0.973676, 253, 193, 284, 256
-0.973701, 145, 17, 272, 80
-0.973813, 265, 73, 328, 136
-0.97398, 225, 9, 352, 72
-0.974037, 321, 17, 384, 80
-0.974102, 65, 81, 128, 144
-0.974226, 313, 89, 376, 152
-0.974367, 49, 97, 176, 160
-0.974897, 289, 89, 352, 152
-0.975024, 173, 1, 204, 128
-0.975181, 433, 65, 496, 320
-0.975276, 73, 41, 136, 104
-0.975404, 153, 1, 184, 128
-0.97549, 97, 233, 160, 296
-0.975515, 241, 193, 304, 320
-0.975573, 193, 49, 224, 176
-0.975742, 221, 57, 252, 120
-0.975743, 177, 145, 304, 272
-0.975906, 169, 49, 200, 176
-0.975962, 401, 33, 464, 160
-0.975977, 209, 57, 240, 120
-0.975984, 173, 97, 204, 160
-0.976057, 161, 193, 288, 320
-0.976101, 89, 289, 152, 352
-0.976136, 121, 225, 184, 288
-0.976151, 193, 1, 256, 64
-0.976199, 377, 137, 440, 200
-0.976282, 185, 1, 216, 128
-0.976326, 241, 17, 272, 144
-0.976327, 265, 1, 296, 128
-0.976474, 241, 33, 368, 96
-0.976525, 313, 73, 344, 136
-0.976575, 9, 33, 72, 96
-0.976678, 277, 1, 308, 64
-0.976688, 161, 89, 224, 152
-0.976699, 301, 1, 332, 128
-0.976704, 285, 17, 316, 144
-0.976716, 209, 97, 240, 160
-0.976718, 265, 129, 328, 192
-0.976723, 145, 1, 208, 64
-0.976732, 73, 113, 136, 240
-0.976818, 149, 81, 180, 144
-0.976819, 97, 1, 160, 256
-0.976862, 201, 121, 264, 184
-0.97694, 1, 81, 128, 144
-0.976956, 65, 1, 128, 256
-0.977064, 145, 65, 176, 192
-0.977278, 225, 57, 352, 120
-0.97745, 377, 113, 440, 176
-0.977481, 353, 33, 416, 160
-0.977518, 369, 161, 496, 288
-0.977537, 217, 129, 248, 256
-0.977682, 137, 265, 200, 328
-0.977705, 265, 1, 296, 64
-0.97779, 81, 41, 208, 104
-0.977833, 433, 89, 496, 152
-0.977883, 225, 161, 288, 224
-0.977893, 257, 97, 384, 160
-0.978044, 253, 33, 284, 96
-0.978044, 305, 113, 432, 240
-0.978066, 241, 185, 272, 248
-0.978106, 321, 129, 384, 192
-0.978155, 137, 1, 200, 256
-0.978279, 297, 113, 360, 176
-0.978279, 353, 113, 416, 176
-0.978315, 409, 89, 472, 152
-0.978346, 229, 1, 260, 128
-0.978379, 125, 97, 156, 160
-0.978584, 237, 33, 268, 96
-0.978594, 253, 9, 284, 72
-0.978597, 197, 97, 228, 160
-0.978639, 197, 57, 228, 120
-0.978723, 141, 113, 172, 176
-0.978946, 241, 1, 304, 375
-0.979065, 433, 97, 496, 224
-0.979067, 305, 81, 432, 144
-0.979097, 89, 265, 152, 328
-0.979159, 241, 129, 272, 256
-0.979174, 329, 1, 360, 128
-0.979184, 33, 113, 96, 240
-0.979212, 197, 1, 228, 128
-0.979219, 277, 25, 308, 88
-0.979221, 185, 97, 216, 160
-0.979346, 145, 129, 208, 192
-0.979368, 125, 81, 156, 208
-0.979398, 221, 193, 252, 256
-0.979419, 289, 49, 416, 112
-0.97945, 177, 105, 304, 168
-0.979553, 97, 209, 160, 272
-0.979611, 125, 209, 156, 336
-0.979677, 97, 145, 160, 208
-0.979684, 309, 41, 340, 104
-0.97969, 161, 1, 224, 256
-0.979773, 229, 9, 260, 72
-0.979815, 129, 129, 160, 192
-0.979858, 1, 57, 64, 120
-0.979915, 217, 129, 248, 192
-0.979939, 125, 313, 156, 375
-0.97997, 1, 113, 128, 240
-0.980055, 469, 105, 500, 168
-0.98006, 129, 129, 160, 256
-0.980105, 161, 89, 192, 152
-0.980109, 101, 33, 132, 160
-0.980119, 273, 9, 400, 72
-0.980232, 113, 9, 176, 72
-0.98031, 197, 33, 228, 96
-0.980353, 73, 193, 136, 320
-0.980381, 133, 33, 164, 160
-0.980428, 361, 65, 424, 128
-0.980489, 361, 89, 424, 152
-0.980559, 289, 1, 320, 64
-0.980604, 369, 73, 496, 136
-0.980637, 185, 145, 248, 272
-0.980687, 113, 65, 144, 192
-0.980709, 233, 217, 296, 280
-0.980739, 217, 9, 248, 72
-0.980747, 329, 97, 392, 224
-0.980808, 409, 161, 472, 288
-0.980833, 265, 145, 328, 272
-0.980854, 25, 33, 56, 160
-0.98091, 209, 81, 336, 144
-0.981011, 97, 17, 224, 80
-0.981039, 33, 33, 96, 96
-0.981069, 301, 73, 332, 136
-0.98112, 369, 129, 496, 192
-0.981369, 265, 97, 328, 352
-0.981374, 17, 233, 144, 296
-0.981382, 241, 129, 368, 192
-0.981435, 305, 33, 368, 288
-0.981451, 385, 97, 448, 224
-0.981454, 265, 33, 296, 96
-0.981631, 309, 65, 340, 192
-0.981728, 249, 177, 280, 304
-0.981771, 233, 81, 296, 144
-0.981808, 289, 25, 320, 88
-0.981809, 257, 161, 320, 224
-0.981856, 73, 241, 136, 304
-0.981965, 377, 33, 440, 160
-0.981986, 137, 41, 168, 104
-0.982025, 161, 33, 224, 96
-0.982104, 121, 153, 184, 216
-0.98212, 265, 49, 296, 176
-0.982124, 49, 209, 176, 272
-0.982175, 9, 1, 72, 256
-0.982239, 409, 33, 472, 288
-0.982394, 157, 49, 188, 176
-0.982426, 205, 121, 236, 184
-0.982486, 125, 281, 156, 344
-0.98251, 229, 145, 260, 272
-0.982523, 129, 137, 256, 200
-0.982533, 33, 57, 160, 120
-0.982535, 313, 1, 344, 128
-0.982592, 97, 265, 224, 328
-0.982608, 289, 153, 352, 216
-0.98262, 181, 57, 212, 120
-0.982678, 1, 65, 64, 192
-0.982712, 297, 65, 328, 192
-0.98279, 337, 49, 464, 112
-0.982851, 453, 49, 484, 112
-0.982853, 433, 161, 496, 288
-0.982879, 241, 145, 304, 272
-0.982995, 185, 97, 248, 352
-0.983112, 469, 65, 500, 192
-0.983138, 385, 89, 448, 152
-0.98317, 137, 289, 200, 352
-0.983172, 249, 65, 280, 192
-0.983204, 193, 153, 320, 216
-0.983213, 337, 89, 400, 152
-0.983229, 337, 153, 400, 216
-0.983351, 377, 33, 440, 288
-0.983364, 137, 65, 168, 128
-0.983364, 321, 49, 352, 176
-0.983415, 129, 169, 256, 232
-0.98343, 237, 209, 268, 272
-0.983513, 149, 49, 180, 112
-0.98359, 81, 169, 144, 232
-0.983618, 265, 97, 296, 224
-0.983642, 369, 41, 432, 104
-0.983689, 181, 97, 212, 224
-0.983725, 469, 49, 500, 112
-0.983732, 249, 137, 280, 200
-0.983772, 1, 177, 128, 304
-0.983777, 325, 89, 356, 152
-0.983822, 321, 113, 448, 176
-0.983851, 41, 1, 104, 256
-0.983878, 189, 9, 220, 72
-0.983946, 57, 65, 88, 192
-0.984008, 85, 65, 116, 192
-0.984031, 125, 225, 156, 288
-0.984073, 125, 57, 156, 120
-0.984172, 121, 201, 184, 264
-0.984194, 241, 153, 368, 216
-0.98421, 129, 193, 256, 256
-0.984256, 81, 81, 112, 144
-0.984304, 97, 97, 160, 352
-0.984328, 233, 113, 296, 176
-0.984341, 1, 33, 128, 96
-0.98437, 185, 1, 248, 375
-0.984426, 153, 121, 184, 184
-0.984446, 49, 265, 176, 328
-0.984518, 313, 153, 376, 216
-0.984521, 193, 209, 256, 336
-0.984548, 9, 73, 40, 136
-0.984595, 201, 113, 232, 240
-0.984632, 49, 169, 176, 232
-0.984649, 425, 41, 488, 104
-0.984709, 73, 17, 136, 80
-0.984731, 229, 97, 260, 224
-0.984736, 257, 241, 500, 368
-0.984765, 49, 233, 112, 296
-0.984805, 285, 65, 316, 192
-0.984809, 97, 233, 224, 296
-0.984817, 253, 129, 284, 256
-0.984869, 361, 113, 424, 240
-0.984898, 125, 257, 156, 320
-0.9849, 445, 121, 476, 184
-0.984938, 129, 1, 192, 375
-0.98495, 1, 33, 32, 160
-0.984964, 229, 121, 260, 184
-0.984969, 17, 233, 80, 296
-0.984989, 237, 153, 268, 216
-0.984991, 293, 49, 324, 112
-0.985036, 221, 89, 252, 152
-0.985115, 265, 1, 328, 375
-0.985136, 101, 73, 132, 136
-0.985226, 297, 113, 360, 240
-0.985244, 321, 49, 352, 112
-0.985276, 81, 121, 208, 184
-0.985306, 129, 153, 160, 216
-0.985347, 329, 9, 360, 72
-0.985368, 249, 193, 312, 256
-0.985469, 73, 33, 104, 160
-0.985603, 321, 137, 448, 200
-0.985625, 413, 113, 444, 176
-0.985636, 49, 305, 176, 368
-0.985735, 233, 57, 264, 120
-0.985799, 129, 201, 160, 264
-0.985803, 161, 49, 192, 112
-0.985822, 409, 153, 472, 216
-0.985822, 137, 313, 200, 375
-0.985848, 465, 73, 496, 136
-0.985925, 193, 129, 320, 192
-0.985948, 13, 33, 44, 160
-0.986013, 97, 49, 128, 112
-0.986057, 141, 193, 172, 320
-0.986098, 425, 49, 456, 112
-0.986132, 97, 313, 224, 375
-0.986162, 141, 137, 172, 200
-0.986172, 17, 41, 48, 104
-0.986239, 437, 49, 468, 112
-0.986307, 425, 121, 456, 184
-0.986372, 209, 1, 272, 375
-0.986512, 177, 161, 240, 224
-0.986528, 205, 1, 236, 64
-0.986629, 321, 25, 448, 88
-0.986687, 97, 289, 224, 352
-0.98671, 161, 1, 224, 375
-0.986722, 225, 129, 288, 375
-0.986732, 57, 209, 120, 272
-0.986745, 165, 97, 196, 224
-0.986749, 49, 209, 112, 336
-0.986802, 217, 153, 248, 216
-0.986815, 401, 137, 432, 200
-0.986854, 109, 113, 140, 240
-0.986903, 453, 73, 484, 136
-0.986917, 209, 225, 272, 288
-0.986922, 109, 33, 140, 96
-0.986952, 121, 129, 184, 375
-0.986998, 425, 1, 488, 375
-0.987004, 41, 9, 104, 72
-0.987152, 281, 49, 312, 112
-0.987202, 253, 169, 284, 232
-0.987248, 353, 1, 416, 375
-0.98726, 57, 169, 120, 232
-0.987284, 241, 241, 368, 368
-0.987291, 369, 97, 496, 160
-0.98733, 121, 57, 184, 120
-0.987355, 401, 113, 432, 176
-0.98736, 113, 105, 144, 168
-0.987364, 361, 81, 392, 144
-0.987452, 177, 193, 304, 256
-0.987487, 9, 81, 40, 208
-0.987518, 49, 17, 80, 144
-0.987565, 385, 1, 448, 375
-0.987589, 265, 113, 296, 176
-0.987655, 45, 65, 76, 192
-0.987702, 469, 129, 500, 192
-0.987719, 313, 17, 344, 80
-0.987748, 301, 17, 332, 80
-0.987759, 265, 153, 296, 216
-0.987776, 345, 41, 408, 104
-0.987807, 341, 89, 372, 152
-0.98784, 321, 161, 448, 288
-0.987843, 285, 73, 316, 136
-0.987865, 97, 57, 352, 120
-0.987867, 457, 121, 488, 184
-0.987882, 69, 81, 100, 144
-0.987885, 1, 209, 64, 272
-0.987963, 345, 33, 408, 288
-0.987979, 341, 113, 372, 176
-0.988029, 405, 49, 436, 112
-0.988105, 49, 145, 176, 208
-0.988131, 369, 153, 496, 216
-0.988172, 225, 185, 352, 248
-0.988184, 113, 57, 144, 120
-0.988207, 369, 161, 432, 288
-0.988215, 369, 1, 496, 128
-0.988244, 241, 9, 272, 72
-0.988245, 109, 233, 140, 296
-0.98826, 469, 113, 500, 240
-0.988286, 297, 1, 360, 375
-0.988297, 185, 105, 248, 136
-0.988357, 433, 153, 496, 216
-0.98842, 29, 33, 60, 96
-0.988456, 89, 17, 120, 144
-0.988511, 81, 1, 144, 375
-0.988534, 433, 193, 496, 256
-0.988539, 1, 225, 128, 352
-0.988611, 193, 121, 224, 184
-0.988687, 105, 241, 136, 368
-0.988714, 401, 89, 432, 152
-0.988764, 249, 113, 280, 176
-0.988764, 321, 113, 352, 176
-0.988785, 321, 241, 448, 368
-0.988799, 121, 17, 152, 144
-0.988848, 141, 233, 172, 296
-0.988875, 37, 17, 68, 144
-0.988903, 341, 1, 372, 128
-0.988908, 137, 313, 168, 375
-0.988941, 193, 217, 320, 280
-0.988958, 69, 81, 100, 208
-0.98905, 385, 161, 448, 224
-0.989078, 361, 161, 424, 224
-0.989096, 265, 57, 296, 120
-0.989212, 329, 1, 392, 375
-0.989224, 33, 97, 96, 160
-0.989234, 25, 1, 88, 375
-0.989237, 301, 129, 332, 192
-0.989242, 141, 145, 172, 272
-0.989272, 129, 93, 192, 124
-0.989286, 333, 41, 364, 104
-0.989291, 45, 65, 76, 128
-0.989295, 225, 61, 288, 92
-0.989298, 225, 49, 288, 80
-0.989339, 169, 117, 232, 148
-0.989376, 1, 201, 128, 264
-0.989408, 209, 29, 272, 60
-0.98941, 1, 97, 32, 160
-0.989414, 73, 105, 136, 168
-0.989417, 381, 65, 412, 128
-0.98943, 177, 17, 208, 80
-0.989433, 97, 81, 128, 208
-0.989437, 149, 25, 180, 88
-0.989444, 389, 113, 420, 176
-0.989475, 421, 81, 452, 144
-0.989551, 109, 161, 140, 288
-0.989571, 137, 265, 168, 328
-0.989612, 305, 105, 336, 168
-0.989627, 453, 49, 484, 176
-0.989639, 433, 209, 496, 336
-0.989649, 21, 81, 52, 144
-0.989662, 77, 57, 108, 120
-0.989737, 137, 125, 200, 156
-0.989776, 249, 45, 312, 76
-0.989784, 57, 57, 88, 120
-0.989801, 97, 77, 160, 108
-0.989808, 125, 33, 156, 96
-0.98981, 73, 97, 136, 352
-0.989812, 413, 137, 444, 200
-0.989821, 289, 81, 352, 112
-0.989832, 185, 93, 248, 124
-0.989889, 249, 57, 312, 88
-0.989894, 61, 17, 92, 144
-0.989906, 129, 105, 192, 136
-0.989959, 409, 193, 472, 256
-0.990036, 289, 53, 352, 84
-0.990072, 1, 81, 256, 144
-0.990073, 225, 129, 288, 160
-0.990074, 49, 1, 112, 375
-0.99012, 425, 73, 488, 104
-0.990122, 161, 105, 224, 136
-0.990123, 225, 149, 288, 180
-0.990185, 1, 105, 64, 168
-0.990189, 201, 157, 264, 188
-0.990228, 177, 137, 240, 200
-0.990228, 265, 1, 328, 32
-0.990262, 9, 113, 72, 240
-0.990265, 361, 113, 392, 176
-0.990279, 137, 241, 168, 368
-0.990296, 201, 117, 264, 148
-0.9903, 165, 121, 196, 184
-0.990325, 113, 301, 176, 332
-0.990331, 109, 265, 140, 328
-0.990353, 217, 225, 280, 352
-0.990357, 129, 81, 192, 112
-0.990391, 369, 49, 400, 112
-0.990409, 209, 105, 272, 136
-0.990426, 273, 93, 336, 124
-0.990429, 273, 69, 336, 100
-0.990446, 129, 57, 192, 88
-0.990455, 185, 57, 248, 88
-0.99046, 225, 209, 288, 240
-0.990479, 281, 25, 344, 56
-0.990479, 177, 241, 304, 368
-0.99052, 57, 89, 120, 120
-0.990523, 185, 41, 248, 72
-0.990544, 205, 153, 236, 216
-0.990557, 117, 129, 148, 192
-0.990577, 57, 113, 88, 240
-0.990607, 97, 289, 160, 320
-0.990624, 113, 41, 176, 72
-0.990631, 97, 89, 160, 120
-0.990656, 225, 193, 288, 224
-0.990658, 121, 229, 184, 260
-0.990662, 49, 73, 112, 104
-0.990676, 113, 273, 176, 304
-0.990696, 289, 161, 416, 224
-0.990697, 169, 81, 232, 112
-0.990711, 369, 209, 496, 336
-0.990722, 113, 317, 176, 348
-0.990724, 369, 177, 496, 240
-0.990767, 393, 65, 424, 128
-0.99077, 93, 25, 124, 88
-0.990775, 121, 157, 184, 188
-0.990779, 261, 177, 292, 304
-0.990799, 113, 337, 176, 368
-0.990807, 313, 101, 376, 132
-0.990814, 217, 177, 248, 304
-0.990826, 401, 73, 464, 104
-0.9909, 121, 137, 184, 168
-0.990901, 25, 73, 88, 104
-0.990902, 417, 125, 480, 156
-0.99091, 9, 89, 72, 120
-0.99092, 33, 201, 96, 264
-0.990924, 233, 25, 296, 56
-0.990928, 305, 13, 368, 44
-0.990952, 137, 177, 200, 240
-0.990964, 257, 113, 320, 144
-0.990976, 161, 25, 416, 88
-0.991, 129, 105, 384, 168
-0.991002, 337, 241, 400, 368
-0.991019, 401, 33, 432, 160
-0.991031, 177, 185, 240, 248
-0.991032, 65, 129, 320, 192
-0.991065, 97, 65, 160, 96
-0.991069, 185, 29, 248, 60
-0.991071, 201, 193, 264, 224
-0.991095, 73, 77, 136, 108
-0.991124, 113, 121, 176, 152
-0.991158, 1, 101, 64, 132
-0.991177, 209, 73, 272, 104
-0.991189, 89, 341, 152, 372
-0.991196, 393, 129, 456, 375
-0.991199, 369, 201, 496, 264
-0.991233, 121, 289, 184, 320
-0.991235, 89, 313, 152, 344
-0.991255, 313, 89, 376, 120
-0.991261, 1, 81, 500, 144
-0.991264, 201, 209, 264, 240
-0.991275, 345, 105, 408, 136
-0.991302, 153, 45, 216, 76
-0.991303, 17, 121, 144, 184
-0.991314, 225, 117, 288, 148
-0.991326, 177, 157, 240, 188
-0.991345, 209, 93, 272, 124
-0.991351, 289, 1, 352, 32
-0.991376, 281, 13, 344, 44
-0.991376, 321, 97, 352, 224
-0.991378, 153, 93, 216, 124
-0.991409, 1, 1, 64, 375
-0.991415, 89, 329, 152, 360
-0.991422, 377, 73, 440, 104
-0.991428, 401, 157, 464, 188
-0.991437, 193, 141, 256, 172
-0.99144, 105, 53, 168, 84
-0.991442, 185, 17, 248, 48
-0.991444, 153, 29, 216, 60
-0.991465, 105, 1, 168, 375
-0.991475, 169, 69, 232, 100
-0.991476, 49, 17, 112, 48
-0.991482, 97, 225, 160, 256
-0.991491, 313, 69, 376, 100
-0.991494, 105, 109, 168, 140
-0.991506, 281, 37, 344, 68
-0.991515, 297, 241, 360, 368
-0.99152, 289, 109, 352, 140
-0.991524, 329, 13, 392, 44
-0.99154, 225, 9, 288, 40
-0.991548, 289, 273, 352, 336
-0.991553, 345, 125, 408, 156
-0.99156, 145, 69, 208, 100
-0.991569, 377, 125, 440, 156
-0.991589, 369, 241, 432, 368
-0.991596, 85, 113, 116, 240
-0.991608, 33, 89, 96, 120
-0.991614, 249, 77, 312, 108
-0.991625, 305, 25, 368, 56
-0.991679, 73, 41, 136, 72
-0.991688, 89, 301, 152, 332
-0.991689, 57, 61, 120, 92
-0.991749, 237, 193, 268, 320
-0.991756, 257, 13, 320, 44
-0.99176, 137, 269, 200, 300
-0.991764, 33, 81, 64, 208
-0.991765, 33, 105, 96, 136
-0.991773, 97, 157, 160, 188
-0.991779, 57, 105, 120, 136
-0.991786, 97, 261, 160, 292
-0.991801, 225, 161, 288, 192
-0.991813, 89, 277, 152, 308
-0.991814, 25, 33, 88, 64
-0.991815, 33, 33, 288, 96
-0.991816, 161, 17, 224, 48
-0.991851, 97, 145, 160, 176
-0.991863, 389, 97, 420, 224
-0.991927, 129, 81, 384, 144
-0.991951, 193, 5, 256, 36
-0.991959, 9, 61, 72, 92
-0.99197, 153, 57, 216, 88
-0.991986, 1, 77, 64, 108
-0.991997, 345, 73, 408, 104
-0.991999, 369, 113, 432, 144
-0.992014, 249, 125, 312, 156
-0.992023, 81, 117, 144, 148
-0.992024, 121, 169, 184, 200
-0.992031, 433, 57, 496, 88
-0.992036, 353, 157, 416, 188
-0.992045, 113, 29, 176, 60
-0.99206, 257, 25, 320, 56
-0.992061, 425, 137, 488, 168
-0.992074, 289, 161, 352, 192
-0.992083, 121, 217, 184, 248
-0.992134, 365, 33, 396, 160
-0.992135, 209, 101, 240, 132
-0.992137, 265, 161, 328, 192
-0.992148, 313, 113, 376, 144
-0.992152, 137, 301, 200, 332
-0.992154, 409, 97, 472, 224
-0.992162, 385, 85, 448, 116
-0.992171, 249, 149, 312, 180
-0.992179, 225, 29, 256, 60
-0.99218, 209, 29, 240, 60
-0.992184, 329, 45, 392, 76
-0.99223, 253, 29, 284, 60
-0.99228, 129, 1, 384, 64
-0.992294, 321, 145, 384, 272
-0.992335, 193, 105, 224, 136
-0.992373, 453, 129, 484, 256
-0.992391, 181, 105, 212, 136
-0.992395, 345, 9, 408, 72
-0.992413, 165, 113, 196, 144
-0.992435, 241, 29, 272, 60
-0.992435, 137, 89, 168, 120
-0.992439, 225, 41, 256, 72
-0.992502, 1, 9, 128, 72
-0.992519, 253, 41, 284, 72
-0.992528, 137, 121, 168, 152
-0.992537, 257, 113, 500, 176
-0.992539, 237, 189, 268, 220
-0.99255, 221, 57, 252, 88
-0.992551, 345, 161, 408, 288
-0.992555, 221, 193, 252, 224
-0.992556, 209, 117, 240, 148
-0.992563, 269, 33, 300, 64
-0.99259, 153, 117, 184, 148
-0.992593, 461, 69, 492, 100
-0.992619, 209, 41, 240, 72
-0.99262, 345, 97, 376, 224
-0.992625, 25, 225, 88, 352
-0.99263, 129, 225, 160, 256
-0.992645, 21, 81, 52, 208
-0.992671, 149, 85, 180, 116
-0.992677, 241, 41, 272, 72
-0.992678, 227, 25, 242, 88
-0.992678, 65, 153, 320, 216
-0.99268, 209, 89, 240, 120
-0.992682, 265, 45, 296, 76
-0.99269, 209, 57, 240, 88
-0.992692, 217, 141, 248, 172
-0.992706, 257, 61, 288, 92
-0.992707, 145, 57, 176, 88
-0.992707, 161, 109, 288, 140
-0.992709, 333, 13, 364, 44
-0.992724, 125, 293, 156, 324
-0.992752, 141, 133, 172, 164
-0.992753, 125, 317, 156, 348
-0.992756, 129, 149, 160, 180
-0.992757, 217, 157, 248, 188
-0.992767, 125, 281, 156, 312
-0.992768, 465, 121, 496, 152
-0.992769, 273, 57, 304, 88
-0.992778, 45, 113, 76, 240
-0.992778, 209, 73, 240, 104
-0.992786, 125, 89, 156, 120
-0.992797, 313, 81, 344, 112
-0.992801, 145, 217, 272, 280
-0.992807, 129, 137, 160, 168
-0.992808, 205, 153, 236, 184
-0.99281, 137, 77, 168, 108
-0.992813, 385, 33, 416, 160
-0.992822, 121, 345, 152, 375
-0.99283, 241, 61, 272, 92
-0.992835, 65, 185, 320, 248
-0.992839, 229, 157, 260, 188
-0.992839, 197, 117, 228, 148
-0.992862, 433, 77, 464, 108
-0.992871, 445, 77, 476, 108
-0.992878, 177, 117, 208, 148
-0.992879, 265, 21, 296, 52
-0.992885, 169, 101, 200, 132
-0.992889, 125, 333, 156, 364
-0.992899, 1, 109, 32, 140
-0.992902, 77, 81, 108, 112
-0.99291, 125, 305, 156, 336
-0.992911, 249, 193, 280, 224
-0.992914, 221, 125, 252, 156
-0.992914, 225, 113, 256, 144
-0.992916, 269, 1, 300, 32
-0.992916, 313, 21, 344, 52
-0.992922, 129, 49, 160, 80
-0.992928, 129, 161, 160, 192
-0.992933, 409, 73, 440, 104
-0.992938, 233, 17, 264, 48
-0.992953, 77, 93, 108, 124
-0.992957, 189, 17, 220, 48
-0.992968, 421, 73, 452, 104
-0.992971, 281, 69, 312, 100
-0.992972, 153, 113, 184, 240
-0.992976, 205, 141, 236, 172
-0.992977, 141, 233, 172, 264
-0.992982, 197, 45, 228, 76
-0.992985, 233, 209, 264, 240
-0.992989, 193, 29, 320, 60
-0.992994, 13, 101, 44, 132
-0.992998, 13, 89, 44, 120
-0.993002, 253, 209, 284, 240
-0.993007, 221, 209, 252, 240
-0.993011, 149, 41, 180, 72
-0.993012, 265, 209, 328, 336
-0.993016, 217, 17, 248, 48
-0.993018, 113, 53, 144, 84
-0.993019, 365, 109, 396, 140
-0.99302, 265, 109, 296, 140
-0.993021, 125, 269, 156, 300
-0.993025, 133, 109, 164, 140
-0.993027, 277, 45, 308, 76
-0.993033, 441, 65, 472, 96
-0.993033, 445, 125, 476, 156
-0.993034, 101, 49, 132, 80
-0.993043, 149, 73, 180, 104
-0.993044, 97, 73, 128, 104
-0.993046, 153, 105, 184, 136
-0.993049, 393, 73, 424, 104
-0.99305, 289, 25, 320, 56
-0.993052, 253, 17, 284, 48
-0.993053, 53, 69, 84, 100
-0.993055, 257, 49, 500, 112
-0.993055, 325, 101, 356, 132
-0.993057, 1, 97, 32, 128
-0.993059, 249, 149, 280, 180
-0.99306, 125, 257, 156, 288
-0.993063, 165, 125, 196, 156
-0.993063, 313, 49, 344, 80
-0.993064, 137, 301, 168, 332
-0.993067, 253, 121, 284, 152
-0.993067, 361, 125, 392, 156
-0.993068, 65, 17, 96, 48
-0.993081, 341, 113, 372, 144
-0.993084, 265, 121, 296, 152
-0.993088, 297, 1, 328, 32
-0.99309, 197, 89, 228, 120
-0.99309, 221, 81, 252, 112
-0.993092, 353, 105, 384, 136
-0.993094, 57, 265, 120, 328
-0.993095, 49, 9, 176, 72
-0.993097, 313, 69, 344, 100
-0.993108, 377, 113, 408, 144
-0.993112, 157, 57, 188, 88
-0.993115, 169, 89, 200, 120
-0.993119, 385, 125, 416, 156
-0.993121, 293, 77, 324, 108
-0.993126, 221, 93, 252, 124
-0.993129, 209, 129, 240, 160
-0.993132, 121, 105, 152, 136
-0.993136, 113, 101, 240, 132
-0.993137, 245, 137, 276, 168
-0.993141, 185, 265, 248, 328
-0.993141, 141, 221, 172, 252
-0.993143, 113, 65, 144, 96
-0.993143, 229, 137, 260, 168
-0.993143, 125, 213, 156, 244
-0.993145, 293, 65, 324, 96
-0.993146, 145, 157, 176, 188
-0.993153, 465, 57, 496, 88
-0.99316, 253, 1, 284, 32
-0.993161, 257, 81, 500, 144
-0.993185, 1, 49, 500, 112
-0.99321, 129, 121, 256, 152
-0.993234, 25, 177, 88, 304
-0.993362, 141, 89, 156, 152
-0.993426, 225, 57, 240, 120
-0.993536, 333, 49, 364, 176
-0.993538, 273, 145, 304, 272
-0.993592, 219, 57, 234, 120
-0.9936, 413, 33, 444, 160
-0.993704, 65, 225, 320, 288
-0.993763, 321, 257, 448, 320
-0.993787, 185, 225, 248, 288
-0.993802, 219, 81, 234, 144
-0.993815, 321, 1, 448, 64
-0.993854, 73, 177, 104, 304
-0.993855, 321, 257, 384, 320
-0.993889, 193, 153, 448, 216
-0.993907, 289, 129, 352, 375
-0.993919, 33, 177, 96, 240
-0.993927, 243, 193, 258, 256
-0.993954, 225, 49, 352, 80
-0.994078, 65, 265, 320, 328
-0.994091, 215, 25, 230, 88
-0.994098, 135, 129, 150, 192
-0.994109, 235, 33, 250, 96
-0.994197, 333, 97, 364, 224
-0.994231, 393, 25, 456, 88
-0.994235, 49, 161, 112, 288
-0.994277, 193, 265, 320, 328
-0.994281, 441, 33, 472, 160
-0.994294, 145, 45, 272, 76
-0.994314, 221, 33, 236, 96
-0.994315, 377, 193, 440, 256
-0.994325, 213, 97, 228, 160
-0.994368, 1, 25, 500, 88
-0.994412, 187, 97, 202, 160
-0.994416, 225, 1, 256, 256
-0.994446, 241, 25, 368, 56
-0.994448, 241, 25, 256, 88
-0.994507, 65, 73, 192, 104
-0.994525, 425, 33, 456, 160
-0.994525, 345, 49, 376, 176
-0.994554, 161, 129, 416, 192
-0.99456, 1, 57, 256, 120
-0.994568, 1, 9, 256, 72
-0.994575, 17, 273, 80, 336
-0.99459, 393, 257, 456, 320
-0.994602, 405, 81, 436, 208
-0.994637, 369, 25, 496, 88
-0.994638, 145, 29, 272, 60
-0.994642, 241, 5, 368, 36
-0.994662, 241, 265, 304, 328
-0.994674, 225, 65, 352, 96
-0.994674, 147, 89, 162, 152
-0.99468, 145, 113, 160, 176
-0.994758, 153, 97, 168, 160
-0.994763, 193, 97, 208, 160
-0.994767, 213, 57, 228, 120
-0.994779, 469, 17, 500, 144
-0.99478, 273, 257, 400, 320
-0.994784, 113, 177, 176, 240
-0.994814, 81, 113, 208, 144
-0.994815, 319, 73, 334, 136
-0.994843, 205, 57, 220, 120
-0.994884, 235, 9, 250, 72
-0.994915, 33, 105, 288, 168
-0.994923, 365, 81, 396, 208
-0.994936, 267, 9, 282, 72
-0.994939, 321, 201, 448, 264
-0.99496, 81, 89, 208, 120
-0.994966, 289, 1, 304, 64
-0.994969, 279, 1, 294, 64
-0.994977, 441, 161, 472, 288
-0.995026, 177, 57, 304, 88
-0.995042, 249, 193, 264, 256
-0.995081, 135, 105, 150, 168
-0.995104, 209, 33, 224, 96
-0.99511, 161, 89, 176, 152
-0.995112, 167, 105, 182, 168
-0.995132, 241, 209, 368, 272
-0.995177, 485, 113, 500, 176
-0.995187, 255, 33, 270, 96
-0.995193, 41, 97, 104, 352
-0.995196, 151, 49, 166, 112
-0.995211, 469, 161, 500, 288
-0.995219, 1, 225, 64, 352
-0.995234, 257, 185, 272, 248
-0.995246, 241, 37, 368, 68
-0.99525, 169, 193, 232, 320
-0.99525, 325, 73, 340, 136
-0.995258, 199, 97, 214, 160
-0.995266, 249, 33, 264, 96
-0.995281, 175, 89, 190, 152
-0.995281, 195, 57, 210, 120
-0.995289, 393, 241, 456, 368
-0.995302, 221, 113, 236, 176
-0.995305, 269, 33, 284, 96
-0.995307, 331, 73, 346, 136
-0.995319, 129, 57, 256, 88
-0.995347, 301, 1, 316, 64
-0.995348, 65, 289, 320, 352
-0.995356, 193, 193, 448, 256
-0.995393, 231, 57, 246, 120
-0.995394, 257, 105, 384, 136
-0.995396, 259, 9, 274, 72
-0.9954, 261, 33, 276, 96
-0.99541, 313, 73, 328, 136
-0.995434, 311, 41, 326, 104
-0.995471, 161, 241, 224, 368
-0.995472, 471, 65, 486, 128
-0.995474, 481, 89, 496, 152
-0.995477, 289, 281, 416, 344
-0.995479, 241, 313, 368, 375
-0.995482, 1, 73, 128, 104
-0.995493, 257, 25, 500, 88
-0.995507, 321, 73, 448, 104
-0.995514, 205, 1, 236, 256
-0.995546, 221, 137, 236, 200
-0.995551, 153, 73, 168, 136
-0.995576, 141, 65, 156, 128
-0.995579, 65, 61, 192, 92
-0.995587, 321, 49, 336, 112
-0.995588, 353, 121, 480, 152
-0.99559, 181, 89, 196, 152
-0.9956, 17, 89, 144, 120
-0.995603, 241, 121, 368, 152
-0.995615, 1, 177, 128, 240
-0.995618, 241, 1, 272, 256
-0.995625, 65, 313, 320, 375
-0.99563, 1, 113, 500, 176
-0.99563, 301, 113, 332, 240
-0.995637, 321, 305, 448, 368
-0.995641, 1, 97, 64, 352
-0.995645, 229, 1, 244, 64
-0.995686, 287, 25, 302, 88
-0.995707, 377, 129, 408, 256
-0.995722, 57, 177, 88, 304
-0.995744, 205, 97, 220, 160
-0.995798, 181, 57, 196, 120
-0.995804, 145, 17, 272, 48
-0.995833, 457, 177, 488, 304
-0.995841, 159, 113, 174, 176
-0.995842, 237, 193, 252, 256
-0.995846, 461, 49, 476, 112
-0.995855, 305, 41, 320, 104
-0.995865, 205, 177, 236, 304
-0.995868, 129, 89, 256, 120
-0.995873, 225, 81, 240, 144
-0.995897, 295, 1, 310, 64
-0.995968, 369, 265, 496, 328
-0.995973, 145, 265, 272, 328
-0.995979, 429, 161, 460, 288
-0.995997, 129, 105, 144, 168
-0.995997, 1, 265, 128, 328
-0.996003, 307, 73, 322, 136
-0.996005, 129, 73, 256, 104
-0.996006, 277, 1, 308, 256
-0.996029, 133, 73, 148, 136
-0.996055, 299, 41, 314, 104
-0.996058, 221, 201, 236, 264
-0.996068, 115, 41, 130, 104
-0.99607, 267, 201, 282, 264
-0.996074, 193, 157, 320, 188
-0.996099, 477, 65, 492, 128
-0.996101, 321, 97, 336, 160
-0.996108, 189, 57, 204, 120
-0.996112, 231, 185, 246, 248
-0.996122, 401, 161, 432, 288
-0.996122, 129, 209, 256, 240
-0.996149, 273, 73, 400, 104
-0.996149, 345, 129, 408, 375
-0.996178, 323, 25, 338, 88
-0.996179, 277, 25, 292, 88
-0.996192, 425, 121, 440, 184
-0.996201, 33, 101, 160, 132
-0.996203, 219, 1, 234, 64
-0.996207, 415, 121, 430, 184
-0.996209, 369, 69, 496, 100
-0.996237, 21, 49, 36, 112
-0.99625, 129, 161, 256, 192
-0.99625, 91, 81, 106, 144
-0.99625, 327, 97, 342, 160
-0.996259, 229, 121, 244, 184
-0.996276, 273, 53, 400, 84
-0.996278, 101, 73, 116, 136
-0.996285, 241, 241, 304, 368
-0.996289, 203, 17, 218, 80
-0.996295, 85, 193, 116, 320
-0.996299, 309, 1, 324, 64
-0.9963, 249, 153, 264, 216
-0.996305, 335, 97, 350, 160
-0.996346, 153, 225, 184, 352
-0.99635, 49, 293, 176, 324
-0.996351, 17, 81, 32, 144
-0.996371, 209, 93, 336, 124
-0.996372, 177, 121, 304, 152
-0.996375, 455, 49, 470, 112
-0.996391, 97, 269, 224, 300
-0.996391, 209, 109, 336, 140
-0.996396, 49, 173, 176, 204
-0.996411, 305, 17, 432, 48
-0.996421, 193, 9, 320, 40
-0.996424, 125, 1, 156, 256
-0.996428, 257, 193, 384, 320
-0.99643, 145, 137, 160, 200
-0.996441, 11, 81, 26, 144
-0.99645, 437, 121, 452, 184
-0.996461, 321, 85, 448, 116
-0.996463, 239, 161, 254, 224
-0.996471, 431, 121, 446, 184
-0.996477, 157, 33, 172, 96
-0.99648, 369, 289, 496, 352
-0.996512, 209, 289, 336, 352
-0.996531, 49, 221, 176, 252
-0.996545, 5, 81, 20, 144
-0.996547, 341, 89, 356, 152
-0.99655, 97, 309, 224, 340
-0.996551, 45, 177, 76, 304
-0.996552, 253, 9, 268, 72
-0.996554, 295, 73, 310, 136
-0.996557, 123, 49, 138, 112
-0.996557, 459, 129, 474, 192
-0.996561, 189, 33, 204, 96
-0.996562, 465, 73, 480, 136
-0.996574, 425, 49, 440, 112
-0.996577, 153, 9, 168, 72
-0.996585, 445, 49, 460, 112
-0.996588, 129, 305, 144, 368
-0.99659, 135, 153, 150, 216
-0.996596, 97, 29, 224, 60
-0.996603, 305, 105, 432, 136
-0.996606, 143, 33, 158, 96
-0.996608, 335, 9, 350, 72
-0.996609, 343, 113, 358, 176
-0.996619, 301, 65, 316, 128
-0.996621, 281, 57, 296, 120
-0.99663, 417, 161, 448, 288
-0.996635, 327, 49, 342, 112
-0.996639, 273, 185, 400, 248
-0.996642, 165, 17, 180, 80
-0.996642, 1, 153, 500, 216
-0.996648, 27, 73, 42, 136
-0.99665, 293, 1, 324, 256
-0.996652, 253, 1, 284, 256
-0.996654, 143, 225, 158, 288
-0.996656, 419, 49, 434, 112
-0.996657, 227, 29, 242, 60
-0.996659, 97, 233, 224, 264
-0.996662, 189, 1, 220, 256
-0.996668, 107, 33, 122, 96
-0.996672, 177, 205, 304, 236
-0.996672, 159, 57, 174, 120
-0.996712, 97, 293, 224, 324
-0.996719, 255, 153, 270, 216
-0.996719, 131, 265, 146, 328
-0.996726, 49, 273, 176, 304
-0.996735, 337, 233, 464, 296
-0.996742, 129, 149, 256, 180
-0.996751, 209, 145, 336, 176
-0.996761, 161, 289, 288, 352
-0.996771, 165, 49, 180, 112
-0.996786, 49, 305, 176, 336
-0.996797, 467, 129, 482, 192
-0.996801, 419, 81, 434, 144
-0.996803, 65, 41, 192, 72
-0.996806, 141, 305, 156, 368
-0.996811, 473, 113, 488, 176
-0.996821, 169, 81, 184, 144
-0.996824, 225, 77, 352, 108
-0.996826, 81, 129, 208, 160
-0.996836, 17, 237, 144, 268
-0.996856, 255, 29, 270, 60
-0.996864, 129, 193, 256, 224
-0.996865, 97, 281, 224, 312
-0.996865, 441, 81, 472, 208
-0.996866, 369, 109, 496, 140
-0.996897, 337, 161, 464, 192
-0.996905, 225, 1, 480, 64
-0.996913, 241, 29, 256, 60
-0.996949, 257, 93, 384, 124
-0.996975, 289, 125, 416, 156
-0.996977, 97, 329, 224, 360
-0.997002, 97, 345, 224, 375
-0.997002, 265, 1, 296, 256
-0.997003, 197, 105, 212, 136
-0.997018, 33, 113, 160, 144
-0.997032, 445, 33, 476, 288
-0.997043, 69, 129, 100, 256
-0.997061, 141, 89, 156, 120
-0.997077, 129, 129, 160, 375
-0.997079, 253, 225, 284, 352
-0.99709, 221, 97, 252, 352
-0.997103, 461, 65, 492, 320
-0.997104, 297, 161, 360, 288
-0.997111, 49, 345, 176, 375
-0.997134, 49, 317, 176, 348
-0.99714, 129, 221, 256, 252
-0.997192, 369, 85, 496, 116
-0.997193, 221, 149, 236, 180
-0.997204, 49, 333, 176, 364
-0.997206, 213, 105, 228, 136
-0.997212, 321, 45, 448, 76
-0.997218, 219, 101, 234, 132
-0.997255, 259, 41, 274, 72
-0.997264, 241, 193, 256, 224
-0.99728, 269, 29, 284, 60
-0.99728, 97, 177, 128, 304
-0.997286, 285, 113, 316, 240
-0.997289, 161, 137, 288, 168
-0.99729, 153, 121, 168, 152
-0.997292, 369, 141, 496, 172
-0.997301, 169, 117, 184, 148
-0.997309, 181, 113, 196, 144
-0.997313, 93, 1, 124, 256
-0.997315, 233, 197, 248, 228
-0.997316, 97, 17, 224, 48
-0.99733, 1, 1, 500, 64
-0.99736, 73, 1, 104, 256
-0.997377, 1, 41, 128, 72
-0.997386, 129, 173, 256, 204
-0.997408, 207, 105, 222, 136
-0.997423, 223, 69, 238, 100
-0.997428, 257, 161, 384, 192
-0.997431, 81, 157, 208, 188
-0.997444, 109, 97, 140, 352
-0.997455, 141, 33, 172, 288
-0.997472, 235, 41, 250, 72
-0.997475, 213, 29, 228, 60
-0.997477, 187, 101, 202, 132
-0.997477, 209, 97, 240, 352
-0.99749, 369, 97, 496, 128
-0.997494, 221, 85, 236, 116
-0.997497, 145, 5, 272, 36
-0.997519, 1, 145, 128, 208
-0.997531, 241, 133, 368, 164
-0.997532, 17, 53, 144, 84
-0.99754, 177, 73, 304, 104
-0.997571, 159, 121, 174, 152
-0.997571, 109, 1, 140, 256
-0.997575, 313, 1, 344, 256
-0.997576, 175, 113, 190, 144
-0.997577, 161, 97, 224, 352
-0.997583, 17, 209, 144, 240
-0.997617, 135, 137, 150, 168
-0.997635, 147, 81, 162, 112
-0.997638, 97, 257, 224, 288
-0.99764, 289, 29, 416, 60
-0.997646, 215, 85, 230, 116
-0.99766, 235, 29, 250, 60
-0.997665, 49, 185, 176, 216
-0.997665, 369, 129, 432, 375
-0.997678, 249, 41, 264, 72
-0.997682, 225, 41, 240, 72
-0.997686, 217, 225, 248, 352
-0.997688, 467, 73, 482, 104
-0.997698, 177, 225, 304, 256
-0.997701, 265, 49, 280, 80
-0.997702, 265, 61, 280, 92
-0.997713, 369, 57, 496, 88
-0.997714, 151, 57, 166, 88
-0.99772, 485, 101, 500, 132
-0.99773, 223, 57, 238, 88
-0.99773, 273, 61, 288, 92
-0.997731, 221, 117, 236, 148
-0.997731, 187, 113, 202, 144
-0.99774, 335, 13, 350, 44
-0.997749, 231, 57, 246, 88
-0.997751, 321, 61, 448, 92
-0.997751, 49, 261, 176, 292
-0.997752, 215, 73, 230, 104
-0.997754, 219, 41, 234, 72
-0.997755, 145, 125, 160, 156
-0.997756, 1, 313, 128, 375
-0.997758, 131, 97, 146, 128
-0.997787, 485, 113, 500, 144
-0.997795, 135, 125, 150, 156
-0.997797, 213, 117, 228, 148
-0.997803, 449, 77, 464, 108
-0.997803, 57, 1, 88, 256
-0.997812, 305, 97, 336, 352
-0.997813, 13, 89, 28, 120
-0.997822, 1, 289, 128, 352
-0.997828, 75, 17, 90, 48
-0.997832, 227, 157, 242, 188
-0.997841, 419, 73, 434, 104
-0.997842, 255, 53, 270, 84
-0.997845, 249, 97, 280, 352
-0.997854, 147, 93, 162, 124
-0.997872, 97, 129, 128, 256
-0.997876, 271, 49, 286, 80
-0.997884, 325, 81, 340, 112
-0.997891, 365, 145, 396, 272
-0.997907, 5, 93, 20, 124
-0.997908, 73, 225, 104, 352
-0.997914, 17, 1, 48, 256
-0.997916, 131, 109, 146, 140
-0.997932, 49, 197, 176, 228
-0.997935, 433, 1, 496, 128
-0.997936, 139, 113, 154, 144
-0.997943, 285, 49, 300, 80
-0.997945, 279, 29, 294, 60
-0.997946, 17, 125, 144, 156
-0.997948, 369, 313, 496, 375
-0.997951, 259, 17, 274, 48
-0.997955, 213, 157, 228, 188
-0.997961, 209, 193, 336, 224
-0.997966, 221, 137, 236, 168
-0.997968, 401, 73, 416, 104
-0.997979, 455, 77, 470, 108
-0.99798, 247, 197, 262, 228
-0.997989, 279, 41, 294, 72
-0.997989, 173, 1, 204, 256
-0.99799, 475, 73, 490, 104
-0.997997, 293, 97, 324, 352
-0.997999, 145, 137, 160, 168
-0.998004, 235, 17, 250, 48
-0.998006, 153, 89, 168, 120
-0.998018, 461, 73, 476, 104
-0.998019, 145, 113, 160, 144
-0.998031, 269, 17, 284, 48
-0.99804, 161, 217, 416, 280
-0.998041, 5, 109, 20, 140
-0.998043, 305, 149, 432, 180
-0.998054, 17, 25, 144, 56
-0.998063, 425, 65, 456, 320
-0.998063, 265, 97, 296, 352
-0.998064, 141, 77, 156, 108
-0.998066, 159, 109, 174, 140
-0.998069, 157, 57, 172, 88
-0.998069, 409, 85, 424, 116
-0.998072, 13, 105, 28, 136
-0.998081, 319, 77, 334, 108
-0.998084, 249, 17, 264, 48
-0.998085, 263, 29, 278, 60
-0.99809, 227, 193, 242, 224
-0.998091, 173, 97, 188, 128
-0.998104, 99, 73, 114, 104
-0.998104, 127, 57, 142, 88
-0.998107, 409, 73, 424, 104
-0.998108, 425, 73, 440, 104
-0.998109, 163, 41, 178, 72
-0.998111, 389, 161, 420, 288
-0.998122, 117, 45, 132, 76
-0.998122, 241, 209, 256, 240
-0.998123, 249, 29, 264, 60
-0.998126, 257, 193, 272, 224
-0.998138, 439, 73, 454, 104
-0.99814, 331, 89, 346, 120
-0.998147, 271, 109, 286, 140
-0.998148, 269, 1, 284, 32
-0.998149, 479, 101, 494, 132
-0.998153, 229, 125, 244, 156
-0.998155, 153, 45, 168, 76
-0.998158, 233, 157, 248, 188
-0.998163, 235, 185, 250, 216
-0.998165, 145, 225, 160, 256
-0.998165, 1, 1, 32, 256
-0.998168, 133, 77, 148, 108
-0.998169, 433, 73, 448, 104
-0.998179, 289, 29, 304, 60
-0.998182, 89, 81, 104, 112
-0.998186, 247, 209, 262, 240
-0.998188, 139, 101, 154, 132
-0.99819, 181, 101, 196, 132
-0.998192, 375, 113, 390, 144
-0.998192, 309, 241, 340, 368
-0.998198, 217, 61, 232, 92
-0.998199, 335, 101, 350, 132
-0.998208, 219, 17, 234, 48
-0.998208, 329, 1, 360, 256
-0.998211, 227, 145, 242, 176
-0.998211, 287, 61, 302, 92
-0.998215, 153, 1, 184, 256
-0.998229, 201, 25, 216, 56
-0.99823, 331, 73, 346, 104
-0.99823, 221, 29, 236, 60
-0.998234, 209, 89, 224, 120
-0.998248, 243, 41, 258, 72
-0.998251, 135, 149, 150, 180
-0.998255, 389, 1, 420, 256
-0.998257, 453, 65, 468, 96
-0.998261, 169, 57, 184, 88
-0.998269, 167, 101, 182, 132
-0.998271, 295, 69, 310, 100
-0.998273, 391, 125, 406, 156
-0.998275, 321, 137, 448, 168
-0.998276, 279, 61, 294, 92
-0.998277, 237, 97, 268, 352
-0.998334, 29, 1, 60, 256
-0.998353, 17, 157, 144, 188
-0.998356, 185, 107, 248, 122
-0.998389, 349, 105, 380, 120
-0.998391, 257, 47, 288, 62
-0.998393, 77, 85, 108, 100
-0.998395, 221, 89, 252, 104
-0.998396, 217, 199, 248, 214
-0.9984, 221, 95, 252, 110
-0.998402, 113, 59, 144, 74
-0.998403, 205, 125, 236, 140
-0.998403, 129, 145, 160, 160
-0.998404, 221, 101, 252, 116
-0.998404, 129, 227, 160, 242
-0.998405, 325, 77, 356, 92
-0.998405, 229, 131, 260, 146
-0.998406, 229, 123, 260, 138
-0.998407, 125, 267, 156, 282
-0.998408, 313, 21, 344, 36
-0.998408, 125, 103, 156, 118
-0.998409, 373, 109, 404, 124
-0.99841, 145, 165, 176, 180
-0.998411, 413, 33, 444, 288
-0.998412, 329, 25, 360, 40
-0.998412, 109, 53, 140, 68
-0.998412, 241, 155, 272, 170
-0.998413, 229, 153, 260, 168
-0.998413, 229, 107, 260, 122
-0.998414, 269, 49, 300, 64
-0.998415, 233, 25, 264, 40
-0.998415, 137, 79, 168, 94
-0.998416, 149, 235, 180, 250
-0.998417, 217, 139, 248, 154
-0.998417, 217, 149, 248, 164
-0.998419, 201, 165, 232, 180
-0.99842, 125, 281, 156, 296
-0.998421, 181, 103, 212, 118
-0.998421, 381, 79, 412, 94
-0.998422, 149, 93, 180, 108
-0.998422, 217, 205, 248, 220
-0.998423, 217, 67, 248, 82
-0.998423, 277, 27, 308, 42
-0.998426, 333, 15, 364, 30
-0.998427, 229, 209, 260, 224
-0.998428, 137, 101, 168, 116
-0.998428, 125, 93, 156, 108
-0.998428, 157, 131, 188, 146
-0.998428, 209, 83, 240, 98
-0.998428, 73, 97, 104, 112
-0.998428, 217, 125, 248, 140
-0.998431, 125, 275, 156, 290
-0.998431, 249, 127, 280, 142
-0.998432, 293, 1, 324, 16
-0.998432, 1, 103, 32, 118
-0.998433, 129, 153, 160, 168
-0.998434, 417, 77, 448, 92
-0.998435, 449, 131, 480, 146
-0.998435, 277, 59, 308, 74
-0.998435, 213, 161, 244, 176
-0.998435, 285, 65, 316, 80
-0.998435, 129, 169, 160, 184
-0.998436, 169, 127, 200, 142
-0.998438, 209, 99, 240, 114
-0.998439, 429, 77, 460, 92
-0.998439, 125, 287, 156, 302
-0.998439, 97, 245, 224, 276
-0.99844, 397, 77, 428, 92
-0.998441, 217, 131, 248, 146
-0.998441, 125, 341, 156, 356
-0.998441, 237, 41, 268, 56
-0.998441, 121, 351, 152, 366
-0.998446, 361, 107, 392, 122
-0.998447, 121, 359, 152, 374
-0.998447, 205, 111, 236, 126
-0.998448, 125, 331, 156, 346
-0.998448, 141, 229, 172, 244
-0.998449, 205, 155, 236, 170
-0.99845, 209, 89, 240, 104
-0.998451, 185, 123, 216, 138
-0.998452, 125, 295, 156, 310
-0.998453, 269, 39, 300, 54
-0.998453, 149, 87, 180, 102
-0.998455, 129, 139, 160, 154
-0.998456, 289, 27, 320, 42
-0.998456, 209, 75, 240, 90
-0.998456, 185, 121, 248, 136
-0.998457, 317, 83, 348, 98
-0.998459, 445, 79, 476, 94
-0.998459, 317, 97, 348, 352
-0.998462, 161, 145, 224, 272
-0.998463, 221, 193, 252, 208
-0.998463, 369, 79, 400, 94
-0.998465, 125, 309, 156, 324
-0.998467, 145, 123, 176, 138
-0.998467, 49, 249, 176, 280
-0.998467, 125, 301, 156, 316
-0.998468, 125, 315, 156, 330
-0.998469, 125, 323, 156, 338
-0.998471, 465, 127, 496, 142
-0.998475, 241, 209, 272, 224
-0.998475, 129, 233, 160, 248
-0.998476, 129, 159, 160, 174
-0.998476, 9, 111, 40, 126
-0.998479, 465, 77, 496, 92
-0.99848, 273, 1, 304, 16
-0.99848, 189, 111, 220, 126
-0.99848, 141, 135, 172, 150
-0.99848, 257, 209, 384, 240
-0.998483, 221, 59, 252, 74
-0.998486, 209, 57, 240, 72
-0.998491, 313, 73, 344, 88
-0.998493, 133, 127, 164, 142
-0.998494, 265, 1, 328, 16
-0.998496, 129, 123, 192, 138
-0.998497, 161, 119, 192, 134
-0.998499, 173, 115, 204, 130
-0.9985, 281, 27, 344, 42
-0.998501, 229, 203, 260, 218
-0.998501, 325, 101, 356, 116
-0.998501, 241, 193, 272, 208
-0.998502, 225, 209, 288, 224
-0.998503, 153, 115, 216, 130
-0.998505, 257, 69, 320, 84
-0.998505, 225, 161, 256, 176
-0.998506, 305, 79, 336, 94
-0.998509, 273, 79, 336, 94
-0.998509, 209, 51, 240, 66
-0.99851, 197, 119, 228, 134
-0.99851, 301, 73, 332, 88
-0.998511, 433, 77, 496, 92
-0.998513, 241, 201, 272, 216
-0.998516, 137, 95, 200, 110
-0.998517, 393, 77, 456, 92
-0.998518, 289, 57, 352, 72
-0.998521, 137, 95, 168, 110
-0.998521, 81, 5, 208, 36
-0.998521, 225, 125, 288, 140
-0.998522, 225, 45, 256, 60
-0.998522, 249, 59, 312, 74
-0.998529, 269, 33, 300, 48
-0.998529, 225, 51, 288, 66
-0.998529, 89, 93, 152, 108
-0.99853, 169, 127, 232, 142
-0.998535, 241, 31, 272, 46
-0.998536, 185, 113, 248, 128
-0.998536, 201, 159, 264, 174
-0.998536, 185, 101, 248, 116
-0.998536, 209, 201, 272, 216
-0.998537, 145, 105, 208, 120
-0.998537, 209, 31, 272, 46
-0.998537, 417, 131, 480, 146
-0.998538, 377, 81, 408, 208
-0.99854, 313, 103, 376, 118
-0.998541, 113, 323, 176, 338
-0.998542, 469, 133, 500, 148
-0.998542, 113, 315, 176, 330
-0.998542, 225, 153, 288, 168
-0.998543, 209, 119, 272, 134
-0.998543, 209, 61, 272, 76
-0.998544, 209, 41, 240, 56
-0.998544, 219, 49, 234, 176
-0.998544, 185, 59, 248, 74
-0.998545, 113, 303, 176, 318
-0.998546, 137, 85, 168, 100
-0.998549, 297, 73, 360, 88
-0.998549, 221, 53, 252, 68
-0.99855, 217, 155, 248, 170
-0.99855, 209, 105, 240, 120
-0.998551, 209, 119, 240, 134
-0.998552, 217, 195, 280, 210
-0.998552, 225, 137, 288, 152
-0.998554, 361, 79, 424, 94
-0.998554, 233, 203, 296, 218
-0.998555, 137, 165, 200, 180
-0.998556, 253, 205, 284, 220
-0.998556, 253, 33, 284, 48
-0.998556, 121, 113, 184, 128
-0.998557, 161, 313, 288, 375
-0.998558, 121, 233, 184, 248
-0.998558, 113, 309, 176, 324
-0.998559, 169, 91, 232, 106
-0.998559, 209, 131, 272, 146
-0.99856, 141, 129, 172, 375
-0.998561, 277, 97, 308, 352
-0.998562, 253, 41, 284, 56
-0.998564, 113, 297, 176, 312
-0.998565, 249, 127, 312, 142
-0.998566, 121, 135, 184, 150
-0.998566, 209, 41, 272, 56
-0.998567, 209, 31, 240, 46
-0.998567, 249, 51, 312, 66
-0.998569, 113, 353, 176, 368
-0.998569, 225, 105, 288, 120
-0.998569, 113, 359, 176, 374
-0.99857, 97, 289, 160, 304
-0.998571, 241, 233, 368, 296
-0.998572, 229, 17, 244, 144
-0.998572, 49, 83, 112, 98
-0.998572, 113, 329, 176, 344
-0.998573, 353, 1, 384, 128
-0.998573, 289, 67, 352, 82
-0.998573, 209, 73, 272, 88
-0.998576, 49, 71, 112, 86
-0.998577, 185, 51, 248, 66
-0.998577, 225, 111, 288, 126
-0.998578, 129, 59, 192, 74
-0.998578, 137, 89, 200, 104
-0.998578, 113, 345, 176, 360
-0.998579, 225, 39, 256, 54
-0.998581, 185, 45, 248, 60
-0.998581, 289, 93, 352, 108
-0.998582, 57, 93, 120, 108
-0.998582, 89, 87, 152, 102
-0.998583, 121, 159, 184, 174
-0.998583, 113, 337, 176, 352
-0.998583, 305, 17, 368, 32
-0.998585, 113, 91, 176, 106
-0.998586, 241, 19, 304, 34
-0.998586, 365, 65, 396, 320
-0.998589, 113, 97, 176, 112
-0.998589, 201, 207, 264, 222
-0.998591, 185, 31, 248, 46
-0.998592, 9, 93, 72, 108
-0.998594, 345, 107, 408, 122
-0.998595, 297, 79, 360, 94
-0.998595, 97, 239, 160, 254
-0.998596, 225, 79, 288, 94
-0.998596, 241, 25, 304, 40
-0.998597, 97, 79, 160, 94
-0.998597, 89, 331, 152, 346
-0.998599, 177, 163, 240, 178
-0.9986, 113, 281, 176, 296
-0.998601, 89, 99, 152, 114
-0.998602, 321, 25, 384, 40
-0.998602, 97, 273, 160, 288
-0.998603, 89, 311, 152, 326
-0.998604, 185, 79, 248, 94
-0.998604, 89, 299, 152, 314
-0.998606, 113, 85, 176, 100
-0.998607, 209, 99, 272, 114
-0.998607, 89, 317, 152, 332
-0.998607, 241, 31, 304, 46
-0.998607, 313, 127, 376, 142
-0.998608, 113, 53, 176, 68
-0.998608, 113, 41, 176, 56
-0.998608, 1, 103, 64, 118
-0.998609, 273, 99, 336, 114
-0.998609, 129, 129, 192, 144
-0.99861, 25, 85, 88, 100
-0.99861, 97, 233, 160, 248
-0.998611, 89, 355, 152, 370
-0.998612, 257, 111, 320, 126
-0.998612, 209, 67, 272, 82
-0.998614, 321, 77, 384, 92
-0.998615, 209, 91, 272, 106
-0.998616, 145, 83, 208, 98
-0.998616, 65, 209, 192, 240
-0.998617, 289, 87, 352, 102
-0.998617, 89, 325, 152, 340
-0.998617, 289, 105, 352, 120
-0.998618, 161, 99, 224, 114
-0.998618, 209, 85, 272, 100
-0.998619, 209, 25, 272, 40
-0.998619, 121, 273, 184, 288
-0.998621, 153, 59, 216, 74
-0.998621, 121, 239, 184, 254
-0.998621, 153, 29, 216, 44
-0.998623, 89, 361, 152, 375
-0.998623, 255, 1, 270, 128
-0.998624, 433, 137, 496, 152
-0.998625, 121, 173, 184, 188
-0.998625, 1, 239, 64, 254
-0.998625, 41, 1, 72, 256
-0.998625, 49, 101, 112, 116
-0.998625, 369, 161, 432, 176
-0.998625, 89, 347, 152, 362
-0.998627, 281, 21, 344, 36
-0.998627, 105, 127, 168, 142
-0.998628, 209, 145, 272, 160
-0.998628, 89, 337, 152, 352
-0.998628, 53, 97, 84, 352
-0.998638, 49, 145, 176, 176
-0.998651, 225, 31, 256, 46
-0.998666, 369, 209, 496, 240
-0.998676, 321, 5, 448, 36
-0.998678, 209, 269, 336, 300
-0.998685, 135, 113, 150, 240
-0.998691, 193, 49, 208, 176
-0.998703, 401, 65, 432, 320
-0.998723, 183, 1, 198, 128
-0.998735, 417, 97, 448, 224
-0.998739, 197, 97, 228, 352
-0.998746, 257, 145, 384, 176
-0.998752, 267, 1, 282, 128
-0.998767, 197, 1, 212, 128
-0.998784, 187, 49, 202, 176
-0.998795, 225, 221, 352, 252
-0.998802, 1, 177, 500, 240
-0.998803, 321, 129, 384, 375
-0.998814, 175, 1, 190, 128
-0.998842, 175, 49, 190, 176
-0.998853, 205, 49, 220, 176
-0.998861, 377, 33, 408, 288
-0.998866, 289, 1, 304, 128
-0.998875, 241, 173, 368, 204
-0.998881, 29, 129, 60, 256
-0.998889, 221, 129, 236, 256
-0.99889, 181, 49, 196, 176
-0.998906, 247, 129, 262, 256
-0.99891, 221, 1, 236, 128
-0.998919, 1, 177, 64, 304
-0.998925, 125, 49, 140, 176
-0.998925, 337, 145, 368, 272
-0.998932, 279, 49, 294, 176
-0.998933, 167, 1, 182, 128
-0.998937, 253, 129, 268, 256
-0.998942, 213, 65, 228, 192
-0.998943, 191, 1, 206, 128
-0.998945, 273, 265, 400, 296
-0.998965, 165, 49, 180, 176
-0.99897, 369, 197, 496, 228
-0.998972, 261, 1, 276, 128
-0.998972, 143, 49, 158, 176
-0.998989, 133, 65, 148, 192
-0.99899, 449, 129, 480, 375
-0.99899, 1, 225, 128, 256
-0.998996, 161, 265, 416, 328
-0.999008, 317, 17, 332, 144
-0.999009, 153, 1, 168, 128
-0.999025, 249, 1, 264, 128
-0.999026, 311, 1, 326, 128
-0.999046, 483, 65, 498, 192
-0.999048, 309, 65, 324, 192
-0.999049, 277, 1, 292, 128
-0.999049, 65, 97, 96, 352
-0.999052, 241, 17, 256, 144
-0.999053, 199, 49, 214, 176
-0.999054, 261, 49, 276, 176
-0.999055, 295, 17, 310, 144
-0.99906, 319, 65, 334, 192
-0.999068, 215, 1, 230, 128
-0.999068, 1, 181, 128, 212
-0.99907, 325, 49, 340, 176
-0.999074, 369, 45, 496, 76
-0.999077, 259, 129, 274, 256
-0.999087, 161, 1, 176, 128
-0.999093, 147, 1, 162, 128
-0.999095, 203, 1, 218, 128
-0.999099, 301, 17, 316, 144
-0.9991, 353, 145, 384, 272
-0.9991, 265, 241, 296, 368
-0.9991, 325, 241, 356, 368
-0.999103, 335, 1, 350, 128
-0.999105, 177, 173, 304, 204
-0.999109, 283, 1, 298, 128
-0.999109, 229, 97, 244, 224
-0.999113, 261, 177, 276, 304
-0.999114, 295, 65, 310, 192
-0.999114, 17, 33, 32, 160
-0.99912, 57, 225, 88, 352
-0.999128, 157, 49, 172, 176
-0.99913, 101, 65, 116, 192
-0.999135, 469, 225, 500, 352
-0.99914, 241, 145, 256, 272
-0.999149, 301, 65, 316, 192
-0.99915, 397, 241, 428, 368
-0.999152, 325, 1, 340, 128
-0.999156, 197, 97, 212, 224
-0.999163, 251, 49, 266, 176
-0.99917, 131, 225, 146, 352
-0.99917, 253, 177, 268, 304
-0.999172, 125, 97, 140, 224
-0.999178, 337, 265, 464, 296
-0.999178, 247, 177, 262, 304
-0.999181, 67, 65, 82, 192
-0.999184, 109, 17, 124, 144
-0.999187, 235, 145, 250, 272
-0.999189, 235, 17, 250, 144
-0.999193, 257, 265, 500, 328
-0.999193, 95, 65, 110, 192
-0.999203, 353, 33, 384, 288
-0.999209, 89, 33, 104, 160
-0.999211, 23, 33, 38, 160
-0.999213, 209, 313, 336, 344
-0.999216, 165, 209, 196, 336
-0.999217, 269, 97, 284, 224
-0.999218, 147, 97, 162, 224
-0.999223, 289, 173, 416, 204
-0.999228, 119, 33, 134, 160
-0.999257, 1, 201, 500, 264
-0.999257, 149, 49, 164, 176
-0.999268, 93, 97, 124, 352
-0.999268, 133, 177, 148, 304
-0.99927, 145, 281, 272, 312
-0.999272, 103, 17, 118, 144
-0.999275, 77, 97, 108, 352
-0.99928, 143, 225, 158, 352
-0.999281, 137, 17, 152, 144
-0.999281, 287, 65, 302, 192
-0.999283, 71, 17, 86, 144
-0.999285, 227, 145, 242, 272
-0.999289, 13, 81, 28, 208
-0.999294, 61, 65, 76, 192
-0.999295, 409, 33, 424, 160
-0.999296, 1, 193, 128, 224
-0.999305, 11, 33, 26, 160
-0.999311, 273, 301, 400, 332
-0.999311, 257, 317, 384, 348
-0.999313, 413, 129, 444, 375
-0.999314, 81, 33, 96, 160
-0.999315, 273, 49, 288, 176
-0.999323, 107, 65, 122, 192
-0.999325, 59, 17, 74, 144
-0.999331, 485, 113, 500, 240
-0.999333, 215, 113, 230, 240
-0.999335, 73, 65, 88, 192
-0.999339, 257, 197, 384, 228
-0.99934, 321, 201, 448, 232
-0.999341, 267, 177, 282, 304
-0.999342, 113, 65, 128, 192
-0.999343, 477, 49, 492, 176
-0.999345, 5, 33, 20, 160
-0.999347, 181, 97, 196, 224
-0.999348, 377, 129, 408, 375
-0.999349, 191, 97, 206, 224
-0.999349, 209, 1, 224, 128
-0.999356, 175, 97, 190, 224
-0.999365, 49, 17, 64, 144
-0.999368, 165, 97, 180, 224
-0.999369, 95, 17, 110, 144
-0.999371, 131, 17, 146, 144
-0.999376, 29, 33, 44, 160
-0.999378, 243, 65, 258, 192
-0.999379, 53, 65, 68, 192
-0.999379, 473, 97, 488, 224
-0.999381, 353, 173, 480, 204
-0.999382, 19, 81, 34, 208
-0.999402, 471, 49, 486, 176
-0.999406, 331, 49, 346, 176
-0.999409, 145, 145, 160, 272
-0.999413, 119, 209, 134, 336
-0.999413, 343, 1, 358, 128
-0.999424, 81, 97, 96, 224
-0.999426, 479, 113, 494, 240
-0.99943, 267, 49, 282, 176
-0.999432, 177, 301, 304, 332
-0.999434, 119, 81, 134, 208
-0.999445, 275, 97, 290, 224
-0.999446, 471, 145, 486, 272
-0.999447, 341, 1, 372, 256
-0.999447, 241, 193, 256, 320
-0.999449, 419, 33, 434, 160
-0.99946, 461, 49, 476, 176
-0.999461, 89, 81, 104, 208
-0.999464, 203, 97, 218, 224
-0.999466, 325, 97, 340, 224
-0.999467, 161, 269, 288, 300
-0.999468, 351, 1, 366, 128
-0.999475, 57, 113, 72, 240
-0.999484, 1, 273, 128, 304
-0.999484, 465, 129, 480, 256
-0.999486, 1, 97, 32, 352
-0.99949, 65, 17, 80, 144
-0.999518, 437, 129, 468, 375
-0.999522, 177, 241, 304, 304
-0.999569, 337, 97, 368, 352
-0.999598, 11, 103, 26, 118
-0.9996, 303, 79, 318, 94
-0.9996, 175, 119, 190, 134
-0.9996, 151, 135, 166, 150
-0.9996, 189, 115, 204, 130
-0.999601, 135, 147, 150, 162
-0.999602, 289, 27, 304, 42
-0.999602, 13, 91, 28, 106
-0.999602, 235, 25, 250, 40
-0.999602, 483, 79, 498, 94
-0.999603, 409, 77, 424, 92
-0.999603, 219, 47, 234, 62
-0.999604, 239, 207, 254, 222
-0.999604, 241, 157, 256, 172
-0.999604, 201, 121, 216, 136
-0.999605, 127, 59, 142, 74
-0.999606, 143, 233, 158, 248
-0.999606, 5, 93, 20, 108
-0.999606, 335, 101, 350, 116
-0.999608, 389, 97, 420, 352
-0.999608, 225, 99, 240, 114
-0.999608, 139, 101, 154, 116
-0.999608, 455, 81, 470, 96
-0.99961, 207, 119, 222, 134
-0.99961, 485, 127, 500, 142
-0.999611, 279, 27, 294, 42
-0.999611, 159, 103, 174, 118
-0.999611, 385, 79, 400, 94
-0.999612, 449, 79, 464, 94
-0.999612, 335, 15, 350, 30
-0.999613, 417, 77, 432, 92
-0.999613, 257, 297, 500, 360
-0.999613, 163, 235, 178, 250
-0.999614, 189, 125, 204, 140
-0.999614, 5, 241, 20, 256
-0.999614, 153, 87, 168, 102
-0.999615, 279, 35, 294, 50
-0.999615, 301, 1, 316, 16
-0.999615, 153, 125, 168, 140
-0.999615, 373, 79, 388, 94
-0.999615, 461, 77, 476, 92
-0.999616, 131, 101, 146, 116
-0.999616, 297, 69, 312, 84
-0.999616, 221, 139, 236, 154
-0.999617, 231, 201, 246, 216
-0.999617, 167, 121, 182, 136
-0.999619, 253, 127, 268, 142
-0.99962, 325, 73, 340, 88
-0.999621, 151, 95, 166, 110
-0.999621, 399, 79, 414, 94
-0.999622, 243, 195, 258, 210
-0.999624, 215, 81, 230, 96
-0.999625, 219, 59, 234, 74
-0.999625, 295, 63, 310, 78
-0.999625, 259, 45, 274, 60
-0.999625, 225, 51, 240, 66
-0.999625, 197, 105, 212, 120
-0.999626, 241, 37, 256, 52
-0.999626, 5, 103, 20, 118
-0.999626, 221, 125, 236, 140
-0.999626, 221, 133, 236, 148
-0.999627, 213, 165, 228, 180
-0.999627, 119, 49, 134, 64
-0.999627, 139, 107, 154, 122
-0.999628, 229, 195, 244, 210
-0.999628, 135, 131, 150, 146
-0.999628, 163, 97, 178, 112
-0.999628, 147, 85, 162, 100
-0.999629, 431, 77, 446, 92
-0.999629, 229, 157, 244, 172
-0.99963, 485, 105, 500, 120
-0.99963, 159, 89, 174, 104
-0.999631, 269, 39, 284, 54
-0.999632, 219, 197, 234, 212
-0.999632, 205, 109, 220, 124
-0.999633, 321, 193, 384, 320
-0.999633, 259, 203, 274, 218
-0.999633, 219, 149, 234, 164
-0.999635, 477, 105, 492, 120
-0.999636, 375, 107, 390, 122
-0.999636, 213, 103, 228, 118
-0.999637, 211, 39, 226, 54
-0.999638, 221, 161, 236, 176
-0.999639, 159, 123, 174, 138
-0.99964, 219, 109, 234, 124
-0.999643, 251, 201, 266, 216
-0.999644, 9, 113, 24, 128
-0.999644, 75, 17, 90, 32
-0.999645, 467, 131, 482, 146
-0.999645, 235, 45, 250, 60
-0.999646, 231, 61, 246, 76
-0.999647, 325, 83, 340, 98
-0.999647, 1, 109, 16, 124
-0.999647, 235, 37, 250, 52
-0.99965, 221, 167, 236, 182
-0.999651, 191, 105, 206, 120
-0.999655, 477, 133, 492, 148
-0.999657, 131, 95, 146, 110
-0.999658, 315, 73, 330, 88
-0.99966, 251, 209, 266, 224
-0.99966, 225, 45, 240, 60
-0.99966, 143, 137, 158, 152
-0.999662, 241, 201, 256, 216
-0.999663, 255, 39, 270, 54
-0.999664, 223, 73, 238, 88
-0.999665, 309, 73, 324, 88
-0.999671, 135, 141, 150, 156
-0.999672, 215, 93, 230, 108
-0.999672, 221, 119, 236, 134
-0.999674, 235, 31, 250, 46
-0.999674, 307, 1, 322, 16
-0.999676, 327, 101, 342, 116
-0.999676, 223, 93, 238, 108
-0.999677, 235, 191, 250, 206
-0.999678, 225, 57, 240, 72
-0.99968, 289, 59, 304, 74
-0.99968, 213, 119, 228, 134
-0.99968, 223, 65, 238, 80
-0.999684, 255, 31, 270, 46
-0.999684, 227, 163, 242, 178
-0.99969, 315, 79, 330, 94
-0.999691, 185, 97, 216, 352
-0.999693, 215, 87, 230, 102
-0.999694, 269, 31, 284, 46
-0.999697, 223, 81, 238, 96
-0.9997, 213, 29, 228, 44
-0.999704, 223, 87, 238, 102
-0.999728, 257, 241, 500, 304
-0.999729, 227, 39, 242, 54
-0.999731, 241, 31, 256, 46
-0.999737, 221, 155, 236, 170
-0.999739, 219, 101, 234, 116
-0.999741, 141, 91, 156, 106
-0.999759, 245, 207, 260, 222
-0.99981, 227, 31, 242, 46
-0.999908, 161, 289, 416, 352
-0.999935, 173, 97, 204, 352
-1.00001, 41, 129, 72, 375
-1.00001, 289, 233, 416, 296
-1.00005, 349, 129, 380, 375
-1.00007, 13, 97, 44, 352
-1.00009, 1, 225, 500, 288
-1.00026, 161, 313, 416, 375
-1.00031, 161, 241, 416, 304
-1.00046, 157, 97, 188, 352
-1.00054, 25, 97, 56, 352
-1.0006, 257, 217, 500, 280
-1.00069, 1, 257, 500, 320
-1.00098, 1, 297, 500, 360
-1.00119, 369, 1, 496, 64
