1871
-0.51541, 1, 65, 500, 320
-0.605157, 129, 1, 384, 333
-0.644257, 1, 1, 500, 333
-0.657091, 257, 1, 500, 333
-0.72336, 33, 1, 288, 333
-0.806547, 129, 65, 384, 320
-0.818317, 33, 65, 288, 320
-0.858477, 257, 65, 500, 320
-0.901, 241, 1, 368, 333
-0.901784, 353, 1, 480, 333
-0.905052, 193, 1, 320, 333
-0.90829, 81, 65, 208, 320
-0.910218, 1, 193, 500, 320
-0.910309, 65, 1, 192, 333
-0.912248, 113, 1, 240, 333
-0.913583, 257, 65, 384, 320
-0.918606, 1, 129, 500, 256
-0.918792, 337, 33, 464, 288
-0.919238, 145, 1, 272, 256
-0.92362, 1, 193, 256, 320
-0.923683, 289, 1, 416, 333
-0.92462, 209, 33, 336, 288
-0.928464, 1, 81, 500, 208
-0.93076, 1, 65, 128, 320
-0.932123, 1, 1, 128, 333
-0.939072, 65, 113, 320, 240
-0.941524, 161, 193, 416, 320
-0.9426, 1, 17, 500, 144
-0.944925, 49, 161, 112, 288
-0.948527, 41, 209, 104, 333
-0.948839, 161, 97, 416, 224
-0.951457, 49, 193, 176, 320
-0.953826, 161, 145, 416, 272
-0.956479, 321, 161, 384, 288
-0.95741, 145, 209, 208, 333
-0.957595, 257, 65, 500, 192
-0.958858, 65, 49, 320, 176
-0.95909, 65, 129, 192, 256
-0.959792, 17, 209, 80, 333
-0.960059, 257, 209, 500, 333
-0.960767, 305, 209, 432, 333
-0.960782, 49, 209, 112, 272
-0.960867, 337, 209, 400, 333
-0.961511, 1, 161, 128, 288
-0.961804, 241, 65, 368, 192
-0.962344, 193, 97, 320, 224
-0.962412, 73, 129, 136, 256
-0.963179, 209, 193, 336, 320
-0.96323, 129, 193, 256, 320
-0.963577, 353, 161, 480, 288
-0.964066, 345, 145, 408, 272
-0.964159, 57, 169, 120, 232
-0.964971, 313, 209, 376, 333
-0.965044, 273, 129, 400, 256
-0.965684, 185, 209, 248, 333
-0.96587, 257, 1, 500, 128
-0.965937, 257, 145, 500, 272
-0.966075, 161, 49, 416, 176
-0.967091, 105, 177, 168, 304
-0.967516, 161, 145, 288, 272
-0.967708, 145, 65, 272, 192
-0.968072, 1, 209, 128, 333
-0.968114, 25, 249, 88, 312
-0.969285, 329, 185, 392, 248
-0.969403, 225, 81, 288, 208
-0.969568, 73, 193, 136, 320
-0.969746, 329, 209, 392, 272
-0.969785, 305, 97, 368, 224
-0.970624, 193, 225, 256, 288
-0.970882, 257, 209, 384, 333
-0.971199, 129, 1, 384, 128
-0.971281, 305, 33, 432, 160
-0.971295, 161, 249, 224, 312
-0.971313, 153, 225, 216, 288
-0.972217, 193, 1, 320, 128
-0.972742, 193, 49, 320, 176
-0.972777, 1, 1, 256, 128
-0.972932, 65, 145, 128, 208
-0.973152, 193, 249, 256, 312
-0.973194, 289, 193, 352, 320
-0.973469, 49, 257, 112, 320
-0.973797, 57, 177, 88, 304
-0.973882, 177, 81, 240, 208
-0.974241, 305, 265, 368, 328
-0.974269, 185, 129, 248, 256
-0.974323, 369, 1, 496, 128
-0.97433, 1, 241, 64, 304
-0.97435, 33, 185, 96, 248
-0.974773, 57, 233, 120, 296
-0.974813, 225, 193, 288, 320
-0.97483, 81, 81, 208, 208
-0.97487, 353, 65, 480, 192
-0.974887, 201, 49, 264, 176
-0.974976, 305, 185, 368, 248
-0.975098, 353, 113, 480, 240
-0.97519, 321, 153, 384, 216
-0.975214, 257, 209, 320, 333
-0.975547, 25, 161, 88, 288
-0.975557, 129, 161, 192, 288
-0.975832, 249, 97, 312, 224
-0.975864, 249, 217, 312, 280
-0.976386, 225, 225, 288, 288
-0.976405, 17, 217, 80, 280
-0.976501, 137, 249, 200, 312
-0.976565, 113, 201, 176, 264
-0.97665, 345, 153, 408, 216
-0.976726, 113, 129, 240, 256
-0.97712, 137, 113, 200, 240
-0.977446, 61, 177, 92, 240
-0.977586, 249, 49, 312, 176
-0.977812, 273, 81, 336, 208
-0.977882, 393, 1, 456, 128
-0.978015, 153, 161, 216, 288
-0.978131, 1, 49, 128, 176
-0.978156, 225, 145, 352, 272
-0.978176, 73, 193, 136, 256
-0.978239, 137, 49, 200, 176
-0.978293, 321, 233, 384, 296
-0.978418, 273, 217, 336, 280
-0.978419, 69, 145, 100, 272
-0.978611, 49, 241, 80, 304
-0.978661, 425, 1, 488, 128
-0.978906, 81, 241, 144, 304
-0.979017, 185, 273, 248, 333
-0.979406, 209, 129, 272, 256
-0.979407, 353, 193, 416, 256
-0.979513, 33, 113, 96, 240
-0.979566, 129, 17, 256, 144
-0.979606, 353, 209, 480, 333
-0.979697, 417, 161, 480, 288
-0.979791, 349, 161, 380, 288
-0.979907, 25, 161, 88, 224
-0.979989, 345, 145, 376, 208
-0.979992, 25, 273, 88, 333
-0.980096, 305, 209, 368, 272
-0.980285, 217, 249, 280, 312
-0.980364, 53, 217, 84, 280
-0.980638, 257, 17, 384, 144
-0.980785, 49, 201, 176, 264
-0.981076, 361, 193, 424, 320
-0.981306, 345, 209, 376, 333
-0.981324, 97, 273, 160, 333
-0.981338, 209, 217, 336, 280
-0.981382, 33, 249, 160, 312
-0.981413, 113, 249, 176, 312
-0.981441, 145, 113, 208, 176
-0.981468, 225, 33, 288, 160
-0.981516, 281, 97, 344, 160
-0.981519, 241, 97, 304, 160
-0.98154, 273, 201, 400, 264
-0.981642, 169, 89, 232, 152
-0.981698, 209, 97, 272, 160
-0.981698, 345, 233, 408, 296
-0.981916, 73, 153, 104, 216
-0.98213, 433, 49, 496, 176
-0.982212, 357, 177, 388, 240
-0.982217, 345, 81, 408, 208
-0.982256, 257, 161, 320, 288
-0.98229, 65, 1, 192, 128
-0.982386, 17, 1, 144, 128
-0.982483, 273, 33, 336, 160
-0.982591, 137, 273, 200, 333
-0.98273, 289, 145, 352, 272
-0.982787, 185, 257, 216, 320
-0.982827, 305, 113, 368, 176
-0.982919, 89, 129, 152, 192
-0.982926, 169, 33, 232, 160
-0.983035, 305, 49, 368, 176
-0.983045, 197, 273, 228, 333
-0.983123, 289, 241, 352, 304
-0.983124, 337, 169, 368, 232
-0.983146, 17, 113, 144, 240
-0.983188, 1, 273, 64, 333
-0.983208, 33, 177, 160, 240
-0.983355, 345, 273, 408, 333
-0.983377, 89, 169, 152, 232
-0.983406, 329, 193, 360, 320
-0.983448, 273, 73, 336, 136
-0.983466, 281, 193, 344, 256
-0.983494, 257, 273, 320, 333
-0.983584, 369, 145, 432, 272
-0.983856, 169, 201, 232, 264
-0.983856, 81, 217, 144, 280
-0.983919, 401, 209, 464, 333
-0.984003, 81, 169, 208, 232
-0.98401, 305, 225, 432, 288
-0.984152, 145, 97, 272, 160
-0.984395, 113, 265, 240, 328
-0.984407, 129, 1, 192, 128
-0.984437, 45, 209, 76, 333
-0.984485, 353, 161, 480, 224
-0.984495, 81, 137, 208, 200
-0.98457, 313, 65, 376, 320
-0.984616, 205, 249, 236, 312
-0.98464, 81, 233, 208, 296
-0.984687, 209, 273, 272, 333
-0.98474, 121, 225, 184, 288
-0.984923, 217, 201, 280, 264
-0.984941, 121, 89, 184, 152
-0.984948, 357, 153, 388, 216
-0.985015, 289, 49, 352, 112
-0.985015, 217, 65, 280, 128
-0.985068, 37, 241, 68, 304
-0.985102, 129, 177, 192, 240
-0.985144, 337, 129, 368, 256
-0.98517, 257, 225, 384, 288
-0.985184, 81, 113, 208, 176
-0.985207, 105, 129, 168, 256
-0.985222, 121, 121, 184, 184
-0.985241, 185, 57, 248, 120
-0.985244, 33, 129, 96, 192
-0.985284, 193, 201, 256, 264
-0.98529, 49, 265, 80, 328
-0.985305, 161, 225, 288, 288
-0.985408, 393, 145, 456, 272
-0.985414, 145, 257, 176, 320
-0.985493, 81, 201, 112, 264
-0.985547, 369, 217, 432, 280
-0.985581, 161, 201, 288, 264
-0.985597, 193, 97, 320, 160
-0.985643, 321, 89, 384, 152
-0.985696, 1, 209, 128, 272
-0.985886, 69, 193, 100, 320
-0.985908, 137, 201, 200, 264
-0.985919, 357, 201, 388, 264
-0.985971, 425, 49, 488, 112
-0.985996, 1, 1, 64, 128
-0.986048, 281, 265, 344, 328
-0.986056, 409, 65, 472, 192
-0.986201, 113, 201, 240, 264
-0.986252, 193, 249, 320, 312
-0.986279, 301, 193, 332, 320
-0.986328, 225, 225, 256, 288
-0.986338, 349, 225, 380, 288
-0.986422, 81, 129, 112, 256
-0.986459, 321, 201, 448, 264
-0.986507, 353, 113, 384, 240
-0.986602, 361, 161, 392, 288
-0.986641, 321, 257, 352, 320
-0.986653, 113, 49, 176, 176
-0.986674, 57, 65, 120, 320
-0.986706, 257, 97, 384, 160
-0.986737, 241, 57, 304, 120
-0.986743, 329, 113, 392, 176
-0.986777, 153, 209, 184, 333
-0.986833, 273, 177, 400, 240
-0.986835, 333, 249, 364, 312
-0.986904, 249, 241, 312, 304
-0.986945, 161, 137, 288, 200
-0.98695, 29, 209, 60, 333
-0.986951, 169, 113, 232, 176
-0.986975, 233, 33, 296, 288
-0.987146, 425, 185, 488, 248
-0.987178, 81, 65, 144, 320
-0.987218, 233, 145, 296, 272
-0.987229, 433, 1, 496, 64
-0.987405, 257, 249, 384, 312
-0.987597, 113, 145, 176, 208
-0.987605, 65, 121, 128, 184
-0.987638, 305, 81, 432, 208
-0.987654, 305, 273, 336, 333
-0.987742, 377, 1, 440, 64
-0.987745, 385, 49, 448, 176
-0.987755, 41, 201, 72, 264
-0.987781, 237, 97, 268, 224
-0.987832, 401, 33, 464, 96
-0.987921, 257, 193, 320, 256
-0.987927, 249, 1, 312, 128
-0.987935, 225, 73, 352, 136
-0.987969, 165, 193, 196, 320
-0.987977, 81, 129, 112, 192
-0.987983, 321, 65, 384, 128
-0.988003, 233, 49, 264, 176
-0.988018, 185, 233, 216, 296
-0.988075, 121, 33, 184, 288
-0.988088, 257, 129, 384, 192
-0.988132, 153, 169, 216, 232
-0.988156, 321, 137, 448, 200
-0.988211, 49, 273, 176, 333
-0.988218, 289, 153, 352, 216
-0.988234, 61, 153, 92, 216
-0.988272, 369, 1, 432, 128
-0.988296, 341, 201, 372, 264
-0.988297, 209, 273, 336, 333
-0.988424, 257, 65, 320, 320
-0.988426, 225, 209, 256, 333
-0.988548, 289, 33, 352, 288
-0.988579, 1, 273, 128, 333
-0.988611, 329, 33, 392, 160
-0.988664, 161, 137, 224, 200
-0.988678, 225, 193, 352, 256
-0.988694, 89, 193, 120, 320
-0.988708, 369, 9, 496, 72
-0.988727, 1, 161, 64, 288
-0.988736, 253, 81, 284, 208
-0.988789, 281, 1, 344, 333
-0.988868, 369, 185, 496, 248
-0.988875, 357, 209, 388, 333
-0.988879, 185, 193, 216, 320
-0.988903, 173, 249, 204, 312
-0.988914, 193, 129, 256, 192
-0.988942, 241, 1, 304, 64
-0.988951, 9, 49, 72, 176
-0.988954, 193, 65, 256, 320
-0.988963, 209, 273, 240, 333
-0.988974, 145, 73, 272, 136
-0.989061, 157, 225, 188, 288
-0.989071, 353, 113, 416, 176
-0.989109, 273, 273, 400, 333
-0.989135, 69, 217, 100, 280
-0.989139, 353, 33, 416, 288
-0.989142, 77, 249, 108, 312
-0.989183, 33, 137, 160, 200
-0.989335, 377, 41, 440, 104
-0.989455, 33, 65, 96, 192
-0.989552, 209, 209, 240, 333
-0.989557, 313, 1, 376, 333
-0.989599, 337, 249, 464, 312
-0.989628, 249, 161, 312, 224
-0.989665, 337, 41, 464, 104
-0.989674, 133, 193, 164, 320
-0.989712, 129, 177, 256, 240
-0.989747, 277, 217, 308, 280
-0.989786, 433, 209, 496, 333
-0.989807, 1, 257, 32, 320
-0.989817, 161, 33, 224, 96
-0.989838, 73, 81, 136, 208
-0.989863, 49, 25, 112, 88
-0.989866, 25, 1, 88, 128
-0.989878, 145, 89, 208, 152
-0.989901, 217, 49, 248, 176
-0.98991, 237, 225, 268, 288
-0.99003, 333, 145, 364, 208
-0.990049, 9, 57, 72, 120
-0.990097, 57, 129, 88, 256
-0.99015, 9, 193, 72, 256
-0.990178, 273, 33, 400, 96
-0.990185, 9, 25, 72, 88
-0.990198, 25, 273, 56, 333
-0.990279, 337, 113, 368, 176
-0.990296, 433, 145, 496, 208
-0.990317, 65, 257, 96, 320
-0.990317, 281, 121, 344, 184
-0.990338, 337, 273, 464, 333
-0.99037, 49, 169, 80, 232
-0.990414, 433, 97, 496, 224
-0.990416, 37, 265, 68, 328
-0.990428, 273, 153, 400, 216
-0.99043, 149, 201, 180, 264
-0.990463, 41, 49, 104, 112
-0.990465, 201, 1, 264, 128
-0.990484, 337, 81, 368, 208
-0.990491, 441, 161, 472, 288
-0.990538, 145, 1, 272, 64
-0.990616, 353, 65, 480, 128
-0.990648, 305, 249, 336, 312
-0.990653, 289, 57, 416, 120
-0.990659, 317, 209, 348, 333
-0.990662, 129, 257, 160, 320
-0.990686, 193, 49, 320, 112
-0.990687, 145, 245, 208, 276
-0.990753, 325, 225, 356, 288
-0.990756, 17, 1, 80, 333
-0.99077, 57, 213, 120, 244
-0.990781, 97, 105, 160, 168
-0.990792, 177, 145, 208, 272
-0.990803, 177, 169, 240, 232
-0.990803, 329, 209, 392, 240
-0.990814, 305, 105, 432, 168
-0.990841, 101, 217, 132, 280
-0.990844, 329, 185, 392, 216
-0.990852, 41, 237, 104, 268
-0.990871, 281, 17, 344, 80
-0.990871, 265, 65, 296, 192
-0.990892, 57, 165, 120, 196
-0.990896, 73, 265, 136, 328
-0.99091, 317, 49, 348, 176
-0.990927, 361, 1, 424, 333
-0.990963, 297, 193, 328, 256
-0.990977, 161, 273, 288, 333
-0.991013, 193, 249, 256, 280
-0.991053, 57, 201, 120, 232
-0.991056, 129, 65, 192, 128
-0.991059, 257, 1, 320, 333
-0.991117, 65, 89, 192, 152
-0.991132, 329, 197, 392, 228
-0.991152, 249, 225, 280, 288
-0.991152, 233, 33, 296, 96
-0.991161, 57, 225, 120, 256
-0.991163, 345, 169, 408, 200
-0.991169, 153, 257, 216, 288
-0.991177, 213, 97, 244, 224
-0.991181, 49, 189, 112, 220
-0.991215, 193, 233, 256, 264
-0.991248, 209, 129, 336, 192
-0.99125, 337, 221, 400, 252
-0.991286, 237, 249, 268, 312
-0.99133, 213, 225, 244, 288
-0.991364, 57, 253, 120, 284
-0.991369, 73, 153, 136, 184
-0.991372, 33, 41, 160, 104
-0.991374, 153, 233, 216, 264
-0.99139, 193, 277, 256, 308
-0.991396, 221, 97, 252, 160
-0.9914, 41, 161, 72, 288
-0.991403, 153, 57, 216, 120
-0.991403, 225, 97, 256, 224
-0.99141, 321, 173, 384, 204
-0.991431, 297, 73, 360, 136
-0.991431, 145, 65, 208, 320
-0.991442, 313, 233, 376, 264
-0.991453, 25, 253, 88, 284
-0.991455, 33, 209, 96, 240
-0.991483, 353, 201, 416, 232
-0.991501, 57, 177, 120, 208
-0.991502, 393, 65, 456, 128
-0.991511, 73, 141, 136, 172
-0.991523, 361, 65, 424, 128
-0.991531, 17, 225, 80, 256
-0.991533, 17, 237, 80, 268
-0.991542, 313, 41, 376, 104
-0.991565, 321, 9, 448, 72
-0.991566, 337, 273, 368, 333
-0.991567, 1, 81, 64, 144
-0.99157, 193, 33, 256, 96
-0.99157, 353, 41, 416, 104
-0.991641, 73, 177, 104, 240
-0.991645, 353, 273, 384, 333
-0.991659, 137, 25, 200, 88
-0.99166, 81, 193, 144, 224
-0.991715, 305, 193, 368, 224
-0.991749, 289, 297, 352, 328
-0.991752, 197, 129, 228, 256
-0.991752, 345, 157, 408, 188
-0.991757, 305, 253, 368, 284
-0.99176, 313, 221, 376, 252
-0.991771, 41, 265, 104, 296
-0.991799, 393, 201, 456, 264
-0.991825, 273, 97, 336, 128
-0.991832, 253, 97, 284, 160
-0.991835, 101, 193, 132, 320
-0.991842, 225, 265, 256, 328
-0.991852, 169, 217, 200, 280
-0.991882, 249, 217, 312, 248
-0.991888, 225, 225, 288, 256
-0.991892, 89, 241, 152, 272
-0.991896, 225, 1, 352, 64
-0.9919, 305, 265, 368, 296
-0.991905, 113, 241, 176, 272
-0.99191, 369, 217, 400, 280
-0.991914, 241, 101, 304, 132
-0.991933, 197, 209, 228, 333
-0.991937, 137, 121, 200, 152
-0.991938, 321, 1, 384, 64
-0.991942, 237, 177, 268, 304
-0.991947, 281, 205, 344, 236
-0.991952, 321, 153, 384, 184
-0.991959, 89, 41, 152, 104
-0.991963, 9, 277, 72, 308
-0.991966, 185, 1, 248, 333
-0.991971, 17, 209, 48, 333
-0.991978, 177, 261, 240, 292
-0.991999, 33, 153, 96, 184
-0.99203, 249, 301, 312, 332
-0.992042, 305, 209, 368, 240
-0.99205, 81, 209, 144, 240
-0.992096, 25, 241, 56, 304
-0.992099, 113, 253, 176, 284
-0.992103, 337, 225, 368, 288
-0.992108, 137, 1, 200, 333
-0.992116, 225, 169, 352, 232
-0.992117, 33, 177, 96, 208
-0.992121, 225, 1, 288, 333
-0.992127, 129, 201, 192, 232
-0.992127, 313, 281, 376, 312
-0.992132, 265, 49, 328, 112
-0.992139, 169, 245, 232, 276
-0.992164, 105, 133, 168, 164
-0.992169, 101, 185, 132, 248
-0.992174, 169, 285, 232, 316
-0.992178, 289, 225, 352, 256
-0.992181, 161, 113, 192, 176
-0.992187, 17, 1, 80, 256
-0.99221, 177, 221, 240, 252
-0.99221, 217, 245, 280, 276
-0.992213, 401, 177, 464, 240
-0.992221, 201, 261, 264, 292
-0.992223, 137, 297, 200, 328
-0.99224, 177, 25, 304, 88
-0.992248, 25, 189, 88, 220
-0.992258, 237, 65, 268, 128
-0.992266, 81, 17, 208, 80
-0.992281, 33, 165, 96, 196
-0.99229, 205, 49, 236, 176
-0.992304, 13, 273, 44, 333
-0.992336, 353, 189, 416, 220
-0.992346, 273, 245, 336, 276
-0.992348, 289, 285, 352, 316
-0.992355, 425, 209, 488, 272
-0.992366, 337, 233, 400, 264
-0.992374, 177, 133, 240, 164
-0.992377, 193, 289, 256, 320
-0.99239, 81, 253, 144, 284
-0.992391, 433, 177, 496, 208
-0.992406, 145, 133, 208, 164
-0.992413, 73, 97, 136, 160
-0.992416, 89, 241, 120, 304
-0.992426, 257, 289, 320, 320
-0.992432, 217, 213, 280, 244
-0.99244, 129, 285, 192, 316
-0.992443, 105, 285, 168, 316
-0.99245, 425, 1, 488, 333
-0.992466, 313, 297, 376, 328
-0.992471, 197, 225, 228, 288
-0.992472, 65, 129, 128, 160
-0.992473, 393, 249, 456, 312
-0.992486, 33, 137, 96, 168
-0.992486, 361, 221, 424, 252
-0.99249, 33, 113, 160, 176
-0.992491, 225, 269, 288, 300
-0.99251, 121, 209, 152, 333
-0.992513, 329, 113, 392, 144
-0.992522, 305, 133, 368, 164
-0.992562, 345, 145, 408, 176
-0.992574, 1, 249, 64, 280
-0.992578, 1, 265, 64, 296
-0.992578, 177, 177, 304, 240
-0.992579, 105, 181, 168, 212
-0.992592, 153, 273, 216, 304
-0.992619, 161, 117, 224, 148
-0.992625, 325, 97, 356, 224
-0.992629, 105, 121, 168, 152
-0.99263, 145, 181, 208, 212
-0.992635, 1, 49, 64, 80
-0.992663, 281, 257, 344, 288
-0.992663, 369, 161, 432, 224
-0.992679, 329, 253, 392, 284
-0.99268, 69, 165, 100, 196
-0.992681, 297, 1, 360, 128
-0.992685, 329, 265, 392, 296
-0.992692, 153, 213, 216, 244
-0.992692, 417, 1, 480, 256
-0.992706, 357, 205, 388, 236
-0.992721, 41, 49, 104, 80
-0.992722, 121, 229, 184, 260
-0.992725, 401, 1, 464, 333
-0.992728, 225, 257, 288, 288
-0.992729, 297, 97, 360, 128
-0.992744, 289, 121, 352, 152
-0.992747, 177, 101, 240, 132
-0.992763, 61, 193, 92, 224
-0.992765, 225, 281, 288, 312
-0.992765, 281, 57, 344, 88
-0.992769, 433, 73, 496, 136
-0.992773, 397, 1, 428, 128
-0.992773, 65, 265, 128, 296
-0.992786, 373, 209, 404, 333
-0.992786, 97, 1, 160, 128
-0.992788, 33, 277, 96, 308
-0.992796, 345, 277, 408, 308
-0.992799, 153, 105, 216, 136
-0.992801, 209, 97, 240, 160
-0.992801, 9, 201, 72, 232
-0.992811, 97, 301, 160, 332
-0.992814, 185, 301, 248, 332
-0.992818, 237, 97, 268, 160
-0.99282, 89, 269, 152, 300
-0.992822, 413, 1, 444, 128
-0.992823, 417, 65, 480, 96
-0.992825, 401, 229, 464, 260
-0.992826, 145, 161, 176, 288
-0.992832, 273, 85, 336, 116
-0.992844, 61, 205, 92, 236
-0.992846, 105, 209, 168, 240
-0.992846, 217, 101, 280, 132
-0.992848, 233, 89, 296, 120
-0.992854, 137, 93, 200, 124
-0.992859, 169, 157, 232, 188
-0.992859, 197, 277, 228, 308
-0.992861, 345, 153, 376, 184
-0.992871, 129, 265, 192, 296
-0.992872, 353, 105, 480, 168
-0.992882, 305, 109, 368, 140
-0.992882, 281, 269, 344, 300
-0.992888, 409, 169, 472, 200
-0.992897, 129, 213, 192, 244
-0.992897, 49, 257, 80, 288
-0.992904, 65, 177, 96, 208
-0.992906, 357, 193, 388, 224
-0.992916, 193, 209, 256, 240
-0.992922, 93, 113, 124, 240
-0.992929, 9, 113, 72, 240
-0.992944, 193, 249, 224, 280
-0.992945, 185, 261, 216, 292
-0.992947, 53, 217, 84, 248
-0.99295, 133, 233, 164, 296
-0.992952, 177, 169, 240, 200
-0.992955, 161, 193, 224, 224
-0.992956, 73, 153, 104, 184
-0.992965, 209, 273, 240, 304
-0.99297, 225, 121, 288, 184
-0.992982, 357, 181, 388, 212
-0.992982, 57, 245, 88, 276
-0.992982, 57, 1, 120, 128
-0.992983, 169, 65, 232, 320
-0.992988, 353, 165, 384, 196
-0.992992, 233, 273, 296, 333
-0.993012, 337, 169, 368, 200
-0.993017, 369, 225, 496, 288
-0.993017, 341, 217, 372, 248
-0.993024, 185, 237, 216, 268
-0.993041, 401, 1, 464, 64
-0.993042, 169, 49, 200, 176
-0.993044, 53, 173, 84, 204
-0.993052, 273, 97, 304, 160
-0.993062, 221, 201, 252, 264
-0.993063, 285, 297, 316, 328
-0.993087, 345, 141, 376, 172
-0.993095, 209, 285, 240, 316
-0.993096, 325, 229, 356, 260
-0.99311, 117, 273, 148, 333
-0.993113, 17, 65, 144, 128
-0.993114, 401, 1, 432, 64
-0.993115, 205, 261, 236, 292
-0.993116, 337, 181, 368, 212
-0.993118, 145, 245, 176, 276
-0.993119, 297, 297, 328, 328
-0.993122, 321, 249, 352, 280
-0.993124, 337, 197, 368, 228
-0.993125, 165, 245, 196, 276
-0.993127, 33, 209, 288, 272
-0.993131, 37, 245, 68, 276
-0.993137, 205, 249, 236, 280
-0.993146, 357, 153, 388, 184
-0.993148, 349, 233, 380, 264
-0.993153, 325, 1, 356, 128
-0.993176, 53, 161, 84, 192
-0.993178, 49, 233, 80, 264
-0.99319, 137, 297, 168, 328
-0.993196, 37, 261, 68, 292
-0.993202, 317, 269, 348, 300
-0.993204, 357, 217, 388, 248
-0.993211, 49, 205, 80, 236
-0.993213, 293, 265, 324, 328
-0.993215, 221, 285, 252, 316
-0.993219, 41, 217, 72, 248
-0.993227, 65, 217, 96, 248
-0.993235, 153, 233, 184, 264
-0.993242, 305, 81, 432, 144
-0.993242, 145, 121, 176, 152
-0.993244, 329, 265, 360, 296
-0.993251, 81, 205, 112, 236
-0.993253, 221, 229, 252, 260
-0.993255, 333, 245, 364, 276
-0.993262, 217, 297, 248, 328
-0.993267, 77, 137, 108, 168
-0.993295, 77, 253, 108, 284
-0.993298, 61, 149, 92, 180
-0.993298, 393, 145, 456, 208
-0.993307, 237, 241, 268, 272
-0.993316, 197, 289, 228, 320
-0.993317, 305, 269, 336, 300
-0.993322, 333, 145, 364, 176
-0.993325, 325, 217, 356, 248
-0.993325, 337, 129, 368, 160
-0.993329, 193, 81, 224, 208
-0.993329, 141, 257, 172, 288
-0.993329, 277, 217, 308, 248
-0.993335, 305, 233, 336, 264
-0.993339, 253, 225, 284, 256
-0.99334, 337, 281, 368, 312
-0.993349, 185, 273, 216, 304
-0.993352, 161, 113, 192, 144
-0.993353, 89, 129, 120, 160
-0.993356, 153, 205, 184, 236
-0.99336, 177, 249, 208, 280
-0.993363, 49, 269, 80, 300
-0.993365, 165, 229, 196, 260
-0.993367, 205, 237, 236, 268
-0.993369, 249, 101, 280, 132
-0.993371, 65, 261, 96, 292
-0.993375, 97, 233, 128, 264
-0.993381, 305, 97, 336, 128
-0.993389, 89, 141, 120, 172
-0.993393, 285, 97, 316, 128
-0.993399, 93, 193, 124, 224
-0.9934, 37, 277, 68, 308
-0.993403, 93, 245, 124, 276
-0.993405, 317, 281, 348, 312
-0.993407, 333, 157, 364, 188
-0.993407, 37, 229, 68, 260
-0.993408, 417, 1, 448, 32
-0.993409, 73, 189, 104, 220
-0.993409, 9, 1, 72, 64
-0.99341, 125, 293, 156, 324
-0.993414, 241, 225, 272, 256
-0.993416, 321, 201, 352, 264
-0.99342, 5, 277, 36, 308
-0.993421, 337, 301, 368, 332
-0.993422, 153, 261, 184, 292
-0.993425, 85, 153, 116, 184
-0.993426, 309, 253, 340, 284
-0.993428, 137, 285, 168, 316
-0.993429, 297, 205, 328, 236
-0.993429, 225, 241, 256, 272
-0.993433, 337, 233, 368, 264
-0.993433, 241, 201, 272, 264
-0.993437, 437, 185, 468, 216
-0.993438, 21, 277, 52, 308
-0.993438, 261, 101, 292, 132
-0.993443, 141, 273, 172, 304
-0.993446, 341, 257, 372, 288
-0.993453, 109, 133, 140, 164
-0.993454, 357, 141, 388, 172
-0.993455, 45, 185, 76, 216
-0.993456, 169, 169, 200, 200
-0.993457, 369, 221, 400, 252
-0.993458, 77, 217, 108, 248
-0.993459, 133, 113, 164, 144
-0.99346, 169, 217, 200, 248
-0.993461, 229, 297, 260, 328
-0.993461, 229, 273, 260, 304
-0.993463, 237, 101, 268, 132
-0.993466, 349, 277, 380, 308
-0.993469, 125, 133, 156, 164
-0.993475, 305, 285, 336, 316
-0.993475, 181, 285, 212, 316
-0.993477, 337, 113, 368, 144
-0.993479, 177, 101, 208, 132
-0.993479, 137, 197, 168, 228
-0.993483, 81, 165, 112, 196
-0.993487, 453, 177, 484, 208
-0.993488, 273, 97, 304, 128
-0.993489, 209, 133, 240, 164
-0.993493, 57, 1, 120, 333
-0.993495, 305, 221, 336, 252
-0.993497, 125, 281, 156, 312
-0.993497, 265, 221, 296, 252
-0.993508, 393, 225, 456, 288
-0.993534, 53, 129, 84, 192
-0.993554, 65, 137, 320, 200
-0.993593, 285, 209, 316, 333
-0.993601, 105, 1, 168, 333
-0.993605, 453, 1, 484, 128
-0.993606, 433, 25, 496, 88
-0.993615, 305, 217, 336, 280
-0.993638, 265, 217, 296, 280
-0.993653, 225, 65, 256, 128
-0.993653, 149, 169, 180, 232
-0.993655, 93, 137, 124, 200
-0.993696, 305, 49, 336, 176
-0.993697, 369, 129, 496, 192
-0.993698, 309, 57, 340, 120
-0.993719, 225, 25, 352, 88
-0.993719, 97, 41, 224, 104
-0.993742, 361, 113, 392, 176
-0.993773, 157, 97, 188, 224
-0.993796, 177, 105, 208, 168
-0.993796, 117, 113, 148, 176
-0.993854, 317, 97, 348, 160
-0.993866, 109, 241, 140, 304
-0.99395, 453, 177, 484, 304
-0.99397, 21, 1, 52, 128
-0.994021, 129, 201, 160, 264
-0.994048, 273, 9, 400, 72
-0.994064, 33, 1, 160, 64
-0.994087, 97, 65, 224, 128
-0.9941, 269, 65, 300, 128
-0.994114, 161, 273, 416, 333
-0.994206, 165, 89, 196, 152
-0.994213, 1, 249, 256, 312
-0.994219, 65, 185, 320, 248
-0.994225, 149, 121, 180, 184
-0.994232, 69, 129, 100, 192
-0.994256, 273, 145, 304, 272
-0.994316, 13, 249, 44, 312
-0.994326, 157, 249, 188, 312
-0.994332, 293, 89, 324, 152
-0.99435, 145, 65, 176, 192
-0.994369, 63, 193, 78, 256
-0.994374, 205, 201, 236, 264
-0.99439, 349, 249, 380, 312
-0.994391, 55, 233, 70, 296
-0.99442, 253, 33, 284, 160
-0.994429, 81, 1, 144, 333
-0.994537, 129, 97, 384, 160
-0.994552, 209, 129, 240, 192
-0.994556, 145, 233, 176, 296
-0.994561, 161, 217, 416, 280
-0.994619, 289, 65, 320, 192
-0.994624, 381, 1, 412, 128
-0.994627, 89, 169, 120, 232
-0.994632, 145, 113, 176, 240
-0.994701, 217, 145, 248, 272
-0.994703, 105, 129, 136, 192
-0.994714, 1, 161, 256, 224
-0.994718, 465, 17, 496, 144
-0.994736, 201, 249, 216, 312
-0.994765, 169, 137, 200, 200
-0.994797, 113, 209, 144, 272
-0.994807, 365, 81, 396, 208
-0.994821, 185, 209, 216, 272
-0.994824, 221, 1, 252, 128
-0.994844, 169, 97, 200, 224
-0.994871, 169, 185, 200, 248
-0.994892, 65, 169, 80, 232
-0.994922, 161, 249, 416, 312
-0.994933, 113, 169, 144, 232
-0.994935, 305, 89, 336, 152
-0.994968, 161, 1, 224, 333
-0.994985, 277, 1, 308, 128
-0.994999, 129, 113, 160, 240
-0.995012, 325, 121, 356, 184
-0.995014, 197, 129, 228, 192
-0.995081, 105, 145, 136, 272
-0.995097, 393, 1, 456, 256
-0.99513, 337, 1, 400, 333
-0.995136, 253, 201, 284, 264
-0.995147, 277, 81, 308, 208
-0.99515, 359, 145, 374, 208
-0.995186, 73, 153, 88, 216
-0.995192, 161, 161, 192, 224
-0.995194, 429, 145, 460, 272
-0.995224, 5, 209, 36, 333
-0.995226, 433, 65, 464, 192
-0.995228, 137, 1, 168, 128
-0.99523, 289, 225, 320, 288
-0.995286, 145, 49, 272, 112
-0.995287, 29, 217, 60, 280
-0.995307, 349, 121, 380, 184
-0.995419, 253, 209, 284, 333
-0.995429, 377, 161, 408, 288
-0.995431, 469, 41, 500, 104
-0.995446, 1, 49, 32, 176
-0.995453, 381, 49, 412, 176
-0.995464, 465, 169, 496, 232
-0.995466, 249, 129, 280, 256
-0.995476, 189, 97, 220, 160
-0.995477, 57, 201, 72, 264
-0.995478, 253, 73, 284, 136
-0.995484, 73, 81, 104, 208
-0.995505, 445, 145, 476, 208
-0.99551, 369, 241, 400, 304
-0.995567, 205, 57, 236, 120
-0.995573, 161, 177, 416, 240
-0.995603, 41, 49, 72, 112
-0.995603, 389, 49, 420, 112
-0.995617, 137, 129, 168, 192
-0.995659, 209, 273, 224, 333
-0.995674, 53, 257, 68, 320
-0.995704, 289, 57, 320, 120
-0.995706, 285, 193, 316, 256
-0.995748, 349, 145, 364, 208
-0.995768, 185, 57, 216, 120
-0.995777, 157, 145, 188, 272
-0.995905, 181, 65, 212, 192
-0.995927, 445, 49, 476, 176
-0.995972, 157, 49, 188, 176
-0.995986, 1, 257, 500, 320
-0.995988, 161, 121, 416, 184
-0.995998, 257, 209, 500, 272
-0.996013, 65, 205, 192, 236
-0.996028, 257, 209, 384, 240
-0.996065, 185, 25, 216, 88
-0.99607, 277, 273, 308, 333
-0.996109, 33, 97, 288, 160
-0.996114, 203, 273, 218, 333
-0.99612, 17, 89, 144, 152
-0.996122, 265, 209, 296, 333
-0.996163, 349, 169, 364, 232
-0.99617, 321, 49, 352, 112
-0.996171, 63, 217, 78, 280
-0.996179, 195, 257, 210, 320
-0.996209, 53, 81, 84, 208
-0.996244, 33, 193, 160, 224
-0.996267, 225, 221, 352, 252
-0.996268, 351, 209, 366, 272
-0.996302, 305, 217, 432, 248
-0.99631, 441, 1, 472, 128
-0.996312, 261, 161, 292, 288
-0.996321, 47, 241, 62, 304
-0.996324, 157, 1, 188, 128
-0.996329, 37, 1, 68, 128
-0.996339, 33, 273, 288, 333
-0.996346, 257, 153, 500, 216
-0.996359, 153, 249, 168, 312
-0.996359, 321, 249, 336, 312
-0.996361, 145, 285, 272, 316
-0.996397, 207, 249, 222, 312
-0.996418, 113, 273, 240, 304
-0.996438, 405, 209, 436, 333
-0.996464, 223, 273, 238, 333
-0.996487, 429, 209, 460, 333
-0.996515, 257, 265, 500, 328
-0.996519, 441, 209, 472, 333
-0.996527, 285, 161, 316, 288
-0.996537, 229, 225, 244, 288
-0.996546, 71, 177, 86, 240
-0.996547, 385, 97, 448, 224
-0.996566, 425, 1, 456, 128
-0.996628, 49, 217, 64, 280
-0.996629, 65, 157, 192, 188
-0.996633, 1, 201, 500, 264
-0.996634, 161, 229, 288, 260
-0.996653, 305, 229, 432, 260
-0.996661, 349, 65, 380, 192
-0.996669, 225, 97, 352, 128
-0.996672, 1, 181, 128, 212
-0.996705, 209, 1, 240, 128
-0.996736, 81, 245, 208, 276
-0.996748, 33, 257, 160, 288
-0.996764, 265, 17, 296, 144
-0.996769, 73, 129, 88, 192
-0.996802, 145, 257, 160, 320
-0.996803, 49, 169, 176, 200
-0.996819, 161, 153, 416, 216
-0.996837, 243, 225, 258, 288
-0.996848, 117, 113, 148, 240
-0.996866, 79, 137, 94, 200
-0.996881, 129, 73, 384, 136
-0.996882, 81, 193, 208, 224
-0.99691, 237, 1, 268, 128
-0.996915, 65, 181, 192, 212
-0.996925, 345, 249, 360, 312
-0.996968, 305, 201, 432, 232
-0.996977, 187, 257, 202, 320
-0.996984, 325, 225, 340, 288
-0.996988, 61, 241, 76, 304
-0.99701, 125, 49, 156, 176
-0.997013, 257, 33, 500, 96
-0.997017, 357, 121, 372, 184
-0.99702, 67, 145, 82, 208
-0.997028, 249, 225, 264, 288
-0.997035, 1, 105, 500, 168
-0.997038, 257, 73, 500, 136
-0.997054, 355, 273, 370, 333
-0.997094, 33, 217, 160, 248
-0.997101, 81, 233, 208, 264
-0.997102, 73, 257, 88, 320
-0.997107, 113, 133, 240, 164
-0.997111, 25, 65, 56, 192
-0.997114, 5, 257, 20, 320
-0.99713, 1, 233, 128, 264
-0.99713, 33, 245, 160, 276
-0.997132, 315, 265, 330, 328
-0.997154, 189, 1, 220, 128
-0.997173, 159, 241, 174, 304
-0.997183, 1, 129, 500, 192
-0.997183, 113, 121, 240, 152
-0.997184, 161, 213, 288, 244
-0.997186, 313, 233, 328, 296
-0.997212, 81, 221, 208, 252
-0.997225, 57, 1, 88, 128
-0.997229, 129, 33, 384, 96
-0.997233, 69, 217, 84, 280
-0.997234, 167, 209, 182, 272
-0.997251, 353, 157, 480, 188
-0.997251, 11, 257, 26, 320
-0.997253, 237, 225, 252, 288
-0.99727, 191, 233, 206, 296
-0.997277, 65, 137, 192, 168
-0.997281, 201, 225, 216, 288
-0.997282, 193, 273, 320, 304
-0.997286, 237, 201, 252, 264
-0.997289, 113, 261, 240, 292
-0.997293, 85, 129, 100, 192
-0.997308, 165, 233, 180, 296
-0.997312, 297, 1, 328, 128
-0.997328, 79, 169, 94, 232
-0.997331, 393, 209, 424, 333
-0.997337, 361, 169, 376, 232
-0.997353, 355, 233, 370, 296
-0.997359, 1, 205, 128, 236
-0.997366, 375, 217, 390, 280
-0.99737, 75, 209, 90, 272
-0.997381, 347, 273, 362, 333
-0.997382, 273, 145, 400, 176
-0.997386, 229, 265, 244, 328
-0.997388, 17, 269, 144, 300
-0.997389, 305, 273, 320, 333
-0.99739, 257, 233, 500, 296
-0.99741, 73, 153, 88, 184
-0.99741, 453, 113, 484, 240
-0.997419, 159, 201, 174, 264
-0.997429, 145, 101, 272, 132
-0.997433, 1, 33, 256, 96
-0.997437, 41, 241, 56, 304
-0.997457, 353, 213, 480, 244
-0.997458, 257, 97, 500, 160
-0.997466, 249, 97, 264, 160
-0.997471, 55, 169, 70, 232
-0.99748, 161, 241, 288, 272
-0.997485, 309, 145, 340, 272
-0.997486, 353, 177, 480, 208
-0.997493, 273, 301, 400, 332
-0.997499, 339, 225, 354, 288
-0.997501, 1, 9, 256, 72
-0.997501, 93, 241, 108, 304
-0.997501, 93, 129, 108, 192
-0.99751, 63, 265, 78, 328
-0.997511, 103, 217, 118, 280
-0.997531, 1, 65, 256, 128
-0.997532, 47, 265, 62, 328
-0.997547, 257, 237, 384, 268
-0.99755, 113, 205, 240, 236
-0.997551, 89, 65, 120, 192
-0.997554, 203, 273, 218, 304
-0.997569, 257, 225, 272, 288
-0.997571, 97, 9, 352, 72
-0.997585, 413, 145, 444, 272
-0.997587, 229, 201, 244, 264
-0.997593, 243, 201, 258, 264
-0.997595, 193, 285, 320, 316
-0.997599, 257, 9, 500, 72
-0.9976, 87, 249, 102, 312
-0.997603, 417, 65, 448, 192
-0.997603, 161, 201, 288, 232
-0.997604, 241, 253, 368, 284
-0.997617, 305, 241, 432, 272
-0.997618, 299, 193, 314, 256
-0.997625, 65, 193, 80, 224
-0.997625, 257, 185, 500, 248
-0.997629, 349, 113, 364, 176
-0.997632, 17, 273, 32, 333
-0.99764, 213, 249, 228, 312
-0.997644, 1, 169, 128, 200
-0.997656, 273, 157, 400, 188
-0.997657, 227, 97, 242, 160
-0.99766, 27, 273, 42, 333
-0.997666, 159, 121, 174, 184
-0.997667, 59, 201, 74, 232
-0.997672, 59, 213, 74, 244
-0.997676, 355, 177, 370, 240
-0.997676, 331, 257, 346, 320
-0.997684, 179, 89, 194, 152
-0.997698, 201, 249, 216, 280
-0.997699, 67, 241, 82, 304
-0.997709, 97, 193, 112, 256
-0.997733, 221, 97, 236, 160
-0.997741, 33, 273, 48, 333
-0.997751, 159, 161, 174, 224
-0.997758, 79, 257, 94, 320
-0.997762, 299, 273, 314, 333
-0.99777, 369, 49, 496, 80
-0.99777, 261, 97, 276, 160
-0.997776, 273, 273, 400, 304
-0.997777, 271, 97, 286, 160
-0.997778, 361, 193, 376, 256
-0.997781, 209, 297, 336, 328
-0.997785, 255, 97, 270, 160
-0.997787, 239, 65, 254, 128
-0.997788, 69, 169, 84, 200
-0.997802, 273, 177, 400, 208
-0.997825, 257, 197, 384, 228
-0.997826, 139, 273, 154, 333
-0.997828, 147, 129, 162, 192
-0.997834, 289, 217, 304, 280
-0.997835, 299, 297, 314, 328
-0.997839, 353, 189, 480, 220
-0.997843, 165, 129, 180, 192
-0.997846, 51, 193, 66, 256
-0.997858, 127, 201, 142, 264
-0.997862, 321, 145, 448, 176
-0.997865, 161, 89, 288, 120
-0.997874, 319, 225, 334, 288
-0.997876, 365, 113, 380, 176
-0.997884, 313, 97, 344, 224
-0.997894, 177, 261, 304, 292
-0.997897, 1, 153, 128, 184
-0.9979, 65, 121, 192, 152
-0.997906, 349, 169, 364, 200
-0.99791, 369, 225, 496, 256
-0.997916, 441, 113, 472, 240
-0.997919, 173, 217, 188, 280
-0.997919, 321, 273, 336, 333
-0.99792, 155, 241, 170, 272
-0.997926, 85, 209, 100, 272
-0.997927, 105, 193, 120, 256
-0.997933, 237, 249, 252, 312
-0.997934, 153, 161, 168, 224
-0.997937, 259, 73, 274, 136
-0.99794, 211, 281, 226, 312
-0.99794, 185, 225, 200, 288
-0.997945, 359, 153, 374, 184
-0.997946, 221, 249, 236, 312
-0.997947, 53, 257, 68, 288
-0.997951, 273, 89, 400, 120
-0.997952, 275, 217, 290, 280
-0.997952, 277, 97, 292, 160
-0.997971, 55, 237, 70, 268
-0.997972, 9, 1, 40, 128
-0.997994, 345, 225, 360, 288
-0.997994, 291, 273, 306, 333
-0.997999, 293, 301, 308, 332
-0.998, 457, 65, 488, 192
-0.998003, 361, 233, 376, 296
-0.998006, 17, 249, 32, 312
-0.998007, 27, 249, 42, 312
-0.998009, 367, 177, 382, 240
-0.998012, 77, 169, 92, 200
-0.998013, 169, 105, 184, 168
-0.998013, 239, 105, 254, 168
-0.998017, 369, 1, 400, 128
-0.998021, 91, 209, 106, 272
-0.998023, 65, 213, 80, 244
-0.998024, 99, 129, 114, 192
-0.99803, 289, 113, 320, 240
-0.99803, 39, 273, 54, 333
-0.998034, 399, 41, 414, 104
-0.998034, 181, 137, 196, 200
-0.998037, 265, 65, 280, 128
-0.998043, 17, 141, 144, 172
-0.998045, 69, 33, 100, 160
-0.998046, 457, 153, 472, 216
-0.99805, 65, 281, 192, 312
-0.998052, 369, 33, 496, 64
-0.998054, 369, 201, 384, 264
-0.998057, 233, 97, 248, 160
-0.998058, 203, 137, 218, 200
-0.998064, 113, 1, 240, 32
-0.998066, 241, 125, 368, 156
-0.998066, 305, 189, 432, 220
-0.998075, 321, 257, 336, 288
-0.998079, 313, 1, 344, 128
-0.998087, 129, 301, 256, 332
-0.998095, 63, 173, 78, 204
-0.998096, 357, 141, 372, 172
-0.998105, 209, 49, 336, 80
-0.998107, 177, 133, 304, 164
-0.998113, 65, 269, 192, 300
-0.998147, 73, 205, 88, 236
-0.998171, 97, 169, 224, 200
-0.99818, 97, 101, 224, 132
-0.998181, 341, 65, 372, 320
-0.998184, 193, 249, 208, 280
-0.998185, 351, 217, 366, 248
-0.998186, 231, 289, 246, 320
-0.998186, 79, 153, 94, 184
-0.998194, 33, 49, 160, 80
-0.998202, 237, 33, 268, 288
-0.998212, 53, 213, 68, 244
-0.99822, 105, 97, 136, 224
-0.998223, 197, 281, 212, 312
-0.998228, 321, 145, 352, 272
-0.998236, 69, 181, 84, 212
-0.998244, 73, 65, 104, 320
-0.998247, 57, 225, 72, 256
-0.99825, 289, 261, 416, 292
-0.99825, 209, 85, 336, 116
-0.998252, 349, 145, 364, 176
-0.998255, 351, 181, 366, 212
-0.998256, 201, 261, 216, 292
-0.998267, 289, 49, 416, 80
-0.998274, 141, 297, 156, 328
-0.998288, 149, 249, 164, 280
-0.998288, 161, 145, 288, 176
-0.99829, 1, 49, 500, 112
-0.998303, 301, 279, 332, 294
-0.998304, 137, 299, 168, 314
-0.998304, 205, 243, 236, 258
-0.998305, 17, 279, 48, 294
-0.998305, 41, 209, 72, 224
-0.998306, 349, 245, 380, 260
-0.998306, 349, 157, 364, 188
-0.998307, 337, 299, 368, 314
-0.998308, 1, 281, 32, 296
-0.998308, 237, 243, 268, 258
-0.998308, 333, 269, 364, 284
-0.998308, 73, 133, 104, 148
-0.998308, 289, 99, 320, 114
-0.998308, 145, 125, 176, 140
-0.998308, 65, 293, 192, 324
-0.998309, 41, 229, 72, 244
-0.998309, 153, 119, 184, 134
-0.99831, 341, 137, 372, 152
-0.99831, 337, 245, 368, 260
-0.998311, 211, 269, 226, 300
-0.998311, 273, 109, 400, 140
-0.998311, 329, 225, 360, 240
-0.998311, 137, 263, 168, 278
-0.998312, 65, 205, 96, 220
-0.998313, 89, 143, 120, 158
-0.998316, 305, 251, 336, 266
-0.998316, 157, 239, 188, 254
-0.998316, 217, 301, 248, 316
-0.998316, 125, 307, 156, 322
-0.998317, 301, 311, 332, 326
-0.998318, 213, 309, 244, 324
-0.998318, 185, 291, 216, 306
-0.998318, 285, 297, 316, 312
-0.998319, 333, 161, 364, 176
-0.998319, 357, 151, 388, 166
-0.998321, 333, 151, 364, 166
-0.998321, 325, 231, 356, 246
-0.998321, 321, 267, 352, 282
-0.998321, 337, 209, 368, 224
-0.998322, 341, 237, 372, 252
-0.998324, 277, 219, 308, 234
-0.998325, 229, 285, 260, 300
-0.998325, 297, 297, 328, 312
-0.998325, 57, 237, 88, 252
-0.998326, 341, 131, 372, 146
-0.998326, 209, 241, 336, 272
-0.998326, 133, 241, 164, 256
-0.998327, 141, 289, 172, 304
-0.998327, 53, 203, 84, 218
-0.998327, 49, 185, 80, 200
-0.998328, 53, 201, 68, 232
-0.998328, 161, 161, 192, 176
-0.998329, 9, 161, 40, 288
-0.99833, 261, 101, 292, 116
-0.99833, 209, 267, 240, 282
-0.998331, 185, 245, 216, 260
-0.998332, 49, 241, 64, 272
-0.998332, 85, 157, 116, 172
-0.998332, 277, 309, 308, 324
-0.998333, 61, 153, 92, 168
-0.998335, 165, 257, 196, 272
-0.998335, 73, 143, 104, 158
-0.998335, 357, 163, 388, 178
-0.998335, 185, 261, 216, 276
-0.998336, 221, 291, 252, 306
-0.998336, 305, 133, 432, 164
-0.998337, 137, 305, 168, 320
-0.998337, 189, 271, 220, 286
-0.998337, 77, 173, 108, 188
-0.998338, 333, 251, 364, 266
-0.998339, 37, 245, 68, 260
-0.99834, 317, 273, 348, 288
-0.99834, 337, 203, 368, 218
-0.998342, 353, 201, 480, 232
-0.998342, 327, 245, 342, 276
-0.998344, 37, 259, 68, 274
-0.998345, 345, 143, 376, 158
-0.998345, 209, 209, 336, 240
-0.998346, 329, 277, 360, 292
-0.998346, 145, 17, 272, 48
-0.998347, 53, 273, 84, 288
-0.998347, 221, 289, 236, 320
-0.998348, 141, 249, 172, 264
-0.998349, 17, 61, 144, 92
-0.998349, 97, 85, 224, 116
-0.99835, 345, 227, 376, 242
-0.998351, 197, 291, 228, 306
-0.998352, 317, 279, 348, 294
-0.998352, 83, 137, 98, 168
-0.998356, 145, 255, 176, 270
-0.998356, 41, 219, 72, 234
-0.998357, 59, 249, 74, 280
-0.998357, 49, 243, 80, 258
-0.998357, 337, 183, 368, 198
-0.998358, 37, 251, 68, 266
-0.99836, 161, 241, 176, 272
-0.998362, 353, 129, 368, 160
-0.998362, 161, 117, 288, 148
-0.998362, 49, 263, 80, 278
-0.998362, 357, 157, 388, 172
-0.998363, 205, 249, 236, 264
-0.998363, 81, 167, 112, 182
-0.998363, 321, 261, 352, 276
-0.998363, 209, 273, 240, 288
-0.998364, 195, 265, 210, 296
-0.998366, 357, 181, 388, 196
-0.998366, 305, 273, 336, 288
-0.998368, 325, 237, 356, 252
-0.99837, 53, 167, 84, 182
-0.99837, 65, 185, 96, 200
-0.998374, 53, 269, 68, 300
-0.998374, 73, 153, 104, 168
-0.998375, 337, 197, 368, 212
-0.998375, 325, 245, 356, 260
-0.998376, 337, 191, 368, 206
-0.998381, 165, 251, 196, 266
-0.998382, 341, 221, 372, 236
-0.998384, 213, 315, 244, 330
-0.998384, 61, 159, 92, 174
-0.998385, 61, 211, 92, 226
-0.998385, 321, 253, 352, 268
-0.998387, 209, 289, 240, 304
-0.998388, 357, 219, 388, 234
-0.998389, 61, 197, 92, 212
-0.998389, 197, 259, 228, 274
-0.998392, 53, 173, 84, 188
-0.998392, 49, 255, 80, 270
-0.998394, 189, 277, 220, 292
-0.998402, 357, 175, 388, 190
-0.998405, 59, 185, 74, 216
-0.998405, 207, 249, 222, 280
-0.998407, 293, 303, 324, 318
-0.998407, 351, 197, 366, 228
-0.998408, 341, 229, 356, 260
-0.99841, 337, 169, 368, 184
-0.998411, 357, 187, 388, 202
-0.998412, 85, 149, 100, 180
-0.998413, 61, 191, 92, 206
-0.998414, 209, 283, 240, 298
-0.998415, 257, 289, 384, 320
-0.998417, 61, 237, 76, 268
-0.998418, 345, 157, 376, 172
-0.998419, 153, 245, 184, 260
-0.998419, 177, 29, 304, 60
-0.99842, 345, 163, 376, 178
-0.99842, 349, 169, 380, 184
-0.998423, 289, 309, 320, 324
-0.998423, 73, 159, 104, 174
-0.998424, 49, 249, 80, 264
-0.998424, 337, 177, 368, 192
-0.998425, 345, 149, 376, 164
-0.998429, 61, 179, 92, 194
-0.998439, 53, 217, 84, 232
-0.998443, 357, 197, 388, 212
-0.998443, 357, 205, 388, 220
-0.998444, 129, 189, 256, 220
-0.998449, 193, 17, 320, 48
-0.998451, 61, 223, 92, 238
-0.998464, 185, 251, 216, 266
-0.998466, 197, 285, 228, 300
-0.99847, 305, 37, 432, 68
-0.998478, 357, 213, 388, 228
-0.998489, 161, 157, 288, 188
-0.998493, 321, 269, 336, 300
-0.998499, 225, 69, 352, 100
-0.998507, 65, 173, 96, 188
-0.99851, 69, 167, 100, 182
-0.998514, 201, 237, 216, 268
-0.998515, 195, 237, 210, 268
-0.998522, 361, 165, 376, 196
-0.998525, 337, 265, 464, 296
-0.998526, 77, 141, 92, 172
-0.998528, 329, 233, 344, 264
-0.998528, 51, 225, 66, 256
-0.998528, 221, 301, 236, 332
-0.998532, 45, 257, 60, 288
-0.998532, 143, 281, 158, 312
-0.998536, 155, 253, 170, 284
-0.99854, 241, 33, 368, 64
-0.998546, 57, 221, 120, 236
-0.998556, 93, 137, 108, 168
-0.998556, 341, 245, 356, 276
-0.99856, 359, 181, 374, 212
-0.998562, 57, 173, 72, 204
-0.998564, 189, 261, 204, 292
-0.998564, 57, 165, 120, 180
-0.998568, 41, 249, 104, 264
-0.998568, 117, 161, 148, 288
-0.998571, 353, 297, 368, 328
-0.998575, 313, 253, 328, 284
-0.998576, 29, 161, 60, 288
-0.998578, 1, 233, 500, 296
-0.998579, 145, 57, 272, 88
-0.998582, 57, 213, 120, 228
-0.998584, 1, 81, 128, 112
-0.998591, 147, 297, 162, 328
-0.998592, 57, 171, 120, 186
-0.998593, 113, 153, 240, 184
-0.998595, 57, 241, 120, 256
-0.998596, 145, 247, 208, 262
-0.998597, 289, 61, 416, 92
-0.998597, 329, 189, 392, 204
-0.998597, 193, 251, 256, 266
-0.998598, 317, 225, 332, 256
-0.998598, 369, 5, 496, 36
-0.998598, 153, 253, 216, 268
-0.998601, 227, 277, 242, 308
-0.998604, 329, 211, 392, 226
-0.998606, 193, 285, 256, 300
-0.998609, 49, 197, 112, 212
-0.998609, 337, 223, 400, 238
-0.99861, 329, 183, 392, 198
-0.99861, 97, 73, 224, 104
-0.998612, 329, 197, 392, 212
-0.998613, 245, 225, 260, 256
-0.998616, 57, 235, 120, 250
-0.998617, 65, 157, 128, 172
-0.998619, 313, 231, 376, 246
-0.998623, 321, 203, 384, 218
-0.998623, 167, 233, 182, 264
-0.998625, 313, 219, 376, 234
-0.998626, 33, 217, 96, 232
-0.998628, 281, 307, 344, 322
-0.998629, 57, 227, 120, 242
-0.99863, 361, 65, 392, 320
-0.99863, 33, 209, 96, 224
-0.998633, 153, 259, 216, 274
-0.998633, 57, 205, 120, 220
-0.998635, 345, 157, 408, 172
-0.998636, 337, 217, 400, 232
-0.998637, 353, 203, 416, 218
-0.998637, 33, 165, 96, 180
-0.998638, 49, 191, 112, 206
-0.998638, 41, 255, 104, 270
-0.998639, 61, 177, 76, 304
-0.998639, 257, 305, 320, 320
-0.998639, 135, 301, 150, 332
-0.998639, 345, 163, 408, 178
-0.998639, 193, 245, 256, 260
-0.998642, 177, 225, 240, 240
-0.998642, 353, 211, 416, 226
-0.998642, 255, 101, 270, 132
-0.998643, 345, 173, 408, 188
-0.998643, 65, 141, 128, 156
-0.998643, 97, 245, 160, 260
-0.998644, 33, 177, 96, 192
-0.998644, 305, 265, 368, 280
-0.998644, 17, 231, 80, 246
-0.998645, 193, 279, 256, 294
-0.998646, 229, 229, 244, 260
-0.998646, 321, 177, 384, 192
-0.998647, 17, 249, 80, 264
-0.998648, 241, 101, 304, 116
-0.998648, 249, 223, 312, 238
-0.998649, 305, 253, 368, 268
-0.998649, 305, 183, 368, 198
-0.99865, 17, 225, 80, 240
-0.998651, 305, 191, 368, 206
-0.998651, 17, 239, 80, 254
-0.998653, 193, 257, 256, 272
-0.998653, 305, 259, 368, 274
-0.998654, 41, 155, 104, 170
-0.998655, 241, 241, 256, 272
-0.998657, 187, 245, 202, 276
-0.998657, 59, 265, 74, 296
-0.998657, 193, 291, 256, 306
-0.998658, 347, 133, 362, 164
-0.998659, 321, 157, 384, 172
-0.998659, 265, 99, 328, 114
-0.99866, 153, 283, 216, 298
-0.99866, 347, 281, 362, 312
-0.99866, 105, 135, 168, 150
-0.99866, 41, 273, 104, 288
-0.99866, 89, 195, 152, 210
-0.998661, 309, 265, 324, 296
-0.998662, 305, 163, 368, 178
-0.998663, 17, 255, 80, 270
-0.998665, 145, 241, 208, 256
-0.998666, 1, 129, 128, 160
-0.998666, 177, 239, 240, 254
-0.998667, 337, 231, 400, 246
-0.998667, 153, 227, 216, 242
-0.998668, 321, 5, 448, 36
-0.998668, 81, 213, 144, 228
-0.998669, 65, 185, 128, 200
-0.998669, 67, 157, 82, 188
-0.998669, 121, 205, 184, 220
-0.998669, 159, 121, 174, 152
-0.99867, 145, 123, 208, 138
-0.998671, 257, 311, 320, 326
-0.998671, 185, 263, 248, 278
-0.998671, 241, 17, 368, 48
-0.998672, 357, 217, 372, 248
-0.998672, 145, 289, 208, 304
-0.998672, 305, 247, 368, 262
-0.998672, 153, 159, 216, 174
-0.998672, 305, 303, 368, 318
-0.998673, 353, 197, 416, 212
-0.998674, 81, 205, 144, 220
-0.998674, 89, 65, 120, 320
-0.998674, 177, 103, 240, 118
-0.998674, 225, 1, 352, 32
-0.998675, 281, 211, 344, 226
-0.998676, 281, 313, 344, 328
-0.998676, 233, 243, 296, 258
-0.998678, 289, 225, 352, 240
-0.998678, 321, 169, 384, 184
-0.998678, 313, 225, 376, 240
-0.998679, 321, 151, 384, 166
-0.998679, 145, 235, 208, 250
-0.998681, 65, 133, 128, 148
-0.998682, 73, 147, 136, 162
-0.998682, 89, 251, 152, 266
-0.998682, 193, 273, 256, 288
-0.998682, 129, 131, 192, 146
-0.998683, 289, 279, 352, 294
-0.998684, 313, 239, 376, 254
-0.998684, 57, 177, 120, 192
-0.998685, 161, 277, 224, 292
-0.998686, 305, 271, 368, 286
-0.998686, 105, 311, 168, 326
-0.998686, 217, 229, 280, 244
-0.998687, 281, 301, 344, 316
-0.998687, 273, 247, 336, 262
-0.998687, 33, 203, 96, 218
-0.998687, 349, 117, 364, 148
-0.998687, 99, 137, 114, 168
-0.998687, 351, 229, 366, 260
-0.998687, 121, 243, 184, 258
-0.998688, 73, 263, 136, 278
-0.998688, 169, 291, 232, 306
-0.998688, 33, 261, 96, 276
-0.998688, 161, 165, 224, 180
-0.998688, 305, 211, 368, 226
-0.998688, 145, 137, 208, 152
-0.998688, 13, 65, 44, 192
-0.998688, 33, 171, 96, 186
-0.998689, 353, 189, 416, 204
-0.99869, 77, 217, 92, 248
-0.998691, 25, 193, 88, 208
-0.998691, 301, 285, 316, 316
-0.998692, 289, 233, 352, 248
-0.998692, 1, 279, 64, 294
-0.998692, 273, 217, 336, 232
-0.998692, 313, 283, 376, 298
-0.998692, 193, 135, 256, 150
-0.998692, 273, 253, 336, 268
-0.998694, 217, 105, 280, 120
-0.998694, 305, 197, 368, 212
-0.998695, 217, 97, 280, 112
-0.998695, 369, 21, 496, 52
-0.998695, 345, 151, 408, 166
-0.998695, 129, 253, 192, 268
-0.998696, 153, 219, 216, 234
-0.998697, 81, 163, 144, 178
-0.998697, 305, 291, 368, 306
-0.998698, 17, 281, 32, 312
-0.998698, 75, 181, 90, 212
-0.998703, 319, 281, 334, 312
-0.998709, 59, 161, 74, 192
-0.998709, 353, 61, 480, 92
-0.998711, 307, 297, 322, 328
-0.998715, 337, 281, 464, 312
-0.998719, 47, 277, 62, 308
-0.998719, 91, 125, 106, 156
-0.998721, 259, 225, 274, 256
-0.998726, 323, 233, 338, 264
-0.998728, 201, 293, 216, 324
-0.998731, 235, 225, 250, 256
-0.998734, 257, 129, 500, 192
-0.998735, 317, 237, 332, 268
-0.998736, 83, 213, 98, 244
-0.998741, 161, 169, 288, 200
-0.998741, 97, 25, 224, 56
-0.998743, 353, 133, 480, 164
-0.998748, 331, 265, 346, 296
-0.998748, 75, 261, 90, 292
-0.998748, 249, 101, 264, 132
-0.998752, 159, 157, 174, 188
-0.998755, 33, 277, 48, 308
-0.998757, 221, 273, 236, 304
-0.998757, 65, 257, 80, 288
-0.998758, 359, 197, 374, 228
-0.998758, 165, 209, 180, 240
-0.99876, 357, 229, 372, 260
-0.998761, 209, 237, 224, 268
-0.998765, 341, 217, 356, 248
-0.998765, 315, 269, 330, 300
-0.998767, 65, 1, 192, 32
-0.998767, 239, 285, 254, 316
-0.998769, 459, 181, 474, 212
-0.99877, 23, 277, 38, 308
-0.998774, 211, 293, 226, 324
-0.998775, 151, 265, 166, 296
-0.998776, 353, 73, 480, 104
-0.998778, 249, 33, 280, 288
-0.998779, 273, 33, 304, 288
-0.99878, 125, 1, 156, 128
-0.99878, 79, 201, 94, 232
-0.998788, 63, 225, 78, 256
-0.998791, 169, 113, 184, 144
-0.998793, 437, 189, 452, 220
-0.998795, 329, 65, 360, 320
-0.998795, 1, 33, 128, 64
-0.998796, 181, 249, 196, 280
-0.998798, 225, 113, 352, 144
-0.998805, 69, 137, 84, 168
-0.998807, 343, 265, 358, 296
-0.998808, 145, 41, 272, 72
-0.998814, 81, 49, 208, 80
-0.998817, 1, 281, 128, 312
-0.998839, 337, 105, 464, 136
-0.99884, 145, 69, 272, 100
-0.998854, 55, 209, 70, 333
-0.998862, 177, 1, 304, 32
-0.998874, 69, 161, 84, 288
-0.998891, 169, 1, 200, 128
-0.998893, 1, 153, 500, 216
-0.998903, 353, 297, 480, 328
-0.998908, 1, 97, 32, 224
-0.998915, 225, 137, 352, 168
-0.998918, 353, 121, 480, 152
-0.998922, 225, 185, 352, 216
-0.998939, 109, 65, 140, 320
-0.998944, 353, 237, 480, 268
-0.998956, 17, 117, 144, 148
-0.99897, 359, 129, 374, 256
-0.998978, 137, 65, 168, 320
-0.998979, 337, 253, 464, 284
-0.998986, 1, 177, 500, 240
-0.999001, 321, 89, 448, 120
-0.999018, 321, 25, 448, 56
-0.999046, 349, 145, 364, 272
-0.999055, 261, 33, 292, 288
-0.999065, 351, 193, 366, 320
-0.999084, 1, 1, 32, 256
-0.999108, 1, 25, 500, 88
-0.999123, 225, 65, 256, 320
-0.999125, 75, 145, 90, 272
-0.999165, 441, 33, 472, 288
-0.99921, 343, 209, 358, 333
-0.999217, 157, 65, 188, 320
-0.99926, 185, 65, 216, 320
-0.99928, 365, 161, 380, 288
-0.999293, 21, 1, 52, 256
-0.9993, 285, 65, 316, 320
-0.9993, 67, 209, 82, 333
-0.999309, 297, 33, 328, 288
-0.999324, 325, 209, 340, 333
-0.999327, 253, 97, 268, 224
-0.999332, 163, 193, 178, 320
-0.999338, 75, 193, 90, 320
-0.99934, 229, 209, 244, 333
-0.999342, 83, 209, 98, 333
-0.999343, 81, 129, 96, 256
-0.999346, 49, 209, 64, 333
-0.999351, 261, 97, 276, 224
-0.999355, 371, 177, 386, 304
-0.99937, 347, 97, 362, 224
-0.999371, 61, 65, 92, 320
-0.99938, 195, 193, 210, 320
-0.999383, 357, 209, 372, 333
-0.999383, 301, 177, 316, 304
-0.999388, 257, 49, 272, 176
-0.999391, 373, 65, 404, 320
-0.999406, 239, 97, 254, 224
-0.999408, 315, 209, 330, 333
-0.99941, 89, 113, 104, 240
-0.999412, 89, 193, 104, 320
-0.999415, 213, 65, 244, 320
-0.99942, 295, 209, 310, 333
-0.999428, 151, 193, 166, 320
-0.99943, 49, 161, 64, 288
-0.999432, 245, 49, 260, 176
-0.999438, 247, 97, 262, 224
-0.999438, 227, 81, 242, 208
-0.999442, 359, 81, 374, 208
-0.999445, 43, 209, 58, 333
-0.999445, 59, 129, 74, 256
-0.999447, 341, 161, 356, 288
-0.999448, 221, 81, 236, 208
-0.999449, 169, 193, 184, 320
-0.999449, 121, 65, 152, 320
-0.99945, 157, 209, 172, 333
-0.999453, 1, 73, 500, 136
-0.999453, 105, 193, 120, 320
-0.999455, 201, 209, 216, 333
-0.999455, 251, 49, 266, 176
-0.999457, 451, 193, 466, 320
-0.999461, 31, 209, 46, 333
-0.999463, 331, 193, 346, 320
-0.999471, 267, 49, 282, 176
-0.999476, 385, 1, 416, 256
-0.999478, 49, 33, 80, 288
-0.99948, 145, 193, 160, 320
-0.999483, 237, 49, 252, 176
-0.999491, 461, 33, 492, 288
-0.999492, 377, 209, 392, 333
-0.9995, 209, 81, 224, 208
-0.9995, 425, 1, 456, 256
-0.999508, 457, 161, 472, 288
-0.999508, 235, 209, 250, 333
-0.999515, 93, 251, 108, 266
-0.999515, 45, 251, 60, 266
-0.999515, 329, 231, 344, 246
-0.999515, 307, 193, 322, 320
-0.999516, 81, 219, 96, 234
-0.999516, 49, 233, 64, 248
-0.999516, 267, 97, 282, 224
-0.999516, 289, 299, 304, 314
-0.999516, 203, 267, 218, 282
-0.999517, 189, 209, 204, 333
-0.999517, 347, 293, 362, 308
-0.999517, 241, 243, 256, 258
-0.999517, 205, 243, 220, 258
-0.999517, 205, 287, 220, 302
-0.999518, 285, 101, 300, 116
-0.999518, 341, 233, 356, 248
-0.999518, 3, 281, 18, 296
-0.999518, 341, 301, 356, 316
-0.999519, 81, 133, 96, 148
-0.99952, 307, 303, 322, 318
-0.999521, 65, 171, 80, 186
-0.999522, 341, 243, 356, 258
-0.999522, 53, 209, 68, 224
-0.999524, 69, 221, 84, 236
-0.999524, 353, 137, 368, 152
-0.999524, 59, 245, 74, 260
-0.999524, 159, 169, 174, 184
-0.999524, 347, 141, 362, 156
-0.999525, 143, 293, 158, 308
-0.999525, 221, 309, 236, 324
-0.999526, 139, 315, 154, 330
-0.999528, 329, 277, 344, 292
-0.999529, 349, 131, 364, 146
-0.999529, 447, 145, 462, 272
-0.999529, 287, 215, 302, 230
-0.99953, 233, 307, 248, 322
-0.999532, 323, 257, 338, 272
-0.999533, 187, 247, 202, 262
-0.999533, 59, 171, 74, 186
-0.999533, 145, 315, 160, 330
-0.999534, 327, 49, 342, 176
-0.999534, 351, 299, 366, 314
-0.999534, 215, 49, 230, 176
-0.999535, 219, 209, 234, 333
-0.999535, 93, 137, 108, 152
-0.999536, 163, 239, 178, 254
-0.999536, 327, 245, 342, 260
-0.999537, 211, 281, 226, 296
-0.999537, 359, 181, 374, 196
-0.999537, 25, 209, 40, 333
-0.999538, 155, 123, 170, 138
-0.999538, 359, 161, 374, 176
-0.999541, 85, 157, 100, 172
-0.999541, 211, 271, 226, 286
-0.999542, 225, 285, 240, 300
-0.999542, 55, 201, 70, 216
-0.999543, 193, 253, 208, 268
-0.999543, 99, 139, 114, 154
-0.999543, 55, 273, 70, 288
-0.999543, 75, 209, 90, 224
-0.999543, 349, 147, 364, 162
-0.999544, 349, 213, 364, 228
-0.999544, 321, 277, 336, 292
-0.999545, 317, 247, 332, 262
-0.999545, 349, 155, 364, 170
-0.999545, 59, 251, 74, 266
-0.999548, 303, 311, 318, 326
-0.999548, 197, 243, 212, 258
-0.999548, 61, 187, 76, 202
-0.999548, 323, 265, 338, 280
-0.99955, 83, 213, 98, 228
-0.99955, 299, 293, 314, 308
-0.99955, 57, 195, 72, 210
-0.99955, 211, 293, 226, 308
-0.999551, 221, 301, 236, 316
-0.999551, 49, 243, 64, 258
-0.999554, 197, 269, 212, 284
-0.999555, 351, 199, 366, 214
-0.999556, 221, 291, 236, 306
-0.999556, 349, 177, 364, 192
-0.999557, 61, 237, 76, 252
-0.999558, 359, 187, 374, 202
-0.999558, 327, 1, 342, 128
-0.999558, 209, 255, 224, 270
-0.999559, 157, 241, 172, 256
-0.99956, 53, 215, 68, 230
-0.99956, 233, 145, 248, 272
-0.99956, 351, 191, 366, 206
-0.999562, 231, 285, 246, 300
-0.999563, 207, 249, 222, 264
-0.999565, 99, 145, 114, 272
-0.999566, 349, 163, 364, 178
-0.999566, 145, 1, 160, 128
-0.999566, 139, 307, 154, 322
-0.999567, 321, 49, 336, 176
-0.999568, 189, 261, 204, 276
-0.999568, 349, 223, 364, 238
-0.999568, 233, 97, 248, 224
-0.999569, 159, 65, 174, 192
-0.99957, 357, 143, 372, 158
-0.999571, 67, 183, 82, 198
-0.999571, 83, 151, 98, 166
-0.999571, 339, 97, 354, 224
-0.999572, 67, 189, 82, 204
-0.999572, 55, 233, 70, 248
-0.999572, 197, 293, 212, 308
-0.999572, 175, 161, 190, 288
-0.999573, 297, 307, 312, 322
-0.999577, 63, 223, 78, 238
-0.999578, 359, 155, 374, 170
-0.999578, 211, 209, 226, 333
-0.999578, 77, 173, 92, 188
-0.999579, 61, 201, 76, 216
-0.999579, 279, 49, 294, 176
-0.999579, 85, 163, 100, 178
-0.999579, 211, 287, 226, 302
-0.99958, 55, 267, 70, 282
-0.99958, 205, 275, 220, 290
-0.99958, 359, 167, 374, 182
-0.999581, 53, 249, 68, 264
-0.999582, 75, 221, 90, 236
-0.999582, 65, 113, 80, 240
-0.999583, 231, 293, 246, 308
-0.999585, 325, 251, 340, 266
-0.999585, 461, 1, 476, 128
-0.999586, 203, 65, 218, 192
-0.999586, 145, 113, 160, 240
-0.999587, 53, 225, 68, 240
-0.999587, 199, 129, 214, 256
-0.999587, 213, 129, 228, 256
-0.999589, 321, 271, 336, 286
-0.999589, 99, 193, 114, 320
-0.999591, 351, 185, 366, 200
-0.999592, 299, 299, 314, 314
-0.999593, 55, 239, 70, 254
-0.999593, 69, 165, 84, 180
-0.999595, 393, 17, 408, 144
-0.999597, 65, 215, 80, 230
-0.999597, 291, 309, 306, 324
-0.999598, 139, 193, 154, 320
-0.999598, 37, 209, 52, 333
-0.999599, 201, 261, 216, 276
-0.999601, 59, 211, 74, 226
-0.999602, 309, 1, 340, 256
-0.999603, 59, 177, 74, 192
-0.999603, 353, 97, 368, 224
-0.999604, 53, 259, 68, 274
-0.999604, 269, 193, 284, 320
-0.999605, 65, 195, 80, 210
-0.999606, 415, 1, 430, 128
-0.999606, 259, 177, 274, 304
-0.999607, 179, 97, 194, 224
-0.999608, 199, 285, 214, 300
-0.99961, 173, 65, 188, 192
-0.999614, 227, 129, 242, 256
-0.999614, 155, 247, 170, 262
-0.999614, 69, 177, 84, 192
-0.999614, 73, 215, 88, 230
-0.999614, 199, 255, 214, 270
-0.999615, 273, 49, 288, 176
-0.999615, 171, 113, 186, 240
-0.999617, 349, 171, 364, 186
-0.999618, 357, 149, 372, 164
-0.999623, 431, 17, 446, 144
-0.999625, 25, 1, 40, 128
-0.999627, 281, 1, 296, 128
-0.999628, 157, 161, 172, 288
-0.999629, 165, 49, 180, 176
-0.999629, 179, 49, 194, 176
-0.99963, 367, 97, 382, 224
-0.999631, 463, 161, 478, 288
-0.999631, 387, 49, 402, 176
-0.999631, 363, 209, 378, 333
-0.999633, 139, 129, 154, 256
-0.999634, 291, 81, 306, 208
-0.999634, 459, 209, 474, 333
-0.999636, 303, 33, 318, 160
-0.999636, 185, 113, 200, 240
-0.999637, 197, 81, 212, 208
-0.999638, 131, 193, 146, 320
-0.999639, 125, 193, 140, 320
-0.99964, 163, 145, 178, 272
-0.999645, 219, 129, 234, 256
-0.999648, 455, 1, 470, 128
-0.999649, 399, 1, 414, 128
-0.999652, 199, 249, 214, 264
-0.999653, 333, 33, 348, 160
-0.999653, 241, 177, 256, 304
-0.999655, 249, 177, 264, 304
-0.999655, 459, 49, 474, 176
-0.999656, 189, 161, 204, 288
-0.999656, 119, 193, 134, 320
-0.999656, 59, 217, 74, 232
-0.999657, 229, 33, 244, 160
-0.999657, 215, 1, 230, 128
-0.999658, 289, 145, 304, 272
-0.999659, 205, 281, 220, 296
-0.999659, 223, 1, 238, 128
-0.999659, 111, 129, 126, 256
-0.999661, 75, 97, 90, 224
-0.999662, 185, 49, 200, 176
-0.999662, 105, 145, 120, 272
-0.999667, 15, 209, 30, 333
-0.999669, 71, 171, 86, 186
-0.999671, 79, 167, 94, 182
-0.999681, 201, 1, 232, 256
-0.999685, 173, 65, 204, 320
-0.999711, 75, 157, 90, 172
-0.999897, 37, 65, 68, 320
-1.00013, 413, 33, 444, 288
-1.00014, 397, 33, 428, 288
-1.00039, 1, 1, 500, 64
