1910
-0.331763, 1, 129, 332, 384
-0.3638, 1, 1, 332, 500
-0.525267, 1, 33, 332, 288
-0.550038, 1, 225, 332, 480
-0.5506, 33, 1, 288, 500
-0.619915, 65, 97, 320, 352
-0.738459, 1, 225, 256, 480
-0.842337, 65, 1, 320, 256
-0.855982, 161, 161, 288, 416
-0.863821, 33, 129, 160, 384
-0.866473, 177, 1, 304, 500
-0.867425, 81, 129, 208, 384
-0.871324, 209, 129, 332, 384
-0.881753, 17, 1, 144, 500
-0.881964, 1, 161, 332, 288
-0.88398, 17, 225, 144, 480
-0.886799, 145, 65, 272, 320
-0.890566, 65, 1, 192, 500
-0.891252, 1, 209, 332, 336
-0.892132, 193, 33, 320, 288
-0.902132, 129, 1, 256, 500
-0.903819, 1, 225, 256, 352
-0.916754, 209, 257, 332, 500
-0.917165, 65, 225, 192, 480
-0.919425, 1, 257, 332, 384
-0.919514, 65, 161, 320, 288
-0.91973, 1, 81, 332, 208
-0.924157, 97, 33, 224, 288
-0.928435, 233, 225, 296, 352
-0.931836, 1, 33, 128, 288
-0.93187, 17, 225, 144, 352
-0.932724, 161, 225, 288, 352
-0.93439, 49, 33, 176, 288
-0.935489, 257, 209, 320, 336
-0.936069, 1, 113, 256, 240
-0.936194, 113, 225, 240, 480
-0.936623, 73, 225, 136, 352
-0.937972, 161, 257, 288, 500
-0.939184, 209, 225, 332, 352
-0.939456, 81, 225, 208, 352
-0.940922, 9, 209, 72, 336
-0.942497, 209, 193, 272, 320
-0.945034, 17, 145, 144, 272
-0.945708, 257, 233, 320, 296
-0.946348, 161, 161, 288, 288
-0.946714, 73, 241, 136, 304
-0.946829, 1, 273, 256, 400
-0.947591, 97, 177, 224, 304
-0.950657, 241, 1, 304, 128
-0.952248, 185, 145, 248, 272
-0.952435, 33, 209, 96, 336
-0.952996, 209, 145, 332, 272
-0.953113, 97, 145, 160, 272
-0.953427, 1, 1, 332, 128
-0.954144, 257, 161, 320, 288
-0.954315, 9, 241, 72, 304
-0.954441, 225, 145, 288, 272
-0.95495, 193, 81, 320, 208
-0.955073, 233, 225, 296, 288
-0.956232, 17, 257, 80, 384
-0.956547, 129, 113, 256, 240
-0.956829, 9, 209, 72, 272
-0.958544, 41, 257, 104, 384
-0.95893, 17, 273, 144, 400
-0.958931, 105, 225, 168, 352
-0.959094, 41, 145, 104, 272
-0.959381, 9, 129, 72, 256
-0.960204, 65, 129, 192, 256
-0.96036, 201, 153, 264, 216
-0.960403, 217, 185, 280, 248
-0.96117, 241, 257, 304, 320
-0.961588, 193, 81, 256, 208
-0.961692, 193, 265, 256, 328
-0.961761, 169, 225, 232, 352
-0.961821, 257, 257, 320, 384
-0.961872, 241, 153, 304, 216
-0.961978, 33, 65, 288, 192
-0.962769, 137, 161, 200, 288
-0.962972, 137, 265, 200, 328
-0.963019, 161, 265, 224, 328
-0.963443, 161, 145, 224, 272
-0.963463, 33, 233, 96, 296
-0.963963, 257, 209, 320, 272
-0.963996, 73, 145, 136, 272
-0.964097, 169, 161, 232, 224
-0.96458, 121, 241, 184, 304
-0.964765, 9, 273, 72, 336
-0.965276, 209, 241, 272, 368
-0.965484, 209, 225, 272, 288
-0.966043, 41, 273, 104, 336
-0.967367, 257, 161, 320, 416
-0.967371, 145, 209, 208, 336
-0.967746, 161, 273, 288, 400
-0.967831, 65, 1, 320, 128
-0.967867, 241, 9, 304, 72
-0.96878, 169, 97, 232, 224
-0.968834, 33, 241, 64, 304
-0.968868, 217, 265, 280, 328
-0.969078, 265, 257, 328, 320
-0.969171, 129, 161, 192, 224
-0.969328, 9, 185, 72, 248
-0.969387, 17, 241, 144, 304
-0.96941, 241, 241, 272, 368
-0.969838, 113, 273, 240, 400
-0.96986, 17, 145, 80, 208
-0.970611, 253, 209, 284, 336
-0.970795, 25, 265, 56, 328
-0.970888, 217, 129, 280, 384
-0.971066, 65, 249, 192, 312
-0.971141, 65, 153, 128, 216
-0.971155, 301, 233, 332, 296
-0.971312, 85, 241, 116, 304
-0.971561, 41, 129, 104, 384
-0.971861, 105, 161, 168, 224
-0.972064, 169, 241, 232, 304
-0.972243, 237, 193, 268, 320
-0.972499, 241, 185, 304, 248
-0.97271, 193, 129, 256, 384
-0.972736, 193, 233, 320, 296
-0.972889, 17, 193, 48, 320
-0.972979, 17, 97, 144, 224
-0.972988, 85, 225, 116, 352
-0.973051, 145, 257, 208, 384
-0.973075, 209, 1, 332, 128
-0.973084, 261, 225, 292, 288
-0.97323, 153, 137, 216, 200
-0.97336, 233, 225, 264, 288
-0.973478, 249, 233, 280, 296
-0.973537, 105, 265, 168, 328
-0.97356, 129, 113, 192, 240
-0.973789, 105, 129, 168, 384
-0.973916, 41, 145, 104, 208
-0.973917, 209, 273, 332, 400
-0.973935, 233, 273, 296, 400
-0.97404, 273, 145, 332, 208
-0.974371, 285, 217, 316, 280
-0.974796, 217, 1, 280, 128
-0.974922, 25, 241, 56, 368
-0.974952, 97, 97, 160, 224
-0.975052, 301, 225, 332, 352
-0.975162, 97, 241, 160, 304
-0.975222, 145, 433, 208, 496
-0.975468, 145, 129, 208, 384
-0.975472, 169, 97, 232, 352
-0.975753, 45, 225, 76, 352
-0.975822, 17, 209, 48, 272
-0.975897, 209, 33, 272, 288
-0.975903, 285, 241, 316, 304
-0.975949, 97, 65, 224, 192
-0.975975, 225, 225, 288, 480
-0.975997, 65, 97, 128, 224
-0.976168, 265, 1, 328, 128
-0.976245, 9, 129, 72, 384
-0.97636, 13, 241, 44, 304
-0.976385, 241, 97, 304, 224
-0.97646, 285, 193, 316, 320
-0.976653, 65, 273, 192, 400
-0.976676, 81, 97, 144, 352
-0.976711, 145, 241, 208, 304
-0.976726, 105, 217, 168, 280
-0.976757, 45, 241, 76, 304
-0.976778, 97, 241, 128, 304
-0.976956, 113, 425, 176, 488
-0.976958, 49, 209, 112, 272
-0.977167, 177, 209, 208, 336
-0.97745, 1, 369, 332, 496
-0.97767, 65, 273, 128, 400
-0.977695, 9, 297, 72, 360
-0.977734, 1, 273, 128, 336
-0.977736, 33, 153, 160, 216
-0.978018, 265, 249, 296, 312
-0.978053, 185, 273, 248, 400
-0.978357, 225, 161, 256, 224
-0.978518, 177, 257, 304, 320
-0.978623, 97, 225, 128, 352
-0.978644, 161, 153, 288, 216
-0.978647, 1, 217, 128, 280
-0.978693, 5, 209, 36, 336
-0.978747, 233, 33, 296, 288
-0.978773, 217, 49, 280, 176
-0.97881, 129, 137, 192, 200
-0.978853, 193, 129, 256, 192
-0.978863, 65, 273, 128, 336
-0.978874, 225, 145, 256, 272
-0.978888, 65, 129, 128, 192
-0.979049, 1, 305, 332, 432
-0.979069, 17, 177, 48, 240
-0.979344, 265, 225, 296, 352
-0.979357, 245, 257, 276, 320
-0.979438, 273, 113, 332, 240
-0.979496, 13, 265, 44, 328
-0.979511, 193, 265, 224, 328
-0.979577, 89, 137, 152, 200
-0.979797, 29, 193, 60, 320
-0.97991, 113, 129, 240, 192
-0.980044, 289, 241, 320, 368
-0.980208, 105, 273, 168, 400
-0.980248, 113, 233, 240, 296
-0.980279, 153, 257, 184, 320
-0.980397, 253, 257, 284, 384
-0.980436, 245, 145, 276, 272
-0.980441, 241, 1, 272, 128
-0.980445, 217, 265, 248, 328
-0.980577, 73, 425, 136, 488
-0.980651, 29, 217, 60, 280
-0.980723, 273, 185, 332, 248
-0.981137, 257, 161, 288, 288
-0.981223, 49, 273, 176, 336
-0.981373, 173, 249, 204, 312
-0.981391, 113, 257, 240, 320
-0.981513, 241, 281, 304, 344
-0.98154, 81, 161, 208, 224
-0.981606, 73, 225, 104, 352
-0.98172, 41, 121, 104, 184
-0.981753, 197, 161, 228, 224
-0.981785, 81, 225, 144, 480
-0.982166, 217, 425, 280, 488
-0.982181, 237, 193, 268, 256
-0.98219, 105, 145, 136, 272
-0.982288, 193, 193, 256, 256
-0.982629, 217, 289, 280, 352
-0.982643, 45, 273, 76, 336
-0.982693, 225, 209, 256, 336
-0.98277, 33, 185, 96, 248
-0.982787, 229, 265, 260, 328
-0.983015, 217, 57, 280, 120
-0.983066, 133, 161, 164, 224
-0.983101, 193, 145, 224, 272
-0.983179, 57, 209, 88, 336
-0.983217, 161, 257, 192, 384
-0.983268, 213, 145, 244, 272
-0.983276, 153, 289, 216, 352
-0.983364, 81, 217, 144, 280
-0.983533, 65, 257, 96, 320
-0.9836, 37, 273, 68, 400
-0.983612, 193, 89, 256, 152
-0.983672, 161, 161, 192, 288
-0.983701, 265, 113, 328, 176
-0.983767, 193, 121, 320, 184
-0.983784, 41, 225, 104, 480
-0.983984, 301, 209, 332, 272
-0.984067, 113, 241, 144, 304
-0.984073, 273, 1, 332, 64
-0.984084, 161, 193, 288, 256
-0.984097, 241, 33, 304, 96
-0.984106, 193, 225, 224, 352
-0.98415, 193, 289, 256, 352
-0.984169, 77, 145, 108, 272
-0.98417, 201, 1, 264, 500
-0.984259, 93, 145, 124, 272
-0.98432, 245, 153, 276, 216
-0.98432, 13, 289, 44, 352
-0.984323, 217, 129, 280, 192
-0.984347, 269, 273, 300, 336
-0.984426, 181, 161, 212, 288
-0.984523, 65, 225, 192, 288
-0.984531, 29, 145, 60, 208
-0.984699, 13, 129, 44, 256
-0.984729, 41, 313, 104, 376
-0.98477, 209, 153, 332, 216
-0.984882, 205, 273, 236, 336
-0.9849, 173, 161, 204, 224
-0.984917, 25, 145, 56, 272
-0.984933, 161, 17, 288, 144
-0.984935, 257, 1, 288, 128
-0.98496, 9, 81, 72, 208
-0.984977, 1, 225, 64, 480
-0.984991, 1, 249, 32, 312
-0.985017, 229, 257, 260, 384
-0.985086, 129, 281, 256, 344
-0.98509, 49, 129, 176, 192
-0.985114, 37, 129, 68, 256
-0.985116, 41, 81, 104, 208
-0.985254, 113, 225, 144, 352
-0.985304, 245, 9, 276, 72
-0.985428, 161, 217, 224, 280
-0.98545, 209, 193, 240, 320
-0.985462, 177, 273, 208, 336
-0.985529, 201, 81, 232, 208
-0.985557, 217, 257, 248, 384
-0.98563, 1, 121, 64, 184
-0.985652, 289, 129, 320, 256
-0.985736, 33, 417, 96, 480
-0.98574, 209, 209, 332, 272
-0.985842, 17, 193, 144, 256
-0.985886, 13, 137, 44, 200
-0.986208, 177, 281, 304, 344
-0.986241, 77, 153, 108, 216
-0.986261, 257, 65, 320, 320
-0.986289, 265, 281, 328, 344
-0.986366, 209, 289, 272, 416
-0.986377, 285, 193, 316, 256
-0.986381, 1, 129, 128, 192
-0.986431, 25, 289, 56, 352
-0.986503, 13, 257, 44, 384
-0.986506, 209, 241, 240, 304
-0.98659, 57, 233, 88, 296
-0.986606, 185, 161, 216, 224
-0.986619, 261, 201, 292, 264
-0.986639, 153, 169, 184, 232
-0.986669, 29, 193, 60, 256
-0.986699, 93, 153, 124, 216
-0.986707, 257, 425, 320, 488
-0.98677, 145, 65, 272, 192
-0.986881, 269, 145, 300, 272
-0.986888, 129, 161, 160, 288
-0.986934, 5, 209, 36, 272
-0.987055, 289, 265, 320, 328
-0.987148, 217, 97, 280, 224
-0.987187, 65, 145, 96, 272
-0.987199, 113, 161, 144, 224
-0.987317, 277, 241, 308, 368
-0.987322, 241, 121, 304, 184
-0.987409, 181, 113, 212, 240
-0.987422, 113, 209, 240, 272
-0.987432, 209, 9, 332, 72
-0.987503, 117, 145, 148, 272
-0.98752, 153, 145, 184, 208
-0.987536, 193, 81, 320, 144
-0.987563, 293, 145, 324, 208
-0.987596, 57, 145, 88, 208
-0.9876, 237, 305, 268, 432
-0.987608, 53, 145, 84, 272
-0.987622, 185, 433, 248, 496
-0.987696, 161, 281, 192, 344
-0.987696, 273, 49, 332, 176
-0.987766, 257, 153, 288, 216
-0.987883, 213, 65, 244, 192
-0.987936, 269, 1, 300, 128
-0.987971, 201, 17, 264, 80
-0.988033, 169, 193, 232, 448
-0.988063, 257, 241, 320, 272
-0.988072, 165, 209, 196, 336
-0.988104, 209, 193, 240, 256
-0.988168, 173, 257, 204, 384
-0.988174, 1, 129, 32, 256
-0.988201, 273, 145, 304, 208
-0.988217, 177, 321, 304, 448
-0.988224, 73, 245, 136, 276
-0.988265, 273, 225, 304, 288
-0.988284, 177, 1, 240, 500
-0.988311, 137, 185, 200, 248
-0.988382, 249, 209, 280, 272
-0.988382, 173, 225, 204, 288
-0.988388, 241, 229, 304, 260
-0.988468, 41, 137, 72, 200
-0.988485, 25, 1, 88, 500
-0.988506, 177, 273, 240, 304
-0.988562, 301, 177, 332, 304
-0.98893, 241, 261, 304, 292
-0.98902, 85, 129, 116, 192
-0.989076, 153, 209, 184, 336
-0.989078, 129, 257, 160, 320
-0.989106, 93, 217, 124, 280
-0.98913, 221, 289, 252, 352
-0.989169, 217, 229, 280, 260
-0.989183, 65, 1, 128, 500
-0.989221, 121, 1, 184, 500
-0.989223, 73, 265, 136, 296
-0.989225, 265, 257, 328, 288
-0.989257, 1, 305, 64, 432
-0.989267, 9, 277, 72, 308
-0.98934, 169, 185, 232, 248
-0.989376, 201, 433, 232, 496
-0.989378, 1, 313, 128, 376
-0.989421, 41, 217, 72, 280
-0.989444, 137, 217, 200, 280
-0.98945, 265, 1, 328, 500
-0.989508, 197, 137, 228, 200
-0.989512, 265, 225, 328, 256
-0.989568, 101, 97, 132, 224
-0.989577, 193, 225, 256, 480
-0.989587, 9, 241, 72, 272
-0.989718, 149, 433, 180, 496
-0.989761, 65, 425, 192, 488
-0.989782, 81, 185, 208, 248
-0.989796, 141, 145, 172, 272
-0.989798, 301, 257, 332, 320
-0.989814, 49, 273, 80, 400
-0.989837, 33, 241, 96, 272
-0.989848, 265, 273, 296, 400
-0.989856, 61, 257, 92, 384
-0.989906, 145, 433, 272, 496
-0.989914, 249, 185, 280, 248
-0.989972, 233, 241, 296, 272
-0.98999, 221, 225, 252, 288
-0.99006, 33, 257, 96, 288
-0.990102, 257, 305, 320, 368
-0.990118, 1, 1, 64, 500
-0.990137, 137, 265, 200, 296
-0.990147, 269, 1, 300, 64
-0.99015, 273, 193, 304, 256
-0.990159, 301, 129, 332, 256
-0.990163, 177, 313, 304, 376
-0.990167, 149, 233, 180, 296
-0.990171, 1, 281, 32, 344
-0.99019, 161, 113, 224, 176
-0.990217, 185, 129, 216, 192
-0.990221, 197, 97, 228, 160
-0.99026, 113, 217, 144, 280
-0.990261, 49, 273, 112, 304
-0.990291, 113, 105, 240, 168
-0.990306, 233, 1, 296, 500
-0.990348, 125, 209, 156, 336
-0.990361, 209, 57, 332, 120
-0.990406, 9, 229, 72, 260
-0.99042, 137, 425, 168, 488
-0.990433, 265, 269, 328, 300
-0.990462, 9, 253, 72, 284
-0.990489, 241, 33, 272, 96
-0.990537, 209, 161, 240, 224
-0.990628, 241, 185, 304, 216
-0.990634, 217, 269, 280, 300
-0.990639, 73, 233, 104, 296
-0.990649, 89, 433, 120, 496
-0.990665, 1, 241, 332, 304
-0.990684, 257, 257, 320, 500
-0.990711, 201, 165, 264, 196
-0.990717, 113, 261, 176, 292
-0.990718, 221, 185, 252, 248
-0.990733, 9, 217, 72, 248
-0.99076, 177, 165, 240, 196
-0.990801, 141, 225, 172, 352
-0.990809, 17, 321, 80, 384
-0.990829, 117, 97, 148, 224
-0.990852, 241, 57, 304, 120
-0.990881, 1, 145, 64, 176
-0.990882, 105, 273, 168, 304
-0.990889, 113, 265, 144, 328
-0.990895, 105, 249, 168, 280
-0.990922, 49, 153, 112, 184
-0.990932, 97, 1, 160, 500
-0.990938, 9, 265, 72, 296
-0.990945, 217, 185, 280, 216
-0.990947, 1, 289, 64, 320
-0.990957, 1, 369, 256, 496
-0.990976, 137, 173, 200, 204
-0.991001, 105, 165, 168, 196
-0.991055, 81, 161, 144, 192
-0.991076, 265, 149, 328, 180
-0.991079, 233, 321, 296, 384
-0.991082, 105, 233, 168, 264
-0.991095, 161, 261, 224, 292
-0.991097, 161, 1, 224, 256
-0.991102, 101, 425, 132, 488
-0.991106, 209, 81, 240, 144
-0.991108, 241, 17, 304, 48
-0.991191, 25, 149, 88, 180
-0.991206, 41, 285, 104, 316
-0.991214, 141, 265, 172, 328
-0.991257, 145, 281, 208, 312
-0.991265, 209, 185, 332, 248
-0.991274, 225, 157, 288, 188
-0.991291, 121, 137, 152, 200
-0.991291, 73, 277, 136, 308
-0.991396, 33, 161, 288, 224
-0.991398, 33, 305, 96, 432
-0.991453, 241, 217, 304, 248
-0.991458, 209, 137, 240, 200
-0.991462, 193, 153, 256, 184
-0.991465, 145, 1, 208, 500
-0.991466, 49, 229, 112, 260
-0.991468, 1, 189, 64, 220
-0.991482, 177, 193, 240, 224
-0.991537, 73, 437, 136, 468
-0.991553, 193, 233, 224, 296
-0.991554, 41, 297, 72, 360
-0.991568, 209, 257, 272, 288
-0.991576, 217, 197, 280, 228
-0.991584, 137, 253, 200, 284
-0.991586, 113, 17, 240, 144
-0.991595, 161, 153, 224, 184
-0.991598, 177, 285, 240, 316
-0.991605, 97, 433, 160, 464
-0.991612, 209, 241, 272, 272
-0.991614, 241, 273, 304, 304
-0.991614, 201, 281, 264, 312
-0.99163, 9, 33, 72, 288
-0.991633, 105, 33, 168, 288
-0.991636, 225, 97, 256, 224
-0.991657, 49, 141, 112, 172
-0.991745, 25, 313, 56, 376
-0.991812, 225, 301, 288, 332
-0.991827, 257, 273, 288, 336
-0.991834, 73, 129, 104, 192
-0.991835, 105, 193, 168, 256
-0.991851, 33, 121, 288, 184
-0.991853, 137, 157, 200, 188
-0.99186, 193, 109, 256, 140
-0.991873, 41, 329, 104, 360
-0.991913, 241, 173, 304, 204
-0.991933, 121, 441, 184, 472
-0.991939, 297, 17, 328, 80
-0.991987, 97, 129, 128, 192
-0.992003, 185, 261, 248, 292
-0.992012, 25, 137, 88, 168
-0.992012, 193, 229, 256, 260
-0.992019, 73, 453, 136, 484
-0.992021, 89, 97, 120, 224
-0.992057, 1, 137, 32, 200
-0.992063, 65, 217, 320, 280
-0.992075, 49, 105, 176, 168
-0.992091, 265, 281, 328, 312
-0.992098, 241, 45, 304, 76
-0.992103, 73, 233, 136, 264
-0.992144, 301, 237, 332, 268
-0.992157, 193, 453, 256, 484
-0.992169, 9, 317, 72, 348
-0.992178, 47, 233, 62, 296
-0.992181, 161, 229, 224, 260
-0.992188, 1, 205, 64, 236
-0.9922, 193, 305, 256, 336
-0.992205, 265, 185, 328, 216
-0.99221, 5, 185, 36, 248
-0.992215, 25, 177, 88, 208
-0.992233, 233, 317, 296, 348
-0.992235, 33, 241, 64, 272
-0.992236, 25, 281, 56, 312
-0.99225, 33, 269, 64, 300
-0.992262, 25, 197, 88, 228
-0.992272, 245, 241, 276, 272
-0.992281, 13, 273, 44, 304
-0.992282, 97, 449, 160, 480
-0.992285, 49, 33, 112, 288
-0.992293, 41, 317, 104, 348
-0.992302, 217, 217, 280, 248
-0.992304, 241, 229, 272, 260
-0.992314, 273, 1, 332, 32
-0.992326, 57, 425, 120, 456
-0.992331, 129, 33, 192, 288
-0.992338, 201, 141, 264, 172
-0.992341, 193, 125, 256, 156
-0.992342, 161, 225, 192, 288
-0.992367, 161, 177, 224, 208
-0.992369, 201, 81, 264, 112
-0.992375, 97, 113, 160, 176
-0.992377, 225, 289, 288, 320
-0.992386, 105, 421, 168, 452
-0.992403, 81, 185, 144, 248
-0.99241, 253, 229, 284, 260
-0.992423, 1, 241, 256, 304
-0.992437, 185, 217, 248, 280
-0.992437, 85, 245, 116, 276
-0.992443, 225, 65, 288, 96
-0.992446, 105, 285, 168, 316
-0.992456, 261, 245, 292, 276
-0.992469, 25, 189, 56, 220
-0.992485, 105, 149, 168, 180
-0.992486, 265, 233, 296, 264
-0.992503, 65, 321, 128, 352
-0.99251, 25, 257, 56, 288
-0.992511, 73, 273, 104, 400
-0.992515, 161, 137, 224, 168
-0.992521, 133, 137, 164, 200
-0.992532, 1, 129, 64, 160
-0.992532, 265, 297, 296, 360
-0.992534, 169, 453, 232, 484
-0.992549, 17, 209, 48, 240
-0.992564, 129, 97, 160, 224
-0.992568, 193, 269, 224, 300
-0.992576, 65, 281, 96, 344
-0.992585, 161, 41, 288, 104
-0.992605, 245, 261, 276, 292
-0.992607, 89, 193, 152, 224
-0.992611, 45, 265, 76, 296
-0.992624, 285, 225, 316, 256
-0.992625, 177, 269, 208, 300
-0.992636, 137, 429, 200, 460
-0.992641, 217, 269, 248, 300
-0.992643, 9, 301, 72, 332
-0.992644, 81, 145, 144, 176
-0.992648, 193, 177, 256, 208
-0.99265, 241, 5, 304, 36
-0.992657, 33, 441, 96, 472
-0.992658, 257, 137, 320, 168
-0.992663, 255, 225, 270, 288
-0.992664, 1, 217, 332, 280
-0.99267, 65, 265, 192, 296
-0.992675, 17, 329, 80, 360
-0.992676, 201, 93, 264, 124
-0.992683, 257, 9, 288, 72
-0.992693, 265, 265, 296, 296
-0.992696, 229, 41, 260, 104
-0.992696, 265, 309, 328, 340
-0.99271, 285, 249, 316, 280
-0.992711, 21, 245, 52, 276
-0.992713, 153, 293, 216, 324
-0.992713, 201, 25, 264, 56
-0.992727, 229, 269, 260, 300
-0.992729, 17, 245, 144, 276
-0.992734, 161, 249, 224, 280
-0.992738, 177, 209, 240, 240
-0.99274, 97, 241, 128, 272
-0.992753, 229, 229, 260, 260
-0.992754, 1, 177, 64, 208
-0.992765, 221, 281, 252, 312
-0.992769, 13, 293, 44, 324
-0.992772, 197, 193, 228, 256
-0.992774, 157, 269, 188, 300
-0.992775, 1, 265, 256, 328
-0.992782, 113, 273, 144, 400
-0.992794, 281, 237, 312, 268
-0.992795, 37, 253, 68, 284
-0.992801, 233, 145, 296, 176
-0.992802, 37, 281, 68, 312
-0.992806, 241, 33, 304, 64
-0.99282, 161, 113, 224, 144
-0.992824, 33, 209, 96, 240
-0.99283, 77, 201, 108, 264
-0.992832, 165, 137, 196, 200
-0.992833, 289, 273, 320, 304
-0.992842, 1, 273, 32, 400
-0.992856, 41, 305, 104, 336
-0.992862, 181, 165, 212, 196
-0.992864, 65, 369, 192, 496
-0.992869, 13, 233, 44, 264
-0.992874, 201, 293, 264, 324
-0.992882, 161, 281, 192, 312
-0.992883, 65, 273, 96, 304
-0.992891, 105, 225, 168, 480
-0.992897, 153, 113, 184, 240
-0.992901, 229, 1, 260, 128
-0.992903, 233, 245, 264, 276
-0.992906, 113, 273, 144, 304
-0.992921, 137, 189, 200, 220
-0.992923, 169, 165, 200, 196
-0.992937, 265, 221, 296, 252
-0.992941, 233, 257, 264, 288
-0.992945, 265, 21, 328, 52
-0.992948, 61, 97, 92, 224
-0.992961, 285, 261, 316, 292
-0.992961, 113, 253, 144, 284
-0.992967, 129, 233, 160, 296
-0.992969, 201, 37, 264, 68
-0.992969, 257, 293, 320, 324
-0.992983, 201, 193, 232, 224
-0.992987, 25, 229, 56, 260
-0.992992, 173, 257, 204, 288
-0.992994, 265, 281, 296, 312
-0.992996, 153, 173, 184, 204
-0.992996, 129, 237, 192, 268
-0.993001, 77, 157, 108, 188
-0.993002, 61, 121, 92, 184
-0.993003, 277, 81, 308, 208
-0.993007, 125, 441, 156, 472
-0.99301, 113, 241, 144, 272
-0.993025, 181, 433, 212, 496
-0.993028, 133, 169, 164, 200
-0.993029, 45, 241, 76, 272
-0.993032, 237, 313, 268, 344
-0.993038, 241, 81, 272, 208
-0.993038, 145, 261, 176, 292
-0.993038, 177, 281, 208, 312
-0.993038, 105, 161, 136, 192
-0.99304, 93, 161, 124, 192
-0.993043, 13, 177, 44, 208
-0.993044, 225, 77, 288, 108
-0.99305, 41, 149, 72, 180
-0.99306, 137, 433, 168, 464
-0.99306, 49, 189, 112, 220
-0.993064, 245, 185, 276, 216
-0.993066, 61, 153, 92, 184
-0.99307, 53, 141, 84, 172
-0.993076, 121, 165, 152, 196
-0.993076, 65, 261, 96, 292
-0.993078, 201, 149, 232, 180
-0.993083, 101, 265, 132, 328
-0.993084, 225, 185, 256, 216
-0.99309, 1, 281, 32, 312
-0.99309, 277, 281, 308, 312
-0.993095, 13, 261, 44, 292
-0.993096, 161, 125, 224, 156
-0.993109, 101, 441, 132, 472
-0.993115, 285, 181, 316, 212
-0.993117, 5, 249, 36, 280
-0.993131, 21, 145, 52, 176
-0.993132, 1, 141, 32, 172
-0.993139, 25, 293, 56, 324
-0.993141, 201, 281, 232, 312
-0.993144, 301, 273, 332, 304
-0.993151, 81, 441, 112, 472
-0.993154, 277, 293, 308, 324
-0.993155, 101, 269, 132, 300
-0.993156, 205, 241, 236, 368
-0.993159, 49, 281, 80, 312
-0.993165, 301, 249, 332, 280
-0.993172, 237, 161, 268, 192
-0.993176, 245, 13, 276, 44
-0.993177, 113, 81, 240, 144
-0.993184, 181, 153, 212, 184
-0.993192, 273, 181, 304, 212
-0.993194, 217, 297, 248, 328
-0.993196, 197, 109, 228, 140
-0.993198, 53, 253, 84, 284
-0.993204, 201, 165, 232, 196
-0.993205, 125, 257, 156, 384
-0.993216, 161, 1, 288, 64
-0.993217, 169, 409, 232, 472
-0.993219, 209, 257, 240, 288
-0.993221, 41, 137, 72, 168
-0.993229, 301, 141, 332, 172
-0.993232, 121, 453, 152, 484
-0.993233, 81, 265, 112, 296
-0.993234, 301, 261, 332, 292
-0.993238, 225, 161, 256, 192
-0.993246, 245, 273, 276, 304
-0.993247, 177, 453, 208, 484
-0.993253, 301, 221, 332, 252
-0.993254, 129, 273, 160, 304
-0.993255, 65, 141, 96, 172
-0.993256, 13, 221, 44, 252
-0.993257, 153, 249, 184, 280
-0.993259, 189, 273, 220, 400
-0.993263, 297, 1, 328, 32
-0.993277, 13, 193, 44, 224
-0.993281, 237, 197, 268, 228
-0.993286, 281, 1, 312, 32
-0.993286, 201, 133, 232, 164
-0.993289, 233, 65, 264, 96
-0.993289, 25, 317, 56, 348
-0.993291, 157, 161, 188, 192
-0.993296, 93, 229, 124, 260
-0.993298, 233, 217, 264, 248
-0.993303, 253, 157, 284, 188
-0.993304, 73, 453, 104, 484
-0.993312, 293, 285, 324, 316
-0.993313, 73, 245, 104, 276
-0.993313, 181, 293, 212, 324
-0.993316, 41, 329, 72, 360
-0.993317, 241, 49, 272, 80
-0.993319, 181, 125, 212, 156
-0.99332, 273, 249, 304, 280
-0.993322, 249, 217, 280, 248
-0.993332, 217, 197, 248, 228
-0.993334, 25, 305, 56, 336
-0.993335, 177, 177, 208, 208
-0.993348, 17, 261, 144, 292
-0.993374, 145, 409, 208, 472
-0.993395, 233, 137, 264, 200
-0.99341, 73, 97, 104, 224
-0.993486, 309, 233, 324, 296
-0.993537, 1, 129, 332, 192
-0.993609, 77, 273, 108, 336
-0.993643, 161, 433, 192, 496
-0.993673, 1, 425, 128, 488
-0.993677, 1, 265, 332, 328
-0.993735, 297, 1, 328, 128
-0.993781, 53, 209, 84, 272
-0.993782, 185, 1, 248, 128
-0.993807, 165, 113, 196, 240
-0.993872, 87, 241, 102, 304
-0.993874, 241, 281, 272, 344
-0.993885, 113, 369, 240, 496
-0.993905, 33, 401, 160, 464
-0.993908, 65, 313, 128, 376
-0.993919, 273, 33, 332, 96
-0.993969, 217, 81, 280, 144
-0.994052, 65, 401, 128, 464
-0.994062, 241, 81, 304, 144
-0.994082, 49, 313, 176, 376
-0.994128, 231, 273, 246, 336
-0.994136, 109, 137, 140, 200
-0.99421, 25, 257, 40, 320
-0.99423, 161, 269, 288, 300
-0.994284, 253, 97, 284, 224
-0.994301, 217, 433, 248, 496
-0.994342, 97, 273, 128, 400
-0.994363, 141, 97, 172, 224
-0.994386, 65, 249, 192, 280
-0.994431, 249, 225, 264, 288
-0.99445, 41, 185, 72, 248
-0.994469, 145, 409, 272, 472
-0.99448, 117, 433, 148, 496
-0.994531, 265, 225, 280, 288
-0.994537, 113, 269, 240, 300
-0.99454, 317, 233, 332, 296
-0.994547, 193, 229, 320, 260
-0.99456, 279, 241, 294, 304
-0.994612, 1, 321, 128, 448
-0.994639, 37, 241, 52, 304
-0.99468, 25, 321, 56, 448
-0.994702, 1, 161, 332, 224
-0.994794, 41, 113, 72, 176
-0.994804, 285, 169, 316, 232
-0.994806, 33, 193, 288, 256
-0.994851, 19, 265, 34, 328
-0.994883, 247, 153, 262, 216
-0.994885, 277, 289, 308, 416
-0.994891, 27, 177, 42, 240
-0.994893, 285, 233, 300, 296
-0.994905, 109, 241, 124, 304
-0.994921, 161, 165, 288, 196
-0.994987, 197, 265, 212, 328
-0.994998, 77, 425, 108, 488
-0.995024, 113, 149, 240, 180
-0.995031, 241, 433, 272, 496
-0.995071, 209, 33, 332, 96
-0.99508, 19, 201, 34, 264
-0.995092, 37, 273, 52, 336
-0.995119, 1, 273, 128, 304
-0.995188, 171, 265, 186, 328
-0.995202, 225, 49, 256, 176
-0.995259, 1, 105, 128, 168
-0.995286, 47, 257, 62, 320
-0.995311, 17, 229, 144, 260
-0.99534, 277, 217, 292, 280
-0.995359, 209, 269, 332, 300
-0.995414, 193, 433, 320, 496
-0.995414, 301, 49, 332, 176
-0.99544, 129, 305, 256, 368
-0.995449, 211, 161, 226, 224
-0.995493, 185, 1, 248, 256
-0.995519, 249, 305, 280, 432
-0.995521, 281, 265, 296, 328
-0.995548, 259, 249, 274, 312
-0.995554, 81, 1, 144, 256
-0.995577, 17, 157, 144, 188
-0.995579, 273, 65, 332, 128
-0.995589, 225, 161, 240, 224
-0.995613, 81, 241, 96, 304
-0.99564, 299, 217, 314, 280
-0.995641, 265, 97, 296, 224
-0.995669, 1, 193, 332, 256
-0.995707, 31, 209, 46, 272
-0.995713, 209, 241, 332, 272
-0.995729, 85, 273, 116, 400
-0.995741, 33, 177, 48, 240
-0.995743, 145, 225, 208, 480
-0.995744, 95, 241, 110, 304
-0.995759, 75, 249, 90, 312
-0.995761, 65, 277, 192, 308
-0.995772, 209, 313, 272, 376
-0.99581, 251, 193, 266, 256
-0.995814, 309, 209, 324, 272
-0.995824, 161, 33, 224, 160
-0.995877, 37, 217, 52, 280
-0.99588, 191, 273, 206, 336
-0.99588, 1, 289, 256, 352
-0.995894, 39, 193, 54, 256
-0.995905, 47, 281, 62, 344
-0.995912, 225, 257, 240, 320
-0.995914, 81, 165, 208, 196
-0.995937, 105, 401, 168, 464
-0.995942, 317, 209, 332, 272
-0.995946, 193, 153, 320, 184
-0.995971, 225, 305, 256, 432
-0.995991, 13, 81, 44, 208
-0.995998, 21, 289, 36, 352
-0.995998, 253, 153, 268, 216
-0.996014, 177, 273, 192, 336
-0.996017, 17, 241, 32, 304
-0.996022, 165, 257, 180, 320
-0.996022, 269, 273, 284, 336
-0.996033, 273, 249, 288, 312
-0.996039, 25, 225, 40, 288
-0.996066, 145, 229, 272, 260
-0.996071, 249, 49, 312, 176
-0.996083, 113, 257, 240, 288
-0.996096, 89, 289, 152, 352
-0.9961, 113, 281, 240, 312
-0.996133, 41, 177, 72, 304
-0.996136, 25, 97, 56, 224
-0.996138, 153, 425, 168, 488
-0.996157, 217, 193, 232, 256
-0.996178, 245, 193, 260, 256
-0.996203, 193, 281, 320, 312
-0.99622, 177, 257, 304, 288
-0.996247, 291, 217, 306, 280
-0.99625, 239, 153, 254, 216
-0.996251, 143, 161, 158, 224
-0.996265, 203, 265, 218, 328
-0.996272, 241, 193, 272, 448
-0.996294, 123, 425, 138, 488
-0.996295, 281, 1, 312, 128
-0.996295, 65, 105, 128, 168
-0.996332, 177, 161, 192, 224
-0.996336, 239, 225, 254, 288
-0.996354, 103, 241, 118, 304
-0.996386, 27, 289, 42, 352
-0.996403, 285, 209, 300, 272
-0.996417, 199, 161, 214, 224
-0.996442, 45, 81, 76, 208
-0.996451, 135, 161, 150, 224
-0.996488, 83, 153, 98, 216
-0.996489, 81, 441, 208, 472
-0.996499, 299, 241, 314, 304
-0.996511, 301, 273, 332, 400
-0.996521, 189, 129, 220, 384
-0.996528, 149, 265, 164, 328
-0.996529, 17, 285, 144, 316
-0.996536, 257, 201, 272, 264
-0.996551, 287, 265, 302, 328
-0.996562, 233, 225, 248, 288
-0.996569, 47, 241, 62, 272
-0.996588, 255, 229, 270, 260
-0.996589, 31, 249, 46, 312
-0.996593, 167, 169, 182, 232
-0.996596, 97, 237, 224, 268
-0.996601, 33, 137, 160, 168
-0.996603, 113, 289, 176, 352
-0.996625, 253, 129, 284, 384
-0.996629, 229, 161, 260, 416
-0.996654, 45, 209, 60, 272
-0.99666, 159, 249, 174, 312
-0.996672, 55, 249, 70, 312
-0.996688, 215, 273, 230, 336
-0.996705, 201, 137, 216, 200
-0.996707, 37, 145, 52, 208
-0.996707, 223, 233, 238, 296
-0.996727, 289, 145, 304, 208
-0.99673, 187, 161, 202, 224
-0.996743, 119, 249, 134, 312
-0.996745, 291, 241, 306, 304
-0.996756, 75, 225, 90, 288
-0.996756, 257, 305, 320, 432
-0.996757, 265, 201, 280, 264
-0.99677, 161, 141, 288, 172
-0.99677, 91, 153, 106, 216
-0.996792, 201, 97, 232, 352
-0.996794, 61, 129, 76, 192
-0.9968, 25, 129, 56, 384
-0.996802, 145, 217, 272, 248
-0.996804, 93, 129, 124, 384
-0.996812, 265, 129, 296, 384
-0.996812, 85, 217, 100, 280
-0.996821, 197, 241, 212, 304
-0.996842, 175, 225, 190, 288
-0.996857, 65, 129, 96, 384
-0.996857, 119, 225, 134, 288
-0.996858, 33, 425, 288, 488
-0.996863, 255, 249, 270, 280
-0.996874, 275, 145, 290, 208
-0.996874, 125, 161, 140, 224
-0.996884, 113, 457, 240, 488
-0.996885, 231, 249, 246, 312
-0.99689, 153, 145, 168, 208
-0.996902, 93, 217, 108, 280
-0.996905, 19, 137, 34, 200
-0.996906, 53, 137, 68, 200
-0.996907, 13, 265, 28, 328
-0.996908, 97, 177, 224, 208
-0.996917, 107, 153, 122, 216
-0.996922, 233, 321, 296, 448
-0.996934, 145, 241, 272, 272
-0.996947, 27, 137, 42, 200
-0.996953, 49, 129, 80, 384
-0.996963, 55, 217, 70, 280
-0.996977, 217, 129, 248, 384
-0.996985, 265, 249, 280, 312
-0.996985, 137, 433, 152, 496
-0.996989, 71, 145, 86, 208
-0.996993, 21, 169, 36, 232
-0.996998, 167, 145, 182, 208
-0.996998, 299, 265, 314, 328
-0.996999, 89, 425, 104, 488
-0.997006, 169, 129, 200, 384
-0.997009, 253, 249, 268, 312
-0.997022, 311, 1, 326, 64
-0.997029, 57, 177, 120, 240
-0.997035, 101, 153, 116, 216
-0.997046, 241, 281, 256, 344
-0.997058, 253, 433, 268, 496
-0.997059, 145, 425, 160, 488
-0.997064, 113, 57, 240, 120
-0.997064, 259, 153, 274, 216
-0.997064, 13, 209, 28, 272
-0.997079, 275, 273, 290, 336
-0.997094, 145, 193, 272, 224
-0.997095, 219, 161, 234, 224
-0.997097, 183, 249, 198, 312
-0.997102, 11, 241, 26, 304
-0.997118, 45, 425, 60, 488
-0.997118, 81, 129, 112, 384
-0.997119, 283, 145, 298, 208
-0.997138, 91, 129, 106, 192
-0.99714, 1, 105, 332, 168
-0.997142, 233, 161, 248, 224
-0.997143, 1, 213, 128, 244
-0.997144, 15, 169, 30, 232
-0.997151, 193, 153, 208, 216
-0.99716, 277, 1, 292, 64
-0.997163, 209, 273, 224, 336
-0.997164, 17, 201, 144, 232
-0.997169, 117, 129, 148, 384
-0.997178, 271, 225, 286, 288
-0.997184, 159, 169, 174, 232
-0.997184, 285, 129, 316, 384
-0.997197, 249, 245, 264, 276
-0.997236, 153, 89, 216, 152
-0.997237, 231, 269, 246, 300
-0.997249, 1, 49, 128, 176
-0.997254, 307, 237, 322, 268
-0.997275, 1, 185, 128, 216
-0.997283, 285, 245, 300, 276
-0.997284, 241, 97, 272, 352
-0.9973, 279, 261, 294, 292
-0.997309, 279, 237, 294, 268
-0.997327, 113, 129, 240, 160
-0.99735, 161, 309, 288, 340
-0.997356, 145, 177, 272, 208
-0.99736, 229, 33, 260, 288
-0.997368, 1, 317, 128, 348
-0.997373, 105, 97, 136, 352
-0.99739, 47, 261, 62, 292
-0.997401, 193, 85, 320, 116
-0.997421, 97, 225, 224, 256
-0.997431, 171, 269, 186, 300
-0.997434, 85, 245, 100, 276
-0.997442, 45, 225, 76, 480
-0.997445, 33, 17, 288, 80
-0.997446, 35, 249, 50, 280
-0.997449, 129, 129, 160, 384
-0.997466, 193, 129, 320, 160
-0.997484, 249, 233, 264, 264
-0.997484, 31, 185, 46, 216
-0.997496, 247, 181, 262, 212
-0.997498, 149, 273, 180, 400
-0.997508, 253, 225, 284, 480
-0.997528, 161, 453, 288, 484
-0.997529, 39, 277, 54, 308
-0.997548, 193, 185, 320, 216
-0.99755, 209, 293, 332, 324
-0.997556, 209, 17, 240, 144
-0.997563, 65, 453, 192, 484
-0.997564, 267, 237, 282, 268
-0.997578, 73, 369, 136, 496
-0.997587, 297, 129, 328, 384
-0.9976, 195, 269, 210, 300
-0.997602, 217, 33, 248, 288
-0.997604, 19, 273, 34, 304
-0.997607, 85, 225, 116, 480
-0.997612, 65, 41, 320, 104
-0.997615, 249, 1, 280, 256
-0.997633, 209, 13, 332, 44
-0.99764, 65, 149, 192, 180
-0.997654, 25, 189, 40, 220
-0.997667, 275, 249, 290, 280
-0.997682, 289, 81, 320, 208
-0.9977, 157, 129, 188, 384
-0.997719, 261, 1, 292, 256
-0.997725, 317, 237, 332, 268
-0.997734, 113, 113, 240, 144
-0.997736, 75, 261, 90, 292
-0.997743, 145, 129, 176, 384
-0.997745, 65, 321, 320, 448
-0.997772, 27, 269, 42, 300
-0.99778, 265, 225, 280, 256
-0.997804, 261, 249, 276, 280
-0.997811, 243, 229, 258, 260
-0.997812, 287, 181, 302, 212
-0.997838, 37, 189, 52, 220
-0.997839, 21, 293, 36, 324
-0.997857, 1, 329, 128, 360
-0.997858, 163, 261, 178, 292
-0.997858, 5, 161, 36, 416
-0.997861, 1, 305, 128, 336
-0.997874, 107, 241, 122, 272
-0.997876, 27, 257, 42, 288
-0.997883, 119, 269, 134, 300
-0.997912, 273, 265, 288, 296
-0.997929, 233, 281, 248, 312
-0.997933, 275, 225, 290, 256
-0.997934, 193, 409, 320, 472
-0.997936, 183, 165, 198, 196
-0.997951, 27, 289, 42, 320
-0.997952, 193, 213, 320, 244
-0.997956, 261, 237, 276, 268
-0.99797, 1, 97, 256, 160
-0.997984, 37, 237, 52, 268
-0.99799, 259, 265, 274, 296
-0.998018, 49, 317, 176, 348
-0.998025, 185, 41, 248, 104
-0.998026, 25, 225, 56, 480
-0.998026, 27, 205, 42, 236
-0.998031, 193, 105, 320, 136
-0.99804, 257, 49, 288, 176
-0.998046, 201, 269, 216, 300
-0.998063, 1, 289, 332, 352
-0.99807, 23, 237, 38, 268
-0.998075, 265, 261, 280, 292
-0.998077, 49, 281, 64, 312
-0.998094, 161, 297, 288, 328
-0.998098, 267, 249, 282, 280
-0.998099, 281, 273, 296, 304
-0.998117, 119, 253, 134, 284
-0.998117, 177, 117, 304, 148
-0.998129, 35, 261, 50, 292
-0.998137, 13, 321, 44, 448
-0.998139, 21, 205, 36, 236
-0.998144, 37, 129, 68, 384
-0.998144, 139, 433, 154, 464
-0.998145, 193, 197, 320, 228
-0.998153, 209, 309, 332, 340
-0.998154, 95, 157, 110, 188
-0.998158, 15, 249, 30, 280
-0.99816, 55, 149, 70, 180
-0.998162, 221, 193, 236, 224
-0.998171, 81, 193, 208, 224
-0.998174, 215, 193, 230, 224
-0.998175, 203, 157, 218, 188
-0.998175, 315, 221, 330, 252
-0.998177, 241, 313, 256, 344
-0.998183, 281, 285, 296, 316
-0.998192, 225, 277, 240, 308
-0.998209, 285, 225, 300, 256
-0.998214, 145, 429, 160, 460
-0.998219, 81, 213, 208, 244
-0.998222, 167, 169, 182, 200
-0.998222, 75, 153, 90, 184
-0.99823, 177, 165, 192, 196
-0.998239, 73, 273, 88, 304
-0.99825, 91, 245, 106, 276
-0.998256, 131, 165, 146, 196
-0.998262, 173, 281, 188, 312
-0.998265, 1, 313, 256, 376
-0.998265, 149, 169, 164, 200
-0.998273, 111, 161, 126, 192
-0.998291, 215, 281, 230, 312
-0.998296, 161, 29, 288, 60
-0.998299, 179, 281, 194, 312
-0.998305, 193, 169, 208, 200
-0.998305, 11, 285, 26, 316
-0.998307, 15, 141, 30, 172
-0.998313, 299, 245, 314, 276
-0.998318, 83, 441, 98, 472
-0.998324, 1, 337, 128, 400
-0.998324, 119, 241, 134, 272
-0.998327, 273, 237, 288, 268
-0.99833, 109, 441, 124, 472
-0.99833, 65, 429, 192, 460
-0.998333, 299, 265, 314, 296
-0.998334, 31, 225, 46, 256
-0.998337, 57, 265, 72, 296
-0.998337, 97, 245, 112, 276
-0.99834, 129, 437, 144, 468
-0.99834, 193, 65, 256, 128
-0.998342, 287, 277, 302, 308
-0.998347, 155, 441, 170, 472
-0.99835, 241, 239, 304, 254
-0.998362, 237, 455, 268, 470
-0.998362, 17, 229, 32, 260
-0.998363, 45, 251, 76, 266
-0.998365, 145, 441, 160, 472
-0.998365, 205, 453, 236, 468
-0.998366, 9, 181, 40, 196
-0.998366, 65, 265, 96, 280
-0.998366, 217, 303, 248, 318
-0.998368, 69, 141, 84, 172
-0.998369, 205, 193, 236, 208
-0.998372, 233, 237, 264, 252
-0.998372, 157, 455, 188, 470
-0.998373, 193, 455, 224, 470
-0.998373, 217, 167, 248, 182
-0.998373, 273, 265, 304, 280
-0.998374, 45, 263, 76, 278
-0.998375, 33, 285, 48, 316
-0.998375, 87, 157, 102, 188
-0.998376, 173, 285, 204, 300
-0.998378, 245, 193, 276, 208
-0.998378, 309, 221, 324, 252
-0.998378, 85, 457, 116, 472
-0.998379, 285, 263, 316, 278
-0.998379, 137, 433, 168, 448
-0.998379, 129, 265, 160, 280
-0.99838, 293, 149, 324, 164
-0.99838, 89, 441, 104, 472
-0.998381, 177, 455, 208, 470
-0.998381, 125, 273, 156, 288
-0.998381, 9, 251, 40, 266
-0.998382, 65, 271, 96, 286
-0.998382, 257, 247, 320, 262
-0.998382, 269, 281, 300, 296
-0.998382, 301, 251, 332, 266
-0.998384, 101, 281, 132, 296
-0.998384, 205, 193, 236, 448
-0.998385, 105, 265, 136, 280
-0.998386, 161, 273, 224, 288
-0.998386, 233, 163, 264, 178
-0.998388, 173, 265, 204, 280
-0.998389, 65, 283, 96, 298
-0.998389, 249, 159, 280, 174
-0.998391, 285, 283, 316, 298
-0.998392, 13, 287, 44, 302
-0.998394, 113, 247, 144, 262
-0.998397, 69, 153, 84, 184
-0.998398, 45, 257, 76, 272
-0.9984, 265, 287, 296, 302
-0.9984, 77, 159, 108, 174
-0.9984, 225, 191, 256, 206
-0.998401, 29, 149, 60, 164
-0.998402, 9, 145, 40, 160
-0.998403, 193, 163, 224, 178
-0.998405, 261, 253, 292, 268
-0.998406, 73, 247, 136, 262
-0.998406, 21, 253, 36, 284
-0.998411, 237, 187, 268, 202
-0.998413, 233, 263, 264, 278
-0.998414, 249, 257, 264, 288
-0.998415, 41, 151, 72, 166
-0.998415, 281, 185, 312, 200
-0.998417, 105, 161, 120, 192
-0.998418, 73, 455, 104, 470
-0.998418, 53, 153, 84, 168
-0.998418, 225, 265, 240, 296
-0.99842, 169, 169, 200, 184
-0.99842, 265, 233, 296, 248
-0.99842, 249, 225, 280, 240
-0.998421, 109, 165, 140, 180
-0.998422, 13, 233, 44, 248
-0.998422, 223, 289, 238, 320
-0.998422, 49, 149, 64, 180
-0.998423, 121, 113, 184, 176
-0.998424, 125, 169, 156, 184
-0.998425, 153, 175, 184, 190
-0.998425, 81, 433, 112, 448
-0.998426, 169, 279, 232, 294
-0.998427, 301, 279, 332, 294
-0.998427, 143, 169, 158, 200
-0.998428, 153, 249, 168, 280
-0.998429, 217, 231, 280, 246
-0.998429, 95, 229, 110, 260
-0.998431, 185, 273, 200, 304
-0.998432, 65, 155, 96, 170
-0.998432, 113, 281, 144, 296
-0.998432, 89, 161, 120, 176
-0.998433, 13, 293, 44, 308
-0.998433, 61, 137, 76, 168
-0.998433, 161, 281, 192, 296
-0.998436, 21, 267, 52, 282
-0.998436, 25, 195, 56, 210
-0.998438, 255, 157, 270, 188
-0.998439, 241, 233, 304, 248
-0.998439, 163, 273, 178, 304
-0.998439, 35, 145, 50, 176
-0.99844, 209, 269, 240, 284
-0.998441, 197, 199, 228, 214
-0.998442, 73, 253, 136, 268
-0.998442, 203, 133, 218, 164
-0.998443, 137, 171, 168, 186
-0.998443, 225, 197, 256, 212
-0.998443, 265, 241, 328, 256
-0.998444, 229, 229, 260, 244
-0.998445, 1, 291, 32, 306
-0.998445, 267, 273, 282, 304
-0.998446, 289, 271, 320, 286
-0.998446, 237, 229, 252, 260
-0.998447, 53, 271, 84, 286
-0.998448, 73, 265, 136, 280
-0.998448, 17, 429, 144, 460
-0.998449, 245, 267, 276, 282
-0.998449, 265, 227, 296, 242
-0.99845, 21, 253, 52, 268
-0.99845, 33, 441, 160, 472
-0.99845, 241, 265, 256, 296
-0.998451, 73, 259, 136, 274
-0.998453, 157, 269, 188, 284
-0.998454, 233, 245, 264, 260
-0.998454, 209, 29, 332, 60
-0.998454, 61, 149, 76, 180
-0.998455, 269, 273, 300, 288
-0.998455, 17, 217, 32, 248
-0.998456, 153, 261, 168, 292
-0.998456, 45, 285, 76, 300
-0.998458, 253, 189, 268, 220
-0.998459, 33, 253, 96, 268
-0.998459, 25, 239, 56, 254
-0.998459, 113, 253, 144, 268
-0.998459, 113, 259, 144, 274
-0.99846, 301, 245, 332, 260
-0.99846, 189, 279, 220, 294
-0.998462, 199, 169, 214, 200
-0.998462, 17, 215, 48, 230
-0.998462, 261, 259, 292, 274
-0.998462, 9, 245, 72, 260
-0.998463, 299, 221, 314, 252
-0.998463, 117, 161, 132, 192
-0.998463, 129, 269, 144, 300
-0.998464, 201, 275, 264, 290
-0.998464, 21, 209, 52, 224
-0.998465, 163, 245, 178, 276
-0.998466, 289, 277, 320, 292
-0.998467, 155, 429, 170, 460
-0.998469, 125, 165, 140, 196
-0.998469, 181, 167, 212, 182
-0.99847, 257, 261, 320, 276
-0.998472, 281, 247, 312, 262
-0.998472, 81, 153, 96, 184
-0.998473, 13, 239, 44, 254
-0.998474, 73, 271, 136, 286
-0.998479, 221, 279, 252, 294
-0.998479, 25, 281, 88, 296
-0.99848, 113, 93, 240, 124
-0.998483, 221, 287, 252, 302
-0.998485, 245, 261, 276, 276
-0.998489, 281, 239, 312, 254
-0.998492, 209, 141, 332, 172
-0.998493, 241, 187, 304, 202
-0.998493, 33, 247, 96, 262
-0.998494, 257, 271, 320, 286
-0.998495, 265, 225, 296, 480
-0.998496, 1, 289, 64, 304
-0.998497, 17, 245, 48, 260
-0.998499, 25, 289, 56, 304
-0.998499, 33, 257, 64, 272
-0.998499, 173, 279, 204, 294
-0.9985, 65, 277, 96, 292
-0.998503, 137, 271, 200, 286
-0.998504, 113, 273, 144, 288
-0.998506, 265, 255, 328, 270
-0.998506, 97, 245, 128, 260
-0.998508, 13, 281, 44, 296
-0.998508, 21, 273, 52, 288
-0.998509, 85, 247, 116, 262
-0.998512, 161, 17, 288, 48
-0.998513, 117, 265, 148, 280
-0.998516, 45, 277, 76, 292
-0.998516, 265, 239, 296, 254
-0.998517, 21, 259, 52, 274
-0.998518, 157, 275, 188, 290
-0.998519, 33, 259, 96, 274
-0.998519, 209, 275, 240, 290
-0.998523, 177, 325, 304, 356
-0.998523, 301, 239, 332, 254
-0.998525, 229, 269, 260, 284
-0.998525, 241, 253, 304, 268
-0.998526, 301, 225, 332, 480
-0.998527, 9, 251, 72, 266
-0.998527, 241, 231, 272, 246
-0.99853, 37, 245, 68, 260
-0.998532, 261, 265, 292, 280
-0.998533, 105, 249, 168, 264
-0.998533, 265, 233, 328, 248
-0.998534, 169, 271, 200, 286
-0.998534, 105, 255, 168, 270
-0.998535, 253, 209, 268, 336
-0.998538, 1, 65, 32, 192
-0.998538, 9, 239, 72, 254
-0.998539, 225, 245, 288, 260
-0.998541, 105, 265, 168, 280
-0.998541, 177, 285, 240, 300
-0.998542, 33, 251, 64, 266
-0.998544, 25, 287, 88, 302
-0.998549, 9, 275, 72, 290
-0.998551, 33, 263, 64, 278
-0.998553, 137, 173, 200, 188
-0.998553, 129, 441, 256, 472
-0.998553, 65, 277, 128, 292
-0.998554, 161, 169, 224, 184
-0.998555, 105, 273, 168, 288
-0.998555, 245, 237, 276, 252
-0.998557, 47, 225, 62, 352
-0.99856, 217, 239, 280, 254
-0.998561, 33, 271, 96, 286
-0.998563, 9, 257, 72, 272
-0.998563, 245, 251, 276, 266
-0.998564, 253, 231, 284, 246
-0.998565, 25, 189, 56, 204
-0.998567, 1, 189, 64, 204
-0.99857, 161, 267, 224, 282
-0.998572, 233, 271, 296, 286
-0.998572, 241, 227, 304, 242
-0.998574, 201, 165, 264, 180
-0.998575, 233, 265, 296, 280
-0.998575, 177, 163, 240, 178
-0.998578, 137, 281, 200, 296
-0.998581, 73, 455, 136, 470
-0.998584, 217, 187, 280, 202
-0.998584, 49, 155, 112, 170
-0.998586, 113, 453, 176, 468
-0.998587, 265, 277, 328, 292
-0.998587, 97, 225, 128, 480
-0.998589, 261, 245, 292, 260
-0.998589, 25, 151, 88, 166
-0.998589, 73, 283, 136, 298
-0.99859, 201, 269, 264, 284
-0.99859, 1, 145, 64, 160
-0.99859, 217, 197, 280, 212
-0.998591, 33, 265, 96, 280
-0.998592, 1, 281, 64, 296
-0.998594, 1, 223, 64, 238
-0.998594, 225, 277, 288, 292
-0.998595, 81, 161, 144, 176
-0.998596, 33, 277, 64, 292
-0.998596, 241, 193, 304, 208
-0.998597, 33, 269, 64, 284
-0.998597, 201, 157, 264, 172
-0.998598, 169, 453, 232, 468
-0.998598, 241, 181, 304, 196
-0.998598, 265, 151, 328, 166
-0.998599, 33, 169, 160, 200
-0.9986, 105, 167, 168, 182
-0.998605, 1, 195, 64, 210
-0.998607, 9, 263, 72, 278
-0.998609, 259, 225, 274, 352
-0.99861, 217, 251, 280, 266
-0.998613, 19, 193, 34, 320
-0.998613, 1, 229, 64, 244
-0.998617, 189, 273, 220, 288
-0.99862, 233, 259, 296, 274
-0.99862, 9, 295, 72, 310
-0.998621, 265, 225, 328, 240
-0.998622, 105, 243, 168, 258
-0.998624, 193, 455, 256, 470
-0.998625, 153, 287, 216, 302
-0.998626, 201, 283, 264, 298
-0.998627, 233, 159, 296, 174
-0.998628, 9, 217, 72, 232
-0.99863, 113, 279, 176, 294
-0.998631, 241, 19, 304, 34
-0.998632, 193, 231, 256, 246
-0.998633, 25, 189, 88, 204
-0.998635, 145, 453, 208, 468
-0.998637, 33, 283, 64, 298
-0.99864, 9, 269, 72, 284
-0.998642, 49, 283, 112, 298
-0.998642, 225, 321, 288, 336
-0.998643, 185, 171, 248, 186
-0.998644, 57, 161, 120, 176
-0.998646, 169, 193, 232, 208
-0.998646, 41, 241, 104, 256
-0.998646, 129, 263, 192, 278
-0.998648, 209, 203, 272, 218
-0.998649, 9, 211, 72, 226
-0.998651, 273, 185, 332, 200
-0.998652, 41, 321, 104, 336
-0.998653, 57, 433, 120, 448
-0.998654, 257, 283, 320, 298
-0.998655, 81, 167, 144, 182
-0.998657, 17, 331, 80, 346
-0.998658, 129, 251, 192, 266
-0.998659, 105, 433, 168, 448
-0.998659, 193, 305, 256, 320
-0.99866, 129, 165, 192, 180
-0.998662, 25, 229, 88, 244
-0.998662, 265, 191, 328, 206
-0.998666, 145, 459, 208, 474
-0.998666, 33, 201, 96, 216
-0.998667, 225, 165, 288, 180
-0.99867, 233, 303, 296, 318
-0.99867, 257, 289, 320, 304
-0.998671, 217, 457, 280, 472
-0.998671, 97, 459, 160, 474
-0.998671, 201, 225, 264, 240
-0.998672, 161, 175, 224, 190
-0.998672, 153, 229, 216, 244
-0.998672, 41, 329, 104, 344
-0.998672, 41, 295, 104, 310
-0.998673, 193, 197, 256, 212
-0.998674, 209, 263, 272, 278
-0.998675, 9, 321, 72, 336
-0.998675, 193, 115, 256, 130
-0.998675, 129, 257, 192, 272
-0.998676, 41, 143, 104, 158
-0.998676, 201, 245, 264, 260
-0.998677, 247, 177, 262, 304
-0.998682, 209, 165, 332, 196
-0.998686, 87, 225, 102, 352
-0.998689, 245, 243, 276, 258
-0.998714, 301, 1, 332, 256
-0.998739, 265, 89, 328, 152
-0.998743, 161, 369, 288, 496
-0.998753, 97, 369, 160, 496
-0.998776, 309, 225, 324, 352
-0.998778, 265, 209, 280, 336
-0.998789, 137, 273, 168, 400
-0.998794, 209, 73, 332, 104
-0.998805, 17, 453, 144, 484
-0.998805, 161, 49, 288, 80
-0.998806, 289, 289, 320, 416
-0.998823, 1, 73, 256, 136
-0.998833, 279, 225, 294, 352
-0.998852, 107, 225, 122, 352
-0.998858, 113, 301, 240, 332
-0.998859, 65, 225, 96, 480
-0.998864, 209, 45, 332, 76
-0.998866, 145, 205, 272, 236
-0.998878, 97, 1, 224, 64
-0.998892, 247, 225, 262, 352
-0.998934, 37, 241, 52, 368
-0.998936, 255, 161, 270, 288
-0.998944, 315, 225, 330, 352
-0.998945, 289, 1, 320, 256
-0.998969, 97, 225, 112, 352
-0.998971, 13, 257, 44, 500
-0.998973, 161, 5, 288, 36
-0.998981, 285, 193, 300, 320
-0.998983, 27, 241, 42, 368
-0.998989, 271, 225, 286, 352
-0.99899, 253, 257, 268, 384
-0.998991, 209, 61, 332, 92
-0.999011, 239, 209, 254, 336
-0.999016, 101, 145, 116, 272
-0.999018, 173, 209, 188, 336
-0.999019, 231, 145, 246, 272
-0.99902, 209, 1, 332, 32
-0.999039, 29, 193, 44, 320
-0.99904, 93, 145, 108, 272
-0.999044, 1, 125, 128, 156
-0.999045, 21, 241, 36, 368
-0.999058, 81, 225, 96, 352
-0.999062, 273, 1, 304, 256
-0.999075, 299, 193, 314, 320
-0.999076, 145, 81, 272, 112
-0.999085, 231, 257, 246, 384
-0.999088, 177, 161, 192, 288
-0.999096, 191, 161, 206, 288
-0.999102, 177, 225, 208, 480
-0.999108, 1, 401, 256, 464
-0.999112, 291, 193, 306, 320
-0.999116, 231, 209, 246, 336
-0.999117, 15, 241, 30, 368
-0.99912, 183, 209, 198, 336
-0.999131, 167, 161, 182, 288
-0.999147, 219, 145, 234, 272
-0.999149, 241, 161, 256, 288
-0.999152, 255, 1, 270, 128
-0.999152, 137, 65, 200, 192
-0.999161, 113, 313, 240, 344
-0.999164, 247, 1, 262, 128
-0.999172, 311, 177, 326, 304
-0.999174, 83, 145, 98, 272
-0.999176, 265, 1, 280, 128
-0.999178, 183, 145, 198, 272
-0.999179, 19, 145, 34, 272
-0.999184, 171, 257, 186, 384
-0.999193, 107, 145, 122, 272
-0.999194, 261, 145, 276, 272
-0.999196, 279, 177, 294, 304
-0.999196, 109, 225, 140, 480
-0.999198, 13, 193, 28, 320
-0.9992, 9, 65, 40, 320
-0.999202, 115, 145, 130, 272
-0.999208, 225, 145, 240, 272
-0.999211, 217, 225, 248, 480
-0.999214, 289, 225, 320, 480
-0.99922, 25, 129, 40, 256
-0.999223, 273, 1, 288, 128
-0.999224, 13, 129, 28, 256
-0.99923, 57, 209, 72, 336
-0.99923, 71, 257, 86, 384
-0.99923, 47, 273, 62, 400
-0.999231, 35, 193, 50, 320
-0.999231, 165, 225, 196, 480
-0.999236, 197, 161, 212, 288
-0.999243, 117, 209, 132, 336
-0.999243, 49, 181, 176, 212
-0.999244, 199, 225, 214, 352
-0.999247, 113, 429, 240, 460
-0.999247, 201, 1, 232, 256
-0.99925, 303, 241, 318, 368
-0.999253, 191, 113, 206, 240
-0.999265, 181, 33, 212, 288
-0.999266, 209, 453, 332, 484
-0.999269, 75, 193, 90, 320
-0.999269, 55, 145, 70, 272
-0.999279, 317, 177, 332, 304
-0.999283, 269, 273, 284, 400
-0.999286, 205, 97, 220, 224
-0.999288, 189, 225, 220, 480
-0.999291, 177, 441, 304, 472
-0.999298, 25, 97, 88, 160
-0.999302, 289, 129, 304, 256
-0.999305, 223, 193, 238, 320
-0.999307, 269, 161, 284, 288
-0.999309, 149, 161, 164, 288
-0.999315, 133, 161, 148, 288
-0.999318, 247, 273, 262, 400
-0.99932, 163, 225, 178, 352
-0.999322, 285, 241, 300, 368
-0.999322, 31, 129, 46, 256
-0.999322, 279, 1, 294, 128
-0.999324, 117, 257, 132, 384
-0.999327, 211, 193, 226, 320
-0.999327, 65, 33, 96, 288
-0.999336, 161, 61, 288, 92
-0.999336, 77, 145, 92, 272
-0.999337, 125, 145, 140, 272
-0.999339, 295, 129, 310, 256
-0.999341, 193, 225, 208, 352
-0.999345, 45, 177, 60, 304
-0.999346, 9, 241, 24, 368
-0.999354, 47, 129, 62, 256
-0.999354, 239, 257, 254, 384
-0.999363, 247, 129, 262, 256
-0.999366, 49, 329, 176, 360
-0.999368, 7, 193, 22, 320
-0.999369, 37, 145, 52, 272
-0.99937, 291, 241, 306, 368
-0.999371, 157, 145, 172, 272
-0.999375, 55, 257, 70, 384
-0.999377, 65, 417, 192, 448
-0.999379, 69, 145, 84, 272
-0.999389, 241, 1, 256, 128
-0.999393, 25, 33, 56, 288
-0.999394, 199, 97, 214, 224
-0.999394, 153, 241, 168, 368
-0.999396, 263, 273, 278, 400
-0.999397, 139, 161, 154, 288
-0.999399, 301, 129, 316, 256
-0.999406, 65, 257, 80, 384
-0.999408, 77, 33, 108, 288
-0.99941, 177, 113, 192, 240
-0.999411, 41, 33, 72, 288
-0.999416, 213, 81, 228, 208
-0.999416, 109, 97, 124, 224
-0.999419, 305, 177, 320, 304
-0.999429, 69, 209, 84, 336
-0.99943, 275, 129, 290, 256
-0.99943, 131, 209, 146, 336
-0.99943, 225, 65, 240, 192
-0.999433, 205, 161, 220, 288
-0.999434, 313, 1, 328, 128
-0.999446, 115, 97, 130, 224
-0.999446, 177, 257, 192, 384
-0.999448, 123, 225, 138, 352
-0.999452, 21, 289, 36, 416
-0.999453, 147, 225, 162, 352
-0.99946, 161, 65, 224, 128
-0.99946, 61, 145, 76, 272
-0.999461, 27, 289, 42, 416
-0.999462, 205, 225, 220, 352
-0.999465, 283, 129, 298, 256
-0.999468, 121, 97, 136, 224
-0.99947, 225, 273, 240, 400
-0.999472, 65, 125, 192, 156
-0.999481, 101, 97, 116, 224
-0.999485, 141, 225, 156, 352
-0.999485, 217, 209, 232, 336
-0.999486, 85, 97, 100, 224
-0.999489, 63, 209, 78, 336
-0.99949, 1, 129, 16, 256
-0.999491, 145, 225, 176, 480
-0.999491, 49, 305, 176, 336
-0.999503, 93, 33, 124, 288
-0.99953, 193, 33, 224, 160
-0.999533, 125, 33, 156, 288
-0.999572, 23, 259, 38, 274
-0.999572, 153, 431, 168, 446
-0.999572, 299, 247, 314, 262
-0.999573, 133, 455, 148, 470
-0.999574, 253, 225, 268, 240
-0.999574, 29, 235, 44, 250
-0.999574, 49, 289, 64, 304
-0.999575, 73, 457, 88, 472
-0.999575, 43, 197, 58, 212
-0.999576, 239, 267, 254, 282
-0.999577, 49, 151, 64, 166
-0.999577, 23, 245, 38, 260
-0.999577, 241, 275, 256, 290
-0.999579, 195, 167, 210, 182
-0.999579, 167, 173, 182, 188
-0.99958, 57, 153, 72, 168
-0.99958, 243, 455, 258, 470
-0.999582, 37, 239, 52, 254
-0.999582, 271, 265, 286, 280
-0.999583, 19, 239, 34, 254
-0.999584, 245, 191, 260, 206
-0.999585, 15, 251, 30, 266
-0.999585, 139, 455, 154, 470
-0.999586, 71, 279, 86, 294
-0.999587, 205, 455, 220, 470
-0.999587, 299, 271, 314, 286
-0.999587, 113, 265, 128, 280
-0.999588, 125, 255, 140, 270
-0.999588, 125, 257, 156, 500
-0.999588, 251, 239, 266, 254
-0.999588, 71, 155, 86, 170
-0.999589, 125, 167, 140, 182
-0.999589, 125, 453, 140, 468
-0.999589, 17, 293, 32, 308
-0.99959, 243, 235, 258, 250
-0.99959, 101, 245, 116, 260
-0.99959, 135, 169, 150, 184
-0.999591, 29, 279, 44, 294
-0.999592, 107, 163, 122, 178
-0.999593, 91, 247, 106, 262
-0.999593, 39, 287, 54, 302
-0.999595, 83, 433, 98, 448
-0.999595, 35, 267, 50, 282
-0.999597, 211, 275, 226, 290
-0.999597, 233, 287, 248, 302
-0.999598, 267, 231, 282, 246
-0.999601, 185, 167, 200, 182
-0.999602, 211, 197, 226, 212
-0.999602, 163, 275, 178, 290
-0.999602, 75, 261, 90, 276
-0.999603, 243, 229, 258, 244
-0.999603, 315, 237, 330, 252
-0.999604, 27, 291, 42, 306
-0.999605, 81, 157, 96, 172
-0.999605, 181, 453, 196, 468
-0.999607, 87, 159, 102, 174
-0.999607, 283, 273, 298, 288
-0.999607, 275, 247, 290, 262
-0.999607, 173, 269, 188, 284
-0.999608, 11, 291, 26, 306
-0.999608, 255, 453, 270, 468
-0.999609, 271, 271, 286, 286
-0.999609, 97, 161, 112, 176
-0.999611, 265, 263, 280, 278
-0.999613, 145, 33, 176, 288
-0.999614, 139, 433, 154, 448
-0.999614, 153, 453, 168, 468
-0.999615, 21, 287, 36, 302
-0.999616, 35, 199, 50, 214
-0.999616, 75, 267, 90, 282
-0.999618, 277, 283, 292, 298
-0.99962, 223, 277, 238, 292
-0.999621, 37, 191, 52, 206
-0.999621, 173, 281, 188, 296
-0.999621, 37, 245, 52, 260
-0.999621, 133, 265, 148, 280
-0.999623, 27, 271, 42, 286
-0.999625, 47, 283, 62, 298
-0.999626, 27, 265, 42, 280
-0.999627, 119, 279, 134, 294
-0.999628, 283, 279, 298, 294
-0.999628, 91, 455, 106, 470
-0.999629, 27, 207, 42, 222
-0.999629, 107, 243, 122, 258
-0.999629, 285, 241, 300, 256
-0.999629, 79, 455, 94, 470
-0.999632, 97, 455, 112, 470
-0.999635, 265, 225, 280, 240
-0.999636, 31, 251, 46, 266
-0.999638, 85, 455, 100, 470
-0.999642, 277, 261, 292, 276
-0.999643, 37, 255, 52, 270
-0.999643, 125, 271, 140, 286
-0.999646, 249, 251, 264, 266
-0.999646, 163, 263, 178, 278
-0.999652, 257, 261, 272, 276
-0.999655, 257, 241, 272, 256
-0.999659, 125, 265, 140, 280
-0.999659, 161, 33, 192, 288
-0.999662, 257, 251, 272, 266
-0.999662, 47, 253, 62, 268
-0.999667, 35, 273, 50, 288
-0.999668, 267, 243, 282, 258
-0.999668, 75, 273, 90, 288
-0.999668, 47, 277, 62, 292
-0.999669, 85, 249, 100, 264
-0.999669, 249, 185, 264, 200
-0.999676, 29, 189, 44, 204
-0.999679, 45, 269, 60, 284
-0.999683, 35, 261, 50, 276
-0.999683, 283, 247, 298, 262
-0.999683, 267, 237, 282, 252
-0.999684, 167, 269, 182, 284
-0.999687, 119, 273, 134, 288
-0.999689, 45, 431, 60, 446
-0.999697, 39, 281, 54, 296
-0.999697, 287, 183, 302, 198
-0.999698, 121, 313, 184, 376
-0.999703, 307, 239, 322, 254
-0.999708, 119, 249, 134, 264
-0.999708, 277, 267, 292, 282
-0.99971, 47, 259, 62, 274
-0.999713, 201, 273, 216, 288
-0.999713, 119, 259, 134, 274
-0.999717, 247, 245, 262, 260
-0.999717, 219, 195, 234, 210
-0.999719, 231, 279, 246, 294
-0.99972, 171, 275, 186, 290
-0.999724, 195, 273, 210, 288
-0.999731, 279, 239, 294, 254
-0.999737, 255, 231, 270, 246
-0.999746, 119, 265, 134, 280
-0.999753, 53, 33, 84, 288
-0.999766, 231, 271, 246, 286
-0.999774, 113, 1, 144, 256
-0.999802, 47, 245, 62, 260
-0.999829, 49, 109, 176, 140
-0.999836, 65, 289, 192, 320
-0.999862, 1, 25, 332, 88
-0.999871, 1, 417, 128, 448
-0.999872, 1, 257, 32, 500
-0.999872, 161, 465, 288, 496
-0.999874, 9, 417, 72, 480
-0.999891, 49, 465, 176, 496
-0.999897, 277, 225, 308, 480
-0.999924, 121, 369, 184, 496
-0.999927, 229, 257, 260, 500
-0.999949, 61, 305, 92, 432
-0.999981, 33, 377, 160, 440
-1.00004, 1, 97, 64, 160
-1.00005, 1, 369, 128, 496
-1.00006, 113, 69, 240, 100
-1.00013, 33, 81, 160, 144
-1.00014, 161, 421, 288, 452
-1.00018, 1, 341, 128, 372
-1.00024, 1, 109, 128, 140
-1.00029, 209, 465, 332, 496
-1.00031, 97, 5, 224, 36
-1.00032, 113, 21, 240, 52
-1.00033, 97, 469, 224, 500
-1.00035, 1, 465, 128, 496
-1.00035, 113, 33, 240, 96
-1.00036, 1, 433, 332, 496
-1.00041, 113, 417, 240, 448
-1.00042, 97, 81, 224, 112
-1.00043, 1, 397, 128, 428
-1.00044, 129, 325, 256, 356
-1.00048, 49, 97, 176, 128
-1.00052, 65, 381, 192, 412
-1.00053, 49, 365, 176, 396
-1.00054, 257, 401, 320, 464
-1.00055, 1, 377, 256, 440
-1.00056, 1, 93, 128, 124
-1.00056, 49, 393, 176, 424
-1.00057, 1, 73, 332, 136
-1.00058, 1, 81, 128, 112
-1.00061, 1, 1, 332, 64
-1.00062, 97, 353, 224, 384
-1.00064, 1, 381, 128, 412
-1.00064, 49, 49, 176, 176
-1.00064, 193, 409, 256, 472
-1.00064, 113, 37, 240, 68
-1.00066, 49, 405, 176, 436
-1.00067, 129, 397, 256, 428
-1.00067, 177, 353, 304, 384
-1.00067, 113, 385, 240, 416
-1.00069, 209, 413, 332, 444
-1.00071, 177, 385, 304, 416
-1.00071, 161, 337, 288, 368
-1.00071, 97, 365, 224, 396
-1.00072, 81, 401, 208, 464
-1.00073, 49, 1, 176, 32
-1.00073, 193, 397, 320, 428
-1.00083, 217, 105, 280, 168
-1.00083, 133, 369, 164, 496
-1.00087, 1, 49, 332, 112
-1.00111, 33, 393, 96, 456
-1.00115, 1, 337, 256, 400
-1.00116, 1, 313, 332, 376
-1.00117, 161, 369, 192, 496
-1.00127, 129, 369, 256, 432
-1.00129, 181, 65, 212, 192
-1.00132, 81, 353, 208, 416
-1.00136, 153, 313, 216, 376
-1.00138, 177, 313, 240, 376
-1.0014, 41, 321, 72, 448
-1.00154, 193, 385, 320, 448
-1.00154, 209, 345, 332, 408
-1.00157, 33, 49, 64, 176
-1.00158, 105, 89, 168, 152
-1.00165, 145, 337, 272, 400
-1.00173, 49, 1, 176, 64
-1.0019, 97, 329, 224, 392
-1.0019, 33, 369, 96, 496
-1.00197, 17, 57, 144, 120
-1.00199, 81, 377, 208, 440
-1.00205, 1, 409, 332, 472
-1.00225, 205, 289, 236, 416
-1.00243, 81, 369, 112, 496
-1.00248, 17, 33, 144, 96
-1.00257, 217, 401, 280, 464
-1.00262, 105, 369, 136, 496
-1.00267, 53, 369, 84, 496
-1.0028, 65, 25, 192, 88
-1.00296, 81, 377, 144, 440
-1.00296, 65, 57, 192, 120
-1.00297, 1, 377, 332, 440
-1.003, 1, 9, 128, 72
-1.0032, 153, 353, 216, 480
-1.00331, 177, 1, 240, 64
-1.00332, 1, 337, 332, 400
-1.00338, 9, 65, 72, 128
-1.0034, 181, 369, 212, 496
-1.00352, 69, 369, 100, 496
-1.00367, 121, 377, 184, 440
-1.00375, 41, 337, 104, 400
-1.00375, 117, 369, 148, 496
-1.00389, 177, 369, 240, 496
-1.00392, 1, 321, 32, 448
-1.004, 177, 305, 208, 432
-1.00411, 165, 65, 196, 192
-1.00418, 237, 369, 268, 496
-1.00425, 145, 369, 176, 496
-1.00433, 217, 369, 280, 496
-1.0044, 153, 1, 216, 64
-1.00443, 209, 369, 332, 496
-1.00444, 261, 369, 292, 496
-1.00457, 9, 393, 72, 456
-1.0047, 89, 313, 152, 376
-1.00474, 81, 81, 144, 144
-1.00481, 1, 345, 64, 408
-1.00526, 57, 321, 120, 448
-1.00544, 257, 329, 320, 392
-1.00548, 129, 89, 192, 152
-1.00553, 129, 1, 192, 64
-1.00558, 89, 353, 152, 416
-1.00562, 161, 377, 224, 440
-1.00565, 65, 49, 128, 176
-1.00593, 49, 321, 176, 448
-1.00623, 113, 321, 240, 448
-1.00737, 65, 1, 192, 128
-1.0077, 97, 49, 160, 176
-1.00772, 257, 353, 320, 480
-1.00786, 145, 305, 208, 432
-1.00883, 1, 369, 64, 496
-1.00907, 17, 1, 144, 128
-1.00954, 1, 1, 64, 128
-1.00964, 129, 1, 192, 128
-1.0099, 33, 33, 96, 160
-1.01003, 113, 321, 176, 448
-1.01139, 185, 321, 248, 448
-1.0137, 73, 1, 136, 128
-1.0137, 89, 321, 152, 448
-1.01428, 105, 1, 168, 128
