1967
-0.383703, 1, 1, 500, 375
-0.472069, 1, 129, 500, 375
-0.473267, 193, 1, 448, 375
-0.488493, 33, 1, 288, 375
-0.554636, 1, 1, 500, 256
-0.677353, 1, 1, 256, 256
-0.723695, 161, 129, 416, 375
-0.804817, 65, 97, 320, 352
-0.811447, 129, 1, 384, 256
-0.816379, 225, 33, 480, 288
-0.858428, 81, 1, 208, 375
-0.863346, 17, 1, 144, 375
-0.869975, 257, 129, 500, 375
-0.873488, 1, 1, 500, 128
-0.875689, 305, 1, 432, 375
-0.882274, 1, 177, 500, 304
-0.887286, 225, 1, 352, 375
-0.893667, 17, 1, 144, 256
-0.894249, 113, 1, 240, 256
-0.896357, 65, 1, 192, 256
-0.898704, 145, 1, 272, 375
-0.905459, 353, 1, 480, 375
-0.905837, 241, 97, 368, 352
-0.909344, 161, 1, 288, 256
-0.912894, 1, 17, 256, 144
-0.91383, 305, 1, 432, 256
-0.915361, 193, 129, 320, 375
-0.915805, 1, 225, 500, 352
-0.916216, 145, 97, 272, 352
-0.919913, 241, 1, 368, 256
-0.922193, 289, 129, 416, 375
-0.923477, 97, 129, 224, 375
-0.928751, 97, 1, 352, 128
-0.929057, 369, 1, 496, 256
-0.930842, 17, 17, 144, 144
-0.931147, 1, 65, 500, 192
-0.931598, 161, 145, 416, 272
-0.934281, 1, 113, 500, 240
-0.934389, 161, 209, 416, 336
-0.93574, 337, 97, 464, 352
-0.936869, 17, 97, 144, 352
-0.936878, 65, 209, 320, 336
-0.937258, 25, 17, 88, 144
-0.940103, 113, 1, 240, 128
-0.94218, 129, 1, 192, 128
-0.942223, 257, 1, 500, 128
-0.942651, 169, 1, 232, 128
-0.94297, 161, 1, 288, 128
-0.943334, 1, 17, 64, 144
-0.944706, 89, 17, 152, 144
-0.945676, 361, 209, 424, 336
-0.945793, 257, 241, 500, 368
-0.946524, 241, 1, 368, 128
-0.946994, 153, 161, 216, 288
-0.947187, 193, 49, 448, 176
-0.947433, 201, 177, 264, 304
-0.947582, 433, 1, 496, 128
-0.94834, 169, 209, 232, 336
-0.948431, 65, 17, 128, 144
-0.949167, 97, 177, 224, 304
-0.949913, 321, 193, 448, 320
-0.950493, 65, 1, 192, 128
-0.951006, 369, 1, 496, 128
-0.951583, 233, 1, 296, 128
-0.951952, 145, 193, 272, 320
-0.953424, 121, 209, 184, 336
-0.953786, 65, 65, 320, 192
-0.953832, 1, 161, 256, 288
-0.954121, 305, 1, 368, 128
-0.954237, 209, 65, 336, 192
-0.954828, 241, 113, 368, 240
-0.955792, 161, 241, 288, 368
-0.956051, 161, 97, 416, 224
-0.956715, 225, 97, 288, 224
-0.956932, 145, 209, 208, 336
-0.957052, 113, 225, 176, 288
-0.957376, 337, 233, 400, 296
-0.958273, 97, 225, 160, 352
-0.958364, 337, 225, 400, 352
-0.958969, 185, 129, 248, 256
-0.959468, 369, 225, 496, 352
-0.960289, 161, 97, 288, 224
-0.960314, 257, 1, 320, 128
-0.960544, 193, 161, 320, 288
-0.960752, 361, 241, 424, 304
-0.961394, 385, 209, 448, 336
-0.961446, 209, 1, 272, 128
-0.961835, 257, 49, 384, 176
-0.962051, 209, 1, 272, 64
-0.962116, 369, 217, 432, 280
-0.962605, 97, 249, 160, 312
-0.962644, 177, 161, 240, 224
-0.962765, 137, 17, 200, 80
-0.963005, 81, 225, 208, 352
-0.963226, 153, 209, 216, 272
-0.963261, 281, 1, 344, 128
-0.96373, 1, 33, 64, 96
-0.964063, 305, 49, 432, 176
-0.96427, 201, 145, 264, 208
-0.964871, 241, 1, 304, 64
-0.964966, 257, 97, 500, 224
-0.965297, 25, 25, 88, 88
-0.965386, 369, 49, 496, 176
-0.96541, 145, 145, 272, 272
-0.965529, 305, 1, 432, 128
-0.965634, 257, 145, 500, 272
-0.965718, 177, 265, 240, 328
-0.96589, 249, 49, 312, 176
-0.96609, 273, 209, 400, 336
-0.966324, 97, 25, 160, 88
-0.966343, 177, 9, 240, 72
-0.966379, 433, 57, 496, 120
-0.966438, 225, 49, 288, 176
-0.966478, 273, 65, 336, 192
-0.967086, 169, 241, 232, 304
-0.9671, 217, 257, 280, 320
-0.967103, 337, 177, 400, 304
-0.967913, 297, 1, 360, 64
-0.967986, 49, 17, 112, 80
-0.968095, 425, 1, 488, 64
-0.968444, 65, 113, 320, 240
-0.968518, 89, 225, 152, 288
-0.968691, 193, 81, 256, 208
-0.969081, 409, 1, 472, 128
-0.969088, 257, 193, 500, 320
-0.969328, 145, 185, 208, 248
-0.969418, 177, 185, 240, 248
-0.96953, 313, 249, 376, 312
-0.969971, 209, 97, 272, 160
-0.970026, 321, 241, 448, 368
-0.970596, 225, 137, 288, 200
-0.971031, 433, 49, 496, 176
-0.971372, 361, 161, 424, 288
-0.971845, 313, 241, 376, 368
-0.971872, 201, 233, 264, 296
-0.971891, 29, 17, 60, 144
-0.971901, 385, 33, 448, 160
-0.972314, 297, 49, 360, 176
-0.972449, 233, 145, 296, 272
-0.972564, 225, 225, 352, 352
-0.972589, 217, 225, 280, 352
-0.973189, 457, 1, 488, 128
-0.973245, 129, 161, 192, 288
-0.973248, 469, 1, 500, 128
-0.973255, 121, 273, 184, 336
-0.973453, 17, 65, 144, 192
-0.973527, 201, 185, 264, 248
-0.973622, 257, 161, 384, 288
-0.973634, 241, 241, 304, 368
-0.973639, 73, 241, 136, 368
-0.97383, 337, 257, 400, 320
-0.973907, 329, 1, 392, 128
-0.973969, 73, 25, 136, 88
-0.974383, 177, 217, 240, 280
-0.974433, 41, 81, 104, 144
-0.974441, 337, 201, 400, 264
-0.974529, 409, 65, 472, 128
-0.974533, 393, 209, 424, 272
-0.974542, 1, 25, 128, 88
-0.974622, 193, 177, 224, 304
-0.974729, 189, 1, 220, 128
-0.974932, 369, 265, 432, 328
-0.975067, 17, 81, 80, 208
-0.975242, 113, 17, 144, 144
-0.975302, 265, 1, 296, 128
-0.975348, 249, 105, 312, 168
-0.975348, 33, 225, 160, 352
-0.975426, 385, 161, 448, 288
-0.975445, 141, 1, 172, 128
-0.975454, 433, 81, 496, 144
-0.97546, 173, 1, 204, 128
-0.975551, 197, 241, 228, 304
-0.975571, 409, 177, 472, 304
-0.975614, 321, 113, 448, 240
-0.97567, 369, 177, 496, 304
-0.975753, 401, 233, 464, 296
-0.976103, 325, 1, 356, 128
-0.97614, 321, 49, 384, 176
-0.976225, 389, 193, 420, 320
-0.976306, 113, 217, 240, 280
-0.976339, 193, 1, 320, 64
-0.976429, 193, 225, 256, 352
-0.976556, 161, 1, 192, 128
-0.976578, 169, 81, 232, 208
-0.976693, 93, 17, 124, 144
-0.976716, 49, 17, 80, 144
-0.97674, 201, 1, 232, 128
-0.976791, 145, 49, 272, 176
-0.976812, 181, 193, 212, 320
-0.976863, 113, 9, 240, 72
-0.976864, 241, 1, 272, 128
-0.976895, 369, 193, 432, 256
-0.976956, 57, 193, 120, 320
-0.977172, 225, 73, 288, 136
-0.977225, 249, 97, 312, 224
-0.977269, 297, 129, 360, 256
-0.977306, 145, 289, 208, 352
-0.977453, 265, 1, 328, 64
-0.977527, 137, 217, 168, 280
-0.977543, 169, 73, 232, 136
-0.977602, 137, 81, 200, 144
-0.977757, 73, 17, 104, 144
-0.977821, 321, 65, 384, 128
-0.977823, 9, 1, 72, 256
-0.977887, 409, 49, 472, 176
-0.977917, 361, 49, 424, 176
-0.978056, 17, 1, 48, 128
-0.978174, 97, 273, 160, 336
-0.97824, 197, 225, 228, 352
-0.978272, 137, 249, 200, 312
-0.9783, 381, 241, 412, 304
-0.978446, 281, 121, 344, 184
-0.978603, 401, 201, 464, 264
-0.978657, 5, 49, 36, 176
-0.978681, 105, 241, 136, 304
-0.978853, 369, 57, 432, 120
-0.978993, 89, 73, 152, 136
-0.979014, 73, 249, 136, 312
-0.979024, 97, 49, 224, 176
-0.979046, 321, 233, 448, 296
-0.979144, 61, 17, 92, 144
-0.979235, 25, 33, 56, 96
-0.979263, 297, 273, 360, 336
-0.979524, 321, 33, 384, 96
-0.979649, 141, 17, 172, 80
-0.979664, 241, 257, 304, 320
-0.979731, 209, 97, 272, 352
-0.979738, 125, 225, 156, 288
-0.979813, 89, 1, 152, 64
-0.979829, 181, 217, 212, 280
-0.979907, 253, 1, 284, 128
-0.979991, 177, 1, 240, 256
-0.980053, 17, 73, 80, 136
-0.980107, 241, 145, 368, 208
-0.980127, 217, 177, 248, 304
-0.980146, 161, 249, 288, 312
-0.980156, 401, 1, 464, 64
-0.980176, 329, 241, 360, 304
-0.980196, 273, 73, 336, 136
-0.980255, 453, 57, 484, 120
-0.980338, 321, 9, 384, 72
-0.980374, 369, 57, 496, 120
-0.980443, 257, 1, 288, 64
-0.980561, 117, 257, 148, 320
-0.98057, 361, 33, 424, 96
-0.980629, 205, 177, 236, 304
-0.980644, 373, 209, 404, 336
-0.980711, 125, 17, 156, 144
-0.980789, 313, 177, 376, 304
-0.98084, 165, 161, 196, 288
-0.98087, 49, 17, 176, 80
-0.980893, 177, 177, 304, 240
-0.980896, 249, 81, 312, 144
-0.980915, 81, 97, 208, 224
-0.981063, 241, 105, 368, 168
-0.981117, 65, 73, 128, 136
-0.981129, 65, 65, 128, 192
-0.981239, 257, 1, 384, 64
-0.981277, 113, 1, 176, 64
-0.981321, 297, 57, 360, 120
-0.981324, 25, 1, 88, 64
-0.981456, 321, 201, 448, 264
-0.981625, 81, 1, 144, 256
-0.981633, 85, 25, 116, 88
-0.98165, 113, 201, 176, 264
-0.981652, 225, 177, 288, 240
-0.981672, 453, 1, 484, 64
-0.981692, 121, 1, 184, 256
-0.981723, 393, 41, 456, 104
-0.981763, 249, 145, 312, 208
-0.981774, 269, 1, 300, 64
-0.981804, 361, 1, 424, 128
-0.981846, 97, 177, 160, 304
-0.98192, 273, 97, 336, 160
-0.981937, 445, 1, 476, 128
-0.98205, 105, 225, 136, 352
-0.982087, 97, 1, 160, 375
-0.982105, 53, 17, 84, 80
-0.982174, 145, 273, 272, 336
-0.982215, 113, 25, 144, 88
-0.982251, 369, 233, 400, 296
-0.982258, 345, 65, 408, 128
-0.98227, 49, 241, 112, 304
-0.982367, 49, 177, 176, 304
-0.982431, 41, 81, 104, 208
-0.982437, 185, 113, 248, 176
-0.982509, 5, 41, 36, 104
-0.982523, 113, 73, 176, 136
-0.982536, 193, 217, 224, 280
-0.982604, 113, 193, 240, 256
-0.982616, 141, 209, 172, 336
-0.982632, 281, 225, 344, 352
-0.982643, 65, 17, 96, 80
-0.982661, 81, 257, 208, 320
-0.982727, 469, 57, 500, 120
-0.982736, 89, 201, 152, 264
-0.982755, 169, 209, 200, 336
-0.982784, 161, 185, 192, 248
-0.982791, 245, 1, 276, 64
-0.982802, 193, 97, 320, 160
-0.982956, 229, 177, 260, 304
-0.982988, 177, 9, 208, 72
-0.983069, 33, 1, 96, 256
-0.983105, 161, 153, 288, 216
-0.98316, 65, 217, 192, 280
-0.983241, 25, 49, 88, 112
-0.983315, 17, 97, 80, 160
-0.983361, 125, 25, 156, 88
-0.983375, 401, 209, 432, 336
-0.983377, 81, 49, 144, 112
-0.983429, 369, 1, 496, 64
-0.983454, 325, 1, 356, 64
-0.983481, 205, 1, 236, 64
-0.983482, 257, 65, 384, 128
-0.983494, 273, 33, 336, 96
-0.983515, 57, 1, 120, 375
-0.983619, 233, 1, 296, 256
-0.983623, 173, 169, 204, 232
-0.983628, 369, 209, 496, 272
-0.983641, 245, 249, 276, 312
-0.983695, 241, 169, 368, 232
-0.983716, 193, 65, 256, 128
-0.983729, 57, 1, 120, 256
-0.983737, 341, 233, 372, 296
-0.983794, 289, 249, 352, 312
-0.983801, 73, 273, 136, 336
-0.983808, 41, 25, 72, 88
-0.983858, 97, 25, 128, 88
-0.983887, 313, 49, 344, 176
-0.983994, 113, 73, 240, 136
-0.984043, 5, 1, 36, 128
-0.984052, 313, 1, 344, 128
-0.984109, 137, 57, 200, 120
-0.98412, 189, 177, 220, 240
-0.984176, 237, 97, 268, 224
-0.984203, 337, 281, 400, 344
-0.984334, 361, 209, 392, 336
-0.984363, 157, 209, 188, 272
-0.984419, 193, 129, 320, 192
-0.984447, 277, 1, 308, 128
-0.984487, 145, 105, 272, 168
-0.984559, 337, 97, 400, 224
-0.984573, 337, 177, 400, 240
-0.984573, 65, 217, 128, 280
-0.984689, 381, 265, 412, 328
-0.984699, 433, 193, 496, 320
-0.984724, 413, 233, 444, 296
-0.984807, 181, 241, 212, 304
-0.984834, 165, 273, 196, 336
-0.984916, 249, 193, 312, 320
-0.984923, 189, 9, 220, 72
-0.984949, 305, 65, 432, 128
-0.984992, 25, 1, 88, 375
-0.985124, 365, 265, 396, 328
-0.985125, 273, 113, 336, 240
-0.985146, 169, 129, 232, 375
-0.985177, 129, 65, 192, 192
-0.985251, 321, 105, 384, 168
-0.985364, 217, 97, 248, 224
-0.985404, 229, 185, 260, 248
-0.985405, 209, 153, 240, 216
-0.985413, 33, 81, 160, 144
-0.98542, 249, 57, 312, 120
-0.985426, 409, 225, 472, 352
-0.985551, 137, 1, 200, 375
-0.985561, 269, 65, 300, 192
-0.985569, 441, 65, 472, 128
-0.985651, 441, 1, 472, 64
-0.985675, 105, 105, 168, 168
-0.985687, 413, 201, 444, 264
-0.985706, 157, 17, 188, 80
-0.985723, 161, 49, 224, 112
-0.985755, 225, 265, 352, 328
-0.985756, 145, 1, 208, 256
-0.985793, 177, 145, 208, 272
-0.985802, 253, 49, 284, 176
-0.985824, 117, 225, 148, 352
-0.985859, 297, 25, 360, 88
-0.985862, 313, 1, 344, 64
-0.985897, 297, 145, 360, 208
-0.985948, 381, 209, 412, 272
-0.985974, 177, 73, 304, 136
-0.985975, 213, 1, 244, 128
-0.986046, 173, 193, 204, 256
-0.98606, 161, 249, 192, 312
-0.98607, 1, 1, 64, 375
-0.986076, 301, 33, 332, 160
-0.986092, 217, 289, 280, 352
-0.986127, 33, 249, 160, 312
-0.986198, 17, 49, 48, 176
-0.986211, 241, 241, 368, 304
-0.986211, 209, 177, 240, 240
-0.986292, 349, 241, 380, 368
-0.986307, 225, 249, 256, 312
-0.986325, 321, 129, 384, 375
-0.986374, 1, 177, 128, 304
-0.986402, 209, 113, 240, 176
-0.986476, 273, 273, 400, 336
-0.986504, 177, 281, 208, 344
-0.986548, 469, 81, 500, 144
-0.986632, 41, 105, 104, 168
-0.986718, 97, 281, 224, 344
-0.986747, 433, 201, 496, 264
-0.986762, 157, 225, 188, 352
-0.986781, 113, 217, 144, 280
-0.986836, 201, 1, 264, 375
-0.986841, 313, 225, 376, 288
-0.986961, 369, 81, 496, 144
-0.986976, 185, 241, 216, 368
-0.987031, 289, 33, 416, 96
-0.987063, 97, 297, 160, 360
-0.987162, 193, 201, 320, 264
-0.987173, 345, 129, 408, 375
-0.987199, 361, 1, 424, 375
-0.987223, 249, 97, 280, 224
-0.987243, 249, 97, 312, 352
-0.987348, 1, 217, 128, 280
-0.987403, 397, 233, 428, 296
-0.987446, 201, 129, 232, 256
-0.987453, 257, 105, 288, 168
-0.987467, 249, 169, 312, 232
-0.987489, 273, 273, 336, 336
-0.987513, 17, 105, 144, 168
-0.987525, 357, 241, 388, 304
-0.987572, 201, 41, 264, 104
-0.987607, 321, 265, 448, 328
-0.987653, 161, 49, 288, 112
-0.987659, 89, 81, 152, 208
-0.987674, 365, 193, 396, 256
-0.987692, 197, 265, 228, 328
-0.987704, 429, 65, 460, 128
-0.987722, 337, 33, 464, 96
-0.987793, 465, 17, 496, 80
-0.98784, 217, 1, 248, 64
-0.987857, 393, 257, 456, 320
-0.987858, 289, 49, 320, 176
-0.987869, 413, 209, 444, 336
-0.987874, 193, 153, 224, 216
-0.98796, 201, 1, 264, 256
-0.987993, 385, 241, 416, 368
-0.987998, 177, 137, 240, 200
-0.98802, 225, 1, 288, 375
-0.988023, 93, 249, 124, 312
-0.988112, 401, 161, 432, 288
-0.988123, 305, 105, 432, 168
-0.98818, 425, 33, 488, 96
-0.988275, 161, 225, 288, 288
-0.988275, 349, 177, 380, 304
-0.988289, 161, 97, 224, 160
-0.9883, 225, 153, 256, 216
-0.988322, 337, 1, 368, 128
-0.988337, 153, 177, 184, 304
-0.988418, 245, 177, 276, 304
-0.988428, 1, 49, 128, 112
-0.988489, 301, 73, 332, 136
-0.988553, 297, 129, 360, 375
-0.988553, 265, 145, 296, 208
-0.988573, 337, 1, 400, 375
-0.988577, 273, 193, 400, 256
-0.988638, 129, 209, 160, 336
-0.98865, 201, 81, 232, 208
-0.988655, 49, 57, 176, 120
-0.988684, 369, 233, 496, 296
-0.988689, 81, 97, 144, 160
-0.988712, 101, 217, 132, 280
-0.988761, 305, 9, 432, 72
-0.988843, 297, 97, 360, 160
-0.988887, 65, 73, 96, 136
-0.988904, 337, 1, 400, 256
-0.988957, 361, 9, 424, 72
-0.98906, 121, 297, 184, 360
-0.989088, 229, 97, 260, 160
-0.989088, 377, 161, 408, 288
-0.989092, 305, 1, 368, 256
-0.989113, 1, 25, 256, 88
-0.989142, 317, 249, 348, 312
-0.98915, 321, 169, 448, 232
-0.98917, 417, 161, 448, 288
-0.989185, 145, 113, 208, 240
-0.9892, 245, 105, 276, 168
-0.989237, 469, 49, 500, 176
-0.989244, 153, 161, 216, 224
-0.989248, 169, 1, 232, 375
-0.989267, 201, 1, 264, 32
-0.989272, 417, 57, 448, 120
-0.989285, 369, 265, 496, 328
-0.989296, 1, 1, 128, 64
-0.989298, 249, 289, 312, 352
-0.989304, 177, 13, 240, 44
-0.989323, 97, 105, 224, 168
-0.989355, 233, 1, 264, 64
-0.98939, 377, 65, 440, 320
-0.989403, 241, 81, 272, 144
-0.989474, 313, 177, 376, 240
-0.989542, 161, 217, 224, 248
-0.989589, 385, 205, 448, 236
-0.989621, 137, 17, 200, 48
-0.989675, 141, 289, 172, 352
-0.989686, 93, 241, 124, 368
-0.989701, 97, 253, 160, 284
-0.98971, 121, 229, 184, 260
-0.989728, 49, 81, 80, 144
-0.98973, 117, 1, 148, 64
-0.989739, 249, 33, 312, 96
-0.989751, 369, 241, 432, 272
-0.989767, 213, 225, 244, 288
-0.989789, 225, 25, 288, 88
-0.989801, 245, 241, 276, 368
-0.989846, 329, 277, 392, 308
-0.989864, 217, 49, 248, 176
-0.989886, 145, 81, 176, 144
-0.989893, 137, 209, 200, 240
-0.989917, 337, 233, 400, 264
-0.989935, 241, 1, 304, 32
-0.989939, 169, 217, 200, 280
-0.989959, 137, 97, 200, 352
-0.989965, 457, 81, 488, 144
-0.989994, 65, 185, 192, 248
-0.990055, 209, 261, 272, 292
-0.990066, 253, 73, 284, 136
-0.99008, 161, 181, 224, 212
-0.990085, 417, 17, 448, 144
-0.990096, 209, 225, 240, 352
-0.990109, 245, 129, 276, 192
-0.990112, 209, 209, 272, 272
-0.990127, 9, 249, 72, 312
-0.990155, 325, 65, 356, 192
-0.990166, 361, 221, 424, 252
-0.990171, 433, 69, 496, 100
-0.990177, 9, 17, 40, 80
-0.990254, 353, 269, 416, 300
-0.990287, 257, 1, 320, 375
-0.99029, 433, 1, 496, 256
-0.990312, 169, 73, 200, 136
-0.990313, 41, 25, 104, 56
-0.990314, 281, 1, 344, 375
-0.990344, 257, 249, 288, 312
-0.990346, 365, 33, 396, 96
-0.990361, 129, 289, 192, 320
-0.990391, 409, 1, 472, 32
-0.990399, 297, 281, 360, 312
-0.99042, 137, 105, 200, 168
-0.990423, 185, 289, 248, 352
-0.990443, 129, 281, 160, 344
-0.99048, 201, 185, 264, 216
-0.990499, 313, 1, 376, 375
-0.990518, 177, 241, 240, 272
-0.990533, 121, 177, 184, 240
-0.990545, 381, 49, 412, 176
-0.990551, 153, 229, 216, 260
-0.990564, 57, 49, 120, 112
-0.99059, 113, 169, 240, 232
-0.990601, 177, 193, 240, 224
-0.990612, 225, 25, 352, 88
-0.990617, 333, 209, 364, 336
-0.990636, 353, 201, 384, 264
-0.990652, 409, 89, 472, 152
-0.990657, 105, 49, 168, 112
-0.990661, 129, 81, 160, 144
-0.990664, 105, 241, 168, 272
-0.990664, 329, 265, 360, 328
-0.990678, 189, 129, 220, 256
-0.990681, 273, 217, 400, 280
-0.990707, 345, 201, 408, 232
-0.99071, 249, 233, 312, 296
-0.990745, 81, 241, 112, 304
-0.990748, 169, 165, 232, 196
-0.990752, 349, 65, 380, 128
-0.990764, 237, 153, 268, 216
-0.990775, 229, 49, 260, 176
-0.990779, 209, 89, 240, 152
-0.990791, 281, 1, 344, 32
-0.990793, 361, 257, 424, 288
-0.990807, 381, 185, 412, 248
-0.990809, 33, 217, 96, 280
-0.990812, 401, 69, 464, 100
-0.990817, 385, 229, 448, 260
-0.99082, 385, 1, 448, 375
-0.990822, 129, 245, 192, 276
-0.990841, 289, 1, 320, 128
-0.990849, 149, 185, 180, 248
-0.99086, 345, 245, 408, 276
-0.990875, 177, 269, 240, 300
-0.990884, 201, 149, 264, 180
-0.990885, 353, 281, 416, 312
-0.99089, 113, 33, 240, 96
-0.990903, 337, 33, 368, 96
-0.990925, 97, 29, 160, 60
-0.99093, 433, 81, 496, 112
-0.990965, 237, 273, 268, 336
-0.990976, 1, 45, 64, 76
-0.990991, 41, 81, 72, 208
-0.990994, 281, 1, 312, 64
-0.991008, 65, 81, 128, 112
-0.991029, 17, 33, 80, 64
-0.99104, 105, 265, 136, 328
-0.991046, 41, 97, 104, 128
-0.991049, 209, 137, 272, 168
-0.991094, 209, 13, 272, 44
-0.9911, 213, 249, 244, 312
-0.991102, 53, 81, 84, 208
-0.991112, 153, 257, 216, 288
-0.991115, 369, 33, 400, 160
-0.991138, 313, 1, 376, 32
-0.991151, 209, 289, 336, 352
-0.991174, 97, 277, 160, 308
-0.991183, 309, 105, 340, 168
-0.991223, 113, 17, 176, 48
-0.991241, 73, 241, 136, 272
-0.991242, 329, 261, 392, 292
-0.991247, 393, 265, 424, 328
-0.991249, 329, 61, 392, 92
-0.99127, 433, 5, 496, 36
-0.991285, 409, 201, 472, 232
-0.991291, 37, 89, 68, 152
-0.991301, 297, 49, 328, 112
-0.991303, 113, 213, 176, 244
-0.991315, 129, 257, 160, 320
-0.991318, 257, 161, 288, 288
-0.991328, 105, 177, 136, 304
-0.99133, 249, 73, 312, 104
-0.991337, 33, 273, 160, 336
-0.991362, 329, 289, 392, 320
-0.991363, 97, 229, 160, 260
-0.991375, 397, 57, 428, 120
-0.991384, 25, 73, 88, 104
-0.99139, 25, 73, 56, 136
-0.99141, 73, 25, 136, 56
-0.991415, 277, 145, 308, 208
-0.991415, 433, 57, 496, 88
-0.991422, 73, 253, 136, 284
-0.991424, 217, 97, 280, 128
-0.991427, 369, 69, 432, 100
-0.99143, 249, 169, 280, 232
-0.991432, 161, 69, 224, 100
-0.991434, 305, 273, 336, 336
-0.991446, 209, 249, 272, 280
-0.991483, 161, 205, 224, 236
-0.991491, 49, 69, 112, 100
-0.991503, 33, 193, 96, 320
-0.99153, 177, 281, 240, 312
-0.99153, 401, 65, 464, 320
-0.991533, 209, 109, 272, 140
-0.991541, 305, 65, 368, 96
-0.991562, 341, 257, 372, 320
-0.991563, 1, 57, 64, 88
-0.991567, 321, 245, 384, 276
-0.991576, 233, 145, 296, 176
-0.991596, 129, 69, 192, 100
-0.991596, 105, 293, 168, 324
-0.991598, 177, 1, 240, 32
-0.991609, 89, 69, 152, 100
-0.991609, 217, 273, 280, 304
-0.991616, 409, 81, 472, 112
-0.991616, 145, 277, 208, 308
-0.99162, 273, 153, 336, 216
-0.99162, 153, 193, 216, 224
-0.991622, 273, 65, 336, 96
-0.991622, 281, 129, 344, 160
-0.991626, 145, 297, 272, 360
-0.991626, 369, 81, 432, 144
-0.991636, 193, 105, 224, 168
-0.99165, 209, 73, 272, 104
-0.99166, 369, 193, 432, 224
-0.991664, 93, 1, 124, 64
-0.991667, 377, 269, 440, 300
-0.991679, 49, 249, 112, 280
-0.991685, 409, 237, 472, 268
-0.991691, 117, 73, 148, 136
-0.991692, 445, 49, 476, 176
-0.991697, 97, 265, 160, 296
-0.991702, 1, 217, 64, 280
-0.991712, 89, 97, 152, 352
-0.991715, 433, 1, 496, 375
-0.991746, 85, 193, 116, 320
-0.991758, 337, 221, 400, 252
-0.99177, 185, 93, 248, 124
-0.99178, 185, 217, 248, 248
-0.991804, 249, 117, 312, 148
-0.991813, 241, 13, 304, 44
-0.991823, 209, 201, 240, 264
-0.991825, 385, 217, 448, 248
-0.991832, 377, 65, 408, 128
-0.991838, 25, 61, 88, 92
-0.991838, 321, 289, 448, 352
-0.991851, 329, 73, 392, 104
-0.991854, 209, 49, 336, 112
-0.991864, 273, 285, 336, 316
-0.991868, 241, 89, 304, 120
-0.991868, 257, 105, 320, 136
-0.99188, 209, 233, 272, 264
-0.991893, 89, 81, 152, 112
-0.991894, 153, 289, 216, 320
-0.991898, 137, 181, 200, 212
-0.9919, 369, 129, 496, 256
-0.991903, 1, 69, 64, 100
-0.99191, 333, 145, 364, 272
-0.991931, 161, 25, 288, 88
-0.991934, 89, 209, 152, 240
-0.991962, 5, 65, 36, 128
-0.991973, 177, 257, 240, 288
-0.991978, 337, 1, 368, 64
-0.991988, 305, 293, 368, 324
-0.991989, 317, 273, 348, 336
-0.992005, 129, 97, 192, 128
-0.992006, 377, 285, 440, 316
-0.992012, 233, 133, 296, 164
-0.992018, 121, 269, 184, 300
-0.99202, 305, 265, 368, 296
-0.992022, 201, 173, 264, 204
-0.992027, 17, 105, 80, 136
-0.992037, 241, 281, 304, 312
-0.992044, 81, 13, 144, 44
-0.992062, 89, 101, 152, 132
-0.992069, 209, 61, 272, 92
-0.992074, 217, 293, 280, 324
-0.992079, 409, 225, 472, 256
-0.9921, 17, 21, 80, 52
-0.992106, 177, 229, 240, 260
-0.992107, 289, 129, 416, 192
-0.992109, 145, 81, 208, 112
-0.992121, 153, 241, 216, 272
-0.992123, 41, 13, 104, 44
-0.992128, 81, 1, 112, 64
-0.99213, 225, 185, 288, 216
-0.992142, 385, 57, 448, 88
-0.992143, 297, 221, 360, 252
-0.992148, 33, 225, 288, 288
-0.992156, 257, 225, 288, 352
-0.992159, 161, 97, 192, 224
-0.992173, 397, 185, 428, 248
-0.992194, 433, 1, 464, 128
-0.992233, 397, 1, 428, 128
-0.992253, 129, 1, 384, 64
-0.992262, 229, 65, 260, 128
-0.992294, 153, 273, 184, 336
-0.992305, 369, 185, 496, 248
-0.992307, 397, 205, 428, 236
-0.992308, 365, 161, 396, 288
-0.992373, 9, 193, 72, 320
-0.992406, 349, 17, 380, 144
-0.992445, 385, 221, 416, 252
-0.992445, 133, 229, 164, 260
-0.992456, 249, 1, 280, 32
-0.992546, 437, 1, 468, 32
-0.99255, 181, 13, 212, 44
-0.992551, 457, 65, 488, 96
-0.992636, 161, 181, 192, 212
-0.99264, 165, 221, 196, 252
-0.99265, 409, 1, 472, 375
-0.992666, 141, 17, 172, 48
-0.992686, 189, 217, 220, 248
-0.992696, 149, 225, 180, 256
-0.992702, 5, 61, 36, 92
-0.992716, 469, 69, 500, 100
-0.992767, 345, 277, 376, 308
-0.992768, 365, 273, 396, 304
-0.992777, 181, 241, 212, 272
-0.992785, 177, 177, 208, 208
-0.992786, 413, 237, 444, 268
-0.992799, 165, 193, 196, 224
-0.992805, 149, 213, 180, 244
-0.992826, 397, 229, 428, 260
-0.992833, 169, 209, 200, 240
-0.992837, 233, 225, 264, 352
-0.992857, 377, 237, 408, 268
-0.992858, 213, 185, 244, 216
-0.992859, 109, 25, 140, 56
-0.992865, 121, 229, 152, 260
-0.99287, 409, 205, 440, 236
-0.992874, 361, 245, 392, 276
-0.992879, 137, 217, 168, 248
-0.992881, 105, 253, 136, 284
-0.992887, 129, 245, 160, 276
-0.992895, 29, 33, 60, 64
-0.992897, 385, 285, 416, 316
-0.992899, 325, 1, 356, 32
-0.992904, 169, 233, 200, 264
-0.992914, 469, 81, 500, 112
-0.992915, 41, 25, 72, 56
-0.992918, 105, 241, 136, 272
-0.99292, 397, 217, 428, 248
-0.99292, 193, 189, 224, 220
-0.992927, 385, 201, 416, 232
-0.992927, 269, 5, 300, 36
-0.992929, 369, 97, 432, 224
-0.992929, 65, 129, 128, 375
-0.992931, 449, 5, 480, 36
-0.992932, 381, 269, 412, 300
-0.992933, 217, 257, 248, 288
-0.992935, 305, 281, 336, 312
-0.992938, 433, 69, 464, 100
-0.992942, 465, 1, 496, 32
-0.992946, 201, 241, 232, 272
-0.992949, 445, 65, 476, 96
-0.992956, 5, 49, 36, 80
-0.99296, 197, 157, 228, 188
-0.992964, 201, 269, 232, 300
-0.992968, 73, 65, 104, 192
-0.99297, 169, 253, 200, 284
-0.992978, 205, 5, 236, 36
-0.992983, 69, 21, 100, 52
-0.992983, 457, 49, 488, 176
-0.992987, 353, 265, 384, 296
-0.992992, 353, 229, 384, 260
-0.992992, 53, 21, 84, 52
-0.992995, 193, 13, 224, 44
-0.992998, 333, 277, 364, 308
-0.993015, 321, 281, 352, 312
-0.993017, 445, 77, 476, 108
-0.99302, 373, 285, 404, 316
-0.99302, 169, 277, 200, 308
-0.993022, 117, 249, 148, 280
-0.99303, 313, 1, 344, 32
-0.99303, 81, 305, 208, 368
-0.993031, 17, 65, 48, 96
-0.993033, 365, 233, 396, 264
-0.993033, 245, 101, 276, 132
-0.993036, 169, 17, 200, 48
-0.993038, 369, 201, 400, 232
-0.993047, 129, 21, 160, 52
-0.993049, 81, 25, 112, 56
-0.993051, 101, 69, 132, 100
-0.993053, 373, 213, 404, 244
-0.993061, 141, 289, 172, 320
-0.993062, 457, 81, 488, 112
-0.993064, 197, 253, 228, 284
-0.993068, 85, 77, 116, 108
-0.993068, 393, 249, 424, 280
-0.993068, 117, 289, 148, 320
-0.993076, 197, 177, 228, 208
-0.993078, 173, 69, 204, 100
-0.993084, 153, 17, 184, 48
-0.993085, 245, 261, 276, 292
-0.99309, 345, 249, 376, 280
-0.993091, 281, 65, 312, 96
-0.993097, 213, 233, 244, 264
-0.9931, 201, 229, 232, 260
-0.99311, 341, 229, 372, 260
-0.993113, 169, 297, 200, 328
-0.993125, 97, 29, 128, 60
-0.993127, 265, 65, 296, 96
-0.993127, 189, 229, 220, 260
-0.993128, 193, 1, 320, 32
-0.993133, 257, 77, 288, 108
-0.993133, 217, 141, 248, 172
-0.993133, 233, 257, 264, 288
-0.993136, 409, 225, 440, 256
-0.993138, 241, 13, 272, 44
-0.993138, 261, 141, 292, 172
-0.993143, 17, 37, 48, 68
-0.993143, 325, 13, 356, 44
-0.993144, 45, 81, 76, 112
-0.993144, 209, 153, 240, 184
-0.993146, 205, 197, 236, 228
-0.993146, 157, 69, 188, 100
-0.993148, 369, 261, 400, 292
-0.99315, 369, 61, 400, 92
-0.99315, 421, 197, 452, 228
-0.993151, 349, 289, 380, 320
-0.993158, 149, 237, 180, 268
-0.993159, 157, 281, 188, 312
-0.993162, 281, 1, 312, 32
-0.993163, 45, 97, 76, 128
-0.99317, 249, 89, 280, 120
-0.993174, 373, 73, 404, 104
-0.993174, 225, 185, 256, 216
-0.993175, 337, 261, 368, 292
-0.993176, 469, 57, 500, 88
-0.993179, 157, 257, 188, 288
-0.993181, 125, 217, 156, 248
-0.993187, 305, 113, 336, 144
-0.993191, 345, 61, 376, 92
-0.993194, 241, 133, 272, 164
-0.993194, 257, 1, 320, 256
-0.993195, 325, 65, 356, 96
-0.993195, 61, 101, 92, 132
-0.993195, 421, 65, 452, 96
-0.993195, 73, 73, 104, 104
-0.993239, 429, 49, 460, 176
-0.99325, 341, 65, 372, 192
-0.993279, 193, 193, 448, 256
-0.993301, 265, 113, 296, 240
-0.993405, 113, 129, 176, 375
-0.993452, 225, 65, 480, 128
-0.993457, 189, 49, 220, 176
-0.993479, 401, 49, 432, 176
-0.993497, 193, 257, 448, 320
-0.993511, 321, 129, 352, 256
-0.993621, 173, 81, 204, 208
-0.993648, 161, 169, 416, 232
-0.993698, 301, 81, 332, 208
-0.993723, 1, 225, 500, 288
-0.993928, 113, 225, 240, 256
-0.993973, 229, 1, 260, 128
-0.993995, 129, 281, 384, 344
-0.993995, 129, 97, 384, 160
-0.994055, 241, 49, 272, 176
-0.994164, 1, 201, 500, 264
-0.994216, 65, 249, 320, 312
-0.994257, 33, 105, 288, 168
-0.994284, 1, 9, 500, 72
-0.99432, 289, 281, 416, 312
-0.994367, 133, 225, 148, 288
-0.994372, 25, 97, 56, 224
-0.9945, 313, 225, 344, 352
-0.994559, 209, 153, 224, 216
-0.994644, 97, 25, 352, 88
-0.994659, 129, 73, 384, 136
-0.994671, 353, 65, 384, 192
-0.994696, 385, 1, 416, 128
-0.994728, 113, 17, 240, 48
-0.994838, 369, 297, 496, 360
-0.994839, 65, 161, 192, 224
-0.99484, 17, 25, 144, 56
-0.994864, 161, 217, 416, 280
-0.994864, 117, 177, 148, 304
-0.994892, 145, 213, 272, 244
-0.994898, 213, 185, 228, 248
-0.994898, 225, 1, 480, 64
-0.994917, 321, 233, 448, 264
-0.994946, 161, 185, 288, 216
-0.994949, 241, 1, 368, 32
-0.995085, 81, 245, 208, 276
-0.995098, 161, 145, 416, 208
-0.995153, 321, 221, 448, 252
-0.99516, 33, 1, 288, 64
-0.995169, 1, 73, 256, 136
-0.995184, 33, 113, 160, 240
-0.9952, 197, 209, 212, 272
-0.995208, 253, 249, 268, 312
-0.99522, 145, 281, 272, 312
-0.995226, 1, 185, 256, 248
-0.995229, 205, 217, 220, 280
-0.995238, 369, 69, 496, 100
-0.995294, 11, 41, 26, 104
-0.995297, 193, 145, 320, 176
-0.99537, 203, 169, 218, 232
-0.995399, 459, 1, 474, 64
-0.9954, 123, 249, 138, 312
-0.995419, 31, 25, 46, 88
-0.995425, 225, 113, 480, 176
-0.995428, 257, 297, 384, 360
-0.995436, 141, 17, 156, 80
-0.995456, 113, 193, 240, 224
-0.99547, 175, 185, 190, 248
-0.995514, 191, 209, 206, 272
-0.995532, 341, 233, 356, 296
-0.995537, 97, 193, 352, 256
-0.99554, 207, 241, 222, 304
-0.995542, 247, 249, 262, 312
-0.995564, 429, 177, 460, 304
-0.995565, 161, 13, 288, 44
-0.995572, 465, 57, 480, 120
-0.995574, 221, 225, 252, 352
-0.995577, 129, 245, 256, 276
-0.99558, 369, 1, 496, 32
-0.995617, 259, 1, 274, 64
-0.995622, 273, 1, 288, 64
-0.995626, 369, 249, 384, 312
-0.995673, 257, 41, 500, 104
-0.995707, 157, 49, 188, 176
-0.995716, 477, 57, 492, 120
-0.995729, 139, 217, 154, 280
-0.995739, 55, 17, 70, 80
-0.995755, 127, 25, 142, 88
-0.995786, 161, 173, 288, 204
-0.995796, 333, 241, 348, 304
-0.995806, 407, 201, 422, 264
-0.99582, 385, 233, 400, 296
-0.995863, 451, 1, 466, 64
-0.995866, 175, 273, 190, 336
-0.995868, 89, 25, 104, 88
-0.995879, 45, 25, 60, 88
-0.995891, 1, 41, 128, 72
-0.9959, 181, 217, 196, 280
-0.995908, 101, 25, 116, 88
-0.995914, 95, 25, 110, 88
-0.995918, 107, 241, 122, 304
-0.995931, 235, 185, 250, 248
-0.99596, 117, 17, 132, 80
-0.995961, 257, 65, 384, 96
-0.995973, 77, 17, 92, 80
-0.99598, 17, 97, 80, 352
-0.995982, 193, 233, 208, 296
-0.995991, 215, 153, 230, 216
-0.995993, 1, 69, 128, 100
-0.995995, 1, 177, 500, 240
-0.996023, 415, 233, 430, 296
-0.99603, 279, 1, 294, 64
-0.996032, 127, 217, 142, 280
-0.996046, 175, 249, 190, 312
-0.996055, 133, 25, 148, 88
-0.996064, 241, 285, 368, 316
-0.996067, 369, 209, 496, 240
-0.996077, 471, 57, 486, 120
-0.996083, 65, 17, 80, 80
-0.996083, 163, 17, 178, 80
-0.996096, 167, 177, 182, 240
-0.9961, 1, 65, 500, 128
-0.996101, 257, 225, 500, 288
-0.996102, 109, 25, 124, 88
-0.996123, 459, 57, 474, 120
-0.996129, 117, 225, 132, 288
-0.996139, 65, 213, 192, 244
-0.996153, 217, 1, 232, 64
-0.996156, 149, 217, 164, 280
-0.996167, 1, 257, 500, 320
-0.996172, 97, 281, 224, 312
-0.996218, 377, 225, 392, 288
-0.996224, 267, 1, 282, 64
-0.99623, 19, 25, 34, 88
-0.996231, 71, 17, 86, 80
-0.996246, 369, 237, 496, 268
-0.996248, 41, 97, 104, 352
-0.996251, 331, 9, 346, 72
-0.996275, 375, 249, 390, 312
-0.996279, 389, 201, 404, 264
-0.996284, 25, 33, 40, 96
-0.996299, 251, 1, 266, 64
-0.996305, 1, 57, 128, 88
-0.996312, 209, 273, 336, 304
-0.996316, 37, 25, 52, 88
-0.996333, 177, 65, 304, 96
-0.996334, 347, 233, 362, 296
-0.996338, 465, 9, 480, 72
-0.996344, 259, 249, 274, 312
-0.996362, 305, 201, 432, 232
-0.996364, 209, 113, 224, 176
-0.996372, 485, 57, 500, 120
-0.996383, 405, 225, 420, 288
-0.996385, 207, 9, 222, 72
-0.996392, 113, 69, 240, 100
-0.996392, 161, 197, 288, 228
-0.996395, 137, 49, 168, 176
-0.996408, 337, 1, 352, 64
-0.996409, 83, 25, 98, 88
-0.99641, 225, 133, 352, 164
-0.99641, 225, 93, 352, 124
-0.996416, 177, 17, 192, 80
-0.996418, 187, 9, 202, 72
-0.996423, 225, 121, 352, 152
-0.996425, 441, 161, 472, 288
-0.996432, 445, 57, 460, 120
-0.996433, 199, 9, 214, 72
-0.996462, 97, 181, 224, 212
-0.996462, 321, 65, 448, 96
-0.996473, 231, 153, 246, 216
-0.996475, 33, 281, 288, 344
-0.996479, 65, 233, 192, 264
-0.996481, 273, 97, 336, 352
-0.99649, 323, 1, 338, 64
-0.996492, 225, 89, 480, 152
-0.996507, 171, 17, 186, 80
-0.996509, 85, 65, 116, 192
-0.996523, 145, 1, 272, 32
-0.996531, 49, 77, 176, 108
-0.996547, 65, 17, 192, 48
-0.996582, 337, 273, 464, 304
-0.996591, 97, 297, 224, 328
-0.996591, 157, 17, 172, 80
-0.996592, 289, 269, 416, 300
-0.996592, 17, 193, 144, 256
-0.996593, 239, 153, 254, 216
-0.996594, 395, 217, 410, 280
-0.996598, 277, 113, 308, 240
-0.996601, 193, 77, 320, 108
-0.996612, 161, 101, 288, 132
-0.996619, 327, 249, 342, 312
-0.99662, 45, 193, 76, 320
-0.996633, 147, 17, 162, 80
-0.996645, 109, 65, 140, 192
-0.996651, 185, 177, 200, 240
-0.996657, 225, 153, 240, 216
-0.996657, 5, 49, 20, 112
-0.996666, 33, 245, 160, 276
-0.996669, 145, 293, 272, 324
-0.996673, 33, 297, 160, 360
-0.996675, 321, 249, 448, 280
-0.99671, 241, 145, 368, 176
-0.996719, 369, 225, 496, 256
-0.996724, 117, 257, 132, 320
-0.996727, 415, 209, 430, 272
-0.996747, 203, 145, 218, 208
-0.996749, 257, 281, 500, 344
-0.99676, 251, 89, 266, 152
-0.996767, 273, 245, 400, 276
-0.996778, 129, 129, 256, 192
-0.996783, 217, 225, 232, 288
-0.996786, 195, 177, 210, 240
-0.9968, 161, 185, 176, 248
-0.996807, 377, 273, 392, 336
-0.996808, 129, 121, 384, 184
-0.996808, 457, 225, 488, 352
-0.996809, 177, 245, 304, 276
-0.996813, 199, 241, 214, 304
-0.996818, 259, 105, 274, 168
-0.99684, 241, 169, 368, 200
-0.99685, 369, 85, 496, 116
-0.996854, 395, 193, 410, 256
-0.996855, 193, 9, 208, 72
-0.996859, 393, 241, 408, 304
-0.996861, 175, 217, 190, 280
-0.996862, 207, 193, 222, 256
-0.996888, 439, 65, 454, 128
-0.996893, 65, 29, 192, 60
-0.996899, 445, 1, 460, 64
-0.996903, 451, 57, 466, 120
-0.996915, 245, 1, 260, 64
-0.996934, 33, 93, 160, 124
-0.996938, 1, 49, 256, 112
-0.996942, 383, 193, 398, 256
-0.996948, 165, 257, 180, 320
-0.996954, 241, 177, 256, 240
-0.996955, 257, 157, 384, 188
-0.996958, 485, 1, 500, 64
-0.996962, 95, 241, 110, 304
-0.996972, 473, 1, 488, 64
-0.996976, 155, 217, 170, 280
-0.996988, 133, 257, 148, 320
-0.997001, 165, 281, 180, 344
-0.997002, 485, 81, 500, 144
-0.99702, 289, 293, 416, 324
-0.997025, 383, 265, 398, 328
-0.997033, 445, 81, 460, 144
-0.997036, 401, 201, 416, 264
-0.997039, 215, 113, 230, 176
-0.997057, 129, 49, 384, 112
-0.997058, 221, 281, 236, 344
-0.99706, 473, 81, 488, 144
-0.99706, 371, 225, 386, 288
-0.997072, 1, 33, 500, 96
-0.997075, 369, 57, 496, 88
-0.997081, 25, 1, 56, 256
-0.997083, 247, 273, 262, 336
-0.99709, 1, 105, 128, 136
-0.997107, 321, 81, 448, 112
-0.997108, 257, 169, 500, 232
-0.997128, 277, 137, 292, 200
-0.997131, 187, 233, 202, 296
-0.997135, 281, 1, 344, 256
-0.99714, 241, 249, 256, 312
-0.997141, 101, 249, 116, 312
-0.997157, 97, 81, 224, 112
-0.99717, 225, 105, 352, 136
-0.997187, 353, 105, 480, 168
-0.997194, 369, 197, 496, 228
-0.997244, 289, 53, 416, 84
-0.997245, 391, 217, 406, 248
-0.997262, 209, 189, 336, 220
-0.99727, 97, 257, 224, 288
-0.997277, 273, 177, 336, 304
-0.997301, 177, 157, 304, 188
-0.997309, 141, 161, 172, 288
-0.997329, 13, 1, 44, 256
-0.997391, 49, 61, 176, 92
-0.997406, 321, 1, 448, 32
-0.997422, 1, 97, 500, 160
-0.997431, 273, 257, 400, 288
-0.997432, 161, 89, 288, 120
-0.997433, 273, 89, 400, 120
-0.997435, 369, 13, 496, 44
-0.997461, 213, 185, 228, 216
-0.997478, 305, 189, 432, 220
-0.997481, 33, 257, 160, 288
-0.997498, 401, 205, 416, 236
-0.997508, 241, 77, 368, 108
-0.99751, 273, 233, 400, 264
-0.99753, 167, 177, 182, 208
-0.997538, 461, 177, 492, 304
-0.997576, 193, 209, 320, 240
-0.997597, 1, 117, 128, 148
-0.997605, 145, 229, 160, 260
-0.997609, 257, 13, 384, 44
-0.997612, 183, 209, 198, 240
-0.997615, 391, 205, 406, 236
-0.997617, 65, 145, 320, 208
-0.997628, 483, 69, 498, 100
-0.997632, 17, 217, 144, 248
-0.997635, 225, 297, 352, 328
-0.997653, 369, 285, 496, 316
-0.997659, 135, 229, 150, 260
-0.99766, 133, 1, 164, 256
-0.997678, 369, 161, 496, 224
-0.99768, 249, 1, 280, 256
-0.997688, 161, 113, 288, 144
-0.99769, 141, 217, 156, 248
-0.997693, 1, 81, 128, 112
-0.997696, 469, 225, 500, 352
-0.997697, 451, 1, 466, 32
-0.997698, 165, 221, 180, 252
-0.997721, 161, 265, 288, 296
-0.997725, 197, 1, 228, 256
-0.997753, 177, 181, 192, 212
-0.99776, 415, 201, 430, 232
-0.997764, 289, 105, 416, 136
-0.997773, 171, 213, 186, 244
-0.997779, 157, 225, 172, 256
-0.997781, 257, 181, 384, 212
-0.997789, 65, 5, 192, 36
-0.997795, 297, 241, 328, 368
-0.997797, 93, 1, 124, 256
-0.9978, 77, 1, 108, 256
-0.997813, 203, 177, 218, 208
-0.997816, 161, 225, 288, 256
-0.997825, 1, 33, 32, 288
-0.997826, 113, 93, 240, 124
-0.997826, 357, 277, 372, 308
-0.99783, 121, 1, 152, 256
-0.997831, 49, 105, 176, 136
-0.997835, 149, 97, 180, 224
-0.997844, 337, 261, 464, 292
-0.997845, 177, 53, 304, 84
-0.997845, 241, 97, 272, 352
-0.997846, 151, 221, 166, 252
-0.997847, 5, 61, 20, 92
-0.997854, 209, 261, 336, 292
-0.997861, 45, 1, 76, 256
-0.997866, 113, 29, 240, 60
-0.997869, 351, 277, 366, 308
-0.99787, 407, 205, 422, 236
-0.997894, 185, 13, 200, 44
-0.997898, 69, 193, 100, 320
-0.997903, 263, 1, 278, 32
-0.997906, 65, 1, 96, 256
-0.997917, 105, 1, 136, 256
-0.99793, 477, 77, 492, 108
-0.997931, 179, 221, 194, 252
-0.997951, 141, 21, 156, 52
-0.997968, 321, 93, 448, 124
-0.997969, 211, 157, 226, 188
-0.997969, 187, 221, 202, 252
-0.997971, 415, 233, 430, 264
-0.997974, 239, 189, 254, 220
-0.997975, 241, 53, 368, 84
-0.997976, 409, 217, 424, 248
-0.997979, 471, 69, 486, 100
-0.997982, 81, 269, 208, 300
-0.997983, 459, 9, 474, 40
-0.997986, 157, 209, 172, 240
-0.997987, 205, 237, 220, 268
-0.997988, 145, 1, 176, 256
-0.997992, 177, 193, 192, 224
-0.997995, 273, 221, 400, 252
-0.997997, 195, 9, 210, 40
-0.997998, 353, 113, 384, 240
-0.997998, 369, 113, 400, 240
-0.997999, 305, 13, 432, 44
-0.998001, 461, 65, 476, 96
-0.998009, 205, 193, 220, 224
-0.998012, 185, 233, 200, 264
-0.998014, 19, 61, 34, 92
-0.998016, 31, 33, 46, 64
-0.99802, 477, 65, 492, 96
-0.998023, 203, 165, 218, 196
-0.998025, 173, 249, 188, 280
-0.998027, 209, 173, 224, 204
-0.998038, 177, 209, 192, 240
-0.998039, 11, 53, 26, 84
-0.998041, 169, 293, 184, 324
-0.998052, 213, 97, 244, 352
-0.998056, 397, 217, 412, 248
-0.998064, 251, 261, 266, 292
-0.998065, 389, 145, 420, 272
-0.998066, 363, 269, 378, 300
-0.998068, 77, 21, 92, 52
-0.998074, 375, 269, 390, 300
-0.998079, 161, 1, 192, 256
-0.998084, 193, 217, 208, 248
-0.998088, 445, 1, 460, 32
-0.998089, 173, 1, 204, 256
-0.998089, 379, 233, 394, 264
-0.998093, 17, 241, 80, 368
-0.998099, 17, 13, 144, 44
-0.998099, 369, 185, 496, 216
-0.9981, 177, 133, 304, 164
-0.9981, 123, 249, 138, 280
-0.998109, 221, 257, 236, 288
-0.998115, 257, 137, 500, 200
-0.998115, 209, 145, 224, 176
-0.998122, 215, 197, 230, 228
-0.998124, 171, 225, 186, 256
-0.998131, 249, 93, 264, 124
-0.99814, 97, 113, 224, 144
-0.998148, 281, 1, 296, 32
-0.998152, 189, 129, 220, 375
-0.998157, 471, 81, 486, 112
-0.998157, 309, 281, 324, 312
-0.998162, 55, 21, 70, 52
-0.998166, 373, 257, 388, 288
-0.998168, 229, 129, 260, 375
-0.998171, 451, 69, 466, 100
-0.998178, 147, 17, 162, 48
-0.998178, 347, 229, 362, 260
-0.99818, 329, 9, 344, 40
-0.998192, 133, 241, 148, 272
-0.998192, 179, 17, 194, 48
-0.998194, 439, 1, 454, 32
-0.998196, 339, 1, 354, 32
-0.998198, 45, 25, 60, 56
-0.9982, 369, 25, 496, 56
-0.9982, 203, 149, 218, 180
-0.998204, 65, 305, 320, 368
-0.998205, 171, 189, 186, 220
-0.998206, 369, 269, 384, 300
-0.998209, 117, 21, 132, 52
-0.99822, 375, 245, 390, 276
-0.998221, 485, 13, 500, 44
-0.998224, 465, 13, 480, 44
-0.998225, 245, 257, 260, 288
-0.998229, 403, 233, 418, 264
-0.99823, 275, 5, 290, 36
-0.998232, 385, 201, 400, 232
-0.998233, 95, 25, 110, 56
-0.998233, 219, 185, 234, 216
-0.998235, 371, 229, 386, 260
-0.998236, 173, 69, 188, 100
-0.998239, 201, 13, 216, 44
-0.998241, 49, 293, 176, 324
-0.998241, 213, 9, 228, 40
-0.998245, 97, 77, 112, 108
-0.998246, 215, 237, 230, 268
-0.998247, 161, 17, 176, 48
-0.998249, 183, 193, 198, 224
-0.99825, 163, 209, 178, 240
-0.998251, 385, 237, 400, 268
-0.998252, 291, 65, 306, 96
-0.998257, 191, 233, 206, 264
-0.998257, 183, 181, 198, 212
-0.998258, 253, 5, 268, 36
-0.998259, 17, 45, 32, 76
-0.998259, 321, 41, 448, 72
-0.998264, 237, 1, 268, 256
-0.998277, 465, 1, 496, 256
-0.998278, 167, 21, 182, 52
-0.998292, 333, 129, 364, 375
-0.998298, 129, 293, 144, 324
-0.998302, 471, 5, 486, 36
-0.998304, 385, 221, 400, 252
-0.998305, 269, 65, 284, 96
-0.998306, 163, 237, 178, 268
-0.998309, 315, 281, 330, 312
-0.998316, 209, 1, 240, 256
-0.998319, 363, 281, 378, 312
-0.99832, 129, 229, 144, 260
-0.998321, 163, 285, 178, 316
-0.998323, 325, 1, 356, 256
-0.998323, 125, 25, 140, 56
-0.998325, 49, 117, 176, 148
-0.998326, 179, 69, 194, 100
-0.998327, 433, 145, 496, 272
-0.998327, 57, 193, 88, 320
-0.99833, 103, 29, 118, 60
-0.998334, 33, 281, 160, 312
-0.998335, 389, 281, 404, 312
-0.998335, 193, 285, 320, 316
-0.998336, 165, 249, 180, 280
-0.998338, 109, 245, 124, 276
-0.998338, 133, 253, 148, 284
-0.998349, 323, 1, 338, 32
-0.99835, 25, 69, 40, 100
-0.998358, 225, 249, 352, 280
-0.99836, 179, 169, 194, 200
-0.998367, 207, 249, 222, 280
-0.998367, 133, 29, 148, 60
-0.998367, 281, 73, 296, 104
-0.998368, 445, 65, 460, 96
-0.998374, 393, 249, 424, 264
-0.998374, 257, 259, 288, 274
-0.998374, 141, 291, 172, 306
-0.998374, 413, 209, 444, 224
-0.998375, 453, 17, 484, 32
-0.998375, 197, 177, 228, 192
-0.998375, 261, 7, 292, 22
-0.998375, 189, 225, 220, 240
-0.998375, 201, 211, 232, 226
-0.998375, 49, 241, 112, 368
-0.998376, 329, 67, 360, 82
-0.998376, 209, 235, 240, 250
-0.998376, 413, 201, 444, 216
-0.998377, 25, 115, 56, 130
-0.998377, 33, 29, 64, 44
-0.998379, 249, 15, 280, 30
-0.99838, 169, 19, 200, 34
-0.998381, 101, 75, 132, 90
-0.998382, 317, 291, 348, 306
-0.998382, 9, 53, 40, 68
-0.998383, 205, 195, 236, 210
-0.998383, 153, 301, 184, 316
-0.998384, 425, 1, 456, 16
-0.998384, 177, 223, 208, 238
-0.998384, 133, 73, 164, 88
-0.998386, 205, 161, 236, 176
-0.998386, 65, 23, 96, 38
-0.998387, 225, 211, 256, 226
-0.998387, 313, 7, 344, 22
-0.998387, 213, 259, 244, 274
-0.998387, 241, 269, 272, 284
-0.998387, 241, 263, 272, 278
-0.998388, 201, 271, 232, 286
-0.998388, 369, 277, 400, 292
-0.998389, 113, 57, 240, 88
-0.998389, 337, 273, 368, 288
-0.998389, 465, 7, 496, 22
-0.998392, 177, 177, 208, 192
-0.998392, 341, 241, 372, 256
-0.998392, 101, 261, 132, 276
-0.998392, 117, 295, 148, 310
-0.998393, 229, 259, 260, 274
-0.998394, 125, 301, 156, 316
-0.998394, 341, 233, 372, 248
-0.998394, 5, 65, 36, 80
-0.998394, 17, 65, 48, 80
-0.998394, 257, 33, 384, 64
-0.998394, 133, 241, 164, 256
-0.998395, 445, 69, 476, 84
-0.998396, 181, 243, 212, 258
-0.998399, 49, 25, 80, 40
-0.9984, 381, 279, 412, 294
-0.998401, 173, 195, 204, 210
-0.998401, 393, 213, 424, 228
-0.998402, 353, 269, 384, 284
-0.998403, 229, 1, 260, 16
-0.998403, 161, 195, 192, 210
-0.998403, 9, 73, 40, 88
-0.998403, 393, 237, 424, 252
-0.998403, 25, 75, 56, 90
-0.998404, 129, 23, 160, 38
-0.998404, 121, 97, 152, 224
-0.998405, 169, 183, 232, 198
-0.998405, 205, 11, 236, 26
-0.998407, 173, 189, 204, 204
-0.998408, 369, 235, 400, 250
-0.998408, 469, 79, 500, 94
-0.998409, 193, 241, 224, 256
-0.998409, 329, 223, 360, 238
-0.99841, 305, 289, 336, 304
-0.99841, 209, 21, 336, 52
-0.998413, 157, 215, 188, 230
-0.998413, 273, 129, 400, 160
-0.998414, 61, 115, 92, 130
-0.998414, 237, 185, 268, 200
-0.998415, 321, 279, 352, 294
-0.998415, 325, 7, 356, 22
-0.998415, 469, 71, 500, 86
-0.998416, 141, 227, 172, 242
-0.998418, 161, 295, 192, 310
-0.998418, 189, 231, 220, 246
-0.99842, 449, 81, 480, 96
-0.99842, 117, 257, 148, 272
-0.998422, 245, 103, 276, 118
-0.998422, 377, 247, 408, 262
-0.998422, 433, 241, 496, 368
-0.998423, 173, 209, 204, 224
-0.998425, 153, 221, 184, 236
-0.998425, 373, 241, 404, 256
-0.998427, 65, 193, 192, 224
-0.998429, 457, 71, 488, 86
-0.998432, 249, 3, 280, 18
-0.998433, 329, 247, 360, 262
-0.998433, 105, 249, 136, 264
-0.998434, 333, 279, 364, 294
-0.998435, 449, 11, 480, 26
-0.998436, 185, 249, 216, 264
-0.998437, 377, 223, 408, 238
-0.998438, 169, 233, 200, 248
-0.998444, 357, 243, 388, 258
-0.998446, 141, 21, 172, 36
-0.998448, 129, 229, 160, 244
-0.998449, 161, 219, 224, 234
-0.998451, 213, 153, 244, 168
-0.998451, 413, 239, 444, 254
-0.998451, 433, 73, 464, 88
-0.998452, 169, 255, 200, 270
-0.998455, 113, 27, 144, 42
-0.998457, 201, 189, 264, 204
-0.998458, 125, 251, 156, 266
-0.998464, 349, 283, 380, 298
-0.998464, 137, 21, 200, 36
-0.998465, 393, 243, 424, 258
-0.998473, 201, 251, 232, 266
-0.998475, 309, 283, 340, 298
-0.998476, 193, 191, 224, 206
-0.998476, 5, 59, 36, 74
-0.998476, 209, 3, 272, 18
-0.998478, 201, 153, 232, 168
-0.998478, 169, 189, 232, 204
-0.998479, 369, 239, 432, 254
-0.998482, 189, 219, 220, 234
-0.998483, 249, 9, 280, 24
-0.998484, 173, 215, 204, 230
-0.998484, 165, 221, 196, 236
-0.998484, 333, 285, 364, 300
-0.998485, 373, 285, 404, 300
-0.998486, 105, 255, 136, 270
-0.998487, 129, 223, 192, 238
-0.998488, 437, 3, 468, 18
-0.998489, 201, 183, 232, 198
-0.998495, 97, 255, 160, 270
-0.998495, 209, 263, 272, 278
-0.998497, 345, 283, 408, 298
-0.998498, 161, 225, 224, 240
-0.998499, 393, 219, 424, 234
-0.9985, 361, 283, 392, 298
-0.998501, 281, 1, 344, 16
-0.998501, 177, 15, 240, 30
-0.998502, 297, 285, 360, 300
-0.998504, 325, 1, 356, 16
-0.998504, 257, 305, 500, 368
-0.998507, 329, 245, 392, 260
-0.998508, 433, 71, 496, 86
-0.998508, 129, 141, 256, 172
-0.99851, 209, 11, 272, 26
-0.998511, 177, 183, 208, 198
-0.998512, 161, 181, 192, 196
-0.998512, 121, 229, 184, 244
-0.998514, 241, 5, 304, 20
-0.998515, 153, 227, 184, 242
-0.998517, 221, 185, 252, 200
-0.998519, 397, 207, 428, 222
-0.99852, 361, 223, 424, 238
-0.998522, 205, 189, 236, 204
-0.998523, 185, 13, 216, 28
-0.998523, 165, 227, 196, 242
-0.998523, 485, 1, 500, 128
-0.998524, 161, 189, 192, 204
-0.998525, 41, 27, 104, 42
-0.998525, 141, 221, 172, 236
-0.998526, 401, 1, 464, 16
-0.998527, 377, 217, 440, 232
-0.99853, 129, 161, 256, 192
-0.998532, 49, 49, 176, 80
-0.998536, 369, 247, 432, 262
-0.998538, 121, 249, 184, 264
-0.998538, 361, 267, 424, 282
-0.998539, 97, 245, 160, 260
-0.998544, 321, 285, 352, 300
-0.998544, 201, 153, 264, 168
-0.998547, 313, 1, 376, 16
-0.998548, 121, 301, 184, 316
-0.998548, 145, 213, 208, 228
-0.998551, 401, 239, 464, 254
-0.998551, 337, 289, 400, 304
-0.998553, 193, 183, 256, 198
-0.998553, 321, 281, 384, 296
-0.998553, 97, 27, 160, 42
-0.998556, 369, 97, 496, 128
-0.998556, 329, 275, 392, 290
-0.998557, 169, 177, 232, 192
-0.998567, 337, 233, 400, 248
-0.998568, 209, 143, 272, 158
-0.998568, 297, 7, 360, 22
-0.998569, 129, 291, 192, 306
-0.998571, 121, 27, 184, 42
-0.998572, 361, 275, 424, 290
-0.998573, 337, 223, 400, 238
-0.998573, 153, 15, 216, 30
-0.998574, 337, 239, 400, 254
-0.998575, 169, 195, 232, 210
-0.998578, 169, 245, 232, 260
-0.99858, 145, 183, 208, 198
-0.998581, 369, 37, 496, 68
-0.998584, 401, 71, 464, 86
-0.998584, 257, 193, 384, 224
-0.998587, 377, 207, 440, 222
-0.998588, 1, 55, 64, 70
-0.998588, 345, 201, 408, 216
-0.99859, 177, 273, 240, 288
-0.99859, 329, 269, 392, 284
-0.998591, 153, 239, 216, 254
-0.998592, 129, 255, 192, 270
-0.998592, 381, 217, 412, 232
-0.998593, 209, 269, 272, 284
-0.998594, 177, 253, 240, 268
-0.998594, 209, 257, 272, 272
-0.998594, 369, 253, 432, 268
-0.998597, 73, 251, 136, 266
-0.998597, 65, 113, 128, 240
-0.998598, 177, 231, 240, 246
-0.998599, 153, 233, 216, 248
-0.998599, 361, 261, 424, 276
-0.998599, 145, 305, 272, 336
-0.998601, 89, 265, 152, 280
-0.998602, 425, 77, 488, 92
-0.998604, 281, 291, 344, 306
-0.998605, 153, 257, 216, 272
-0.998606, 89, 271, 152, 286
-0.998606, 321, 251, 384, 266
-0.998608, 9, 75, 72, 90
-0.998609, 105, 295, 168, 310
-0.998611, 41, 21, 104, 36
-0.998613, 25, 117, 88, 132
-0.998614, 9, 23, 72, 38
-0.998614, 113, 21, 176, 36
-0.998616, 225, 185, 288, 200
-0.998616, 401, 77, 464, 92
-0.998616, 121, 217, 184, 232
-0.998617, 241, 147, 304, 162
-0.998617, 129, 243, 192, 258
-0.998619, 409, 7, 472, 22
-0.998619, 321, 7, 384, 22
-0.998619, 217, 103, 280, 118
-0.998619, 177, 9, 240, 24
-0.99862, 185, 211, 248, 226
-0.998622, 65, 75, 128, 90
-0.998623, 17, 35, 80, 50
-0.998623, 401, 65, 464, 80
-0.998624, 145, 297, 208, 312
-0.998624, 177, 287, 240, 302
-0.998626, 417, 13, 480, 28
-0.998626, 129, 73, 192, 88
-0.998627, 105, 73, 168, 88
-0.998627, 145, 189, 208, 204
-0.998628, 193, 313, 320, 375
-0.99863, 1, 117, 64, 132
-0.99863, 369, 233, 432, 248
-0.99863, 161, 73, 224, 88
-0.998631, 73, 257, 136, 272
-0.998631, 185, 69, 248, 84
-0.998632, 169, 267, 232, 282
-0.998632, 241, 11, 304, 26
-0.998632, 73, 25, 136, 40
-0.998632, 353, 217, 416, 232
-0.998633, 305, 67, 368, 82
-0.998633, 177, 153, 240, 168
-0.998633, 257, 121, 320, 136
-0.998634, 369, 283, 432, 298
-0.998634, 1, 47, 64, 62
-0.998635, 201, 217, 264, 232
-0.998635, 409, 199, 472, 214
-0.998636, 337, 259, 400, 274
-0.998636, 369, 201, 432, 216
-0.99864, 401, 245, 464, 260
-0.998641, 297, 279, 360, 294
-0.998642, 345, 63, 408, 78
-0.998642, 17, 29, 80, 44
-0.998642, 177, 145, 240, 160
-0.998644, 145, 285, 208, 300
-0.998644, 377, 67, 440, 82
-0.998645, 97, 277, 160, 292
-0.998645, 217, 211, 280, 226
-0.998645, 177, 261, 240, 276
-0.998646, 273, 7, 336, 22
-0.998646, 217, 281, 280, 296
-0.998647, 241, 21, 304, 36
-0.998647, 257, 111, 320, 126
-0.998694, 369, 249, 496, 280
-0.9987, 321, 25, 448, 56
-0.998703, 337, 1, 368, 256
-0.99872, 463, 1, 478, 128
-0.998732, 181, 1, 196, 128
-0.998734, 253, 97, 284, 352
-0.998737, 337, 137, 464, 200
-0.998738, 1, 121, 500, 184
-0.998748, 251, 1, 266, 128
-0.998751, 177, 33, 304, 64
-0.998764, 185, 1, 216, 256
-0.998773, 29, 1, 44, 128
-0.998792, 479, 1, 494, 128
-0.998793, 165, 97, 196, 352
-0.9988, 121, 17, 136, 144
-0.998803, 209, 177, 224, 304
-0.998815, 327, 1, 342, 128
-0.998816, 201, 129, 232, 375
-0.998821, 213, 1, 228, 128
-0.998831, 195, 193, 210, 320
-0.998848, 207, 1, 222, 128
-0.998853, 115, 17, 130, 144
-0.998854, 175, 1, 190, 128
-0.99886, 129, 17, 144, 144
-0.99886, 191, 1, 206, 128
-0.998871, 273, 1, 288, 128
-0.998872, 333, 1, 348, 128
-0.998874, 159, 1, 174, 128
-0.998875, 143, 1, 158, 128
-0.998879, 393, 97, 456, 224
-0.99888, 265, 1, 280, 128
-0.998911, 201, 1, 216, 128
-0.998914, 471, 1, 486, 128
-0.998916, 165, 1, 180, 128
-0.998917, 457, 1, 472, 128
-0.99892, 97, 17, 112, 144
-0.998922, 265, 1, 296, 256
-0.998935, 103, 17, 118, 144
-0.998937, 109, 17, 124, 144
-0.998938, 37, 17, 52, 144
-0.998938, 215, 177, 230, 304
-0.99894, 113, 113, 176, 240
-0.998949, 63, 17, 78, 144
-0.998957, 149, 1, 164, 128
-0.998957, 91, 17, 106, 144
-0.99896, 153, 97, 184, 352
-0.998966, 203, 161, 218, 288
-0.998969, 385, 129, 416, 375
-0.99897, 257, 1, 272, 128
-0.998984, 71, 17, 86, 144
-0.998986, 453, 1, 484, 256
-0.998986, 279, 1, 294, 128
-0.998989, 55, 17, 70, 144
-0.998992, 85, 17, 100, 144
-0.998993, 49, 17, 64, 144
-0.999, 3, 49, 18, 176
-0.999008, 11, 33, 26, 160
-0.999008, 239, 145, 254, 272
-0.999015, 135, 17, 150, 144
-0.999035, 77, 17, 92, 144
-0.999056, 397, 209, 412, 336
-0.999056, 175, 177, 190, 304
-0.999061, 113, 97, 144, 352
-0.999073, 43, 17, 58, 144
-0.999087, 409, 65, 440, 320
-0.999092, 177, 129, 208, 375
-0.999103, 17, 1, 32, 128
-0.999107, 405, 193, 420, 320
-0.999128, 185, 193, 200, 320
-0.999129, 349, 129, 380, 375
-0.999142, 239, 97, 254, 224
-0.999149, 389, 193, 404, 320
-0.999149, 339, 1, 354, 128
-0.99915, 165, 193, 180, 320
-0.999156, 21, 49, 36, 176
-0.999158, 161, 305, 416, 368
-0.999182, 211, 225, 226, 352
-0.999186, 109, 225, 124, 352
-0.999189, 321, 1, 336, 128
-0.999194, 183, 145, 198, 272
-0.999194, 275, 81, 290, 208
-0.999197, 355, 241, 370, 368
-0.999197, 229, 97, 244, 224
-0.999206, 219, 1, 234, 128
-0.999209, 321, 129, 352, 375
-0.999213, 215, 97, 230, 224
-0.99922, 361, 209, 376, 336
-0.99922, 203, 209, 218, 336
-0.999223, 373, 209, 388, 336
-0.999229, 249, 177, 264, 304
-0.999232, 141, 209, 156, 336
-0.999233, 245, 1, 260, 128
-0.999238, 261, 49, 276, 176
-0.999238, 23, 1, 38, 128
-0.999239, 285, 1, 300, 128
-0.999241, 209, 97, 224, 224
-0.999244, 27, 49, 42, 176
-0.999247, 239, 193, 254, 320
-0.999251, 307, 1, 322, 128
-0.999254, 415, 209, 430, 336
-0.999259, 327, 49, 342, 176
-0.999265, 233, 177, 248, 304
-0.999273, 249, 97, 264, 224
-0.999274, 451, 1, 466, 128
-0.999276, 315, 33, 330, 160
-0.999281, 175, 225, 190, 352
-0.999297, 157, 209, 172, 336
-0.999299, 269, 81, 284, 208
-0.999316, 383, 209, 398, 336
-0.999317, 119, 225, 134, 352
-0.999318, 367, 209, 382, 336
-0.999321, 303, 49, 318, 176
-0.999323, 197, 145, 212, 272
-0.999329, 167, 145, 182, 272
-0.99934, 263, 97, 278, 224
-0.999357, 349, 241, 364, 368
-0.99936, 397, 65, 428, 320
-0.999368, 355, 177, 370, 304
-0.999369, 321, 49, 336, 176
-0.999372, 283, 65, 298, 192
-0.999388, 297, 65, 312, 192
-0.999389, 251, 225, 266, 352
-0.999391, 237, 49, 252, 176
-0.999393, 221, 177, 236, 304
-0.999398, 255, 65, 270, 192
-0.999409, 223, 81, 238, 208
-0.999411, 417, 161, 432, 288
-0.999412, 65, 137, 192, 200
-0.999416, 191, 145, 206, 272
-0.999418, 309, 65, 324, 192
-0.99942, 477, 49, 492, 176
-0.999421, 485, 49, 500, 176
-0.999426, 291, 1, 306, 128
-0.999434, 197, 241, 212, 368
-0.99944, 297, 1, 312, 128
-0.999443, 305, 1, 336, 256
-0.999446, 389, 241, 404, 368
-0.999453, 169, 241, 184, 368
-0.999454, 151, 209, 166, 336
-0.999457, 219, 225, 234, 352
-0.999459, 349, 177, 364, 304
-0.999459, 395, 161, 410, 288
-0.999461, 365, 33, 380, 160
-0.999462, 65, 81, 80, 208
-0.999462, 309, 97, 340, 352
-0.999463, 421, 65, 452, 320
-0.999466, 131, 193, 146, 320
-0.99947, 257, 241, 272, 368
-0.999471, 393, 33, 408, 160
-0.999472, 423, 1, 438, 128
-0.999473, 211, 49, 226, 176
-0.999476, 173, 97, 188, 224
-0.999476, 387, 49, 402, 176
-0.99948, 125, 225, 140, 352
-0.999481, 437, 65, 468, 320
-0.999483, 373, 161, 388, 288
-0.999484, 129, 129, 160, 375
-0.999484, 373, 129, 404, 375
-0.999485, 361, 129, 392, 375
-0.999485, 381, 33, 396, 160
-0.999486, 85, 97, 116, 352
-0.999574, 327, 291, 342, 306
-0.999575, 363, 263, 378, 278
-0.999575, 191, 233, 206, 248
-0.999575, 341, 221, 356, 236
-0.999576, 125, 27, 140, 42
-0.999576, 215, 235, 230, 250
-0.999576, 173, 179, 188, 194
-0.999576, 117, 25, 132, 40
-0.999577, 195, 247, 210, 262
-0.999578, 363, 243, 378, 258
-0.999578, 135, 245, 150, 260
-0.999578, 187, 13, 202, 28
-0.999579, 321, 5, 336, 20
-0.999579, 185, 195, 200, 210
-0.999579, 351, 237, 366, 252
-0.99958, 369, 279, 384, 294
-0.99958, 181, 207, 196, 222
-0.99958, 415, 235, 430, 250
-0.99958, 465, 15, 480, 30
-0.99958, 399, 207, 414, 222
-0.999581, 169, 253, 184, 268
-0.999581, 337, 279, 352, 294
-0.999581, 45, 29, 60, 44
-0.999582, 139, 251, 154, 266
-0.999582, 237, 189, 252, 204
-0.999582, 199, 187, 214, 202
-0.999583, 379, 235, 394, 250
-0.999584, 207, 147, 222, 162
-0.999584, 173, 295, 188, 310
-0.999585, 375, 273, 390, 288
-0.999586, 385, 241, 400, 256
-0.999586, 133, 255, 148, 270
-0.999586, 473, 71, 488, 86
-0.999587, 393, 209, 408, 224
-0.999587, 217, 253, 232, 268
-0.999588, 219, 147, 234, 162
-0.999588, 369, 241, 384, 256
-0.999589, 187, 225, 202, 240
-0.999589, 345, 279, 360, 294
-0.99959, 187, 213, 202, 228
-0.999591, 409, 225, 424, 240
-0.999593, 345, 229, 360, 244
-0.999594, 265, 97, 296, 352
-0.999595, 205, 243, 220, 258
-0.999595, 203, 165, 218, 180
-0.999596, 179, 231, 194, 246
-0.999596, 319, 287, 334, 302
-0.999596, 251, 7, 266, 22
-0.999596, 191, 239, 206, 254
-0.999597, 31, 35, 46, 50
-0.999598, 163, 221, 178, 236
-0.999598, 265, 279, 280, 294
-0.999598, 407, 205, 422, 220
-0.999599, 147, 221, 162, 236
-0.999599, 19, 73, 34, 88
-0.9996, 439, 1, 454, 16
-0.9996, 249, 101, 264, 116
-0.999601, 209, 193, 224, 208
-0.999601, 375, 283, 390, 298
-0.999601, 483, 79, 498, 94
-0.999602, 391, 283, 406, 298
-0.999603, 157, 227, 172, 242
-0.999603, 363, 283, 378, 298
-0.999604, 177, 185, 192, 200
-0.999604, 451, 5, 466, 20
-0.999605, 195, 13, 210, 28
-0.999605, 19, 65, 34, 80
-0.999607, 253, 263, 268, 278
-0.999608, 447, 71, 462, 86
-0.999608, 337, 261, 352, 276
-0.999608, 69, 115, 84, 130
-0.999608, 11, 59, 26, 74
-0.999608, 393, 223, 408, 238
-0.999608, 309, 283, 324, 298
-0.999609, 199, 175, 214, 190
-0.999609, 1, 145, 500, 208
-0.99961, 385, 221, 400, 236
-0.999611, 231, 185, 246, 200
-0.999612, 167, 187, 182, 202
-0.999612, 143, 229, 158, 244
-0.999613, 207, 155, 222, 170
-0.999614, 213, 207, 228, 222
-0.999615, 215, 181, 230, 196
-0.999615, 447, 77, 462, 92
-0.999616, 381, 285, 396, 300
-0.999617, 417, 201, 432, 216
-0.999618, 169, 221, 184, 236
-0.999618, 345, 285, 360, 300
-0.999619, 369, 271, 384, 286
-0.999619, 345, 241, 360, 256
-0.99962, 459, 11, 474, 26
-0.999621, 351, 231, 366, 246
-0.999622, 417, 209, 432, 224
-0.999622, 357, 283, 372, 298
-0.999625, 483, 71, 498, 86
-0.999625, 225, 185, 240, 200
-0.999627, 157, 221, 172, 236
-0.999627, 203, 193, 218, 208
-0.999632, 183, 219, 198, 234
-0.999635, 175, 209, 190, 224
-0.999636, 175, 215, 190, 230
-0.999636, 129, 249, 144, 264
-0.999638, 193, 217, 208, 232
-0.999638, 337, 285, 352, 300
-0.99964, 185, 235, 200, 250
-0.99964, 139, 223, 154, 238
-0.999641, 239, 183, 254, 198
-0.999643, 351, 285, 366, 300
-0.999643, 173, 191, 188, 206
-0.999645, 207, 249, 222, 264
-0.999646, 175, 223, 190, 238
-0.999646, 375, 245, 390, 260
-0.99965, 175, 253, 190, 268
-0.999651, 217, 189, 232, 204
-0.999652, 225, 33, 256, 288
-0.999656, 209, 161, 224, 176
-0.99966, 165, 227, 180, 242
-0.999661, 167, 181, 182, 196
-0.999663, 215, 195, 230, 210
-0.999663, 247, 263, 262, 278
-0.999666, 123, 255, 138, 270
-0.999666, 331, 285, 346, 300
-0.999667, 1, 289, 500, 352
-0.999669, 415, 241, 430, 256
-0.999672, 207, 179, 222, 194
-0.999673, 399, 219, 414, 234
-0.999673, 205, 185, 220, 200
-0.999676, 365, 1, 396, 256
-0.999679, 315, 281, 330, 296
-0.99968, 325, 285, 340, 300
-0.999691, 297, 97, 328, 352
-0.999703, 387, 215, 402, 230
-0.999705, 181, 213, 196, 228
-0.999708, 353, 1, 384, 256
-0.999715, 69, 97, 100, 352
-0.999736, 425, 97, 488, 352
-0.999745, 211, 187, 226, 202
-0.999747, 393, 215, 408, 230
-0.999751, 213, 153, 228, 168
-0.999782, 101, 97, 132, 352
-0.999796, 141, 97, 172, 352
-0.999802, 57, 97, 88, 352
-0.999865, 13, 97, 44, 352
-0.999898, 381, 33, 412, 288
-0.999951, 293, 1, 324, 256
-0.999951, 45, 97, 76, 352
-0.999959, 25, 97, 56, 352
-1, 1, 129, 128, 192
-1.00002, 285, 129, 316, 375
-1.00005, 457, 97, 488, 352
-1.00005, 1, 129, 32, 375
-1.0001, 281, 1, 312, 256
-1.00014, 469, 97, 500, 352
-1.00181, 305, 313, 432, 375
-1.00203, 17, 161, 144, 224
-1.00241, 1, 313, 500, 375
-1.00298, 33, 129, 96, 256
-1.00508, 1, 145, 64, 272
-1.00525, 425, 97, 488, 224
-1.00866, 89, 129, 152, 256
