1883
-0.348657, 1, 1, 500, 334
-0.464681, 1, 1, 500, 256
-0.47346, 1, 1, 256, 334
-0.567923, 257, 1, 500, 334
-0.580509, 97, 1, 352, 334
-0.66512, 1, 33, 256, 288
-0.665424, 97, 33, 352, 288
-0.747651, 257, 1, 500, 256
-0.815081, 17, 1, 144, 334
-0.829864, 17, 1, 144, 256
-0.857915, 321, 1, 448, 334
-0.861033, 65, 1, 192, 334
-0.862352, 65, 33, 192, 288
-0.866141, 353, 1, 480, 256
-0.872269, 369, 1, 496, 334
-0.876891, 273, 65, 400, 320
-0.887383, 273, 1, 400, 334
-0.893357, 1, 33, 500, 160
-0.894611, 193, 1, 320, 256
-0.89671, 193, 1, 320, 334
-0.903553, 1, 161, 500, 288
-0.907237, 113, 1, 240, 334
-0.907302, 113, 65, 240, 320
-0.9088, 1, 81, 500, 208
-0.919639, 17, 49, 144, 176
-0.922135, 41, 33, 104, 160
-0.929074, 369, 17, 496, 144
-0.929367, 1, 113, 256, 240
-0.930814, 17, 1, 144, 128
-0.931803, 65, 1, 320, 128
-0.932811, 65, 33, 128, 160
-0.933679, 409, 1, 472, 128
-0.93404, 17, 97, 144, 224
-0.935085, 1, 65, 256, 192
-0.935903, 257, 1, 500, 128
-0.936059, 17, 81, 80, 208
-0.936691, 73, 81, 136, 208
-0.93754, 97, 161, 352, 288
-0.938073, 225, 49, 480, 176
-0.938667, 17, 1, 80, 128
-0.938843, 1, 177, 256, 304
-0.939154, 57, 129, 120, 256
-0.940225, 41, 81, 104, 208
-0.940834, 33, 129, 96, 256
-0.940887, 65, 49, 192, 176
-0.942602, 1, 145, 128, 272
-0.943663, 1, 145, 64, 272
-0.943915, 97, 49, 352, 176
-0.944526, 385, 1, 448, 128
-0.94483, 65, 97, 192, 224
-0.945377, 1, 153, 64, 216
-0.945559, 41, 89, 104, 152
-0.946586, 1, 185, 64, 248
-0.946903, 433, 1, 496, 128
-0.94715, 321, 1, 448, 128
-0.947248, 1, 209, 500, 334
-0.947772, 257, 113, 384, 240
-0.94866, 41, 33, 104, 96
-0.949522, 41, 65, 104, 128
-0.950347, 337, 65, 400, 192
-0.950372, 1, 129, 64, 192
-0.950382, 41, 161, 104, 224
-0.950774, 49, 145, 176, 272
-0.951032, 273, 65, 400, 192
-0.951194, 17, 193, 144, 320
-0.951443, 361, 1, 424, 128
-0.951527, 161, 1, 416, 128
-0.951693, 97, 97, 352, 224
-0.952147, 33, 137, 96, 200
-0.952509, 409, 17, 472, 80
-0.952942, 17, 105, 80, 168
-0.952983, 313, 49, 376, 176
-0.954147, 73, 193, 136, 320
-0.954158, 433, 41, 496, 104
-0.954194, 25, 185, 88, 248
-0.95435, 313, 129, 376, 256
-0.954373, 305, 145, 432, 272
-0.95476, 49, 177, 112, 304
-0.954947, 89, 1, 152, 128
-0.95533, 193, 113, 448, 240
-0.955637, 257, 161, 384, 288
-0.956032, 129, 49, 192, 176
-0.956105, 17, 49, 80, 112
-0.956437, 65, 1, 192, 128
-0.956844, 65, 105, 128, 168
-0.957253, 385, 33, 448, 96
-0.957672, 49, 185, 112, 248
-0.958073, 281, 113, 344, 240
-0.958106, 321, 57, 384, 120
-0.958569, 353, 113, 416, 240
-0.9586, 321, 49, 448, 176
-0.959208, 65, 65, 128, 128
-0.959382, 385, 9, 448, 72
-0.959913, 89, 145, 152, 272
-0.960571, 105, 49, 168, 176
-0.961038, 273, 193, 336, 320
-0.961564, 17, 81, 80, 144
-0.961616, 97, 209, 352, 334
-0.961954, 1, 193, 64, 320
-0.962094, 25, 177, 88, 304
-0.962295, 393, 49, 456, 176
-0.962532, 73, 177, 136, 240
-0.962538, 65, 41, 128, 104
-0.962606, 17, 17, 80, 80
-0.962631, 337, 161, 400, 288
-0.962681, 257, 209, 384, 334
-0.962739, 41, 113, 104, 176
-0.962948, 433, 49, 496, 176
-0.962986, 353, 113, 480, 240
-0.963049, 65, 145, 128, 208
-0.963141, 65, 1, 128, 256
-0.963263, 65, 209, 192, 334
-0.963387, 137, 81, 200, 144
-0.963687, 409, 41, 472, 104
-0.963692, 57, 9, 120, 72
-0.963725, 209, 129, 336, 256
-0.96377, 25, 33, 88, 288
-0.964089, 193, 193, 320, 320
-0.964373, 313, 81, 376, 144
-0.964623, 113, 1, 176, 128
-0.96491, 337, 1, 400, 128
-0.965077, 129, 41, 192, 104
-0.965116, 225, 161, 480, 288
-0.965141, 97, 193, 160, 320
-0.965227, 113, 97, 240, 224
-0.965377, 193, 1, 320, 128
-0.965787, 97, 145, 224, 272
-0.965929, 421, 1, 452, 128
-0.966169, 369, 33, 496, 96
-0.966251, 129, 193, 192, 320
-0.966421, 17, 81, 144, 144
-0.966596, 81, 217, 144, 280
-0.966647, 5, 145, 36, 272
-0.966836, 313, 153, 376, 216
-0.9669, 113, 145, 176, 272
-0.96697, 345, 161, 408, 224
-0.967178, 273, 1, 400, 128
-0.967535, 49, 209, 112, 272
-0.967786, 353, 41, 416, 104
-0.968021, 273, 241, 336, 304
-0.968164, 53, 17, 84, 144
-0.968422, 113, 49, 240, 176
-0.968505, 281, 65, 344, 192
-0.968562, 17, 129, 144, 192
-0.968709, 37, 1, 68, 128
-0.968768, 105, 73, 168, 136
-0.968868, 437, 33, 468, 96
-0.969201, 433, 1, 496, 64
-0.969239, 25, 217, 88, 280
-0.969245, 73, 33, 104, 160
-0.969264, 113, 209, 240, 334
-0.969458, 17, 105, 144, 168
-0.969578, 1, 209, 64, 272
-0.969591, 413, 9, 444, 72
-0.969592, 433, 1, 464, 128
-0.969779, 45, 33, 76, 96
-0.969971, 97, 185, 160, 248
-0.970385, 13, 185, 44, 248
-0.970567, 425, 9, 456, 72
-0.970655, 369, 65, 496, 192
-0.970702, 17, 57, 144, 120
-0.970871, 9, 145, 40, 208
-0.970952, 281, 145, 344, 208
-0.971044, 161, 145, 288, 272
-0.971329, 73, 81, 104, 208
-0.971487, 337, 81, 400, 144
-0.971507, 89, 153, 152, 216
-0.971591, 1, 1, 64, 256
-0.971677, 77, 177, 108, 240
-0.971804, 73, 105, 104, 168
-0.971915, 89, 33, 152, 96
-0.972178, 361, 17, 424, 80
-0.972225, 37, 65, 68, 128
-0.972242, 405, 1, 436, 128
-0.972279, 361, 49, 424, 176
-0.972341, 1, 185, 128, 248
-0.972367, 305, 129, 368, 192
-0.972367, 337, 193, 464, 320
-0.972384, 313, 177, 376, 304
-0.972515, 193, 65, 320, 192
-0.972557, 401, 233, 464, 296
-0.972769, 281, 105, 344, 168
-0.972995, 57, 57, 88, 120
-0.973017, 57, 65, 88, 192
-0.973063, 337, 121, 400, 184
-0.973102, 65, 65, 192, 128
-0.973177, 401, 209, 464, 334
-0.9732, 89, 1, 152, 256
-0.973242, 25, 153, 56, 216
-0.97326, 313, 33, 376, 288
-0.973319, 73, 41, 104, 104
-0.973387, 349, 57, 380, 120
-0.973458, 17, 25, 144, 88
-0.973459, 77, 129, 108, 256
-0.97403, 65, 97, 192, 160
-0.974057, 33, 1, 160, 64
-0.974085, 25, 113, 56, 176
-0.974126, 17, 49, 48, 176
-0.974129, 457, 41, 488, 104
-0.974136, 313, 177, 376, 240
-0.974374, 17, 145, 48, 272
-0.974517, 333, 57, 364, 120
-0.974665, 137, 161, 200, 224
-0.974683, 129, 137, 192, 200
-0.974863, 337, 57, 464, 120
-0.974927, 97, 105, 160, 168
-0.975028, 329, 33, 392, 96
-0.975171, 25, 185, 56, 248
-0.975246, 433, 65, 496, 128
-0.975403, 45, 9, 76, 72
-0.975507, 37, 65, 68, 192
-0.975527, 1, 177, 32, 240
-0.975691, 273, 217, 336, 280
-0.975892, 33, 25, 64, 88
-0.975904, 281, 73, 344, 136
-0.975932, 121, 201, 184, 264
-0.975941, 153, 193, 216, 320
-0.975977, 37, 129, 68, 192
-0.976005, 97, 97, 160, 224
-0.97609, 65, 121, 192, 184
-0.976338, 65, 145, 96, 272
-0.976354, 425, 209, 488, 334
-0.976403, 65, 41, 192, 104
-0.976597, 89, 177, 120, 240
-0.976661, 305, 105, 368, 168
-0.97669, 57, 33, 88, 96
-0.976697, 417, 33, 448, 96
-0.976924, 397, 17, 428, 80
-0.97698, 113, 9, 176, 72
-0.977139, 425, 217, 488, 280
-0.977148, 77, 81, 108, 144
-0.977218, 1, 161, 128, 224
-0.97722, 25, 1, 88, 334
-0.977257, 49, 97, 80, 160
-0.977306, 121, 97, 184, 224
-0.977346, 153, 17, 216, 144
-0.977521, 233, 249, 296, 312
-0.977591, 273, 57, 400, 120
-0.977616, 73, 201, 104, 264
-0.977818, 5, 97, 36, 224
-0.97782, 93, 33, 124, 160
-0.977957, 81, 9, 144, 72
-0.978086, 337, 1, 400, 256
-0.97813, 353, 9, 480, 72
-0.978186, 257, 137, 384, 200
-0.978201, 445, 17, 476, 144
-0.978213, 437, 1, 468, 64
-0.978377, 149, 57, 180, 120
-0.978389, 49, 177, 176, 240
-0.978399, 313, 241, 376, 304
-0.978457, 29, 89, 60, 152
-0.978568, 445, 57, 476, 120
-0.978598, 49, 1, 112, 334
-0.978616, 81, 177, 112, 304
-0.978644, 457, 33, 488, 160
-0.978653, 281, 169, 344, 232
-0.978678, 257, 129, 320, 256
-0.978845, 361, 57, 392, 120
-0.97887, 37, 153, 68, 216
-0.9789, 169, 153, 232, 216
-0.978905, 117, 65, 148, 128
-0.978921, 1, 1, 64, 334
-0.978962, 217, 1, 280, 128
-0.978992, 89, 129, 120, 256
-0.979064, 77, 137, 108, 200
-0.979072, 89, 129, 152, 192
-0.979145, 61, 81, 92, 144
-0.979276, 17, 57, 48, 120
-0.979436, 281, 65, 344, 320
-0.97947, 113, 1, 176, 256
-0.979708, 17, 89, 48, 152
-0.979963, 41, 193, 72, 256
-0.980018, 61, 105, 92, 168
-0.980056, 73, 1, 136, 334
-0.980148, 301, 129, 332, 256
-0.980305, 25, 97, 56, 224
-0.980313, 273, 81, 400, 144
-0.980325, 469, 49, 500, 112
-0.980346, 121, 113, 184, 176
-0.980368, 345, 65, 376, 192
-0.980385, 57, 9, 88, 72
-0.980392, 65, 145, 192, 208
-0.980399, 153, 33, 216, 96
-0.980439, 113, 161, 176, 224
-0.980462, 257, 265, 320, 328
-0.980479, 9, 121, 40, 184
-0.980485, 365, 65, 396, 192
-0.980537, 177, 97, 240, 224
-0.980592, 113, 233, 176, 296
-0.980712, 57, 233, 120, 296
-0.980759, 377, 113, 440, 240
-0.980778, 85, 81, 116, 208
-0.980801, 49, 201, 176, 264
-0.98084, 129, 1, 256, 128
-0.980923, 321, 33, 448, 96
-0.98097, 345, 81, 376, 144
-0.980982, 433, 1, 496, 256
-0.981024, 273, 193, 336, 256
-0.981037, 113, 257, 176, 320
-0.981051, 257, 241, 384, 304
-0.981156, 425, 225, 456, 288
-0.981175, 401, 1, 464, 256
-0.981249, 357, 1, 388, 128
-0.981275, 361, 1, 424, 256
-0.98129, 177, 177, 240, 304
-0.981302, 145, 193, 208, 256
-0.981304, 57, 137, 88, 200
-0.981312, 361, 161, 424, 288
-0.981385, 273, 33, 400, 96
-0.981474, 129, 121, 256, 184
-0.981485, 385, 201, 448, 264
-0.981521, 297, 49, 360, 112
-0.981547, 297, 241, 328, 304
-0.98155, 13, 193, 44, 320
-0.981673, 377, 113, 440, 176
-0.981737, 93, 33, 124, 96
-0.981843, 249, 209, 312, 334
-0.981856, 21, 209, 52, 272
-0.981917, 169, 129, 232, 192
-0.981959, 273, 169, 400, 232
-0.981974, 153, 65, 216, 192
-0.981988, 33, 1, 64, 64
-0.981988, 169, 73, 232, 136
-0.982054, 257, 209, 500, 334
-0.982168, 1, 209, 128, 272
-0.982188, 17, 1, 48, 128
-0.982193, 153, 33, 184, 160
-0.982196, 329, 137, 360, 200
-0.982351, 89, 73, 120, 136
-0.982426, 161, 41, 192, 104
-0.982641, 321, 73, 352, 136
-0.982757, 105, 49, 136, 176
-0.982811, 433, 49, 464, 176
-0.98294, 113, 81, 240, 144
-0.983005, 153, 129, 216, 256
-0.983031, 129, 73, 160, 136
-0.983035, 1, 201, 32, 264
-0.983038, 377, 113, 408, 240
-0.983049, 361, 65, 424, 128
-0.98308, 241, 1, 304, 128
-0.983204, 349, 113, 380, 240
-0.983241, 305, 129, 432, 192
-0.983251, 93, 177, 124, 304
-0.983275, 85, 1, 116, 64
-0.983292, 133, 41, 164, 104
-0.983325, 333, 81, 364, 144
-0.983379, 333, 65, 364, 192
-0.983423, 89, 209, 120, 272
-0.983503, 393, 1, 424, 128
-0.983526, 353, 153, 384, 216
-0.983567, 65, 177, 96, 240
-0.983633, 37, 145, 68, 272
-0.983648, 433, 57, 464, 120
-0.98367, 281, 17, 344, 144
-0.983771, 225, 217, 352, 280
-0.983812, 33, 233, 160, 296
-0.983839, 97, 1, 160, 334
-0.983847, 361, 161, 392, 288
-0.983915, 249, 81, 312, 208
-0.983934, 309, 81, 340, 208
-0.983986, 193, 241, 320, 304
-0.984006, 257, 113, 384, 176
-0.984049, 113, 153, 240, 216
-0.984067, 101, 153, 132, 216
-0.984092, 101, 129, 132, 256
-0.984114, 1, 193, 32, 320
-0.984132, 393, 1, 456, 334
-0.984149, 21, 25, 52, 88
-0.98415, 273, 257, 304, 320
-0.984202, 385, 161, 448, 288
-0.984205, 305, 105, 432, 168
-0.984294, 33, 225, 64, 288
-0.984326, 373, 49, 404, 112
-0.984401, 133, 49, 164, 176
-0.984443, 449, 1, 480, 64
-0.98455, 121, 121, 152, 184
-0.984567, 437, 217, 468, 280
-0.984645, 89, 137, 120, 200
-0.984679, 429, 209, 460, 334
-0.984764, 117, 49, 148, 176
-0.984825, 53, 113, 84, 240
-0.98486, 25, 193, 56, 320
-0.984885, 369, 209, 432, 334
-0.984919, 113, 41, 240, 104
-0.984919, 137, 225, 200, 288
-0.98499, 121, 129, 152, 256
-0.984996, 177, 129, 304, 192
-0.985087, 225, 265, 352, 328
-0.985091, 161, 161, 192, 224
-0.98516, 217, 209, 280, 334
-0.98526, 149, 33, 180, 96
-0.985276, 361, 33, 392, 96
-0.985291, 53, 185, 84, 248
-0.985314, 1, 1, 32, 128
-0.985359, 305, 9, 432, 72
-0.985371, 125, 201, 156, 264
-0.985377, 301, 193, 332, 320
-0.985378, 369, 233, 496, 296
-0.985395, 193, 105, 320, 168
-0.985412, 105, 41, 136, 104
-0.985433, 393, 65, 456, 128
-0.985437, 369, 1, 400, 128
-0.985446, 337, 185, 400, 248
-0.985485, 313, 1, 376, 128
-0.985538, 337, 1, 400, 334
-0.98554, 389, 65, 420, 192
-0.985561, 81, 17, 208, 80
-0.985572, 33, 241, 96, 304
-0.985612, 161, 97, 224, 160
-0.985618, 97, 209, 224, 272
-0.985625, 289, 129, 320, 256
-0.985655, 349, 33, 380, 96
-0.985753, 325, 129, 356, 256
-0.985755, 469, 33, 500, 160
-0.985757, 5, 49, 36, 176
-0.985795, 433, 161, 496, 288
-0.985804, 61, 217, 92, 280
-0.985842, 137, 1, 200, 256
-0.985914, 457, 65, 488, 128
-0.985941, 105, 177, 136, 304
-0.98604, 405, 41, 436, 104
-0.986125, 225, 193, 352, 256
-0.986298, 69, 17, 100, 80
-0.986309, 313, 121, 344, 184
-0.986357, 77, 225, 108, 288
-0.986379, 49, 177, 80, 304
-0.986381, 101, 65, 132, 128
-0.986578, 105, 177, 136, 240
-0.986582, 281, 193, 312, 320
-0.986594, 209, 153, 336, 216
-0.986627, 381, 17, 412, 144
-0.986649, 105, 97, 136, 160
-0.986723, 313, 97, 344, 160
-0.986757, 321, 81, 352, 208
-0.98679, 257, 129, 320, 192
-0.986807, 349, 161, 380, 288
-0.986832, 121, 1, 184, 334
-0.986884, 321, 81, 448, 144
-0.986943, 173, 73, 204, 136
-0.987086, 337, 209, 464, 272
-0.987094, 425, 1, 488, 334
-0.987106, 193, 1, 256, 128
-0.987199, 361, 1, 424, 334
-0.987225, 217, 1, 280, 256
-0.987233, 421, 49, 452, 176
-0.987237, 337, 161, 464, 224
-0.987285, 161, 81, 192, 144
-0.987383, 249, 217, 312, 280
-0.987418, 1, 233, 64, 296
-0.987457, 157, 137, 188, 200
-0.987458, 305, 217, 368, 280
-0.987668, 105, 1, 136, 128
-0.987681, 113, 233, 240, 296
-0.98769, 257, 65, 320, 320
-0.987714, 309, 241, 340, 304
-0.987752, 125, 233, 156, 296
-0.987774, 141, 81, 172, 144
-0.987839, 353, 121, 480, 184
-0.987862, 125, 257, 156, 320
-0.987894, 333, 113, 364, 176
-0.987897, 361, 137, 424, 200
-0.98791, 85, 113, 116, 176
-0.98794, 177, 217, 304, 280
-0.987953, 281, 265, 344, 328
-0.988033, 117, 25, 148, 88
-0.988061, 161, 225, 224, 288
-0.98808, 117, 89, 148, 152
-0.988184, 41, 85, 104, 116
-0.988192, 281, 233, 312, 296
-0.988214, 381, 121, 412, 184
-0.988215, 193, 17, 320, 80
-0.988224, 345, 121, 376, 184
-0.988232, 393, 41, 424, 104
-0.98825, 173, 153, 204, 216
-0.988271, 101, 209, 132, 272
-0.988279, 405, 49, 436, 176
-0.988287, 469, 25, 500, 88
-0.988289, 177, 49, 240, 176
-0.988293, 209, 241, 272, 304
-0.988296, 409, 89, 472, 152
-0.988301, 273, 49, 336, 112
-0.988339, 5, 97, 36, 160
-0.988361, 89, 249, 152, 312
-0.988424, 41, 41, 104, 72
-0.988478, 53, 161, 84, 224
-0.988516, 145, 185, 272, 248
-0.988551, 273, 193, 400, 256
-0.988559, 137, 273, 200, 334
-0.988613, 25, 137, 88, 168
-0.988735, 257, 249, 288, 312
-0.988742, 341, 153, 372, 216
-0.988768, 25, 61, 88, 92
-0.988783, 129, 209, 160, 334
-0.988786, 1, 169, 64, 200
-0.988787, 129, 77, 192, 108
-0.9888, 49, 217, 80, 280
-0.988815, 165, 33, 196, 160
-0.988876, 169, 65, 232, 320
-0.988911, 433, 53, 496, 84
-0.98892, 345, 17, 376, 144
-0.988922, 337, 9, 400, 72
-0.98904, 321, 69, 384, 100
-0.98907, 49, 185, 112, 216
-0.989071, 161, 9, 224, 72
-0.989111, 41, 97, 104, 128
-0.989191, 9, 205, 72, 236
-0.989225, 17, 193, 80, 224
-0.989298, 1, 153, 64, 184
-0.989311, 305, 241, 432, 304
-0.98933, 1, 181, 64, 212
-0.989333, 389, 113, 420, 240
-0.98936, 25, 117, 88, 148
-0.989371, 169, 177, 232, 240
-0.989393, 257, 97, 320, 160
-0.989426, 225, 57, 352, 120
-0.989465, 121, 153, 152, 216
-0.989515, 201, 129, 232, 192
-0.989521, 9, 101, 72, 132
-0.989531, 117, 193, 148, 320
-0.989537, 41, 73, 104, 104
-0.989546, 385, 37, 448, 68
-0.989557, 225, 81, 352, 144
-0.989596, 73, 173, 136, 204
-0.989612, 1, 141, 64, 172
-0.98962, 105, 77, 168, 108
-0.989626, 401, 13, 464, 44
-0.989646, 281, 25, 344, 88
-0.989732, 57, 197, 120, 228
-0.98975, 273, 253, 336, 284
-0.989775, 117, 1, 148, 128
-0.98979, 441, 81, 472, 144
-0.989799, 161, 249, 224, 312
-0.989835, 73, 221, 136, 252
-0.989851, 49, 221, 112, 252
-0.989864, 365, 113, 396, 240
-0.989868, 65, 97, 128, 128
-0.989876, 393, 25, 456, 56
-0.989884, 321, 57, 384, 88
-0.989886, 313, 161, 344, 288
-0.989889, 41, 149, 104, 180
-0.98989, 9, 225, 40, 288
-0.989897, 49, 173, 112, 204
-0.98993, 373, 25, 404, 88
-0.989947, 1, 33, 32, 96
-0.989982, 345, 61, 408, 92
-0.989993, 49, 109, 112, 140
-0.989996, 273, 265, 400, 328
-0.990002, 61, 209, 92, 334
-0.990007, 65, 41, 128, 72
-0.990017, 145, 193, 176, 320
-0.990046, 25, 169, 88, 200
-0.990049, 289, 137, 320, 200
-0.990059, 133, 105, 164, 168
-0.990067, 409, 41, 472, 72
-0.990069, 73, 145, 136, 176
-0.990074, 17, 89, 80, 120
-0.990095, 65, 73, 128, 104
-0.990114, 49, 121, 112, 152
-0.990138, 433, 65, 496, 96
-0.990144, 49, 53, 112, 84
-0.990155, 417, 209, 448, 334
-0.990163, 17, 49, 80, 80
-0.990168, 33, 257, 160, 320
-0.990174, 33, 209, 96, 240
-0.990178, 1, 129, 64, 160
-0.990181, 21, 1, 52, 64
-0.990183, 333, 33, 364, 96
-0.990199, 73, 85, 136, 116
-0.990203, 57, 209, 120, 240
-0.990239, 337, 165, 400, 196
-0.990275, 65, 133, 128, 164
-0.990295, 313, 1, 376, 334
-0.990314, 409, 97, 472, 224
-0.99032, 101, 121, 132, 184
-0.990368, 113, 257, 240, 320
-0.990369, 289, 217, 416, 280
-0.990414, 129, 49, 192, 80
-0.990431, 281, 1, 344, 334
-0.990488, 321, 49, 352, 112
-0.990493, 313, 169, 376, 200
-0.990494, 25, 181, 88, 212
-0.990502, 257, 265, 320, 296
-0.990507, 25, 29, 88, 60
-0.990518, 133, 161, 164, 288
-0.990532, 81, 189, 144, 220
-0.990555, 433, 41, 496, 72
-0.990557, 301, 137, 332, 200
-0.990589, 313, 81, 376, 112
-0.990598, 73, 157, 136, 188
-0.990616, 9, 1, 72, 32
-0.990624, 417, 29, 480, 60
-0.990638, 105, 33, 168, 64
-0.990653, 81, 113, 144, 144
-0.990659, 89, 233, 120, 296
-0.990665, 469, 73, 500, 136
-0.990711, 377, 65, 408, 192
-0.990717, 161, 153, 288, 216
-0.990745, 301, 193, 332, 256
-0.990778, 137, 89, 200, 120
-0.99081, 285, 257, 316, 320
-0.990841, 1, 137, 256, 200
-0.990849, 185, 217, 248, 280
-0.99086, 97, 177, 224, 240
-0.990862, 337, 185, 464, 248
-0.990875, 281, 149, 344, 180
-0.99089, 281, 73, 344, 104
-0.990925, 49, 233, 112, 264
-0.990929, 9, 217, 72, 248
-0.990933, 81, 201, 144, 232
-0.990955, 37, 209, 68, 334
-0.990963, 33, 1, 96, 32
-0.990989, 1, 117, 64, 148
-0.990991, 105, 65, 168, 96
-0.991018, 337, 121, 400, 152
-0.991025, 369, 97, 496, 160
-0.991072, 401, 229, 464, 260
-0.99108, 313, 181, 376, 212
-0.991092, 409, 57, 472, 88
-0.991109, 305, 265, 368, 328
-0.991131, 137, 65, 200, 96
-0.991135, 305, 149, 368, 180
-0.991143, 113, 93, 176, 124
-0.991144, 329, 45, 392, 76
-0.991152, 241, 169, 304, 232
-0.991161, 17, 73, 80, 104
-0.991166, 1, 113, 256, 176
-0.991176, 65, 1, 128, 32
-0.99118, 73, 61, 136, 92
-0.991215, 273, 181, 336, 212
-0.991218, 105, 157, 168, 188
-0.991234, 289, 81, 320, 208
-0.991246, 281, 129, 344, 160
-0.991258, 441, 193, 472, 320
-0.991269, 1, 25, 64, 56
-0.991273, 281, 161, 344, 192
-0.991285, 49, 161, 112, 192
-0.991298, 185, 257, 248, 320
-0.991299, 177, 65, 304, 128
-0.991302, 313, 249, 376, 280
-0.991306, 1, 37, 64, 68
-0.991324, 65, 29, 128, 60
-0.991325, 305, 133, 368, 164
-0.99136, 81, 233, 144, 264
-0.991379, 377, 13, 440, 44
-0.991399, 105, 193, 168, 224
-0.991427, 273, 193, 336, 224
-0.991434, 377, 53, 440, 84
-0.991436, 177, 265, 304, 328
-0.991441, 353, 49, 416, 80
-0.991466, 145, 17, 272, 80
-0.991515, 57, 17, 120, 48
-0.991589, 157, 177, 188, 304
-0.991599, 113, 209, 176, 240
-0.99163, 425, 225, 488, 256
-0.991655, 233, 261, 296, 292
-0.991661, 153, 41, 216, 72
-0.991669, 281, 117, 344, 148
-0.991679, 105, 133, 168, 164
-0.991683, 1, 61, 64, 92
-0.991691, 369, 161, 432, 224
-0.991696, 425, 193, 488, 256
-0.991721, 281, 93, 344, 124
-0.991746, 33, 25, 288, 88
-0.991755, 345, 73, 408, 104
-0.991756, 361, 29, 424, 60
-0.991762, 305, 121, 368, 152
-0.991791, 105, 45, 168, 76
-0.991831, 281, 213, 344, 244
-0.991834, 305, 261, 368, 292
-0.991852, 337, 177, 400, 208
-0.991875, 89, 101, 152, 132
-0.991877, 129, 145, 192, 176
-0.99188, 353, 17, 416, 48
-0.991883, 333, 17, 364, 144
-0.991914, 273, 241, 336, 272
-0.991919, 1, 13, 64, 44
-0.991925, 1, 201, 256, 264
-0.991931, 105, 145, 168, 176
-0.991937, 169, 85, 232, 116
-0.991956, 177, 49, 240, 112
-0.991964, 377, 113, 440, 144
-0.991992, 145, 197, 208, 228
-0.992005, 281, 105, 344, 136
-0.992019, 417, 1, 480, 32
-0.992019, 297, 61, 360, 92
-0.992032, 209, 1, 272, 334
-0.992042, 305, 109, 368, 140
-0.992043, 457, 61, 488, 92
-0.992056, 129, 29, 192, 60
-0.99207, 437, 57, 468, 88
-0.992079, 105, 21, 168, 52
-0.992082, 369, 65, 432, 96
-0.992163, 345, 65, 376, 96
-0.992168, 49, 57, 80, 88
-0.992172, 145, 1, 208, 334
-0.992206, 469, 61, 500, 92
-0.992236, 161, 57, 416, 120
-0.992241, 241, 17, 304, 80
-0.992241, 1, 177, 256, 240
-0.992281, 257, 73, 320, 136
-0.992282, 33, 89, 288, 152
-0.992289, 441, 45, 472, 76
-0.992296, 257, 9, 384, 72
-0.99235, 5, 145, 36, 176
-0.992352, 17, 105, 48, 136
-0.992363, 333, 65, 364, 96
-0.992366, 37, 69, 68, 100
-0.992381, 357, 69, 388, 100
-0.99239, 257, 1, 500, 64
-0.992391, 69, 41, 100, 72
-0.992394, 73, 101, 104, 132
-0.992399, 409, 33, 440, 64
-0.992403, 57, 73, 88, 104
-0.992404, 13, 193, 44, 224
-0.992405, 361, 185, 424, 248
-0.992418, 373, 161, 404, 288
-0.99243, 217, 17, 280, 80
-0.992436, 297, 253, 328, 284
-0.992442, 5, 173, 36, 204
-0.992443, 5, 157, 36, 188
-0.992446, 17, 145, 48, 176
-0.992456, 425, 229, 456, 260
-0.992465, 457, 49, 488, 80
-0.992468, 37, 93, 68, 124
-0.992469, 433, 33, 464, 64
-0.99247, 361, 241, 424, 304
-0.99247, 133, 77, 164, 108
-0.99247, 25, 133, 56, 164
-0.992479, 25, 177, 56, 208
-0.992485, 217, 145, 280, 272
-0.992488, 17, 81, 48, 112
-0.992488, 1, 201, 32, 232
-0.992489, 65, 89, 96, 120
-0.992494, 425, 45, 456, 76
-0.992495, 133, 97, 164, 224
-0.992498, 449, 33, 464, 96
-0.992516, 73, 133, 104, 164
-0.992517, 257, 193, 288, 320
-0.992526, 149, 61, 180, 92
-0.992535, 17, 161, 48, 192
-0.992538, 77, 181, 108, 212
-0.992544, 57, 113, 88, 144
-0.992544, 233, 273, 296, 334
-0.992556, 37, 53, 68, 84
-0.992559, 401, 113, 464, 176
-0.992566, 85, 169, 116, 200
-0.992567, 13, 205, 44, 236
-0.992579, 49, 85, 80, 116
-0.992581, 269, 209, 300, 334
-0.992592, 57, 41, 88, 72
-0.992594, 17, 85, 144, 116
-0.992596, 413, 13, 444, 44
-0.992598, 61, 137, 92, 168
-0.99261, 117, 73, 148, 104
-0.992612, 441, 69, 472, 100
-0.992614, 17, 121, 48, 152
-0.992627, 73, 121, 104, 152
-0.992629, 77, 221, 108, 252
-0.992632, 25, 189, 56, 220
-0.992638, 69, 65, 100, 96
-0.992639, 45, 37, 76, 68
-0.992639, 45, 25, 76, 56
-0.992652, 397, 33, 428, 64
-0.99266, 5, 129, 36, 160
-0.992664, 101, 153, 132, 184
-0.992671, 309, 133, 340, 164
-0.992676, 17, 65, 48, 96
-0.992688, 1, 217, 32, 248
-0.992697, 57, 101, 88, 132
-0.992717, 325, 77, 356, 108
-0.992718, 145, 73, 176, 104
-0.992725, 77, 193, 108, 224
-0.992726, 425, 57, 456, 88
-0.992727, 77, 149, 108, 180
-0.992737, 85, 85, 116, 116
-0.992739, 37, 193, 68, 224
-0.992739, 73, 233, 104, 264
-0.99274, 365, 57, 396, 88
-0.992742, 153, 45, 184, 76
-0.992745, 277, 257, 308, 288
-0.992746, 221, 1, 252, 128
-0.992746, 89, 181, 120, 212
-0.99276, 1, 189, 32, 220
-0.992769, 53, 125, 84, 156
-0.992777, 33, 121, 64, 152
-0.99278, 37, 81, 68, 112
-0.992782, 433, 97, 496, 224
-0.992783, 17, 217, 48, 248
-0.992785, 425, 21, 456, 52
-0.992788, 85, 97, 116, 128
-0.992796, 17, 57, 144, 88
-0.992801, 29, 105, 60, 136
-0.992807, 337, 77, 368, 108
-0.992807, 437, 225, 468, 256
-0.99282, 117, 85, 148, 116
-0.992823, 33, 165, 64, 196
-0.992824, 69, 205, 100, 236
-0.992825, 345, 53, 376, 84
-0.992835, 337, 129, 368, 256
-0.992838, 29, 41, 60, 72
-0.992841, 57, 25, 88, 56
-0.992841, 357, 161, 388, 192
-0.992841, 17, 105, 144, 136
-0.992841, 421, 33, 452, 64
-0.992851, 129, 93, 160, 124
-0.992856, 425, 241, 456, 272
-0.992856, 69, 77, 100, 108
-0.992861, 313, 81, 344, 112
-0.992864, 37, 153, 68, 184
-0.992865, 377, 57, 408, 88
-0.992865, 469, 49, 500, 80
-0.992866, 41, 5, 72, 36
-0.992873, 157, 77, 188, 108
-0.992875, 89, 197, 120, 228
-0.992876, 445, 33, 476, 64
-0.992883, 117, 145, 148, 176
-0.992897, 73, 169, 104, 200
-0.992897, 265, 265, 296, 296
-0.992898, 57, 1, 88, 32
-0.992902, 93, 141, 124, 172
-0.992903, 25, 205, 56, 236
-0.992903, 73, 53, 104, 84
-0.992904, 145, 85, 176, 116
-0.992909, 25, 93, 56, 124
-0.99291, 193, 1, 256, 256
-0.99291, 65, 185, 96, 216
-0.992933, 89, 33, 120, 64
-0.992934, 49, 185, 80, 216
-0.992944, 133, 49, 164, 80
-0.992946, 37, 177, 68, 208
-0.992946, 37, 133, 68, 164
-0.992949, 61, 225, 92, 256
-0.99295, 309, 253, 340, 284
-0.99296, 297, 241, 328, 272
-0.992962, 385, 113, 416, 144
-0.992965, 161, 153, 416, 216
-0.99297, 89, 209, 120, 240
-0.992975, 89, 65, 120, 96
-0.992983, 33, 25, 64, 56
-0.992988, 53, 173, 84, 204
-0.992991, 53, 209, 84, 240
-0.992997, 1, 1, 256, 64
-0.993001, 333, 53, 364, 84
-0.993005, 369, 265, 432, 328
-0.993016, 41, 105, 72, 136
-0.993018, 21, 25, 52, 56
-0.993021, 29, 1, 60, 32
-0.993028, 89, 221, 120, 252
-0.993028, 85, 113, 116, 144
-0.993052, 257, 33, 500, 96
-0.993059, 385, 89, 448, 152
-0.993081, 419, 9, 434, 72
-0.993105, 177, 41, 304, 104
-0.993112, 137, 249, 200, 312
-0.993143, 75, 89, 90, 152
-0.993208, 241, 49, 304, 112
-0.993241, 33, 73, 160, 104
-0.993251, 1, 141, 128, 172
-0.993306, 445, 65, 476, 192
-0.993362, 35, 97, 50, 160
-0.993369, 1, 33, 500, 96
-0.993374, 337, 57, 464, 88
-0.993404, 257, 57, 500, 120
-0.993407, 97, 93, 224, 124
-0.993416, 59, 33, 74, 96
-0.993426, 321, 33, 352, 160
-0.99345, 129, 1, 160, 128
-0.99347, 45, 129, 60, 192
-0.993506, 49, 125, 176, 156
-0.993576, 193, 81, 256, 144
-0.993604, 201, 121, 264, 184
-0.993648, 23, 161, 38, 224
-0.993768, 53, 25, 68, 88
-0.99377, 33, 45, 160, 76
-0.993782, 1, 65, 256, 128
-0.993787, 1, 257, 64, 320
-0.993787, 161, 129, 416, 192
-0.993862, 1, 81, 500, 144
-0.993943, 413, 9, 428, 72
-0.993961, 49, 1, 64, 64
-0.993969, 193, 185, 256, 248
-0.993972, 433, 97, 496, 160
-0.993979, 39, 33, 54, 96
-0.99399, 435, 217, 450, 280
-0.993995, 49, 49, 64, 112
-0.994019, 429, 9, 444, 72
-0.994019, 85, 97, 100, 160
-0.994031, 1, 205, 128, 236
-0.994092, 305, 25, 368, 88
-0.994124, 97, 177, 352, 240
-0.994129, 15, 193, 30, 256
-0.994131, 29, 129, 44, 192
-0.994136, 169, 1, 232, 334
-0.994141, 29, 185, 44, 248
-0.994148, 369, 41, 496, 72
-0.994212, 17, 153, 144, 184
-0.994224, 455, 57, 470, 120
-0.994239, 313, 209, 344, 334
-0.994248, 225, 81, 480, 144
-0.994262, 1, 169, 128, 200
-0.994317, 15, 137, 30, 200
-0.994319, 5, 177, 20, 240
-0.994333, 25, 89, 40, 152
-0.994358, 439, 49, 454, 112
-0.994389, 65, 105, 192, 136
-0.994395, 69, 65, 84, 128
-0.994414, 1, 225, 256, 288
-0.994423, 23, 137, 38, 200
-0.994424, 351, 57, 366, 120
-0.994445, 201, 97, 264, 224
-0.994455, 23, 193, 38, 256
-0.994466, 449, 57, 464, 120
-0.994472, 337, 69, 464, 100
-0.994491, 141, 1, 172, 128
-0.994494, 241, 1, 304, 334
-0.994538, 197, 97, 228, 224
-0.99454, 37, 153, 52, 216
-0.994542, 257, 65, 384, 96
-0.994553, 149, 97, 180, 224
-0.994555, 165, 113, 196, 240
-0.994555, 485, 57, 500, 120
-0.994568, 97, 137, 224, 168
-0.994584, 129, 33, 384, 96
-0.994624, 177, 193, 208, 320
-0.994626, 75, 113, 90, 176
-0.994635, 357, 49, 372, 112
-0.994674, 33, 65, 48, 128
-0.994683, 409, 145, 472, 272
-0.994689, 1, 129, 128, 160
-0.994689, 441, 1, 456, 64
-0.994695, 311, 249, 326, 312
-0.994696, 65, 33, 80, 96
-0.994696, 53, 73, 68, 136
-0.994729, 85, 169, 100, 232
-0.994748, 1, 185, 128, 216
-0.994819, 257, 253, 384, 284
-0.994821, 29, 161, 44, 224
-0.99483, 1, 169, 500, 232
-0.994845, 459, 33, 474, 96
-0.994865, 93, 177, 108, 240
-0.994888, 69, 1, 100, 256
-0.994899, 85, 73, 100, 136
-0.994912, 367, 57, 382, 120
-0.994921, 129, 81, 384, 144
-0.994936, 43, 185, 58, 248
-0.994938, 49, 137, 176, 168
-0.994939, 59, 57, 74, 120
-0.994945, 39, 65, 54, 128
-0.994946, 1, 217, 128, 248
-0.994949, 33, 33, 160, 64
-0.994985, 79, 177, 94, 240
-0.994987, 59, 9, 74, 72
-0.994999, 425, 33, 440, 96
-0.995017, 433, 41, 448, 104
-0.995044, 145, 73, 160, 136
-0.995047, 1, 145, 500, 208
-0.995069, 439, 25, 454, 88
-0.995093, 355, 153, 370, 216
-0.995123, 435, 1, 450, 64
-0.995123, 345, 57, 360, 120
-0.995124, 233, 1, 264, 128
-0.995129, 1, 137, 16, 200
-0.995144, 49, 221, 176, 252
-0.995149, 325, 65, 340, 128
-0.995154, 81, 77, 208, 108
-0.995201, 49, 161, 64, 224
-0.99521, 11, 169, 26, 232
-0.995242, 65, 9, 80, 72
-0.995263, 17, 21, 144, 52
-0.995265, 97, 225, 352, 288
-0.995309, 1, 117, 128, 148
-0.995309, 441, 217, 456, 280
-0.995325, 273, 173, 400, 204
-0.99534, 83, 41, 98, 104
-0.995352, 47, 25, 62, 88
-0.995354, 407, 17, 422, 80
-0.995373, 65, 157, 192, 188
-0.995376, 419, 33, 434, 96
-0.995395, 91, 153, 106, 216
-0.995407, 25, 65, 40, 128
-0.995419, 81, 201, 96, 264
-0.995437, 99, 177, 114, 240
-0.995454, 465, 41, 480, 104
-0.995472, 49, 193, 176, 224
-0.995477, 93, 201, 108, 264
-0.995498, 337, 57, 352, 120
-0.99551, 417, 161, 448, 288
-0.995514, 41, 89, 56, 152
-0.995522, 49, 209, 176, 240
-0.995524, 81, 33, 112, 288
-0.995529, 79, 1, 94, 64
-0.995536, 17, 161, 32, 224
-0.995537, 83, 145, 98, 208
-0.995539, 273, 53, 400, 84
-0.995569, 323, 121, 338, 184
-0.995571, 97, 117, 224, 148
-0.995589, 353, 29, 480, 60
-0.995591, 279, 249, 294, 312
-0.995602, 57, 1, 88, 256
-0.995604, 51, 97, 66, 160
-0.995608, 123, 113, 138, 176
-0.995619, 13, 113, 28, 176
-0.995646, 273, 77, 400, 108
-0.995656, 413, 33, 428, 96
-0.995667, 1, 1, 128, 32
-0.995671, 161, 249, 416, 312
-0.995675, 209, 1, 240, 128
-0.995687, 97, 53, 224, 84
-0.995697, 9, 201, 24, 264
-0.995705, 317, 241, 332, 304
-0.995706, 315, 97, 330, 160
-0.995722, 71, 33, 86, 96
-0.995743, 349, 153, 364, 216
-0.995756, 479, 57, 494, 120
-0.995764, 167, 137, 182, 200
-0.995779, 177, 97, 208, 224
-0.995788, 81, 233, 208, 264
-0.995796, 353, 17, 480, 48
-0.995843, 13, 33, 44, 288
-0.995847, 209, 261, 336, 292
-0.995858, 19, 113, 34, 176
-0.995865, 49, 173, 176, 204
-0.995873, 257, 153, 384, 184
-0.995873, 171, 161, 186, 224
-0.995876, 89, 225, 104, 288
-0.995882, 87, 193, 102, 256
-0.995884, 69, 129, 84, 192
-0.995902, 51, 185, 66, 248
-0.995904, 161, 105, 416, 168
-0.995909, 25, 33, 40, 96
-0.995919, 123, 89, 138, 152
-0.995934, 361, 73, 376, 136
-0.995936, 163, 49, 178, 112
-0.995953, 33, 41, 48, 104
-0.995963, 201, 49, 264, 176
-0.995965, 161, 73, 176, 136
-0.995971, 97, 201, 352, 264
-0.995997, 51, 129, 66, 192
-0.99601, 1, 121, 500, 184
-0.996012, 77, 41, 92, 104
-0.996014, 9, 137, 24, 200
-0.996024, 169, 41, 184, 104
-0.996029, 63, 97, 78, 160
-0.996038, 449, 1, 464, 64
-0.996046, 69, 105, 84, 168
-0.99606, 1, 65, 32, 320
-0.996063, 41, 33, 72, 288
-0.996063, 305, 241, 320, 304
-0.996075, 39, 129, 54, 192
-0.996083, 1, 9, 500, 72
-0.996124, 97, 65, 224, 96
-0.996129, 3, 209, 18, 272
-0.996147, 43, 1, 58, 64
-0.996148, 347, 81, 362, 144
-0.99615, 75, 65, 90, 128
-0.996151, 323, 97, 338, 160
-0.996153, 33, 217, 48, 280
-0.996156, 99, 209, 114, 272
-0.996161, 335, 81, 350, 144
-0.996164, 95, 57, 110, 120
-0.996168, 153, 73, 168, 136
-0.996175, 43, 153, 58, 216
-0.996198, 321, 41, 448, 72
-0.996207, 73, 193, 88, 256
-0.996213, 1, 233, 128, 264
-0.996224, 477, 33, 492, 96
-0.99623, 1, 57, 500, 120
-0.996231, 93, 1, 124, 256
-0.996237, 257, 169, 500, 232
-0.996246, 133, 65, 148, 128
-0.996259, 131, 193, 146, 256
-0.996265, 1, 201, 500, 264
-0.996266, 391, 105, 406, 168
-0.99627, 37, 185, 52, 248
-0.996279, 99, 145, 114, 208
-0.99628, 197, 177, 228, 304
-0.996286, 429, 145, 460, 272
-0.996297, 395, 41, 410, 104
-0.996298, 143, 41, 158, 104
-0.996299, 81, 29, 208, 60
-0.996302, 273, 185, 400, 216
-0.996305, 483, 61, 498, 92
-0.996429, 97, 1, 352, 64
-0.996443, 193, 249, 320, 280
-0.996444, 349, 33, 380, 288
-0.996461, 305, 161, 432, 192
-0.996468, 29, 33, 60, 288
-0.99648, 277, 145, 308, 272
-0.996497, 305, 109, 432, 140
-0.996516, 257, 141, 384, 172
-0.996525, 129, 81, 256, 112
-0.996526, 1, 249, 256, 312
-0.99656, 257, 121, 384, 152
-0.996569, 365, 1, 396, 256
-0.996573, 105, 33, 136, 288
-0.9966, 447, 53, 462, 84
-0.996624, 305, 133, 432, 164
-0.996666, 193, 89, 320, 120
-0.996678, 97, 205, 224, 236
-0.996706, 353, 221, 480, 252
-0.996723, 257, 89, 384, 120
-0.99676, 15, 137, 30, 168
-0.99677, 325, 65, 356, 320
-0.996782, 353, 237, 480, 268
-0.996803, 257, 241, 500, 304
-0.996832, 225, 189, 352, 220
-0.99685, 1, 257, 500, 320
-0.996855, 113, 157, 240, 188
-0.996856, 225, 173, 352, 204
-0.996858, 359, 65, 374, 96
-0.996866, 353, 65, 368, 96
-0.9969, 449, 65, 464, 96
-0.996931, 79, 97, 94, 128
-0.996936, 13, 205, 28, 236
-0.996944, 197, 49, 228, 176
-0.996965, 413, 29, 428, 60
-0.997009, 143, 77, 158, 108
-0.997021, 209, 141, 336, 172
-0.997044, 257, 265, 384, 296
-0.997045, 265, 1, 296, 128
-0.997064, 305, 121, 432, 152
-0.997065, 305, 65, 336, 320
-0.997073, 437, 61, 452, 92
-0.997081, 337, 5, 464, 36
-0.997092, 81, 41, 208, 72
-0.997092, 429, 97, 460, 224
-0.997112, 289, 33, 320, 160
-0.997117, 353, 257, 480, 320
-0.997122, 435, 225, 450, 256
-0.997125, 193, 237, 320, 268
-0.997132, 51, 89, 66, 120
-0.997155, 145, 129, 272, 160
-0.997206, 15, 125, 30, 156
-0.997209, 59, 57, 74, 88
-0.997222, 193, 109, 320, 140
-0.997234, 69, 65, 84, 96
-0.997241, 257, 101, 384, 132
-0.997245, 19, 189, 34, 220
-0.997253, 53, 53, 68, 84
-0.997275, 209, 153, 336, 184
-0.997288, 57, 69, 72, 100
-0.997288, 29, 165, 44, 196
-0.997292, 457, 57, 472, 88
-0.997293, 277, 257, 292, 288
-0.997305, 129, 221, 256, 252
-0.997317, 441, 1, 472, 256
-0.997323, 21, 157, 36, 188
-0.997333, 193, 121, 320, 152
-0.997337, 33, 81, 48, 112
-0.997338, 311, 253, 326, 284
-0.99735, 59, 45, 74, 76
-0.997359, 39, 89, 54, 120
-0.997359, 225, 77, 352, 108
-0.997375, 1, 149, 16, 180
-0.997381, 23, 173, 38, 204
-0.997383, 443, 65, 458, 96
-0.997385, 449, 37, 464, 68
-0.997385, 53, 41, 68, 72
-0.997394, 17, 173, 32, 204
-0.997399, 75, 109, 90, 140
-0.997402, 413, 1, 444, 256
-0.997423, 177, 49, 208, 176
-0.997427, 347, 65, 362, 96
-0.997432, 1, 181, 16, 212
-0.997432, 477, 61, 492, 92
-0.997434, 225, 205, 352, 236
-0.997435, 49, 1, 176, 32
-0.997439, 33, 101, 48, 132
-0.997443, 193, 21, 320, 52
-0.997444, 1, 225, 500, 288
-0.997447, 435, 237, 450, 268
-0.997457, 329, 73, 344, 104
-0.997467, 305, 17, 432, 48
-0.997485, 25, 129, 40, 160
-0.997488, 21, 145, 36, 176
-0.997488, 59, 105, 74, 136
-0.997491, 9, 185, 24, 216
-0.997495, 15, 149, 30, 180
-0.997498, 87, 181, 102, 212
-0.997499, 273, 197, 400, 228
-0.997499, 17, 245, 144, 276
-0.997503, 137, 1, 168, 256
-0.997511, 83, 85, 98, 116
-0.997517, 25, 101, 40, 132
-0.99752, 55, 17, 70, 48
-0.997525, 29, 145, 44, 176
-0.997531, 29, 177, 44, 208
-0.997541, 305, 97, 432, 128
-0.997544, 47, 25, 62, 56
-0.997545, 9, 157, 24, 188
-0.997552, 73, 93, 88, 124
-0.997566, 441, 45, 456, 76
-0.997568, 177, 73, 304, 104
-0.997569, 309, 33, 340, 160
-0.997571, 49, 185, 64, 216
-0.997574, 9, 169, 24, 200
-0.997584, 129, 193, 256, 224
-0.997585, 177, 145, 208, 272
-0.997587, 39, 165, 54, 196
-0.997589, 145, 93, 272, 124
-0.99759, 33, 69, 48, 100
-0.997593, 353, 165, 480, 196
-0.997599, 85, 101, 100, 132
-0.9976, 81, 177, 96, 208
-0.997602, 73, 133, 88, 164
-0.997604, 25, 189, 40, 220
-0.997612, 1, 169, 16, 200
-0.997615, 289, 241, 416, 272
-0.997621, 419, 25, 434, 56
-0.997624, 47, 77, 62, 108
-0.997628, 87, 233, 102, 264
-0.997629, 51, 121, 66, 152
-0.997633, 161, 269, 288, 300
-0.997636, 369, 117, 496, 148
-0.997647, 41, 45, 56, 76
-0.997661, 19, 101, 34, 132
-0.997667, 47, 37, 62, 68
-0.997668, 273, 41, 400, 72
-0.99767, 97, 177, 224, 208
-0.997677, 113, 105, 240, 136
-0.997677, 365, 65, 380, 96
-0.997678, 121, 1, 152, 256
-0.997683, 407, 33, 422, 64
-0.99769, 337, 81, 464, 112
-0.997704, 85, 221, 100, 252
-0.997713, 21, 117, 36, 148
-0.997716, 27, 89, 42, 120
-0.997723, 225, 217, 352, 248
-0.997725, 35, 153, 50, 184
-0.997727, 89, 141, 104, 172
-0.997728, 323, 77, 338, 108
-0.997731, 59, 29, 74, 60
-0.997731, 113, 253, 240, 284
-0.997734, 47, 49, 62, 80
-0.997738, 69, 41, 84, 72
-0.997743, 5, 201, 20, 232
-0.997745, 83, 41, 98, 72
-0.997748, 371, 69, 386, 100
-0.997748, 353, 77, 368, 108
-0.997751, 31, 113, 46, 144
-0.997754, 93, 197, 108, 228
-0.997755, 93, 177, 108, 208
-0.997766, 389, 113, 404, 144
-0.997793, 51, 65, 66, 96
-0.997803, 59, 81, 74, 112
-0.997808, 337, 61, 352, 92
-0.997809, 51, 101, 66, 132
-0.997812, 305, 253, 432, 284
-0.997812, 457, 1, 488, 256
-0.997813, 45, 65, 60, 96
-0.997829, 351, 173, 366, 204
-0.997831, 441, 229, 456, 260
-0.997832, 435, 49, 450, 80
-0.997842, 271, 261, 286, 292
-0.997848, 149, 77, 164, 108
-0.997849, 323, 121, 338, 152
-0.997849, 87, 197, 102, 228
-0.997852, 133, 77, 148, 108
-0.997855, 95, 217, 110, 248
-0.997857, 381, 61, 396, 92
-0.997859, 471, 61, 486, 92
-0.997861, 19, 201, 34, 232
-0.997864, 65, 53, 80, 84
-0.997868, 429, 1, 460, 256
-0.997871, 71, 77, 86, 108
-0.997872, 419, 37, 434, 68
-0.997881, 457, 45, 472, 76
-0.997882, 241, 241, 368, 272
-0.997883, 45, 157, 60, 188
-0.99789, 31, 125, 46, 156
-0.997892, 323, 133, 338, 164
-0.997895, 337, 1, 368, 256
-0.997901, 49, 173, 64, 204
-0.997903, 169, 73, 184, 104
-0.997906, 405, 177, 436, 304
-0.997909, 417, 13, 432, 44
-0.99791, 359, 77, 374, 108
-0.997914, 91, 165, 106, 196
-0.997915, 143, 93, 158, 124
-0.997917, 7, 213, 22, 244
-0.997918, 69, 117, 84, 148
-0.997919, 367, 53, 382, 84
-0.99792, 43, 185, 58, 216
-0.997921, 99, 169, 114, 200
-0.997921, 39, 69, 54, 100
-0.997921, 67, 93, 82, 124
-0.997922, 45, 137, 60, 168
-0.997925, 101, 181, 116, 212
-0.997925, 79, 189, 94, 220
-0.997934, 81, 17, 208, 48
-0.997971, 285, 65, 316, 320
-0.998014, 129, 233, 256, 264
-0.998028, 209, 273, 336, 304
-0.998036, 305, 29, 432, 60
-0.998095, 33, 257, 160, 288
-0.998123, 273, 209, 400, 240
-0.998141, 145, 117, 272, 148
-0.998166, 113, 269, 240, 300
-0.998167, 177, 189, 304, 220
-0.998206, 129, 41, 256, 72
-0.998209, 277, 81, 308, 208
-0.998231, 145, 205, 272, 236
-0.998232, 97, 281, 224, 312
-0.998258, 193, 37, 320, 68
-0.998258, 305, 225, 432, 256
-0.998289, 241, 229, 368, 260
-0.99829, 257, 129, 500, 192
-0.998291, 97, 273, 352, 334
-0.998326, 193, 61, 320, 92
-0.998326, 441, 145, 472, 272
-0.998343, 257, 105, 500, 168
-0.998375, 353, 129, 480, 160
-0.998388, 65, 245, 192, 276
-0.998416, 25, 59, 88, 74
-0.998416, 129, 29, 256, 60
-0.998416, 9, 179, 72, 194
-0.99842, 41, 97, 104, 112
-0.998424, 177, 177, 304, 208
-0.998434, 353, 153, 480, 184
-0.998435, 113, 155, 144, 170
-0.998435, 1, 201, 32, 216
-0.998436, 117, 75, 148, 90
-0.998437, 317, 79, 348, 94
-0.998437, 25, 175, 56, 190
-0.998437, 429, 1, 444, 128
-0.998437, 33, 107, 64, 122
-0.998437, 321, 71, 384, 86
-0.998439, 21, 101, 52, 116
-0.998439, 17, 119, 48, 134
-0.998439, 85, 103, 116, 118
-0.99844, 49, 187, 112, 202
-0.99844, 301, 147, 332, 162
-0.998441, 165, 45, 196, 60
-0.998442, 425, 47, 456, 62
-0.998442, 93, 149, 124, 164
-0.998442, 37, 199, 68, 214
-0.998443, 73, 191, 104, 206
-0.998445, 193, 209, 448, 272
-0.998445, 445, 63, 476, 78
-0.998449, 349, 163, 380, 178
-0.99845, 165, 89, 196, 104
-0.998452, 41, 43, 104, 58
-0.998452, 25, 155, 56, 170
-0.998453, 425, 225, 456, 240
-0.998454, 153, 63, 184, 78
-0.998454, 465, 55, 496, 70
-0.998455, 69, 219, 100, 234
-0.998455, 445, 37, 476, 52
-0.998456, 333, 69, 364, 84
-0.998456, 1, 193, 32, 208
-0.998457, 17, 79, 48, 94
-0.998457, 393, 37, 456, 52
-0.998459, 33, 139, 64, 154
-0.998459, 57, 81, 88, 96
-0.998459, 53, 145, 84, 160
-0.998459, 25, 141, 88, 156
-0.99846, 37, 189, 68, 204
-0.99846, 433, 61, 496, 76
-0.998461, 25, 41, 56, 56
-0.998461, 129, 89, 192, 104
-0.998461, 337, 177, 464, 208
-0.998461, 445, 45, 476, 60
-0.998462, 357, 73, 388, 88
-0.998462, 1, 149, 64, 164
-0.998462, 57, 113, 88, 128
-0.998463, 309, 255, 340, 270
-0.998463, 73, 225, 104, 240
-0.998463, 37, 65, 68, 80
-0.998464, 1, 155, 64, 170
-0.998464, 397, 31, 428, 46
-0.998465, 101, 155, 132, 170
-0.998465, 77, 129, 108, 144
-0.998465, 69, 89, 100, 104
-0.998466, 25, 195, 56, 210
-0.998466, 61, 101, 92, 116
-0.998467, 21, 143, 52, 158
-0.998467, 17, 167, 48, 182
-0.998469, 469, 73, 500, 88
-0.998469, 49, 69, 112, 84
-0.998469, 225, 49, 352, 80
-0.99847, 41, 89, 104, 104
-0.998471, 9, 103, 40, 118
-0.998471, 17, 67, 48, 82
-0.998472, 29, 81, 60, 96
-0.998473, 13, 129, 44, 144
-0.998474, 13, 203, 44, 218
-0.998474, 85, 95, 116, 110
-0.998475, 149, 41, 180, 56
-0.998475, 57, 139, 88, 154
-0.998476, 257, 29, 384, 60
-0.998476, 9, 213, 40, 228
-0.998477, 453, 53, 484, 68
-0.99848, 69, 111, 100, 126
-0.998481, 25, 65, 88, 80
-0.998482, 25, 183, 56, 198
-0.998482, 73, 71, 104, 86
-0.998483, 85, 179, 116, 194
-0.998485, 41, 31, 72, 46
-0.998485, 85, 169, 116, 184
-0.998485, 9, 193, 72, 208
-0.998486, 261, 261, 292, 276
-0.998486, 41, 87, 72, 102
-0.998487, 17, 99, 80, 114
-0.998488, 149, 69, 180, 84
-0.998489, 5, 141, 36, 156
-0.998489, 41, 161, 104, 176
-0.998489, 85, 195, 116, 210
-0.998489, 149, 1, 180, 256
-0.99849, 441, 71, 472, 86
-0.99849, 17, 129, 80, 144
-0.99849, 377, 61, 408, 76
-0.998491, 33, 171, 96, 186
-0.998491, 17, 37, 80, 52
-0.998491, 33, 71, 64, 86
-0.998491, 37, 155, 68, 170
-0.998492, 401, 31, 464, 46
-0.998492, 73, 147, 136, 162
-0.998493, 153, 47, 184, 62
-0.998494, 17, 185, 80, 200
-0.998494, 49, 181, 112, 196
-0.998495, 41, 77, 104, 92
-0.998496, 25, 135, 88, 150
-0.998498, 9, 209, 72, 224
-0.9985, 77, 147, 108, 162
-0.9985, 13, 153, 44, 168
-0.998501, 17, 47, 80, 62
-0.998501, 69, 43, 100, 58
-0.998502, 53, 131, 84, 146
-0.998502, 41, 23, 72, 38
-0.998502, 13, 175, 44, 190
-0.998503, 33, 217, 96, 232
-0.998503, 425, 33, 456, 48
-0.998503, 81, 195, 144, 210
-0.998504, 469, 61, 500, 76
-0.998505, 59, 17, 74, 144
-0.998505, 53, 43, 84, 58
-0.998505, 53, 107, 84, 122
-0.998506, 41, 155, 104, 170
-0.998506, 9, 117, 72, 132
-0.998507, 1, 161, 64, 176
-0.998508, 273, 257, 336, 272
-0.998508, 69, 135, 100, 150
-0.998508, 33, 121, 96, 136
-0.99851, 435, 1, 450, 128
-0.998511, 337, 165, 400, 180
-0.998511, 149, 55, 180, 70
-0.998511, 117, 87, 148, 102
-0.998511, 25, 131, 56, 146
-0.998511, 21, 107, 52, 122
-0.998512, 17, 223, 48, 238
-0.998512, 41, 105, 104, 120
-0.998512, 49, 115, 112, 130
-0.998512, 153, 89, 184, 104
-0.998512, 337, 63, 400, 78
-0.998513, 9, 181, 40, 196
-0.998513, 161, 141, 288, 172
-0.998514, 161, 157, 288, 188
-0.998514, 49, 53, 112, 68
-0.998514, 141, 87, 172, 102
-0.998515, 73, 177, 136, 192
-0.998517, 37, 47, 68, 62
-0.998518, 273, 5, 400, 36
-0.998518, 73, 65, 104, 80
-0.998519, 1, 207, 32, 222
-0.998521, 365, 65, 396, 80
-0.998521, 9, 169, 72, 184
-0.998522, 73, 95, 104, 110
-0.998522, 345, 65, 376, 80
-0.998524, 53, 1, 68, 128
-0.998524, 25, 161, 56, 176
-0.998525, 5, 187, 36, 202
-0.998527, 433, 55, 496, 70
-0.998527, 65, 133, 128, 148
-0.998528, 397, 37, 428, 52
-0.998528, 9, 221, 72, 236
-0.998528, 77, 233, 108, 248
-0.998528, 321, 77, 384, 92
-0.998529, 17, 107, 80, 122
-0.998531, 273, 261, 304, 276
-0.998531, 49, 139, 112, 154
-0.998531, 1, 273, 256, 334
-0.998532, 33, 227, 96, 242
-0.998532, 65, 219, 128, 234
-0.998535, 33, 101, 64, 116
-0.998535, 245, 1, 276, 128
-0.998537, 41, 83, 104, 98
-0.998539, 469, 67, 500, 82
-0.99854, 377, 1, 408, 256
-0.998541, 49, 233, 112, 248
-0.998541, 73, 153, 136, 168
-0.998541, 37, 59, 68, 74
-0.998542, 49, 57, 80, 72
-0.998542, 41, 149, 104, 164
-0.998542, 329, 57, 392, 72
-0.998543, 433, 73, 496, 88
-0.998543, 369, 101, 496, 132
-0.998544, 73, 105, 104, 120
-0.998544, 73, 225, 136, 240
-0.998544, 105, 87, 168, 102
-0.998544, 305, 265, 432, 296
-0.998544, 129, 79, 192, 94
-0.998545, 313, 65, 376, 80
-0.998545, 17, 89, 80, 104
-0.998546, 425, 231, 456, 246
-0.998546, 65, 107, 128, 122
-0.998547, 417, 37, 480, 52
-0.998548, 433, 41, 464, 56
-0.998549, 457, 67, 488, 82
-0.998549, 409, 39, 440, 54
-0.998549, 49, 59, 112, 74
-0.99855, 41, 37, 104, 52
-0.99855, 73, 169, 136, 184
-0.99855, 65, 97, 128, 112
-0.99855, 73, 183, 136, 198
-0.998552, 313, 171, 376, 186
-0.998552, 1, 143, 64, 158
-0.998553, 57, 69, 88, 84
-0.998554, 105, 77, 168, 92
-0.998555, 419, 1, 434, 128
-0.998555, 65, 83, 128, 98
-0.998556, 1, 135, 64, 150
-0.998557, 401, 25, 464, 40
-0.998558, 297, 253, 328, 268
-0.998558, 73, 163, 136, 178
-0.998558, 25, 71, 88, 86
-0.99856, 13, 195, 44, 210
-0.99856, 425, 47, 488, 62
-0.99856, 5, 165, 36, 180
-0.998561, 1, 1, 64, 16
-0.998561, 361, 65, 424, 80
-0.998563, 437, 51, 468, 66
-0.998564, 385, 43, 448, 58
-0.998565, 81, 123, 144, 138
-0.998565, 33, 193, 96, 208
-0.998567, 25, 189, 56, 204
-0.998568, 129, 43, 192, 58
-0.998569, 17, 203, 80, 218
-0.99857, 65, 89, 128, 104
-0.998571, 305, 249, 368, 264
-0.998572, 77, 185, 108, 200
-0.998573, 433, 63, 464, 78
-0.998573, 57, 199, 120, 214
-0.998573, 433, 67, 496, 82
-0.998574, 5, 159, 36, 174
-0.998574, 153, 89, 216, 104
-0.998574, 65, 43, 128, 58
-0.998577, 129, 51, 192, 66
-0.998577, 281, 75, 344, 90
-0.998578, 137, 95, 200, 110
-0.998578, 41, 23, 104, 38
-0.998578, 265, 267, 328, 282
-0.998578, 13, 129, 28, 256
-0.998579, 57, 211, 120, 226
-0.99858, 321, 83, 384, 98
-0.99858, 9, 147, 40, 162
-0.998582, 337, 123, 400, 138
-0.998582, 337, 171, 400, 186
-0.998583, 73, 231, 136, 246
-0.998583, 45, 37, 76, 52
-0.998584, 401, 229, 464, 244
-0.998584, 9, 53, 72, 68
-0.998586, 409, 33, 440, 48
-0.998586, 65, 77, 128, 92
-0.998587, 329, 75, 360, 90
-0.998589, 41, 205, 104, 220
-0.998589, 81, 117, 144, 132
-0.99859, 9, 215, 72, 230
-0.99859, 369, 35, 432, 50
-0.998591, 273, 187, 336, 202
-0.998591, 401, 13, 464, 28
-0.998592, 137, 73, 200, 88
-0.998593, 273, 251, 336, 266
-0.998593, 89, 189, 152, 204
-0.998595, 305, 165, 368, 180
-0.998595, 41, 129, 104, 144
-0.998595, 313, 181, 376, 196
-0.998596, 153, 47, 216, 62
-0.998596, 401, 235, 464, 250
-0.998596, 73, 69, 136, 84
-0.998597, 281, 149, 344, 164
-0.998597, 345, 71, 408, 86
-0.998598, 1, 25, 64, 40
-0.998601, 81, 141, 144, 156
-0.998601, 281, 165, 344, 180
-0.998601, 9, 123, 72, 138
-0.998602, 241, 265, 304, 280
-0.998603, 337, 51, 400, 66
-0.998603, 57, 239, 120, 254
-0.998603, 57, 121, 120, 136
-0.998604, 19, 145, 34, 272
-0.998605, 425, 237, 456, 252
-0.998607, 213, 97, 244, 224
-0.998607, 105, 47, 168, 62
-0.998625, 49, 63, 80, 78
-0.998626, 345, 71, 376, 86
-0.998627, 33, 273, 160, 304
-0.998638, 457, 61, 488, 76
-0.998651, 441, 57, 472, 72
-0.998658, 245, 209, 276, 334
-0.998665, 69, 65, 84, 192
-0.998667, 305, 149, 432, 180
-0.998676, 353, 209, 480, 240
-0.998679, 145, 145, 176, 272
-0.998694, 89, 129, 104, 256
-0.998697, 33, 285, 160, 316
-0.998715, 1, 145, 16, 272
-0.998729, 29, 65, 44, 192
-0.998733, 413, 1, 428, 128
-0.998738, 83, 33, 98, 160
-0.99875, 25, 145, 40, 272
-0.998751, 75, 33, 90, 160
-0.998754, 447, 1, 462, 128
-0.998786, 401, 1, 432, 256
-0.998791, 7, 145, 22, 272
-0.998799, 441, 1, 456, 128
-0.998812, 19, 97, 34, 224
-0.998841, 31, 129, 46, 256
-0.998843, 75, 129, 90, 256
-0.998843, 81, 97, 96, 224
-0.998843, 53, 49, 68, 176
-0.998855, 95, 145, 110, 272
-0.998868, 47, 1, 62, 128
-0.998877, 65, 17, 80, 144
-0.998878, 435, 209, 450, 334
-0.998886, 47, 49, 62, 176
-0.998895, 257, 265, 500, 328
-0.998926, 459, 17, 474, 144
-0.998929, 407, 1, 422, 128
-0.998938, 41, 65, 56, 192
-0.998939, 87, 177, 102, 304
-0.998952, 369, 1, 384, 128
-0.998981, 225, 1, 256, 256
-0.998985, 95, 49, 110, 176
-0.999003, 1, 97, 16, 224
-0.999032, 87, 81, 102, 208
-0.999036, 69, 113, 84, 240
-0.99904, 363, 145, 378, 272
-0.999064, 81, 145, 96, 272
-0.999066, 49, 97, 64, 224
-0.999068, 75, 81, 90, 208
-0.999068, 213, 145, 244, 272
-0.999073, 349, 209, 380, 334
-0.999078, 313, 97, 328, 224
-0.999082, 453, 17, 468, 144
-0.999084, 25, 1, 40, 128
-0.999085, 101, 177, 116, 304
-0.999104, 359, 65, 374, 192
-0.999106, 55, 97, 70, 224
-0.999108, 485, 49, 500, 176
-0.999113, 437, 49, 452, 176
-0.999115, 309, 193, 324, 320
-0.999115, 17, 33, 32, 160
-0.999115, 7, 193, 22, 320
-0.999126, 129, 209, 144, 334
-0.999131, 1, 193, 16, 320
-0.999133, 349, 65, 364, 192
-0.999134, 123, 97, 138, 224
-0.999136, 35, 49, 50, 176
-0.999137, 35, 1, 50, 128
-0.999141, 123, 49, 138, 176
-0.999141, 37, 145, 52, 272
-0.999141, 93, 193, 108, 320
-0.999145, 95, 1, 110, 128
-0.999151, 369, 145, 384, 272
-0.999154, 161, 33, 176, 160
-0.999157, 21, 193, 36, 320
-0.999162, 13, 177, 28, 304
-0.999164, 89, 33, 104, 160
-0.999168, 305, 129, 320, 256
-0.999168, 129, 145, 144, 272
-0.999173, 165, 1, 196, 256
-0.999177, 441, 209, 456, 334
-0.999177, 101, 129, 116, 256
-0.999184, 315, 193, 330, 320
-0.999187, 31, 177, 46, 304
-0.999188, 63, 65, 78, 192
-0.999189, 113, 49, 128, 176
-0.999191, 365, 65, 380, 192
-0.999192, 61, 177, 76, 304
-0.999193, 323, 65, 338, 192
-0.999193, 105, 1, 120, 128
-0.999196, 23, 49, 38, 176
-0.9992, 353, 129, 368, 256
-0.999206, 363, 1, 378, 128
-0.999208, 95, 97, 110, 224
-0.999209, 41, 1, 56, 128
-0.99921, 7, 97, 22, 224
-0.999218, 429, 209, 444, 334
-0.999227, 465, 17, 480, 144
-0.999228, 391, 49, 406, 176
-0.999229, 335, 65, 350, 192
-0.999235, 107, 193, 122, 320
-0.999245, 375, 1, 390, 128
-0.999246, 119, 1, 134, 128
-0.999254, 323, 113, 338, 240
-0.999257, 13, 81, 28, 208
-0.999279, 117, 177, 132, 304
-0.999282, 107, 129, 122, 256
-0.999283, 451, 65, 466, 192
-0.999283, 169, 49, 184, 176
-0.999295, 401, 1, 416, 128
-0.999298, 397, 49, 412, 176
-0.999306, 1, 49, 16, 176
-0.999306, 387, 113, 402, 240
-0.999308, 55, 145, 70, 272
-0.999311, 373, 65, 388, 192
-0.999313, 197, 65, 228, 320
-0.999325, 383, 49, 398, 176
-0.999327, 43, 177, 58, 304
-0.999333, 155, 33, 170, 160
-0.999334, 303, 209, 318, 334
-0.999334, 355, 17, 370, 144
-0.999342, 479, 49, 494, 176
-0.999346, 49, 209, 64, 334
-0.999352, 123, 161, 138, 288
-0.99936, 431, 49, 446, 176
-0.999371, 375, 129, 390, 256
-0.999377, 299, 145, 314, 272
-0.999385, 133, 49, 148, 176
-0.999387, 393, 97, 408, 224
-0.999389, 443, 49, 458, 176
-0.999394, 343, 33, 358, 160
-0.999394, 135, 209, 150, 334
-0.999395, 457, 65, 472, 192
-0.999396, 67, 177, 82, 304
-0.999398, 135, 145, 150, 272
-0.9994, 469, 1, 500, 256
-0.999401, 75, 177, 90, 304
-0.999403, 49, 161, 64, 288
-0.999404, 381, 1, 396, 128
-0.999405, 113, 1, 128, 128
-0.999405, 475, 1, 490, 128
-0.999409, 485, 1, 500, 128
-0.99942, 273, 193, 288, 320
-0.999471, 213, 1, 244, 256
-0.999634, 19, 195, 34, 210
-0.999634, 69, 133, 84, 148
-0.999634, 13, 159, 28, 174
-0.999635, 477, 69, 492, 84
-0.999636, 69, 63, 84, 78
-0.999636, 91, 179, 106, 194
-0.999637, 25, 195, 40, 210
-0.999637, 37, 39, 52, 54
-0.999637, 83, 43, 98, 58
-0.999637, 57, 109, 72, 124
-0.999639, 351, 169, 366, 184
-0.99964, 471, 71, 486, 86
-0.99964, 309, 187, 324, 202
-0.999641, 27, 177, 42, 192
-0.999641, 7, 165, 22, 180
-0.999642, 27, 165, 42, 180
-0.999642, 323, 131, 338, 146
-0.999643, 49, 73, 64, 88
-0.999643, 143, 77, 158, 92
-0.999644, 25, 127, 40, 142
-0.999645, 419, 31, 434, 46
-0.999646, 353, 63, 368, 78
-0.999646, 27, 109, 42, 124
-0.999647, 71, 139, 86, 154
-0.999647, 33, 181, 48, 196
-0.999647, 33, 101, 48, 116
-0.999648, 37, 159, 52, 174
-0.999648, 63, 105, 78, 120
-0.999648, 17, 173, 32, 188
-0.999649, 477, 75, 492, 90
-0.999649, 81, 149, 96, 164
-0.999649, 19, 105, 34, 120
-0.99965, 449, 43, 464, 58
-0.99965, 13, 143, 28, 158
-0.99965, 449, 37, 464, 52
-0.99965, 115, 155, 130, 170
-0.999651, 439, 51, 454, 66
-0.999651, 439, 41, 454, 56
-0.999651, 49, 137, 64, 152
-0.999651, 43, 43, 58, 58
-0.999652, 179, 87, 194, 102
-0.999652, 89, 141, 104, 156
-0.999652, 311, 257, 326, 272
-0.999652, 85, 185, 100, 200
-0.999653, 47, 155, 62, 170
-0.999653, 99, 189, 114, 204
-0.999654, 385, 57, 400, 72
-0.999655, 163, 41, 178, 56
-0.999655, 39, 101, 54, 116
-0.999655, 425, 37, 440, 52
-0.999656, 365, 69, 380, 84
-0.999657, 237, 1, 268, 256
-0.999657, 381, 63, 396, 78
-0.999657, 57, 65, 72, 80
-0.999658, 7, 149, 22, 164
-0.999658, 85, 105, 100, 120
-0.999658, 15, 203, 30, 218
-0.999659, 317, 253, 332, 268
-0.99966, 29, 171, 44, 186
-0.999661, 19, 143, 34, 158
-0.999661, 441, 73, 456, 88
-0.999662, 435, 61, 450, 76
-0.999663, 271, 261, 286, 276
-0.999665, 85, 95, 100, 110
-0.999665, 437, 225, 452, 240
-0.999666, 89, 233, 104, 248
-0.999668, 13, 153, 28, 168
-0.999668, 455, 67, 470, 82
-0.999669, 305, 147, 320, 162
-0.999669, 353, 161, 368, 176
-0.999671, 13, 189, 28, 204
-0.999671, 133, 87, 148, 102
-0.999672, 441, 63, 456, 78
-0.999673, 7, 177, 22, 192
-0.999674, 163, 47, 178, 62
-0.999675, 447, 49, 462, 64
-0.999675, 21, 181, 36, 196
-0.999675, 1, 171, 16, 186
-0.999678, 169, 89, 184, 104
-0.99968, 47, 185, 62, 200
-0.999682, 407, 35, 422, 50
-0.999685, 25, 143, 40, 158
-0.999686, 31, 67, 46, 82
-0.999686, 359, 65, 374, 80
-0.999687, 79, 105, 94, 120
-0.999687, 19, 137, 34, 152
-0.999687, 75, 133, 90, 148
-0.999688, 19, 117, 34, 132
-0.999689, 413, 39, 428, 54
-0.999689, 85, 89, 100, 104
-0.99969, 7, 185, 22, 200
-0.99969, 463, 61, 478, 76
-0.999692, 51, 51, 66, 66
-0.999694, 437, 231, 452, 246
-0.999695, 47, 31, 62, 46
-0.999695, 81, 179, 96, 194
-0.999697, 441, 57, 456, 72
-0.999699, 331, 77, 346, 92
-0.999699, 29, 189, 44, 204
-0.9997, 475, 61, 490, 76
-0.999701, 1, 153, 16, 168
-0.999705, 23, 171, 38, 186
-0.999706, 51, 89, 66, 104
-0.999707, 49, 41, 64, 56
-0.999708, 27, 101, 42, 116
-0.99971, 337, 177, 368, 304
-0.99971, 437, 239, 452, 254
-0.99971, 13, 209, 28, 224
-0.999712, 145, 89, 160, 104
-0.999713, 349, 69, 364, 84
-0.999713, 359, 71, 374, 86
-0.999713, 63, 59, 78, 74
-0.999716, 19, 189, 34, 204
-0.999716, 21, 161, 36, 176
-0.999719, 457, 61, 472, 76
-0.999719, 431, 239, 446, 254
-0.99972, 67, 69, 82, 84
-0.999723, 1, 183, 16, 198
-0.999727, 449, 57, 464, 72
-0.999728, 53, 21, 68, 36
-0.999729, 419, 37, 434, 52
-0.99973, 33, 107, 48, 122
-0.999735, 265, 1, 296, 256
-0.999741, 79, 99, 94, 114
-0.999744, 311, 251, 326, 266
-0.999755, 57, 39, 72, 54
-0.999773, 53, 59, 68, 74
-0.999773, 277, 261, 292, 276
-0.99978, 177, 65, 208, 320
-0.999785, 449, 69, 464, 84
-0.999804, 485, 63, 500, 78
-0.999805, 413, 33, 428, 48
-0.999812, 483, 69, 498, 84
-0.999813, 447, 63, 462, 78
-0.999839, 389, 1, 420, 256
-0.999921, 249, 1, 280, 256
-0.999944, 193, 1, 224, 128
-1.00025, 209, 49, 240, 176
-1.00051, 325, 177, 356, 304
-1.00075, 469, 81, 500, 208
-1.0008, 265, 129, 296, 256
-1.00081, 233, 209, 264, 334
-1.00113, 221, 209, 252, 334
-1.0012, 177, 1, 208, 128
-1.00122, 401, 97, 432, 224
-1.00129, 345, 209, 408, 334
-1.00281, 225, 97, 288, 224
-1.00599, 225, 49, 288, 176
