1827
-0.159452, 1, 1, 500, 295
-0.341769, 1, 33, 500, 288
-0.40055, 33, 1, 288, 295
-0.493877, 225, 1, 480, 295
-0.597689, 33, 33, 288, 288
-0.632021, 225, 33, 480, 288
-0.673943, 129, 1, 384, 295
-0.765105, 129, 33, 384, 288
-0.831064, 49, 1, 176, 295
-0.83151, 49, 1, 176, 256
-0.846008, 337, 1, 464, 295
-0.854957, 1, 33, 500, 160
-0.86027, 97, 1, 224, 256
-0.874476, 97, 1, 224, 295
-0.874725, 337, 1, 464, 256
-0.876148, 289, 1, 416, 295
-0.880107, 225, 33, 352, 288
-0.88061, 145, 33, 272, 288
-0.884103, 161, 1, 288, 295
-0.89488, 1, 81, 500, 208
-0.895713, 289, 33, 416, 288
-0.902422, 1, 49, 256, 176
-0.906649, 1, 33, 128, 288
-0.906694, 1, 145, 500, 272
-0.911423, 257, 33, 500, 160
-0.911883, 1, 1, 128, 295
-0.912486, 241, 1, 368, 295
-0.924874, 257, 81, 500, 208
-0.926688, 161, 81, 416, 208
-0.930672, 129, 1, 384, 128
-0.931581, 321, 33, 448, 160
-0.932823, 161, 1, 224, 128
-0.93289, 65, 17, 192, 144
-0.933519, 33, 1, 288, 128
-0.933523, 385, 33, 448, 160
-0.934503, 321, 33, 384, 160
-0.93479, 129, 17, 192, 144
-0.935024, 33, 113, 288, 240
-0.937384, 401, 81, 464, 208
-0.94129, 225, 49, 352, 176
-0.943, 145, 1, 272, 128
-0.943425, 289, 65, 352, 192
-0.94419, 33, 161, 288, 288
-0.945522, 369, 97, 496, 224
-0.946019, 73, 17, 136, 144
-0.946423, 145, 49, 272, 176
-0.946528, 273, 33, 400, 160
-0.946661, 121, 17, 184, 80
-0.94697, 33, 161, 160, 288
-0.947029, 425, 81, 488, 208
-0.947225, 265, 65, 328, 192
-0.948371, 233, 57, 296, 120
-0.94905, 225, 49, 288, 176
-0.950389, 361, 17, 424, 144
-0.950608, 49, 1, 112, 128
-0.951103, 409, 105, 472, 168
-0.952409, 105, 17, 168, 144
-0.952796, 177, 49, 240, 176
-0.953148, 57, 145, 120, 272
-0.954525, 185, 1, 248, 128
-0.954798, 433, 105, 496, 168
-0.955082, 377, 97, 440, 224
-0.956374, 25, 81, 88, 208
-0.956686, 153, 1, 216, 64
-0.957018, 33, 145, 96, 272
-0.957441, 153, 49, 216, 176
-0.957836, 401, 81, 464, 144
-0.958078, 209, 57, 272, 120
-0.958269, 209, 97, 336, 224
-0.958539, 17, 49, 144, 176
-0.959117, 433, 129, 496, 192
-0.959153, 265, 73, 328, 136
-0.960176, 193, 1, 320, 128
-0.96052, 289, 73, 352, 136
-0.96092, 313, 49, 376, 112
-0.961062, 41, 161, 104, 224
-0.961171, 81, 161, 144, 288
-0.961442, 73, 41, 136, 104
-0.961488, 385, 113, 448, 176
-0.961693, 97, 185, 160, 248
-0.962142, 129, 129, 256, 256
-0.962255, 65, 177, 128, 240
-0.962307, 409, 33, 472, 160
-0.962474, 377, 33, 440, 96
-0.962618, 49, 113, 176, 240
-0.962653, 273, 81, 400, 208
-0.963284, 1, 1, 128, 128
-0.963875, 233, 81, 296, 144
-0.964567, 49, 49, 112, 176
-0.964779, 25, 1, 88, 128
-0.965039, 369, 33, 496, 160
-0.965922, 97, 41, 160, 104
-0.966163, 273, 17, 336, 144
-0.966585, 321, 97, 448, 224
-0.96676, 65, 97, 128, 224
-0.966772, 73, 17, 136, 80
-0.966843, 145, 49, 208, 112
-0.967086, 161, 25, 224, 88
-0.967632, 233, 97, 296, 224
-0.9684, 25, 49, 88, 112
-0.968627, 225, 65, 352, 128
-0.969368, 201, 81, 264, 208
-0.970092, 97, 17, 160, 80
-0.970127, 321, 33, 352, 160
-0.970169, 169, 1, 200, 128
-0.970271, 425, 81, 488, 144
-0.970334, 49, 57, 112, 120
-0.971174, 257, 57, 288, 120
-0.971248, 169, 57, 232, 120
-0.971252, 361, 113, 424, 176
-0.971449, 137, 81, 200, 144
-0.971691, 1, 113, 128, 240
-0.97178, 193, 1, 224, 128
-0.971815, 65, 41, 192, 104
-0.971824, 369, 1, 432, 256
-0.971928, 65, 153, 128, 216
-0.971981, 121, 41, 184, 104
-0.972217, 141, 17, 172, 80
-0.972253, 321, 81, 384, 208
-0.9723, 33, 177, 160, 240
-0.972355, 225, 129, 480, 256
-0.972471, 289, 49, 352, 112
-0.972732, 113, 1, 176, 256
-0.97275, 353, 97, 416, 224
-0.972894, 57, 201, 120, 264
-0.972949, 297, 17, 360, 144
-0.97297, 337, 49, 400, 112
-0.973043, 65, 153, 96, 216
-0.973105, 137, 1, 200, 256
-0.973109, 49, 17, 112, 80
-0.973159, 105, 113, 168, 240
-0.973274, 57, 33, 120, 288
-0.973326, 129, 145, 384, 272
-0.973457, 265, 41, 328, 104
-0.973562, 149, 17, 180, 144
-0.973693, 385, 25, 416, 88
-0.97378, 329, 89, 392, 152
-0.973851, 201, 145, 264, 272
-0.974061, 269, 81, 300, 144
-0.974111, 33, 185, 96, 248
-0.974144, 325, 49, 356, 112
-0.974191, 425, 49, 456, 176
-0.974294, 201, 161, 264, 224
-0.974347, 33, 81, 96, 144
-0.97455, 177, 65, 304, 128
-0.974582, 353, 25, 416, 88
-0.974821, 457, 105, 488, 168
-0.974831, 129, 65, 192, 192
-0.974836, 129, 1, 160, 128
-0.974843, 1, 49, 64, 176
-0.974877, 369, 89, 496, 152
-0.975039, 429, 97, 460, 160
-0.975039, 105, 161, 168, 288
-0.975137, 337, 41, 464, 104
-0.975233, 377, 89, 440, 152
-0.975364, 241, 57, 272, 120
-0.975457, 393, 137, 456, 200
-0.97554, 185, 9, 248, 72
-0.975637, 321, 33, 384, 288
-0.975644, 177, 81, 240, 144
-0.976294, 193, 145, 320, 272
-0.976312, 25, 137, 88, 200
-0.976458, 97, 81, 224, 208
-0.976532, 9, 129, 72, 256
-0.976539, 385, 17, 416, 144
-0.976759, 129, 17, 160, 80
-0.976782, 369, 161, 432, 224
-0.976819, 225, 33, 288, 288
-0.976829, 129, 105, 192, 168
-0.976951, 289, 49, 416, 112
-0.977005, 173, 1, 204, 64
-0.977074, 81, 1, 144, 256
-0.977089, 433, 129, 496, 256
-0.977129, 353, 89, 416, 152
-0.97733, 273, 73, 400, 136
-0.977535, 65, 145, 96, 272
-0.977543, 393, 33, 456, 288
-0.977561, 193, 33, 256, 96
-0.97761, 337, 161, 464, 288
-0.977821, 1, 65, 64, 128
-0.977937, 113, 25, 240, 88
-0.977956, 161, 1, 192, 64
-0.977957, 401, 49, 464, 112
-0.978058, 369, 113, 496, 176
-0.978061, 85, 1, 116, 128
-0.978274, 101, 41, 132, 104
-0.978352, 393, 1, 456, 295
-0.978386, 73, 1, 136, 295
-0.978399, 209, 81, 272, 144
-0.978445, 309, 65, 340, 192
-0.978544, 265, 49, 296, 176
-0.978588, 97, 209, 160, 272
-0.978591, 321, 113, 448, 176
-0.978626, 445, 105, 476, 168
-0.978683, 169, 1, 232, 256
-0.978868, 409, 33, 440, 160
-0.979031, 181, 1, 212, 128
-0.979063, 333, 33, 364, 160
-0.979094, 85, 49, 116, 112
-0.979144, 109, 17, 140, 80
-0.97917, 105, 65, 168, 192
-0.979269, 49, 153, 176, 216
-0.979289, 313, 57, 344, 120
-0.97946, 137, 177, 200, 240
-0.979482, 301, 81, 332, 144
-0.979518, 321, 153, 384, 216
-0.979632, 369, 137, 432, 200
-0.979693, 61, 177, 92, 240
-0.979717, 265, 97, 328, 160
-0.979733, 125, 185, 156, 248
-0.979799, 65, 201, 192, 264
-0.979815, 1, 57, 128, 120
-0.979881, 453, 97, 484, 224
-0.979919, 129, 49, 256, 112
-0.980068, 469, 113, 500, 176
-0.980131, 177, 161, 240, 224
-0.980176, 357, 33, 388, 160
-0.980197, 257, 81, 288, 144
-0.980217, 153, 129, 216, 192
-0.980221, 417, 41, 448, 104
-0.980319, 49, 65, 176, 128
-0.980382, 129, 89, 256, 152
-0.980431, 289, 97, 352, 160
-0.980481, 137, 113, 200, 240
-0.98059, 401, 113, 432, 176
-0.980671, 97, 161, 160, 224
-0.980711, 129, 169, 256, 232
-0.980738, 117, 17, 148, 144
-0.980775, 33, 233, 160, 295
-0.980794, 269, 57, 300, 120
-0.98081, 225, 1, 288, 128
-0.980827, 73, 65, 136, 128
-0.98083, 77, 161, 108, 224
-0.980855, 165, 25, 196, 88
-0.980873, 65, 17, 192, 80
-0.980991, 105, 105, 168, 168
-0.980995, 297, 65, 328, 192
-0.981116, 49, 153, 80, 216
-0.981148, 213, 1, 244, 128
-0.981203, 289, 73, 320, 136
-0.981268, 233, 49, 264, 176
-0.981291, 337, 185, 400, 248
-0.981358, 353, 1, 416, 295
-0.981375, 321, 89, 448, 152
-0.981471, 73, 1, 104, 128
-0.981504, 97, 1, 160, 295
-0.98151, 97, 33, 128, 160
-0.981574, 281, 33, 344, 288
-0.981574, 17, 161, 80, 224
-0.981624, 317, 81, 348, 144
-0.981653, 189, 17, 220, 80
-0.981691, 109, 185, 140, 248
-0.981791, 129, 1, 192, 295
-0.981844, 345, 1, 408, 256
-0.981903, 417, 33, 480, 288
-0.981929, 229, 73, 260, 136
-0.982016, 337, 113, 400, 176
-0.982034, 81, 161, 208, 288
-0.982097, 153, 25, 184, 88
-0.982217, 437, 65, 468, 192
-0.982217, 217, 65, 248, 128
-0.982293, 189, 49, 220, 176
-0.982299, 429, 73, 460, 136
-0.98239, 465, 97, 496, 224
-0.982402, 373, 17, 404, 144
-0.982428, 341, 49, 372, 112
-0.982502, 41, 225, 104, 288
-0.982533, 297, 121, 360, 184
-0.982584, 65, 49, 96, 176
-0.982645, 257, 33, 320, 288
-0.982718, 249, 17, 312, 144
-0.982743, 73, 57, 104, 120
-0.982797, 297, 113, 360, 240
-0.982824, 417, 113, 448, 176
-0.982826, 33, 33, 96, 288
-0.982899, 337, 65, 464, 128
-0.982923, 17, 201, 144, 264
-0.982959, 281, 81, 312, 208
-0.98296, 53, 65, 84, 192
-0.982994, 209, 89, 336, 152
-0.98304, 361, 145, 424, 272
-0.983148, 145, 1, 272, 64
-0.983171, 409, 129, 472, 256
-0.9832, 225, 41, 352, 104
-0.98323, 169, 65, 200, 192
-0.983355, 73, 233, 136, 295
-0.983371, 177, 97, 240, 224
-0.983456, 97, 161, 128, 288
-0.983514, 397, 33, 428, 160
-0.983516, 345, 153, 408, 216
-0.983562, 97, 81, 160, 144
-0.983589, 345, 33, 376, 160
-0.983593, 97, 177, 128, 240
-0.983662, 61, 65, 92, 128
-0.983785, 85, 185, 116, 248
-0.983822, 417, 153, 480, 216
-0.983882, 289, 161, 416, 288
-0.984011, 109, 161, 140, 288
-0.984023, 25, 1, 88, 64
-0.984028, 197, 65, 228, 128
-0.984144, 161, 49, 192, 112
-0.984697, 177, 49, 208, 112
-0.984773, 1, 153, 128, 216
-0.984818, 357, 177, 388, 240
-0.984881, 209, 81, 240, 208
-0.984953, 433, 33, 496, 160
-0.984982, 41, 1, 104, 295
-0.985184, 389, 113, 420, 176
-0.985187, 253, 49, 284, 176
-0.985188, 425, 49, 488, 112
-0.985191, 137, 153, 200, 216
-0.985242, 149, 49, 180, 112
-0.98534, 337, 137, 464, 200
-0.985411, 273, 97, 400, 160
-0.985495, 193, 1, 256, 256
-0.985496, 177, 1, 240, 295
-0.985497, 113, 145, 240, 208
-0.985544, 329, 17, 392, 80
-0.985594, 5, 49, 36, 112
-0.985604, 45, 1, 76, 128
-0.985711, 121, 201, 184, 264
-0.985747, 49, 121, 176, 184
-0.985817, 97, 1, 128, 64
-0.985859, 65, 121, 128, 184
-0.985869, 221, 49, 252, 176
-0.98587, 113, 193, 240, 256
-0.985872, 329, 81, 360, 144
-0.985986, 201, 137, 264, 200
-0.986034, 145, 81, 176, 144
-0.986042, 405, 97, 436, 224
-0.986057, 209, 1, 240, 64
-0.986116, 417, 89, 448, 152
-0.986162, 409, 225, 472, 288
-0.986166, 201, 25, 232, 88
-0.986206, 365, 97, 396, 224
-0.986217, 353, 169, 480, 232
-0.986263, 177, 41, 304, 104
-0.986264, 353, 49, 384, 112
-0.986332, 405, 41, 436, 104
-0.986334, 289, 1, 352, 295
-0.986376, 113, 41, 144, 104
-0.986405, 433, 129, 464, 192
-0.986409, 177, 121, 240, 184
-0.986511, 273, 161, 400, 224
-0.986561, 41, 105, 104, 168
-0.986611, 301, 57, 332, 120
-0.986629, 369, 233, 496, 295
-0.986642, 53, 145, 84, 272
-0.986742, 77, 49, 108, 176
-0.986808, 313, 1, 376, 295
-0.986861, 233, 153, 296, 216
-0.986871, 409, 137, 440, 200
-0.986898, 85, 25, 116, 88
-0.986977, 225, 33, 288, 96
-0.98708, 377, 97, 408, 224
-0.987089, 153, 1, 216, 295
-0.987111, 393, 9, 456, 72
-0.987242, 245, 81, 276, 144
-0.987284, 1, 41, 64, 104
-0.987285, 365, 49, 396, 112
-0.987332, 73, 97, 104, 224
-0.987391, 277, 33, 308, 160
-0.987391, 17, 1, 144, 64
-0.987418, 393, 161, 456, 224
-0.987441, 373, 89, 404, 152
-0.987484, 129, 161, 192, 288
-0.987529, 9, 225, 72, 288
-0.987605, 377, 65, 440, 128
-0.987776, 209, 9, 272, 72
-0.987785, 309, 17, 340, 144
-0.987832, 1, 137, 64, 200
-0.987835, 221, 97, 252, 224
-0.987865, 433, 121, 496, 152
-0.987874, 465, 137, 496, 200
-0.987961, 177, 161, 304, 224
-0.988015, 445, 129, 476, 192
-0.988039, 65, 89, 128, 152
-0.988042, 437, 113, 468, 240
-0.988093, 85, 145, 116, 272
-0.988119, 17, 105, 80, 168
-0.988128, 241, 145, 368, 272
-0.988146, 61, 1, 92, 128
-0.98819, 49, 57, 80, 120
-0.988243, 425, 25, 488, 88
-0.988269, 81, 1, 112, 64
-0.988295, 209, 153, 240, 216
-0.988346, 417, 1, 480, 295
-0.988457, 33, 89, 160, 152
-0.988535, 109, 209, 140, 272
-0.988536, 113, 25, 176, 56
-0.988639, 361, 185, 424, 248
-0.988668, 133, 105, 164, 168
-0.988689, 321, 81, 352, 208
-0.988717, 369, 153, 400, 216
-0.988777, 241, 97, 272, 224
-0.988779, 121, 161, 152, 288
-0.988794, 233, 61, 296, 92
-0.988802, 285, 97, 316, 160
-0.988802, 129, 209, 160, 272
-0.988843, 297, 145, 360, 208
-0.988849, 393, 117, 456, 148
-0.988877, 97, 201, 128, 264
-0.988878, 441, 81, 472, 144
-0.988931, 433, 109, 496, 140
-0.988988, 233, 105, 296, 168
-0.989005, 145, 9, 208, 40
-0.98903, 177, 161, 240, 288
-0.989035, 305, 185, 432, 248
-0.989061, 273, 81, 336, 112
-0.989076, 201, 1, 264, 295
-0.989112, 313, 53, 376, 84
-0.989125, 121, 41, 184, 72
-0.989166, 249, 85, 312, 116
-0.989183, 357, 153, 388, 216
-0.989208, 305, 17, 432, 80
-0.989295, 377, 33, 440, 64
-0.989308, 297, 89, 360, 120
-0.989368, 433, 225, 496, 288
-0.989401, 61, 41, 92, 104
-0.989401, 49, 185, 80, 248
-0.989411, 361, 233, 424, 295
-0.989432, 17, 1, 80, 295
-0.989578, 61, 129, 92, 192
-0.989613, 273, 65, 336, 96
-0.989636, 1, 57, 256, 120
-0.989647, 209, 137, 336, 200
-0.989662, 97, 189, 160, 220
-0.989713, 425, 97, 456, 224
-0.989722, 89, 49, 152, 80
-0.989753, 177, 25, 208, 88
-0.989866, 121, 13, 184, 44
-0.989867, 369, 145, 400, 272
-0.989893, 1, 25, 500, 88
-0.989928, 297, 69, 360, 100
-0.989942, 169, 5, 232, 36
-0.989957, 33, 157, 96, 188
-0.989989, 73, 193, 104, 256
-0.989992, 129, 121, 256, 184
-0.989993, 393, 49, 456, 80
-0.990009, 73, 185, 136, 216
-0.990023, 129, 41, 160, 104
-0.990035, 25, 61, 88, 92
-0.990084, 65, 25, 320, 88
-0.990172, 401, 105, 464, 136
-0.990181, 189, 41, 220, 104
-0.990185, 433, 177, 496, 240
-0.990194, 1, 25, 128, 88
-0.990216, 153, 21, 216, 52
-0.990222, 13, 49, 44, 176
-0.990226, 1, 121, 128, 184
-0.990238, 221, 161, 252, 224
-0.990264, 389, 81, 420, 208
-0.990266, 57, 53, 120, 84
-0.990281, 385, 89, 416, 152
-0.990314, 81, 29, 144, 60
-0.990319, 369, 45, 432, 76
-0.990345, 1, 185, 64, 248
-0.990352, 365, 113, 396, 176
-0.990375, 97, 233, 224, 295
-0.990377, 41, 81, 72, 208
-0.990409, 225, 85, 288, 116
-0.990413, 1, 33, 64, 288
-0.990421, 425, 133, 488, 164
-0.990439, 369, 121, 432, 152
-0.990471, 1, 49, 500, 112
-0.9905, 33, 173, 96, 204
-0.990512, 337, 97, 400, 128
-0.990571, 257, 73, 500, 136
-0.990575, 57, 173, 120, 204
-0.990579, 265, 113, 328, 240
-0.990589, 453, 49, 484, 176
-0.99063, 377, 105, 440, 136
-0.990641, 41, 1, 104, 32
-0.990665, 233, 73, 296, 104
-0.990678, 121, 1, 184, 32
-0.990682, 393, 129, 456, 160
-0.990705, 201, 77, 264, 108
-0.99072, 353, 33, 416, 64
-0.99074, 329, 85, 392, 116
-0.990759, 329, 181, 392, 212
-0.990759, 209, 129, 240, 256
-0.990773, 201, 65, 264, 96
-0.990774, 113, 233, 144, 295
-0.990791, 257, 97, 288, 224
-0.990796, 1, 81, 500, 144
-0.990801, 353, 181, 416, 212
-0.990834, 137, 53, 200, 84
-0.990841, 81, 17, 144, 48
-0.990877, 273, 93, 336, 124
-0.99088, 405, 89, 436, 152
-0.990905, 149, 169, 180, 232
-0.99094, 157, 65, 188, 192
-0.990953, 329, 161, 392, 288
-0.990967, 377, 81, 440, 112
-0.990993, 417, 93, 480, 124
-0.991009, 57, 161, 120, 192
-0.991036, 401, 81, 464, 112
-0.991057, 73, 205, 136, 236
-0.991109, 65, 69, 128, 100
-0.99112, 49, 129, 80, 192
-0.991152, 161, 65, 224, 96
-0.991181, 25, 57, 56, 120
-0.991183, 189, 153, 220, 216
-0.991201, 201, 169, 264, 200
-0.991211, 245, 33, 276, 96
-0.991217, 417, 265, 480, 295
-0.99123, 185, 17, 248, 48
-0.991242, 105, 233, 168, 295
-0.991248, 273, 145, 336, 208
-0.991275, 1, 65, 64, 96
-0.991275, 57, 37, 120, 68
-0.991309, 41, 189, 104, 220
-0.991311, 81, 1, 144, 32
-0.991314, 225, 49, 480, 112
-0.991323, 393, 141, 456, 172
-0.991328, 209, 113, 336, 176
-0.991346, 377, 93, 440, 124
-0.991366, 257, 185, 320, 248
-0.991371, 113, 137, 176, 200
-0.99138, 361, 89, 392, 152
-0.991393, 153, 37, 216, 68
-0.991412, 393, 157, 456, 188
-0.99143, 233, 161, 296, 192
-0.991456, 37, 57, 68, 120
-0.991481, 25, 73, 88, 104
-0.991482, 29, 81, 60, 208
-0.991515, 229, 145, 260, 272
-0.991561, 1, 49, 64, 80
-0.991571, 137, 185, 168, 248
-0.991602, 353, 109, 416, 140
-0.991603, 329, 37, 392, 68
-0.991607, 417, 233, 448, 295
-0.991629, 393, 69, 456, 100
-0.991643, 97, 201, 160, 232
-0.991647, 17, 141, 80, 172
-0.991655, 345, 153, 376, 216
-0.991671, 193, 153, 256, 184
-0.991672, 33, 49, 96, 80
-0.991676, 241, 145, 304, 272
-0.991677, 49, 81, 112, 112
-0.991679, 337, 49, 400, 80
-0.991679, 297, 101, 360, 132
-0.991682, 417, 157, 480, 188
-0.991683, 169, 129, 200, 192
-0.991684, 177, 77, 240, 108
-0.991694, 281, 49, 312, 112
-0.99171, 129, 57, 384, 120
-0.991747, 385, 29, 416, 60
-0.991762, 49, 201, 112, 232
-0.991765, 137, 133, 200, 164
-0.991797, 241, 1, 304, 295
-0.991799, 249, 97, 312, 128
-0.991819, 213, 89, 244, 152
-0.991852, 201, 185, 264, 248
-0.991859, 137, 85, 200, 116
-0.991871, 425, 145, 488, 176
-0.991871, 273, 53, 336, 84
-0.991883, 33, 153, 288, 216
-0.99197, 17, 1, 80, 32
-0.991997, 129, 109, 192, 140
-0.992002, 321, 73, 384, 104
-0.992027, 369, 133, 432, 164
-0.992088, 153, 161, 216, 192
-0.992112, 193, 1, 256, 32
-0.992131, 457, 109, 488, 140
-0.992159, 177, 165, 240, 196
-0.992172, 137, 197, 200, 228
-0.992178, 193, 53, 256, 84
-0.992196, 341, 73, 372, 136
-0.992202, 97, 89, 160, 120
-0.992207, 449, 121, 480, 152
-0.992212, 425, 57, 488, 88
-0.992219, 61, 153, 92, 184
-0.992226, 417, 69, 480, 100
-0.99223, 453, 81, 484, 144
-0.992234, 25, 85, 88, 116
-0.992242, 41, 213, 104, 244
-0.992247, 337, 193, 400, 224
-0.992256, 97, 233, 128, 295
-0.992257, 105, 69, 168, 100
-0.992259, 321, 53, 352, 84
-0.992267, 369, 245, 432, 276
-0.992276, 369, 169, 432, 200
-0.992285, 393, 169, 456, 200
-0.992296, 433, 225, 496, 256
-0.992309, 433, 253, 496, 284
-0.992313, 57, 93, 120, 124
-0.992318, 201, 89, 264, 120
-0.992322, 61, 201, 92, 264
-0.992348, 301, 69, 332, 100
-0.99235, 265, 85, 296, 116
-0.992357, 265, 1, 328, 295
-0.99236, 241, 197, 304, 228
-0.99236, 373, 25, 404, 88
-0.992365, 321, 109, 384, 140
-0.992366, 1, 77, 64, 108
-0.992372, 5, 73, 36, 136
-0.992386, 105, 109, 168, 140
-0.992389, 137, 185, 200, 216
-0.992398, 465, 125, 496, 156
-0.992401, 57, 13, 120, 44
-0.992408, 357, 181, 388, 212
-0.992436, 233, 149, 296, 180
-0.992437, 25, 265, 88, 295
-0.992438, 437, 117, 468, 148
-0.992439, 369, 261, 432, 292
-0.99244, 377, 181, 440, 212
-0.992445, 269, 57, 284, 120
-0.992455, 137, 121, 200, 152
-0.992456, 33, 101, 96, 132
-0.992466, 9, 253, 72, 284
-0.992483, 109, 33, 140, 64
-0.992484, 177, 89, 240, 120
-0.992491, 145, 149, 208, 180
-0.992492, 425, 125, 456, 156
-0.992501, 113, 53, 176, 84
-0.99251, 369, 145, 432, 176
-0.99251, 297, 17, 328, 144
-0.992513, 273, 105, 336, 136
-0.992519, 129, 161, 160, 224
-0.992525, 25, 125, 88, 156
-0.992535, 285, 89, 316, 120
-0.99254, 61, 1, 92, 64
-0.992543, 129, 25, 160, 56
-0.992543, 433, 101, 464, 132
-0.992549, 89, 49, 120, 80
-0.992553, 41, 145, 104, 176
-0.992566, 425, 45, 488, 76
-0.992567, 425, 113, 456, 144
-0.992591, 361, 93, 392, 124
-0.992591, 305, 81, 336, 112
-0.992601, 405, 117, 436, 148
-0.992625, 357, 161, 388, 288
-0.992626, 161, 29, 192, 60
-0.992643, 281, 77, 312, 108
-0.992645, 133, 81, 164, 208
-0.992668, 241, 57, 272, 88
-0.992674, 429, 49, 460, 112
-0.992678, 129, 189, 160, 220
-0.992682, 101, 45, 132, 76
-0.992703, 417, 45, 448, 76
-0.99271, 61, 173, 92, 204
-0.992715, 145, 25, 176, 56
-0.992718, 425, 77, 456, 108
-0.992729, 257, 121, 384, 184
-0.99273, 113, 45, 144, 76
-0.992731, 257, 65, 288, 96
-0.992734, 129, 73, 160, 136
-0.992761, 77, 185, 108, 216
-0.992762, 325, 89, 356, 120
-0.992782, 173, 81, 204, 144
-0.992787, 321, 73, 352, 104
-0.992796, 77, 57, 108, 88
-0.9928, 161, 17, 192, 48
-0.992811, 25, 25, 88, 88
-0.992813, 309, 57, 340, 88
-0.992829, 225, 65, 352, 96
-0.992847, 381, 113, 412, 144
-0.992849, 69, 145, 84, 208
-0.992851, 409, 17, 440, 80
-0.992852, 289, 233, 352, 295
-0.992858, 433, 137, 464, 168
-0.992862, 173, 13, 204, 44
-0.992863, 61, 69, 92, 100
-0.992881, 105, 189, 136, 220
-0.99289, 89, 1, 120, 32
-0.99289, 249, 85, 280, 116
-0.992891, 321, 233, 448, 295
-0.992898, 161, 41, 192, 72
-0.992914, 445, 105, 476, 136
-0.992916, 189, 5, 220, 36
-0.99292, 373, 93, 404, 124
-0.99292, 237, 81, 268, 112
-0.992927, 1, 81, 256, 144
-0.99293, 469, 113, 500, 144
-0.992971, 225, 77, 256, 108
-0.992973, 397, 17, 428, 80
-0.992973, 5, 65, 36, 96
-0.992991, 217, 41, 248, 104
-0.992992, 153, 5, 184, 36
-0.992994, 425, 65, 456, 96
-0.992996, 125, 41, 156, 72
-0.993, 61, 57, 92, 88
-0.99301, 61, 197, 92, 228
-0.993013, 385, 41, 416, 72
-0.993017, 273, 97, 304, 128
-0.993018, 429, 89, 460, 120
-0.993023, 77, 1, 108, 32
-0.993038, 121, 13, 152, 44
-0.993039, 69, 45, 100, 76
-0.993045, 85, 201, 116, 232
-0.993052, 369, 185, 400, 248
-0.993061, 145, 77, 176, 108
-0.993062, 413, 133, 444, 164
-0.993071, 225, 97, 256, 160
-0.993072, 397, 129, 428, 160
-0.993073, 205, 81, 236, 112
-0.993092, 77, 169, 108, 200
-0.9931, 49, 165, 80, 196
-0.993101, 213, 69, 244, 100
-0.993111, 417, 65, 448, 128
-0.993112, 269, 69, 300, 100
-0.993119, 445, 133, 476, 164
-0.99312, 93, 185, 124, 216
-0.993121, 405, 45, 436, 76
-0.993121, 293, 101, 324, 132
-0.993123, 305, 93, 336, 124
-0.993126, 333, 53, 364, 84
-0.993126, 469, 137, 500, 168
-0.993126, 377, 113, 408, 176
-0.99314, 365, 37, 396, 68
-0.993141, 365, 53, 396, 84
-0.993143, 193, 73, 224, 104
-0.993143, 429, 265, 460, 295
-0.993146, 439, 73, 454, 136
-0.993155, 205, 165, 236, 196
-0.993155, 337, 233, 400, 295
-0.993156, 133, 13, 164, 44
-0.993157, 145, 41, 176, 72
-0.993157, 129, 73, 160, 104
-0.99316, 185, 21, 216, 52
-0.993161, 73, 25, 104, 88
-0.993162, 325, 121, 356, 184
-0.993164, 225, 169, 256, 200
-0.993165, 393, 117, 424, 148
-0.993179, 341, 81, 372, 112
-0.99318, 245, 153, 276, 184
-0.993185, 145, 53, 176, 84
-0.993192, 161, 57, 192, 88
-0.993202, 413, 105, 444, 136
-0.993203, 397, 33, 428, 64
-0.993203, 457, 249, 488, 280
-0.993211, 369, 105, 400, 136
-0.993213, 113, 161, 144, 224
-0.993215, 173, 25, 204, 56
-0.993216, 257, 97, 500, 160
-0.993218, 209, 17, 240, 48
-0.993219, 53, 185, 84, 216
-0.993224, 349, 53, 380, 84
-0.993225, 17, 69, 48, 100
-0.993229, 121, 205, 152, 236
-0.993232, 5, 53, 36, 84
-0.993234, 65, 185, 96, 216
-0.993238, 221, 157, 252, 188
-0.993238, 81, 37, 112, 68
-0.993239, 61, 1, 92, 32
-0.993241, 89, 25, 120, 56
-0.993244, 49, 69, 80, 100
-0.99325, 197, 17, 228, 48
-0.993257, 261, 105, 292, 168
-0.993267, 145, 65, 176, 192
-0.993269, 129, 1, 160, 32
-0.993273, 445, 93, 476, 124
-0.993276, 361, 193, 392, 224
-0.99328, 189, 173, 220, 204
-0.993283, 61, 81, 92, 112
-0.993285, 97, 13, 128, 44
-0.993288, 237, 69, 268, 100
-0.99329, 173, 61, 204, 92
-0.993292, 401, 105, 432, 136
-0.993297, 213, 57, 244, 88
-0.993298, 73, 157, 104, 188
-0.9933, 281, 65, 312, 96
-0.993301, 441, 257, 472, 288
-0.993304, 417, 265, 448, 295
-0.993307, 101, 1, 132, 32
-0.993311, 409, 33, 440, 64
-0.993311, 465, 225, 496, 288
-0.993314, 109, 17, 140, 48
-0.993316, 205, 1, 236, 32
-0.99333, 385, 145, 448, 272
-0.993334, 1, 1, 64, 64
-0.993356, 229, 1, 260, 128
-0.993396, 65, 49, 192, 80
-0.993424, 229, 49, 260, 112
-0.993452, 221, 137, 252, 200
-0.99352, 49, 189, 176, 220
-0.993548, 33, 177, 288, 240
-0.993566, 133, 161, 164, 288
-0.993585, 353, 97, 384, 224
-0.993605, 437, 225, 468, 288
-0.993707, 41, 161, 72, 288
-0.993724, 33, 33, 64, 160
-0.993735, 129, 89, 384, 152
-0.993765, 189, 97, 220, 224
-0.99378, 75, 169, 90, 232
-0.993791, 77, 137, 108, 200
-0.993876, 81, 89, 208, 152
-0.993891, 225, 129, 288, 192
-0.993929, 169, 185, 232, 248
-0.993995, 277, 73, 292, 136
-0.994009, 225, 161, 352, 224
-0.994138, 469, 105, 484, 168
-0.994152, 353, 17, 480, 80
-0.994164, 161, 17, 416, 80
-0.994208, 289, 53, 416, 84
-0.994218, 65, 1, 320, 64
-0.994228, 421, 1, 452, 128
-0.994229, 177, 61, 304, 92
-0.994254, 1, 1, 32, 128
-0.994257, 263, 57, 278, 120
-0.99428, 171, 17, 186, 80
-0.994297, 1, 169, 500, 232
-0.994348, 241, 77, 368, 108
-0.994366, 193, 77, 320, 108
-0.994371, 455, 105, 470, 168
-0.994406, 123, 17, 138, 80
-0.994427, 337, 45, 464, 76
-0.994451, 257, 17, 384, 80
-0.99448, 433, 49, 448, 112
-0.994498, 313, 185, 376, 248
-0.994501, 369, 121, 496, 152
-0.994509, 433, 201, 496, 264
-0.994559, 305, 25, 368, 88
-0.9946, 331, 49, 346, 112
-0.994617, 475, 113, 490, 176
-0.994622, 1, 1, 64, 128
-0.994631, 133, 17, 148, 80
-0.994672, 239, 57, 254, 120
-0.99471, 153, 17, 168, 80
-0.994722, 65, 37, 192, 68
-0.994732, 369, 109, 496, 140
-0.994737, 149, 161, 180, 288
-0.994751, 63, 57, 78, 120
-0.994781, 113, 25, 240, 56
-0.994798, 449, 105, 464, 168
-0.994806, 313, 233, 376, 295
-0.99482, 253, 1, 284, 128
-0.994845, 437, 17, 468, 144
-0.994874, 193, 185, 320, 248
-0.994882, 485, 129, 500, 192
-0.994884, 1, 129, 256, 192
-0.994944, 189, 161, 220, 288
-0.994972, 103, 41, 118, 104
-0.994976, 65, 25, 192, 56
-0.994985, 305, 209, 432, 272
-0.994986, 245, 57, 260, 120
-0.994989, 69, 177, 84, 240
-0.994993, 269, 81, 284, 144
-0.995017, 465, 161, 496, 288
-0.995049, 79, 57, 94, 120
-0.995057, 353, 93, 480, 124
-0.99509, 283, 81, 298, 144
-0.995113, 115, 185, 130, 248
-0.995175, 369, 209, 496, 272
-0.995196, 461, 105, 476, 168
-0.995204, 1, 105, 500, 168
-0.995205, 161, 41, 176, 104
-0.995242, 63, 153, 78, 216
-0.995243, 165, 17, 180, 80
-0.995256, 417, 145, 448, 272
-0.995291, 389, 25, 404, 88
-0.995297, 1, 105, 256, 168
-0.995304, 337, 49, 352, 112
-0.995313, 443, 97, 458, 160
-0.995316, 105, 113, 136, 240
-0.995325, 95, 1, 110, 64
-0.995346, 429, 89, 444, 152
-0.995352, 93, 49, 108, 112
-0.995357, 337, 97, 368, 224
-0.995369, 49, 65, 176, 96
-0.995375, 93, 25, 108, 88
-0.995392, 33, 201, 288, 264
-0.995401, 1, 65, 128, 96
-0.995421, 321, 57, 336, 120
-0.995428, 435, 97, 450, 160
-0.995431, 367, 177, 382, 240
-0.995446, 429, 113, 444, 176
-0.995457, 1, 57, 16, 120
-0.995473, 241, 89, 368, 120
-0.99549, 353, 81, 480, 112
-0.995512, 327, 81, 342, 144
-0.995518, 107, 177, 122, 240
-0.995533, 419, 113, 434, 176
-0.995536, 233, 177, 296, 240
-0.995539, 301, 73, 316, 136
-0.99555, 399, 25, 414, 88
-0.995563, 49, 177, 176, 208
-0.99557, 241, 1, 272, 128
-0.995584, 85, 49, 100, 112
-0.995603, 75, 145, 90, 208
-0.995611, 81, 161, 96, 224
-0.99563, 159, 17, 174, 80
-0.995638, 129, 61, 256, 92
-0.995645, 257, 57, 272, 120
-0.995666, 49, 205, 176, 236
-0.995673, 143, 105, 158, 168
-0.99568, 427, 41, 442, 104
-0.995685, 127, 185, 142, 248
-0.995715, 257, 121, 500, 184
-0.995715, 133, 185, 148, 248
-0.995738, 139, 17, 154, 80
-0.99575, 1, 49, 32, 176
-0.995755, 241, 185, 368, 248
-0.99577, 145, 77, 272, 108
-0.995772, 1, 225, 500, 288
-0.995787, 85, 97, 116, 224
-0.99579, 129, 225, 192, 288
-0.9958, 409, 113, 424, 176
-0.995808, 125, 1, 156, 256
-0.995841, 241, 53, 368, 84
-0.995844, 185, 1, 200, 64
-0.99585, 145, 17, 160, 80
-0.995859, 385, 1, 416, 256
-0.995866, 257, 233, 384, 295
-0.995881, 123, 41, 138, 104
-0.995884, 55, 57, 70, 120
-0.995888, 321, 121, 448, 152
-0.995891, 85, 25, 100, 88
-0.995914, 233, 65, 248, 128
-0.995919, 109, 41, 124, 104
-0.995941, 335, 89, 350, 152
-0.995953, 169, 113, 200, 240
-0.995954, 193, 1, 320, 64
-0.995959, 385, 233, 448, 295
-0.996019, 313, 73, 328, 136
-0.99604, 149, 1, 180, 256
-0.996084, 193, 89, 320, 120
-0.996098, 337, 57, 464, 88
-0.996101, 295, 73, 310, 136
-0.996114, 141, 185, 156, 248
-0.996132, 263, 81, 278, 144
-0.996137, 199, 65, 214, 128
-0.99614, 403, 113, 418, 176
-0.996149, 289, 89, 416, 120
-0.996149, 129, 89, 256, 120
-0.996158, 193, 145, 448, 208
-0.996166, 93, 177, 108, 240
-0.996216, 57, 33, 72, 96
-0.99624, 377, 89, 392, 152
-0.996271, 29, 161, 60, 288
-0.9963, 251, 49, 266, 112
-0.9963, 367, 153, 382, 216
-0.996317, 117, 41, 132, 104
-0.996321, 69, 65, 84, 128
-0.996337, 135, 217, 150, 280
-0.996338, 289, 89, 304, 152
-0.996342, 307, 81, 322, 144
-0.996347, 343, 49, 358, 112
-0.996351, 465, 129, 480, 192
-0.996359, 149, 81, 164, 144
-0.996363, 1, 145, 500, 208
-0.99637, 219, 65, 234, 128
-0.996371, 289, 177, 352, 240
-0.996375, 421, 41, 436, 104
-0.996376, 353, 69, 480, 100
-0.996389, 197, 1, 212, 64
-0.996393, 377, 49, 392, 112
-0.996394, 193, 57, 208, 120
-0.996396, 121, 185, 136, 248
-0.996401, 49, 77, 176, 108
-0.996403, 361, 169, 376, 232
-0.996416, 65, 165, 192, 196
-0.996416, 1, 185, 128, 216
-0.99642, 79, 33, 94, 96
-0.996447, 417, 1, 448, 256
-0.99645, 371, 49, 386, 112
-0.996464, 427, 65, 442, 128
-0.996468, 145, 113, 176, 240
-0.996484, 397, 105, 412, 168
-0.996486, 225, 201, 288, 264
-0.996488, 145, 37, 272, 68
-0.996497, 377, 161, 392, 224
-0.996503, 369, 133, 496, 164
-0.996514, 125, 209, 140, 272
-0.996516, 1, 153, 128, 184
-0.99652, 63, 177, 78, 240
-0.996528, 193, 157, 320, 188
-0.99653, 229, 89, 244, 152
-0.996534, 241, 161, 272, 288
-0.996558, 361, 49, 376, 112
-0.996568, 207, 73, 222, 136
-0.99658, 99, 177, 114, 240
-0.996601, 475, 137, 490, 200
-0.996605, 305, 33, 432, 64
-0.996612, 97, 13, 224, 44
-0.996622, 129, 169, 256, 200
-0.996641, 129, 169, 384, 232
-0.996668, 175, 41, 190, 104
-0.996671, 185, 57, 200, 120
-0.996684, 307, 57, 322, 120
-0.996716, 117, 9, 132, 72
-0.996727, 373, 185, 388, 248
-0.996731, 289, 77, 416, 108
-0.996737, 167, 41, 182, 104
-0.996743, 97, 193, 224, 224
-0.996754, 101, 1, 116, 64
-0.996754, 353, 209, 416, 272
-0.996756, 49, 145, 176, 176
-0.996762, 145, 49, 272, 80
-0.996771, 147, 193, 162, 256
-0.996782, 385, 185, 448, 248
-0.996788, 127, 233, 142, 295
-0.996789, 457, 129, 472, 192
-0.996796, 77, 1, 108, 256
-0.996809, 97, 77, 224, 108
-0.996837, 191, 1, 206, 64
-0.99684, 409, 201, 472, 264
-0.99685, 219, 1, 234, 64
-0.99685, 179, 17, 194, 80
-0.996877, 383, 33, 398, 96
-0.996878, 211, 49, 226, 112
-0.996879, 19, 57, 34, 120
-0.99688, 305, 101, 432, 132
-0.996885, 105, 201, 120, 264
-0.996886, 1, 193, 500, 256
-0.996893, 13, 161, 44, 288
-0.996894, 73, 41, 88, 104
-0.996899, 349, 33, 380, 288
-0.996908, 269, 97, 300, 224
-0.99691, 445, 129, 460, 192
-0.996913, 353, 33, 480, 64
-0.996919, 355, 49, 370, 112
-0.996922, 349, 49, 364, 112
-0.996929, 69, 153, 84, 184
-0.996935, 213, 81, 228, 144
-0.996938, 109, 1, 124, 64
-0.996944, 429, 137, 444, 200
-0.996965, 33, 97, 160, 128
-0.996965, 409, 41, 424, 104
-0.996968, 215, 153, 230, 216
-0.996977, 61, 33, 92, 288
-0.996996, 177, 169, 304, 200
-0.996996, 129, 157, 256, 188
-0.997002, 65, 225, 320, 288
-0.997015, 1, 173, 128, 204
-0.997023, 121, 33, 136, 64
-0.99703, 109, 1, 140, 256
-0.997033, 117, 113, 148, 240
-0.997039, 373, 1, 404, 256
-0.997039, 297, 209, 360, 272
-0.997055, 49, 33, 80, 288
-0.997071, 1, 53, 128, 84
-0.997108, 437, 77, 452, 108
-0.99712, 1, 201, 128, 232
-0.997122, 431, 113, 446, 144
-0.997163, 225, 101, 352, 132
-0.997166, 137, 1, 168, 256
-0.997169, 475, 121, 490, 152
-0.997177, 257, 33, 288, 288
-0.997209, 437, 125, 452, 156
-0.997219, 129, 181, 256, 212
-0.997229, 33, 237, 160, 268
-0.997229, 375, 93, 390, 124
-0.997244, 49, 217, 176, 248
-0.997245, 451, 117, 466, 148
-0.997248, 237, 33, 268, 288
-0.997257, 61, 61, 76, 92
-0.997263, 33, 249, 160, 280
-0.997277, 305, 257, 432, 288
-0.997284, 465, 49, 496, 176
-0.997292, 97, 1, 128, 256
-0.997292, 285, 89, 300, 120
-0.997303, 65, 113, 192, 144
-0.99733, 369, 253, 496, 284
-0.997337, 161, 17, 288, 48
-0.997343, 17, 133, 144, 164
-0.997348, 189, 1, 220, 256
-0.997365, 33, 1, 160, 32
-0.997373, 271, 65, 286, 96
-0.997376, 289, 65, 416, 96
-0.997389, 279, 85, 294, 116
-0.997398, 67, 177, 82, 208
-0.997401, 389, 29, 404, 60
-0.997401, 469, 109, 484, 140
-0.997402, 241, 61, 256, 92
-0.997404, 433, 61, 448, 92
-0.997406, 345, 145, 376, 272
-0.997409, 439, 93, 454, 124
-0.997412, 97, 49, 112, 80
-0.997423, 397, 161, 428, 288
-0.997423, 301, 33, 332, 288
-0.997427, 361, 33, 392, 288
-0.997441, 431, 125, 446, 156
-0.997441, 325, 73, 340, 104
-0.997458, 459, 109, 474, 140
-0.997461, 399, 29, 414, 60
-0.997477, 371, 181, 386, 212
-0.997482, 337, 185, 464, 216
-0.997487, 133, 25, 148, 56
-0.997504, 161, 113, 416, 176
-0.997512, 265, 1, 296, 128
-0.997519, 73, 169, 88, 200
-0.997526, 461, 121, 476, 152
-0.997528, 79, 61, 94, 92
-0.997547, 369, 145, 496, 176
-0.997561, 319, 69, 334, 100
-0.997563, 157, 25, 172, 56
-0.997564, 97, 1, 224, 32
-0.997572, 313, 61, 328, 92
-0.997579, 129, 137, 256, 168
-0.997613, 257, 225, 500, 288
-0.997616, 305, 77, 320, 108
-0.997617, 17, 33, 144, 64
-0.997617, 429, 45, 444, 76
-0.99763, 103, 49, 118, 80
-0.99764, 289, 33, 320, 288
-0.997641, 419, 121, 434, 152
-0.997656, 397, 1, 428, 256
-0.997656, 67, 65, 82, 96
-0.997662, 323, 57, 338, 88
-0.997665, 89, 53, 104, 84
-0.997666, 257, 25, 500, 88
-0.997671, 225, 169, 480, 232
-0.997686, 157, 113, 188, 240
-0.997691, 93, 5, 108, 36
-0.997692, 333, 33, 364, 288
-0.997697, 195, 9, 210, 40
-0.997699, 481, 121, 496, 152
-0.997716, 165, 37, 180, 68
-0.997722, 331, 89, 346, 120
-0.997726, 109, 45, 124, 76
-0.99773, 363, 177, 378, 208
-0.997736, 321, 33, 352, 288
-0.997743, 437, 113, 452, 144
-0.997747, 329, 49, 344, 80
-0.997771, 469, 121, 484, 152
-0.997775, 165, 1, 196, 256
-0.997777, 405, 117, 420, 148
-0.997788, 445, 105, 460, 136
-0.99779, 289, 185, 416, 216
-0.997794, 425, 121, 440, 152
-0.997809, 115, 45, 130, 76
-0.997821, 125, 13, 140, 44
-0.997821, 167, 21, 182, 52
-0.997835, 225, 41, 352, 72
-0.997837, 127, 37, 142, 68
-0.997845, 87, 41, 102, 72
-0.997853, 113, 205, 240, 236
-0.997856, 75, 153, 90, 184
-0.997856, 53, 69, 68, 100
-0.997858, 369, 265, 496, 295
-0.997859, 177, 1, 208, 256
-0.997862, 1, 77, 128, 108
-0.997864, 297, 89, 312, 120
-0.997876, 187, 5, 202, 36
-0.99788, 143, 189, 158, 220
-0.997881, 207, 5, 222, 36
-0.9979, 173, 5, 188, 36
-0.9979, 477, 133, 492, 164
-0.99791, 1, 61, 16, 92
-0.997911, 161, 225, 288, 288
-0.997913, 369, 169, 496, 200
-0.997915, 21, 69, 36, 100
-0.997919, 437, 137, 452, 168
-0.997932, 145, 193, 272, 224
-0.997932, 209, 105, 272, 168
-0.997937, 89, 137, 152, 200
-0.997938, 241, 157, 368, 188
-0.99794, 431, 101, 446, 132
-0.99795, 365, 89, 380, 120
-0.997951, 17, 121, 144, 152
-0.997957, 79, 169, 94, 200
-0.997976, 413, 117, 428, 148
-0.997977, 79, 49, 94, 80
-0.997978, 443, 117, 458, 148
-0.997983, 429, 1, 460, 256
-0.997987, 233, 69, 248, 100
-0.997994, 205, 73, 220, 104
-0.998001, 325, 85, 340, 116
-0.998002, 317, 81, 332, 112
-0.998007, 81, 185, 96, 216
-0.998014, 353, 241, 480, 272
-0.998021, 273, 81, 288, 112
-0.998026, 431, 89, 446, 120
-0.998027, 369, 229, 496, 260
-0.998027, 127, 25, 142, 56
-0.998031, 151, 25, 166, 56
-0.998032, 475, 109, 490, 140
-0.998043, 33, 13, 160, 44
-0.99805, 421, 133, 436, 164
-0.99805, 273, 209, 336, 272
-0.998054, 297, 113, 328, 240
-0.998055, 141, 105, 156, 136
-0.998057, 225, 33, 256, 288
-0.99806, 337, 93, 352, 124
-0.998063, 241, 113, 368, 144
-0.998074, 269, 33, 300, 288
-0.998075, 321, 133, 448, 164
-0.99808, 99, 1, 114, 32
-0.99809, 123, 49, 138, 80
-0.998095, 49, 261, 176, 292
-0.998097, 1, 261, 128, 292
-0.998098, 73, 57, 88, 88
-0.998098, 73, 181, 88, 212
-0.998098, 69, 193, 84, 224
-0.99812, 1, 213, 128, 244
-0.998121, 135, 9, 150, 40
-0.998129, 423, 45, 438, 76
-0.998136, 81, 1, 96, 32
-0.998139, 443, 129, 458, 160
-0.99814, 115, 33, 130, 64
-0.998142, 483, 133, 498, 164
-0.998147, 469, 133, 484, 164
-0.99815, 451, 105, 466, 136
-0.998155, 213, 33, 244, 288
-0.99816, 143, 21, 158, 52
-0.998161, 173, 25, 188, 56
-0.998177, 119, 21, 134, 52
-0.998184, 431, 137, 446, 168
-0.998186, 331, 77, 346, 108
-0.998197, 95, 37, 110, 68
-0.998204, 335, 53, 350, 84
-0.998205, 153, 161, 216, 288
-0.998206, 409, 129, 424, 160
-0.998208, 211, 81, 226, 112
-0.998209, 201, 1, 232, 256
-0.998212, 53, 57, 68, 88
-0.99822, 109, 185, 124, 216
-0.998238, 59, 49, 74, 80
-0.998244, 73, 69, 88, 100
-0.998245, 61, 165, 76, 196
-0.998245, 177, 101, 304, 132
-0.998251, 205, 165, 220, 196
-0.99826, 375, 81, 390, 112
-0.998264, 265, 85, 280, 116
-0.998267, 1, 73, 16, 104
-0.998278, 349, 53, 364, 84
-0.998281, 427, 77, 442, 108
-0.998297, 177, 145, 304, 176
-0.998299, 113, 249, 240, 280
-0.998304, 77, 197, 92, 228
-0.998311, 265, 57, 280, 88
-0.998313, 257, 265, 384, 295
-0.998322, 259, 153, 274, 184
-0.998324, 255, 85, 270, 116
-0.998326, 1, 225, 128, 256
-0.998327, 129, 101, 256, 132
-0.998328, 405, 37, 420, 68
-0.998333, 63, 77, 78, 108
-0.998333, 291, 97, 306, 128
-0.998337, 7, 69, 22, 100
-0.998338, 55, 1, 70, 32
-0.998339, 317, 93, 332, 124
-0.998343, 403, 129, 418, 160
-0.998355, 353, 1, 416, 64
-0.998367, 469, 243, 500, 258
-0.998367, 169, 87, 200, 102
-0.998367, 181, 89, 212, 104
-0.998368, 81, 163, 112, 178
-0.998368, 321, 75, 352, 90
-0.998368, 205, 67, 236, 82
-0.998369, 149, 85, 180, 100
-0.99837, 333, 85, 364, 100
-0.998371, 457, 251, 488, 266
-0.998371, 233, 81, 264, 96
-0.998371, 401, 113, 432, 128
-0.998372, 61, 181, 92, 196
-0.998372, 57, 75, 88, 90
-0.998373, 177, 63, 208, 78
-0.998374, 89, 13, 120, 28
-0.998374, 321, 59, 352, 74
-0.998374, 129, 107, 160, 122
-0.998376, 377, 49, 408, 64
-0.998377, 77, 169, 108, 184
-0.998378, 113, 27, 176, 42
-0.998379, 65, 201, 96, 216
-0.998381, 289, 161, 416, 192
-0.998381, 9, 75, 40, 90
-0.998382, 253, 87, 284, 102
-0.998383, 97, 185, 128, 200
-0.998383, 61, 1, 92, 16
-0.998383, 205, 17, 236, 32
-0.998385, 93, 1, 124, 16
-0.998386, 189, 3, 220, 18
-0.998388, 429, 101, 460, 116
-0.99839, 441, 259, 472, 274
-0.99839, 197, 89, 228, 104
-0.99839, 149, 25, 180, 40
-0.99839, 85, 203, 116, 218
-0.99839, 405, 49, 436, 64
-0.998391, 393, 121, 456, 136
-0.998393, 353, 89, 384, 104
-0.998393, 289, 89, 352, 104
-0.998393, 237, 71, 268, 86
-0.998393, 153, 17, 184, 32
-0.998393, 413, 123, 444, 138
-0.998393, 429, 95, 460, 110
-0.998394, 341, 57, 372, 72
-0.998395, 261, 71, 292, 86
-0.998395, 129, 191, 160, 206
-0.998395, 361, 55, 392, 70
-0.998396, 189, 9, 220, 24
-0.998398, 57, 63, 88, 78
-0.998398, 421, 69, 452, 84
-0.998402, 9, 69, 40, 84
-0.998403, 113, 31, 144, 46
-0.998403, 173, 29, 204, 44
-0.998406, 77, 47, 108, 62
-0.998407, 265, 81, 328, 96
-0.998409, 385, 125, 416, 140
-0.99841, 89, 7, 120, 22
-0.998411, 273, 101, 304, 116
-0.998412, 121, 19, 152, 34
-0.998412, 429, 267, 460, 282
-0.998418, 405, 39, 436, 54
-0.99842, 169, 1, 200, 16
-0.99842, 305, 91, 336, 106
-0.99842, 285, 99, 316, 114
-0.998421, 65, 175, 96, 190
-0.998422, 429, 89, 460, 104
-0.998423, 225, 173, 352, 204
-0.998423, 401, 131, 432, 146
-0.998423, 373, 89, 404, 104
-0.998425, 161, 31, 192, 46
-0.998425, 145, 31, 176, 46
-0.998426, 425, 77, 456, 92
-0.998427, 125, 31, 156, 46
-0.998429, 229, 171, 260, 186
-0.998429, 445, 111, 476, 126
-0.998431, 257, 65, 288, 80
-0.998436, 277, 73, 308, 88
-0.998437, 121, 33, 184, 48
-0.99844, 161, 43, 192, 58
-0.99844, 273, 95, 304, 110
-0.998443, 433, 125, 496, 140
-0.998443, 77, 63, 108, 78
-0.998446, 225, 63, 288, 78
-0.998446, 309, 79, 340, 94
-0.998447, 61, 169, 92, 184
-0.998448, 213, 73, 244, 88
-0.99845, 61, 69, 92, 84
-0.998451, 437, 129, 468, 144
-0.998452, 289, 197, 416, 228
-0.998452, 433, 107, 464, 122
-0.998452, 205, 23, 236, 38
-0.998453, 65, 163, 96, 178
-0.998455, 361, 191, 392, 206
-0.998456, 201, 171, 232, 186
-0.998456, 309, 61, 340, 76
-0.998458, 325, 95, 356, 110
-0.99846, 193, 17, 224, 32
-0.99846, 185, 23, 216, 38
-0.998462, 121, 43, 184, 58
-0.998463, 89, 55, 120, 70
-0.998463, 77, 1, 108, 16
-0.99847, 109, 39, 140, 54
-0.998474, 417, 49, 448, 64
-0.998474, 297, 95, 360, 110
-0.998474, 113, 49, 144, 64
-0.998475, 369, 43, 432, 58
-0.998477, 393, 49, 456, 64
-0.998477, 289, 83, 352, 98
-0.998478, 425, 115, 456, 130
-0.998481, 265, 87, 328, 102
-0.998481, 449, 33, 480, 288
-0.998482, 125, 25, 156, 40
-0.998482, 285, 93, 316, 108
-0.998484, 89, 49, 152, 64
-0.998484, 153, 23, 216, 38
-0.998486, 321, 81, 352, 96
-0.998487, 417, 135, 448, 150
-0.99849, 273, 71, 336, 86
-0.99849, 429, 137, 460, 152
-0.99849, 433, 119, 496, 134
-0.998491, 461, 133, 492, 148
-0.998492, 233, 75, 296, 90
-0.998493, 393, 115, 456, 130
-0.998496, 433, 131, 496, 146
-0.998496, 357, 181, 388, 196
-0.998496, 433, 111, 496, 126
-0.998497, 381, 117, 412, 132
-0.998497, 161, 7, 224, 22
-0.998497, 409, 127, 472, 142
-0.998497, 425, 127, 456, 142
-0.998498, 101, 49, 132, 64
-0.9985, 245, 59, 276, 74
-0.9985, 425, 83, 456, 98
-0.998502, 173, 19, 204, 34
-0.998503, 369, 49, 432, 64
-0.998504, 161, 13, 224, 28
-0.998505, 313, 57, 376, 72
-0.998507, 17, 109, 144, 140
-0.998512, 321, 87, 384, 102
-0.998516, 33, 65, 96, 80
-0.998516, 305, 71, 336, 86
-0.998517, 161, 37, 192, 52
-0.998517, 193, 171, 256, 186
-0.998519, 337, 95, 400, 110
-0.998519, 449, 161, 480, 288
-0.998519, 137, 25, 168, 40
-0.99852, 449, 133, 480, 148
-0.99852, 81, 39, 144, 54
-0.998525, 57, 53, 120, 68
-0.998527, 365, 95, 396, 110
-0.998528, 233, 69, 296, 84
-0.99853, 321, 89, 352, 104
-0.998531, 241, 85, 304, 100
-0.998533, 265, 65, 328, 80
-0.998535, 33, 159, 96, 174
-0.998535, 385, 43, 416, 58
-0.998538, 281, 81, 312, 96
-0.998539, 265, 89, 296, 104
-0.998542, 361, 117, 424, 132
-0.998547, 261, 81, 292, 96
-0.998547, 97, 261, 224, 292
-0.998548, 81, 21, 144, 36
-0.998549, 41, 1, 104, 16
-0.99855, 401, 119, 432, 134
-0.99855, 313, 81, 376, 96
-0.99855, 409, 135, 472, 150
-0.99855, 33, 71, 96, 86
-0.998553, 401, 81, 464, 96
-0.998553, 457, 111, 488, 126
-0.998555, 33, 171, 96, 186
-0.998557, 193, 67, 256, 82
-0.998557, 201, 79, 264, 94
-0.998557, 385, 37, 416, 52
-0.99856, 369, 37, 432, 52
-0.998561, 161, 23, 192, 38
-0.998562, 73, 187, 136, 202
-0.998565, 377, 131, 440, 146
-0.998566, 449, 125, 480, 140
-0.998568, 377, 109, 440, 124
-0.99857, 137, 17, 200, 32
-0.998572, 113, 49, 176, 64
-0.998572, 257, 95, 320, 110
-0.998573, 1, 67, 64, 82
-0.998575, 153, 29, 216, 44
-0.998575, 121, 9, 184, 24
-0.998575, 377, 91, 440, 106
-0.998575, 121, 55, 184, 70
-0.998575, 289, 77, 352, 92
-0.998576, 113, 21, 176, 36
-0.998577, 437, 119, 468, 134
-0.998577, 95, 1, 110, 128
-0.998577, 145, 1, 272, 32
-0.998579, 409, 277, 472, 292
-0.998579, 177, 21, 240, 36
-0.99858, 57, 61, 120, 76
-0.998582, 57, 159, 120, 174
-0.998582, 177, 181, 304, 212
-0.998583, 281, 87, 312, 102
-0.998583, 89, 33, 152, 48
-0.998584, 57, 43, 120, 58
-0.998584, 401, 87, 464, 102
-0.998584, 225, 145, 352, 176
-0.998585, 297, 79, 328, 94
-0.998586, 353, 181, 416, 196
-0.998586, 57, 165, 120, 180
-0.998586, 105, 203, 168, 218
-0.998587, 161, 1, 224, 16
-0.998589, 325, 53, 356, 68
-0.99859, 21, 1, 52, 128
-0.998592, 97, 193, 160, 208
-0.998593, 313, 51, 376, 66
-0.998594, 81, 27, 144, 42
-0.998595, 417, 103, 480, 118
-0.998595, 433, 137, 496, 152
-0.998598, 461, 121, 492, 136
-0.998599, 1, 57, 64, 72
-0.9986, 57, 179, 120, 194
-0.998601, 33, 57, 96, 72
-0.998601, 1, 1, 500, 64
-0.998602, 353, 123, 416, 138
-0.998602, 289, 101, 352, 116
-0.998603, 137, 61, 200, 76
-0.998604, 209, 85, 272, 100
-0.998605, 337, 47, 400, 62
-0.998607, 145, 87, 208, 102
-0.998608, 33, 77, 96, 92
-0.998608, 17, 1, 80, 16
-0.998612, 153, 39, 216, 54
-0.998612, 153, 49, 216, 64
-0.998614, 377, 97, 440, 112
-0.998614, 329, 191, 392, 206
-0.998614, 33, 165, 96, 180
-0.998619, 57, 9, 120, 24
-0.998619, 193, 73, 256, 88
-0.99862, 337, 55, 400, 70
-0.99862, 305, 63, 368, 78
-0.99862, 321, 107, 384, 122
-0.99862, 329, 183, 392, 198
-0.998621, 353, 191, 416, 206
-0.998623, 185, 3, 248, 18
-0.998625, 73, 69, 136, 84
-0.998625, 465, 127, 496, 142
-0.998625, 121, 3, 184, 18
-0.998627, 257, 101, 320, 116
-0.998627, 393, 71, 456, 86
-0.998628, 65, 3, 128, 18
-0.998628, 193, 61, 256, 76
-0.998628, 297, 71, 360, 86
-0.998629, 217, 173, 280, 188
-0.998629, 185, 15, 248, 30
-0.99863, 73, 207, 136, 222
-0.99863, 417, 271, 480, 286
-0.998631, 33, 181, 96, 196
-0.998632, 89, 1, 152, 16
-0.998634, 377, 85, 440, 100
-0.998635, 61, 157, 92, 172
-0.998636, 41, 197, 104, 212
-0.998636, 185, 9, 248, 24
-0.998636, 333, 33, 348, 160
-0.998636, 265, 57, 328, 72
-0.998639, 81, 237, 208, 268
-0.998639, 301, 85, 332, 100
-0.998639, 393, 57, 456, 72
-0.998639, 81, 55, 144, 70
-0.99864, 49, 85, 112, 100
-0.998641, 409, 109, 472, 124
-0.998642, 177, 161, 240, 176
-0.998642, 401, 93, 464, 108
-0.998642, 297, 115, 360, 130
-0.998643, 393, 41, 456, 56
-0.998643, 289, 107, 352, 122
-0.998644, 57, 95, 120, 110
-0.998644, 265, 107, 328, 122
-0.998645, 33, 33, 64, 288
-0.998646, 41, 153, 104, 168
-0.998646, 327, 33, 342, 160
-0.998646, 461, 33, 492, 288
-0.998647, 25, 93, 88, 108
-0.998652, 437, 49, 452, 176
-0.998665, 225, 209, 352, 240
-0.998666, 385, 31, 416, 46
-0.998673, 193, 1, 208, 128
-0.998688, 209, 217, 336, 280
-0.998689, 129, 125, 256, 156
-0.998694, 65, 133, 192, 164
-0.99871, 175, 1, 190, 128
-0.998751, 429, 33, 444, 160
-0.998752, 369, 157, 496, 188
-0.998767, 17, 97, 48, 224
-0.998806, 81, 89, 208, 120
-0.998861, 305, 237, 432, 268
-0.998877, 257, 253, 384, 284
-0.998881, 113, 113, 240, 144
-0.998887, 89, 1, 104, 128
-0.998899, 277, 65, 292, 192
-0.998911, 79, 49, 94, 176
-0.998914, 69, 129, 84, 256
-0.998919, 273, 145, 400, 176
-0.998939, 461, 97, 476, 224
-0.998941, 475, 97, 490, 224
-0.998941, 199, 1, 214, 128
-0.998943, 155, 17, 170, 144
-0.998945, 423, 33, 438, 160
-0.998951, 69, 65, 84, 192
-0.998955, 481, 113, 496, 240
-0.998961, 271, 49, 286, 176
-0.998964, 185, 1, 200, 128
-0.998967, 369, 21, 496, 52
-0.998967, 337, 197, 464, 228
-0.99897, 455, 97, 470, 224
-0.998993, 321, 33, 336, 160
-0.998995, 339, 33, 354, 160
-0.999005, 169, 17, 184, 144
-0.999008, 445, 81, 460, 208
-0.999009, 467, 97, 482, 224
-0.999027, 75, 145, 90, 272
-0.999028, 385, 17, 400, 144
-0.999029, 97, 217, 224, 248
-0.999031, 105, 33, 120, 160
-0.999043, 205, 1, 220, 128
-0.999046, 431, 81, 446, 208
-0.999055, 143, 1, 158, 128
-0.999064, 107, 161, 122, 288
-0.999074, 345, 33, 360, 160
-0.999078, 83, 1, 98, 128
-0.999079, 301, 65, 316, 192
-0.999085, 289, 81, 304, 208
-0.999087, 411, 33, 426, 160
-0.999091, 375, 33, 390, 160
-0.999091, 401, 17, 416, 144
-0.999092, 125, 17, 140, 144
-0.999105, 135, 1, 150, 128
-0.999115, 289, 21, 416, 52
-0.99912, 265, 33, 280, 160
-0.999126, 1, 161, 32, 288
-0.999127, 77, 1, 92, 128
-0.999132, 369, 33, 384, 160
-0.999133, 239, 49, 254, 176
-0.999141, 241, 185, 368, 216
-0.999145, 179, 49, 194, 176
-0.999152, 417, 33, 432, 160
-0.999162, 231, 49, 246, 176
-0.999163, 115, 33, 130, 160
-0.999168, 161, 17, 176, 144
-0.99917, 53, 1, 68, 128
-0.999173, 289, 173, 416, 204
-0.999174, 313, 65, 328, 192
-0.999191, 113, 161, 128, 288
-0.999192, 361, 33, 376, 160
-0.999193, 149, 17, 164, 144
-0.999199, 257, 241, 384, 272
-0.999213, 63, 49, 78, 176
-0.999224, 295, 81, 310, 208
-0.999225, 211, 1, 226, 128
-0.999234, 395, 17, 410, 144
-0.999242, 307, 65, 322, 192
-0.999246, 283, 81, 298, 208
-0.999252, 409, 81, 424, 208
-0.999257, 199, 49, 214, 176
-0.999259, 185, 49, 200, 176
-0.999262, 211, 49, 226, 176
-0.999264, 225, 81, 240, 208
-0.999266, 223, 1, 238, 128
-0.999271, 63, 129, 78, 256
-0.999272, 351, 33, 366, 160
-0.999277, 233, 97, 248, 224
-0.99929, 369, 217, 496, 248
-0.999296, 169, 65, 184, 192
-0.9993, 101, 161, 116, 288
-0.999303, 59, 1, 74, 128
-0.999307, 133, 161, 148, 288
-0.999308, 259, 49, 274, 176
-0.999308, 219, 81, 234, 208
-0.999314, 245, 49, 260, 176
-0.999314, 209, 197, 336, 228
-0.999318, 205, 65, 220, 192
-0.99932, 425, 81, 440, 208
-0.999331, 71, 1, 86, 128
-0.999332, 329, 81, 344, 208
-0.999336, 193, 49, 208, 176
-0.999337, 257, 201, 500, 264
-0.999342, 375, 97, 390, 224
-0.999356, 323, 81, 338, 208
-0.999362, 75, 97, 90, 224
-0.999367, 57, 49, 72, 176
-0.999367, 419, 81, 434, 208
-0.999372, 217, 1, 232, 128
-0.999372, 251, 49, 266, 176
-0.999373, 243, 97, 258, 224
-0.999374, 209, 129, 336, 160
-0.999381, 371, 161, 386, 288
-0.999383, 121, 161, 136, 288
-0.999387, 85, 49, 100, 176
-0.999394, 403, 81, 418, 208
-0.999394, 23, 49, 38, 176
-0.999403, 143, 161, 158, 288
-0.999407, 229, 1, 244, 128
-0.999428, 209, 249, 336, 280
-0.999432, 217, 129, 232, 256
-0.999437, 127, 161, 142, 288
-0.999443, 95, 145, 110, 272
-0.999444, 193, 5, 320, 36
-0.999448, 305, 225, 432, 256
-0.999448, 367, 97, 382, 224
-0.999453, 209, 265, 336, 295
-0.999457, 265, 81, 280, 208
-0.999458, 305, 161, 368, 288
-0.999459, 51, 49, 66, 176
-0.99946, 223, 129, 238, 256
-0.999467, 177, 209, 304, 240
-0.999467, 81, 97, 96, 224
-0.999471, 129, 193, 384, 256
-0.999473, 437, 1, 452, 128
-0.999475, 29, 65, 44, 192
-0.999478, 257, 209, 384, 272
-0.999479, 381, 97, 396, 224
-0.999481, 455, 49, 470, 176
-0.999484, 417, 129, 432, 256
-0.999485, 57, 97, 72, 224
-0.999488, 249, 97, 264, 224
-0.999489, 21, 33, 52, 288
-0.999491, 143, 113, 158, 240
-0.999493, 471, 49, 486, 176
-0.999494, 43, 65, 58, 192
-0.999497, 279, 17, 294, 144
-0.999501, 289, 33, 304, 160
-0.999503, 3, 49, 18, 176
-0.999505, 437, 113, 452, 240
-0.999505, 81, 145, 96, 272
-0.999505, 305, 209, 432, 240
-0.999507, 393, 97, 408, 224
-0.999509, 105, 113, 120, 240
-0.999509, 163, 65, 178, 192
-0.999517, 57, 161, 72, 288
-0.999521, 315, 17, 330, 144
-0.999523, 481, 65, 496, 192
-0.999523, 447, 33, 462, 160
-0.99953, 363, 145, 378, 272
-0.999536, 87, 145, 102, 272
-0.999538, 437, 161, 468, 288
-0.999559, 257, 125, 384, 156
-0.999585, 129, 229, 256, 260
-0.999591, 145, 261, 272, 292
-0.999597, 475, 245, 490, 260
-0.999598, 449, 111, 464, 126
-0.999598, 91, 19, 106, 34
-0.999598, 85, 51, 100, 66
-0.999599, 373, 191, 388, 206
-0.999599, 439, 117, 454, 132
-0.999599, 193, 7, 208, 22
-0.9996, 199, 3, 214, 18
-0.999601, 1, 73, 16, 88
-0.999602, 125, 51, 140, 66
-0.999602, 143, 23, 158, 38
-0.999603, 411, 281, 426, 295
-0.999603, 23, 79, 38, 94
-0.999603, 431, 57, 446, 72
-0.999603, 325, 53, 340, 68
-0.999604, 61, 77, 76, 92
-0.999604, 459, 129, 474, 144
-0.999604, 55, 71, 70, 86
-0.999605, 461, 281, 476, 295
-0.999605, 417, 277, 432, 292
-0.999606, 321, 145, 448, 176
-0.999607, 287, 101, 302, 116
-0.999607, 239, 171, 254, 186
-0.999608, 401, 41, 416, 56
-0.999608, 457, 255, 472, 270
-0.999609, 467, 249, 482, 264
-0.999609, 431, 93, 446, 108
-0.999609, 89, 45, 104, 60
-0.999611, 437, 77, 452, 92
-0.999612, 119, 49, 134, 64
-0.999613, 233, 75, 248, 90
-0.999614, 431, 125, 446, 140
-0.999614, 485, 239, 500, 254
-0.999614, 21, 73, 36, 88
-0.999615, 93, 9, 108, 24
-0.999616, 179, 29, 194, 44
-0.999617, 277, 91, 292, 106
-0.999618, 195, 15, 210, 30
-0.999618, 187, 19, 202, 34
-0.999618, 431, 111, 446, 126
-0.999619, 439, 265, 454, 280
-0.999619, 391, 29, 406, 44
-0.999619, 111, 49, 126, 64
-0.99962, 447, 261, 462, 276
-0.999622, 397, 29, 412, 44
-0.999622, 85, 1, 100, 16
-0.999622, 403, 131, 418, 146
-0.999622, 435, 71, 450, 86
-0.999622, 67, 67, 82, 82
-0.999623, 267, 61, 282, 76
-0.999624, 79, 57, 94, 72
-0.999624, 99, 51, 114, 66
-0.999624, 175, 19, 190, 34
-0.999625, 71, 179, 86, 194
-0.999625, 423, 275, 438, 290
-0.999625, 485, 131, 500, 146
-0.999625, 73, 71, 88, 86
-0.999628, 193, 1, 208, 16
-0.999629, 51, 1, 66, 16
-0.99963, 101, 3, 116, 18
-0.99963, 207, 19, 222, 34
-0.999631, 293, 89, 308, 104
-0.999631, 367, 93, 382, 108
-0.999633, 457, 123, 472, 138
-0.999634, 427, 117, 442, 132
-0.999635, 129, 19, 144, 34
-0.999637, 373, 89, 388, 104
-0.999637, 451, 127, 466, 142
-0.999638, 475, 133, 490, 148
-0.999639, 427, 47, 442, 62
-0.99964, 159, 31, 174, 46
-0.999641, 469, 109, 484, 124
-0.999641, 95, 3, 110, 18
-0.999642, 273, 81, 288, 96
-0.999643, 305, 87, 320, 102
-0.999645, 57, 3, 72, 18
-0.999646, 1, 61, 16, 76
-0.999648, 271, 67, 286, 82
-0.999648, 433, 63, 448, 78
-0.999648, 433, 269, 448, 284
-0.999648, 333, 91, 348, 106
-0.999648, 151, 25, 166, 40
-0.999649, 441, 99, 456, 114
-0.999651, 423, 135, 438, 150
-0.999652, 197, 21, 212, 36
-0.999652, 121, 33, 136, 48
-0.999652, 447, 121, 462, 136
-0.999652, 59, 59, 74, 74
-0.999652, 363, 179, 378, 194
-0.999654, 167, 35, 182, 50
-0.999655, 205, 171, 220, 186
-0.999656, 399, 35, 414, 50
-0.99966, 311, 79, 326, 94
-0.99966, 283, 95, 298, 110
-0.99966, 319, 71, 334, 86
-0.999661, 105, 49, 120, 64
-0.999664, 387, 35, 402, 50
-0.999665, 319, 61, 334, 76
-0.999666, 313, 63, 328, 78
-0.999667, 433, 117, 448, 132
-0.999669, 1, 67, 16, 82
-0.999669, 405, 119, 420, 134
-0.99967, 91, 55, 106, 70
-0.999674, 123, 39, 138, 54
-0.999675, 465, 133, 480, 148
-0.999676, 317, 85, 332, 100
-0.999677, 79, 65, 94, 80
-0.999678, 443, 137, 458, 152
-0.999678, 169, 29, 184, 44
-0.999679, 141, 107, 156, 122
-0.999679, 279, 85, 294, 100
-0.999681, 123, 23, 138, 38
-0.999683, 129, 29, 144, 44
-0.999683, 301, 79, 316, 94
-0.999684, 71, 155, 86, 170
-0.999685, 433, 137, 448, 152
-0.999686, 441, 131, 456, 146
-0.999688, 437, 83, 452, 98
-0.999689, 67, 73, 82, 88
-0.999691, 471, 127, 486, 142
-0.999693, 439, 89, 454, 104
-0.999696, 61, 65, 76, 80
-0.999696, 331, 51, 346, 66
-0.999698, 85, 59, 100, 74
-0.999704, 73, 173, 88, 188
-0.999711, 473, 119, 488, 134
-0.999715, 117, 65, 148, 192
-0.999723, 323, 79, 338, 94
-0.99973, 477, 127, 492, 142
-0.999731, 327, 89, 342, 104
-0.999751, 465, 125, 480, 140
-0.999754, 375, 95, 390, 110
-0.999876, 381, 145, 412, 272
-0.999882, 5, 33, 36, 288
-0.999946, 161, 233, 416, 295
-1.00009, 309, 113, 340, 240
-1.00033, 1, 97, 32, 224
-1.00087, 301, 161, 332, 288
-1.00116, 177, 161, 208, 288
-1.00131, 273, 161, 336, 288
-1.0016, 289, 161, 320, 288
-1.00168, 257, 145, 288, 272
-1.00216, 333, 145, 364, 272
-1.00263, 257, 1, 500, 64
-1.00322, 321, 161, 352, 288
-1.00395, 165, 161, 196, 288
-1.00473, 273, 145, 304, 272
-1.00763, 449, 1, 480, 128
-1.01143, 465, 1, 496, 128
