1959
-0.330428, 1, 97, 500, 352
-0.360491, 1, 1, 500, 362
-0.529817, 129, 1, 384, 362
-0.544873, 1, 1, 500, 256
-0.564655, 33, 1, 288, 362
-0.606176, 33, 97, 288, 352
-0.651584, 225, 1, 480, 362
-0.691397, 1, 1, 256, 256
-0.717771, 161, 97, 416, 352
-0.742399, 97, 1, 352, 256
-0.761775, 193, 1, 448, 256
-0.793273, 257, 97, 500, 352
-0.860978, 1, 161, 500, 288
-0.881413, 113, 1, 240, 362
-0.883953, 113, 1, 240, 256
-0.88694, 81, 97, 208, 352
-0.888395, 1, 1, 128, 256
-0.888404, 161, 97, 288, 352
-0.891715, 1, 1, 128, 362
-0.891864, 225, 1, 352, 362
-0.893684, 161, 1, 288, 362
-0.894995, 273, 97, 400, 352
-0.898691, 225, 1, 352, 256
-0.900321, 289, 1, 416, 362
-0.901343, 65, 113, 320, 240
-0.903433, 1, 113, 500, 240
-0.904086, 161, 1, 288, 256
-0.905639, 353, 97, 480, 352
-0.906409, 369, 1, 496, 362
-0.908259, 49, 1, 176, 256
-0.909348, 225, 97, 352, 352
-0.918405, 1, 209, 500, 336
-0.918658, 257, 177, 500, 304
-0.920438, 273, 1, 400, 256
-0.920447, 33, 97, 160, 352
-0.92118, 65, 1, 192, 362
-0.927161, 321, 1, 448, 256
-0.929753, 33, 161, 288, 288
-0.93229, 161, 129, 416, 256
-0.93408, 209, 113, 272, 240
-0.93609, 97, 97, 224, 224
-0.940354, 369, 1, 496, 256
-0.941846, 385, 193, 448, 320
-0.944546, 305, 177, 432, 304
-0.945799, 161, 129, 288, 256
-0.945886, 225, 145, 352, 272
-0.945889, 177, 113, 240, 240
-0.947154, 209, 129, 272, 192
-0.947835, 1, 1, 500, 128
-0.948046, 1, 1, 256, 128
-0.94901, 249, 129, 312, 256
-0.950652, 369, 193, 496, 320
-0.95098, 241, 145, 304, 208
-0.951116, 161, 177, 416, 304
-0.952614, 417, 177, 480, 304
-0.953193, 345, 177, 408, 304
-0.953419, 153, 97, 216, 224
-0.953525, 129, 105, 192, 168
-0.953624, 273, 145, 336, 272
-0.954161, 265, 153, 328, 216
-0.954207, 97, 113, 160, 240
-0.95503, 97, 65, 352, 192
-0.955313, 129, 97, 192, 224
-0.955998, 257, 129, 500, 256
-0.95682, 297, 161, 360, 288
-0.957816, 17, 209, 80, 336
-0.958102, 81, 145, 208, 272
-0.959305, 193, 225, 448, 352
-0.959349, 209, 153, 272, 216
-0.959826, 1, 65, 500, 192
-0.960124, 353, 241, 480, 362
-0.960335, 169, 121, 232, 184
-0.960436, 209, 161, 272, 288
-0.960492, 113, 49, 176, 176
-0.960944, 161, 49, 224, 176
-0.961208, 49, 209, 112, 336
-0.961302, 409, 209, 472, 272
-0.961823, 1, 193, 128, 320
-0.96197, 369, 185, 432, 248
-0.962447, 289, 161, 352, 224
-0.962722, 105, 113, 168, 176
-0.964271, 137, 49, 200, 176
-0.964413, 209, 97, 336, 224
-0.964939, 169, 145, 232, 208
-0.965285, 321, 177, 384, 304
-0.966016, 377, 145, 440, 272
-0.966467, 49, 1, 176, 128
-0.966726, 253, 145, 284, 208
-0.96693, 129, 49, 256, 176
-0.967259, 193, 145, 320, 208
-0.967265, 177, 177, 304, 304
-0.967381, 337, 185, 400, 248
-0.967693, 385, 209, 448, 272
-0.968006, 289, 113, 416, 240
-0.968203, 369, 145, 496, 272
-0.968435, 233, 169, 296, 232
-0.968554, 41, 145, 104, 272
-0.968995, 377, 233, 440, 296
-0.969425, 17, 145, 144, 272
-0.969455, 1, 49, 256, 176
-0.969539, 313, 169, 376, 232
-0.969922, 97, 105, 224, 168
-0.970043, 205, 121, 236, 184
-0.970481, 249, 81, 312, 208
-0.97065, 209, 113, 240, 240
-0.970665, 229, 129, 260, 192
-0.970776, 237, 113, 268, 240
-0.971045, 185, 161, 248, 288
-0.971197, 73, 145, 136, 272
-0.971303, 393, 185, 456, 248
-0.971545, 417, 185, 480, 248
-0.971613, 397, 193, 428, 256
-0.97217, 105, 1, 168, 64
-0.972226, 49, 201, 112, 264
-0.972286, 265, 129, 328, 192
-0.972552, 209, 65, 272, 192
-0.972627, 113, 1, 176, 128
-0.973122, 397, 193, 428, 320
-0.973434, 377, 241, 440, 362
-0.973484, 97, 1, 224, 128
-0.973518, 209, 177, 272, 240
-0.973567, 241, 145, 272, 208
-0.973619, 153, 97, 184, 160
-0.973742, 241, 153, 368, 216
-0.973812, 17, 201, 80, 264
-0.973885, 81, 49, 208, 176
-0.97408, 225, 81, 480, 208
-0.974092, 129, 81, 192, 144
-0.974114, 145, 129, 272, 192
-0.974179, 213, 145, 244, 208
-0.974228, 161, 89, 224, 152
-0.97438, 265, 145, 296, 208
-0.974488, 97, 1, 352, 128
-0.974539, 409, 225, 472, 352
-0.974656, 17, 49, 144, 176
-0.974696, 89, 49, 152, 176
-0.974783, 49, 177, 112, 240
-0.974887, 345, 129, 408, 256
-0.97504, 321, 185, 448, 248
-0.975053, 233, 121, 296, 184
-0.975122, 1, 209, 256, 336
-0.975154, 369, 209, 496, 272
-0.97519, 89, 137, 152, 200
-0.975247, 97, 129, 224, 192
-0.975448, 197, 97, 228, 224
-0.975641, 321, 129, 384, 256
-0.975883, 89, 145, 120, 272
-0.976229, 433, 217, 496, 280
-0.976366, 117, 113, 148, 176
-0.976434, 425, 193, 456, 320
-0.976443, 129, 25, 192, 88
-0.976501, 81, 1, 144, 64
-0.976517, 129, 177, 256, 304
-0.976714, 289, 225, 416, 352
-0.976777, 297, 113, 360, 240
-0.976857, 89, 97, 152, 352
-0.976861, 289, 153, 320, 216
-0.976962, 377, 185, 408, 248
-0.977159, 273, 97, 336, 224
-0.977246, 221, 113, 252, 240
-0.977486, 409, 193, 440, 320
-0.977522, 153, 97, 184, 224
-0.977578, 145, 129, 208, 192
-0.977782, 377, 177, 408, 304
-0.977791, 353, 225, 416, 352
-0.977932, 401, 233, 464, 296
-0.97795, 277, 145, 308, 208
-0.97827, 17, 161, 80, 288
-0.97827, 89, 169, 152, 232
-0.978444, 233, 177, 296, 304
-0.978612, 1, 97, 128, 224
-0.978718, 81, 105, 144, 168
-0.978792, 209, 241, 336, 362
-0.978796, 177, 113, 208, 240
-0.978921, 177, 177, 304, 240
-0.979069, 289, 145, 320, 272
-0.979159, 253, 129, 284, 256
-0.979188, 105, 25, 168, 88
-0.97921, 161, 1, 224, 256
-0.979219, 313, 161, 344, 224
-0.979225, 137, 1, 200, 64
-0.979284, 185, 169, 248, 232
-0.979317, 185, 121, 216, 184
-0.97937, 137, 33, 200, 288
-0.979497, 409, 193, 440, 256
-0.979746, 145, 153, 272, 216
-0.979755, 173, 121, 204, 184
-0.979824, 345, 161, 408, 224
-0.979859, 217, 97, 280, 352
-0.979958, 229, 153, 260, 216
-0.980006, 261, 169, 292, 232
-0.980119, 257, 97, 320, 352
-0.980127, 57, 1, 120, 256
-0.980271, 185, 65, 248, 192
-0.980334, 97, 145, 128, 208
-0.980827, 257, 177, 320, 240
-0.980945, 45, 209, 76, 336
-0.981014, 105, 81, 168, 144
-0.981232, 177, 49, 304, 176
-0.981366, 289, 161, 416, 224
-0.981413, 201, 145, 232, 208
-0.981473, 189, 145, 220, 208
-0.981492, 313, 97, 376, 352
-0.981631, 193, 121, 320, 184
-0.981788, 49, 137, 112, 200
-0.981841, 425, 241, 488, 304
-0.981845, 317, 161, 348, 288
-0.981856, 421, 209, 452, 272
-0.981958, 345, 273, 408, 336
-0.982, 65, 65, 128, 192
-0.982034, 369, 249, 496, 312
-0.982123, 49, 193, 176, 320
-0.982246, 421, 185, 452, 248
-0.982299, 161, 1, 288, 128
-0.982384, 117, 97, 148, 224
-0.982387, 97, 1, 160, 256
-0.982472, 129, 113, 160, 176
-0.982508, 169, 17, 232, 80
-0.982517, 81, 1, 144, 128
-0.982569, 137, 1, 200, 128
-0.982696, 313, 145, 376, 208
-0.982858, 385, 257, 448, 320
-0.982871, 249, 121, 280, 184
-0.982882, 169, 97, 232, 352
-0.982889, 241, 177, 368, 240
-0.98307, 73, 193, 104, 320
-0.983082, 369, 185, 496, 248
-0.983145, 353, 233, 416, 296
-0.983161, 129, 97, 160, 224
-0.983229, 25, 281, 88, 344
-0.983245, 81, 161, 208, 224
-0.98327, 49, 97, 176, 224
-0.983346, 325, 169, 356, 232
-0.983415, 65, 33, 128, 96
-0.983504, 277, 145, 308, 272
-0.983512, 13, 193, 44, 320
-0.983545, 205, 169, 236, 232
-0.983566, 1, 201, 128, 264
-0.983568, 1, 1, 128, 128
-0.983609, 433, 129, 496, 256
-0.983626, 225, 33, 480, 160
-0.983716, 249, 1, 312, 256
-0.983721, 209, 105, 272, 168
-0.983802, 289, 1, 352, 256
-0.983824, 433, 225, 496, 352
-0.983847, 205, 241, 236, 362
-0.983959, 49, 17, 176, 80
-0.983985, 73, 177, 104, 240
-0.983993, 449, 177, 480, 304
-0.984005, 1, 193, 32, 320
-0.98402, 161, 161, 224, 288
-0.984051, 193, 33, 256, 288
-0.984086, 405, 233, 436, 296
-0.984238, 289, 137, 352, 200
-0.984344, 361, 209, 424, 272
-0.984426, 337, 177, 368, 240
-0.984449, 73, 201, 104, 264
-0.984485, 289, 97, 352, 352
-0.984496, 81, 137, 112, 200
-0.984512, 73, 193, 136, 256
-0.984524, 1, 169, 128, 232
-0.984527, 145, 49, 208, 112
-0.984577, 385, 97, 448, 352
-0.984633, 393, 241, 424, 304
-0.984719, 17, 257, 80, 320
-0.984775, 105, 113, 136, 240
-0.984841, 401, 129, 464, 256
-0.984879, 369, 97, 496, 224
-0.984899, 25, 1, 88, 128
-0.984975, 349, 177, 380, 304
-0.984998, 105, 121, 136, 184
-0.985012, 345, 97, 408, 352
-0.985086, 73, 193, 136, 320
-0.985157, 241, 161, 272, 288
-0.985198, 229, 161, 260, 288
-0.985257, 305, 273, 432, 336
-0.985281, 329, 161, 360, 288
-0.985291, 321, 209, 448, 272
-0.985318, 129, 241, 256, 362
-0.985373, 29, 193, 60, 320
-0.985423, 349, 185, 380, 248
-0.985476, 25, 177, 88, 240
-0.985536, 25, 33, 88, 288
-0.985563, 133, 49, 164, 176
-0.985679, 417, 97, 480, 352
-0.985804, 329, 225, 392, 352
-0.985909, 57, 193, 88, 320
-0.985974, 25, 201, 56, 264
-0.98599, 393, 145, 424, 272
-0.986069, 93, 169, 124, 232
-0.986232, 53, 201, 84, 264
-0.986253, 173, 65, 204, 192
-0.986343, 217, 121, 248, 184
-0.986471, 305, 145, 336, 272
-0.986471, 365, 185, 396, 248
-0.986478, 205, 177, 236, 304
-0.98649, 437, 177, 468, 304
-0.986496, 145, 105, 272, 168
-0.986515, 109, 1, 140, 64
-0.986576, 377, 161, 440, 224
-0.986602, 365, 193, 396, 320
-0.986708, 157, 49, 188, 176
-0.986708, 73, 129, 104, 256
-0.98681, 57, 1, 120, 128
-0.986858, 217, 161, 248, 288
-0.9869, 97, 9, 224, 72
-0.98691, 433, 209, 464, 272
-0.986986, 225, 193, 352, 320
-0.987025, 25, 9, 88, 72
-0.987084, 337, 153, 464, 216
-0.987098, 241, 129, 368, 192
-0.98713, 65, 137, 320, 200
-0.987156, 137, 1, 200, 362
-0.987215, 165, 113, 196, 240
-0.987306, 65, 185, 192, 248
-0.987314, 217, 169, 248, 232
-0.987362, 137, 89, 168, 152
-0.987375, 321, 273, 384, 336
-0.987379, 41, 1, 104, 362
-0.98752, 193, 145, 224, 272
-0.98753, 301, 153, 332, 216
-0.987549, 249, 1, 312, 362
-0.987589, 321, 233, 448, 296
-0.987604, 405, 145, 436, 272
-0.98762, 17, 113, 144, 176
-0.987628, 1, 41, 64, 104
-0.987675, 13, 201, 44, 264
-0.987689, 57, 9, 120, 72
-0.987714, 49, 97, 112, 352
-0.987718, 1, 1, 64, 256
-0.987759, 77, 1, 108, 64
-0.987764, 281, 281, 344, 344
-0.987837, 169, 1, 232, 362
-0.98785, 313, 1, 376, 256
-0.987895, 165, 97, 196, 160
-0.988142, 193, 1, 256, 362
-0.988213, 145, 49, 176, 176
-0.988321, 1, 177, 64, 240
-0.988372, 225, 289, 352, 352
-0.988388, 1, 201, 32, 264
-0.988453, 1, 169, 500, 232
-0.988472, 265, 145, 296, 272
-0.988531, 117, 49, 148, 176
-0.988597, 97, 1, 128, 64
-0.988638, 313, 137, 344, 200
-0.988664, 57, 257, 120, 320
-0.988679, 397, 169, 428, 232
-0.9887, 185, 97, 248, 160
-0.988738, 113, 97, 176, 352
-0.988782, 289, 1, 352, 362
-0.988793, 1, 1, 64, 362
-0.988812, 249, 169, 280, 232
-0.988833, 1, 25, 128, 88
-0.988917, 425, 145, 456, 272
-0.988998, 225, 1, 288, 362
-0.988999, 113, 113, 176, 144
-0.989013, 225, 33, 352, 160
-0.989013, 393, 217, 424, 280
-0.989045, 177, 125, 240, 156
-0.989094, 285, 97, 316, 224
-0.989172, 225, 165, 288, 196
-0.989203, 169, 1, 232, 128
-0.989205, 389, 241, 420, 362
-0.989211, 265, 153, 328, 184
-0.989221, 273, 177, 304, 240
-0.989227, 313, 193, 376, 256
-0.989243, 177, 241, 240, 362
-0.989273, 49, 281, 80, 344
-0.989327, 217, 1, 280, 256
-0.989348, 137, 113, 200, 144
-0.989353, 445, 185, 476, 248
-0.989372, 121, 1, 152, 64
-0.989394, 201, 157, 264, 188
-0.989399, 81, 49, 208, 112
-0.989427, 141, 97, 172, 224
-0.989434, 433, 185, 464, 248
-0.989497, 129, 33, 256, 96
-0.989564, 153, 73, 184, 136
-0.989582, 197, 49, 228, 176
-0.989656, 381, 241, 412, 304
-0.989685, 417, 233, 448, 296
-0.989708, 241, 153, 304, 184
-0.989742, 225, 297, 288, 360
-0.989776, 209, 145, 272, 176
-0.98978, 37, 209, 68, 272
-0.989799, 201, 129, 264, 160
-0.989842, 93, 113, 124, 176
-0.989848, 65, 161, 320, 224
-0.989858, 345, 1, 408, 256
-0.989862, 93, 97, 124, 224
-0.989888, 49, 281, 112, 344
-0.989927, 125, 89, 156, 152
-0.989928, 169, 57, 232, 120
-0.989954, 177, 97, 208, 160
-0.989994, 469, 225, 500, 288
-0.989999, 281, 185, 344, 248
-0.99, 121, 101, 184, 132
-0.990056, 137, 25, 168, 88
-0.990091, 81, 81, 208, 144
-0.990122, 1, 1, 64, 128
-0.990123, 369, 189, 432, 220
-0.990127, 185, 49, 216, 176
-0.990164, 169, 157, 232, 188
-0.990206, 193, 265, 256, 328
-0.990213, 161, 249, 224, 312
-0.990292, 97, 49, 128, 176
-0.990309, 169, 141, 232, 172
-0.990321, 65, 113, 320, 176
-0.990387, 377, 161, 408, 224
-0.990406, 409, 217, 472, 248
-0.990422, 161, 161, 416, 224
-0.990424, 289, 129, 416, 192
-0.990425, 345, 1, 408, 362
-0.990446, 297, 169, 360, 200
-0.990458, 105, 25, 136, 88
-0.990462, 301, 177, 332, 240
-0.990532, 377, 209, 408, 272
-0.99054, 345, 193, 408, 224
-0.990589, 365, 129, 396, 256
-0.990708, 145, 125, 208, 156
-0.990727, 321, 189, 384, 220
-0.990734, 105, 125, 168, 156
-0.990833, 49, 209, 112, 240
-0.990841, 1, 137, 128, 200
-0.990843, 457, 225, 488, 288
-0.990846, 377, 201, 440, 232
-0.990847, 201, 169, 264, 200
-0.990866, 161, 9, 288, 72
-0.990901, 241, 141, 304, 172
-0.990906, 289, 225, 352, 352
-0.990923, 469, 177, 500, 304
-0.990964, 233, 177, 296, 208
-0.990975, 289, 129, 320, 192
-0.990976, 49, 137, 176, 200
-0.991008, 65, 1, 96, 128
-0.991028, 401, 161, 464, 224
-0.991034, 1, 1, 128, 64
-0.991066, 113, 1, 144, 128
-0.991093, 17, 209, 80, 240
-0.991111, 145, 101, 208, 132
-0.991122, 385, 1, 448, 362
-0.991129, 385, 241, 448, 272
-0.991226, 385, 229, 448, 260
-0.991255, 33, 49, 96, 112
-0.991259, 89, 137, 152, 168
-0.991262, 417, 193, 480, 224
-0.991272, 137, 1, 168, 64
-0.991284, 217, 241, 280, 362
-0.9913, 105, 57, 168, 120
-0.991335, 49, 193, 112, 224
-0.991336, 1, 97, 64, 352
-0.991343, 337, 173, 400, 204
-0.991381, 161, 113, 224, 144
-0.991386, 353, 161, 384, 224
-0.99147, 345, 129, 376, 256
-0.991519, 129, 81, 256, 144
-0.991521, 61, 281, 92, 344
-0.991524, 261, 121, 292, 184
-0.99153, 233, 193, 296, 256
-0.991534, 377, 225, 408, 352
-0.991542, 169, 169, 232, 200
-0.991563, 65, 1, 128, 362
-0.99157, 409, 241, 472, 272
-0.991574, 273, 121, 304, 184
-0.991582, 377, 213, 440, 244
-0.991606, 289, 213, 352, 244
-0.991651, 129, 33, 192, 64
-0.991666, 209, 181, 272, 212
-0.991667, 49, 177, 112, 208
-0.991674, 105, 25, 168, 56
-0.991684, 313, 1, 376, 362
-0.991732, 313, 121, 376, 184
-0.991761, 273, 165, 336, 196
-0.991761, 417, 1, 480, 362
-0.991791, 81, 173, 144, 204
-0.991827, 73, 9, 136, 40
-0.991841, 105, 1, 168, 362
-0.991865, 237, 177, 268, 240
-0.991866, 257, 281, 320, 344
-0.991867, 437, 225, 468, 352
-0.991873, 393, 189, 456, 220
-0.991874, 89, 157, 152, 188
-0.991881, 417, 229, 480, 260
-0.991893, 17, 277, 80, 308
-0.991905, 57, 145, 120, 176
-0.991946, 177, 297, 304, 360
-0.991946, 417, 253, 480, 284
-0.991969, 81, 197, 144, 228
-0.991983, 325, 145, 356, 208
-0.991987, 249, 165, 312, 196
-0.991987, 297, 181, 360, 212
-0.991997, 145, 17, 208, 48
-0.992023, 49, 221, 112, 252
-0.992043, 17, 89, 144, 152
-0.992079, 53, 1, 84, 128
-0.992096, 265, 177, 328, 208
-0.992111, 73, 21, 136, 52
-0.992138, 209, 117, 272, 148
-0.992141, 257, 185, 500, 248
-0.992156, 273, 17, 400, 144
-0.99217, 249, 189, 312, 220
-0.992173, 89, 113, 152, 144
-0.992179, 445, 209, 476, 272
-0.992187, 129, 57, 256, 120
-0.992192, 433, 241, 496, 272
-0.992192, 145, 137, 208, 168
-0.992196, 1, 145, 500, 208
-0.992213, 105, 37, 168, 68
-0.992216, 73, 33, 136, 64
-0.992221, 129, 45, 192, 76
-0.992231, 1, 197, 64, 228
-0.992233, 233, 129, 296, 160
-0.992239, 345, 229, 408, 260
-0.992244, 153, 105, 184, 136
-0.99228, 385, 261, 448, 292
-0.992296, 365, 161, 396, 224
-0.992297, 329, 277, 392, 308
-0.992314, 229, 105, 260, 168
-0.992318, 173, 125, 204, 156
-0.992324, 305, 97, 336, 224
-0.992339, 25, 289, 88, 320
-0.992339, 97, 13, 160, 44
-0.992343, 361, 245, 424, 276
-0.992354, 33, 233, 96, 264
-0.992361, 217, 161, 248, 192
-0.992374, 249, 157, 280, 188
-0.992387, 201, 125, 232, 156
-0.992404, 1, 45, 64, 76
-0.992405, 377, 189, 408, 220
-0.992409, 117, 113, 148, 144
-0.992409, 409, 169, 440, 232
-0.992447, 129, 113, 160, 144
-0.992449, 397, 193, 428, 224
-0.992459, 65, 125, 128, 156
-0.992465, 317, 97, 348, 224
-0.992468, 209, 149, 240, 180
-0.99249, 261, 153, 292, 184
-0.992497, 129, 177, 256, 240
-0.992504, 81, 185, 144, 216
-0.992516, 261, 169, 292, 200
-0.99252, 161, 137, 416, 200
-0.992523, 313, 201, 376, 232
-0.992533, 185, 125, 216, 156
-0.992537, 253, 81, 284, 208
-0.992563, 185, 181, 248, 212
-0.992579, 317, 165, 348, 196
-0.992585, 113, 1, 176, 32
-0.992603, 57, 281, 120, 312
-0.992616, 25, 197, 88, 228
-0.99262, 197, 157, 228, 188
-0.992624, 97, 141, 128, 172
-0.992632, 137, 1, 200, 32
-0.99264, 113, 89, 176, 120
-0.992659, 353, 273, 416, 304
-0.992688, 409, 205, 472, 236
-0.992693, 157, 121, 188, 184
-0.992698, 177, 17, 208, 80
-0.992698, 237, 129, 268, 160
-0.992711, 233, 217, 296, 248
-0.99272, 337, 161, 400, 192
-0.99272, 137, 329, 200, 360
-0.992729, 117, 25, 148, 88
-0.992733, 233, 169, 264, 200
-0.992733, 89, 325, 152, 356
-0.992736, 201, 253, 264, 284
-0.99274, 277, 149, 308, 180
-0.992745, 321, 221, 384, 252
-0.992751, 65, 241, 96, 362
-0.992754, 345, 189, 376, 220
-0.992756, 85, 145, 116, 176
-0.992757, 257, 209, 500, 272
-0.992762, 77, 25, 108, 88
-0.992768, 97, 241, 352, 362
-0.992769, 241, 257, 368, 320
-0.992786, 73, 209, 136, 240
-0.992791, 153, 45, 216, 76
-0.992792, 397, 205, 428, 236
-0.992797, 457, 185, 488, 248
-0.992802, 241, 145, 272, 176
-0.992819, 73, 193, 104, 224
-0.992826, 377, 177, 440, 208
-0.992828, 353, 209, 416, 240
-0.992828, 57, 45, 120, 76
-0.99283, 301, 129, 332, 192
-0.99283, 237, 157, 268, 188
-0.992832, 65, 257, 96, 320
-0.992842, 313, 153, 376, 184
-0.992845, 249, 169, 280, 200
-0.992847, 273, 189, 336, 220
-0.992849, 105, 53, 168, 84
-0.992849, 273, 201, 336, 232
-0.992852, 153, 89, 216, 120
-0.992853, 185, 137, 216, 168
-0.992858, 273, 201, 400, 264
-0.99286, 409, 197, 440, 228
-0.992864, 169, 33, 232, 64
-0.992866, 433, 217, 496, 248
-0.992866, 141, 113, 172, 144
-0.99287, 97, 129, 128, 160
-0.99287, 421, 213, 452, 244
-0.992871, 113, 137, 176, 168
-0.992875, 385, 1, 448, 256
-0.992877, 25, 301, 88, 332
-0.992878, 329, 177, 360, 208
-0.992878, 257, 141, 288, 172
-0.992881, 49, 241, 176, 362
-0.992895, 281, 105, 344, 168
-0.9929, 73, 205, 104, 236
-0.992901, 169, 21, 232, 52
-0.992903, 49, 9, 112, 40
-0.992908, 117, 125, 148, 156
-0.992917, 281, 289, 344, 320
-0.992923, 421, 193, 452, 224
-0.992928, 293, 157, 324, 188
-0.992932, 65, 157, 128, 188
-0.992933, 153, 117, 184, 148
-0.992933, 169, 321, 232, 352
-0.992938, 225, 129, 256, 160
-0.99295, 217, 49, 248, 176
-0.992961, 173, 137, 204, 168
-0.992961, 61, 281, 92, 312
-0.992963, 349, 273, 380, 336
-0.992964, 193, 273, 256, 304
-0.992966, 225, 305, 288, 336
-0.992984, 97, 117, 224, 148
-0.992984, 73, 181, 104, 212
-0.992992, 257, 181, 288, 212
-0.992994, 405, 245, 436, 276
-0.992998, 221, 149, 252, 180
-0.993001, 241, 105, 368, 168
-0.99301, 305, 161, 336, 192
-0.99301, 281, 137, 344, 168
-0.993011, 237, 65, 268, 192
-0.993012, 25, 221, 88, 252
-0.993016, 201, 169, 232, 200
-0.993033, 361, 193, 392, 224
-0.993035, 161, 265, 288, 328
-0.993052, 169, 101, 232, 132
-0.993053, 33, 33, 96, 64
-0.993054, 17, 209, 48, 240
-0.993057, 205, 137, 236, 168
-0.99306, 53, 209, 84, 240
-0.993062, 1, 241, 64, 272
-0.993073, 169, 57, 232, 88
-0.993076, 93, 157, 124, 188
-0.993091, 185, 149, 216, 180
-0.993093, 281, 277, 344, 308
-0.993094, 89, 169, 120, 200
-0.993097, 193, 313, 256, 344
-0.993098, 133, 101, 164, 132
-0.993098, 257, 277, 320, 308
-0.993104, 45, 277, 76, 308
-0.993106, 321, 17, 448, 144
-0.993109, 173, 113, 204, 144
-0.993116, 397, 229, 428, 260
-0.993117, 33, 45, 96, 76
-0.993119, 33, 209, 64, 240
-0.993122, 145, 65, 208, 96
-0.993139, 205, 261, 236, 292
-0.993141, 153, 93, 184, 124
-0.993144, 113, 329, 176, 360
-0.993144, 129, 125, 160, 156
-0.993146, 441, 241, 472, 272
-0.993146, 317, 213, 348, 244
-0.993147, 393, 249, 424, 280
-0.993147, 381, 265, 412, 328
-0.993154, 453, 229, 484, 260
-0.993162, 57, 293, 120, 324
-0.993167, 269, 181, 300, 212
-0.993167, 161, 129, 192, 160
-0.993177, 257, 129, 320, 160
-0.993183, 433, 213, 464, 244
-0.993189, 109, 137, 140, 168
-0.993198, 137, 29, 168, 60
-0.99321, 233, 277, 296, 308
-0.993212, 145, 77, 208, 108
-0.993218, 241, 201, 304, 232
-0.993218, 193, 97, 320, 160
-0.993226, 409, 213, 440, 244
-0.993226, 421, 233, 452, 264
-0.993229, 253, 145, 268, 208
-0.993265, 325, 201, 356, 232
-0.993266, 385, 205, 416, 236
-0.993274, 1, 209, 32, 240
-0.993277, 245, 181, 276, 212
-0.993285, 213, 121, 244, 152
-0.993289, 101, 9, 132, 40
-0.99329, 213, 173, 244, 204
-0.993293, 341, 173, 372, 204
-0.993301, 37, 185, 68, 248
-0.993301, 89, 193, 120, 224
-0.993304, 113, 1, 144, 32
-0.993312, 469, 241, 500, 272
-0.993314, 357, 181, 388, 212
-0.99333, 81, 9, 112, 40
-0.993331, 105, 21, 136, 52
-0.993331, 445, 217, 476, 248
-0.993332, 65, 293, 96, 324
-0.993335, 9, 45, 40, 76
-0.993339, 105, 113, 136, 144
-0.993341, 225, 117, 256, 148
-0.993346, 433, 233, 464, 296
-0.993351, 61, 197, 92, 228
-0.993358, 153, 9, 184, 72
-0.993362, 465, 229, 496, 260
-0.993365, 417, 245, 448, 276
-0.993371, 273, 169, 304, 200
-0.993373, 65, 1, 96, 32
-0.993374, 185, 113, 216, 144
-0.993376, 377, 217, 408, 248
-0.993381, 453, 241, 484, 272
-0.993384, 393, 217, 424, 248
-0.993386, 173, 149, 204, 180
-0.993387, 85, 29, 116, 60
-0.993395, 5, 193, 36, 224
-0.993399, 369, 177, 400, 208
-0.9934, 381, 245, 412, 276
-0.993403, 277, 137, 308, 168
-0.993406, 201, 297, 264, 360
-0.993408, 53, 229, 84, 260
-0.993411, 121, 325, 152, 356
-0.993413, 69, 217, 100, 248
-0.993415, 273, 217, 304, 248
-0.993418, 137, 49, 168, 80
-0.993419, 433, 253, 464, 284
-0.99342, 409, 229, 440, 260
-0.993423, 85, 205, 116, 236
-0.993428, 117, 25, 148, 56
-0.993428, 117, 13, 148, 44
-0.993445, 377, 229, 408, 260
-0.993449, 389, 181, 420, 212
-0.993452, 45, 289, 76, 320
-0.993456, 341, 161, 372, 192
-0.993458, 433, 193, 464, 224
-0.993459, 33, 197, 64, 228
-0.993459, 417, 241, 448, 362
-0.99346, 93, 181, 124, 212
-0.993461, 209, 153, 336, 184
-0.993464, 253, 129, 284, 160
-0.993468, 333, 189, 364, 220
-0.993468, 101, 41, 132, 72
-0.993469, 389, 265, 420, 296
-0.99347, 225, 181, 256, 212
-0.993472, 173, 97, 204, 128
-0.993499, 61, 145, 92, 272
-0.993522, 269, 145, 284, 208
-0.993528, 85, 193, 116, 256
-0.993547, 89, 25, 120, 88
-0.993606, 1, 193, 500, 256
-0.99364, 1, 49, 64, 176
-0.993652, 405, 241, 436, 362
-0.993666, 161, 169, 224, 232
-0.993681, 177, 225, 240, 288
-0.993694, 337, 145, 368, 208
-0.993701, 33, 49, 96, 176
-0.993737, 201, 241, 264, 304
-0.993774, 173, 17, 204, 144
-0.993792, 61, 177, 92, 240
-0.993795, 273, 97, 304, 224
-0.99381, 101, 1, 132, 128
-0.993825, 337, 137, 400, 200
-0.993879, 259, 145, 274, 208
-0.993884, 193, 201, 320, 264
-0.993889, 45, 161, 76, 288
-0.993904, 193, 169, 224, 232
-0.994014, 1, 177, 32, 240
-0.994014, 329, 281, 360, 344
-0.994028, 65, 17, 96, 80
-0.994029, 145, 129, 272, 160
-0.994038, 225, 165, 352, 196
-0.994069, 177, 165, 304, 196
-0.994071, 173, 145, 204, 208
-0.994076, 1, 145, 32, 272
-0.994107, 209, 241, 240, 304
-0.994125, 241, 33, 304, 160
-0.99415, 289, 65, 416, 192
-0.994158, 333, 113, 364, 240
-0.994165, 273, 225, 400, 288
-0.994262, 9, 41, 40, 104
-0.994265, 233, 129, 248, 192
-0.994294, 381, 129, 412, 256
-0.994296, 97, 137, 224, 168
-0.994314, 197, 97, 228, 160
-0.994339, 225, 145, 240, 208
-0.994356, 17, 49, 144, 112
-0.994425, 413, 193, 428, 256
-0.994426, 73, 81, 136, 144
-0.994447, 197, 273, 228, 336
-0.994464, 33, 185, 288, 248
-0.994476, 141, 113, 172, 176
-0.994482, 257, 177, 384, 208
-0.994517, 321, 193, 448, 224
-0.994569, 205, 121, 220, 184
-0.994595, 57, 113, 120, 176
-0.994601, 309, 153, 324, 216
-0.994605, 247, 137, 262, 200
-0.994656, 275, 145, 290, 208
-0.994686, 297, 257, 360, 320
-0.99469, 169, 193, 232, 256
-0.994714, 119, 105, 134, 168
-0.994723, 215, 121, 230, 184
-0.994741, 321, 1, 384, 128
-0.994753, 217, 145, 232, 208
-0.994797, 281, 209, 344, 272
-0.994816, 1, 121, 500, 184
-0.994847, 81, 157, 208, 188
-0.994915, 241, 129, 256, 192
-0.994923, 95, 169, 110, 232
-0.994968, 113, 89, 144, 152
-0.994983, 45, 257, 76, 320
-0.994999, 13, 145, 44, 272
-0.995053, 161, 141, 288, 172
-0.995062, 369, 265, 400, 328
-0.995079, 281, 145, 296, 208
-0.995091, 125, 1, 156, 128
-0.995093, 187, 121, 202, 184
-0.995096, 353, 217, 480, 248
-0.99511, 13, 177, 44, 240
-0.995141, 167, 97, 182, 160
-0.995144, 147, 105, 162, 168
-0.99518, 199, 121, 214, 184
-0.995204, 437, 129, 468, 256
-0.99525, 95, 137, 110, 200
-0.995276, 257, 153, 500, 216
-0.99529, 157, 33, 188, 96
-0.995294, 231, 153, 246, 216
-0.99531, 321, 205, 448, 236
-0.995325, 305, 17, 432, 80
-0.995327, 85, 193, 116, 320
-0.995346, 321, 297, 448, 360
-0.995356, 405, 257, 436, 320
-0.995376, 329, 249, 392, 312
-0.995389, 241, 33, 368, 96
-0.995397, 169, 273, 232, 336
-0.995441, 469, 185, 500, 248
-0.995468, 399, 185, 414, 248
-0.995472, 369, 229, 496, 260
-0.995522, 101, 145, 116, 208
-0.995557, 1, 273, 128, 336
-0.99557, 391, 185, 406, 248
-0.995573, 353, 273, 480, 336
-0.995581, 161, 185, 416, 248
-0.995602, 193, 281, 448, 344
-0.995603, 193, 121, 208, 184
-0.995618, 109, 137, 124, 200
-0.995628, 221, 121, 236, 184
-0.995662, 299, 153, 314, 216
-0.995692, 1, 209, 128, 240
-0.995697, 253, 177, 284, 304
-0.995699, 97, 105, 224, 136
-0.995712, 141, 105, 156, 168
-0.995716, 97, 89, 352, 152
-0.995726, 377, 185, 392, 248
-0.995731, 287, 145, 302, 208
-0.995737, 181, 161, 212, 288
-0.995742, 49, 177, 80, 240
-0.995745, 253, 121, 268, 184
-0.995746, 157, 97, 172, 160
-0.995747, 225, 273, 288, 336
-0.995768, 131, 105, 146, 168
-0.99577, 317, 281, 348, 344
-0.995777, 319, 161, 334, 224
-0.995807, 211, 145, 226, 208
-0.995831, 465, 129, 496, 256
-0.995836, 1, 233, 64, 296
-0.995844, 175, 129, 190, 192
-0.995858, 177, 41, 304, 104
-0.995862, 53, 1, 84, 64
-0.995886, 203, 145, 218, 208
-0.995897, 77, 1, 108, 128
-0.995936, 193, 49, 256, 112
-0.995937, 1, 9, 256, 72
-0.995948, 405, 185, 420, 248
-0.995959, 445, 233, 476, 296
-0.995966, 341, 177, 356, 240
-0.99598, 145, 153, 272, 184
-0.995988, 425, 209, 440, 272
-0.995989, 273, 169, 288, 232
-0.996022, 161, 113, 416, 176
-0.996028, 327, 161, 342, 224
-0.996029, 137, 1, 168, 128
-0.996033, 247, 161, 262, 224
-0.99604, 383, 185, 398, 248
-0.996048, 225, 233, 480, 296
-0.996078, 133, 65, 164, 128
-0.996094, 257, 225, 320, 352
-0.996123, 403, 241, 418, 304
-0.996153, 1, 33, 256, 96
-0.996162, 85, 177, 100, 240
-0.996177, 161, 225, 288, 288
-0.996184, 371, 185, 386, 248
-0.996194, 257, 129, 500, 192
-0.996196, 111, 1, 126, 64
-0.996199, 263, 169, 278, 232
-0.996207, 49, 233, 176, 296
-0.996227, 111, 113, 126, 176
-0.99623, 397, 241, 412, 304
-0.996233, 65, 173, 192, 204
-0.996234, 333, 161, 348, 224
-0.996239, 129, 145, 192, 272
-0.996249, 257, 105, 320, 168
-0.996266, 79, 201, 94, 264
-0.996301, 369, 1, 496, 128
-0.996305, 97, 9, 352, 72
-0.996325, 415, 217, 430, 280
-0.996327, 217, 241, 248, 362
-0.99633, 85, 201, 100, 264
-0.996333, 409, 1, 472, 256
-0.996337, 369, 189, 496, 220
-0.996357, 25, 145, 56, 272
-0.996358, 129, 169, 256, 200
-0.996358, 61, 281, 76, 344
-0.996363, 61, 41, 92, 104
-0.996365, 425, 185, 440, 248
-0.996366, 1, 49, 32, 176
-0.996367, 415, 241, 430, 304
-0.996403, 177, 181, 304, 212
-0.996417, 369, 241, 496, 272
-0.996418, 31, 201, 46, 264
-0.996421, 209, 141, 336, 172
-0.996435, 257, 153, 384, 184
-0.99644, 177, 97, 192, 160
-0.996452, 257, 257, 500, 320
-0.996458, 363, 185, 378, 248
-0.99646, 25, 201, 40, 264
-0.996464, 305, 217, 368, 280
-0.996476, 211, 169, 226, 232
-0.996491, 157, 1, 188, 128
-0.996492, 33, 297, 160, 360
-0.996519, 431, 185, 446, 248
-0.99652, 409, 225, 424, 288
-0.996585, 79, 177, 94, 240
-0.996616, 149, 81, 164, 144
-0.996637, 419, 193, 434, 256
-0.996639, 25, 177, 56, 240
-0.996643, 417, 257, 448, 320
-0.996653, 357, 185, 372, 248
-0.996663, 49, 9, 176, 40
-0.996687, 227, 121, 242, 184
-0.996688, 241, 161, 256, 224
-0.996696, 49, 117, 176, 148
-0.99671, 113, 249, 240, 312
-0.996736, 65, 197, 192, 228
-0.996742, 219, 169, 234, 232
-0.996756, 197, 145, 212, 208
-0.996788, 253, 169, 268, 232
-0.996805, 349, 185, 364, 248
-0.996816, 1, 217, 500, 280
-0.996822, 125, 105, 140, 168
-0.996825, 193, 9, 256, 72
-0.996827, 173, 73, 204, 136
-0.99684, 145, 117, 272, 148
-0.996843, 321, 173, 448, 204
-0.996844, 113, 297, 240, 360
-0.996848, 69, 201, 84, 264
-0.996857, 181, 121, 196, 184
-0.996865, 1, 89, 256, 152
-0.996869, 401, 209, 416, 272
-0.996897, 55, 201, 70, 264
-0.996912, 293, 153, 308, 216
-0.996913, 81, 25, 208, 56
-0.996923, 7, 201, 22, 264
-0.996927, 61, 201, 76, 264
-0.99693, 225, 177, 240, 240
-0.996939, 97, 89, 128, 152
-0.996946, 377, 97, 440, 224
-0.996947, 1, 189, 128, 220
-0.996952, 441, 209, 456, 272
-0.996957, 247, 113, 262, 176
-0.99697, 41, 201, 56, 264
-0.996981, 439, 185, 454, 248
-0.996985, 185, 241, 216, 304
-0.996989, 279, 169, 294, 232
-0.997009, 49, 209, 176, 272
-0.997021, 49, 209, 64, 272
-0.99707, 87, 1, 102, 64
-0.997077, 421, 233, 436, 296
-0.997115, 187, 125, 202, 156
-0.997138, 1, 169, 128, 200
-0.997143, 137, 1, 152, 64
-0.997147, 469, 225, 484, 288
-0.997148, 89, 137, 104, 200
-0.997159, 435, 209, 450, 272
-0.997169, 117, 129, 132, 192
-0.997172, 1, 201, 16, 264
-0.997175, 13, 201, 28, 264
-0.997181, 449, 129, 480, 256
-0.997206, 297, 281, 328, 344
-0.997217, 257, 213, 384, 244
-0.997227, 61, 49, 92, 176
-0.997228, 313, 17, 376, 80
-0.997232, 261, 121, 276, 184
-0.997235, 333, 241, 364, 362
-0.997267, 97, 9, 224, 40
-0.997272, 353, 225, 384, 352
-0.997282, 231, 177, 246, 240
-0.997289, 317, 137, 332, 200
-0.99729, 95, 145, 110, 176
-0.997291, 73, 177, 88, 240
-0.997291, 93, 97, 124, 352
-0.997303, 17, 129, 144, 160
-0.997314, 209, 9, 336, 72
-0.997315, 321, 245, 448, 276
-0.997321, 273, 165, 400, 196
-0.997321, 369, 261, 496, 292
-0.997325, 1, 153, 128, 184
-0.997334, 137, 81, 152, 144
-0.997338, 49, 37, 176, 68
-0.997348, 451, 185, 466, 248
-0.997351, 301, 129, 316, 192
-0.99736, 253, 145, 268, 176
-0.997364, 237, 97, 268, 352
-0.997367, 257, 189, 384, 220
-0.997399, 263, 153, 278, 184
-0.997406, 365, 241, 396, 362
-0.99741, 129, 201, 256, 264
-0.997412, 261, 165, 276, 196
-0.997422, 65, 185, 192, 216
-0.99743, 351, 161, 366, 224
-0.997439, 19, 201, 34, 264
-0.997442, 381, 161, 396, 224
-0.997447, 249, 257, 312, 320
-0.99745, 133, 113, 148, 144
-0.99745, 353, 297, 416, 360
-0.997458, 293, 129, 308, 192
-0.997462, 391, 161, 406, 224
-0.997471, 123, 109, 138, 140
-0.997472, 445, 185, 460, 248
-0.997475, 409, 193, 424, 224
-0.997482, 99, 113, 114, 176
-0.997492, 447, 209, 462, 272
-0.997493, 457, 217, 472, 280
-0.997501, 297, 17, 360, 144
-0.997504, 203, 273, 218, 336
-0.997504, 153, 33, 184, 288
-0.997505, 169, 121, 184, 184
-0.997506, 201, 97, 232, 352
-0.997509, 1, 1, 32, 128
-0.997513, 189, 97, 204, 160
-0.997531, 339, 153, 354, 216
-0.997534, 97, 49, 352, 112
-0.997551, 271, 153, 286, 184
-0.997557, 129, 1, 160, 256
-0.997558, 285, 97, 316, 352
-0.997564, 41, 97, 104, 224
-0.997575, 203, 153, 218, 184
-0.997576, 97, 1, 128, 256
-0.997577, 311, 129, 326, 192
-0.997579, 49, 233, 112, 296
-0.997587, 91, 193, 106, 256
-0.99759, 117, 1, 132, 64
-0.997595, 105, 1, 120, 64
-0.997604, 145, 117, 160, 148
-0.997605, 409, 249, 424, 312
-0.997606, 253, 157, 268, 188
-0.997606, 317, 97, 348, 352
-0.997607, 177, 1, 208, 256
-0.997612, 475, 225, 490, 288
-0.997613, 129, 45, 256, 76
-0.997618, 321, 233, 448, 264
-0.997625, 347, 185, 362, 216
-0.997627, 267, 169, 282, 200
-0.997635, 177, 129, 192, 160
-0.99764, 471, 185, 486, 248
-0.997652, 449, 225, 480, 352
-0.997654, 1, 65, 256, 128
-0.997657, 209, 225, 336, 288
-0.997662, 417, 169, 432, 232
-0.997666, 143, 1, 158, 64
-0.997685, 193, 129, 208, 160
-0.997694, 109, 145, 124, 176
-0.997697, 337, 209, 400, 272
-0.997701, 79, 205, 94, 236
-0.997708, 391, 189, 406, 220
-0.997715, 69, 1, 100, 256
-0.997719, 113, 297, 176, 360
-0.997719, 211, 153, 226, 184
-0.997723, 399, 193, 414, 224
-0.997728, 321, 273, 448, 304
-0.997729, 129, 33, 256, 64
-0.99773, 241, 129, 368, 160
-0.99774, 369, 205, 496, 236
-0.997755, 255, 133, 270, 164
-0.997774, 101, 157, 116, 188
-0.997775, 193, 241, 224, 362
-0.997783, 273, 281, 400, 312
-0.997786, 167, 105, 182, 136
-0.997787, 249, 169, 264, 200
-0.997789, 313, 161, 328, 192
-0.997796, 147, 105, 162, 136
-0.997802, 141, 105, 156, 136
-0.997816, 95, 169, 110, 200
-0.997817, 101, 145, 116, 176
-0.997817, 223, 149, 238, 180
-0.99782, 113, 1, 144, 256
-0.997824, 241, 161, 256, 192
-0.997835, 1, 225, 128, 288
-0.99786, 117, 113, 132, 144
-0.997865, 197, 1, 228, 256
-0.997878, 205, 125, 220, 156
-0.997894, 129, 21, 256, 52
-0.997895, 49, 53, 176, 84
-0.997906, 417, 197, 432, 228
-0.997919, 33, 241, 64, 362
-0.997929, 433, 161, 496, 224
-0.997951, 273, 173, 288, 204
-0.997959, 229, 137, 244, 168
-0.997963, 329, 97, 360, 352
-0.997964, 247, 157, 262, 188
-0.997966, 353, 17, 480, 80
-0.997982, 201, 209, 264, 272
-0.997983, 177, 113, 192, 144
-0.997984, 111, 125, 126, 156
-0.997984, 193, 117, 320, 148
-0.997986, 231, 161, 246, 192
-0.997988, 333, 169, 348, 200
-0.997996, 249, 129, 264, 160
-0.997997, 313, 297, 376, 360
-0.997998, 327, 165, 342, 196
-0.998004, 153, 105, 168, 136
-0.998004, 305, 153, 432, 184
-0.998011, 81, 1, 112, 256
-0.998024, 185, 97, 216, 352
-0.998024, 207, 165, 222, 196
-0.998031, 27, 201, 42, 232
-0.998034, 289, 141, 416, 172
-0.998038, 9, 1, 40, 256
-0.998041, 1, 241, 500, 304
-0.998042, 337, 105, 464, 168
-0.998046, 159, 101, 174, 132
-0.998063, 301, 157, 316, 188
-0.998066, 199, 141, 214, 172
-0.998068, 1, 249, 128, 312
-0.998075, 117, 133, 132, 164
-0.998076, 255, 177, 270, 208
-0.998077, 373, 97, 404, 352
-0.998078, 129, 153, 192, 216
-0.99808, 381, 193, 396, 224
-0.998085, 217, 149, 232, 180
-0.998086, 85, 181, 100, 212
-0.998094, 97, 297, 352, 360
-0.998101, 225, 301, 352, 332
-0.998104, 77, 65, 108, 192
-0.998105, 369, 297, 496, 360
-0.998107, 307, 157, 322, 188
-0.998112, 149, 93, 164, 124
-0.998114, 305, 97, 336, 352
-0.998126, 81, 93, 208, 124
-0.998126, 417, 209, 432, 240
-0.998135, 223, 129, 238, 160
-0.998142, 33, 141, 160, 172
-0.998143, 321, 165, 336, 196
-0.998151, 59, 277, 74, 308
-0.99817, 401, 205, 416, 236
-0.998174, 217, 49, 280, 112
-0.998177, 273, 225, 400, 256
-0.998179, 281, 149, 296, 180
-0.998191, 341, 185, 356, 216
-0.998196, 217, 161, 232, 192
-0.998196, 243, 173, 258, 204
-0.9982, 335, 181, 350, 212
-0.998201, 423, 193, 438, 224
-0.998209, 325, 209, 340, 240
-0.998214, 257, 209, 320, 272
-0.998218, 213, 97, 244, 352
-0.998222, 1, 17, 64, 80
-0.998222, 371, 193, 386, 224
-0.998224, 263, 141, 278, 172
-0.998228, 49, 265, 176, 328
-0.998232, 425, 213, 440, 244
-0.998232, 145, 105, 272, 136
-0.998235, 417, 245, 432, 276
-0.998245, 85, 205, 100, 236
-0.99825, 151, 117, 166, 148
-0.998252, 129, 93, 256, 124
-0.998253, 225, 161, 240, 192
-0.998257, 1, 289, 256, 352
-0.998259, 1, 37, 128, 68
-0.998267, 243, 125, 258, 156
-0.998269, 21, 209, 36, 240
-0.99827, 115, 9, 130, 40
-0.998277, 161, 321, 288, 352
-0.998279, 317, 1, 348, 256
-0.998286, 357, 189, 372, 220
-0.99829, 85, 193, 100, 224
-0.998291, 199, 129, 214, 160
-0.998294, 101, 133, 116, 164
-0.998294, 297, 1, 328, 256
-0.998297, 165, 1, 196, 256
-0.998299, 113, 321, 240, 352
-0.9983, 289, 149, 304, 180
-0.998303, 247, 141, 262, 172
-0.998304, 1, 1, 500, 64
-0.998312, 235, 129, 250, 160
-0.998315, 97, 273, 352, 336
-0.99832, 93, 39, 124, 54
-0.99832, 193, 129, 320, 160
-0.998321, 137, 35, 168, 50
-0.998321, 377, 207, 408, 222
-0.998321, 217, 183, 248, 198
-0.998322, 205, 147, 236, 162
-0.998322, 329, 171, 360, 186
-0.998323, 109, 347, 140, 362
-0.998324, 129, 25, 160, 40
-0.998325, 141, 133, 172, 148
-0.998328, 225, 125, 256, 140
-0.998328, 117, 5, 148, 20
-0.998329, 173, 109, 204, 124
-0.998329, 61, 283, 92, 298
-0.99833, 265, 347, 296, 362
-0.99833, 73, 47, 104, 62
-0.998331, 109, 11, 140, 26
-0.998331, 413, 249, 444, 264
-0.998332, 241, 221, 272, 236
-0.998333, 253, 223, 284, 238
-0.998337, 93, 15, 124, 30
-0.998338, 189, 275, 220, 290
-0.998338, 153, 99, 184, 114
-0.998339, 273, 201, 400, 232
-0.998339, 109, 25, 140, 40
-0.99834, 1, 203, 32, 218
-0.998341, 193, 221, 320, 252
-0.998341, 377, 217, 408, 232
-0.998342, 173, 149, 204, 164
-0.998342, 77, 9, 108, 24
-0.998342, 269, 185, 300, 200
-0.998343, 47, 209, 62, 240
-0.998345, 305, 167, 336, 182
-0.998346, 205, 265, 236, 280
-0.998346, 253, 191, 284, 206
-0.998346, 101, 161, 132, 176
-0.998347, 89, 157, 120, 172
-0.998347, 321, 221, 352, 236
-0.998348, 141, 1, 172, 256
-0.998348, 393, 225, 424, 240
-0.99835, 73, 211, 104, 226
-0.998353, 49, 283, 80, 298
-0.998353, 405, 223, 436, 238
-0.998353, 161, 137, 192, 152
-0.998354, 241, 145, 272, 160
-0.998354, 55, 209, 70, 240
-0.998355, 17, 25, 144, 56
-0.998356, 205, 133, 236, 148
-0.998356, 129, 131, 160, 146
-0.998358, 1, 209, 32, 224
-0.99836, 421, 195, 452, 210
-0.99836, 285, 157, 316, 172
-0.998361, 69, 213, 84, 244
-0.998361, 33, 211, 64, 226
-0.998361, 399, 249, 414, 280
-0.998361, 61, 289, 76, 320
-0.998363, 365, 193, 380, 224
-0.998363, 13, 205, 44, 220
-0.998366, 253, 139, 284, 154
-0.998368, 241, 151, 272, 166
-0.998369, 329, 181, 360, 196
-0.998369, 305, 179, 336, 194
-0.99837, 73, 189, 104, 204
-0.99837, 173, 143, 204, 158
-0.99837, 13, 17, 44, 144
-0.998371, 229, 155, 260, 170
-0.998372, 361, 195, 392, 210
-0.998373, 53, 211, 84, 226
-0.998373, 213, 121, 228, 152
-0.998374, 257, 149, 288, 164
-0.998374, 65, 295, 96, 310
-0.998383, 279, 173, 294, 204
-0.998383, 273, 297, 400, 360
-0.998384, 265, 171, 296, 186
-0.998387, 457, 229, 472, 260
-0.998388, 73, 181, 104, 196
-0.998388, 13, 211, 44, 226
-0.998389, 357, 97, 388, 352
-0.998389, 341, 177, 372, 192
-0.99839, 333, 187, 364, 202
-0.998391, 117, 135, 148, 150
-0.998392, 217, 153, 248, 168
-0.998392, 197, 171, 228, 186
-0.998393, 235, 173, 250, 204
-0.998394, 411, 245, 426, 276
-0.998395, 105, 141, 136, 156
-0.998396, 405, 213, 436, 228
-0.998396, 269, 177, 300, 192
-0.998397, 393, 209, 424, 224
-0.998397, 185, 155, 216, 170
-0.998398, 409, 197, 440, 212
-0.998399, 89, 175, 120, 190
-0.9984, 173, 97, 204, 352
-0.9984, 317, 177, 348, 192
-0.998404, 389, 191, 420, 206
-0.998405, 173, 121, 204, 136
-0.998405, 185, 123, 216, 138
-0.998407, 77, 97, 108, 352
-0.998407, 157, 117, 172, 148
-0.998408, 193, 165, 224, 180
-0.998409, 257, 177, 288, 192
-0.998413, 193, 141, 208, 172
-0.998413, 249, 155, 312, 170
-0.998414, 97, 135, 128, 150
-0.998415, 153, 121, 184, 136
-0.998415, 49, 105, 176, 136
-0.998416, 249, 133, 280, 148
-0.998417, 317, 215, 348, 230
-0.998419, 105, 147, 136, 162
-0.99842, 81, 145, 112, 160
-0.99842, 225, 133, 256, 148
-0.99842, 185, 147, 216, 162
-0.998421, 231, 253, 246, 284
-0.998428, 213, 1, 244, 256
-0.998429, 217, 173, 248, 188
-0.99843, 141, 119, 172, 134
-0.998431, 341, 173, 356, 204
-0.998432, 237, 181, 268, 196
-0.998433, 73, 195, 104, 210
-0.998433, 197, 159, 228, 174
-0.998434, 177, 129, 240, 144
-0.998435, 1, 9, 128, 40
-0.998436, 297, 161, 328, 176
-0.998441, 61, 289, 92, 304
-0.998443, 133, 109, 164, 124
-0.998443, 57, 33, 88, 288
-0.998445, 153, 127, 184, 142
-0.998446, 241, 159, 272, 174
-0.998447, 185, 137, 216, 152
-0.998448, 129, 111, 192, 126
-0.998452, 257, 183, 288, 198
-0.998452, 177, 73, 304, 136
-0.998452, 175, 141, 190, 172
-0.998453, 117, 125, 148, 140
-0.998453, 425, 217, 456, 232
-0.998453, 349, 193, 380, 208
-0.998453, 229, 149, 244, 180
-0.998454, 267, 181, 282, 212
-0.998456, 397, 97, 428, 352
-0.998456, 281, 1, 312, 256
-0.998458, 233, 171, 264, 186
-0.998459, 317, 171, 348, 186
-0.998461, 233, 139, 264, 154
-0.998462, 125, 125, 140, 156
-0.998464, 253, 97, 284, 352
-0.998465, 217, 165, 280, 180
-0.998466, 139, 25, 154, 56
-0.998466, 411, 205, 426, 236
-0.998467, 105, 115, 168, 130
-0.99847, 225, 269, 240, 300
-0.998471, 129, 115, 160, 130
-0.998471, 377, 193, 408, 208
-0.998473, 1, 53, 128, 84
-0.998474, 209, 271, 240, 286
-0.998475, 183, 137, 198, 168
-0.998476, 213, 165, 244, 180
-0.998477, 397, 203, 428, 218
-0.998488, 65, 277, 80, 308
-0.998488, 173, 137, 204, 152
-0.99849, 405, 245, 420, 276
-0.998492, 459, 241, 474, 272
-0.998494, 169, 129, 184, 160
-0.998495, 121, 1, 136, 32
-0.998496, 225, 165, 256, 180
-0.998496, 85, 151, 116, 166
-0.998497, 129, 117, 192, 132
-0.998499, 361, 195, 424, 210
-0.998503, 129, 125, 160, 140
-0.998505, 49, 209, 176, 240
-0.998506, 415, 229, 430, 260
-0.998506, 257, 9, 384, 72
-0.998507, 209, 173, 272, 188
-0.998508, 237, 133, 268, 148
-0.998508, 397, 197, 428, 212
-0.998511, 145, 127, 208, 142
-0.998514, 205, 153, 236, 168
-0.998515, 201, 157, 264, 172
-0.998517, 273, 33, 336, 96
-0.998521, 277, 151, 308, 166
-0.998526, 253, 171, 284, 186
-0.998526, 201, 139, 264, 154
-0.998526, 89, 153, 104, 184
-0.99853, 233, 171, 296, 186
-0.99853, 153, 113, 184, 128
-0.998533, 273, 97, 304, 352
-0.998535, 469, 237, 484, 268
-0.998535, 257, 155, 288, 170
-0.998537, 425, 97, 456, 352
-0.998538, 245, 165, 276, 180
-0.99854, 209, 313, 336, 344
-0.998541, 195, 117, 210, 148
-0.998543, 225, 97, 256, 352
-0.998544, 201, 129, 264, 144
-0.998546, 129, 105, 192, 120
-0.998549, 121, 133, 184, 148
-0.998549, 233, 181, 296, 196
-0.99855, 117, 115, 148, 130
-0.998551, 177, 135, 240, 150
-0.998551, 463, 229, 478, 260
-0.998552, 297, 173, 360, 188
-0.998553, 201, 269, 216, 300
-0.998554, 295, 153, 310, 184
-0.998554, 337, 195, 400, 210
-0.998555, 217, 151, 280, 166
-0.998556, 209, 159, 240, 174
-0.998562, 169, 165, 232, 180
-0.998564, 73, 205, 104, 220
-0.998564, 297, 181, 360, 196
-0.998564, 139, 117, 154, 148
-0.998565, 265, 161, 328, 176
-0.998567, 83, 169, 98, 200
-0.99857, 49, 207, 112, 222
-0.998573, 15, 205, 30, 236
-0.998575, 41, 209, 56, 240
-0.998577, 81, 143, 144, 158
-0.998578, 153, 105, 184, 120
-0.998578, 93, 145, 124, 160
-0.998583, 105, 121, 168, 136
-0.998585, 273, 167, 336, 182
-0.998585, 327, 197, 342, 228
-0.998586, 319, 153, 334, 184
-0.998587, 169, 159, 232, 174
-0.998588, 1, 233, 128, 264
-0.998589, 241, 149, 304, 164
-0.99859, 161, 209, 416, 272
-0.998591, 161, 121, 224, 136
-0.998591, 169, 143, 232, 158
-0.998591, 105, 127, 168, 142
-0.998591, 193, 165, 256, 180
-0.998592, 79, 193, 94, 224
-0.998592, 401, 217, 464, 232
-0.998593, 321, 189, 384, 204
-0.998594, 347, 173, 362, 204
-0.998598, 377, 207, 440, 222
-0.998599, 225, 157, 288, 172
-0.998599, 145, 135, 208, 150
-0.9986, 249, 143, 312, 158
-0.998602, 63, 213, 78, 244
-0.998602, 205, 127, 236, 142
-0.998604, 409, 245, 472, 260
-0.998604, 385, 241, 448, 256
-0.998606, 385, 197, 448, 212
-0.998606, 209, 145, 272, 160
-0.998606, 225, 223, 288, 238
-0.998608, 173, 127, 204, 142
-0.998608, 337, 181, 400, 196
-0.99861, 361, 189, 424, 204
-0.99861, 185, 129, 216, 144
-0.998612, 49, 213, 112, 228
-0.998615, 265, 177, 328, 192
-0.998616, 417, 195, 480, 210
-0.998616, 1, 209, 64, 224
-0.998618, 249, 1, 280, 256
-0.998618, 385, 249, 448, 264
-0.998619, 153, 107, 216, 122
-0.998621, 57, 155, 120, 170
-0.998623, 261, 1, 292, 256
-0.998626, 209, 179, 272, 194
-0.998627, 169, 153, 232, 168
-0.998628, 121, 97, 152, 352
-0.99863, 105, 27, 168, 42
-0.99863, 17, 221, 144, 252
-0.998635, 417, 227, 480, 242
-0.998635, 105, 139, 168, 154
-0.998637, 377, 223, 440, 238
-0.99864, 377, 213, 440, 228
-0.998642, 385, 235, 448, 250
-0.998642, 329, 175, 392, 190
-0.998643, 241, 191, 304, 206
-0.998644, 233, 133, 296, 148
-0.998644, 25, 33, 56, 288
-0.998644, 129, 37, 192, 52
-0.998645, 289, 151, 352, 166
-0.998648, 49, 179, 112, 194
-0.99865, 289, 215, 352, 230
-0.998652, 1, 297, 500, 360
-0.998653, 25, 215, 88, 230
-0.998653, 89, 171, 152, 186
-0.998655, 49, 187, 112, 202
-0.998656, 425, 253, 488, 268
-0.998656, 161, 115, 224, 130
-0.998657, 105, 33, 168, 48
-0.998658, 409, 239, 472, 254
-0.998658, 89, 347, 152, 362
-0.998659, 377, 229, 440, 244
-0.998659, 169, 173, 232, 188
-0.998659, 193, 151, 256, 166
-0.99866, 97, 161, 160, 176
-0.99866, 313, 219, 376, 234
-0.99866, 129, 47, 192, 62
-0.998661, 73, 11, 136, 26
-0.998661, 81, 201, 144, 216
-0.998661, 97, 151, 160, 166
-0.998661, 81, 191, 144, 206
-0.998662, 409, 97, 440, 352
-0.998663, 345, 97, 376, 352
-0.998663, 105, 109, 168, 124
-0.998663, 49, 195, 112, 210
-0.998666, 145, 143, 208, 158
-0.998669, 145, 25, 208, 40
-0.998669, 1, 345, 64, 360
-0.998669, 289, 221, 352, 236
-0.99867, 41, 345, 104, 360
-0.99867, 49, 201, 112, 216
-0.998671, 209, 185, 272, 200
-0.998673, 241, 165, 304, 180
-0.998675, 105, 13, 168, 28
-0.998675, 73, 35, 136, 50
-0.998676, 265, 183, 328, 198
-0.998676, 57, 167, 120, 182
-0.998676, 25, 281, 88, 296
-0.998678, 81, 177, 144, 192
-0.998678, 25, 209, 88, 224
-0.998678, 297, 167, 360, 182
-0.99868, 257, 219, 320, 234
-0.998683, 433, 245, 496, 260
-0.998684, 81, 207, 144, 222
-0.998684, 97, 133, 160, 148
-0.998684, 257, 347, 320, 362
-0.998684, 89, 43, 152, 58
-0.998684, 353, 245, 416, 260
-0.998686, 209, 123, 272, 138
-0.998687, 145, 53, 208, 68
-0.998687, 65, 19, 128, 34
-0.998689, 73, 129, 136, 144
-0.998689, 393, 191, 456, 206
-0.998691, 177, 209, 304, 240
-0.998691, 193, 277, 256, 292
-0.998692, 81, 185, 144, 200
-0.998692, 129, 31, 192, 46
-0.998693, 137, 19, 200, 34
-0.998694, 401, 261, 464, 276
-0.998695, 345, 201, 408, 216
-0.998696, 229, 225, 260, 352
-0.998697, 305, 157, 368, 172
-0.998697, 113, 339, 176, 354
-0.998697, 185, 123, 248, 138
-0.998698, 353, 229, 416, 244
-0.998698, 313, 199, 376, 214
-0.998698, 65, 149, 128, 164
-0.998699, 25, 287, 88, 302
-0.998699, 201, 271, 264, 286
-0.998711, 385, 65, 416, 320
-0.998711, 193, 89, 448, 152
-0.998721, 33, 321, 160, 352
-0.998722, 161, 9, 288, 40
-0.998724, 433, 1, 496, 256
-0.998727, 251, 113, 266, 240
-0.998731, 219, 129, 234, 256
-0.998734, 289, 105, 416, 168
-0.998737, 213, 113, 228, 240
-0.998739, 341, 1, 372, 256
-0.998742, 273, 257, 336, 320
-0.99875, 233, 1, 264, 256
-0.998753, 225, 201, 352, 232
-0.998758, 437, 97, 468, 352
-0.998779, 449, 97, 480, 352
-0.998779, 9, 97, 40, 352
-0.998784, 37, 17, 68, 144
-0.998785, 25, 225, 88, 288
-0.998801, 329, 1, 360, 256
-0.998814, 321, 285, 448, 316
-0.998827, 411, 193, 426, 320
-0.99883, 1, 241, 128, 362
-0.998835, 105, 97, 136, 352
-0.998842, 243, 113, 258, 240
-0.998847, 469, 97, 500, 352
-0.998848, 25, 1, 56, 128
-0.998851, 277, 225, 308, 352
-0.998852, 129, 81, 256, 112
-0.998855, 273, 261, 400, 292
-0.998866, 273, 293, 400, 324
-0.998883, 45, 33, 76, 288
-0.998885, 1, 245, 128, 276
-0.998903, 225, 113, 240, 240
-0.998904, 95, 129, 110, 256
-0.998914, 161, 57, 288, 88
-0.998917, 207, 113, 222, 240
-0.99892, 133, 97, 164, 352
-0.998929, 113, 305, 240, 336
-0.998935, 201, 113, 216, 240
-0.998938, 427, 193, 442, 320
-0.998941, 233, 129, 248, 256
-0.998961, 129, 181, 256, 212
-0.998971, 393, 281, 456, 344
-0.998974, 297, 193, 328, 320
-0.99898, 257, 129, 272, 256
-0.998982, 81, 81, 208, 112
-0.998992, 161, 309, 288, 340
-0.999003, 249, 41, 312, 104
-0.999013, 433, 177, 448, 304
-0.999017, 369, 177, 496, 208
-0.999017, 1, 109, 128, 140
-0.999024, 421, 209, 436, 336
-0.999034, 399, 177, 414, 304
-0.999042, 405, 193, 420, 320
-0.999045, 189, 113, 204, 240
-0.99905, 79, 193, 94, 320
-0.99905, 49, 241, 176, 272
-0.999061, 387, 177, 402, 304
-0.999062, 33, 257, 160, 288
-0.999063, 299, 145, 314, 272
-0.999074, 357, 1, 388, 256
-0.999082, 441, 177, 456, 304
-0.999082, 97, 57, 224, 88
-0.999089, 65, 221, 192, 252
-0.999099, 373, 1, 404, 256
-0.999103, 9, 193, 24, 320
-0.999104, 289, 317, 416, 348
-0.999107, 53, 209, 68, 336
-0.999111, 109, 129, 124, 256
-0.999117, 59, 209, 74, 336
-0.999121, 381, 177, 396, 304
-0.999123, 1, 281, 128, 312
-0.999131, 177, 113, 192, 240
-0.999133, 317, 161, 332, 288
-0.999135, 183, 113, 198, 240
-0.999141, 283, 145, 298, 272
-0.999151, 393, 177, 408, 304
-0.999152, 273, 81, 400, 144
-0.999154, 23, 193, 38, 320
-0.999156, 129, 69, 256, 100
-0.999156, 291, 145, 306, 272
-0.99916, 141, 97, 156, 224
-0.999164, 85, 193, 100, 320
-0.999167, 1, 25, 500, 88
-0.999171, 333, 161, 348, 288
-0.999172, 361, 177, 376, 304
-0.999174, 305, 305, 432, 336
-0.99918, 225, 273, 352, 304
-0.999185, 103, 129, 118, 256
-0.999188, 73, 217, 136, 280
-0.999188, 137, 249, 200, 312
-0.999197, 119, 97, 134, 224
-0.999202, 41, 193, 56, 320
-0.999202, 1, 193, 16, 320
-0.999205, 93, 177, 108, 304
-0.999206, 369, 273, 496, 304
-0.999208, 17, 193, 32, 320
-0.999218, 157, 97, 172, 224
-0.999219, 309, 129, 324, 256
-0.999225, 85, 129, 100, 256
-0.999225, 69, 209, 84, 336
-0.999233, 169, 97, 184, 224
-0.999234, 373, 193, 388, 320
-0.999237, 225, 289, 352, 320
-0.999241, 129, 97, 144, 224
-0.999245, 349, 177, 364, 304
-0.999254, 29, 193, 44, 320
-0.999255, 177, 49, 192, 176
-0.999261, 321, 225, 352, 352
-0.999263, 251, 161, 266, 288
-0.999267, 225, 45, 352, 76
-0.999274, 453, 177, 468, 304
-0.999277, 339, 161, 354, 288
-0.999277, 323, 161, 338, 288
-0.999278, 447, 177, 462, 304
-0.999282, 121, 49, 136, 176
-0.999284, 149, 49, 164, 176
-0.999299, 369, 81, 496, 144
-0.999305, 367, 177, 382, 304
-0.999306, 209, 241, 224, 362
-0.999312, 305, 25, 432, 56
-0.999316, 263, 129, 278, 256
-0.999323, 215, 177, 230, 304
-0.999323, 35, 193, 50, 320
-0.999329, 1, 273, 500, 336
-0.99933, 225, 177, 240, 304
-0.999333, 47, 209, 62, 336
-0.999334, 271, 145, 286, 272
-0.999337, 195, 97, 210, 224
-0.999339, 277, 145, 292, 272
-0.999341, 209, 161, 224, 288
-0.999343, 145, 293, 272, 324
-0.999346, 221, 241, 236, 362
-0.999349, 417, 281, 480, 344
-0.99935, 1, 209, 256, 272
-0.999355, 459, 177, 474, 304
-0.999359, 81, 69, 208, 100
-0.999372, 395, 225, 410, 352
-0.999374, 67, 1, 82, 128
-0.999374, 241, 117, 368, 148
-0.999375, 417, 161, 432, 288
-0.999377, 137, 49, 152, 176
-0.99938, 149, 113, 164, 240
-0.999383, 219, 81, 234, 208
-0.999387, 89, 1, 120, 128
-0.999397, 195, 49, 210, 176
-0.9994, 355, 177, 370, 304
-0.999413, 119, 1, 134, 128
-0.999414, 135, 97, 150, 224
-0.999417, 73, 161, 88, 288
-0.99942, 207, 49, 222, 176
-0.999431, 213, 65, 228, 192
-0.999431, 243, 161, 258, 288
-0.999432, 423, 145, 438, 272
-0.999433, 109, 65, 124, 192
-0.999435, 417, 1, 448, 256
-0.999436, 411, 145, 426, 272
-0.999442, 101, 81, 116, 208
-0.999443, 471, 177, 486, 304
-0.999454, 443, 225, 458, 352
-0.999455, 371, 129, 386, 256
-0.99946, 405, 145, 420, 272
-0.999463, 1, 293, 128, 324
-0.999466, 1, 241, 32, 362
-0.999466, 1, 129, 16, 256
-0.999469, 187, 65, 202, 192
-0.999474, 381, 129, 396, 256
-0.999475, 195, 145, 210, 272
-0.999477, 131, 49, 146, 176
-0.999485, 177, 41, 304, 72
-0.999488, 481, 177, 496, 304
-0.999492, 177, 273, 304, 304
-0.999493, 351, 129, 366, 256
-0.999496, 49, 273, 176, 304
-0.999506, 203, 161, 218, 288
-0.999507, 299, 97, 314, 224
-0.999511, 321, 261, 448, 292
-0.999512, 291, 97, 306, 224
-0.999514, 257, 177, 272, 304
-0.999516, 201, 49, 216, 176
-0.999516, 319, 113, 334, 240
-0.999516, 177, 29, 304, 60
-0.99952, 233, 81, 248, 208
-0.999521, 353, 297, 480, 328
-0.999524, 177, 197, 304, 228
-0.999524, 47, 161, 62, 288
-0.999525, 273, 37, 400, 68
-0.999527, 163, 97, 178, 224
-0.999527, 115, 49, 130, 176
-0.999529, 345, 129, 360, 256
-0.999532, 389, 129, 404, 256
-0.999539, 465, 177, 480, 304
-0.999541, 113, 257, 240, 288
-0.999543, 283, 97, 298, 224
-0.999547, 79, 145, 94, 272
-0.999548, 61, 161, 76, 288
-0.99955, 225, 33, 480, 96
-0.99955, 433, 129, 448, 256
-0.999551, 367, 225, 382, 352
-0.999551, 161, 49, 176, 176
-0.999554, 49, 49, 80, 176
-0.999557, 259, 181, 274, 196
-0.999557, 273, 329, 400, 360
-0.999558, 111, 131, 126, 146
-0.999559, 101, 139, 116, 154
-0.999559, 229, 155, 244, 170
-0.999559, 133, 129, 148, 144
-0.99956, 223, 169, 238, 184
-0.99956, 119, 113, 134, 128
-0.99956, 143, 49, 158, 176
-0.99956, 261, 149, 276, 164
-0.99956, 27, 211, 42, 226
-0.999561, 229, 271, 244, 286
-0.999561, 205, 277, 220, 292
-0.999561, 223, 149, 238, 164
-0.999562, 85, 195, 100, 210
-0.999563, 217, 153, 232, 168
-0.999563, 269, 183, 284, 198
-0.999564, 279, 177, 294, 192
-0.999564, 235, 167, 250, 182
-0.999566, 275, 183, 290, 198
-0.999566, 359, 129, 374, 256
-0.999566, 421, 197, 436, 212
-0.999566, 171, 49, 186, 176
-0.999567, 245, 137, 260, 152
-0.999567, 425, 217, 440, 232
-0.999567, 253, 181, 268, 196
-0.999567, 273, 155, 288, 170
-0.999569, 141, 111, 156, 126
-0.999569, 63, 291, 78, 306
-0.99957, 207, 171, 222, 186
-0.999571, 239, 159, 254, 174
-0.999571, 415, 213, 430, 228
-0.999571, 31, 205, 46, 220
-0.999572, 343, 175, 358, 190
-0.999572, 277, 97, 292, 224
-0.999573, 395, 195, 410, 210
-0.999573, 401, 241, 416, 362
-0.999573, 389, 225, 404, 352
-0.999573, 59, 297, 74, 312
-0.999573, 339, 113, 354, 240
-0.999576, 201, 149, 216, 164
-0.999576, 231, 177, 246, 304
-0.999576, 219, 127, 234, 142
-0.999577, 149, 101, 164, 116
-0.999577, 149, 133, 164, 148
-0.999578, 273, 173, 288, 188
-0.999578, 179, 141, 194, 156
-0.999578, 119, 137, 134, 152
-0.999578, 333, 171, 348, 186
-0.999578, 223, 163, 238, 178
-0.999578, 305, 161, 320, 176
-0.999579, 295, 151, 310, 166
-0.999579, 167, 105, 182, 120
-0.999579, 89, 203, 104, 218
-0.99958, 415, 199, 430, 214
-0.99958, 253, 151, 268, 166
-0.99958, 343, 181, 358, 196
-0.999581, 251, 65, 266, 192
-0.999581, 341, 187, 356, 202
-0.999581, 367, 195, 382, 210
-0.999582, 317, 173, 332, 188
-0.999584, 299, 159, 314, 174
-0.999585, 267, 155, 282, 170
-0.999587, 237, 131, 252, 146
-0.999587, 223, 133, 238, 148
-0.999587, 173, 135, 188, 150
-0.999587, 155, 117, 170, 132
-0.999588, 213, 167, 228, 182
-0.999588, 237, 173, 252, 188
-0.999592, 229, 137, 244, 152
-0.999592, 103, 145, 118, 160
-0.999594, 341, 199, 356, 214
-0.999594, 257, 137, 272, 152
-0.999597, 159, 105, 174, 120
-0.999597, 321, 165, 336, 180
-0.999598, 89, 211, 104, 226
-0.999598, 377, 195, 392, 210
-0.999599, 177, 121, 192, 136
-0.999599, 141, 125, 156, 140
-0.999599, 85, 177, 100, 192
-0.999599, 213, 125, 228, 140
-0.999599, 283, 151, 298, 166
-0.999599, 357, 193, 372, 208
-0.999599, 223, 155, 238, 170
-0.9996, 211, 155, 226, 170
-0.999601, 243, 177, 258, 192
-0.999603, 205, 163, 220, 178
-0.999603, 397, 205, 412, 220
-0.999604, 25, 205, 40, 220
-0.999609, 205, 127, 220, 142
-0.999612, 133, 115, 148, 130
-0.999613, 251, 143, 266, 158
-0.999613, 97, 157, 112, 172
-0.999615, 257, 165, 272, 180
-0.999616, 199, 273, 214, 288
-0.999616, 243, 131, 258, 146
-0.999619, 179, 129, 194, 144
-0.999621, 405, 1, 436, 256
-0.999623, 401, 195, 416, 210
-0.999623, 61, 281, 76, 296
-0.999623, 223, 273, 238, 288
-0.999624, 117, 119, 132, 134
-0.999625, 201, 157, 216, 172
-0.999626, 241, 165, 256, 180
-0.999626, 101, 165, 116, 180
-0.999626, 95, 175, 110, 190
-0.999626, 265, 193, 296, 320
-0.999626, 77, 207, 92, 222
-0.999627, 135, 123, 150, 138
-0.999627, 289, 151, 304, 166
-0.999628, 189, 135, 204, 150
-0.999628, 311, 163, 326, 178
-0.999629, 147, 113, 162, 128
-0.999631, 267, 171, 282, 186
-0.999632, 197, 131, 212, 146
-0.999635, 327, 169, 342, 184
-0.999635, 309, 179, 324, 194
-0.999639, 217, 173, 232, 188
-0.99964, 243, 171, 258, 186
-0.999641, 195, 147, 210, 162
-0.999644, 229, 165, 244, 180
-0.999645, 129, 213, 256, 244
-0.999647, 391, 189, 406, 204
-0.99965, 251, 161, 266, 176
-0.999652, 141, 117, 156, 132
-0.999652, 189, 143, 204, 158
-0.999654, 153, 297, 216, 360
-0.999667, 347, 189, 362, 204
-0.999668, 125, 113, 140, 128
-0.999671, 213, 161, 228, 176
-0.999671, 249, 173, 264, 188
-0.999672, 251, 131, 266, 146
-0.999672, 109, 145, 124, 160
-0.999674, 409, 197, 424, 212
-0.999675, 251, 137, 266, 152
-0.999678, 1, 97, 500, 160
-0.999678, 179, 135, 194, 150
-0.999679, 195, 137, 210, 152
-0.999683, 147, 121, 162, 136
-0.999688, 147, 107, 162, 122
-0.999691, 261, 155, 276, 170
-0.999693, 1, 309, 128, 340
-0.999706, 209, 261, 336, 292
-0.999708, 83, 207, 98, 222
-0.999731, 99, 151, 114, 166
-0.999738, 187, 125, 202, 140
-0.999744, 49, 301, 176, 332
-0.999758, 95, 143, 110, 158
-0.999791, 1, 241, 256, 304
-0.999793, 225, 329, 352, 360
-0.999805, 353, 153, 480, 184
-0.999817, 49, 285, 176, 316
-0.999821, 469, 225, 500, 352
-0.999831, 33, 93, 160, 124
-0.999834, 113, 273, 240, 336
-0.999839, 249, 33, 280, 160
-0.999888, 449, 1, 480, 256
-0.999898, 193, 105, 320, 136
-0.999906, 273, 105, 400, 136
-0.999916, 129, 249, 384, 312
-0.999921, 437, 1, 468, 256
-0.999925, 369, 325, 496, 356
-0.999935, 129, 269, 256, 300
-0.999941, 369, 285, 496, 316
-0.999962, 1, 265, 256, 328
-0.999966, 333, 1, 364, 128
-0.999985, 225, 249, 288, 312
-0.999985, 1, 269, 128, 300
-1.00001, 97, 225, 224, 288
-1.00012, 193, 9, 448, 72
-1.00014, 225, 57, 352, 120
-1.00015, 21, 241, 52, 362
-1.00015, 469, 1, 500, 256
-1.00021, 321, 57, 448, 120
-1.00036, 225, 57, 480, 120
-1.00037, 177, 297, 240, 360
-1.00043, 1, 65, 500, 128
-1.00044, 193, 193, 224, 320
-1.00048, 201, 17, 264, 144
-1.00051, 321, 81, 448, 144
-1.00057, 289, 241, 320, 362
-1.00064, 329, 81, 392, 208
-1.00068, 337, 9, 400, 72
-1.00075, 81, 297, 144, 360
-1.00084, 233, 97, 296, 160
-1.00085, 1, 297, 64, 360
-1.0009, 181, 241, 212, 362
-1.00102, 297, 65, 360, 192
-1.00106, 265, 17, 328, 144
-1.00106, 205, 1, 236, 128
-1.00107, 393, 1, 456, 128
-1.00109, 1, 113, 64, 240
-1.00116, 169, 161, 200, 288
-1.00122, 361, 17, 424, 80
-1.00123, 337, 129, 464, 192
-1.00132, 81, 57, 144, 120
-1.00134, 273, 57, 400, 120
-1.00143, 129, 225, 192, 288
-1.00146, 301, 17, 332, 144
-1.00154, 305, 241, 336, 362
-1.00158, 249, 233, 312, 296
-1.00165, 369, 49, 496, 176
-1.00166, 361, 17, 424, 144
-1.00167, 345, 1, 376, 128
-1.00169, 369, 41, 496, 104
-1.00191, 425, 1, 488, 128
-1.00197, 461, 1, 492, 128
-1.00197, 25, 49, 56, 176
-1.002, 361, 1, 392, 128
-1.0021, 393, 97, 424, 224
-1.00236, 385, 1, 416, 128
-1.0024, 237, 1, 268, 128
-1.00253, 97, 161, 160, 288
-1.00262, 425, 65, 488, 192
-1.00439, 73, 241, 136, 362
-1.00705, 401, 81, 464, 208
-1.00755, 153, 241, 216, 362
-1.00835, 137, 193, 200, 320
-1.01024, 121, 241, 184, 362
-1.01105, 353, 65, 416, 192
-1.01124, 97, 241, 160, 362
