1913
-0.366203, 1, 1, 333, 500
-0.42684, 1, 1, 256, 500
-0.437253, 1, 257, 333, 500
-0.462604, 1, 65, 333, 320
-0.463872, 1, 161, 333, 416
-0.691157, 1, 1, 256, 256
-0.707939, 1, 257, 256, 500
-0.739997, 1, 129, 256, 384
-0.848955, 129, 1, 256, 256
-0.85993, 1, 337, 333, 464
-0.865744, 1, 257, 128, 500
-0.870572, 129, 1, 256, 500
-0.880739, 81, 1, 208, 500
-0.883901, 161, 257, 288, 500
-0.886813, 1, 289, 333, 416
-0.896027, 193, 1, 320, 500
-0.899909, 1, 161, 128, 416
-0.901836, 33, 1, 160, 500
-0.904412, 49, 225, 176, 480
-0.907157, 1, 353, 256, 480
-0.907393, 1, 145, 333, 272
-0.912158, 161, 129, 288, 384
-0.914522, 81, 33, 208, 288
-0.916958, 1, 65, 333, 192
-0.917059, 1, 241, 333, 368
-0.918973, 97, 225, 224, 480
-0.920151, 209, 257, 333, 500
-0.921674, 1, 305, 256, 432
-0.926011, 17, 305, 80, 432
-0.926067, 49, 129, 176, 384
-0.926406, 177, 1, 304, 256
-0.931506, 1, 305, 128, 432
-0.932238, 161, 321, 288, 448
-0.93273, 1, 17, 333, 144
-0.934265, 1, 193, 333, 320
-0.93458, 1, 257, 256, 384
-0.934628, 113, 129, 240, 384
-0.935114, 33, 1, 160, 256
-0.93514, 209, 161, 333, 416
-0.941052, 1, 65, 256, 192
-0.94168, 129, 17, 256, 144
-0.942079, 209, 273, 272, 400
-0.943526, 161, 273, 288, 400
-0.945649, 49, 337, 176, 464
-0.946593, 201, 337, 264, 464
-0.947995, 161, 321, 224, 448
-0.948441, 1, 353, 64, 480
-0.94876, 1, 129, 256, 256
-0.949281, 41, 321, 104, 448
-0.950666, 17, 257, 80, 384
-0.950683, 113, 321, 240, 448
-0.951048, 225, 281, 288, 344
-0.951119, 49, 289, 176, 416
-0.95133, 145, 369, 272, 496
-0.951826, 233, 225, 296, 352
-0.952036, 1, 17, 256, 144
-0.953868, 209, 361, 272, 424
-0.955178, 225, 321, 288, 448
-0.955384, 129, 65, 256, 192
-0.955474, 185, 17, 248, 144
-0.955609, 145, 1, 208, 128
-0.9564, 57, 337, 120, 400
-0.957074, 41, 273, 104, 400
-0.957528, 9, 361, 72, 424
-0.958215, 233, 273, 296, 400
-0.958453, 17, 209, 80, 336
-0.959157, 209, 337, 272, 400
-0.959625, 209, 305, 333, 432
-0.959756, 161, 345, 224, 408
-0.960519, 1, 353, 128, 480
-0.96106, 193, 369, 320, 496
-0.961438, 97, 369, 224, 496
-0.961462, 1, 225, 128, 352
-0.961867, 17, 305, 80, 368
-0.961945, 233, 369, 296, 496
-0.962755, 185, 289, 248, 416
-0.963065, 137, 337, 200, 464
-0.963335, 65, 321, 128, 448
-0.964429, 185, 361, 248, 424
-0.965436, 209, 305, 272, 368
-0.965954, 193, 225, 320, 352
-0.966382, 105, 289, 168, 416
-0.966944, 105, 353, 168, 480
-0.967641, 37, 305, 68, 432
-0.967835, 161, 361, 288, 424
-0.967955, 49, 49, 176, 176
-0.968262, 177, 369, 240, 496
-0.96853, 113, 273, 240, 400
-0.968567, 161, 145, 288, 272
-0.968607, 1, 193, 256, 320
-0.968997, 41, 225, 104, 352
-0.969036, 81, 1, 208, 128
-0.969467, 17, 329, 80, 392
-0.969519, 65, 273, 128, 400
-0.970082, 257, 305, 320, 432
-0.970747, 17, 281, 80, 344
-0.970839, 185, 329, 248, 392
-0.971073, 17, 225, 80, 480
-0.9715, 9, 161, 72, 288
-0.971504, 81, 97, 208, 224
-0.972067, 137, 65, 200, 192
-0.972242, 49, 305, 80, 432
-0.972269, 233, 377, 296, 440
-0.972405, 33, 345, 160, 408
-0.972747, 33, 129, 160, 256
-0.972981, 185, 113, 248, 240
-0.973107, 113, 369, 176, 432
-0.973169, 17, 305, 48, 432
-0.973282, 161, 161, 224, 288
-0.973303, 1, 177, 128, 304
-0.973407, 193, 33, 256, 96
-0.973598, 201, 385, 264, 448
-0.973634, 113, 337, 240, 400
-0.97384, 153, 17, 216, 80
-0.974365, 45, 257, 76, 384
-0.974652, 41, 177, 104, 304
-0.974752, 105, 49, 168, 176
-0.974915, 229, 273, 260, 400
-0.975001, 241, 241, 304, 304
-0.975013, 145, 1, 208, 256
-0.975112, 41, 313, 104, 376
-0.975287, 185, 353, 216, 416
-0.975491, 33, 129, 96, 256
-0.975644, 137, 345, 200, 408
-0.975662, 265, 193, 328, 320
-0.975707, 137, 377, 200, 440
-0.975767, 217, 33, 280, 160
-0.97609, 49, 241, 176, 368
-0.976106, 89, 361, 152, 424
-0.976137, 229, 265, 260, 328
-0.97633, 17, 257, 80, 320
-0.976454, 25, 209, 88, 272
-0.976482, 129, 25, 256, 88
-0.976718, 209, 193, 272, 320
-0.976856, 25, 369, 88, 496
-0.976927, 49, 177, 176, 304
-0.976935, 129, 289, 192, 416
-0.977059, 5, 305, 36, 432
-0.977139, 105, 121, 168, 184
-0.977145, 161, 337, 288, 400
-0.977172, 201, 257, 264, 500
-0.977525, 137, 81, 200, 144
-0.977537, 61, 321, 92, 448
-0.977726, 13, 257, 44, 384
-0.97779, 1, 289, 128, 352
-0.977828, 185, 337, 216, 464
-0.977929, 57, 281, 120, 344
-0.978054, 53, 297, 84, 360
-0.978105, 41, 225, 104, 480
-0.978125, 161, 65, 224, 192
-0.97821, 185, 1, 248, 256
-0.978259, 245, 273, 276, 400
-0.978372, 177, 97, 304, 224
-0.978486, 201, 265, 264, 328
-0.978596, 161, 289, 288, 352
-0.978673, 145, 225, 272, 352
-0.97869, 161, 273, 224, 400
-0.978781, 45, 321, 76, 384
-0.97912, 161, 385, 224, 448
-0.979321, 137, 49, 200, 112
-0.979447, 233, 345, 296, 408
-0.979453, 1, 321, 128, 384
-0.979455, 33, 225, 64, 352
-0.979552, 209, 345, 240, 408
-0.979667, 137, 129, 200, 256
-0.979694, 45, 209, 76, 336
-0.979764, 29, 177, 60, 304
-0.979806, 233, 321, 264, 448
-0.979819, 173, 305, 204, 432
-0.979829, 229, 337, 260, 400
-0.98022, 249, 313, 312, 376
-0.98038, 209, 177, 333, 304
-0.980393, 185, 305, 248, 368
-0.980549, 241, 177, 304, 304
-0.98074, 33, 353, 64, 480
-0.980789, 33, 353, 96, 416
-0.980839, 229, 369, 260, 432
-0.980918, 141, 17, 172, 144
-0.980948, 249, 321, 280, 448
-0.980959, 209, 113, 272, 240
-0.980963, 265, 281, 328, 344
-0.981102, 189, 329, 220, 392
-0.981147, 121, 321, 184, 384
-0.98137, 245, 225, 276, 352
-0.981375, 113, 145, 240, 272
-0.981395, 81, 337, 144, 400
-0.981433, 21, 273, 52, 336
-0.981455, 201, 129, 264, 192
-0.981547, 265, 241, 328, 368
-0.981606, 17, 233, 80, 296
-0.981619, 161, 313, 288, 376
-0.981633, 81, 313, 208, 376
-0.981698, 245, 281, 276, 344
-0.981748, 225, 225, 288, 480
-0.981864, 237, 369, 268, 496
-0.982004, 105, 97, 168, 224
-0.98201, 177, 17, 304, 144
-0.982049, 129, 57, 256, 120
-0.982074, 49, 289, 176, 352
-0.982098, 37, 281, 68, 344
-0.982128, 217, 281, 248, 344
-0.982152, 129, 25, 192, 88
-0.982276, 25, 145, 88, 208
-0.982387, 201, 321, 232, 448
-0.982511, 245, 377, 276, 440
-0.982567, 65, 329, 96, 392
-0.982569, 129, 97, 256, 160
-0.982656, 265, 249, 328, 312
-0.982694, 49, 217, 112, 280
-0.982707, 1, 129, 64, 384
-0.982718, 217, 273, 248, 400
-0.982769, 161, 1, 192, 128
-0.982851, 97, 57, 160, 120
-0.982878, 161, 321, 224, 384
-0.982998, 25, 353, 56, 416
-0.983009, 241, 417, 304, 480
-0.98307, 33, 257, 64, 320
-0.983085, 221, 369, 252, 496
-0.983165, 5, 297, 36, 360
-0.983238, 145, 385, 272, 448
-0.983295, 113, 361, 240, 424
-0.983307, 161, 337, 192, 464
-0.983309, 249, 233, 280, 296
-0.983502, 197, 361, 228, 424
-0.983554, 1, 81, 128, 208
-0.983574, 185, 225, 248, 352
-0.983602, 1, 201, 64, 264
-0.983617, 73, 313, 136, 376
-0.98372, 25, 185, 88, 248
-0.98372, 65, 369, 192, 432
-0.983761, 217, 97, 280, 160
-0.983823, 49, 217, 80, 280
-0.984027, 65, 225, 128, 352
-0.984063, 165, 345, 196, 408
-0.984265, 209, 353, 333, 416
-0.984305, 9, 385, 72, 448
-0.984327, 65, 129, 192, 192
-0.984379, 137, 105, 200, 168
-0.98438, 1, 353, 32, 480
-0.984413, 45, 361, 76, 424
-0.984584, 137, 1, 200, 500
-0.984646, 17, 249, 144, 312
-0.984674, 249, 321, 280, 384
-0.984706, 261, 241, 292, 368
-0.984765, 177, 129, 240, 192
-0.984775, 193, 385, 320, 448
-0.984792, 21, 353, 52, 480
-0.984809, 1, 361, 32, 424
-0.984815, 161, 169, 224, 232
-0.984841, 209, 289, 333, 352
-0.984854, 225, 305, 256, 368
-0.984923, 1, 137, 64, 200
-0.98494, 265, 297, 296, 360
-0.984998, 209, 241, 333, 304
-0.985136, 185, 57, 248, 120
-0.985194, 33, 305, 64, 368
-0.985209, 13, 353, 44, 416
-0.985356, 65, 193, 128, 448
-0.985362, 49, 353, 80, 480
-0.985438, 257, 369, 320, 496
-0.985474, 209, 17, 240, 144
-0.985516, 217, 321, 248, 448
-0.985567, 129, 121, 256, 184
-0.985622, 213, 33, 244, 96
-0.985714, 257, 385, 320, 448
-0.985768, 33, 1, 160, 128
-0.985773, 97, 81, 160, 144
-0.985879, 261, 289, 292, 416
-0.985928, 121, 361, 152, 424
-0.985945, 209, 329, 333, 392
-0.986006, 177, 1, 240, 500
-0.986145, 197, 369, 228, 496
-0.986154, 137, 145, 200, 208
-0.986196, 49, 369, 112, 496
-0.986205, 201, 321, 232, 384
-0.986205, 1, 257, 32, 384
-0.98629, 73, 321, 104, 448
-0.98633, 17, 225, 144, 288
-0.986389, 201, 425, 264, 488
-0.98646, 1, 113, 64, 240
-0.98667, 209, 369, 240, 432
-0.986673, 241, 353, 272, 416
-0.986833, 177, 265, 304, 328
-0.986858, 113, 345, 176, 408
-0.986868, 149, 305, 180, 432
-0.986876, 97, 313, 160, 376
-0.986904, 141, 369, 172, 432
-0.986905, 121, 1, 184, 128
-0.986961, 1, 321, 32, 384
-0.986977, 61, 273, 92, 400
-0.986989, 141, 65, 172, 192
-0.987012, 173, 353, 204, 480
-0.987032, 209, 209, 272, 272
-0.987036, 33, 193, 64, 256
-0.987063, 249, 369, 280, 496
-0.987118, 249, 201, 312, 264
-0.987267, 177, 129, 240, 384
-0.987315, 65, 33, 192, 96
-0.987403, 201, 97, 264, 352
-0.987451, 201, 1, 264, 500
-0.987477, 21, 249, 52, 312
-0.98751, 25, 129, 88, 384
-0.987512, 197, 25, 228, 88
-0.987524, 185, 289, 216, 416
-0.987534, 173, 1, 204, 128
-0.987628, 73, 145, 136, 208
-0.987647, 209, 97, 240, 224
-0.987731, 141, 33, 172, 96
-0.987776, 65, 145, 128, 272
-0.987805, 205, 121, 236, 184
-0.987821, 229, 225, 260, 352
-0.987844, 97, 193, 224, 320
-0.987883, 249, 257, 312, 500
-0.987884, 197, 129, 228, 256
-0.987906, 25, 81, 88, 208
-0.987942, 133, 353, 164, 480
-0.987992, 161, 425, 288, 488
-0.988002, 97, 1, 160, 128
-0.988025, 149, 369, 180, 496
-0.988054, 273, 225, 333, 288
-0.988078, 33, 129, 64, 256
-0.988157, 49, 273, 80, 336
-0.988202, 193, 65, 256, 192
-0.98823, 109, 289, 140, 416
-0.988257, 177, 329, 208, 392
-0.988365, 141, 89, 172, 152
-0.988365, 21, 305, 52, 368
-0.988395, 33, 1, 96, 500
-0.988397, 49, 57, 176, 120
-0.988455, 177, 161, 208, 288
-0.988463, 5, 273, 36, 336
-0.988512, 165, 385, 196, 448
-0.988532, 249, 161, 312, 416
-0.988587, 193, 385, 224, 448
-0.988589, 177, 265, 240, 328
-0.98862, 145, 257, 208, 500
-0.98863, 33, 201, 160, 264
-0.988735, 129, 257, 256, 320
-0.988882, 9, 129, 40, 256
-0.988896, 57, 361, 120, 424
-0.9889, 177, 145, 304, 208
-0.988903, 133, 305, 164, 432
-0.988917, 89, 289, 152, 352
-0.989071, 257, 273, 288, 336
-0.989121, 9, 1, 72, 500
-0.989133, 33, 233, 64, 296
-0.989133, 213, 305, 244, 368
-0.989189, 205, 273, 236, 400
-0.989198, 125, 49, 156, 176
-0.989201, 1, 345, 256, 408
-0.989235, 1, 317, 64, 348
-0.989254, 177, 217, 304, 280
-0.989258, 1, 365, 64, 396
-0.989269, 77, 337, 108, 400
-0.989303, 41, 241, 104, 304
-0.989321, 1, 369, 128, 432
-0.989359, 121, 33, 184, 288
-0.989411, 65, 345, 128, 376
-0.989417, 17, 145, 144, 208
-0.989424, 153, 377, 184, 440
-0.989506, 121, 353, 152, 480
-0.989532, 125, 113, 156, 176
-0.989537, 233, 301, 296, 332
-0.989556, 57, 353, 88, 416
-0.989603, 177, 33, 304, 96
-0.989608, 185, 17, 216, 80
-0.989716, 225, 285, 288, 316
-0.989731, 217, 41, 280, 104
-0.989751, 161, 297, 224, 360
-0.989782, 257, 361, 320, 424
-0.989813, 209, 353, 272, 384
-0.989903, 217, 65, 280, 128
-0.98993, 1, 345, 333, 408
-0.989966, 153, 337, 184, 400
-0.990011, 177, 337, 240, 368
-0.990017, 185, 89, 248, 152
-0.990026, 209, 373, 272, 404
-0.990096, 25, 313, 88, 344
-0.990106, 121, 289, 152, 416
-0.990136, 49, 105, 176, 168
-0.990166, 129, 145, 256, 208
-0.990179, 45, 249, 76, 312
-0.990196, 193, 241, 256, 304
-0.990269, 241, 417, 272, 480
-0.990296, 65, 1, 128, 500
-0.990322, 177, 9, 240, 72
-0.990335, 221, 65, 252, 192
-0.990362, 57, 193, 88, 320
-0.990477, 17, 301, 80, 332
-0.990488, 41, 385, 104, 448
-0.990523, 177, 257, 240, 500
-0.990535, 137, 225, 200, 352
-0.990538, 65, 297, 96, 360
-0.990541, 13, 209, 44, 336
-0.990574, 157, 145, 188, 272
-0.990596, 1, 169, 64, 232
-0.99064, 105, 353, 136, 416
-0.99069, 121, 57, 152, 120
-0.990721, 57, 357, 120, 388
-0.990734, 89, 257, 152, 500
-0.99074, 181, 393, 212, 456
-0.990747, 209, 341, 272, 372
-0.99079, 33, 417, 160, 480
-0.99082, 113, 1, 176, 500
-0.99083, 121, 373, 184, 404
-0.990834, 49, 129, 112, 192
-0.99091, 209, 97, 333, 160
-0.990942, 141, 65, 172, 128
-0.990951, 145, 161, 208, 416
-0.990975, 217, 233, 280, 296
-0.990988, 57, 193, 120, 256
-0.990992, 185, 153, 248, 216
-0.990994, 209, 1, 272, 256
-0.991002, 41, 345, 104, 376
-0.991015, 89, 345, 120, 408
-0.991021, 217, 97, 248, 160
-0.991038, 181, 145, 212, 208
-0.991088, 1, 329, 64, 360
-0.99109, 237, 305, 268, 368
-0.991095, 73, 273, 104, 400
-0.991096, 145, 341, 208, 372
-0.991123, 25, 365, 88, 396
-0.991153, 25, 333, 88, 364
-0.991181, 97, 369, 160, 400
-0.991193, 241, 389, 304, 420
-0.991197, 233, 273, 296, 304
-0.991243, 1, 289, 333, 352
-0.991274, 153, 21, 216, 52
-0.991277, 17, 349, 80, 380
-0.991288, 241, 177, 304, 240
-0.991399, 193, 17, 224, 144
-0.991408, 145, 385, 208, 416
-0.991412, 45, 129, 76, 256
-0.991412, 113, 281, 240, 344
-0.991432, 201, 393, 264, 424
-0.991435, 241, 457, 304, 488
-0.991437, 17, 229, 80, 260
-0.991458, 185, 361, 248, 392
-0.991458, 25, 33, 88, 288
-0.991499, 201, 289, 264, 320
-0.99152, 25, 213, 88, 244
-0.991537, 117, 281, 148, 344
-0.991538, 249, 177, 280, 304
-0.991543, 169, 349, 232, 380
-0.991584, 17, 289, 80, 320
-0.991613, 33, 177, 160, 240
-0.991636, 1, 65, 64, 192
-0.991641, 217, 153, 280, 216
-0.991657, 49, 81, 176, 144
-0.991671, 57, 301, 120, 332
-0.991707, 145, 397, 208, 428
-0.99171, 65, 333, 128, 364
-0.991729, 201, 329, 264, 360
-0.991734, 161, 49, 224, 112
-0.991739, 81, 357, 144, 388
-0.99175, 13, 329, 44, 392
-0.991754, 57, 289, 120, 320
-0.991772, 229, 425, 260, 488
-0.991796, 17, 261, 80, 292
-0.991809, 225, 129, 288, 384
-0.991816, 161, 361, 224, 392
-0.991823, 169, 377, 232, 408
-0.991842, 177, 25, 240, 56
-0.991851, 25, 201, 88, 232
-0.991855, 169, 397, 232, 428
-0.99186, 121, 385, 184, 416
-0.99186, 273, 201, 333, 264
-0.991867, 161, 113, 224, 240
-0.991878, 265, 313, 328, 344
-0.991886, 177, 169, 304, 232
-0.991966, 105, 129, 168, 160
-0.991996, 109, 353, 140, 480
-0.992004, 249, 1, 312, 500
-0.99202, 17, 377, 80, 408
-0.992024, 201, 277, 264, 308
-0.992033, 241, 333, 304, 364
-0.992037, 49, 317, 112, 348
-0.992051, 241, 361, 304, 392
-0.992064, 129, 1, 256, 64
-0.992065, 161, 157, 224, 188
-0.992081, 193, 49, 256, 80
-0.992091, 177, 121, 304, 184
-0.992095, 13, 137, 44, 200
-0.992101, 217, 313, 280, 344
-0.992104, 49, 221, 112, 252
-0.992119, 33, 321, 288, 384
-0.992119, 17, 249, 80, 280
-0.992136, 233, 245, 296, 276
-0.992143, 41, 241, 104, 272
-0.992147, 261, 369, 292, 496
-0.992154, 137, 113, 200, 144
-0.992169, 137, 345, 168, 408
-0.992173, 249, 285, 312, 316
-0.992174, 209, 9, 333, 72
-0.992183, 17, 277, 80, 308
-0.992191, 137, 81, 200, 112
-0.992215, 1, 217, 64, 248
-0.992226, 9, 389, 72, 420
-0.992275, 249, 201, 280, 264
-0.992278, 33, 377, 288, 440
-0.992291, 201, 137, 264, 168
-0.992297, 217, 449, 280, 480
-0.992308, 273, 289, 333, 320
-0.99232, 121, 297, 184, 360
-0.992343, 193, 37, 256, 68
-0.992345, 273, 261, 333, 292
-0.992356, 221, 401, 252, 464
-0.992358, 121, 357, 184, 388
-0.992372, 137, 113, 168, 176
-0.992375, 233, 393, 264, 456
-0.992375, 129, 69, 192, 100
-0.992408, 85, 289, 116, 416
-0.992414, 137, 45, 200, 76
-0.992415, 273, 301, 333, 332
-0.992453, 25, 181, 88, 212
-0.99246, 81, 65, 144, 192
-0.992507, 161, 325, 224, 356
-0.992507, 233, 277, 264, 308
-0.992521, 209, 121, 272, 152
-0.992538, 121, 89, 152, 152
-0.992544, 169, 17, 200, 80
-0.992546, 177, 293, 240, 324
-0.992561, 177, 57, 304, 120
-0.992561, 233, 373, 296, 404
-0.992566, 241, 261, 304, 292
-0.992578, 201, 405, 264, 436
-0.992587, 97, 341, 160, 372
-0.992591, 225, 401, 288, 432
-0.992598, 33, 393, 160, 456
-0.99263, 97, 393, 224, 456
-0.992637, 17, 409, 80, 472
-0.992648, 77, 313, 108, 376
-0.992648, 25, 329, 56, 392
-0.992656, 69, 341, 100, 372
-0.99266, 9, 317, 40, 348
-0.992663, 33, 313, 64, 344
-0.992664, 201, 157, 264, 188
-0.992666, 201, 437, 264, 468
-0.992668, 161, 145, 224, 176
-0.99269, 113, 141, 176, 172
-0.992692, 185, 97, 248, 128
-0.992706, 17, 401, 80, 432
-0.992709, 273, 241, 333, 272
-0.992741, 1, 121, 128, 184
-0.992743, 25, 365, 56, 396
-0.992745, 221, 289, 252, 320
-0.992755, 249, 225, 312, 256
-0.99276, 145, 33, 208, 64
-0.992761, 49, 333, 80, 364
-0.992761, 41, 377, 104, 408
-0.992761, 45, 309, 76, 340
-0.992769, 233, 377, 264, 408
-0.992782, 129, 57, 192, 88
-0.992792, 241, 421, 304, 452
-0.992794, 129, 329, 192, 360
-0.992802, 49, 209, 112, 240
-0.992803, 161, 105, 224, 168
-0.992805, 141, 137, 172, 200
-0.992806, 89, 33, 152, 96
-0.992813, 113, 265, 176, 328
-0.992813, 165, 321, 196, 384
-0.992819, 249, 297, 280, 328
-0.99282, 25, 145, 88, 176
-0.992821, 209, 301, 272, 332
-0.992827, 137, 101, 200, 132
-0.992833, 1, 181, 64, 212
-0.992841, 41, 293, 72, 324
-0.992842, 193, 365, 224, 396
-0.992844, 185, 337, 216, 368
-0.992851, 249, 349, 312, 380
-0.992861, 229, 345, 260, 376
-0.992861, 185, 61, 248, 92
-0.992866, 261, 301, 292, 332
-0.992872, 241, 321, 304, 352
-0.992876, 1, 369, 32, 400
-0.99288, 265, 313, 296, 344
-0.992883, 229, 361, 260, 392
-0.992883, 265, 393, 328, 424
-0.992885, 177, 353, 208, 384
-0.992902, 129, 373, 160, 404
-0.992903, 273, 229, 333, 260
-0.992924, 117, 369, 148, 400
-0.992929, 105, 317, 168, 348
-0.992941, 257, 273, 320, 304
-0.992942, 165, 345, 196, 376
-0.992945, 49, 229, 80, 260
-0.992945, 45, 365, 76, 396
-0.992945, 97, 57, 160, 88
-0.992948, 217, 105, 280, 136
-0.992948, 105, 93, 168, 124
-0.99295, 25, 301, 56, 332
-0.99295, 1, 145, 64, 176
-0.992957, 1, 197, 64, 228
-0.992958, 217, 93, 280, 124
-0.992963, 97, 69, 160, 100
-0.992965, 245, 385, 276, 416
-0.992971, 209, 221, 272, 252
-0.992973, 209, 265, 272, 296
-0.992981, 141, 77, 172, 108
-0.992983, 97, 305, 128, 432
-0.992993, 121, 257, 184, 500
-0.992995, 25, 121, 88, 184
-0.992995, 5, 241, 36, 304
-0.992996, 57, 321, 88, 352
-0.993002, 177, 121, 240, 152
-0.993004, 45, 345, 76, 376
-0.993005, 177, 169, 240, 200
-0.993007, 209, 353, 240, 384
-0.993023, 13, 365, 44, 396
-0.993027, 21, 313, 52, 344
-0.993027, 1, 369, 333, 432
-0.993028, 157, 385, 188, 416
-0.993033, 209, 425, 333, 488
-0.993034, 209, 209, 272, 240
-0.993035, 145, 377, 176, 408
-0.993047, 129, 125, 192, 156
-0.993048, 57, 277, 120, 308
-0.99305, 33, 273, 64, 304
-0.993051, 209, 369, 240, 400
-0.993054, 97, 297, 160, 328
-0.993055, 169, 393, 200, 424
-0.993056, 177, 277, 240, 308
-0.993057, 185, 305, 248, 336
-0.993059, 89, 273, 152, 304
-0.993059, 145, 373, 208, 404
-0.993064, 13, 301, 44, 332
-0.993066, 245, 333, 276, 364
-0.993067, 17, 261, 48, 292
-0.993073, 49, 153, 112, 216
-0.993089, 205, 281, 236, 344
-0.99309, 181, 385, 212, 416
-0.993093, 41, 253, 104, 284
-0.993098, 257, 377, 288, 440
-0.993098, 241, 433, 304, 464
-0.993104, 197, 349, 228, 380
-0.993107, 57, 305, 88, 336
-0.993108, 241, 445, 304, 476
-0.993122, 49, 241, 80, 272
-0.993123, 1, 353, 32, 384
-0.993134, 273, 1, 333, 500
-0.993134, 249, 285, 280, 316
-0.993137, 1, 333, 32, 364
-0.99314, 213, 121, 244, 152
-0.99315, 53, 217, 84, 248
-0.993152, 65, 257, 128, 320
-0.993159, 181, 401, 212, 432
-0.993161, 189, 153, 220, 184
-0.993161, 21, 281, 52, 312
-0.993163, 93, 353, 124, 384
-0.99318, 33, 209, 64, 240
-0.993185, 193, 393, 224, 424
-0.993186, 225, 305, 256, 336
-0.993192, 129, 125, 160, 156
-0.993196, 209, 33, 240, 64
-0.993204, 57, 361, 88, 392
-0.993209, 209, 293, 240, 324
-0.993212, 245, 369, 276, 400
-0.993217, 29, 261, 60, 292
-0.993217, 117, 357, 148, 388
-0.993227, 29, 245, 60, 276
-0.993231, 221, 373, 252, 404
-0.993239, 1, 305, 32, 336
-0.993246, 49, 1, 176, 64
-0.993249, 153, 341, 184, 372
-0.993249, 205, 137, 236, 168
-0.993251, 273, 301, 304, 332
-0.993252, 217, 9, 280, 72
-0.993255, 225, 1, 288, 500
-0.993255, 37, 325, 68, 356
-0.99326, 45, 281, 76, 312
-0.993267, 237, 453, 268, 484
-0.993267, 129, 97, 160, 224
-0.993268, 257, 245, 288, 276
-0.993269, 137, 113, 168, 144
-0.993271, 81, 153, 208, 216
-0.993275, 105, 365, 136, 396
-0.993277, 1, 121, 256, 184
-0.993278, 233, 393, 264, 424
-0.993283, 41, 377, 72, 408
-0.993289, 81, 341, 112, 372
-0.99329, 45, 253, 76, 284
-0.993291, 237, 297, 268, 328
-0.993292, 153, 21, 184, 52
-0.993293, 33, 197, 64, 228
-0.993295, 5, 261, 36, 292
-0.993296, 249, 397, 280, 428
-0.993297, 217, 45, 248, 76
-0.993303, 13, 353, 44, 384
-0.993309, 205, 101, 236, 132
-0.993312, 213, 305, 244, 336
-0.993324, 169, 333, 200, 364
-0.99333, 29, 233, 60, 264
-0.993331, 57, 349, 88, 380
-0.993334, 53, 293, 84, 324
-0.993334, 141, 97, 172, 128
-0.993334, 205, 389, 236, 420
-0.993336, 169, 161, 200, 192
-0.993352, 241, 257, 272, 320
-0.993358, 261, 389, 292, 420
-0.99336, 205, 333, 236, 364
-0.993363, 5, 273, 36, 304
-0.993373, 129, 361, 160, 392
-0.993386, 145, 33, 176, 64
-0.993392, 225, 445, 256, 476
-0.993392, 245, 357, 276, 388
-0.993392, 73, 329, 104, 360
-0.993394, 249, 225, 280, 256
-0.993396, 249, 269, 280, 300
-0.993401, 29, 181, 60, 212
-0.993402, 257, 325, 288, 356
-0.993402, 229, 333, 260, 364
-0.993412, 229, 265, 260, 296
-0.993414, 1, 397, 32, 428
-0.99342, 65, 293, 96, 324
-0.993422, 53, 201, 84, 232
-0.993424, 197, 25, 228, 56
-0.993425, 105, 281, 136, 312
-0.993437, 33, 221, 64, 252
-0.993437, 245, 237, 276, 268
-0.993442, 197, 145, 228, 208
-0.993442, 125, 93, 156, 124
-0.993445, 229, 405, 260, 436
-0.993445, 241, 425, 272, 456
-0.993452, 185, 21, 216, 52
-0.993452, 105, 353, 136, 384
-0.993462, 265, 249, 296, 312
-0.993462, 29, 353, 60, 384
-0.993472, 209, 149, 240, 180
-0.993483, 29, 145, 60, 208
-0.993484, 245, 345, 276, 376
-0.993484, 205, 85, 236, 116
-0.993485, 93, 341, 124, 372
-0.993487, 181, 165, 212, 196
-0.993488, 137, 65, 168, 96
-0.993489, 113, 301, 144, 332
-0.99349, 169, 381, 200, 412
-0.993513, 141, 129, 172, 256
-0.993537, 209, 145, 240, 208
-0.993584, 1, 209, 32, 336
-0.993666, 137, 265, 200, 328
-0.993669, 273, 273, 304, 336
-0.993698, 109, 329, 140, 392
-0.99371, 129, 177, 256, 240
-0.993716, 89, 1, 152, 500
-0.993737, 137, 185, 200, 248
-0.993744, 97, 33, 160, 288
-0.993825, 153, 17, 184, 80
-0.993827, 33, 357, 160, 388
-0.993945, 13, 217, 44, 280
-0.993952, 65, 257, 192, 320
-0.993995, 89, 321, 120, 384
-0.994007, 65, 297, 320, 360
-0.994098, 125, 337, 156, 400
-0.994106, 209, 369, 240, 496
-0.994115, 209, 193, 333, 256
-0.994158, 153, 65, 184, 192
-0.994223, 89, 265, 152, 328
-0.994244, 57, 65, 120, 192
-0.994281, 261, 177, 292, 304
-0.994321, 89, 241, 152, 368
-0.994328, 1, 321, 333, 384
-0.994365, 181, 113, 212, 240
-0.994458, 49, 409, 112, 472
-0.994493, 21, 129, 52, 256
-0.994502, 1, 33, 64, 288
-0.994505, 157, 153, 188, 216
-0.994513, 209, 145, 240, 272
-0.994516, 161, 341, 288, 372
-0.994546, 33, 33, 288, 96
-0.994548, 1, 121, 333, 184
-0.994562, 281, 241, 312, 368
-0.994579, 57, 193, 88, 256
-0.994598, 209, 57, 240, 120
-0.994604, 273, 289, 304, 416
-0.994612, 273, 225, 333, 480
-0.994623, 113, 357, 240, 388
-0.994666, 277, 193, 308, 320
-0.994683, 105, 1, 168, 64
-0.994695, 105, 273, 136, 336
-0.994703, 261, 209, 292, 272
-0.994704, 65, 273, 320, 336
-0.99473, 45, 193, 76, 256
-0.994819, 137, 241, 200, 304
-0.994821, 65, 297, 80, 360
-0.994829, 169, 113, 200, 240
-0.994858, 185, 161, 248, 288
-0.994876, 229, 145, 260, 272
-0.994886, 129, 25, 256, 56
-0.994904, 169, 161, 200, 224
-0.994909, 229, 209, 260, 272
-0.994925, 1, 321, 128, 352
-0.994933, 113, 145, 176, 208
-0.994943, 161, 385, 288, 416
-0.994962, 129, 201, 256, 264
-0.994991, 1, 393, 333, 456
-0.995004, 49, 65, 112, 320
-0.995029, 197, 81, 228, 208
-0.995038, 241, 265, 256, 328
-0.995048, 195, 353, 210, 416
-0.995064, 145, 305, 176, 368
-0.995076, 97, 341, 224, 372
-0.995108, 65, 57, 320, 120
-0.995149, 229, 281, 244, 344
-0.995155, 129, 233, 256, 296
-0.99516, 57, 129, 88, 256
-0.995162, 217, 209, 248, 336
-0.995164, 1, 57, 128, 120
-0.995165, 185, 177, 248, 240
-0.995181, 33, 369, 160, 400
-0.995209, 253, 353, 284, 416
-0.995239, 203, 361, 218, 424
-0.995245, 17, 345, 144, 376
-0.995287, 65, 225, 192, 288
-0.99529, 161, 357, 288, 388
-0.995302, 161, 373, 288, 404
-0.995304, 153, 209, 216, 272
-0.995351, 121, 129, 184, 384
-0.995354, 301, 209, 332, 336
-0.995356, 225, 41, 256, 104
-0.995381, 33, 169, 64, 232
-0.995397, 177, 301, 304, 332
-0.995421, 25, 281, 40, 344
-0.995422, 113, 193, 176, 256
-0.995423, 85, 337, 116, 464
-0.995495, 1, 41, 333, 104
-0.995527, 59, 321, 74, 384
-0.995538, 193, 241, 224, 368
-0.995553, 169, 257, 200, 384
-0.995581, 45, 225, 76, 480
-0.995581, 59, 297, 74, 360
-0.995598, 203, 329, 218, 392
-0.995616, 193, 329, 208, 392
-0.995648, 33, 401, 288, 464
-0.995655, 67, 321, 82, 384
-0.995673, 249, 177, 280, 240
-0.995709, 1, 329, 16, 392
-0.995742, 1, 385, 32, 448
-0.995767, 209, 361, 224, 424
-0.995787, 129, 37, 256, 68
-0.995793, 189, 289, 220, 352
-0.995816, 121, 257, 152, 320
-0.995909, 17, 33, 144, 96
-0.99593, 185, 49, 216, 112
-0.995932, 253, 377, 268, 440
-0.995941, 11, 361, 26, 424
-0.996003, 53, 281, 68, 344
-0.996015, 233, 129, 296, 256
-0.996021, 1, 433, 333, 496
-0.996024, 41, 361, 56, 424
-0.996024, 245, 361, 260, 424
-0.996031, 251, 329, 266, 392
-0.996032, 33, 425, 288, 488
-0.996042, 65, 81, 320, 144
-0.996055, 29, 225, 60, 480
-0.996067, 181, 169, 212, 232
-0.9961, 221, 17, 252, 144
-0.996112, 35, 289, 50, 352
-0.996121, 63, 353, 78, 416
-0.996129, 73, 329, 88, 392
-0.996135, 229, 241, 260, 304
-0.996148, 269, 289, 284, 352
-0.996149, 241, 337, 256, 400
-0.996165, 161, 329, 288, 360
-0.996173, 97, 353, 128, 480
-0.996178, 185, 329, 200, 392
-0.996184, 129, 101, 256, 132
-0.996201, 13, 81, 44, 208
-0.996204, 33, 377, 64, 440
-0.996232, 17, 297, 144, 328
-0.996235, 217, 121, 248, 184
-0.996239, 129, 121, 256, 152
-0.996258, 1, 333, 128, 364
-0.996261, 209, 257, 240, 320
-0.996274, 253, 289, 268, 352
-0.996286, 53, 217, 68, 280
-0.996295, 185, 353, 200, 416
-0.996302, 5, 361, 20, 424
-0.996308, 143, 41, 158, 104
-0.996325, 235, 265, 250, 328
-0.996325, 65, 329, 192, 360
-0.99633, 57, 377, 88, 440
-0.996365, 197, 97, 228, 160
-0.996378, 51, 345, 66, 408
-0.996378, 129, 89, 256, 120
-0.996378, 113, 369, 240, 400
-0.996379, 145, 1, 176, 256
-0.996386, 209, 289, 333, 320
-0.996387, 263, 289, 278, 352
-0.996419, 13, 193, 44, 256
-0.996426, 1, 305, 16, 368
-0.996447, 47, 241, 62, 304
-0.996448, 17, 361, 32, 424
-0.996454, 247, 273, 262, 336
-0.996458, 193, 121, 224, 184
-0.996471, 45, 401, 76, 464
-0.996475, 219, 281, 234, 344
-0.996486, 17, 433, 80, 496
-0.996499, 129, 77, 256, 108
-0.9965, 161, 397, 288, 428
-0.996501, 209, 185, 272, 248
-0.996507, 25, 249, 40, 312
-0.996526, 1, 113, 64, 176
-0.996541, 1, 309, 128, 340
-0.99656, 209, 357, 333, 388
-0.99656, 73, 145, 104, 208
-0.996562, 7, 329, 22, 392
-0.996587, 17, 281, 32, 344
-0.996589, 131, 361, 146, 424
-0.996598, 141, 97, 156, 160
-0.996605, 209, 393, 333, 424
-0.996606, 53, 153, 84, 216
-0.996611, 215, 345, 230, 408
-0.996627, 227, 345, 242, 408
-0.996645, 49, 305, 64, 368
-0.996647, 81, 381, 208, 412
-0.996666, 241, 297, 256, 360
-0.996667, 229, 41, 244, 104
-0.996676, 23, 361, 38, 424
-0.996687, 225, 305, 240, 368
-0.996689, 41, 265, 56, 328
-0.99669, 177, 305, 208, 368
-0.996694, 275, 297, 290, 360
-0.996703, 35, 353, 50, 416
-0.996716, 175, 345, 190, 408
-0.996727, 145, 145, 272, 176
-0.99673, 217, 121, 232, 184
-0.996741, 203, 385, 218, 448
-0.99676, 1, 145, 256, 208
-0.996778, 11, 289, 26, 352
-0.996803, 121, 1, 152, 128
-0.99681, 51, 369, 66, 432
-0.996823, 163, 337, 178, 400
-0.996826, 145, 369, 160, 432
-0.996829, 41, 433, 104, 496
-0.996858, 43, 289, 58, 352
-0.996868, 259, 377, 274, 440
-0.996884, 29, 81, 60, 208
-0.996893, 139, 369, 154, 432
-0.996904, 235, 369, 250, 432
-0.996905, 47, 265, 62, 328
-0.996939, 129, 293, 256, 324
-0.996943, 223, 33, 238, 96
-0.996946, 221, 345, 236, 408
-0.99695, 125, 361, 140, 424
-0.996957, 153, 369, 168, 432
-0.996959, 243, 425, 258, 488
-0.996967, 147, 73, 162, 136
-0.996981, 1, 153, 333, 216
-0.996984, 245, 393, 260, 456
-0.996985, 27, 305, 42, 368
-0.996991, 273, 225, 304, 288
-0.996999, 137, 177, 200, 304
-0.997, 247, 297, 262, 360
-0.99702, 101, 249, 132, 312
-0.99703, 113, 193, 176, 320
-0.997033, 211, 25, 226, 88
-0.997046, 61, 209, 76, 272
-0.99705, 81, 137, 208, 168
-0.997069, 197, 17, 212, 80
-0.99707, 235, 297, 250, 360
-0.99707, 17, 285, 144, 316
-0.997091, 129, 53, 256, 84
-0.997093, 17, 249, 144, 280
-0.997101, 81, 193, 208, 256
-0.997102, 177, 49, 208, 176
-0.997104, 161, 281, 288, 312
-0.997111, 1, 265, 333, 328
-0.997112, 233, 65, 248, 128
-0.997114, 209, 273, 333, 304
-0.997143, 205, 25, 220, 88
-0.997146, 225, 65, 256, 128
-0.997174, 135, 81, 150, 144
-0.997175, 1, 73, 333, 136
-0.997181, 119, 273, 134, 336
-0.997187, 41, 337, 56, 400
-0.997187, 17, 257, 48, 500
-0.997195, 1, 261, 128, 292
-0.997204, 169, 137, 200, 200
-0.997229, 275, 273, 290, 336
-0.997231, 129, 65, 256, 96
-0.997239, 81, 369, 144, 496
-0.997248, 163, 377, 178, 440
-0.997249, 35, 249, 50, 312
-0.997249, 29, 353, 44, 416
-0.997268, 79, 329, 94, 392
-0.997315, 1, 325, 16, 356
-0.997333, 189, 393, 204, 456
-0.997348, 179, 385, 194, 448
-0.997357, 161, 409, 288, 440
-0.99736, 209, 321, 224, 384
-0.99737, 197, 393, 212, 456
-0.997371, 209, 369, 333, 400
-0.997377, 233, 337, 248, 400
-0.997378, 223, 97, 238, 160
-0.997381, 193, 145, 208, 208
-0.997382, 273, 301, 288, 332
-0.997385, 113, 393, 240, 424
-0.997392, 209, 1, 240, 256
-0.997402, 187, 145, 202, 208
-0.997402, 1, 193, 333, 256
-0.997405, 249, 233, 264, 296
-0.997405, 57, 361, 72, 424
-0.997406, 229, 369, 244, 432
-0.997419, 265, 265, 280, 328
-0.997424, 181, 169, 196, 232
-0.997428, 41, 217, 56, 280
-0.997429, 25, 41, 88, 104
-0.997434, 253, 257, 268, 320
-0.997436, 215, 369, 230, 432
-0.99744, 17, 145, 144, 176
-0.99744, 193, 457, 320, 488
-0.997449, 33, 249, 288, 312
-0.997451, 191, 17, 206, 80
-0.997454, 61, 273, 76, 336
-0.997477, 157, 337, 172, 400
-0.997491, 243, 381, 258, 412
-0.9975, 87, 337, 102, 400
-0.997506, 169, 377, 184, 440
-0.997509, 137, 121, 152, 184
-0.997514, 219, 305, 234, 368
-0.997521, 121, 217, 184, 280
-0.997523, 49, 193, 64, 256
-0.997524, 209, 261, 333, 292
-0.997524, 193, 313, 320, 344
-0.997528, 3, 281, 18, 344
-0.997558, 251, 353, 266, 416
-0.997566, 145, 133, 272, 164
-0.997567, 265, 377, 280, 440
-0.997572, 169, 321, 184, 384
-0.997583, 165, 65, 196, 192
-0.997583, 237, 393, 252, 456
-0.997585, 1, 177, 256, 240
-0.99759, 117, 249, 132, 312
-0.997613, 271, 249, 286, 312
-0.997638, 49, 309, 176, 340
-0.99764, 199, 153, 214, 216
-0.99764, 237, 425, 252, 488
-0.997642, 211, 121, 226, 184
-0.997653, 145, 437, 272, 468
-0.997665, 245, 225, 276, 480
-0.997669, 157, 1, 188, 256
-0.997671, 63, 301, 78, 332
-0.997676, 35, 313, 50, 376
-0.99768, 33, 129, 64, 384
-0.997683, 19, 257, 34, 320
-0.997685, 137, 345, 152, 408
-0.997702, 53, 241, 68, 304
-0.997705, 19, 329, 34, 392
-0.997713, 217, 33, 232, 96
-0.997714, 225, 257, 256, 500
-0.99772, 169, 345, 184, 408
-0.997734, 169, 1, 200, 256
-0.99774, 117, 337, 132, 400
-0.997757, 17, 229, 144, 260
-0.997764, 81, 149, 208, 180
-0.997776, 161, 165, 288, 196
-0.997781, 227, 289, 242, 320
-0.997786, 51, 365, 66, 396
-0.997788, 273, 369, 304, 496
-0.997817, 5, 257, 36, 500
-0.997822, 73, 341, 88, 372
-0.99783, 17, 213, 144, 244
-0.99784, 17, 273, 144, 304
-0.997843, 9, 313, 24, 344
-0.997843, 49, 57, 176, 88
-0.997849, 189, 1, 220, 256
-0.997864, 73, 169, 136, 232
-0.997893, 1, 9, 256, 72
-0.997902, 33, 201, 160, 232
-0.997918, 3, 313, 18, 344
-0.997928, 1, 97, 128, 160
-0.997979, 177, 241, 304, 272
-0.997983, 67, 325, 82, 356
-0.997986, 241, 273, 256, 304
-0.998007, 49, 129, 80, 384
-0.998007, 41, 365, 56, 396
-0.998015, 113, 425, 240, 488
-0.998016, 205, 365, 220, 396
-0.998022, 49, 45, 176, 76
-0.998029, 271, 313, 286, 344
-0.998035, 161, 209, 224, 336
-0.998047, 89, 241, 152, 304
-0.99806, 57, 257, 88, 500
-0.998062, 279, 305, 294, 336
-0.99807, 61, 333, 76, 364
-0.998086, 67, 349, 82, 380
-0.998086, 145, 317, 272, 348
-0.998091, 57, 309, 72, 340
-0.998094, 183, 341, 198, 372
-0.998109, 125, 241, 156, 368
-0.998111, 105, 225, 136, 352
-0.998111, 181, 353, 196, 384
-0.998114, 41, 313, 56, 344
-0.998119, 171, 341, 186, 372
-0.99812, 189, 341, 204, 372
-0.998127, 139, 117, 154, 148
-0.998136, 35, 309, 50, 340
-0.998138, 177, 341, 192, 372
-0.998142, 129, 269, 256, 300
-0.998148, 267, 301, 282, 332
-0.998156, 177, 177, 304, 208
-0.998169, 243, 365, 258, 396
-0.99817, 47, 313, 62, 344
-0.998177, 1, 81, 32, 208
-0.998181, 97, 161, 224, 192
-0.998184, 49, 69, 176, 100
-0.998185, 187, 357, 202, 388
-0.998191, 43, 301, 58, 332
-0.998197, 253, 385, 268, 416
-0.998203, 143, 373, 158, 404
-0.998206, 13, 369, 28, 400
-0.998234, 7, 333, 22, 364
-0.998234, 51, 249, 66, 280
-0.998234, 79, 341, 94, 372
-0.998235, 133, 369, 148, 400
-0.998235, 1, 389, 128, 420
-0.998239, 1, 341, 16, 372
-0.998248, 59, 361, 74, 392
-0.998256, 231, 373, 246, 404
-0.998257, 35, 361, 50, 392
-0.998258, 193, 229, 320, 260
-0.998258, 195, 361, 210, 392
-0.998262, 251, 337, 266, 368
-0.99827, 221, 293, 236, 324
-0.998276, 57, 293, 72, 324
-0.99829, 47, 261, 62, 292
-0.998294, 209, 381, 333, 412
-0.998311, 37, 297, 52, 328
-0.998313, 189, 339, 220, 354
-0.998313, 213, 311, 244, 326
-0.998313, 165, 161, 196, 176
-0.998314, 197, 149, 228, 164
-0.998315, 29, 201, 60, 216
-0.998316, 49, 289, 80, 304
-0.998317, 165, 397, 196, 412
-0.998317, 257, 327, 288, 342
-0.998317, 249, 367, 280, 382
-0.998318, 189, 403, 220, 418
-0.998319, 199, 157, 214, 188
-0.99832, 249, 291, 280, 306
-0.99832, 97, 367, 128, 382
-0.99832, 145, 381, 176, 396
-0.998321, 1, 265, 32, 280
-0.998321, 41, 323, 72, 338
-0.998322, 177, 157, 208, 172
-0.998322, 33, 229, 64, 244
-0.998323, 129, 135, 160, 150
-0.998323, 49, 257, 80, 272
-0.998323, 203, 393, 218, 424
-0.998325, 109, 287, 140, 302
-0.998325, 181, 389, 212, 404
-0.998325, 51, 229, 66, 260
-0.998326, 29, 183, 60, 198
-0.998326, 221, 301, 252, 316
-0.998327, 89, 357, 120, 372
-0.998327, 29, 371, 60, 386
-0.998327, 37, 299, 68, 314
-0.998327, 29, 283, 60, 298
-0.998328, 201, 397, 232, 412
-0.998328, 129, 129, 160, 144
-0.998328, 29, 245, 60, 260
-0.998329, 177, 165, 208, 180
-0.998329, 249, 395, 280, 410
-0.998329, 189, 25, 220, 40
-0.99833, 33, 267, 64, 282
-0.99833, 141, 97, 172, 112
-0.998331, 33, 329, 64, 344
-0.998331, 141, 89, 172, 104
-0.998332, 229, 339, 260, 354
-0.998332, 113, 363, 144, 378
-0.998332, 23, 365, 38, 396
-0.998332, 205, 305, 236, 320
-0.998334, 57, 367, 88, 382
-0.998334, 33, 211, 64, 226
-0.998336, 1, 339, 32, 354
-0.998336, 237, 377, 252, 408
-0.998336, 45, 361, 76, 376
-0.998337, 45, 331, 76, 346
-0.998337, 197, 371, 228, 386
-0.998337, 241, 299, 272, 314
-0.998338, 53, 227, 84, 242
-0.998338, 49, 349, 80, 364
-0.998339, 149, 387, 180, 402
-0.998341, 3, 365, 18, 396
-0.998342, 189, 161, 220, 176
-0.998343, 49, 251, 80, 266
-0.998343, 257, 245, 288, 260
-0.998345, 209, 341, 240, 356
-0.998347, 209, 385, 224, 416
-0.998348, 219, 121, 234, 152
-0.998348, 233, 391, 264, 406
-0.998351, 221, 305, 236, 336
-0.998351, 189, 349, 220, 364
-0.998352, 249, 277, 280, 292
-0.998352, 265, 145, 328, 272
-0.998353, 201, 349, 216, 380
-0.998353, 213, 367, 244, 382
-0.998354, 273, 307, 304, 322
-0.998354, 21, 261, 36, 292
-0.998354, 49, 233, 80, 248
-0.998355, 245, 335, 276, 350
-0.998355, 229, 359, 260, 374
-0.998355, 53, 325, 84, 340
-0.998356, 53, 215, 84, 230
-0.998356, 29, 257, 60, 272
-0.998356, 15, 317, 30, 348
-0.998357, 249, 401, 280, 416
-0.99836, 9, 361, 40, 376
-0.99836, 241, 353, 256, 384
-0.99836, 13, 301, 44, 316
-0.998362, 205, 361, 236, 376
-0.998363, 209, 93, 333, 124
-0.998363, 225, 307, 256, 322
-0.998364, 33, 223, 64, 238
-0.998364, 189, 395, 220, 410
-0.998364, 213, 121, 244, 136
-0.998364, 25, 273, 56, 288
-0.998364, 197, 155, 228, 170
-0.998365, 53, 309, 84, 324
-0.998365, 241, 457, 272, 472
-0.998365, 25, 295, 56, 310
-0.998366, 137, 77, 168, 92
-0.998366, 1, 373, 32, 388
-0.998367, 61, 331, 92, 346
-0.998367, 61, 343, 92, 358
-0.998367, 137, 121, 168, 136
-0.998368, 197, 355, 228, 370
-0.998368, 153, 341, 184, 356
-0.99837, 9, 333, 40, 348
-0.998371, 73, 337, 104, 352
-0.998371, 145, 421, 272, 452
-0.998372, 3, 353, 18, 384
-0.998372, 229, 375, 260, 390
-0.998373, 163, 337, 178, 368
-0.998374, 129, 375, 160, 390
-0.998375, 161, 391, 192, 406
-0.998378, 173, 353, 204, 368
-0.998378, 29, 309, 44, 340
-0.998379, 177, 399, 208, 414
-0.99838, 61, 303, 92, 318
-0.998382, 49, 81, 176, 112
-0.998383, 65, 357, 96, 372
-0.998384, 25, 305, 56, 320
-0.998384, 129, 305, 256, 336
-0.998385, 53, 221, 84, 236
-0.998386, 181, 359, 212, 374
-0.998386, 165, 341, 196, 356
-0.998386, 41, 373, 72, 388
-0.998387, 225, 351, 256, 366
-0.998387, 19, 301, 34, 332
-0.998389, 251, 293, 266, 324
-0.998393, 233, 381, 264, 396
-0.998394, 261, 325, 276, 356
-0.998395, 269, 315, 300, 330
-0.998396, 49, 241, 80, 256
-0.998397, 11, 357, 26, 388
-0.998397, 151, 377, 166, 408
-0.998398, 177, 343, 208, 358
-0.998399, 13, 263, 44, 278
-0.9984, 193, 121, 320, 152
-0.998401, 193, 365, 224, 380
-0.998402, 213, 369, 228, 400
-0.998403, 65, 313, 80, 344
-0.998403, 143, 77, 158, 108
-0.998404, 17, 161, 48, 416
-0.998405, 13, 307, 44, 322
-0.998406, 119, 277, 134, 308
-0.998406, 49, 295, 80, 310
-0.998407, 59, 217, 74, 248
-0.99841, 45, 315, 76, 330
-0.99841, 127, 369, 142, 400
-0.99841, 129, 177, 256, 208
-0.998411, 69, 349, 100, 364
-0.998412, 231, 49, 246, 80
-0.998414, 33, 209, 288, 272
-0.998417, 249, 389, 280, 404
-0.998418, 213, 373, 244, 388
-0.998419, 117, 371, 148, 386
-0.998419, 229, 289, 260, 304
-0.998423, 69, 193, 100, 448
-0.998425, 33, 189, 160, 220
-0.998425, 189, 401, 204, 432
-0.998426, 25, 313, 56, 328
-0.998426, 233, 277, 264, 292
-0.998432, 229, 345, 260, 360
-0.998433, 253, 299, 284, 314
-0.998435, 45, 367, 76, 382
-0.998438, 161, 347, 192, 362
-0.998442, 241, 341, 256, 372
-0.998442, 5, 315, 36, 330
-0.998444, 209, 425, 333, 456
-0.998445, 229, 365, 260, 380
-0.998447, 69, 161, 100, 288
-0.998447, 53, 337, 84, 352
-0.998449, 5, 325, 36, 340
-0.99845, 21, 317, 36, 348
-0.998452, 1, 425, 128, 456
-0.998452, 55, 329, 70, 360
-0.998453, 9, 367, 40, 382
-0.998454, 49, 329, 64, 360
-0.99846, 65, 293, 192, 324
-0.998462, 167, 385, 182, 416
-0.998468, 29, 365, 60, 380
-0.99847, 187, 161, 202, 192
-0.99847, 1, 133, 128, 164
-0.998472, 205, 225, 236, 352
-0.998472, 261, 305, 292, 320
-0.99848, 49, 261, 176, 292
-0.998481, 9, 367, 72, 382
-0.998481, 73, 343, 104, 358
-0.998483, 1, 321, 64, 336
-0.998485, 51, 377, 66, 408
-0.998486, 193, 157, 208, 188
-0.99849, 25, 297, 40, 328
-0.998492, 197, 401, 212, 432
-0.9985, 181, 397, 196, 428
-0.998501, 247, 393, 262, 424
-0.998503, 233, 277, 248, 308
-0.998504, 209, 363, 272, 378
-0.998505, 49, 93, 176, 124
-0.998507, 49, 125, 176, 156
-0.998508, 241, 393, 256, 424
-0.998509, 233, 283, 264, 298
-0.99851, 17, 305, 80, 320
-0.99851, 241, 305, 304, 320
-0.998511, 41, 81, 72, 208
-0.998511, 241, 445, 256, 476
-0.998513, 33, 339, 96, 354
-0.998517, 29, 361, 44, 392
-0.99852, 41, 305, 72, 320
-0.998523, 65, 351, 128, 366
-0.998525, 51, 305, 66, 432
-0.998525, 161, 381, 176, 412
-0.998526, 65, 343, 128, 358
-0.998526, 245, 285, 260, 316
-0.998528, 165, 193, 196, 320
-0.998531, 129, 33, 160, 288
-0.998532, 209, 373, 272, 388
-0.998536, 1, 313, 64, 328
-0.998536, 263, 389, 278, 420
-0.998537, 133, 121, 148, 152
-0.998537, 209, 405, 333, 436
-0.998539, 63, 289, 78, 320
-0.998542, 225, 299, 288, 314
-0.998543, 169, 341, 232, 356
-0.998543, 201, 357, 264, 372
-0.998544, 49, 293, 64, 324
-0.998544, 1, 333, 64, 348
-0.998545, 289, 193, 320, 320
-0.998546, 57, 345, 72, 376
-0.998548, 101, 353, 116, 384
-0.998552, 209, 347, 272, 362
-0.998553, 209, 81, 333, 112
-0.998556, 225, 285, 288, 300
-0.998558, 57, 357, 120, 372
-0.998561, 217, 293, 280, 308
-0.998562, 113, 365, 128, 396
-0.998564, 203, 145, 218, 176
-0.998566, 25, 315, 88, 330
-0.998567, 199, 337, 214, 368
-0.99857, 173, 393, 188, 424
-0.998572, 73, 121, 136, 184
-0.998576, 209, 41, 333, 72
-0.998578, 161, 253, 288, 284
-0.99858, 121, 369, 136, 400
-0.998581, 17, 357, 32, 388
-0.998585, 49, 49, 112, 112
-0.998588, 177, 347, 240, 362
-0.998589, 219, 101, 234, 132
-0.99859, 77, 329, 92, 360
-0.998592, 17, 373, 80, 388
-0.998595, 217, 357, 232, 388
-0.998595, 209, 341, 272, 356
-0.998598, 215, 293, 230, 324
-0.998598, 221, 37, 236, 68
-0.998598, 213, 125, 228, 156
-0.998601, 57, 305, 120, 320
-0.998602, 251, 365, 266, 396
-0.998603, 125, 277, 140, 308
-0.998604, 33, 281, 48, 312
-0.998604, 153, 23, 216, 38
-0.998605, 25, 277, 40, 308
-0.998606, 241, 391, 304, 406
-0.998608, 49, 209, 64, 240
-0.998608, 57, 363, 120, 378
-0.998609, 113, 375, 176, 390
-0.998609, 69, 293, 84, 324
-0.99861, 1, 73, 64, 136
-0.998615, 201, 391, 264, 406
-0.998616, 17, 359, 80, 374
-0.998617, 65, 337, 128, 352
-0.998618, 241, 459, 304, 474
-0.998619, 25, 215, 88, 230
-0.998619, 233, 277, 296, 292
-0.998619, 185, 369, 248, 384
-0.99862, 177, 363, 240, 378
-0.99862, 161, 397, 224, 412
-0.998621, 1, 327, 64, 342
-0.998621, 17, 299, 80, 314
-0.998623, 49, 109, 176, 140
-0.998625, 25, 233, 88, 248
-0.998626, 25, 221, 88, 236
-0.998627, 89, 369, 152, 384
-0.998628, 147, 33, 162, 64
-0.998628, 11, 305, 26, 432
-0.998629, 25, 347, 88, 362
-0.998631, 161, 391, 224, 406
-0.998632, 137, 347, 200, 362
-0.998632, 145, 97, 160, 128
-0.998634, 57, 233, 72, 264
-0.998635, 201, 397, 264, 412
-0.998636, 49, 29, 176, 60
-0.998637, 15, 261, 30, 292
-0.998639, 193, 17, 320, 48
-0.998639, 137, 393, 200, 408
-0.998642, 209, 109, 333, 140
-0.998644, 225, 311, 288, 326
-0.998644, 31, 297, 46, 328
-0.998646, 129, 341, 192, 356
-0.998646, 145, 353, 208, 368
-0.998648, 233, 369, 296, 384
-0.998648, 209, 279, 272, 294
-0.998651, 153, 359, 216, 374
-0.998652, 129, 387, 192, 402
-0.998653, 1, 339, 64, 354
-0.998654, 9, 65, 40, 320
-0.998655, 201, 285, 264, 300
-0.998656, 209, 379, 272, 394
-0.998656, 209, 469, 333, 500
-0.998657, 35, 177, 50, 208
-0.998658, 241, 399, 304, 414
-0.998658, 25, 177, 88, 192
-0.998658, 17, 379, 80, 394
-0.998659, 177, 53, 304, 84
-0.998659, 57, 299, 120, 314
-0.998659, 207, 353, 222, 384
-0.998659, 161, 159, 224, 174
-0.998659, 25, 293, 88, 308
-0.99866, 105, 139, 168, 154
-0.998661, 41, 243, 104, 258
-0.998663, 265, 313, 328, 328
-0.998663, 17, 279, 80, 294
-0.998664, 227, 89, 242, 120
-0.998666, 17, 261, 80, 276
-0.998666, 25, 189, 88, 204
-0.998666, 9, 227, 72, 242
-0.998666, 189, 225, 220, 480
-0.998666, 217, 457, 280, 472
-0.998667, 17, 285, 80, 300
-0.998667, 185, 305, 248, 320
-0.998667, 33, 323, 96, 338
-0.998668, 17, 243, 80, 258
-0.998668, 201, 335, 264, 350
-0.998669, 217, 305, 280, 320
-0.998669, 129, 381, 192, 396
-0.998669, 25, 209, 88, 224
-0.99867, 25, 353, 88, 368
-0.998672, 33, 227, 96, 242
-0.998672, 33, 365, 96, 380
-0.998672, 241, 243, 304, 258
-0.998673, 249, 283, 312, 298
-0.998675, 169, 385, 232, 400
-0.998676, 129, 77, 192, 92
-0.998676, 57, 311, 120, 326
-0.998676, 25, 151, 88, 166
-0.998676, 49, 221, 112, 236
-0.998676, 25, 145, 88, 160
-0.998676, 25, 329, 88, 344
-0.998677, 27, 261, 42, 292
-0.998677, 161, 335, 224, 350
-0.998677, 87, 341, 102, 372
-0.998677, 33, 413, 160, 444
-0.998677, 145, 449, 272, 480
-0.998678, 193, 157, 256, 172
-0.998678, 185, 403, 248, 418
-0.998678, 25, 183, 88, 198
-0.998679, 113, 369, 176, 384
-0.998679, 17, 387, 80, 402
-0.998679, 177, 353, 240, 368
-0.99868, 81, 363, 144, 378
-0.99868, 245, 297, 260, 328
-0.99868, 129, 123, 192, 138
-0.99868, 17, 273, 80, 288
-0.998681, 41, 305, 56, 432
-0.998681, 63, 289, 78, 416
-0.998682, 193, 291, 256, 306
-0.998684, 241, 359, 304, 374
-0.998685, 129, 83, 192, 98
-0.998686, 209, 127, 272, 142
-0.998686, 201, 299, 264, 314
-0.998686, 17, 403, 80, 418
-0.998687, 105, 359, 168, 374
-0.998687, 161, 153, 224, 168
-0.998688, 41, 375, 104, 390
-0.998688, 249, 299, 312, 314
-0.998689, 25, 203, 88, 218
-0.998692, 57, 293, 120, 308
-0.998692, 97, 347, 160, 362
-0.998692, 1, 237, 64, 252
-0.998693, 241, 339, 304, 354
-0.998693, 105, 145, 168, 160
-0.998693, 137, 117, 200, 132
-0.998694, 17, 255, 80, 270
-0.998694, 9, 395, 72, 410
-0.998696, 1, 161, 32, 416
-0.998697, 1, 217, 333, 280
-0.998697, 209, 121, 272, 136
-0.998698, 81, 357, 144, 372
-0.998698, 233, 345, 296, 360
-0.998698, 65, 281, 192, 312
-0.998699, 265, 393, 328, 408
-0.998699, 25, 197, 88, 212
-0.9987, 1, 145, 64, 160
-0.9987, 65, 331, 128, 346
-0.9987, 241, 353, 304, 368
-0.9987, 249, 333, 312, 348
-0.998701, 1, 267, 64, 282
-0.998701, 249, 289, 312, 304
-0.998709, 209, 329, 333, 360
-0.998712, 1, 97, 333, 160
-0.998722, 35, 305, 50, 432
-0.998724, 113, 329, 240, 360
-0.998728, 17, 177, 144, 208
-0.998734, 47, 225, 62, 352
-0.998735, 193, 445, 320, 476
-0.998741, 1, 9, 128, 72
-0.998748, 1, 465, 128, 496
-0.998762, 209, 345, 333, 376
-0.998791, 189, 129, 220, 384
-0.998791, 205, 257, 236, 500
-0.998804, 169, 161, 200, 416
-0.99881, 241, 257, 256, 384
-0.998817, 169, 257, 200, 500
-0.99883, 3, 305, 18, 432
-0.998835, 201, 337, 216, 464
-0.998837, 209, 217, 333, 248
-0.998847, 209, 97, 240, 352
-0.998859, 193, 137, 320, 168
-0.998863, 97, 317, 224, 348
-0.998879, 57, 273, 72, 400
-0.998889, 21, 305, 36, 432
-0.998894, 141, 97, 172, 352
-0.998894, 113, 281, 240, 312
-0.998933, 241, 305, 256, 432
-0.998936, 113, 205, 240, 236
-0.998944, 53, 225, 68, 352
-0.998956, 209, 201, 333, 232
-0.998957, 209, 189, 333, 220
-0.99896, 33, 453, 160, 484
-0.998966, 195, 337, 210, 464
-0.998966, 229, 161, 260, 416
-0.998966, 257, 193, 288, 448
-0.998985, 81, 17, 208, 48
-0.998989, 1, 401, 128, 432
-0.999003, 249, 273, 264, 400
-0.999003, 41, 353, 56, 480
-0.999017, 17, 257, 32, 384
-0.999017, 241, 41, 304, 104
-0.999021, 41, 257, 56, 384
-0.999024, 273, 433, 333, 496
-0.999026, 29, 289, 44, 416
-0.999037, 161, 209, 288, 240
-0.999054, 273, 305, 333, 368
-0.999056, 113, 193, 240, 224
-0.999057, 129, 13, 256, 44
-0.999068, 65, 233, 192, 264
-0.999076, 105, 257, 136, 500
-0.999086, 145, 33, 160, 160
-0.999088, 231, 273, 246, 400
-0.999091, 33, 441, 160, 472
-0.999094, 221, 1, 252, 256
-0.999096, 233, 369, 248, 496
-0.999104, 61, 337, 76, 464
-0.999108, 207, 305, 222, 432
-0.99911, 177, 217, 240, 280
-0.999111, 171, 353, 186, 480
-0.999138, 121, 257, 152, 500
-0.999151, 11, 353, 26, 480
-0.999154, 35, 257, 50, 384
-0.999157, 187, 305, 202, 432
-0.999158, 93, 257, 124, 500
-0.999159, 241, 353, 256, 480
-0.999161, 49, 393, 176, 424
-0.999162, 251, 321, 266, 448
-0.999163, 179, 337, 194, 464
-0.999163, 65, 173, 192, 204
-0.999164, 177, 65, 304, 96
-0.999166, 255, 225, 270, 352
-0.999175, 69, 273, 84, 400
-0.99918, 47, 353, 62, 480
-0.999182, 1, 49, 64, 112
-0.999186, 173, 305, 188, 432
-0.999189, 35, 353, 50, 480
-0.999192, 165, 337, 180, 464
-0.9992, 161, 73, 224, 136
-0.999204, 241, 129, 272, 384
-0.999205, 233, 321, 248, 448
-0.999207, 161, 1, 176, 128
-0.999211, 55, 353, 70, 480
-0.999216, 17, 353, 32, 480
-0.999219, 249, 225, 264, 352
-0.999221, 25, 225, 40, 352
-0.999222, 73, 33, 136, 288
-0.99923, 1, 157, 128, 188
-0.999242, 69, 321, 84, 448
-0.999245, 169, 1, 184, 128
-0.999249, 219, 17, 234, 144
-0.999253, 265, 241, 280, 368
-0.999255, 257, 321, 272, 448
-0.999261, 11, 225, 26, 352
-0.999263, 5, 353, 20, 480
-0.999268, 75, 321, 90, 448
-0.999276, 193, 149, 320, 180
-0.999276, 249, 369, 264, 496
-0.999278, 145, 221, 272, 252
-0.99928, 1, 17, 333, 80
-0.99928, 207, 353, 222, 480
-0.999285, 181, 1, 196, 128
-0.999288, 209, 29, 333, 60
-0.99929, 189, 353, 204, 480
-0.999293, 175, 1, 190, 128
-0.999296, 151, 17, 166, 144
-0.999298, 255, 273, 270, 400
-0.999306, 229, 65, 244, 192
-0.999311, 43, 177, 58, 304
-0.999318, 225, 257, 240, 384
-0.999327, 113, 405, 240, 436
-0.999328, 123, 289, 138, 416
-0.999331, 213, 289, 228, 416
-0.999331, 55, 177, 70, 304
-0.999335, 233, 49, 264, 176
-0.999336, 59, 225, 74, 352
-0.999338, 29, 337, 44, 464
-0.99934, 1, 257, 16, 384
-0.999347, 201, 289, 216, 416
-0.99935, 225, 17, 240, 144
-0.999354, 193, 273, 208, 400
-0.999357, 61, 81, 92, 208
-0.99937, 227, 337, 242, 464
-0.999373, 81, 257, 112, 500
-0.99938, 219, 97, 234, 224
-0.999384, 23, 353, 38, 480
-0.999385, 35, 145, 50, 272
-0.999386, 141, 225, 172, 480
-0.999387, 1, 57, 128, 88
-0.999389, 215, 337, 230, 464
-0.99939, 159, 369, 174, 496
-0.99939, 131, 353, 146, 480
-0.999403, 209, 113, 224, 240
-0.99941, 139, 49, 154, 176
-0.99941, 243, 209, 258, 336
-0.999412, 263, 305, 278, 432
-0.999412, 97, 257, 224, 288
-0.999416, 209, 161, 333, 192
-0.999419, 213, 17, 228, 144
-0.999429, 153, 369, 168, 496
-0.999431, 147, 353, 162, 480
-0.999431, 159, 321, 174, 448
-0.999442, 179, 161, 194, 288
-0.999443, 117, 289, 132, 416
-0.999446, 21, 65, 52, 320
-0.999454, 275, 225, 290, 352
-0.999454, 219, 257, 234, 384
-0.99946, 187, 1, 202, 128
-0.999463, 221, 321, 236, 448
-0.999463, 133, 65, 148, 192
-0.999466, 161, 197, 288, 228
-0.999469, 137, 353, 152, 480
-0.999469, 277, 289, 292, 416
-0.99947, 257, 369, 272, 496
-0.999472, 49, 177, 64, 304
-0.999474, 125, 353, 140, 480
-0.999475, 251, 177, 266, 304
-0.99948, 25, 129, 40, 256
-0.999483, 65, 129, 80, 256
-0.999487, 269, 305, 284, 432
-0.999488, 85, 129, 116, 256
-0.999494, 137, 305, 152, 432
-0.999503, 51, 129, 66, 256
-0.999511, 1, 129, 16, 256
-0.99952, 153, 321, 168, 448
-0.999524, 187, 145, 202, 272
-0.999525, 29, 309, 44, 324
-0.999525, 241, 447, 256, 462
-0.999525, 15, 317, 30, 332
-0.999526, 253, 279, 268, 294
-0.999526, 283, 311, 298, 326
-0.999526, 103, 357, 118, 372
-0.999527, 61, 349, 76, 364
-0.999527, 265, 369, 280, 496
-0.999528, 177, 409, 240, 472
-0.999528, 251, 367, 266, 382
-0.999528, 151, 65, 166, 192
-0.999529, 271, 247, 286, 262
-0.999529, 43, 295, 58, 310
-0.999529, 177, 395, 192, 410
-0.99953, 21, 281, 36, 296
-0.99953, 65, 359, 80, 374
-0.999531, 225, 311, 240, 326
-0.999531, 23, 275, 38, 290
-0.999531, 209, 31, 224, 46
-0.999532, 13, 333, 28, 348
-0.999532, 217, 295, 232, 310
-0.999532, 53, 331, 68, 346
-0.999533, 53, 239, 68, 254
-0.999533, 241, 279, 256, 294
-0.999533, 47, 263, 62, 278
-0.999533, 253, 401, 268, 416
-0.999533, 145, 97, 160, 112
-0.999534, 129, 289, 144, 416
-0.999534, 209, 389, 224, 404
-0.999534, 231, 287, 246, 302
-0.999535, 81, 321, 96, 448
-0.999535, 13, 363, 28, 378
-0.999536, 123, 371, 138, 386
-0.999536, 207, 17, 222, 144
-0.999536, 241, 359, 256, 374
-0.999536, 17, 273, 32, 288
-0.999536, 253, 395, 268, 410
-0.999536, 119, 277, 134, 292
-0.999536, 57, 325, 72, 340
-0.999537, 203, 151, 218, 166
-0.999538, 1, 313, 16, 328
-0.999538, 243, 377, 258, 392
-0.999538, 193, 155, 208, 170
-0.999538, 111, 367, 126, 382
-0.999538, 193, 397, 208, 412
-0.999539, 51, 381, 66, 396
-0.999539, 145, 305, 160, 432
-0.999541, 27, 291, 42, 306
-0.999541, 49, 229, 64, 244
-0.999541, 189, 403, 204, 418
-0.999542, 235, 281, 250, 296
-0.999542, 227, 301, 242, 316
-0.999543, 69, 353, 84, 368
-0.999543, 69, 333, 84, 348
-0.999543, 253, 389, 268, 404
-0.999543, 35, 209, 50, 336
-0.999544, 189, 167, 204, 182
-0.999544, 63, 295, 78, 310
-0.999544, 195, 129, 210, 256
-0.999545, 25, 177, 40, 304
-0.999545, 181, 343, 196, 358
-0.999546, 25, 263, 40, 278
-0.999547, 143, 81, 158, 96
-0.999547, 195, 1, 210, 128
-0.999547, 51, 257, 66, 272
-0.999547, 247, 301, 262, 316
-0.999548, 67, 325, 82, 340
-0.999548, 49, 315, 64, 330
-0.999548, 45, 129, 60, 256
-0.999548, 117, 369, 132, 384
-0.999549, 261, 329, 276, 344
-0.999549, 265, 177, 328, 240
-0.99955, 219, 37, 234, 52
-0.999551, 37, 299, 52, 314
-0.999552, 183, 399, 198, 414
-0.999552, 33, 33, 64, 288
-0.999552, 1, 365, 16, 380
-0.999554, 75, 273, 90, 400
-0.999555, 37, 305, 52, 320
-0.999556, 203, 397, 218, 412
-0.999556, 29, 301, 44, 316
-0.999556, 265, 301, 280, 316
-0.999556, 175, 343, 190, 358
-0.999557, 239, 343, 254, 358
-0.999558, 25, 365, 40, 380
-0.99956, 243, 371, 258, 386
-0.999561, 235, 377, 250, 392
-0.999562, 253, 291, 268, 306
-0.999562, 57, 315, 72, 330
-0.999563, 187, 257, 202, 384
-0.999565, 135, 127, 150, 142
-0.999566, 255, 333, 270, 348
-0.999566, 17, 311, 32, 326
-0.999566, 245, 397, 260, 412
-0.999567, 221, 341, 236, 356
-0.999567, 7, 311, 22, 326
-0.999567, 65, 193, 80, 320
-0.999568, 51, 251, 66, 266
-0.999571, 1, 319, 16, 334
-0.999571, 201, 1, 216, 128
-0.999572, 57, 367, 72, 382
-0.999573, 41, 313, 56, 328
-0.999574, 101, 321, 116, 448
-0.999574, 117, 353, 132, 480
-0.999575, 59, 331, 74, 346
-0.999575, 5, 339, 20, 354
-0.999576, 11, 369, 26, 384
-0.999578, 95, 289, 110, 416
-0.999578, 157, 65, 172, 192
-0.999578, 277, 315, 292, 330
-0.999581, 19, 367, 34, 382
-0.999581, 41, 365, 56, 380
-0.999581, 51, 245, 66, 260
-0.999582, 59, 217, 74, 232
-0.999582, 219, 121, 234, 136
-0.999584, 19, 263, 34, 278
-0.999584, 111, 289, 126, 416
-0.999585, 245, 391, 260, 406
-0.999585, 35, 311, 50, 326
-0.999586, 203, 81, 218, 208
-0.999587, 153, 129, 184, 384
-0.999587, 193, 161, 208, 176
-0.999587, 271, 303, 286, 318
-0.999587, 7, 333, 22, 348
-0.999589, 43, 305, 58, 320
-0.999591, 173, 145, 188, 272
-0.999591, 231, 225, 246, 352
-0.999591, 5, 371, 20, 386
-0.999592, 31, 363, 46, 378
-0.999596, 63, 311, 78, 326
-0.999597, 57, 129, 72, 256
-0.999597, 175, 349, 190, 364
-0.999597, 73, 347, 88, 362
-0.999598, 181, 353, 196, 368
-0.999599, 197, 363, 212, 378
-0.999601, 109, 129, 140, 256
-0.999601, 191, 359, 206, 374
-0.999602, 249, 337, 264, 352
-0.999606, 257, 97, 288, 352
-0.999606, 169, 347, 184, 362
-0.999607, 161, 341, 176, 356
-0.999607, 67, 339, 82, 354
-0.99961, 253, 297, 268, 312
-0.99961, 207, 369, 222, 384
-0.999611, 245, 383, 260, 398
-0.999612, 271, 317, 286, 332
-0.999612, 63, 303, 78, 318
-0.999616, 241, 273, 256, 288
-0.999619, 9, 325, 24, 340
-0.999619, 219, 307, 234, 322
-0.999625, 181, 241, 212, 368
-0.999625, 51, 367, 66, 382
-0.999628, 139, 119, 154, 134
-0.999634, 57, 307, 72, 322
-0.999636, 9, 317, 24, 332
-0.999637, 169, 341, 184, 356
-0.999644, 49, 33, 80, 288
-0.999646, 145, 465, 272, 496
-0.999654, 97, 245, 224, 276
-0.999654, 49, 469, 176, 500
-0.999657, 1, 325, 16, 340
-0.999657, 51, 373, 66, 388
-0.999657, 169, 241, 232, 304
-0.999658, 269, 225, 300, 480
-0.999666, 77, 341, 92, 356
-0.999676, 65, 221, 192, 252
-0.999683, 61, 65, 92, 320
-0.999683, 249, 129, 280, 256
-0.999689, 277, 305, 292, 320
-0.999692, 49, 161, 176, 192
-0.999703, 157, 225, 188, 480
-0.999715, 1, 331, 16, 346
-0.999733, 113, 145, 176, 272
-0.999869, 69, 225, 100, 352
-0.99991, 257, 65, 320, 320
-0.999924, 97, 129, 160, 384
-0.999928, 105, 161, 136, 416
-0.999932, 73, 81, 104, 208
-0.999936, 93, 161, 124, 416
-0.999973, 301, 161, 332, 416
-1.00001, 121, 193, 152, 320
-1.00001, 81, 161, 112, 416
-1.00015, 189, 177, 220, 304
-1.00016, 281, 161, 312, 416
-1.00016, 269, 129, 300, 384
-1.00018, 117, 1, 148, 256
-1.0002, 129, 129, 160, 384
-1.00021, 113, 241, 176, 304
-1.00022, 97, 65, 128, 192
-1.00028, 73, 65, 104, 320
-1.00029, 109, 49, 140, 176
-1.0003, 85, 1, 116, 256
-1.00043, 285, 369, 316, 496
-1.00045, 301, 257, 332, 500
-1.00045, 233, 33, 264, 288
-1.00048, 105, 33, 136, 288
-1.00049, 281, 257, 312, 500
-1.00051, 1, 241, 333, 304
-1.00066, 85, 65, 116, 192
-1.00073, 89, 217, 152, 280
-1.00076, 273, 337, 333, 400
-1.00082, 113, 241, 176, 368
-1.00082, 281, 65, 312, 320
-1.00084, 233, 1, 264, 128
-1.00086, 269, 33, 300, 288
-1.0009, 117, 97, 148, 352
-1.0009, 245, 33, 276, 288
-1.0009, 293, 65, 324, 320
-1.00096, 177, 433, 240, 496
-1.00098, 257, 1, 288, 256
-1.00117, 65, 17, 128, 144
-1.00117, 277, 145, 308, 272
-1.00139, 233, 1, 296, 256
-1.0014, 149, 257, 180, 384
-1.00143, 301, 257, 332, 384
-1.00144, 97, 129, 128, 256
-1.00144, 149, 193, 180, 320
-1.00153, 137, 177, 168, 304
-1.0016, 93, 241, 124, 368
-1.00164, 89, 193, 152, 320
-1.0023, 301, 369, 332, 496
-1.00247, 261, 129, 292, 256
-1.00249, 41, 1, 104, 128
-1.00262, 301, 305, 332, 432
-1.00279, 89, 145, 152, 272
-1.00301, 9, 1, 72, 128
-1.00363, 241, 1, 304, 128
-1.00638, 233, 81, 296, 208
-1.0064, 257, 49, 320, 176
-1.00893, 273, 1, 333, 128
-1.00934, 257, 97, 320, 224
