1991
-0.422191, 1, 161, 375, 416
-0.50779, 1, 257, 375, 500
-0.595495, 1, 1, 375, 500
-0.597481, 129, 161, 375, 416
-0.629332, 129, 1, 375, 500
-0.652264, 1, 65, 375, 320
-0.760173, 97, 257, 352, 500
-0.766029, 33, 1, 288, 500
-0.854298, 33, 161, 288, 416
-0.871896, 1, 257, 256, 500
-0.890446, 209, 161, 336, 416
-0.893622, 1, 161, 375, 288
-0.899167, 129, 65, 375, 320
-0.900892, 161, 129, 288, 384
-0.905036, 129, 161, 375, 288
-0.912564, 113, 129, 240, 384
-0.916746, 209, 1, 336, 500
-0.919566, 1, 273, 375, 400
-0.927031, 161, 1, 288, 500
-0.930734, 1, 225, 375, 352
-0.931355, 241, 257, 368, 500
-0.933429, 65, 193, 192, 448
-0.937346, 1, 321, 375, 448
-0.940508, 113, 257, 240, 500
-0.940571, 129, 273, 375, 400
-0.941377, 113, 1, 240, 500
-0.943164, 225, 161, 352, 288
-0.947174, 209, 65, 336, 320
-0.947935, 129, 209, 375, 336
-0.94864, 161, 145, 288, 272
-0.948972, 33, 1, 160, 500
-0.951849, 281, 161, 344, 288
-0.954564, 129, 321, 375, 448
-0.956452, 33, 289, 288, 416
-0.958537, 1, 113, 375, 240
-0.959882, 177, 257, 304, 500
-0.961264, 217, 145, 280, 272
-0.961355, 161, 33, 288, 288
-0.961783, 17, 225, 144, 480
-0.962416, 1, 337, 256, 464
-0.963219, 113, 145, 240, 272
-0.964602, 177, 129, 240, 256
-0.96583, 33, 145, 288, 272
-0.965965, 113, 33, 240, 288
-0.965981, 1, 369, 375, 496
-0.968712, 33, 337, 160, 464
-0.969552, 289, 177, 352, 240
-0.970026, 41, 305, 104, 432
-0.970035, 121, 177, 184, 304
-0.970139, 49, 273, 176, 400
-0.970472, 1, 33, 256, 288
-0.970639, 145, 161, 208, 288
-0.970756, 17, 97, 144, 352
-0.970798, 217, 153, 280, 216
-0.971096, 241, 145, 304, 272
-0.971451, 33, 241, 288, 368
-0.972062, 313, 273, 375, 400
-0.972198, 177, 145, 240, 208
-0.972731, 225, 305, 352, 432
-0.973514, 225, 177, 352, 240
-0.973729, 65, 65, 192, 320
-0.973772, 225, 225, 352, 352
-0.973813, 129, 369, 375, 496
-0.974046, 33, 193, 288, 320
-0.974652, 113, 193, 240, 320
-0.974896, 305, 337, 368, 464
-0.97492, 129, 113, 375, 240
-0.974989, 161, 145, 288, 208
-0.975447, 137, 177, 200, 240
-0.975916, 225, 113, 352, 240
-0.976224, 249, 177, 312, 240
-0.976625, 113, 177, 176, 240
-0.9769, 41, 321, 104, 384
-0.97822, 241, 353, 368, 480
-0.978918, 121, 225, 184, 352
-0.979747, 113, 273, 240, 400
-0.979952, 225, 177, 288, 240
-0.980716, 121, 217, 184, 280
-0.980869, 273, 161, 336, 416
-0.981164, 273, 305, 336, 432
-0.981517, 97, 177, 224, 240
-0.981556, 245, 153, 276, 216
-0.981573, 313, 209, 375, 336
-0.981818, 33, 97, 288, 224
-0.982043, 33, 225, 160, 352
-0.982276, 305, 321, 368, 384
-0.982527, 309, 161, 340, 288
-0.983066, 309, 177, 340, 240
-0.983209, 161, 193, 288, 320
-0.983493, 201, 97, 264, 224
-0.983554, 297, 353, 360, 416
-0.983652, 161, 177, 224, 240
-0.983654, 97, 273, 160, 400
-0.983698, 281, 201, 344, 264
-0.984216, 145, 273, 208, 400
-0.984286, 129, 273, 192, 336
-0.984367, 129, 161, 192, 416
-0.984476, 241, 145, 272, 272
-0.984513, 81, 353, 208, 480
-0.984672, 225, 129, 256, 256
-0.984729, 1, 49, 375, 176
-0.984738, 225, 209, 352, 272
-0.984858, 241, 153, 304, 216
-0.984891, 65, 177, 192, 304
-0.984898, 177, 97, 304, 224
-0.985326, 105, 353, 168, 480
-0.985429, 33, 329, 160, 392
-0.985485, 129, 97, 256, 224
-0.985487, 265, 113, 328, 240
-0.985594, 121, 249, 184, 312
-0.985625, 281, 249, 344, 312
-0.985668, 313, 225, 375, 480
-0.985961, 313, 241, 375, 304
-0.986018, 153, 153, 216, 216
-0.986087, 273, 209, 336, 336
-0.986096, 169, 177, 232, 304
-0.986322, 73, 337, 136, 464
-0.986574, 205, 129, 236, 256
-0.986637, 233, 145, 264, 208
-0.986669, 209, 337, 336, 400
-0.986704, 265, 153, 328, 216
-0.986704, 201, 177, 264, 240
-0.986712, 177, 169, 304, 232
-0.98684, 125, 217, 156, 280
-0.986868, 313, 281, 375, 344
-0.98691, 225, 97, 288, 224
-0.987106, 281, 353, 344, 480
-0.987237, 225, 233, 352, 296
-0.987269, 181, 145, 212, 208
-0.987349, 129, 321, 256, 448
-0.98742, 181, 145, 212, 272
-0.987613, 313, 289, 344, 416
-0.987686, 225, 129, 288, 384
-0.987714, 141, 177, 172, 240
-0.987896, 113, 209, 240, 272
-0.987939, 33, 353, 160, 416
-0.988008, 193, 129, 224, 256
-0.988157, 273, 337, 336, 400
-0.98818, 257, 169, 288, 232
-0.988238, 125, 177, 156, 240
-0.988268, 265, 313, 328, 376
-0.988599, 17, 337, 80, 464
-0.988618, 209, 289, 336, 352
-0.98867, 49, 345, 112, 408
-0.988742, 225, 257, 352, 320
-0.988839, 1, 1, 375, 128
-0.988848, 65, 321, 96, 384
-0.988849, 273, 273, 336, 336
-0.989, 61, 305, 92, 432
-0.989078, 161, 177, 192, 240
-0.989127, 177, 129, 240, 384
-0.989135, 113, 153, 240, 216
-0.98917, 225, 153, 352, 216
-0.989229, 201, 129, 264, 192
-0.989245, 125, 177, 156, 304
-0.989245, 161, 201, 288, 264
-0.989294, 281, 257, 344, 384
-0.989348, 249, 161, 312, 416
-0.989362, 89, 225, 152, 480
-0.989432, 313, 313, 344, 376
-0.989463, 209, 313, 336, 376
-0.989562, 253, 161, 284, 288
-0.989592, 89, 185, 152, 248
-0.98974, 153, 161, 216, 416
-0.9898, 113, 281, 240, 344
-0.989807, 193, 145, 224, 208
-0.989863, 153, 273, 216, 336
-0.98987, 193, 177, 256, 304
-0.989959, 225, 201, 288, 264
-0.990067, 281, 225, 344, 288
-0.990157, 313, 217, 375, 280
-0.990157, 137, 321, 200, 448
-0.990201, 293, 177, 324, 240
-0.990509, 185, 201, 248, 264
-0.990604, 149, 161, 180, 288
-0.990616, 277, 177, 308, 240
-0.990649, 289, 153, 352, 216
-0.990717, 25, 353, 88, 416
-0.99075, 221, 145, 252, 208
-0.990751, 289, 181, 352, 212
-0.990845, 305, 161, 368, 288
-0.991032, 97, 225, 160, 352
-0.991069, 73, 353, 136, 416
-0.99115, 209, 145, 240, 208
-0.991151, 129, 177, 375, 240
-0.991159, 89, 249, 152, 312
-0.991166, 65, 305, 192, 368
-0.991233, 285, 161, 316, 288
-0.991245, 153, 209, 216, 272
-0.991295, 129, 297, 192, 360
-0.991322, 201, 129, 264, 384
-0.991328, 177, 369, 304, 496
-0.991347, 185, 149, 248, 180
-0.991367, 165, 145, 196, 272
-0.991447, 217, 165, 280, 196
-0.99148, 145, 97, 208, 224
-0.991544, 321, 225, 352, 352
-0.991567, 313, 177, 375, 240
-0.991569, 81, 97, 208, 224
-0.991569, 177, 289, 304, 416
-0.991571, 257, 181, 320, 212
-0.991609, 281, 257, 344, 500
-0.991713, 217, 153, 280, 184
-0.991724, 129, 153, 192, 216
-0.991734, 121, 273, 152, 400
-0.991745, 33, 329, 96, 360
-0.991752, 1, 289, 128, 416
-0.991767, 113, 249, 240, 312
-0.991774, 305, 345, 368, 376
-0.991784, 105, 353, 168, 416
-0.991823, 113, 181, 176, 212
-0.99185, 137, 181, 200, 212
-0.991869, 309, 353, 340, 416
-0.991899, 305, 337, 336, 464
-0.991913, 113, 257, 176, 500
-0.992019, 257, 169, 320, 200
-0.992126, 273, 161, 304, 288
-0.992188, 17, 321, 80, 384
-0.992219, 137, 321, 200, 384
-0.99226, 129, 153, 375, 216
-0.992284, 113, 221, 176, 252
-0.992297, 169, 173, 232, 204
-0.992313, 161, 241, 288, 368
-0.992359, 233, 181, 296, 212
-0.992387, 129, 313, 256, 376
-0.992412, 129, 281, 192, 312
-0.992449, 297, 361, 360, 392
-0.992469, 289, 213, 352, 244
-0.992521, 289, 193, 352, 224
-0.992552, 265, 349, 328, 380
-0.992559, 281, 229, 344, 260
-0.992585, 137, 225, 168, 352
-0.992586, 49, 349, 112, 380
-0.992588, 313, 245, 375, 276
-0.992632, 121, 265, 184, 296
-0.992651, 313, 293, 375, 324
-0.992653, 49, 185, 176, 248
-0.992653, 177, 161, 240, 192
-0.992664, 281, 253, 344, 284
-0.992677, 281, 265, 344, 296
-0.99269, 121, 241, 184, 272
-0.99272, 241, 433, 368, 496
-0.99273, 97, 329, 160, 392
-0.992732, 273, 285, 336, 316
-0.992743, 233, 177, 264, 240
-0.992776, 273, 309, 336, 340
-0.992787, 37, 321, 68, 384
-0.992789, 305, 305, 368, 336
-0.992801, 313, 181, 344, 212
-0.992825, 313, 261, 375, 292
-0.99284, 313, 281, 375, 312
-0.992874, 265, 337, 328, 368
-0.992892, 305, 333, 368, 364
-0.992898, 281, 241, 344, 272
-0.992908, 137, 169, 200, 200
-0.992922, 273, 321, 336, 352
-0.992924, 273, 297, 336, 328
-0.992929, 305, 321, 368, 352
-0.992931, 81, 345, 208, 408
-0.992938, 129, 293, 192, 324
-0.992958, 225, 205, 288, 236
-0.992993, 161, 425, 288, 488
-0.993012, 245, 161, 276, 192
-0.993048, 81, 225, 144, 288
-0.993052, 113, 209, 176, 240
-0.993091, 121, 253, 184, 284
-0.993109, 201, 201, 264, 232
-0.993123, 137, 353, 200, 384
-0.993125, 49, 361, 112, 392
-0.993129, 193, 137, 256, 168
-0.993146, 185, 217, 248, 248
-0.993155, 113, 177, 144, 240
-0.99316, 73, 321, 104, 448
-0.993179, 145, 209, 208, 240
-0.993182, 25, 365, 88, 396
-0.993182, 169, 205, 232, 236
-0.993198, 57, 329, 120, 360
-0.993212, 281, 169, 344, 200
-0.993214, 233, 149, 264, 180
-0.993215, 157, 181, 188, 212
-0.993218, 209, 185, 272, 216
-0.993219, 189, 149, 220, 180
-0.993222, 297, 161, 328, 288
-0.993236, 261, 181, 292, 212
-0.993239, 81, 349, 144, 380
-0.993249, 313, 233, 375, 264
-0.993251, 125, 221, 156, 252
-0.993263, 105, 361, 168, 392
-0.993265, 249, 145, 312, 176
-0.993269, 177, 465, 240, 496
-0.993283, 205, 145, 236, 176
-0.993297, 65, 329, 96, 360
-0.993303, 49, 305, 80, 432
-0.993307, 73, 361, 136, 392
-0.993318, 89, 257, 152, 288
-0.99332, 129, 305, 192, 336
-0.993325, 145, 181, 176, 212
-0.993328, 273, 361, 336, 392
-0.993348, 145, 221, 208, 252
-0.993354, 81, 433, 208, 496
-0.993363, 325, 233, 356, 296
-0.99338, 329, 177, 360, 304
-0.993391, 177, 169, 208, 200
-0.993392, 249, 173, 280, 204
-0.993396, 241, 465, 304, 496
-0.993396, 37, 329, 68, 360
-0.993397, 53, 325, 84, 356
-0.993399, 309, 341, 340, 372
-0.9934, 289, 181, 320, 212
-0.993404, 89, 281, 152, 312
-0.993406, 25, 353, 88, 384
-0.99341, 221, 149, 252, 180
-0.993414, 117, 185, 148, 216
-0.993416, 133, 181, 164, 212
-0.993428, 265, 169, 296, 200
-0.993428, 309, 361, 340, 392
-0.99343, 81, 237, 144, 268
-0.99343, 9, 329, 72, 360
-0.993436, 329, 225, 360, 256
-0.993447, 161, 185, 224, 216
-0.993453, 325, 249, 356, 280
-0.993459, 277, 181, 308, 212
-0.993459, 301, 181, 332, 212
-0.993461, 249, 209, 312, 240
-0.993469, 145, 457, 208, 488
-0.993475, 273, 1, 336, 500
-0.993482, 321, 261, 352, 292
-0.993485, 309, 213, 340, 244
-0.993488, 325, 237, 356, 268
-0.993492, 313, 185, 375, 216
-0.993492, 137, 329, 200, 360
-0.993492, 313, 329, 344, 360
-0.9935, 257, 453, 320, 484
-0.993501, 317, 305, 348, 336
-0.99351, 293, 341, 324, 372
-0.993512, 321, 277, 352, 308
-0.993514, 121, 209, 152, 240
-0.993515, 313, 317, 344, 348
-0.993517, 185, 185, 248, 216
-0.993523, 329, 213, 360, 244
-0.99353, 153, 277, 216, 308
-0.993531, 105, 345, 168, 376
-0.993533, 309, 233, 340, 264
-0.993536, 25, 341, 88, 372
-0.993536, 237, 201, 268, 232
-0.993536, 193, 173, 256, 204
-0.993543, 301, 269, 332, 300
-0.993546, 137, 297, 168, 328
-0.993546, 133, 273, 164, 304
-0.993546, 137, 317, 200, 348
-0.993547, 217, 465, 280, 496
-0.99355, 329, 197, 360, 228
-0.993554, 333, 185, 364, 216
-0.993564, 129, 253, 160, 284
-0.993567, 313, 193, 344, 224
-0.993572, 297, 317, 328, 348
-0.993582, 317, 289, 348, 320
-0.993583, 1, 413, 64, 444
-0.993585, 137, 213, 168, 244
-0.993588, 97, 293, 160, 324
-0.993596, 165, 169, 196, 200
-0.993596, 121, 273, 184, 400
-0.993597, 305, 245, 336, 276
-0.9936, 233, 185, 264, 216
-0.993604, 313, 169, 344, 200
-0.993611, 169, 181, 200, 212
-0.993611, 301, 289, 332, 320
-0.993613, 125, 233, 156, 264
-0.993618, 225, 205, 256, 236
-0.993619, 145, 341, 208, 372
-0.993625, 221, 185, 252, 216
-0.993631, 133, 285, 164, 316
-0.993639, 173, 461, 204, 492
-0.993642, 209, 205, 240, 236
-0.993643, 257, 157, 320, 188
-0.993643, 197, 205, 228, 236
-0.993643, 181, 217, 212, 248
-0.993648, 249, 193, 312, 224
-0.993652, 177, 157, 208, 188
-0.993656, 305, 257, 336, 288
-0.993657, 225, 137, 256, 168
-0.993659, 37, 369, 68, 400
-0.993659, 249, 201, 280, 232
-0.993666, 201, 217, 232, 248
-0.993667, 293, 329, 324, 360
-0.993675, 153, 169, 184, 200
-0.993675, 149, 213, 180, 244
-0.993677, 145, 141, 208, 172
-0.993678, 33, 317, 96, 348
-0.99368, 85, 349, 116, 380
-0.993689, 249, 185, 280, 216
-0.993692, 105, 229, 136, 260
-0.993693, 109, 245, 140, 276
-0.993695, 297, 301, 328, 332
-0.993702, 117, 285, 148, 316
-0.993703, 257, 441, 320, 472
-0.993705, 113, 193, 176, 224
-0.99371, 241, 213, 272, 244
-0.993712, 345, 357, 375, 388
-0.993714, 265, 157, 296, 188
-0.993714, 333, 173, 364, 204
-0.993716, 137, 309, 168, 340
-0.993719, 85, 361, 116, 392
-0.993719, 145, 353, 176, 384
-0.993719, 113, 265, 144, 296
-0.993721, 185, 233, 248, 264
-0.993723, 185, 205, 216, 236
-0.993727, 289, 169, 320, 200
-0.993731, 69, 353, 100, 384
-0.993733, 293, 353, 324, 384
-0.993733, 161, 457, 192, 488
-0.993735, 1, 421, 32, 452
-0.993739, 89, 209, 152, 240
-0.993739, 81, 221, 144, 252
-0.993741, 185, 465, 216, 496
-0.993742, 89, 269, 152, 300
-0.993742, 301, 169, 332, 200
-0.993743, 49, 281, 176, 344
-0.993746, 209, 185, 240, 216
-0.993746, 313, 221, 375, 252
-0.993752, 129, 361, 160, 392
-0.993755, 125, 345, 156, 376
-0.993759, 333, 361, 364, 392
-0.99376, 233, 453, 296, 484
-0.99376, 133, 241, 164, 304
-0.993763, 149, 225, 180, 256
-0.99377, 37, 353, 68, 384
-0.993772, 217, 137, 280, 168
-0.993773, 245, 149, 276, 180
-0.993775, 209, 453, 272, 484
-0.993778, 277, 169, 308, 200
-0.993779, 141, 329, 172, 360
-0.99378, 145, 341, 176, 372
-0.993781, 117, 297, 148, 328
-0.993781, 121, 309, 152, 340
-0.993782, 141, 169, 172, 200
-0.993782, 161, 213, 192, 244
-0.993784, 73, 365, 104, 396
-0.993786, 261, 461, 292, 492
-0.993787, 321, 361, 352, 392
-0.993787, 85, 333, 116, 364
-0.993788, 113, 173, 144, 204
-0.993792, 213, 173, 244, 204
-0.993792, 137, 225, 168, 256
-0.993794, 37, 341, 68, 372
-0.993794, 265, 377, 328, 408
-0.993794, 165, 297, 196, 328
-0.993796, 181, 189, 212, 220
-0.993796, 129, 313, 375, 376
-0.993796, 225, 217, 288, 248
-0.993797, 101, 189, 132, 220
-0.993797, 81, 189, 144, 220
-0.9938, 221, 465, 252, 496
-0.993804, 289, 437, 352, 468
-0.993804, 161, 297, 224, 328
-0.993809, 261, 205, 292, 236
-0.99381, 201, 465, 232, 496
-0.993814, 177, 445, 240, 476
-0.993817, 149, 281, 180, 312
-0.993817, 193, 237, 224, 268
-0.993817, 9, 409, 40, 440
-0.993819, 193, 185, 224, 216
-0.993819, 69, 341, 100, 372
-0.993819, 313, 209, 375, 240
-0.993821, 217, 217, 248, 248
-0.993824, 161, 225, 192, 256
-0.993825, 81, 333, 144, 364
-0.993827, 141, 201, 172, 232
-0.993827, 49, 369, 80, 400
-0.993833, 257, 145, 288, 176
-0.993843, 17, 1, 144, 256
-0.993848, 313, 197, 375, 228
-0.993862, 129, 441, 192, 472
-0.99387, 49, 437, 112, 468
-0.993872, 249, 429, 312, 460
-0.993876, 241, 129, 368, 192
-0.993885, 25, 377, 88, 408
-0.993885, 281, 453, 344, 484
-0.993897, 153, 157, 216, 188
-0.993898, 153, 249, 216, 280
-0.993901, 129, 281, 375, 344
-0.993901, 257, 433, 320, 496
-0.993911, 73, 317, 136, 348
-0.993927, 17, 393, 80, 424
-0.993945, 185, 245, 248, 276
-0.993945, 25, 437, 88, 468
-0.993963, 65, 449, 128, 480
-0.993972, 73, 329, 136, 392
-0.993987, 297, 373, 360, 404
-0.993991, 177, 285, 240, 316
-0.994004, 137, 197, 200, 228
-0.994007, 113, 169, 176, 200
-0.994013, 1, 437, 64, 468
-0.994023, 129, 217, 375, 280
-0.994033, 153, 265, 216, 296
-0.994039, 145, 233, 208, 264
-0.994041, 289, 389, 352, 420
-0.994043, 313, 169, 375, 200
-0.994057, 113, 329, 176, 360
-0.994105, 241, 409, 368, 472
-0.994175, 173, 169, 204, 232
-0.994201, 129, 433, 192, 496
-0.994222, 137, 177, 168, 304
-0.994258, 321, 257, 352, 320
-0.994288, 37, 305, 68, 432
-0.994305, 241, 361, 368, 424
-0.994325, 1, 177, 375, 240
-0.99437, 113, 225, 144, 352
-0.99437, 321, 177, 352, 240
-0.9944, 217, 1, 280, 500
-0.994433, 313, 1, 375, 500
-0.994434, 193, 177, 224, 304
-0.994446, 137, 337, 168, 464
-0.994461, 221, 177, 252, 240
-0.99454, 49, 353, 112, 480
-0.994592, 33, 233, 160, 296
-0.9946, 317, 289, 348, 352
-0.994609, 161, 161, 288, 192
-0.994634, 1, 393, 128, 456
-0.994753, 129, 337, 256, 400
-0.994758, 289, 433, 352, 496
-0.994773, 129, 337, 375, 400
-0.994797, 237, 97, 268, 224
-0.994802, 161, 225, 224, 352
-0.994837, 289, 113, 352, 240
-0.994844, 141, 273, 172, 400
-0.994886, 65, 257, 192, 320
-0.994961, 233, 433, 296, 496
-0.995011, 105, 281, 168, 344
-0.995042, 177, 265, 304, 328
-0.995079, 129, 345, 192, 408
-0.995095, 81, 129, 208, 192
-0.995163, 265, 145, 296, 208
-0.995174, 241, 385, 368, 448
-0.995187, 153, 249, 216, 312
-0.995265, 225, 181, 352, 212
-0.995301, 161, 1, 224, 500
-0.995312, 161, 149, 288, 180
-0.995372, 345, 337, 375, 464
-0.995376, 85, 353, 116, 480
-0.995387, 333, 337, 364, 464
-0.995398, 145, 401, 272, 464
-0.995402, 329, 209, 360, 272
-0.995447, 201, 433, 264, 496
-0.99545, 137, 201, 168, 264
-0.995472, 1, 401, 64, 464
-0.995483, 301, 209, 332, 336
-0.995493, 245, 177, 276, 240
-0.995534, 301, 289, 332, 416
-0.995551, 265, 113, 296, 240
-0.995557, 309, 201, 340, 264
-0.995562, 297, 329, 328, 392
-0.995594, 161, 233, 288, 296
-0.995655, 185, 1, 248, 500
-0.995782, 153, 257, 216, 500
-0.995803, 253, 113, 284, 240
-0.995808, 193, 377, 320, 440
-0.995811, 33, 129, 160, 256
-0.99588, 323, 177, 338, 240
-0.995933, 129, 369, 256, 496
-0.995939, 65, 409, 192, 472
-0.995942, 97, 177, 160, 304
-0.995944, 97, 257, 352, 320
-0.995956, 65, 209, 192, 272
-0.995961, 281, 65, 344, 320
-0.995979, 1, 153, 375, 216
-0.995993, 259, 161, 274, 224
-0.996047, 177, 281, 240, 344
-0.99605, 249, 201, 312, 264
-0.996077, 205, 177, 236, 304
-0.99609, 161, 425, 224, 488
-0.996094, 137, 265, 168, 328
-0.996117, 1, 177, 256, 240
-0.99612, 249, 129, 312, 192
-0.996136, 57, 433, 120, 496
-0.996159, 241, 1, 304, 500
-0.996214, 33, 145, 288, 208
-0.996258, 1, 345, 256, 408
-0.996268, 313, 153, 344, 216
-0.996283, 33, 297, 288, 360
-0.996299, 1, 313, 375, 376
-0.996315, 253, 153, 268, 216
-0.996327, 181, 193, 212, 320
-0.99634, 189, 177, 220, 240
-0.996436, 9, 377, 72, 440
-0.996474, 117, 353, 148, 480
-0.996481, 225, 209, 352, 240
-0.99651, 17, 161, 144, 224
-0.996527, 97, 185, 224, 216
-0.996529, 33, 321, 288, 384
-0.996539, 265, 169, 280, 232
-0.996548, 113, 257, 144, 320
-0.996552, 257, 65, 320, 320
-0.996644, 1, 217, 375, 280
-0.996667, 161, 289, 288, 352
-0.996668, 185, 233, 248, 296
-0.996678, 145, 177, 160, 240
-0.996687, 217, 193, 280, 320
-0.996717, 185, 241, 248, 368
-0.996724, 245, 145, 260, 208
-0.996755, 171, 177, 186, 240
-0.996764, 177, 313, 240, 376
-0.996792, 181, 161, 196, 224
-0.996798, 315, 321, 330, 384
-0.996835, 309, 113, 340, 240
-0.996844, 137, 129, 200, 192
-0.996844, 321, 353, 352, 480
-0.996864, 133, 177, 148, 240
-0.996871, 209, 177, 240, 240
-0.996882, 139, 177, 154, 240
-0.996894, 225, 197, 352, 228
-0.996904, 73, 273, 136, 400
-0.996938, 333, 353, 364, 416
-0.996994, 129, 409, 375, 472
-0.997, 345, 353, 375, 416
-0.997003, 33, 349, 160, 380
-0.997007, 129, 217, 144, 280
-0.997008, 53, 321, 84, 384
-0.997149, 121, 177, 136, 240
-0.99715, 33, 201, 288, 264
-0.997153, 321, 353, 352, 416
-0.997166, 225, 225, 352, 256
-0.997177, 239, 145, 254, 208
-0.997201, 155, 177, 170, 240
-0.997202, 193, 145, 208, 208
-0.997215, 309, 177, 324, 240
-0.997216, 33, 329, 160, 360
-0.997242, 121, 129, 184, 256
-0.997255, 301, 177, 316, 240
-0.997255, 209, 169, 336, 200
-0.997274, 209, 341, 336, 372
-0.997275, 33, 433, 160, 496
-0.997285, 1, 289, 375, 352
-0.997301, 161, 177, 176, 240
-0.997319, 221, 177, 252, 304
-0.997326, 187, 145, 202, 208
-0.997326, 203, 145, 218, 208
-0.997334, 49, 361, 176, 392
-0.997348, 79, 321, 94, 384
-0.99735, 153, 201, 184, 264
-0.997351, 105, 353, 136, 480
-0.997357, 1, 249, 375, 312
-0.997363, 225, 237, 352, 268
-0.997366, 161, 173, 288, 204
-0.997367, 289, 297, 352, 360
-0.997369, 113, 221, 240, 252
-0.997406, 275, 177, 290, 240
-0.997432, 145, 377, 272, 440
-0.997444, 233, 145, 248, 208
-0.997455, 291, 177, 306, 240
-0.997471, 17, 209, 144, 272
-0.997482, 1, 305, 128, 368
-0.997487, 323, 257, 338, 320
-0.997503, 317, 193, 348, 448
-0.997516, 283, 177, 298, 240
-0.997519, 213, 137, 228, 200
-0.997519, 333, 185, 364, 248
-0.99752, 327, 233, 342, 296
-0.997528, 127, 177, 142, 240
-0.997547, 209, 317, 336, 348
-0.997577, 315, 177, 330, 240
-0.997577, 225, 249, 352, 280
-0.997577, 129, 65, 192, 320
-0.997584, 117, 281, 148, 344
-0.997591, 297, 161, 328, 416
-0.997605, 225, 289, 352, 320
-0.997611, 225, 145, 240, 208
-0.997624, 225, 261, 352, 292
-0.997625, 121, 225, 136, 288
-0.997644, 109, 225, 140, 288
-0.997657, 105, 153, 168, 216
-0.997664, 313, 433, 375, 496
-0.997685, 333, 193, 348, 256
-0.997691, 309, 337, 324, 400
-0.997707, 161, 213, 288, 244
-0.997718, 305, 273, 336, 336
-0.997737, 65, 385, 192, 448
-0.997746, 321, 281, 336, 344
-0.997774, 177, 81, 240, 208
-0.99779, 177, 121, 240, 184
-0.997807, 241, 177, 256, 240
-0.997809, 209, 353, 336, 384
-0.99781, 173, 97, 204, 224
-0.997822, 161, 121, 288, 184
-0.997828, 127, 257, 142, 320
-0.997863, 225, 301, 352, 332
-0.997874, 141, 201, 156, 264
-0.997884, 113, 173, 240, 204
-0.997895, 253, 177, 268, 240
-0.997898, 113, 277, 240, 308
-0.997907, 193, 401, 320, 464
-0.997936, 309, 249, 340, 312
-0.997947, 259, 165, 274, 196
-0.997953, 125, 321, 156, 384
-0.997965, 129, 433, 375, 496
-0.997967, 233, 201, 264, 264
-0.997979, 223, 177, 238, 240
-0.997985, 161, 257, 192, 384
-0.997987, 65, 153, 192, 216
-0.997993, 209, 329, 336, 360
-0.997999, 235, 177, 250, 240
-0.998, 249, 409, 312, 472
-0.998001, 63, 321, 78, 384
-0.998016, 131, 281, 146, 344
-0.998038, 225, 277, 352, 308
-0.998042, 1, 337, 375, 400
-0.998054, 17, 257, 144, 320
-0.998056, 247, 177, 262, 240
-0.998059, 325, 181, 340, 212
-0.998071, 219, 145, 234, 208
-0.998075, 257, 369, 320, 432
-0.998091, 33, 225, 288, 288
-0.99811, 5, 401, 36, 464
-0.998111, 81, 305, 144, 368
-0.998117, 115, 193, 130, 256
-0.99812, 305, 225, 336, 288
-0.998137, 51, 321, 66, 384
-0.9982, 1, 265, 256, 328
-0.998213, 213, 177, 228, 240
-0.998213, 325, 153, 340, 216
-0.998216, 185, 467, 216, 482
-0.998217, 189, 215, 220, 230
-0.998217, 145, 217, 176, 232
-0.998217, 313, 175, 344, 190
-0.998217, 113, 265, 144, 280
-0.998218, 117, 287, 148, 302
-0.998218, 129, 275, 160, 290
-0.998218, 297, 359, 328, 374
-0.998218, 129, 365, 160, 380
-0.998219, 177, 213, 208, 228
-0.998219, 225, 215, 256, 230
-0.998219, 69, 359, 100, 374
-0.99822, 141, 329, 172, 344
-0.99822, 201, 143, 232, 158
-0.99822, 105, 239, 136, 254
-0.998222, 121, 217, 152, 232
-0.998224, 253, 151, 284, 166
-0.998224, 165, 461, 196, 476
-0.998224, 137, 311, 168, 326
-0.998226, 133, 221, 164, 236
-0.998226, 297, 307, 328, 322
-0.998227, 37, 371, 68, 386
-0.998227, 193, 209, 224, 224
-0.998228, 321, 201, 336, 264
-0.998229, 265, 161, 296, 176
-0.99823, 213, 217, 244, 232
-0.99823, 333, 361, 364, 376
-0.998231, 233, 187, 264, 202
-0.998231, 85, 355, 116, 370
-0.998232, 297, 313, 328, 328
-0.998232, 225, 209, 256, 224
-0.998233, 333, 179, 364, 194
-0.998234, 253, 211, 284, 226
-0.998234, 133, 293, 164, 308
-0.998235, 225, 145, 256, 160
-0.998237, 329, 203, 360, 218
-0.998238, 345, 361, 375, 376
-0.998238, 209, 209, 240, 224
-0.998239, 129, 257, 160, 272
-0.998239, 265, 169, 296, 184
-0.99824, 237, 213, 268, 228
-0.99824, 125, 243, 156, 258
-0.99824, 301, 281, 332, 296
-0.99824, 125, 249, 156, 264
-0.998241, 329, 197, 360, 212
-0.998241, 305, 257, 336, 272
-0.998242, 129, 269, 160, 284
-0.998243, 305, 275, 336, 290
-0.998244, 237, 207, 268, 222
-0.998244, 85, 365, 116, 380
-0.998244, 145, 357, 176, 372
-0.998245, 301, 289, 332, 304
-0.998245, 37, 337, 68, 352
-0.998246, 121, 229, 152, 244
-0.998247, 317, 297, 348, 312
-0.998247, 137, 303, 168, 318
-0.998247, 135, 201, 150, 264
-0.998247, 313, 197, 344, 212
-0.998248, 309, 223, 340, 238
-0.998248, 177, 185, 192, 248
-0.998248, 301, 301, 332, 316
-0.998249, 297, 319, 328, 334
-0.998249, 293, 337, 324, 352
-0.998249, 245, 157, 276, 172
-0.998251, 133, 281, 164, 296
-0.998251, 309, 249, 340, 264
-0.998251, 301, 295, 332, 310
-0.998252, 125, 235, 156, 250
-0.998253, 181, 167, 212, 182
-0.998254, 133, 287, 164, 302
-0.998254, 313, 205, 344, 220
-0.998254, 321, 275, 352, 290
-0.998255, 317, 291, 348, 306
-0.998255, 305, 263, 336, 278
-0.998256, 309, 229, 340, 244
-0.998256, 313, 325, 344, 340
-0.998257, 317, 305, 348, 320
-0.998258, 297, 325, 328, 340
-0.998258, 309, 237, 340, 252
-0.998258, 293, 353, 324, 368
-0.998258, 329, 209, 360, 224
-0.998259, 137, 161, 168, 416
-0.998259, 181, 161, 212, 176
-0.998259, 313, 257, 328, 320
-0.99826, 329, 217, 360, 232
-0.99826, 293, 343, 324, 358
-0.99826, 333, 185, 364, 200
-0.998261, 81, 345, 208, 376
-0.998261, 321, 269, 352, 284
-0.998261, 325, 245, 356, 260
-0.998262, 293, 331, 324, 346
-0.998262, 305, 269, 336, 284
-0.998264, 253, 183, 284, 198
-0.998264, 309, 243, 340, 258
-0.998264, 325, 251, 356, 266
-0.998265, 313, 319, 344, 334
-0.998266, 313, 215, 344, 230
-0.998267, 313, 187, 344, 202
-0.998267, 313, 331, 344, 346
-0.998267, 333, 191, 364, 206
-0.998269, 177, 175, 208, 190
-0.998271, 129, 263, 160, 278
-0.998271, 309, 343, 340, 358
-0.998272, 169, 183, 200, 198
-0.998272, 321, 281, 352, 296
-0.998273, 317, 311, 348, 326
-0.998274, 37, 331, 68, 346
-0.998275, 153, 401, 216, 464
-0.998276, 177, 201, 304, 232
-0.998276, 329, 223, 360, 238
-0.99828, 325, 239, 356, 254
-0.99828, 277, 181, 308, 196
-0.99828, 321, 263, 352, 278
-0.998282, 329, 229, 360, 244
-0.998284, 221, 151, 252, 166
-0.998284, 313, 337, 344, 352
-0.998284, 325, 257, 356, 272
-0.998284, 249, 171, 280, 186
-0.998289, 189, 155, 220, 170
-0.998289, 309, 353, 340, 368
-0.998291, 309, 361, 340, 376
-0.998293, 297, 113, 328, 240
-0.998294, 69, 331, 100, 346
-0.998297, 37, 361, 68, 424
-0.998298, 161, 161, 192, 416
-0.998301, 41, 321, 56, 384
-0.998301, 121, 223, 152, 238
-0.998305, 249, 177, 280, 192
-0.998307, 97, 209, 224, 240
-0.998308, 289, 181, 320, 196
-0.998314, 265, 175, 296, 190
-0.998315, 113, 289, 240, 320
-0.998317, 129, 185, 160, 200
-0.998318, 145, 183, 176, 198
-0.998318, 53, 327, 84, 342
-0.998321, 97, 233, 224, 264
-0.998322, 137, 257, 152, 320
-0.998322, 301, 181, 332, 196
-0.998326, 85, 329, 116, 392
-0.998326, 133, 353, 164, 416
-0.998333, 245, 163, 276, 178
-0.998336, 113, 187, 144, 202
-0.998342, 265, 181, 296, 196
-0.998344, 191, 185, 206, 248
-0.998348, 49, 317, 176, 348
-0.998352, 209, 149, 240, 164
-0.998356, 157, 183, 188, 198
-0.998364, 233, 153, 264, 168
-0.998365, 207, 177, 222, 240
-0.998375, 137, 321, 152, 384
-0.998375, 193, 149, 224, 164
-0.99838, 141, 281, 156, 344
-0.998386, 153, 153, 184, 216
-0.998416, 171, 181, 186, 212
-0.998417, 269, 145, 284, 208
-0.998421, 359, 353, 374, 416
-0.998426, 313, 181, 344, 196
-0.998437, 117, 225, 148, 480
-0.998438, 161, 189, 288, 220
-0.998443, 351, 353, 366, 416
-0.998447, 259, 137, 274, 200
-0.998459, 125, 221, 140, 252
-0.99846, 169, 153, 184, 216
-0.998463, 1, 433, 256, 496
-0.998469, 183, 185, 198, 248
-0.99847, 181, 129, 212, 384
-0.998473, 241, 153, 368, 184
-0.998473, 97, 261, 224, 292
-0.998493, 229, 177, 244, 240
-0.998506, 117, 153, 148, 216
-0.99852, 81, 1, 144, 500
-0.998522, 137, 289, 168, 352
-0.998524, 161, 449, 288, 480
-0.998527, 85, 353, 116, 416
-0.998539, 245, 129, 276, 384
-0.99854, 49, 257, 112, 500
-0.998547, 1, 361, 128, 392
-0.998562, 185, 149, 248, 164
-0.998563, 73, 321, 88, 384
-0.99857, 345, 353, 360, 416
-0.998575, 289, 181, 352, 196
-0.998575, 197, 193, 212, 256
-0.998591, 159, 181, 174, 212
-0.998593, 149, 201, 164, 264
-0.9986, 269, 181, 284, 212
-0.998602, 239, 149, 254, 180
-0.998605, 317, 225, 332, 288
-0.998611, 285, 113, 316, 240
-0.998613, 315, 341, 330, 372
-0.998615, 257, 181, 320, 196
-0.998615, 137, 183, 200, 198
-0.998618, 161, 465, 288, 496
-0.998619, 221, 81, 252, 208
-0.99862, 41, 329, 104, 344
-0.998624, 253, 157, 268, 188
-0.998626, 209, 155, 272, 170
-0.998626, 181, 169, 196, 200
-0.998629, 105, 185, 168, 200
-0.998633, 225, 453, 352, 484
-0.998634, 289, 153, 320, 216
-0.998636, 153, 181, 168, 212
-0.998636, 165, 181, 180, 212
-0.998642, 245, 129, 276, 192
-0.99865, 247, 153, 262, 184
-0.998656, 85, 305, 116, 432
-0.998664, 183, 273, 198, 336
-0.998668, 315, 297, 330, 360
-0.99867, 257, 175, 320, 190
-0.99867, 79, 329, 94, 360
-0.998671, 225, 175, 288, 190
-0.998674, 297, 361, 360, 376
-0.998674, 177, 257, 240, 320
-0.998678, 305, 353, 368, 368
-0.998679, 217, 165, 280, 180
-0.998681, 309, 281, 324, 344
-0.998682, 335, 353, 350, 416
-0.998685, 145, 181, 160, 212
-0.998685, 169, 181, 232, 196
-0.998688, 185, 155, 248, 170
-0.998693, 185, 157, 200, 188
-0.998695, 49, 361, 112, 376
-0.998695, 265, 353, 328, 368
-0.998696, 233, 181, 296, 196
-0.998697, 97, 245, 224, 276
-0.998698, 113, 225, 176, 240
-0.998698, 321, 353, 336, 416
-0.998698, 169, 175, 232, 190
-0.998699, 305, 313, 320, 376
-0.998701, 281, 263, 344, 278
-0.998702, 281, 255, 344, 270
-0.998703, 113, 239, 176, 254
-0.998703, 129, 289, 192, 304
-0.998703, 161, 209, 192, 336
-0.998704, 289, 213, 352, 228
-0.998704, 41, 355, 104, 370
-0.998704, 293, 289, 324, 352
-0.998706, 265, 343, 328, 358
-0.998706, 305, 345, 368, 360
-0.998707, 289, 233, 352, 248
-0.998708, 289, 225, 352, 240
-0.998708, 177, 163, 240, 178
-0.998708, 281, 271, 344, 286
-0.99871, 121, 269, 184, 284
-0.99871, 289, 201, 352, 216
-0.99871, 313, 297, 375, 312
-0.99871, 313, 249, 375, 264
-0.998712, 289, 187, 352, 202
-0.998712, 289, 219, 352, 234
-0.998713, 289, 207, 352, 222
-0.998713, 273, 301, 336, 316
-0.998714, 281, 249, 344, 264
-0.998714, 121, 283, 184, 298
-0.998714, 129, 295, 192, 310
-0.998714, 41, 297, 104, 360
-0.998715, 313, 261, 375, 276
-0.998716, 273, 313, 336, 328
-0.998716, 315, 353, 330, 416
-0.998716, 41, 347, 104, 362
-0.998716, 305, 305, 368, 320
-0.998717, 281, 241, 344, 256
-0.998717, 305, 333, 368, 348
-0.998717, 273, 337, 336, 352
-0.998717, 313, 255, 375, 270
-0.998719, 41, 341, 104, 356
-0.99872, 313, 277, 375, 292
-0.99872, 281, 285, 344, 300
-0.99872, 305, 339, 368, 354
-0.998721, 273, 307, 336, 322
-0.998721, 265, 359, 328, 374
-0.998721, 121, 249, 184, 264
-0.998721, 313, 291, 375, 306
-0.998721, 121, 263, 184, 278
-0.998721, 273, 327, 336, 342
-0.998721, 265, 169, 280, 200
-0.998724, 305, 311, 368, 326
-0.998724, 313, 267, 375, 282
-0.998724, 313, 283, 375, 298
-0.998724, 121, 275, 184, 290
-0.998725, 289, 193, 352, 208
-0.998726, 281, 279, 344, 294
-0.998726, 305, 327, 368, 342
-0.998726, 257, 169, 320, 184
-0.998727, 129, 301, 192, 316
-0.998728, 273, 319, 336, 334
-0.998728, 81, 365, 144, 380
-0.998729, 273, 291, 336, 306
-0.998729, 113, 233, 176, 248
-0.99873, 305, 317, 368, 332
-0.99873, 121, 219, 184, 234
-0.99873, 209, 149, 272, 164
-0.99873, 129, 361, 375, 424
-0.998731, 209, 215, 272, 230
-0.998733, 33, 371, 96, 386
-0.998734, 105, 191, 168, 206
-0.998734, 185, 209, 248, 224
-0.998734, 313, 243, 375, 258
-0.998734, 41, 335, 104, 350
-0.998735, 121, 255, 184, 270
-0.998739, 217, 187, 280, 202
-0.99874, 225, 209, 288, 224
-0.99874, 105, 201, 136, 264
-0.998742, 153, 297, 216, 360
-0.998743, 241, 465, 304, 480
-0.998743, 257, 163, 320, 178
-0.998744, 129, 177, 192, 192
-0.998744, 213, 121, 244, 184
-0.998745, 145, 153, 160, 216
-0.998746, 81, 357, 144, 372
-0.998746, 155, 201, 170, 264
-0.998746, 137, 359, 200, 374
-0.998747, 129, 307, 192, 322
-0.998748, 25, 365, 88, 380
-0.998749, 315, 153, 330, 216
-0.998749, 113, 197, 240, 228
-0.99875, 249, 157, 312, 172
-0.99875, 241, 149, 304, 164
-0.998751, 225, 129, 288, 192
-0.998751, 217, 467, 280, 482
-0.998753, 169, 169, 232, 184
-0.998755, 249, 209, 312, 224
-0.998755, 145, 215, 208, 230
-0.998756, 169, 221, 232, 236
-0.998758, 137, 333, 200, 348
-0.998759, 145, 283, 208, 298
-0.99876, 225, 203, 288, 218
-0.99876, 193, 469, 256, 484
-0.99876, 161, 153, 224, 168
-0.998761, 105, 365, 168, 380
-0.998761, 143, 329, 158, 392
-0.998761, 9, 331, 72, 346
-0.998763, 253, 129, 268, 192
-0.998763, 145, 353, 208, 368
-0.998764, 129, 315, 192, 330
-0.998764, 89, 257, 152, 272
-0.998764, 193, 181, 256, 196
-0.998764, 81, 231, 144, 246
-0.998765, 89, 289, 152, 304
-0.998766, 281, 175, 344, 190
-0.998766, 81, 251, 144, 266
-0.998767, 145, 225, 208, 240
-0.998768, 263, 181, 278, 212
-0.998768, 129, 327, 192, 342
-0.998769, 185, 235, 248, 250
-0.998769, 193, 187, 256, 202
-0.998769, 169, 465, 232, 480
-0.998769, 293, 337, 324, 464
-0.99877, 313, 187, 375, 202
-0.99877, 129, 301, 256, 332
-0.998771, 57, 367, 120, 382
-0.998771, 81, 237, 144, 252
-0.998771, 145, 459, 208, 474
-0.998772, 81, 349, 144, 364
-0.998772, 89, 263, 152, 278
-0.998772, 249, 201, 264, 264
-0.998773, 129, 321, 192, 336
-0.998773, 129, 191, 192, 206
-0.998774, 185, 245, 248, 260
-0.998774, 137, 165, 200, 180
-0.998774, 1, 421, 64, 436
-0.998774, 191, 149, 206, 180
-0.998775, 229, 153, 244, 184
-0.998777, 329, 353, 344, 416
-0.998791, 125, 209, 140, 240
-0.998797, 57, 321, 72, 384
-0.998802, 189, 121, 220, 184
-0.998808, 129, 385, 375, 448
-0.998809, 123, 201, 138, 264
-0.998817, 197, 149, 212, 180
-0.998821, 17, 385, 48, 448
-0.998826, 113, 145, 240, 176
-0.998832, 81, 333, 208, 364
-0.998835, 329, 241, 344, 272
-0.998838, 223, 149, 238, 180
-0.998841, 305, 257, 336, 500
-0.998842, 277, 181, 292, 212
-0.998843, 215, 145, 230, 176
-0.998846, 203, 121, 218, 184
-0.99885, 49, 185, 176, 216
-0.998851, 203, 145, 218, 176
-0.998856, 139, 181, 154, 212
-0.99886, 331, 225, 346, 256
-0.998864, 155, 153, 170, 216
-0.998867, 297, 181, 312, 212
-0.99887, 311, 357, 326, 388
-0.998871, 193, 33, 256, 288
-0.998872, 285, 181, 300, 212
-0.998875, 303, 181, 318, 212
-0.998875, 209, 365, 336, 396
-0.998878, 105, 177, 136, 304
-0.998879, 327, 253, 342, 284
-0.99889, 311, 181, 326, 212
-0.998894, 209, 145, 224, 176
-0.998894, 285, 161, 316, 416
-0.998895, 301, 153, 316, 216
-0.998895, 181, 209, 212, 272
-0.998897, 129, 321, 256, 352
-0.998898, 129, 353, 256, 384
-0.998899, 175, 169, 190, 200
-0.9989, 291, 181, 306, 212
-0.998901, 121, 185, 136, 216
-0.998902, 317, 181, 332, 212
-0.998906, 203, 209, 218, 272
-0.998908, 319, 309, 334, 340
-0.998909, 51, 325, 66, 356
-0.998913, 89, 353, 104, 416
-0.998918, 317, 325, 332, 356
-0.998922, 171, 273, 186, 336
-0.998923, 335, 185, 350, 216
-0.998928, 161, 153, 176, 216
-0.99893, 97, 461, 224, 492
-0.99893, 191, 209, 206, 272
-0.998932, 335, 169, 350, 232
-0.998934, 325, 269, 340, 300
-0.998941, 1, 121, 256, 184
-0.998942, 49, 285, 176, 316
-0.998944, 321, 297, 336, 328
-0.998946, 327, 209, 342, 272
-0.998947, 177, 273, 208, 400
-0.99895, 229, 129, 260, 384
-0.998956, 333, 217, 348, 280
-0.998956, 61, 325, 76, 356
-0.998957, 323, 281, 338, 312
-0.998959, 9, 409, 24, 472
-0.998964, 177, 297, 192, 360
-0.998965, 137, 1, 200, 500
-0.998971, 17, 373, 144, 404
-0.998974, 289, 409, 352, 472
-0.998974, 25, 425, 88, 488
-0.998977, 245, 201, 260, 232
-0.99898, 307, 153, 322, 216
-0.998989, 271, 165, 286, 196
-0.998998, 169, 169, 184, 200
-0.998999, 145, 213, 160, 244
-0.999001, 229, 201, 244, 264
-0.999006, 151, 225, 166, 288
-0.99901, 83, 345, 98, 408
-0.99901, 139, 221, 154, 252
-0.999012, 241, 437, 368, 468
-0.999013, 165, 273, 180, 336
-0.999014, 201, 129, 232, 384
-0.999015, 209, 465, 336, 496
-0.999016, 219, 201, 234, 264
-0.999019, 293, 153, 308, 216
-0.99902, 209, 141, 336, 172
-0.99902, 333, 213, 348, 244
-0.999021, 113, 401, 176, 464
-0.999022, 39, 345, 54, 408
-0.999025, 159, 273, 174, 336
-0.999039, 175, 153, 190, 216
-0.999043, 261, 161, 292, 416
-0.999044, 209, 377, 336, 408
-0.999046, 201, 201, 232, 264
-0.999047, 121, 249, 136, 312
-0.999048, 251, 201, 266, 232
-0.99905, 323, 213, 338, 244
-0.999053, 309, 361, 324, 424
-0.999055, 41, 329, 56, 360
-0.999063, 177, 181, 192, 212
-0.999068, 275, 153, 290, 216
-0.999071, 133, 181, 148, 212
-0.999077, 253, 185, 268, 216
-0.99908, 149, 161, 180, 416
-0.99908, 89, 329, 104, 392
-0.999081, 81, 161, 208, 192
-0.999082, 201, 169, 216, 232
-0.999082, 137, 153, 152, 216
-0.999086, 243, 201, 258, 264
-0.999086, 15, 401, 30, 464
-0.999089, 177, 273, 192, 336
-0.999091, 305, 349, 320, 380
-0.999092, 327, 169, 342, 200
-0.999095, 197, 121, 212, 184
-0.999101, 321, 161, 336, 288
-0.999102, 239, 185, 254, 216
-0.999104, 65, 441, 192, 472
-0.999107, 161, 425, 176, 488
-0.999114, 115, 185, 130, 216
-0.999116, 237, 201, 252, 264
-0.999117, 247, 185, 262, 216
-0.999119, 129, 341, 256, 372
-0.999121, 215, 205, 230, 236
-0.999125, 209, 201, 224, 264
-0.999127, 125, 269, 140, 300
-0.99913, 33, 273, 160, 304
-0.999132, 285, 153, 300, 216
-0.999132, 321, 225, 336, 256
-0.999132, 129, 289, 144, 320
-0.999138, 123, 257, 138, 288
-0.99914, 147, 225, 162, 256
-0.999141, 239, 201, 254, 232
-0.999146, 139, 209, 154, 240
-0.999149, 245, 121, 260, 184
-0.99915, 119, 221, 134, 252
-0.999152, 333, 201, 348, 232
-0.999153, 131, 209, 146, 240
-0.999157, 317, 273, 332, 400
-0.999162, 319, 261, 334, 292
-0.999165, 209, 205, 224, 236
-0.999166, 213, 129, 244, 384
-0.999168, 127, 353, 142, 416
-0.999172, 119, 237, 134, 268
-0.999173, 69, 325, 84, 356
-0.999175, 263, 201, 278, 232
-0.999177, 129, 237, 144, 268
-0.999179, 181, 461, 196, 492
-0.99918, 145, 225, 160, 288
-0.999181, 257, 257, 320, 500
-0.999181, 231, 205, 246, 236
-0.999185, 209, 217, 224, 248
-0.99919, 227, 121, 242, 184
-0.999191, 199, 209, 214, 240
-0.999192, 193, 233, 208, 296
-0.999197, 225, 205, 240, 236
-0.999201, 325, 197, 340, 228
-0.999203, 1, 369, 256, 432
-0.999204, 141, 153, 172, 216
-0.999206, 301, 153, 332, 216
-0.999208, 231, 185, 246, 216
-0.999211, 33, 257, 96, 384
-0.999213, 175, 457, 190, 488
-0.999217, 239, 129, 254, 256
-0.999219, 241, 425, 368, 456
-0.99922, 131, 301, 146, 332
-0.999226, 317, 169, 332, 200
-0.999227, 5, 421, 20, 452
-0.999228, 33, 229, 160, 260
-0.999229, 169, 145, 200, 208
-0.999231, 257, 201, 272, 232
-0.999232, 317, 273, 332, 304
-0.999232, 127, 185, 142, 216
-0.999238, 227, 137, 242, 168
-0.999239, 257, 145, 272, 272
-0.999241, 139, 289, 154, 320
-0.999243, 321, 249, 336, 280
-0.999243, 137, 277, 152, 308
-0.999245, 193, 465, 208, 496
-0.999246, 359, 357, 374, 388
-0.999249, 233, 141, 248, 172
-0.99925, 223, 185, 238, 216
-0.999251, 87, 361, 102, 392
-0.999252, 249, 201, 280, 264
-0.999252, 137, 257, 168, 500
-0.999253, 89, 345, 104, 376
-0.999254, 159, 169, 174, 200
-0.999254, 145, 249, 272, 280
-0.999258, 351, 357, 366, 388
-0.999258, 141, 361, 156, 392
-0.999258, 41, 373, 56, 404
-0.99926, 273, 161, 304, 416
-0.999262, 139, 349, 154, 380
-0.999262, 81, 353, 96, 384
-0.999267, 209, 389, 336, 420
-0.999267, 215, 217, 230, 248
-0.999268, 251, 141, 266, 172
-0.999268, 151, 209, 166, 240
-0.999272, 323, 237, 338, 268
-0.999273, 189, 221, 204, 252
-0.999281, 247, 145, 262, 272
-0.999281, 319, 361, 334, 392
-0.999282, 309, 325, 324, 356
-0.999287, 307, 169, 322, 200
-0.999289, 225, 217, 240, 248
-0.999293, 29, 353, 60, 480
-0.999296, 333, 361, 348, 392
-0.999298, 151, 169, 166, 200
-0.9993, 231, 145, 246, 272
-0.999301, 239, 213, 254, 244
-0.999304, 49, 305, 176, 336
-0.999305, 207, 465, 222, 496
-0.999306, 199, 233, 214, 264
-0.999309, 193, 205, 208, 236
-0.99931, 197, 129, 212, 256
-0.99931, 245, 213, 260, 244
-0.99931, 325, 361, 340, 392
-0.999311, 341, 361, 356, 392
-0.999319, 161, 433, 288, 464
-0.999321, 17, 385, 144, 416
-0.999329, 211, 129, 226, 256
-0.999339, 185, 145, 200, 272
-0.999343, 141, 321, 172, 384
-0.999349, 49, 257, 176, 288
-0.999354, 33, 409, 288, 472
-0.999355, 125, 129, 156, 384
-0.999355, 33, 209, 160, 240
-0.999357, 221, 129, 236, 256
-0.999358, 177, 273, 304, 304
-0.999365, 133, 273, 148, 400
-0.999368, 323, 241, 338, 368
-0.999369, 329, 177, 344, 304
-0.999371, 311, 305, 326, 432
-0.99939, 161, 229, 288, 260
-0.999394, 309, 97, 340, 352
-0.999407, 17, 449, 144, 480
-0.999409, 263, 145, 278, 272
-0.99941, 177, 297, 304, 328
-0.999413, 179, 145, 194, 272
-0.999417, 205, 129, 220, 256
-0.999422, 1, 405, 128, 436
-0.999429, 191, 129, 206, 256
-0.999432, 49, 245, 176, 276
-0.999438, 153, 273, 184, 336
-0.99944, 225, 33, 288, 288
-0.99944, 175, 175, 190, 190
-0.99944, 91, 359, 106, 374
-0.999441, 65, 429, 192, 460
-0.999441, 133, 265, 148, 280
-0.999441, 309, 313, 324, 328
-0.999442, 241, 401, 368, 432
-0.999442, 125, 271, 140, 286
-0.999442, 215, 211, 230, 226
-0.999442, 313, 287, 328, 302
-0.999442, 111, 195, 126, 210
-0.999442, 327, 191, 342, 206
-0.999442, 115, 225, 130, 240
-0.999442, 305, 339, 320, 354
-0.999442, 141, 309, 156, 324
-0.999443, 129, 291, 144, 306
-0.999443, 337, 181, 352, 196
-0.999444, 131, 219, 146, 234
-0.999444, 137, 289, 152, 304
-0.999445, 139, 303, 154, 318
-0.999445, 129, 251, 144, 266
-0.999445, 325, 201, 340, 216
-0.999446, 311, 307, 326, 322
-0.999446, 237, 207, 252, 222
-0.999447, 245, 213, 260, 228
-0.999447, 137, 283, 152, 298
-0.999447, 177, 461, 192, 476
-0.999447, 307, 327, 322, 342
-0.999448, 121, 253, 136, 268
-0.999448, 361, 361, 375, 376
-0.999448, 227, 209, 242, 224
-0.999448, 333, 207, 348, 222
-0.999448, 33, 197, 160, 228
-0.999449, 127, 241, 142, 256
-0.999449, 127, 285, 142, 300
-0.999449, 317, 261, 332, 276
-0.99945, 39, 367, 54, 382
-0.999451, 231, 145, 246, 160
-0.999451, 123, 261, 138, 276
-0.999452, 131, 257, 146, 272
-0.999452, 117, 231, 132, 246
-0.999452, 59, 327, 74, 342
-0.999452, 313, 295, 328, 310
-0.999453, 139, 297, 154, 312
-0.999453, 309, 319, 324, 334
-0.999453, 335, 199, 350, 214
-0.999454, 269, 165, 284, 180
-0.999454, 307, 333, 322, 348
-0.999454, 319, 255, 334, 270
-0.999454, 343, 361, 358, 376
-0.999455, 315, 275, 330, 290
-0.999455, 79, 321, 94, 448
-0.999456, 249, 187, 264, 202
-0.999456, 127, 235, 142, 250
-0.999456, 321, 239, 336, 254
-0.999456, 319, 249, 334, 264
-0.999457, 87, 365, 102, 380
-0.999457, 305, 357, 320, 372
-0.999458, 65, 327, 80, 342
-0.999458, 305, 345, 320, 360
-0.999458, 315, 281, 330, 296
-0.99946, 141, 223, 156, 238
-0.99946, 327, 177, 342, 192
-0.999461, 333, 213, 348, 228
-0.999461, 73, 329, 88, 344
-0.999462, 325, 209, 340, 224
-0.999462, 317, 267, 332, 282
-0.999462, 125, 229, 140, 244
-0.999463, 353, 361, 368, 376
-0.999464, 125, 217, 140, 232
-0.999465, 53, 327, 68, 342
-0.999466, 325, 277, 340, 292
-0.999467, 323, 229, 338, 244
-0.999467, 321, 297, 336, 312
-0.999467, 125, 185, 140, 200
-0.999469, 335, 193, 350, 208
-0.99947, 323, 215, 338, 230
-0.99947, 321, 303, 336, 318
-0.99947, 319, 319, 334, 334
-0.999471, 327, 265, 342, 280
-0.999474, 329, 253, 344, 268
-0.999474, 299, 161, 314, 288
-0.999475, 323, 287, 338, 302
-0.999476, 263, 183, 278, 198
-0.999477, 313, 347, 328, 362
-0.999477, 317, 325, 332, 340
-0.999477, 325, 271, 340, 286
-0.999479, 47, 329, 62, 344
-0.99948, 317, 331, 332, 346
-0.999481, 323, 223, 338, 238
-0.999481, 329, 241, 344, 256
-0.999481, 333, 219, 348, 234
-0.999481, 175, 181, 190, 196
-0.999481, 289, 385, 352, 448
-0.999481, 81, 425, 144, 488
-0.999482, 319, 313, 334, 328
-0.999483, 187, 159, 202, 174
-0.999484, 327, 259, 342, 274
-0.999484, 183, 167, 198, 182
-0.999485, 337, 187, 352, 202
-0.999486, 41, 329, 56, 344
-0.999488, 311, 361, 326, 376
-0.999489, 203, 149, 218, 164
-0.999489, 181, 173, 196, 188
-0.999489, 315, 339, 330, 354
-0.999491, 279, 181, 294, 196
-0.999491, 331, 229, 346, 244
-0.999493, 329, 247, 344, 262
-0.999493, 117, 187, 132, 202
-0.999494, 331, 235, 346, 250
-0.999497, 161, 161, 176, 288
-0.999497, 173, 161, 188, 288
-0.999497, 293, 181, 308, 196
-0.999498, 285, 181, 300, 196
-0.999503, 277, 161, 292, 288
-0.999504, 289, 161, 304, 288
-0.999505, 301, 181, 316, 196
-0.999505, 231, 153, 246, 168
-0.999507, 213, 147, 228, 162
-0.999508, 177, 285, 304, 316
-0.999509, 151, 161, 166, 288
-0.999509, 311, 181, 326, 196
-0.999509, 269, 175, 284, 190
-0.99951, 239, 151, 254, 166
-0.99951, 261, 177, 276, 192
-0.99951, 139, 305, 154, 432
-0.999512, 17, 437, 144, 468
-0.999512, 131, 185, 146, 200
-0.999514, 197, 149, 212, 164
-0.999514, 123, 225, 138, 352
-0.999515, 145, 183, 160, 198
-0.999515, 259, 171, 274, 186
-0.999515, 189, 153, 204, 168
-0.999515, 151, 183, 166, 198
-0.999516, 309, 161, 324, 288
-0.999517, 317, 181, 332, 196
-0.999517, 313, 353, 328, 368
-0.999517, 137, 185, 152, 200
-0.999518, 159, 183, 174, 198
-0.999524, 17, 173, 144, 204
-0.999529, 167, 161, 182, 288
-0.999529, 79, 331, 94, 346
-0.999531, 131, 177, 146, 304
-0.999533, 269, 181, 284, 196
-0.999533, 221, 149, 236, 164
-0.999534, 245, 153, 260, 168
-0.999536, 125, 223, 140, 238
-0.999539, 251, 157, 266, 172
-0.99954, 145, 421, 272, 452
-0.999545, 257, 163, 272, 178
-0.999546, 71, 305, 86, 432
-0.999548, 283, 161, 298, 288
-0.999548, 271, 161, 286, 288
-0.99955, 63, 305, 78, 432
-0.999553, 169, 183, 184, 198
-0.999558, 315, 161, 330, 288
-0.999563, 73, 353, 104, 416
-0.999565, 145, 401, 272, 432
-0.999579, 317, 321, 332, 448
-0.999597, 145, 161, 160, 288
-0.9996, 251, 97, 266, 224
-0.9996, 53, 305, 68, 432
-0.999604, 241, 413, 368, 444
-0.999611, 139, 225, 154, 352
-0.999614, 97, 133, 224, 164
-0.99962, 327, 183, 342, 198
-0.999623, 65, 393, 192, 424
-0.999633, 129, 369, 192, 496
-0.999638, 145, 261, 272, 292
-0.99965, 361, 337, 375, 464
-0.999658, 129, 225, 144, 352
-0.999669, 311, 353, 326, 480
-0.999669, 233, 97, 248, 224
-0.999674, 135, 353, 150, 480
-0.999674, 185, 97, 200, 224
-0.999676, 121, 177, 136, 304
-0.999677, 145, 337, 160, 464
-0.99968, 173, 113, 188, 240
-0.99968, 193, 417, 320, 448
-0.99968, 213, 177, 228, 304
-0.999683, 327, 353, 342, 480
-0.999685, 201, 121, 232, 184
-0.999685, 165, 273, 196, 336
-0.999686, 355, 337, 370, 464
-0.999686, 41, 321, 56, 448
-0.999688, 209, 105, 336, 168
-0.999689, 65, 173, 192, 204
-0.999691, 329, 225, 344, 352
-0.999692, 127, 273, 142, 400
-0.999692, 85, 337, 100, 464
-0.999693, 269, 65, 300, 320
-0.999693, 269, 113, 284, 240
-0.999695, 193, 177, 208, 304
-0.999697, 137, 177, 152, 304
-0.999702, 153, 257, 184, 500
-0.999702, 47, 305, 62, 432
-0.999703, 339, 337, 354, 464
-0.999704, 199, 177, 214, 304
-0.999706, 125, 353, 140, 480
-0.999707, 325, 113, 340, 240
-0.999707, 349, 337, 364, 464
-0.999709, 227, 97, 242, 224
-0.999711, 219, 177, 234, 304
-0.999713, 245, 97, 260, 224
-0.999726, 205, 177, 220, 304
-0.99973, 113, 353, 128, 480
-0.999732, 91, 353, 106, 480
-0.999733, 257, 97, 272, 224
-0.999737, 313, 209, 328, 336
-0.999737, 333, 337, 348, 464
-0.999742, 101, 353, 116, 480
-0.999746, 119, 353, 134, 480
-0.999747, 129, 381, 256, 412
-0.999748, 335, 161, 350, 288
-0.999751, 161, 137, 288, 168
-0.999757, 145, 273, 160, 400
-0.999758, 107, 353, 122, 480
-0.999767, 297, 113, 312, 240
-0.999769, 307, 113, 322, 240
-0.999773, 313, 113, 328, 240
-0.999775, 225, 177, 240, 304
-0.999781, 313, 153, 375, 216
-0.999783, 305, 337, 320, 464
-0.999785, 155, 209, 170, 336
-0.999787, 309, 257, 324, 384
-0.99979, 1, 417, 375, 480
-0.999791, 181, 257, 196, 384
-0.999792, 285, 113, 300, 240
-0.999792, 291, 113, 306, 240
-0.999793, 163, 257, 178, 384
-0.999796, 179, 193, 194, 320
-0.999799, 79, 273, 94, 400
-0.999799, 275, 113, 290, 240
-0.999801, 157, 273, 172, 400
-0.999801, 125, 225, 156, 352
-0.99981, 263, 97, 278, 224
-0.999811, 159, 113, 174, 240
-0.999814, 241, 177, 256, 304
-0.999819, 35, 321, 50, 448
-0.999821, 113, 365, 240, 396
-0.999822, 187, 273, 202, 400
-0.999824, 239, 81, 254, 208
-0.999826, 187, 193, 202, 320
-0.999828, 297, 353, 328, 416
-0.999829, 167, 113, 182, 240
-0.999834, 151, 321, 166, 448
-0.999835, 113, 445, 240, 476
-0.999838, 221, 81, 236, 208
-0.999842, 171, 257, 186, 384
-0.999842, 193, 405, 320, 436
-0.999846, 91, 305, 106, 432
-0.999846, 151, 273, 166, 400
-0.999847, 165, 257, 196, 500
-0.999852, 195, 257, 210, 384
-0.999854, 257, 353, 320, 480
-0.999855, 33, 369, 48, 496
-0.999857, 145, 225, 160, 352
-0.999858, 157, 337, 172, 464
-0.999861, 161, 209, 176, 336
-0.999871, 209, 81, 224, 208
-0.999871, 153, 113, 168, 240
-0.999878, 323, 289, 338, 416
-0.999885, 197, 81, 212, 208
-0.999893, 329, 193, 360, 448
-0.999896, 319, 113, 334, 240
-0.999898, 229, 121, 260, 184
-0.999899, 137, 129, 152, 256
-0.9999, 201, 225, 216, 352
-0.999902, 53, 257, 68, 384
-0.999903, 65, 405, 192, 436
-0.999904, 303, 289, 318, 416
-0.999904, 179, 97, 194, 224
-0.999907, 361, 289, 375, 416
-0.999907, 173, 209, 188, 336
-0.999908, 63, 257, 78, 384
-0.999908, 57, 353, 72, 480
-0.999913, 333, 161, 364, 224
-0.999915, 325, 97, 356, 352
-0.999919, 349, 289, 364, 416
-0.999921, 203, 81, 218, 208
-0.999923, 213, 225, 228, 352
-0.999925, 33, 1, 96, 500
-0.999925, 47, 353, 62, 480
-0.999928, 113, 105, 240, 168
-0.999935, 105, 1, 168, 500
-0.999938, 65, 417, 192, 448
-0.999963, 117, 353, 148, 416
-0.999973, 65, 381, 192, 412
-0.999983, 105, 225, 136, 480
-0.999992, 209, 329, 272, 392
-1, 61, 257, 92, 500
-1, 161, 369, 288, 400
-1.00001, 241, 33, 272, 288
-1.00001, 33, 469, 160, 500
-1.00005, 113, 433, 240, 464
-1.00009, 289, 65, 320, 320
-1.0001, 289, 289, 320, 416
-1.00011, 225, 33, 256, 288
-1.00012, 105, 305, 168, 368
-1.00013, 161, 97, 192, 224
-1.00013, 177, 433, 208, 496
-1.00014, 1, 317, 128, 348
-1.00015, 125, 129, 156, 256
-1.00016, 213, 33, 244, 288
-1.00017, 257, 65, 288, 320
-1.00018, 177, 257, 208, 500
-1.00019, 1, 417, 128, 448
-1.0002, 1, 185, 128, 216
-1.00021, 197, 33, 228, 288
-1.00021, 137, 129, 168, 256
-1.00023, 149, 113, 180, 240
-1.00023, 341, 257, 372, 500
-1.00025, 157, 65, 188, 320
-1.00027, 277, 153, 308, 216
-1.00028, 17, 177, 144, 304
-1.00028, 293, 257, 324, 500
-1.00029, 65, 149, 192, 180
-1.0003, 45, 353, 76, 480
-1.00032, 189, 225, 220, 480
-1.00033, 1, 361, 375, 424
-1.00034, 181, 33, 212, 288
-1.00036, 41, 257, 72, 500
-1.00038, 285, 433, 316, 496
-1.00041, 169, 65, 200, 320
-1.00041, 89, 257, 120, 500
-1.00044, 201, 81, 232, 208
-1.00047, 57, 353, 88, 480
-1.00049, 57, 1, 120, 500
-1.00049, 49, 361, 80, 424
-1.00049, 145, 65, 176, 320
-1.00051, 313, 113, 375, 240
-1.00052, 153, 225, 184, 288
-1.00053, 221, 201, 252, 264
-1.00053, 257, 433, 288, 496
-1.00054, 209, 129, 336, 160
-1.0006, 149, 209, 180, 336
-1.00061, 113, 129, 144, 384
-1.00065, 1, 297, 128, 328
-1.00069, 105, 353, 136, 416
-1.0007, 73, 225, 104, 480
-1.00073, 1, 253, 128, 284
-1.00073, 1, 149, 128, 180
-1.00075, 153, 425, 184, 488
-1.00075, 1, 109, 128, 140
-1.00076, 57, 257, 88, 384
-1.00077, 145, 345, 176, 408
-1.00078, 1, 133, 128, 164
-1.00078, 49, 369, 112, 432
-1.00079, 1, 121, 128, 152
-1.0008, 125, 33, 156, 288
-1.0008, 1, 81, 128, 112
-1.00082, 1, 97, 128, 128
-1.00082, 73, 153, 136, 216
-1.00083, 13, 257, 44, 500
-1.00083, 177, 281, 208, 344
-1.00084, 1, 45, 128, 76
-1.00084, 1, 345, 64, 408
-1.00085, 1, 241, 128, 272
-1.00088, 169, 289, 232, 416
-1.00088, 1, 69, 128, 100
-1.00089, 17, 369, 48, 496
-1.0009, 1, 1, 128, 32
-1.0009, 161, 125, 288, 156
-1.00091, 1, 285, 128, 316
-1.00091, 1, 57, 128, 88
-1.00091, 201, 225, 232, 480
-1.00092, 217, 225, 248, 480
-1.00092, 1, 29, 128, 60
-1.00093, 33, 161, 160, 192
-1.00093, 229, 225, 260, 480
-1.00095, 1, 17, 128, 48
-1.00098, 101, 177, 132, 240
-1.00099, 29, 257, 60, 500
-1.00101, 169, 209, 200, 272
-1.00102, 249, 225, 280, 480
-1.00102, 61, 161, 92, 416
-1.00103, 101, 97, 132, 352
-1.00104, 113, 117, 240, 148
-1.00106, 329, 129, 360, 256
-1.00106, 313, 129, 375, 384
-1.00106, 49, 133, 176, 164
-1.00107, 145, 105, 272, 136
-1.00107, 241, 105, 368, 136
-1.00107, 65, 109, 192, 140
-1.00107, 193, 113, 320, 144
-1.00107, 241, 117, 368, 148
-1.00107, 49, 121, 176, 152
-1.00107, 309, 1, 340, 256
-1.00107, 201, 289, 264, 352
-1.00107, 49, 409, 112, 472
-1.00108, 169, 33, 232, 288
-1.00108, 129, 121, 375, 184
-1.00109, 177, 257, 240, 500
-1.00111, 57, 297, 88, 360
-1.00114, 153, 345, 216, 408
-1.00115, 41, 161, 72, 416
-1.00115, 281, 257, 312, 500
-1.00119, 197, 241, 228, 368
-1.00121, 1, 385, 375, 448
-1.00122, 153, 305, 184, 432
-1.00127, 1, 81, 256, 144
-1.00129, 345, 289, 375, 416
-1.0013, 1, 57, 256, 120
-1.00133, 1, 281, 128, 344
-1.00133, 325, 1, 356, 256
-1.00136, 113, 33, 144, 288
-1.00137, 165, 433, 196, 496
-1.00138, 1, 257, 32, 500
-1.00138, 233, 369, 296, 496
-1.00139, 265, 257, 296, 500
-1.00141, 61, 433, 92, 496
-1.00141, 217, 409, 280, 472
-1.00144, 1, 17, 256, 80
-1.00144, 81, 129, 144, 384
-1.00145, 17, 137, 144, 200
-1.00148, 129, 153, 160, 216
-1.00149, 209, 225, 272, 288
-1.0015, 85, 305, 116, 368
-1.00155, 9, 1, 72, 500
-1.00156, 97, 89, 352, 152
-1.00158, 105, 425, 168, 488
-1.00158, 233, 225, 296, 288
-1.0016, 85, 161, 116, 416
-1.00164, 337, 97, 368, 352
-1.00165, 1, 105, 128, 168
-1.00165, 341, 329, 372, 392
-1.00167, 249, 337, 312, 400
-1.00167, 1, 185, 128, 248
-1.00168, 297, 433, 328, 496
-1.0017, 25, 257, 88, 500
-1.0017, 1, 9, 128, 72
-1.00171, 9, 273, 72, 400
-1.00172, 245, 433, 276, 496
-1.00173, 261, 201, 292, 264
-1.00174, 189, 433, 220, 496
-1.00177, 257, 257, 320, 384
-1.00179, 73, 129, 104, 384
-1.0018, 97, 41, 352, 104
-1.0018, 97, 65, 352, 128
-1.0018, 321, 433, 352, 496
-1.00181, 53, 65, 84, 320
-1.00182, 29, 129, 60, 384
-1.00182, 97, 17, 352, 80
-1.00184, 345, 1, 375, 256
-1.00184, 5, 33, 36, 288
-1.00184, 29, 33, 60, 288
-1.00184, 41, 33, 72, 288
-1.00184, 65, 33, 96, 288
-1.00184, 77, 33, 108, 288
-1.00184, 17, 65, 48, 320
-1.00184, 89, 65, 120, 320
-1.00184, 5, 129, 36, 384
-1.00186, 113, 377, 176, 440
-1.00188, 17, 161, 48, 416
-1.00189, 1, 121, 375, 184
-1.00191, 17, 297, 80, 360
-1.00191, 233, 361, 296, 424
-1.00191, 233, 385, 296, 448
-1.00194, 73, 433, 104, 496
-1.00194, 101, 1, 132, 256
-1.00194, 1, 65, 128, 128
-1.00195, 145, 377, 208, 440
-1.00196, 325, 329, 356, 392
-1.00197, 73, 177, 136, 304
-1.00204, 333, 289, 364, 416
-1.00206, 177, 249, 208, 312
-1.00211, 1, 33, 128, 96
-1.00214, 149, 249, 180, 312
-1.00218, 201, 257, 264, 320
-1.00218, 233, 313, 296, 376
-1.00223, 233, 193, 264, 320
-1.00229, 49, 433, 80, 496
-1.00229, 313, 409, 375, 472
-1.00233, 41, 297, 72, 360
-1.00237, 185, 81, 216, 208
-1.00237, 201, 433, 232, 496
-1.00241, 273, 369, 304, 496
-1.00244, 217, 225, 248, 352
-1.00245, 161, 97, 288, 160
-1.00246, 73, 273, 104, 400
-1.00248, 217, 433, 248, 496
-1.00253, 297, 249, 328, 312
-1.00254, 149, 353, 180, 480
-1.00258, 277, 201, 308, 264
-1.00259, 273, 433, 304, 496
-1.00262, 229, 433, 260, 496
-1.00266, 241, 193, 304, 320
-1.00268, 97, 305, 128, 432
-1.00268, 25, 361, 56, 424
-1.00271, 209, 353, 272, 416
-1.00272, 1, 89, 375, 152
-1.00273, 309, 433, 340, 496
-1.00275, 333, 425, 364, 488
-1.00279, 141, 401, 172, 464
-1.00281, 165, 297, 196, 360
-1.00282, 165, 241, 196, 304
-1.00282, 177, 305, 208, 368
-1.00283, 113, 81, 240, 144
-1.00284, 153, 321, 184, 384
-1.00285, 97, 129, 160, 256
-1.00286, 1, 65, 375, 128
-1.00287, 205, 225, 236, 288
-1.00287, 1, 41, 375, 104
-1.00288, 1, 17, 375, 80
-1.0029, 345, 425, 375, 488
-1.00291, 97, 1, 224, 64
-1.00291, 193, 1, 320, 64
-1.00291, 145, 9, 272, 72
-1.00291, 241, 9, 368, 72
-1.00291, 49, 25, 176, 88
-1.00291, 97, 25, 224, 88
-1.00291, 193, 25, 320, 88
-1.00291, 145, 33, 272, 96
-1.00291, 241, 33, 368, 96
-1.00291, 49, 49, 176, 112
-1.00291, 97, 49, 224, 112
-1.00291, 193, 49, 320, 112
-1.00291, 145, 57, 272, 120
-1.00291, 241, 57, 368, 120
-1.00291, 65, 73, 192, 136
-1.00291, 193, 73, 320, 136
-1.00291, 241, 81, 368, 144
-1.00291, 49, 97, 176, 160
-1.00291, 105, 129, 168, 384
-1.00295, 25, 329, 56, 392
-1.00296, 189, 273, 220, 336
-1.00302, 165, 305, 196, 432
-1.00304, 189, 233, 220, 296
-1.00305, 193, 289, 256, 416
-1.00305, 49, 1, 176, 64
-1.00306, 185, 337, 248, 400
-1.00309, 109, 305, 140, 432
-1.00313, 257, 225, 320, 288
-1.00313, 73, 369, 104, 496
-1.00315, 233, 321, 296, 448
-1.00322, 1, 433, 64, 496
-1.00326, 37, 257, 68, 384
-1.00327, 185, 393, 248, 456
-1.00327, 161, 369, 224, 496
-1.00337, 5, 369, 36, 496
-1.00339, 233, 105, 296, 168
-1.00344, 161, 353, 192, 480
-1.00345, 225, 289, 288, 352
-1.00345, 225, 249, 288, 312
-1.00352, 1, 257, 64, 500
-1.00355, 189, 289, 220, 416
-1.00356, 201, 225, 264, 480
-1.00359, 249, 257, 312, 320
-1.00368, 89, 401, 152, 464
-1.00368, 1, 1, 256, 128
-1.00382, 25, 305, 56, 432
-1.00405, 201, 369, 264, 496
-1.00405, 1, 49, 256, 176
-1.0042, 81, 281, 144, 344
-1.0044, 177, 321, 208, 448
-1.00441, 153, 105, 216, 168
-1.00455, 261, 369, 292, 496
-1.00456, 169, 369, 232, 432
-1.00472, 201, 105, 264, 168
-1.00473, 129, 49, 375, 176
-1.00475, 285, 209, 316, 336
-1.00484, 173, 369, 204, 496
-1.00487, 25, 401, 88, 464
-1.00488, 85, 257, 116, 384
-1.00497, 193, 49, 320, 176
-1.00497, 249, 281, 312, 344
-1.00507, 97, 49, 224, 176
-1.0051, 257, 209, 288, 336
-1.00513, 13, 321, 44, 448
-1.00514, 225, 225, 288, 480
-1.00515, 213, 273, 244, 400
-1.00515, 229, 273, 260, 400
-1.00516, 313, 33, 375, 288
-1.00518, 201, 289, 232, 416
-1.00526, 213, 321, 244, 448
-1.00534, 313, 385, 375, 448
-1.00541, 209, 385, 272, 448
-1.00542, 225, 321, 256, 448
-1.00543, 113, 129, 144, 256
-1.00545, 269, 209, 300, 336
-1.0056, 249, 369, 280, 496
-1.00575, 65, 177, 128, 240
-1.00591, 73, 377, 136, 440
-1.00599, 261, 321, 292, 448
-1.00607, 321, 81, 352, 208
-1.00609, 249, 305, 280, 432
-1.00626, 249, 65, 280, 192
-1.00629, 193, 353, 224, 480
-1.00631, 277, 321, 308, 448
-1.00639, 233, 273, 296, 400
-1.0064, 25, 257, 56, 384
-1.00642, 237, 321, 268, 448
-1.00642, 245, 209, 276, 336
-1.00658, 105, 33, 168, 288
-1.0066, 241, 65, 368, 192
-1.00664, 269, 273, 300, 400
-1.00671, 241, 257, 272, 384
-1.00671, 97, 1, 352, 128
-1.00675, 209, 241, 272, 368
-1.00678, 237, 369, 268, 496
-1.00679, 97, 129, 128, 256
-1.00696, 73, 225, 104, 352
-1.00702, 65, 201, 128, 264
-1.00713, 209, 369, 240, 496
-1.00723, 221, 369, 252, 496
-1.00726, 9, 161, 72, 416
-1.00728, 1, 1, 128, 128
-1.00731, 33, 161, 96, 416
-1.00738, 261, 65, 292, 192
-1.00748, 137, 81, 168, 208
-1.00761, 73, 225, 136, 352
-1.00764, 1, 321, 32, 448
-1.00778, 341, 129, 372, 256
-1.00782, 257, 257, 288, 384
-1.00783, 81, 33, 144, 288
-1.00787, 1, 49, 128, 176
-1.00796, 333, 81, 364, 208
-1.00803, 13, 273, 44, 400
-1.00843, 101, 225, 132, 352
-1.00855, 113, 81, 144, 208
-1.0086, 57, 161, 120, 416
-1.00861, 57, 273, 120, 336
-1.00872, 125, 81, 156, 208
-1.00873, 249, 65, 312, 192
-1.00901, 169, 81, 232, 144
-1.00901, 193, 81, 256, 144
-1.00903, 1, 73, 64, 136
-1.00903, 1, 137, 64, 200
-1.00904, 173, 49, 204, 176
-1.00927, 145, 17, 272, 144
-1.00931, 233, 17, 264, 144
-1.00931, 93, 177, 124, 304
-1.00983, 201, 49, 264, 176
-1.01002, 65, 1, 192, 128
-1.01038, 193, 1, 320, 128
-1.01038, 241, 17, 368, 144
-1.0104, 121, 81, 184, 208
-1.01061, 57, 65, 120, 320
-1.01066, 1, 33, 64, 288
-1.01071, 33, 65, 96, 320
-1.01094, 73, 129, 136, 256
-1.01181, 9, 225, 72, 352
-1.01197, 97, 81, 160, 208
-1.01239, 153, 49, 216, 176
-1.01364, 225, 49, 288, 176
-1.014, 305, 65, 368, 192
-1.01425, 41, 193, 104, 320
-1.01442, 1, 49, 64, 176
-1.01442, 1, 129, 64, 256
-1.01448, 177, 17, 240, 144
-1.01471, 73, 81, 136, 208
-1.01471, 1, 1, 64, 128
-1.01478, 49, 1, 112, 128
-1.01478, 153, 1, 216, 128
-1.01478, 209, 1, 272, 128
-1.01478, 233, 1, 296, 128
-1.01478, 257, 17, 320, 144
-1.01478, 313, 17, 375, 144
-1.01478, 25, 33, 88, 160
-1.01478, 73, 33, 136, 160
-1.01478, 97, 33, 160, 160
-1.01478, 121, 33, 184, 160
-1.01478, 281, 33, 344, 160
-1.01478, 49, 49, 112, 176
-1.01478, 25, 81, 88, 208
-1.01478, 49, 97, 112, 224
-1.01478, 25, 129, 88, 256
-1.01478, 49, 145, 112, 272
-1.01478, 17, 177, 80, 304
-1.01495, 49, 49, 176, 176
