1951
-0.50232, 129, 1, 384, 357
-0.522529, 1, 97, 500, 352
-0.546511, 129, 65, 384, 320
-0.666215, 1, 1, 500, 357
-0.676347, 1, 1, 500, 256
-0.745839, 225, 1, 480, 357
-0.763844, 33, 1, 288, 357
-0.845299, 33, 65, 288, 320
-0.858608, 1, 225, 500, 352
-0.873763, 161, 1, 288, 357
-0.87776, 161, 65, 288, 320
-0.900076, 113, 97, 240, 352
-0.901649, 257, 97, 500, 352
-0.905943, 1, 177, 500, 304
-0.907055, 209, 65, 336, 320
-0.907173, 209, 1, 336, 357
-0.911569, 113, 1, 240, 357
-0.912241, 33, 225, 288, 352
-0.918842, 129, 81, 384, 208
-0.923072, 129, 145, 384, 272
-0.924141, 129, 193, 384, 320
-0.928472, 257, 225, 500, 352
-0.930214, 65, 1, 192, 357
-0.931457, 257, 1, 384, 357
-0.934933, 65, 97, 192, 352
-0.936728, 289, 97, 416, 352
-0.938712, 1, 81, 500, 208
-0.939688, 65, 225, 192, 352
-0.940896, 161, 65, 288, 192
-0.943869, 137, 209, 200, 336
-0.946001, 169, 177, 232, 304
-0.94635, 305, 1, 432, 357
-0.947732, 145, 129, 272, 256
-0.948783, 145, 177, 272, 304
-0.951756, 169, 225, 232, 352
-0.952008, 161, 225, 288, 352
-0.952908, 81, 1, 208, 256
-0.954672, 169, 97, 232, 224
-0.955424, 113, 225, 240, 352
-0.956619, 297, 209, 360, 336
-0.957356, 33, 65, 288, 192
-0.959282, 353, 97, 480, 352
-0.95936, 129, 33, 384, 160
-0.959472, 225, 1, 480, 256
-0.959757, 129, 161, 192, 288
-0.960009, 17, 1, 144, 357
-0.96019, 273, 225, 400, 352
-0.960616, 129, 225, 192, 288
-0.960658, 353, 1, 480, 357
-0.960867, 177, 289, 240, 352
-0.961975, 33, 177, 288, 304
-0.962521, 209, 65, 272, 192
-0.962869, 209, 65, 336, 192
-0.962935, 225, 145, 352, 272
-0.963897, 57, 225, 120, 352
-0.963935, 185, 49, 248, 176
-0.964537, 193, 129, 256, 256
-0.964747, 81, 225, 144, 352
-0.96517, 97, 177, 224, 304
-0.965175, 1, 97, 128, 352
-0.965659, 113, 209, 176, 336
-0.965946, 161, 129, 224, 192
-0.965949, 1, 113, 256, 240
-0.966515, 217, 297, 280, 357
-0.966699, 57, 249, 120, 312
-0.966738, 273, 289, 336, 352
-0.966969, 169, 265, 232, 328
-0.967068, 145, 289, 208, 352
-0.967378, 273, 225, 336, 352
-0.967719, 233, 65, 296, 192
-0.969458, 209, 209, 336, 336
-0.969801, 193, 17, 320, 144
-0.969855, 337, 225, 464, 352
-0.970117, 161, 105, 224, 168
-0.97016, 169, 241, 232, 304
-0.970262, 169, 65, 232, 320
-0.970607, 161, 297, 288, 357
-0.970641, 1, 129, 500, 256
-0.970816, 225, 177, 480, 304
-0.971038, 169, 209, 232, 272
-0.971573, 297, 225, 360, 288
-0.971841, 233, 113, 296, 240
-0.971934, 1, 17, 500, 144
-0.972692, 201, 129, 264, 192
-0.972698, 225, 97, 480, 224
-0.972756, 113, 65, 240, 192
-0.973136, 105, 233, 168, 296
-0.973819, 17, 225, 144, 352
-0.973987, 169, 153, 232, 216
-0.974204, 193, 225, 256, 352
-0.97459, 169, 177, 232, 240
-0.974968, 81, 233, 208, 296
-0.975144, 273, 129, 336, 256
-0.975258, 177, 81, 240, 144
-0.975571, 81, 233, 144, 296
-0.975861, 209, 153, 272, 216
-0.975881, 257, 1, 384, 256
-0.97603, 273, 265, 336, 328
-0.976049, 145, 113, 208, 240
-0.976148, 177, 209, 208, 336
-0.976423, 145, 137, 272, 200
-0.976613, 425, 265, 488, 328
-0.976693, 161, 49, 224, 176
-0.976944, 81, 129, 208, 256
-0.977462, 145, 265, 208, 328
-0.977661, 233, 273, 296, 336
-0.977923, 225, 49, 480, 176
-0.978109, 273, 81, 336, 208
-0.978415, 241, 289, 368, 352
-0.978534, 289, 177, 416, 304
-0.978547, 145, 193, 208, 256
-0.978623, 145, 217, 272, 280
-0.978736, 137, 97, 200, 352
-0.978831, 173, 225, 204, 288
-0.97892, 157, 161, 188, 288
-0.979143, 1, 17, 256, 144
-0.979193, 157, 209, 188, 336
-0.979319, 177, 73, 304, 136
-0.979448, 157, 225, 188, 288
-0.97973, 401, 257, 464, 320
-0.97994, 193, 177, 256, 304
-0.97996, 185, 57, 248, 120
-0.97998, 233, 225, 296, 352
-0.979993, 189, 297, 220, 357
-0.979993, 305, 161, 368, 288
-0.98048, 41, 289, 104, 352
-0.980591, 257, 97, 384, 224
-0.980799, 201, 177, 264, 240
-0.980956, 233, 153, 296, 216
-0.981124, 193, 1, 256, 256
-0.981351, 249, 17, 312, 144
-0.981391, 105, 161, 168, 288
-0.981458, 145, 193, 272, 256
-0.981503, 297, 225, 328, 352
-0.981587, 361, 225, 424, 352
-0.981839, 145, 209, 176, 336
-0.981864, 209, 17, 272, 144
-0.982171, 169, 129, 200, 192
-0.982237, 161, 113, 288, 176
-0.982361, 161, 273, 288, 336
-0.982487, 129, 161, 192, 224
-0.982492, 217, 161, 280, 288
-0.982504, 257, 177, 320, 304
-0.982569, 273, 233, 400, 296
-0.982585, 145, 161, 272, 224
-0.982679, 129, 17, 256, 144
-0.982716, 225, 177, 288, 240
-0.982722, 137, 121, 200, 184
-0.983344, 205, 281, 236, 344
-0.983387, 173, 97, 204, 224
-0.983389, 305, 1, 432, 256
-0.983423, 305, 217, 336, 280
-0.983479, 305, 289, 368, 352
-0.983494, 65, 249, 96, 312
-0.983519, 209, 65, 272, 128
-0.983534, 113, 281, 240, 344
-0.983536, 377, 249, 440, 312
-0.983649, 385, 225, 448, 352
-0.98367, 233, 65, 264, 192
-0.983754, 241, 297, 304, 357
-0.983862, 233, 129, 296, 192
-0.983945, 201, 273, 264, 336
-0.98399, 213, 65, 244, 192
-0.984234, 209, 265, 336, 328
-0.984255, 337, 225, 400, 352
-0.984428, 317, 289, 348, 352
-0.984461, 289, 273, 320, 336
-0.984496, 89, 225, 120, 352
-0.984653, 145, 249, 272, 312
-0.984728, 309, 209, 340, 336
-0.984826, 121, 225, 152, 352
-0.985002, 33, 273, 160, 336
-0.98509, 33, 249, 160, 312
-0.98525, 177, 257, 208, 320
-0.985365, 89, 241, 120, 304
-0.985409, 81, 209, 208, 272
-0.985411, 117, 233, 148, 296
-0.985486, 293, 249, 324, 312
-0.98556, 353, 249, 480, 312
-0.985598, 173, 201, 204, 264
-0.985719, 169, 161, 200, 288
-0.985829, 209, 105, 336, 168
-0.985854, 221, 129, 252, 256
-0.98588, 193, 33, 256, 96
-0.985978, 353, 241, 416, 304
-0.986334, 217, 1, 280, 256
-0.986365, 169, 1, 232, 357
-0.986382, 305, 201, 368, 264
-0.986479, 161, 193, 192, 256
-0.986496, 205, 129, 236, 192
-0.986533, 137, 89, 200, 152
-0.986533, 145, 225, 176, 288
-0.986622, 233, 153, 264, 216
-0.986629, 297, 249, 360, 312
-0.986637, 273, 289, 304, 352
-0.986697, 241, 17, 368, 144
-0.986757, 133, 209, 164, 336
-0.986773, 113, 113, 240, 176
-0.986775, 209, 201, 272, 264
-0.986822, 161, 49, 288, 112
-0.986892, 77, 225, 108, 352
-0.986896, 417, 225, 480, 352
-0.986911, 193, 241, 320, 304
-0.986941, 217, 121, 248, 184
-0.986971, 225, 153, 352, 216
-0.987022, 105, 201, 168, 264
-0.987118, 177, 281, 208, 344
-0.987211, 81, 177, 144, 304
-0.987248, 209, 129, 336, 192
-0.987366, 225, 193, 352, 256
-0.987414, 137, 33, 200, 160
-0.987433, 185, 105, 248, 168
-0.987449, 189, 225, 220, 352
-0.987547, 209, 105, 272, 168
-0.987557, 33, 265, 96, 328
-0.987579, 233, 73, 296, 136
-0.987607, 129, 233, 160, 296
-0.98769, 49, 177, 176, 304
-0.987718, 265, 201, 328, 264
-0.987841, 209, 217, 336, 280
-0.987929, 201, 65, 232, 192
-0.987969, 105, 233, 136, 296
-0.987996, 17, 297, 144, 357
-0.988087, 185, 65, 216, 192
-0.98815, 273, 241, 336, 304
-0.988194, 81, 17, 208, 144
-0.988297, 233, 145, 264, 272
-0.988319, 273, 33, 336, 160
-0.988415, 49, 265, 80, 328
-0.988486, 453, 273, 484, 336
-0.988545, 101, 225, 132, 352
-0.988636, 61, 225, 92, 352
-0.988648, 129, 81, 256, 144
-0.988754, 193, 129, 224, 192
-0.988802, 81, 177, 208, 240
-0.988882, 249, 241, 312, 304
-0.988895, 45, 289, 76, 352
-0.98891, 289, 97, 352, 352
-0.988922, 165, 281, 196, 344
-0.989015, 273, 265, 400, 328
-0.989139, 189, 273, 220, 336
-0.989146, 257, 129, 320, 192
-0.989156, 57, 177, 120, 304
-0.98916, 193, 97, 256, 352
-0.989189, 265, 177, 328, 240
-0.989224, 185, 1, 248, 128
-0.989262, 129, 229, 192, 260
-0.989285, 289, 49, 416, 176
-0.989297, 1, 241, 500, 304
-0.989415, 221, 153, 252, 216
-0.989461, 169, 105, 200, 168
-0.989489, 245, 65, 276, 192
-0.989659, 329, 233, 392, 296
-0.989728, 77, 241, 108, 304
-0.98982, 241, 49, 304, 112
-0.989837, 257, 65, 288, 192
-0.989896, 249, 297, 280, 357
-0.9899, 153, 161, 184, 224
-0.989904, 177, 301, 240, 332
-0.989921, 265, 33, 328, 288
-0.990008, 181, 113, 212, 176
-0.990018, 193, 1, 256, 357
-0.990067, 265, 89, 328, 152
-0.990068, 337, 177, 464, 304
-0.990072, 193, 177, 224, 304
-0.990113, 1, 297, 256, 357
-0.990242, 209, 33, 336, 96
-0.99029, 369, 273, 496, 336
-0.990331, 433, 289, 496, 352
-0.990343, 185, 313, 248, 344
-0.990362, 209, 225, 240, 352
-0.990393, 217, 289, 248, 352
-0.990411, 161, 141, 224, 172
-0.990433, 253, 113, 284, 240
-0.990478, 317, 145, 348, 272
-0.990496, 241, 1, 304, 357
-0.9905, 177, 289, 240, 320
-0.990528, 169, 221, 232, 252
-0.990549, 289, 209, 416, 272
-0.990563, 169, 233, 232, 264
-0.990566, 281, 281, 344, 312
-0.990583, 169, 269, 232, 300
-0.990591, 265, 309, 328, 340
-0.990629, 193, 233, 256, 296
-0.990649, 97, 257, 224, 320
-0.990679, 113, 97, 176, 352
-0.990692, 281, 145, 344, 208
-0.990735, 9, 249, 72, 312
-0.990742, 425, 257, 456, 320
-0.990774, 225, 305, 288, 336
-0.990785, 441, 265, 472, 328
-0.990788, 81, 137, 208, 200
-0.990839, 257, 249, 500, 312
-0.990843, 221, 17, 252, 144
-0.990849, 97, 237, 160, 268
-0.99087, 253, 129, 284, 192
-0.990881, 289, 65, 352, 128
-0.990887, 17, 297, 80, 357
-0.990907, 161, 121, 224, 152
-0.990927, 33, 249, 288, 312
-0.991073, 145, 321, 208, 352
-0.991084, 201, 129, 264, 160
-0.991103, 273, 293, 336, 324
-0.991113, 145, 217, 208, 248
-0.991125, 209, 113, 240, 240
-0.99114, 145, 301, 208, 332
-0.991167, 145, 65, 208, 128
-0.991171, 217, 41, 280, 104
-0.991181, 157, 257, 188, 320
-0.991188, 169, 189, 232, 220
-0.991205, 161, 257, 224, 288
-0.991281, 185, 141, 248, 172
-0.991398, 57, 249, 120, 280
-0.99142, 81, 73, 208, 136
-0.99147, 233, 289, 296, 320
-0.991491, 285, 225, 316, 352
-0.991512, 297, 221, 360, 252
-0.991513, 1, 273, 256, 336
-0.991516, 229, 129, 260, 192
-0.991538, 129, 297, 384, 357
-0.991539, 225, 1, 480, 128
-0.991553, 281, 269, 344, 300
-0.991577, 169, 177, 232, 208
-0.99159, 129, 81, 384, 144
-0.991595, 177, 153, 208, 216
-0.99161, 145, 289, 208, 320
-0.991645, 225, 81, 352, 144
-0.991655, 321, 209, 352, 336
-0.991674, 137, 277, 200, 308
-0.991675, 129, 217, 384, 280
-0.991676, 233, 65, 264, 128
-0.991692, 201, 153, 264, 184
-0.991705, 385, 249, 448, 280
-0.991707, 161, 245, 224, 276
-0.991727, 265, 65, 328, 128
-0.991727, 81, 209, 144, 272
-0.991808, 177, 201, 240, 232
-0.991809, 169, 165, 232, 196
-0.991844, 33, 225, 96, 352
-0.991846, 233, 137, 296, 168
-0.99191, 281, 121, 344, 184
-0.991928, 181, 161, 212, 288
-0.991952, 269, 265, 300, 328
-0.991954, 149, 137, 180, 200
-0.991955, 257, 281, 320, 312
-0.991974, 137, 129, 200, 160
-0.991976, 209, 141, 272, 172
-0.991988, 181, 177, 212, 240
-0.992019, 409, 261, 472, 292
-0.992034, 33, 317, 96, 348
-0.99204, 269, 65, 300, 192
-0.99204, 241, 149, 304, 180
-0.992042, 129, 249, 192, 280
-0.992052, 41, 289, 104, 320
-0.992093, 177, 73, 240, 104
-0.992099, 201, 289, 264, 320
-0.992121, 201, 153, 232, 216
-0.99213, 49, 269, 112, 300
-0.992133, 121, 81, 184, 208
-0.992138, 1, 225, 64, 352
-0.99221, 129, 265, 192, 296
-0.99222, 393, 225, 424, 352
-0.992246, 225, 177, 256, 240
-0.992253, 217, 1, 280, 357
-0.992265, 161, 153, 224, 184
-0.992273, 193, 181, 256, 212
-0.992279, 213, 193, 244, 256
-0.992285, 73, 237, 136, 268
-0.992299, 137, 181, 200, 212
-0.992303, 169, 109, 232, 140
-0.992323, 425, 277, 488, 308
-0.992335, 33, 301, 96, 332
-0.992339, 313, 317, 376, 348
-0.992351, 257, 325, 320, 356
-0.992359, 209, 69, 272, 100
-0.992402, 361, 241, 424, 272
-0.992406, 249, 257, 312, 288
-0.992413, 185, 325, 248, 356
-0.99242, 209, 17, 240, 144
-0.992426, 113, 49, 240, 112
-0.99244, 241, 57, 368, 120
-0.992443, 129, 157, 192, 188
-0.992468, 177, 85, 240, 116
-0.992516, 217, 197, 280, 228
-0.992537, 193, 213, 256, 244
-0.992538, 137, 197, 200, 228
-0.992545, 433, 289, 496, 320
-0.992548, 289, 245, 352, 276
-0.99255, 157, 113, 188, 240
-0.992554, 201, 177, 232, 240
-0.992559, 209, 169, 272, 200
-0.992565, 337, 233, 400, 264
-0.992568, 257, 269, 320, 300
-0.992574, 185, 61, 248, 92
-0.992591, 289, 317, 352, 348
-0.992598, 297, 233, 360, 264
-0.992606, 217, 185, 280, 216
-0.992609, 201, 301, 264, 332
-0.99262, 129, 169, 192, 200
-0.99262, 157, 225, 188, 256
-0.992622, 257, 121, 384, 184
-0.992651, 129, 273, 384, 336
-0.992654, 297, 293, 360, 324
-0.992655, 145, 97, 208, 128
-0.992671, 217, 317, 280, 348
-0.992675, 193, 17, 224, 144
-0.992705, 145, 85, 208, 116
-0.992707, 173, 225, 204, 256
-0.992719, 173, 237, 204, 268
-0.992738, 1, 301, 64, 332
-0.992738, 265, 41, 328, 104
-0.992755, 265, 205, 328, 236
-0.992757, 121, 145, 184, 176
-0.992759, 65, 65, 192, 192
-0.992783, 313, 305, 376, 336
-0.992793, 465, 281, 496, 344
-0.992837, 137, 109, 200, 140
-0.992842, 189, 297, 220, 328
-0.992858, 177, 281, 208, 312
-0.992862, 65, 253, 96, 284
-0.992864, 165, 129, 196, 160
-0.992865, 129, 193, 384, 256
-0.992882, 289, 257, 352, 288
-0.992888, 9, 281, 72, 312
-0.992908, 289, 305, 352, 336
-0.992914, 17, 265, 80, 296
-0.992915, 129, 121, 384, 184
-0.992937, 233, 77, 296, 108
-0.992947, 173, 257, 204, 288
-0.992966, 241, 161, 304, 192
-0.992989, 129, 233, 160, 264
-0.992995, 313, 285, 344, 316
-0.993005, 109, 237, 140, 268
-0.993017, 289, 281, 320, 312
-0.993023, 229, 149, 260, 180
-0.993025, 177, 313, 304, 344
-0.993033, 305, 289, 336, 352
-0.993036, 257, 245, 320, 276
-0.99305, 145, 229, 176, 260
-0.993056, 305, 221, 336, 252
-0.993056, 105, 221, 168, 252
-0.993061, 193, 309, 224, 340
-0.993068, 453, 273, 484, 304
-0.993069, 249, 161, 280, 224
-0.993071, 77, 245, 108, 276
-0.993075, 1, 177, 128, 304
-0.993076, 233, 277, 296, 308
-0.993081, 185, 57, 216, 120
-0.993082, 257, 233, 320, 264
-0.993084, 89, 241, 120, 272
-0.993093, 273, 69, 336, 100
-0.993097, 173, 269, 204, 300
-0.993104, 273, 137, 336, 168
-0.993116, 241, 65, 304, 96
-0.993141, 377, 217, 440, 280
-0.993144, 201, 133, 232, 164
-0.993146, 241, 65, 304, 320
-0.993146, 213, 297, 244, 328
-0.993149, 297, 265, 328, 296
-0.993158, 205, 309, 236, 340
-0.993168, 225, 209, 288, 240
-0.99317, 177, 97, 240, 128
-0.993171, 45, 297, 76, 328
-0.993173, 313, 297, 344, 328
-0.993174, 193, 225, 256, 256
-0.993182, 265, 117, 328, 148
-0.993182, 17, 245, 80, 276
-0.993185, 177, 293, 208, 324
-0.993186, 177, 213, 208, 244
-0.993187, 401, 233, 464, 296
-0.993187, 313, 313, 344, 344
-0.993191, 129, 249, 384, 312
-0.993194, 433, 261, 464, 292
-0.993194, 145, 73, 208, 104
-0.993199, 241, 145, 272, 176
-0.993204, 145, 1, 208, 357
-0.993206, 169, 141, 200, 172
-0.993207, 169, 309, 200, 340
-0.993232, 241, 177, 304, 208
-0.993232, 281, 293, 312, 324
-0.993237, 165, 213, 196, 244
-0.993238, 173, 321, 204, 352
-0.993241, 221, 129, 252, 160
-0.993241, 209, 145, 240, 176
-0.993251, 185, 49, 248, 80
-0.993252, 185, 257, 248, 288
-0.99326, 49, 285, 80, 316
-0.99326, 169, 117, 200, 148
-0.993262, 269, 317, 300, 348
-0.993263, 213, 177, 244, 208
-0.993265, 313, 281, 376, 312
-0.993267, 313, 193, 344, 256
-0.993269, 425, 241, 488, 272
-0.993275, 221, 197, 252, 228
-0.993278, 153, 161, 184, 192
-0.993279, 153, 129, 184, 160
-0.993291, 37, 321, 68, 352
-0.993292, 261, 285, 292, 316
-0.993297, 229, 305, 260, 336
-0.993298, 57, 265, 88, 296
-0.993309, 225, 29, 288, 60
-0.993312, 409, 249, 440, 280
-0.993317, 289, 81, 352, 112
-0.993325, 273, 221, 336, 252
-0.993328, 41, 309, 72, 340
-0.993329, 285, 249, 316, 280
-0.993336, 209, 201, 240, 232
-0.993339, 213, 213, 244, 244
-0.993339, 209, 117, 272, 148
-0.993339, 193, 277, 256, 308
-0.99334, 217, 313, 248, 344
-0.993342, 165, 293, 196, 324
-0.993342, 1, 265, 500, 328
-0.993344, 301, 305, 332, 336
-0.993349, 189, 261, 220, 292
-0.993349, 277, 305, 308, 336
-0.99335, 269, 273, 300, 304
-0.993352, 233, 69, 264, 100
-0.993356, 157, 245, 188, 276
-0.993359, 265, 149, 328, 180
-0.993366, 249, 133, 280, 164
-0.993366, 265, 1, 328, 357
-0.993368, 229, 169, 260, 200
-0.993369, 1, 321, 64, 352
-0.993371, 233, 125, 296, 156
-0.993377, 421, 253, 452, 284
-0.993383, 189, 137, 220, 168
-0.993386, 249, 157, 280, 188
-0.993388, 169, 153, 200, 184
-0.993389, 177, 185, 208, 216
-0.99339, 185, 245, 248, 276
-0.993391, 161, 281, 192, 312
-0.993392, 157, 173, 188, 204
-0.993392, 325, 321, 356, 352
-0.993398, 305, 197, 368, 228
-0.993407, 149, 145, 180, 176
-0.993407, 193, 273, 224, 304
-0.993409, 209, 81, 272, 112
-0.99341, 197, 129, 228, 256
-0.99341, 433, 265, 496, 296
-0.993412, 389, 245, 420, 276
-0.993415, 469, 289, 500, 320
-0.993416, 225, 213, 256, 244
-0.993419, 201, 33, 264, 64
-0.99342, 181, 201, 212, 232
-0.993425, 253, 301, 284, 332
-0.993432, 233, 189, 264, 220
-0.993432, 249, 37, 312, 68
-0.993442, 297, 245, 328, 276
-0.993442, 113, 1, 176, 357
-0.993445, 193, 321, 224, 352
-0.993445, 189, 73, 220, 104
-0.99345, 157, 269, 188, 300
-0.993458, 181, 125, 212, 156
-0.993458, 201, 293, 232, 324
-0.993461, 273, 93, 336, 124
-0.993463, 177, 173, 208, 204
-0.993466, 289, 153, 352, 184
-0.993467, 377, 241, 408, 272
-0.99347, 161, 201, 192, 232
-0.993475, 157, 257, 188, 288
-0.99348, 325, 293, 356, 324
-0.993481, 297, 293, 328, 324
-0.993481, 209, 161, 240, 192
-0.993498, 153, 213, 184, 244
-0.993499, 273, 225, 304, 352
-0.9935, 193, 225, 224, 256
-0.993506, 133, 217, 164, 248
-0.993506, 273, 261, 304, 292
-0.993509, 189, 149, 220, 180
-0.99351, 285, 237, 316, 268
-0.993518, 157, 185, 188, 216
-0.99352, 201, 189, 232, 220
-0.993541, 313, 325, 344, 356
-0.993541, 257, 81, 320, 112
-0.993548, 113, 129, 176, 160
-0.99355, 225, 293, 256, 324
-0.993556, 177, 81, 208, 112
-0.993558, 209, 65, 240, 96
-0.993559, 361, 237, 392, 268
-0.99356, 285, 261, 316, 292
-0.993563, 117, 221, 148, 252
-0.993565, 105, 313, 168, 344
-0.993567, 149, 117, 180, 148
-0.993568, 221, 69, 252, 100
-0.993569, 273, 173, 336, 204
-0.993575, 457, 285, 488, 316
-0.993576, 241, 129, 272, 192
-0.993577, 145, 61, 208, 92
-0.993578, 1, 225, 256, 288
-0.993586, 301, 317, 332, 348
-0.993587, 209, 121, 240, 152
-0.993587, 345, 233, 376, 264
-0.993588, 289, 105, 352, 136
-0.993589, 301, 233, 332, 264
-0.993589, 321, 225, 352, 256
-0.99359, 177, 93, 208, 124
-0.993591, 253, 145, 284, 176
-0.993594, 145, 301, 176, 332
-0.993596, 185, 113, 216, 144
-0.993596, 77, 233, 108, 264
-0.993596, 45, 273, 76, 304
-0.993598, 105, 225, 136, 256
-0.993598, 233, 201, 264, 232
-0.993602, 201, 177, 232, 208
-0.993604, 257, 325, 288, 356
-0.993604, 289, 97, 352, 160
-0.993612, 249, 169, 280, 200
-0.993623, 233, 133, 264, 164
-0.993627, 189, 213, 220, 244
-0.993627, 217, 225, 248, 256
-0.99366, 305, 161, 336, 288
-0.993706, 129, 161, 384, 224
-0.993721, 81, 233, 208, 264
-0.993728, 281, 65, 312, 192
-0.993752, 297, 65, 360, 192
-0.993756, 281, 241, 312, 304
-0.993792, 305, 249, 336, 312
-0.993797, 1, 289, 500, 352
-0.993827, 133, 161, 164, 288
-0.993839, 233, 17, 264, 144
-0.993846, 133, 209, 164, 272
-0.993916, 197, 41, 228, 104
-0.993925, 409, 249, 440, 312
-0.993974, 57, 225, 120, 288
-0.994073, 189, 249, 220, 312
-0.994084, 213, 65, 244, 128
-0.99412, 121, 257, 184, 320
-0.994207, 221, 225, 252, 352
-0.994212, 289, 1, 352, 357
-0.994214, 345, 225, 376, 352
-0.994228, 345, 177, 408, 304
-0.994229, 269, 113, 300, 240
-0.994287, 209, 41, 240, 104
-0.99432, 161, 301, 288, 332
-0.994473, 257, 153, 320, 216
-0.994505, 229, 289, 260, 352
-0.994519, 161, 41, 224, 104
-0.99455, 229, 41, 260, 104
-0.994565, 425, 225, 456, 352
-0.994679, 145, 145, 272, 176
-0.994719, 129, 25, 256, 88
-0.99473, 209, 177, 240, 304
-0.994743, 385, 241, 416, 304
-0.994748, 113, 129, 176, 192
-0.994792, 305, 297, 432, 357
-0.994823, 185, 81, 216, 144
-0.994834, 317, 225, 348, 288
-0.994858, 401, 177, 464, 304
-0.9949, 161, 325, 288, 356
-0.994969, 145, 225, 272, 256
-0.994972, 273, 97, 400, 160
-0.994974, 177, 225, 192, 288
-0.99498, 1, 273, 64, 336
-0.995016, 171, 121, 186, 184
-0.99503, 117, 177, 148, 304
-0.995044, 209, 297, 336, 328
-0.995082, 1, 217, 128, 280
-0.995103, 65, 113, 192, 176
-0.995119, 57, 97, 120, 352
-0.995173, 93, 177, 124, 304
-0.995206, 105, 177, 136, 304
-0.995233, 373, 225, 404, 352
-0.995256, 405, 225, 436, 352
-0.99531, 313, 65, 376, 320
-0.995392, 121, 209, 152, 272
-0.995426, 257, 273, 288, 336
-0.995457, 225, 281, 480, 344
-0.995464, 145, 157, 272, 188
-0.995466, 65, 177, 96, 304
-0.995468, 353, 209, 416, 272
-0.995533, 49, 225, 80, 352
-0.995543, 25, 225, 88, 288
-0.995578, 181, 201, 196, 264
-0.995651, 237, 185, 268, 248
-0.995676, 173, 185, 188, 248
-0.995678, 289, 73, 416, 136
-0.995681, 65, 245, 192, 276
-0.9957, 361, 233, 392, 296
-0.995707, 253, 17, 284, 144
-0.995737, 1, 217, 500, 280
-0.995754, 197, 73, 228, 136
-0.995758, 241, 25, 304, 88
-0.995768, 149, 201, 180, 264
-0.995782, 225, 225, 480, 288
-0.995797, 193, 289, 208, 352
-0.995804, 161, 133, 288, 164
-0.995804, 73, 217, 104, 280
-0.995807, 257, 225, 288, 352
-0.99581, 129, 57, 384, 120
-0.99586, 337, 225, 464, 288
-0.995921, 241, 321, 368, 352
-0.99593, 161, 289, 288, 320
-0.995943, 97, 209, 128, 272
-0.996015, 189, 201, 220, 264
-0.996039, 145, 181, 272, 212
-0.996044, 33, 129, 288, 192
-0.996047, 161, 213, 288, 244
-0.996067, 65, 297, 192, 357
-0.996079, 71, 249, 86, 312
-0.996098, 169, 225, 184, 288
-0.9961, 245, 49, 276, 112
-0.996107, 177, 77, 304, 108
-0.996107, 305, 185, 432, 248
-0.996113, 265, 137, 296, 200
-0.996154, 193, 105, 224, 168
-0.996175, 397, 241, 428, 304
-0.996218, 63, 257, 78, 320
-0.996242, 47, 289, 62, 352
-0.996251, 261, 65, 292, 128
-0.996255, 55, 273, 70, 336
-0.996284, 305, 177, 368, 240
-0.996285, 209, 241, 240, 304
-0.996328, 225, 309, 352, 340
-0.996337, 93, 241, 108, 304
-0.996339, 329, 145, 360, 272
-0.996341, 121, 233, 136, 296
-0.996341, 209, 129, 224, 192
-0.996379, 273, 145, 400, 208
-0.996423, 333, 209, 364, 336
-0.99643, 113, 297, 240, 328
-0.996436, 269, 17, 300, 144
-0.996437, 145, 241, 272, 272
-0.996445, 361, 225, 392, 352
-0.996497, 309, 217, 324, 280
-0.996504, 85, 217, 116, 280
-0.996521, 151, 225, 166, 288
-0.996532, 449, 225, 480, 352
-0.996558, 193, 277, 320, 308
-0.99659, 425, 233, 488, 296
-0.996594, 145, 277, 272, 308
-0.996607, 181, 297, 196, 357
-0.996611, 285, 289, 300, 352
-0.996617, 145, 169, 272, 200
-0.996628, 299, 257, 314, 320
-0.996639, 217, 97, 280, 352
-0.996656, 223, 289, 238, 352
-0.996659, 293, 273, 308, 336
-0.996662, 115, 233, 130, 296
-0.996689, 109, 209, 140, 272
-0.996704, 235, 153, 250, 216
-0.996705, 317, 289, 332, 352
-0.996709, 145, 161, 176, 288
-0.99671, 289, 233, 416, 264
-0.996726, 323, 281, 338, 344
-0.996732, 257, 297, 384, 328
-0.996734, 187, 273, 202, 336
-0.996739, 173, 97, 204, 352
-0.996753, 313, 1, 376, 357
-0.996779, 329, 289, 392, 352
-0.99678, 33, 285, 160, 316
-0.996787, 217, 281, 232, 344
-0.996803, 127, 233, 142, 296
-0.996806, 217, 121, 232, 184
-0.996809, 245, 73, 276, 136
-0.996814, 33, 169, 288, 232
-0.996824, 169, 161, 184, 224
-0.996825, 329, 201, 392, 264
-0.99683, 141, 233, 156, 296
-0.996834, 211, 281, 226, 344
-0.996836, 133, 233, 148, 296
-0.996839, 105, 241, 120, 304
-0.996844, 233, 105, 296, 168
-0.99685, 193, 9, 320, 72
-0.99686, 279, 297, 294, 357
-0.996873, 33, 177, 96, 304
-0.996891, 183, 225, 198, 288
-0.996892, 49, 257, 176, 288
-0.996902, 161, 225, 176, 288
-0.996903, 99, 241, 114, 304
-0.996908, 145, 253, 272, 284
-0.996912, 225, 201, 256, 264
-0.996924, 77, 249, 92, 312
-0.996931, 221, 177, 252, 304
-0.996945, 165, 161, 196, 224
-0.996958, 305, 241, 320, 304
-0.996968, 169, 81, 200, 144
-0.996971, 57, 1, 120, 357
-0.996997, 145, 121, 272, 152
-0.997012, 17, 325, 144, 356
-0.997015, 161, 65, 288, 96
-0.997019, 33, 97, 288, 160
-0.997031, 83, 249, 98, 312
-0.99705, 193, 265, 320, 296
-0.997075, 257, 285, 384, 316
-0.997076, 245, 145, 260, 208
-0.997093, 233, 129, 248, 192
-0.997097, 161, 105, 288, 136
-0.997104, 199, 297, 214, 357
-0.99712, 145, 265, 272, 296
-0.997141, 97, 221, 224, 252
-0.997154, 233, 193, 264, 320
-0.997165, 277, 137, 308, 200
-0.997213, 179, 249, 194, 312
-0.997219, 209, 137, 336, 168
-0.997222, 33, 73, 288, 136
-0.997223, 315, 201, 330, 264
-0.99724, 225, 121, 240, 184
-0.997247, 181, 221, 196, 252
-0.997257, 209, 217, 336, 248
-0.997279, 225, 153, 352, 184
-0.997287, 273, 49, 304, 112
-0.997289, 77, 177, 108, 304
-0.99731, 291, 249, 306, 312
-0.997316, 177, 137, 192, 200
-0.997316, 21, 289, 52, 352
-0.997317, 177, 97, 192, 160
-0.997328, 113, 309, 240, 340
-0.997338, 201, 137, 216, 200
-0.997363, 453, 265, 468, 328
-0.99738, 317, 65, 348, 192
-0.997391, 33, 273, 160, 304
-0.997394, 97, 325, 224, 356
-0.997405, 175, 281, 190, 344
-0.997422, 33, 193, 288, 256
-0.997433, 337, 249, 464, 280
-0.997438, 469, 281, 484, 344
-0.997449, 273, 221, 400, 252
-0.997464, 113, 133, 240, 164
-0.997466, 177, 89, 304, 120
-0.997494, 205, 105, 236, 168
-0.997501, 157, 97, 188, 352
-0.997511, 209, 121, 336, 152
-0.997516, 169, 225, 184, 256
-0.997533, 145, 197, 272, 228
-0.997546, 149, 105, 180, 168
-0.997549, 89, 97, 152, 352
-0.997564, 169, 49, 200, 176
-0.997565, 299, 233, 314, 296
-0.997588, 169, 249, 184, 312
-0.997595, 241, 273, 368, 304
-0.997609, 321, 193, 336, 256
-0.997614, 203, 273, 218, 336
-0.997627, 373, 233, 404, 296
-0.997633, 17, 297, 144, 328
-0.997634, 353, 261, 480, 292
-0.997651, 285, 257, 300, 320
-0.997654, 329, 289, 344, 352
-0.99767, 89, 1, 152, 357
-0.997674, 461, 273, 476, 336
-0.997682, 257, 97, 500, 160
-0.997705, 229, 153, 244, 216
-0.997719, 225, 1, 256, 256
-0.997725, 229, 289, 244, 352
-0.997729, 475, 289, 490, 352
-0.997736, 193, 253, 320, 284
-0.997741, 285, 161, 316, 288
-0.997746, 439, 257, 454, 320
-0.99775, 245, 121, 260, 184
-0.997764, 33, 297, 64, 357
-0.997765, 445, 265, 460, 328
-0.997772, 193, 237, 320, 268
-0.997779, 17, 313, 144, 344
-0.997785, 41, 297, 56, 357
-0.9978, 239, 129, 254, 192
-0.997802, 185, 65, 216, 320
-0.997804, 313, 293, 328, 324
-0.997809, 193, 225, 224, 288
-0.997815, 205, 1, 236, 256
-0.99782, 171, 125, 186, 156
-0.997824, 369, 273, 496, 304
-0.997843, 227, 177, 242, 240
-0.997859, 1, 49, 256, 112
-0.997874, 81, 281, 208, 312
-0.997879, 187, 65, 202, 128
-0.99788, 425, 249, 440, 312
-0.99788, 345, 233, 376, 296
-0.997883, 337, 1, 400, 357
-0.997886, 233, 209, 296, 272
-0.997886, 165, 137, 180, 200
-0.997891, 215, 153, 230, 216
-0.997894, 255, 129, 270, 192
-0.997897, 167, 201, 182, 264
-0.997907, 309, 145, 340, 208
-0.997909, 129, 1, 256, 64
-0.997917, 225, 169, 352, 200
-0.997919, 235, 65, 250, 128
-0.997926, 175, 221, 190, 252
-0.997932, 321, 273, 448, 336
-0.997948, 223, 201, 238, 264
-0.997957, 221, 145, 236, 208
-0.997961, 311, 281, 326, 344
-0.998004, 97, 121, 224, 152
-0.998014, 193, 241, 208, 304
-0.998015, 97, 145, 224, 176
-0.998016, 227, 57, 242, 120
-0.998038, 197, 49, 212, 112
-0.998039, 237, 33, 252, 96
-0.99804, 145, 297, 160, 357
-0.99804, 321, 217, 336, 280
-0.998055, 273, 281, 288, 344
-0.998056, 1, 81, 500, 144
-0.998058, 273, 257, 400, 288
-0.998058, 257, 65, 500, 128
-0.998065, 209, 109, 336, 140
-0.998068, 69, 253, 84, 284
-0.99807, 133, 233, 148, 264
-0.998074, 323, 281, 338, 312
-0.998075, 141, 209, 156, 272
-0.998078, 209, 205, 336, 236
-0.998083, 217, 249, 280, 312
-0.998087, 109, 217, 124, 280
-0.998088, 369, 177, 432, 304
-0.998092, 97, 93, 224, 124
-0.998093, 433, 257, 448, 320
-0.998096, 401, 241, 416, 304
-0.998097, 207, 105, 222, 168
-0.998106, 81, 205, 208, 236
-0.998106, 279, 273, 294, 336
-0.998123, 433, 233, 464, 296
-0.998124, 101, 217, 116, 280
-0.998127, 97, 81, 224, 112
-0.998131, 175, 205, 190, 236
-0.998136, 113, 105, 176, 168
-0.998137, 217, 177, 232, 240
-0.998143, 101, 241, 116, 272
-0.998143, 79, 249, 94, 280
-0.998151, 81, 225, 96, 288
-0.998157, 209, 181, 336, 212
-0.998163, 171, 145, 186, 176
-0.998175, 485, 297, 500, 357
-0.998181, 81, 177, 208, 208
-0.998181, 151, 229, 166, 260
-0.998181, 113, 237, 128, 268
-0.998185, 187, 201, 202, 264
-0.998186, 249, 65, 264, 128
-0.998187, 239, 185, 254, 248
-0.998193, 181, 273, 196, 336
-0.998193, 259, 297, 274, 357
-0.998197, 329, 289, 360, 352
-0.998202, 267, 325, 282, 356
-0.998204, 97, 33, 352, 96
-0.998209, 123, 209, 138, 272
-0.99821, 91, 245, 106, 276
-0.998213, 315, 305, 330, 336
-0.998222, 241, 65, 256, 128
-0.998227, 75, 225, 90, 288
-0.998228, 139, 233, 154, 264
-0.99823, 277, 305, 292, 336
-0.998233, 135, 209, 150, 272
-0.998234, 409, 249, 424, 312
-0.998235, 235, 289, 250, 352
-0.998241, 183, 177, 198, 240
-0.998245, 129, 209, 144, 272
-0.998247, 183, 121, 198, 184
-0.998251, 189, 293, 204, 324
-0.998254, 97, 269, 224, 300
-0.998256, 221, 57, 236, 120
-0.998257, 119, 237, 134, 268
-0.998257, 271, 313, 286, 344
-0.998265, 269, 129, 284, 192
-0.998271, 261, 129, 276, 192
-0.998274, 321, 305, 336, 336
-0.99828, 147, 201, 162, 264
-0.998284, 149, 137, 180, 152
-0.998285, 157, 281, 188, 296
-0.998286, 293, 249, 324, 264
-0.998287, 277, 273, 308, 288
-0.998288, 189, 269, 220, 284
-0.998289, 245, 161, 276, 288
-0.998289, 157, 181, 188, 196
-0.998289, 193, 277, 224, 292
-0.998289, 201, 149, 232, 164
-0.998289, 469, 297, 500, 312
-0.99829, 157, 249, 188, 264
-0.99829, 297, 269, 328, 284
-0.998291, 209, 179, 240, 194
-0.998293, 461, 289, 492, 304
-0.998293, 193, 331, 224, 346
-0.998293, 249, 161, 280, 176
-0.998294, 169, 169, 200, 184
-0.998294, 217, 191, 248, 206
-0.998295, 161, 289, 192, 304
-0.998296, 169, 161, 200, 176
-0.998297, 381, 243, 412, 258
-0.998298, 293, 275, 324, 290
-0.998299, 149, 155, 180, 170
-0.998299, 177, 87, 208, 102
-0.998299, 61, 261, 76, 292
-0.998299, 229, 177, 260, 192
-0.9983, 301, 263, 332, 278
-0.998301, 301, 311, 332, 326
-0.998301, 425, 261, 456, 276
-0.998303, 37, 323, 68, 338
-0.998303, 157, 243, 188, 258
-0.998303, 161, 295, 192, 310
-0.998304, 317, 325, 348, 340
-0.998304, 453, 281, 484, 296
-0.998305, 229, 211, 260, 226
-0.998305, 169, 273, 184, 336
-0.998307, 145, 297, 176, 357
-0.998307, 189, 149, 220, 164
-0.998308, 177, 181, 208, 196
-0.998308, 273, 283, 304, 298
-0.998308, 197, 305, 228, 320
-0.998309, 305, 295, 336, 310
-0.998309, 201, 143, 232, 158
-0.998309, 169, 151, 200, 166
-0.998309, 153, 131, 184, 146
-0.998311, 229, 159, 260, 174
-0.998311, 281, 301, 312, 316
-0.998312, 217, 211, 248, 226
-0.998312, 365, 239, 396, 254
-0.998312, 169, 309, 200, 324
-0.998312, 153, 175, 184, 190
-0.998313, 177, 341, 208, 356
-0.998314, 189, 81, 220, 96
-0.998314, 207, 41, 222, 104
-0.998314, 265, 289, 296, 304
-0.998315, 157, 233, 188, 248
-0.998315, 253, 149, 284, 164
-0.998315, 277, 307, 308, 322
-0.998316, 177, 191, 208, 206
-0.998316, 273, 315, 304, 330
-0.998316, 187, 89, 202, 152
-0.998317, 393, 247, 424, 262
-0.998317, 177, 335, 208, 350
-0.998317, 41, 311, 72, 326
-0.998319, 149, 161, 180, 176
-0.998319, 41, 317, 72, 332
-0.998319, 445, 271, 476, 286
-0.998319, 189, 321, 220, 336
-0.998321, 201, 137, 232, 152
-0.998322, 323, 317, 338, 348
-0.998322, 215, 309, 230, 340
-0.998323, 269, 323, 300, 338
-0.998323, 285, 295, 316, 310
-0.998323, 165, 301, 196, 316
-0.998323, 221, 145, 252, 160
-0.998325, 193, 337, 224, 352
-0.998326, 261, 339, 292, 354
-0.998328, 265, 331, 296, 346
-0.998328, 169, 315, 200, 330
-0.99833, 185, 209, 200, 240
-0.99833, 437, 265, 468, 280
-0.99833, 33, 329, 64, 344
-0.99833, 205, 297, 220, 357
-0.998331, 49, 291, 80, 306
-0.998331, 57, 273, 88, 288
-0.998332, 285, 255, 316, 270
-0.998334, 257, 41, 288, 104
-0.998334, 53, 283, 84, 298
-0.998334, 153, 169, 184, 184
-0.998334, 173, 321, 204, 336
-0.998335, 61, 265, 92, 280
-0.998335, 211, 177, 226, 240
-0.998335, 283, 293, 298, 324
-0.998335, 241, 147, 272, 162
-0.998336, 33, 337, 64, 352
-0.998339, 45, 297, 76, 312
-0.998339, 173, 329, 204, 344
-0.99834, 327, 185, 342, 248
-0.99834, 181, 217, 212, 232
-0.998342, 169, 125, 200, 140
-0.998343, 225, 309, 256, 324
-0.998347, 169, 145, 200, 160
-0.998348, 313, 313, 344, 328
-0.998349, 289, 289, 320, 304
-0.998352, 317, 295, 348, 310
-0.998352, 65, 257, 96, 272
-0.998353, 293, 281, 324, 296
-0.998354, 309, 223, 340, 238
-0.998358, 45, 303, 76, 318
-0.998358, 245, 145, 260, 176
-0.998358, 213, 303, 244, 318
-0.998358, 221, 203, 252, 218
-0.99836, 375, 233, 390, 296
-0.998367, 185, 137, 216, 152
-0.998372, 1, 121, 500, 184
-0.998376, 109, 239, 140, 254
-0.998378, 85, 245, 116, 260
-0.998379, 419, 249, 434, 312
-0.998381, 309, 301, 340, 316
-0.998381, 81, 165, 208, 196
-0.998382, 161, 221, 192, 236
-0.998385, 305, 121, 432, 184
-0.998386, 409, 251, 440, 266
-0.998387, 275, 137, 290, 200
-0.998392, 189, 143, 220, 158
-0.998395, 133, 233, 164, 248
-0.998395, 223, 301, 238, 332
-0.998401, 217, 201, 232, 264
-0.998403, 173, 255, 204, 270
-0.998403, 173, 245, 204, 260
-0.998404, 173, 273, 204, 288
-0.998405, 201, 311, 232, 326
-0.998406, 177, 283, 208, 298
-0.998407, 185, 281, 200, 312
-0.998407, 181, 73, 196, 136
-0.998408, 173, 267, 204, 282
-0.998412, 325, 193, 356, 256
-0.998414, 69, 251, 100, 266
-0.998417, 173, 261, 204, 276
-0.998417, 87, 225, 102, 288
-0.998417, 121, 237, 152, 252
-0.998418, 95, 217, 110, 280
-0.998419, 189, 315, 220, 330
-0.998421, 317, 319, 348, 334
-0.998422, 107, 237, 122, 268
-0.998424, 311, 217, 326, 248
-0.998426, 183, 309, 198, 340
-0.998426, 313, 287, 344, 302
-0.998427, 155, 201, 170, 264
-0.998428, 207, 129, 222, 160
-0.998428, 233, 153, 264, 168
-0.998431, 51, 285, 66, 316
-0.998432, 97, 241, 128, 256
-0.998432, 145, 231, 176, 246
-0.998433, 177, 289, 208, 304
-0.998433, 55, 273, 70, 304
-0.998434, 165, 131, 196, 146
-0.998435, 173, 239, 204, 254
-0.998436, 409, 225, 440, 288
-0.998436, 177, 233, 192, 264
-0.998436, 115, 209, 130, 272
-0.998437, 213, 313, 244, 328
-0.998438, 157, 229, 172, 260
-0.998441, 127, 233, 142, 264
-0.998443, 295, 245, 310, 276
-0.998446, 267, 289, 282, 352
-0.998448, 185, 305, 216, 320
-0.998448, 81, 105, 208, 136
-0.99845, 239, 149, 254, 180
-0.998464, 293, 81, 324, 208
-0.998464, 177, 233, 208, 248
-0.998465, 177, 223, 208, 238
-0.998465, 187, 321, 202, 352
-0.998466, 129, 231, 192, 246
-0.998467, 195, 313, 210, 344
-0.998469, 181, 297, 212, 312
-0.998471, 241, 81, 368, 112
-0.998473, 225, 61, 352, 92
-0.998475, 169, 139, 200, 154
-0.998482, 237, 33, 268, 288
-0.998487, 297, 269, 312, 300
-0.998494, 85, 245, 100, 276
-0.998507, 317, 317, 332, 348
-0.998508, 291, 281, 306, 312
-0.998509, 177, 309, 240, 324
-0.998512, 47, 297, 62, 328
-0.998513, 145, 229, 160, 260
-0.998515, 35, 325, 50, 356
-0.998518, 169, 173, 184, 204
-0.99852, 281, 285, 344, 300
-0.998526, 225, 309, 288, 324
-0.998531, 225, 201, 240, 232
-0.998531, 225, 313, 240, 344
-0.998533, 225, 193, 352, 224
-0.998535, 161, 227, 192, 242
-0.998535, 447, 265, 462, 296
-0.998538, 179, 297, 194, 328
-0.998541, 273, 299, 336, 314
-0.99855, 265, 315, 328, 330
-0.998551, 163, 225, 178, 256
-0.998552, 329, 317, 344, 348
-0.998553, 211, 145, 226, 176
-0.998554, 137, 41, 200, 104
-0.998554, 289, 41, 352, 104
-0.998556, 169, 277, 232, 292
-0.998558, 169, 239, 232, 254
-0.998563, 97, 69, 224, 100
-0.998563, 231, 309, 246, 340
-0.998563, 169, 225, 232, 240
-0.998564, 153, 141, 216, 156
-0.998565, 161, 269, 224, 284
-0.998569, 177, 303, 240, 318
-0.998569, 43, 309, 58, 340
-0.998573, 145, 225, 208, 240
-0.998574, 203, 305, 218, 336
-0.998577, 97, 237, 160, 252
-0.998578, 81, 193, 208, 224
-0.998579, 233, 303, 296, 318
-0.998586, 319, 293, 334, 324
-0.998588, 169, 283, 232, 298
-0.998588, 273, 245, 400, 276
-0.998589, 471, 281, 486, 312
-0.998589, 145, 311, 208, 326
-0.998591, 273, 293, 336, 308
-0.998592, 217, 125, 232, 156
-0.998593, 177, 295, 240, 310
-0.998593, 161, 263, 224, 278
-0.998594, 219, 201, 234, 232
-0.998596, 177, 315, 240, 330
-0.998599, 169, 233, 232, 248
-0.998602, 153, 131, 216, 146
-0.998604, 169, 289, 232, 304
-0.998604, 153, 149, 216, 164
-0.998605, 169, 219, 232, 234
-0.998606, 161, 157, 224, 172
-0.998606, 453, 269, 468, 300
-0.998607, 145, 327, 208, 342
-0.998609, 145, 317, 208, 332
-0.99861, 193, 33, 320, 64
-0.998611, 161, 257, 224, 272
-0.998613, 177, 133, 192, 164
-0.998613, 201, 145, 216, 176
-0.998614, 179, 269, 194, 300
-0.998618, 453, 249, 484, 312
-0.998618, 481, 297, 496, 328
-0.998619, 129, 237, 192, 252
-0.998619, 201, 157, 264, 172
-0.998619, 273, 305, 336, 320
-0.99862, 161, 125, 224, 140
-0.998627, 169, 193, 232, 208
-0.998627, 201, 151, 264, 166
-0.998628, 169, 179, 232, 194
-0.998628, 281, 279, 344, 294
-0.998631, 169, 187, 232, 202
-0.998631, 177, 321, 240, 336
-0.998633, 161, 163, 224, 178
-0.998634, 465, 277, 480, 308
-0.998638, 201, 311, 264, 326
-0.998639, 65, 251, 128, 266
-0.99864, 137, 217, 200, 232
-0.998641, 153, 333, 216, 348
-0.998642, 161, 251, 224, 266
-0.998643, 185, 143, 248, 158
-0.998646, 161, 245, 224, 260
-0.998646, 153, 295, 216, 310
-0.998649, 233, 295, 296, 310
-0.998649, 57, 261, 120, 276
-0.998649, 153, 305, 216, 320
-0.99865, 265, 321, 328, 336
-0.998652, 177, 137, 240, 152
-0.998653, 201, 303, 264, 318
-0.998653, 241, 153, 304, 168
-0.998654, 153, 339, 216, 354
-0.998655, 257, 333, 320, 348
-0.998656, 49, 277, 112, 292
-0.998657, 297, 227, 360, 242
-0.998657, 25, 339, 88, 354
-0.998658, 33, 321, 96, 336
-0.998661, 313, 281, 328, 312
-0.998663, 89, 243, 152, 258
-0.998664, 299, 233, 314, 264
-0.998666, 129, 249, 192, 264
-0.998666, 41, 295, 104, 310
-0.998667, 313, 319, 376, 334
-0.998667, 289, 321, 352, 336
-0.998667, 439, 261, 454, 292
-0.998668, 201, 181, 264, 196
-0.998669, 49, 267, 112, 282
-0.99867, 185, 341, 248, 356
-0.99867, 25, 327, 88, 342
-0.99867, 129, 271, 192, 286
-0.998671, 145, 289, 208, 304
-0.998672, 241, 289, 304, 304
-0.998672, 289, 317, 416, 348
-0.998672, 33, 315, 96, 330
-0.998673, 169, 173, 232, 188
-0.998673, 41, 283, 104, 298
-0.998673, 301, 257, 316, 288
-0.998673, 145, 279, 208, 294
-0.998674, 177, 213, 240, 228
-0.998674, 129, 243, 192, 258
-0.998674, 185, 335, 248, 350
-0.998675, 257, 283, 320, 298
-0.998675, 17, 267, 80, 282
-0.998676, 177, 203, 240, 218
-0.998676, 137, 185, 200, 200
-0.998676, 33, 301, 96, 316
-0.998677, 257, 327, 320, 342
-0.998678, 177, 101, 240, 116
-0.998678, 129, 259, 192, 274
-0.998678, 175, 285, 190, 316
-0.998679, 25, 333, 88, 348
-0.998679, 129, 159, 192, 174
-0.998679, 377, 251, 440, 266
-0.99868, 209, 341, 272, 356
-0.99868, 9, 283, 72, 298
-0.998681, 41, 289, 104, 304
-0.998682, 241, 147, 304, 162
-0.998683, 185, 327, 248, 342
-0.998683, 169, 119, 232, 134
-0.998685, 337, 237, 400, 252
-0.998686, 193, 131, 256, 146
-0.998687, 225, 159, 288, 174
-0.998687, 209, 145, 272, 160
-0.998687, 289, 257, 304, 288
-0.998687, 249, 339, 312, 354
-0.998688, 33, 307, 96, 322
-0.998688, 193, 187, 256, 202
-0.998688, 225, 209, 288, 224
-0.998689, 305, 129, 432, 256
-0.998689, 231, 197, 246, 228
-0.99869, 129, 265, 192, 280
-0.99869, 293, 217, 324, 280
-0.998691, 417, 269, 480, 284
-0.998692, 305, 233, 368, 248
-0.998692, 361, 243, 424, 258
-0.998692, 177, 79, 240, 94
-0.998693, 145, 111, 208, 126
-0.998694, 433, 293, 496, 308
-0.998694, 177, 87, 240, 102
-0.998694, 297, 301, 360, 316
-0.998694, 217, 175, 280, 190
-0.998695, 225, 321, 288, 336
-0.998695, 249, 275, 312, 290
-0.998696, 177, 93, 240, 108
-0.998697, 145, 105, 208, 120
-0.998697, 201, 163, 264, 178
-0.998698, 225, 181, 288, 196
-0.9987, 227, 185, 242, 216
-0.9987, 145, 87, 208, 102
-0.9987, 233, 157, 248, 188
-0.998701, 393, 259, 456, 274
-0.998701, 249, 263, 312, 278
-0.998703, 289, 271, 352, 286
-0.998703, 145, 191, 208, 206
-0.998703, 377, 1, 440, 357
-0.998703, 129, 165, 192, 180
-0.998704, 185, 73, 248, 88
-0.998704, 121, 153, 184, 168
-0.998716, 227, 213, 242, 244
-0.998724, 185, 113, 216, 240
-0.998725, 165, 157, 180, 188
-0.998727, 209, 309, 224, 340
-0.99873, 225, 129, 480, 192
-0.998731, 149, 301, 164, 332
-0.998735, 241, 93, 368, 124
-0.998735, 129, 1, 192, 256
-0.998749, 17, 245, 144, 276
-0.998752, 197, 297, 212, 328
-0.998753, 143, 313, 158, 344
-0.998754, 309, 309, 324, 340
-0.998759, 307, 245, 322, 276
-0.998762, 229, 297, 244, 328
-0.998764, 257, 33, 384, 96
-0.99877, 165, 129, 180, 160
-0.998774, 169, 269, 184, 300
-0.998782, 177, 245, 192, 276
-0.998788, 337, 237, 464, 268
-0.998791, 193, 33, 448, 96
-0.998792, 429, 253, 444, 284
-0.998794, 459, 273, 474, 304
-0.998795, 171, 161, 186, 288
-0.998805, 177, 257, 192, 288
-0.998808, 205, 97, 236, 352
-0.99881, 423, 249, 438, 280
-0.998824, 209, 297, 224, 328
-0.998825, 233, 213, 248, 244
-0.998828, 177, 113, 192, 144
-0.998835, 217, 297, 232, 328
-0.998835, 305, 121, 368, 184
-0.998837, 225, 193, 480, 256
-0.998846, 223, 125, 238, 156
-0.998854, 217, 141, 232, 172
-0.99886, 181, 193, 196, 320
-0.998863, 309, 97, 340, 352
-0.998865, 171, 185, 186, 216
-0.998877, 307, 297, 322, 328
-0.998879, 1, 229, 128, 260
-0.998884, 175, 157, 190, 188
-0.998884, 315, 205, 330, 236
-0.998889, 41, 321, 56, 352
-0.998893, 65, 133, 192, 164
-0.998894, 387, 241, 402, 272
-0.998895, 161, 53, 288, 84
-0.998897, 195, 137, 210, 168
-0.998903, 317, 221, 332, 252
-0.998903, 237, 133, 252, 164
-0.998905, 183, 137, 198, 168
-0.998905, 157, 217, 172, 248
-0.998906, 139, 221, 154, 252
-0.998907, 187, 233, 202, 264
-0.998907, 403, 245, 418, 276
-0.998908, 475, 293, 490, 324
-0.998911, 283, 269, 298, 300
-0.998918, 325, 293, 340, 324
-0.998919, 225, 173, 240, 204
-0.998919, 185, 125, 200, 156
-0.99892, 337, 313, 352, 344
-0.99892, 33, 193, 160, 256
-0.998921, 201, 129, 216, 160
-0.998923, 257, 117, 384, 148
-0.998924, 169, 213, 184, 244
-0.998931, 97, 257, 224, 288
-0.998944, 171, 237, 186, 268
-0.998946, 1, 257, 128, 288
-0.998946, 225, 157, 240, 188
-0.998947, 289, 269, 416, 300
-0.998948, 223, 141, 238, 172
-0.998951, 119, 225, 134, 256
-0.99897, 263, 309, 278, 340
-0.998976, 209, 49, 336, 80
-0.998979, 49, 217, 176, 248
-0.99898, 437, 225, 468, 352
-0.998991, 29, 265, 60, 328
-0.998993, 321, 265, 384, 328
-0.999011, 171, 113, 186, 240
-0.999016, 129, 97, 160, 352
-0.999036, 369, 201, 496, 264
-0.999051, 329, 225, 360, 288
-0.999053, 171, 209, 186, 336
-0.999061, 145, 97, 176, 352
-0.999089, 231, 65, 246, 192
-0.99909, 257, 129, 384, 160
-0.999091, 147, 209, 162, 336
-0.999128, 277, 81, 308, 144
-0.999136, 289, 97, 416, 128
-0.999161, 225, 65, 240, 192
-0.999164, 217, 65, 232, 192
-0.999168, 217, 17, 280, 80
-0.999176, 135, 225, 150, 352
-0.999193, 89, 225, 104, 352
-0.999201, 301, 225, 316, 352
-0.999206, 277, 161, 308, 224
-0.999209, 289, 85, 416, 116
-0.99921, 307, 209, 322, 336
-0.999222, 165, 129, 180, 256
-0.999229, 281, 17, 312, 144
-0.99923, 305, 209, 432, 240
-0.999239, 261, 297, 292, 357
-0.999248, 177, 129, 192, 256
-0.999255, 317, 265, 348, 328
-0.999256, 253, 1, 284, 256
-0.99926, 145, 41, 272, 72
-0.999261, 153, 209, 168, 336
-0.999263, 165, 209, 180, 336
-0.999273, 145, 29, 272, 60
-0.999288, 321, 209, 336, 336
-0.999295, 141, 225, 156, 352
-0.999296, 313, 209, 328, 336
-0.999297, 369, 225, 496, 256
-0.999299, 237, 65, 252, 192
-0.999302, 211, 65, 226, 192
-0.999305, 237, 129, 252, 256
-0.999307, 257, 141, 384, 172
-0.999308, 247, 65, 262, 192
-0.999312, 95, 225, 110, 352
-0.999341, 101, 225, 116, 352
-0.999342, 123, 225, 138, 352
-0.999343, 65, 225, 80, 352
-0.999343, 297, 49, 328, 112
-0.999349, 273, 69, 400, 100
-0.999349, 83, 225, 98, 352
-0.999355, 225, 97, 256, 352
-0.999356, 129, 225, 144, 352
-0.999357, 107, 225, 122, 352
-0.999365, 117, 225, 132, 352
-0.999373, 81, 25, 208, 88
-0.999374, 113, 57, 240, 88
-0.999376, 159, 209, 174, 336
-0.999385, 191, 225, 206, 352
-0.999397, 257, 65, 272, 192
-0.999408, 293, 97, 324, 352
-0.999414, 219, 225, 234, 352
-0.999418, 187, 49, 202, 176
-0.999423, 223, 17, 238, 144
-0.999424, 231, 113, 246, 240
-0.999424, 73, 225, 88, 352
-0.999431, 213, 17, 228, 144
-0.999439, 179, 81, 194, 208
-0.999441, 385, 217, 416, 280
-0.999442, 269, 65, 284, 192
-0.999444, 325, 145, 340, 272
-0.999445, 211, 225, 226, 352
-0.999452, 1, 177, 500, 240
-0.999456, 305, 305, 432, 336
-0.999465, 235, 17, 250, 144
-0.99947, 277, 65, 292, 192
-0.99947, 223, 113, 238, 240
-0.999471, 257, 9, 384, 72
-0.999472, 285, 225, 300, 352
-0.999473, 321, 97, 352, 352
-0.999482, 205, 217, 236, 280
-0.999485, 409, 177, 440, 304
-0.99949, 263, 65, 278, 192
-0.999497, 205, 65, 220, 192
-0.999498, 291, 209, 306, 336
-0.999499, 273, 113, 288, 240
-0.999499, 229, 17, 244, 144
-0.999499, 475, 293, 490, 308
-0.999501, 317, 319, 332, 334
-0.999501, 369, 285, 496, 316
-0.999501, 145, 309, 160, 324
-0.999502, 385, 243, 400, 258
-0.999502, 407, 249, 422, 264
-0.999502, 189, 307, 204, 322
-0.999503, 297, 253, 312, 268
-0.999504, 181, 89, 196, 104
-0.999504, 417, 251, 432, 266
-0.999504, 181, 309, 196, 324
-0.999505, 181, 287, 196, 302
-0.999505, 237, 307, 252, 322
-0.999505, 145, 315, 160, 330
-0.999505, 177, 265, 192, 280
-0.999506, 305, 259, 320, 274
-0.999507, 307, 253, 322, 268
-0.999507, 327, 325, 342, 340
-0.999508, 203, 143, 218, 158
-0.999508, 329, 319, 344, 334
-0.999509, 195, 151, 210, 166
-0.99951, 239, 151, 254, 166
-0.99951, 245, 145, 260, 160
-0.99951, 165, 169, 180, 184
-0.999511, 173, 167, 188, 182
-0.999512, 469, 283, 484, 298
-0.999513, 203, 149, 218, 164
-0.999513, 293, 33, 324, 160
-0.999513, 189, 337, 204, 352
-0.999514, 177, 301, 192, 316
-0.999514, 235, 157, 250, 172
-0.999514, 143, 341, 158, 356
-0.999516, 177, 243, 192, 258
-0.999516, 301, 241, 316, 256
-0.999517, 197, 137, 212, 152
-0.999517, 175, 295, 190, 310
-0.999517, 175, 123, 190, 138
-0.999517, 297, 273, 312, 288
-0.999518, 171, 161, 186, 176
-0.999518, 185, 135, 200, 150
-0.999518, 179, 277, 194, 292
-0.999519, 319, 145, 334, 272
-0.999519, 59, 225, 74, 352
-0.99952, 315, 285, 330, 300
-0.999521, 295, 279, 310, 294
-0.999521, 171, 155, 186, 170
-0.999521, 313, 313, 328, 328
-0.999521, 229, 215, 244, 230
-0.999521, 301, 267, 316, 282
-0.999522, 183, 317, 198, 332
-0.999522, 193, 317, 208, 332
-0.999522, 187, 331, 202, 346
-0.999523, 221, 203, 236, 218
-0.999524, 291, 287, 306, 302
-0.999524, 169, 177, 184, 192
-0.999525, 33, 341, 48, 356
-0.999526, 425, 253, 440, 268
-0.999527, 435, 261, 450, 276
-0.999527, 243, 145, 258, 272
-0.999527, 187, 89, 202, 104
-0.999528, 481, 297, 496, 312
-0.999528, 113, 97, 144, 352
-0.999528, 185, 323, 200, 338
-0.999528, 39, 327, 54, 342
-0.999528, 299, 247, 314, 262
-0.999529, 211, 113, 226, 240
-0.99953, 327, 285, 342, 300
-0.99953, 51, 291, 66, 306
-0.99953, 45, 313, 60, 328
-0.999531, 271, 323, 286, 338
-0.999531, 465, 277, 480, 292
-0.999531, 165, 129, 180, 144
-0.999531, 405, 225, 420, 352
-0.999531, 281, 303, 296, 318
-0.999532, 49, 297, 64, 312
-0.999532, 227, 203, 242, 218
-0.999533, 321, 299, 336, 314
-0.999533, 47, 307, 62, 322
-0.999533, 285, 297, 300, 312
-0.999534, 169, 143, 184, 158
-0.999534, 279, 309, 294, 324
-0.999535, 221, 209, 236, 224
-0.999537, 321, 305, 336, 320
-0.999537, 43, 319, 58, 334
-0.999538, 193, 65, 208, 192
-0.999538, 63, 265, 78, 280
-0.999538, 205, 307, 220, 322
-0.999538, 279, 225, 294, 352
-0.99954, 183, 129, 198, 256
-0.999541, 319, 313, 334, 328
-0.999541, 269, 329, 284, 344
-0.999543, 55, 285, 70, 300
-0.999543, 275, 317, 290, 332
-0.999543, 61, 271, 76, 286
-0.999543, 179, 237, 194, 252
-0.999543, 225, 315, 240, 330
-0.999543, 35, 335, 50, 350
-0.999545, 169, 135, 184, 150
-0.999546, 231, 311, 246, 326
-0.999547, 265, 337, 280, 352
-0.99955, 217, 113, 232, 240
-0.999551, 441, 263, 456, 278
-0.999552, 57, 279, 72, 294
-0.999554, 279, 113, 294, 240
-0.999555, 223, 307, 238, 322
-0.999557, 451, 269, 466, 284
-0.999557, 241, 17, 256, 144
-0.999557, 197, 225, 212, 352
-0.99956, 459, 273, 474, 288
-0.999563, 331, 209, 346, 336
-0.999563, 317, 291, 332, 306
-0.999565, 205, 225, 220, 352
-0.999565, 171, 149, 186, 164
-0.999568, 111, 241, 126, 256
-0.999568, 83, 249, 98, 264
-0.99957, 193, 143, 208, 158
-0.99957, 311, 221, 326, 236
-0.999571, 161, 229, 176, 244
-0.999571, 151, 231, 166, 246
-0.999572, 167, 227, 182, 242
-0.999572, 261, 113, 276, 240
-0.999573, 227, 225, 242, 352
-0.999575, 315, 307, 330, 322
-0.999575, 207, 17, 222, 144
-0.999575, 67, 259, 82, 274
-0.999576, 173, 65, 188, 192
-0.999576, 137, 235, 152, 250
-0.999578, 153, 161, 168, 288
-0.999579, 253, 17, 268, 144
-0.999579, 175, 135, 190, 150
-0.999581, 253, 129, 268, 256
-0.999586, 283, 65, 298, 192
-0.999588, 97, 243, 112, 258
-0.999589, 245, 151, 260, 166
-0.99959, 119, 239, 134, 254
-0.999592, 91, 247, 106, 262
-0.999592, 213, 311, 228, 326
-0.999595, 199, 49, 214, 176
-0.999595, 331, 129, 346, 256
-0.999596, 311, 293, 326, 308
-0.999596, 225, 169, 480, 232
-0.999598, 77, 251, 92, 266
-0.999598, 145, 233, 160, 248
-0.9996, 129, 237, 144, 252
-0.999601, 323, 319, 338, 334
-0.999601, 215, 177, 230, 304
-0.999601, 321, 283, 336, 298
-0.999603, 257, 205, 384, 236
-0.999605, 105, 241, 120, 256
-0.999606, 193, 177, 208, 304
-0.999607, 177, 217, 192, 232
-0.999608, 219, 313, 234, 328
-0.999609, 305, 97, 336, 224
-0.999616, 187, 141, 202, 156
-0.999617, 181, 231, 196, 246
-0.999618, 343, 209, 358, 336
-0.999623, 313, 301, 328, 316
-0.999627, 131, 177, 146, 304
-0.999627, 71, 253, 86, 268
-0.999629, 183, 219, 198, 234
-0.999629, 241, 233, 368, 264
-0.99963, 93, 177, 108, 304
-0.999631, 181, 141, 196, 156
-0.999637, 117, 177, 132, 304
-0.999637, 65, 49, 192, 112
-0.999638, 139, 177, 154, 304
-0.999641, 171, 129, 186, 144
-0.999643, 247, 17, 262, 144
-0.999643, 147, 161, 162, 288
-0.999643, 105, 177, 120, 304
-0.999643, 123, 177, 138, 304
-0.999644, 99, 177, 114, 304
-0.999646, 89, 97, 120, 352
-0.999652, 267, 113, 282, 240
-0.999653, 111, 177, 126, 304
-0.999654, 441, 225, 456, 352
-0.999654, 399, 225, 414, 352
-0.999655, 387, 225, 402, 352
-0.999656, 291, 65, 306, 192
-0.999657, 205, 113, 220, 240
-0.99966, 281, 113, 312, 240
-0.999664, 273, 153, 400, 184
-0.999672, 313, 161, 328, 288
-0.999672, 363, 225, 378, 352
-0.999674, 351, 225, 366, 352
-0.999677, 393, 225, 408, 352
-0.999679, 81, 177, 96, 304
-0.99968, 381, 225, 396, 352
-0.99968, 181, 225, 196, 240
-0.999682, 209, 177, 224, 304
-0.999684, 273, 225, 288, 352
-0.999684, 217, 265, 248, 328
-0.999686, 237, 177, 252, 304
-0.999691, 51, 209, 66, 336
-0.999692, 87, 177, 102, 304
-0.999695, 261, 17, 276, 144
-0.999697, 373, 225, 388, 352
-0.999701, 411, 225, 426, 352
-0.999702, 173, 225, 188, 240
-0.999703, 273, 161, 304, 288
-0.999704, 357, 225, 372, 352
-0.999707, 433, 225, 448, 352
-0.999709, 199, 97, 214, 224
-0.999711, 299, 177, 314, 304
-0.999712, 231, 161, 246, 288
-0.999715, 337, 209, 352, 336
-0.999719, 221, 97, 252, 160
-0.99972, 203, 161, 218, 288
-0.999722, 427, 225, 442, 352
-0.999726, 173, 57, 204, 120
-0.999732, 257, 41, 384, 72
-0.999733, 305, 289, 432, 320
-0.999735, 233, 225, 248, 352
-0.999736, 417, 225, 432, 352
-0.999736, 285, 113, 300, 240
-0.999737, 173, 1, 204, 256
-0.999747, 313, 65, 344, 128
-0.999748, 267, 17, 282, 144
-0.999755, 225, 161, 240, 288
-0.999757, 75, 177, 90, 304
-0.999758, 277, 17, 292, 144
-0.999758, 475, 225, 490, 352
-0.999759, 461, 225, 492, 352
-0.999762, 265, 1, 296, 256
-0.999762, 465, 225, 480, 352
-0.999767, 189, 129, 204, 256
-0.999768, 67, 177, 82, 304
-0.999772, 449, 209, 464, 336
-0.999789, 257, 181, 384, 212
-0.999793, 65, 305, 192, 336
-0.999797, 97, 9, 352, 72
-0.999799, 101, 97, 132, 352
-0.999814, 273, 165, 400, 196
-0.999827, 233, 105, 264, 168
-0.999838, 189, 153, 220, 216
-0.999849, 145, 17, 272, 48
-0.999884, 293, 73, 324, 136
-0.999885, 289, 193, 416, 224
-0.99991, 25, 225, 56, 352
-0.999915, 265, 161, 296, 224
-0.999954, 353, 177, 384, 304
-0.999957, 33, 1, 160, 256
-0.999961, 261, 97, 292, 352
-0.99998, 65, 97, 96, 352
-0.999995, 305, 181, 432, 212
-1.00001, 305, 141, 432, 172
-1.00001, 389, 177, 420, 304
-1.00004, 149, 65, 180, 192
-1.00007, 1, 153, 500, 216
-1.00008, 77, 97, 108, 352
-1.00009, 281, 97, 312, 352
-1.00011, 249, 97, 280, 352
-1.00013, 321, 221, 448, 252
-1.00014, 333, 65, 364, 320
-1.00014, 97, 45, 224, 76
-1.00014, 305, 113, 368, 240
-1.00014, 41, 233, 72, 296
-1.00017, 257, 29, 384, 60
-1.00018, 305, 125, 432, 156
-1.00018, 209, 21, 336, 52
-1.00018, 157, 1, 188, 256
-1.00025, 421, 225, 452, 288
-1.00028, 65, 57, 192, 88
-1.00029, 417, 1, 480, 357
-1.0003, 305, 113, 432, 144
-1.00031, 97, 33, 224, 64
-1.00032, 65, 21, 192, 52
-1.00033, 293, 1, 324, 256
-1.00033, 65, 9, 192, 40
-1.00034, 273, 53, 400, 84
-1.00035, 1, 25, 256, 88
-1.00035, 277, 1, 308, 256
-1.00036, 353, 301, 480, 332
-1.00037, 245, 105, 276, 168
-1.00038, 285, 33, 316, 96
-1.0004, 369, 313, 496, 344
-1.0004, 257, 17, 384, 48
-1.00041, 381, 97, 412, 352
-1.00044, 321, 165, 448, 196
-1.00044, 25, 1, 88, 357
-1.00046, 145, 1, 272, 32
-1.00048, 57, 201, 120, 264
-1.00048, 353, 1, 480, 256
-1.00048, 49, 149, 176, 180
-1.00049, 361, 97, 392, 352
-1.0005, 321, 69, 448, 100
-1.0005, 65, 1, 192, 64
-1.0005, 301, 121, 332, 184
-1.00051, 53, 97, 84, 352
-1.00057, 349, 97, 380, 352
-1.00059, 441, 97, 472, 352
-1.00059, 313, 97, 376, 160
-1.00061, 321, 161, 448, 224
-1.00061, 97, 297, 160, 357
-1.00066, 429, 97, 460, 352
-1.00067, 369, 97, 432, 352
-1.00071, 1, 1, 256, 64
-1.00072, 461, 97, 492, 352
-1.00072, 305, 33, 432, 96
-1.00073, 409, 97, 440, 352
-1.00078, 393, 97, 424, 352
-1.00081, 193, 9, 448, 72
-1.00084, 321, 153, 384, 216
-1.00087, 317, 1, 348, 256
-1.00091, 377, 177, 408, 304
-1.00102, 41, 97, 72, 352
-1.00103, 261, 161, 292, 288
-1.00111, 305, 1, 336, 256
-1.00113, 145, 1, 176, 256
-1.0012, 353, 297, 480, 357
-1.00121, 365, 177, 396, 304
-1.00124, 1, 49, 500, 112
-1.00128, 29, 97, 60, 352
-1.00128, 425, 177, 456, 304
-1.00135, 145, 17, 208, 80
-1.00136, 181, 17, 212, 144
-1.00148, 409, 97, 472, 352
-1.00155, 133, 1, 164, 256
-1.00161, 321, 97, 448, 160
-1.00167, 445, 177, 476, 304
-1.00168, 289, 1, 416, 128
-1.00168, 1, 25, 500, 88
-1.0017, 265, 9, 328, 72
-1.00171, 245, 225, 276, 352
-1.00172, 313, 73, 376, 136
-1.00176, 305, 49, 336, 176
-1.00182, 45, 177, 76, 304
-1.00184, 5, 1, 36, 256
-1.00184, 33, 1, 64, 256
-1.00184, 469, 1, 500, 256
-1.00184, 17, 33, 48, 288
-1.00184, 1, 97, 32, 352
-1.00185, 345, 97, 408, 352
-1.00198, 441, 1, 472, 256
-1.00198, 345, 1, 376, 256
-1.00199, 289, 1, 352, 256
-1.002, 121, 1, 152, 256
-1.00203, 373, 1, 404, 256
-1.00205, 453, 1, 484, 256
-1.00208, 61, 1, 92, 256
-1.00213, 109, 1, 140, 256
-1.00214, 49, 1, 80, 256
-1.00218, 357, 1, 388, 256
-1.0022, 397, 1, 428, 256
-1.0022, 409, 1, 440, 256
-1.00221, 421, 1, 452, 256
-1.00222, 193, 9, 256, 72
-1.00224, 93, 1, 124, 256
-1.00226, 305, 9, 432, 72
-1.00235, 385, 1, 416, 256
-1.00237, 1, 1, 500, 64
-1.00243, 73, 1, 104, 256
-1.00255, 1, 1, 64, 357
-1.00256, 333, 81, 364, 208
-1.00257, 241, 1, 304, 64
-1.00279, 337, 57, 464, 120
-1.00291, 17, 1, 144, 64
-1.00291, 369, 9, 496, 72
-1.00291, 17, 25, 144, 88
-1.00291, 369, 33, 496, 96
-1.00291, 17, 49, 144, 112
-1.00291, 17, 73, 144, 136
-1.00291, 17, 97, 144, 160
-1.00291, 369, 97, 496, 160
-1.00291, 17, 121, 144, 184
-1.00291, 369, 121, 496, 184
-1.00291, 17, 145, 144, 208
-1.00291, 369, 145, 496, 208
-1.00291, 1, 169, 128, 232
-1.00291, 369, 169, 496, 232
-1.00304, 341, 161, 372, 288
-1.00319, 121, 281, 184, 344
-1.00337, 17, 97, 80, 352
-1.00367, 37, 225, 68, 352
-1.00386, 401, 209, 464, 272
-1.00387, 169, 1, 200, 128
-1.00416, 121, 65, 184, 128
-1.00416, 385, 297, 448, 357
-1.00421, 169, 1, 232, 64
-1.00439, 433, 97, 496, 352
-1.00442, 353, 297, 416, 357
-1.00444, 289, 17, 352, 80
-1.00458, 409, 289, 472, 352
-1.00475, 161, 1, 224, 128
-1.00517, 317, 17, 348, 144
-1.00519, 305, 1, 336, 128
-1.0052, 329, 49, 392, 112
-1.00522, 321, 65, 384, 192
-1.00528, 305, 17, 368, 144
-1.00541, 145, 113, 176, 240
-1.00547, 157, 17, 188, 144
-1.00555, 329, 129, 392, 192
-1.0056, 105, 161, 168, 224
-1.00562, 65, 289, 128, 352
-1.00578, 313, 25, 376, 88
-1.0059, 105, 17, 168, 80
-1.0059, 105, 41, 168, 104
-1.00596, 353, 265, 416, 328
-1.0062, 329, 129, 392, 256
-1.00646, 377, 193, 440, 256
-1.00647, 97, 273, 160, 336
-1.00663, 377, 273, 440, 336
-1.00664, 9, 177, 72, 304
-1.00685, 133, 81, 164, 208
-1.0069, 425, 209, 488, 272
-1.00693, 33, 129, 160, 256
-1.00693, 97, 81, 160, 144
-1.00701, 337, 33, 368, 160
-1.00712, 133, 33, 164, 160
-1.00733, 465, 177, 496, 304
-1.00765, 33, 177, 64, 304
-1.00809, 337, 81, 400, 144
-1.00819, 433, 177, 496, 304
-1.00821, 329, 177, 392, 240
-1.00879, 353, 185, 416, 248
-1.00895, 13, 225, 44, 352
-1.00916, 145, 1, 176, 128
-1.00924, 337, 105, 400, 168
-1.00929, 433, 185, 496, 248
-1.00929, 1, 201, 64, 264
-1.00932, 105, 1, 168, 256
-1.00936, 117, 97, 148, 224
-1.00937, 337, 33, 464, 160
-1.00939, 117, 49, 148, 176
-1.00947, 345, 81, 376, 208
-1.00953, 117, 1, 148, 128
-1.00956, 373, 97, 404, 224
-1.00956, 385, 97, 416, 224
-1.00956, 397, 97, 428, 224
-1.00956, 409, 97, 440, 224
-1.00956, 421, 97, 452, 224
-1.00956, 1, 113, 32, 240
-1.00956, 13, 113, 44, 240
-1.00956, 49, 113, 80, 240
-1.00956, 61, 113, 92, 240
-1.00956, 433, 113, 464, 240
-1.00956, 445, 113, 476, 240
-1.00956, 25, 129, 56, 256
-1.00956, 37, 129, 68, 256
-1.00956, 457, 129, 488, 256
-1.00956, 469, 129, 500, 256
-1.00956, 5, 161, 36, 288
-1.00956, 17, 177, 48, 304
-1.00956, 1, 209, 32, 336
-1.00971, 353, 129, 480, 256
-1.00996, 17, 33, 144, 160
-1.00996, 17, 81, 144, 208
-1.01029, 105, 1, 168, 128
-1.01038, 369, 81, 496, 208
-1.01086, 1, 1, 64, 256
-1.01091, 97, 81, 160, 208
-1.01107, 329, 17, 392, 144
-1.01156, 337, 1, 400, 256
-1.01182, 425, 1, 488, 256
-1.01233, 57, 1, 120, 256
-1.01285, 361, 1, 424, 256
-1.01297, 33, 1, 96, 256
-1.01358, 401, 1, 464, 256
-1.01411, 81, 1, 144, 256
-1.01458, 345, 65, 408, 192
-1.01471, 81, 33, 144, 160
-1.01478, 385, 1, 448, 128
-1.01478, 409, 1, 472, 128
-1.01478, 57, 17, 120, 144
-1.01478, 361, 17, 424, 144
-1.01478, 433, 17, 496, 144
-1.01478, 17, 33, 80, 160
-1.01478, 385, 49, 448, 176
-1.01478, 409, 49, 472, 176
-1.01478, 41, 65, 104, 192
-1.01478, 433, 65, 496, 192
-1.01478, 1, 81, 64, 208
-1.01478, 65, 97, 128, 224
-1.01478, 385, 97, 448, 224
-1.01478, 409, 97, 472, 224
-1.01478, 25, 113, 88, 240
-1.01478, 433, 113, 496, 240
-1.01478, 1, 129, 64, 256
-1.01656, 361, 113, 424, 240
