1966
-0.358458, 1, 1, 500, 375
-0.364773, 1, 1, 500, 256
-0.42913, 97, 1, 352, 375
-0.470776, 1, 97, 500, 352
-0.549441, 161, 65, 416, 320
-0.555251, 257, 1, 500, 375
-0.579584, 1, 1, 256, 375
-0.58427, 33, 1, 288, 256
-0.584687, 1, 97, 256, 352
-0.589523, 257, 1, 500, 256
-0.761871, 257, 97, 500, 352
-0.853194, 257, 1, 384, 256
-0.862568, 33, 97, 160, 352
-0.866304, 177, 33, 304, 288
-0.867103, 65, 1, 192, 256
-0.870233, 177, 1, 304, 375
-0.870542, 129, 1, 256, 375
-0.872643, 225, 129, 352, 375
-0.874166, 257, 1, 384, 375
-0.876043, 1, 81, 500, 208
-0.87953, 1, 1, 500, 128
-0.879547, 113, 33, 240, 288
-0.879547, 289, 97, 416, 352
-0.880085, 353, 1, 480, 256
-0.880164, 113, 129, 240, 375
-0.880866, 65, 1, 192, 375
-0.885092, 305, 1, 432, 375
-0.886816, 305, 1, 432, 256
-0.889653, 1, 1, 128, 375
-0.891967, 1, 129, 500, 256
-0.892526, 369, 1, 496, 375
-0.896146, 1, 1, 128, 256
-0.903649, 353, 129, 480, 375
-0.905145, 177, 129, 304, 375
-0.911806, 97, 49, 352, 176
-0.913688, 161, 1, 416, 128
-0.916014, 257, 1, 500, 128
-0.920648, 1, 145, 256, 272
-0.922128, 129, 97, 384, 224
-0.923269, 1, 225, 500, 352
-0.92374, 257, 49, 500, 176
-0.925827, 1, 1, 256, 128
-0.927709, 33, 97, 288, 224
-0.930906, 257, 49, 384, 176
-0.931913, 225, 113, 480, 240
-0.931941, 425, 1, 488, 128
-0.932104, 65, 113, 192, 240
-0.932532, 97, 193, 352, 320
-0.932975, 1, 177, 500, 304
-0.933101, 361, 65, 424, 192
-0.934176, 9, 129, 72, 256
-0.935445, 393, 1, 456, 128
-0.935585, 401, 49, 464, 176
-0.935867, 113, 81, 240, 208
-0.93764, 353, 17, 416, 144
-0.93822, 65, 65, 192, 192
-0.940953, 337, 81, 464, 208
-0.940969, 433, 49, 496, 176
-0.941297, 1, 129, 128, 256
-0.943181, 129, 129, 192, 256
-0.943182, 1, 49, 256, 176
-0.943394, 241, 1, 368, 128
-0.943491, 177, 81, 304, 208
-0.943542, 225, 65, 288, 192
-0.943633, 113, 81, 176, 208
-0.944314, 49, 129, 112, 256
-0.944673, 17, 65, 144, 192
-0.945722, 257, 97, 384, 224
-0.94587, 73, 113, 136, 240
-0.946647, 249, 1, 312, 128
-0.947233, 329, 33, 392, 160
-0.947526, 177, 1, 304, 128
-0.947902, 129, 145, 384, 272
-0.948425, 9, 81, 72, 208
-0.948809, 113, 129, 240, 256
-0.949999, 353, 81, 416, 144
-0.950403, 225, 113, 288, 240
-0.950725, 321, 17, 448, 144
-0.951487, 225, 177, 480, 304
-0.951644, 393, 97, 456, 224
-0.951835, 401, 105, 464, 168
-0.952035, 97, 129, 160, 256
-0.952052, 177, 33, 240, 160
-0.952369, 81, 65, 144, 192
-0.952404, 153, 113, 216, 240
-0.952664, 257, 241, 500, 368
-0.95277, 25, 177, 88, 304
-0.952771, 33, 177, 160, 304
-0.952831, 209, 1, 272, 128
-0.952971, 113, 1, 176, 128
-0.953144, 417, 65, 480, 128
-0.953634, 417, 25, 480, 88
-0.953706, 353, 25, 416, 88
-0.953827, 361, 105, 424, 168
-0.953844, 1, 193, 256, 320
-0.954205, 201, 49, 264, 176
-0.954305, 113, 105, 176, 168
-0.955031, 393, 41, 456, 104
-0.955374, 265, 129, 328, 256
-0.955619, 1, 153, 64, 216
-0.956053, 25, 177, 88, 240
-0.956263, 209, 193, 336, 320
-0.956355, 65, 1, 192, 128
-0.956425, 113, 193, 240, 320
-0.956871, 113, 1, 240, 128
-0.957184, 249, 49, 312, 176
-0.95719, 121, 129, 184, 192
-0.957767, 89, 1, 152, 128
-0.957818, 209, 97, 272, 160
-0.958396, 97, 177, 160, 240
-0.958468, 161, 129, 288, 256
-0.958511, 233, 105, 296, 168
-0.958613, 161, 113, 224, 176
-0.958791, 337, 81, 400, 208
-0.958857, 353, 57, 416, 120
-0.959311, 137, 49, 200, 176
-0.959321, 137, 1, 200, 128
-0.959399, 209, 129, 272, 192
-0.959617, 241, 209, 304, 336
-0.95967, 369, 1, 432, 64
-0.959796, 81, 113, 144, 176
-0.959958, 273, 225, 400, 352
-0.960133, 393, 81, 456, 144
-0.960267, 57, 185, 120, 248
-0.96027, 297, 113, 360, 240
-0.960305, 273, 1, 336, 128
-0.96037, 265, 241, 328, 368
-0.960496, 49, 65, 112, 192
-0.960499, 201, 193, 264, 256
-0.961031, 161, 241, 416, 368
-0.961083, 65, 241, 320, 368
-0.961185, 369, 33, 496, 160
-0.961323, 209, 145, 336, 272
-0.961549, 185, 33, 248, 96
-0.961576, 369, 113, 432, 240
-0.961702, 297, 17, 360, 144
-0.961735, 49, 161, 112, 224
-0.961756, 329, 89, 392, 152
-0.962067, 161, 193, 288, 320
-0.962474, 89, 153, 152, 216
-0.962719, 17, 1, 144, 128
-0.962969, 1, 177, 64, 304
-0.963074, 121, 177, 184, 304
-0.96313, 73, 81, 136, 144
-0.963148, 265, 97, 328, 160
-0.963634, 177, 97, 240, 224
-0.963695, 137, 161, 200, 224
-0.963927, 433, 113, 496, 176
-0.964096, 201, 161, 264, 288
-0.96443, 1, 33, 64, 160
-0.964459, 225, 65, 288, 128
-0.964464, 1, 129, 64, 192
-0.964492, 177, 193, 240, 320
-0.964742, 425, 113, 488, 240
-0.96481, 265, 193, 328, 320
-0.964819, 49, 177, 112, 304
-0.964926, 233, 129, 296, 192
-0.965151, 121, 185, 184, 248
-0.965337, 201, 225, 264, 352
-0.965458, 73, 161, 136, 288
-0.965522, 297, 25, 360, 88
-0.965587, 137, 73, 200, 136
-0.965733, 337, 1, 400, 64
-0.966048, 241, 217, 304, 280
-0.966076, 329, 41, 392, 104
-0.966102, 393, 17, 456, 80
-0.966144, 305, 1, 368, 64
-0.96643, 433, 89, 496, 152
-0.966608, 425, 1, 488, 64
-0.966741, 273, 49, 336, 176
-0.966856, 337, 113, 400, 176
-0.966982, 249, 73, 312, 136
-0.967047, 201, 113, 264, 240
-0.967254, 225, 25, 288, 88
-0.967298, 353, 129, 480, 256
-0.967794, 329, 65, 392, 128
-0.967814, 305, 177, 432, 304
-0.968006, 193, 241, 320, 368
-0.968475, 97, 9, 160, 72
-0.968549, 137, 49, 200, 112
-0.968553, 273, 233, 336, 296
-0.968675, 161, 17, 224, 80
-0.968694, 113, 81, 176, 144
-0.968753, 25, 105, 88, 168
-0.968826, 49, 137, 112, 200
-0.968925, 297, 65, 360, 192
-0.96893, 369, 241, 496, 368
-0.968986, 361, 1, 424, 256
-0.969232, 185, 161, 248, 224
-0.96925, 265, 209, 328, 272
-0.969303, 289, 225, 352, 352
-0.969337, 113, 1, 176, 256
-0.969393, 273, 9, 336, 72
-0.969443, 73, 57, 136, 120
-0.969524, 177, 145, 240, 272
-0.969621, 177, 185, 240, 248
-0.969686, 185, 113, 248, 176
-0.969713, 65, 145, 192, 208
-0.969782, 177, 89, 240, 152
-0.970131, 257, 97, 384, 160
-0.970212, 393, 1, 456, 256
-0.970324, 369, 129, 432, 192
-0.970556, 1, 177, 64, 240
-0.970667, 169, 57, 232, 120
-0.970709, 89, 1, 152, 256
-0.970727, 413, 65, 444, 192
-0.970765, 25, 153, 88, 216
-0.970765, 305, 129, 432, 256
-0.970771, 177, 137, 240, 200
-0.970788, 265, 129, 328, 192
-0.970826, 257, 145, 384, 272
-0.970828, 193, 265, 256, 328
-0.970874, 289, 209, 352, 272
-0.970969, 1, 33, 32, 160
-0.97097, 249, 9, 312, 72
-0.970996, 353, 225, 416, 352
-0.971039, 97, 113, 224, 176
-0.971078, 201, 1, 264, 64
-0.971239, 161, 217, 224, 280
-0.971359, 185, 305, 248, 368
-0.971542, 265, 49, 328, 112
-0.971674, 265, 1, 328, 256
-0.971838, 137, 9, 200, 72
-0.971978, 113, 33, 176, 96
-0.97213, 137, 209, 200, 272
-0.972206, 297, 89, 360, 152
-0.972266, 9, 81, 72, 144
-0.972291, 97, 201, 160, 264
-0.972555, 1, 225, 128, 352
-0.97263, 89, 33, 152, 96
-0.972677, 9, 65, 72, 320
-0.972678, 33, 177, 160, 240
-0.97273, 417, 1, 480, 256
-0.972884, 297, 49, 360, 112
-0.97289, 33, 201, 96, 264
-0.972995, 137, 105, 200, 168
-0.973063, 289, 177, 352, 304
-0.9731, 185, 1, 248, 256
-0.973112, 97, 209, 160, 336
-0.973155, 233, 33, 296, 288
-0.973184, 217, 257, 280, 320
-0.973189, 153, 193, 216, 320
-0.973233, 297, 233, 360, 296
-0.973252, 193, 225, 256, 288
-0.973432, 305, 105, 432, 168
-0.973655, 321, 177, 384, 304
-0.973719, 429, 1, 460, 128
-0.973756, 113, 169, 240, 232
-0.97383, 289, 129, 352, 192
-0.973858, 313, 113, 376, 176
-0.97386, 145, 137, 208, 200
-0.973883, 449, 1, 480, 128
-0.973938, 193, 65, 256, 128
-0.973955, 445, 49, 476, 176
-0.973959, 237, 105, 268, 168
-0.974143, 329, 129, 392, 256
-0.974158, 409, 129, 472, 192
-0.974241, 313, 209, 376, 272
-0.974287, 61, 177, 92, 240
-0.97429, 225, 161, 288, 288
-0.974441, 21, 153, 52, 216
-0.974472, 413, 81, 444, 144
-0.974554, 397, 65, 428, 192
-0.974615, 329, 249, 392, 312
-0.974678, 57, 129, 88, 256
-0.974701, 49, 81, 112, 144
-0.974819, 433, 289, 496, 352
-0.974904, 193, 201, 320, 264
-0.974962, 337, 89, 368, 152
-0.975027, 49, 1, 112, 128
-0.975044, 113, 153, 176, 216
-0.975195, 137, 33, 200, 288
-0.975222, 353, 97, 480, 160
-0.975225, 69, 129, 100, 256
-0.975238, 1, 105, 64, 168
-0.975349, 329, 225, 392, 352
-0.975355, 305, 1, 368, 256
-0.975417, 145, 241, 272, 368
-0.975428, 17, 113, 48, 240
-0.975562, 145, 129, 272, 192
-0.975629, 225, 185, 288, 248
-0.975752, 469, 33, 500, 160
-0.975849, 65, 89, 192, 152
-0.976013, 425, 49, 456, 176
-0.976066, 449, 33, 480, 96
-0.976129, 361, 1, 392, 128
-0.976209, 81, 97, 144, 352
-0.976209, 265, 97, 328, 352
-0.976316, 129, 129, 192, 375
-0.976321, 257, 65, 288, 192
-0.976362, 249, 249, 312, 312
-0.976488, 433, 265, 496, 328
-0.976554, 137, 281, 200, 344
-0.976623, 401, 57, 432, 120
-0.976692, 329, 1, 392, 256
-0.976708, 253, 89, 284, 152
-0.976742, 349, 65, 380, 192
-0.976744, 437, 113, 468, 176
-0.976757, 357, 97, 388, 160
-0.976764, 49, 113, 112, 176
-0.976804, 401, 265, 464, 328
-0.976835, 397, 1, 428, 64
-0.976895, 401, 1, 432, 128
-0.976951, 177, 65, 304, 128
-0.977028, 321, 241, 448, 368
-0.977118, 397, 105, 428, 168
-0.977122, 113, 57, 176, 120
-0.977145, 17, 113, 144, 176
-0.977202, 125, 177, 156, 240
-0.977216, 1, 105, 32, 168
-0.977245, 193, 225, 320, 288
-0.977289, 217, 153, 280, 216
-0.977294, 217, 217, 280, 280
-0.977319, 241, 33, 368, 96
-0.977331, 25, 129, 88, 192
-0.9774, 257, 1, 288, 128
-0.977437, 161, 1, 224, 256
-0.977462, 369, 25, 496, 88
-0.977515, 157, 129, 188, 192
-0.97755, 125, 153, 156, 216
-0.977676, 149, 97, 180, 224
-0.977732, 361, 257, 424, 320
-0.977749, 213, 201, 244, 264
-0.977803, 469, 49, 500, 112
-0.97781, 17, 81, 144, 144
-0.977815, 225, 129, 352, 192
-0.97783, 217, 129, 248, 192
-0.977838, 401, 241, 464, 368
-0.977875, 1, 41, 32, 104
-0.97797, 237, 17, 268, 144
-0.978006, 177, 89, 304, 152
-0.978033, 209, 1, 272, 256
-0.978045, 5, 81, 36, 208
-0.978064, 461, 289, 492, 352
-0.978104, 25, 225, 88, 352
-0.978143, 225, 281, 288, 344
-0.978255, 361, 1, 392, 64
-0.978295, 361, 49, 392, 176
-0.978356, 113, 281, 176, 344
-0.978468, 129, 113, 160, 240
-0.978504, 153, 185, 216, 248
-0.978541, 305, 129, 432, 192
-0.978582, 81, 193, 208, 256
-0.978598, 257, 73, 384, 136
-0.978613, 265, 297, 328, 360
-0.978621, 33, 161, 64, 288
-0.978623, 425, 41, 456, 104
-0.978631, 73, 1, 136, 64
-0.978631, 161, 313, 224, 375
-0.978647, 17, 137, 144, 200
-0.978652, 441, 57, 472, 120
-0.978693, 353, 233, 416, 296
-0.978806, 425, 1, 456, 64
-0.978812, 241, 129, 304, 375
-0.978827, 393, 145, 456, 272
-0.978829, 37, 161, 68, 224
-0.97885, 37, 185, 68, 248
-0.97885, 1, 9, 64, 72
-0.978858, 361, 49, 392, 112
-0.978914, 321, 65, 448, 128
-0.978935, 25, 241, 88, 304
-0.978961, 49, 97, 112, 352
-0.979056, 269, 113, 300, 240
-0.979166, 237, 65, 268, 128
-0.979182, 345, 281, 408, 344
-0.979196, 145, 201, 272, 264
-0.979201, 165, 113, 196, 240
-0.979205, 369, 1, 496, 64
-0.979345, 193, 97, 256, 352
-0.97937, 337, 33, 368, 160
-0.979431, 353, 121, 480, 184
-0.979455, 45, 129, 76, 256
-0.979489, 65, 1, 128, 256
-0.979513, 321, 33, 448, 96
-0.979521, 337, 169, 400, 232
-0.979531, 469, 9, 500, 72
-0.979549, 225, 1, 288, 64
-0.979665, 425, 81, 456, 144
-0.979711, 53, 153, 84, 216
-0.979714, 97, 185, 128, 248
-0.979742, 17, 65, 48, 192
-0.979757, 105, 129, 168, 375
-0.979845, 269, 1, 300, 128
-0.979856, 273, 97, 304, 160
-0.979887, 241, 25, 272, 88
-0.979906, 77, 169, 108, 232
-0.979911, 49, 57, 112, 120
-0.979926, 241, 249, 368, 312
-0.979952, 249, 65, 280, 128
-0.980028, 397, 81, 428, 144
-0.980061, 73, 145, 104, 208
-0.98008, 361, 25, 392, 88
-0.980088, 377, 49, 408, 176
-0.980096, 329, 137, 392, 200
-0.980114, 345, 113, 376, 176
-0.980143, 337, 209, 400, 272
-0.980186, 449, 105, 480, 168
-0.980249, 65, 209, 128, 272
-0.980309, 281, 1, 312, 128
-0.980317, 153, 1, 184, 128
-0.980317, 325, 49, 356, 176
-0.98034, 413, 1, 444, 128
-0.980372, 229, 129, 260, 192
-0.980392, 177, 241, 240, 368
-0.980442, 17, 57, 144, 120
-0.98045, 125, 129, 156, 192
-0.980455, 361, 97, 424, 352
-0.980486, 1, 65, 32, 128
-0.980538, 413, 105, 444, 168
-0.980556, 117, 145, 148, 272
-0.980638, 241, 9, 368, 72
-0.980662, 361, 73, 392, 136
-0.980673, 357, 129, 388, 192
-0.980684, 273, 65, 304, 192
-0.980717, 5, 161, 36, 224
-0.98072, 145, 81, 176, 144
-0.980727, 345, 25, 376, 88
-0.980768, 1, 17, 32, 80
-0.980774, 253, 121, 284, 184
-0.980808, 313, 49, 344, 176
-0.980845, 113, 89, 240, 152
-0.980855, 81, 1, 208, 64
-0.980866, 69, 177, 100, 304
-0.98087, 209, 169, 240, 232
-0.980896, 145, 145, 176, 272
-0.980971, 229, 249, 260, 312
-0.980975, 229, 65, 260, 192
-0.981105, 253, 41, 284, 104
-0.981194, 65, 25, 192, 88
-0.981205, 305, 25, 336, 88
-0.981283, 249, 185, 312, 248
-0.981313, 13, 81, 44, 144
-0.981345, 273, 257, 336, 320
-0.981356, 177, 297, 304, 360
-0.981377, 25, 1, 88, 128
-0.981393, 65, 49, 192, 112
-0.981437, 145, 161, 176, 224
-0.981446, 145, 273, 272, 336
-0.981457, 401, 33, 432, 96
-0.981473, 273, 225, 304, 288
-0.981483, 305, 1, 432, 64
-0.981522, 437, 1, 468, 64
-0.981598, 241, 193, 368, 256
-0.981606, 289, 1, 352, 375
-0.981719, 241, 129, 272, 192
-0.98176, 209, 305, 272, 368
-0.981825, 137, 65, 168, 192
-0.981928, 425, 113, 456, 176
-0.981935, 289, 185, 352, 248
-0.981962, 57, 177, 88, 304
-0.982007, 65, 33, 128, 96
-0.982048, 81, 129, 112, 256
-0.982064, 205, 129, 236, 192
-0.982086, 361, 177, 424, 304
-0.98209, 209, 273, 336, 336
-0.982091, 5, 129, 36, 256
-0.982096, 17, 129, 48, 192
-0.982114, 321, 97, 384, 352
-0.982121, 273, 65, 304, 128
-0.98215, 329, 57, 360, 120
-0.982208, 381, 57, 412, 120
-0.982256, 121, 225, 184, 352
-0.982268, 113, 153, 144, 216
-0.982323, 133, 1, 164, 128
-0.982332, 141, 137, 172, 200
-0.982364, 241, 65, 272, 192
-0.98237, 369, 265, 496, 328
-0.982405, 193, 1, 320, 64
-0.982413, 409, 1, 440, 64
-0.982421, 341, 65, 372, 128
-0.982432, 193, 249, 320, 312
-0.982484, 209, 265, 240, 328
-0.982488, 189, 193, 220, 256
-0.982501, 145, 9, 272, 72
-0.982509, 293, 225, 324, 288
-0.982517, 241, 225, 368, 288
-0.98261, 5, 137, 36, 200
-0.982623, 369, 49, 496, 112
-0.982627, 329, 33, 360, 96
-0.982632, 437, 25, 468, 88
-0.982659, 445, 81, 476, 144
-0.982691, 377, 105, 408, 168
-0.982706, 229, 225, 260, 352
-0.982788, 137, 113, 168, 176
-0.982863, 69, 201, 100, 264
-0.982881, 181, 33, 212, 160
-0.982911, 225, 1, 256, 128
-0.982924, 225, 105, 256, 168
-0.982954, 357, 113, 388, 240
-0.982999, 413, 41, 444, 104
-0.983015, 453, 1, 484, 64
-0.983027, 177, 113, 208, 176
-0.983028, 329, 1, 392, 375
-0.983029, 193, 1, 224, 128
-0.983063, 205, 65, 236, 192
-0.983073, 297, 113, 328, 240
-0.983115, 369, 193, 496, 320
-0.983144, 193, 41, 320, 104
-0.983231, 377, 225, 440, 352
-0.983287, 129, 89, 160, 152
-0.983329, 297, 97, 360, 352
-0.98334, 181, 33, 212, 96
-0.983397, 381, 25, 412, 88
-0.983413, 433, 241, 496, 368
-0.983433, 77, 113, 108, 176
-0.983471, 297, 1, 328, 128
-0.983538, 317, 9, 348, 72
-0.983611, 197, 105, 228, 168
-0.983633, 289, 233, 416, 296
-0.98367, 377, 97, 408, 224
-0.983688, 325, 1, 356, 128
-0.983823, 437, 273, 468, 336
-0.983828, 345, 113, 376, 240
-0.983878, 157, 41, 188, 104
-0.983897, 353, 1, 416, 375
-0.983909, 61, 129, 92, 192
-0.983939, 193, 81, 224, 208
-0.98399, 161, 153, 288, 216
-0.984008, 365, 225, 396, 352
-0.984027, 233, 1, 296, 375
-0.984074, 113, 41, 240, 104
-0.984137, 469, 105, 500, 168
-0.984158, 325, 97, 356, 160
-0.984158, 161, 177, 288, 240
-0.984173, 145, 25, 176, 88
-0.984221, 409, 1, 472, 375
-0.98427, 181, 177, 212, 304
-0.98427, 193, 57, 224, 120
-0.984304, 193, 33, 224, 96
-0.984315, 249, 225, 280, 352
-0.984326, 45, 177, 76, 304
-0.98433, 29, 113, 60, 240
-0.984361, 281, 201, 312, 264
-0.984362, 129, 313, 256, 375
-0.984418, 237, 129, 268, 256
-0.984441, 161, 65, 192, 192
-0.984441, 281, 113, 312, 240
-0.984443, 253, 113, 284, 240
-0.984443, 453, 265, 484, 328
-0.984463, 145, 241, 208, 368
-0.984488, 297, 129, 328, 192
-0.984493, 117, 105, 148, 168
-0.984501, 425, 97, 456, 224
-0.984531, 301, 49, 332, 112
-0.984574, 49, 193, 80, 256
-0.984626, 81, 1, 144, 375
-0.984631, 113, 193, 144, 256
-0.984664, 1, 1, 64, 375
-0.984701, 149, 49, 180, 176
-0.984702, 213, 105, 244, 168
-0.984713, 201, 193, 232, 256
-0.98479, 217, 41, 248, 104
-0.984827, 469, 265, 500, 328
-0.984851, 377, 1, 408, 128
-0.984857, 177, 177, 208, 240
-0.984862, 369, 145, 496, 208
-0.984879, 293, 65, 324, 192
-0.984945, 17, 201, 144, 264
-0.984964, 349, 17, 380, 144
-0.984998, 73, 81, 104, 208
-0.985003, 385, 97, 448, 352
-0.985011, 401, 193, 464, 320
-0.985051, 177, 89, 208, 152
-0.985055, 17, 33, 144, 96
-0.985089, 369, 73, 496, 136
-0.98513, 297, 1, 328, 64
-0.985136, 273, 137, 304, 200
-0.985166, 217, 209, 248, 336
-0.985169, 349, 1, 380, 64
-0.985171, 165, 105, 196, 168
-0.985176, 217, 49, 248, 176
-0.985176, 117, 65, 148, 192
-0.985204, 233, 1, 264, 64
-0.985255, 113, 65, 240, 128
-0.985271, 81, 193, 112, 256
-0.985333, 197, 169, 228, 232
-0.985362, 113, 1, 176, 375
-0.985389, 141, 1, 172, 64
-0.985435, 41, 1, 104, 256
-0.985436, 209, 1, 272, 375
-0.985517, 285, 25, 316, 88
-0.985551, 289, 209, 416, 272
-0.985577, 225, 193, 256, 256
-0.985594, 73, 89, 104, 152
-0.985616, 257, 169, 384, 232
-0.985629, 225, 289, 256, 352
-0.985642, 309, 113, 340, 240
-0.985678, 217, 73, 248, 136
-0.985713, 437, 113, 468, 240
-0.985731, 221, 225, 252, 288
-0.985748, 117, 17, 148, 144
-0.985758, 209, 169, 336, 232
-0.985766, 229, 41, 260, 104
-0.985776, 369, 289, 496, 352
-0.985799, 357, 249, 388, 312
-0.985808, 97, 241, 224, 368
-0.985822, 397, 113, 428, 240
-0.985968, 161, 1, 224, 375
-0.985975, 265, 1, 328, 375
-0.986185, 209, 145, 240, 272
-0.986202, 285, 241, 316, 368
-0.986597, 289, 257, 416, 320
-0.986735, 73, 241, 136, 368
-0.986747, 457, 49, 488, 176
-0.986794, 129, 225, 256, 288
-0.986863, 289, 289, 416, 352
-0.986929, 97, 289, 224, 352
-0.987012, 309, 1, 340, 128
-0.987031, 265, 193, 296, 320
-0.987125, 1, 233, 128, 296
-0.987147, 5, 177, 36, 304
-0.987231, 185, 1, 248, 375
-0.987253, 161, 97, 224, 352
-0.987265, 129, 249, 256, 312
-0.987272, 137, 1, 200, 375
-0.987453, 217, 129, 280, 375
-0.987636, 57, 1, 120, 375
-0.987641, 17, 9, 144, 72
-0.98768, 221, 113, 252, 240
-0.987704, 353, 225, 384, 352
-0.987715, 101, 113, 132, 240
-0.987824, 221, 161, 252, 288
-0.987836, 253, 177, 284, 304
-0.987922, 165, 1, 196, 128
-0.987925, 353, 241, 480, 304
-0.988018, 265, 241, 296, 368
-0.988033, 329, 97, 360, 224
-0.988057, 129, 177, 160, 304
-0.988122, 233, 177, 264, 304
-0.988193, 193, 193, 224, 320
-0.988221, 97, 17, 128, 144
-0.988221, 97, 65, 128, 192
-0.988233, 1, 241, 64, 368
-0.988276, 13, 17, 44, 144
-0.988334, 293, 177, 324, 304
-0.988385, 81, 217, 208, 280
-0.988463, 297, 241, 328, 368
-0.988464, 49, 81, 80, 208
-0.988589, 197, 129, 228, 256
-0.988613, 393, 113, 456, 144
-0.988687, 205, 209, 236, 336
-0.988723, 33, 65, 64, 192
-0.98877, 17, 185, 80, 216
-0.988781, 177, 113, 208, 240
-0.98879, 393, 85, 456, 116
-0.988852, 385, 1, 448, 375
-0.988895, 361, 105, 424, 136
-0.988937, 361, 117, 424, 148
-0.988939, 433, 1, 496, 375
-0.988958, 169, 161, 200, 288
-0.988974, 353, 85, 416, 116
-0.98902, 81, 177, 112, 304
-0.989059, 345, 177, 376, 304
-0.989132, 129, 105, 384, 168
-0.98923, 85, 81, 116, 208
-0.989279, 225, 297, 352, 360
-0.989281, 393, 1, 456, 32
-0.989309, 21, 161, 52, 288
-0.989325, 417, 65, 480, 96
-0.989333, 353, 65, 416, 96
-0.989373, 365, 177, 396, 304
-0.989416, 353, 41, 416, 72
-0.989419, 425, 9, 488, 40
-0.989433, 209, 201, 272, 232
-0.989452, 49, 185, 112, 216
-0.989478, 185, 205, 248, 236
-0.989522, 213, 1, 244, 128
-0.989527, 61, 65, 92, 192
-0.98953, 137, 157, 200, 188
-0.989588, 217, 261, 280, 292
-0.989607, 393, 97, 456, 128
-0.989622, 353, 13, 416, 44
-0.989663, 193, 89, 256, 120
-0.989694, 305, 193, 336, 320
-0.989721, 369, 1, 432, 32
-0.989725, 425, 97, 488, 352
-0.989766, 393, 53, 456, 84
-0.989769, 209, 129, 272, 160
-0.98977, 389, 17, 420, 144
-0.989775, 417, 97, 480, 128
-0.989791, 273, 21, 336, 52
-0.989797, 353, 29, 416, 60
-0.989833, 17, 197, 80, 228
-0.989862, 9, 173, 72, 204
-0.989869, 425, 29, 488, 60
-0.989878, 129, 81, 384, 144
-0.989931, 113, 105, 176, 136
-0.989933, 433, 113, 496, 144
-0.989942, 353, 53, 416, 84
-0.989946, 377, 73, 440, 104
-0.989952, 401, 125, 464, 156
-0.989962, 137, 145, 200, 176
-0.989963, 425, 41, 488, 72
-0.989989, 217, 213, 280, 244
-0.990001, 385, 17, 448, 48
-0.99007, 137, 57, 200, 88
-0.990072, 361, 129, 424, 160
-0.990082, 137, 129, 200, 160
-0.990119, 113, 145, 176, 176
-0.990136, 185, 41, 248, 72
-0.990147, 137, 69, 200, 100
-0.990148, 233, 129, 296, 160
-0.990174, 161, 57, 416, 120
-0.990184, 33, 129, 288, 192
-0.990188, 225, 113, 480, 176
-0.990197, 49, 173, 112, 204
-0.9902, 73, 193, 136, 224
-0.990202, 249, 245, 312, 276
-0.990202, 469, 81, 500, 208
-0.990204, 169, 161, 232, 192
-0.990209, 209, 105, 272, 136
-0.990211, 153, 117, 216, 148
-0.990222, 397, 241, 428, 368
-0.990222, 425, 53, 488, 84
-0.990235, 209, 273, 272, 304
-0.990245, 1, 157, 64, 188
-0.990246, 169, 137, 232, 168
-0.990276, 337, 113, 400, 144
-0.99029, 113, 129, 176, 160
-0.990297, 217, 89, 280, 120
-0.990298, 417, 77, 480, 108
-0.990308, 377, 33, 440, 64
-0.99033, 1, 177, 256, 240
-0.990331, 41, 197, 104, 228
-0.990344, 289, 249, 352, 280
-0.990375, 225, 89, 480, 152
-0.990375, 257, 9, 500, 72
-0.990377, 329, 97, 392, 128
-0.990389, 265, 61, 328, 92
-0.990403, 113, 65, 176, 96
-0.990405, 177, 73, 240, 104
-0.990412, 449, 97, 480, 224
-0.990434, 177, 149, 240, 180
-0.990444, 89, 153, 152, 184
-0.990451, 33, 153, 96, 184
-0.990461, 97, 197, 160, 228
-0.990464, 113, 117, 176, 148
-0.990476, 93, 161, 124, 288
-0.990476, 309, 241, 340, 368
-0.990477, 225, 117, 288, 148
-0.99048, 409, 273, 472, 304
-0.990492, 329, 25, 392, 56
-0.990496, 137, 105, 200, 136
-0.990502, 81, 137, 144, 168
-0.990515, 313, 49, 376, 80
-0.990535, 89, 1, 152, 32
-0.990538, 9, 141, 72, 172
-0.990542, 249, 49, 312, 80
-0.990544, 169, 85, 232, 116
-0.990552, 209, 77, 272, 108
-0.990561, 193, 261, 256, 292
-0.990562, 97, 201, 352, 264
-0.990587, 225, 65, 288, 96
-0.990587, 321, 177, 448, 240
-0.990594, 241, 213, 304, 244
-0.990595, 113, 17, 176, 48
-0.990619, 49, 225, 176, 352
-0.990631, 297, 9, 360, 40
-0.990632, 89, 29, 152, 60
-0.990656, 401, 33, 464, 64
-0.990662, 249, 141, 312, 172
-0.990667, 89, 169, 152, 200
-0.990668, 161, 41, 224, 72
-0.990676, 81, 85, 144, 116
-0.990705, 73, 117, 136, 148
-0.990725, 225, 161, 288, 192
-0.99073, 409, 137, 472, 168
-0.99073, 169, 97, 232, 128
-0.990732, 105, 161, 136, 288
-0.990743, 329, 65, 392, 96
-0.990762, 113, 41, 176, 72
-0.990763, 329, 125, 392, 156
-0.990782, 157, 161, 188, 288
-0.990807, 225, 25, 288, 56
-0.990816, 177, 217, 240, 248
-0.990831, 329, 77, 392, 108
-0.990833, 137, 33, 200, 64
-0.990839, 281, 193, 312, 320
-0.990845, 137, 173, 200, 204
-0.990855, 193, 117, 256, 148
-0.990873, 329, 37, 392, 68
-0.990889, 217, 145, 280, 176
-0.990894, 89, 17, 152, 48
-0.990907, 265, 229, 328, 260
-0.990944, 233, 281, 296, 312
-0.990947, 89, 45, 152, 76
-0.990956, 9, 89, 72, 120
-0.990972, 169, 57, 232, 88
-0.990978, 361, 261, 424, 292
-0.990983, 321, 249, 384, 280
-0.990991, 185, 273, 248, 304
-0.991005, 425, 125, 488, 156
-0.991009, 113, 53, 176, 84
-0.991013, 225, 49, 288, 80
-0.991041, 249, 89, 312, 120
-0.991043, 433, 141, 496, 172
-0.991046, 137, 85, 200, 116
-0.991051, 201, 249, 264, 280
-0.991053, 241, 257, 304, 288
-0.991056, 433, 273, 496, 304
-0.99106, 113, 93, 176, 124
-0.991083, 1, 105, 64, 136
-0.991104, 153, 213, 216, 244
-0.991107, 289, 313, 416, 375
-0.991111, 289, 37, 352, 68
-0.991111, 49, 133, 112, 164
-0.991117, 257, 49, 500, 112
-0.991184, 337, 313, 464, 375
-0.991185, 129, 137, 384, 200
-0.99135, 169, 209, 200, 336
-0.991445, 33, 1, 96, 375
-0.991474, 33, 105, 288, 168
-0.991476, 409, 113, 440, 240
-0.99148, 113, 209, 144, 336
-0.991562, 457, 225, 488, 352
-0.991565, 49, 281, 176, 344
-0.991594, 33, 73, 288, 136
-0.991631, 33, 153, 288, 216
-0.991641, 13, 241, 44, 368
-0.991722, 161, 33, 416, 96
-0.991743, 1, 17, 256, 80
-0.991767, 181, 225, 212, 352
-0.9918, 1, 265, 128, 328
-0.992077, 337, 217, 464, 280
-0.992287, 69, 185, 100, 216
-0.992349, 357, 109, 388, 140
-0.99235, 445, 85, 476, 116
-0.992384, 229, 265, 260, 296
-0.992412, 49, 257, 176, 320
-0.992421, 397, 113, 428, 144
-0.992478, 417, 49, 448, 80
-0.992483, 85, 193, 116, 224
-0.992497, 401, 1, 432, 32
-0.99251, 397, 41, 428, 72
-0.992523, 241, 261, 272, 292
-0.992527, 1, 45, 32, 76
-0.992543, 357, 253, 388, 284
-0.992547, 441, 117, 472, 148
-0.992552, 205, 205, 236, 236
-0.992559, 397, 57, 428, 88
-0.992562, 425, 37, 456, 68
-0.99259, 421, 77, 452, 108
-0.992593, 237, 117, 268, 148
-0.992602, 401, 85, 432, 116
-0.992619, 417, 61, 448, 92
-0.992619, 125, 153, 156, 184
-0.992625, 361, 25, 392, 56
-0.992632, 341, 93, 372, 124
-0.992637, 157, 145, 188, 176
-0.992638, 469, 293, 500, 324
-0.992638, 433, 93, 464, 124
-0.992642, 421, 105, 452, 136
-0.992643, 397, 17, 428, 48
-0.992655, 445, 65, 476, 96
-0.992658, 469, 53, 500, 84
-0.992668, 145, 165, 176, 196
-0.992672, 177, 149, 208, 180
-0.992672, 1, 105, 32, 136
-0.992676, 361, 77, 392, 108
-0.99268, 409, 33, 440, 64
-0.992687, 129, 165, 160, 196
-0.992687, 409, 125, 440, 156
-0.992688, 17, 149, 48, 180
-0.992689, 433, 273, 464, 304
-0.99269, 241, 277, 272, 308
-0.992693, 137, 149, 168, 180
-0.992693, 381, 33, 412, 64
-0.992698, 217, 85, 248, 116
-0.992699, 469, 281, 500, 312
-0.9927, 13, 89, 44, 120
-0.992706, 33, 189, 64, 220
-0.992712, 397, 101, 428, 132
-0.992717, 249, 93, 280, 124
-0.992717, 413, 89, 444, 120
-0.99272, 445, 97, 476, 128
-0.992724, 409, 109, 440, 140
-0.992727, 437, 53, 468, 84
-0.992728, 5, 77, 36, 108
-0.992732, 1, 137, 32, 168
-0.992734, 177, 161, 208, 192
-0.992736, 229, 277, 260, 308
-0.992743, 357, 1, 388, 32
-0.992743, 229, 105, 260, 136
-0.992746, 13, 197, 44, 228
-0.992746, 181, 65, 212, 96
-0.992747, 397, 69, 428, 100
-0.992748, 249, 129, 280, 160
-0.992749, 437, 33, 468, 64
-0.992752, 469, 21, 500, 52
-0.992758, 1, 61, 32, 92
-0.992759, 201, 105, 232, 136
-0.99276, 117, 129, 148, 160
-0.992764, 121, 1, 152, 32
-0.992768, 361, 53, 392, 84
-0.992769, 193, 81, 224, 112
-0.99277, 41, 165, 72, 196
-0.992771, 457, 25, 488, 56
-0.992773, 9, 177, 40, 208
-0.992774, 417, 17, 448, 48
-0.992774, 193, 37, 224, 68
-0.992777, 161, 1, 416, 64
-0.992779, 361, 13, 392, 44
-0.99278, 237, 61, 268, 92
-0.99278, 205, 221, 236, 252
-0.992789, 469, 41, 500, 72
-0.99279, 205, 93, 236, 124
-0.992796, 357, 97, 388, 128
-0.992796, 229, 85, 260, 116
-0.992798, 249, 49, 280, 80
-0.9928, 441, 9, 472, 40
-0.9928, 69, 197, 100, 228
-0.992801, 153, 109, 184, 140
-0.992805, 265, 33, 296, 64
-0.992806, 341, 65, 372, 96
-0.992814, 157, 65, 188, 96
-0.992814, 53, 185, 84, 216
-0.992816, 433, 81, 464, 112
-0.992817, 457, 277, 488, 308
-0.992825, 429, 117, 460, 148
-0.992827, 217, 105, 248, 136
-0.992831, 145, 85, 176, 116
-0.992831, 217, 201, 248, 232
-0.992835, 121, 141, 152, 172
-0.992836, 253, 33, 284, 64
-0.992836, 209, 273, 240, 304
-0.992836, 29, 177, 60, 208
-0.992843, 381, 53, 412, 84
-0.992843, 397, 29, 428, 60
-0.992843, 457, 289, 488, 320
-0.992844, 129, 185, 160, 216
-0.992846, 261, 17, 292, 48
-0.992848, 181, 53, 212, 84
-0.99285, 181, 137, 212, 168
-0.99285, 237, 33, 268, 64
-0.99285, 221, 125, 252, 156
-0.992852, 361, 65, 392, 96
-0.992854, 169, 137, 200, 168
-0.992854, 189, 161, 220, 192
-0.992856, 381, 21, 412, 52
-0.992861, 377, 117, 408, 148
-0.992865, 349, 77, 380, 108
-0.992865, 145, 57, 176, 88
-0.992867, 237, 73, 268, 104
-0.992869, 381, 81, 412, 112
-0.992873, 281, 17, 312, 48
-0.992875, 217, 73, 248, 104
-0.992878, 453, 49, 484, 80
-0.99288, 1, 1, 32, 32
-0.992881, 345, 121, 376, 152
-0.992882, 201, 69, 232, 100
-0.992882, 225, 253, 256, 284
-0.992884, 429, 1, 460, 32
-0.992884, 161, 121, 192, 152
-0.992885, 193, 205, 224, 236
-0.992887, 345, 253, 376, 284
-0.992888, 97, 193, 128, 224
-0.993177, 1, 113, 500, 176
-0.993184, 193, 257, 448, 320
-0.993186, 1, 41, 256, 104
-0.993259, 97, 225, 352, 288
-0.993319, 129, 177, 384, 240
-0.993533, 1, 201, 256, 264
-0.993588, 81, 313, 208, 375
-0.993592, 65, 145, 192, 176
-0.993702, 225, 177, 480, 240
-0.993765, 33, 185, 160, 216
-0.993889, 257, 137, 500, 200
-0.993902, 129, 209, 256, 240
-0.993922, 1, 65, 500, 128
-0.993941, 49, 161, 176, 192
-0.993953, 401, 105, 416, 168
-0.994036, 249, 89, 264, 152
-0.994044, 113, 153, 240, 184
-0.994058, 447, 1, 462, 64
-0.994117, 257, 225, 500, 288
-0.994125, 161, 141, 288, 172
-0.994184, 193, 281, 448, 344
-0.994185, 97, 273, 352, 336
-0.994217, 97, 109, 224, 140
-0.994239, 321, 65, 448, 96
-0.994289, 249, 113, 264, 176
-0.99429, 1, 137, 500, 200
-0.994291, 443, 41, 458, 104
-0.994299, 1, 25, 500, 88
-0.9943, 305, 129, 432, 160
-0.994317, 353, 121, 480, 152
-0.994353, 455, 105, 470, 168
-0.994379, 453, 65, 468, 128
-0.994402, 321, 77, 448, 108
-0.994455, 1, 89, 500, 152
-0.994469, 353, 109, 480, 140
-0.99447, 49, 225, 112, 352
-0.994485, 193, 205, 320, 236
-0.994487, 407, 105, 422, 168
-0.99451, 305, 113, 432, 144
-0.994515, 161, 121, 288, 152
-0.994552, 1, 1, 500, 64
-0.994578, 9, 1, 24, 64
-0.994581, 439, 65, 454, 128
-0.994581, 17, 305, 144, 368
-0.994618, 241, 137, 368, 168
-0.994635, 97, 129, 224, 160
-0.994659, 253, 41, 268, 104
-0.994679, 15, 41, 30, 104
-0.994712, 193, 201, 448, 264
-0.994714, 241, 61, 368, 92
-0.994718, 161, 277, 288, 308
-0.994734, 403, 1, 418, 64
-0.99474, 193, 225, 320, 256
-0.994746, 239, 113, 254, 176
-0.99475, 257, 109, 384, 140
-0.994752, 419, 81, 434, 144
-0.99479, 257, 97, 384, 128
-0.994844, 321, 97, 448, 128
-0.994857, 49, 197, 176, 228
-0.994875, 1, 17, 16, 80
-0.994884, 49, 133, 176, 164
-0.9949, 437, 89, 452, 152
-0.9949, 465, 89, 480, 152
-0.994913, 221, 129, 236, 192
-0.994917, 177, 89, 304, 120
-0.994925, 65, 89, 192, 120
-0.994936, 81, 173, 208, 204
-0.994995, 471, 289, 486, 352
-0.995028, 439, 113, 454, 176
-0.995033, 351, 89, 366, 152
-0.995054, 305, 153, 432, 216
-0.995066, 321, 49, 448, 80
-0.995078, 137, 145, 152, 208
-0.995083, 361, 97, 376, 160
-0.995093, 441, 17, 456, 80
-0.995111, 49, 161, 64, 224
-0.995147, 241, 41, 368, 72
-0.995167, 459, 65, 474, 128
-0.995167, 353, 137, 480, 168
-0.995191, 465, 25, 480, 88
-0.995192, 5, 33, 36, 288
-0.995231, 411, 1, 426, 64
-0.995232, 17, 145, 144, 176
-0.995236, 231, 129, 246, 192
-0.995245, 17, 93, 144, 124
-0.995262, 177, 165, 304, 196
-0.995265, 241, 73, 368, 104
-0.995269, 1, 185, 500, 248
-0.995271, 103, 185, 118, 248
-0.995288, 131, 177, 146, 240
-0.99529, 145, 41, 272, 72
-0.9953, 411, 81, 426, 144
-0.995305, 297, 225, 312, 288
-0.995313, 369, 37, 496, 68
-0.995321, 217, 169, 232, 232
-0.995322, 65, 33, 192, 64
-0.995327, 449, 105, 464, 168
-0.995335, 125, 169, 140, 232
-0.995364, 65, 57, 192, 88
-0.995386, 129, 165, 256, 196
-0.995401, 425, 193, 488, 320
-0.995422, 243, 65, 258, 128
-0.995434, 65, 45, 192, 76
-0.99544, 1, 201, 128, 232
-0.995449, 433, 49, 448, 112
-0.995459, 171, 89, 186, 152
-0.99547, 399, 81, 414, 144
-0.995478, 177, 113, 192, 176
-0.99548, 163, 129, 178, 192
-0.995487, 5, 57, 20, 120
-0.995498, 225, 265, 240, 328
-0.995499, 485, 273, 500, 336
-0.99551, 123, 121, 138, 184
-0.995511, 131, 153, 146, 216
-0.995537, 1, 249, 500, 312
-0.995538, 209, 125, 336, 156
-0.995539, 97, 313, 352, 375
-0.995541, 219, 193, 234, 256
-0.995559, 275, 97, 290, 160
-0.995567, 239, 89, 254, 152
-0.995578, 455, 41, 470, 104
-0.995578, 369, 53, 496, 84
-0.995579, 461, 113, 476, 176
-0.995581, 97, 197, 224, 228
-0.995585, 213, 129, 228, 192
-0.995591, 193, 37, 320, 68
-0.995592, 193, 265, 320, 296
-0.995595, 17, 105, 144, 136
-0.995617, 449, 33, 464, 96
-0.995634, 161, 105, 288, 136
-0.995635, 1, 273, 500, 336
-0.995636, 13, 161, 28, 224
-0.995636, 177, 73, 304, 104
-0.995642, 417, 1, 432, 64
-0.995644, 245, 25, 260, 88
-0.995645, 443, 89, 458, 152
-0.995657, 369, 1, 496, 32
-0.995657, 423, 1, 438, 64
-0.995659, 77, 185, 92, 248
-0.99566, 109, 185, 124, 248
-0.995664, 1, 161, 500, 224
-0.995669, 485, 297, 500, 360
-0.995671, 1, 289, 256, 352
-0.995677, 113, 89, 240, 120
-0.995678, 149, 129, 164, 192
-0.99568, 81, 225, 208, 256
-0.995684, 253, 65, 268, 128
-0.995688, 27, 121, 42, 184
-0.995698, 123, 145, 138, 208
-0.995701, 403, 41, 418, 104
-0.995703, 21, 81, 36, 144
-0.995716, 241, 261, 368, 292
-0.995735, 343, 57, 358, 120
-0.995736, 465, 65, 480, 128
-0.995743, 81, 161, 96, 224
-0.995747, 341, 89, 356, 152
-0.995772, 33, 249, 288, 312
-0.995779, 177, 53, 304, 84
-0.995782, 61, 169, 76, 232
-0.995783, 71, 177, 86, 240
-0.995795, 315, 105, 330, 168
-0.995796, 415, 25, 430, 88
-0.995802, 81, 185, 208, 216
-0.995817, 81, 77, 208, 108
-0.995824, 431, 129, 446, 192
-0.99583, 429, 97, 444, 160
-0.995833, 87, 177, 102, 240
-0.995839, 225, 193, 240, 256
-0.995842, 193, 253, 320, 284
-0.995857, 433, 1, 448, 64
-0.99587, 231, 273, 246, 336
-0.995876, 307, 1, 322, 64
-0.995879, 353, 57, 368, 120
-0.995882, 477, 273, 492, 336
-0.995892, 39, 169, 54, 232
-0.995897, 449, 273, 464, 336
-0.995907, 289, 225, 304, 288
-0.995925, 311, 25, 326, 88
-0.995926, 241, 13, 368, 44
-0.995939, 293, 201, 308, 264
-0.995943, 321, 89, 336, 152
-0.995943, 369, 13, 496, 44
-0.995944, 253, 17, 268, 80
-0.995945, 275, 49, 290, 112
-0.995945, 113, 57, 240, 88
-0.995968, 427, 57, 442, 120
-0.995969, 415, 105, 430, 168
-0.995972, 235, 241, 250, 304
-0.995975, 197, 25, 212, 88
-0.995978, 211, 193, 226, 256
-0.995979, 465, 289, 480, 352
-0.99598, 55, 169, 70, 232
-0.995985, 113, 273, 240, 304
-0.995991, 469, 1, 484, 64
-0.995991, 17, 61, 144, 92
-0.995996, 115, 185, 130, 248
-0.996, 193, 193, 320, 224
-0.99601, 273, 249, 400, 280
-0.99603, 257, 121, 384, 152
-0.996037, 145, 253, 272, 284
-0.996041, 419, 49, 434, 112
-0.996043, 31, 145, 46, 208
-0.996049, 211, 169, 226, 232
-0.996049, 121, 81, 136, 144
-0.996054, 193, 305, 320, 336
-0.996063, 75, 153, 90, 216
-0.996085, 325, 33, 340, 96
-0.996102, 197, 129, 212, 192
-0.99611, 241, 25, 368, 56
-0.996114, 193, 17, 320, 48
-0.996116, 135, 201, 150, 264
-0.996117, 343, 113, 358, 176
-0.996119, 303, 225, 318, 288
-0.996119, 373, 1, 388, 64
-0.996133, 19, 153, 34, 216
-0.996135, 25, 265, 40, 328
-0.996139, 417, 129, 432, 192
-0.996153, 113, 141, 240, 172
-0.996157, 241, 229, 368, 260
-0.996158, 421, 25, 436, 88
-0.996163, 255, 121, 270, 184
-0.996165, 359, 129, 374, 192
-0.99617, 421, 105, 436, 168
-0.99617, 275, 25, 290, 88
-0.996176, 257, 209, 384, 240
-0.996179, 257, 97, 272, 160
-0.996185, 87, 89, 102, 152
-0.99619, 305, 25, 320, 88
-0.996192, 275, 217, 290, 280
-0.996193, 369, 289, 496, 320
-0.996203, 129, 221, 256, 252
-0.996204, 143, 121, 158, 184
-0.996209, 129, 185, 256, 216
-0.996213, 435, 25, 450, 88
-0.996218, 221, 89, 236, 152
-0.996221, 353, 33, 368, 96
-0.996235, 257, 1, 384, 32
-0.99627, 277, 1, 308, 256
-0.996278, 81, 1, 208, 32
-0.996281, 209, 277, 336, 308
-0.996283, 177, 289, 304, 320
-0.996296, 1, 133, 128, 164
-0.996299, 17, 73, 144, 104
-0.996302, 141, 65, 172, 320
-0.996308, 65, 17, 192, 48
-0.996315, 321, 257, 448, 288
-0.996323, 425, 1, 456, 256
-0.996329, 17, 49, 144, 80
-0.996337, 129, 77, 256, 108
-0.996339, 161, 153, 288, 184
-0.99636, 1, 173, 128, 204
-0.996362, 17, 117, 144, 148
-0.99637, 369, 277, 496, 308
-0.996378, 369, 25, 496, 56
-0.996381, 49, 209, 176, 240
-0.996388, 153, 1, 184, 256
-0.996393, 369, 81, 496, 112
-0.996418, 121, 1, 152, 256
-0.996425, 293, 1, 324, 256
-0.99647, 17, 65, 48, 320
-0.996473, 345, 1, 376, 256
-0.996478, 193, 313, 448, 375
-0.996499, 1, 161, 128, 192
-0.996508, 249, 1, 280, 256
-0.99651, 257, 85, 384, 116
-0.996512, 321, 245, 448, 276
-0.996516, 161, 1, 288, 32
-0.996559, 401, 1, 432, 256
-0.996592, 369, 265, 496, 296
-0.996614, 225, 289, 352, 320
-0.996616, 289, 29, 416, 60
-0.996657, 369, 65, 496, 96
-0.996659, 369, 97, 496, 128
-0.996684, 273, 297, 400, 328
-0.99669, 369, 169, 496, 232
-0.996758, 369, 149, 496, 180
-0.996771, 145, 309, 272, 340
-0.996834, 413, 1, 444, 256
-0.996838, 97, 305, 224, 336
-0.996854, 297, 97, 328, 352
-0.996902, 145, 29, 272, 60
-0.996907, 17, 33, 144, 64
-0.996954, 305, 9, 432, 40
-0.996957, 181, 1, 212, 256
-0.996962, 193, 1, 224, 256
-0.996978, 289, 173, 416, 204
-0.996991, 209, 105, 336, 136
-0.997004, 215, 201, 230, 232
-0.997006, 241, 97, 272, 352
-0.997012, 289, 309, 416, 340
-0.997019, 261, 1, 292, 256
-0.99702, 93, 189, 108, 220
-0.997028, 193, 317, 320, 348
-0.997046, 113, 13, 240, 44
-0.997047, 1, 297, 500, 360
-0.997065, 333, 1, 364, 256
-0.997103, 85, 185, 100, 216
-0.997121, 237, 1, 268, 256
-0.997137, 193, 241, 320, 272
-0.997146, 17, 237, 144, 268
-0.997165, 145, 233, 272, 264
-0.997172, 25, 193, 40, 224
-0.997213, 449, 1, 480, 256
-0.997219, 205, 97, 236, 352
-0.997224, 129, 289, 256, 320
-0.997225, 401, 101, 416, 132
-0.997245, 305, 141, 432, 172
-0.997267, 401, 113, 416, 144
-0.997287, 439, 77, 454, 108
-0.997324, 235, 269, 250, 300
-0.997353, 321, 185, 448, 216
-0.997395, 61, 97, 92, 352
-0.997424, 443, 89, 458, 120
-0.997429, 223, 277, 238, 308
-0.997441, 225, 157, 352, 188
-0.997476, 459, 97, 474, 128
-0.997486, 221, 97, 252, 352
-0.997487, 309, 1, 340, 256
-0.99749, 3, 53, 18, 84
-0.997496, 357, 97, 388, 352
-0.997498, 209, 1, 336, 32
-0.997507, 87, 197, 102, 228
-0.997516, 7, 1, 22, 32
-0.997525, 361, 1, 392, 256
-0.997525, 1, 129, 32, 375
-0.997528, 221, 201, 236, 232
-0.997534, 143, 149, 158, 180
-0.997535, 241, 197, 368, 228
-0.997538, 137, 153, 152, 184
-0.99754, 411, 113, 426, 144
-0.997555, 461, 1, 492, 256
-0.997557, 437, 1, 468, 256
-0.99757, 165, 65, 196, 320
-0.997579, 433, 85, 448, 116
-0.997591, 289, 221, 416, 252
-0.997591, 241, 321, 368, 352
-0.997592, 241, 309, 368, 340
-0.997603, 251, 125, 266, 156
-0.997604, 439, 49, 454, 80
-0.99761, 1, 1, 128, 32
-0.997611, 145, 197, 272, 228
-0.997618, 217, 85, 232, 116
-0.99762, 411, 1, 426, 32
-0.997622, 257, 273, 384, 304
-0.997622, 183, 149, 198, 180
-0.997623, 219, 69, 234, 100
-0.997626, 239, 69, 254, 100
-0.997628, 417, 1, 432, 32
-0.99763, 407, 101, 422, 132
-0.997637, 127, 153, 142, 184
-0.997643, 369, 193, 496, 256
-0.997657, 415, 85, 430, 116
-0.997657, 449, 93, 464, 124
-0.997658, 79, 197, 94, 228
-0.99766, 1, 225, 256, 288
-0.99768, 225, 333, 352, 364
-0.997685, 363, 253, 378, 284
-0.997689, 443, 117, 458, 148
-0.997695, 175, 137, 190, 168
-0.997698, 449, 33, 464, 64
-0.997704, 285, 129, 316, 375
-0.99771, 257, 129, 288, 375
-0.99771, 79, 181, 94, 212
-0.997711, 241, 269, 256, 300
-0.997716, 449, 273, 464, 304
-0.997718, 425, 57, 440, 88
-0.997719, 439, 29, 454, 60
-0.997724, 453, 113, 468, 144
-0.997727, 165, 109, 180, 140
-0.997728, 471, 289, 486, 320
-0.997743, 11, 29, 26, 60
-0.997744, 221, 1, 252, 256
-0.997746, 251, 45, 266, 76
-0.997747, 59, 185, 74, 216
-0.997756, 417, 105, 432, 136
-0.997757, 69, 177, 84, 208
-0.997765, 433, 65, 448, 96
-0.99777, 13, 45, 28, 76
-0.997772, 277, 33, 292, 64
-0.997777, 287, 21, 302, 52
-0.997777, 231, 85, 246, 116
-0.997779, 1, 41, 16, 72
-0.997779, 229, 261, 244, 292
-0.997784, 401, 41, 416, 72
-0.997784, 233, 285, 248, 316
-0.997798, 461, 285, 476, 316
-0.997802, 195, 49, 210, 80
-0.997803, 455, 45, 470, 76
-0.997804, 77, 129, 108, 375
-0.997805, 433, 25, 448, 56
-0.997812, 441, 1, 456, 32
-0.997814, 461, 113, 476, 144
-0.997821, 227, 289, 242, 320
-0.997822, 313, 97, 344, 352
-0.997822, 425, 85, 440, 116
-0.997826, 113, 97, 144, 352
-0.997826, 447, 61, 462, 92
-0.997827, 169, 141, 184, 172
-0.997835, 351, 93, 366, 124
-0.997842, 401, 125, 416, 156
-0.997847, 171, 117, 186, 148
-0.997854, 427, 13, 442, 44
-0.997857, 453, 1, 468, 32
-0.997857, 407, 125, 422, 156
-0.997861, 163, 121, 178, 152
-0.997867, 351, 121, 366, 152
-0.997868, 239, 117, 254, 148
-0.99787, 175, 153, 190, 184
-0.997872, 421, 29, 436, 60
-0.997873, 229, 273, 244, 304
-0.997875, 417, 45, 432, 76
-0.997875, 9, 13, 24, 44
-0.997876, 215, 221, 230, 252
-0.997878, 439, 61, 454, 92
-0.997878, 433, 37, 448, 68
-0.997885, 129, 129, 160, 375
-0.997891, 415, 69, 430, 100
-0.997892, 273, 129, 304, 375
-0.997904, 249, 93, 264, 124
-0.997906, 223, 265, 238, 296
-0.997907, 445, 45, 460, 76
-0.997909, 425, 45, 440, 76
-0.997911, 445, 21, 460, 52
-0.997911, 435, 117, 450, 148
-0.997912, 29, 129, 60, 375
-0.997913, 225, 213, 240, 244
-0.997916, 275, 21, 290, 52
-0.997916, 353, 65, 368, 96
-0.997918, 195, 29, 210, 60
-0.997918, 249, 113, 264, 144
-0.99792, 255, 33, 270, 64
-0.997923, 3, 85, 18, 116
-0.997927, 373, 261, 388, 292
-0.997934, 465, 57, 480, 88
-0.997935, 481, 285, 496, 316
-0.997938, 239, 89, 254, 120
-0.997939, 417, 117, 432, 148
-0.997944, 467, 113, 482, 144
-0.99795, 139, 189, 154, 220
-0.997955, 205, 57, 220, 88
-0.997957, 455, 81, 470, 112
-0.997958, 449, 77, 464, 108
-0.997962, 483, 297, 498, 328
-0.997963, 161, 153, 176, 184
-0.997963, 133, 169, 148, 200
-0.997964, 153, 133, 168, 164
-0.997969, 321, 1, 352, 256
-0.997974, 365, 1, 380, 32
-0.997976, 461, 69, 476, 100
-0.997977, 193, 161, 208, 192
-0.99798, 245, 25, 260, 56
-0.997981, 241, 49, 256, 80
-0.997981, 253, 201, 268, 232
-0.997984, 401, 97, 432, 352
-0.997985, 357, 249, 372, 280
-0.997986, 223, 93, 238, 124
-0.997991, 423, 1, 438, 32
-0.997993, 163, 133, 178, 164
-0.997996, 41, 129, 72, 375
-0.997997, 139, 165, 154, 196
-0.997998, 411, 41, 426, 72
-0.997999, 197, 69, 212, 100
-0.998001, 433, 97, 448, 128
-0.998003, 439, 17, 454, 48
-0.998005, 149, 165, 164, 196
-0.998006, 473, 277, 488, 308
-0.998037, 1, 313, 256, 375
-0.998038, 1, 209, 500, 272
-0.998039, 377, 1, 408, 256
-0.998103, 97, 1, 128, 256
-0.998147, 329, 97, 360, 352
-0.998203, 77, 33, 108, 288
-0.998267, 153, 129, 184, 375
-0.998281, 193, 97, 224, 352
-0.998316, 369, 97, 400, 352
-0.998429, 33, 187, 96, 202
-0.998433, 345, 97, 376, 352
-0.998435, 145, 159, 208, 174
-0.998438, 361, 121, 424, 136
-0.99844, 209, 1, 240, 256
-0.998446, 369, 109, 432, 124
-0.998449, 353, 67, 416, 82
-0.998451, 213, 225, 244, 240
-0.998451, 237, 129, 268, 144
-0.998452, 445, 1, 476, 16
-0.998453, 449, 25, 480, 40
-0.998453, 309, 135, 340, 150
-0.998453, 397, 77, 428, 92
-0.998453, 125, 1, 156, 16
-0.998453, 181, 79, 212, 94
-0.998453, 237, 95, 268, 110
-0.998454, 457, 1, 488, 16
-0.998454, 201, 75, 232, 90
-0.998454, 145, 13, 176, 28
-0.998454, 193, 33, 224, 48
-0.998454, 193, 81, 224, 96
-0.998455, 381, 33, 412, 48
-0.998456, 341, 79, 372, 94
-0.998457, 17, 153, 48, 168
-0.998457, 297, 47, 328, 62
-0.998457, 9, 197, 72, 212
-0.998458, 193, 67, 224, 82
-0.998459, 441, 35, 472, 50
-0.998459, 353, 93, 416, 108
-0.998459, 177, 143, 208, 158
-0.99846, 165, 143, 196, 158
-0.99846, 249, 93, 280, 108
-0.998461, 229, 283, 260, 298
-0.998461, 193, 143, 224, 158
-0.998462, 277, 17, 308, 32
-0.998462, 125, 171, 156, 186
-0.998462, 405, 11, 436, 26
-0.998462, 149, 113, 180, 128
-0.998463, 413, 75, 444, 90
-0.998463, 361, 21, 392, 36
-0.998463, 425, 63, 488, 78
-0.998463, 421, 121, 452, 136
-0.998463, 253, 119, 284, 134
-0.998465, 241, 269, 272, 284
-0.998465, 221, 143, 252, 158
-0.998465, 209, 139, 240, 154
-0.998466, 361, 47, 392, 62
-0.998466, 225, 227, 256, 242
-0.998466, 417, 1, 448, 16
-0.998468, 353, 27, 416, 42
-0.998468, 457, 39, 488, 54
-0.998468, 397, 35, 428, 50
-0.998468, 393, 117, 456, 132
-0.998468, 453, 55, 484, 70
-0.998469, 469, 1, 500, 16
-0.99847, 253, 137, 284, 152
-0.99847, 469, 51, 500, 66
-0.998471, 357, 121, 388, 136
-0.998471, 361, 127, 424, 142
-0.998471, 417, 53, 448, 68
-0.998472, 61, 193, 92, 208
-0.998472, 5, 85, 36, 100
-0.998473, 417, 35, 448, 50
-0.998473, 353, 47, 416, 62
-0.998473, 381, 39, 412, 54
-0.998474, 193, 39, 224, 54
-0.998474, 469, 39, 500, 54
-0.998474, 429, 29, 460, 44
-0.998474, 217, 85, 248, 100
-0.998475, 9, 189, 72, 204
-0.998475, 309, 47, 340, 62
-0.998475, 9, 187, 40, 202
-0.998477, 401, 123, 464, 138
-0.998478, 393, 1, 456, 16
-0.998478, 253, 39, 284, 54
-0.998478, 425, 81, 456, 96
-0.998479, 401, 85, 432, 100
-0.99848, 457, 291, 488, 306
-0.99848, 241, 263, 272, 278
-0.99848, 353, 115, 416, 130
-0.998481, 381, 27, 412, 42
-0.998481, 229, 89, 260, 104
-0.998481, 241, 41, 272, 56
-0.998481, 113, 147, 176, 162
-0.998482, 1, 181, 64, 196
-0.998483, 409, 111, 440, 126
-0.998483, 401, 67, 464, 82
-0.998484, 45, 185, 76, 200
-0.998484, 469, 293, 500, 308
-0.998484, 445, 85, 476, 100
-0.998484, 417, 45, 448, 60
-0.998484, 217, 113, 248, 128
-0.998484, 397, 55, 428, 70
-0.998485, 361, 73, 392, 88
-0.998486, 397, 123, 428, 138
-0.998486, 113, 153, 176, 168
-0.998486, 425, 57, 488, 72
-0.998486, 369, 3, 432, 18
-0.998486, 361, 13, 392, 28
-0.998487, 397, 29, 428, 44
-0.998487, 353, 73, 416, 88
-0.998488, 241, 279, 272, 294
-0.998488, 353, 41, 416, 56
-0.998488, 361, 59, 392, 74
-0.998488, 65, 199, 96, 214
-0.998488, 353, 15, 416, 30
-0.998489, 393, 7, 456, 22
-0.998489, 217, 119, 248, 134
-0.998492, 397, 23, 428, 38
-0.998493, 445, 275, 476, 290
-0.998493, 1, 107, 32, 122
-0.998494, 393, 91, 456, 106
-0.998494, 73, 195, 136, 210
-0.998495, 425, 69, 456, 84
-0.998495, 353, 33, 416, 48
-0.998495, 409, 125, 440, 140
-0.998496, 353, 87, 416, 102
-0.998498, 41, 179, 104, 194
-0.998498, 121, 155, 152, 170
-0.998498, 393, 73, 456, 88
-0.998499, 385, 31, 448, 46
-0.998499, 353, 99, 416, 114
-0.998501, 153, 143, 216, 158
-0.998501, 49, 193, 112, 208
-0.998501, 353, 57, 416, 72
-0.998501, 153, 59, 216, 74
-0.998504, 157, 137, 188, 152
-0.998504, 125, 165, 156, 180
-0.998504, 361, 29, 392, 44
-0.998505, 397, 41, 428, 56
-0.998506, 437, 123, 468, 138
-0.998506, 393, 99, 456, 114
-0.998506, 85, 193, 116, 208
-0.998506, 145, 167, 176, 182
-0.998507, 205, 109, 236, 124
-0.998507, 453, 63, 484, 78
-0.998507, 369, 21, 432, 36
-0.998507, 217, 271, 280, 286
-0.998508, 137, 153, 200, 168
-0.998508, 397, 63, 428, 78
-0.998508, 209, 201, 240, 216
-0.998508, 137, 69, 200, 84
-0.998509, 437, 63, 468, 78
-0.998509, 253, 53, 284, 68
-0.99851, 353, 3, 384, 18
-0.99851, 49, 203, 112, 218
-0.99851, 173, 161, 204, 176
-0.998511, 297, 249, 360, 264
-0.998512, 237, 123, 268, 138
-0.998513, 393, 61, 456, 76
-0.998513, 353, 81, 416, 96
-0.998514, 89, 13, 152, 28
-0.998515, 401, 91, 432, 106
-0.998516, 433, 117, 496, 132
-0.998517, 185, 41, 248, 56
-0.998517, 137, 75, 200, 90
-0.998518, 425, 47, 488, 62
-0.998518, 417, 91, 480, 106
-0.998519, 429, 39, 460, 54
-0.99852, 121, 13, 152, 28
-0.99852, 113, 131, 176, 146
-0.998521, 193, 167, 224, 182
-0.998522, 249, 129, 280, 144
-0.998522, 433, 93, 464, 108
-0.998522, 397, 5, 428, 20
-0.998522, 433, 87, 464, 102
-0.998522, 209, 91, 272, 106
-0.998522, 393, 107, 456, 122
-0.998523, 73, 149, 136, 164
-0.998523, 397, 117, 428, 132
-0.998524, 69, 187, 100, 202
-0.998524, 393, 21, 456, 36
-0.998524, 337, 21, 400, 36
-0.998524, 425, 39, 488, 54
-0.998525, 369, 9, 432, 24
-0.998525, 37, 33, 68, 288
-0.998525, 433, 275, 496, 290
-0.998526, 357, 111, 388, 126
-0.998526, 33, 153, 96, 168
-0.998526, 169, 49, 232, 64
-0.998526, 425, 25, 488, 40
-0.998527, 225, 133, 288, 148
-0.998528, 469, 29, 500, 44
-0.998528, 1, 47, 32, 62
-0.998529, 401, 49, 464, 64
-0.99853, 169, 167, 232, 182
-0.99853, 157, 155, 188, 170
-0.99853, 393, 79, 456, 94
-0.99853, 205, 167, 236, 182
-0.99853, 249, 25, 312, 40
-0.998531, 89, 37, 152, 52
-0.998531, 377, 37, 440, 52
-0.998532, 177, 143, 240, 158
-0.998532, 137, 179, 200, 194
-0.998533, 257, 19, 320, 34
-0.998533, 113, 137, 176, 152
-0.998534, 17, 203, 80, 218
-0.998534, 413, 85, 444, 100
-0.998534, 425, 5, 488, 20
-0.998535, 137, 137, 200, 152
-0.998535, 225, 267, 256, 282
-0.998535, 289, 137, 352, 152
-0.998536, 161, 201, 224, 216
-0.998536, 225, 123, 288, 138
-0.998536, 121, 165, 184, 180
-0.998537, 329, 41, 392, 56
-0.998537, 257, 47, 288, 62
-0.998537, 121, 171, 184, 186
-0.998538, 249, 141, 312, 156
-0.998538, 89, 7, 152, 22
-0.998538, 265, 47, 328, 62
-0.998539, 297, 21, 360, 36
-0.998539, 137, 115, 200, 130
-0.99854, 201, 211, 264, 226
-0.99854, 397, 71, 428, 86
-0.99854, 201, 277, 264, 292
-0.998541, 397, 111, 428, 126
-0.998542, 1, 55, 32, 70
-0.998542, 469, 57, 500, 72
-0.998542, 329, 253, 392, 268
-0.998543, 337, 1, 400, 16
-0.998543, 137, 125, 200, 140
-0.998543, 265, 247, 328, 262
-0.998543, 413, 91, 444, 106
-0.998543, 225, 139, 288, 154
-0.998544, 113, 107, 176, 122
-0.998544, 281, 41, 344, 56
-0.998545, 433, 69, 496, 84
-0.998546, 417, 61, 448, 76
-0.998546, 209, 111, 272, 126
-0.998547, 185, 225, 248, 240
-0.998547, 169, 83, 232, 98
-0.998547, 329, 131, 392, 146
-0.998547, 137, 131, 200, 146
-0.998548, 17, 175, 80, 190
-0.998548, 377, 67, 440, 82
-0.998549, 361, 133, 424, 148
-0.998549, 73, 141, 136, 156
-0.998549, 201, 137, 264, 152
-0.998549, 433, 75, 496, 90
-0.99855, 425, 11, 488, 26
-0.998551, 233, 221, 296, 236
-0.998551, 81, 125, 144, 140
-0.998553, 313, 51, 376, 66
-0.998553, 129, 33, 192, 48
-0.998554, 137, 53, 200, 68
-0.998554, 105, 123, 168, 138
-0.998554, 33, 161, 96, 176
-0.998554, 393, 55, 456, 70
-0.998554, 169, 65, 232, 80
-0.998555, 249, 55, 312, 70
-0.998556, 429, 273, 460, 288
-0.998556, 401, 273, 464, 288
-0.998556, 161, 41, 224, 56
-0.998557, 1, 151, 64, 166
-0.998558, 425, 31, 488, 46
-0.998559, 57, 187, 120, 202
-0.998559, 113, 59, 176, 74
-0.998559, 297, 31, 360, 46
-0.99856, 193, 75, 256, 90
-0.998572, 441, 117, 472, 132
-0.998578, 445, 91, 476, 106
-0.998587, 443, 17, 458, 144
-0.998599, 181, 97, 212, 352
-0.998609, 1, 1, 16, 128
-0.998617, 389, 1, 420, 256
-0.998621, 229, 273, 260, 288
-0.998645, 251, 49, 266, 176
-0.99865, 89, 129, 120, 375
-0.998702, 7, 65, 22, 192
-0.998741, 437, 49, 452, 176
-0.998756, 81, 129, 96, 256
-0.998775, 435, 1, 450, 128
-0.998812, 449, 33, 464, 160
-0.998834, 49, 33, 80, 288
-0.998836, 401, 65, 416, 192
-0.998839, 241, 1, 256, 128
-0.998847, 421, 129, 452, 375
-0.998853, 15, 17, 30, 144
-0.99886, 295, 1, 310, 128
-0.998861, 431, 65, 446, 192
-0.998875, 65, 129, 80, 256
-0.998884, 219, 65, 234, 192
-0.998887, 23, 65, 38, 192
-0.998894, 101, 129, 132, 375
-0.998894, 461, 1, 476, 128
-0.998895, 161, 97, 176, 224
-0.998901, 341, 49, 356, 176
-0.998913, 253, 1, 268, 128
-0.998917, 425, 49, 440, 176
-0.998921, 469, 129, 500, 375
-0.998922, 409, 65, 424, 192
-0.99893, 419, 65, 434, 192
-0.998931, 241, 65, 256, 192
-0.998931, 389, 97, 420, 352
-0.998934, 125, 129, 140, 256
-0.998943, 75, 129, 90, 256
-0.998944, 109, 1, 140, 256
-0.998946, 135, 113, 150, 240
-0.998955, 273, 113, 288, 240
-0.998962, 275, 1, 290, 128
-0.998966, 171, 113, 186, 240
-0.998984, 317, 1, 332, 128
-0.998989, 361, 49, 376, 176
-0.998994, 59, 129, 74, 256
-0.998998, 13, 113, 28, 240
-0.998999, 355, 1, 370, 128
-0.999004, 419, 1, 434, 128
-0.999007, 231, 17, 246, 144
-0.999013, 87, 97, 102, 224
-0.999016, 371, 1, 386, 128
-0.999019, 33, 129, 48, 256
-0.999028, 293, 113, 308, 240
-0.999028, 53, 145, 68, 272
-0.999036, 455, 65, 470, 192
-0.999043, 429, 1, 444, 128
-0.999047, 61, 1, 92, 256
-0.999048, 41, 161, 56, 288
-0.99905, 349, 65, 364, 192
-0.999059, 461, 49, 476, 176
-0.999065, 413, 17, 428, 144
-0.999067, 401, 1, 416, 128
-0.999075, 303, 1, 318, 128
-0.999078, 47, 161, 62, 288
-0.999083, 151, 81, 166, 208
-0.99909, 443, 81, 458, 208
-0.999092, 275, 65, 290, 192
-0.999094, 283, 113, 298, 240
-0.999095, 147, 1, 162, 128
-0.9991, 327, 33, 342, 160
-0.999103, 19, 129, 34, 256
-0.999105, 333, 1, 348, 128
-0.999106, 125, 81, 140, 208
-0.999116, 367, 129, 382, 256
-0.999116, 433, 97, 464, 352
-0.999118, 289, 1, 304, 128
-0.99913, 467, 1, 482, 128
-0.999132, 197, 33, 212, 160
-0.999132, 367, 225, 382, 352
-0.999135, 467, 49, 482, 176
-0.999142, 455, 1, 470, 128
-0.999156, 321, 49, 336, 176
-0.999157, 305, 113, 320, 240
-0.999159, 177, 49, 192, 176
-0.999159, 281, 1, 296, 128
-0.999161, 27, 113, 42, 240
-0.999161, 163, 145, 178, 272
-0.999162, 167, 65, 182, 192
-0.999162, 257, 65, 272, 192
-0.999163, 199, 113, 214, 240
-0.999165, 343, 97, 358, 224
-0.999166, 231, 225, 246, 352
-0.999168, 321, 113, 336, 240
-0.99917, 437, 97, 452, 224
-0.999172, 449, 129, 480, 375
-0.999179, 209, 49, 224, 176
-0.999183, 303, 241, 318, 368
-0.999187, 243, 225, 258, 352
-0.999187, 121, 1, 136, 128
-0.999188, 177, 113, 192, 240
-0.99919, 339, 1, 354, 128
-0.999192, 349, 17, 364, 144
-0.999195, 197, 177, 212, 304
-0.999195, 267, 193, 282, 320
-0.999197, 225, 1, 240, 128
-0.999197, 67, 177, 82, 304
-0.999198, 283, 65, 298, 192
-0.999203, 261, 193, 276, 320
-0.999208, 311, 113, 326, 240
-0.999211, 139, 1, 154, 128
-0.999212, 333, 49, 348, 176
-0.999213, 365, 1, 380, 128
-0.999214, 13, 161, 28, 288
-0.999216, 267, 113, 282, 240
-0.999218, 231, 97, 246, 224
-0.999225, 91, 145, 106, 272
-0.999225, 117, 113, 132, 240
-0.999226, 5, 145, 20, 272
-0.999227, 189, 177, 204, 304
-0.999228, 297, 49, 312, 176
-0.99923, 299, 129, 314, 256
-0.99923, 205, 1, 220, 128
-0.999239, 359, 113, 374, 240
-0.999243, 131, 65, 146, 192
-0.999243, 483, 17, 498, 144
-0.999247, 13, 65, 28, 192
-0.999256, 39, 113, 54, 240
-0.99926, 261, 1, 276, 128
-0.999261, 251, 129, 266, 256
-0.999262, 449, 97, 464, 224
-0.999263, 293, 241, 308, 368
-0.999267, 401, 113, 416, 240
-0.999269, 311, 1, 326, 128
-0.999273, 407, 113, 422, 240
-0.999274, 61, 193, 76, 320
-0.999274, 155, 33, 170, 160
-0.999277, 175, 1, 190, 128
-0.999279, 141, 65, 156, 192
-0.999285, 311, 49, 326, 176
-0.999292, 9, 1, 24, 128
-0.999293, 51, 97, 66, 224
-0.999294, 235, 177, 250, 304
-0.999294, 229, 161, 244, 288
-0.999297, 119, 161, 134, 288
-0.999297, 255, 225, 270, 352
-0.999625, 153, 141, 168, 156
-0.999626, 165, 121, 180, 136
-0.999626, 87, 171, 102, 186
-0.999627, 79, 187, 94, 202
-0.999627, 255, 37, 270, 52
-0.999628, 351, 125, 366, 140
-0.999628, 245, 33, 260, 48
-0.999628, 185, 143, 200, 158
-0.999628, 25, 195, 40, 210
-0.999629, 123, 1, 138, 16
-0.99963, 219, 225, 234, 240
-0.99963, 277, 245, 292, 260
-0.99963, 437, 91, 452, 106
-0.99963, 271, 297, 286, 312
-0.999631, 233, 227, 248, 242
-0.999631, 293, 31, 308, 46
-0.999632, 225, 281, 240, 296
-0.999633, 407, 105, 422, 120
-0.999633, 411, 1, 426, 16
-0.999633, 137, 149, 152, 164
-0.999633, 239, 119, 254, 134
-0.999633, 191, 165, 206, 180
-0.999633, 275, 37, 290, 52
-0.999634, 253, 31, 268, 46
-0.999634, 439, 69, 454, 84
-0.999634, 443, 51, 458, 66
-0.999635, 455, 67, 470, 82
-0.999636, 161, 129, 176, 144
-0.999636, 415, 85, 430, 100
-0.999636, 309, 45, 324, 60
-0.999636, 223, 143, 238, 158
-0.999636, 403, 45, 418, 60
-0.999637, 229, 265, 244, 280
-0.999637, 465, 91, 480, 106
-0.999638, 449, 111, 464, 126
-0.999638, 407, 125, 422, 140
-0.999638, 343, 59, 358, 74
-0.999639, 441, 7, 456, 22
-0.999639, 1, 41, 16, 56
-0.999639, 453, 5, 468, 20
-0.999639, 81, 181, 96, 196
-0.99964, 3, 47, 18, 62
-0.99964, 465, 291, 480, 306
-0.99964, 191, 143, 206, 158
-0.99964, 251, 47, 266, 62
-0.999641, 417, 95, 432, 110
-0.999641, 449, 67, 464, 82
-0.999641, 459, 289, 474, 304
-0.999642, 137, 171, 152, 186
-0.999643, 259, 53, 274, 68
-0.999643, 421, 35, 436, 50
-0.999643, 179, 143, 194, 158
-0.999643, 443, 33, 458, 48
-0.999644, 231, 89, 246, 104
-0.999644, 417, 17, 432, 32
-0.999644, 443, 117, 458, 132
-0.999644, 459, 85, 474, 100
-0.999645, 409, 99, 424, 114
-0.999645, 153, 121, 168, 136
-0.999646, 251, 57, 266, 72
-0.999646, 437, 97, 452, 112
-0.999646, 251, 139, 266, 154
-0.999646, 211, 201, 226, 216
-0.999648, 81, 199, 96, 214
-0.999648, 123, 153, 138, 168
-0.999648, 297, 23, 312, 38
-0.999648, 337, 67, 352, 82
-0.999649, 169, 147, 184, 162
-0.999649, 221, 85, 236, 100
-0.999649, 439, 19, 454, 34
-0.999649, 413, 117, 428, 132
-0.999651, 89, 189, 104, 204
-0.999651, 451, 117, 466, 132
-0.999652, 167, 127, 182, 142
-0.999653, 247, 271, 262, 286
-0.999654, 225, 275, 240, 290
-0.999655, 65, 179, 80, 194
-0.999656, 229, 143, 244, 158
-0.999656, 159, 147, 174, 162
-0.999656, 347, 1, 362, 16
-0.999657, 365, 251, 380, 266
-0.999657, 149, 165, 164, 180
-0.999658, 171, 155, 186, 170
-0.999659, 439, 75, 454, 90
-0.999659, 423, 123, 438, 138
-0.99966, 399, 101, 414, 116
-0.999661, 131, 171, 146, 186
-0.999663, 471, 293, 486, 308
-0.999663, 441, 61, 456, 76
-0.999664, 251, 63, 266, 78
-0.999665, 447, 1, 462, 16
-0.999667, 163, 153, 178, 168
-0.999667, 435, 271, 450, 286
-0.999669, 139, 165, 154, 180
-0.999669, 457, 91, 472, 106
-0.99967, 241, 263, 256, 278
-0.99967, 449, 39, 464, 54
-0.99967, 229, 289, 244, 304
-0.999671, 139, 183, 154, 198
-0.999673, 7, 5, 22, 20
-0.999673, 97, 193, 112, 208
-0.999675, 401, 127, 416, 142
-0.999675, 173, 121, 188, 136
-0.999677, 197, 165, 212, 180
-0.999677, 25, 201, 40, 216
-0.999679, 435, 29, 450, 44
-0.999685, 411, 111, 426, 126
-0.999686, 241, 271, 256, 286
-0.999688, 235, 273, 250, 288
-0.999689, 185, 161, 200, 176
-0.999689, 217, 167, 232, 182
-0.999691, 205, 167, 220, 182
-0.999692, 421, 1, 436, 16
-0.999692, 235, 143, 250, 158
-0.999693, 401, 117, 416, 132
-0.999694, 451, 91, 466, 106
-0.999695, 235, 283, 250, 298
-0.999697, 3, 85, 18, 100
-0.999697, 443, 91, 458, 106
-0.999697, 447, 273, 462, 288
-0.9997, 439, 39, 454, 54
-0.999701, 447, 45, 462, 60
-0.999704, 461, 113, 476, 128
-0.999707, 407, 119, 422, 134
-0.999709, 251, 129, 266, 144
-0.999709, 401, 107, 416, 122
-0.999716, 211, 167, 226, 182
-0.999738, 1, 57, 16, 72
-0.999739, 179, 157, 194, 172
-0.999741, 457, 119, 472, 134
