1974
-0.446052, 1, 1, 500, 375
-0.4759, 1, 129, 500, 375
-0.478372, 225, 1, 480, 375
-0.495197, 1, 33, 500, 288
-0.584719, 257, 65, 500, 320
-0.589757, 1, 1, 256, 375
-0.647762, 1, 129, 256, 375
-0.689941, 129, 129, 384, 375
-0.692734, 97, 1, 352, 375
-0.788277, 65, 33, 320, 288
-0.796203, 161, 33, 416, 288
-0.845625, 177, 129, 304, 375
-0.867976, 321, 65, 448, 320
-0.881214, 257, 129, 384, 375
-0.892501, 177, 1, 304, 375
-0.893795, 369, 97, 496, 352
-0.89438, 289, 1, 416, 375
-0.898598, 129, 1, 256, 375
-0.899452, 1, 97, 500, 224
-0.902741, 369, 1, 496, 256
-0.90409, 17, 129, 144, 375
-0.90488, 129, 129, 256, 375
-0.909779, 369, 1, 496, 375
-0.911113, 273, 33, 400, 288
-0.912331, 1, 145, 500, 272
-0.913343, 1, 209, 500, 336
-0.915925, 81, 129, 208, 375
-0.917485, 1, 193, 256, 320
-0.918665, 225, 161, 480, 288
-0.919863, 65, 113, 320, 240
-0.924907, 129, 161, 384, 288
-0.925605, 81, 1, 208, 375
-0.926783, 225, 113, 480, 240
-0.927817, 1, 33, 500, 160
-0.92852, 17, 1, 144, 375
-0.929507, 177, 33, 304, 288
-0.930078, 225, 1, 352, 375
-0.931986, 81, 33, 208, 288
-0.933138, 129, 33, 256, 288
-0.933493, 177, 225, 304, 352
-0.934367, 233, 225, 296, 352
-0.934463, 161, 241, 416, 368
-0.937781, 161, 177, 288, 304
-0.939477, 1, 241, 256, 368
-0.94001, 225, 225, 352, 352
-0.94058, 129, 129, 256, 256
-0.941832, 209, 145, 336, 272
-0.942541, 321, 113, 448, 240
-0.943698, 33, 33, 160, 288
-0.945858, 177, 97, 304, 224
-0.946005, 225, 33, 352, 288
-0.947998, 185, 97, 248, 224
-0.949738, 161, 161, 224, 288
-0.950026, 257, 161, 384, 288
-0.950734, 353, 97, 416, 224
-0.951007, 257, 225, 320, 352
-0.951795, 185, 113, 248, 176
-0.951891, 265, 145, 328, 272
-0.952327, 33, 65, 288, 192
-0.952444, 153, 113, 216, 240
-0.952984, 129, 241, 256, 368
-0.953916, 161, 241, 224, 368
-0.954018, 201, 225, 264, 352
-0.954743, 369, 113, 496, 240
-0.956423, 433, 129, 496, 256
-0.956775, 33, 161, 160, 288
-0.957002, 57, 113, 120, 240
-0.957702, 233, 113, 296, 240
-0.957931, 305, 161, 432, 288
-0.958184, 257, 209, 500, 336
-0.958262, 233, 161, 296, 288
-0.958863, 97, 193, 224, 320
-0.959511, 201, 257, 264, 320
-0.959587, 137, 225, 200, 352
-0.960539, 281, 209, 344, 336
-0.960893, 409, 129, 472, 256
-0.960953, 353, 97, 416, 160
-0.961068, 129, 81, 256, 208
-0.961117, 233, 233, 296, 296
-0.961196, 161, 65, 416, 192
-0.961402, 345, 17, 408, 144
-0.96164, 265, 297, 328, 360
-0.96167, 377, 105, 440, 168
-0.961898, 33, 177, 96, 304
-0.962557, 193, 17, 448, 144
-0.962903, 201, 297, 264, 360
-0.963452, 385, 113, 448, 240
-0.963534, 185, 145, 248, 272
-0.963751, 337, 121, 400, 184
-0.964211, 81, 113, 208, 240
-0.964488, 209, 177, 272, 304
-0.964784, 385, 49, 448, 176
-0.964969, 241, 289, 304, 352
-0.965185, 433, 177, 496, 304
-0.965433, 161, 281, 224, 344
-0.966157, 353, 1, 416, 64
-0.966291, 305, 145, 368, 272
-0.966804, 121, 177, 184, 304
-0.96689, 273, 209, 400, 336
-0.967223, 369, 65, 496, 192
-0.967338, 1, 241, 64, 368
-0.968012, 1, 17, 256, 144
-0.968178, 65, 137, 128, 200
-0.968589, 161, 249, 224, 312
-0.968889, 161, 193, 224, 256
-0.96889, 329, 113, 392, 240
-0.969067, 353, 193, 480, 320
-0.969599, 393, 1, 456, 128
-0.96978, 273, 217, 336, 280
-0.969841, 369, 1, 496, 128
-0.969863, 313, 169, 376, 232
-0.969941, 329, 9, 392, 72
-0.970034, 433, 193, 496, 256
-0.970199, 257, 225, 288, 352
-0.970378, 425, 65, 488, 192
-0.970519, 153, 113, 216, 176
-0.970521, 233, 265, 296, 328
-0.970621, 225, 193, 288, 256
-0.971013, 185, 169, 248, 232
-0.971252, 153, 145, 216, 208
-0.971255, 265, 169, 328, 232
-0.971474, 249, 129, 312, 375
-0.97165, 257, 65, 500, 192
-0.971762, 273, 97, 400, 224
-0.971917, 345, 1, 408, 256
-0.972256, 313, 313, 376, 375
-0.97247, 25, 225, 88, 352
-0.972884, 185, 225, 248, 288
-0.973033, 393, 129, 456, 192
-0.973252, 273, 273, 336, 336
-0.973317, 177, 289, 304, 352
-0.973404, 17, 225, 144, 352
-0.973441, 145, 169, 208, 232
-0.973605, 409, 153, 472, 216
-0.974114, 153, 97, 216, 352
-0.974151, 193, 137, 256, 200
-0.974213, 417, 1, 480, 128
-0.974389, 17, 113, 144, 240
-0.974594, 257, 241, 320, 304
-0.974663, 177, 265, 304, 328
-0.975188, 209, 113, 272, 240
-0.975278, 409, 41, 472, 104
-0.975425, 377, 1, 440, 64
-0.975431, 121, 113, 184, 240
-0.975533, 289, 161, 352, 224
-0.975542, 357, 113, 388, 176
-0.97561, 409, 193, 472, 320
-0.975782, 321, 81, 384, 144
-0.975902, 81, 65, 208, 192
-0.975979, 369, 1, 432, 128
-0.976015, 169, 313, 232, 375
-0.976111, 433, 137, 496, 200
-0.976371, 321, 1, 448, 128
-0.97638, 177, 97, 240, 352
-0.976431, 433, 41, 496, 104
-0.976974, 409, 33, 472, 288
-0.977004, 273, 193, 336, 256
-0.977197, 369, 1, 432, 256
-0.977203, 41, 185, 104, 248
-0.977203, 81, 129, 144, 256
-0.977218, 225, 129, 288, 192
-0.977229, 181, 241, 212, 368
-0.977243, 25, 249, 88, 312
-0.977298, 161, 121, 288, 184
-0.977331, 329, 41, 392, 104
-0.97737, 185, 105, 216, 168
-0.977455, 361, 145, 424, 272
-0.977507, 153, 65, 216, 192
-0.977679, 277, 297, 308, 360
-0.977685, 373, 97, 404, 160
-0.977806, 353, 105, 480, 168
-0.977839, 137, 297, 200, 360
-0.977868, 9, 281, 72, 344
-0.977871, 329, 145, 392, 208
-0.977951, 233, 161, 296, 224
-0.978037, 241, 313, 368, 375
-0.978125, 177, 241, 304, 304
-0.978391, 225, 129, 288, 375
-0.978525, 353, 33, 416, 96
-0.978749, 1, 313, 64, 375
-0.978807, 225, 169, 352, 232
-0.978863, 369, 129, 432, 192
-0.979014, 361, 97, 424, 352
-0.979033, 145, 201, 272, 264
-0.979158, 225, 97, 352, 224
-0.979204, 277, 225, 308, 352
-0.979283, 297, 289, 360, 352
-0.979343, 145, 177, 272, 240
-0.979384, 177, 145, 208, 208
-0.979452, 225, 233, 352, 296
-0.979515, 233, 225, 264, 352
-0.979632, 205, 297, 236, 360
-0.97976, 57, 161, 120, 224
-0.979788, 177, 249, 208, 312
-0.979904, 201, 129, 264, 375
-0.979934, 245, 225, 276, 352
-0.98021, 129, 297, 256, 360
-0.980221, 209, 105, 240, 168
-0.980246, 273, 129, 336, 375
-0.980285, 277, 145, 308, 272
-0.980315, 265, 233, 296, 296
-0.980375, 129, 137, 192, 200
-0.980388, 385, 97, 416, 224
-0.980486, 385, 209, 448, 336
-0.980538, 137, 233, 200, 296
-0.980597, 113, 145, 240, 208
-0.980703, 33, 129, 96, 256
-0.980799, 33, 313, 96, 375
-0.980842, 49, 113, 112, 176
-0.980859, 321, 49, 384, 176
-0.98086, 185, 161, 216, 288
-0.98087, 105, 185, 168, 248
-0.980896, 185, 113, 216, 240
-0.980903, 249, 209, 312, 272
-0.981054, 349, 113, 380, 240
-0.981079, 193, 281, 224, 344
-0.981102, 409, 201, 472, 264
-0.981161, 233, 297, 264, 360
-0.981174, 385, 161, 448, 288
-0.981203, 225, 281, 352, 344
-0.981215, 209, 193, 336, 256
-0.981299, 33, 177, 160, 240
-0.981367, 289, 313, 352, 375
-0.981378, 337, 137, 464, 200
-0.981405, 337, 97, 400, 352
-0.981405, 97, 241, 224, 304
-0.981456, 225, 257, 352, 320
-0.981473, 393, 73, 456, 136
-0.981601, 289, 297, 416, 360
-0.981659, 169, 225, 200, 352
-0.981896, 273, 169, 400, 232
-0.981902, 401, 177, 464, 240
-0.981906, 233, 177, 264, 304
-0.982033, 385, 225, 448, 288
-0.982065, 453, 129, 484, 256
-0.982132, 221, 297, 252, 360
-0.98218, 209, 105, 272, 168
-0.982192, 433, 313, 496, 375
-0.982306, 385, 97, 416, 160
-0.982364, 321, 161, 448, 224
-0.982452, 233, 257, 264, 320
-0.98251, 177, 145, 304, 208
-0.98254, 349, 1, 380, 128
-0.9826, 61, 145, 92, 208
-0.982616, 49, 273, 112, 336
-0.982651, 81, 241, 208, 368
-0.982698, 197, 113, 228, 240
-0.982727, 81, 113, 144, 176
-0.982739, 153, 89, 216, 152
-0.982748, 329, 161, 392, 288
-0.982883, 161, 145, 192, 272
-0.982923, 137, 209, 200, 272
-0.982979, 1, 17, 64, 144
-0.983043, 173, 113, 204, 240
-0.983057, 289, 193, 416, 256
-0.983106, 437, 145, 468, 272
-0.983138, 209, 233, 272, 296
-0.983143, 397, 1, 428, 64
-0.983151, 313, 193, 376, 256
-0.983236, 289, 97, 352, 224
-0.983309, 197, 257, 228, 320
-0.983309, 409, 1, 472, 64
-0.983334, 113, 105, 240, 168
-0.983342, 273, 121, 400, 184
-0.983392, 377, 1, 408, 64
-0.983464, 381, 121, 412, 184
-0.983482, 65, 113, 96, 240
-0.983497, 217, 113, 248, 240
-0.98353, 49, 137, 176, 200
-0.983534, 397, 105, 428, 168
-0.983539, 49, 241, 112, 368
-0.983544, 49, 97, 112, 352
-0.983623, 9, 177, 72, 304
-0.98364, 373, 81, 404, 208
-0.983641, 77, 129, 108, 192
-0.983663, 261, 177, 292, 304
-0.983688, 321, 241, 448, 368
-0.983725, 197, 121, 228, 184
-0.983822, 193, 313, 320, 375
-0.983898, 433, 65, 496, 320
-0.983951, 321, 1, 384, 256
-0.983958, 377, 193, 440, 256
-0.984066, 113, 313, 176, 375
-0.984069, 361, 153, 424, 216
-0.984146, 9, 97, 72, 224
-0.984227, 25, 225, 88, 288
-0.984316, 161, 217, 224, 280
-0.984348, 113, 273, 240, 336
-0.984467, 353, 25, 480, 88
-0.984471, 465, 129, 496, 256
-0.984495, 177, 89, 240, 152
-0.984787, 333, 161, 364, 224
-0.984811, 453, 145, 484, 208
-0.984815, 1, 225, 64, 288
-0.984818, 313, 241, 376, 368
-0.984827, 305, 129, 368, 375
-0.984849, 221, 241, 252, 368
-0.984894, 421, 129, 452, 256
-0.98501, 409, 113, 440, 176
-0.985021, 225, 145, 352, 208
-0.985047, 201, 193, 264, 256
-0.985234, 341, 9, 372, 72
-0.985265, 237, 169, 268, 232
-0.985272, 381, 17, 412, 144
-0.985272, 233, 313, 296, 375
-0.985294, 97, 185, 224, 248
-0.985305, 297, 137, 360, 200
-0.985371, 369, 121, 400, 184
-0.985438, 337, 185, 464, 248
-0.985444, 129, 113, 192, 176
-0.985482, 173, 177, 204, 304
-0.985536, 65, 113, 192, 176
-0.98561, 393, 1, 456, 375
-0.985623, 369, 73, 432, 136
-0.985643, 65, 313, 192, 375
-0.985763, 337, 305, 400, 368
-0.985813, 393, 33, 424, 160
-0.985816, 349, 41, 380, 104
-0.98594, 317, 169, 348, 232
-0.985943, 25, 161, 88, 224
-0.985951, 321, 1, 384, 128
-0.985964, 425, 41, 456, 104
-0.985987, 337, 145, 368, 272
-0.986037, 409, 113, 440, 240
-0.986071, 205, 225, 236, 352
-0.986081, 441, 153, 472, 216
-0.986087, 33, 81, 96, 208
-0.986129, 165, 241, 196, 304
-0.98617, 221, 113, 252, 176
-0.986229, 289, 161, 320, 288
-0.986246, 305, 33, 368, 96
-0.986258, 1, 201, 64, 264
-0.98627, 229, 193, 260, 256
-0.986361, 345, 129, 376, 192
-0.986402, 221, 193, 252, 320
-0.986419, 377, 33, 440, 96
-0.98645, 169, 121, 200, 184
-0.986458, 321, 65, 448, 192
-0.986473, 345, 65, 408, 128
-0.986522, 181, 273, 212, 336
-0.986583, 97, 217, 224, 280
-0.986606, 53, 129, 84, 256
-0.986628, 253, 281, 284, 344
-0.986629, 77, 113, 108, 240
-0.986643, 385, 97, 448, 352
-0.986645, 9, 1, 72, 256
-0.986698, 233, 113, 264, 240
-0.9867, 25, 113, 88, 176
-0.986745, 245, 177, 276, 304
-0.986764, 1, 273, 128, 336
-0.986765, 73, 241, 136, 368
-0.986815, 361, 305, 424, 368
-0.986841, 37, 177, 68, 304
-0.986851, 321, 1, 448, 64
-0.986871, 273, 209, 304, 272
-0.986887, 61, 121, 92, 184
-0.986913, 21, 241, 52, 368
-0.986951, 369, 1, 496, 64
-0.987031, 361, 81, 392, 208
-0.987047, 453, 41, 484, 104
-0.987078, 197, 97, 228, 160
-0.987093, 157, 225, 188, 352
-0.987096, 209, 169, 272, 232
-0.987152, 353, 1, 384, 64
-0.98717, 441, 41, 472, 104
-0.987171, 97, 177, 160, 304
-0.987192, 337, 313, 464, 375
-0.987217, 17, 241, 144, 304
-0.987257, 409, 129, 472, 375
-0.98727, 273, 217, 400, 280
-0.987285, 425, 1, 456, 64
-0.987422, 177, 49, 304, 176
-0.987444, 409, 313, 472, 375
-0.987451, 365, 1, 396, 64
-0.987476, 249, 241, 280, 304
-0.98749, 193, 241, 224, 368
-0.987529, 73, 313, 136, 375
-0.987534, 53, 169, 84, 232
-0.987535, 289, 225, 320, 352
-0.987545, 225, 65, 288, 192
-0.987651, 273, 273, 400, 336
-0.987658, 433, 17, 496, 80
-0.987675, 297, 169, 328, 232
-0.987694, 17, 201, 144, 264
-0.987702, 273, 161, 304, 224
-0.987841, 65, 177, 128, 304
-0.987862, 185, 49, 248, 176
-0.987869, 285, 225, 316, 288
-0.987907, 417, 81, 480, 144
-0.987956, 209, 265, 240, 328
-0.988013, 129, 33, 256, 160
-0.988035, 281, 273, 312, 336
-0.988089, 17, 305, 48, 368
-0.988097, 285, 193, 316, 256
-0.988104, 1, 257, 64, 320
-0.988135, 89, 129, 120, 192
-0.988166, 397, 97, 428, 224
-0.988172, 433, 169, 496, 232
-0.988221, 97, 161, 160, 224
-0.988262, 233, 233, 264, 296
-0.988299, 433, 1, 496, 375
-0.988467, 417, 1, 448, 128
-0.988475, 345, 241, 408, 368
-0.988615, 457, 177, 488, 304
-0.988621, 73, 249, 136, 312
-0.988639, 129, 265, 192, 328
-0.988657, 165, 209, 196, 272
-0.988715, 385, 313, 448, 375
-0.988718, 281, 249, 344, 312
-0.988824, 249, 129, 312, 192
-0.988889, 345, 281, 408, 344
-0.988905, 369, 73, 496, 136
-0.988946, 1, 297, 128, 360
-0.988949, 409, 25, 440, 88
-0.988957, 357, 81, 388, 144
-0.988966, 129, 129, 192, 375
-0.988967, 337, 169, 400, 232
-0.988984, 5, 281, 36, 344
-0.989027, 305, 177, 336, 304
-0.989044, 345, 153, 376, 216
-0.989051, 361, 1, 424, 375
-0.989066, 305, 97, 432, 160
-0.989129, 129, 65, 192, 192
-0.989139, 289, 33, 352, 288
-0.989204, 177, 1, 240, 375
-0.989274, 317, 305, 348, 368
-0.989324, 221, 273, 252, 336
-0.989388, 181, 169, 212, 232
-0.989397, 233, 33, 296, 288
-0.98946, 305, 193, 368, 320
-0.989467, 225, 1, 288, 375
-0.989507, 305, 33, 432, 96
-0.989568, 149, 129, 180, 256
-0.989679, 185, 113, 248, 144
-0.989686, 1, 137, 128, 200
-0.989752, 361, 105, 424, 136
-0.989767, 353, 193, 416, 256
-0.989826, 89, 49, 152, 176
-0.989827, 285, 249, 316, 312
-0.989863, 57, 273, 88, 336
-0.989872, 425, 105, 488, 168
-0.989872, 61, 241, 92, 368
-0.98991, 9, 33, 72, 96
-0.989926, 233, 293, 296, 324
-0.989969, 193, 125, 256, 156
-0.989971, 337, 1, 400, 375
-0.990039, 385, 153, 448, 216
-0.990054, 469, 1, 500, 64
-0.990076, 89, 113, 120, 240
-0.990135, 305, 201, 336, 264
-0.990191, 185, 261, 248, 292
-0.990197, 457, 193, 488, 256
-0.990205, 241, 241, 304, 272
-0.990254, 433, 65, 464, 192
-0.990272, 329, 313, 360, 375
-0.990288, 393, 145, 424, 208
-0.990292, 305, 9, 368, 72
-0.990314, 297, 17, 360, 144
-0.990382, 73, 129, 136, 375
-0.990396, 193, 181, 256, 212
-0.990414, 49, 273, 176, 336
-0.990414, 265, 301, 328, 332
-0.99042, 361, 1, 392, 128
-0.99042, 157, 313, 188, 375
-0.990467, 201, 277, 264, 308
-0.990472, 425, 129, 456, 192
-0.990489, 353, 129, 416, 160
-0.990491, 49, 177, 80, 304
-0.990506, 333, 65, 364, 192
-0.990549, 289, 305, 320, 368
-0.990575, 329, 29, 392, 60
-0.99064, 189, 145, 220, 208
-0.99066, 261, 201, 292, 264
-0.990662, 77, 105, 108, 168
-0.990676, 129, 81, 256, 144
-0.990682, 105, 105, 168, 168
-0.990683, 177, 145, 240, 176
-0.990689, 433, 205, 496, 236
-0.990704, 321, 73, 448, 136
-0.990704, 261, 305, 292, 368
-0.990732, 457, 1, 488, 128
-0.990733, 97, 1, 352, 128
-0.990768, 377, 117, 440, 148
-0.990789, 145, 149, 208, 180
-0.990793, 305, 321, 368, 352
-0.990806, 153, 129, 216, 160
-0.990812, 241, 281, 304, 312
-0.990813, 201, 305, 264, 336
-0.990827, 381, 25, 412, 88
-0.990845, 321, 333, 384, 364
-0.990849, 257, 317, 320, 348
-0.990861, 349, 313, 380, 375
-0.990873, 49, 17, 176, 144
-0.990884, 433, 149, 496, 180
-0.990911, 161, 289, 224, 320
-0.99094, 337, 289, 464, 352
-0.990941, 273, 229, 336, 260
-0.990974, 329, 13, 392, 44
-0.990977, 289, 173, 352, 204
-0.990978, 181, 65, 212, 192
-0.991014, 453, 65, 484, 192
-0.991016, 345, 69, 408, 100
-0.991023, 401, 73, 432, 136
-0.99104, 393, 133, 456, 164
-0.99104, 209, 257, 272, 288
-0.991054, 65, 137, 128, 168
-0.991096, 249, 253, 312, 284
-0.991133, 221, 169, 252, 232
-0.99114, 393, 145, 456, 176
-0.991148, 161, 249, 224, 280
-0.991156, 9, 81, 72, 144
-0.991156, 353, 49, 480, 112
-0.99118, 153, 193, 216, 224
-0.991181, 325, 145, 356, 272
-0.991191, 165, 145, 196, 208
-0.991193, 329, 1, 392, 32
-0.991199, 273, 289, 336, 320
-0.991242, 265, 129, 296, 256
-0.991244, 153, 117, 216, 148
-0.991253, 273, 49, 400, 176
-0.991253, 37, 281, 68, 344
-0.991265, 329, 41, 392, 72
-0.991265, 41, 193, 104, 224
-0.991276, 141, 193, 172, 256
-0.99128, 393, 145, 424, 272
-0.991281, 185, 193, 248, 224
-0.991284, 449, 17, 480, 80
-0.991318, 185, 169, 248, 200
-0.991321, 417, 69, 480, 100
-0.991322, 141, 177, 172, 304
-0.991335, 153, 205, 216, 236
-0.991349, 225, 193, 288, 224
-0.991355, 129, 193, 384, 256
-0.9914, 353, 117, 416, 148
-0.991411, 273, 9, 400, 72
-0.991423, 129, 345, 192, 375
-0.991443, 233, 133, 296, 164
-0.991447, 57, 153, 120, 184
-0.991448, 49, 121, 112, 152
-0.991454, 385, 69, 448, 100
-0.991455, 353, 141, 416, 172
-0.991459, 177, 325, 240, 356
-0.991475, 17, 281, 48, 344
-0.9915, 345, 313, 408, 344
-0.99152, 169, 65, 200, 192
-0.991526, 25, 129, 88, 375
-0.991542, 225, 177, 480, 240
-0.991561, 241, 265, 304, 296
-0.991564, 297, 345, 360, 375
-0.991568, 177, 297, 208, 360
-0.991588, 153, 1, 216, 375
-0.991592, 161, 277, 224, 308
-0.991594, 281, 333, 344, 364
-0.9916, 313, 169, 376, 200
-0.991625, 313, 193, 376, 224
-0.991653, 73, 125, 136, 156
-0.991659, 345, 89, 376, 152
-0.991675, 145, 181, 208, 212
-0.991677, 161, 261, 224, 292
-0.991677, 129, 169, 384, 232
-0.99168, 153, 165, 216, 196
-0.991682, 201, 289, 264, 320
-0.991699, 289, 305, 352, 336
-0.991701, 153, 333, 216, 364
-0.991702, 233, 161, 296, 192
-0.99171, 185, 157, 248, 188
-0.991716, 49, 49, 176, 112
-0.991724, 369, 241, 496, 368
-0.991728, 177, 305, 240, 336
-0.991732, 353, 33, 416, 64
-0.99174, 353, 13, 416, 44
-0.991745, 137, 317, 200, 348
-0.991751, 241, 305, 304, 336
-0.991763, 357, 137, 388, 200
-0.991779, 145, 313, 176, 375
-0.991782, 409, 1, 440, 64
-0.991804, 185, 241, 248, 272
-0.991806, 329, 121, 392, 152
-0.991807, 145, 1, 208, 256
-0.991811, 401, 217, 464, 248
-0.991823, 257, 165, 320, 196
-0.991846, 273, 197, 336, 228
-0.991854, 369, 1, 432, 32
-0.991858, 349, 49, 380, 176
-0.991883, 9, 241, 40, 368
-0.99189, 425, 193, 488, 224
-0.991891, 41, 137, 104, 200
-0.991911, 377, 213, 440, 244
-0.991913, 129, 137, 192, 168
-0.991915, 397, 41, 428, 104
-0.991921, 193, 97, 320, 160
-0.991923, 5, 313, 36, 375
-0.991936, 337, 157, 400, 188
-0.991945, 265, 241, 328, 272
-0.991963, 429, 193, 460, 320
-0.991976, 17, 281, 80, 312
-0.991977, 145, 105, 208, 136
-0.99198, 337, 345, 400, 375
-0.991984, 161, 305, 416, 368
-0.991992, 137, 293, 200, 324
-0.991993, 49, 277, 112, 308
-0.991995, 137, 241, 200, 272
-0.991996, 321, 273, 384, 336
-0.992007, 401, 1, 464, 32
-0.992012, 273, 217, 336, 248
-0.99203, 193, 305, 224, 368
-0.992032, 313, 1, 376, 375
-0.99205, 357, 289, 388, 352
-0.992061, 233, 145, 296, 176
-0.992075, 105, 189, 168, 220
-0.992078, 257, 129, 288, 192
-0.992088, 401, 197, 464, 228
-0.9921, 217, 245, 280, 276
-0.992103, 269, 273, 300, 336
-0.992103, 313, 181, 376, 212
-0.992115, 433, 345, 496, 375
-0.992137, 329, 301, 392, 332
-0.99214, 341, 65, 372, 128
-0.992158, 49, 181, 112, 212
-0.99216, 329, 53, 392, 84
-0.992184, 181, 193, 212, 256
-0.992185, 273, 253, 336, 284
-0.992186, 37, 193, 68, 256
-0.992189, 393, 25, 456, 56
-0.992191, 9, 137, 72, 200
-0.992209, 253, 113, 284, 240
-0.992228, 225, 325, 288, 356
-0.992239, 1, 205, 64, 236
-0.992241, 213, 217, 244, 280
-0.992256, 197, 161, 228, 288
-0.992256, 469, 145, 500, 208
-0.992256, 345, 257, 408, 320
-0.992257, 369, 161, 496, 224
-0.99226, 353, 325, 416, 356
-0.992267, 433, 201, 464, 264
-0.992275, 469, 177, 500, 304
-0.992278, 361, 153, 424, 184
-0.992293, 369, 209, 496, 272
-0.992295, 209, 113, 272, 144
-0.9923, 417, 217, 448, 280
-0.992308, 273, 277, 336, 308
-0.992327, 89, 341, 152, 372
-0.992327, 121, 161, 184, 224
-0.992333, 417, 29, 480, 60
-0.992341, 29, 313, 60, 375
-0.992342, 249, 229, 312, 260
-0.992356, 409, 157, 472, 188
-0.992361, 49, 165, 112, 196
-0.992371, 429, 1, 460, 128
-0.992374, 273, 1, 400, 128
-0.992377, 265, 185, 328, 216
-0.992384, 137, 305, 200, 336
-0.992401, 121, 149, 184, 180
-0.99241, 25, 257, 88, 288
-0.992418, 401, 173, 464, 204
-0.992419, 277, 301, 308, 332
-0.992436, 297, 157, 360, 188
-0.992437, 1, 305, 64, 336
-0.992443, 121, 329, 184, 360
-0.992448, 305, 41, 368, 72
-0.99246, 209, 165, 272, 196
-0.992463, 105, 137, 168, 200
-0.992472, 409, 57, 472, 88
-0.992476, 217, 233, 280, 264
-0.992487, 377, 41, 440, 72
-0.992512, 161, 221, 224, 252
-0.992514, 25, 269, 88, 300
-0.992514, 417, 137, 480, 168
-0.992518, 469, 41, 500, 104
-0.992522, 49, 241, 80, 368
-0.992542, 61, 177, 92, 304
-0.992548, 165, 289, 196, 352
-0.99255, 305, 297, 336, 360
-0.992559, 113, 217, 176, 280
-0.992581, 437, 17, 468, 80
-0.992618, 265, 237, 296, 268
-0.992634, 193, 109, 224, 140
-0.992643, 213, 113, 244, 144
-0.992676, 81, 125, 112, 156
-0.992702, 169, 245, 200, 276
-0.992723, 361, 113, 392, 144
-0.992732, 17, 113, 144, 176
-0.992754, 129, 1, 192, 375
-0.992758, 177, 149, 208, 180
-0.992773, 453, 145, 484, 176
-0.992774, 273, 249, 400, 312
-0.992789, 201, 225, 232, 288
-0.992789, 81, 137, 112, 168
-0.992798, 61, 125, 92, 156
-0.992818, 401, 109, 432, 140
-0.99283, 285, 169, 316, 232
-0.992837, 381, 145, 412, 208
-0.992837, 9, 57, 72, 120
-0.992839, 201, 125, 232, 156
-0.992844, 353, 125, 384, 156
-0.992853, 445, 185, 476, 248
-0.992863, 373, 105, 404, 136
-0.992876, 209, 305, 240, 336
-0.992885, 9, 1, 72, 375
-0.992887, 341, 29, 372, 60
-0.9929, 185, 125, 216, 156
-0.992932, 61, 273, 92, 304
-0.992934, 233, 257, 264, 288
-0.992936, 1, 201, 256, 264
-0.99295, 145, 341, 176, 372
-0.992953, 441, 193, 472, 320
-0.992953, 389, 105, 420, 136
-0.992954, 185, 137, 216, 168
-0.99296, 445, 69, 476, 100
-0.99298, 341, 1, 372, 32
-0.992983, 237, 269, 268, 300
-0.992984, 377, 73, 408, 104
-0.992988, 377, 1, 408, 32
-0.992995, 73, 273, 136, 336
-0.992995, 469, 1, 500, 128
-0.993001, 365, 125, 396, 156
-0.993008, 341, 13, 372, 44
-0.99301, 465, 313, 496, 375
-0.993012, 285, 229, 316, 260
-0.993014, 189, 257, 220, 288
-0.99302, 57, 149, 88, 180
-0.993026, 341, 41, 372, 72
-0.993041, 297, 225, 360, 288
-0.99305, 33, 225, 64, 352
-0.993054, 413, 121, 444, 152
-0.993056, 181, 193, 212, 224
-0.993056, 469, 149, 500, 180
-0.993058, 333, 129, 364, 192
-0.993059, 433, 69, 464, 100
-0.993059, 365, 73, 396, 104
-0.993061, 377, 29, 408, 60
-0.993062, 281, 289, 312, 320
-0.993062, 361, 13, 392, 44
-0.993063, 185, 281, 216, 312
-0.993064, 413, 185, 444, 248
-0.993068, 333, 169, 364, 200
-0.993078, 165, 141, 196, 172
-0.993078, 237, 245, 268, 276
-0.993082, 433, 209, 464, 240
-0.993085, 405, 49, 436, 176
-0.993091, 237, 189, 268, 220
-0.993099, 181, 165, 212, 196
-0.993099, 289, 169, 320, 200
-0.9931, 45, 313, 76, 375
-0.993102, 189, 293, 220, 324
-0.993106, 277, 313, 308, 344
-0.993109, 389, 69, 420, 100
-0.993112, 241, 129, 272, 192
-0.993114, 401, 29, 432, 60
-0.993117, 153, 329, 184, 360
-0.993118, 237, 173, 268, 204
-0.993122, 397, 17, 428, 48
-0.993123, 357, 33, 388, 64
-0.993124, 189, 149, 220, 180
-0.993125, 449, 193, 480, 224
-0.993133, 253, 245, 284, 276
-0.993133, 153, 209, 184, 272
-0.993134, 217, 177, 248, 208
-0.993142, 277, 165, 308, 196
-0.993147, 349, 73, 380, 104
-0.993154, 9, 309, 40, 340
-0.993154, 381, 13, 412, 44
-0.993159, 457, 69, 488, 100
-0.993165, 233, 301, 264, 332
-0.993171, 349, 113, 380, 144
-0.993177, 317, 345, 348, 375
-0.993179, 217, 125, 248, 156
-0.993179, 321, 169, 352, 200
-0.99318, 221, 257, 252, 288
-0.99318, 157, 341, 188, 372
-0.993182, 221, 249, 252, 312
-0.993187, 169, 333, 200, 364
-0.993188, 417, 25, 448, 56
-0.993191, 53, 185, 84, 216
-0.993192, 177, 269, 208, 300
-0.9932, 185, 325, 216, 356
-0.993201, 441, 149, 472, 180
-0.993205, 165, 153, 196, 184
-0.993206, 69, 141, 100, 172
-0.993208, 197, 305, 228, 336
-0.99321, 401, 69, 432, 100
-0.993212, 273, 145, 400, 208
-0.993213, 457, 33, 488, 64
-0.993217, 345, 157, 376, 188
-0.993217, 181, 181, 212, 212
-0.993217, 377, 133, 408, 164
-0.993221, 309, 173, 340, 204
-0.993228, 365, 1, 396, 32
-0.993233, 401, 137, 432, 168
-0.993234, 257, 129, 500, 192
-0.993236, 221, 305, 252, 336
-0.993238, 201, 1, 264, 375
-0.993239, 345, 137, 376, 168
-0.993241, 57, 161, 88, 192
-0.993242, 285, 241, 316, 272
-0.993242, 77, 113, 108, 144
-0.993243, 285, 205, 316, 236
-0.993244, 393, 125, 424, 156
-0.993246, 285, 217, 316, 248
-0.99325, 269, 289, 300, 320
-0.993253, 469, 193, 500, 256
-0.993255, 381, 145, 412, 176
-0.993256, 421, 69, 452, 100
-0.993259, 197, 173, 228, 204
-0.99326, 201, 273, 232, 304
-0.993263, 353, 1, 384, 32
-0.993272, 133, 341, 164, 372
-0.993276, 165, 205, 196, 236
-0.993279, 237, 161, 268, 192
-0.993281, 21, 309, 52, 340
-0.993282, 353, 341, 384, 372
-0.993283, 349, 309, 380, 340
-0.993287, 409, 209, 440, 240
-0.993288, 301, 333, 332, 364
-0.993291, 425, 145, 456, 176
-0.993293, 393, 1, 424, 32
-0.993294, 273, 225, 304, 256
-0.9933, 257, 289, 288, 320
-0.993301, 409, 9, 440, 40
-0.993304, 1, 289, 32, 320
-0.993309, 389, 29, 420, 60
-0.993313, 265, 161, 296, 192
-0.993317, 433, 25, 464, 56
-0.993319, 417, 133, 448, 164
-0.993321, 469, 65, 500, 96
-0.993322, 45, 169, 76, 200
-0.993327, 197, 137, 228, 168
-0.993328, 349, 61, 380, 92
-0.993333, 5, 73, 36, 104
-0.993336, 281, 277, 312, 308
-0.993338, 465, 201, 496, 232
-0.993344, 49, 1, 112, 256
-0.99339, 413, 137, 444, 200
-0.993404, 113, 145, 144, 208
-0.993405, 1, 153, 256, 216
-0.99343, 49, 81, 176, 144
-0.993447, 33, 281, 288, 344
-0.993466, 197, 169, 228, 232
-0.993545, 153, 233, 184, 296
-0.993547, 241, 97, 368, 160
-0.993593, 17, 257, 48, 320
-0.993654, 373, 129, 404, 256
-0.993655, 157, 177, 188, 240
-0.993661, 401, 105, 464, 168
-0.993674, 1, 177, 256, 240
-0.993683, 65, 129, 320, 192
-0.993712, 49, 249, 112, 312
-0.993718, 161, 273, 416, 336
-0.99372, 193, 1, 256, 256
-0.993721, 225, 201, 480, 264
-0.993743, 33, 105, 288, 168
-0.993786, 49, 25, 176, 88
-0.99383, 369, 273, 432, 336
-0.993885, 1, 177, 64, 240
-0.993978, 225, 105, 480, 168
-0.993987, 361, 129, 392, 256
-0.993995, 97, 33, 160, 288
-0.994021, 413, 209, 444, 336
-0.994024, 49, 89, 112, 152
-0.994164, 1, 121, 500, 184
-0.994205, 273, 73, 400, 136
-0.99421, 177, 277, 304, 308
-0.994217, 129, 241, 384, 304
-0.994224, 33, 305, 288, 368
-0.994242, 257, 153, 500, 216
-0.99435, 469, 81, 500, 208
-0.99438, 133, 113, 164, 240
-0.994452, 257, 305, 500, 368
-0.994475, 177, 305, 304, 336
-0.994527, 49, 17, 112, 144
-0.994533, 1, 225, 256, 288
-0.994647, 1, 257, 256, 320
-0.994677, 379, 97, 394, 160
-0.994721, 129, 217, 384, 280
-0.99475, 209, 121, 336, 184
-0.994751, 357, 241, 388, 368
-0.994806, 1, 305, 500, 368
-0.994836, 161, 129, 416, 192
-0.994854, 41, 97, 72, 224
-0.994869, 177, 253, 304, 284
-0.994873, 265, 1, 328, 375
-0.994901, 347, 9, 362, 72
-0.994901, 371, 105, 386, 168
-0.994907, 283, 281, 298, 344
-0.994918, 289, 321, 416, 352
-0.99495, 177, 265, 304, 296
-0.994985, 241, 317, 368, 348
-0.995039, 177, 193, 304, 224
-0.995049, 289, 1, 352, 375
-0.995054, 177, 289, 304, 320
-0.995055, 247, 257, 262, 320
-0.99509, 337, 109, 464, 140
-0.995134, 353, 265, 480, 328
-0.995168, 301, 225, 332, 352
-0.995212, 193, 65, 224, 192
-0.995232, 337, 29, 464, 60
-0.995235, 347, 33, 362, 96
-0.995241, 1, 161, 500, 224
-0.995251, 185, 121, 200, 184
-0.995272, 191, 145, 206, 208
-0.995279, 405, 1, 436, 128
-0.995287, 209, 297, 224, 360
-0.995301, 1, 201, 500, 264
-0.995342, 385, 97, 400, 160
-0.995369, 157, 81, 188, 208
-0.995375, 369, 73, 496, 104
-0.995401, 209, 169, 336, 200
-0.995401, 445, 1, 476, 128
-0.995411, 199, 257, 214, 320
-0.995447, 219, 297, 234, 360
-0.995453, 233, 297, 248, 360
-0.995477, 191, 113, 206, 176
-0.995529, 145, 181, 272, 212
-0.995529, 129, 113, 256, 144
-0.995532, 1, 33, 128, 96
-0.995548, 247, 297, 262, 360
-0.995551, 193, 81, 448, 144
-0.995574, 1, 33, 128, 160
-0.995597, 201, 105, 216, 168
-0.995618, 49, 185, 176, 216
-0.99562, 257, 305, 384, 336
-0.995627, 201, 289, 216, 352
-0.995631, 1, 225, 500, 288
-0.995633, 129, 193, 256, 224
-0.995655, 49, 1, 112, 375
-0.99567, 277, 233, 292, 296
-0.995684, 321, 337, 448, 368
-0.995692, 225, 225, 480, 288
-0.995748, 227, 297, 242, 360
-0.995748, 177, 145, 304, 176
-0.99575, 225, 1, 480, 64
-0.995761, 49, 141, 176, 172
-0.995764, 177, 241, 192, 304
-0.995765, 177, 241, 304, 272
-0.995777, 377, 241, 408, 368
-0.995785, 73, 241, 104, 368
-0.995798, 161, 325, 288, 356
-0.995803, 363, 113, 378, 176
-0.995808, 241, 297, 256, 360
-0.995814, 1, 281, 500, 344
-0.99582, 113, 293, 240, 324
-0.995876, 395, 97, 410, 160
-0.995899, 239, 169, 254, 232
-0.995925, 221, 105, 236, 168
-0.995932, 79, 129, 94, 192
-0.995946, 121, 33, 184, 288
-0.99595, 265, 97, 328, 224
-0.995974, 109, 129, 140, 256
-0.995981, 161, 129, 288, 160
-0.995986, 257, 241, 272, 304
-0.995988, 183, 145, 198, 208
-0.996004, 209, 161, 240, 288
-0.996006, 33, 81, 288, 144
-0.996035, 321, 217, 448, 280
-0.996048, 129, 205, 256, 236
-0.996054, 241, 237, 368, 268
-0.99606, 1, 97, 500, 160
-0.996067, 209, 205, 336, 236
-0.996075, 257, 41, 500, 104
-0.996104, 377, 121, 392, 184
-0.996115, 225, 285, 352, 316
-0.996119, 349, 1, 380, 256
-0.996131, 195, 281, 210, 344
-0.996134, 387, 121, 402, 184
-0.996138, 357, 9, 372, 72
-0.996152, 129, 145, 256, 176
-0.99616, 397, 1, 412, 64
-0.996167, 355, 121, 370, 184
-0.996175, 225, 265, 352, 296
-0.996191, 129, 33, 256, 96
-0.996191, 225, 249, 352, 280
-0.996193, 61, 153, 76, 216
-0.996205, 409, 161, 440, 288
-0.996207, 209, 105, 224, 168
-0.996215, 339, 161, 354, 224
-0.996234, 247, 233, 262, 296
-0.996235, 431, 1, 446, 64
-0.996249, 177, 157, 304, 188
-0.996255, 49, 1, 176, 64
-0.996263, 191, 169, 206, 232
-0.996265, 1, 89, 128, 152
-0.996278, 17, 177, 48, 304
-0.996282, 97, 161, 128, 288
-0.996286, 129, 105, 384, 168
-0.996292, 289, 249, 304, 312
-0.996302, 129, 177, 160, 304
-0.996308, 199, 129, 214, 192
-0.996309, 353, 141, 480, 172
-0.996313, 353, 49, 368, 112
-0.996325, 337, 193, 464, 224
-0.996395, 273, 129, 304, 375
-0.996397, 233, 169, 248, 232
-0.996403, 185, 249, 200, 312
-0.996428, 257, 273, 500, 336
-0.99643, 257, 169, 384, 200
-0.996447, 401, 97, 416, 160
-0.996471, 215, 105, 230, 168
-0.996472, 277, 289, 292, 352
-0.996473, 381, 1, 396, 64
-0.996488, 257, 197, 384, 228
-0.996503, 97, 245, 224, 276
-0.996509, 419, 113, 434, 176
-0.996527, 193, 73, 320, 136
-0.996532, 193, 249, 208, 312
-0.996562, 73, 113, 88, 176
-0.996565, 207, 265, 222, 328
-0.996574, 455, 41, 470, 104
-0.996578, 185, 97, 216, 352
-0.996578, 85, 113, 100, 176
-0.996592, 287, 217, 302, 280
-0.996599, 419, 41, 434, 104
-0.996602, 337, 121, 464, 152
-0.996602, 375, 1, 390, 64
-0.996605, 443, 41, 458, 104
-0.996621, 313, 129, 344, 256
-0.996633, 57, 65, 120, 192
-0.996645, 209, 49, 240, 176
-0.996647, 29, 305, 44, 368
-0.99665, 283, 257, 298, 320
-0.996672, 321, 161, 448, 192
-0.996673, 341, 25, 356, 88
-0.99668, 161, 229, 288, 260
-0.996689, 333, 161, 348, 224
-0.996694, 1, 197, 128, 228
-0.996702, 427, 41, 442, 104
-0.996709, 129, 305, 256, 336
-0.996717, 365, 1, 380, 64
-0.99673, 403, 1, 418, 64
-0.996745, 257, 33, 384, 96
-0.996765, 91, 129, 106, 192
-0.996769, 253, 289, 268, 352
-0.99677, 177, 113, 304, 144
-0.996782, 121, 1, 184, 128
-0.996794, 1, 41, 500, 104
-0.9968, 369, 233, 496, 296
-0.996802, 453, 145, 468, 208
-0.996807, 277, 209, 292, 272
-0.996814, 65, 197, 192, 228
-0.99682, 433, 41, 448, 104
-0.996821, 465, 137, 480, 200
-0.996822, 341, 1, 356, 64
-0.996834, 385, 1, 416, 256
-0.996836, 49, 173, 176, 204
-0.99684, 349, 153, 364, 216
-0.996861, 227, 105, 242, 168
-0.996865, 293, 113, 324, 240
-0.996868, 257, 185, 384, 216
-0.996887, 113, 261, 240, 292
-0.996888, 99, 121, 114, 184
-0.996889, 389, 1, 404, 64
-0.996903, 97, 173, 224, 204
-0.996919, 167, 241, 182, 304
-0.996923, 129, 217, 256, 248
-0.996923, 349, 121, 364, 184
-0.996923, 321, 309, 448, 340
-0.996923, 257, 333, 384, 364
-0.996942, 233, 121, 248, 184
-0.996948, 469, 41, 484, 104
-0.996953, 105, 1, 168, 375
-0.996956, 113, 125, 240, 156
-0.996958, 69, 137, 84, 200
-0.996958, 129, 101, 256, 132
-0.996961, 237, 273, 252, 336
-0.996969, 321, 181, 448, 212
-0.99698, 317, 169, 332, 232
-0.996986, 419, 1, 434, 64
-0.996989, 73, 161, 104, 288
-0.997006, 49, 153, 176, 184
-0.997024, 411, 33, 426, 96
-0.997025, 55, 153, 70, 216
-0.997047, 411, 137, 426, 200
-0.997049, 209, 181, 336, 212
-0.997056, 285, 129, 316, 375
-0.99706, 97, 57, 224, 120
-0.997066, 321, 13, 448, 44
-0.997066, 461, 41, 476, 104
-0.997077, 439, 145, 454, 208
-0.997085, 241, 345, 368, 375
-0.997086, 353, 41, 480, 72
-0.997113, 49, 129, 176, 160
-0.997113, 261, 129, 292, 375
-0.997113, 305, 205, 432, 236
-0.997114, 425, 121, 440, 184
-0.997114, 289, 297, 304, 360
-0.997115, 347, 65, 362, 128
-0.997115, 167, 201, 182, 264
-0.997117, 233, 193, 248, 256
-0.997146, 63, 121, 78, 184
-0.997159, 243, 129, 258, 192
-0.997171, 177, 137, 192, 200
-0.997173, 321, 77, 448, 108
-0.997192, 343, 137, 358, 200
-0.997192, 369, 333, 496, 364
-0.997197, 257, 209, 384, 240
-0.997199, 271, 313, 286, 375
-0.997216, 67, 265, 82, 328
-0.997219, 23, 265, 38, 328
-0.997219, 1, 269, 128, 300
-0.997224, 369, 81, 384, 144
-0.997234, 365, 297, 380, 360
-0.997235, 113, 273, 240, 304
-0.997235, 209, 329, 336, 360
-0.997236, 449, 41, 464, 104
-0.997237, 421, 65, 452, 192
-0.997242, 209, 217, 336, 248
-0.997253, 29, 249, 44, 312
-0.997265, 283, 297, 298, 328
-0.997278, 229, 257, 244, 320
-0.997281, 173, 129, 204, 375
-0.997299, 445, 153, 460, 216
-0.997301, 361, 89, 376, 152
-0.997317, 129, 157, 256, 188
-0.997322, 321, 1, 448, 32
-0.997333, 407, 105, 422, 168
-0.997334, 425, 17, 440, 80
-0.997335, 325, 169, 340, 232
-0.997341, 433, 129, 448, 192
-0.997346, 273, 225, 400, 256
-0.997353, 287, 161, 302, 224
-0.99736, 197, 177, 212, 240
-0.99736, 397, 121, 412, 184
-0.997368, 49, 337, 176, 368
-0.99737, 269, 233, 284, 296
-0.997379, 341, 49, 356, 112
-0.99738, 331, 313, 346, 375
-0.997405, 129, 337, 256, 368
-0.997406, 1, 289, 128, 320
-0.997413, 213, 273, 228, 336
-0.997426, 409, 1, 424, 64
-0.997431, 45, 193, 60, 256
-0.997442, 377, 265, 392, 328
-0.997445, 1, 97, 64, 352
-0.99745, 413, 33, 444, 288
-0.997451, 21, 313, 36, 375
-0.997453, 405, 129, 420, 192
-0.997475, 181, 297, 196, 360
-0.997475, 35, 313, 50, 375
-0.997481, 271, 201, 286, 264
-0.997486, 321, 241, 448, 304
-0.997492, 423, 225, 438, 288
-0.997499, 167, 313, 182, 375
-0.997503, 145, 169, 272, 200
-0.997528, 373, 97, 404, 352
-0.997529, 289, 121, 416, 152
-0.997559, 225, 157, 352, 188
-0.997574, 289, 33, 416, 64
-0.997575, 273, 153, 400, 184
-0.997584, 329, 241, 360, 368
-0.997596, 337, 17, 368, 144
-0.997596, 73, 1, 136, 256
-0.997597, 77, 125, 92, 156
-0.997602, 81, 109, 208, 140
-0.997609, 347, 33, 362, 64
-0.99761, 65, 325, 192, 356
-0.997617, 141, 49, 172, 176
-0.997632, 1, 185, 128, 216
-0.997661, 73, 1, 136, 375
-0.997663, 361, 33, 392, 288
-0.99767, 1, 233, 128, 264
-0.997689, 353, 61, 480, 92
-0.997689, 189, 149, 204, 180
-0.997706, 347, 17, 362, 48
-0.997709, 1, 49, 256, 112
-0.99773, 81, 233, 208, 264
-0.997732, 49, 285, 176, 316
-0.997739, 237, 129, 268, 375
-0.997744, 1, 9, 500, 72
-0.997748, 225, 113, 240, 144
-0.997751, 113, 325, 240, 356
-0.997753, 225, 49, 352, 176
-0.99777, 365, 113, 380, 144
-0.99779, 129, 9, 384, 72
-0.997807, 283, 285, 298, 316
-0.997807, 373, 1, 404, 256
-0.997817, 217, 109, 232, 140
-0.997825, 371, 109, 386, 140
-0.997827, 85, 193, 116, 320
-0.997827, 183, 149, 198, 180
-0.997837, 17, 209, 144, 240
-0.99784, 53, 49, 84, 176
-0.997857, 433, 97, 464, 352
-0.997858, 347, 5, 362, 36
-0.997872, 353, 205, 480, 236
-0.997872, 211, 305, 226, 336
-0.997879, 273, 293, 400, 324
-0.997887, 1, 249, 128, 280
-0.997888, 305, 133, 432, 164
-0.997894, 233, 257, 248, 288
-0.997897, 1, 301, 128, 332
-0.997904, 349, 161, 380, 288
-0.997932, 395, 9, 410, 40
-0.997933, 1, 257, 500, 320
-0.997935, 163, 341, 178, 372
-0.997954, 279, 237, 294, 268
-0.997961, 389, 97, 420, 352
-0.997971, 247, 245, 262, 276
-0.997974, 113, 9, 240, 72
-0.997998, 207, 109, 222, 140
-0.998004, 1, 137, 128, 168
-0.998028, 209, 133, 336, 164
-0.998034, 173, 341, 188, 372
-0.998037, 5, 49, 36, 176
-0.998038, 397, 1, 428, 256
-0.99804, 197, 257, 212, 288
-0.998048, 199, 285, 214, 316
-0.998049, 71, 129, 86, 160
-0.998057, 419, 117, 434, 148
-0.998059, 451, 69, 466, 100
-0.998072, 347, 45, 362, 76
-0.998077, 381, 73, 396, 104
-0.998082, 357, 29, 372, 60
-0.998083, 1, 169, 128, 200
-0.998093, 347, 65, 362, 96
-0.998099, 237, 177, 252, 208
-0.998106, 197, 113, 212, 144
-0.998107, 337, 33, 368, 288
-0.998138, 359, 113, 374, 144
-0.998142, 231, 117, 246, 148
-0.998146, 387, 73, 402, 104
-0.998148, 457, 69, 472, 100
-0.998149, 433, 1, 464, 256
-0.998152, 413, 109, 428, 140
-0.998156, 405, 105, 420, 136
-0.998158, 73, 65, 104, 192
-0.998165, 287, 225, 302, 256
-0.998168, 445, 33, 476, 288
-0.998169, 345, 169, 360, 200
-0.998172, 153, 337, 168, 368
-0.998174, 49, 305, 176, 336
-0.998187, 187, 165, 202, 196
-0.998189, 129, 41, 384, 104
-0.99819, 445, 69, 460, 100
-0.998195, 197, 129, 228, 375
-0.998198, 375, 73, 390, 104
-0.998206, 261, 245, 276, 276
-0.998209, 459, 145, 474, 176
-0.998212, 1, 65, 128, 128
-0.998214, 393, 69, 408, 100
-0.998216, 65, 221, 192, 252
-0.998221, 381, 1, 396, 32
-0.998224, 191, 117, 206, 148
-0.998224, 369, 345, 496, 375
-0.998226, 247, 265, 262, 296
-0.998231, 77, 141, 92, 172
-0.998233, 83, 125, 98, 156
-0.998233, 403, 25, 418, 56
-0.998238, 81, 209, 208, 240
-0.998243, 91, 125, 106, 156
-0.998247, 377, 105, 392, 136
-0.998251, 353, 121, 368, 152
-0.998252, 1, 125, 128, 156
-0.998255, 369, 153, 496, 184
-0.99827, 463, 69, 478, 100
-0.998282, 195, 145, 210, 176
-0.998288, 469, 145, 484, 176
-0.998292, 249, 97, 280, 352
-0.998297, 219, 305, 234, 336
-0.998298, 65, 273, 192, 304
-0.998305, 161, 129, 192, 375
-0.99831, 393, 101, 408, 132
-0.998312, 105, 129, 168, 375
-0.998313, 147, 337, 162, 368
-0.998323, 59, 173, 74, 204
-0.998325, 305, 49, 432, 80
-0.998325, 239, 257, 254, 288
-0.998328, 355, 17, 370, 48
-0.998328, 393, 29, 408, 60
-0.998331, 337, 217, 464, 248
-0.998334, 1, 337, 128, 368
-0.998336, 1, 149, 128, 180
-0.998337, 225, 305, 240, 336
-0.99834, 181, 285, 212, 300
-0.998341, 189, 301, 220, 316
-0.998342, 177, 169, 208, 184
-0.998343, 429, 149, 460, 164
-0.998343, 189, 255, 220, 270
-0.998343, 393, 141, 424, 156
-0.998344, 221, 269, 252, 284
-0.998344, 165, 335, 196, 350
-0.998345, 469, 35, 500, 50
-0.998345, 341, 3, 372, 18
-0.998345, 77, 143, 108, 158
-0.998345, 237, 267, 268, 282
-0.998346, 313, 173, 344, 188
-0.998347, 401, 39, 432, 54
-0.998347, 413, 127, 444, 142
-0.998349, 373, 81, 404, 96
-0.998349, 349, 127, 380, 142
-0.998349, 353, 323, 384, 338
-0.99835, 441, 155, 472, 170
-0.99835, 181, 197, 212, 212
-0.998352, 337, 169, 352, 200
-0.998352, 133, 343, 164, 358
-0.998352, 409, 25, 440, 40
-0.998353, 265, 33, 328, 288
-0.998354, 469, 149, 500, 164
-0.998355, 53, 189, 84, 204
-0.998356, 369, 45, 400, 60
-0.998357, 345, 317, 376, 332
-0.998358, 377, 35, 408, 50
-0.998358, 221, 167, 252, 182
-0.998359, 381, 153, 412, 168
-0.99836, 205, 125, 236, 140
-0.99836, 17, 323, 48, 338
-0.99836, 1, 73, 500, 136
-0.99836, 281, 289, 312, 304
-0.998361, 341, 71, 372, 86
-0.998361, 213, 175, 244, 190
-0.998361, 409, 121, 440, 136
-0.998362, 389, 9, 420, 24
-0.998362, 413, 37, 444, 52
-0.998363, 173, 241, 188, 272
-0.998365, 401, 147, 432, 162
-0.998366, 425, 35, 456, 50
-0.998366, 365, 109, 396, 124
-0.998367, 5, 77, 36, 92
-0.998367, 389, 5, 404, 36
-0.998368, 233, 303, 264, 318
-0.998368, 189, 327, 220, 342
-0.998369, 197, 277, 228, 292
-0.99837, 57, 123, 88, 138
-0.99837, 401, 109, 432, 124
-0.998371, 377, 29, 408, 44
-0.998372, 85, 121, 116, 136
-0.998372, 1, 311, 32, 326
-0.998373, 353, 33, 384, 48
-0.998374, 233, 185, 264, 200
-0.998375, 169, 251, 200, 266
-0.998376, 193, 271, 224, 286
-0.998376, 369, 181, 496, 212
-0.998377, 265, 165, 296, 180
-0.998378, 205, 305, 236, 320
-0.998378, 197, 143, 228, 158
-0.998378, 361, 115, 392, 130
-0.998379, 177, 149, 192, 180
-0.99838, 229, 261, 260, 276
-0.998381, 353, 5, 384, 20
-0.998381, 285, 241, 316, 256
-0.998382, 439, 69, 454, 100
-0.998383, 237, 191, 268, 206
-0.998383, 365, 9, 396, 24
-0.998383, 177, 277, 208, 292
-0.998384, 353, 41, 368, 72
-0.998384, 217, 125, 248, 140
-0.998384, 189, 261, 220, 276
-0.998384, 381, 15, 412, 30
-0.998384, 49, 97, 176, 128
-0.998385, 5, 317, 36, 332
-0.998385, 181, 245, 196, 276
-0.998386, 449, 37, 480, 52
-0.998386, 185, 145, 216, 160
-0.998389, 413, 221, 444, 236
-0.99839, 213, 113, 244, 128
-0.998391, 281, 235, 312, 250
-0.998391, 301, 173, 332, 188
-0.998391, 377, 9, 408, 24
-0.998391, 61, 153, 76, 184
-0.998392, 165, 155, 196, 170
-0.998392, 89, 127, 120, 142
-0.998394, 153, 337, 184, 352
-0.998394, 341, 23, 372, 38
-0.998394, 255, 249, 270, 280
-0.998396, 405, 115, 436, 130
-0.998397, 245, 247, 276, 262
-0.998399, 191, 193, 206, 224
-0.9984, 337, 359, 368, 374
-0.9984, 277, 295, 308, 310
-0.998401, 65, 131, 96, 146
-0.998401, 189, 119, 220, 134
-0.998404, 341, 31, 372, 46
-0.998405, 229, 165, 244, 196
-0.998405, 357, 41, 388, 56
-0.998406, 185, 127, 216, 142
-0.998407, 341, 9, 372, 24
-0.998407, 349, 51, 380, 66
-0.998407, 57, 163, 88, 178
-0.998407, 353, 13, 384, 28
-0.998407, 389, 105, 420, 120
-0.998408, 185, 133, 200, 164
-0.998409, 399, 69, 414, 100
-0.99841, 161, 361, 192, 375
-0.99841, 321, 297, 448, 328
-0.99841, 357, 121, 388, 136
-0.998413, 165, 147, 196, 162
-0.998416, 213, 119, 244, 134
-0.998417, 485, 149, 500, 180
-0.998418, 397, 25, 428, 40
-0.998418, 265, 245, 296, 260
-0.99842, 181, 135, 212, 150
-0.998423, 341, 15, 372, 30
-0.998425, 237, 273, 268, 288
-0.998425, 257, 141, 384, 172
-0.998426, 329, 171, 360, 186
-0.998426, 201, 111, 232, 126
-0.998427, 13, 307, 44, 322
-0.998428, 17, 221, 144, 252
-0.998428, 277, 313, 308, 328
-0.998429, 145, 343, 176, 358
-0.998429, 361, 127, 392, 142
-0.998431, 167, 241, 182, 272
-0.998432, 313, 201, 328, 232
-0.998434, 163, 329, 178, 360
-0.998435, 237, 253, 268, 268
-0.998438, 211, 121, 226, 152
-0.998439, 341, 41, 372, 56
-0.998439, 479, 149, 494, 180
-0.99844, 363, 125, 378, 156
-0.998441, 401, 13, 416, 44
-0.998442, 181, 151, 212, 166
-0.998442, 281, 167, 312, 182
-0.998442, 141, 333, 156, 364
-0.998443, 369, 73, 384, 104
-0.998449, 385, 29, 400, 60
-0.998452, 241, 299, 304, 314
-0.998452, 377, 105, 408, 120
-0.998452, 205, 125, 220, 156
-0.998453, 369, 169, 496, 200
-0.998454, 341, 9, 356, 40
-0.998458, 457, 65, 488, 320
-0.99846, 453, 71, 484, 86
-0.998463, 457, 33, 472, 64
-0.998464, 73, 121, 104, 136
-0.998464, 353, 157, 368, 188
-0.998464, 401, 97, 432, 352
-0.998469, 17, 317, 48, 332
-0.99847, 273, 237, 288, 268
-0.99847, 453, 147, 484, 162
-0.998471, 451, 149, 466, 180
-0.998472, 327, 173, 342, 204
-0.998472, 191, 253, 206, 284
-0.998473, 465, 71, 496, 86
-0.998474, 205, 293, 220, 324
-0.998475, 363, 33, 378, 64
-0.998476, 23, 309, 38, 340
-0.998478, 97, 125, 112, 156
-0.998479, 81, 137, 112, 152
-0.99848, 437, 73, 468, 88
-0.998482, 185, 113, 248, 128
-0.998486, 361, 107, 424, 122
-0.998486, 337, 129, 368, 375
-0.998486, 345, 77, 408, 92
-0.998486, 277, 301, 292, 332
-0.998487, 383, 105, 398, 136
-0.998489, 405, 75, 436, 90
-0.99849, 289, 237, 304, 268
-0.998491, 385, 17, 400, 48
-0.998491, 277, 307, 308, 322
-0.998492, 277, 301, 308, 316
-0.998492, 165, 245, 196, 260
-0.998493, 289, 237, 416, 268
-0.998493, 399, 105, 414, 136
-0.998495, 381, 75, 412, 90
-0.998497, 301, 169, 316, 200
-0.9985, 289, 165, 304, 196
-0.998502, 369, 75, 432, 90
-0.998503, 425, 73, 456, 88
-0.998507, 407, 145, 422, 176
-0.998507, 341, 25, 356, 56
-0.998508, 269, 239, 300, 254
-0.998508, 409, 73, 472, 88
-0.998509, 453, 193, 468, 224
-0.998511, 361, 77, 392, 92
-0.998513, 369, 17, 496, 48
-0.998513, 393, 75, 424, 90
-0.998513, 69, 269, 84, 300
-0.998513, 369, 305, 496, 336
-0.998516, 437, 145, 452, 176
-0.998516, 433, 71, 496, 86
-0.998516, 375, 33, 390, 64
-0.998518, 237, 193, 252, 224
-0.998518, 289, 109, 416, 140
-0.998519, 185, 197, 200, 228
-0.998521, 337, 321, 464, 352
-0.998522, 287, 273, 302, 304
-0.998525, 205, 273, 220, 304
-0.998529, 83, 137, 98, 168
-0.998529, 349, 77, 380, 92
-0.998532, 329, 41, 392, 56
-0.998534, 77, 127, 108, 142
-0.998537, 469, 65, 484, 96
-0.998538, 265, 303, 328, 318
-0.998539, 45, 129, 76, 375
-0.998539, 329, 31, 392, 46
-0.998543, 249, 243, 312, 258
-0.998544, 193, 125, 256, 140
-0.998545, 237, 301, 252, 332
-0.998547, 371, 121, 386, 152
-0.998547, 287, 249, 302, 280
-0.998547, 191, 321, 206, 352
-0.998552, 241, 293, 304, 308
-0.998553, 277, 97, 308, 224
-0.998553, 393, 149, 456, 164
-0.998555, 267, 241, 282, 272
-0.998557, 429, 125, 444, 156
-0.99856, 75, 273, 90, 304
-0.998564, 353, 361, 416, 375
-0.998566, 49, 49, 176, 80
-0.998566, 241, 245, 256, 276
-0.998568, 201, 295, 264, 310
-0.998571, 233, 249, 296, 264
-0.998573, 405, 69, 420, 100
-0.998573, 153, 143, 216, 158
-0.998575, 185, 119, 248, 134
-0.998577, 433, 205, 496, 220
-0.998579, 297, 173, 360, 188
-0.998579, 433, 149, 496, 164
-0.998581, 193, 135, 256, 150
-0.998582, 241, 165, 304, 180
-0.998583, 225, 249, 480, 312
-0.998584, 65, 123, 128, 138
-0.998585, 193, 141, 256, 156
-0.998587, 193, 187, 256, 202
-0.99859, 185, 253, 248, 268
-0.998591, 185, 263, 248, 278
-0.998592, 265, 309, 328, 324
-0.998592, 169, 149, 232, 164
-0.998593, 257, 319, 320, 334
-0.998594, 185, 271, 248, 286
-0.998594, 353, 115, 416, 130
-0.998595, 353, 141, 416, 156
-0.998596, 57, 129, 120, 144
-0.998596, 201, 305, 264, 320
-0.998597, 161, 255, 224, 270
-0.998598, 193, 279, 256, 294
-0.998599, 265, 237, 328, 252
-0.9986, 161, 295, 224, 310
-0.998601, 273, 17, 400, 48
-0.998601, 265, 297, 328, 312
-0.998603, 153, 137, 216, 152
-0.998603, 329, 71, 392, 86
-0.998605, 329, 19, 392, 34
-0.998607, 329, 51, 392, 66
-0.998608, 385, 133, 448, 148
-0.998609, 73, 141, 136, 156
-0.998612, 225, 195, 288, 210
-0.998613, 401, 221, 464, 236
-0.998613, 337, 129, 400, 144
-0.998613, 193, 171, 256, 186
-0.998614, 209, 269, 272, 284
-0.998616, 305, 329, 368, 344
-0.998616, 185, 177, 248, 192
-0.998616, 241, 287, 304, 302
-0.998616, 161, 289, 224, 304
-0.998618, 329, 25, 392, 40
-0.998618, 153, 131, 216, 146
-0.998619, 313, 335, 376, 350
-0.99862, 113, 343, 176, 358
-0.99862, 361, 41, 424, 56
-0.998621, 57, 153, 120, 168
-0.998621, 153, 207, 216, 222
-0.998623, 353, 151, 416, 166
-0.998623, 177, 327, 240, 342
-0.998624, 185, 165, 248, 180
-0.998625, 329, 5, 392, 20
-0.998625, 89, 359, 152, 374
-0.998625, 257, 325, 320, 340
-0.998627, 313, 361, 376, 375
-0.998627, 137, 245, 200, 260
-0.998627, 329, 13, 392, 28
-0.998627, 297, 323, 360, 338
-0.998628, 385, 143, 448, 158
-0.998628, 233, 305, 296, 320
-0.998628, 233, 255, 296, 270
-0.998629, 201, 289, 264, 304
-0.99863, 225, 133, 288, 148
-0.998631, 241, 281, 304, 296
-0.998631, 161, 273, 224, 288
-0.998632, 353, 47, 416, 62
-0.998632, 385, 123, 448, 138
-0.998632, 161, 261, 224, 276
-0.998633, 193, 193, 256, 208
-0.998633, 249, 273, 312, 288
-0.998633, 385, 45, 448, 60
-0.998633, 145, 109, 208, 124
-0.998634, 393, 361, 456, 375
-0.998635, 265, 169, 328, 184
-0.998635, 401, 211, 464, 226
-0.998636, 273, 217, 336, 232
-0.998636, 177, 301, 240, 316
-0.998638, 161, 249, 224, 264
-0.998639, 321, 77, 384, 92
-0.998639, 401, 209, 432, 336
-0.998639, 401, 79, 464, 94
-0.998639, 265, 205, 328, 220
-0.99864, 353, 135, 416, 150
-0.998641, 353, 11, 416, 26
-0.998641, 329, 313, 392, 328
-0.998641, 153, 171, 216, 186
-0.998643, 273, 231, 336, 246
-0.998643, 161, 125, 224, 140
-0.998645, 297, 167, 360, 182
-0.998645, 369, 81, 432, 96
-0.998645, 209, 261, 272, 276
-0.998645, 273, 291, 336, 306
-0.998645, 257, 249, 320, 264
-0.998645, 145, 197, 208, 212
-0.998646, 193, 201, 256, 216
-0.998647, 289, 315, 352, 330
-0.998647, 137, 339, 200, 354
-0.998648, 417, 33, 480, 48
-0.998649, 57, 163, 120, 178
-0.998649, 225, 201, 288, 216
-0.998649, 41, 197, 104, 212
-0.99865, 145, 149, 208, 164
-0.998652, 153, 283, 216, 298
-0.998653, 401, 39, 464, 54
-0.998653, 433, 199, 496, 214
-0.998654, 217, 167, 280, 182
-0.998654, 393, 155, 456, 170
-0.998654, 321, 341, 384, 356
-0.998654, 329, 83, 392, 98
-0.998654, 353, 121, 416, 136
-0.998655, 49, 191, 112, 206
-0.998656, 313, 193, 376, 208
-0.998656, 345, 329, 408, 344
-0.998657, 393, 205, 456, 220
-0.998657, 137, 331, 200, 346
-0.998667, 65, 257, 192, 288
-0.998685, 369, 1, 496, 32
-0.998703, 469, 129, 500, 375
-0.998751, 297, 129, 328, 375
-0.998798, 49, 37, 176, 68
-0.998817, 305, 281, 432, 312
-0.998829, 129, 89, 256, 120
-0.998831, 25, 129, 56, 256
-0.99884, 445, 129, 476, 375
-0.998843, 1, 313, 128, 344
-0.998844, 243, 241, 258, 368
-0.998864, 1, 325, 128, 356
-0.998889, 259, 225, 274, 352
-0.998891, 49, 61, 176, 92
-0.998921, 275, 225, 290, 352
-0.998931, 179, 225, 194, 352
-0.998942, 193, 101, 320, 132
-0.998959, 283, 241, 298, 368
-0.998962, 37, 1, 68, 256
-0.998974, 251, 241, 266, 368
-0.998989, 273, 97, 400, 128
-0.99899, 73, 97, 104, 352
-0.998999, 237, 241, 252, 368
-0.999004, 189, 241, 204, 368
-0.999004, 421, 129, 452, 375
-0.999016, 57, 65, 88, 320
-0.999019, 121, 97, 152, 224
-0.999023, 189, 113, 204, 240
-0.999035, 393, 81, 408, 208
-0.999036, 33, 25, 288, 88
-0.999042, 351, 113, 366, 240
-0.999049, 225, 129, 256, 375
-0.999051, 351, 17, 366, 144
-0.999065, 277, 145, 292, 272
-0.999073, 201, 113, 216, 240
-0.999102, 269, 225, 284, 352
-0.999105, 195, 113, 210, 240
-0.999118, 239, 161, 254, 288
-0.999122, 287, 145, 302, 272
-0.999126, 385, 81, 400, 208
-0.999139, 453, 129, 468, 256
-0.999145, 161, 33, 192, 288
-0.999146, 341, 241, 372, 368
-0.999148, 189, 177, 204, 304
-0.999177, 447, 145, 462, 272
-0.999182, 463, 129, 478, 256
-0.999195, 231, 241, 246, 368
-0.999197, 145, 17, 208, 144
-0.9992, 437, 129, 452, 256
-0.999202, 1, 9, 128, 72
-0.999205, 233, 65, 264, 192
-0.999205, 199, 241, 214, 368
-0.999209, 289, 225, 304, 352
-0.999219, 341, 1, 356, 128
-0.999227, 233, 161, 248, 288
-0.999229, 177, 177, 192, 304
-0.999231, 345, 129, 360, 256
-0.999232, 97, 241, 160, 368
-0.999243, 167, 177, 182, 304
-0.999247, 173, 225, 188, 352
-0.999249, 249, 177, 264, 304
-0.999251, 469, 129, 484, 256
-0.999254, 183, 113, 198, 240
-0.999258, 281, 193, 296, 320
-0.999259, 399, 97, 414, 224
-0.999265, 183, 177, 198, 304
-0.999267, 145, 129, 176, 375
-0.999281, 195, 161, 210, 288
-0.999283, 357, 113, 372, 240
-0.999283, 399, 33, 414, 160
-0.999284, 297, 145, 312, 272
-0.99929, 263, 177, 278, 304
-0.999298, 231, 113, 246, 240
-0.999299, 393, 17, 408, 144
-0.999299, 243, 113, 258, 240
-0.999311, 73, 129, 88, 256
-0.999314, 469, 1, 500, 256
-0.999317, 475, 129, 490, 256
-0.99932, 167, 225, 182, 352
-0.999328, 29, 241, 44, 368
-0.999328, 79, 129, 94, 256
-0.999329, 379, 1, 394, 128
-0.999336, 483, 129, 498, 256
-0.999339, 271, 145, 286, 272
-0.99934, 59, 145, 74, 272
-0.999353, 303, 161, 318, 288
-0.999359, 431, 129, 446, 256
-0.999359, 209, 225, 224, 352
-0.999363, 5, 193, 36, 320
-0.999363, 85, 97, 116, 352
-0.999364, 405, 97, 420, 224
-0.999366, 65, 241, 80, 368
-0.999366, 237, 113, 252, 240
-0.999367, 345, 65, 360, 192
-0.999369, 177, 129, 192, 256
-0.999373, 431, 1, 446, 128
-0.99938, 373, 1, 388, 128
-0.999388, 379, 81, 394, 208
-0.999388, 193, 65, 208, 192
-0.999391, 325, 1, 356, 128
-0.999393, 359, 1, 374, 128
-0.999399, 385, 17, 400, 144
-0.999403, 455, 1, 470, 128
-0.999405, 215, 241, 230, 368
-0.999407, 223, 241, 238, 368
-0.999408, 201, 193, 216, 320
-0.999412, 71, 241, 86, 368
-0.999413, 161, 129, 176, 256
-0.999423, 255, 161, 270, 288
-0.999423, 161, 209, 176, 336
-0.999424, 65, 113, 80, 240
-0.999427, 295, 225, 310, 352
-0.999431, 213, 97, 244, 352
-0.999444, 339, 145, 354, 272
-0.999449, 317, 193, 348, 320
-0.999452, 423, 113, 438, 240
-0.999454, 425, 1, 440, 128
-0.999454, 365, 97, 380, 224
-0.999454, 87, 113, 102, 240
-0.999461, 53, 97, 68, 224
-0.999461, 207, 81, 222, 208
-0.999462, 45, 177, 60, 304
-0.999468, 365, 1, 380, 128
-0.999476, 309, 177, 324, 304
-0.999483, 373, 81, 388, 208
-0.999483, 469, 1, 484, 128
-0.999486, 463, 177, 478, 304
-0.999488, 3, 241, 18, 368
-0.999506, 481, 193, 496, 320
-0.99951, 403, 145, 418, 272
-0.99951, 391, 129, 406, 256
-0.999514, 37, 225, 52, 352
-0.999515, 51, 177, 66, 304
-0.999517, 407, 1, 422, 128
-0.999519, 33, 1, 288, 64
-0.99952, 433, 177, 448, 304
-0.999522, 439, 193, 454, 320
-0.999522, 221, 113, 236, 240
-0.999523, 463, 1, 478, 128
-0.999525, 59, 97, 74, 224
-0.999528, 457, 65, 472, 192
-0.999529, 155, 193, 170, 320
-0.999531, 215, 81, 230, 208
-0.999532, 381, 241, 396, 368
-0.999535, 103, 129, 118, 256
-0.999535, 457, 177, 472, 304
-0.99954, 15, 241, 30, 368
-0.999544, 471, 177, 486, 304
-0.999544, 23, 241, 38, 368
-0.999545, 69, 177, 84, 304
-0.999548, 145, 241, 176, 368
-0.999549, 59, 241, 74, 368
-0.99955, 209, 129, 224, 256
-0.99955, 227, 193, 242, 320
-0.99955, 351, 161, 366, 288
-0.999551, 97, 129, 128, 375
-0.999553, 371, 241, 386, 368
-0.999553, 237, 187, 252, 202
-0.999554, 361, 193, 424, 320
-0.999554, 341, 11, 356, 26
-0.999554, 197, 287, 212, 302
-0.999555, 363, 35, 378, 50
-0.999555, 181, 159, 196, 174
-0.999555, 359, 205, 374, 220
-0.999555, 69, 269, 84, 284
-0.999555, 463, 81, 478, 208
-0.999555, 333, 145, 348, 272
-0.999555, 283, 287, 298, 302
-0.999556, 191, 257, 206, 272
-0.999556, 363, 45, 378, 60
-0.999556, 87, 135, 102, 150
-0.999556, 13, 319, 28, 334
-0.999557, 439, 207, 454, 222
-0.999557, 375, 35, 390, 50
-0.999558, 229, 173, 244, 188
-0.999559, 453, 151, 468, 166
-0.99956, 167, 361, 182, 375
-0.99956, 185, 65, 200, 192
-0.999561, 375, 45, 390, 60
-0.999562, 367, 11, 382, 26
-0.999563, 239, 179, 254, 194
-0.999564, 315, 173, 330, 188
-0.999564, 415, 33, 430, 160
-0.999565, 191, 327, 206, 342
-0.999565, 401, 107, 416, 122
-0.999566, 199, 113, 214, 128
-0.999567, 255, 249, 270, 264
-0.999568, 283, 305, 298, 320
-0.999568, 429, 49, 444, 176
-0.999568, 437, 1, 452, 16
-0.99957, 445, 193, 460, 320
-0.99957, 239, 265, 254, 280
-0.99957, 375, 107, 390, 122
-0.999571, 187, 165, 202, 180
-0.999572, 471, 149, 486, 164
-0.999572, 381, 1, 396, 16
-0.999572, 397, 23, 412, 38
-0.999573, 63, 181, 78, 196
-0.999573, 431, 29, 446, 44
-0.999574, 181, 151, 196, 166
-0.999574, 79, 241, 94, 368
-0.999574, 381, 105, 396, 120
-0.999575, 197, 259, 212, 274
-0.999575, 177, 361, 192, 375
-0.999576, 287, 233, 302, 248
-0.999577, 415, 37, 430, 52
-0.999577, 77, 81, 92, 208
-0.999577, 233, 267, 248, 282
-0.999577, 229, 123, 244, 138
-0.999577, 159, 349, 174, 364
-0.999577, 93, 113, 108, 240
-0.999579, 211, 305, 226, 320
-0.99958, 243, 251, 258, 266
-0.99958, 267, 243, 282, 258
-0.999581, 427, 37, 442, 52
-0.999581, 247, 257, 262, 272
-0.999581, 305, 173, 320, 188
-0.999582, 293, 169, 308, 184
-0.999583, 357, 41, 372, 56
-0.999583, 167, 337, 182, 352
-0.999584, 447, 155, 462, 170
-0.999585, 171, 245, 186, 260
-0.999585, 343, 167, 358, 182
-0.999585, 283, 165, 298, 180
-0.999586, 355, 29, 370, 44
-0.999586, 455, 35, 470, 50
-0.999586, 447, 65, 462, 192
-0.999587, 169, 343, 184, 358
-0.999587, 431, 23, 446, 38
-0.999588, 273, 239, 288, 254
-0.999588, 73, 133, 88, 148
-0.999588, 199, 275, 214, 290
-0.99959, 223, 115, 238, 130
-0.999591, 369, 111, 384, 126
-0.999591, 417, 117, 432, 132
-0.999592, 355, 121, 370, 136
-0.999593, 147, 343, 162, 358
-0.999593, 59, 163, 74, 178
-0.999594, 347, 71, 362, 86
-0.999595, 87, 119, 102, 134
-0.999595, 347, 49, 362, 64
-0.999596, 247, 267, 262, 282
-0.999597, 399, 17, 414, 32
-0.999597, 407, 109, 422, 124
-0.999598, 17, 309, 32, 324
-0.999598, 261, 247, 276, 262
-0.999599, 369, 41, 384, 56
-0.9996, 179, 245, 194, 260
-0.999603, 233, 257, 248, 272
-0.999604, 155, 343, 170, 358
-0.999604, 283, 293, 298, 308
-0.999606, 459, 71, 474, 86
-0.999608, 461, 145, 476, 160
-0.999612, 23, 317, 38, 332
-0.999613, 249, 247, 264, 262
-0.999613, 483, 71, 498, 86
-0.999613, 29, 315, 44, 330
-0.999618, 465, 71, 480, 86
-0.999622, 23, 307, 38, 322
-0.999622, 345, 3, 360, 18
-0.999623, 471, 71, 486, 86
-0.999623, 99, 129, 114, 144
-0.999624, 361, 117, 376, 132
-0.999627, 413, 111, 428, 126
-0.999627, 75, 123, 90, 138
-0.999628, 477, 71, 492, 86
-0.999628, 325, 33, 356, 288
-0.99963, 421, 73, 436, 88
-0.999632, 449, 73, 464, 88
-0.999632, 93, 123, 108, 138
-0.999633, 79, 129, 94, 144
-0.999636, 229, 117, 244, 132
-0.999638, 347, 9, 362, 24
-0.999638, 357, 77, 372, 92
-0.99964, 347, 17, 362, 32
-0.99964, 141, 33, 172, 288
-0.999642, 381, 77, 396, 92
-0.999644, 187, 151, 202, 166
-0.999646, 391, 75, 406, 90
-0.999647, 415, 75, 430, 90
-0.999648, 163, 343, 178, 358
-0.999648, 429, 73, 444, 88
-0.999649, 347, 29, 362, 44
-0.999649, 279, 237, 294, 252
-0.99965, 347, 43, 362, 58
-0.99965, 435, 73, 450, 88
-0.999653, 443, 73, 458, 88
-0.999655, 347, 35, 362, 50
-0.999656, 397, 75, 412, 90
-0.999659, 363, 77, 378, 92
-0.999661, 409, 75, 424, 90
-0.999662, 369, 77, 384, 92
-0.999662, 347, 23, 362, 38
-0.999663, 375, 77, 390, 92
-0.999665, 403, 75, 418, 90
-0.999666, 349, 77, 364, 92
-0.999669, 81, 123, 96, 138
-0.999684, 93, 129, 108, 144
-0.999689, 313, 241, 344, 368
-0.999711, 349, 97, 380, 352
-0.999723, 277, 33, 308, 288
-0.999728, 5, 97, 36, 352
-0.999729, 87, 125, 102, 140
-0.999734, 283, 299, 298, 314
-0.999772, 37, 17, 68, 144
-0.999811, 173, 33, 204, 288
-0.999819, 13, 1, 44, 256
-0.999821, 17, 129, 48, 375
-0.999829, 265, 33, 296, 288
-0.999851, 197, 1, 228, 256
-0.999884, 25, 1, 56, 256
-0.999887, 133, 129, 164, 375
-0.999899, 33, 129, 64, 375
-0.99994, 81, 1, 112, 256
-0.999964, 109, 129, 140, 375
-0.999981, 117, 177, 148, 304
-0.999999, 105, 33, 136, 288
-1.00003, 325, 129, 356, 375
-1.0001, 89, 241, 120, 368
-1.0001, 293, 33, 324, 288
-1.00012, 185, 1, 216, 256
-1.00016, 225, 33, 256, 288
-1.00019, 361, 129, 392, 375
-1.00021, 333, 193, 364, 320
-1.00024, 237, 33, 268, 288
-1.00024, 313, 65, 344, 320
-1.00025, 157, 1, 188, 128
-1.00029, 85, 65, 116, 192
-1.00031, 117, 241, 148, 368
-1.00031, 25, 33, 88, 160
-1.00033, 249, 1, 280, 256
-1.00035, 101, 241, 132, 368
-1.00042, 125, 33, 156, 288
-1.00047, 121, 129, 152, 375
-1.00049, 69, 1, 100, 256
-1.00052, 1, 1, 32, 256
-1.00056, 221, 65, 252, 192
-1.00061, 93, 1, 124, 256
-1.00068, 369, 177, 400, 304
-1.00078, 433, 241, 496, 368
-1.00082, 109, 81, 140, 208
-1.00094, 209, 1, 240, 256
-1.00113, 145, 57, 272, 120
-1.00189, 169, 1, 232, 256
-1.00191, 161, 1, 288, 64
-1.00193, 193, 49, 320, 112
-1.00213, 209, 1, 336, 64
-1.00232, 177, 1, 304, 128
-1.00271, 209, 25, 336, 88
-1.00346, 409, 241, 472, 368
-1.00587, 81, 1, 144, 128
-1.00853, 169, 1, 232, 128
-1.00905, 265, 49, 328, 176
-1.01241, 225, 17, 288, 144
-1.01314, 201, 1, 264, 128
-1.01366, 225, 1, 352, 128
-1.01526, 265, 1, 328, 128
