1947
-0.149198, 1, 1, 500, 375
-0.339599, 1, 33, 500, 288
-0.348309, 1, 129, 500, 375
-0.414254, 1, 1, 256, 375
-0.45404, 193, 1, 448, 375
-0.463374, 97, 1, 352, 375
-0.579162, 65, 97, 320, 352
-0.630676, 225, 129, 480, 375
-0.674712, 97, 1, 352, 256
-0.718011, 225, 1, 480, 256
-0.727603, 1, 1, 256, 256
-0.831048, 81, 1, 208, 375
-0.831686, 113, 65, 240, 320
-0.842631, 129, 1, 256, 375
-0.844733, 1, 193, 500, 320
-0.848228, 17, 1, 144, 375
-0.859414, 177, 97, 304, 352
-0.861276, 1, 129, 128, 375
-0.869624, 1, 145, 500, 272
-0.870574, 49, 129, 176, 375
-0.876228, 193, 1, 320, 375
-0.878973, 241, 1, 368, 375
-0.882788, 1, 241, 500, 368
-0.886681, 1, 1, 500, 128
-0.8887, 49, 1, 176, 256
-0.888949, 289, 1, 416, 375
-0.8902, 1, 97, 500, 224
-0.894889, 225, 1, 352, 256
-0.895577, 177, 1, 304, 256
-0.896733, 1, 1, 128, 256
-0.8969, 273, 129, 400, 375
-0.898496, 337, 1, 464, 375
-0.905171, 273, 33, 400, 288
-0.907712, 65, 145, 320, 272
-0.908928, 129, 97, 384, 224
-0.909216, 65, 209, 320, 336
-0.909485, 321, 1, 448, 256
-0.909648, 225, 129, 352, 375
-0.912359, 1, 49, 500, 176
-0.919011, 193, 161, 448, 288
-0.922555, 369, 1, 496, 256
-0.923899, 1, 33, 256, 160
-0.925968, 81, 177, 208, 304
-0.927553, 353, 129, 480, 375
-0.928372, 161, 145, 224, 272
-0.929261, 121, 129, 184, 256
-0.929504, 225, 97, 480, 224
-0.930197, 225, 209, 480, 336
-0.930451, 177, 113, 304, 240
-0.930534, 1, 81, 256, 208
-0.932215, 113, 129, 240, 256
-0.935359, 81, 209, 144, 336
-0.936158, 129, 81, 256, 208
-0.938203, 161, 209, 288, 336
-0.93949, 265, 81, 328, 208
-0.940044, 257, 33, 500, 160
-0.940078, 209, 113, 272, 240
-0.940099, 209, 161, 336, 288
-0.940521, 193, 161, 256, 288
-0.940566, 81, 49, 208, 176
-0.940782, 153, 193, 216, 320
-0.941571, 233, 129, 296, 256
-0.942105, 81, 145, 144, 272
-0.943367, 169, 81, 232, 208
-0.943372, 129, 177, 192, 304
-0.943714, 81, 225, 208, 352
-0.943735, 225, 81, 352, 208
-0.943763, 273, 145, 400, 272
-0.943785, 105, 177, 168, 304
-0.943967, 161, 33, 416, 160
-0.944009, 41, 225, 104, 352
-0.944169, 81, 217, 144, 280
-0.945215, 33, 193, 160, 320
-0.945658, 289, 97, 352, 224
-0.946096, 145, 97, 208, 224
-0.947026, 17, 129, 144, 256
-0.94753, 81, 1, 208, 128
-0.94793, 385, 241, 448, 368
-0.94807, 193, 209, 256, 336
-0.948213, 161, 161, 288, 288
-0.948473, 105, 201, 168, 264
-0.948644, 145, 17, 208, 144
-0.949452, 193, 233, 256, 296
-0.949531, 1, 241, 128, 368
-0.949784, 153, 209, 216, 272
-0.94992, 97, 1, 160, 128
-0.950204, 1, 49, 128, 176
-0.950263, 289, 49, 352, 176
-0.951008, 257, 177, 320, 240
-0.951692, 369, 241, 496, 368
-0.951996, 49, 1, 112, 128
-0.952717, 1, 1, 128, 128
-0.952867, 129, 193, 192, 256
-0.953177, 129, 225, 192, 288
-0.953333, 121, 1, 184, 128
-0.953358, 265, 129, 328, 256
-0.953422, 233, 193, 296, 256
-0.954625, 169, 241, 232, 368
-0.954835, 65, 129, 192, 256
-0.954842, 121, 65, 184, 192
-0.95487, 241, 17, 368, 144
-0.954905, 73, 193, 136, 256
-0.954933, 281, 161, 344, 224
-0.955149, 233, 169, 296, 232
-0.955208, 169, 169, 232, 232
-0.955215, 81, 265, 144, 328
-0.955269, 177, 33, 304, 160
-0.955705, 217, 193, 280, 320
-0.955833, 161, 145, 224, 208
-0.956141, 201, 137, 264, 200
-0.956153, 129, 17, 256, 144
-0.956181, 193, 65, 256, 192
-0.957147, 193, 193, 256, 256
-0.958018, 337, 1, 464, 128
-0.958468, 273, 97, 400, 224
-0.958497, 209, 161, 272, 224
-0.958941, 121, 121, 184, 184
-0.959064, 41, 177, 104, 304
-0.959244, 241, 177, 304, 304
-0.959344, 329, 145, 392, 272
-0.959617, 105, 145, 168, 208
-0.959664, 41, 233, 104, 296
-0.959843, 233, 81, 296, 208
-0.959952, 137, 57, 200, 120
-0.960151, 145, 241, 208, 368
-0.960436, 417, 241, 480, 368
-0.960567, 169, 233, 232, 296
-0.96065, 393, 281, 456, 344
-0.960737, 313, 97, 376, 224
-0.960935, 41, 129, 104, 256
-0.961206, 377, 305, 440, 368
-0.961842, 17, 81, 80, 208
-0.961932, 241, 145, 304, 208
-0.962216, 105, 225, 168, 352
-0.962307, 81, 65, 144, 192
-0.962482, 17, 129, 80, 256
-0.96282, 289, 33, 416, 160
-0.962842, 313, 121, 376, 184
-0.962864, 353, 225, 416, 352
-0.963118, 297, 145, 360, 272
-0.963188, 65, 169, 128, 232
-0.963556, 153, 257, 216, 320
-0.963604, 57, 81, 120, 208
-0.963866, 321, 161, 448, 288
-0.963951, 265, 33, 328, 160
-0.964116, 89, 97, 152, 352
-0.964255, 321, 225, 448, 352
-0.964311, 217, 217, 280, 280
-0.964595, 65, 121, 128, 184
-0.964759, 161, 113, 224, 176
-0.964947, 137, 145, 200, 208
-0.964956, 265, 137, 328, 200
-0.964973, 141, 129, 172, 256
-0.965425, 105, 177, 168, 240
-0.965433, 433, 1, 496, 128
-0.965701, 201, 105, 264, 168
-0.965751, 81, 241, 144, 304
-0.965925, 1, 209, 64, 336
-0.966011, 337, 305, 400, 368
-0.966079, 9, 65, 72, 128
-0.96615, 113, 249, 176, 312
-0.966155, 289, 129, 352, 192
-0.966277, 377, 193, 440, 320
-0.966313, 177, 97, 240, 352
-0.966475, 17, 145, 80, 208
-0.966478, 25, 1, 88, 128
-0.966752, 85, 217, 116, 280
-0.966907, 113, 209, 240, 272
-0.966908, 321, 97, 448, 224
-0.967164, 57, 1, 120, 64
-0.967315, 189, 145, 220, 272
-0.967335, 65, 225, 192, 288
-0.967343, 137, 1, 200, 256
-0.967547, 353, 281, 416, 344
-0.96774, 177, 169, 304, 232
-0.967813, 205, 161, 236, 288
-0.967842, 121, 145, 152, 272
-0.967916, 177, 177, 208, 304
-0.967947, 141, 185, 172, 248
-0.967978, 49, 297, 112, 360
-0.968008, 49, 145, 112, 208
-0.968166, 105, 193, 136, 256
-0.968201, 273, 177, 336, 304
-0.968243, 369, 129, 496, 256
-0.968255, 161, 129, 192, 256
-0.968457, 105, 225, 168, 288
-0.968593, 121, 1, 184, 64
-0.968883, 81, 73, 144, 136
-0.968942, 65, 201, 192, 264
-0.969279, 113, 233, 240, 296
-0.969288, 121, 129, 184, 375
-0.969295, 169, 233, 200, 296
-0.969314, 181, 233, 212, 296
-0.969411, 169, 57, 232, 120
-0.969439, 137, 33, 200, 96
-0.969464, 209, 169, 240, 232
-0.969585, 73, 289, 136, 352
-0.969648, 229, 161, 260, 224
-0.969767, 417, 281, 480, 344
-0.969984, 113, 289, 176, 352
-0.970112, 225, 97, 288, 352
-0.970125, 369, 193, 496, 320
-0.970218, 89, 121, 152, 184
-0.970225, 225, 113, 288, 176
-0.970453, 197, 209, 228, 272
-0.970486, 161, 193, 192, 256
-0.970563, 313, 145, 376, 208
-0.970664, 273, 97, 336, 160
-0.970763, 185, 305, 248, 368
-0.970842, 113, 153, 240, 216
-0.970843, 89, 193, 120, 320
-0.970929, 101, 161, 132, 288
-0.971005, 193, 145, 224, 208
-0.97107, 121, 161, 152, 224
-0.971094, 169, 33, 232, 160
-0.971114, 81, 145, 144, 208
-0.971285, 41, 257, 104, 320
-0.971356, 49, 73, 112, 136
-0.971591, 125, 193, 156, 256
-0.971835, 401, 305, 464, 368
-0.971853, 161, 89, 224, 152
-0.971919, 209, 209, 336, 336
-0.97193, 157, 177, 188, 304
-0.972039, 385, 145, 448, 272
-0.972214, 73, 17, 136, 144
-0.972367, 433, 305, 496, 368
-0.972453, 189, 97, 220, 224
-0.972475, 217, 193, 248, 256
-0.972517, 65, 249, 192, 312
-0.972637, 185, 169, 216, 232
-0.972902, 49, 33, 112, 96
-0.97295, 253, 177, 284, 240
-0.973, 161, 209, 288, 272
-0.973, 149, 209, 180, 272
-0.97301, 141, 177, 172, 304
-0.973026, 25, 17, 88, 80
-0.973202, 273, 169, 400, 232
-0.973237, 73, 1, 104, 128
-0.97327, 385, 249, 448, 312
-0.973288, 41, 193, 104, 256
-0.973397, 109, 225, 140, 288
-0.973471, 277, 185, 308, 248
-0.973475, 313, 289, 376, 352
-0.973478, 161, 233, 288, 296
-0.973505, 17, 249, 80, 312
-0.973508, 321, 169, 384, 232
-0.973718, 197, 185, 228, 248
-0.973774, 145, 281, 208, 344
-0.973933, 401, 193, 464, 320
-0.973962, 257, 129, 288, 256
-0.973981, 33, 105, 96, 168
-0.973989, 1, 17, 64, 144
-0.974094, 321, 49, 384, 176
-0.974099, 185, 201, 216, 264
-0.974164, 81, 313, 144, 375
-0.974191, 9, 89, 72, 152
-0.974231, 1, 153, 128, 216
-0.974237, 177, 129, 208, 256
-0.974259, 237, 185, 268, 248
-0.974334, 105, 81, 168, 144
-0.97436, 313, 1, 376, 128
-0.974472, 209, 137, 240, 200
-0.974541, 265, 177, 296, 240
-0.974572, 145, 129, 272, 192
-0.974587, 133, 145, 164, 208
-0.974628, 193, 137, 320, 200
-0.974738, 49, 129, 112, 375
-0.974996, 241, 129, 272, 256
-0.975101, 129, 185, 256, 248
-0.975116, 281, 185, 344, 248
-0.97515, 201, 281, 264, 344
-0.975165, 289, 177, 320, 240
-0.975215, 89, 1, 152, 64
-0.975265, 81, 33, 208, 96
-0.9753, 17, 217, 144, 280
-0.975309, 113, 97, 240, 160
-0.975389, 81, 57, 208, 120
-0.975398, 201, 65, 264, 320
-0.97541, 201, 233, 232, 296
-0.97548, 137, 81, 200, 144
-0.97553, 417, 257, 480, 320
-0.975555, 25, 305, 88, 368
-0.975575, 193, 313, 224, 375
-0.97558, 137, 169, 200, 232
-0.975654, 225, 169, 352, 232
-0.975708, 305, 145, 336, 208
-0.97574, 153, 129, 216, 375
-0.975762, 353, 177, 416, 304
-0.97578, 65, 9, 192, 72
-0.975786, 173, 169, 204, 232
-0.975848, 185, 257, 248, 320
-0.97586, 241, 33, 304, 160
-0.975941, 149, 1, 180, 128
-0.975999, 157, 161, 188, 224
-0.976035, 97, 281, 224, 344
-0.97604, 97, 153, 128, 216
-0.976054, 305, 129, 336, 256
-0.976108, 33, 129, 160, 192
-0.976145, 245, 145, 276, 208
-0.976199, 293, 153, 324, 216
-0.976219, 209, 201, 336, 264
-0.976244, 169, 33, 232, 96
-0.976247, 97, 33, 160, 96
-0.97651, 1, 1, 128, 64
-0.976579, 17, 281, 144, 344
-0.97666, 173, 193, 204, 256
-0.976714, 169, 145, 200, 208
-0.976758, 337, 97, 400, 224
-0.976767, 1, 241, 128, 304
-0.976794, 73, 33, 136, 96
-0.976797, 277, 129, 308, 256
-0.976831, 125, 193, 156, 320
-0.976872, 93, 193, 124, 256
-0.976901, 1, 33, 128, 96
-0.976928, 325, 97, 356, 224
-0.976933, 81, 97, 144, 160
-0.976963, 57, 1, 120, 256
-0.977013, 121, 217, 152, 280
-0.977036, 377, 209, 440, 272
-0.977073, 361, 1, 424, 128
-0.97708, 193, 17, 256, 144
-0.97711, 337, 49, 464, 176
-0.977142, 149, 17, 180, 80
-0.977164, 89, 249, 120, 312
-0.977182, 377, 169, 440, 232
-0.977211, 273, 225, 400, 352
-0.977212, 313, 97, 376, 160
-0.977255, 409, 1, 472, 128
-0.977258, 161, 313, 224, 375
-0.977406, 201, 81, 232, 208
-0.977461, 209, 113, 336, 176
-0.977462, 161, 17, 192, 144
-0.977472, 189, 225, 220, 352
-0.977485, 257, 153, 288, 216
-0.977556, 221, 145, 252, 272
-0.977641, 229, 193, 260, 320
-0.977659, 297, 81, 328, 208
-0.977747, 1, 17, 64, 80
-0.977886, 17, 169, 80, 232
-0.977965, 17, 41, 80, 104
-0.978046, 57, 1, 88, 128
-0.978072, 169, 1, 232, 256
-0.978224, 265, 33, 328, 288
-0.978237, 105, 209, 136, 336
-0.978282, 353, 305, 480, 368
-0.978336, 129, 257, 256, 320
-0.978397, 89, 145, 120, 272
-0.978482, 289, 1, 352, 128
-0.978483, 241, 145, 368, 208
-0.978496, 161, 241, 192, 368
-0.9786, 173, 225, 204, 352
-0.97868, 25, 281, 88, 344
-0.978708, 313, 81, 344, 208
-0.978779, 1, 209, 64, 272
-0.978797, 249, 97, 312, 160
-0.978822, 17, 89, 144, 152
-0.97897, 57, 41, 88, 104
-0.978986, 9, 121, 72, 184
-0.978988, 345, 289, 376, 352
-0.979018, 229, 217, 260, 280
-0.979065, 425, 193, 488, 320
-0.979108, 109, 153, 140, 216
-0.979137, 97, 305, 224, 368
-0.979276, 405, 225, 436, 352
-0.979361, 265, 225, 328, 288
-0.97937, 69, 193, 100, 320
-0.979449, 177, 49, 208, 176
-0.979545, 161, 33, 192, 96
-0.979572, 201, 97, 232, 160
-0.979583, 41, 169, 104, 232
-0.979595, 53, 1, 84, 64
-0.979625, 129, 33, 256, 96
-0.979642, 153, 137, 184, 200
-0.97969, 25, 129, 88, 375
-0.979753, 225, 257, 288, 320
-0.979776, 137, 225, 168, 288
-0.979843, 225, 81, 288, 144
-0.979865, 257, 177, 288, 304
-0.980047, 369, 289, 400, 352
-0.980078, 289, 49, 352, 112
-0.980143, 241, 209, 272, 272
-0.980146, 277, 161, 308, 224
-0.980157, 393, 305, 424, 368
-0.980164, 217, 97, 248, 224
-0.980248, 285, 81, 316, 208
-0.980331, 337, 1, 400, 256
-0.980338, 161, 105, 288, 168
-0.980386, 153, 1, 216, 375
-0.980455, 361, 1, 424, 256
-0.980581, 381, 313, 412, 375
-0.980607, 257, 201, 288, 264
-0.980622, 229, 129, 260, 192
-0.980664, 185, 81, 248, 144
-0.980682, 101, 65, 132, 192
-0.980707, 337, 1, 400, 128
-0.980734, 309, 121, 340, 184
-0.980739, 109, 113, 140, 240
-0.980756, 189, 105, 220, 168
-0.980778, 17, 193, 144, 256
-0.980779, 81, 1, 144, 375
-0.980891, 217, 225, 248, 288
-0.981011, 113, 33, 176, 288
-0.981061, 125, 265, 156, 328
-0.981111, 369, 97, 432, 224
-0.981129, 81, 129, 208, 192
-0.98115, 69, 49, 100, 176
-0.981151, 25, 33, 88, 288
-0.98117, 289, 289, 352, 352
-0.981196, 241, 217, 304, 280
-0.981232, 265, 129, 328, 375
-0.981244, 337, 281, 464, 344
-0.981246, 117, 129, 148, 192
-0.981277, 1, 313, 64, 375
-0.981299, 225, 281, 288, 344
-0.981307, 153, 81, 184, 208
-0.981327, 417, 1, 480, 64
-0.98136, 1, 273, 64, 336
-0.981438, 257, 297, 384, 360
-0.981462, 57, 1, 120, 375
-0.981486, 385, 33, 448, 160
-0.981493, 289, 145, 416, 208
-0.981494, 81, 177, 208, 240
-0.981522, 1, 57, 128, 120
-0.981524, 345, 121, 408, 184
-0.981528, 57, 49, 88, 176
-0.981542, 113, 73, 144, 136
-0.981586, 321, 121, 352, 184
-0.981619, 193, 1, 256, 375
-0.981638, 81, 193, 112, 256
-0.981682, 61, 153, 92, 216
-0.981718, 241, 81, 272, 208
-0.981729, 65, 1, 96, 64
-0.981839, 1, 1, 32, 64
-0.982035, 321, 145, 352, 208
-0.982078, 49, 153, 176, 216
-0.982108, 57, 97, 120, 160
-0.982111, 225, 1, 288, 256
-0.982151, 329, 241, 392, 368
-0.982344, 305, 313, 432, 375
-0.982357, 409, 81, 472, 208
-0.982406, 353, 201, 416, 264
-0.982421, 217, 105, 248, 168
-0.982431, 77, 241, 108, 368
-0.982432, 369, 193, 496, 256
-0.982438, 405, 281, 436, 344
-0.982442, 121, 97, 152, 224
-0.982484, 329, 41, 392, 104
-0.982505, 169, 257, 200, 320
-0.982526, 161, 313, 288, 375
-0.982531, 13, 73, 44, 136
-0.982565, 37, 153, 68, 216
-0.982573, 269, 81, 300, 208
-0.982669, 417, 145, 480, 272
-0.982733, 129, 289, 160, 352
-0.982767, 105, 57, 168, 120
-0.982856, 93, 241, 124, 368
-0.982894, 161, 73, 288, 136
-0.982952, 201, 225, 232, 352
-0.982961, 305, 33, 368, 288
-0.982996, 85, 17, 116, 144
-0.983033, 1, 1, 32, 128
-0.98312, 429, 225, 460, 352
-0.983198, 345, 9, 408, 72
-0.983247, 289, 209, 352, 272
-0.983252, 265, 73, 328, 136
-0.98327, 177, 257, 304, 320
-0.983278, 353, 249, 480, 312
-0.983369, 421, 257, 452, 320
-0.983381, 205, 305, 236, 368
-0.983402, 1, 129, 32, 192
-0.983416, 297, 73, 360, 136
-0.983447, 425, 281, 456, 344
-0.983507, 73, 153, 104, 216
-0.98351, 93, 65, 124, 128
-0.98351, 277, 177, 308, 304
-0.98353, 101, 1, 132, 128
-0.983537, 245, 177, 276, 304
-0.983553, 185, 49, 216, 112
-0.983558, 393, 209, 424, 336
-0.983572, 1, 57, 32, 120
-0.98362, 165, 81, 196, 208
-0.983698, 173, 41, 204, 104
-0.9837, 241, 113, 272, 176
-0.983721, 333, 121, 364, 184
-0.983802, 49, 145, 80, 208
-0.983837, 401, 185, 464, 248
-0.983844, 153, 249, 184, 312
-0.983852, 357, 297, 388, 360
-0.983884, 65, 105, 192, 168
-0.983894, 153, 273, 184, 336
-0.983926, 321, 129, 384, 375
-0.983938, 69, 233, 100, 296
-0.983966, 321, 169, 448, 232
-0.983966, 281, 225, 344, 352
-0.983968, 257, 97, 384, 160
-0.983976, 313, 313, 376, 375
-0.984067, 137, 1, 168, 128
-0.984075, 97, 217, 128, 280
-0.984091, 181, 313, 212, 375
-0.984218, 73, 33, 104, 96
-0.984291, 229, 81, 260, 208
-0.984338, 289, 201, 416, 264
-0.984342, 9, 97, 40, 160
-0.984405, 305, 1, 368, 375
-0.984408, 281, 137, 312, 200
-0.98443, 45, 65, 76, 192
-0.984433, 25, 145, 56, 208
-0.984437, 417, 153, 480, 216
-0.98446, 177, 121, 208, 184
-0.984486, 141, 225, 172, 352
-0.984499, 33, 313, 160, 375
-0.984515, 41, 1, 72, 64
-0.984555, 353, 177, 416, 240
-0.984577, 337, 1, 464, 64
-0.984586, 417, 241, 448, 368
-0.984606, 9, 153, 40, 216
-0.98462, 85, 97, 116, 224
-0.984626, 369, 25, 432, 88
-0.984627, 305, 169, 336, 232
-0.984639, 273, 9, 400, 72
-0.984757, 85, 273, 116, 336
-0.98479, 157, 65, 188, 128
-0.984799, 433, 81, 496, 208
-0.984805, 369, 1, 432, 64
-0.984843, 5, 49, 36, 176
-0.984845, 325, 49, 356, 176
-0.984855, 257, 265, 320, 328
-0.984883, 133, 1, 164, 64
-0.984943, 305, 105, 432, 168
-0.984953, 153, 113, 184, 176
-0.984972, 217, 33, 280, 160
-0.98498, 129, 113, 160, 176
-0.985003, 1, 129, 64, 375
-0.985012, 257, 33, 320, 96
-0.985034, 345, 313, 376, 375
-0.98504, 117, 297, 148, 360
-0.985076, 209, 225, 336, 288
-0.985095, 69, 129, 100, 256
-0.985104, 289, 161, 320, 288
-0.985111, 257, 121, 384, 184
-0.985116, 193, 57, 256, 120
-0.985148, 17, 33, 48, 160
-0.985189, 81, 297, 112, 360
-0.985221, 141, 41, 172, 104
-0.985249, 337, 113, 368, 240
-0.985263, 209, 89, 336, 152
-0.985302, 377, 225, 408, 352
-0.985325, 257, 81, 288, 208
-0.985455, 57, 73, 88, 136
-0.985483, 433, 81, 496, 144
-0.985543, 113, 49, 144, 176
-0.985553, 37, 129, 68, 256
-0.985573, 141, 121, 172, 184
-0.985656, 329, 289, 360, 352
-0.985663, 169, 73, 200, 136
-0.985675, 61, 129, 92, 192
-0.985689, 301, 97, 332, 160
-0.985749, 137, 257, 168, 320
-0.985752, 329, 97, 360, 160
-0.98576, 1, 1, 64, 256
-0.985762, 405, 305, 436, 368
-0.985797, 105, 273, 136, 336
-0.9858, 337, 1, 400, 375
-0.9859, 353, 89, 480, 152
-0.985966, 249, 1, 312, 375
-0.986021, 141, 281, 172, 344
-0.986041, 185, 257, 216, 320
-0.986113, 177, 49, 304, 112
-0.986133, 353, 217, 480, 280
-0.98615, 25, 129, 56, 256
-0.986171, 297, 129, 360, 375
-0.986194, 269, 137, 300, 200
-0.986195, 121, 41, 152, 104
-0.986236, 65, 81, 192, 144
-0.986243, 337, 25, 464, 88
-0.986317, 61, 209, 92, 272
-0.98633, 49, 129, 80, 256
-0.986337, 181, 145, 212, 208
-0.986348, 85, 161, 116, 224
-0.986355, 337, 57, 464, 120
-0.986368, 145, 161, 176, 224
-0.986381, 349, 121, 380, 184
-0.986554, 217, 1, 280, 375
-0.98656, 333, 145, 364, 208
-0.986567, 5, 209, 36, 336
-0.986599, 73, 121, 104, 184
-0.986624, 273, 73, 400, 136
-0.986646, 25, 1, 88, 375
-0.986918, 277, 33, 308, 160
-0.986927, 225, 33, 352, 96
-0.98696, 273, 1, 336, 375
-0.986974, 369, 169, 496, 232
-0.987008, 353, 129, 416, 375
-0.987128, 293, 33, 324, 160
-0.987136, 177, 281, 304, 344
-0.987166, 305, 233, 432, 296
-0.987479, 289, 49, 416, 112
-0.987495, 9, 129, 40, 256
-0.987855, 105, 1, 168, 375
-0.987867, 353, 145, 480, 208
-0.988074, 89, 1, 152, 256
-0.988074, 33, 209, 64, 336
-0.988085, 125, 241, 156, 368
-0.988145, 129, 49, 160, 176
-0.98824, 65, 241, 96, 368
-0.988267, 81, 213, 144, 244
-0.9883, 81, 229, 144, 260
-0.988379, 369, 177, 400, 304
-0.988394, 337, 33, 368, 160
-0.988407, 221, 33, 252, 160
-0.988435, 325, 145, 356, 272
-0.988437, 121, 1, 152, 128
-0.988461, 141, 65, 172, 192
-0.988549, 153, 233, 216, 264
-0.988657, 97, 153, 352, 216
-0.9887, 33, 65, 64, 192
-0.988706, 217, 225, 248, 352
-0.988808, 453, 241, 484, 368
-0.988854, 241, 273, 368, 336
-0.988875, 113, 229, 176, 260
-0.988899, 53, 241, 84, 368
-0.988899, 217, 193, 280, 224
-0.988933, 105, 209, 168, 240
-0.98894, 33, 209, 288, 272
-0.989136, 29, 1, 60, 128
-0.989166, 241, 181, 304, 212
-0.9892, 129, 1, 192, 375
-0.989206, 385, 65, 448, 320
-0.98922, 113, 9, 240, 72
-0.989228, 209, 33, 240, 160
-0.989367, 169, 141, 232, 172
-0.989383, 145, 249, 208, 280
-0.98944, 193, 169, 448, 232
-0.989443, 233, 205, 296, 236
-0.989446, 417, 1, 448, 128
-0.989451, 201, 145, 264, 176
-0.989456, 129, 153, 192, 184
-0.989479, 105, 149, 168, 180
-0.989499, 317, 1, 348, 128
-0.989514, 265, 193, 328, 224
-0.989558, 153, 153, 216, 184
-0.989566, 273, 157, 336, 188
-0.989582, 1, 233, 500, 296
-0.989599, 225, 249, 352, 312
-0.989625, 105, 137, 168, 168
-0.989699, 97, 197, 160, 228
-0.989756, 45, 177, 76, 304
-0.989764, 241, 141, 304, 172
-0.989774, 153, 261, 216, 292
-0.989782, 65, 177, 320, 240
-0.989782, 193, 213, 256, 244
-0.989804, 305, 33, 336, 160
-0.989815, 65, 233, 320, 296
-0.989867, 385, 1, 448, 375
-0.989923, 113, 241, 176, 272
-0.989983, 121, 193, 184, 224
-0.990022, 201, 173, 264, 204
-0.990059, 357, 1, 388, 128
-0.990067, 313, 157, 376, 188
-0.990084, 425, 161, 456, 288
-0.990113, 193, 201, 256, 232
-0.990119, 177, 245, 240, 276
-0.990123, 353, 113, 480, 176
-0.990142, 177, 233, 240, 264
-0.990148, 137, 213, 200, 244
-0.99016, 169, 101, 232, 132
-0.990168, 233, 217, 296, 248
-0.990171, 209, 133, 272, 164
-0.990189, 81, 261, 144, 292
-0.990192, 453, 1, 484, 128
-0.990192, 17, 153, 80, 184
-0.990211, 81, 241, 144, 272
-0.990228, 1, 1, 64, 32
-0.990231, 225, 57, 352, 120
-0.990244, 361, 1, 424, 375
-0.990264, 349, 81, 380, 208
-0.990276, 289, 145, 352, 176
-0.990289, 41, 241, 104, 272
-0.990294, 45, 1, 76, 128
-0.990307, 121, 17, 184, 48
-0.990311, 65, 201, 128, 232
-0.990325, 169, 337, 232, 368
-0.990329, 41, 13, 104, 44
-0.990335, 385, 293, 448, 324
-0.990343, 81, 149, 144, 180
-0.990353, 409, 145, 440, 272
-0.990377, 49, 253, 112, 284
-0.99041, 225, 161, 288, 192
-0.99041, 145, 201, 208, 232
-0.990423, 273, 169, 336, 200
-0.990437, 137, 33, 200, 64
-0.99044, 169, 85, 232, 116
-0.990444, 81, 281, 144, 312
-0.990449, 105, 273, 168, 304
-0.990455, 209, 229, 272, 260
-0.990489, 145, 89, 208, 120
-0.990496, 41, 1, 104, 32
-0.990496, 137, 141, 200, 172
-0.990498, 9, 77, 72, 108
-0.990504, 225, 121, 288, 152
-0.990507, 81, 293, 144, 324
-0.990511, 265, 181, 328, 212
-0.990518, 153, 273, 216, 304
-0.990523, 401, 309, 464, 340
-0.990557, 137, 45, 200, 76
-0.990575, 313, 125, 376, 156
-0.990587, 137, 73, 200, 104
-0.990589, 193, 105, 256, 136
-0.990591, 49, 313, 112, 344
-0.990591, 241, 193, 304, 224
-0.990636, 345, 301, 408, 332
-0.990661, 57, 69, 120, 100
-0.990669, 1, 201, 500, 264
-0.990671, 241, 105, 304, 136
-0.990673, 65, 137, 128, 168
-0.99068, 249, 153, 312, 184
-0.990692, 177, 169, 240, 200
-0.99071, 97, 61, 160, 92
-0.99071, 49, 41, 112, 72
-0.990717, 1, 169, 500, 232
-0.990717, 373, 1, 404, 128
-0.990734, 185, 321, 248, 352
-0.990742, 193, 157, 256, 188
-0.990755, 189, 33, 220, 160
-0.990755, 17, 49, 80, 80
-0.990765, 73, 49, 136, 80
-0.990775, 137, 61, 200, 92
-0.990788, 105, 1, 168, 32
-0.990818, 129, 261, 192, 292
-0.990834, 409, 1, 472, 375
-0.990853, 49, 289, 112, 320
-0.990856, 177, 25, 304, 88
-0.990866, 33, 229, 96, 260
-0.990867, 313, 113, 376, 144
-0.990869, 177, 69, 240, 100
-0.990886, 21, 81, 52, 208
-0.990886, 21, 177, 52, 304
-0.990889, 57, 213, 120, 244
-0.990892, 97, 45, 160, 76
-0.990893, 9, 241, 72, 272
-0.990896, 65, 189, 128, 220
-0.990897, 169, 45, 232, 76
-0.990898, 169, 189, 232, 220
-0.990901, 233, 241, 296, 368
-0.990914, 265, 137, 328, 168
-0.990922, 33, 273, 288, 336
-0.990934, 265, 105, 328, 136
-0.990937, 321, 317, 384, 348
-0.990944, 409, 65, 472, 320
-0.990945, 169, 213, 232, 244
-0.99095, 297, 301, 360, 332
-0.990974, 417, 265, 480, 296
-0.990983, 345, 49, 408, 176
-0.991011, 81, 317, 144, 348
-0.991027, 169, 57, 232, 88
-0.991041, 417, 285, 480, 316
-0.991046, 105, 121, 168, 152
-0.991047, 361, 289, 424, 320
-0.991052, 121, 297, 184, 328
-0.991054, 425, 321, 488, 352
-0.991079, 385, 273, 448, 304
-0.991096, 1, 313, 64, 344
-0.991121, 57, 265, 120, 296
-0.991123, 1, 1, 64, 375
-0.991175, 65, 25, 128, 56
-0.991191, 185, 129, 248, 160
-0.991199, 121, 181, 184, 212
-0.991213, 329, 329, 392, 360
-0.991213, 57, 81, 120, 112
-0.991215, 289, 109, 352, 140
-0.991216, 65, 113, 128, 144
-0.991231, 361, 317, 424, 348
-0.991234, 249, 165, 312, 196
-0.991252, 17, 141, 80, 172
-0.991278, 1, 1, 256, 64
-0.991288, 273, 121, 336, 152
-0.991289, 97, 185, 160, 216
-0.991292, 65, 1, 128, 32
-0.991296, 121, 93, 184, 124
-0.991302, 313, 145, 376, 176
-0.991312, 201, 305, 264, 336
-0.991315, 1, 89, 64, 120
-0.991322, 49, 277, 112, 308
-0.991325, 9, 209, 72, 240
-0.991332, 1, 61, 64, 92
-0.991348, 337, 285, 400, 316
-0.991418, 349, 145, 380, 272
-0.99155, 441, 241, 472, 368
-0.991562, 405, 1, 436, 128
-0.991688, 161, 1, 288, 64
-0.991698, 257, 225, 384, 288
-0.991716, 1, 33, 256, 96
-0.991822, 193, 201, 448, 264
-0.991855, 113, 233, 240, 264
-0.991901, 385, 161, 416, 288
-0.99202, 33, 129, 288, 192
-0.992028, 313, 193, 376, 320
-0.992064, 129, 129, 384, 192
-0.992071, 105, 197, 136, 228
-0.992101, 117, 229, 148, 260
-0.992105, 113, 209, 144, 240
-0.992107, 257, 225, 320, 352
-0.992113, 1, 137, 500, 200
-0.992171, 117, 189, 148, 220
-0.992175, 249, 189, 280, 220
-0.992186, 133, 193, 164, 224
-0.992192, 161, 233, 192, 264
-0.992209, 433, 1, 496, 256
-0.992228, 169, 193, 200, 224
-0.99223, 181, 333, 212, 364
-0.992278, 177, 261, 208, 292
-0.992279, 149, 149, 180, 180
-0.992291, 233, 173, 264, 204
-0.992302, 293, 185, 324, 216
-0.992312, 197, 317, 228, 348
-0.99232, 237, 197, 268, 228
-0.992325, 89, 217, 120, 248
-0.992341, 185, 197, 216, 228
-0.992346, 213, 181, 244, 212
-0.992387, 149, 193, 180, 224
-0.992402, 265, 193, 296, 224
-0.992404, 177, 145, 208, 176
-0.992405, 145, 233, 176, 264
-0.992409, 241, 33, 272, 160
-0.992411, 197, 193, 228, 224
-0.992412, 133, 205, 164, 236
-0.992421, 277, 193, 308, 224
-0.992424, 1, 273, 500, 336
-0.992427, 129, 257, 384, 320
-0.992429, 169, 345, 200, 375
-0.992434, 193, 233, 224, 264
-0.992438, 141, 181, 172, 212
-0.992471, 261, 205, 292, 236
-0.992471, 309, 165, 340, 196
-0.992473, 321, 153, 352, 184
-0.992482, 253, 177, 284, 208
-0.992484, 273, 181, 304, 212
-0.992484, 65, 233, 192, 264
-0.99249, 121, 149, 152, 180
-0.992491, 129, 221, 160, 252
-0.992505, 21, 241, 52, 368
-0.992508, 161, 253, 192, 284
-0.992509, 233, 185, 264, 216
-0.992533, 189, 149, 220, 180
-0.992543, 137, 149, 168, 180
-0.992545, 181, 233, 212, 264
-0.992553, 201, 101, 232, 132
-0.992572, 165, 37, 196, 68
-0.992574, 253, 141, 284, 172
-0.992577, 293, 161, 324, 192
-0.992578, 157, 221, 188, 252
-0.992585, 101, 209, 132, 240
-0.992588, 85, 229, 116, 260
-0.992596, 213, 141, 244, 172
-0.992598, 365, 329, 396, 360
-0.992598, 197, 165, 228, 196
-0.992602, 229, 133, 260, 164
-0.992604, 185, 185, 216, 216
-0.992613, 197, 177, 228, 208
-0.992613, 373, 293, 404, 324
-0.992614, 165, 141, 196, 172
-0.992621, 57, 177, 88, 304
-0.992623, 213, 165, 244, 196
-0.992624, 213, 193, 244, 224
-0.992627, 121, 169, 152, 200
-0.99263, 205, 233, 236, 264
-0.992648, 105, 221, 136, 252
-0.992654, 233, 145, 264, 176
-0.992661, 165, 153, 196, 184
-0.992671, 225, 229, 256, 260
-0.992688, 101, 157, 132, 188
-0.992689, 225, 197, 256, 228
-0.992692, 193, 249, 224, 280
-0.992692, 469, 1, 500, 128
-0.992693, 305, 177, 336, 208
-0.992694, 153, 17, 184, 48
-0.992707, 217, 213, 248, 244
-0.992717, 89, 205, 120, 236
-0.992722, 169, 181, 200, 212
-0.992725, 305, 149, 336, 180
-0.992731, 81, 65, 208, 96
-0.992737, 293, 173, 324, 204
-0.992737, 345, 309, 376, 340
-0.992738, 241, 209, 272, 240
-0.992745, 185, 169, 216, 200
-0.992745, 145, 209, 176, 240
-0.992748, 129, 137, 160, 168
-0.992756, 425, 293, 456, 324
-0.992756, 237, 221, 268, 252
-0.992758, 1, 153, 256, 216
-0.992765, 161, 205, 192, 236
-0.992767, 245, 165, 276, 196
-0.992768, 89, 269, 120, 300
-0.992772, 101, 65, 132, 96
-0.992772, 389, 277, 420, 308
-0.992774, 69, 249, 100, 280
-0.992778, 173, 245, 204, 276
-0.99278, 281, 165, 312, 196
-0.992786, 181, 345, 212, 375
-0.992786, 97, 321, 128, 352
-0.992787, 181, 213, 212, 244
-0.992789, 341, 121, 372, 152
-0.992792, 177, 89, 208, 120
-0.992796, 169, 169, 200, 200
-0.992798, 133, 1, 164, 32
-0.9928, 205, 205, 236, 236
-0.99281, 153, 137, 184, 168
-0.99281, 141, 221, 172, 252
-0.992813, 165, 65, 196, 96
-0.992814, 101, 45, 132, 76
-0.992814, 77, 49, 108, 80
-0.992818, 149, 261, 180, 292
-0.99282, 437, 1, 468, 128
-0.992822, 469, 337, 500, 368
-0.992829, 357, 301, 388, 332
-0.992831, 133, 233, 164, 264
-0.992834, 405, 305, 436, 336
-0.992835, 41, 229, 72, 260
-0.992836, 133, 169, 164, 200
-0.992838, 393, 289, 424, 320
-0.992848, 373, 341, 404, 372
-0.99285, 441, 317, 472, 348
-0.992855, 153, 181, 184, 212
-0.992859, 105, 185, 136, 216
-0.992862, 213, 305, 244, 336
-0.992869, 65, 153, 96, 184
-0.992869, 97, 233, 128, 264
-0.992873, 213, 105, 244, 136
-0.99288, 373, 281, 404, 312
-0.99288, 29, 153, 60, 184
-0.992881, 265, 157, 296, 188
-0.992883, 89, 253, 120, 284
-0.992892, 5, 101, 36, 132
-0.992898, 321, 125, 352, 156
-0.992901, 65, 233, 96, 264
-0.992903, 65, 221, 96, 252
-0.992907, 437, 281, 468, 312
-0.992908, 137, 289, 168, 320
-0.992909, 57, 49, 88, 80
-0.99291, 193, 329, 224, 360
-0.992911, 193, 233, 208, 296
-0.992911, 153, 161, 184, 192
-0.992949, 225, 225, 480, 288
-0.993005, 209, 305, 336, 368
-0.993054, 161, 105, 416, 168
-0.99316, 113, 185, 128, 248
-0.99324, 253, 33, 284, 160
-0.993256, 261, 169, 276, 232
-0.993279, 211, 153, 226, 216
-0.993298, 365, 241, 396, 368
-0.993327, 433, 1, 496, 375
-0.99333, 65, 221, 192, 252
-0.993335, 225, 145, 480, 208
-0.993337, 113, 213, 240, 244
-0.993381, 209, 189, 336, 220
-0.993384, 265, 33, 296, 160
-0.993426, 171, 193, 186, 256
-0.993569, 165, 209, 180, 272
-0.993579, 199, 209, 214, 272
-0.993584, 183, 233, 198, 296
-0.993637, 193, 289, 448, 352
-0.993651, 155, 193, 170, 256
-0.993671, 207, 201, 222, 264
-0.99369, 97, 153, 224, 184
-0.99375, 241, 225, 272, 352
-0.993783, 229, 177, 244, 240
-0.993791, 107, 193, 122, 256
-0.993836, 33, 89, 288, 152
-0.993837, 145, 145, 272, 176
-0.993851, 177, 177, 304, 208
-0.993889, 177, 233, 192, 296
-0.993976, 397, 161, 428, 288
-0.993985, 305, 241, 368, 368
-0.994087, 223, 169, 238, 232
-0.994119, 209, 149, 336, 180
-0.994131, 433, 97, 496, 352
-0.994137, 169, 233, 184, 296
-0.994172, 1, 297, 256, 360
-0.994176, 257, 97, 500, 160
-0.994185, 253, 185, 268, 248
-0.994186, 199, 313, 214, 375
-0.99419, 161, 197, 288, 228
-0.994196, 119, 201, 134, 264
-0.994233, 163, 153, 178, 216
-0.994243, 179, 41, 194, 104
-0.994281, 235, 193, 250, 256
-0.994301, 257, 313, 500, 375
-0.994307, 291, 177, 306, 240
-0.994316, 289, 241, 320, 368
-0.994327, 257, 121, 500, 184
-0.994327, 1, 41, 500, 104
-0.994374, 257, 17, 500, 80
-0.99439, 113, 161, 128, 224
-0.994427, 289, 257, 416, 320
-0.994432, 113, 217, 128, 280
-0.994453, 1, 237, 128, 268
-0.994483, 81, 249, 208, 280
-0.994492, 81, 37, 208, 68
-0.994499, 49, 273, 176, 304
-0.994524, 273, 185, 400, 216
-0.994538, 33, 153, 160, 184
-0.994544, 295, 153, 310, 216
-0.994556, 199, 233, 214, 296
-0.994559, 221, 201, 236, 264
-0.994561, 173, 33, 188, 96
-0.994562, 129, 105, 256, 136
-0.994571, 337, 297, 464, 328
-0.99458, 209, 165, 336, 196
-0.994584, 1, 97, 500, 160
-0.994595, 209, 177, 224, 240
-0.994604, 115, 129, 130, 192
-0.994632, 151, 145, 166, 208
-0.994645, 69, 41, 84, 104
-0.994648, 137, 193, 152, 256
-0.994657, 213, 201, 228, 264
-0.99467, 281, 177, 296, 240
-0.99469, 267, 169, 282, 232
-0.994695, 17, 225, 144, 256
-0.994703, 425, 97, 456, 224
-0.994708, 139, 225, 154, 288
-0.994718, 217, 169, 232, 232
-0.994723, 221, 145, 236, 208
-0.994736, 181, 209, 196, 272
-0.994741, 321, 241, 352, 368
-0.994743, 273, 169, 400, 200
-0.994761, 65, 261, 192, 292
-0.994787, 173, 169, 188, 232
-0.994799, 265, 145, 280, 208
-0.994801, 65, 201, 192, 232
-0.994815, 247, 185, 262, 248
-0.994816, 257, 73, 500, 136
-0.994819, 241, 185, 256, 248
-0.994839, 305, 153, 320, 216
-0.99485, 211, 129, 226, 192
-0.994853, 145, 153, 160, 216
-0.994856, 251, 145, 266, 208
-0.99486, 33, 137, 160, 168
-0.994874, 237, 153, 252, 216
-0.994885, 87, 217, 102, 280
-0.994888, 81, 53, 208, 84
-0.99489, 245, 129, 260, 192
-0.994909, 161, 41, 416, 104
-0.994925, 1, 73, 500, 136
-0.99493, 205, 233, 220, 296
-0.994931, 1, 253, 128, 284
-0.994952, 297, 185, 312, 248
-0.994955, 1, 265, 128, 296
-0.994963, 145, 273, 272, 304
-0.994972, 81, 313, 208, 344
-0.994988, 191, 193, 206, 256
-0.99499, 121, 121, 136, 184
-0.995, 97, 185, 112, 248
-0.99501, 1, 313, 500, 375
-0.995018, 81, 97, 208, 128
-0.995023, 181, 145, 196, 208
-0.995033, 129, 193, 144, 256
-0.995037, 275, 169, 290, 232
-0.995053, 161, 213, 288, 244
-0.995061, 163, 185, 178, 248
-0.995068, 257, 257, 500, 320
-0.995086, 127, 225, 142, 288
-0.995107, 81, 25, 208, 56
-0.995111, 133, 225, 148, 288
-0.995114, 165, 1, 196, 256
-0.995129, 113, 193, 240, 224
-0.995136, 345, 241, 376, 368
-0.995137, 317, 129, 332, 192
-0.995148, 127, 153, 142, 216
-0.995152, 225, 201, 352, 232
-0.995158, 1, 313, 128, 344
-0.995167, 1, 17, 500, 80
-0.995175, 129, 313, 384, 375
-0.995185, 305, 341, 432, 372
-0.995204, 99, 217, 114, 280
-0.995218, 193, 225, 320, 256
-0.995222, 145, 133, 272, 164
-0.995225, 139, 161, 154, 224
-0.995227, 243, 161, 258, 224
-0.995233, 259, 145, 274, 208
-0.995234, 203, 169, 218, 232
-0.99524, 145, 201, 160, 264
-0.995259, 89, 257, 104, 320
-0.995269, 81, 249, 96, 312
-0.995271, 181, 169, 196, 232
-0.995274, 121, 153, 136, 216
-0.995295, 1, 297, 128, 328
-0.995312, 157, 137, 172, 200
-0.995315, 121, 177, 136, 240
-0.995316, 205, 305, 220, 368
-0.995326, 1, 281, 128, 312
-0.995327, 161, 81, 416, 144
-0.995328, 445, 177, 476, 304
-0.995354, 287, 153, 302, 216
-0.99536, 161, 17, 416, 80
-0.995383, 65, 1, 192, 32
-0.995386, 361, 297, 376, 360
-0.995399, 51, 73, 66, 136
-0.995399, 229, 201, 244, 264
-0.995404, 389, 1, 420, 128
-0.99541, 225, 9, 352, 72
-0.99541, 205, 129, 220, 192
-0.995418, 229, 153, 244, 216
-0.995421, 437, 113, 468, 240
-0.995424, 169, 129, 184, 192
-0.995426, 191, 169, 206, 232
-0.995428, 393, 313, 408, 375
-0.995441, 133, 265, 148, 328
-0.99545, 367, 297, 382, 360
-0.99545, 65, 285, 192, 316
-0.995456, 193, 305, 208, 368
-0.995459, 81, 85, 208, 116
-0.995473, 197, 153, 212, 216
-0.995476, 211, 233, 226, 296
-0.995482, 273, 145, 288, 208
-0.995483, 197, 65, 228, 320
-0.995496, 129, 53, 256, 84
-0.995501, 133, 153, 148, 216
-0.995505, 165, 17, 180, 80
-0.995527, 107, 249, 122, 312
-0.99553, 121, 129, 152, 375
-0.99553, 109, 73, 124, 136
-0.995536, 337, 309, 464, 340
-0.995557, 87, 193, 102, 256
-0.995558, 337, 285, 464, 316
-0.99557, 31, 145, 46, 208
-0.995582, 11, 97, 26, 160
-0.995583, 115, 73, 130, 136
-0.995588, 103, 153, 118, 216
-0.995598, 77, 1, 92, 64
-0.995604, 325, 137, 340, 200
-0.995613, 231, 105, 246, 168
-0.995618, 65, 297, 192, 328
-0.995619, 193, 133, 320, 164
-0.995627, 351, 289, 366, 352
-0.995632, 15, 65, 30, 128
-0.995641, 159, 217, 174, 280
-0.995649, 153, 169, 168, 232
-0.995654, 247, 209, 262, 272
-0.995675, 311, 129, 326, 192
-0.995681, 173, 57, 188, 120
-0.995688, 119, 97, 134, 160
-0.995695, 321, 105, 336, 168
-0.995701, 93, 217, 108, 280
-0.995719, 65, 13, 192, 44
-0.995722, 1, 57, 256, 120
-0.995727, 1, 57, 128, 88
-0.995743, 369, 269, 496, 300
-0.995774, 1, 45, 128, 76
-0.995779, 257, 41, 500, 104
-0.995791, 129, 129, 144, 192
-0.995795, 59, 73, 74, 136
-0.995807, 157, 113, 172, 176
-0.995834, 123, 73, 138, 136
-0.995839, 209, 213, 336, 244
-0.995839, 193, 281, 208, 344
-0.995848, 271, 193, 286, 256
-0.995852, 241, 345, 368, 375
-0.995854, 113, 297, 240, 328
-0.995858, 55, 1, 70, 64
-0.99586, 141, 289, 156, 352
-0.99586, 67, 9, 82, 72
-0.995876, 387, 313, 402, 375
-0.995879, 161, 65, 288, 96
-0.99588, 107, 217, 122, 280
-0.995909, 137, 129, 168, 375
-0.995917, 161, 333, 288, 364
-0.995922, 315, 161, 330, 224
-0.995936, 115, 273, 130, 336
-0.995938, 201, 105, 216, 168
-0.995939, 177, 105, 304, 136
-0.995939, 177, 257, 304, 288
-0.99594, 289, 301, 416, 332
-0.995944, 81, 141, 208, 172
-0.995946, 145, 177, 160, 240
-0.99595, 129, 285, 256, 316
-0.995953, 337, 37, 464, 68
-0.99597, 75, 49, 90, 112
-0.995971, 217, 65, 248, 320
-0.995978, 17, 105, 144, 136
-0.995991, 193, 237, 320, 268
-0.996001, 225, 177, 352, 208
-0.996013, 185, 97, 216, 352
-0.996023, 305, 329, 432, 360
-0.996083, 305, 237, 432, 268
-0.996101, 257, 157, 384, 188
-0.996135, 89, 129, 120, 375
-0.996153, 1, 17, 128, 48
-0.996202, 113, 181, 240, 212
-0.996202, 113, 169, 240, 200
-0.996203, 157, 129, 188, 375
-0.996213, 225, 109, 352, 140
-0.996235, 161, 77, 288, 108
-0.996241, 145, 117, 272, 148
-0.996272, 273, 197, 400, 228
-0.996309, 33, 169, 160, 200
-0.996312, 1, 213, 128, 244
-0.996324, 369, 193, 496, 224
-0.996364, 273, 121, 400, 152
-0.996364, 161, 41, 288, 72
-0.996372, 257, 33, 384, 64
-0.996385, 33, 189, 160, 220
-0.996401, 97, 273, 224, 304
-0.996431, 161, 89, 288, 120
-0.996435, 353, 253, 480, 284
-0.996477, 129, 245, 256, 276
-0.996483, 257, 285, 384, 316
-0.996487, 109, 129, 140, 375
-0.99649, 1, 93, 128, 124
-0.996516, 193, 121, 320, 152
-0.996517, 369, 337, 496, 368
-0.996518, 353, 1, 480, 32
-0.996518, 137, 1, 168, 256
-0.996522, 1, 333, 128, 364
-0.996534, 273, 21, 400, 52
-0.996535, 337, 21, 464, 52
-0.996542, 33, 69, 160, 100
-0.996553, 145, 157, 272, 188
-0.996596, 369, 321, 496, 352
-0.996604, 369, 225, 496, 256
-0.99665, 17, 201, 144, 232
-0.996655, 1, 117, 128, 148
-0.996685, 105, 213, 120, 244
-0.996687, 161, 305, 288, 336
-0.996691, 1, 33, 128, 64
-0.996728, 337, 109, 464, 140
-0.996734, 113, 201, 128, 232
-0.996754, 321, 177, 448, 208
-0.996762, 177, 321, 304, 352
-0.99677, 101, 33, 132, 288
-0.996782, 369, 181, 496, 212
-0.996804, 369, 205, 496, 236
-0.99683, 129, 261, 256, 292
-0.996835, 241, 133, 368, 164
-0.996846, 257, 329, 384, 360
-0.996852, 81, 113, 208, 144
-0.996894, 305, 221, 432, 252
-0.99692, 273, 189, 288, 220
-0.99694, 225, 97, 352, 128
-0.996941, 161, 345, 288, 375
-0.996949, 191, 261, 206, 292
-0.996957, 113, 225, 128, 256
-0.996983, 301, 169, 316, 200
-0.996989, 273, 101, 400, 132
-0.997023, 1, 5, 128, 36
-0.997031, 149, 1, 180, 256
-0.997039, 81, 325, 208, 356
-0.997046, 279, 189, 294, 220
-0.99705, 305, 209, 432, 240
-0.99705, 273, 45, 400, 76
-0.997052, 251, 193, 266, 224
-0.997064, 125, 209, 140, 240
-0.997074, 295, 157, 310, 188
-0.997078, 197, 257, 212, 288
-0.997095, 337, 125, 464, 156
-0.997122, 157, 233, 172, 264
-0.997145, 129, 229, 144, 260
-0.997153, 245, 185, 260, 216
-0.997172, 121, 229, 136, 260
-0.997184, 177, 1, 208, 256
-0.997191, 277, 177, 292, 208
-0.997201, 229, 65, 260, 320
-0.997213, 165, 233, 180, 264
-0.997214, 305, 153, 432, 184
-0.997216, 241, 97, 272, 352
-0.997223, 1, 81, 128, 112
-0.997229, 107, 197, 122, 228
-0.99724, 317, 165, 332, 196
-0.997253, 289, 9, 416, 40
-0.997266, 193, 329, 208, 360
-0.997275, 81, 125, 208, 156
-0.997275, 181, 253, 196, 284
-0.997289, 151, 149, 166, 180
-0.997308, 185, 337, 200, 368
-0.997312, 207, 189, 222, 220
-0.997312, 167, 149, 182, 180
-0.997317, 117, 141, 132, 172
-0.997322, 231, 177, 246, 208
-0.997322, 263, 193, 278, 224
-0.997326, 257, 145, 384, 176
-0.997349, 209, 233, 224, 264
-0.997355, 137, 197, 152, 228
-0.997358, 173, 201, 188, 232
-0.997364, 173, 153, 188, 184
-0.997366, 241, 57, 368, 88
-0.997367, 283, 177, 298, 208
-0.997381, 337, 53, 464, 84
-0.997381, 113, 213, 128, 244
-0.997383, 177, 57, 192, 88
-0.997384, 235, 193, 250, 224
-0.997392, 135, 221, 150, 252
-0.997411, 171, 233, 186, 264
-0.997414, 69, 129, 100, 375
-0.997415, 173, 97, 204, 352
-0.99742, 129, 149, 144, 180
-0.997423, 213, 309, 228, 340
-0.997431, 119, 209, 134, 240
-0.997436, 155, 197, 170, 228
-0.997438, 291, 177, 306, 208
-0.997438, 209, 285, 336, 316
-0.997445, 245, 209, 260, 240
-0.997448, 281, 33, 312, 288
-0.99745, 207, 309, 222, 340
-0.99745, 327, 153, 342, 184
-0.997463, 271, 201, 286, 232
-0.997463, 257, 197, 272, 228
-0.997471, 367, 329, 382, 360
-0.997477, 161, 153, 176, 184
-0.997488, 101, 197, 116, 228
-0.997508, 191, 201, 206, 232
-0.99752, 131, 209, 146, 240
-0.997525, 349, 1, 380, 256
-0.997527, 7, 89, 22, 120
-0.997533, 161, 213, 176, 244
-0.997536, 191, 233, 206, 264
-0.997542, 297, 185, 312, 216
-0.997547, 117, 153, 132, 184
-0.997547, 163, 201, 178, 232
-0.997551, 177, 37, 192, 68
-0.997556, 267, 169, 282, 200
-0.997558, 85, 229, 100, 260
-0.997561, 111, 157, 126, 188
-0.997562, 287, 189, 302, 220
-0.997572, 223, 173, 238, 204
-0.997574, 119, 193, 134, 224
-0.997578, 199, 197, 214, 228
-0.99758, 179, 345, 194, 375
-0.997583, 117, 33, 148, 288
-0.997583, 301, 65, 332, 320
-0.997586, 199, 273, 214, 304
-0.997592, 57, 77, 72, 108
-0.997593, 251, 205, 266, 236
-0.997597, 229, 189, 244, 220
-0.9976, 253, 65, 284, 320
-0.997604, 195, 145, 210, 176
-0.997609, 211, 165, 226, 196
-0.997618, 197, 317, 212, 348
-0.997625, 245, 141, 260, 172
-0.997639, 207, 201, 222, 232
-0.99764, 185, 265, 200, 296
-0.997641, 173, 257, 188, 288
-0.997643, 287, 161, 302, 192
-0.997644, 99, 209, 114, 240
-0.997644, 71, 1, 86, 32
-0.997655, 215, 229, 230, 260
-0.997667, 143, 153, 158, 184
-0.997675, 181, 141, 196, 172
-0.997679, 317, 149, 332, 180
-0.99768, 75, 153, 90, 184
-0.99768, 199, 233, 214, 264
-0.99768, 179, 233, 194, 264
-0.997683, 267, 181, 282, 212
-0.997686, 153, 221, 168, 252
-0.997687, 91, 217, 106, 248
-0.997688, 121, 129, 136, 160
-0.997692, 145, 189, 160, 220
-0.997699, 237, 213, 252, 244
-0.997701, 113, 189, 128, 220
-0.997702, 279, 157, 294, 188
-0.997706, 221, 233, 236, 264
-0.997709, 181, 193, 196, 224
-0.997711, 307, 157, 322, 188
-0.997729, 257, 137, 272, 168
-0.997732, 303, 181, 318, 212
-0.997733, 163, 189, 178, 220
-0.997735, 255, 173, 270, 204
-0.997735, 49, 1, 80, 256
-0.997745, 229, 229, 244, 260
-0.99775, 241, 173, 256, 204
-0.997755, 21, 97, 52, 352
-0.997758, 243, 197, 258, 228
-0.997758, 185, 233, 200, 264
-0.99776, 113, 241, 128, 272
-0.997761, 265, 65, 296, 320
-0.997766, 3, 49, 18, 80
-0.997766, 361, 1, 392, 256
-0.997768, 429, 285, 444, 316
-0.997772, 273, 161, 288, 192
-0.997778, 209, 177, 224, 208
-0.997779, 203, 321, 218, 352
-0.997779, 175, 189, 190, 220
-0.99778, 189, 249, 204, 280
-0.997783, 235, 225, 250, 256
-0.997791, 69, 45, 84, 76
-0.997791, 437, 277, 452, 308
-0.997792, 119, 89, 134, 120
-0.997793, 163, 245, 178, 276
-0.997794, 81, 33, 112, 288
-0.997799, 237, 133, 252, 164
-0.997805, 115, 121, 130, 152
-0.997821, 163, 17, 178, 48
-0.99783, 143, 209, 158, 240
-0.997833, 215, 185, 230, 216
-0.997842, 437, 289, 452, 320
-0.997846, 189, 141, 204, 172
-0.997851, 115, 177, 130, 208
-0.997852, 113, 73, 128, 104
-0.997866, 65, 1, 96, 256
-0.997916, 33, 129, 64, 375
-0.99794, 313, 1, 344, 256
-0.997962, 281, 129, 312, 375
-0.998045, 1, 1, 32, 256
-0.998047, 325, 1, 356, 256
-0.99824, 45, 129, 76, 375
-0.998266, 413, 129, 444, 375
-0.998395, 233, 149, 296, 164
-0.998402, 193, 147, 256, 162
-0.998407, 193, 211, 256, 226
-0.998408, 105, 209, 168, 224
-0.998416, 25, 1, 56, 256
-0.998417, 337, 33, 368, 288
-0.998419, 233, 205, 296, 220
-0.998429, 81, 215, 144, 230
-0.998431, 225, 171, 288, 186
-0.998432, 257, 177, 320, 192
-0.998441, 81, 223, 144, 238
-0.998442, 105, 149, 168, 164
-0.998443, 169, 151, 232, 166
-0.998451, 163, 129, 178, 256
-0.998453, 161, 275, 224, 290
-0.998455, 265, 185, 328, 200
-0.998459, 81, 203, 144, 218
-0.99846, 81, 229, 144, 244
-0.998461, 257, 151, 320, 166
-0.998463, 233, 195, 296, 210
-0.998466, 53, 81, 84, 96
-0.998466, 121, 167, 152, 182
-0.998467, 177, 175, 208, 190
-0.998467, 241, 189, 304, 204
-0.998469, 173, 255, 204, 270
-0.998469, 113, 83, 144, 98
-0.998469, 121, 173, 152, 188
-0.998469, 197, 173, 228, 188
-0.99847, 281, 195, 312, 210
-0.99847, 197, 183, 228, 198
-0.998471, 301, 181, 332, 196
-0.998471, 321, 125, 352, 140
-0.998471, 281, 151, 344, 166
-0.998471, 233, 119, 264, 134
-0.998472, 245, 115, 276, 130
-0.998472, 149, 145, 180, 160
-0.998472, 405, 295, 436, 310
-0.998472, 113, 231, 176, 246
-0.998472, 373, 295, 404, 310
-0.998472, 213, 231, 244, 246
-0.998473, 157, 157, 188, 172
-0.998473, 317, 153, 348, 168
-0.998473, 145, 211, 208, 226
-0.998473, 81, 255, 144, 270
-0.998474, 69, 249, 100, 264
-0.998476, 209, 205, 272, 220
-0.998476, 313, 161, 344, 176
-0.998477, 289, 161, 320, 176
-0.998477, 89, 253, 120, 268
-0.998478, 193, 155, 256, 170
-0.998481, 197, 201, 228, 216
-0.998482, 253, 143, 284, 158
-0.998482, 241, 165, 272, 180
-0.998482, 81, 241, 144, 256
-0.998483, 349, 313, 380, 328
-0.998483, 169, 353, 200, 368
-0.998483, 121, 155, 184, 170
-0.998484, 273, 191, 336, 206
-0.998485, 105, 225, 168, 240
-0.998486, 9, 97, 40, 352
-0.998487, 209, 171, 240, 186
-0.998487, 61, 237, 92, 252
-0.998487, 89, 259, 120, 274
-0.998489, 53, 87, 84, 102
-0.99849, 133, 181, 164, 196
-0.99849, 345, 309, 408, 324
-0.99849, 281, 159, 344, 174
-0.99849, 269, 199, 300, 214
-0.99849, 325, 159, 356, 174
-0.998491, 153, 193, 184, 208
-0.998492, 169, 145, 232, 160
-0.998493, 177, 185, 208, 200
-0.998493, 81, 269, 144, 284
-0.998494, 121, 199, 184, 214
-0.998495, 171, 177, 186, 304
-0.998495, 145, 149, 208, 164
-0.998495, 161, 235, 192, 250
-0.998496, 137, 205, 200, 220
-0.998497, 289, 175, 320, 190
-0.998497, 153, 203, 184, 218
-0.998497, 265, 167, 328, 182
-0.998498, 261, 209, 292, 224
-0.998498, 73, 235, 136, 250
-0.998499, 105, 215, 168, 230
-0.998499, 257, 199, 320, 214
-0.9985, 225, 155, 256, 170
-0.9985, 169, 159, 232, 174
-0.998501, 209, 141, 272, 156
-0.998502, 117, 269, 148, 284
-0.998502, 137, 227, 168, 242
-0.998503, 177, 233, 240, 248
-0.998503, 221, 193, 252, 208
-0.998503, 21, 109, 52, 124
-0.998504, 109, 241, 140, 256
-0.998504, 153, 253, 184, 268
-0.998507, 173, 265, 204, 280
-0.998507, 165, 39, 196, 54
-0.998509, 181, 339, 212, 354
-0.99851, 129, 233, 160, 248
-0.998512, 209, 177, 240, 192
-0.998513, 121, 187, 152, 202
-0.998514, 97, 211, 128, 226
-0.998514, 253, 181, 284, 196
-0.998515, 333, 129, 364, 375
-0.998515, 161, 205, 224, 220
-0.998515, 193, 189, 224, 204
-0.998515, 57, 49, 88, 64
-0.998515, 201, 315, 232, 330
-0.998516, 233, 205, 264, 220
-0.998516, 321, 167, 352, 182
-0.998516, 265, 181, 296, 196
-0.998516, 241, 215, 304, 230
-0.998517, 213, 311, 244, 326
-0.998518, 289, 181, 352, 196
-0.998518, 297, 169, 328, 184
-0.99852, 165, 151, 196, 166
-0.998521, 193, 169, 256, 184
-0.998521, 237, 151, 268, 166
-0.998522, 245, 171, 276, 186
-0.998522, 109, 215, 140, 230
-0.998522, 313, 165, 376, 180
-0.998523, 169, 211, 232, 226
-0.998524, 225, 147, 256, 162
-0.998524, 385, 311, 448, 326
-0.998524, 417, 275, 480, 290
-0.998525, 277, 177, 308, 192
-0.998525, 193, 163, 256, 178
-0.998526, 145, 157, 208, 172
-0.998527, 213, 155, 244, 170
-0.998527, 201, 105, 232, 120
-0.998527, 217, 163, 248, 178
-0.998527, 185, 205, 248, 220
-0.998528, 253, 189, 284, 204
-0.998529, 101, 221, 132, 236
-0.998529, 377, 301, 440, 316
-0.99853, 41, 253, 104, 268
-0.99853, 169, 103, 232, 118
-0.99853, 321, 123, 384, 138
-0.998531, 177, 347, 208, 362
-0.998531, 41, 287, 104, 302
-0.998532, 57, 129, 88, 375
-0.998532, 233, 173, 264, 188
-0.998534, 169, 199, 200, 214
-0.998534, 145, 255, 208, 270
-0.998535, 1, 89, 64, 104
-0.998536, 121, 247, 184, 262
-0.998536, 81, 209, 144, 224
-0.998536, 151, 129, 166, 256
-0.998536, 193, 327, 224, 342
-0.998537, 209, 135, 272, 150
-0.998537, 193, 155, 224, 170
-0.998537, 33, 241, 96, 256
-0.998537, 293, 187, 324, 202
-0.998539, 57, 223, 120, 238
-0.998541, 57, 69, 120, 84
-0.998541, 121, 223, 152, 238
-0.998542, 305, 159, 368, 174
-0.998542, 137, 45, 200, 60
-0.998542, 357, 307, 388, 322
-0.998542, 133, 189, 164, 204
-0.998542, 129, 23, 192, 38
-0.998542, 201, 311, 264, 326
-0.998543, 57, 217, 120, 232
-0.998543, 193, 105, 256, 120
-0.998544, 105, 143, 168, 158
-0.998544, 201, 199, 264, 214
-0.998544, 365, 329, 396, 344
-0.998544, 41, 235, 104, 250
-0.998545, 161, 209, 192, 224
-0.998545, 289, 181, 320, 196
-0.998546, 225, 179, 288, 194
-0.998546, 213, 187, 244, 202
-0.998547, 177, 191, 208, 206
-0.998549, 89, 261, 152, 276
-0.998549, 145, 85, 208, 100
-0.998549, 229, 229, 260, 244
-0.998549, 293, 151, 324, 166
-0.99855, 169, 59, 232, 74
-0.998551, 385, 285, 448, 300
-0.998551, 193, 195, 224, 210
-0.998551, 281, 145, 344, 160
-0.998552, 257, 161, 320, 176
-0.998552, 81, 309, 144, 324
-0.998552, 137, 57, 200, 72
-0.998552, 137, 69, 200, 84
-0.998553, 153, 247, 216, 262
-0.998553, 121, 271, 184, 286
-0.998553, 205, 195, 236, 210
-0.998554, 141, 151, 172, 166
-0.998554, 201, 235, 232, 250
-0.998555, 65, 63, 128, 78
-0.998555, 241, 141, 304, 156
-0.998555, 237, 191, 268, 206
-0.998555, 241, 115, 304, 130
-0.998556, 273, 149, 304, 164
-0.998556, 81, 155, 144, 170
-0.998557, 241, 145, 272, 160
-0.998558, 97, 197, 160, 212
-0.998558, 113, 209, 144, 224
-0.998558, 353, 315, 416, 330
-0.998559, 393, 293, 456, 308
-0.998559, 217, 211, 280, 226
-0.998559, 305, 117, 368, 132
-0.998559, 81, 295, 144, 310
-0.998559, 17, 63, 80, 78
-0.998559, 353, 301, 416, 316
-0.998559, 41, 295, 104, 310
-0.99856, 213, 149, 244, 164
-0.99856, 57, 317, 120, 332
-0.99856, 233, 155, 296, 170
-0.998561, 129, 17, 192, 32
-0.998561, 137, 235, 200, 250
-0.998561, 209, 185, 272, 200
-0.998561, 113, 155, 144, 170
-0.998561, 201, 145, 232, 160
-0.998561, 137, 39, 200, 54
-0.998561, 201, 121, 264, 136
-0.998562, 305, 305, 368, 320
-0.998562, 41, 247, 104, 262
-0.998563, 137, 263, 200, 278
-0.998564, 185, 227, 248, 242
-0.998564, 217, 229, 280, 244
-0.998564, 273, 119, 336, 134
-0.998565, 177, 209, 208, 224
-0.998566, 57, 207, 120, 222
-0.998567, 257, 149, 288, 164
-0.998568, 145, 269, 208, 284
-0.998569, 9, 97, 72, 112
-0.998569, 225, 123, 288, 138
-0.998569, 97, 63, 160, 78
-0.998569, 41, 81, 104, 96
-0.99857, 289, 171, 352, 186
-0.99857, 49, 271, 112, 286
-0.998571, 169, 129, 184, 256
-0.998571, 225, 165, 288, 180
-0.998572, 97, 189, 160, 204
-0.998573, 73, 195, 136, 210
-0.998574, 385, 279, 448, 294
-0.998574, 277, 183, 308, 198
-0.998575, 49, 259, 112, 274
-0.998575, 89, 223, 120, 238
-0.998575, 169, 139, 232, 154
-0.998575, 425, 281, 488, 296
-0.998575, 133, 195, 164, 210
-0.998576, 137, 79, 200, 94
-0.998576, 209, 193, 272, 208
-0.998576, 117, 161, 132, 288
-0.99858, 109, 229, 140, 244
-0.998584, 185, 203, 216, 218
-0.998586, 129, 151, 160, 166
-0.998587, 301, 161, 332, 176
-0.998588, 205, 161, 236, 176
-0.998591, 197, 321, 228, 336
-0.998592, 281, 189, 312, 204
-0.998592, 185, 149, 216, 164
-0.998597, 197, 207, 228, 222
-0.998598, 245, 201, 276, 216
-0.9986, 141, 201, 172, 216
-0.9986, 221, 207, 252, 222
-0.998604, 229, 163, 260, 178
-0.998604, 89, 217, 120, 232
-0.998606, 125, 205, 156, 220
-0.998627, 113, 197, 144, 212
-0.998627, 101, 205, 132, 220
-0.998632, 233, 199, 264, 214
-0.998634, 165, 177, 180, 304
-0.998635, 213, 201, 244, 216
-0.998643, 269, 189, 300, 204
-0.998647, 153, 151, 184, 166
-0.998652, 209, 161, 224, 288
-0.998664, 177, 271, 208, 286
-0.998668, 155, 193, 170, 320
-0.998676, 253, 195, 284, 210
-0.998685, 199, 81, 214, 208
-0.998694, 265, 113, 280, 240
-0.998699, 157, 145, 172, 272
-0.998719, 215, 161, 230, 288
-0.99872, 189, 177, 204, 304
-0.998727, 91, 193, 106, 320
-0.998728, 203, 161, 218, 288
-0.998733, 389, 1, 420, 256
-0.998738, 145, 129, 160, 256
-0.99874, 197, 177, 212, 304
-0.998742, 181, 177, 196, 304
-0.998743, 37, 1, 68, 256
-0.998751, 13, 1, 44, 256
-0.998752, 133, 145, 148, 272
-0.998753, 107, 161, 122, 288
-0.998774, 401, 129, 432, 375
-0.998776, 181, 129, 196, 256
-0.998779, 71, 1, 86, 128
-0.998804, 113, 209, 128, 336
-0.998805, 139, 145, 154, 272
-0.998807, 163, 1, 178, 128
-0.998808, 175, 129, 190, 256
-0.998809, 119, 97, 134, 224
-0.998825, 125, 145, 140, 272
-0.998835, 191, 97, 206, 224
-0.998837, 241, 1, 272, 256
-0.998843, 135, 209, 150, 336
-0.998862, 199, 241, 214, 368
-0.998864, 273, 129, 288, 256
-0.998876, 413, 1, 444, 256
-0.998888, 259, 161, 274, 288
-0.998888, 13, 1, 28, 128
-0.998894, 99, 145, 114, 272
-0.998906, 283, 97, 298, 224
-0.998912, 295, 97, 310, 224
-0.998914, 245, 129, 260, 256
-0.998918, 223, 161, 238, 288
-0.998919, 197, 129, 212, 256
-0.998919, 79, 1, 94, 128
-0.998921, 239, 129, 254, 256
-0.998925, 301, 81, 316, 208
-0.998936, 111, 49, 126, 176
-0.998941, 71, 49, 86, 176
-0.998946, 109, 113, 124, 240
-0.998948, 209, 81, 224, 208
-0.998951, 141, 209, 156, 336
-0.998969, 345, 129, 376, 375
-0.998973, 97, 209, 112, 336
-0.998975, 83, 193, 98, 320
-0.998976, 265, 161, 280, 288
-0.998982, 3, 1, 18, 128
-0.998984, 327, 81, 342, 208
-0.998986, 157, 1, 172, 128
-0.998993, 307, 81, 322, 208
-0.998995, 271, 177, 286, 304
-0.998997, 93, 145, 108, 272
-0.999001, 233, 161, 248, 288
-0.999011, 273, 81, 288, 208
-0.999012, 19, 49, 34, 176
-0.999017, 87, 241, 102, 368
-0.999019, 119, 209, 134, 336
-0.999022, 147, 225, 162, 352
-0.999023, 205, 209, 220, 336
-0.999031, 427, 241, 442, 368
-0.999039, 255, 113, 270, 240
-0.999053, 177, 225, 192, 352
-0.999063, 373, 1, 404, 256
-0.999064, 301, 129, 316, 256
-0.999068, 191, 225, 206, 352
-0.999071, 327, 129, 342, 256
-0.999076, 317, 97, 332, 224
-0.999081, 313, 97, 344, 352
-0.999082, 177, 33, 192, 160
-0.999082, 279, 161, 294, 288
-0.999082, 253, 177, 268, 304
-0.999085, 227, 225, 242, 352
-0.999087, 411, 241, 426, 368
-0.999087, 171, 225, 186, 352
-0.999088, 49, 65, 64, 192
-0.99909, 185, 65, 200, 192
-0.999091, 245, 177, 260, 304
-0.9991, 245, 81, 260, 208
-0.999101, 59, 1, 74, 128
-0.999105, 151, 1, 166, 128
-0.999108, 219, 97, 234, 224
-0.999111, 333, 113, 348, 240
-0.999115, 341, 97, 356, 224
-0.999117, 401, 225, 416, 352
-0.999119, 417, 225, 432, 352
-0.999119, 169, 17, 184, 144
-0.999119, 433, 65, 464, 320
-0.999123, 59, 65, 74, 192
-0.999124, 161, 225, 176, 352
-0.999126, 119, 49, 134, 176
-0.999127, 87, 1, 102, 128
-0.999127, 107, 225, 122, 352
-0.999128, 295, 161, 310, 288
-0.999131, 99, 17, 114, 144
-0.999131, 21, 1, 36, 128
-0.999142, 213, 225, 228, 352
-0.999148, 183, 241, 198, 368
-0.999148, 109, 1, 124, 128
-0.999151, 289, 97, 304, 224
-0.999152, 7, 49, 22, 176
-0.999155, 95, 65, 110, 192
-0.999157, 317, 49, 332, 176
-0.999158, 235, 81, 250, 208
-0.999158, 291, 49, 306, 176
-0.999164, 53, 1, 68, 128
-0.999166, 153, 81, 168, 208
-0.999166, 73, 145, 88, 272
-0.999171, 469, 1, 500, 256
-0.999179, 389, 129, 420, 375
-0.999182, 13, 49, 28, 176
-0.999189, 125, 209, 140, 336
-0.999196, 39, 129, 54, 256
-0.999199, 161, 81, 176, 208
-0.999199, 391, 225, 406, 352
-0.999202, 125, 81, 140, 208
-0.999204, 437, 225, 452, 352
-0.999208, 141, 65, 156, 192
-0.999209, 147, 177, 162, 304
-0.999211, 449, 1, 480, 256
-0.999212, 225, 113, 240, 240
-0.999227, 87, 129, 102, 256
-0.99923, 171, 81, 186, 208
-0.99923, 287, 161, 302, 288
-0.999232, 59, 129, 74, 256
-0.999233, 105, 65, 120, 192
-0.999234, 369, 129, 400, 375
-0.999239, 179, 81, 194, 208
-0.999239, 307, 129, 322, 256
-0.999241, 401, 1, 432, 256
-0.99925, 133, 97, 148, 224
-0.99925, 33, 129, 48, 256
-0.999253, 77, 193, 92, 320
-0.999257, 239, 209, 254, 336
-0.999269, 357, 129, 388, 375
-0.999528, 461, 129, 492, 375
-0.999661, 71, 7, 86, 22
-0.999662, 229, 187, 244, 202
-0.999663, 191, 263, 206, 278
-0.999663, 267, 197, 282, 212
-0.999663, 245, 223, 260, 238
-0.999663, 55, 87, 70, 102
-0.999664, 115, 239, 130, 254
-0.999664, 233, 161, 248, 176
-0.999664, 211, 161, 226, 176
-0.999665, 351, 311, 366, 326
-0.999665, 369, 299, 384, 314
-0.999665, 181, 205, 196, 220
-0.999666, 175, 63, 190, 78
-0.999666, 293, 189, 308, 204
-0.999666, 171, 209, 186, 224
-0.999666, 121, 201, 136, 216
-0.999666, 267, 209, 282, 224
-0.999667, 303, 175, 318, 190
-0.999667, 139, 227, 154, 242
-0.999668, 137, 209, 152, 224
-0.999668, 201, 209, 216, 224
-0.999668, 149, 233, 164, 248
-0.999669, 5, 55, 20, 70
-0.999669, 281, 199, 296, 214
-0.999669, 161, 235, 176, 250
-0.99967, 235, 155, 250, 170
-0.99967, 203, 323, 218, 338
-0.99967, 211, 175, 226, 190
-0.99967, 239, 147, 254, 162
-0.999671, 103, 205, 118, 220
-0.999671, 229, 179, 244, 194
-0.999671, 437, 287, 452, 302
-0.999671, 289, 159, 304, 174
-0.999672, 259, 151, 274, 166
-0.999673, 145, 151, 160, 166
-0.999673, 289, 149, 304, 164
-0.999674, 203, 103, 218, 118
-0.999674, 295, 165, 310, 180
-0.999675, 327, 165, 342, 180
-0.999675, 249, 201, 264, 216
-0.999675, 211, 147, 226, 162
-0.999675, 189, 329, 204, 344
-0.999676, 125, 213, 140, 228
-0.999676, 227, 297, 242, 312
-0.999676, 219, 171, 234, 186
-0.999677, 259, 143, 274, 158
-0.999677, 213, 183, 228, 198
-0.999677, 199, 203, 214, 218
-0.999678, 207, 195, 222, 210
-0.999678, 227, 231, 242, 246
-0.999678, 9, 99, 24, 114
-0.999678, 211, 235, 226, 250
-0.999679, 137, 203, 152, 218
-0.99968, 117, 155, 132, 170
-0.999681, 269, 167, 284, 182
-0.999681, 223, 163, 238, 178
-0.999682, 229, 205, 244, 220
-0.999683, 179, 69, 194, 84
-0.999683, 359, 305, 374, 320
-0.999683, 109, 233, 124, 248
-0.999684, 239, 227, 254, 242
-0.999685, 233, 195, 248, 210
-0.999686, 205, 153, 220, 168
-0.999686, 55, 81, 70, 96
-0.999688, 433, 281, 448, 296
-0.999688, 221, 179, 236, 194
-0.999688, 221, 205, 236, 220
-0.999688, 217, 161, 232, 176
-0.999689, 195, 149, 210, 164
-0.999689, 205, 145, 220, 160
-0.999689, 209, 319, 224, 334
-0.99969, 23, 109, 38, 124
-0.999692, 249, 189, 264, 204
-0.999693, 219, 231, 234, 246
-0.999694, 241, 281, 256, 296
-0.999695, 3, 91, 18, 106
-0.999695, 245, 147, 260, 162
-0.999698, 121, 241, 136, 256
-0.999698, 113, 223, 128, 238
-0.999699, 99, 211, 114, 226
-0.999699, 295, 159, 310, 174
-0.9997, 133, 223, 148, 238
-0.9997, 17, 55, 32, 70
-0.9997, 283, 181, 298, 196
-0.999701, 233, 289, 248, 304
-0.999701, 121, 149, 136, 164
-0.999702, 107, 211, 122, 226
-0.999703, 251, 145, 266, 160
-0.999704, 233, 231, 248, 246
-0.999705, 171, 195, 186, 210
-0.999706, 269, 181, 284, 196
-0.999707, 299, 187, 314, 202
-0.999708, 163, 197, 178, 212
-0.999708, 191, 209, 206, 224
-0.99971, 305, 161, 320, 176
-0.999712, 273, 195, 288, 210
-0.999712, 171, 201, 186, 216
-0.999714, 275, 203, 290, 218
-0.999714, 277, 181, 292, 196
-0.999717, 221, 301, 236, 316
-0.999717, 207, 205, 222, 220
-0.999719, 123, 207, 138, 222
-0.999719, 295, 153, 310, 168
-0.99972, 211, 313, 226, 328
-0.999721, 131, 207, 146, 222
-0.999723, 113, 209, 128, 224
-0.999729, 159, 151, 174, 166
-0.99973, 259, 195, 274, 210
-0.99973, 185, 265, 200, 280
-0.999732, 369, 329, 384, 344
-0.999734, 251, 195, 266, 210
-0.999736, 267, 189, 282, 204
-0.999737, 93, 215, 108, 230
-0.999738, 317, 159, 332, 174
-0.999742, 275, 189, 290, 204
-0.999746, 195, 273, 210, 288
-0.999747, 227, 173, 242, 188
-0.999749, 233, 147, 248, 162
-0.99975, 235, 201, 250, 216
-0.999751, 103, 217, 118, 232
-0.999752, 291, 179, 306, 194
-0.999756, 303, 181, 318, 196
-0.999757, 117, 229, 132, 244
-0.999757, 241, 199, 256, 214
-0.999762, 217, 307, 232, 322
-0.999765, 169, 151, 184, 166
-0.999781, 285, 187, 300, 202
-0.99979, 111, 201, 126, 216
-0.999791, 151, 151, 166, 166
-0.999792, 297, 179, 312, 194
-1.00004, 449, 129, 480, 375
