1954
-0.458397, 1, 97, 500, 352
-0.540676, 1, 1, 500, 375
-0.546559, 1, 1, 500, 256
-0.587904, 161, 1, 416, 375
-0.641953, 257, 1, 500, 375
-0.65141, 1, 1, 256, 375
-0.665873, 161, 97, 416, 352
-0.672118, 33, 129, 288, 375
-0.735722, 257, 129, 500, 375
-0.747859, 33, 1, 288, 256
-0.798861, 161, 1, 416, 256
-0.816139, 257, 1, 500, 256
-0.87166, 369, 65, 496, 320
-0.87403, 1, 177, 500, 304
-0.877293, 257, 129, 384, 375
-0.880272, 129, 1, 256, 375
-0.881483, 209, 97, 336, 352
-0.882736, 33, 97, 160, 352
-0.88339, 1, 113, 500, 240
-0.885021, 113, 65, 240, 320
-0.886816, 161, 97, 288, 352
-0.891902, 305, 97, 432, 352
-0.896565, 241, 1, 368, 375
-0.900897, 49, 1, 176, 256
-0.903906, 193, 1, 320, 375
-0.905276, 65, 1, 192, 375
-0.906922, 177, 1, 304, 256
-0.908561, 17, 1, 144, 375
-0.909439, 353, 1, 480, 375
-0.909567, 1, 225, 500, 352
-0.909869, 225, 161, 480, 288
-0.914832, 289, 1, 416, 375
-0.916455, 305, 1, 432, 256
-0.9172, 33, 193, 288, 320
-0.923231, 129, 145, 384, 272
-0.92447, 257, 33, 384, 288
-0.927566, 1, 1, 128, 256
-0.927584, 1, 65, 500, 192
-0.929253, 225, 113, 480, 240
-0.931432, 129, 193, 384, 320
-0.931527, 33, 129, 288, 256
-0.934898, 81, 177, 208, 304
-0.93566, 97, 145, 160, 272
-0.936981, 241, 161, 368, 288
-0.938703, 161, 177, 288, 304
-0.942205, 121, 145, 184, 272
-0.942607, 73, 193, 136, 320
-0.94343, 33, 193, 160, 320
-0.943845, 257, 113, 384, 240
-0.944054, 97, 129, 224, 256
-0.944272, 1, 17, 500, 144
-0.945489, 73, 209, 136, 272
-0.946376, 97, 193, 160, 320
-0.946467, 209, 177, 272, 304
-0.947228, 177, 129, 304, 256
-0.947914, 273, 113, 336, 240
-0.948226, 249, 161, 312, 288
-0.949071, 169, 177, 232, 304
-0.949486, 201, 193, 264, 256
-0.950682, 241, 161, 304, 224
-0.951462, 33, 129, 160, 256
-0.951663, 337, 161, 464, 288
-0.952243, 249, 113, 312, 240
-0.952314, 89, 185, 152, 248
-0.952339, 73, 145, 136, 272
-0.952544, 145, 177, 208, 304
-0.953139, 177, 225, 304, 352
-0.953802, 145, 113, 208, 240
-0.95392, 305, 97, 432, 224
-0.954132, 129, 97, 384, 224
-0.954181, 241, 185, 304, 248
-0.954249, 209, 129, 272, 256
-0.954606, 177, 113, 240, 240
-0.954763, 113, 185, 176, 248
-0.954907, 161, 241, 416, 368
-0.955357, 97, 217, 160, 280
-0.95553, 305, 113, 368, 240
-0.955595, 177, 201, 240, 264
-0.956304, 281, 161, 344, 288
-0.956681, 225, 209, 288, 272
-0.956741, 145, 177, 208, 240
-0.957215, 225, 65, 480, 192
-0.957401, 353, 113, 480, 240
-0.957644, 97, 161, 160, 224
-0.957821, 265, 185, 328, 248
-0.957821, 129, 209, 192, 272
-0.958098, 1, 241, 256, 368
-0.958551, 425, 81, 488, 208
-0.959186, 257, 1, 500, 128
-0.959424, 113, 97, 176, 224
-0.959541, 185, 225, 248, 288
-0.959622, 121, 193, 184, 320
-0.959896, 49, 217, 112, 280
-0.96142, 361, 129, 424, 256
-0.961685, 265, 145, 328, 208
-0.962204, 201, 169, 264, 232
-0.962552, 385, 129, 448, 256
-0.963535, 33, 81, 288, 208
-0.963678, 73, 233, 136, 296
-0.963716, 313, 169, 376, 232
-0.963731, 257, 209, 500, 336
-0.963796, 33, 81, 160, 208
-0.963849, 313, 193, 376, 320
-0.963899, 169, 169, 232, 232
-0.964147, 249, 209, 312, 272
-0.964391, 153, 209, 216, 272
-0.964553, 49, 193, 112, 320
-0.964999, 65, 185, 128, 248
-0.965132, 329, 113, 392, 240
-0.965285, 185, 225, 248, 352
-0.965302, 49, 129, 112, 256
-0.965989, 113, 209, 240, 272
-0.966229, 81, 185, 208, 248
-0.966286, 345, 177, 408, 304
-0.966545, 121, 161, 184, 224
-0.966813, 233, 209, 296, 336
-0.967075, 209, 233, 272, 296
-0.967136, 33, 33, 160, 160
-0.967146, 289, 177, 352, 240
-0.967797, 97, 1, 352, 128
-0.968102, 225, 209, 352, 336
-0.968239, 353, 241, 480, 368
-0.968279, 257, 169, 288, 232
-0.968404, 281, 121, 344, 184
-0.968628, 129, 225, 256, 352
-0.968745, 417, 129, 480, 256
-0.968764, 369, 177, 432, 304
-0.968781, 353, 185, 416, 248
-0.969023, 393, 81, 456, 208
-0.969037, 73, 137, 136, 200
-0.969146, 1, 33, 256, 160
-0.969228, 305, 209, 432, 336
-0.969236, 117, 193, 148, 256
-0.96941, 97, 185, 128, 248
-0.969411, 209, 145, 272, 208
-0.969707, 77, 201, 108, 264
-0.969737, 113, 241, 176, 304
-0.969774, 353, 153, 416, 216
-0.969897, 33, 201, 160, 264
-0.970026, 177, 193, 304, 256
-0.970074, 97, 209, 128, 272
-0.970288, 113, 161, 240, 224
-0.970869, 145, 153, 208, 216
-0.970965, 73, 161, 136, 224
-0.971054, 277, 193, 308, 256
-0.971091, 369, 65, 496, 192
-0.971325, 41, 193, 104, 256
-0.971416, 117, 169, 148, 232
-0.97147, 273, 169, 400, 232
-0.971525, 81, 241, 208, 368
-0.971687, 81, 65, 208, 192
-0.971711, 97, 137, 160, 200
-0.971822, 249, 65, 312, 192
-0.971881, 121, 137, 184, 200
-0.971881, 321, 145, 384, 208
-0.971989, 33, 241, 160, 368
-0.97222, 105, 161, 136, 288
-0.972314, 189, 201, 220, 264
-0.972378, 237, 201, 268, 264
-0.972776, 25, 17, 88, 144
-0.973089, 129, 185, 256, 248
-0.973168, 225, 185, 352, 248
-0.973194, 129, 49, 384, 176
-0.973263, 321, 1, 448, 128
-0.97327, 313, 113, 376, 176
-0.973424, 41, 169, 104, 232
-0.973432, 117, 161, 148, 288
-0.973536, 177, 169, 304, 232
-0.973704, 177, 81, 304, 208
-0.973737, 377, 169, 440, 232
-0.973758, 117, 217, 148, 280
-0.97392, 321, 49, 448, 176
-0.973947, 217, 65, 280, 192
-0.97437, 257, 145, 288, 272
-0.974404, 297, 241, 360, 368
-0.974422, 225, 161, 352, 224
-0.974471, 257, 65, 384, 192
-0.974692, 241, 121, 304, 184
-0.974696, 209, 225, 272, 352
-0.974983, 401, 241, 464, 368
-0.974987, 209, 33, 336, 160
-0.975243, 137, 185, 168, 248
-0.975305, 105, 1, 168, 128
-0.975355, 33, 225, 160, 288
-0.975575, 177, 185, 208, 248
-0.975755, 33, 177, 160, 240
-0.975785, 73, 97, 136, 224
-0.975932, 201, 201, 232, 264
-0.975983, 237, 177, 268, 304
-0.976096, 145, 65, 208, 192
-0.976183, 337, 209, 400, 272
-0.976236, 33, 241, 96, 304
-0.976278, 97, 97, 160, 352
-0.976297, 305, 201, 368, 264
-0.976326, 161, 225, 288, 288
-0.976559, 145, 129, 208, 192
-0.976578, 137, 161, 168, 288
-0.976596, 233, 97, 296, 352
-0.976714, 321, 177, 448, 240
-0.976749, 369, 81, 432, 208
-0.976793, 169, 177, 200, 304
-0.976794, 145, 233, 208, 296
-0.976893, 153, 89, 216, 152
-0.976962, 177, 217, 208, 280
-0.976982, 261, 193, 292, 256
-0.977036, 233, 233, 296, 296
-0.977068, 153, 225, 216, 352
-0.97712, 337, 65, 400, 192
-0.977136, 289, 161, 416, 288
-0.977138, 153, 201, 184, 264
-0.977218, 25, 137, 88, 200
-0.977285, 57, 97, 120, 352
-0.977381, 105, 241, 168, 368
-0.97743, 357, 169, 388, 232
-0.977602, 213, 193, 244, 256
-0.977712, 137, 209, 168, 272
-0.977803, 321, 241, 384, 368
-0.977837, 193, 177, 224, 240
-0.977908, 273, 65, 336, 192
-0.977916, 177, 145, 240, 208
-0.977928, 225, 177, 256, 304
-0.978035, 225, 201, 256, 264
-0.978196, 369, 1, 496, 128
-0.978211, 425, 89, 488, 152
-0.978231, 165, 177, 196, 240
-0.978344, 17, 161, 80, 288
-0.978395, 161, 145, 288, 208
-0.978399, 133, 161, 164, 224
-0.978467, 425, 177, 488, 240
-0.978557, 345, 1, 408, 128
-0.978572, 289, 305, 352, 368
-0.978614, 89, 177, 120, 304
-0.978656, 353, 1, 416, 64
-0.978692, 273, 209, 336, 336
-0.978755, 273, 113, 304, 240
-0.978844, 369, 177, 496, 240
-0.978848, 361, 225, 424, 352
-0.978904, 425, 1, 488, 128
-0.978967, 265, 65, 328, 320
-0.97899, 97, 49, 160, 176
-0.979013, 301, 113, 332, 240
-0.979017, 129, 81, 256, 208
-0.979026, 209, 121, 272, 184
-0.979032, 225, 225, 256, 288
-0.979053, 9, 81, 72, 208
-0.979064, 201, 97, 264, 352
-0.979094, 69, 225, 100, 288
-0.979138, 57, 257, 120, 320
-0.979143, 269, 153, 300, 216
-0.979243, 25, 217, 88, 280
-0.979249, 393, 177, 456, 304
-0.979282, 305, 65, 368, 192
-0.979355, 125, 113, 156, 240
-0.979407, 401, 169, 464, 232
-0.979497, 401, 97, 464, 352
-0.979519, 225, 209, 352, 272
-0.979528, 433, 113, 496, 176
-0.979606, 385, 113, 448, 176
-0.979644, 137, 129, 200, 375
-0.979707, 169, 97, 232, 352
-0.979764, 361, 97, 424, 352
-0.979814, 385, 33, 448, 160
-0.979998, 65, 153, 192, 216
-0.980099, 113, 105, 176, 168
-0.98015, 245, 177, 276, 240
-0.980378, 281, 209, 344, 272
-0.98038, 81, 1, 208, 128
-0.980391, 377, 305, 440, 368
-0.980476, 249, 209, 280, 272
-0.980571, 305, 145, 432, 208
-0.980576, 345, 177, 376, 240
-0.980693, 165, 209, 196, 272
-0.980793, 213, 217, 244, 280
-0.980799, 9, 169, 72, 232
-0.980898, 257, 193, 288, 320
-0.980899, 425, 177, 488, 304
-0.980911, 81, 225, 112, 288
-0.980924, 65, 241, 128, 368
-0.980984, 361, 241, 424, 304
-0.98099, 361, 201, 392, 264
-0.981083, 289, 177, 320, 240
-0.981118, 213, 177, 244, 304
-0.981129, 77, 177, 108, 304
-0.981142, 17, 193, 80, 256
-0.98118, 105, 161, 136, 224
-0.981186, 301, 185, 332, 248
-0.98122, 41, 81, 104, 208
-0.981279, 145, 1, 272, 128
-0.981438, 193, 49, 256, 176
-0.981499, 181, 177, 212, 304
-0.981513, 345, 193, 376, 320
-0.981536, 81, 233, 208, 296
-0.981553, 177, 161, 208, 224
-0.981554, 97, 233, 128, 296
-0.981582, 289, 153, 352, 216
-0.981594, 73, 49, 136, 176
-0.981664, 417, 137, 480, 200
-0.981781, 1, 49, 64, 112
-0.981798, 273, 201, 400, 264
-0.98183, 181, 113, 212, 240
-0.981838, 237, 113, 268, 240
-0.981872, 129, 33, 192, 288
-0.982022, 241, 153, 272, 216
-0.982023, 89, 257, 152, 320
-0.982126, 65, 1, 128, 128
-0.982131, 53, 217, 84, 280
-0.982156, 345, 113, 408, 176
-0.982182, 149, 177, 180, 304
-0.982227, 169, 113, 200, 240
-0.98223, 385, 145, 448, 208
-0.98233, 229, 169, 260, 232
-0.982336, 89, 129, 120, 256
-0.982348, 241, 137, 368, 200
-0.982389, 105, 1, 168, 256
-0.982412, 377, 1, 440, 64
-0.982523, 33, 265, 96, 328
-0.982568, 49, 129, 112, 192
-0.982623, 105, 113, 136, 240
-0.982656, 1, 233, 64, 296
-0.982684, 1, 137, 64, 200
-0.982843, 289, 161, 320, 288
-0.982864, 149, 81, 180, 208
-0.982865, 169, 65, 232, 192
-0.982873, 149, 177, 180, 240
-0.982875, 201, 177, 232, 304
-0.982945, 113, 137, 240, 200
-0.982955, 225, 129, 256, 256
-0.982962, 313, 305, 376, 368
-0.982994, 345, 113, 376, 240
-0.983105, 9, 225, 72, 352
-0.983141, 273, 81, 336, 144
-0.983174, 389, 113, 420, 240
-0.983287, 117, 209, 148, 336
-0.983428, 417, 129, 448, 256
-0.983433, 269, 177, 300, 304
-0.98346, 73, 129, 104, 256
-0.983492, 313, 113, 344, 240
-0.983583, 17, 137, 144, 200
-0.983618, 353, 145, 480, 208
-0.983652, 385, 217, 448, 280
-0.983658, 129, 137, 160, 200
-0.98371, 461, 81, 492, 208
-0.98373, 393, 25, 456, 88
-0.983732, 189, 225, 220, 288
-0.983732, 401, 113, 432, 240
-0.983748, 209, 289, 272, 352
-0.983819, 329, 89, 392, 152
-0.983824, 337, 113, 464, 176
-0.983837, 345, 209, 376, 272
-0.983864, 257, 17, 384, 144
-0.983866, 237, 225, 268, 288
-0.983893, 321, 97, 384, 352
-0.984001, 169, 249, 232, 312
-0.984008, 417, 297, 480, 360
-0.984041, 25, 89, 88, 152
-0.984065, 325, 161, 356, 288
-0.984067, 469, 129, 500, 256
-0.984074, 321, 209, 448, 272
-0.984076, 313, 1, 376, 128
-0.98411, 157, 129, 188, 256
-0.984141, 1, 257, 64, 320
-0.984155, 209, 233, 336, 296
-0.984198, 469, 177, 500, 240
-0.984236, 333, 113, 364, 240
-0.984329, 145, 265, 208, 328
-0.984339, 421, 177, 452, 240
-0.984351, 425, 225, 488, 288
-0.984383, 289, 113, 320, 240
-0.984419, 1, 105, 64, 168
-0.984433, 101, 209, 132, 336
-0.984458, 137, 1, 200, 128
-0.984506, 281, 153, 312, 216
-0.984523, 169, 313, 232, 375
-0.984563, 449, 129, 480, 256
-0.984607, 109, 137, 140, 200
-0.984659, 177, 121, 240, 184
-0.984666, 25, 65, 88, 128
-0.98467, 297, 209, 328, 272
-0.984738, 365, 145, 396, 208
-0.984746, 205, 113, 236, 240
-0.984808, 105, 1, 168, 64
-0.984811, 365, 161, 396, 288
-0.984895, 33, 1, 96, 256
-0.984908, 265, 233, 328, 296
-0.985005, 213, 169, 244, 232
-0.985051, 257, 97, 288, 224
-0.985084, 313, 169, 344, 232
-0.985214, 165, 153, 196, 216
-0.985244, 81, 113, 144, 176
-0.985272, 393, 249, 456, 312
-0.985312, 137, 289, 200, 352
-0.985358, 397, 161, 428, 288
-0.985416, 129, 233, 160, 296
-0.985426, 393, 281, 456, 344
-0.985441, 161, 121, 288, 184
-0.985475, 177, 305, 304, 368
-0.985554, 313, 249, 376, 312
-0.985573, 1, 33, 64, 160
-0.985597, 385, 89, 448, 152
-0.985608, 53, 145, 84, 272
-0.985646, 149, 225, 180, 288
-0.985681, 257, 121, 288, 184
-0.985735, 269, 129, 300, 192
-0.985781, 345, 153, 376, 216
-0.9858, 185, 1, 248, 375
-0.985845, 137, 81, 168, 208
-0.985875, 25, 289, 88, 352
-0.985961, 249, 281, 312, 344
-0.985983, 209, 313, 272, 375
-0.985984, 409, 169, 440, 232
-0.985999, 1, 97, 128, 160
-0.986014, 153, 153, 184, 216
-0.986141, 393, 1, 456, 256
-0.986184, 253, 145, 284, 208
-0.986188, 433, 65, 496, 320
-0.986234, 373, 113, 404, 240
-0.986234, 33, 97, 96, 352
-0.986243, 41, 241, 104, 368
-0.986255, 257, 305, 320, 368
-0.986268, 145, 89, 272, 152
-0.986303, 361, 1, 424, 256
-0.986306, 289, 129, 352, 375
-0.986333, 409, 113, 472, 176
-0.98635, 245, 225, 276, 352
-0.986374, 33, 273, 160, 336
-0.986377, 89, 161, 120, 224
-0.98641, 289, 113, 416, 176
-0.986412, 377, 169, 408, 232
-0.986513, 177, 1, 240, 128
-0.986542, 57, 1, 120, 256
-0.986558, 289, 121, 320, 184
-0.986649, 321, 313, 448, 375
-0.986676, 57, 105, 120, 168
-0.986785, 81, 257, 208, 320
-0.986786, 9, 33, 72, 288
-0.986826, 65, 81, 96, 208
-0.986863, 77, 177, 108, 240
-0.98692, 385, 161, 416, 288
-0.986926, 177, 273, 240, 336
-0.98696, 141, 97, 172, 160
-0.986964, 177, 241, 208, 304
-0.986969, 337, 297, 400, 360
-0.987058, 369, 81, 496, 144
-0.987115, 233, 313, 296, 375
-0.987123, 433, 81, 464, 208
-0.987141, 225, 281, 352, 344
-0.987156, 397, 169, 428, 232
-0.987201, 113, 289, 240, 352
-0.987207, 297, 49, 360, 112
-0.987226, 217, 257, 280, 320
-0.987246, 353, 233, 480, 296
-0.987285, 49, 97, 176, 160
-0.987344, 201, 153, 232, 216
-0.987347, 237, 129, 268, 192
-0.987375, 145, 249, 272, 312
-0.987413, 325, 161, 356, 224
-0.987428, 257, 305, 384, 368
-0.987436, 249, 257, 312, 320
-0.987467, 261, 217, 292, 280
-0.987495, 61, 209, 92, 336
-0.987499, 217, 225, 248, 352
-0.98751, 437, 129, 468, 256
-0.98755, 449, 81, 480, 208
-0.987589, 97, 1, 224, 64
-0.987645, 53, 193, 84, 256
-0.987718, 289, 249, 352, 312
-0.987776, 65, 201, 96, 264
-0.987779, 333, 209, 364, 336
-0.987782, 289, 281, 352, 344
-0.987812, 305, 289, 432, 352
-0.987884, 333, 137, 364, 200
-0.9879, 361, 273, 424, 336
-0.987915, 377, 193, 440, 256
-0.98795, 161, 1, 224, 64
-0.987977, 321, 201, 352, 264
-0.988006, 225, 1, 288, 128
-0.988018, 305, 161, 336, 288
-0.988025, 65, 73, 192, 136
-0.988035, 73, 229, 136, 260
-0.988051, 49, 297, 176, 360
-0.988089, 409, 1, 472, 64
-0.988108, 193, 113, 224, 240
-0.988114, 57, 297, 120, 360
-0.988131, 321, 1, 448, 64
-0.988178, 209, 89, 272, 152
-0.98818, 201, 225, 232, 288
-0.988196, 321, 241, 352, 368
-0.9882, 1, 297, 64, 360
-0.988262, 305, 145, 336, 208
-0.988271, 337, 233, 400, 296
-0.988298, 361, 113, 392, 240
-0.98831, 129, 241, 192, 368
-0.988357, 1, 73, 64, 136
-0.988357, 425, 265, 488, 328
-0.988391, 113, 229, 176, 260
-0.988432, 9, 129, 72, 375
-0.98845, 273, 225, 400, 288
-0.988462, 389, 1, 420, 64
-0.988518, 1, 9, 64, 72
-0.988552, 145, 229, 208, 260
-0.988574, 301, 65, 332, 192
-0.988598, 73, 225, 104, 352
-0.988601, 73, 213, 136, 244
-0.988606, 333, 33, 364, 160
-0.98866, 113, 297, 176, 360
-0.988672, 65, 129, 192, 192
-0.988692, 65, 97, 96, 160
-0.988698, 209, 41, 336, 104
-0.988711, 129, 197, 192, 228
-0.988735, 209, 33, 272, 96
-0.988749, 185, 213, 248, 244
-0.988753, 145, 49, 272, 112
-0.988793, 185, 225, 248, 256
-0.988801, 113, 185, 176, 216
-0.98882, 305, 249, 432, 312
-0.988836, 305, 89, 368, 152
-0.988896, 145, 185, 208, 216
-0.988924, 209, 113, 336, 176
-0.988949, 289, 81, 416, 144
-0.98896, 461, 113, 492, 176
-0.988966, 209, 225, 272, 256
-0.988989, 289, 17, 352, 144
-0.989037, 357, 209, 388, 336
-0.989063, 217, 213, 280, 244
-0.989078, 249, 193, 312, 224
-0.989103, 97, 201, 352, 264
-0.989109, 97, 105, 224, 168
-0.989154, 113, 209, 176, 240
-0.989183, 285, 217, 316, 280
-0.989191, 329, 1, 392, 256
-0.989197, 65, 49, 192, 112
-0.989216, 37, 225, 68, 288
-0.98922, 129, 173, 192, 204
-0.989249, 153, 225, 184, 352
-0.98925, 117, 241, 148, 304
-0.989277, 201, 197, 264, 228
-0.989304, 421, 81, 452, 208
-0.989324, 49, 217, 112, 248
-0.989363, 97, 161, 352, 224
-0.989366, 153, 197, 216, 228
-0.989366, 177, 197, 240, 228
-0.989403, 145, 217, 208, 248
-0.989416, 225, 1, 288, 256
-0.989422, 137, 209, 168, 336
-0.989496, 165, 241, 196, 304
-0.989536, 169, 169, 232, 200
-0.989542, 389, 145, 420, 208
-0.989561, 89, 169, 152, 200
-0.98957, 305, 1, 368, 375
-0.989578, 97, 241, 160, 272
-0.989583, 65, 177, 96, 240
-0.989589, 209, 1, 272, 375
-0.989607, 189, 145, 220, 208
-0.989615, 233, 177, 296, 208
-0.989618, 249, 233, 280, 296
-0.989662, 89, 189, 152, 220
-0.989667, 121, 49, 184, 176
-0.989668, 249, 209, 312, 240
-0.989675, 257, 173, 320, 204
-0.989698, 205, 225, 236, 352
-0.989699, 457, 177, 488, 240
-0.989702, 209, 257, 336, 320
-0.989712, 113, 313, 240, 375
-0.989714, 257, 249, 384, 312
-0.989752, 57, 177, 120, 208
-0.989753, 225, 197, 288, 228
-0.989754, 49, 229, 112, 260
-0.989755, 1, 33, 128, 96
-0.989766, 81, 81, 112, 208
-0.989807, 233, 225, 264, 352
-0.989821, 297, 169, 360, 200
-0.989825, 153, 89, 184, 152
-0.989843, 49, 1, 112, 375
-0.989844, 377, 145, 408, 208
-0.989861, 161, 273, 288, 336
-0.989863, 265, 157, 328, 188
-0.989886, 233, 225, 296, 256
-0.989898, 193, 161, 448, 224
-0.989922, 377, 173, 440, 204
-0.989942, 41, 137, 72, 200
-0.98997, 49, 1, 176, 64
-0.98997, 457, 89, 488, 152
-0.989988, 169, 237, 232, 268
-0.99, 81, 201, 144, 232
-0.990005, 369, 305, 496, 368
-0.990026, 97, 137, 128, 200
-0.99003, 273, 185, 336, 216
-0.990035, 153, 1, 216, 256
-0.990052, 121, 241, 184, 272
-0.99009, 169, 181, 232, 212
-0.990101, 161, 65, 192, 192
-0.990164, 217, 161, 280, 192
-0.99023, 1, 65, 128, 128
-0.99024, 33, 249, 160, 312
-0.990252, 237, 249, 268, 312
-0.990288, 9, 49, 40, 176
-0.990301, 149, 129, 180, 192
-0.990319, 81, 1, 144, 375
-0.990329, 365, 225, 396, 288
-0.990341, 345, 65, 376, 192
-0.990375, 5, 105, 36, 168
-0.99039, 161, 1, 224, 375
-0.990396, 369, 1, 400, 64
-0.990409, 165, 225, 196, 352
-0.990497, 445, 81, 476, 144
-0.990504, 353, 169, 416, 200
-0.99051, 181, 225, 212, 352
-0.99052, 321, 173, 384, 204
-0.990549, 321, 209, 384, 240
-0.990559, 73, 241, 136, 272
-0.990568, 25, 33, 56, 160
-0.990579, 361, 185, 424, 216
-0.990641, 129, 1, 192, 375
-0.990641, 193, 193, 448, 256
-0.990666, 389, 1, 420, 128
-0.990681, 273, 217, 304, 280
-0.990693, 313, 113, 344, 176
-0.990704, 209, 81, 336, 144
-0.990708, 317, 65, 348, 192
-0.990714, 329, 297, 360, 360
-0.990719, 129, 161, 192, 192
-0.990727, 345, 121, 376, 184
-0.990729, 289, 57, 416, 120
-0.99073, 273, 205, 336, 236
-0.990736, 201, 1, 264, 128
-0.99075, 193, 169, 256, 200
-0.990791, 241, 161, 304, 192
-0.990793, 37, 169, 68, 232
-0.990795, 81, 257, 112, 320
-0.990832, 177, 137, 208, 200
-0.990837, 401, 173, 464, 204
-0.990842, 33, 93, 96, 124
-0.990843, 177, 1, 240, 256
-0.990867, 193, 237, 256, 268
-0.99087, 49, 273, 80, 336
-0.990873, 209, 185, 272, 216
-0.990873, 129, 33, 160, 160
-0.990876, 369, 41, 496, 104
-0.990878, 1, 1, 128, 64
-0.990905, 353, 265, 480, 328
-0.990909, 437, 137, 468, 200
-0.990912, 377, 125, 440, 156
-0.990914, 145, 241, 208, 272
-0.990918, 433, 225, 496, 352
-0.99092, 409, 121, 472, 152
-0.990954, 373, 193, 404, 256
-0.990965, 241, 1, 304, 375
-0.99098, 185, 157, 248, 188
-0.991043, 321, 161, 384, 192
-0.991074, 289, 157, 352, 188
-0.991087, 1, 313, 128, 375
-0.991102, 345, 1, 376, 128
-0.991116, 437, 105, 468, 168
-0.991117, 37, 209, 68, 336
-0.991135, 405, 305, 436, 368
-0.991152, 289, 33, 352, 288
-0.991181, 25, 161, 56, 224
-0.991193, 161, 157, 224, 188
-0.991217, 1, 193, 500, 256
-0.991271, 201, 1, 264, 256
-0.991305, 305, 209, 336, 336
-0.991326, 257, 145, 320, 176
-0.99133, 257, 221, 320, 252
-0.991353, 297, 205, 360, 236
-0.991382, 77, 97, 108, 160
-0.991387, 1, 81, 32, 144
-0.991401, 421, 1, 452, 128
-0.991437, 53, 137, 84, 200
-0.991438, 361, 157, 424, 188
-0.991473, 225, 249, 256, 312
-0.991537, 209, 17, 336, 80
-0.99154, 57, 165, 120, 196
-0.991555, 289, 65, 320, 192
-0.991559, 289, 309, 352, 340
-0.991574, 281, 1, 344, 375
-0.991581, 301, 281, 332, 344
-0.991585, 25, 137, 56, 200
-0.991592, 97, 225, 352, 288
-0.991608, 49, 201, 112, 232
-0.991609, 153, 249, 184, 312
-0.991617, 53, 161, 84, 224
-0.991619, 85, 225, 116, 352
-0.99162, 465, 137, 496, 200
-0.991643, 441, 177, 472, 240
-0.991645, 409, 185, 472, 216
-0.991646, 293, 153, 324, 216
-0.991673, 413, 177, 444, 304
-0.991682, 325, 105, 356, 168
-0.991691, 25, 221, 88, 252
-0.991702, 49, 241, 112, 272
-0.99171, 273, 9, 400, 72
-0.991729, 313, 309, 376, 340
-0.991731, 409, 309, 472, 340
-0.991747, 65, 189, 128, 220
-0.99175, 217, 237, 280, 268
-0.991765, 281, 229, 344, 260
-0.991778, 113, 25, 240, 88
-0.991784, 401, 133, 464, 164
-0.991789, 345, 321, 408, 352
-0.991793, 281, 217, 344, 248
-0.991796, 313, 221, 376, 252
-0.991817, 73, 277, 136, 308
-0.991842, 353, 197, 416, 228
-0.991846, 61, 73, 92, 136
-0.991846, 321, 109, 384, 140
-0.991849, 89, 141, 152, 172
-0.991863, 345, 1, 408, 375
-0.991864, 433, 125, 496, 156
-0.991888, 73, 253, 136, 284
-0.991889, 213, 241, 244, 304
-0.991903, 369, 201, 496, 264
-0.991905, 25, 233, 88, 264
-0.991913, 353, 309, 416, 340
-0.991915, 65, 33, 96, 160
-0.991929, 113, 325, 176, 356
-0.991945, 433, 181, 496, 212
-0.991952, 25, 1, 88, 375
-0.99199, 297, 193, 360, 224
-0.991998, 145, 93, 208, 124
-0.991998, 105, 153, 168, 184
-0.992002, 25, 201, 88, 232
-0.992016, 81, 157, 144, 188
-0.992024, 425, 89, 488, 120
-0.992026, 257, 233, 320, 264
-0.992028, 401, 321, 464, 352
-0.992037, 297, 113, 360, 144
-0.992039, 313, 149, 376, 180
-0.992041, 1, 209, 256, 272
-0.992061, 141, 1, 172, 128
-0.992065, 81, 289, 144, 320
-0.992065, 101, 225, 132, 256
-0.992066, 145, 1, 272, 64
-0.992067, 97, 189, 128, 220
-0.992093, 185, 297, 248, 328
-0.992103, 137, 77, 200, 108
-0.992112, 97, 253, 160, 284
-0.992121, 273, 33, 400, 96
-0.992124, 345, 209, 408, 240
-0.992128, 425, 321, 488, 352
-0.992133, 209, 149, 272, 180
-0.992145, 249, 305, 312, 336
-0.992145, 249, 321, 312, 352
-0.992153, 73, 325, 136, 356
-0.992155, 233, 129, 296, 160
-0.992167, 321, 197, 384, 228
-0.992173, 113, 213, 240, 244
-0.992178, 409, 109, 472, 140
-0.992187, 105, 1, 168, 375
-0.992187, 105, 289, 168, 320
-0.992188, 177, 229, 208, 260
-0.992191, 137, 229, 168, 260
-0.992191, 273, 189, 304, 220
-0.992191, 277, 65, 308, 192
-0.992192, 17, 325, 80, 356
-0.992194, 225, 301, 288, 332
-0.992195, 65, 137, 128, 168
-0.992197, 17, 77, 80, 108
-0.992203, 33, 285, 96, 316
-0.992203, 49, 81, 112, 112
-0.992211, 169, 249, 232, 280
-0.992212, 217, 213, 248, 244
-0.99222, 77, 225, 108, 256
-0.992228, 281, 129, 344, 160
-0.992237, 117, 229, 148, 260
-0.992246, 353, 121, 416, 152
-0.992248, 237, 225, 268, 256
-0.992249, 173, 217, 204, 248
-0.992256, 213, 225, 244, 256
-0.99226, 197, 225, 228, 256
-0.992276, 153, 197, 184, 228
-0.992283, 361, 237, 424, 268
-0.992285, 149, 229, 180, 260
-0.992285, 9, 53, 72, 84
-0.992288, 433, 305, 496, 336
-0.992289, 9, 141, 72, 172
-0.992297, 117, 217, 148, 248
-0.992299, 73, 93, 136, 124
-0.992307, 165, 229, 196, 260
-0.99232, 265, 337, 328, 368
-0.992329, 129, 137, 192, 168
-0.992333, 97, 1, 160, 32
-0.992334, 385, 185, 448, 216
-0.992338, 289, 181, 320, 212
-0.992355, 65, 137, 320, 200
-0.992368, 49, 229, 176, 260
-0.992381, 57, 225, 88, 256
-0.99239, 97, 213, 128, 244
-0.992391, 89, 229, 120, 260
-0.992394, 181, 197, 212, 228
-0.992397, 141, 197, 172, 228
-0.992398, 197, 213, 228, 244
-0.992399, 121, 185, 152, 216
-0.992426, 225, 225, 256, 256
-0.992464, 157, 177, 188, 208
-0.992466, 173, 185, 204, 216
-0.992472, 273, 201, 304, 232
-0.992478, 97, 177, 128, 208
-0.992482, 345, 241, 376, 368
-0.9925, 249, 209, 280, 240
-0.992505, 297, 169, 328, 200
-0.992515, 405, 173, 436, 204
-0.992535, 233, 193, 264, 224
-0.992542, 261, 169, 292, 200
-0.992544, 177, 229, 304, 260
-0.992551, 77, 213, 108, 244
-0.992552, 177, 169, 208, 200
-0.992555, 65, 213, 96, 244
-0.992557, 193, 197, 224, 228
-0.992563, 113, 169, 144, 200
-0.992563, 1, 185, 256, 248
-0.992569, 405, 65, 436, 192
-0.992571, 185, 217, 216, 248
-0.992608, 117, 201, 148, 232
-0.99262, 297, 157, 328, 188
-0.992621, 49, 193, 80, 320
-0.992631, 189, 177, 220, 208
-0.992631, 197, 237, 228, 268
-0.992632, 249, 177, 280, 208
-0.992634, 133, 185, 164, 216
-0.992645, 193, 225, 224, 352
-0.992645, 81, 177, 112, 208
-0.992648, 169, 197, 200, 228
-0.992653, 229, 209, 260, 240
-0.992658, 257, 193, 288, 224
-0.992669, 137, 209, 168, 240
-0.992669, 245, 157, 276, 188
-0.992676, 161, 217, 192, 248
-0.992688, 97, 201, 128, 232
-0.992693, 141, 173, 172, 204
-0.992696, 117, 241, 148, 272
-0.992704, 41, 49, 72, 176
-0.992707, 249, 229, 280, 260
-0.992723, 205, 197, 236, 228
-0.992725, 129, 197, 160, 228
-0.992728, 249, 17, 312, 144
-0.992737, 109, 185, 140, 216
-0.992745, 133, 241, 164, 272
-0.992747, 297, 209, 328, 240
-0.992754, 345, 161, 376, 192
-0.992761, 161, 197, 288, 228
-0.992764, 245, 65, 276, 192
-0.992766, 277, 177, 308, 208
-0.992772, 53, 89, 84, 120
-0.99278, 149, 241, 180, 272
-0.992782, 261, 205, 292, 236
-0.9928, 277, 161, 308, 192
-0.992812, 345, 213, 376, 244
-0.992823, 153, 165, 184, 196
-0.992825, 257, 157, 288, 188
-0.992827, 81, 241, 112, 272
-0.99283, 309, 173, 340, 204
-0.99283, 369, 1, 432, 375
-0.992831, 1, 161, 500, 224
-0.992848, 385, 225, 416, 352
-0.992853, 261, 217, 292, 248
-0.992855, 101, 241, 132, 272
-0.992866, 385, 181, 416, 212
-0.992868, 201, 181, 232, 212
-0.992871, 129, 173, 160, 204
-0.992882, 225, 65, 256, 192
-0.992886, 65, 25, 192, 88
-0.992888, 225, 177, 256, 208
-0.992892, 265, 49, 296, 176
-0.992895, 361, 169, 392, 200
-0.992898, 77, 201, 108, 232
-0.9929, 149, 209, 180, 240
-0.992903, 145, 185, 176, 216
-0.992922, 201, 169, 232, 200
-0.99293, 293, 193, 324, 224
-0.992935, 81, 197, 208, 228
-0.992944, 401, 209, 432, 336
-0.992948, 29, 161, 60, 288
-0.99295, 285, 149, 316, 180
-0.992957, 361, 209, 392, 240
-0.992961, 425, 1, 488, 375
-0.992961, 373, 181, 404, 212
-0.992962, 125, 161, 156, 192
-0.992966, 221, 193, 252, 224
-0.992973, 69, 173, 100, 204
-0.992974, 237, 169, 268, 200
-0.992979, 409, 125, 440, 156
-0.992993, 197, 157, 228, 188
-0.993001, 325, 209, 356, 240
-0.993009, 421, 181, 452, 212
-0.993017, 309, 153, 340, 184
-0.993033, 185, 241, 216, 272
-0.993034, 285, 213, 316, 244
-0.993041, 245, 193, 276, 224
-0.993044, 321, 25, 448, 88
-0.993048, 65, 93, 96, 124
-0.993049, 161, 241, 192, 272
-0.993051, 69, 237, 100, 268
-0.993057, 317, 221, 348, 252
-0.993072, 305, 197, 336, 228
-0.993072, 369, 1, 496, 64
-0.993074, 225, 137, 480, 200
-0.993074, 377, 1, 408, 128
-0.993078, 213, 169, 244, 200
-0.993078, 165, 165, 196, 196
-0.99308, 397, 125, 428, 156
-0.99309, 349, 177, 380, 208
-0.993094, 157, 89, 188, 120
-0.993095, 313, 209, 344, 240
-0.993105, 69, 105, 100, 136
-0.993112, 305, 233, 336, 264
-0.993113, 113, 157, 144, 188
-0.993113, 421, 121, 452, 152
-0.99312, 113, 181, 240, 212
-0.993122, 325, 165, 356, 196
-0.993123, 209, 237, 240, 268
-0.993124, 141, 161, 172, 192
-0.993125, 89, 165, 120, 196
-0.993128, 173, 241, 204, 272
-0.99313, 293, 225, 324, 256
-0.993135, 273, 149, 304, 180
-0.993139, 457, 121, 488, 152
-0.993148, 357, 197, 388, 228
-0.99315, 45, 225, 76, 256
-0.993161, 317, 117, 348, 148
-0.99317, 85, 189, 116, 220
-0.993173, 361, 181, 392, 212
-0.993174, 213, 181, 244, 212
-0.993183, 213, 157, 244, 188
-0.993235, 189, 65, 220, 192
-0.993318, 161, 217, 288, 248
-0.993381, 113, 229, 240, 260
-0.993408, 257, 165, 384, 196
-0.99348, 97, 165, 224, 196
-0.993506, 49, 217, 176, 248
-0.993544, 101, 65, 132, 192
-0.993546, 445, 33, 476, 160
-0.993555, 81, 1, 144, 256
-0.993563, 433, 241, 464, 368
-0.993566, 85, 17, 116, 144
-0.993575, 145, 169, 272, 200
-0.993644, 209, 205, 336, 236
-0.993721, 389, 49, 420, 176
-0.993784, 121, 193, 136, 256
-0.993788, 195, 201, 210, 264
-0.993795, 161, 25, 288, 88
-0.993854, 409, 1, 440, 128
-0.993869, 1, 241, 32, 368
-0.993883, 109, 177, 124, 240
-0.993891, 203, 201, 218, 264
-0.993892, 373, 65, 404, 192
-0.993926, 247, 193, 262, 256
-0.993936, 93, 201, 108, 264
-0.993982, 393, 1, 456, 375
-0.994038, 153, 1, 184, 128
-0.994054, 121, 169, 136, 232
-0.994058, 193, 113, 448, 176
-0.994062, 193, 217, 448, 280
-0.994076, 205, 65, 236, 192
-0.994095, 119, 217, 134, 280
-0.994119, 1, 217, 500, 280
-0.994126, 429, 177, 460, 304
-0.994148, 113, 241, 240, 272
-0.994152, 129, 153, 144, 216
-0.994171, 189, 185, 204, 248
-0.994234, 29, 81, 60, 208
-0.994321, 135, 201, 150, 264
-0.994325, 1, 161, 256, 224
-0.994399, 199, 177, 214, 240
-0.994411, 17, 181, 144, 212
-0.994459, 255, 201, 270, 264
-0.994476, 103, 177, 118, 240
-0.994485, 209, 193, 336, 224
-0.994501, 209, 185, 224, 248
-0.994504, 263, 161, 278, 224
-0.994506, 115, 193, 130, 256
-0.994527, 125, 217, 140, 280
-0.994529, 229, 201, 244, 264
-0.994602, 361, 1, 392, 128
-0.994607, 273, 177, 400, 208
-0.994674, 161, 157, 288, 188
-0.994675, 141, 201, 156, 264
-0.994683, 17, 97, 48, 224
-0.9947, 275, 185, 290, 248
-0.994716, 209, 177, 336, 208
-0.994721, 131, 177, 146, 240
-0.994726, 457, 33, 488, 160
-0.99476, 1, 241, 256, 304
-0.994763, 183, 185, 198, 248
-0.994788, 49, 165, 176, 196
-0.994821, 155, 201, 170, 264
-0.994839, 177, 49, 208, 176
-0.994846, 209, 157, 336, 188
-0.994903, 53, 81, 84, 208
-0.99491, 257, 241, 288, 368
-0.994975, 213, 209, 228, 272
-0.994984, 273, 193, 400, 224
-0.995017, 257, 169, 272, 232
-0.995061, 1, 233, 128, 264
-0.995063, 287, 185, 302, 248
-0.995067, 295, 161, 310, 224
-0.99508, 65, 241, 192, 272
-0.995081, 1, 213, 128, 244
-0.995092, 357, 177, 372, 240
-0.995093, 369, 209, 400, 336
-0.995122, 281, 185, 296, 248
-0.995125, 257, 305, 500, 368
-0.995127, 141, 177, 156, 240
-0.995136, 83, 193, 98, 256
-0.995157, 187, 217, 202, 280
-0.995166, 241, 201, 256, 264
-0.995175, 229, 225, 244, 288
-0.995175, 65, 185, 192, 216
-0.99519, 221, 185, 236, 248
-0.995209, 209, 217, 336, 248
-0.995211, 353, 181, 480, 212
-0.995214, 75, 225, 90, 288
-0.995236, 1, 137, 500, 200
-0.99526, 33, 197, 160, 228
-0.995271, 357, 65, 388, 192
-0.995287, 337, 169, 464, 200
-0.995298, 161, 305, 416, 368
-0.995317, 131, 225, 146, 288
-0.995336, 235, 209, 250, 272
-0.995346, 193, 161, 208, 224
-0.995353, 99, 209, 114, 272
-0.995362, 181, 217, 196, 280
-0.995369, 367, 185, 382, 248
-0.995369, 285, 209, 316, 336
-0.995375, 221, 217, 236, 280
-0.995384, 413, 225, 444, 352
-0.995413, 149, 201, 164, 264
-0.995427, 225, 273, 480, 336
-0.995434, 257, 205, 384, 236
-0.995468, 257, 153, 384, 184
-0.995474, 161, 185, 288, 216
-0.995474, 163, 201, 178, 264
-0.995518, 241, 225, 256, 288
-0.99553, 237, 1, 268, 128
-0.995539, 247, 225, 262, 288
-0.99554, 147, 169, 162, 232
-0.995548, 257, 225, 272, 288
-0.995551, 363, 161, 378, 224
-0.995555, 269, 193, 284, 256
-0.995559, 225, 229, 352, 260
-0.995573, 257, 217, 384, 248
-0.995619, 159, 169, 174, 232
-0.995656, 105, 1, 136, 128
-0.995659, 111, 217, 126, 280
-0.995685, 129, 249, 384, 312
-0.995686, 269, 169, 284, 232
-0.995748, 93, 225, 108, 288
-0.995762, 275, 161, 290, 224
-0.995764, 53, 33, 84, 160
-0.995779, 83, 225, 98, 288
-0.995784, 217, 1, 248, 128
-0.995793, 139, 225, 154, 288
-0.995824, 175, 209, 190, 272
-0.995838, 105, 217, 120, 280
-0.995859, 113, 145, 128, 208
-0.995863, 257, 309, 384, 340
-0.995911, 153, 177, 168, 240
-0.995913, 251, 153, 266, 216
-0.995916, 227, 177, 242, 240
-0.995929, 77, 201, 92, 264
-0.99593, 69, 217, 84, 280
-0.995931, 1, 97, 500, 160
-0.995949, 153, 97, 168, 160
-0.995964, 357, 209, 372, 272
-0.995973, 215, 177, 230, 240
-0.996006, 293, 201, 308, 264
-0.99602, 275, 209, 290, 272
-0.996021, 289, 161, 304, 224
-0.996051, 173, 177, 188, 240
-0.996059, 379, 185, 394, 248
-0.996066, 1, 1, 64, 375
-0.996067, 119, 145, 134, 208
-0.996082, 263, 129, 278, 192
-0.996089, 283, 153, 298, 216
-0.996094, 1, 289, 256, 352
-0.996106, 185, 161, 200, 224
-0.996108, 141, 153, 156, 216
-0.996117, 303, 185, 318, 248
-0.996132, 169, 201, 184, 264
-0.996155, 305, 317, 432, 348
-0.996175, 135, 153, 150, 216
-0.996207, 199, 153, 214, 216
-0.99624, 165, 177, 180, 240
-0.996242, 125, 129, 140, 192
-0.996244, 299, 209, 314, 272
-0.996245, 305, 157, 432, 188
-0.996252, 243, 169, 258, 232
-0.996283, 357, 137, 372, 200
-0.996296, 115, 169, 130, 232
-0.996313, 369, 161, 384, 224
-0.99633, 295, 121, 310, 184
-0.99636, 203, 225, 218, 288
-0.996367, 481, 177, 496, 240
-0.99638, 373, 185, 388, 248
-0.996408, 205, 161, 220, 224
-0.99641, 325, 105, 340, 168
-0.99643, 257, 145, 272, 208
-0.996433, 335, 137, 350, 200
-0.996438, 419, 169, 434, 232
-0.996455, 263, 209, 278, 272
-0.996478, 99, 233, 114, 296
-0.996496, 235, 233, 250, 296
-0.996511, 327, 145, 342, 208
-0.996518, 1, 265, 256, 328
-0.99652, 345, 201, 360, 264
-0.996533, 327, 169, 342, 232
-0.996587, 1, 1, 256, 64
-0.996593, 169, 225, 184, 288
-0.996602, 51, 225, 66, 288
-0.996609, 225, 1, 480, 64
-0.996609, 219, 153, 234, 216
-0.996616, 273, 121, 288, 184
-0.996621, 305, 209, 432, 240
-0.996625, 281, 209, 296, 272
-0.996637, 301, 153, 316, 216
-0.996641, 269, 145, 284, 208
-0.996642, 149, 225, 164, 288
-0.996646, 429, 177, 444, 240
-0.996655, 257, 121, 272, 184
-0.996679, 177, 241, 192, 304
-0.996686, 97, 281, 352, 344
-0.996693, 319, 169, 334, 232
-0.996725, 163, 225, 178, 288
-0.996738, 349, 137, 364, 200
-0.996743, 197, 225, 212, 288
-0.996746, 113, 153, 240, 184
-0.996746, 155, 225, 170, 288
-0.996748, 233, 169, 248, 232
-0.996748, 351, 209, 366, 272
-0.996753, 177, 301, 304, 332
-0.996757, 161, 241, 288, 272
-0.996758, 71, 185, 86, 248
-0.996765, 225, 89, 480, 152
-0.996765, 1, 1, 500, 64
-0.996774, 287, 121, 302, 184
-0.996797, 1, 169, 128, 200
-0.9968, 213, 153, 228, 216
-0.996803, 93, 169, 108, 232
-0.996813, 481, 105, 496, 168
-0.996818, 225, 241, 480, 304
-0.996822, 399, 177, 414, 240
-0.996825, 97, 1, 352, 64
-0.996849, 119, 229, 134, 260
-0.996864, 97, 97, 128, 352
-0.996873, 289, 141, 416, 172
-0.996878, 129, 297, 256, 328
-0.996907, 179, 229, 194, 260
-0.996921, 145, 229, 160, 260
-0.996923, 353, 269, 480, 300
-0.996932, 189, 229, 204, 260
-0.99694, 353, 309, 480, 340
-0.996965, 131, 233, 146, 264
-0.996986, 257, 57, 500, 120
-0.996986, 17, 245, 144, 276
-0.996992, 353, 197, 480, 228
-0.996993, 393, 97, 424, 352
-0.997003, 49, 289, 176, 320
-0.997004, 353, 209, 480, 240
-0.997004, 113, 129, 144, 375
-0.997008, 65, 97, 320, 160
-0.997021, 33, 141, 160, 172
-0.997023, 209, 137, 336, 168
-0.997027, 225, 213, 240, 244
-0.997027, 369, 321, 496, 352
-0.997032, 1, 105, 128, 136
-0.997043, 1, 285, 128, 316
-0.997082, 275, 189, 290, 220
-0.997085, 273, 229, 400, 260
-0.997087, 79, 229, 94, 260
-0.99709, 195, 229, 210, 260
-0.9971, 151, 229, 166, 260
-0.997109, 125, 233, 140, 264
-0.99712, 203, 225, 218, 256
-0.997126, 215, 225, 230, 256
-0.997134, 1, 241, 500, 304
-0.997152, 121, 1, 152, 256
-0.997152, 33, 89, 160, 120
-0.997155, 281, 189, 296, 220
-0.99716, 139, 229, 154, 260
-0.997162, 95, 233, 110, 264
-0.997178, 321, 233, 448, 264
-0.997188, 219, 213, 234, 244
-0.997198, 181, 217, 196, 248
-0.997203, 1, 73, 500, 136
-0.997206, 225, 241, 352, 272
-0.997208, 103, 177, 118, 208
-0.99721, 321, 121, 448, 152
-0.997217, 133, 129, 164, 375
-0.997221, 121, 209, 136, 240
-0.997226, 95, 213, 110, 244
-0.997232, 209, 313, 336, 344
-0.997232, 227, 225, 242, 256
-0.997234, 373, 97, 404, 352
-0.997235, 243, 225, 258, 256
-0.997237, 305, 305, 432, 336
-0.997245, 221, 225, 236, 256
-0.99725, 209, 225, 224, 256
-0.997253, 155, 197, 170, 228
-0.997261, 175, 217, 190, 248
-0.997263, 77, 97, 108, 352
-0.99727, 369, 117, 496, 148
-0.997281, 121, 193, 136, 224
-0.997285, 85, 233, 100, 264
-0.997292, 233, 225, 248, 256
-0.997298, 301, 161, 316, 192
-0.997304, 261, 97, 292, 352
-0.997306, 81, 213, 96, 244
-0.997318, 289, 249, 416, 280
-0.997326, 257, 321, 384, 352
-0.997331, 251, 221, 266, 252
-0.997332, 111, 181, 126, 212
-0.997336, 249, 65, 280, 320
-0.997349, 299, 173, 314, 204
-0.997353, 171, 229, 186, 260
-0.997354, 273, 97, 304, 352
-0.997356, 369, 133, 496, 164
-0.997362, 187, 217, 202, 248
-0.997364, 157, 229, 172, 260
-0.997369, 17, 325, 144, 356
-0.997371, 1, 37, 128, 68
-0.997382, 211, 213, 226, 244
-0.997396, 337, 145, 464, 176
-0.9974, 69, 221, 84, 252
-0.99741, 287, 181, 302, 212
-0.99741, 103, 225, 118, 256
-0.997414, 129, 173, 144, 204
-0.997425, 101, 189, 116, 220
-0.997429, 311, 173, 326, 204
-0.99743, 181, 169, 196, 200
-0.997435, 145, 97, 176, 352
-0.997438, 203, 193, 218, 224
-0.997458, 17, 269, 144, 300
-0.997459, 189, 97, 220, 352
-0.997461, 263, 169, 278, 200
-0.997464, 137, 193, 152, 224
-0.997465, 65, 153, 192, 184
-0.997467, 231, 213, 246, 244
-0.997475, 129, 49, 384, 112
-0.997477, 97, 329, 224, 360
-0.997494, 165, 229, 180, 260
-0.997495, 97, 285, 224, 316
-0.997495, 241, 297, 368, 328
-0.997498, 113, 225, 128, 256
-0.997502, 89, 221, 104, 252
-0.997509, 57, 97, 88, 352
-0.997511, 1, 49, 256, 112
-0.997511, 161, 197, 176, 228
-0.997517, 357, 161, 372, 192
-0.997529, 117, 177, 132, 208
-0.997552, 193, 325, 320, 356
-0.997562, 205, 213, 220, 244
-0.997565, 415, 169, 430, 200
-0.997568, 257, 125, 384, 156
-0.997571, 307, 157, 322, 188
-0.997576, 193, 217, 208, 248
-0.997586, 261, 157, 276, 188
-0.997591, 125, 221, 140, 252
-0.997591, 97, 341, 224, 372
-0.997598, 75, 217, 90, 248
-0.997598, 305, 9, 432, 40
-0.997617, 269, 193, 284, 224
-0.997617, 353, 281, 480, 312
-0.997618, 397, 1, 428, 256
-0.997619, 255, 165, 270, 196
-0.997638, 151, 185, 166, 216
-0.997639, 305, 269, 432, 300
-0.997644, 233, 97, 264, 352
-0.997646, 197, 197, 212, 228
-0.997658, 145, 185, 160, 216
-0.997661, 257, 229, 272, 260
-0.997665, 131, 197, 146, 228
-0.997669, 191, 181, 206, 212
-0.99767, 199, 213, 214, 244
-0.997672, 249, 209, 264, 240
-0.997693, 273, 333, 400, 364
-0.997695, 369, 257, 496, 288
-0.997697, 149, 197, 164, 228
-0.9977, 269, 169, 284, 200
-0.997702, 209, 125, 336, 156
-0.997704, 237, 213, 252, 244
-0.997711, 187, 197, 202, 228
-0.997728, 177, 197, 192, 228
-0.997728, 353, 65, 480, 96
-0.997731, 1, 65, 128, 96
-0.997736, 259, 209, 274, 240
-0.997745, 169, 217, 184, 248
-0.997753, 177, 97, 208, 352
-0.997757, 129, 161, 144, 192
-0.99776, 175, 185, 190, 216
-0.997762, 113, 213, 128, 244
-0.997776, 225, 177, 240, 208
-0.997782, 221, 65, 252, 320
-0.997785, 291, 201, 306, 232
-0.997791, 409, 97, 440, 352
-0.997793, 119, 165, 134, 196
-0.997794, 63, 221, 78, 252
-0.997795, 149, 173, 164, 204
-0.997798, 357, 213, 372, 244
-0.997802, 277, 201, 292, 232
-0.997805, 365, 169, 380, 200
-0.997805, 195, 169, 210, 200
-0.997809, 209, 237, 224, 268
-0.997811, 33, 313, 288, 375
-0.997814, 141, 241, 156, 272
-0.997816, 249, 193, 264, 224
-0.997816, 307, 185, 322, 216
-0.997817, 1, 25, 256, 88
-0.997818, 159, 185, 174, 216
-0.997822, 117, 241, 132, 272
-0.997823, 131, 221, 146, 252
-0.997826, 369, 229, 496, 260
-0.997831, 93, 177, 108, 208
-0.997832, 101, 213, 116, 244
-0.997833, 113, 133, 240, 164
-0.997837, 293, 177, 308, 208
-0.997844, 285, 97, 316, 352
-0.997847, 203, 237, 218, 268
-0.997847, 101, 241, 116, 272
-0.99785, 291, 165, 306, 196
-0.997852, 369, 97, 496, 128
-0.997861, 243, 213, 258, 244
-0.997864, 145, 321, 272, 352
-0.997864, 97, 317, 224, 348
-0.997865, 305, 173, 320, 204
-0.997871, 17, 153, 144, 184
-0.997875, 441, 33, 472, 288
-0.997879, 127, 185, 142, 216
-0.997879, 353, 293, 480, 324
-0.99788, 73, 233, 88, 264
-0.99788, 113, 197, 128, 228
-0.997884, 153, 209, 168, 240
-0.997884, 65, 29, 192, 60
-0.997886, 135, 169, 150, 200
-0.997886, 181, 185, 196, 216
-0.997903, 281, 177, 296, 208
-0.997905, 217, 189, 232, 220
-0.997905, 269, 205, 284, 236
-0.997907, 289, 281, 416, 312
-0.997908, 147, 241, 162, 272
-0.997913, 153, 241, 168, 272
-0.997913, 113, 1, 240, 32
-0.997917, 143, 197, 158, 228
-0.997918, 95, 201, 110, 232
-0.997919, 351, 165, 366, 196
-0.99792, 97, 73, 352, 136
-0.997929, 301, 209, 316, 240
-0.997944, 1, 257, 128, 288
-0.997953, 49, 101, 176, 132
-0.997954, 469, 97, 500, 352
-0.997956, 413, 125, 428, 156
-0.99796, 369, 245, 496, 276
-0.99796, 223, 193, 238, 224
-0.997964, 145, 45, 272, 76
-0.997965, 249, 161, 264, 192
-0.997966, 219, 177, 234, 208
-0.997973, 81, 57, 208, 88
-0.997976, 241, 345, 368, 375
-0.99798, 65, 253, 192, 284
-0.997981, 127, 209, 142, 240
-0.997983, 133, 1, 164, 256
-0.997983, 145, 65, 272, 96
-0.997987, 1, 49, 500, 112
-0.997995, 263, 225, 278, 256
-0.997997, 419, 125, 434, 156
-0.997999, 409, 173, 424, 204
-0.998002, 161, 341, 288, 372
-0.998004, 161, 133, 288, 164
-0.998007, 17, 129, 144, 160
-0.998024, 65, 45, 192, 76
-0.998025, 257, 33, 500, 96
-0.998053, 201, 97, 232, 352
-0.998055, 17, 77, 144, 108
-0.998056, 353, 5, 480, 36
-0.998066, 337, 85, 464, 116
-0.998081, 289, 345, 416, 375
-0.998104, 101, 1, 132, 256
-0.998108, 161, 145, 288, 176
-0.998109, 33, 313, 160, 344
-0.998113, 321, 329, 448, 360
-0.998133, 81, 301, 208, 332
-0.998134, 37, 97, 68, 352
-0.998154, 17, 53, 144, 84
-0.998173, 321, 221, 448, 252
-0.998187, 209, 53, 336, 84
-0.998188, 97, 77, 224, 108
-0.998205, 361, 97, 392, 352
-0.998205, 225, 253, 352, 284
-0.998223, 353, 157, 480, 188
-0.998232, 273, 53, 400, 84
-0.998247, 305, 29, 432, 60
-0.99825, 377, 1, 408, 256
-0.998253, 425, 97, 456, 352
-0.99826, 429, 1, 460, 256
-0.998277, 321, 101, 448, 132
-0.998278, 161, 285, 288, 316
-0.998283, 225, 265, 352, 296
-0.998284, 65, 273, 192, 304
-0.99831, 305, 129, 336, 375
-0.998319, 57, 1, 88, 256
-0.998319, 457, 97, 488, 352
-0.998333, 337, 341, 464, 372
-0.998333, 369, 17, 496, 48
-0.998335, 1, 73, 256, 136
-0.998382, 157, 97, 188, 352
-0.998399, 57, 225, 120, 240
-0.998408, 137, 201, 200, 216
-0.998409, 169, 195, 232, 210
-0.998417, 409, 1, 440, 256
-0.998418, 113, 211, 176, 226
-0.998423, 73, 215, 136, 230
-0.998424, 249, 157, 312, 172
-0.998424, 361, 177, 392, 192
-0.998425, 269, 179, 300, 194
-0.998431, 293, 205, 324, 220
-0.998435, 45, 227, 76, 242
-0.998437, 349, 175, 380, 190
-0.998437, 313, 207, 344, 222
-0.998438, 205, 203, 236, 218
-0.998441, 257, 175, 288, 190
-0.998441, 129, 25, 384, 88
-0.998442, 265, 191, 328, 206
-0.998442, 313, 169, 376, 184
-0.998442, 53, 221, 84, 236
-0.998444, 77, 217, 108, 232
-0.998445, 213, 193, 244, 208
-0.998445, 245, 157, 276, 172
-0.998446, 81, 227, 144, 242
-0.998446, 81, 241, 112, 256
-0.998446, 145, 175, 208, 190
-0.998446, 269, 153, 300, 168
-0.998447, 69, 245, 100, 260
-0.998448, 241, 191, 304, 206
-0.998448, 285, 171, 316, 186
-0.998448, 149, 231, 180, 246
-0.99845, 101, 247, 132, 262
-0.998451, 161, 201, 224, 216
-0.998452, 373, 187, 404, 202
-0.998453, 97, 243, 160, 258
-0.998453, 201, 197, 264, 212
-0.998454, 97, 183, 160, 198
-0.998456, 133, 233, 164, 248
-0.998457, 341, 211, 372, 226
-0.998458, 149, 167, 180, 182
-0.998459, 113, 197, 176, 212
-0.998459, 97, 233, 160, 248
-0.99846, 113, 189, 144, 204
-0.998461, 241, 171, 272, 186
-0.998462, 133, 195, 164, 210
-0.998463, 49, 93, 80, 108
-0.998463, 173, 231, 204, 246
-0.998463, 209, 213, 272, 228
-0.998463, 69, 173, 100, 188
-0.998463, 197, 1, 228, 256
-0.998464, 73, 235, 136, 250
-0.998464, 137, 187, 168, 202
-0.998465, 285, 181, 316, 196
-0.998466, 137, 167, 168, 182
-0.998466, 161, 169, 192, 184
-0.998467, 165, 239, 196, 254
-0.998467, 181, 183, 212, 198
-0.998468, 137, 181, 200, 196
-0.998468, 257, 213, 288, 228
-0.998469, 205, 209, 236, 224
-0.998469, 153, 211, 184, 226
-0.99847, 97, 175, 128, 190
-0.99847, 57, 177, 88, 192
-0.99847, 121, 209, 152, 224
-0.998471, 249, 207, 312, 222
-0.998471, 169, 209, 232, 224
-0.998472, 277, 213, 308, 228
-0.998472, 293, 153, 324, 168
-0.998473, 81, 247, 112, 262
-0.998473, 277, 203, 308, 218
-0.998474, 201, 187, 232, 202
-0.998474, 193, 227, 256, 242
-0.998475, 249, 197, 312, 212
-0.998476, 157, 181, 188, 196
-0.998477, 189, 237, 220, 252
-0.998477, 237, 207, 268, 222
-0.998478, 253, 191, 284, 206
-0.998478, 169, 239, 232, 254
-0.99848, 137, 209, 168, 224
-0.99848, 253, 235, 284, 250
-0.99848, 253, 197, 284, 212
-0.998481, 269, 173, 300, 188
-0.998481, 173, 209, 204, 224
-0.998482, 113, 195, 144, 210
-0.998483, 137, 211, 200, 226
-0.998484, 289, 159, 320, 174
-0.998486, 89, 177, 152, 192
-0.998488, 129, 169, 192, 184
-0.998488, 137, 193, 200, 208
-0.998488, 161, 175, 192, 190
-0.998489, 309, 171, 340, 186
-0.998489, 257, 207, 288, 222
-0.998489, 117, 227, 148, 242
-0.99849, 185, 193, 216, 208
-0.998491, 153, 241, 184, 256
-0.998491, 217, 235, 248, 250
-0.998494, 285, 193, 316, 208
-0.998494, 145, 241, 208, 256
-0.998494, 97, 213, 128, 228
-0.998496, 141, 241, 172, 256
-0.998496, 269, 197, 300, 212
-0.998496, 117, 215, 148, 230
-0.998496, 77, 211, 108, 226
-0.998498, 189, 209, 220, 224
-0.998499, 97, 217, 160, 232
-0.998499, 269, 159, 300, 174
-0.998499, 65, 219, 96, 234
-0.9985, 241, 223, 272, 238
-0.9985, 113, 205, 176, 220
-0.998501, 209, 233, 272, 248
-0.998501, 173, 175, 204, 190
-0.998501, 197, 229, 228, 244
-0.998501, 69, 233, 100, 248
-0.998502, 73, 209, 136, 224
-0.998503, 65, 177, 128, 192
-0.998504, 249, 163, 280, 178
-0.998504, 1, 273, 500, 336
-0.998504, 129, 181, 160, 196
-0.998505, 49, 233, 80, 248
-0.998505, 201, 193, 232, 208
-0.998506, 97, 199, 128, 214
-0.998506, 89, 1, 120, 256
-0.998507, 161, 231, 192, 246
-0.998508, 329, 169, 360, 184
-0.998509, 121, 243, 184, 258
-0.99851, 73, 241, 136, 256
-0.99851, 153, 231, 216, 246
-0.99851, 85, 229, 116, 244
-0.998511, 105, 191, 168, 206
-0.998511, 129, 243, 160, 258
-0.998511, 225, 197, 288, 212
-0.998512, 297, 211, 328, 226
-0.998512, 193, 191, 256, 206
-0.998513, 41, 231, 104, 246
-0.998514, 233, 231, 264, 246
-0.998514, 97, 241, 128, 256
-0.998514, 257, 163, 320, 178
-0.998515, 121, 175, 184, 190
-0.998516, 157, 193, 188, 208
-0.998516, 69, 227, 100, 242
-0.998519, 405, 173, 436, 188
-0.998519, 193, 199, 224, 214
-0.998519, 185, 229, 216, 244
-0.998522, 117, 173, 148, 188
-0.998524, 117, 221, 148, 236
-0.998524, 81, 235, 112, 250
-0.998524, 185, 215, 248, 230
-0.998525, 257, 169, 288, 184
-0.998525, 245, 229, 276, 244
-0.998525, 137, 173, 168, 188
-0.998526, 141, 179, 172, 194
-0.998528, 149, 173, 180, 188
-0.998528, 265, 185, 328, 200
-0.998528, 281, 171, 344, 186
-0.998528, 117, 235, 148, 250
-0.998529, 153, 187, 216, 202
-0.998529, 249, 179, 312, 194
-0.998532, 89, 197, 152, 212
-0.998532, 297, 173, 328, 188
-0.998535, 241, 223, 304, 238
-0.998535, 213, 227, 244, 242
-0.998536, 129, 187, 192, 202
-0.998537, 113, 163, 176, 178
-0.998538, 177, 183, 240, 198
-0.998539, 177, 239, 208, 254
-0.998539, 41, 179, 104, 194
-0.998539, 177, 199, 208, 214
-0.998542, 125, 165, 156, 180
-0.998542, 145, 197, 176, 212
-0.998544, 393, 179, 456, 194
-0.998544, 97, 171, 160, 186
-0.998545, 73, 247, 136, 262
-0.998546, 49, 219, 112, 234
-0.998547, 217, 189, 280, 204
-0.998548, 129, 233, 192, 248
-0.998548, 69, 179, 100, 194
-0.998549, 153, 169, 216, 184
-0.99855, 185, 203, 248, 218
-0.998551, 249, 173, 312, 188
-0.998551, 73, 203, 136, 218
-0.998552, 105, 223, 168, 238
-0.998553, 201, 237, 232, 252
-0.998553, 217, 227, 280, 242
-0.998554, 249, 213, 312, 228
-0.998554, 161, 1, 192, 256
-0.998555, 101, 219, 132, 234
-0.998557, 225, 207, 288, 222
-0.998557, 293, 187, 324, 202
-0.998558, 101, 231, 132, 246
-0.998561, 125, 189, 156, 204
-0.998561, 297, 33, 328, 288
-0.998561, 249, 151, 312, 166
-0.998562, 117, 245, 148, 260
-0.998562, 233, 197, 264, 212
-0.998565, 217, 171, 280, 186
-0.998565, 33, 93, 96, 108
-0.998566, 349, 165, 380, 180
-0.998568, 141, 203, 172, 218
-0.998568, 161, 217, 224, 232
-0.99857, 229, 225, 260, 240
-0.998571, 89, 181, 120, 196
-0.998571, 333, 65, 364, 320
-0.998573, 361, 169, 424, 184
-0.998573, 49, 237, 112, 252
-0.998574, 273, 211, 336, 226
-0.998574, 177, 169, 240, 184
-0.998575, 169, 175, 232, 190
-0.998575, 225, 163, 288, 178
-0.998576, 321, 177, 384, 192
-0.998576, 353, 179, 416, 194
-0.998577, 101, 187, 132, 202
-0.998578, 117, 183, 148, 198
-0.998579, 361, 193, 424, 208
-0.998579, 57, 171, 120, 186
-0.998579, 337, 167, 400, 182
-0.99858, 217, 157, 280, 172
-0.99858, 433, 183, 496, 198
-0.998581, 281, 153, 312, 168
-0.998582, 73, 185, 136, 200
-0.998583, 273, 191, 304, 206
-0.998586, 361, 187, 424, 202
-0.998586, 105, 249, 168, 264
-0.998588, 33, 225, 96, 240
-0.998589, 305, 207, 368, 222
-0.998592, 217, 221, 280, 236
-0.998594, 153, 163, 216, 178
-0.998595, 297, 177, 360, 192
-0.998596, 17, 231, 80, 246
-0.998596, 69, 1, 100, 256
-0.998596, 385, 321, 448, 336
-0.998599, 273, 205, 336, 220
-0.9986, 193, 239, 256, 254
-0.9986, 305, 213, 368, 228
-0.998601, 241, 229, 304, 244
-0.998603, 49, 245, 112, 260
-0.998605, 281, 153, 344, 168
-0.998606, 129, 219, 192, 234
-0.998607, 85, 223, 116, 238
-0.998608, 1, 313, 500, 375
-0.998614, 297, 159, 360, 174
-0.998617, 157, 201, 188, 216
-0.998617, 257, 157, 288, 172
-0.998617, 329, 317, 392, 332
-0.998618, 289, 187, 352, 202
-0.99862, 361, 319, 424, 334
-0.998621, 433, 327, 496, 342
-0.998621, 17, 173, 80, 188
-0.998622, 101, 225, 132, 240
-0.998622, 297, 319, 360, 334
-0.998624, 201, 179, 264, 194
-0.998625, 49, 213, 112, 228
-0.998628, 273, 197, 336, 212
-0.998628, 265, 233, 328, 248
-0.998629, 17, 85, 80, 100
-0.998629, 49, 203, 112, 218
-0.99863, 297, 313, 360, 328
-0.998632, 65, 191, 128, 206
-0.998632, 89, 163, 152, 178
-0.998632, 265, 219, 328, 234
-0.998633, 241, 185, 304, 200
-0.998634, 241, 237, 304, 252
-0.998634, 409, 323, 472, 338
-0.998635, 273, 177, 336, 192
-0.998636, 105, 181, 136, 196
-0.998638, 385, 173, 448, 188
-0.998638, 57, 91, 120, 106
-0.998639, 73, 253, 136, 268
-0.998639, 265, 311, 328, 326
-0.998639, 225, 307, 288, 322
-0.99864, 417, 125, 480, 140
-0.998642, 1, 25, 500, 88
-0.998675, 57, 227, 88, 242
-0.998681, 119, 145, 134, 272
-0.998705, 349, 65, 380, 320
-0.998733, 317, 97, 348, 352
-0.998751, 209, 1, 240, 256
-0.998762, 125, 161, 140, 288
-0.998769, 453, 1, 484, 256
-0.998784, 107, 161, 122, 288
-0.998799, 253, 161, 268, 288
-0.998804, 119, 193, 134, 320
-0.998805, 149, 1, 180, 256
-0.998821, 259, 129, 274, 256
-0.998863, 1, 1, 32, 256
-0.998873, 113, 129, 128, 256
-0.998874, 277, 1, 308, 256
-0.998878, 361, 1, 392, 256
-0.99888, 113, 177, 128, 304
-0.998902, 185, 1, 216, 256
-0.998929, 25, 33, 56, 288
-0.998936, 265, 161, 280, 288
-0.998937, 139, 161, 154, 288
-0.998945, 129, 113, 144, 240
-0.99896, 231, 193, 246, 320
-0.998964, 191, 177, 206, 304
-0.998973, 99, 177, 114, 304
-0.999005, 13, 1, 44, 256
-0.999012, 247, 177, 262, 304
-0.999014, 217, 177, 232, 304
-0.999016, 241, 177, 256, 304
-0.999018, 183, 177, 198, 304
-0.999023, 223, 177, 238, 304
-0.999027, 93, 177, 108, 304
-0.999028, 259, 177, 274, 304
-0.999033, 131, 161, 146, 288
-0.99904, 177, 177, 192, 304
-0.999048, 187, 113, 202, 240
-0.999062, 269, 113, 284, 240
-0.999062, 303, 113, 318, 240
-0.999072, 147, 161, 162, 288
-0.999084, 75, 177, 90, 304
-0.999091, 397, 113, 412, 240
-0.999093, 153, 81, 168, 208
-0.999094, 313, 1, 344, 256
-0.999099, 297, 113, 312, 240
-0.999104, 281, 113, 296, 240
-0.999107, 85, 177, 100, 304
-0.999109, 411, 113, 426, 240
-0.999117, 335, 113, 350, 240
-0.999119, 275, 113, 290, 240
-0.999125, 223, 113, 238, 240
-0.999125, 197, 177, 212, 304
-0.999133, 97, 129, 112, 256
-0.999137, 317, 113, 332, 240
-0.999141, 357, 161, 372, 288
-0.999142, 363, 161, 378, 288
-0.999142, 261, 1, 292, 256
-0.999142, 405, 129, 420, 256
-0.999145, 485, 129, 500, 256
-0.999147, 271, 193, 286, 320
-0.999148, 369, 161, 384, 288
-0.999149, 349, 193, 364, 320
-0.99915, 417, 113, 432, 240
-0.999154, 465, 81, 480, 208
-0.999161, 471, 81, 486, 208
-0.99917, 81, 129, 96, 256
-0.999174, 207, 177, 222, 304
-0.999177, 233, 1, 264, 256
-0.999179, 253, 209, 268, 336
-0.999181, 169, 177, 184, 304
-0.999181, 295, 161, 310, 288
-0.999187, 135, 113, 150, 240
-0.999192, 107, 113, 122, 240
-0.999192, 425, 113, 440, 240
-0.9992, 277, 177, 292, 304
-0.999204, 373, 113, 388, 240
-0.999205, 251, 113, 266, 240
-0.999205, 389, 97, 404, 224
-0.999208, 175, 129, 190, 256
-0.999208, 361, 113, 376, 240
-0.999218, 347, 113, 362, 240
-0.99922, 193, 113, 208, 240
-0.999236, 479, 97, 494, 224
-0.999238, 143, 113, 158, 240
-0.999239, 153, 161, 168, 288
-0.999239, 327, 97, 342, 224
-0.999242, 89, 129, 104, 256
-0.999242, 463, 129, 478, 256
-0.999244, 291, 113, 306, 240
-0.999244, 311, 113, 326, 240
-0.99925, 333, 193, 348, 320
-0.999251, 473, 129, 488, 256
-0.999253, 181, 129, 196, 256
-0.999253, 245, 129, 260, 256
-0.999254, 431, 129, 446, 256
-0.999256, 203, 113, 218, 240
-0.999257, 173, 1, 204, 256
-0.999259, 9, 97, 40, 352
-0.99926, 211, 97, 226, 224
-0.999261, 231, 145, 246, 272
-0.999264, 341, 193, 356, 320
-0.999265, 121, 97, 136, 224
-0.999266, 161, 129, 176, 256
-0.999267, 457, 129, 472, 256
-0.999274, 217, 113, 232, 240
-0.999274, 341, 113, 356, 240
-0.999274, 159, 177, 174, 304
-0.999281, 265, 209, 280, 336
-0.999281, 327, 161, 342, 288
-0.999282, 407, 177, 422, 304
-0.999297, 45, 1, 76, 256
-0.999308, 417, 161, 432, 288
-0.999315, 29, 49, 44, 176
-0.999323, 85, 49, 100, 176
-0.999324, 353, 113, 368, 240
-0.999325, 75, 129, 90, 256
-0.999328, 435, 81, 450, 208
-0.999331, 285, 161, 300, 288
-0.999333, 79, 225, 94, 352
-0.999335, 129, 209, 144, 336
-0.999336, 449, 129, 464, 256
-0.999338, 69, 129, 84, 256
-0.999343, 239, 129, 254, 256
-0.99935, 479, 145, 494, 272
-0.99935, 383, 113, 398, 240
-0.999359, 361, 209, 376, 336
-0.999363, 445, 81, 460, 208
-0.999364, 455, 81, 470, 208
-0.999365, 425, 161, 440, 288
-0.999366, 439, 129, 454, 256
-0.999368, 399, 161, 414, 288
-0.999369, 147, 65, 162, 192
-0.99937, 485, 81, 500, 208
-0.999371, 465, 1, 496, 256
-0.999375, 307, 161, 322, 288
-0.99938, 445, 129, 476, 375
-0.999389, 337, 33, 352, 160
-0.999391, 71, 49, 86, 176
-0.999392, 381, 161, 396, 288
-0.999398, 293, 65, 308, 192
-0.999398, 223, 225, 238, 352
-0.9994, 367, 113, 382, 240
-0.999402, 105, 209, 120, 336
-0.999409, 389, 161, 404, 288
-0.999413, 69, 193, 84, 320
-0.999415, 21, 129, 52, 375
-0.999416, 313, 65, 328, 192
-0.999416, 245, 225, 260, 352
-0.999419, 169, 113, 184, 240
-0.999421, 185, 225, 200, 352
-0.999423, 61, 129, 76, 256
-0.999427, 163, 225, 178, 352
-0.999638, 289, 205, 304, 220
-0.999638, 261, 227, 276, 242
-0.999638, 171, 211, 186, 226
-0.999639, 225, 189, 240, 204
-0.99964, 187, 229, 202, 244
-0.99964, 207, 229, 222, 244
-0.99964, 297, 181, 312, 196
-0.999641, 207, 209, 222, 224
-0.999642, 93, 237, 108, 252
-0.999642, 179, 199, 194, 214
-0.999644, 155, 179, 170, 194
-0.999644, 169, 169, 184, 184
-0.999644, 193, 229, 208, 244
-0.999645, 197, 193, 212, 208
-0.999645, 151, 207, 166, 222
-0.999646, 165, 231, 180, 246
-0.999646, 177, 231, 192, 246
-0.999647, 257, 169, 272, 184
-0.999647, 155, 241, 170, 256
-0.999647, 167, 241, 182, 256
-0.999648, 63, 179, 78, 194
-0.999648, 175, 185, 190, 200
-0.999649, 349, 171, 364, 186
-0.999649, 171, 231, 186, 246
-0.999651, 95, 217, 110, 232
-0.999652, 317, 171, 332, 186
-0.999652, 197, 199, 212, 214
-0.999652, 201, 209, 216, 224
-0.999653, 263, 175, 278, 190
-0.999654, 119, 177, 134, 192
-0.999654, 107, 243, 122, 258
-0.999655, 153, 167, 168, 182
-0.999656, 143, 209, 158, 224
-0.999657, 135, 193, 150, 208
-0.999658, 325, 171, 340, 186
-0.999658, 361, 175, 376, 190
-0.999658, 201, 229, 216, 244
-0.999659, 285, 199, 300, 214
-0.999659, 279, 209, 294, 224
-0.99966, 121, 209, 136, 224
-0.99966, 301, 171, 316, 186
-0.99966, 181, 239, 196, 254
-0.99966, 163, 169, 178, 184
-0.999661, 195, 239, 210, 254
-0.999662, 293, 173, 308, 188
-0.999663, 133, 205, 148, 220
-0.999663, 221, 227, 236, 242
-0.999664, 249, 203, 264, 218
-0.999665, 227, 227, 242, 242
-0.999665, 271, 207, 286, 222
-0.999666, 151, 195, 166, 210
-0.999667, 129, 243, 144, 258
-0.999667, 135, 165, 150, 180
-0.999668, 485, 183, 500, 198
-0.999668, 341, 167, 356, 182
-0.999668, 223, 235, 238, 250
-0.999668, 161, 197, 176, 212
-0.999668, 359, 163, 374, 178
-0.999669, 165, 203, 180, 218
-0.999669, 129, 189, 144, 204
-0.999669, 125, 175, 140, 190
-0.999669, 189, 239, 204, 254
-0.99967, 253, 163, 268, 178
-0.999671, 135, 243, 150, 258
-0.999671, 121, 183, 136, 198
-0.999672, 267, 163, 282, 178
-0.999672, 297, 153, 312, 168
-0.999673, 69, 219, 84, 234
-0.999674, 117, 235, 132, 250
-0.999675, 295, 161, 310, 176
-0.999675, 243, 231, 258, 246
-0.999675, 121, 225, 136, 240
-0.999676, 161, 241, 176, 256
-0.999677, 203, 237, 218, 252
-0.999677, 243, 225, 258, 240
-0.999678, 349, 165, 364, 180
-0.999678, 213, 237, 228, 252
-0.999679, 165, 175, 180, 190
-0.99968, 75, 177, 90, 192
-0.99968, 137, 187, 152, 202
-0.999682, 249, 231, 264, 246
-0.999682, 95, 247, 110, 262
-0.999683, 249, 197, 264, 212
-0.999683, 69, 177, 84, 192
-0.999683, 101, 187, 116, 202
-0.999686, 147, 171, 162, 186
-0.999687, 123, 245, 138, 260
-0.999688, 237, 225, 252, 240
-0.999689, 357, 169, 372, 184
-0.99969, 203, 195, 218, 210
-0.999691, 93, 181, 108, 196
-0.999692, 111, 223, 126, 238
-0.999694, 49, 229, 64, 244
-0.999694, 75, 227, 90, 242
-0.999694, 275, 201, 290, 216
-0.999695, 275, 191, 290, 206
-0.999696, 75, 233, 90, 248
-0.999696, 301, 159, 316, 174
-0.999697, 143, 179, 158, 194
-0.999697, 171, 201, 186, 216
-0.999698, 151, 201, 166, 216
-0.9997, 59, 227, 74, 242
-0.999703, 129, 163, 144, 178
-0.999703, 135, 173, 150, 188
-0.999705, 69, 225, 84, 240
-0.999705, 81, 227, 96, 242
-0.999706, 141, 173, 156, 188
-0.999706, 135, 179, 150, 194
-0.999708, 281, 189, 296, 204
-0.99971, 153, 173, 168, 188
-0.999711, 143, 203, 158, 218
-0.999712, 85, 179, 100, 194
-0.999712, 415, 173, 430, 188
-0.999717, 107, 189, 122, 204
-0.999718, 157, 203, 172, 218
-0.999719, 103, 181, 118, 196
-0.999721, 269, 157, 284, 172
-0.999724, 291, 153, 306, 168
-0.999727, 261, 163, 276, 178
-0.999728, 123, 191, 138, 206
-0.999734, 117, 245, 132, 260
-0.999736, 121, 219, 136, 234
-0.999737, 249, 223, 264, 238
-0.999749, 307, 187, 322, 202
-0.999753, 255, 231, 270, 246
-0.999759, 263, 169, 278, 184
-0.999767, 109, 177, 124, 192
-0.99977, 129, 181, 144, 196
-0.999785, 259, 157, 274, 172
-0.999802, 115, 185, 130, 200
