1874
-0.213513, 1, 1, 500, 333
-0.438372, 1, 1, 500, 256
-0.447886, 161, 1, 416, 333
-0.500729, 257, 1, 500, 333
-0.559341, 1, 1, 256, 333
-0.603454, 97, 1, 352, 256
-0.605791, 193, 1, 448, 256
-0.759821, 1, 1, 256, 256
-0.841817, 305, 1, 432, 333
-0.859099, 257, 1, 384, 333
-0.86832, 113, 1, 240, 256
-0.87005, 353, 1, 480, 333
-0.870194, 113, 1, 240, 333
-0.871589, 289, 33, 416, 288
-0.874394, 209, 65, 336, 320
-0.87759, 65, 1, 192, 333
-0.879623, 193, 1, 320, 333
-0.89029, 17, 1, 144, 333
-0.890305, 17, 65, 144, 320
-0.890737, 129, 113, 384, 240
-0.891911, 337, 33, 464, 288
-0.892365, 1, 193, 500, 320
-0.893421, 1, 129, 500, 256
-0.899423, 1, 81, 500, 208
-0.899763, 161, 1, 288, 256
-0.900085, 65, 1, 192, 256
-0.912532, 1, 33, 500, 160
-0.915928, 257, 97, 500, 224
-0.91658, 89, 113, 152, 240
-0.921665, 97, 161, 352, 288
-0.924445, 1, 129, 256, 256
-0.926001, 225, 193, 480, 320
-0.926081, 257, 145, 500, 272
-0.926744, 33, 113, 160, 240
-0.927912, 113, 129, 240, 256
-0.929186, 113, 129, 176, 256
-0.931426, 33, 65, 288, 192
-0.932198, 177, 129, 304, 256
-0.933157, 161, 129, 224, 256
-0.93364, 57, 113, 120, 240
-0.934575, 297, 145, 360, 272
-0.93476, 225, 49, 480, 176
-0.935121, 185, 129, 248, 256
-0.937744, 305, 65, 432, 192
-0.938907, 369, 17, 432, 144
-0.939425, 361, 65, 424, 192
-0.939813, 241, 113, 368, 240
-0.94004, 305, 129, 432, 256
-0.942355, 321, 161, 384, 288
-0.944091, 257, 161, 384, 288
-0.944813, 217, 129, 280, 256
-0.945158, 353, 145, 480, 272
-0.945287, 337, 49, 400, 176
-0.946044, 1, 177, 256, 304
-0.946212, 137, 161, 200, 224
-0.946603, 113, 177, 176, 304
-0.946605, 97, 209, 352, 333
-0.947103, 97, 177, 160, 240
-0.947198, 113, 153, 176, 216
-0.947237, 137, 129, 200, 256
-0.947937, 49, 113, 112, 176
-0.948703, 113, 81, 240, 208
-0.948766, 305, 193, 432, 320
-0.948856, 305, 97, 368, 224
-0.949541, 129, 49, 384, 176
-0.949786, 89, 129, 152, 192
-0.950448, 193, 121, 256, 184
-0.950734, 345, 161, 408, 288
-0.951006, 145, 177, 272, 304
-0.95107, 73, 161, 136, 288
-0.951499, 241, 129, 304, 256
-0.951681, 273, 129, 336, 256
-0.951886, 49, 161, 176, 288
-0.952253, 33, 97, 96, 224
-0.952468, 321, 17, 448, 144
-0.953308, 97, 177, 224, 304
-0.953447, 289, 201, 352, 264
-0.953587, 241, 33, 368, 160
-0.95384, 161, 185, 224, 248
-0.954936, 65, 65, 192, 192
-0.955042, 297, 193, 360, 320
-0.955046, 177, 81, 304, 208
-0.955056, 273, 177, 336, 304
-0.955537, 185, 81, 248, 208
-0.955604, 153, 137, 216, 200
-0.956208, 313, 201, 376, 264
-0.956529, 369, 25, 432, 88
-0.956709, 345, 209, 408, 272
-0.957117, 353, 65, 480, 192
-0.957308, 113, 129, 176, 192
-0.957723, 361, 113, 424, 240
-0.958068, 145, 177, 208, 304
-0.95811, 57, 153, 120, 216
-0.958146, 217, 113, 280, 176
-0.958638, 121, 185, 184, 248
-0.958872, 193, 193, 320, 320
-0.959312, 393, 217, 456, 280
-0.959386, 337, 209, 400, 333
-0.95947, 201, 193, 264, 256
-0.959566, 193, 1, 448, 128
-0.959701, 185, 177, 248, 304
-0.959958, 217, 65, 280, 192
-0.96031, 25, 113, 88, 176
-0.960384, 361, 73, 424, 136
-0.960433, 169, 113, 232, 176
-0.960665, 329, 1, 392, 128
-0.96103, 369, 1, 496, 128
-0.961257, 65, 65, 128, 192
-0.961262, 129, 81, 192, 208
-0.961269, 369, 217, 432, 280
-0.961639, 177, 161, 240, 224
-0.962307, 337, 97, 400, 224
-0.962379, 353, 193, 480, 320
-0.962631, 89, 209, 152, 333
-0.963482, 297, 33, 360, 160
-0.963531, 241, 209, 304, 333
-0.963627, 313, 161, 376, 224
-0.963716, 161, 81, 224, 208
-0.964112, 225, 185, 288, 248
-0.964145, 385, 65, 448, 192
-0.964169, 385, 113, 448, 176
-0.964197, 249, 113, 312, 176
-0.964614, 241, 209, 368, 333
-0.964656, 89, 153, 152, 216
-0.964707, 377, 193, 440, 320
-0.964764, 1, 17, 256, 144
-0.964824, 385, 129, 448, 256
-0.96484, 273, 113, 336, 176
-0.964985, 249, 217, 312, 280
-0.965976, 337, 33, 400, 96
-0.9661, 217, 209, 280, 333
-0.966102, 113, 129, 144, 256
-0.966108, 117, 169, 148, 232
-0.966135, 193, 121, 224, 184
-0.966517, 49, 161, 112, 288
-0.966783, 401, 193, 464, 320
-0.966938, 97, 169, 224, 232
-0.967035, 73, 105, 136, 168
-0.967297, 305, 137, 368, 200
-0.967329, 265, 81, 328, 208
-0.967437, 145, 121, 272, 184
-0.967636, 49, 209, 176, 333
-0.967982, 101, 113, 132, 240
-0.968609, 193, 129, 224, 256
-0.968631, 193, 121, 320, 184
-0.96887, 289, 201, 416, 264
-0.969003, 73, 177, 136, 240
-0.969061, 345, 185, 408, 248
-0.969109, 337, 57, 400, 120
-0.969162, 225, 217, 288, 280
-0.969368, 33, 121, 160, 184
-0.969428, 177, 33, 304, 160
-0.969557, 321, 225, 384, 288
-0.969625, 265, 193, 328, 256
-0.969671, 361, 49, 424, 112
-0.969819, 193, 97, 256, 160
-0.969829, 97, 145, 224, 208
-0.970086, 121, 129, 152, 192
-0.97017, 89, 65, 152, 192
-0.970581, 337, 129, 400, 192
-0.970609, 9, 81, 72, 208
-0.970646, 213, 113, 244, 176
-0.970677, 361, 129, 424, 192
-0.97077, 217, 137, 280, 200
-0.970901, 225, 89, 288, 152
-0.970925, 309, 145, 340, 272
-0.970996, 349, 161, 380, 288
-0.971058, 177, 145, 208, 208
-0.971135, 237, 121, 268, 184
-0.971383, 125, 129, 156, 256
-0.971439, 81, 121, 208, 184
-0.971453, 89, 129, 120, 256
-0.971573, 313, 25, 376, 88
-0.971631, 289, 169, 352, 232
-0.971905, 101, 121, 132, 184
-0.972261, 305, 25, 432, 88
-0.972289, 105, 169, 136, 232
-0.972534, 313, 97, 376, 160
-0.972539, 81, 113, 112, 176
-0.972617, 137, 145, 168, 272
-0.973011, 201, 217, 264, 280
-0.973212, 257, 97, 384, 160
-0.973263, 337, 217, 464, 280
-0.973284, 1, 65, 128, 192
-0.973329, 409, 121, 472, 184
-0.973476, 173, 113, 204, 240
-0.973513, 145, 177, 272, 240
-0.97376, 317, 201, 348, 264
-0.97382, 337, 81, 400, 144
-0.973842, 393, 193, 456, 256
-0.973857, 225, 193, 352, 256
-0.973931, 369, 193, 432, 256
-0.973983, 361, 1, 424, 256
-0.974015, 381, 25, 412, 88
-0.974179, 25, 137, 88, 200
-0.974335, 393, 1, 424, 128
-0.974339, 241, 65, 304, 192
-0.974388, 113, 105, 176, 168
-0.974453, 113, 177, 144, 304
-0.974474, 409, 65, 472, 192
-0.974541, 329, 177, 360, 304
-0.974545, 97, 145, 128, 208
-0.974609, 313, 57, 376, 120
-0.974613, 313, 33, 376, 288
-0.974632, 297, 233, 360, 296
-0.974884, 161, 161, 192, 288
-0.975035, 73, 33, 136, 288
-0.975128, 309, 145, 340, 208
-0.975153, 377, 209, 408, 272
-0.975194, 305, 129, 432, 192
-0.975201, 129, 33, 256, 160
-0.975262, 181, 121, 212, 184
-0.975281, 337, 33, 400, 288
-0.975389, 137, 209, 200, 272
-0.975456, 1, 161, 128, 288
-0.975558, 53, 105, 84, 168
-0.975562, 353, 209, 384, 272
-0.975611, 17, 145, 144, 208
-0.975644, 165, 121, 196, 184
-0.97565, 377, 33, 408, 160
-0.97569, 77, 113, 108, 240
-0.975746, 365, 209, 396, 272
-0.975775, 145, 113, 208, 176
-0.975884, 129, 153, 160, 216
-0.975947, 41, 89, 104, 152
-0.975974, 53, 137, 84, 200
-0.976101, 217, 65, 280, 320
-0.976161, 273, 225, 336, 288
-0.976208, 137, 185, 168, 248
-0.976211, 417, 217, 480, 280
-0.976235, 205, 129, 236, 256
-0.976251, 233, 193, 264, 256
-0.976294, 145, 153, 176, 216
-0.976412, 225, 121, 256, 184
-0.976464, 177, 209, 240, 272
-0.976537, 209, 217, 336, 280
-0.976567, 393, 17, 456, 144
-0.976592, 65, 97, 96, 224
-0.976606, 217, 193, 248, 256
-0.97666, 273, 65, 336, 320
-0.976672, 41, 1, 104, 256
-0.976749, 345, 233, 408, 296
-0.97684, 217, 113, 248, 240
-0.976864, 329, 201, 360, 264
-0.977008, 145, 201, 272, 264
-0.977053, 305, 201, 336, 264
-0.977067, 169, 1, 232, 256
-0.977257, 165, 153, 196, 216
-0.977281, 205, 137, 236, 200
-0.977319, 241, 121, 368, 184
-0.97735, 425, 217, 456, 280
-0.977364, 273, 25, 336, 88
-0.977364, 93, 185, 124, 248
-0.977412, 149, 129, 180, 256
-0.977461, 361, 193, 392, 320
-0.977483, 201, 161, 264, 224
-0.977561, 341, 201, 372, 264
-0.977642, 113, 209, 176, 272
-0.977724, 145, 145, 272, 208
-0.977742, 321, 65, 448, 128
-0.977806, 385, 137, 448, 200
-0.977808, 385, 57, 448, 120
-0.977846, 109, 145, 140, 208
-0.977849, 353, 121, 480, 184
-0.977962, 337, 9, 400, 72
-0.97798, 409, 113, 472, 240
-0.978005, 249, 129, 280, 256
-0.978175, 169, 185, 200, 248
-0.97823, 249, 113, 280, 176
-0.97826, 69, 113, 100, 176
-0.978312, 185, 169, 216, 232
-0.978321, 85, 153, 116, 216
-0.978393, 229, 97, 260, 160
-0.978413, 321, 97, 448, 160
-0.978469, 289, 233, 416, 296
-0.978489, 89, 201, 152, 264
-0.978498, 33, 49, 96, 176
-0.978559, 125, 177, 156, 304
-0.97875, 185, 33, 248, 160
-0.978813, 425, 209, 488, 333
-0.978903, 345, 153, 408, 216
-0.978909, 177, 161, 208, 288
-0.978921, 281, 145, 344, 208
-0.97896, 177, 97, 304, 160
-0.97898, 145, 129, 176, 192
-0.978987, 97, 1, 160, 256
-0.979022, 409, 217, 440, 280
-0.979221, 101, 161, 132, 288
-0.979304, 249, 81, 312, 144
-0.979355, 389, 209, 420, 272
-0.979419, 233, 129, 264, 256
-0.979485, 1, 121, 64, 184
-0.979616, 53, 113, 84, 240
-0.979712, 281, 89, 344, 152
-0.979892, 393, 33, 456, 96
-0.979895, 313, 97, 344, 224
-0.980017, 273, 33, 336, 160
-0.98014, 289, 177, 416, 240
-0.980196, 393, 17, 424, 80
-0.980252, 105, 193, 136, 256
-0.980367, 193, 65, 256, 320
-0.980409, 97, 193, 224, 256
-0.980449, 381, 81, 412, 208
-0.980457, 225, 161, 352, 224
-0.980526, 357, 65, 388, 192
-0.980581, 189, 81, 220, 208
-0.980602, 41, 113, 72, 176
-0.980714, 393, 65, 424, 128
-0.980731, 205, 185, 236, 248
-0.980774, 361, 97, 424, 160
-0.980825, 297, 145, 328, 272
-0.981049, 249, 137, 312, 200
-0.981084, 289, 153, 416, 216
-0.981132, 169, 89, 232, 152
-0.98114, 373, 161, 404, 288
-0.981148, 381, 129, 412, 192
-0.981248, 249, 65, 312, 320
-0.981253, 129, 1, 192, 256
-0.981361, 309, 169, 340, 232
-0.981437, 305, 209, 336, 333
-0.981537, 65, 145, 96, 208
-0.981541, 393, 65, 424, 192
-0.981715, 373, 97, 404, 160
-0.981773, 9, 129, 72, 256
-0.981835, 337, 193, 464, 256
-0.981954, 245, 193, 276, 256
-0.982096, 329, 113, 360, 240
-0.982134, 333, 169, 364, 232
-0.98214, 33, 17, 160, 144
-0.982247, 305, 1, 368, 333
-0.982282, 33, 177, 160, 240
-0.98238, 321, 169, 352, 232
-0.982442, 385, 89, 448, 152
-0.982469, 193, 145, 224, 208
-0.982485, 361, 1, 424, 333
-0.982527, 289, 49, 352, 112
-0.982544, 157, 185, 188, 248
-0.982589, 241, 81, 272, 208
-0.982637, 205, 81, 236, 208
-0.982706, 161, 113, 192, 240
-0.982706, 33, 97, 160, 160
-0.98271, 325, 49, 356, 176
-0.982749, 49, 177, 112, 240
-0.982782, 297, 97, 328, 224
-0.982886, 281, 217, 312, 280
-0.982891, 241, 17, 304, 144
-0.982928, 261, 113, 292, 176
-0.982971, 189, 177, 220, 304
-0.982975, 245, 217, 276, 280
-0.983225, 133, 129, 164, 192
-0.983246, 113, 97, 240, 160
-0.983249, 369, 121, 400, 184
-0.983387, 261, 129, 292, 256
-0.983466, 353, 25, 480, 88
-0.983529, 285, 177, 316, 304
-0.983537, 41, 65, 72, 192
-0.983562, 281, 113, 312, 176
-0.983582, 105, 65, 136, 192
-0.983654, 389, 89, 420, 152
-0.983663, 321, 137, 352, 200
-0.983665, 293, 201, 324, 264
-0.983673, 365, 113, 396, 240
-0.9837, 273, 49, 400, 112
-0.983718, 205, 161, 236, 224
-0.983766, 361, 185, 392, 248
-0.983893, 97, 1, 352, 128
-0.98391, 105, 1, 168, 333
-0.983953, 89, 81, 120, 208
-0.984033, 309, 233, 340, 296
-0.984065, 145, 1, 208, 333
-0.98409, 341, 209, 372, 333
-0.984099, 229, 65, 260, 192
-0.984168, 297, 145, 328, 208
-0.984191, 317, 193, 348, 320
-0.984205, 257, 25, 384, 88
-0.984251, 393, 113, 424, 240
-0.984288, 337, 105, 400, 168
-0.984301, 125, 193, 156, 256
-0.984326, 65, 201, 128, 264
-0.984329, 329, 1, 392, 333
-0.984399, 409, 113, 440, 176
-0.98443, 393, 129, 424, 192
-0.984476, 205, 209, 236, 272
-0.984515, 265, 209, 296, 272
-0.984576, 409, 97, 472, 160
-0.98458, 245, 209, 276, 333
-0.984832, 149, 177, 180, 304
-0.984855, 289, 1, 416, 64
-0.984863, 333, 25, 364, 88
-0.984876, 433, 129, 496, 192
-0.984884, 65, 1, 128, 333
-0.984962, 125, 81, 156, 208
-0.985055, 385, 33, 448, 288
-0.985078, 373, 49, 404, 112
-0.985092, 341, 97, 372, 224
-0.985177, 81, 1, 208, 128
-0.985234, 257, 161, 320, 224
-0.9853, 357, 121, 388, 184
-0.985304, 273, 129, 304, 256
-0.985335, 101, 209, 132, 333
-0.985408, 265, 1, 328, 333
-0.985436, 209, 33, 336, 96
-0.985452, 373, 233, 404, 296
-0.985468, 57, 209, 120, 333
-0.985478, 421, 121, 452, 184
-0.98579, 217, 177, 248, 304
-0.985792, 321, 233, 352, 296
-0.985805, 253, 65, 284, 192
-0.985837, 297, 1, 360, 64
-0.985845, 337, 17, 368, 144
-0.985873, 233, 225, 264, 288
-0.985918, 197, 97, 228, 160
-0.985922, 341, 225, 372, 288
-0.986006, 385, 193, 416, 320
-0.986016, 369, 1, 432, 64
-0.986027, 361, 153, 392, 216
-0.986029, 233, 177, 264, 304
-0.986033, 49, 257, 112, 320
-0.986078, 421, 193, 452, 320
-0.986089, 357, 25, 388, 88
-0.98614, 265, 209, 296, 333
-0.986152, 145, 1, 208, 128
-0.98622, 433, 121, 464, 184
-0.986264, 297, 225, 328, 288
-0.986328, 281, 193, 312, 256
-0.986361, 217, 217, 248, 280
-0.986451, 257, 89, 288, 152
-0.986478, 441, 193, 472, 320
-0.986587, 49, 201, 176, 264
-0.986614, 73, 273, 136, 333
-0.986614, 217, 65, 248, 192
-0.986618, 49, 81, 80, 144
-0.986701, 77, 65, 108, 192
-0.986726, 361, 65, 392, 128
-0.986749, 149, 209, 180, 272
-0.986753, 53, 65, 84, 192
-0.986819, 369, 97, 496, 160
-0.986829, 297, 177, 328, 240
-0.986895, 81, 185, 112, 248
-0.986927, 405, 193, 436, 320
-0.986943, 209, 17, 272, 144
-0.986977, 349, 57, 380, 120
-0.98701, 321, 25, 352, 88
-0.987028, 249, 25, 312, 88
-0.987033, 241, 1, 304, 333
-0.987053, 401, 241, 464, 304
-0.98706, 389, 233, 420, 296
-0.987151, 33, 113, 64, 240
-0.987164, 1, 1, 64, 256
-0.987165, 413, 113, 444, 240
-0.987222, 417, 193, 480, 256
-0.98724, 437, 225, 468, 288
-0.987249, 357, 233, 388, 296
-0.987269, 297, 113, 328, 176
-0.987273, 225, 73, 352, 136
-0.987291, 285, 129, 316, 256
-0.987333, 17, 89, 80, 152
-0.987355, 313, 49, 344, 176
-0.987436, 409, 65, 472, 128
-0.9875, 1, 33, 64, 160
-0.987542, 413, 65, 444, 192
-0.987596, 385, 1, 448, 333
-0.987648, 137, 177, 200, 208
-0.987685, 137, 193, 168, 320
-0.987792, 337, 161, 464, 224
-0.987796, 117, 105, 148, 168
-0.98789, 425, 161, 488, 288
-0.987901, 209, 1, 272, 333
-0.98796, 189, 193, 220, 256
-0.987966, 309, 121, 340, 184
-0.987968, 409, 9, 472, 72
-0.987978, 193, 121, 256, 152
-0.98801, 233, 117, 296, 148
-0.988033, 401, 193, 432, 256
-0.988037, 177, 1, 240, 333
-0.988127, 249, 137, 280, 200
-0.988138, 369, 241, 432, 304
-0.988156, 305, 25, 336, 88
-0.988164, 317, 97, 348, 160
-0.988188, 17, 249, 144, 312
-0.988217, 65, 81, 128, 144
-0.988261, 113, 33, 176, 160
-0.988262, 161, 197, 224, 228
-0.988269, 137, 97, 168, 224
-0.988274, 25, 161, 88, 224
-0.988276, 121, 193, 184, 224
-0.988283, 433, 273, 496, 333
-0.988289, 433, 113, 496, 240
-0.988294, 89, 133, 152, 164
-0.988344, 369, 169, 432, 232
-0.988409, 81, 241, 208, 304
-0.988452, 1, 209, 128, 333
-0.988457, 193, 133, 256, 164
-0.988469, 97, 181, 160, 212
-0.988525, 113, 249, 176, 312
-0.988525, 41, 113, 104, 144
-0.988575, 161, 149, 224, 180
-0.988685, 81, 249, 144, 312
-0.988713, 393, 221, 456, 252
-0.988762, 217, 161, 248, 224
-0.988768, 89, 193, 120, 320
-0.988798, 373, 153, 404, 216
-0.988914, 25, 273, 88, 333
-0.988944, 249, 217, 312, 248
-0.988948, 97, 149, 160, 180
-0.988951, 349, 89, 380, 152
-0.988984, 369, 49, 496, 112
-0.989002, 161, 177, 224, 208
-0.98901, 225, 25, 288, 88
-0.98903, 369, 217, 432, 248
-0.989038, 369, 25, 400, 88
-0.989048, 357, 1, 388, 128
-0.989062, 137, 161, 200, 192
-0.989072, 161, 225, 288, 288
-0.989087, 105, 165, 168, 196
-0.989111, 57, 125, 120, 156
-0.989123, 29, 121, 60, 184
-0.989148, 369, 1, 400, 64
-0.989191, 57, 137, 120, 168
-0.989216, 81, 169, 144, 200
-0.989223, 325, 1, 356, 128
-0.989232, 161, 129, 416, 192
-0.989238, 121, 137, 184, 168
-0.989239, 69, 89, 100, 152
-0.989248, 321, 229, 384, 260
-0.989262, 193, 105, 448, 168
-0.989262, 193, 201, 448, 264
-0.989317, 409, 145, 472, 208
-0.98932, 257, 185, 288, 248
-0.989326, 265, 81, 296, 208
-0.989334, 329, 105, 360, 168
-0.98937, 149, 81, 180, 208
-0.98941, 97, 193, 160, 224
-0.989477, 297, 89, 328, 152
-0.989487, 297, 149, 360, 180
-0.989525, 153, 125, 216, 156
-0.989567, 177, 97, 208, 160
-0.989581, 417, 193, 448, 256
-0.989596, 65, 49, 96, 176
-0.989617, 353, 241, 480, 304
-0.989644, 77, 161, 108, 288
-0.989671, 361, 77, 424, 108
-0.989679, 81, 117, 144, 148
-0.989679, 369, 33, 432, 64
-0.989696, 73, 149, 136, 180
-0.989729, 345, 169, 376, 232
-0.989751, 401, 125, 464, 156
-0.989762, 273, 73, 400, 136
-0.989763, 361, 65, 424, 96
-0.98982, 205, 177, 236, 304
-0.989828, 185, 109, 248, 140
-0.989832, 397, 41, 428, 104
-0.989856, 377, 117, 440, 148
-0.989859, 33, 177, 288, 240
-0.989891, 241, 89, 272, 152
-0.989919, 105, 205, 168, 236
-0.989934, 41, 153, 72, 216
-0.98994, 229, 169, 260, 232
-0.989948, 345, 213, 408, 244
-0.989974, 377, 133, 440, 164
-0.989976, 49, 149, 112, 180
-0.989993, 209, 109, 272, 140
-0.990026, 169, 165, 232, 196
-0.990029, 413, 1, 444, 128
-0.990042, 345, 129, 408, 160
-0.990047, 369, 1, 496, 64
-0.990058, 273, 117, 336, 148
-0.99011, 193, 209, 256, 240
-0.990116, 33, 73, 160, 136
-0.990117, 353, 113, 384, 240
-0.99014, 17, 125, 80, 156
-0.990187, 241, 1, 368, 64
-0.990192, 33, 121, 288, 184
-0.990194, 25, 1, 88, 333
-0.99022, 185, 193, 248, 224
-0.990221, 65, 193, 128, 224
-0.99023, 321, 41, 384, 72
-0.990256, 97, 97, 128, 160
-0.990268, 273, 1, 336, 64
-0.990275, 129, 149, 192, 180
-0.990277, 369, 233, 432, 264
-0.990282, 209, 89, 240, 152
-0.990283, 225, 161, 288, 224
-0.990289, 229, 145, 260, 208
-0.990333, 129, 205, 192, 236
-0.990337, 401, 89, 432, 152
-0.990339, 305, 101, 368, 132
-0.990406, 297, 225, 360, 256
-0.990485, 281, 105, 344, 136
-0.990497, 313, 161, 376, 192
-0.990498, 201, 73, 264, 136
-0.990515, 281, 201, 344, 232
-0.990522, 217, 197, 280, 228
-0.990531, 89, 41, 152, 104
-0.990561, 417, 221, 480, 252
-0.990577, 177, 233, 240, 296
-0.990618, 321, 201, 384, 232
-0.990667, 97, 273, 160, 333
-0.990679, 193, 161, 256, 192
-0.990738, 373, 209, 404, 333
-0.99074, 293, 49, 324, 176
-0.990746, 361, 21, 424, 52
-0.990755, 241, 129, 304, 160
-0.990763, 273, 221, 336, 252
-0.990805, 185, 145, 248, 176
-0.990817, 225, 217, 288, 248
-0.990817, 57, 1, 120, 128
-0.990828, 185, 41, 248, 104
-0.990848, 217, 133, 280, 164
-0.990885, 321, 145, 384, 176
-0.99091, 81, 209, 144, 240
-0.99092, 153, 233, 216, 296
-0.990946, 337, 61, 400, 92
-0.990947, 297, 185, 360, 216
-0.990974, 185, 177, 248, 208
-0.990987, 153, 209, 216, 240
-0.991023, 337, 29, 400, 60
-0.991028, 385, 21, 448, 52
-0.991035, 169, 65, 200, 192
-0.991036, 337, 85, 400, 116
-0.991073, 297, 213, 360, 244
-0.991094, 1, 113, 500, 176
-0.991098, 265, 129, 328, 160
-0.991106, 249, 105, 312, 136
-0.991109, 121, 57, 184, 120
-0.991132, 369, 45, 432, 76
-0.991162, 393, 233, 456, 264
-0.991179, 153, 137, 216, 168
-0.991195, 161, 33, 288, 96
-0.991207, 65, 181, 128, 212
-0.991238, 345, 225, 408, 256
-0.991262, 305, 173, 368, 204
-0.991266, 161, 113, 224, 144
-0.991297, 113, 121, 176, 152
-0.991316, 161, 257, 224, 320
-0.991321, 17, 113, 80, 144
-0.991344, 33, 137, 96, 168
-0.991352, 281, 161, 344, 192
-0.991366, 97, 153, 352, 216
-0.991374, 65, 145, 96, 272
-0.991379, 49, 33, 176, 96
-0.991382, 437, 145, 468, 272
-0.991383, 281, 33, 344, 64
-0.991459, 401, 137, 464, 168
-0.991471, 425, 133, 488, 164
-0.991485, 273, 233, 336, 264
-0.991493, 241, 241, 368, 304
-0.991513, 273, 149, 336, 180
-0.991517, 385, 81, 448, 112
-0.991528, 97, 41, 224, 104
-0.991544, 337, 73, 400, 104
-0.991561, 329, 189, 392, 220
-0.991563, 17, 41, 80, 104
-0.991579, 273, 45, 336, 76
-0.991582, 193, 177, 448, 240
-0.991632, 337, 161, 400, 192
-0.991637, 305, 29, 368, 60
-0.991656, 385, 65, 448, 96
-0.991664, 1, 201, 500, 264
-0.991678, 49, 233, 112, 296
-0.991789, 401, 209, 464, 240
-0.991806, 81, 273, 208, 333
-0.991819, 345, 41, 408, 72
-0.991824, 249, 205, 312, 236
-0.991842, 201, 265, 264, 328
-0.991843, 97, 217, 224, 280
-0.991852, 369, 105, 432, 136
-0.991881, 265, 93, 328, 124
-0.991889, 257, 189, 320, 220
-0.991897, 297, 85, 360, 116
-0.991906, 309, 145, 340, 176
-0.991906, 57, 169, 120, 200
-0.991917, 369, 93, 432, 124
-0.991937, 305, 1, 336, 128
-0.991952, 237, 121, 268, 152
-0.991955, 209, 145, 272, 176
-0.991978, 377, 201, 440, 232
-0.991984, 145, 25, 208, 88
-0.991995, 417, 233, 480, 264
-0.992013, 193, 9, 320, 72
-0.992016, 65, 101, 128, 132
-0.992023, 213, 125, 244, 156
-0.992037, 225, 41, 288, 72
-0.992043, 97, 121, 128, 152
-0.992067, 201, 129, 232, 160
-0.99207, 281, 49, 312, 176
-0.992076, 177, 73, 304, 136
-0.992079, 177, 161, 208, 192
-0.992079, 119, 169, 134, 232
-0.992114, 201, 221, 264, 252
-0.992115, 297, 45, 360, 76
-0.992125, 321, 213, 384, 244
-0.992128, 117, 133, 148, 164
-0.99216, 93, 185, 124, 216
-0.992163, 1, 249, 64, 312
-0.992165, 177, 193, 208, 224
-0.99217, 193, 149, 224, 180
-0.992174, 209, 97, 272, 128
-0.992181, 189, 129, 220, 160
-0.992182, 353, 149, 416, 180
-0.992212, 97, 201, 352, 264
-0.992215, 41, 101, 104, 132
-0.992226, 113, 153, 240, 184
-0.992228, 205, 193, 236, 224
-0.992234, 257, 33, 320, 64
-0.992235, 405, 217, 436, 248
-0.99224, 113, 17, 240, 80
-0.992241, 137, 265, 200, 328
-0.992247, 177, 173, 208, 204
-0.992271, 81, 17, 144, 144
-0.992276, 337, 17, 400, 48
-0.992284, 105, 189, 136, 220
-0.992289, 297, 137, 360, 168
-0.992293, 113, 169, 144, 200
-0.992297, 129, 57, 192, 88
-0.9923, 165, 177, 196, 208
-0.992303, 109, 201, 140, 232
-0.992304, 169, 149, 200, 180
-0.992306, 249, 1, 312, 64
-0.992329, 125, 181, 156, 212
-0.992331, 409, 1, 472, 333
-0.992348, 353, 197, 416, 228
-0.99235, 217, 185, 280, 216
-0.992356, 9, 145, 72, 176
-0.992357, 297, 237, 360, 268
-0.992358, 417, 221, 448, 252
-0.99237, 409, 265, 472, 328
-0.992379, 189, 117, 220, 148
-0.992384, 345, 237, 408, 268
-0.992394, 425, 117, 488, 148
-0.992411, 25, 157, 88, 188
-0.992417, 393, 217, 424, 248
-0.992423, 121, 33, 184, 96
-0.992431, 157, 197, 188, 228
-0.992432, 437, 129, 468, 160
-0.992442, 201, 117, 232, 148
-0.992447, 369, 73, 496, 136
-0.992448, 425, 145, 456, 272
-0.992448, 101, 149, 132, 180
-0.992458, 321, 149, 352, 180
-0.99246, 125, 165, 156, 196
-0.992463, 429, 221, 460, 252
-0.992475, 81, 177, 208, 208
-0.992477, 409, 1, 472, 256
-0.992479, 153, 157, 184, 188
-0.992484, 125, 149, 156, 180
-0.992485, 389, 21, 420, 52
-0.992491, 9, 217, 72, 280
-0.992494, 241, 241, 304, 304
-0.992498, 93, 197, 124, 228
-0.992505, 225, 125, 256, 156
-0.992511, 133, 193, 164, 224
-0.992513, 393, 61, 424, 92
-0.992525, 145, 189, 176, 220
-0.992526, 193, 177, 224, 208
-0.992531, 57, 137, 88, 168
-0.992538, 261, 117, 292, 148
-0.992542, 213, 137, 244, 168
-0.992556, 309, 157, 340, 188
-0.992556, 213, 113, 244, 144
-0.992572, 229, 109, 260, 140
-0.992581, 25, 249, 88, 312
-0.99259, 101, 137, 132, 168
-0.992595, 249, 125, 280, 156
-0.992597, 137, 141, 168, 172
-0.992604, 141, 161, 172, 192
-0.992607, 181, 149, 212, 180
-0.992614, 377, 129, 408, 160
-0.992622, 137, 177, 168, 208
-0.992635, 409, 121, 440, 152
-0.992639, 93, 169, 124, 200
-0.992639, 189, 197, 220, 228
-0.992642, 241, 33, 272, 160
-0.992642, 373, 73, 404, 104
-0.992659, 53, 109, 84, 140
-0.99267, 213, 209, 244, 240
-0.992676, 85, 117, 116, 148
-0.99268, 333, 201, 364, 232
-0.992682, 281, 217, 312, 248
-0.992682, 217, 193, 248, 224
-0.992692, 1, 161, 500, 224
-0.992704, 257, 225, 500, 288
-0.992709, 149, 177, 180, 208
-0.992709, 421, 125, 452, 156
-0.992711, 261, 213, 292, 244
-0.992715, 297, 149, 328, 180
-0.992717, 249, 217, 280, 248
-0.992721, 377, 37, 408, 68
-0.992723, 169, 205, 200, 236
-0.99273, 333, 225, 364, 256
-0.992736, 177, 117, 208, 148
-0.992743, 393, 85, 424, 116
-0.992743, 85, 137, 116, 168
-0.992746, 177, 145, 192, 208
-0.99275, 393, 73, 424, 104
-0.992751, 33, 225, 160, 288
-0.992752, 33, 97, 288, 160
-0.992763, 297, 221, 328, 252
-0.992765, 301, 233, 332, 264
-0.99277, 121, 197, 152, 228
-0.992777, 389, 129, 420, 160
-0.992785, 381, 217, 412, 248
-0.992785, 41, 113, 72, 144
-0.992791, 353, 229, 384, 260
-0.992792, 441, 221, 472, 252
-0.992801, 321, 225, 352, 256
-0.992803, 205, 157, 236, 188
-0.992812, 369, 213, 400, 244
-0.992812, 1, 137, 500, 200
-0.992821, 281, 117, 312, 148
-0.992827, 97, 209, 128, 240
-0.992829, 237, 209, 268, 240
-0.992833, 173, 133, 204, 164
-0.992833, 1, 153, 256, 216
-0.992833, 365, 129, 396, 160
-0.992848, 77, 153, 108, 184
-0.992851, 249, 113, 280, 144
-0.992854, 113, 153, 144, 184
-0.992866, 69, 121, 100, 152
-0.992867, 193, 161, 224, 192
-0.99287, 305, 101, 336, 132
-0.992871, 193, 133, 320, 164
-0.992873, 357, 41, 388, 72
-0.992876, 397, 233, 428, 264
-0.992882, 109, 117, 140, 148
-0.992902, 345, 189, 376, 220
-0.992907, 237, 133, 268, 164
-0.992915, 161, 129, 192, 160
-0.992924, 377, 233, 408, 264
-0.992926, 41, 125, 72, 156
-0.992936, 449, 129, 480, 160
-0.992948, 165, 161, 196, 192
-0.99296, 149, 133, 180, 164
-0.992961, 81, 189, 112, 220
-0.992965, 97, 109, 128, 140
-0.992965, 365, 85, 396, 116
-0.992968, 89, 157, 120, 188
-0.992969, 29, 117, 60, 148
-0.992975, 385, 141, 416, 172
-0.99298, 373, 49, 404, 80
-0.992985, 161, 193, 288, 224
-0.992986, 81, 173, 112, 204
-0.992986, 393, 33, 424, 64
-0.992992, 373, 61, 404, 92
-0.992993, 1, 49, 128, 112
-0.992994, 317, 97, 348, 128
-0.993002, 325, 41, 356, 72
-0.993004, 313, 201, 344, 232
-0.993008, 229, 197, 260, 228
-0.993016, 297, 185, 328, 216
-0.993022, 237, 225, 268, 256
-0.993024, 153, 209, 184, 240
-0.993028, 309, 221, 340, 252
-0.993031, 269, 129, 300, 160
-0.993043, 57, 149, 88, 180
-0.993043, 189, 33, 220, 160
-0.993048, 385, 117, 416, 148
-0.993051, 293, 105, 324, 136
-0.993053, 401, 133, 432, 164
-0.993144, 145, 125, 272, 156
-0.99323, 33, 209, 96, 333
-0.993267, 177, 113, 304, 144
-0.993323, 257, 129, 500, 192
-0.99339, 453, 209, 484, 333
-0.99345, 337, 217, 464, 248
-0.993455, 17, 273, 144, 333
-0.993471, 33, 121, 160, 152
-0.993492, 81, 133, 208, 164
-0.993551, 25, 1, 88, 128
-0.993555, 21, 49, 52, 176
-0.993621, 221, 17, 252, 144
-0.993625, 1, 201, 128, 264
-0.99365, 353, 129, 480, 160
-0.993705, 139, 153, 154, 216
-0.993775, 199, 121, 214, 184
-0.9938, 399, 57, 414, 120
-0.993814, 113, 193, 240, 224
-0.993823, 49, 145, 176, 176
-0.993841, 163, 153, 178, 216
-0.993844, 129, 129, 144, 192
-0.993884, 1, 1, 64, 333
-0.993888, 207, 121, 222, 184
-0.993906, 133, 161, 148, 224
-0.993949, 225, 81, 480, 144
-0.993949, 97, 165, 224, 196
-0.993962, 273, 201, 400, 232
-0.994007, 319, 137, 334, 200
-0.994011, 193, 257, 320, 320
-0.994023, 129, 249, 256, 312
-0.994026, 125, 169, 140, 232
-0.994058, 193, 153, 448, 216
-0.994074, 225, 33, 480, 96
-0.994108, 429, 97, 460, 224
-0.994121, 123, 129, 138, 192
-0.9942, 245, 121, 260, 184
-0.99421, 387, 65, 402, 128
-0.994218, 171, 145, 186, 208
-0.99423, 417, 17, 480, 144
-0.994234, 129, 273, 256, 333
-0.994234, 209, 217, 336, 248
-0.994246, 355, 193, 370, 256
-0.99425, 329, 201, 344, 264
-0.994294, 171, 121, 186, 184
-0.994309, 97, 153, 112, 216
-0.994319, 391, 209, 406, 272
-0.994347, 99, 185, 114, 248
-0.994384, 369, 209, 384, 272
-0.994384, 97, 73, 224, 136
-0.994385, 57, 129, 72, 192
-0.994387, 305, 97, 432, 128
-0.994413, 289, 149, 416, 180
-0.994414, 113, 205, 240, 236
-0.994425, 215, 113, 230, 176
-0.994433, 109, 185, 124, 248
-0.994453, 317, 161, 332, 224
-0.994489, 171, 185, 186, 248
-0.994498, 377, 209, 392, 272
-0.994509, 319, 201, 334, 264
-0.994519, 145, 161, 160, 224
-0.994525, 79, 121, 94, 184
-0.994537, 129, 141, 256, 172
-0.994551, 227, 193, 242, 256
-0.994586, 205, 33, 236, 160
-0.994597, 225, 121, 240, 184
-0.994598, 239, 193, 254, 256
-0.994651, 17, 157, 144, 188
-0.994656, 189, 145, 204, 208
-0.994677, 311, 137, 326, 200
-0.994681, 111, 121, 126, 184
-0.994687, 129, 193, 144, 256
-0.994692, 225, 121, 352, 152
-0.994696, 241, 273, 368, 333
-0.994704, 345, 201, 360, 264
-0.99472, 187, 121, 202, 184
-0.994726, 363, 209, 378, 272
-0.994729, 335, 201, 350, 264
-0.99473, 391, 25, 406, 88
-0.994738, 383, 209, 398, 272
-0.994749, 165, 129, 180, 192
-0.994756, 177, 121, 192, 184
-0.99478, 73, 121, 88, 184
-0.994785, 91, 113, 106, 176
-0.994799, 49, 9, 176, 72
-0.994859, 97, 117, 224, 148
-0.994861, 89, 153, 104, 216
-0.994861, 289, 213, 416, 244
-0.994867, 253, 121, 268, 184
-0.99488, 209, 193, 336, 224
-0.994901, 85, 121, 100, 184
-0.994901, 405, 65, 420, 128
-0.994911, 431, 217, 446, 280
-0.994914, 439, 217, 454, 280
-0.994946, 129, 177, 256, 208
-0.994957, 425, 217, 440, 280
-0.994984, 419, 217, 434, 280
-0.994996, 193, 121, 208, 184
-0.995022, 161, 205, 288, 236
-0.995044, 117, 129, 132, 192
-0.995045, 213, 145, 228, 208
-0.995063, 369, 273, 496, 333
-0.995063, 399, 217, 414, 280
-0.995113, 153, 1, 184, 128
-0.995128, 53, 105, 68, 168
-0.995143, 449, 113, 480, 240
-0.995153, 239, 121, 254, 184
-0.995161, 305, 37, 432, 68
-0.99518, 273, 225, 400, 256
-0.995187, 413, 217, 428, 280
-0.995238, 1, 17, 128, 80
-0.995242, 323, 161, 338, 224
-0.995254, 309, 161, 324, 224
-0.995255, 179, 169, 194, 232
-0.995257, 433, 121, 448, 184
-0.995272, 313, 201, 328, 264
-0.995276, 321, 77, 448, 108
-0.99528, 135, 129, 150, 192
-0.995311, 307, 201, 322, 264
-0.995315, 433, 65, 496, 192
-0.995315, 9, 193, 72, 320
-0.995323, 137, 185, 152, 248
-0.995331, 161, 165, 288, 196
-0.995353, 129, 25, 384, 88
-0.99537, 237, 97, 252, 160
-0.995377, 243, 97, 258, 160
-0.995378, 325, 137, 340, 200
-0.995395, 153, 153, 168, 216
-0.995396, 17, 109, 144, 140
-0.99542, 33, 133, 160, 164
-0.99542, 199, 145, 214, 208
-0.99542, 47, 121, 62, 184
-0.995426, 123, 193, 138, 256
-0.99543, 233, 193, 248, 256
-0.995433, 385, 25, 400, 88
-0.995452, 1, 201, 256, 264
-0.995461, 293, 1, 324, 128
-0.99547, 21, 113, 52, 240
-0.995474, 67, 105, 82, 168
-0.995477, 273, 117, 400, 148
-0.995512, 79, 145, 94, 208
-0.995531, 59, 105, 74, 168
-0.995545, 311, 225, 326, 288
-0.995556, 353, 233, 480, 264
-0.995563, 101, 121, 116, 184
-0.995567, 219, 193, 234, 256
-0.995575, 245, 193, 260, 256
-0.995586, 183, 145, 198, 208
-0.995587, 305, 129, 432, 160
-0.995588, 261, 113, 276, 176
-0.99559, 377, 49, 392, 112
-0.995592, 217, 169, 232, 232
-0.9956, 197, 169, 212, 232
-0.9956, 297, 217, 312, 280
-0.995607, 145, 137, 160, 200
-0.995623, 249, 97, 264, 160
-0.995628, 49, 193, 176, 224
-0.995686, 207, 153, 222, 216
-0.995704, 305, 49, 432, 80
-0.99574, 269, 33, 300, 160
-0.995772, 159, 129, 174, 192
-0.995784, 161, 209, 192, 333
-0.995791, 329, 169, 344, 232
-0.995794, 115, 193, 130, 256
-0.9958, 193, 145, 320, 176
-0.995818, 161, 225, 416, 288
-0.995835, 323, 233, 338, 296
-0.995836, 319, 113, 334, 176
-0.995846, 385, 129, 400, 192
-0.995857, 321, 25, 448, 56
-0.995901, 145, 185, 160, 248
-0.995902, 113, 153, 128, 216
-0.995921, 353, 117, 480, 148
-0.995927, 237, 225, 252, 288
-0.995927, 241, 153, 368, 184
-0.995927, 231, 113, 246, 176
-0.995932, 433, 1, 496, 333
-0.995933, 345, 169, 360, 232
-0.995962, 405, 217, 420, 280
-0.995971, 397, 33, 412, 96
-0.995996, 63, 137, 78, 200
-0.995998, 393, 57, 408, 120
-0.996021, 337, 233, 352, 296
-0.996022, 209, 185, 224, 248
-0.996024, 81, 105, 208, 136
-0.996027, 253, 17, 284, 144
-0.996045, 259, 137, 274, 200
-0.996045, 71, 145, 86, 208
-0.996059, 349, 225, 364, 288
-0.996091, 317, 233, 332, 296
-0.996108, 251, 193, 266, 256
-0.99611, 159, 185, 174, 248
-0.996119, 289, 181, 416, 212
-0.996146, 321, 273, 448, 333
-0.996149, 391, 97, 406, 160
-0.996151, 261, 217, 276, 280
-0.996158, 219, 137, 234, 200
-0.99616, 373, 233, 388, 296
-0.996166, 305, 61, 432, 92
-0.996172, 399, 129, 414, 192
-0.996175, 103, 153, 118, 216
-0.996182, 405, 25, 420, 88
-0.996198, 369, 141, 496, 172
-0.996204, 383, 105, 398, 168
-0.996213, 373, 121, 388, 184
-0.996217, 185, 185, 200, 248
-0.996221, 209, 97, 336, 128
-0.996225, 329, 233, 344, 296
-0.996228, 193, 57, 448, 120
-0.996269, 225, 109, 352, 140
-0.996284, 225, 205, 352, 236
-0.99629, 1, 89, 500, 152
-0.996328, 273, 85, 400, 116
-0.996431, 241, 133, 368, 164
-0.996454, 319, 141, 334, 172
-0.996492, 353, 57, 480, 88
-0.996494, 181, 161, 196, 192
-0.99652, 225, 41, 352, 72
-0.996543, 89, 33, 120, 160
-0.996554, 209, 181, 336, 212
-0.996558, 1, 25, 500, 88
-0.996581, 171, 193, 186, 224
-0.996582, 361, 33, 392, 288
-0.996647, 133, 1, 164, 128
-0.996684, 203, 129, 218, 160
-0.996696, 1, 225, 500, 288
-0.996698, 41, 17, 72, 144
-0.99672, 353, 41, 480, 72
-0.996724, 305, 237, 432, 268
-0.996735, 1, 145, 128, 176
-0.996741, 129, 81, 384, 144
-0.99676, 137, 49, 168, 176
-0.996762, 179, 193, 194, 224
-0.996771, 313, 145, 328, 176
-0.996774, 211, 141, 226, 172
-0.996857, 41, 161, 72, 288
-0.996876, 189, 165, 204, 196
-0.9969, 33, 181, 160, 212
-0.996905, 249, 125, 264, 156
-0.996928, 173, 173, 188, 204
-0.996934, 273, 25, 400, 56
-0.996935, 289, 161, 416, 192
-0.996948, 179, 173, 194, 204
-0.996949, 111, 117, 126, 148
-0.996964, 65, 205, 192, 236
-0.99697, 225, 9, 480, 72
-0.996971, 213, 121, 228, 152
-0.996978, 137, 181, 152, 212
-0.996991, 165, 1, 196, 128
-0.996993, 1, 73, 256, 136
-0.997006, 181, 149, 196, 180
-0.997007, 195, 113, 210, 144
-0.99702, 107, 177, 122, 208
-0.997061, 399, 61, 414, 92
-0.997066, 113, 197, 128, 228
-0.997089, 187, 149, 202, 180
-0.997091, 313, 33, 344, 288
-0.997113, 113, 65, 144, 320
-0.997139, 131, 189, 146, 220
-0.997184, 353, 89, 480, 120
-0.997185, 225, 229, 352, 260
-0.99719, 321, 193, 448, 224
-0.997204, 433, 1, 496, 256
-0.997206, 93, 65, 124, 320
-0.997211, 215, 153, 230, 184
-0.997214, 417, 217, 432, 248
-0.997218, 131, 165, 146, 196
-0.997222, 115, 169, 130, 200
-0.997236, 405, 65, 420, 96
-0.997238, 197, 1, 228, 256
-0.99724, 237, 117, 252, 148
-0.997249, 107, 189, 122, 220
-0.997251, 409, 217, 424, 248
-0.99726, 201, 113, 216, 144
-0.997273, 393, 61, 408, 92
-0.997282, 465, 193, 496, 320
-0.997282, 197, 125, 212, 156
-0.997284, 193, 149, 208, 180
-0.997285, 213, 189, 228, 220
-0.997286, 257, 61, 384, 92
-0.997292, 97, 181, 112, 212
-0.997297, 237, 65, 268, 320
-0.997298, 369, 25, 496, 56
-0.997306, 225, 121, 240, 152
-0.99731, 123, 153, 138, 184
-0.997314, 175, 161, 190, 192
-0.997316, 169, 205, 184, 236
-0.997321, 153, 177, 168, 208
-0.997334, 337, 205, 464, 236
-0.997337, 169, 153, 184, 184
-0.99734, 33, 169, 160, 200
-0.997344, 161, 221, 288, 252
-0.997348, 185, 193, 200, 224
-0.997363, 105, 113, 120, 144
-0.997372, 121, 169, 136, 200
-0.997374, 81, 33, 112, 288
-0.997389, 225, 193, 240, 224
-0.997391, 25, 1, 56, 128
-0.997394, 99, 121, 114, 152
-0.997395, 337, 33, 368, 288
-0.997395, 185, 177, 200, 208
-0.997412, 243, 121, 258, 152
-0.997417, 207, 113, 222, 144
-0.997424, 403, 217, 418, 248
-0.997428, 137, 65, 168, 320
-0.997431, 325, 145, 340, 176
-0.997432, 117, 157, 132, 188
-0.997435, 323, 157, 338, 188
-0.997435, 393, 129, 408, 160
-0.997448, 177, 17, 208, 144
-0.997452, 433, 221, 448, 252
-0.997455, 387, 129, 402, 160
-0.997457, 139, 145, 154, 176
-0.997457, 1, 1, 32, 128
-0.997459, 445, 221, 460, 252
-0.997473, 389, 21, 404, 52
-0.997478, 389, 73, 404, 104
-0.997483, 219, 189, 234, 220
-0.997483, 121, 197, 136, 228
-0.997492, 227, 209, 242, 240
-0.997494, 191, 129, 206, 160
-0.997518, 225, 1, 256, 256
-0.997529, 145, 189, 160, 220
-0.997529, 101, 193, 116, 224
-0.99753, 45, 113, 60, 144
-0.997531, 325, 33, 356, 288
-0.997533, 381, 129, 396, 160
-0.997534, 175, 149, 190, 180
-0.997538, 439, 221, 454, 252
-0.997539, 277, 117, 292, 148
-0.997544, 1, 25, 256, 88
-0.997564, 449, 129, 464, 160
-0.997578, 255, 129, 270, 160
-0.997578, 209, 157, 224, 188
-0.997585, 65, 265, 320, 328
-0.99759, 257, 97, 384, 128
-0.997592, 133, 149, 148, 180
-0.997593, 381, 1, 412, 256
-0.997596, 297, 65, 328, 320
-0.997601, 61, 137, 76, 168
-0.99761, 431, 125, 446, 156
-0.997611, 307, 149, 322, 180
-0.997611, 185, 1, 216, 256
-0.997615, 465, 145, 496, 272
-0.997621, 317, 157, 332, 188
-0.997623, 369, 77, 496, 108
-0.997623, 1, 193, 128, 224
-0.997626, 393, 1, 424, 256
-0.997634, 309, 221, 324, 252
-0.99765, 225, 29, 352, 60
-0.997651, 209, 33, 240, 288
-0.997654, 199, 149, 214, 180
-0.997655, 399, 77, 414, 108
-0.997656, 163, 201, 178, 232
-0.997678, 45, 1, 76, 256
-0.997678, 217, 141, 232, 172
-0.997682, 247, 109, 262, 140
-0.997683, 257, 65, 288, 320
-0.997684, 295, 217, 310, 248
-0.997691, 161, 157, 176, 188
-0.997694, 423, 217, 438, 248
-0.997702, 207, 193, 222, 224
-0.997702, 145, 161, 160, 192
-0.997707, 281, 1, 312, 128
-0.997707, 361, 229, 376, 260
-0.997717, 145, 145, 160, 176
-0.997722, 327, 229, 342, 260
-0.997726, 275, 213, 290, 244
-0.997726, 261, 137, 276, 168
-0.997735, 161, 53, 288, 84
-0.997742, 385, 217, 400, 248
-0.997743, 121, 133, 136, 164
-0.997745, 79, 149, 94, 180
-0.997748, 51, 113, 66, 144
-0.997748, 405, 77, 420, 108
-0.997752, 263, 217, 278, 248
-0.997755, 255, 117, 270, 148
-0.997756, 95, 157, 110, 188
-0.997756, 113, 1, 144, 128
-0.997759, 337, 153, 464, 184
-0.99776, 131, 133, 146, 164
-0.99776, 441, 129, 456, 160
-0.99776, 191, 181, 206, 212
-0.997762, 123, 185, 138, 216
-0.997762, 131, 177, 146, 208
-0.997768, 111, 153, 126, 184
-0.997771, 409, 229, 424, 260
-0.997776, 205, 141, 220, 172
-0.99778, 185, 137, 200, 168
-0.997785, 1, 57, 500, 120
-0.997797, 455, 129, 470, 160
-0.997799, 111, 209, 126, 240
-0.997804, 57, 1, 88, 256
-0.997809, 289, 13, 416, 44
-0.99781, 349, 229, 364, 260
-0.99781, 453, 65, 484, 192
-0.997818, 429, 49, 460, 176
-0.997824, 335, 225, 350, 256
-0.997824, 355, 189, 370, 220
-0.997852, 87, 113, 102, 144
-0.997855, 165, 173, 180, 204
-0.997856, 321, 225, 336, 256
-0.997859, 157, 197, 172, 228
-0.997862, 117, 121, 132, 152
-0.997871, 387, 141, 402, 172
-0.997872, 87, 153, 102, 184
-0.997872, 69, 65, 100, 320
-0.99788, 177, 205, 192, 236
-0.99788, 269, 33, 300, 288
-0.997886, 195, 169, 210, 200
-0.997896, 97, 169, 112, 200
-0.997899, 377, 57, 392, 88
-0.997915, 69, 141, 84, 172
-0.997916, 189, 113, 204, 144
-0.997916, 349, 1, 380, 256
-0.997918, 337, 177, 464, 208
-0.997934, 281, 65, 312, 320
-0.997966, 65, 209, 96, 333
-0.998018, 161, 97, 288, 128
-0.998112, 125, 1, 156, 256
-0.998133, 33, 253, 160, 284
-0.998138, 193, 301, 320, 332
-0.998149, 81, 277, 208, 308
-0.998161, 157, 1, 188, 256
-0.998206, 65, 61, 192, 92
-0.998219, 97, 1, 352, 64
-0.998225, 273, 73, 400, 104
-0.998235, 209, 169, 336, 200
-0.998252, 65, 49, 320, 112
-0.998255, 173, 1, 204, 256
-0.998279, 33, 233, 288, 296
-0.998283, 369, 301, 496, 332
-0.998353, 113, 65, 240, 96
-0.998355, 105, 187, 168, 202
-0.998366, 249, 217, 312, 232
-0.998371, 313, 231, 376, 246
-0.998374, 369, 13, 496, 44
-0.998375, 177, 41, 304, 72
-0.998384, 1, 205, 128, 236
-0.998395, 33, 115, 96, 130
-0.998395, 145, 181, 208, 196
-0.998397, 193, 133, 256, 148
-0.998403, 117, 129, 132, 256
-0.998403, 97, 217, 224, 248
-0.998408, 145, 175, 208, 190
-0.998408, 129, 197, 192, 212
-0.998408, 97, 141, 160, 156
-0.998411, 289, 227, 352, 242
-0.998415, 185, 121, 248, 136
-0.998417, 337, 165, 464, 196
-0.998418, 81, 147, 144, 162
-0.998419, 105, 181, 168, 196
-0.998422, 193, 115, 256, 130
-0.998426, 105, 193, 168, 208
-0.99843, 353, 105, 480, 136
-0.998435, 225, 217, 288, 232
-0.998435, 69, 149, 100, 164
-0.998435, 53, 17, 84, 144
-0.998436, 281, 119, 312, 134
-0.998437, 381, 97, 412, 112
-0.998437, 161, 121, 224, 136
-0.998438, 189, 171, 220, 186
-0.998438, 197, 209, 228, 224
-0.998439, 305, 109, 336, 124
-0.99844, 117, 155, 148, 170
-0.998441, 209, 123, 272, 138
-0.998441, 329, 203, 360, 218
-0.998442, 293, 227, 324, 242
-0.998442, 33, 97, 160, 128
-0.998443, 81, 189, 112, 204
-0.998444, 373, 129, 404, 144
-0.998444, 397, 99, 428, 114
-0.998446, 445, 231, 476, 246
-0.998447, 429, 223, 460, 238
-0.998447, 361, 233, 424, 248
-0.998448, 129, 189, 192, 204
-0.99845, 65, 117, 128, 132
-0.99845, 165, 133, 196, 148
-0.99845, 185, 127, 248, 142
-0.998451, 93, 209, 124, 224
-0.998451, 117, 145, 148, 160
-0.998451, 57, 151, 120, 166
-0.998453, 249, 139, 280, 154
-0.998454, 233, 117, 296, 132
-0.998455, 93, 201, 124, 216
-0.998456, 105, 207, 168, 222
-0.998458, 405, 135, 436, 150
-0.998459, 421, 129, 452, 144
-0.998459, 177, 193, 240, 208
-0.998461, 377, 133, 440, 148
-0.998462, 321, 45, 352, 60
-0.998463, 313, 163, 344, 178
-0.998463, 97, 135, 160, 150
-0.998464, 413, 221, 444, 236
-0.998464, 185, 177, 216, 192
-0.998464, 373, 75, 404, 90
-0.998465, 393, 35, 424, 50
-0.998465, 361, 129, 392, 144
-0.998465, 321, 155, 352, 170
-0.998466, 381, 215, 412, 230
-0.998466, 333, 235, 364, 250
-0.998468, 369, 37, 432, 52
-0.998468, 105, 121, 136, 136
-0.998468, 313, 103, 344, 118
-0.998469, 381, 39, 412, 54
-0.998469, 169, 183, 200, 198
-0.998469, 81, 177, 144, 192
-0.99847, 97, 155, 160, 170
-0.99847, 385, 75, 416, 90
-0.998471, 57, 145, 88, 160
-0.998471, 233, 141, 264, 156
-0.998472, 81, 183, 144, 198
-0.998473, 73, 123, 136, 138
-0.998473, 193, 187, 224, 202
-0.998474, 161, 151, 224, 166
-0.998474, 225, 129, 288, 144
-0.998475, 181, 201, 212, 216
-0.998475, 29, 121, 60, 136
-0.998475, 177, 151, 208, 166
-0.998477, 297, 155, 328, 170
-0.998477, 193, 141, 224, 156
-0.998477, 137, 199, 168, 214
-0.998478, 221, 189, 252, 204
-0.998478, 125, 139, 156, 154
-0.998478, 85, 147, 116, 162
-0.998481, 249, 129, 280, 144
-0.998482, 101, 133, 132, 148
-0.998483, 417, 131, 480, 146
-0.998484, 305, 233, 336, 248
-0.998485, 389, 69, 420, 84
-0.998486, 265, 217, 296, 232
-0.998486, 1, 281, 128, 312
-0.998488, 149, 195, 180, 210
-0.998488, 193, 139, 256, 154
-0.998489, 153, 157, 184, 172
-0.99849, 97, 199, 160, 214
-0.99849, 153, 203, 216, 218
-0.998493, 325, 147, 356, 162
-0.998494, 49, 123, 112, 138
-0.998496, 361, 81, 424, 96
-0.998497, 113, 171, 144, 186
-0.998497, 233, 123, 296, 138
-0.998497, 57, 145, 120, 160
-0.998498, 305, 153, 368, 168
-0.998498, 57, 133, 120, 148
-0.998498, 177, 187, 240, 202
-0.998499, 169, 123, 200, 138
-0.9985, 81, 193, 144, 208
-0.9985, 113, 149, 176, 164
-0.998503, 433, 131, 464, 146
-0.998503, 337, 231, 400, 246
-0.998507, 441, 225, 472, 240
-0.998507, 161, 127, 224, 142
-0.998508, 153, 193, 216, 208
-0.998509, 221, 141, 252, 156
-0.99851, 101, 139, 132, 154
-0.998511, 249, 113, 280, 128
-0.998512, 317, 235, 348, 250
-0.998512, 397, 233, 428, 248
-0.998513, 105, 181, 136, 196
-0.998515, 189, 133, 220, 148
-0.998515, 213, 213, 244, 228
-0.998515, 57, 139, 120, 154
-0.998515, 401, 223, 464, 238
-0.998515, 169, 175, 232, 190
-0.998516, 45, 113, 76, 128
-0.998516, 129, 165, 192, 180
-0.998516, 337, 33, 400, 48
-0.99852, 105, 171, 168, 186
-0.99852, 225, 139, 288, 154
-0.99852, 157, 205, 188, 220
-0.998524, 161, 165, 224, 180
-0.998525, 93, 115, 124, 130
-0.998529, 173, 165, 204, 180
-0.998531, 121, 197, 152, 212
-0.998531, 209, 191, 240, 206
-0.998532, 225, 113, 256, 128
-0.998532, 209, 115, 240, 130
-0.998533, 297, 147, 360, 162
-0.998535, 193, 145, 256, 160
-0.998536, 73, 117, 104, 132
-0.998537, 369, 31, 432, 46
-0.998538, 93, 181, 124, 196
-0.998538, 237, 125, 268, 140
-0.998539, 169, 203, 200, 218
-0.998539, 93, 171, 124, 186
-0.998539, 125, 191, 156, 206
-0.998539, 165, 155, 196, 170
-0.99854, 401, 137, 464, 152
-0.998541, 185, 209, 248, 224
-0.998542, 305, 103, 368, 118
-0.998542, 129, 203, 192, 218
-0.998542, 265, 109, 328, 124
-0.998544, 189, 151, 220, 166
-0.998544, 153, 159, 216, 174
-0.998545, 201, 193, 264, 208
-0.998545, 153, 209, 216, 224
-0.998545, 117, 203, 148, 218
-0.998545, 361, 65, 424, 80
-0.998546, 385, 217, 448, 232
-0.998546, 389, 23, 420, 38
-0.998546, 353, 87, 416, 102
-0.998547, 97, 127, 128, 142
-0.998547, 253, 217, 284, 232
-0.998548, 401, 219, 432, 234
-0.998548, 193, 115, 224, 130
-0.998549, 265, 223, 328, 238
-0.998549, 117, 133, 148, 148
-0.99855, 153, 187, 184, 202
-0.998551, 169, 115, 232, 130
-0.998552, 105, 207, 136, 222
-0.998553, 93, 195, 124, 210
-0.998553, 25, 1, 56, 256
-0.998554, 369, 25, 432, 40
-0.998556, 81, 233, 208, 264
-0.998556, 73, 199, 136, 214
-0.998557, 273, 117, 336, 132
-0.998557, 373, 235, 404, 250
-0.998558, 361, 75, 424, 90
-0.99856, 345, 95, 408, 110
-0.99856, 301, 161, 332, 176
-0.998561, 181, 119, 212, 134
-0.998561, 313, 145, 344, 160
-0.998562, 153, 137, 216, 152
-0.998563, 81, 129, 144, 144
-0.998563, 137, 145, 200, 160
-0.998565, 321, 55, 384, 70
-0.998566, 305, 203, 368, 218
-0.998567, 297, 159, 360, 174
-0.998567, 225, 191, 288, 206
-0.998569, 353, 131, 416, 146
-0.99857, 185, 127, 216, 142
-0.998572, 385, 131, 416, 146
-0.998572, 393, 125, 456, 140
-0.998573, 445, 133, 476, 148
-0.998573, 73, 205, 136, 220
-0.998574, 177, 159, 240, 174
-0.998575, 313, 225, 376, 240
-0.998576, 17, 131, 80, 146
-0.998577, 285, 221, 316, 236
-0.99858, 321, 147, 384, 162
-0.99858, 237, 131, 268, 146
-0.998581, 201, 215, 264, 230
-0.998582, 353, 213, 416, 228
-0.998583, 81, 211, 144, 226
-0.998583, 81, 171, 144, 186
-0.998583, 157, 177, 188, 192
-0.998584, 9, 125, 72, 140
-0.998585, 417, 233, 480, 248
-0.998585, 177, 201, 240, 216
-0.998585, 161, 77, 288, 108
-0.998586, 93, 121, 124, 136
-0.998587, 337, 77, 400, 92
-0.998588, 97, 41, 224, 72
-0.998589, 225, 211, 288, 226
-0.99859, 129, 159, 192, 174
-0.99859, 17, 137, 80, 152
-0.99859, 237, 215, 268, 230
-0.998592, 141, 145, 156, 272
-0.998592, 129, 129, 192, 144
-0.998593, 249, 131, 312, 146
-0.998593, 221, 135, 252, 150
-0.998594, 137, 193, 168, 208
-0.998595, 65, 289, 192, 320
-0.998596, 217, 111, 280, 126
-0.998597, 97, 117, 160, 132
-0.998597, 433, 227, 496, 242
-0.998597, 225, 223, 288, 238
-0.998597, 313, 41, 376, 56
-0.998598, 201, 135, 232, 150
-0.998599, 393, 237, 456, 252
-0.9986, 209, 123, 240, 138
-0.9986, 273, 37, 336, 52
-0.9986, 369, 57, 432, 72
-0.9986, 33, 149, 96, 164
-0.998601, 393, 229, 456, 244
-0.998601, 105, 113, 120, 240
-0.998601, 353, 231, 384, 246
-0.998602, 205, 143, 236, 158
-0.998603, 369, 43, 432, 58
-0.998604, 393, 77, 456, 92
-0.998604, 369, 125, 432, 140
-0.998604, 353, 225, 416, 240
-0.998605, 393, 29, 456, 44
-0.998606, 153, 187, 216, 202
-0.998607, 5, 49, 36, 176
-0.998607, 273, 159, 336, 174
-0.998607, 289, 233, 352, 248
-0.998609, 225, 85, 352, 116
-0.998609, 105, 187, 136, 202
-0.99861, 57, 173, 120, 188
-0.998611, 337, 41, 400, 56
-0.998611, 169, 193, 200, 208
-0.998611, 313, 165, 376, 180
-0.998611, 57, 191, 120, 206
-0.998612, 289, 189, 352, 204
-0.998613, 97, 151, 128, 166
-0.998617, 305, 225, 336, 240
-0.998618, 105, 193, 136, 208
-0.998623, 201, 129, 232, 144
-0.998624, 319, 145, 334, 272
-0.998629, 325, 227, 356, 242
-0.998638, 105, 201, 136, 216
-0.998644, 313, 145, 328, 272
-0.998646, 309, 153, 340, 168
-0.998648, 125, 183, 156, 198
-0.998649, 337, 229, 368, 244
-0.99865, 137, 187, 168, 202
-0.998658, 129, 129, 144, 256
-0.998659, 213, 129, 244, 144
-0.998662, 195, 129, 210, 256
-0.998662, 193, 265, 448, 328
-0.998662, 93, 187, 124, 202
-0.998664, 173, 173, 204, 188
-0.998671, 81, 249, 208, 280
-0.998671, 193, 121, 224, 136
-0.998674, 395, 1, 410, 128
-0.998676, 165, 129, 180, 256
-0.998685, 141, 181, 172, 196
-0.998686, 257, 297, 384, 328
-0.998698, 91, 113, 106, 240
-0.998711, 413, 1, 444, 256
-0.998715, 389, 17, 404, 144
-0.998716, 361, 161, 376, 288
-0.998719, 229, 119, 260, 134
-0.998721, 111, 161, 126, 288
-0.998724, 355, 161, 370, 288
-0.998738, 201, 113, 216, 240
-0.99874, 123, 129, 138, 256
-0.998747, 99, 129, 114, 256
-0.998769, 65, 265, 192, 296
-0.998769, 129, 301, 256, 332
-0.99877, 1, 241, 128, 272
-0.998771, 149, 129, 164, 256
-0.998782, 135, 145, 150, 272
-0.998788, 161, 29, 288, 60
-0.9988, 349, 193, 364, 320
-0.998814, 53, 177, 84, 304
-0.998822, 225, 17, 352, 48
-0.998825, 209, 113, 224, 240
-0.998826, 331, 177, 346, 304
-0.998829, 305, 301, 432, 332
-0.99884, 369, 193, 496, 224
-0.998844, 81, 97, 96, 224
-0.998846, 259, 129, 274, 256
-0.998847, 121, 177, 136, 304
-0.998867, 33, 229, 160, 260
-0.998885, 71, 97, 86, 224
-0.998886, 325, 129, 340, 256
-0.998887, 159, 145, 174, 272
-0.998891, 113, 53, 240, 84
-0.9989, 343, 177, 358, 304
-0.998913, 349, 145, 364, 272
-0.998917, 389, 65, 404, 192
-0.998919, 367, 193, 382, 320
-0.998932, 153, 177, 168, 304
-0.998934, 401, 1, 416, 128
-0.998937, 251, 129, 266, 256
-0.998944, 63, 97, 78, 224
-0.998958, 307, 177, 322, 304
-0.99896, 325, 177, 340, 304
-0.99896, 337, 289, 464, 320
-0.998969, 209, 53, 336, 84
-0.99897, 191, 81, 206, 208
-0.998973, 399, 49, 414, 176
-0.998978, 313, 97, 328, 224
-0.99899, 57, 97, 72, 224
-0.998991, 1, 1, 500, 64
-0.998992, 33, 37, 160, 68
-0.999001, 129, 177, 144, 304
-0.999002, 209, 265, 336, 296
-0.999002, 265, 129, 280, 256
-0.999003, 171, 145, 186, 272
-0.999011, 373, 193, 388, 320
-0.999012, 111, 113, 126, 240
-0.999014, 315, 209, 330, 333
-0.999014, 407, 49, 422, 176
-0.999014, 33, 217, 160, 248
-0.999015, 245, 129, 260, 256
-0.999025, 235, 129, 250, 256
-0.999027, 185, 113, 200, 240
-0.99903, 337, 177, 352, 304
-0.99903, 145, 17, 272, 48
-0.999065, 1, 265, 128, 296
-0.999068, 393, 113, 408, 240
-0.999072, 209, 241, 336, 272
-0.999076, 367, 145, 382, 272
-0.999078, 379, 33, 394, 160
-0.999087, 129, 289, 256, 320
-0.999089, 227, 113, 242, 240
-0.999091, 145, 273, 272, 304
-0.999107, 113, 261, 240, 292
-0.999108, 1, 77, 128, 108
-0.99911, 319, 97, 334, 224
-0.999112, 271, 129, 286, 256
-0.999114, 257, 245, 384, 276
-0.999116, 399, 113, 414, 240
-0.99912, 469, 1, 500, 256
-0.999123, 221, 97, 236, 224
-0.999123, 257, 257, 384, 288
-0.99913, 215, 129, 230, 256
-0.999132, 135, 193, 150, 320
-0.999132, 385, 161, 400, 288
-0.999142, 379, 161, 394, 288
-0.999143, 247, 65, 262, 192
-0.999156, 105, 177, 120, 304
-0.999157, 333, 49, 348, 176
-0.99916, 77, 209, 108, 333
-0.999163, 289, 1, 416, 32
-0.999168, 113, 93, 240, 124
-0.999171, 327, 49, 342, 176
-0.999171, 85, 145, 100, 272
-0.999174, 97, 81, 112, 208
-0.999174, 129, 241, 256, 272
-0.999183, 141, 193, 156, 320
-0.999183, 249, 209, 264, 333
-0.999188, 99, 177, 114, 304
-0.999196, 303, 97, 318, 224
-0.999196, 49, 77, 176, 108
-0.999198, 209, 285, 336, 316
-0.999199, 33, 301, 160, 332
-0.9992, 297, 177, 312, 304
-0.999202, 337, 97, 352, 224
-0.999203, 159, 193, 174, 320
-0.999208, 373, 145, 388, 272
-0.999208, 407, 129, 422, 256
-0.999209, 305, 249, 432, 280
-0.999213, 255, 81, 270, 208
-0.999215, 369, 65, 384, 192
-0.999218, 113, 209, 128, 333
-0.999219, 355, 209, 370, 333
-0.999224, 243, 209, 258, 333
-0.999224, 49, 81, 64, 208
-0.999226, 179, 113, 194, 240
-0.999227, 191, 177, 206, 304
-0.999233, 259, 209, 274, 333
-0.999236, 117, 81, 132, 208
-0.999236, 381, 81, 396, 208
-0.999237, 261, 81, 276, 208
-0.999241, 331, 129, 346, 256
-0.999243, 279, 209, 294, 333
-0.999246, 355, 81, 370, 208
-0.99925, 339, 17, 354, 144
-0.999252, 147, 177, 162, 304
-0.999253, 221, 145, 236, 272
-0.999254, 361, 209, 376, 333
-0.999255, 283, 129, 298, 256
-0.999256, 241, 81, 256, 208
-0.999266, 397, 193, 412, 320
-0.999269, 237, 177, 252, 304
-0.99927, 135, 97, 150, 224
-0.999272, 415, 97, 430, 224
-0.999276, 215, 81, 230, 208
-0.999278, 347, 97, 362, 224
-0.999281, 277, 145, 292, 272
-0.999287, 201, 161, 216, 288
-0.999292, 345, 17, 360, 144
-0.999293, 91, 65, 106, 192
-0.999293, 407, 1, 422, 128
-0.999293, 443, 193, 458, 320
-0.999295, 265, 209, 280, 333
-0.999296, 235, 65, 250, 192
-0.999302, 65, 49, 80, 176
-0.999305, 403, 193, 418, 320
-0.999307, 289, 177, 304, 304
-0.99931, 13, 1, 44, 256
-0.999312, 79, 145, 94, 272
-0.999315, 433, 193, 448, 320
-0.999316, 93, 161, 108, 288
-0.999317, 427, 193, 442, 320
-0.999319, 419, 193, 434, 320
-0.999324, 231, 209, 246, 333
-0.999335, 361, 113, 376, 240
-0.999335, 125, 81, 140, 208
-0.999335, 391, 193, 406, 320
-0.999337, 363, 65, 378, 192
-0.99934, 205, 65, 220, 192
-0.999341, 171, 81, 186, 208
-0.99951, 441, 49, 472, 176
-0.99952, 1, 257, 500, 320
-0.999651, 1, 1, 32, 256
-0.999651, 147, 197, 162, 212
-0.999651, 231, 117, 246, 132
-0.999652, 433, 129, 448, 144
-0.999653, 287, 221, 302, 236
-0.999654, 389, 31, 404, 46
-0.999654, 319, 233, 334, 248
-0.999656, 237, 133, 252, 148
-0.999657, 93, 195, 108, 210
-0.999657, 131, 199, 146, 214
-0.999657, 395, 133, 410, 148
-0.999658, 115, 173, 130, 188
-0.999659, 181, 125, 196, 140
-0.999659, 205, 149, 220, 164
-0.999659, 387, 79, 402, 94
-0.99966, 215, 151, 230, 166
-0.999661, 111, 151, 126, 166
-0.999661, 167, 157, 182, 172
-0.999662, 47, 113, 62, 128
-0.999662, 97, 173, 112, 188
-0.999662, 393, 69, 408, 84
-0.999663, 153, 195, 168, 210
-0.999663, 181, 203, 196, 218
-0.999663, 117, 205, 132, 220
-0.999663, 225, 123, 240, 138
-0.999666, 139, 139, 154, 154
-0.999666, 275, 217, 290, 232
-0.999666, 119, 131, 134, 146
-0.999667, 391, 23, 406, 38
-0.999667, 401, 21, 416, 36
-0.999668, 379, 129, 394, 144
-0.999669, 373, 129, 388, 144
-0.99967, 41, 121, 56, 136
-0.999673, 181, 119, 196, 134
-0.999674, 1, 1, 256, 64
-0.999676, 245, 133, 260, 148
-0.999677, 399, 217, 414, 232
-0.999679, 451, 225, 466, 240
-0.99968, 461, 135, 476, 150
-0.99968, 89, 119, 104, 134
-0.999681, 445, 131, 460, 146
-0.999681, 387, 131, 402, 146
-0.999683, 101, 151, 116, 166
-0.999683, 393, 63, 408, 78
-0.999684, 405, 65, 420, 80
-0.999684, 187, 117, 202, 132
-0.999685, 79, 149, 94, 164
-0.999685, 405, 217, 420, 232
-0.999687, 87, 153, 102, 168
-0.999688, 187, 173, 202, 188
-0.999688, 105, 205, 120, 220
-0.999688, 197, 115, 212, 130
-0.999688, 227, 213, 242, 228
-0.999689, 309, 109, 324, 124
-0.99969, 393, 75, 408, 90
-0.99969, 121, 199, 136, 214
-0.999691, 399, 77, 414, 92
-0.999691, 297, 219, 312, 234
-0.999691, 199, 151, 214, 166
-0.999691, 111, 123, 126, 138
-0.999692, 183, 163, 198, 178
-0.999693, 187, 123, 202, 138
-0.999693, 215, 139, 230, 154
-0.999694, 79, 115, 94, 130
-0.999697, 309, 159, 324, 174
-0.999697, 101, 121, 116, 136
-0.999698, 375, 233, 390, 248
-0.999699, 405, 71, 420, 86
-0.9997, 171, 167, 186, 182
-0.9997, 259, 217, 274, 232
-0.999702, 225, 191, 240, 206
-0.999702, 245, 121, 260, 136
-0.999703, 209, 119, 224, 134
-0.999704, 455, 133, 470, 148
-0.999709, 211, 131, 226, 146
-0.999709, 313, 225, 328, 240
-0.999709, 353, 231, 368, 246
-0.99971, 177, 165, 192, 180
-0.99971, 181, 173, 196, 188
-0.99971, 143, 189, 158, 204
-0.999711, 215, 189, 230, 204
-0.999712, 367, 231, 382, 246
-0.999712, 251, 133, 266, 148
-0.999714, 181, 193, 196, 208
-0.999718, 111, 199, 126, 214
-0.999719, 203, 119, 218, 134
-0.999719, 171, 203, 186, 218
-0.999721, 405, 77, 420, 92
-0.999721, 203, 133, 218, 148
-0.999721, 399, 65, 414, 80
-0.999727, 107, 191, 122, 206
-0.999728, 137, 195, 152, 210
-0.999729, 325, 147, 340, 162
-0.99973, 325, 153, 340, 168
-0.999731, 209, 157, 224, 172
-0.999732, 339, 229, 354, 244
-0.999732, 317, 155, 332, 170
-0.999734, 107, 185, 122, 200
-0.999736, 409, 233, 424, 248
-0.999737, 99, 197, 114, 212
-0.999741, 359, 233, 374, 248
-0.999741, 399, 71, 414, 86
-0.999742, 105, 199, 120, 214
-0.999746, 99, 203, 114, 218
-0.999746, 171, 197, 186, 212
-0.999746, 209, 125, 224, 140
-0.999747, 329, 227, 344, 242
-0.999747, 111, 207, 126, 222
-0.999748, 195, 129, 210, 144
-0.999749, 175, 173, 190, 188
-0.999749, 155, 187, 170, 202
-0.999754, 107, 117, 122, 132
-0.999754, 319, 143, 334, 158
-0.999755, 307, 153, 322, 168
-0.999757, 5, 129, 36, 256
-0.999759, 211, 145, 226, 160
-0.999761, 319, 227, 334, 242
-0.999762, 215, 157, 230, 172
-0.999763, 315, 161, 330, 176
-0.999764, 347, 229, 362, 244
-0.999765, 305, 223, 320, 238
-0.999787, 249, 127, 264, 142
-0.999792, 193, 123, 208, 138
-0.999796, 97, 187, 112, 202
-0.999797, 149, 189, 164, 204
-0.99981, 203, 125, 218, 140
-0.999813, 137, 189, 152, 204
-0.999822, 315, 149, 330, 164
-0.999827, 131, 185, 146, 200
-0.999829, 131, 193, 146, 208
-0.999842, 153, 179, 168, 194
-0.999846, 137, 183, 152, 198
-0.999848, 147, 181, 162, 196
-1.00014, 429, 1, 460, 256
-1.00027, 457, 1, 488, 256
-1.00042, 441, 1, 472, 256
