1879
-0.433137, 1, 1, 500, 333
-0.522018, 1, 65, 500, 320
-0.532229, 1, 1, 256, 333
-0.557803, 225, 1, 480, 333
-0.593288, 129, 1, 384, 333
-0.640076, 97, 65, 352, 320
-0.693352, 193, 65, 448, 320
-0.7134, 1, 33, 256, 288
-0.859864, 177, 65, 304, 320
-0.873738, 177, 1, 304, 333
-0.875846, 225, 1, 352, 333
-0.877116, 257, 65, 384, 320
-0.884787, 129, 65, 256, 320
-0.891268, 1, 177, 500, 304
-0.891648, 1, 1, 128, 333
-0.892004, 81, 1, 208, 333
-0.894554, 273, 1, 400, 333
-0.898836, 129, 1, 256, 333
-0.90196, 1, 65, 128, 320
-0.902904, 81, 65, 208, 320
-0.906213, 97, 129, 352, 256
-0.908788, 353, 65, 480, 320
-0.909664, 97, 209, 352, 333
-0.911736, 1, 129, 500, 256
-0.919183, 193, 193, 448, 320
-0.920649, 369, 1, 496, 333
-0.922864, 305, 65, 432, 320
-0.923521, 177, 129, 304, 256
-0.924518, 1, 193, 256, 320
-0.925501, 225, 177, 352, 304
-0.929548, 241, 113, 304, 240
-0.933816, 321, 1, 448, 333
-0.934035, 81, 161, 208, 288
-0.934041, 241, 193, 304, 320
-0.934293, 137, 193, 200, 320
-0.934479, 225, 145, 480, 272
-0.935891, 129, 129, 256, 256
-0.936667, 177, 177, 304, 304
-0.937896, 129, 193, 256, 320
-0.940479, 225, 81, 480, 208
-0.940603, 201, 129, 264, 256
-0.940979, 1, 145, 256, 272
-0.941138, 225, 113, 352, 240
-0.942032, 321, 161, 448, 288
-0.942422, 1, 81, 256, 208
-0.943215, 1, 1, 500, 128
-0.943381, 417, 193, 480, 320
-0.94392, 185, 193, 248, 320
-0.944216, 265, 161, 328, 288
-0.944347, 25, 161, 88, 288
-0.944489, 153, 129, 216, 256
-0.944605, 225, 121, 288, 184
-0.944694, 273, 209, 400, 333
-0.944825, 369, 193, 496, 320
-0.947157, 97, 81, 352, 208
-0.947514, 241, 145, 304, 208
-0.947643, 273, 161, 400, 288
-0.9481, 321, 209, 448, 333
-0.948487, 41, 209, 104, 333
-0.948663, 1, 65, 500, 192
-0.950032, 393, 209, 456, 333
-0.95005, 113, 193, 176, 320
-0.950202, 329, 209, 392, 333
-0.950622, 49, 209, 176, 333
-0.950872, 369, 193, 432, 320
-0.950967, 65, 177, 128, 304
-0.951634, 217, 209, 280, 333
-0.952253, 161, 209, 224, 333
-0.952344, 297, 193, 360, 320
-0.952379, 273, 113, 400, 240
-0.952546, 177, 217, 240, 280
-0.953645, 1, 177, 64, 304
-0.953873, 201, 225, 264, 288
-0.954337, 153, 217, 216, 280
-0.955376, 129, 145, 192, 272
-0.955412, 225, 217, 288, 280
-0.957589, 193, 137, 256, 200
-0.957697, 1, 161, 128, 288
-0.957776, 241, 65, 368, 192
-0.957879, 409, 217, 472, 280
-0.957989, 89, 177, 152, 304
-0.959185, 81, 241, 144, 304
-0.959478, 273, 185, 336, 248
-0.959538, 97, 33, 352, 160
-0.959542, 433, 145, 496, 272
-0.959682, 401, 145, 464, 272
-0.960256, 281, 113, 344, 240
-0.960434, 177, 129, 240, 256
-0.960591, 369, 113, 496, 240
-0.961193, 129, 201, 192, 264
-0.961323, 1, 209, 128, 333
-0.961546, 345, 217, 408, 280
-0.961602, 265, 209, 328, 333
-0.96167, 57, 225, 120, 288
-0.961866, 25, 241, 88, 304
-0.962308, 161, 249, 224, 312
-0.962337, 321, 161, 384, 288
-0.96262, 377, 233, 440, 296
-0.962644, 273, 233, 336, 296
-0.962684, 121, 177, 184, 240
-0.962923, 321, 225, 384, 288
-0.963223, 89, 177, 152, 240
-0.963773, 137, 241, 200, 304
-0.963933, 105, 217, 168, 280
-0.964166, 49, 113, 176, 240
-0.964192, 161, 81, 288, 208
-0.964338, 249, 201, 312, 264
-0.964901, 225, 65, 288, 192
-0.965092, 361, 145, 424, 272
-0.965108, 313, 249, 376, 312
-0.965152, 1, 97, 128, 224
-0.965312, 265, 137, 328, 200
-0.96539, 345, 249, 408, 312
-0.966186, 185, 81, 248, 208
-0.967236, 1, 209, 64, 272
-0.967282, 269, 129, 300, 256
-0.967371, 161, 153, 224, 216
-0.967721, 1, 129, 64, 256
-0.967829, 281, 161, 344, 224
-0.967869, 1, 185, 64, 248
-0.968014, 9, 105, 72, 168
-0.968047, 249, 169, 312, 232
-0.968135, 297, 225, 360, 288
-0.968253, 217, 145, 280, 208
-0.968327, 65, 265, 128, 328
-0.968394, 81, 217, 144, 280
-0.968978, 1, 33, 128, 160
-0.969118, 105, 113, 168, 240
-0.969337, 49, 201, 112, 264
-0.969724, 9, 81, 72, 144
-0.969734, 177, 193, 240, 256
-0.969767, 257, 65, 320, 192
-0.969837, 249, 113, 312, 176
-0.969928, 113, 241, 176, 304
-0.969986, 417, 193, 480, 256
-0.970024, 41, 265, 104, 328
-0.970089, 113, 81, 240, 208
-0.970364, 225, 65, 288, 320
-0.970621, 433, 233, 496, 296
-0.970718, 153, 177, 184, 304
-0.970997, 377, 209, 440, 272
-0.971109, 273, 193, 304, 320
-0.971186, 377, 161, 440, 224
-0.971189, 209, 225, 240, 288
-0.971263, 137, 145, 200, 208
-0.971275, 245, 97, 276, 224
-0.971334, 197, 233, 228, 296
-0.971396, 33, 177, 96, 240
-0.971397, 249, 65, 312, 320
-0.971414, 81, 129, 144, 256
-0.9715, 1, 33, 256, 160
-0.971507, 377, 185, 440, 248
-0.971578, 345, 193, 408, 256
-0.971586, 165, 193, 196, 320
-0.971782, 185, 225, 216, 288
-0.971905, 177, 217, 304, 280
-0.971906, 161, 129, 224, 192
-0.971931, 417, 153, 480, 216
-0.972082, 25, 217, 88, 280
-0.972134, 173, 217, 204, 280
-0.972244, 337, 113, 400, 240
-0.972309, 25, 81, 88, 208
-0.972388, 201, 201, 264, 264
-0.972723, 241, 257, 304, 320
-0.972731, 249, 209, 280, 333
-0.972781, 65, 177, 128, 240
-0.972823, 281, 65, 344, 192
-0.97283, 225, 225, 256, 288
-0.972852, 249, 233, 312, 296
-0.972904, 237, 161, 268, 288
-0.97293, 401, 249, 464, 312
-0.973103, 321, 185, 384, 248
-0.973112, 193, 249, 256, 312
-0.973115, 241, 129, 272, 192
-0.973141, 377, 257, 440, 320
-0.97323, 265, 129, 296, 192
-0.973245, 113, 153, 176, 216
-0.973348, 193, 33, 448, 160
-0.973638, 217, 169, 280, 232
-0.97386, 297, 185, 360, 248
-0.973922, 129, 217, 256, 280
-0.973956, 273, 209, 336, 272
-0.973968, 253, 145, 284, 272
-0.974101, 245, 217, 276, 280
-0.974176, 41, 81, 104, 144
-0.974373, 305, 153, 368, 216
-0.97458, 193, 137, 320, 200
-0.974594, 133, 177, 164, 304
-0.974697, 229, 129, 260, 192
-0.974699, 181, 209, 212, 333
-0.974756, 81, 217, 208, 280
-0.974889, 145, 145, 272, 208
-0.974895, 333, 225, 364, 288
-0.975227, 121, 177, 152, 240
-0.975378, 225, 217, 352, 280
-0.975394, 433, 257, 496, 320
-0.975409, 345, 137, 408, 200
-0.975489, 321, 113, 448, 240
-0.975512, 281, 257, 344, 320
-0.975534, 65, 65, 192, 192
-0.975542, 253, 113, 284, 176
-0.975692, 397, 193, 428, 320
-0.975812, 81, 185, 208, 248
-0.97599, 145, 177, 208, 240
-0.975995, 1, 81, 64, 208
-0.976002, 273, 113, 336, 176
-0.976048, 257, 89, 320, 152
-0.976159, 337, 233, 464, 296
-0.976225, 237, 209, 268, 333
-0.976353, 421, 193, 452, 320
-0.976437, 273, 169, 400, 232
-0.976544, 201, 65, 264, 320
-0.97656, 221, 209, 252, 333
-0.976633, 289, 161, 320, 288
-0.976648, 129, 97, 192, 224
-0.976652, 409, 217, 440, 280
-0.976687, 25, 65, 88, 320
-0.976744, 25, 153, 88, 216
-0.976778, 261, 193, 292, 320
-0.976801, 33, 105, 96, 168
-0.976917, 193, 113, 256, 176
-0.976992, 409, 193, 440, 320
-0.977029, 241, 137, 368, 200
-0.977255, 257, 209, 288, 272
-0.977393, 225, 129, 256, 256
-0.977583, 393, 129, 456, 192
-0.977712, 317, 249, 348, 312
-0.977757, 177, 65, 240, 320
-0.977816, 225, 193, 288, 256
-0.977901, 65, 145, 128, 208
-0.977994, 129, 65, 192, 320
-0.978012, 441, 217, 472, 280
-0.978013, 57, 17, 120, 144
-0.978024, 33, 217, 160, 280
-0.978084, 241, 241, 368, 304
-0.978186, 57, 129, 120, 256
-0.978225, 193, 161, 320, 224
-0.978265, 145, 241, 272, 304
-0.978298, 161, 209, 192, 272
-0.978344, 369, 65, 496, 192
-0.97841, 173, 129, 204, 256
-0.97841, 321, 225, 352, 288
-0.978449, 273, 65, 336, 320
-0.978464, 433, 129, 496, 192
-0.978526, 257, 97, 288, 224
-0.978633, 1, 161, 64, 224
-0.978688, 177, 193, 304, 256
-0.978689, 41, 57, 104, 120
-0.978757, 17, 129, 80, 192
-0.978764, 289, 177, 320, 240
-0.978848, 177, 1, 304, 128
-0.978868, 269, 201, 300, 264
-0.978893, 217, 249, 280, 312
-0.979093, 109, 201, 140, 264
-0.979191, 301, 193, 332, 320
-0.979215, 209, 201, 240, 264
-0.979297, 121, 193, 152, 320
-0.9793, 193, 177, 224, 304
-0.979322, 65, 65, 128, 192
-0.979384, 225, 97, 288, 160
-0.979391, 289, 225, 416, 288
-0.979405, 257, 193, 384, 256
-0.979504, 145, 121, 272, 184
-0.979532, 17, 1, 80, 128
-0.979535, 85, 225, 116, 288
-0.97954, 49, 1, 176, 128
-0.979586, 193, 113, 320, 176
-0.979611, 97, 161, 224, 224
-0.979613, 369, 97, 432, 224
-0.979674, 305, 113, 368, 240
-0.979765, 193, 241, 320, 304
-0.979769, 121, 217, 152, 280
-0.979772, 217, 137, 248, 200
-0.979772, 101, 177, 132, 240
-0.979786, 329, 161, 392, 224
-0.979806, 281, 65, 344, 128
-0.979934, 257, 1, 384, 128
-0.980002, 17, 193, 144, 256
-0.980019, 197, 209, 228, 272
-0.980126, 429, 241, 460, 304
-0.980171, 89, 121, 152, 184
-0.980282, 1, 233, 64, 296
-0.98031, 253, 137, 284, 200
-0.980528, 85, 249, 116, 312
-0.980545, 305, 273, 368, 333
-0.980565, 337, 201, 368, 264
-0.980621, 357, 225, 388, 288
-0.980646, 353, 169, 416, 232
-0.980707, 81, 1, 144, 128
-0.980714, 157, 233, 188, 296
-0.980737, 269, 153, 300, 216
-0.980766, 341, 177, 372, 304
-0.980784, 161, 81, 224, 208
-0.980967, 65, 241, 192, 304
-0.980975, 453, 233, 484, 296
-0.981009, 257, 241, 288, 304
-0.981017, 33, 153, 160, 216
-0.981122, 1, 57, 64, 120
-0.981174, 1, 33, 64, 288
-0.981255, 329, 177, 360, 304
-0.981321, 281, 1, 344, 128
-0.981374, 185, 129, 216, 256
-0.981389, 433, 97, 496, 224
-0.981441, 65, 89, 128, 152
-0.981612, 129, 273, 192, 333
-0.981669, 121, 241, 152, 304
-0.981684, 393, 217, 424, 280
-0.981684, 381, 241, 412, 304
-0.981688, 141, 233, 172, 296
-0.981818, 129, 121, 192, 184
-0.981844, 289, 257, 416, 320
-0.981871, 297, 121, 360, 184
-0.981878, 97, 121, 224, 184
-0.981916, 65, 233, 96, 296
-0.981923, 69, 177, 100, 304
-0.981961, 97, 1, 224, 128
-0.98209, 277, 241, 308, 304
-0.982097, 129, 193, 256, 256
-0.982119, 153, 129, 184, 256
-0.982131, 1, 265, 64, 328
-0.982153, 305, 225, 336, 288
-0.982188, 65, 257, 96, 320
-0.982227, 65, 9, 128, 72
-0.982227, 41, 217, 72, 280
-0.982253, 369, 137, 432, 200
-0.982348, 213, 129, 244, 256
-0.982392, 149, 177, 180, 240
-0.982479, 353, 161, 384, 288
-0.982524, 337, 209, 464, 272
-0.982686, 449, 209, 480, 333
-0.982708, 409, 241, 440, 304
-0.98271, 385, 209, 416, 333
-0.98274, 433, 177, 464, 304
-0.982741, 145, 169, 272, 232
-0.982742, 225, 1, 288, 333
-0.982759, 421, 217, 452, 280
-0.982847, 341, 257, 372, 320
-0.982859, 365, 249, 396, 312
-0.982945, 137, 209, 168, 272
-0.983005, 153, 65, 216, 320
-0.98301, 225, 1, 288, 128
-0.983017, 89, 153, 152, 216
-0.983031, 337, 257, 464, 320
-0.983031, 465, 233, 496, 296
-0.983043, 53, 225, 84, 288
-0.983052, 57, 113, 120, 176
-0.983058, 229, 201, 260, 264
-0.983248, 373, 177, 404, 304
-0.983294, 109, 225, 140, 288
-0.983312, 433, 193, 464, 256
-0.983327, 17, 249, 144, 312
-0.983335, 1, 201, 32, 264
-0.983369, 253, 161, 284, 224
-0.983371, 81, 185, 112, 248
-0.983378, 257, 17, 320, 144
-0.983431, 469, 257, 500, 320
-0.983474, 289, 65, 416, 192
-0.983507, 321, 65, 384, 320
-0.983648, 321, 129, 384, 192
-0.983668, 105, 193, 136, 320
-0.983678, 269, 81, 300, 208
-0.983705, 209, 1, 272, 64
-0.983742, 289, 113, 320, 240
-0.983754, 105, 1, 168, 128
-0.983812, 357, 185, 388, 248
-0.983922, 237, 153, 268, 216
-0.983955, 1, 121, 32, 184
-0.983998, 353, 273, 416, 333
-0.984044, 313, 193, 344, 256
-0.984051, 65, 33, 128, 96
-0.98409, 185, 1, 248, 128
-0.984144, 133, 177, 164, 240
-0.984264, 109, 153, 140, 216
-0.984272, 9, 161, 40, 288
-0.984361, 373, 193, 404, 256
-0.984371, 337, 185, 464, 248
-0.984507, 57, 33, 120, 288
-0.984559, 85, 177, 116, 304
-0.984583, 257, 113, 384, 176
-0.98462, 313, 209, 344, 333
-0.984624, 409, 145, 440, 272
-0.984637, 1, 153, 32, 216
-0.984655, 185, 201, 216, 264
-0.984679, 249, 1, 312, 333
-0.98474, 217, 273, 280, 333
-0.984793, 57, 209, 88, 333
-0.984838, 93, 201, 124, 264
-0.984941, 1, 113, 128, 176
-0.984946, 25, 177, 56, 304
-0.984979, 245, 241, 276, 304
-0.985089, 169, 241, 200, 304
-0.985133, 209, 177, 240, 304
-0.985136, 153, 1, 216, 64
-0.985146, 381, 169, 412, 232
-0.985151, 353, 209, 384, 333
-0.985158, 337, 137, 464, 200
-0.985173, 9, 33, 72, 96
-0.985189, 97, 65, 160, 320
-0.985232, 97, 225, 128, 288
-0.985297, 137, 129, 168, 256
-0.985305, 73, 209, 104, 272
-0.985309, 77, 273, 108, 333
-0.985317, 161, 105, 224, 168
-0.98533, 97, 97, 160, 160
-0.985342, 201, 89, 264, 152
-0.985347, 29, 217, 60, 280
-0.985355, 153, 273, 216, 333
-0.985432, 5, 81, 36, 208
-0.985464, 25, 97, 56, 224
-0.985468, 433, 65, 496, 320
-0.985538, 217, 249, 248, 312
-0.985549, 233, 81, 264, 208
-0.985597, 241, 265, 368, 328
-0.985627, 9, 209, 40, 333
-0.985627, 293, 249, 324, 312
-0.985722, 321, 161, 448, 224
-0.985726, 149, 201, 180, 264
-0.985781, 293, 209, 324, 272
-0.98584, 197, 129, 228, 256
-0.985853, 121, 153, 152, 216
-0.98589, 17, 193, 48, 256
-0.985893, 41, 73, 72, 136
-0.985928, 441, 265, 472, 328
-0.985937, 25, 9, 88, 72
-0.985947, 105, 49, 168, 176
-0.985956, 405, 193, 436, 256
-0.986019, 241, 105, 272, 168
-0.986027, 53, 65, 84, 128
-0.986036, 397, 241, 428, 304
-0.986062, 317, 161, 348, 288
-0.986176, 5, 177, 36, 240
-0.986178, 345, 233, 376, 296
-0.986208, 421, 265, 452, 328
-0.986218, 265, 41, 328, 104
-0.986262, 241, 89, 368, 152
-0.986304, 65, 65, 128, 128
-0.986402, 309, 169, 340, 232
-0.986425, 385, 193, 416, 256
-0.986427, 49, 193, 80, 256
-0.986451, 281, 153, 312, 216
-0.986491, 41, 169, 72, 232
-0.986518, 165, 153, 196, 216
-0.98652, 1, 225, 32, 288
-0.986586, 105, 1, 168, 64
-0.986601, 193, 265, 320, 328
-0.986603, 105, 249, 136, 312
-0.98662, 57, 161, 88, 288
-0.986623, 381, 217, 412, 280
-0.986629, 289, 137, 416, 200
-0.986632, 305, 249, 336, 312
-0.986632, 97, 265, 160, 328
-0.986651, 393, 97, 456, 224
-0.986665, 49, 1, 112, 333
-0.986679, 241, 17, 304, 80
-0.986688, 281, 201, 312, 264
-0.986709, 441, 241, 472, 304
-0.986723, 465, 177, 496, 304
-0.98674, 433, 97, 496, 160
-0.986785, 377, 65, 440, 320
-0.98679, 181, 129, 212, 192
-0.986891, 305, 65, 368, 192
-0.986958, 229, 257, 260, 320
-0.986988, 173, 193, 204, 256
-0.987086, 409, 273, 472, 333
-0.987103, 97, 1, 128, 64
-0.987111, 297, 65, 360, 320
-0.987123, 93, 129, 124, 256
-0.987123, 453, 257, 484, 320
-0.987141, 201, 1, 264, 333
-0.987176, 81, 1, 144, 333
-0.987195, 333, 177, 364, 240
-0.987229, 289, 129, 320, 192
-0.987246, 161, 1, 224, 333
-0.987267, 1, 81, 128, 144
-0.987269, 17, 217, 48, 280
-0.987328, 469, 97, 500, 224
-0.987355, 349, 153, 380, 216
-0.98736, 113, 113, 144, 240
-0.987457, 33, 97, 64, 160
-0.987513, 369, 225, 400, 288
-0.987572, 41, 193, 72, 320
-0.987585, 457, 177, 488, 240
-0.987589, 393, 169, 424, 232
-0.987637, 329, 257, 360, 320
-0.987681, 277, 177, 308, 240
-0.987687, 137, 257, 168, 320
-0.987702, 377, 145, 408, 208
-0.987718, 353, 257, 384, 320
-0.987749, 81, 1, 112, 128
-0.987774, 305, 17, 432, 144
-0.98778, 369, 161, 496, 224
-0.987782, 33, 193, 64, 256
-0.987825, 193, 273, 256, 333
-0.987896, 285, 209, 316, 333
-0.987897, 345, 65, 408, 320
-0.987942, 141, 145, 172, 208
-0.98797, 61, 169, 92, 232
-0.98798, 325, 201, 356, 264
-0.988008, 361, 113, 424, 176
-0.988025, 205, 137, 236, 200
-0.98807, 145, 97, 272, 160
-0.9881, 193, 161, 256, 224
-0.988116, 25, 1, 88, 333
-0.988125, 97, 73, 160, 136
-0.988147, 53, 249, 84, 312
-0.988197, 277, 265, 308, 328
-0.988208, 169, 225, 232, 256
-0.988236, 289, 1, 352, 333
-0.988255, 169, 129, 200, 192
-0.988262, 1, 41, 128, 104
-0.988278, 129, 1, 192, 333
-0.988345, 373, 129, 404, 256
-0.988355, 241, 153, 304, 184
-0.98841, 129, 25, 192, 88
-0.988413, 329, 129, 360, 256
-0.988426, 349, 113, 380, 240
-0.988503, 445, 161, 476, 288
-0.988552, 285, 65, 316, 192
-0.988586, 33, 33, 96, 96
-0.988685, 221, 81, 252, 208
-0.988782, 225, 133, 288, 164
-0.988793, 1, 1, 64, 333
-0.98886, 49, 113, 80, 240
-0.988867, 293, 1, 324, 128
-0.988889, 297, 97, 360, 160
-0.988897, 161, 217, 416, 280
-0.988952, 49, 129, 176, 192
-0.988999, 193, 229, 256, 260
-0.989, 257, 65, 320, 128
-0.989052, 281, 189, 344, 220
-0.989081, 385, 241, 448, 272
-0.989107, 393, 145, 424, 272
-0.989235, 281, 17, 344, 80
-0.989288, 33, 221, 96, 252
-0.98935, 217, 225, 280, 256
-0.989358, 57, 49, 88, 176
-0.989366, 153, 237, 216, 268
-0.989396, 129, 1, 192, 64
-0.989403, 457, 129, 488, 256
-0.989409, 421, 145, 452, 272
-0.989458, 37, 145, 68, 272
-0.9895, 253, 49, 284, 176
-0.989518, 409, 225, 472, 256
-0.989545, 81, 249, 144, 280
-0.989549, 185, 141, 248, 172
-0.9896, 97, 161, 352, 224
-0.989611, 257, 209, 320, 240
-0.989672, 193, 241, 256, 272
-0.989691, 1, 33, 32, 160
-0.989703, 57, 233, 120, 264
-0.989737, 129, 49, 192, 176
-0.989791, 241, 121, 304, 152
-0.989811, 121, 193, 184, 224
-0.989817, 81, 97, 208, 160
-0.989824, 65, 265, 192, 328
-0.989837, 65, 217, 320, 280
-0.989882, 37, 65, 68, 192
-0.98989, 217, 149, 280, 180
-0.9899, 385, 225, 448, 256
-0.989903, 105, 1, 168, 333
-0.989904, 305, 237, 368, 268
-0.989907, 409, 197, 472, 228
-0.989935, 433, 249, 496, 280
-0.989948, 89, 181, 152, 212
-0.989955, 81, 193, 144, 224
-0.989965, 409, 65, 472, 320
-0.989975, 309, 113, 340, 240
-0.990011, 281, 241, 344, 272
-0.990035, 73, 217, 136, 248
-0.990043, 89, 237, 152, 268
-0.990045, 137, 205, 200, 236
-0.990063, 369, 213, 432, 244
-0.990074, 129, 237, 192, 268
-0.990098, 1, 209, 64, 240
-0.990112, 249, 165, 312, 196
-0.990121, 361, 161, 424, 192
-0.990127, 393, 153, 456, 184
-0.99018, 249, 137, 312, 168
-0.990183, 1, 225, 64, 256
-0.990184, 321, 249, 384, 280
-0.990207, 41, 249, 104, 280
-0.990221, 345, 237, 408, 268
-0.990231, 33, 181, 96, 212
-0.990232, 313, 225, 376, 256
-0.990271, 201, 129, 264, 160
-0.990273, 217, 241, 280, 272
-0.990295, 281, 177, 344, 208
-0.990327, 113, 265, 240, 328
-0.990338, 97, 213, 160, 244
-0.990343, 225, 165, 288, 196
-0.990361, 401, 253, 464, 284
-0.990388, 445, 113, 476, 240
-0.990408, 417, 237, 480, 268
-0.990423, 257, 241, 320, 272
-0.990426, 193, 73, 320, 136
-0.990427, 337, 205, 400, 236
-0.990428, 1, 181, 64, 212
-0.990448, 409, 209, 472, 240
-0.990495, 305, 201, 368, 232
-0.990514, 57, 197, 120, 228
-0.990527, 345, 221, 408, 252
-0.99054, 33, 233, 96, 264
-0.990542, 41, 261, 104, 292
-0.990567, 145, 149, 208, 180
-0.990581, 265, 125, 328, 156
-0.990581, 145, 217, 208, 248
-0.990582, 153, 133, 216, 164
-0.990587, 329, 65, 392, 192
-0.990615, 345, 253, 408, 284
-0.990652, 337, 189, 400, 220
-0.990666, 65, 181, 128, 212
-0.990676, 121, 181, 184, 212
-0.990683, 433, 193, 496, 224
-0.990712, 97, 137, 352, 200
-0.990714, 281, 165, 344, 196
-0.990716, 233, 253, 296, 284
-0.990722, 281, 217, 344, 248
-0.990748, 185, 213, 248, 244
-0.990753, 65, 261, 128, 292
-0.990755, 265, 149, 328, 180
-0.990768, 125, 129, 156, 256
-0.990785, 257, 233, 500, 296
-0.990786, 433, 157, 496, 188
-0.990786, 185, 153, 248, 184
-0.990836, 257, 189, 320, 220
-0.990853, 289, 257, 352, 288
-0.99086, 433, 209, 496, 240
-0.990879, 81, 113, 112, 240
-0.990893, 121, 225, 184, 256
-0.990945, 385, 201, 448, 232
-0.990983, 161, 193, 416, 256
-0.990987, 69, 49, 100, 176
-0.991005, 97, 225, 160, 256
-0.991012, 313, 213, 376, 244
-0.991032, 321, 17, 384, 144
-0.991035, 49, 65, 176, 128
-0.99104, 305, 181, 368, 212
-0.991045, 241, 221, 304, 252
-0.99105, 217, 117, 280, 148
-0.991052, 409, 165, 472, 196
-0.991072, 337, 173, 400, 204
-0.991072, 121, 253, 184, 284
-0.991073, 161, 249, 224, 280
-0.991084, 377, 189, 440, 220
-0.991098, 257, 253, 320, 284
-0.991105, 281, 137, 344, 168
-0.991113, 17, 1, 48, 128
-0.991126, 433, 265, 496, 296
-0.991134, 361, 173, 424, 204
-0.991144, 9, 89, 72, 120
-0.991169, 105, 137, 168, 168
-0.99117, 305, 113, 432, 176
-0.991182, 257, 169, 500, 232
-0.991204, 57, 1, 88, 128
-0.991238, 65, 17, 192, 80
-0.991253, 121, 149, 184, 180
-0.991253, 309, 65, 340, 192
-0.991275, 385, 165, 448, 196
-0.991287, 273, 229, 336, 260
-0.99129, 1, 237, 64, 268
-0.991311, 417, 145, 480, 176
-0.991321, 17, 105, 80, 136
-0.991328, 121, 161, 184, 192
-0.991338, 177, 129, 240, 160
-0.991348, 361, 149, 424, 180
-0.99136, 233, 205, 296, 236
-0.991367, 321, 149, 384, 180
-0.991369, 145, 177, 208, 208
-0.991371, 33, 169, 96, 200
-0.99141, 33, 193, 96, 224
-0.99145, 1, 141, 64, 172
-0.991494, 33, 77, 96, 108
-0.991497, 305, 169, 368, 200
-0.991508, 189, 81, 220, 208
-0.99152, 17, 129, 80, 160
-0.991528, 49, 41, 176, 104
-0.991537, 17, 249, 80, 280
-0.991551, 9, 193, 72, 224
-0.991558, 337, 161, 400, 192
-0.991566, 433, 173, 496, 204
-0.991582, 369, 257, 432, 288
-0.991592, 409, 177, 472, 208
-0.991594, 369, 1, 432, 333
-0.991602, 33, 209, 96, 240
-0.991604, 257, 177, 320, 208
-0.991605, 65, 277, 128, 308
-0.991628, 177, 197, 240, 228
-0.991636, 41, 273, 104, 304
-0.991638, 433, 225, 496, 256
-0.991649, 1, 169, 64, 200
-0.991652, 289, 153, 352, 184
-0.991666, 153, 161, 216, 192
-0.991682, 401, 265, 464, 296
-0.99169, 193, 117, 256, 148
-0.991772, 1, 17, 128, 80
-0.991815, 141, 81, 172, 208
-0.991826, 205, 81, 236, 208
-0.991919, 205, 233, 236, 264
-0.992046, 97, 241, 352, 304
-0.992134, 237, 133, 268, 164
-0.992149, 249, 145, 280, 176
-0.992167, 237, 145, 268, 176
-0.992169, 369, 113, 496, 176
-0.99217, 225, 145, 480, 208
-0.992182, 225, 229, 256, 260
-0.992206, 269, 145, 300, 176
-0.992218, 313, 1, 376, 333
-0.992221, 361, 113, 392, 240
-0.992241, 101, 81, 132, 208
-0.992307, 189, 225, 220, 256
-0.992309, 93, 1, 124, 128
-0.992332, 313, 237, 344, 268
-0.992362, 413, 225, 444, 256
-0.992397, 273, 65, 400, 128
-0.992422, 221, 245, 252, 276
-0.992441, 225, 133, 256, 164
-0.99245, 249, 117, 280, 148
-0.992461, 17, 49, 48, 176
-0.992468, 257, 201, 500, 264
-0.992477, 97, 73, 224, 136
-0.99249, 249, 133, 280, 164
-0.992517, 285, 193, 316, 224
-0.992542, 261, 133, 292, 164
-0.992575, 413, 241, 444, 272
-0.992582, 257, 213, 288, 244
-0.992586, 73, 233, 104, 264
-0.992599, 329, 225, 360, 256
-0.992609, 161, 201, 192, 232
-0.99261, 373, 249, 404, 280
-0.992624, 345, 1, 408, 333
-0.992626, 113, 229, 144, 260
-0.992635, 269, 205, 300, 236
-0.992638, 73, 245, 104, 276
-0.992639, 141, 185, 172, 216
-0.992639, 85, 249, 116, 280
-0.992641, 169, 237, 200, 268
-0.992643, 325, 245, 356, 276
-0.992652, 121, 177, 152, 208
-0.992655, 289, 177, 320, 208
-0.992658, 429, 249, 460, 280
-0.992658, 237, 157, 268, 188
-0.992685, 337, 201, 368, 232
-0.992716, 253, 157, 284, 188
-0.992716, 105, 193, 136, 224
-0.992716, 401, 209, 432, 240
-0.992719, 237, 121, 268, 152
-0.99272, 73, 185, 104, 216
-0.992721, 341, 213, 372, 244
-0.992726, 309, 221, 340, 252
-0.992731, 301, 241, 332, 272
-0.992732, 93, 233, 124, 264
-0.992737, 305, 181, 336, 212
-0.992744, 149, 197, 180, 228
-0.992745, 193, 49, 320, 112
-0.992755, 257, 25, 384, 88
-0.992756, 357, 237, 388, 268
-0.992756, 393, 229, 424, 260
-0.99276, 125, 193, 156, 224
-0.992764, 121, 241, 152, 272
-0.992768, 245, 245, 276, 276
-0.99277, 425, 225, 456, 256
-0.992772, 173, 217, 204, 248
-0.992784, 225, 153, 256, 184
-0.992784, 45, 229, 76, 260
-0.992788, 53, 241, 84, 272
-0.992791, 57, 253, 88, 284
-0.992792, 193, 241, 224, 272
-0.992794, 289, 209, 320, 240
-0.992797, 5, 133, 36, 164
-0.992797, 205, 221, 236, 252
-0.992798, 269, 157, 300, 188
-0.992805, 421, 173, 452, 204
-0.992808, 289, 241, 320, 272
-0.992811, 109, 181, 140, 212
-0.992812, 33, 93, 64, 124
-0.992814, 65, 193, 320, 256
-0.992819, 25, 229, 56, 260
-0.99283, 397, 165, 428, 196
-0.992832, 381, 213, 412, 244
-0.992832, 157, 237, 188, 268
-0.992839, 213, 141, 244, 172
-0.992843, 425, 237, 456, 268
-0.992849, 141, 241, 172, 272
-0.99285, 69, 1, 100, 128
-0.992851, 145, 1, 272, 64
-0.992851, 245, 221, 276, 252
-0.992852, 413, 205, 444, 236
-0.992856, 401, 189, 432, 220
-0.992857, 453, 253, 484, 284
-0.99286, 277, 241, 308, 272
-0.992865, 153, 149, 184, 180
-0.992865, 441, 205, 472, 236
-0.99287, 345, 245, 376, 276
-0.992871, 289, 165, 320, 196
-0.992874, 389, 241, 420, 272
-0.992875, 445, 233, 476, 264
-0.992876, 73, 221, 104, 252
-0.992877, 137, 197, 168, 228
-0.992878, 209, 1, 336, 64
-0.992878, 297, 197, 328, 228
-0.992879, 357, 213, 388, 244
-0.992883, 417, 253, 448, 284
-0.992884, 317, 197, 348, 228
-0.992885, 297, 253, 328, 284
-0.992886, 329, 185, 360, 216
-0.992889, 385, 177, 416, 208
-0.992889, 357, 249, 388, 280
-0.992891, 381, 201, 412, 232
-0.992893, 465, 265, 496, 296
-0.992893, 301, 169, 332, 200
-0.992895, 105, 241, 136, 272
-0.992905, 181, 241, 212, 272
-0.992908, 93, 217, 124, 248
-0.99291, 13, 221, 44, 252
-0.992911, 341, 233, 372, 264
-0.992911, 73, 257, 104, 288
-0.992912, 457, 177, 488, 208
-0.992916, 313, 253, 344, 284
-0.992916, 233, 245, 264, 276
-0.992917, 173, 205, 204, 236
-0.992921, 1, 225, 32, 256
-0.992923, 85, 185, 116, 216
-0.992927, 69, 113, 100, 240
-0.99293, 273, 193, 304, 224
-0.992932, 153, 173, 184, 204
-0.992932, 121, 213, 152, 244
-0.992941, 65, 269, 96, 300
-0.992949, 429, 205, 460, 236
-0.992951, 265, 245, 296, 276
-0.992955, 125, 229, 156, 260
-0.992956, 465, 249, 496, 280
-0.992963, 109, 209, 140, 240
-0.992965, 441, 245, 472, 276
-0.992968, 349, 185, 380, 216
-0.992975, 429, 185, 460, 216
-0.992976, 317, 209, 348, 240
-0.992977, 333, 257, 364, 288
-0.992978, 445, 165, 476, 196
-0.992981, 121, 165, 152, 196
-0.992989, 385, 157, 416, 188
-0.99299, 369, 189, 400, 220
-0.992994, 57, 209, 88, 240
-0.993, 285, 265, 316, 296
-0.993002, 233, 261, 264, 292
-0.993003, 45, 1, 76, 128
-0.993007, 153, 185, 184, 216
-0.993008, 129, 1, 192, 128
-0.99301, 209, 245, 240, 276
-0.993119, 1, 145, 500, 208
-0.9932, 97, 113, 352, 176
-0.993217, 85, 49, 116, 176
-0.993278, 1, 225, 500, 288
-0.993379, 129, 49, 256, 112
-0.993476, 1, 121, 256, 184
-0.993493, 217, 1, 248, 128
-0.993501, 193, 121, 448, 184
-0.993512, 393, 1, 456, 333
-0.993527, 457, 81, 488, 208
-0.993534, 1, 185, 500, 248
-0.993623, 173, 81, 204, 208
-0.993628, 193, 137, 320, 168
-0.993637, 201, 225, 216, 288
-0.99369, 241, 145, 256, 208
-0.9937, 179, 209, 194, 272
-0.993702, 433, 129, 464, 256
-0.993703, 153, 33, 216, 160
-0.993722, 207, 225, 222, 288
-0.993779, 223, 225, 238, 288
-0.993781, 193, 221, 320, 252
-0.993807, 425, 1, 488, 333
-0.993933, 17, 273, 144, 333
-0.993941, 187, 217, 202, 280
-0.993944, 161, 81, 192, 208
-0.993986, 257, 1, 384, 64
-0.994012, 281, 17, 312, 144
-0.994037, 145, 153, 272, 184
-0.994083, 129, 229, 256, 260
-0.994087, 235, 225, 250, 288
-0.994105, 225, 149, 352, 180
-0.99413, 97, 209, 224, 240
-0.994146, 247, 145, 262, 208
-0.994156, 229, 225, 244, 288
-0.994166, 243, 121, 258, 184
-0.99418, 177, 125, 304, 156
-0.994264, 213, 233, 228, 296
-0.994264, 171, 201, 186, 264
-0.994293, 257, 257, 500, 320
-0.994347, 257, 241, 384, 272
-0.994365, 241, 205, 368, 236
-0.994437, 65, 245, 192, 276
-0.99444, 49, 185, 176, 216
-0.994488, 235, 129, 250, 192
-0.994492, 369, 237, 496, 268
-0.994498, 267, 209, 282, 272
-0.994522, 17, 233, 144, 264
-0.994527, 161, 197, 288, 228
-0.994532, 1, 153, 256, 216
-0.994563, 269, 121, 284, 184
-0.994566, 259, 217, 274, 280
-0.994581, 337, 225, 352, 288
-0.994587, 1, 89, 256, 152
-0.994613, 259, 145, 274, 208
-0.99462, 289, 253, 416, 284
-0.994634, 129, 241, 256, 272
-0.994635, 253, 129, 268, 192
-0.994652, 209, 241, 336, 272
-0.994658, 145, 141, 272, 172
-0.994671, 193, 165, 320, 196
-0.994683, 193, 225, 208, 288
-0.994699, 269, 33, 300, 160
-0.994708, 401, 49, 464, 176
-0.994714, 257, 181, 384, 212
-0.99472, 81, 257, 96, 320
-0.994754, 1, 241, 256, 304
-0.994756, 289, 89, 416, 152
-0.994773, 297, 65, 328, 192
-0.994776, 75, 233, 90, 296
-0.994777, 275, 129, 290, 192
-0.994793, 419, 217, 434, 280
-0.994799, 369, 89, 496, 152
-0.994818, 257, 193, 384, 224
-0.99484, 409, 233, 424, 296
-0.994871, 81, 197, 208, 228
-0.994904, 289, 225, 416, 256
-0.994915, 327, 241, 342, 304
-0.994923, 305, 17, 336, 144
-0.994923, 431, 217, 446, 280
-0.994975, 251, 217, 266, 280
-0.994976, 241, 217, 368, 248
-0.994995, 269, 233, 284, 296
-0.995009, 49, 213, 176, 244
-0.995011, 265, 145, 280, 208
-0.995052, 115, 217, 130, 280
-0.995088, 337, 213, 464, 244
-0.995098, 115, 177, 130, 240
-0.995098, 273, 161, 400, 192
-0.995147, 229, 129, 244, 192
-0.995164, 245, 225, 260, 288
-0.995166, 161, 209, 288, 240
-0.995265, 193, 25, 320, 88
-0.995286, 401, 97, 432, 224
-0.995286, 225, 121, 352, 152
-0.995298, 385, 97, 416, 224
-0.995356, 435, 241, 450, 304
-0.99536, 321, 241, 448, 272
-0.995366, 425, 49, 488, 176
-0.995385, 457, 225, 472, 288
-0.995385, 321, 49, 448, 112
-0.995405, 337, 253, 464, 284
-0.995406, 289, 213, 416, 244
-0.995414, 177, 233, 192, 296
-0.995414, 75, 257, 90, 320
-0.995439, 353, 225, 480, 256
-0.995476, 315, 233, 330, 296
-0.99548, 131, 161, 146, 224
-0.995491, 121, 65, 152, 192
-0.995508, 291, 161, 306, 224
-0.99551, 321, 65, 352, 192
-0.995533, 89, 241, 104, 304
-0.995542, 141, 177, 156, 240
-0.995547, 209, 181, 336, 212
-0.995552, 47, 225, 62, 288
-0.995555, 263, 121, 278, 184
-0.995555, 277, 201, 292, 264
-0.995558, 373, 225, 388, 288
-0.995569, 107, 177, 122, 240
-0.995604, 213, 209, 228, 272
-0.995609, 171, 233, 186, 296
-0.995614, 421, 97, 452, 224
-0.995636, 161, 89, 416, 152
-0.995641, 123, 177, 138, 240
-0.995644, 231, 201, 246, 264
-0.995673, 141, 241, 156, 304
-0.9957, 353, 217, 368, 280
-0.995714, 273, 149, 400, 180
-0.995737, 1, 221, 128, 252
-0.995738, 329, 217, 344, 280
-0.995746, 165, 201, 180, 264
-0.995748, 123, 225, 138, 288
-0.995761, 159, 241, 174, 304
-0.995763, 345, 201, 360, 264
-0.995764, 301, 177, 316, 240
-0.995776, 465, 233, 480, 296
-0.995781, 285, 145, 300, 208
-0.995802, 17, 197, 144, 228
-0.995815, 253, 65, 284, 320
-0.995818, 105, 225, 120, 288
-0.995818, 145, 165, 272, 196
-0.995846, 65, 233, 192, 264
-0.995846, 441, 241, 456, 304
-0.995855, 279, 241, 294, 304
-0.995858, 99, 217, 114, 280
-0.995872, 337, 165, 464, 196
-0.995875, 65, 157, 192, 188
-0.995878, 379, 217, 394, 280
-0.995888, 135, 225, 150, 288
-0.995905, 111, 241, 126, 304
-0.995929, 1, 41, 256, 104
-0.995955, 249, 105, 264, 168
-0.995957, 51, 201, 66, 264
-0.995995, 129, 177, 256, 208
-0.996009, 413, 201, 428, 264
-0.996011, 329, 193, 344, 256
-0.996017, 337, 257, 352, 320
-0.996025, 337, 197, 464, 228
-0.996032, 379, 193, 394, 256
-0.996037, 91, 217, 106, 280
-0.99605, 219, 201, 234, 264
-0.996054, 303, 241, 318, 304
-0.996058, 101, 177, 116, 240
-0.996061, 371, 185, 386, 248
-0.996063, 121, 201, 136, 264
-0.996071, 373, 249, 388, 312
-0.996072, 13, 121, 28, 184
-0.996075, 203, 249, 218, 312
-0.996093, 199, 201, 214, 264
-0.996103, 289, 185, 304, 248
-0.996114, 357, 241, 372, 304
-0.996119, 1, 185, 128, 216
-0.996119, 305, 177, 432, 208
-0.996127, 241, 253, 368, 284
-0.996129, 81, 225, 96, 288
-0.996131, 237, 33, 268, 160
-0.996141, 255, 241, 270, 304
-0.996148, 255, 105, 270, 168
-0.996161, 129, 185, 144, 248
-0.996163, 423, 241, 438, 304
-0.996165, 293, 241, 308, 304
-0.996165, 193, 253, 320, 284
-0.996167, 149, 201, 164, 264
-0.99617, 67, 225, 82, 288
-0.996182, 43, 201, 58, 264
-0.996182, 403, 225, 418, 288
-0.996184, 449, 201, 464, 264
-0.996185, 135, 257, 150, 320
-0.996192, 287, 241, 302, 304
-0.996193, 57, 241, 72, 304
-0.996195, 3, 201, 18, 264
-0.996197, 369, 177, 496, 208
-0.996198, 387, 233, 402, 296
-0.996199, 343, 257, 358, 320
-0.996215, 165, 161, 180, 224
-0.996223, 427, 265, 442, 328
-0.996228, 25, 185, 40, 248
-0.996231, 37, 177, 52, 240
-0.996232, 161, 113, 288, 144
-0.996232, 321, 249, 336, 312
-0.99625, 189, 1, 220, 128
-0.996263, 1, 121, 500, 184
-0.996264, 367, 225, 382, 288
-0.996267, 97, 129, 224, 160
-0.99627, 81, 173, 208, 204
-0.996298, 397, 241, 412, 304
-0.996308, 157, 177, 172, 240
-0.99631, 1, 169, 128, 200
-0.996315, 283, 193, 298, 256
-0.996331, 455, 257, 470, 320
-0.996337, 33, 17, 64, 144
-0.996345, 147, 241, 162, 304
-0.996347, 241, 133, 368, 164
-0.996353, 3, 129, 18, 192
-0.996364, 441, 217, 456, 280
-0.996371, 77, 17, 92, 80
-0.996381, 267, 257, 282, 320
-0.996383, 99, 241, 114, 304
-0.996392, 321, 225, 336, 288
-0.996393, 105, 249, 120, 312
-0.996396, 187, 241, 202, 304
-0.996401, 105, 201, 120, 264
-0.996402, 35, 209, 50, 272
-0.996405, 415, 241, 430, 304
-0.996407, 343, 225, 358, 288
-0.996411, 237, 65, 268, 320
-0.996423, 461, 201, 476, 264
-0.996429, 207, 201, 222, 264
-0.996431, 165, 233, 180, 296
-0.99648, 17, 149, 144, 180
-0.996544, 1, 265, 500, 328
-0.996587, 369, 129, 496, 160
-0.996616, 265, 65, 296, 320
-0.99663, 145, 1, 176, 128
-0.996639, 305, 25, 432, 88
-0.996668, 105, 33, 136, 160
-0.99668, 17, 245, 144, 276
-0.9967, 369, 265, 496, 296
-0.9967, 1, 209, 128, 240
-0.996733, 305, 1, 432, 64
-0.996753, 215, 233, 230, 264
-0.996753, 1, 105, 128, 136
-0.996786, 249, 145, 264, 176
-0.996788, 97, 141, 224, 172
-0.996796, 129, 25, 256, 88
-0.9968, 369, 1, 496, 64
-0.996804, 1, 121, 128, 152
-0.99683, 225, 229, 240, 260
-0.996838, 241, 145, 256, 176
-0.996843, 209, 193, 336, 224
-0.996861, 263, 145, 278, 176
-0.996862, 353, 153, 480, 184
-0.996892, 257, 265, 384, 296
-0.996908, 209, 265, 336, 296
-0.996917, 129, 265, 384, 328
-0.996934, 255, 153, 270, 184
-0.996952, 221, 65, 252, 320
-0.996957, 1, 17, 256, 80
-0.996968, 129, 253, 256, 284
-0.997013, 97, 57, 352, 120
-0.997019, 247, 133, 262, 164
-0.997041, 257, 97, 500, 160
-0.99708, 207, 229, 222, 260
-0.997089, 321, 141, 448, 172
-0.997106, 1, 81, 128, 112
-0.997131, 225, 73, 352, 104
-0.997156, 117, 1, 148, 128
-0.997156, 1, 133, 128, 164
-0.997173, 1, 93, 128, 124
-0.997174, 277, 65, 308, 320
-0.997182, 1, 65, 256, 128
-0.997215, 253, 133, 268, 164
-0.997228, 241, 229, 368, 260
-0.997242, 239, 133, 254, 164
-0.99726, 37, 65, 68, 320
-0.997275, 1, 65, 128, 96
-0.997284, 221, 241, 236, 272
-0.997289, 369, 17, 496, 144
-0.997326, 327, 241, 342, 272
-0.99733, 425, 221, 440, 252
-0.997332, 225, 109, 352, 140
-0.997339, 75, 249, 90, 280
-0.997341, 245, 121, 260, 152
-0.997358, 231, 225, 246, 256
-0.997364, 209, 65, 240, 320
-0.997374, 177, 233, 192, 264
-0.997381, 329, 225, 344, 256
-0.997383, 249, 157, 264, 188
-0.997395, 325, 1, 356, 128
-0.997408, 273, 121, 400, 152
-0.997416, 97, 233, 112, 264
-0.997426, 187, 217, 202, 248
-0.997431, 373, 81, 404, 208
-0.997436, 319, 233, 334, 264
-0.997455, 33, 257, 160, 288
-0.997456, 189, 65, 220, 320
-0.997469, 49, 137, 176, 168
-0.997475, 113, 117, 240, 148
-0.997494, 143, 185, 158, 216
-0.997509, 201, 229, 216, 260
-0.99751, 195, 225, 210, 256
-0.997521, 321, 265, 448, 296
-0.997524, 335, 245, 350, 276
-0.997524, 265, 213, 280, 244
-0.997549, 129, 1, 384, 64
-0.997551, 233, 133, 248, 164
-0.997556, 257, 73, 500, 136
-0.997557, 273, 285, 400, 316
-0.99758, 1, 265, 256, 328
-0.997597, 415, 225, 430, 256
-0.997598, 49, 69, 176, 100
-0.997618, 369, 41, 496, 104
-0.99762, 121, 229, 136, 260
-0.997622, 273, 133, 288, 164
-0.997625, 429, 237, 444, 268
-0.997639, 171, 233, 186, 264
-0.997641, 313, 245, 328, 276
-0.997646, 75, 237, 90, 268
-0.997647, 215, 221, 230, 252
-0.997658, 107, 237, 122, 268
-0.997664, 321, 245, 336, 276
-0.997673, 271, 209, 286, 240
-0.997675, 119, 241, 134, 272
-0.997676, 89, 237, 104, 268
-0.997678, 355, 241, 370, 272
-0.997679, 177, 65, 208, 320
-0.997683, 127, 161, 142, 192
-0.997687, 391, 249, 406, 280
-0.997703, 1, 13, 128, 44
-0.997706, 431, 225, 446, 256
-0.997708, 337, 225, 352, 256
-0.99771, 33, 281, 160, 312
-0.997729, 115, 229, 130, 260
-0.99773, 407, 225, 422, 256
-0.997737, 305, 233, 320, 264
-0.997741, 225, 281, 352, 312
-0.997747, 301, 245, 316, 276
-0.997749, 321, 221, 336, 252
-0.997751, 137, 181, 152, 212
-0.997754, 353, 277, 480, 308
-0.99776, 137, 237, 152, 268
-0.997767, 263, 133, 278, 164
-0.997767, 471, 125, 486, 156
-0.997779, 129, 249, 144, 280
-0.997781, 161, 65, 192, 320
-0.997785, 311, 233, 326, 264
-0.997786, 369, 113, 496, 144
-0.997792, 243, 157, 258, 188
-0.997793, 47, 229, 62, 260
-0.997793, 401, 169, 416, 200
-0.997794, 175, 205, 190, 236
-0.997795, 361, 49, 424, 176
-0.997796, 165, 197, 180, 228
-0.997798, 241, 21, 368, 52
-0.997802, 151, 185, 166, 216
-0.997806, 273, 73, 400, 104
-0.997811, 355, 213, 370, 244
-0.997811, 251, 117, 266, 148
-0.997815, 131, 181, 146, 212
-0.997825, 203, 241, 218, 272
-0.997828, 251, 221, 266, 252
-0.99783, 49, 85, 176, 116
-0.997834, 107, 193, 122, 224
-0.997837, 107, 213, 122, 244
-0.997839, 129, 233, 144, 264
-0.997843, 435, 249, 450, 280
-0.997853, 193, 241, 208, 272
-0.997858, 81, 229, 96, 260
-0.99786, 239, 225, 254, 256
-0.997864, 157, 197, 172, 228
-0.997868, 65, 21, 192, 52
-0.997871, 239, 121, 254, 152
-0.997871, 415, 237, 430, 268
-0.997873, 227, 245, 242, 276
-0.997875, 129, 193, 144, 224
-0.997884, 165, 237, 180, 268
-0.997887, 67, 233, 82, 264
-0.997893, 181, 209, 196, 240
-0.997897, 49, 97, 176, 128
-0.997898, 407, 169, 422, 200
-0.9979, 465, 137, 480, 168
-0.997902, 271, 233, 286, 264
-0.997909, 49, 125, 176, 156
-0.997909, 435, 237, 450, 268
-0.997912, 121, 213, 136, 244
-0.997913, 445, 245, 460, 276
-0.997915, 35, 229, 50, 260
-0.997916, 415, 205, 430, 236
-0.997919, 255, 165, 270, 196
-0.997929, 119, 181, 134, 212
-0.997932, 49, 65, 80, 320
-0.997933, 461, 233, 476, 264
-0.997934, 421, 205, 436, 236
-0.997941, 267, 245, 282, 276
-0.997944, 151, 237, 166, 268
-0.997945, 99, 245, 114, 276
-0.997955, 15, 133, 30, 164
-0.997959, 183, 229, 198, 260
-0.997961, 385, 249, 400, 280
-0.997961, 1, 45, 128, 76
-0.997962, 107, 225, 122, 256
-0.997965, 259, 217, 274, 248
-0.997968, 375, 249, 390, 280
-0.997974, 209, 297, 336, 328
-0.997978, 447, 197, 462, 228
-0.997979, 289, 193, 304, 224
-0.997987, 277, 201, 292, 232
-0.997991, 423, 241, 438, 272
-0.997996, 23, 209, 38, 240
-0.998001, 369, 141, 496, 172
-0.998003, 479, 117, 494, 148
-0.998004, 347, 197, 362, 228
-0.998005, 237, 157, 252, 188
-0.998009, 379, 213, 394, 244
-0.998011, 133, 161, 148, 192
-0.998025, 67, 197, 82, 228
-0.998025, 85, 261, 100, 292
-0.998026, 107, 181, 122, 212
-0.998026, 159, 245, 174, 276
-0.998026, 329, 253, 344, 284
-0.99803, 145, 173, 160, 204
-0.998031, 371, 201, 386, 232
-0.998031, 321, 289, 448, 320
-0.998034, 75, 261, 90, 292
-0.998035, 115, 213, 130, 244
-0.998036, 441, 65, 472, 320
-0.998036, 369, 213, 384, 244
-0.998039, 9, 65, 40, 320
-0.998044, 313, 217, 328, 248
-0.998049, 37, 213, 52, 244
-0.998049, 293, 65, 324, 320
-0.998051, 339, 257, 354, 288
-0.998051, 177, 149, 192, 180
-0.998051, 243, 261, 258, 292
-0.998052, 245, 225, 260, 256
-0.998054, 125, 65, 156, 320
-0.99806, 241, 85, 368, 116
-0.998112, 381, 65, 412, 320
-0.998138, 161, 25, 416, 88
-0.998163, 177, 101, 304, 132
-0.998181, 33, 297, 160, 328
-0.99819, 309, 65, 340, 320
-0.998198, 145, 65, 176, 320
-0.9982, 209, 1, 336, 32
-0.99821, 113, 293, 240, 324
-0.998214, 97, 105, 224, 136
-0.998231, 329, 65, 360, 320
-0.998246, 465, 65, 496, 320
-0.998253, 81, 257, 208, 288
-0.998264, 105, 65, 136, 320
-0.998273, 21, 65, 52, 320
-0.998281, 349, 65, 380, 320
-0.998296, 145, 17, 272, 48
-0.998298, 337, 301, 464, 332
-0.998311, 177, 65, 304, 96
-0.998333, 49, 53, 176, 84
-0.998343, 393, 65, 424, 320
-0.998352, 17, 25, 144, 56
-0.998352, 249, 129, 264, 256
-0.998376, 257, 1, 288, 128
-0.998383, 369, 65, 496, 128
-0.998405, 337, 81, 368, 208
-0.998411, 225, 155, 288, 170
-0.998413, 321, 121, 448, 152
-0.998432, 241, 167, 272, 182
-0.998432, 101, 219, 132, 234
-0.998433, 29, 99, 60, 114
-0.998434, 257, 241, 288, 256
-0.998434, 205, 223, 236, 238
-0.998434, 289, 243, 320, 258
-0.998435, 125, 195, 156, 210
-0.998435, 465, 127, 496, 142
-0.998436, 417, 245, 448, 260
-0.998436, 429, 259, 460, 274
-0.998437, 389, 179, 420, 194
-0.998437, 441, 209, 472, 224
-0.998438, 277, 245, 308, 260
-0.998438, 161, 239, 192, 254
-0.998438, 77, 229, 108, 244
-0.998439, 9, 237, 40, 252
-0.998439, 153, 201, 184, 216
-0.998439, 325, 223, 356, 238
-0.99844, 433, 219, 464, 234
-0.99844, 269, 163, 300, 178
-0.99844, 453, 267, 484, 282
-0.99844, 309, 229, 340, 244
-0.99844, 385, 185, 416, 200
-0.998441, 437, 195, 468, 210
-0.998441, 441, 247, 472, 262
-0.998441, 125, 185, 156, 200
-0.998441, 233, 225, 264, 240
-0.998443, 305, 177, 336, 192
-0.998444, 289, 193, 320, 208
-0.998444, 325, 249, 356, 264
-0.998444, 337, 247, 368, 262
-0.998444, 89, 237, 120, 252
-0.998445, 49, 109, 176, 140
-0.998446, 297, 215, 328, 230
-0.998446, 361, 237, 392, 252
-0.998446, 337, 241, 368, 256
-0.998446, 389, 231, 420, 246
-0.998447, 149, 211, 180, 226
-0.998447, 73, 187, 104, 202
-0.998447, 357, 215, 388, 230
-0.998449, 225, 245, 256, 260
-0.998449, 249, 119, 280, 134
-0.998449, 425, 227, 456, 242
-0.998451, 65, 33, 192, 64
-0.998452, 325, 235, 356, 250
-0.998452, 61, 221, 92, 236
-0.998454, 409, 233, 440, 248
-0.998454, 57, 231, 88, 246
-0.998454, 401, 227, 464, 242
-0.998454, 309, 213, 340, 228
-0.998456, 405, 173, 436, 188
-0.998456, 77, 241, 108, 256
-0.998456, 421, 201, 452, 216
-0.998457, 69, 253, 100, 268
-0.998457, 373, 241, 404, 256
-0.998459, 329, 199, 360, 214
-0.998461, 45, 235, 76, 250
-0.998461, 257, 255, 288, 270
-0.998462, 65, 249, 128, 264
-0.998463, 5, 137, 36, 152
-0.998463, 469, 265, 500, 280
-0.998465, 301, 237, 332, 252
-0.998465, 337, 207, 368, 222
-0.998465, 405, 243, 436, 258
-0.998465, 145, 239, 208, 254
-0.998467, 233, 129, 264, 144
-0.998468, 141, 197, 172, 212
-0.99847, 249, 165, 312, 180
-0.99847, 369, 191, 400, 206
-0.998471, 97, 249, 128, 264
-0.998472, 177, 229, 240, 244
-0.998474, 449, 203, 480, 218
-0.998474, 133, 247, 164, 262
-0.998474, 177, 249, 208, 264
-0.998475, 165, 203, 196, 218
-0.998475, 345, 257, 376, 272
-0.998475, 313, 221, 344, 236
-0.998476, 221, 135, 252, 150
-0.998476, 253, 165, 284, 180
-0.998476, 49, 229, 112, 244
-0.998476, 109, 195, 140, 210
-0.998477, 57, 253, 88, 268
-0.998477, 225, 129, 288, 144
-0.99848, 429, 251, 460, 266
-0.99848, 345, 201, 376, 216
-0.99848, 25, 229, 88, 244
-0.99848, 449, 233, 480, 248
-0.99848, 325, 255, 356, 270
-0.99848, 169, 245, 232, 260
-0.998482, 145, 243, 176, 258
-0.998483, 401, 167, 432, 182
-0.998483, 245, 249, 276, 264
-0.998483, 193, 25, 320, 56
-0.998483, 461, 215, 492, 230
-0.998483, 217, 137, 280, 152
-0.998485, 397, 237, 428, 252
-0.998485, 161, 289, 288, 320
-0.998487, 385, 241, 448, 256
-0.998488, 137, 249, 200, 264
-0.998488, 261, 215, 292, 230
-0.99849, 377, 233, 440, 248
-0.99849, 273, 205, 304, 220
-0.99849, 1, 1, 128, 32
-0.998492, 249, 149, 312, 164
-0.998493, 241, 143, 304, 158
-0.998493, 213, 245, 244, 260
-0.998493, 161, 209, 192, 224
-0.998495, 341, 225, 372, 240
-0.998495, 137, 209, 200, 224
-0.998496, 249, 221, 280, 236
-0.998498, 313, 243, 376, 258
-0.998498, 293, 183, 324, 198
-0.998499, 437, 231, 468, 246
-0.998499, 409, 203, 472, 218
-0.9985, 1, 227, 64, 242
-0.998501, 289, 243, 352, 258
-0.998501, 193, 231, 224, 246
-0.998504, 65, 259, 96, 274
-0.998504, 273, 197, 336, 212
-0.998504, 185, 239, 248, 254
-0.998505, 313, 249, 376, 264
-0.998505, 301, 245, 332, 260
-0.998506, 413, 227, 444, 242
-0.998506, 41, 225, 72, 240
-0.998508, 105, 243, 168, 258
-0.998508, 453, 131, 484, 146
-0.998509, 105, 237, 136, 252
-0.998509, 269, 149, 300, 164
-0.998512, 93, 231, 124, 246
-0.998514, 273, 249, 336, 264
-0.998514, 189, 243, 220, 258
-0.998514, 357, 257, 388, 272
-0.998514, 425, 239, 456, 254
-0.998516, 29, 231, 60, 246
-0.998516, 109, 229, 140, 244
-0.998518, 173, 237, 204, 252
-0.998518, 321, 257, 384, 272
-0.998519, 373, 253, 404, 268
-0.998519, 169, 215, 200, 230
-0.998519, 265, 157, 328, 172
-0.99852, 369, 65, 400, 320
-0.99852, 225, 149, 288, 164
-0.99852, 41, 181, 104, 196
-0.99852, 357, 247, 388, 262
-0.998521, 261, 139, 292, 154
-0.998524, 249, 149, 280, 164
-0.998526, 41, 187, 104, 202
-0.998526, 241, 143, 272, 158
-0.998526, 73, 229, 136, 244
-0.998526, 57, 241, 120, 256
-0.998527, 81, 243, 144, 258
-0.998527, 1, 269, 128, 300
-0.998528, 393, 243, 424, 258
-0.998528, 89, 243, 120, 258
-0.998529, 249, 137, 280, 152
-0.99853, 209, 227, 272, 242
-0.998531, 121, 195, 184, 210
-0.998531, 281, 185, 344, 200
-0.998533, 241, 137, 304, 152
-0.998534, 269, 157, 300, 172
-0.998535, 313, 239, 344, 254
-0.998535, 33, 223, 96, 238
-0.998535, 33, 235, 96, 250
-0.998535, 41, 253, 104, 268
-0.998535, 97, 231, 160, 246
-0.998536, 225, 123, 288, 138
-0.998536, 401, 235, 464, 250
-0.998537, 81, 195, 144, 210
-0.998537, 401, 169, 464, 184
-0.998537, 433, 201, 496, 216
-0.998538, 137, 215, 200, 230
-0.998538, 361, 223, 424, 238
-0.99854, 69, 247, 100, 262
-0.99854, 65, 187, 128, 202
-0.99854, 297, 255, 360, 270
-0.998541, 321, 227, 384, 242
-0.998541, 253, 155, 284, 170
-0.998543, 257, 213, 320, 228
-0.998543, 193, 245, 256, 260
-0.998545, 257, 243, 320, 258
-0.998545, 297, 221, 360, 236
-0.998545, 417, 257, 480, 272
-0.998546, 393, 209, 456, 224
-0.998547, 41, 259, 104, 274
-0.998547, 25, 247, 88, 262
-0.998547, 329, 229, 360, 244
-0.998547, 145, 221, 208, 236
-0.998548, 145, 73, 272, 136
-0.998548, 185, 253, 248, 268
-0.998549, 385, 255, 448, 270
-0.998551, 353, 249, 416, 264
-0.998552, 433, 195, 496, 210
-0.998552, 237, 149, 268, 164
-0.998553, 221, 229, 252, 244
-0.998553, 209, 251, 272, 266
-0.998553, 289, 177, 352, 192
-0.998554, 289, 237, 352, 252
-0.998554, 345, 189, 408, 204
-0.998554, 433, 209, 496, 224
-0.998554, 321, 217, 384, 232
-0.998555, 9, 187, 72, 202
-0.998555, 109, 243, 140, 258
-0.998555, 369, 205, 432, 220
-0.998555, 97, 249, 160, 264
-0.998555, 177, 223, 240, 238
-0.998555, 97, 277, 224, 308
-0.998555, 209, 143, 272, 158
-0.998556, 361, 241, 424, 256
-0.998557, 233, 135, 264, 150
-0.998558, 313, 233, 376, 248
-0.998558, 113, 237, 176, 252
-0.998559, 205, 231, 236, 246
-0.99856, 193, 133, 256, 148
-0.99856, 361, 163, 424, 178
-0.998561, 281, 191, 344, 206
-0.998561, 1, 213, 64, 228
-0.998562, 81, 251, 112, 266
-0.998562, 305, 183, 368, 198
-0.998563, 73, 223, 136, 238
-0.998563, 257, 255, 320, 270
-0.998563, 1, 181, 64, 196
-0.998563, 345, 255, 408, 270
-0.998564, 313, 205, 376, 220
-0.998564, 281, 215, 344, 230
-0.998564, 1, 233, 64, 248
-0.998565, 281, 261, 344, 276
-0.998566, 257, 297, 384, 328
-0.998566, 305, 191, 368, 206
-0.998567, 145, 151, 208, 166
-0.998567, 313, 245, 344, 260
-0.998567, 129, 203, 192, 218
-0.998567, 145, 233, 208, 248
-0.998567, 65, 259, 128, 274
-0.998567, 209, 237, 272, 252
-0.998568, 233, 221, 296, 236
-0.998568, 241, 205, 304, 220
-0.998569, 77, 65, 108, 320
-0.998571, 421, 65, 452, 320
-0.998571, 41, 265, 104, 280
-0.998572, 97, 1, 224, 32
-0.998572, 185, 155, 248, 170
-0.998574, 321, 211, 384, 226
-0.998574, 345, 209, 408, 224
-0.998575, 257, 131, 320, 146
-0.998576, 97, 217, 160, 232
-0.998576, 41, 91, 104, 106
-0.998576, 89, 237, 152, 252
-0.998576, 377, 171, 440, 186
-0.998579, 237, 157, 268, 172
-0.998579, 185, 143, 248, 158
-0.998579, 65, 235, 128, 250
-0.99858, 209, 239, 240, 254
-0.99858, 425, 231, 488, 246
-0.998582, 385, 183, 448, 198
-0.998582, 217, 245, 280, 260
-0.998582, 385, 247, 448, 262
-0.998583, 281, 163, 344, 178
-0.998583, 113, 175, 176, 190
-0.998583, 185, 225, 216, 240
-0.998583, 369, 217, 432, 232
-0.998583, 265, 207, 328, 222
-0.998584, 417, 247, 480, 262
-0.998584, 65, 265, 128, 280
-0.998584, 233, 253, 296, 268
-0.998585, 25, 175, 88, 190
-0.998586, 9, 101, 72, 116
-0.998586, 409, 241, 472, 256
-0.998586, 281, 231, 344, 246
-0.998586, 385, 159, 448, 174
-0.998587, 129, 255, 192, 270
-0.998587, 105, 187, 168, 202
-0.998587, 345, 235, 408, 250
-0.998595, 145, 5, 272, 36
-0.9986, 261, 161, 276, 288
-0.998612, 177, 277, 304, 308
-0.998623, 271, 193, 286, 320
-0.998626, 145, 265, 272, 296
-0.99865, 255, 97, 270, 224
-0.998654, 169, 161, 184, 288
-0.998659, 245, 177, 260, 304
-0.998667, 369, 101, 496, 132
-0.998667, 279, 193, 294, 320
-0.998678, 89, 65, 120, 320
-0.998694, 113, 37, 240, 68
-0.998694, 469, 49, 500, 176
-0.998704, 1, 97, 500, 160
-0.998707, 273, 129, 288, 256
-0.998709, 257, 41, 500, 104
-0.998712, 243, 129, 258, 256
-0.998719, 129, 61, 256, 92
-0.998725, 257, 209, 272, 333
-0.998729, 281, 145, 296, 272
-0.998729, 413, 193, 428, 320
-0.998748, 369, 289, 496, 320
-0.998749, 453, 65, 484, 320
-0.998755, 255, 145, 270, 272
-0.998761, 159, 161, 174, 288
-0.99877, 161, 301, 288, 332
-0.998785, 65, 65, 96, 320
-0.998793, 177, 193, 192, 320
-0.998801, 177, 77, 304, 108
-0.998802, 261, 97, 276, 224
-0.998807, 49, 9, 176, 40
-0.998807, 225, 61, 352, 92
-0.998834, 289, 21, 416, 52
-0.998843, 235, 209, 250, 333
-0.998866, 137, 161, 152, 288
-0.998866, 267, 145, 282, 272
-0.998871, 183, 209, 198, 333
-0.998877, 251, 209, 266, 333
-0.998882, 175, 145, 190, 272
-0.998886, 235, 129, 250, 256
-0.998902, 149, 161, 164, 288
-0.998906, 77, 193, 92, 320
-0.998926, 335, 209, 350, 333
-0.998929, 289, 161, 304, 288
-0.998929, 167, 209, 182, 333
-0.99894, 407, 209, 422, 333
-0.998944, 131, 161, 146, 288
-0.998945, 423, 177, 438, 304
-0.998953, 189, 193, 204, 320
-0.998957, 409, 65, 440, 320
-0.99896, 263, 209, 278, 333
-0.998985, 197, 209, 212, 333
-0.998985, 401, 209, 416, 333
-0.998997, 133, 33, 164, 160
-0.999038, 371, 177, 386, 304
-0.99905, 61, 161, 76, 288
-0.999057, 429, 177, 444, 304
-0.999062, 155, 209, 170, 333
-0.999081, 345, 193, 360, 320
-0.999091, 361, 65, 392, 192
-0.999102, 211, 209, 226, 333
-0.999103, 457, 209, 472, 333
-0.999104, 303, 193, 318, 320
-0.999107, 187, 129, 202, 256
-0.999108, 395, 209, 410, 333
-0.999111, 271, 81, 286, 208
-0.999111, 309, 209, 324, 333
-0.999115, 53, 177, 68, 304
-0.999117, 225, 209, 240, 333
-0.999119, 41, 177, 56, 304
-0.999119, 123, 193, 138, 320
-0.999126, 243, 81, 258, 208
-0.999134, 257, 17, 500, 80
-0.999143, 451, 177, 466, 304
-0.999143, 13, 193, 28, 320
-0.999143, 85, 209, 100, 333
-0.999144, 467, 209, 482, 333
-0.99915, 249, 81, 264, 208
-0.99915, 129, 209, 144, 333
-0.999155, 167, 113, 182, 240
-0.999156, 67, 193, 82, 320
-0.999159, 1, 9, 500, 72
-0.999161, 159, 113, 174, 240
-0.999163, 443, 209, 458, 333
-0.999169, 365, 209, 380, 333
-0.999169, 417, 145, 432, 272
-0.999171, 317, 177, 332, 304
-0.999186, 437, 177, 452, 304
-0.99919, 381, 177, 396, 304
-0.999191, 33, 177, 48, 304
-0.999192, 225, 129, 240, 256
-0.999192, 455, 129, 470, 256
-0.999193, 21, 145, 36, 272
-0.999193, 329, 193, 344, 320
-0.999195, 117, 193, 132, 320
-0.9992, 3, 113, 18, 240
-0.999204, 13, 97, 28, 224
-0.999204, 93, 177, 108, 304
-0.999207, 181, 129, 196, 256
-0.999208, 323, 209, 338, 333
-0.999215, 161, 209, 176, 333
-0.999215, 281, 97, 296, 224
-0.99922, 355, 161, 370, 288
-0.999225, 21, 97, 36, 224
-0.999229, 201, 1, 232, 128
-0.999233, 217, 209, 232, 333
-0.99924, 477, 177, 492, 304
-0.999245, 237, 81, 252, 208
-0.999248, 205, 177, 220, 304
-0.999248, 297, 209, 312, 333
-0.999252, 295, 145, 310, 272
-0.999254, 193, 129, 208, 256
-0.999256, 445, 161, 460, 288
-0.999256, 407, 161, 422, 288
-0.999258, 125, 145, 140, 272
-0.999258, 199, 161, 214, 288
-0.999259, 205, 129, 220, 256
-0.999269, 401, 161, 416, 288
-0.999271, 483, 193, 498, 320
-0.999276, 231, 81, 246, 208
-0.999277, 377, 129, 392, 256
-0.999278, 85, 161, 100, 288
-0.999278, 3, 193, 18, 320
-0.999278, 335, 161, 350, 288
-0.999279, 295, 97, 310, 224
-0.99928, 211, 129, 226, 256
-0.999282, 143, 145, 158, 272
-0.999287, 105, 209, 120, 333
-0.99929, 47, 177, 62, 304
-0.999291, 139, 209, 154, 333
-0.999293, 27, 177, 42, 304
-0.999293, 145, 209, 160, 333
-0.999298, 289, 209, 304, 333
-0.999298, 287, 113, 302, 240
-0.999305, 217, 129, 232, 256
-0.999311, 9, 145, 24, 272
-0.999312, 111, 193, 126, 320
-0.999321, 469, 161, 484, 288
-0.99934, 15, 145, 30, 272
-0.999347, 371, 129, 386, 256
-0.99935, 49, 113, 64, 240
-0.999354, 3, 65, 18, 192
-0.999356, 131, 113, 146, 240
-0.999359, 61, 65, 76, 192
-0.999362, 103, 161, 118, 288
-0.999362, 395, 161, 410, 288
-0.999363, 125, 97, 140, 224
-0.999363, 341, 145, 356, 272
-0.999366, 287, 49, 302, 176
-0.999366, 427, 129, 442, 256
-0.999371, 479, 113, 494, 240
-0.999374, 365, 129, 380, 256
-0.999375, 137, 113, 152, 240
-0.999621, 33, 233, 48, 248
-0.999621, 127, 195, 142, 210
-0.999621, 345, 225, 360, 240
-0.999622, 355, 245, 370, 260
-0.999622, 319, 185, 334, 200
-0.999622, 245, 127, 260, 142
-0.999623, 63, 69, 78, 84
-0.999623, 453, 135, 468, 150
-0.999623, 421, 223, 436, 238
-0.999624, 111, 223, 126, 238
-0.999624, 255, 247, 270, 262
-0.999624, 421, 241, 436, 256
-0.999624, 377, 253, 392, 268
-0.999624, 323, 253, 338, 268
-0.999624, 405, 167, 420, 182
-0.999624, 209, 243, 224, 258
-0.999625, 317, 235, 332, 250
-0.999625, 21, 103, 36, 118
-0.999626, 413, 241, 428, 256
-0.999626, 109, 247, 124, 262
-0.999626, 1, 201, 16, 216
-0.999626, 415, 167, 430, 182
-0.999626, 401, 183, 416, 198
-0.999627, 385, 241, 400, 256
-0.999628, 211, 237, 226, 252
-0.999628, 1, 195, 16, 210
-0.999629, 337, 255, 352, 270
-0.999629, 189, 219, 204, 234
-0.999629, 21, 113, 36, 128
-0.999631, 401, 227, 416, 242
-0.999631, 35, 211, 50, 226
-0.999632, 433, 227, 448, 242
-0.999632, 385, 253, 400, 268
-0.999632, 121, 243, 136, 258
-0.999632, 57, 229, 72, 244
-0.999633, 397, 241, 412, 256
-0.999634, 407, 237, 422, 252
-0.999636, 183, 217, 198, 232
-0.999636, 325, 223, 340, 238
-0.999636, 147, 189, 162, 204
-0.999636, 47, 89, 62, 104
-0.999636, 381, 187, 396, 202
-0.999638, 179, 241, 194, 256
-0.999638, 81, 231, 96, 246
-0.999638, 261, 255, 276, 270
-0.999638, 349, 253, 364, 268
-0.999639, 159, 199, 174, 214
-0.999639, 7, 197, 22, 212
-0.99964, 253, 157, 268, 172
-0.99964, 439, 235, 454, 250
-0.999641, 47, 231, 62, 246
-0.999641, 343, 259, 358, 274
-0.999642, 323, 243, 338, 258
-0.999642, 309, 215, 324, 230
-0.999642, 85, 255, 100, 270
-0.999642, 177, 209, 192, 224
-0.999642, 371, 217, 386, 232
-0.999643, 173, 203, 188, 218
-0.999643, 303, 249, 318, 264
-0.999644, 143, 195, 158, 210
-0.999645, 35, 99, 50, 114
-0.999645, 41, 231, 56, 246
-0.999646, 337, 219, 352, 234
-0.999647, 83, 245, 98, 260
-0.999649, 471, 123, 486, 138
-0.999649, 253, 147, 268, 162
-0.999649, 159, 207, 174, 222
-0.99965, 265, 215, 280, 230
-0.99965, 439, 249, 454, 264
-0.999651, 241, 145, 256, 160
-0.999652, 227, 229, 242, 244
-0.999652, 67, 253, 82, 268
-0.999652, 357, 257, 372, 272
-0.999653, 397, 235, 412, 250
-0.999654, 33, 227, 48, 242
-0.999655, 91, 251, 106, 266
-0.999656, 69, 245, 84, 260
-0.999657, 27, 107, 42, 122
-0.999657, 259, 219, 274, 234
-0.999658, 349, 199, 364, 214
-0.999659, 405, 173, 420, 188
-0.999661, 47, 237, 62, 252
-0.999661, 103, 227, 118, 242
-0.999661, 325, 235, 340, 250
-0.999664, 413, 227, 428, 242
-0.999664, 103, 233, 118, 248
-0.999665, 315, 247, 330, 262
-0.999667, 299, 243, 314, 258
-0.999667, 455, 229, 470, 244
-0.999669, 473, 131, 488, 146
-0.999671, 195, 243, 210, 258
-0.999671, 399, 177, 414, 192
-0.999676, 427, 223, 442, 238
-0.999676, 183, 229, 198, 244
-0.999678, 459, 131, 474, 146
-0.999678, 117, 229, 132, 244
-0.999679, 407, 243, 422, 258
-0.999679, 111, 241, 126, 256
-0.99968, 407, 231, 422, 246
-0.99968, 261, 139, 276, 154
-0.999681, 253, 137, 268, 152
-0.999682, 223, 239, 238, 254
-0.999683, 189, 225, 204, 240
-0.999685, 263, 149, 278, 164
-0.999685, 413, 235, 428, 250
-0.999687, 223, 245, 238, 260
-0.999689, 333, 225, 348, 240
-0.999689, 245, 157, 260, 172
-0.99969, 103, 247, 118, 262
-0.999693, 167, 201, 182, 216
-0.999694, 263, 155, 278, 170
-0.999697, 109, 235, 124, 250
-0.999697, 169, 239, 184, 254
-0.999698, 465, 127, 480, 142
-0.999698, 237, 131, 252, 146
-0.9997, 215, 229, 230, 244
-0.9997, 93, 243, 108, 258
-0.9997, 1, 57, 500, 120
-0.999703, 477, 125, 492, 140
-0.999708, 247, 143, 262, 158
-0.999714, 319, 191, 334, 206
-0.999716, 75, 257, 90, 272
-0.99972, 221, 229, 236, 244
-0.999723, 247, 135, 262, 150
-0.999725, 329, 245, 344, 260
-0.999726, 433, 81, 464, 208
-0.999726, 177, 233, 192, 248
-0.999728, 207, 229, 222, 244
-0.999731, 103, 241, 118, 256
-0.999731, 77, 251, 92, 266
-0.999737, 157, 17, 188, 144
-0.99978, 239, 151, 254, 166
-0.999795, 217, 235, 232, 250
-0.999918, 177, 33, 208, 160
-1.00034, 349, 49, 380, 176
-1.00142, 1, 33, 500, 96
-1.00145, 445, 65, 476, 192
-1.0016, 337, 17, 368, 144
-1.00195, 457, 33, 488, 160
-1.00213, 417, 1, 480, 128
-1.00252, 369, 1, 432, 128
-1.00288, 345, 1, 408, 128
-1.00454, 393, 1, 456, 128
