1921
-0.303033, 1, 1, 500, 340
-0.351464, 1, 97, 500, 340
-0.560138, 1, 1, 500, 256
-0.568705, 65, 97, 320, 340
-0.605157, 257, 1, 500, 340
-0.645957, 33, 1, 288, 340
-0.665071, 161, 97, 416, 340
-0.676879, 161, 1, 416, 340
-0.691766, 257, 65, 500, 320
-0.785827, 65, 1, 320, 256
-0.865982, 97, 97, 224, 340
-0.866884, 1, 193, 500, 320
-0.867429, 273, 97, 400, 340
-0.869326, 1, 97, 500, 224
-0.875661, 209, 97, 336, 340
-0.875784, 49, 65, 176, 320
-0.87784, 145, 65, 272, 320
-0.884403, 161, 1, 416, 256
-0.891979, 65, 1, 192, 340
-0.892608, 353, 97, 480, 340
-0.894346, 177, 1, 304, 340
-0.894363, 353, 1, 480, 340
-0.896714, 129, 1, 256, 340
-0.898531, 1, 49, 500, 176
-0.903231, 305, 1, 432, 340
-0.906856, 1, 33, 128, 288
-0.907687, 1, 145, 500, 272
-0.908279, 33, 193, 288, 320
-0.909112, 257, 193, 500, 320
-0.910118, 161, 97, 416, 224
-0.915192, 161, 209, 416, 336
-0.915244, 17, 1, 144, 340
-0.917341, 97, 1, 224, 256
-0.922003, 225, 1, 352, 340
-0.923905, 33, 145, 288, 272
-0.923957, 257, 209, 384, 336
-0.924043, 257, 113, 500, 240
-0.92586, 145, 97, 208, 224
-0.926559, 129, 161, 256, 288
-0.928585, 185, 161, 248, 288
-0.92998, 257, 65, 500, 192
-0.930927, 129, 161, 384, 288
-0.93134, 97, 113, 224, 240
-0.932772, 153, 145, 216, 272
-0.933052, 129, 161, 192, 288
-0.93478, 169, 97, 232, 224
-0.934812, 1, 49, 256, 176
-0.935646, 97, 49, 352, 176
-0.936002, 33, 97, 288, 224
-0.936742, 81, 193, 208, 320
-0.937057, 433, 161, 496, 288
-0.937783, 209, 209, 336, 336
-0.937957, 337, 161, 464, 288
-0.938324, 313, 209, 376, 336
-0.940183, 265, 209, 328, 336
-0.940809, 193, 1, 320, 256
-0.941525, 369, 113, 496, 240
-0.941765, 121, 113, 184, 240
-0.943068, 289, 209, 352, 336
-0.944138, 129, 49, 256, 176
-0.944387, 401, 113, 464, 240
-0.944461, 201, 209, 264, 336
-0.945476, 249, 233, 312, 296
-0.945771, 161, 97, 288, 224
-0.945836, 273, 97, 400, 224
-0.946059, 145, 209, 272, 336
-0.94622, 353, 193, 416, 320
-0.946521, 241, 1, 368, 256
-0.947589, 169, 241, 232, 304
-0.947754, 169, 169, 232, 232
-0.947956, 89, 145, 152, 272
-0.948546, 369, 65, 496, 192
-0.948838, 433, 113, 496, 240
-0.948844, 97, 193, 160, 320
-0.949372, 49, 145, 176, 272
-0.949484, 161, 209, 224, 336
-0.949509, 145, 49, 208, 176
-0.949645, 193, 97, 256, 224
-0.949728, 241, 209, 304, 336
-0.950213, 169, 137, 232, 200
-0.95073, 129, 177, 192, 240
-0.951312, 289, 161, 416, 288
-0.951436, 369, 209, 496, 336
-0.951466, 33, 193, 160, 320
-0.951656, 329, 233, 392, 296
-0.95179, 209, 249, 272, 312
-0.952039, 145, 145, 208, 208
-0.952069, 321, 65, 448, 192
-0.9521, 81, 49, 208, 176
-0.953427, 145, 113, 208, 176
-0.953858, 425, 65, 488, 192
-0.954123, 377, 161, 440, 288
-0.954177, 57, 209, 120, 336
-0.954201, 113, 145, 176, 208
-0.95476, 337, 65, 400, 192
-0.954814, 209, 81, 336, 208
-0.955177, 321, 113, 448, 240
-0.955682, 65, 145, 128, 272
-0.955754, 369, 1, 496, 256
-0.956085, 169, 49, 232, 176
-0.95626, 121, 65, 184, 192
-0.956498, 49, 97, 176, 224
-0.95657, 305, 249, 368, 312
-0.956748, 329, 113, 392, 240
-0.956841, 145, 201, 208, 264
-0.957144, 129, 209, 192, 336
-0.957189, 353, 113, 416, 240
-0.957641, 409, 161, 472, 288
-0.95777, 281, 249, 344, 312
-0.957805, 273, 217, 336, 280
-0.958094, 377, 113, 440, 240
-0.958149, 305, 209, 432, 336
-0.958482, 169, 113, 232, 176
-0.95853, 313, 65, 376, 192
-0.95946, 433, 161, 496, 224
-0.959743, 81, 137, 144, 200
-0.959813, 33, 49, 160, 176
-0.959829, 177, 161, 304, 288
-0.959948, 377, 65, 440, 192
-0.960114, 193, 209, 256, 272
-0.960205, 113, 121, 176, 184
-0.960734, 417, 193, 480, 256
-0.961061, 97, 97, 160, 224
-0.961357, 105, 169, 168, 232
-0.961481, 241, 193, 304, 256
-0.961571, 393, 145, 456, 208
-0.961642, 89, 201, 152, 264
-0.961829, 433, 137, 496, 200
-0.961978, 289, 1, 416, 256
-0.962119, 249, 257, 312, 320
-0.962185, 289, 65, 352, 192
-0.962391, 1, 97, 128, 224
-0.962399, 193, 169, 256, 232
-0.962512, 201, 49, 264, 176
-0.962765, 337, 257, 400, 320
-0.96277, 377, 225, 440, 288
-0.962906, 377, 201, 440, 264
-0.963075, 297, 209, 360, 272
-0.963123, 145, 233, 208, 296
-0.963155, 289, 97, 352, 160
-0.963438, 401, 65, 464, 192
-0.963446, 1, 1, 500, 128
-0.963639, 217, 97, 280, 224
-0.964054, 273, 49, 400, 176
-0.964116, 353, 113, 416, 176
-0.964162, 425, 105, 488, 168
-0.964301, 361, 137, 424, 200
-0.964306, 225, 225, 288, 288
-0.964392, 249, 65, 312, 192
-0.964621, 249, 73, 312, 136
-0.964705, 145, 153, 176, 216
-0.964876, 393, 113, 456, 176
-0.964979, 289, 209, 416, 272
-0.965102, 177, 137, 208, 200
-0.965108, 353, 209, 416, 272
-0.965257, 321, 113, 384, 176
-0.965262, 173, 97, 204, 224
-0.965594, 225, 65, 288, 128
-0.96564, 265, 97, 328, 160
-0.96585, 289, 73, 352, 136
-0.965875, 57, 225, 120, 288
-0.966045, 197, 145, 228, 208
-0.966415, 329, 161, 392, 288
-0.966478, 57, 49, 120, 176
-0.966574, 185, 265, 248, 328
-0.966716, 97, 49, 160, 176
-0.967275, 193, 105, 256, 168
-0.967283, 181, 233, 212, 296
-0.967555, 73, 97, 136, 224
-0.967622, 97, 233, 160, 296
-0.967693, 189, 161, 220, 288
-0.968049, 225, 129, 352, 256
-0.968403, 153, 145, 184, 272
-0.968511, 321, 201, 384, 264
-0.968561, 361, 161, 424, 224
-0.968586, 193, 137, 256, 200
-0.968825, 193, 249, 320, 312
-0.968855, 225, 49, 288, 176
-0.968946, 401, 209, 464, 336
-0.968982, 81, 161, 144, 224
-0.969104, 145, 97, 176, 224
-0.969108, 65, 201, 128, 264
-0.969662, 305, 161, 368, 288
-0.969903, 193, 97, 256, 340
-0.969962, 257, 249, 384, 312
-0.970021, 197, 97, 228, 224
-0.970044, 97, 113, 224, 176
-0.970099, 213, 249, 244, 312
-0.970114, 121, 241, 184, 304
-0.970117, 337, 177, 400, 240
-0.97014, 385, 177, 448, 240
-0.970268, 169, 209, 232, 272
-0.970355, 297, 113, 360, 240
-0.970401, 189, 177, 220, 240
-0.970469, 113, 241, 240, 304
-0.970616, 129, 137, 256, 200
-0.97073, 165, 145, 196, 272
-0.970779, 381, 113, 412, 240
-0.970836, 153, 97, 216, 340
-0.97084, 125, 145, 156, 208
-0.970929, 273, 193, 336, 256
-0.970935, 33, 49, 96, 176
-0.971006, 185, 97, 216, 224
-0.971153, 105, 137, 136, 200
-0.971167, 57, 145, 120, 208
-0.971239, 121, 209, 184, 272
-0.971344, 201, 177, 232, 304
-0.971378, 313, 73, 376, 136
-0.971446, 289, 97, 352, 340
-0.971517, 93, 161, 124, 288
-0.971541, 217, 97, 280, 340
-0.971609, 369, 161, 400, 288
-0.97163, 265, 225, 296, 288
-0.971643, 409, 169, 472, 232
-0.971666, 65, 153, 192, 216
-0.971764, 453, 97, 484, 224
-0.971774, 425, 81, 488, 144
-0.971781, 125, 145, 156, 272
-0.971817, 225, 89, 288, 152
-0.971828, 177, 145, 208, 272
-0.971847, 173, 113, 204, 176
-0.971949, 193, 65, 256, 128
-0.972032, 365, 225, 396, 288
-0.972089, 145, 113, 176, 176
-0.972108, 465, 137, 496, 200
-0.972179, 173, 177, 204, 240
-0.972257, 193, 17, 448, 144
-0.972448, 161, 265, 224, 328
-0.972504, 129, 177, 256, 240
-0.972651, 209, 137, 240, 200
-0.972657, 241, 161, 304, 288
-0.972702, 353, 233, 416, 296
-0.972777, 157, 97, 188, 224
-0.972794, 217, 273, 280, 336
-0.972901, 105, 65, 168, 320
-0.973026, 353, 177, 480, 240
-0.973122, 441, 177, 472, 304
-0.973249, 345, 241, 376, 304
-0.973307, 161, 145, 192, 208
-0.973517, 201, 169, 232, 232
-0.973538, 125, 121, 156, 184
-0.973561, 285, 233, 316, 296
-0.973597, 453, 145, 484, 272
-0.973615, 185, 113, 216, 176
-0.973639, 385, 161, 416, 288
-0.973654, 161, 113, 192, 176
-0.973679, 201, 249, 232, 312
-0.973689, 313, 273, 376, 336
-0.97371, 177, 97, 304, 160
-0.973736, 129, 65, 192, 320
-0.973742, 41, 145, 104, 272
-0.9739, 329, 209, 360, 336
-0.973969, 141, 177, 172, 240
-0.974012, 369, 105, 496, 168
-0.974199, 457, 105, 488, 168
-0.974236, 297, 209, 328, 336
-0.974329, 357, 209, 388, 336
-0.974339, 89, 113, 152, 176
-0.974421, 449, 161, 480, 224
-0.974425, 217, 161, 248, 288
-0.974448, 161, 73, 224, 136
-0.974491, 217, 193, 280, 256
-0.97452, 313, 209, 344, 336
-0.974713, 157, 177, 188, 240
-0.974757, 253, 241, 284, 304
-0.974847, 193, 33, 320, 160
-0.974857, 229, 209, 260, 336
-0.974917, 209, 97, 240, 224
-0.974936, 1, 49, 64, 176
-0.974996, 433, 217, 496, 280
-0.975022, 337, 209, 464, 272
-0.975046, 141, 145, 172, 272
-0.975109, 425, 209, 488, 336
-0.975175, 1, 145, 128, 272
-0.975392, 193, 225, 320, 288
-0.975441, 109, 169, 140, 232
-0.975451, 337, 233, 464, 296
-0.97547, 33, 209, 96, 336
-0.975604, 329, 97, 392, 340
-0.975924, 145, 193, 176, 320
-0.975982, 353, 137, 480, 200
-0.976015, 353, 81, 416, 144
-0.976015, 57, 177, 120, 240
-0.97605, 81, 225, 112, 288
-0.976084, 173, 193, 204, 320
-0.976115, 225, 249, 256, 312
-0.976118, 393, 137, 424, 200
-0.976187, 209, 145, 272, 272
-0.976316, 281, 209, 312, 336
-0.976375, 385, 81, 448, 144
-0.976392, 281, 161, 344, 288
-0.9764, 129, 177, 160, 240
-0.976526, 337, 137, 400, 200
-0.976592, 369, 193, 400, 256
-0.976666, 269, 249, 300, 312
-0.976709, 89, 161, 120, 224
-0.976717, 81, 65, 144, 320
-0.976881, 241, 249, 272, 312
-0.976889, 109, 161, 140, 288
-0.976928, 409, 217, 472, 280
-0.976941, 161, 193, 192, 320
-0.976953, 289, 177, 416, 240
-0.97696, 309, 241, 340, 304
-0.977067, 345, 209, 376, 336
-0.977127, 369, 113, 400, 240
-0.97731, 181, 209, 212, 272
-0.977316, 241, 73, 368, 136
-0.977334, 241, 209, 368, 272
-0.977361, 165, 201, 196, 264
-0.977406, 133, 97, 164, 224
-0.977446, 433, 65, 496, 320
-0.977476, 321, 249, 352, 312
-0.977535, 257, 97, 320, 340
-0.977563, 401, 113, 432, 176
-0.977576, 449, 137, 480, 200
-0.977636, 65, 233, 192, 296
-0.977645, 437, 177, 468, 240
-0.977859, 469, 161, 500, 288
-0.977873, 297, 185, 360, 248
-0.977874, 393, 65, 456, 320
-0.977888, 385, 161, 416, 224
-0.977889, 81, 161, 112, 288
-0.977919, 137, 65, 200, 128
-0.977934, 433, 97, 464, 224
-0.977939, 49, 201, 176, 264
-0.97798, 157, 49, 188, 176
-0.978123, 113, 89, 176, 152
-0.978148, 269, 209, 300, 336
-0.978213, 205, 105, 236, 168
-0.97824, 69, 153, 100, 216
-0.978259, 177, 201, 304, 264
-0.978271, 109, 113, 140, 240
-0.978279, 465, 113, 496, 240
-0.9783, 25, 97, 88, 224
-0.978363, 273, 273, 336, 336
-0.978468, 381, 217, 412, 280
-0.978477, 97, 209, 128, 272
-0.978483, 333, 249, 364, 312
-0.978697, 129, 265, 256, 328
-0.978733, 349, 201, 380, 264
-0.978887, 297, 241, 328, 304
-0.978888, 361, 257, 424, 320
-0.978892, 193, 201, 224, 264
-0.978953, 381, 113, 412, 176
-0.979015, 413, 201, 444, 264
-0.979084, 361, 97, 424, 340
-0.979112, 305, 113, 432, 176
-0.979137, 321, 81, 448, 144
-0.979141, 161, 65, 288, 128
-0.979212, 377, 209, 440, 336
-0.979216, 185, 209, 216, 336
-0.979235, 97, 209, 224, 272
-0.979253, 81, 177, 208, 240
-0.979351, 137, 89, 200, 152
-0.97947, 133, 193, 164, 320
-0.979492, 153, 209, 184, 272
-0.979498, 349, 129, 380, 256
-0.979593, 33, 1, 288, 128
-0.979601, 65, 113, 128, 176
-0.979671, 189, 49, 220, 176
-0.979782, 465, 161, 496, 224
-0.979791, 137, 273, 200, 336
-0.979793, 65, 161, 96, 288
-0.979842, 245, 217, 276, 280
-0.979854, 57, 65, 120, 320
-0.979865, 373, 65, 404, 192
-0.979916, 285, 201, 316, 264
-0.979918, 93, 185, 124, 248
-0.979957, 217, 161, 280, 224
-0.979975, 365, 249, 396, 312
-0.979999, 469, 105, 500, 168
-0.980068, 425, 201, 456, 264
-0.980169, 317, 73, 348, 136
-0.980187, 113, 113, 144, 176
-0.980188, 49, 129, 176, 192
-0.980251, 89, 137, 120, 200
-0.980258, 213, 169, 244, 232
-0.980319, 85, 209, 116, 336
-0.980331, 33, 193, 96, 256
-0.980426, 265, 193, 296, 256
-0.980576, 1, 225, 128, 288
-0.980629, 381, 137, 412, 200
-0.980697, 221, 97, 252, 224
-0.980714, 289, 73, 320, 136
-0.980884, 209, 177, 336, 240
-0.98093, 33, 177, 160, 240
-0.981006, 81, 65, 144, 128
-0.981102, 177, 273, 304, 336
-0.981184, 121, 97, 152, 224
-0.9812, 309, 105, 340, 168
-0.98124, 317, 81, 348, 208
-0.981257, 121, 193, 152, 320
-0.981272, 397, 129, 428, 256
-0.98137, 353, 65, 384, 192
-0.981427, 301, 73, 332, 136
-0.981478, 337, 17, 464, 144
-0.981632, 437, 153, 468, 216
-0.981659, 241, 65, 272, 128
-0.981771, 225, 97, 352, 160
-0.981786, 97, 233, 128, 296
-0.981831, 33, 217, 96, 280
-0.981833, 385, 193, 416, 256
-0.981942, 217, 137, 280, 200
-0.982084, 113, 65, 176, 128
-0.982153, 153, 241, 184, 304
-0.982296, 333, 97, 364, 224
-0.982434, 81, 65, 208, 128
-0.982544, 333, 113, 364, 176
-0.98258, 261, 73, 292, 136
-0.982622, 133, 49, 164, 176
-0.982734, 217, 65, 248, 128
-0.982785, 401, 65, 432, 192
-0.982794, 117, 201, 148, 264
-0.982799, 325, 201, 356, 264
-0.982821, 109, 209, 140, 336
-0.982823, 233, 225, 264, 288
-0.982881, 133, 201, 164, 264
-0.982904, 105, 265, 168, 328
-0.98291, 33, 145, 96, 208
-0.982935, 77, 177, 108, 240
-0.98294, 177, 49, 208, 176
-0.982955, 213, 49, 244, 176
-0.982977, 425, 177, 456, 240
-0.983015, 65, 249, 128, 312
-0.983041, 461, 185, 492, 248
-0.983059, 57, 57, 120, 120
-0.983061, 381, 209, 412, 336
-0.983066, 49, 97, 112, 224
-0.983098, 257, 193, 288, 320
-0.983222, 97, 113, 128, 240
-0.983294, 221, 105, 252, 168
-0.983311, 1, 97, 64, 224
-0.983376, 337, 201, 368, 264
-0.983502, 109, 233, 140, 296
-0.983534, 369, 81, 496, 144
-0.983559, 277, 73, 308, 136
-0.983563, 305, 137, 432, 200
-0.983569, 73, 209, 104, 336
-0.98357, 313, 201, 344, 264
-0.983638, 221, 193, 252, 256
-0.983676, 145, 49, 176, 176
-0.983769, 25, 65, 88, 320
-0.983823, 301, 265, 332, 328
-0.983827, 465, 65, 496, 192
-0.983841, 429, 161, 460, 288
-0.983878, 369, 113, 400, 176
-0.983895, 305, 257, 432, 320
-0.984026, 225, 273, 352, 336
-0.984043, 77, 113, 108, 240
-0.984101, 405, 137, 436, 200
-0.984254, 285, 257, 316, 320
-0.984316, 229, 65, 260, 128
-0.984338, 273, 161, 336, 224
-0.984384, 273, 113, 336, 240
-0.984389, 333, 225, 364, 288
-0.984394, 365, 169, 396, 232
-0.984441, 421, 97, 452, 224
-0.984465, 189, 73, 220, 136
-0.984534, 97, 89, 224, 152
-0.984548, 65, 201, 96, 264
-0.984567, 349, 113, 380, 176
-0.984651, 297, 201, 328, 264
-0.984652, 101, 113, 132, 176
-0.984653, 249, 193, 280, 256
-0.984746, 217, 209, 248, 336
-0.98479, 9, 57, 72, 120
-0.984825, 233, 97, 264, 224
-0.984857, 469, 81, 500, 144
-0.984869, 221, 137, 252, 200
-0.98489, 385, 65, 416, 192
-0.984932, 177, 1, 240, 256
-0.984978, 297, 49, 328, 176
-0.984991, 433, 105, 464, 168
-0.984997, 281, 17, 344, 144
-0.985017, 177, 153, 304, 216
-0.985055, 441, 201, 472, 264
-0.985076, 237, 97, 268, 160
-0.985241, 205, 201, 236, 264
-0.985259, 241, 209, 272, 336
-0.98541, 293, 97, 324, 160
-0.985415, 17, 249, 144, 312
-0.985417, 9, 193, 72, 320
-0.98542, 225, 49, 256, 176
-0.98543, 337, 49, 368, 176
-0.985536, 209, 273, 240, 336
-0.985611, 153, 1, 216, 256
-0.98564, 97, 209, 128, 336
-0.985653, 413, 113, 444, 176
-0.985758, 33, 241, 96, 304
-0.985857, 77, 201, 108, 264
-0.985907, 185, 1, 248, 128
-0.985965, 297, 121, 360, 184
-0.986036, 385, 241, 416, 304
-0.986069, 177, 1, 240, 340
-0.986091, 353, 265, 384, 328
-0.986172, 445, 81, 476, 144
-0.986175, 61, 225, 92, 288
-0.986178, 329, 73, 360, 136
-0.986214, 133, 233, 164, 296
-0.986218, 33, 57, 96, 120
-0.986268, 65, 49, 96, 176
-0.986317, 321, 97, 352, 160
-0.986328, 193, 129, 320, 192
-0.986368, 109, 49, 140, 176
-0.986495, 245, 49, 276, 176
-0.98664, 417, 137, 448, 200
-0.986717, 297, 97, 328, 224
-0.986765, 85, 249, 116, 312
-0.986795, 201, 49, 232, 176
-0.986802, 445, 105, 476, 168
-0.986852, 205, 73, 236, 136
-0.986878, 273, 49, 304, 176
-0.98692, 409, 177, 440, 240
-0.986951, 33, 57, 160, 120
-0.986983, 441, 49, 472, 176
-0.986995, 425, 81, 456, 144
-0.987138, 145, 1, 272, 128
-0.987157, 249, 17, 312, 144
-0.987159, 309, 177, 340, 240
-0.987178, 17, 153, 144, 216
-0.987243, 413, 161, 444, 288
-0.987283, 17, 145, 80, 272
-0.987381, 33, 105, 160, 168
-0.987482, 257, 49, 288, 176
-0.987507, 49, 1, 176, 128
-0.987685, 145, 1, 208, 340
-0.987745, 81, 49, 112, 176
-0.987753, 329, 161, 360, 288
-0.987813, 425, 209, 456, 336
-0.987927, 285, 49, 316, 176
-0.98793, 317, 161, 348, 288
-0.987954, 369, 209, 400, 336
-0.988021, 129, 181, 192, 212
-0.98815, 225, 261, 288, 292
-0.988163, 9, 249, 72, 312
-0.988241, 129, 153, 192, 184
-0.988254, 225, 1, 288, 256
-0.98831, 321, 17, 384, 144
-0.988437, 53, 193, 84, 320
-0.988504, 433, 1, 496, 340
-0.988541, 169, 245, 232, 276
-0.988569, 169, 173, 232, 204
-0.988608, 93, 49, 124, 176
-0.988695, 193, 257, 256, 288
-0.988698, 65, 257, 192, 320
-0.98892, 145, 169, 208, 200
-0.988971, 193, 241, 448, 304
-0.989003, 33, 113, 96, 176
-0.989033, 353, 257, 480, 320
-0.989104, 453, 209, 484, 336
-0.989137, 201, 1, 264, 340
-0.989159, 409, 113, 440, 240
-0.98919, 201, 269, 264, 300
-0.989291, 169, 145, 232, 176
-0.989301, 145, 141, 208, 172
-0.989325, 337, 261, 400, 292
-0.989349, 1, 33, 64, 288
-0.989374, 81, 1, 144, 340
-0.98938, 401, 177, 432, 304
-0.98941, 169, 261, 232, 292
-0.989446, 1, 49, 32, 176
-0.989471, 53, 49, 84, 176
-0.989497, 313, 161, 376, 224
-0.989501, 169, 161, 232, 192
-0.989504, 113, 193, 176, 224
-0.989523, 153, 189, 216, 220
-0.98956, 273, 217, 336, 248
-0.989582, 217, 113, 280, 176
-0.9896, 297, 217, 360, 248
-0.989622, 409, 1, 472, 340
-0.989623, 121, 17, 184, 144
-0.989652, 1, 201, 128, 264
-0.989663, 229, 161, 260, 288
-0.989666, 209, 281, 272, 312
-0.989669, 433, 201, 496, 232
-0.989694, 41, 1, 104, 340
-0.989753, 1, 201, 500, 264
-0.989761, 429, 49, 460, 176
-0.989809, 361, 221, 424, 252
-0.989819, 105, 181, 168, 212
-0.989832, 329, 201, 392, 232
-0.989833, 281, 261, 344, 292
-0.989834, 97, 241, 352, 304
-0.989864, 73, 153, 136, 184
-0.989897, 177, 189, 240, 220
-0.989923, 241, 225, 304, 256
-0.989941, 1, 145, 500, 208
-0.989963, 257, 281, 320, 312
-0.989995, 433, 145, 496, 176
-0.990009, 425, 241, 488, 304
-0.990067, 65, 201, 320, 264
-0.990068, 337, 249, 400, 280
-0.990084, 433, 189, 496, 220
-0.990113, 145, 201, 208, 232
-0.990135, 145, 117, 208, 148
-0.990178, 121, 49, 152, 176
-0.990185, 241, 249, 304, 280
-0.990187, 305, 117, 368, 148
-0.990211, 57, 233, 120, 264
-0.990236, 305, 261, 368, 292
-0.990255, 193, 169, 256, 200
-0.99028, 393, 237, 456, 268
-0.990304, 321, 217, 384, 248
-0.990308, 169, 273, 232, 304
-0.990308, 409, 141, 472, 172
-0.99034, 37, 49, 68, 176
-0.990407, 185, 201, 248, 232
-0.990436, 89, 141, 152, 172
-0.990451, 17, 1, 80, 340
-0.990466, 289, 101, 352, 132
-0.9905, 33, 177, 288, 240
-0.990527, 433, 161, 496, 192
-0.99053, 13, 49, 44, 176
-0.990531, 89, 241, 152, 272
-0.990533, 377, 201, 440, 232
-0.990547, 129, 105, 384, 168
-0.990548, 469, 209, 500, 336
-0.990589, 105, 161, 168, 192
-0.990591, 393, 153, 456, 184
-0.990625, 417, 213, 480, 244
-0.990631, 113, 125, 176, 156
-0.990651, 385, 225, 448, 256
-0.990664, 409, 189, 472, 220
-0.990672, 369, 121, 432, 152
-0.990675, 321, 1, 384, 340
-0.990679, 65, 141, 128, 172
-0.990684, 337, 229, 400, 260
-0.990687, 417, 225, 480, 256
-0.990689, 417, 49, 448, 176
-0.99072, 193, 213, 256, 244
-0.990744, 265, 101, 328, 132
-0.990757, 329, 277, 392, 308
-0.99077, 145, 245, 208, 276
-0.990771, 217, 249, 280, 280
-0.990776, 265, 245, 328, 276
-0.990786, 361, 145, 424, 176
-0.990791, 305, 205, 368, 236
-0.990796, 9, 209, 72, 272
-0.990836, 297, 273, 360, 304
-0.990846, 169, 117, 232, 148
-0.990847, 393, 169, 456, 200
-0.990854, 369, 189, 432, 220
-0.990859, 1, 145, 256, 208
-0.990866, 193, 145, 256, 176
-0.990866, 369, 245, 432, 276
-0.9909, 89, 193, 152, 224
-0.990912, 241, 169, 304, 232
-0.990932, 169, 133, 232, 164
-0.990962, 257, 201, 500, 264
-0.990979, 129, 233, 192, 264
-0.990997, 265, 49, 328, 112
-0.991002, 1, 113, 500, 176
-0.991021, 353, 273, 416, 304
-0.991023, 329, 121, 392, 152
-0.99103, 265, 229, 328, 260
-0.991042, 137, 105, 200, 136
-0.991046, 1, 129, 128, 192
-0.991075, 201, 1, 264, 256
-0.991087, 297, 245, 360, 276
-0.991119, 25, 49, 56, 176
-0.99114, 153, 213, 216, 244
-0.991157, 433, 173, 496, 204
-0.991251, 337, 189, 400, 220
-0.991277, 353, 209, 416, 240
-0.991286, 81, 181, 144, 212
-0.991287, 1, 169, 500, 232
-0.991288, 385, 1, 448, 340
-0.991294, 1, 233, 256, 296
-0.99131, 193, 245, 256, 276
-0.991362, 361, 157, 424, 188
-0.991365, 257, 261, 320, 292
-0.991365, 113, 113, 176, 144
-0.991381, 225, 97, 288, 128
-0.991388, 121, 205, 184, 236
-0.991405, 409, 113, 472, 144
-0.991418, 169, 101, 232, 132
-0.991419, 153, 233, 216, 264
-0.99143, 433, 133, 496, 164
-0.99143, 353, 173, 416, 204
-0.99145, 113, 141, 176, 172
-0.991453, 453, 49, 484, 176
-0.991455, 393, 213, 456, 244
-0.991476, 361, 233, 424, 264
-0.9915, 353, 1, 416, 340
-0.99151, 241, 213, 304, 244
-0.991513, 41, 149, 104, 180
-0.991514, 233, 273, 296, 304
-0.991515, 281, 97, 312, 224
-0.991527, 137, 129, 200, 160
-0.991542, 281, 201, 344, 232
-0.991574, 89, 225, 152, 256
-0.991588, 281, 113, 344, 144
-0.991599, 105, 1, 168, 340
-0.991664, 217, 221, 280, 252
-0.991671, 257, 113, 500, 176
-0.991693, 73, 89, 136, 152
-0.991693, 193, 229, 256, 260
-0.991698, 241, 237, 304, 268
-0.991709, 201, 189, 264, 220
-0.991725, 89, 213, 152, 244
-0.991764, 201, 133, 264, 164
-0.99177, 361, 133, 424, 164
-0.991773, 193, 109, 256, 140
-0.991785, 33, 169, 96, 232
-0.9918, 285, 161, 316, 288
-0.991802, 337, 109, 400, 140
-0.991821, 385, 137, 448, 168
-0.991856, 413, 209, 444, 336
-0.99186, 161, 217, 416, 280
-0.991882, 305, 77, 368, 108
-0.991892, 145, 157, 176, 188
-0.991894, 129, 257, 192, 288
-0.991911, 145, 269, 208, 300
-0.991928, 257, 201, 320, 232
-0.991932, 161, 69, 224, 100
-0.99194, 241, 113, 304, 240
-0.991948, 205, 145, 236, 176
-0.991959, 209, 201, 272, 232
-0.991959, 273, 137, 336, 200
-0.991972, 337, 161, 400, 192
-0.991975, 49, 217, 112, 248
-0.991981, 233, 73, 296, 104
-0.991985, 329, 177, 392, 208
-0.991986, 121, 245, 184, 276
-0.992001, 217, 237, 280, 268
-0.992002, 161, 49, 224, 112
-0.992006, 65, 193, 128, 224
-0.99201, 213, 253, 244, 284
-0.992044, 217, 137, 232, 200
-0.992046, 57, 245, 120, 276
-0.992057, 233, 197, 296, 228
-0.992058, 225, 257, 256, 288
-0.992058, 113, 41, 240, 104
-0.992097, 193, 169, 224, 200
-0.992134, 269, 97, 300, 224
-0.99214, 317, 33, 348, 160
-0.992147, 193, 157, 224, 188
-0.992147, 157, 153, 188, 184
-0.992165, 301, 161, 332, 288
-0.992186, 181, 237, 212, 268
-0.992212, 105, 153, 136, 184
-0.992215, 209, 273, 240, 304
-0.992222, 193, 273, 448, 336
-0.992243, 129, 161, 160, 192
-0.992254, 141, 177, 172, 208
-0.992262, 205, 157, 236, 188
-0.992263, 189, 181, 220, 212
-0.992284, 173, 149, 204, 180
-0.992289, 365, 213, 396, 244
-0.992312, 97, 41, 160, 104
-0.992314, 461, 145, 492, 176
-0.992333, 145, 145, 176, 176
-0.992352, 125, 149, 156, 180
-0.992361, 365, 261, 396, 292
-0.992369, 193, 145, 224, 176
-0.992404, 221, 269, 252, 300
-0.992404, 201, 257, 232, 288
-0.992417, 173, 193, 204, 224
-0.992418, 53, 97, 84, 224
-0.99242, 129, 181, 160, 212
-0.992432, 193, 137, 448, 200
-0.992433, 257, 217, 384, 248
-0.992435, 173, 161, 204, 192
-0.992436, 365, 201, 396, 232
-0.99245, 153, 169, 184, 200
-0.992471, 33, 81, 160, 144
-0.992476, 433, 189, 464, 220
-0.99249, 365, 229, 396, 260
-0.992491, 77, 233, 108, 264
-0.992508, 453, 189, 484, 220
-0.992526, 205, 169, 236, 200
-0.992539, 161, 181, 192, 212
-0.992543, 153, 113, 184, 144
-0.992543, 89, 177, 120, 208
-0.992553, 177, 137, 208, 168
-0.992553, 201, 181, 232, 212
-0.992555, 113, 181, 144, 212
-0.992558, 445, 177, 476, 208
-0.99256, 209, 137, 224, 200
-0.992561, 269, 233, 300, 264
-0.99257, 449, 149, 480, 180
-0.992579, 145, 189, 176, 220
-0.992593, 197, 269, 228, 300
-0.992609, 257, 81, 500, 144
-0.992611, 241, 261, 272, 292
-0.992611, 453, 161, 484, 192
-0.992618, 381, 189, 412, 220
-0.992619, 77, 145, 108, 176
-0.99262, 345, 217, 376, 248
-0.992631, 165, 137, 180, 200
-0.992632, 401, 149, 432, 180
-0.99264, 89, 153, 120, 184
-0.992642, 469, 157, 500, 188
-0.992652, 169, 117, 200, 148
-0.992652, 105, 169, 136, 200
-0.992654, 249, 225, 280, 256
-0.992659, 209, 49, 336, 112
-0.99266, 457, 133, 488, 164
-0.992664, 193, 201, 224, 232
-0.992669, 173, 173, 204, 204
-0.992669, 425, 217, 456, 248
-0.992671, 65, 65, 320, 128
-0.992679, 69, 157, 100, 188
-0.992682, 317, 261, 348, 292
-0.992682, 413, 229, 444, 260
-0.992682, 133, 121, 164, 152
-0.992687, 385, 225, 416, 256
-0.992709, 157, 141, 188, 172
-0.992715, 285, 217, 316, 248
-0.992717, 353, 249, 384, 280
-0.992722, 269, 277, 300, 308
-0.992724, 301, 217, 332, 248
-0.992724, 113, 145, 240, 176
-0.992725, 253, 261, 284, 292
-0.992735, 369, 273, 400, 304
-0.992735, 469, 181, 500, 212
-0.992735, 101, 181, 132, 212
-0.992743, 345, 201, 376, 232
-0.992749, 329, 261, 360, 292
-0.992751, 369, 189, 400, 220
-0.992764, 329, 217, 360, 248
-0.992767, 213, 185, 244, 216
-0.992785, 257, 1, 320, 256
-0.99279, 313, 113, 344, 144
-0.992791, 155, 161, 170, 224
-0.992791, 269, 245, 300, 276
-0.992799, 1, 225, 500, 288
-0.992799, 301, 101, 332, 132
-0.992802, 101, 241, 132, 272
-0.992803, 381, 249, 412, 280
-0.992804, 289, 261, 320, 292
-0.992805, 345, 281, 376, 312
-0.992808, 317, 201, 348, 232
-0.99281, 389, 145, 420, 176
-0.992813, 177, 269, 304, 300
-0.99283, 93, 141, 124, 172
-0.99283, 113, 117, 144, 148
-0.99283, 149, 125, 180, 156
-0.992833, 213, 201, 244, 232
-0.992833, 381, 121, 412, 152
-0.992838, 109, 193, 140, 224
-0.992842, 205, 133, 236, 164
-0.992853, 193, 245, 224, 276
-0.992857, 469, 169, 500, 200
-0.992863, 425, 229, 456, 260
-0.992863, 113, 133, 144, 164
-0.992867, 161, 197, 192, 228
-0.992874, 129, 197, 160, 228
-0.992874, 441, 201, 472, 232
-0.992878, 217, 145, 248, 176
-0.992882, 313, 217, 344, 248
-0.992883, 381, 173, 412, 204
-0.992885, 349, 125, 380, 156
-0.992891, 89, 229, 120, 260
-0.992895, 479, 137, 494, 200
-0.992898, 237, 249, 268, 280
-0.992909, 217, 169, 248, 200
-0.992912, 77, 181, 108, 212
-0.992918, 149, 201, 180, 232
-0.99292, 221, 217, 252, 248
-0.992921, 181, 249, 212, 280
-0.992924, 241, 281, 272, 312
-0.992925, 93, 193, 124, 224
-0.992925, 301, 261, 332, 292
-0.99293, 469, 145, 484, 208
-0.992932, 437, 149, 468, 180
-0.992933, 389, 161, 420, 192
-0.992934, 469, 133, 500, 164
-0.992934, 93, 165, 124, 196
-0.992937, 469, 193, 500, 224
-0.992945, 165, 105, 196, 136
-0.992949, 257, 273, 288, 304
-0.992951, 333, 201, 364, 232
-0.992956, 85, 245, 116, 276
-0.992958, 357, 277, 388, 308
-0.992962, 137, 109, 168, 140
-0.992972, 219, 169, 234, 232
-0.992974, 457, 177, 488, 208
-0.992975, 225, 201, 256, 232
-0.992978, 1, 257, 32, 288
-0.992981, 337, 121, 368, 152
-0.992983, 5, 97, 36, 224
-0.993, 161, 73, 416, 136
-0.993008, 257, 153, 384, 216
-0.99307, 257, 121, 384, 184
-0.993091, 273, 1, 336, 340
-0.993092, 171, 161, 186, 224
-0.993171, 253, 97, 284, 224
-0.993224, 129, 177, 384, 240
-0.993228, 209, 257, 336, 288
-0.993236, 161, 169, 176, 232
-0.993248, 215, 249, 230, 312
-0.99332, 395, 145, 410, 208
-0.993343, 205, 161, 220, 224
-0.993348, 207, 249, 222, 312
-0.993359, 225, 1, 288, 340
-0.993376, 273, 261, 400, 292
-0.993379, 261, 241, 276, 304
-0.99338, 453, 153, 468, 216
-0.99339, 113, 181, 240, 212
-0.99342, 223, 145, 238, 208
-0.993524, 33, 265, 288, 328
-0.993551, 225, 177, 480, 240
-0.993557, 225, 169, 240, 232
-0.993593, 97, 145, 352, 208
-0.993598, 353, 189, 480, 220
-0.993632, 179, 113, 194, 176
-0.993651, 257, 49, 384, 112
-0.99368, 195, 169, 210, 232
-0.993684, 145, 193, 160, 256
-0.993724, 289, 49, 352, 112
-0.993724, 377, 17, 440, 144
-0.993737, 479, 161, 494, 224
-0.993759, 385, 249, 448, 312
-0.993772, 149, 153, 164, 216
-0.993789, 213, 169, 228, 232
-0.993806, 189, 209, 204, 272
-0.993829, 173, 113, 188, 176
-0.993833, 187, 113, 202, 176
-0.993887, 187, 177, 202, 240
-0.993963, 33, 113, 288, 176
-0.994045, 463, 153, 478, 216
-0.994058, 115, 145, 130, 208
-0.994061, 485, 145, 500, 208
-0.99408, 273, 1, 400, 128
-0.99409, 401, 137, 416, 200
-0.994095, 65, 145, 192, 176
-0.994129, 65, 113, 96, 240
-0.994135, 197, 137, 212, 200
-0.994143, 159, 113, 174, 176
-0.994156, 199, 113, 214, 176
-0.994163, 479, 105, 494, 168
-0.994164, 83, 153, 98, 216
-0.994167, 147, 121, 162, 184
-0.994231, 119, 121, 134, 184
-0.994247, 209, 1, 272, 128
-0.99426, 161, 41, 288, 104
-0.994329, 151, 185, 166, 248
-0.994329, 1, 249, 500, 312
-0.994336, 123, 177, 138, 240
-0.994349, 305, 57, 432, 120
-0.994354, 129, 269, 256, 300
-0.994357, 355, 241, 370, 304
-0.994373, 89, 225, 104, 288
-0.994401, 81, 133, 208, 164
-0.994404, 469, 105, 484, 168
-0.994413, 159, 137, 174, 200
-0.994459, 459, 177, 474, 240
-0.994468, 381, 233, 396, 296
-0.994469, 53, 145, 84, 272
-0.994481, 105, 161, 120, 224
-0.994482, 245, 145, 276, 272
-0.994488, 257, 277, 384, 308
-0.9945, 311, 241, 326, 304
-0.994507, 179, 201, 194, 264
-0.994509, 289, 249, 304, 312
-0.994522, 129, 117, 256, 148
-0.994522, 127, 153, 142, 216
-0.994562, 49, 89, 112, 152
-0.994593, 201, 1, 232, 128
-0.9946, 145, 245, 272, 276
-0.99464, 353, 201, 480, 232
-0.994641, 179, 137, 194, 200
-0.994651, 365, 225, 380, 288
-0.994651, 97, 249, 224, 280
-0.994656, 17, 97, 48, 224
-0.994657, 373, 185, 388, 248
-0.994673, 65, 181, 192, 212
-0.994681, 279, 225, 294, 288
-0.994682, 253, 249, 268, 312
-0.994687, 201, 241, 216, 304
-0.994709, 181, 233, 196, 296
-0.994711, 399, 113, 414, 176
-0.994722, 77, 161, 92, 224
-0.994724, 457, 129, 472, 192
-0.99473, 195, 201, 210, 264
-0.994732, 485, 105, 500, 168
-0.994735, 337, 213, 464, 244
-0.994743, 139, 193, 154, 256
-0.994746, 289, 249, 416, 280
-0.99475, 447, 153, 462, 216
-0.994751, 387, 193, 402, 256
-0.99476, 469, 169, 484, 232
-0.994773, 129, 157, 256, 188
-0.994779, 141, 121, 156, 184
-0.994784, 141, 161, 156, 224
-0.994804, 463, 105, 478, 168
-0.994837, 113, 169, 240, 200
-0.994839, 331, 249, 346, 312
-0.994839, 369, 57, 496, 120
-0.994841, 71, 153, 86, 216
-0.994848, 203, 137, 218, 200
-0.994862, 307, 97, 322, 160
-0.994878, 325, 249, 340, 312
-0.994887, 97, 153, 112, 216
-0.994889, 153, 113, 168, 176
-0.994907, 369, 145, 496, 176
-0.994925, 165, 105, 180, 168
-0.994934, 321, 121, 448, 152
-0.994936, 89, 177, 104, 240
-0.99494, 133, 177, 148, 240
-0.994943, 475, 185, 490, 248
-0.994952, 289, 205, 416, 236
-0.994956, 295, 233, 310, 296
-0.994976, 9, 185, 72, 248
-0.994979, 441, 169, 456, 232
-0.994997, 65, 157, 192, 188
-0.995001, 363, 193, 378, 256
-0.995002, 177, 281, 304, 312
-0.995006, 121, 145, 136, 208
-0.995008, 449, 177, 464, 240
-0.995018, 105, 233, 120, 296
-0.995035, 409, 17, 472, 144
-0.995042, 1, 33, 128, 96
-0.995054, 289, 229, 416, 260
-0.995054, 227, 105, 242, 168
-0.995057, 239, 233, 254, 296
-0.995061, 195, 233, 210, 296
-0.995063, 221, 249, 236, 312
-0.99507, 171, 137, 186, 200
-0.995072, 319, 249, 334, 312
-0.995081, 245, 225, 260, 288
-0.995082, 337, 249, 352, 312
-0.995094, 287, 209, 302, 272
-0.9951, 297, 73, 312, 136
-0.995104, 381, 209, 396, 272
-0.995117, 209, 201, 336, 232
-0.995137, 161, 181, 288, 212
-0.99516, 387, 225, 402, 288
-0.995176, 127, 121, 142, 184
-0.995184, 25, 1, 88, 128
-0.995185, 301, 249, 316, 312
-0.995208, 371, 249, 386, 312
-0.995213, 109, 129, 124, 192
-0.995214, 169, 241, 184, 304
-0.995228, 307, 73, 322, 136
-0.995233, 141, 217, 156, 280
-0.995233, 263, 217, 278, 280
-0.995242, 95, 233, 110, 296
-0.995249, 97, 201, 112, 264
-0.995255, 463, 129, 478, 192
-0.995256, 209, 113, 224, 176
-0.995259, 347, 249, 362, 312
-0.99526, 81, 193, 208, 224
-0.995265, 485, 201, 500, 264
-0.995279, 193, 237, 320, 268
-0.995291, 155, 209, 170, 272
-0.995294, 269, 225, 284, 288
-0.995316, 393, 113, 408, 176
-0.995321, 229, 249, 244, 312
-0.995329, 113, 281, 240, 312
-0.99533, 1, 73, 500, 136
-0.995331, 435, 201, 450, 264
-0.995336, 145, 257, 272, 288
-0.995345, 449, 201, 464, 264
-0.995355, 203, 185, 218, 248
-0.995377, 133, 145, 148, 208
-0.995379, 353, 241, 480, 272
-0.995409, 337, 225, 464, 256
-0.995447, 1, 1, 128, 128
-0.99545, 371, 161, 386, 224
-0.995477, 135, 105, 150, 168
-0.99548, 389, 161, 404, 224
-0.995482, 411, 113, 426, 176
-0.995483, 187, 137, 202, 200
-0.995502, 17, 193, 48, 320
-0.995503, 241, 245, 368, 276
-0.995523, 209, 105, 336, 136
-0.995524, 261, 265, 276, 328
-0.995531, 373, 225, 388, 288
-0.995535, 177, 177, 192, 240
-0.995565, 129, 41, 192, 104
-0.995565, 275, 193, 290, 256
-0.995604, 185, 41, 248, 104
-0.995663, 297, 1, 360, 340
-0.995665, 65, 237, 192, 268
-0.995672, 65, 1, 128, 128
-0.995672, 353, 57, 416, 120
-0.995696, 221, 97, 252, 340
-0.9957, 1, 153, 64, 216
-0.995729, 17, 81, 80, 144
-0.995731, 129, 201, 256, 232
-0.995743, 257, 113, 384, 144
-0.995761, 145, 213, 272, 244
-0.995792, 141, 65, 172, 320
-0.995814, 353, 17, 416, 144
-0.995833, 161, 141, 288, 172
-0.995847, 353, 177, 480, 208
-0.995871, 289, 185, 416, 216
-0.995889, 185, 97, 216, 340
-0.995914, 1, 273, 500, 336
-0.995937, 369, 133, 496, 164
-0.995937, 265, 145, 296, 272
-0.995959, 209, 221, 336, 252
-0.995989, 369, 117, 496, 148
-0.996026, 33, 193, 64, 320
-0.996058, 225, 41, 288, 104
-0.996075, 17, 237, 144, 268
-0.996085, 129, 65, 160, 320
-0.99612, 169, 65, 200, 320
-0.996138, 65, 169, 192, 200
-0.996188, 353, 269, 480, 300
-0.996217, 17, 257, 144, 288
-0.996269, 249, 1, 312, 340
-0.99628, 129, 97, 256, 128
-0.996283, 313, 1, 376, 256
-0.996284, 33, 97, 64, 224
-0.99631, 81, 121, 208, 152
-0.996313, 33, 193, 160, 224
-0.996334, 49, 33, 176, 96
-0.996374, 101, 65, 132, 320
-0.996376, 309, 97, 340, 340
-0.996424, 157, 65, 188, 320
-0.996479, 161, 169, 288, 200
-0.996546, 1, 89, 256, 152
-0.99657, 81, 105, 208, 136
-0.996572, 209, 145, 224, 176
-0.996583, 321, 105, 448, 136
-0.996615, 1, 145, 128, 176
-0.996626, 231, 257, 246, 288
-0.996658, 215, 169, 230, 200
-0.996661, 207, 157, 222, 188
-0.996674, 49, 213, 176, 244
-0.996686, 385, 57, 448, 120
-0.996688, 217, 157, 232, 188
-0.996689, 165, 153, 180, 184
-0.99669, 33, 33, 96, 96
-0.996716, 201, 65, 232, 320
-0.996718, 369, 157, 496, 188
-0.996738, 321, 149, 448, 180
-0.996741, 177, 293, 304, 324
-0.996742, 205, 169, 220, 200
-0.996764, 353, 253, 480, 284
-0.996784, 129, 129, 256, 160
-0.996785, 219, 145, 234, 176
-0.99681, 57, 273, 120, 336
-0.996811, 479, 181, 494, 212
-0.996815, 403, 145, 418, 176
-0.996822, 213, 253, 228, 284
-0.996826, 305, 273, 432, 304
-0.996835, 289, 1, 352, 256
-0.996835, 445, 181, 460, 212
-0.996879, 161, 173, 176, 204
-0.996885, 241, 233, 368, 264
-0.99689, 225, 257, 240, 288
-0.996902, 249, 97, 280, 340
-0.996918, 453, 189, 468, 220
-0.996922, 9, 33, 72, 96
-0.996922, 377, 257, 392, 288
-0.996938, 155, 173, 170, 204
-0.996956, 209, 269, 224, 300
-0.996984, 305, 137, 432, 168
-0.996994, 207, 257, 222, 288
-0.996997, 161, 225, 288, 256
-0.997004, 209, 93, 336, 124
-0.997008, 167, 169, 182, 200
-0.997011, 73, 33, 136, 96
-0.997016, 199, 153, 214, 184
-0.99702, 395, 149, 410, 180
-0.997051, 117, 97, 148, 340
-0.997056, 149, 153, 164, 184
-0.997058, 69, 65, 100, 320
-0.997075, 237, 257, 252, 288
-0.997077, 479, 169, 494, 200
-0.997081, 167, 181, 182, 212
-0.997081, 453, 161, 468, 192
-0.997086, 385, 97, 416, 340
-0.997089, 297, 97, 328, 340
-0.997112, 463, 185, 478, 216
-0.997139, 89, 233, 104, 264
-0.997143, 195, 169, 210, 200
-0.997144, 125, 177, 140, 208
-0.997146, 17, 273, 144, 336
-0.997148, 209, 137, 336, 168
-0.99715, 241, 129, 304, 192
-0.997165, 1, 1, 64, 128
-0.997173, 147, 181, 162, 212
-0.997173, 307, 101, 322, 132
-0.997178, 273, 125, 400, 156
-0.997187, 215, 265, 230, 296
-0.997194, 257, 77, 384, 108
-0.997206, 469, 189, 484, 220
-0.997209, 453, 141, 468, 172
-0.997219, 287, 221, 302, 252
-0.99722, 99, 157, 114, 188
-0.997223, 155, 161, 170, 192
-0.997225, 473, 149, 488, 180
-0.997248, 213, 181, 228, 212
-0.997253, 73, 157, 88, 188
-0.997254, 85, 65, 116, 320
-0.997256, 485, 189, 500, 220
-0.997269, 207, 181, 222, 212
-0.997272, 483, 145, 498, 176
-0.997273, 219, 253, 234, 284
-0.997274, 49, 269, 176, 300
-0.997288, 371, 201, 386, 232
-0.997309, 171, 149, 186, 180
-0.997315, 149, 165, 164, 196
-0.997316, 445, 193, 460, 224
-0.997324, 159, 149, 174, 180
-0.997337, 397, 161, 412, 192
-0.997344, 177, 73, 304, 104
-0.997344, 1, 181, 128, 212
-0.997346, 223, 181, 238, 212
-0.997357, 369, 97, 400, 340
-0.997359, 277, 233, 292, 264
-0.997361, 85, 157, 100, 188
-0.997368, 475, 229, 490, 260
-0.997372, 469, 177, 484, 208
-0.997387, 377, 213, 392, 244
-0.997387, 195, 181, 210, 212
-0.997403, 257, 101, 384, 132
-0.99741, 337, 97, 368, 340
-0.997412, 161, 185, 176, 216
-0.997414, 189, 137, 204, 168
-0.997416, 481, 157, 496, 188
-0.997417, 477, 137, 492, 168
-0.997426, 129, 69, 256, 100
-0.997431, 241, 189, 368, 220
-0.997432, 183, 193, 198, 224
-0.997444, 467, 145, 482, 176
-0.997452, 153, 185, 168, 216
-0.997461, 217, 277, 232, 308
-0.997464, 177, 157, 304, 188
-0.997479, 227, 141, 242, 172
-0.997487, 361, 213, 376, 244
-0.99749, 17, 157, 144, 188
-0.997493, 465, 65, 496, 320
-0.997506, 121, 189, 136, 220
-0.997508, 397, 181, 412, 212
-0.997518, 305, 81, 432, 112
-0.997522, 439, 189, 454, 220
-0.997524, 147, 197, 162, 228
-0.997526, 223, 269, 238, 300
-0.997528, 445, 149, 460, 180
-0.99753, 101, 181, 116, 212
-0.997543, 187, 237, 202, 268
-0.997553, 119, 177, 134, 208
-0.997555, 139, 149, 154, 180
-0.997557, 107, 181, 122, 212
-0.997558, 145, 233, 160, 264
-0.99756, 201, 249, 216, 280
-0.997564, 141, 181, 156, 212
-0.997564, 69, 173, 84, 204
-0.997565, 97, 213, 224, 244
-0.997569, 223, 157, 238, 188
-0.997572, 383, 249, 398, 280
-0.997577, 253, 249, 268, 280
-0.997586, 451, 177, 466, 208
-0.997597, 441, 65, 472, 320
-0.997603, 33, 109, 160, 140
-0.997603, 129, 157, 144, 188
-0.997605, 261, 277, 276, 308
-0.997615, 121, 153, 136, 184
-0.997617, 391, 189, 406, 220
-0.997619, 333, 261, 348, 292
-0.99762, 33, 133, 160, 164
-0.997621, 97, 225, 224, 256
-0.997622, 377, 237, 392, 268
-0.997628, 199, 137, 214, 168
-0.997629, 461, 133, 476, 164
-0.997633, 349, 97, 380, 340
-0.997633, 223, 169, 238, 200
-0.997634, 95, 237, 110, 268
-0.997642, 189, 201, 204, 232
-0.997643, 1, 161, 32, 288
-0.997645, 53, 65, 84, 320
-0.997647, 217, 133, 232, 164
-0.997648, 383, 269, 398, 300
-0.997655, 257, 57, 500, 120
-0.997656, 171, 113, 186, 144
-0.997656, 115, 153, 130, 184
-0.997657, 103, 241, 118, 272
-0.99766, 373, 181, 388, 212
-0.997663, 135, 189, 150, 220
-0.997673, 281, 97, 312, 340
-0.997678, 383, 189, 398, 220
-0.997682, 243, 261, 258, 292
-0.997692, 229, 269, 244, 300
-0.997693, 463, 157, 478, 188
-0.997696, 171, 249, 186, 280
-0.997699, 165, 141, 180, 172
-0.997699, 367, 189, 382, 220
-0.99771, 459, 145, 474, 176
-0.99771, 475, 193, 490, 224
-0.997711, 209, 281, 224, 312
-0.997711, 161, 109, 176, 140
-0.997728, 177, 197, 192, 228
-0.99773, 369, 213, 384, 244
-0.997731, 485, 177, 500, 208
-0.997735, 435, 205, 450, 236
-0.997748, 167, 193, 182, 224
-0.997752, 207, 245, 222, 276
-0.99776, 173, 181, 188, 212
-0.997764, 463, 173, 478, 204
-0.997774, 377, 201, 392, 232
-0.997776, 195, 241, 210, 272
-0.997776, 181, 245, 196, 276
-0.997779, 453, 97, 484, 340
-0.997787, 229, 193, 244, 224
-0.997796, 203, 269, 218, 300
-0.997803, 305, 169, 432, 200
-0.997805, 397, 97, 428, 340
-0.997816, 49, 69, 176, 100
-0.997824, 233, 97, 264, 340
-0.997869, 269, 65, 300, 320
-0.997914, 305, 33, 432, 96
-0.998003, 325, 97, 356, 340
-0.99809, 425, 97, 456, 340
-0.998098, 1, 65, 128, 96
-0.998137, 113, 1, 144, 256
-0.998183, 385, 17, 416, 144
-0.998186, 361, 1, 424, 256
-0.998195, 49, 225, 176, 256
-0.998205, 369, 101, 496, 132
-0.998215, 1, 217, 128, 248
-0.998224, 41, 65, 72, 320
-0.998226, 129, 293, 256, 324
-0.998237, 369, 85, 496, 116
-0.998255, 213, 1, 244, 128
-0.998275, 33, 121, 160, 152
-0.998306, 353, 281, 480, 312
-0.998335, 409, 65, 440, 320
-0.998356, 209, 177, 336, 208
-0.998381, 193, 259, 256, 274
-0.998383, 169, 143, 232, 158
-0.998388, 129, 185, 192, 200
-0.998392, 145, 147, 208, 162
-0.998401, 257, 137, 384, 168
-0.998405, 65, 41, 320, 104
-0.998405, 289, 215, 352, 230
-0.998415, 161, 49, 416, 112
-0.99842, 349, 17, 380, 144
-0.998432, 483, 145, 498, 272
-0.998433, 153, 183, 216, 198
-0.998434, 197, 97, 212, 224
-0.998436, 145, 115, 208, 130
-0.998436, 161, 247, 224, 262
-0.998437, 425, 141, 488, 156
-0.998446, 129, 153, 192, 168
-0.998446, 105, 151, 168, 166
-0.998451, 209, 267, 272, 282
-0.998454, 305, 117, 368, 132
-0.998456, 113, 123, 176, 138
-0.998456, 129, 191, 192, 206
-0.998458, 369, 255, 400, 270
-0.998459, 169, 149, 232, 164
-0.998459, 133, 129, 164, 144
-0.998463, 73, 159, 104, 174
-0.998463, 109, 185, 140, 200
-0.998464, 45, 259, 76, 274
-0.998465, 469, 167, 500, 182
-0.998465, 193, 255, 224, 270
-0.998465, 73, 157, 136, 172
-0.998466, 153, 177, 216, 192
-0.998467, 93, 185, 124, 200
-0.998467, 169, 113, 232, 128
-0.99847, 401, 145, 464, 160
-0.99847, 145, 123, 208, 138
-0.998473, 373, 141, 404, 156
-0.998473, 365, 245, 396, 260
-0.998474, 105, 193, 168, 208
-0.998476, 173, 211, 204, 226
-0.998478, 313, 209, 344, 224
-0.998479, 125, 149, 156, 164
-0.998479, 169, 253, 232, 268
-0.998479, 369, 147, 400, 162
-0.998479, 121, 175, 152, 190
-0.99848, 113, 151, 144, 166
-0.99848, 177, 139, 208, 154
-0.998482, 33, 261, 64, 276
-0.998482, 453, 165, 484, 180
-0.998482, 177, 151, 208, 166
-0.998482, 241, 229, 304, 244
-0.998482, 161, 121, 192, 136
-0.998483, 433, 191, 464, 206
-0.998485, 365, 239, 396, 254
-0.998486, 169, 171, 232, 186
-0.998486, 145, 145, 176, 160
-0.998486, 217, 261, 280, 276
-0.998486, 81, 195, 112, 210
-0.998487, 205, 111, 236, 126
-0.998488, 177, 271, 240, 286
-0.998488, 173, 177, 204, 192
-0.998489, 373, 193, 404, 208
-0.99849, 301, 109, 332, 124
-0.99849, 401, 153, 432, 168
-0.99849, 349, 213, 380, 228
-0.99849, 265, 277, 296, 292
-0.998493, 309, 275, 340, 290
-0.998494, 173, 169, 204, 184
-0.998494, 129, 161, 160, 176
-0.998495, 109, 193, 140, 208
-0.998495, 229, 275, 260, 290
-0.998495, 337, 259, 400, 274
-0.998495, 161, 175, 192, 190
-0.998496, 369, 223, 400, 238
-0.998496, 193, 277, 256, 292
-0.998499, 145, 169, 176, 184
-0.998499, 205, 263, 236, 278
-0.998499, 409, 193, 472, 208
-0.9985, 453, 173, 484, 188
-0.998501, 409, 237, 440, 252
-0.998501, 357, 281, 388, 296
-0.998501, 345, 219, 408, 234
-0.998502, 149, 125, 180, 140
-0.998502, 217, 283, 280, 298
-0.998503, 173, 193, 204, 208
-0.998504, 249, 259, 312, 274
-0.998504, 393, 139, 424, 154
-0.998505, 321, 217, 384, 232
-0.998505, 177, 191, 240, 206
-0.998506, 217, 281, 248, 296
-0.998507, 169, 265, 232, 280
-0.998507, 205, 137, 236, 152
-0.998507, 169, 165, 232, 180
-0.99851, 189, 165, 220, 180
-0.99851, 129, 191, 160, 206
-0.998514, 281, 221, 344, 236
-0.998514, 197, 273, 228, 288
-0.998518, 97, 1, 160, 128
-0.998518, 225, 275, 288, 290
-0.998519, 361, 139, 424, 154
-0.99852, 353, 235, 416, 250
-0.99852, 249, 283, 280, 298
-0.99852, 125, 181, 156, 196
-0.998521, 469, 137, 500, 152
-0.998521, 141, 191, 172, 206
-0.998522, 161, 193, 192, 208
-0.998522, 329, 269, 392, 284
-0.998523, 201, 175, 232, 190
-0.998523, 305, 275, 368, 290
-0.998523, 369, 273, 400, 288
-0.998524, 253, 261, 284, 276
-0.998524, 425, 147, 488, 162
-0.998524, 257, 223, 320, 238
-0.998525, 113, 131, 176, 146
-0.998525, 393, 153, 456, 168
-0.998525, 413, 145, 444, 160
-0.998526, 1, 259, 32, 274
-0.998527, 153, 191, 216, 206
-0.998528, 321, 275, 352, 290
-0.998528, 145, 141, 208, 156
-0.998529, 365, 215, 396, 230
-0.99853, 105, 185, 168, 200
-0.99853, 93, 191, 124, 206
-0.998531, 301, 217, 332, 232
-0.998531, 93, 159, 124, 174
-0.998532, 49, 235, 112, 250
-0.998532, 281, 227, 312, 242
-0.998533, 177, 185, 240, 200
-0.998533, 157, 151, 188, 166
-0.998534, 329, 217, 360, 232
-0.998534, 377, 195, 440, 210
-0.998535, 245, 225, 276, 240
-0.998536, 181, 247, 212, 262
-0.998536, 185, 111, 216, 126
-0.998536, 73, 193, 136, 208
-0.998536, 385, 193, 416, 208
-0.998537, 129, 179, 192, 194
-0.998537, 329, 277, 392, 292
-0.998538, 177, 157, 208, 172
-0.998538, 145, 171, 208, 186
-0.998541, 441, 141, 472, 156
-0.998541, 281, 275, 344, 290
-0.998541, 257, 283, 320, 298
-0.998542, 377, 145, 440, 160
-0.998543, 365, 261, 396, 276
-0.998543, 117, 129, 148, 144
-0.998545, 105, 157, 136, 172
-0.998545, 185, 137, 248, 152
-0.998545, 317, 115, 348, 130
-0.998545, 185, 155, 248, 170
-0.998546, 17, 259, 48, 274
-0.998547, 433, 193, 496, 208
-0.998547, 329, 283, 392, 298
-0.998548, 393, 241, 456, 256
-0.998549, 233, 269, 296, 284
-0.998549, 81, 235, 112, 250
-0.998549, 193, 111, 256, 126
-0.998551, 225, 253, 288, 268
-0.998551, 173, 163, 204, 178
-0.998552, 73, 241, 136, 256
-0.998553, 369, 225, 432, 240
-0.998554, 129, 239, 192, 254
-0.998555, 121, 117, 184, 132
-0.998555, 203, 97, 218, 224
-0.998555, 189, 139, 220, 154
-0.998556, 329, 225, 392, 240
-0.998556, 121, 145, 184, 160
-0.998557, 345, 247, 408, 262
-0.998557, 417, 153, 480, 168
-0.998557, 157, 145, 188, 160
-0.998557, 337, 253, 400, 268
-0.998558, 453, 193, 484, 208
-0.998558, 145, 163, 176, 178
-0.998558, 189, 189, 220, 204
-0.998559, 457, 149, 488, 164
-0.998559, 461, 159, 492, 174
-0.99856, 365, 231, 396, 246
-0.998561, 409, 199, 472, 214
-0.998561, 177, 179, 240, 194
-0.998563, 17, 53, 144, 84
-0.998564, 345, 193, 408, 208
-0.998564, 153, 241, 216, 256
-0.998565, 433, 203, 496, 218
-0.998566, 161, 185, 192, 200
-0.998566, 151, 97, 166, 224
-0.998567, 161, 169, 192, 184
-0.998568, 357, 251, 388, 266
-0.998568, 137, 151, 168, 166
-0.998568, 169, 107, 232, 122
-0.998568, 181, 1, 212, 256
-0.99857, 97, 159, 160, 174
-0.99857, 201, 143, 264, 158
-0.99857, 193, 147, 224, 162
-0.99857, 193, 173, 256, 188
-0.998571, 177, 241, 240, 256
-0.998572, 73, 149, 136, 164
-0.998572, 169, 277, 232, 292
-0.998572, 401, 139, 464, 154
-0.998573, 157, 163, 188, 178
-0.998574, 469, 143, 500, 158
-0.998574, 213, 97, 228, 224
-0.998575, 209, 269, 240, 284
-0.998575, 201, 181, 232, 196
-0.998575, 189, 171, 220, 186
-0.998575, 233, 261, 264, 276
-0.998576, 129, 159, 192, 174
-0.998576, 369, 245, 432, 260
-0.998578, 249, 253, 312, 268
-0.998578, 169, 259, 232, 274
-0.998578, 173, 183, 204, 198
-0.998579, 97, 243, 160, 258
-0.998579, 249, 277, 312, 292
-0.998579, 401, 147, 432, 162
-0.99858, 377, 121, 440, 136
-0.99858, 353, 219, 384, 234
-0.998582, 317, 215, 348, 230
-0.998583, 381, 147, 412, 162
-0.998583, 429, 143, 460, 158
-0.998584, 433, 165, 496, 180
-0.998585, 337, 211, 400, 226
-0.998586, 265, 103, 328, 118
-0.998586, 353, 147, 416, 162
-0.998586, 265, 111, 328, 126
-0.998587, 417, 115, 480, 130
-0.998588, 393, 225, 456, 240
-0.998588, 241, 65, 368, 96
-0.998588, 241, 217, 304, 232
-0.998588, 185, 215, 248, 230
-0.998588, 241, 235, 304, 250
-0.998589, 249, 247, 312, 262
-0.99859, 361, 267, 424, 282
-0.998591, 353, 279, 416, 294
-0.998592, 155, 161, 170, 288
-0.998592, 433, 159, 496, 174
-0.998592, 337, 241, 400, 256
-0.998593, 393, 159, 456, 174
-0.998593, 41, 155, 104, 170
-0.998593, 289, 219, 320, 234
-0.998594, 345, 117, 408, 132
-0.998594, 401, 235, 464, 250
-0.998594, 129, 249, 192, 264
-0.998594, 105, 177, 168, 192
-0.998594, 165, 113, 180, 240
-0.998595, 129, 211, 192, 226
-0.998595, 361, 273, 424, 288
-0.998596, 157, 113, 172, 240
-0.998597, 193, 157, 224, 172
-0.998597, 161, 215, 224, 230
-0.998599, 81, 57, 208, 88
-0.998599, 337, 173, 400, 188
-0.9986, 217, 223, 280, 238
-0.9986, 121, 123, 152, 138
-0.9986, 169, 119, 232, 134
-0.998601, 289, 107, 352, 122
-0.998603, 145, 177, 176, 192
-0.998603, 73, 235, 136, 250
-0.998604, 273, 265, 336, 280
-0.998604, 265, 239, 328, 254
-0.998604, 205, 153, 236, 168
-0.998604, 193, 167, 256, 182
-0.998605, 417, 227, 480, 242
-0.998607, 213, 257, 244, 272
-0.998608, 193, 145, 208, 272
-0.998608, 369, 267, 400, 282
-0.998608, 395, 113, 410, 240
-0.998612, 189, 183, 220, 198
-0.998612, 225, 267, 256, 282
-0.998614, 177, 61, 304, 92
-0.998614, 157, 157, 188, 172
-0.998616, 125, 155, 156, 170
-0.998622, 141, 185, 172, 200
-0.998623, 133, 123, 164, 138
-0.998626, 181, 241, 212, 256
-0.998626, 171, 97, 186, 224
-0.998626, 175, 177, 190, 304
-0.998636, 205, 145, 220, 272
-0.998639, 165, 115, 196, 130
-0.99864, 177, 145, 208, 160
-0.998641, 475, 161, 490, 288
-0.998648, 457, 113, 472, 240
-0.998649, 209, 275, 240, 290
-0.99865, 201, 167, 232, 182
-0.998653, 187, 97, 202, 224
-0.998656, 177, 117, 304, 148
-0.998662, 447, 145, 462, 272
-0.998662, 457, 141, 488, 156
-0.998662, 161, 161, 176, 288
-0.998664, 205, 143, 236, 158
-0.998666, 187, 177, 202, 304
-0.998667, 143, 161, 158, 288
-0.998679, 149, 119, 180, 134
-0.998697, 181, 97, 196, 224
-0.998701, 443, 97, 458, 224
-0.998705, 145, 157, 176, 172
-0.998717, 469, 145, 484, 272
-0.998736, 257, 89, 384, 120
-0.998747, 237, 1, 268, 256
-0.998749, 225, 1, 256, 256
-0.998752, 167, 161, 182, 288
-0.998754, 385, 161, 400, 288
-0.998765, 105, 161, 120, 288
-0.998772, 305, 209, 320, 336
-0.998775, 361, 209, 376, 336
-0.998776, 213, 177, 228, 304
-0.998782, 65, 281, 192, 312
-0.998782, 145, 97, 160, 224
-0.998789, 125, 145, 140, 272
-0.998794, 149, 145, 164, 272
-0.998799, 213, 1, 244, 256
-0.9988, 343, 209, 358, 336
-0.998801, 131, 145, 146, 272
-0.998807, 385, 113, 400, 240
-0.998811, 89, 161, 104, 288
-0.998817, 315, 209, 330, 336
-0.998824, 397, 161, 412, 288
-0.998824, 321, 209, 336, 336
-0.998826, 433, 161, 448, 288
-0.998827, 81, 93, 208, 124
-0.99883, 17, 169, 144, 200
-0.998831, 475, 113, 490, 240
-0.998831, 377, 113, 392, 240
-0.998834, 339, 97, 354, 224
-0.99884, 21, 65, 52, 320
-0.998843, 331, 209, 346, 336
-0.998844, 95, 161, 110, 288
-0.99885, 451, 97, 466, 224
-0.998852, 469, 97, 484, 224
-0.998856, 337, 209, 352, 336
-0.998859, 1, 93, 128, 124
-0.998859, 461, 177, 476, 304
-0.998861, 161, 1, 224, 128
-0.998863, 113, 129, 128, 256
-0.998874, 351, 193, 366, 320
-0.998878, 279, 193, 294, 320
-0.99888, 299, 209, 314, 336
-0.998881, 321, 69, 448, 100
-0.998906, 221, 177, 236, 304
-0.998915, 481, 97, 496, 224
-0.998923, 199, 161, 214, 288
-0.998925, 463, 97, 478, 224
-0.998932, 391, 161, 406, 288
-0.998933, 79, 161, 94, 288
-0.998935, 241, 209, 256, 336
-0.998936, 227, 97, 242, 224
-0.998937, 181, 193, 196, 320
-0.998941, 405, 129, 420, 256
-0.998948, 221, 97, 236, 224
-0.99895, 181, 49, 196, 176
-0.998964, 73, 145, 88, 272
-0.998976, 131, 97, 146, 224
-0.998976, 119, 177, 134, 304
-0.998978, 231, 177, 246, 304
-0.99898, 453, 161, 468, 288
-0.998985, 289, 209, 304, 336
-0.998985, 367, 193, 382, 320
-0.998988, 375, 177, 390, 304
-0.99899, 189, 49, 204, 176
-0.998991, 97, 1, 224, 128
-0.999002, 171, 49, 186, 176
-0.999003, 137, 177, 152, 304
-0.999018, 149, 193, 164, 320
-0.999023, 367, 65, 382, 192
-0.999023, 129, 193, 144, 320
-0.999023, 89, 209, 104, 336
-0.999027, 155, 49, 170, 176
-0.999027, 111, 177, 126, 304
-0.999029, 439, 161, 454, 288
-0.999032, 375, 65, 390, 192
-0.999033, 225, 125, 352, 156
-0.999042, 359, 113, 374, 240
-0.999049, 205, 193, 220, 320
-0.999053, 485, 193, 500, 320
-0.999054, 161, 49, 176, 176
-0.999057, 369, 73, 496, 104
-0.999062, 95, 113, 110, 240
-0.999063, 1, 65, 32, 320
-0.999066, 199, 49, 214, 176
-0.999077, 81, 113, 96, 240
-0.999082, 305, 93, 432, 124
-0.999082, 349, 65, 364, 192
-0.999085, 137, 113, 152, 240
-0.999087, 181, 145, 196, 272
-0.999091, 389, 65, 404, 192
-0.999092, 307, 49, 322, 176
-0.999094, 121, 97, 136, 224
-0.999097, 381, 65, 396, 192
-0.999101, 313, 97, 328, 224
-0.999101, 457, 65, 472, 192
-0.999103, 395, 65, 410, 192
-0.999103, 365, 113, 380, 240
-0.999104, 431, 81, 446, 208
-0.999117, 105, 209, 120, 336
-0.999122, 145, 49, 160, 176
-0.999124, 437, 97, 452, 224
-0.999125, 273, 193, 288, 320
-0.999134, 197, 209, 212, 336
-0.999135, 231, 49, 246, 176
-0.999135, 213, 49, 228, 176
-0.999137, 143, 209, 158, 336
-0.999139, 95, 209, 110, 336
-0.999142, 1, 269, 128, 300
-0.999146, 319, 65, 334, 192
-0.999149, 355, 65, 370, 192
-0.999149, 67, 177, 82, 304
-0.999149, 225, 289, 352, 320
-0.999152, 73, 193, 88, 320
-0.999158, 335, 49, 350, 176
-0.999161, 129, 57, 256, 88
-0.999163, 165, 209, 180, 336
-0.999168, 381, 209, 396, 336
-0.999174, 325, 97, 340, 224
-0.999177, 139, 49, 154, 176
-0.999185, 401, 65, 416, 192
-0.999188, 347, 113, 362, 240
-0.999191, 249, 209, 264, 336
-0.999192, 101, 113, 116, 240
-0.999203, 343, 49, 358, 176
-0.999203, 361, 65, 376, 192
-0.999209, 205, 49, 220, 176
-0.999211, 407, 81, 422, 208
-0.999216, 329, 49, 344, 176
-0.999218, 1, 205, 128, 236
-0.999272, 273, 149, 400, 180
-0.999344, 289, 289, 416, 320
-0.999375, 145, 85, 272, 116
-0.999413, 257, 1, 288, 256
-0.999417, 257, 169, 384, 200
-0.999598, 81, 301, 208, 332
-0.999618, 225, 153, 352, 184
-0.999628, 381, 1, 412, 256
-0.999663, 1, 41, 500, 104
-0.999679, 125, 177, 140, 192
-0.999679, 225, 177, 240, 192
-0.999679, 169, 143, 184, 158
-0.99968, 323, 275, 338, 290
-0.999681, 475, 157, 490, 172
-0.999682, 171, 191, 186, 206
-0.999682, 473, 175, 488, 190
-0.999683, 333, 215, 348, 230
-0.999684, 435, 211, 450, 226
-0.999685, 253, 253, 268, 268
-0.999686, 475, 137, 490, 152
-0.999686, 381, 261, 396, 276
-0.999686, 129, 155, 144, 170
-0.999686, 73, 167, 88, 182
-0.999687, 169, 149, 184, 164
-0.999688, 217, 143, 232, 158
-0.999689, 197, 111, 212, 126
-0.999691, 215, 255, 230, 270
-0.999691, 377, 147, 392, 162
-0.999691, 125, 185, 140, 200
-0.999692, 211, 143, 226, 158
-0.999692, 277, 235, 292, 250
-0.999692, 167, 179, 182, 194
-0.999693, 231, 259, 246, 274
-0.999694, 445, 185, 460, 200
-0.999694, 249, 265, 264, 280
-0.999695, 219, 277, 234, 292
-0.999695, 147, 183, 162, 198
-0.999696, 215, 265, 230, 280
-0.999696, 395, 161, 410, 176
-0.999696, 161, 115, 176, 130
-0.999697, 123, 127, 138, 142
-0.999698, 307, 101, 322, 116
-0.9997, 145, 241, 160, 256
-0.999701, 227, 145, 242, 160
-0.999703, 475, 229, 490, 244
-0.999703, 203, 185, 218, 200
-0.999704, 457, 157, 472, 172
-0.999705, 385, 193, 400, 208
-0.999706, 243, 263, 258, 278
-0.999707, 89, 195, 104, 210
-0.999708, 191, 145, 206, 160
-0.999708, 197, 163, 212, 178
-0.999708, 159, 157, 174, 172
-0.999709, 413, 143, 428, 158
-0.999709, 449, 193, 464, 208
-0.99971, 205, 251, 220, 266
-0.99971, 149, 165, 164, 180
-0.99971, 477, 149, 492, 164
-0.99971, 373, 257, 388, 272
-0.99971, 365, 221, 380, 236
-0.999711, 199, 151, 214, 166
-0.999711, 351, 219, 366, 234
-0.999711, 207, 263, 222, 278
-0.999711, 199, 143, 214, 158
-0.999712, 165, 161, 180, 176
-0.999712, 467, 155, 482, 170
-0.999712, 189, 241, 204, 256
-0.999713, 237, 259, 252, 274
-0.999713, 213, 183, 228, 198
-0.999715, 483, 151, 498, 166
-0.999715, 153, 153, 168, 168
-0.999715, 165, 193, 180, 208
-0.999716, 479, 175, 494, 190
-0.999718, 285, 225, 300, 240
-0.999718, 451, 143, 466, 158
-0.999719, 395, 147, 410, 162
-0.99972, 479, 183, 494, 198
-0.999722, 155, 185, 170, 200
-0.999723, 149, 159, 164, 174
-0.999723, 143, 125, 158, 140
-0.999723, 195, 173, 210, 188
-0.999724, 207, 151, 222, 166
-0.999724, 205, 163, 220, 178
-0.999724, 103, 191, 118, 206
-0.999725, 207, 273, 222, 288
-0.999726, 155, 179, 170, 194
-0.999726, 215, 169, 230, 184
-0.999727, 165, 155, 180, 170
-0.99973, 151, 121, 166, 136
-0.99973, 83, 161, 98, 176
-0.99973, 171, 173, 186, 188
-0.999731, 483, 145, 498, 160
-0.999732, 1, 285, 128, 316
-0.999732, 227, 267, 242, 282
-0.999734, 377, 251, 392, 266
-0.999736, 163, 121, 178, 136
-0.999737, 291, 219, 306, 234
-0.999737, 195, 183, 210, 198
-0.999738, 209, 257, 224, 272
-0.999738, 377, 221, 392, 236
-0.999738, 469, 139, 484, 154
-0.99974, 391, 193, 406, 208
-0.999741, 463, 145, 478, 160
-0.999742, 179, 115, 194, 130
-0.999743, 199, 157, 214, 172
-0.999745, 121, 191, 136, 206
-0.999747, 261, 285, 276, 300
-0.99975, 381, 267, 396, 282
-0.99975, 155, 173, 170, 188
-0.999751, 485, 193, 500, 208
-0.999752, 217, 161, 232, 176
-0.999753, 205, 169, 220, 184
-0.999754, 399, 153, 414, 168
-0.999754, 443, 191, 458, 206
-0.999755, 187, 211, 202, 226
-0.999755, 461, 139, 476, 154
-0.999757, 259, 255, 274, 270
-0.999758, 213, 283, 228, 298
-0.999759, 481, 137, 496, 152
-0.999759, 207, 157, 222, 172
-0.99976, 155, 167, 170, 182
-0.999761, 167, 115, 182, 130
-0.999761, 217, 271, 232, 286
-0.999764, 471, 145, 486, 160
-0.999765, 167, 185, 182, 200
-0.999768, 375, 263, 390, 278
-0.999772, 173, 117, 188, 132
-0.999773, 369, 1, 400, 256
-0.999773, 161, 177, 176, 192
-0.999776, 217, 155, 232, 170
-0.999777, 203, 179, 218, 194
-0.99978, 89, 231, 104, 246
-0.999781, 457, 147, 472, 162
-0.999781, 215, 175, 230, 190
-0.999783, 161, 167, 176, 182
-0.999786, 403, 147, 418, 162
-0.999789, 157, 121, 172, 136
-0.999792, 129, 305, 256, 336
-0.999803, 161, 183, 176, 198
-0.999804, 469, 193, 484, 208
-0.999818, 477, 143, 492, 158
-0.999822, 455, 193, 470, 208
-0.999895, 317, 1, 348, 256
-0.99996, 337, 293, 464, 324
-0.999983, 369, 309, 496, 340
-1, 429, 1, 460, 256
-1.00002, 297, 1, 328, 256
-1.00005, 81, 81, 208, 112
-1.00005, 281, 1, 312, 256
-1.00012, 17, 81, 144, 112
-1.00016, 177, 305, 304, 336
-1.00017, 453, 1, 484, 256
-1.00022, 321, 309, 448, 340
-1.00023, 129, 17, 256, 48
-1.00025, 369, 9, 496, 72
-1.00025, 353, 33, 480, 96
-1.00026, 329, 1, 360, 256
-1.00027, 357, 1, 388, 256
-1.0003, 33, 297, 160, 328
-1.00044, 345, 1, 376, 256
-1.00048, 433, 17, 496, 144
-1.00055, 393, 1, 424, 256
-1.00061, 257, 33, 500, 96
-1.0008, 337, 1, 400, 256
-1.00099, 241, 25, 368, 88
-1.00106, 273, 1, 400, 64
-1.00159, 1, 17, 500, 80
-1.00168, 113, 1, 240, 64
-1.00169, 193, 9, 320, 72
-1.00177, 1, 17, 256, 80
-1.00178, 193, 1, 448, 64
-1.0019, 161, 25, 416, 88
-1.00211, 97, 1, 352, 64
-1.00213, 321, 9, 448, 72
-1.00304, 49, 1, 176, 64
-1.00404, 1, 1, 128, 64
