1955
-0.31584, 1, 1, 500, 375
-0.37455, 1, 129, 500, 375
-0.395236, 225, 1, 480, 375
-0.4021, 1, 1, 500, 256
-0.419288, 129, 1, 384, 375
-0.472673, 33, 1, 288, 375
-0.597721, 129, 129, 384, 375
-0.610532, 33, 97, 288, 352
-0.618154, 33, 1, 288, 256
-0.62275, 225, 65, 480, 320
-0.697563, 129, 33, 384, 288
-0.83922, 209, 1, 336, 375
-0.839586, 209, 97, 336, 352
-0.84208, 145, 1, 272, 375
-0.845241, 241, 1, 368, 256
-0.853997, 289, 97, 416, 352
-0.854937, 145, 129, 272, 375
-0.856867, 353, 1, 480, 375
-0.857037, 145, 1, 272, 256
-0.857923, 193, 1, 320, 256
-0.860707, 289, 1, 416, 256
-0.860771, 305, 1, 432, 375
-0.863825, 353, 1, 480, 256
-0.870006, 369, 97, 496, 352
-0.878087, 257, 1, 384, 375
-0.883306, 1, 177, 500, 304
-0.887954, 1, 225, 500, 352
-0.897121, 1, 113, 500, 240
-0.902608, 81, 1, 208, 375
-0.904404, 49, 65, 176, 320
-0.905665, 97, 1, 224, 256
-0.905917, 17, 1, 144, 375
-0.906627, 129, 209, 384, 336
-0.906826, 129, 113, 384, 240
-0.907771, 1, 1, 500, 128
-0.908744, 1, 1, 128, 256
-0.909338, 1, 65, 500, 192
-0.909953, 97, 97, 224, 352
-0.910789, 129, 33, 384, 160
-0.912784, 225, 241, 480, 368
-0.915254, 225, 49, 480, 176
-0.9153, 225, 129, 480, 256
-0.918153, 33, 129, 288, 256
-0.91826, 33, 177, 288, 304
-0.920452, 257, 193, 500, 320
-0.92192, 1, 97, 128, 352
-0.924803, 1, 17, 256, 144
-0.927624, 145, 33, 272, 160
-0.928119, 129, 161, 384, 288
-0.928945, 193, 177, 320, 304
-0.930301, 289, 177, 416, 304
-0.931025, 225, 1, 480, 128
-0.931926, 337, 129, 464, 256
-0.933038, 257, 241, 384, 368
-0.933191, 305, 225, 432, 352
-0.935228, 281, 225, 344, 352
-0.935231, 145, 209, 272, 336
-0.935243, 241, 1, 368, 128
-0.93537, 1, 81, 256, 208
-0.936929, 249, 177, 312, 304
-0.937338, 33, 241, 288, 368
-0.937365, 193, 177, 256, 304
-0.938093, 145, 49, 208, 176
-0.938356, 145, 81, 272, 208
-0.938412, 257, 129, 384, 256
-0.939787, 209, 225, 336, 352
-0.940397, 193, 33, 320, 160
-0.94113, 433, 1, 496, 128
-0.941632, 169, 225, 232, 352
-0.942006, 129, 161, 256, 288
-0.942066, 353, 225, 416, 352
-0.943406, 209, 129, 336, 256
-0.943803, 217, 193, 280, 320
-0.944016, 393, 209, 456, 336
-0.944121, 401, 49, 464, 176
-0.944499, 145, 1, 208, 128
-0.944528, 369, 225, 496, 352
-0.945818, 353, 177, 480, 304
-0.945954, 305, 65, 432, 192
-0.94618, 321, 209, 384, 336
-0.946745, 169, 161, 232, 288
-0.948607, 321, 1, 448, 128
-0.948765, 209, 1, 272, 128
-0.949463, 145, 161, 208, 288
-0.949554, 233, 129, 296, 256
-0.950232, 273, 113, 336, 240
-0.950271, 257, 241, 320, 304
-0.950398, 185, 1, 248, 128
-0.950559, 361, 1, 424, 128
-0.950585, 257, 225, 320, 352
-0.950902, 401, 97, 464, 224
-0.951079, 257, 49, 384, 176
-0.951128, 257, 33, 320, 160
-0.951448, 25, 1, 88, 128
-0.951982, 433, 161, 496, 288
-0.952073, 377, 49, 440, 176
-0.952269, 401, 1, 464, 128
-0.952574, 17, 113, 80, 240
-0.952587, 209, 265, 272, 328
-0.952963, 209, 225, 272, 288
-0.953389, 9, 65, 72, 192
-0.953491, 369, 49, 496, 176
-0.95358, 233, 33, 296, 160
-0.953697, 273, 177, 336, 304
-0.954179, 321, 161, 384, 288
-0.954277, 169, 241, 232, 304
-0.954515, 417, 225, 480, 352
-0.95469, 169, 49, 232, 176
-0.954858, 433, 97, 496, 224
-0.954903, 153, 97, 216, 224
-0.954907, 145, 209, 208, 336
-0.955068, 433, 49, 496, 176
-0.955447, 241, 177, 368, 304
-0.955677, 305, 49, 368, 176
-0.955712, 361, 145, 424, 272
-0.955749, 201, 201, 264, 264
-0.956461, 145, 49, 208, 112
-0.956516, 393, 241, 456, 304
-0.956807, 377, 289, 440, 352
-0.956834, 257, 193, 320, 256
-0.95704, 369, 1, 496, 128
-0.957313, 225, 185, 288, 248
-0.957317, 385, 161, 448, 288
-0.957685, 25, 121, 88, 184
-0.957818, 289, 257, 352, 320
-0.957887, 81, 1, 208, 128
-0.958017, 129, 113, 192, 240
-0.95807, 49, 81, 176, 208
-0.958159, 97, 49, 224, 176
-0.958416, 233, 81, 296, 208
-0.958423, 233, 241, 296, 368
-0.958615, 353, 265, 416, 328
-0.958618, 361, 225, 424, 288
-0.958729, 153, 137, 216, 200
-0.958771, 1, 1, 128, 128
-0.95885, 297, 161, 360, 288
-0.95916, 409, 161, 472, 288
-0.959521, 369, 97, 432, 224
-0.959606, 209, 81, 336, 208
-0.959629, 321, 241, 384, 304
-0.959788, 145, 25, 208, 88
-0.960154, 313, 273, 376, 336
-0.96036, 409, 105, 472, 168
-0.960446, 177, 209, 240, 272
-0.960453, 1, 113, 128, 240
-0.960489, 177, 273, 240, 336
-0.960548, 193, 225, 256, 352
-0.960663, 337, 305, 400, 368
-0.960742, 233, 249, 296, 312
-0.96077, 249, 1, 312, 64
-0.961748, 289, 1, 352, 64
-0.961966, 1, 1, 64, 128
-0.96201, 281, 17, 344, 144
-0.96219, 193, 49, 256, 176
-0.962227, 257, 105, 320, 168
-0.962237, 345, 49, 408, 176
-0.962437, 209, 129, 272, 256
-0.962813, 145, 169, 208, 232
-0.962838, 393, 313, 456, 375
-0.962883, 321, 1, 384, 128
-0.962883, 145, 113, 208, 176
-0.962949, 281, 233, 344, 296
-0.962979, 233, 217, 296, 280
-0.963142, 417, 225, 480, 288
-0.963392, 145, 209, 208, 272
-0.963556, 385, 201, 448, 264
-0.963867, 177, 177, 240, 240
-0.963912, 225, 1, 288, 64
-0.96398, 281, 121, 344, 184
-0.964084, 393, 73, 456, 136
-0.96422, 281, 281, 344, 344
-0.964409, 297, 113, 360, 240
-0.96444, 433, 33, 496, 96
-0.964512, 377, 1, 440, 64
-0.96452, 385, 105, 448, 168
-0.964634, 361, 201, 424, 264
-0.964636, 217, 113, 280, 176
-0.964969, 65, 129, 192, 256
-0.965259, 249, 57, 312, 120
-0.96529, 185, 25, 248, 88
-0.965302, 1, 65, 128, 192
-0.965368, 401, 265, 464, 328
-0.965729, 33, 65, 96, 192
-0.965865, 145, 1, 208, 64
-0.966276, 273, 81, 336, 144
-0.966283, 425, 257, 488, 320
-0.96645, 249, 289, 312, 352
-0.966474, 1, 81, 64, 144
-0.96652, 169, 97, 232, 160
-0.96652, 225, 97, 288, 352
-0.966594, 257, 217, 320, 280
-0.966626, 281, 305, 344, 368
-0.966676, 313, 1, 376, 64
-0.966684, 145, 233, 208, 296
-0.966694, 305, 297, 368, 360
-0.96679, 417, 289, 480, 352
-0.966858, 321, 121, 384, 184
-0.966937, 409, 17, 472, 80
-0.966962, 281, 201, 344, 264
-0.96703, 113, 49, 176, 176
-0.967053, 25, 153, 88, 216
-0.967247, 185, 137, 248, 200
-0.967292, 145, 281, 208, 344
-0.967318, 433, 169, 496, 232
-0.967426, 433, 65, 496, 128
-0.967436, 313, 49, 376, 112
-0.967709, 25, 161, 88, 288
-0.967733, 433, 137, 496, 200
-0.967733, 401, 145, 464, 208
-0.967822, 321, 185, 384, 248
-0.968031, 281, 65, 344, 192
-0.968155, 145, 89, 208, 152
-0.968169, 177, 97, 240, 224
-0.968206, 9, 57, 72, 120
-0.968283, 313, 145, 376, 208
-0.968339, 273, 265, 400, 328
-0.968562, 65, 209, 192, 336
-0.968564, 353, 145, 416, 208
-0.96866, 385, 41, 448, 104
-0.968699, 193, 225, 320, 288
-0.9687, 249, 25, 312, 88
-0.968766, 321, 97, 384, 224
-0.969003, 305, 217, 368, 280
-0.969209, 225, 161, 288, 224
-0.969242, 121, 161, 184, 288
-0.969411, 313, 89, 376, 152
-0.969429, 265, 169, 328, 232
-0.969497, 249, 81, 312, 144
-0.969535, 169, 73, 232, 136
-0.969757, 409, 177, 472, 240
-0.969861, 145, 1, 208, 256
-0.969956, 361, 121, 424, 184
-0.970128, 201, 65, 264, 128
-0.970145, 145, 49, 272, 112
-0.970165, 193, 265, 320, 328
-0.970389, 201, 1, 264, 64
-0.970496, 289, 49, 352, 112
-0.970544, 41, 113, 104, 240
-0.970728, 337, 17, 400, 80
-0.970829, 17, 1, 80, 256
-0.970892, 1, 25, 64, 88
-0.970929, 329, 217, 392, 280
-0.970961, 121, 209, 184, 336
-0.971078, 289, 161, 352, 224
-0.97133, 25, 241, 88, 368
-0.971431, 337, 289, 464, 352
-0.97148, 145, 241, 272, 304
-0.971515, 193, 201, 320, 264
-0.971524, 17, 1, 80, 64
-0.971665, 213, 193, 244, 256
-0.971727, 273, 25, 336, 88
-0.97191, 25, 217, 88, 280
-0.971976, 193, 177, 320, 240
-0.972145, 257, 137, 320, 200
-0.972234, 209, 33, 272, 96
-0.972296, 257, 265, 320, 328
-0.972325, 145, 193, 272, 256
-0.972368, 401, 33, 464, 288
-0.97242, 169, 49, 232, 112
-0.972481, 25, 81, 88, 144
-0.972645, 25, 177, 88, 240
-0.972728, 357, 241, 388, 368
-0.972771, 209, 89, 272, 152
-0.972856, 361, 25, 424, 88
-0.972864, 221, 177, 252, 304
-0.972945, 433, 89, 496, 152
-0.972983, 289, 225, 320, 352
-0.973031, 233, 137, 296, 200
-0.973156, 1, 153, 64, 216
-0.973224, 417, 129, 480, 375
-0.973323, 273, 177, 304, 240
-0.973538, 1, 121, 64, 184
-0.973556, 273, 185, 400, 248
-0.973578, 409, 201, 472, 264
-0.9736, 193, 1, 256, 256
-0.973618, 145, 217, 272, 280
-0.973697, 377, 97, 440, 352
-0.973774, 257, 1, 320, 256
-0.973785, 201, 217, 232, 280
-0.973787, 289, 289, 416, 352
-0.973789, 225, 9, 352, 72
-0.973828, 345, 97, 408, 224
-0.973876, 257, 241, 384, 304
-0.974038, 357, 289, 388, 352
-0.974259, 333, 241, 364, 368
-0.97428, 177, 73, 304, 136
-0.974559, 353, 65, 416, 128
-0.974661, 145, 265, 272, 328
-0.97469, 129, 145, 192, 208
-0.974846, 345, 241, 376, 368
-0.974852, 169, 1, 232, 64
-0.974862, 161, 305, 224, 368
-0.974865, 9, 257, 72, 320
-0.974932, 209, 177, 240, 304
-0.974991, 193, 241, 224, 304
-0.975022, 225, 193, 256, 256
-0.975043, 337, 137, 464, 200
-0.975074, 1, 241, 128, 368
-0.97514, 365, 257, 396, 320
-0.975154, 193, 113, 256, 176
-0.975206, 273, 161, 400, 224
-0.975297, 321, 9, 352, 72
-0.975323, 305, 25, 432, 88
-0.975366, 377, 153, 440, 216
-0.975376, 409, 41, 472, 104
-0.975447, 33, 241, 96, 304
-0.975467, 217, 1, 280, 256
-0.975511, 353, 265, 480, 328
-0.97556, 177, 97, 240, 352
-0.975724, 1, 281, 64, 344
-0.975811, 209, 289, 272, 352
-0.975826, 257, 49, 384, 112
-0.97583, 337, 65, 464, 128
-0.97584, 121, 113, 184, 176
-0.97587, 433, 9, 496, 72
-0.975947, 145, 97, 272, 160
-0.975993, 265, 97, 328, 352
-0.976005, 433, 113, 496, 176
-0.976008, 369, 169, 496, 232
-0.97617, 145, 25, 272, 88
-0.976201, 377, 265, 440, 328
-0.976208, 313, 193, 344, 320
-0.976247, 153, 113, 184, 176
-0.976262, 145, 137, 272, 200
-0.976299, 153, 97, 184, 224
-0.976305, 1, 305, 64, 368
-0.976309, 361, 313, 424, 375
-0.976336, 173, 33, 204, 160
-0.976398, 361, 177, 424, 240
-0.976417, 305, 225, 432, 288
-0.976453, 337, 97, 464, 160
-0.976455, 297, 1, 360, 256
-0.97646, 149, 49, 180, 176
-0.976503, 345, 273, 376, 336
-0.976615, 341, 193, 372, 320
-0.976669, 369, 33, 496, 96
-0.976744, 441, 33, 472, 160
-0.97679, 377, 265, 408, 328
-0.976889, 241, 265, 272, 328
-0.976947, 289, 313, 416, 375
-0.977029, 145, 257, 208, 320
-0.977059, 233, 9, 264, 72
-0.977059, 213, 265, 244, 328
-0.977195, 245, 49, 276, 176
-0.977252, 169, 225, 200, 352
-0.977283, 209, 137, 272, 200
-0.977304, 1, 225, 64, 288
-0.977393, 1, 209, 64, 336
-0.977441, 209, 289, 336, 352
-0.97765, 25, 129, 88, 375
-0.977657, 213, 233, 244, 296
-0.977718, 157, 209, 188, 336
-0.977747, 401, 257, 432, 320
-0.977806, 273, 129, 400, 192
-0.977916, 389, 241, 420, 368
-0.977998, 437, 81, 468, 208
-0.977999, 289, 241, 320, 304
-0.978018, 337, 297, 368, 360
-0.978039, 301, 241, 332, 368
-0.978105, 261, 193, 292, 320
-0.978113, 373, 225, 404, 352
-0.978148, 261, 1, 292, 128
-0.978153, 333, 265, 364, 328
-0.978155, 233, 225, 264, 288
-0.978184, 233, 1, 264, 128
-0.978191, 345, 97, 408, 352
-0.978281, 305, 1, 432, 64
-0.978291, 105, 97, 168, 224
-0.978334, 157, 225, 188, 288
-0.978338, 369, 1, 432, 256
-0.97834, 153, 161, 184, 288
-0.978362, 129, 1, 256, 64
-0.978392, 373, 1, 404, 128
-0.978411, 353, 225, 480, 288
-0.978421, 225, 65, 288, 128
-0.978498, 325, 1, 356, 128
-0.978501, 253, 249, 284, 312
-0.978522, 57, 65, 120, 192
-0.978525, 297, 129, 360, 375
-0.978528, 345, 1, 408, 256
-0.978543, 241, 209, 368, 272
-0.978558, 245, 1, 276, 128
-0.97857, 309, 289, 340, 352
-0.978608, 369, 201, 496, 264
-0.978611, 273, 161, 304, 288
-0.97863, 321, 1, 384, 256
-0.978646, 261, 201, 292, 264
-0.978646, 229, 257, 260, 320
-0.978648, 393, 225, 424, 288
-0.978669, 361, 1, 424, 375
-0.978724, 1, 129, 128, 192
-0.978748, 1, 161, 128, 288
-0.978764, 389, 273, 420, 336
-0.978798, 321, 161, 448, 224
-0.978804, 1, 161, 64, 288
-0.978819, 401, 65, 432, 192
-0.978849, 437, 209, 468, 336
-0.978859, 305, 1, 336, 128
-0.978918, 257, 73, 384, 136
-0.978928, 165, 161, 196, 288
-0.979016, 469, 113, 500, 240
-0.979039, 293, 1, 324, 128
-0.9791, 161, 1, 192, 128
-0.979137, 389, 129, 420, 256
-0.97915, 441, 145, 472, 272
-0.979257, 445, 25, 476, 88
-0.979272, 261, 225, 292, 288
-0.979286, 317, 49, 348, 112
-0.979317, 153, 57, 184, 120
-0.979322, 157, 281, 188, 344
-0.979331, 113, 1, 176, 128
-0.979357, 173, 25, 204, 88
-0.979382, 181, 209, 212, 272
-0.979401, 225, 145, 352, 208
-0.979443, 213, 225, 244, 352
-0.979485, 373, 177, 404, 304
-0.979624, 245, 1, 276, 64
-0.979651, 129, 169, 256, 232
-0.979658, 461, 33, 492, 160
-0.979667, 185, 1, 216, 128
-0.979676, 417, 233, 448, 296
-0.979695, 457, 97, 488, 224
-0.979701, 277, 249, 308, 312
-0.979726, 145, 289, 272, 352
-0.979728, 65, 129, 192, 192
-0.979765, 321, 201, 448, 264
-0.979906, 245, 33, 276, 96
-0.979954, 153, 145, 184, 208
-0.979959, 225, 121, 352, 184
-0.979963, 281, 297, 312, 360
-0.979969, 469, 161, 500, 288
-0.980025, 273, 97, 400, 160
-0.980045, 353, 1, 480, 64
-0.98005, 421, 177, 452, 304
-0.980071, 277, 201, 308, 264
-0.98008, 309, 121, 340, 184
-0.980124, 165, 105, 196, 168
-0.980188, 425, 225, 456, 352
-0.980223, 421, 49, 452, 176
-0.98028, 425, 1, 488, 256
-0.980329, 285, 177, 316, 304
-0.980372, 405, 225, 436, 352
-0.980396, 221, 1, 252, 128
-0.980399, 313, 233, 344, 296
-0.980445, 409, 201, 440, 264
-0.980463, 281, 81, 312, 144
-0.980464, 53, 65, 84, 192
-0.980495, 333, 1, 364, 64
-0.980569, 209, 97, 336, 160
-0.980581, 177, 1, 304, 64
-0.980622, 181, 241, 212, 304
-0.980652, 169, 249, 200, 312
-0.980758, 221, 17, 252, 80
-0.980816, 353, 193, 384, 320
-0.980817, 193, 41, 320, 104
-0.980826, 1, 49, 128, 112
-0.980847, 153, 89, 184, 152
-0.980847, 177, 161, 208, 288
-0.980855, 421, 1, 452, 128
-0.980868, 329, 145, 360, 208
-0.980879, 49, 113, 80, 240
-0.9809, 265, 49, 296, 176
-0.980939, 181, 209, 212, 336
-0.980996, 329, 161, 360, 288
-0.981021, 429, 225, 460, 288
-0.981024, 257, 1, 320, 375
-0.981031, 181, 49, 212, 112
-0.981032, 197, 161, 228, 288
-0.981114, 353, 1, 384, 128
-0.981129, 401, 1, 464, 375
-0.981131, 169, 281, 200, 344
-0.981139, 321, 241, 352, 368
-0.981161, 425, 97, 456, 224
-0.981251, 377, 289, 408, 352
-0.981466, 321, 265, 352, 328
-0.981635, 413, 97, 444, 224
-0.981639, 149, 1, 180, 128
-0.981667, 97, 57, 224, 120
-0.981701, 273, 209, 304, 336
-0.981733, 373, 49, 404, 176
-0.981765, 45, 1, 76, 128
-0.981798, 433, 265, 464, 328
-0.981845, 249, 217, 280, 280
-0.981888, 201, 193, 232, 256
-0.98193, 425, 81, 456, 144
-0.982069, 17, 33, 48, 160
-0.982069, 165, 137, 196, 200
-0.982113, 173, 1, 204, 64
-0.982167, 441, 105, 472, 168
-0.982186, 49, 17, 112, 144
-0.982244, 25, 129, 56, 192
-0.982278, 293, 281, 324, 344
-0.982285, 29, 81, 60, 144
-0.982301, 265, 257, 296, 320
-0.982323, 29, 65, 60, 192
-0.98234, 301, 249, 332, 312
-0.982344, 65, 225, 192, 288
-0.982348, 261, 97, 292, 224
-0.982374, 409, 89, 440, 152
-0.982391, 217, 1, 280, 375
-0.982432, 233, 177, 264, 304
-0.982536, 221, 305, 252, 368
-0.982543, 461, 145, 492, 208
-0.982589, 257, 57, 288, 120
-0.982639, 389, 249, 420, 312
-0.982656, 177, 137, 208, 200
-0.982683, 265, 113, 296, 176
-0.982699, 389, 193, 420, 256
-0.98271, 37, 49, 68, 112
-0.98272, 29, 1, 60, 128
-0.982722, 469, 185, 500, 248
-0.982742, 305, 49, 336, 176
-0.982743, 65, 105, 192, 168
-0.982744, 65, 153, 192, 216
-0.982747, 197, 89, 228, 152
-0.982777, 33, 113, 64, 240
-0.982817, 305, 1, 336, 64
-0.982817, 165, 97, 196, 224
-0.982861, 401, 281, 432, 344
-0.982945, 441, 289, 472, 352
-0.982954, 177, 113, 208, 176
-0.982973, 153, 185, 184, 248
-0.982988, 237, 289, 268, 352
-0.982999, 361, 129, 392, 256
-0.983, 97, 249, 224, 312
-0.983005, 349, 233, 380, 296
-0.983012, 397, 113, 428, 176
-0.983014, 309, 25, 340, 88
-0.983033, 201, 225, 232, 352
-0.983047, 341, 153, 372, 216
-0.983072, 37, 113, 68, 176
-0.983074, 153, 33, 184, 96
-0.983086, 245, 89, 276, 152
-0.983089, 329, 1, 392, 375
-0.983152, 153, 97, 216, 352
-0.983158, 49, 81, 80, 144
-0.983168, 301, 57, 332, 120
-0.983213, 81, 25, 208, 88
-0.98322, 433, 1, 496, 375
-0.983248, 237, 129, 268, 256
-0.983282, 337, 313, 464, 375
-0.983337, 413, 145, 444, 208
-0.983379, 453, 249, 484, 312
-0.983433, 53, 209, 84, 272
-0.983443, 337, 177, 368, 240
-0.983472, 385, 17, 416, 80
-0.983499, 373, 217, 404, 280
-0.983513, 397, 177, 428, 304
-0.983611, 301, 81, 332, 144
-0.98365, 185, 49, 216, 176
-0.983677, 401, 57, 432, 120
-0.983677, 461, 305, 492, 368
-0.983697, 249, 241, 280, 368
-0.983725, 261, 281, 292, 344
-0.983727, 453, 161, 484, 288
-0.983748, 413, 289, 444, 352
-0.983783, 169, 1, 232, 256
-0.983814, 293, 9, 324, 72
-0.983814, 13, 121, 44, 184
-0.983918, 281, 1, 312, 64
-0.983928, 413, 257, 444, 320
-0.983937, 49, 1, 112, 256
-0.983939, 461, 225, 492, 352
-0.983943, 433, 145, 464, 208
-0.983984, 1, 153, 128, 216
-0.983991, 145, 1, 208, 375
-0.983995, 457, 177, 488, 240
-0.983998, 265, 89, 296, 152
-0.984005, 1, 81, 128, 144
-0.984026, 301, 177, 332, 304
-0.984034, 421, 25, 452, 88
-0.984077, 37, 145, 68, 208
-0.984081, 333, 25, 364, 88
-0.98409, 281, 97, 312, 224
-0.984094, 421, 185, 452, 248
-0.984166, 157, 257, 188, 320
-0.984208, 53, 129, 84, 192
-0.984307, 325, 289, 356, 352
-0.984326, 317, 313, 348, 375
-0.984371, 341, 1, 372, 128
-0.984386, 165, 177, 196, 240
-0.98439, 249, 129, 280, 256
-0.984426, 385, 65, 416, 192
-0.984483, 5, 305, 36, 368
-0.98452, 409, 177, 440, 304
-0.984593, 445, 161, 476, 224
-0.98462, 13, 41, 44, 104
-0.98463, 425, 105, 456, 168
-0.984639, 193, 25, 224, 88
-0.984649, 401, 33, 432, 96
-0.984685, 393, 17, 424, 144
-0.984699, 249, 193, 280, 320
-0.984714, 405, 1, 436, 128
-0.984732, 49, 57, 80, 120
-0.984759, 65, 145, 128, 272
-0.984773, 165, 49, 196, 112
-0.984812, 81, 177, 208, 240
-0.984851, 1, 225, 128, 288
-0.984931, 145, 313, 272, 375
-0.984957, 1, 129, 64, 375
-0.984958, 289, 1, 352, 375
-0.984984, 97, 81, 224, 144
-0.985033, 341, 97, 372, 224
-0.985056, 385, 193, 416, 320
-0.985207, 49, 241, 112, 368
-0.985348, 1, 105, 128, 168
-0.98537, 321, 97, 384, 352
-0.985459, 65, 273, 192, 336
-0.985474, 145, 209, 176, 336
-0.985479, 361, 49, 392, 176
-0.985672, 209, 129, 240, 256
-0.985715, 49, 49, 176, 112
-0.98575, 185, 1, 248, 375
-0.985813, 209, 1, 240, 128
-0.985827, 49, 1, 176, 64
-0.985958, 41, 65, 72, 192
-0.986027, 53, 161, 84, 288
-0.986047, 345, 145, 376, 272
-0.986157, 9, 161, 40, 288
-0.986172, 317, 49, 348, 176
-0.986178, 449, 209, 480, 336
-0.986191, 201, 129, 264, 375
-0.986193, 17, 1, 80, 375
-0.986373, 237, 241, 268, 368
-0.986516, 373, 129, 404, 256
-0.986614, 225, 225, 256, 352
-0.986716, 1, 17, 128, 80
-0.986725, 313, 113, 344, 240
-0.98673, 201, 49, 232, 176
-0.986742, 9, 81, 40, 208
-0.986781, 21, 113, 52, 240
-0.986782, 65, 297, 192, 360
-0.986785, 5, 1, 36, 128
-0.986858, 225, 49, 256, 176
-0.986895, 65, 201, 192, 264
-0.98697, 261, 241, 292, 368
-0.987029, 277, 49, 308, 176
-0.987031, 49, 193, 112, 320
-0.987111, 1, 265, 128, 328
-0.987148, 241, 313, 368, 375
-0.987249, 349, 49, 380, 176
-0.987345, 41, 241, 72, 368
-0.987381, 49, 249, 176, 312
-0.987456, 293, 113, 324, 240
-0.987528, 221, 113, 252, 240
-0.98755, 281, 1, 312, 128
-0.987725, 401, 129, 432, 256
-0.987806, 13, 241, 44, 368
-0.987825, 1, 185, 128, 248
-0.987874, 113, 65, 176, 320
-0.988085, 209, 229, 272, 260
-0.988088, 325, 97, 356, 224
-0.988533, 193, 313, 320, 375
-0.98867, 181, 97, 212, 224
-0.988696, 193, 273, 256, 304
-0.988706, 293, 65, 324, 192
-0.988905, 1, 289, 128, 352
-0.988947, 193, 193, 448, 256
-0.989018, 177, 245, 240, 276
-0.989161, 49, 73, 176, 136
-0.989213, 41, 161, 72, 288
-0.989338, 49, 97, 112, 352
-0.989383, 161, 277, 224, 308
-0.989385, 129, 265, 384, 328
-0.989495, 153, 241, 216, 272
-0.98951, 417, 245, 480, 276
-0.989529, 313, 321, 376, 352
-0.989542, 217, 265, 280, 296
-0.989545, 257, 245, 320, 276
-0.989575, 353, 289, 416, 320
-0.989586, 145, 97, 208, 128
-0.989597, 257, 233, 320, 264
-0.989638, 249, 217, 312, 248
-0.989663, 261, 145, 292, 272
-0.989668, 401, 109, 464, 140
-0.989688, 353, 277, 416, 308
-0.989735, 209, 201, 272, 232
-0.989758, 153, 253, 216, 284
-0.98976, 25, 161, 56, 288
-0.9898, 29, 209, 60, 336
-0.989814, 185, 213, 248, 244
-0.98982, 153, 177, 216, 208
-0.989824, 377, 289, 440, 320
-0.989833, 145, 57, 208, 88
-0.989833, 401, 145, 464, 176
-0.989842, 129, 241, 384, 304
-0.98986, 129, 297, 384, 360
-0.989881, 217, 277, 280, 308
-0.989882, 313, 273, 376, 304
-0.989909, 321, 309, 384, 340
-0.989989, 257, 121, 320, 152
-0.989996, 289, 265, 352, 296
-0.990003, 197, 1, 228, 128
-0.990003, 161, 49, 192, 176
-0.990006, 353, 265, 416, 296
-0.990056, 329, 253, 392, 284
-0.990071, 313, 285, 376, 316
-0.990104, 129, 89, 384, 152
-0.990114, 353, 345, 416, 375
-0.990121, 249, 1, 312, 32
-0.990129, 185, 233, 248, 264
-0.990136, 129, 33, 384, 96
-0.990138, 289, 1, 352, 32
-0.990139, 25, 129, 88, 160
-0.990171, 273, 325, 336, 356
-0.990195, 145, 133, 208, 164
-0.990196, 233, 137, 296, 168
-0.9902, 193, 97, 224, 224
-0.9902, 241, 265, 304, 296
-0.990203, 321, 137, 384, 168
-0.990206, 153, 229, 216, 260
-0.990223, 185, 37, 248, 68
-0.990237, 217, 249, 280, 280
-0.990256, 145, 37, 208, 68
-0.990292, 369, 241, 432, 272
-0.990327, 297, 237, 360, 268
-0.990331, 225, 1, 288, 32
-0.990342, 433, 37, 496, 68
-0.99035, 425, 121, 488, 152
-0.990354, 273, 277, 336, 308
-0.990356, 345, 305, 408, 336
-0.990367, 1, 313, 128, 375
-0.990373, 233, 181, 296, 212
-0.990388, 281, 129, 344, 160
-0.990398, 209, 213, 272, 244
-0.990403, 345, 197, 408, 228
-0.990407, 169, 133, 232, 164
-0.990408, 193, 261, 256, 292
-0.990415, 257, 205, 320, 236
-0.990419, 361, 149, 424, 180
-0.990431, 169, 85, 232, 116
-0.990436, 9, 65, 72, 96
-0.990447, 409, 25, 472, 56
-0.990455, 289, 173, 352, 204
-0.990458, 249, 193, 312, 224
-0.990466, 393, 61, 456, 92
-0.990471, 289, 225, 352, 256
-0.990471, 9, 81, 72, 112
-0.990472, 273, 97, 336, 128
-0.990481, 409, 41, 472, 72
-0.990486, 377, 253, 440, 284
-0.990497, 9, 157, 72, 188
-0.990509, 185, 185, 248, 216
-0.990553, 17, 45, 80, 76
-0.990561, 225, 273, 480, 336
-0.990608, 25, 117, 88, 148
-0.990624, 145, 117, 208, 148
-0.990635, 433, 185, 496, 216
-0.990639, 281, 33, 344, 64
-0.990642, 385, 133, 448, 164
-0.99066, 281, 249, 344, 280
-0.990664, 233, 105, 296, 136
-0.990682, 153, 149, 216, 180
-0.990696, 249, 81, 312, 112
-0.990705, 297, 149, 360, 180
-0.99072, 433, 157, 496, 188
-0.990727, 193, 133, 256, 164
-0.990727, 145, 73, 208, 104
-0.990731, 321, 193, 384, 224
-0.990738, 233, 205, 296, 236
-0.99074, 313, 297, 376, 328
-0.990743, 129, 57, 384, 120
-0.990749, 129, 153, 384, 216
-0.990749, 233, 41, 296, 72
-0.990752, 393, 89, 456, 120
-0.990756, 169, 21, 232, 52
-0.990757, 401, 157, 464, 188
-0.990767, 249, 281, 312, 312
-0.990768, 249, 57, 312, 88
-0.990783, 433, 173, 496, 204
-0.990793, 185, 5, 248, 36
-0.990803, 161, 289, 224, 320
-0.990803, 409, 293, 472, 324
-0.990822, 377, 225, 440, 256
-0.990837, 1, 1, 64, 32
-0.990838, 433, 57, 496, 88
-0.990847, 313, 181, 376, 212
-0.990848, 393, 73, 456, 104
-0.990856, 305, 81, 368, 112
-0.990867, 65, 217, 320, 280
-0.990873, 145, 165, 208, 196
-0.990888, 137, 281, 200, 312
-0.990895, 217, 25, 280, 56
-0.990903, 33, 185, 288, 248
-0.99091, 1, 33, 64, 64
-0.990911, 153, 265, 216, 296
-0.990929, 369, 213, 432, 244
-0.990949, 249, 69, 312, 100
-0.990959, 353, 69, 416, 100
-0.990963, 257, 137, 320, 168
-0.990963, 321, 161, 384, 192
-0.990967, 289, 213, 352, 244
-0.990971, 169, 105, 232, 136
-0.990978, 417, 5, 480, 36
-0.990978, 409, 233, 472, 264
-0.990982, 385, 13, 448, 44
-0.990986, 321, 149, 384, 180
-0.990993, 345, 217, 408, 248
-0.991, 433, 141, 496, 172
-0.991015, 401, 121, 464, 152
-0.991017, 369, 37, 432, 68
-0.991021, 297, 333, 360, 364
-0.991022, 265, 181, 328, 212
-0.991028, 233, 237, 296, 268
-0.991053, 113, 1, 176, 375
-0.991054, 377, 1, 440, 32
-0.991067, 337, 13, 400, 44
-0.99132, 129, 129, 384, 192
-0.991435, 1, 273, 500, 336
-0.991562, 129, 9, 384, 72
-0.991566, 33, 257, 288, 320
-0.991595, 33, 65, 288, 128
-0.991727, 257, 169, 500, 232
-0.991729, 33, 1, 288, 64
-0.991834, 257, 49, 500, 112
-0.99196, 257, 313, 500, 375
-0.991979, 1, 89, 256, 152
-0.992039, 1, 113, 256, 176
-0.992055, 225, 249, 480, 312
-0.992165, 277, 185, 308, 216
-0.992216, 353, 293, 384, 324
-0.992223, 225, 89, 480, 152
-0.992239, 217, 197, 248, 228
-0.992283, 257, 225, 500, 288
-0.9923, 189, 237, 220, 268
-0.992328, 253, 245, 284, 276
-0.992334, 257, 113, 500, 176
-0.99237, 221, 261, 252, 292
-0.992389, 153, 117, 184, 148
-0.992399, 161, 217, 416, 280
-0.992416, 245, 53, 276, 84
-0.992429, 341, 269, 372, 300
-0.992444, 201, 237, 232, 268
-0.992484, 209, 269, 240, 300
-0.992489, 453, 241, 484, 272
-0.992492, 217, 209, 248, 240
-0.992505, 361, 257, 392, 288
-0.992505, 317, 321, 348, 352
-0.992511, 397, 281, 428, 312
-0.992512, 1, 217, 500, 280
-0.992527, 157, 285, 188, 316
-0.99254, 193, 277, 224, 308
-0.992544, 241, 269, 272, 300
-0.992558, 1, 129, 500, 192
-0.992576, 229, 21, 260, 52
-0.992582, 381, 293, 412, 324
-0.992583, 217, 229, 248, 260
-0.992587, 333, 257, 364, 288
-0.992599, 257, 213, 288, 244
-0.992622, 237, 41, 268, 72
-0.992632, 469, 241, 500, 272
-0.992636, 329, 21, 360, 52
-0.992643, 185, 133, 216, 164
-0.992645, 173, 37, 204, 68
-0.992648, 265, 225, 296, 256
-0.992649, 169, 277, 200, 308
-0.992649, 417, 101, 448, 132
-0.992653, 225, 17, 480, 80
-0.992665, 233, 285, 264, 316
-0.992668, 217, 29, 248, 60
-0.992672, 357, 305, 388, 336
-0.992674, 337, 313, 368, 344
-0.99268, 33, 161, 288, 224
-0.99268, 309, 129, 340, 160
-0.992681, 313, 1, 344, 32
-0.992687, 153, 93, 184, 124
-0.992688, 377, 269, 408, 300
-0.992689, 325, 9, 356, 40
-0.992692, 445, 29, 476, 60
-0.992693, 237, 225, 268, 256
-0.992699, 465, 185, 496, 216
-0.992701, 453, 293, 484, 324
-0.992703, 201, 249, 232, 280
-0.99271, 305, 317, 336, 348
-0.99271, 441, 105, 472, 136
-0.992711, 297, 81, 328, 112
-0.992715, 225, 137, 480, 200
-0.99272, 381, 25, 412, 56
-0.99273, 205, 217, 236, 248
-0.992732, 329, 145, 360, 176
-0.992741, 193, 233, 320, 264
-0.992742, 181, 277, 212, 308
-0.992743, 369, 297, 400, 328
-0.992746, 57, 1, 120, 375
-0.992747, 365, 285, 396, 316
-0.992756, 257, 281, 288, 312
-0.992757, 421, 245, 452, 276
-0.992758, 265, 181, 296, 212
-0.992762, 321, 45, 352, 76
-0.992767, 269, 205, 300, 236
-0.992769, 341, 181, 372, 212
-0.992769, 341, 281, 372, 312
-0.992771, 353, 181, 384, 212
-0.992773, 221, 45, 252, 76
-0.992776, 221, 277, 252, 308
-0.992777, 245, 1, 276, 32
-0.992778, 157, 269, 188, 300
-0.992782, 73, 225, 136, 352
-0.992782, 165, 97, 196, 128
-0.992784, 289, 245, 320, 276
-0.992784, 1, 5, 32, 36
-0.992787, 149, 105, 180, 136
-0.992788, 309, 41, 340, 72
-0.992792, 233, 9, 264, 40
-0.992793, 329, 269, 360, 300
-0.992793, 241, 253, 272, 284
-0.992799, 461, 253, 492, 284
-0.9928, 429, 101, 460, 132
-0.992804, 345, 249, 376, 280
-0.992811, 353, 281, 384, 312
-0.992819, 1, 33, 32, 64
-0.992819, 457, 333, 488, 364
-0.992821, 413, 157, 444, 188
-0.992821, 17, 117, 48, 148
-0.992822, 257, 61, 288, 92
-0.992822, 425, 141, 456, 172
-0.992825, 289, 233, 320, 264
-0.992827, 305, 53, 336, 84
-0.99283, 153, 169, 184, 200
-0.992833, 377, 213, 408, 244
-0.99284, 153, 57, 184, 88
-0.992842, 29, 33, 60, 64
-0.992842, 177, 241, 208, 272
-0.992845, 189, 77, 220, 108
-0.992849, 253, 233, 284, 264
-0.992849, 341, 297, 372, 328
-0.992849, 345, 169, 376, 200
-0.992851, 165, 237, 196, 268
-0.992862, 329, 185, 360, 216
-0.992862, 385, 281, 416, 312
-0.992864, 201, 205, 232, 236
-0.992868, 465, 169, 496, 200
-0.992869, 281, 213, 312, 244
-0.992871, 461, 33, 492, 64
-0.992871, 333, 89, 364, 120
-0.992878, 277, 173, 308, 204
-0.992878, 341, 237, 372, 268
-0.99288, 421, 89, 452, 120
-0.992881, 409, 225, 440, 256
-0.992889, 257, 73, 288, 104
-0.992891, 397, 221, 428, 252
-0.992895, 381, 345, 412, 375
-0.992896, 393, 269, 424, 300
-0.992896, 441, 245, 472, 276
-0.992899, 425, 37, 456, 68
-0.992903, 461, 305, 492, 336
-0.992903, 465, 321, 496, 352
-0.992905, 209, 17, 240, 48
-0.992906, 413, 25, 444, 56
-0.992907, 409, 249, 440, 280
-0.992909, 181, 25, 212, 56
-0.992911, 349, 97, 380, 128
-0.992911, 57, 177, 88, 208
-0.992912, 217, 185, 248, 216
-0.992915, 213, 297, 244, 328
-0.992918, 57, 161, 88, 192
-0.992919, 317, 333, 348, 364
-0.992923, 341, 193, 372, 224
-0.992923, 409, 289, 440, 320
-0.992924, 317, 25, 348, 56
-0.992926, 401, 37, 432, 68
-0.993004, 33, 137, 288, 200
-0.993049, 227, 193, 242, 256
-0.993084, 273, 281, 400, 312
-0.993191, 193, 273, 320, 304
-0.993233, 33, 281, 288, 344
-0.993239, 193, 201, 320, 232
-0.993252, 1, 249, 500, 312
-0.993379, 1, 185, 500, 248
-0.993388, 1, 313, 500, 375
-0.993389, 337, 285, 464, 316
-0.993423, 145, 213, 272, 244
-0.993505, 33, 313, 288, 375
-0.993566, 1, 9, 500, 72
-0.993571, 1, 153, 500, 216
-0.993606, 1, 25, 256, 88
-0.993645, 225, 53, 352, 84
-0.993743, 1, 97, 500, 160
-0.993768, 257, 265, 384, 296
-0.993777, 145, 57, 272, 88
-0.993803, 209, 221, 336, 252
-0.993837, 145, 241, 272, 272
-0.993965, 289, 293, 416, 324
-0.993975, 273, 185, 400, 216
-0.994028, 209, 253, 336, 284
-0.994063, 145, 89, 272, 120
-0.99413, 333, 1, 348, 64
-0.994227, 145, 277, 272, 308
-0.994238, 145, 41, 272, 72
-0.994292, 361, 281, 376, 344
-0.994304, 145, 77, 272, 108
-0.994345, 257, 13, 384, 44
-0.994404, 221, 193, 236, 256
-0.994408, 321, 25, 448, 56
-0.994424, 367, 257, 382, 320
-0.994469, 145, 257, 272, 288
-0.994485, 1, 73, 500, 136
-0.994487, 321, 229, 448, 260
-0.99449, 241, 241, 368, 272
-0.994503, 145, 101, 272, 132
-0.994525, 241, 81, 368, 112
-0.994535, 337, 153, 464, 184
-0.994538, 305, 313, 432, 344
-0.994569, 201, 241, 216, 304
-0.994585, 225, 69, 352, 100
-0.994587, 281, 177, 296, 240
-0.9946, 481, 169, 496, 232
-0.994604, 145, 225, 272, 256
-0.994626, 207, 225, 222, 288
-0.99466, 273, 133, 400, 164
-0.99466, 257, 169, 384, 200
-0.994661, 225, 41, 352, 72
-0.994734, 321, 257, 448, 288
-0.994759, 337, 141, 464, 172
-0.994768, 353, 297, 480, 328
-0.994769, 213, 209, 228, 272
-0.99477, 193, 189, 320, 220
-0.99479, 337, 69, 464, 100
-0.994876, 225, 17, 240, 80
-0.994882, 321, 37, 448, 68
-0.994883, 161, 281, 176, 344
-0.99491, 205, 65, 220, 128
-0.994913, 225, 25, 352, 56
-0.994934, 305, 217, 432, 248
-0.994939, 209, 289, 336, 320
-0.994942, 349, 273, 364, 336
-0.994955, 273, 157, 400, 188
-0.994964, 157, 201, 172, 264
-0.994969, 469, 241, 484, 304
-0.994983, 337, 181, 464, 212
-0.99499, 213, 233, 228, 296
-0.995006, 145, 29, 272, 60
-0.99503, 233, 185, 248, 248
-0.995058, 209, 97, 336, 128
-0.995078, 321, 9, 336, 72
-0.995094, 289, 197, 416, 228
-0.995111, 369, 245, 496, 276
-0.995123, 257, 225, 384, 256
-0.995128, 287, 185, 302, 248
-0.995128, 193, 177, 320, 208
-0.995135, 237, 9, 252, 72
-0.995141, 379, 265, 394, 328
-0.995143, 475, 233, 490, 296
-0.99515, 189, 49, 204, 112
-0.995154, 253, 233, 268, 296
-0.995197, 195, 33, 210, 96
-0.995205, 337, 169, 464, 200
-0.995225, 267, 1, 282, 64
-0.995243, 303, 17, 318, 80
-0.995248, 431, 233, 446, 296
-0.995261, 145, 113, 272, 144
-0.995275, 217, 257, 232, 320
-0.995284, 307, 73, 322, 136
-0.995295, 27, 113, 42, 176
-0.995298, 257, 325, 384, 356
-0.995302, 321, 265, 336, 328
-0.995304, 403, 201, 418, 264
-0.99532, 335, 265, 350, 328
-0.995323, 369, 229, 496, 260
-0.995327, 65, 133, 192, 164
-0.99534, 257, 253, 384, 284
-0.99534, 227, 233, 242, 296
-0.995345, 183, 249, 198, 312
-0.995373, 219, 217, 234, 280
-0.995381, 457, 249, 472, 312
-0.995387, 257, 145, 384, 176
-0.995392, 321, 273, 448, 304
-0.995401, 193, 85, 320, 116
-0.995407, 413, 201, 428, 264
-0.995408, 145, 141, 272, 172
-0.995409, 369, 257, 496, 288
-0.995413, 393, 265, 408, 328
-0.995415, 399, 273, 414, 336
-0.995417, 447, 25, 462, 88
-0.995423, 177, 17, 304, 48
-0.995437, 369, 193, 496, 224
-0.995437, 269, 97, 284, 160
-0.995443, 215, 185, 230, 248
-0.995445, 231, 33, 246, 96
-0.995454, 249, 265, 264, 328
-0.99547, 257, 1, 384, 32
-0.995471, 271, 201, 286, 264
-0.995478, 1, 49, 500, 112
-0.995485, 273, 97, 400, 128
-0.995489, 177, 137, 192, 200
-0.995494, 257, 213, 384, 244
-0.995514, 53, 81, 68, 144
-0.99552, 227, 273, 242, 336
-0.995523, 243, 265, 258, 328
-0.995534, 337, 53, 464, 84
-0.995553, 273, 49, 400, 80
-0.995564, 67, 201, 82, 264
-0.995565, 455, 289, 470, 352
-0.995571, 455, 1, 470, 64
-0.995575, 315, 289, 330, 352
-0.995581, 281, 249, 296, 312
-0.995601, 169, 105, 184, 168
-0.995608, 387, 289, 402, 352
-0.995608, 129, 181, 256, 212
-0.99561, 245, 9, 260, 72
-0.995613, 481, 145, 496, 208
-0.995626, 201, 209, 216, 272
-0.99563, 145, 289, 272, 320
-0.995631, 255, 265, 270, 328
-0.995632, 201, 89, 216, 152
-0.995664, 323, 289, 338, 352
-0.995665, 273, 25, 400, 56
-0.995665, 33, 121, 48, 184
-0.995673, 171, 145, 186, 208
-0.995681, 49, 169, 176, 200
-0.995692, 195, 241, 210, 304
-0.995692, 335, 145, 350, 208
-0.995693, 325, 49, 340, 112
-0.995703, 261, 105, 276, 168
-0.99571, 189, 1, 204, 64
-0.995712, 485, 1, 500, 64
-0.995718, 451, 105, 466, 168
-0.99573, 481, 209, 496, 272
-0.995734, 369, 317, 496, 348
-0.995747, 145, 193, 272, 224
-0.995751, 397, 201, 412, 264
-0.995754, 193, 5, 320, 36
-0.99576, 177, 129, 304, 160
-0.995761, 369, 329, 496, 360
-0.995768, 261, 49, 276, 112
-0.99577, 337, 89, 464, 120
-0.995774, 167, 25, 182, 88
-0.995793, 157, 121, 172, 184
-0.995798, 339, 1, 354, 64
-0.9958, 387, 201, 402, 264
-0.995802, 227, 169, 242, 232
-0.995817, 253, 1, 268, 64
-0.99582, 355, 297, 370, 360
-0.995824, 321, 1, 448, 32
-0.995827, 207, 201, 222, 264
-0.995835, 195, 129, 210, 192
-0.995836, 177, 105, 192, 168
-0.995839, 207, 249, 222, 312
-0.995842, 297, 97, 312, 160
-0.995859, 473, 145, 488, 208
-0.995862, 329, 273, 344, 336
-0.995866, 327, 9, 342, 72
-0.995867, 193, 105, 208, 168
-0.995872, 439, 225, 454, 288
-0.995874, 161, 241, 176, 304
-0.995881, 407, 249, 422, 312
-0.995887, 441, 97, 456, 160
-0.99589, 369, 101, 496, 132
-0.995895, 187, 129, 202, 192
-0.995898, 355, 193, 370, 256
-0.995899, 413, 105, 428, 168
-0.9959, 1, 313, 16, 375
-0.995901, 413, 257, 428, 320
-0.995903, 241, 49, 256, 112
-0.995907, 315, 265, 330, 328
-0.99591, 97, 37, 224, 68
-0.995915, 247, 33, 262, 96
-0.995918, 475, 209, 490, 272
-0.99592, 305, 241, 320, 304
-0.995923, 349, 153, 364, 216
-0.995923, 263, 217, 278, 280
-0.995927, 481, 49, 496, 112
-0.995927, 417, 129, 432, 192
-0.995933, 157, 177, 172, 240
-0.995943, 413, 281, 428, 344
-0.995944, 175, 17, 190, 80
-0.995947, 295, 1, 310, 64
-0.995947, 291, 233, 306, 296
-0.99595, 277, 289, 292, 352
-0.995957, 355, 273, 370, 336
-0.995958, 275, 177, 290, 240
-0.995958, 19, 41, 34, 104
-0.995961, 259, 25, 274, 88
-0.995961, 155, 57, 170, 120
-0.995969, 317, 41, 332, 104
-0.995973, 369, 205, 496, 236
-0.995979, 309, 9, 324, 72
-0.995983, 129, 17, 256, 48
-0.995987, 343, 249, 358, 312
-0.995996, 273, 341, 400, 372
-0.995998, 403, 225, 418, 288
-0.996006, 367, 217, 382, 280
-0.996011, 333, 241, 348, 304
-0.996013, 291, 297, 306, 360
-0.996015, 65, 105, 192, 136
-0.996026, 419, 249, 434, 312
-0.996053, 369, 129, 496, 160
-0.996058, 289, 121, 416, 152
-0.996063, 305, 241, 432, 272
-0.996066, 97, 225, 224, 256
-0.996111, 65, 145, 192, 176
-0.996122, 369, 1, 496, 32
-0.996149, 65, 157, 192, 188
-0.996155, 45, 1, 76, 256
-0.996192, 209, 109, 336, 140
-0.996206, 369, 345, 496, 375
-0.996225, 73, 1, 136, 128
-0.996225, 273, 37, 400, 68
-0.996278, 65, 93, 192, 124
-0.996281, 369, 41, 496, 72
-0.996285, 225, 157, 352, 188
-0.996323, 65, 65, 192, 96
-0.996341, 145, 305, 272, 336
-0.996345, 337, 117, 464, 148
-0.996369, 257, 313, 384, 344
-0.996375, 225, 301, 352, 332
-0.996386, 321, 325, 448, 356
-0.996392, 361, 1, 392, 256
-0.996393, 97, 257, 224, 288
-0.9964, 397, 1, 428, 256
-0.996407, 49, 1, 176, 32
-0.99641, 409, 1, 440, 256
-0.996432, 321, 13, 448, 44
-0.996439, 245, 97, 276, 352
-0.996444, 1, 49, 128, 80
-0.996445, 65, 269, 192, 300
-0.99648, 145, 153, 272, 184
-0.996482, 241, 201, 368, 232
-0.996523, 369, 13, 496, 44
-0.996523, 289, 81, 416, 112
-0.996547, 65, 245, 192, 276
-0.996552, 97, 77, 224, 108
-0.996553, 1, 105, 128, 136
-0.996559, 145, 1, 272, 32
-0.996563, 289, 65, 416, 96
-0.996577, 1, 177, 128, 208
-0.996603, 289, 109, 416, 140
-0.996603, 145, 169, 272, 200
-0.996606, 441, 1, 472, 256
-0.996664, 1, 1, 128, 32
-0.996666, 413, 129, 444, 375
-0.996674, 225, 133, 352, 164
-0.996683, 245, 1, 276, 256
-0.996689, 369, 273, 496, 304
-0.99672, 233, 1, 264, 256
-0.99672, 49, 49, 176, 80
-0.996724, 325, 1, 356, 256
-0.996751, 289, 1, 320, 256
-0.996753, 241, 121, 368, 152
-0.996755, 369, 29, 496, 60
-0.996766, 429, 129, 460, 375
-0.996777, 145, 345, 272, 375
-0.996779, 1, 25, 128, 56
-0.9968, 1, 153, 128, 184
-0.996816, 225, 129, 256, 375
-0.996829, 217, 1, 248, 256
-0.996868, 1, 133, 128, 164
-0.996939, 33, 1, 64, 256
-0.996953, 177, 1, 208, 256
-0.997022, 309, 65, 340, 320
-0.997028, 429, 1, 460, 256
-0.99706, 349, 1, 380, 256
-0.997112, 389, 97, 420, 352
-0.997119, 377, 97, 408, 352
-0.997127, 279, 181, 294, 212
-0.997135, 337, 1, 368, 256
-0.997182, 193, 241, 208, 272
-0.997213, 461, 1, 492, 256
-0.997228, 229, 193, 244, 224
-0.99726, 257, 97, 288, 352
-0.997279, 261, 1, 292, 256
-0.997285, 203, 237, 218, 268
-0.997323, 373, 1, 404, 256
-0.997327, 359, 289, 374, 320
-0.997337, 187, 241, 202, 272
-0.997342, 211, 233, 226, 264
-0.997357, 399, 277, 414, 308
-0.997361, 441, 129, 472, 375
-0.99738, 385, 1, 416, 256
-0.997382, 325, 321, 340, 352
-0.997387, 285, 181, 300, 212
-0.997431, 219, 269, 234, 300
-0.997462, 305, 85, 320, 116
-0.997486, 227, 21, 242, 52
-0.997487, 97, 241, 160, 368
-0.997495, 163, 281, 178, 312
-0.997503, 355, 301, 370, 332
-0.997505, 391, 281, 406, 312
-0.997506, 153, 33, 184, 288
-0.997523, 233, 41, 248, 72
-0.997524, 337, 97, 368, 352
-0.99753, 223, 197, 238, 228
-0.997541, 315, 313, 330, 344
-0.997552, 25, 117, 40, 148
-0.997566, 203, 273, 218, 304
-0.997567, 161, 269, 176, 300
-0.997567, 237, 53, 252, 84
-0.997572, 255, 233, 270, 264
-0.997573, 389, 269, 404, 300
-0.997577, 365, 293, 380, 324
-0.997587, 201, 1, 232, 256
-0.997593, 265, 241, 280, 272
-0.997599, 227, 33, 242, 64
-0.997599, 213, 129, 244, 375
-0.997625, 299, 85, 314, 116
-0.997628, 9, 1, 40, 256
-0.997633, 329, 5, 344, 36
-0.997634, 485, 157, 500, 188
-0.997636, 389, 337, 404, 368
-0.99764, 155, 113, 170, 144
-0.997652, 227, 9, 242, 40
-0.997658, 457, 245, 472, 276
-0.997676, 45, 97, 76, 352
-0.997688, 341, 257, 356, 288
-0.997693, 225, 265, 240, 296
-0.997694, 471, 241, 486, 272
-0.997705, 343, 269, 358, 300
-0.997707, 261, 53, 276, 84
-0.997715, 185, 277, 200, 308
-0.997716, 483, 241, 498, 272
-0.997722, 195, 273, 210, 304
-0.997722, 229, 181, 244, 212
-0.997727, 363, 181, 378, 212
-0.997731, 59, 161, 74, 192
-0.997741, 7, 329, 22, 360
-0.99775, 331, 21, 346, 52
-0.997751, 209, 273, 224, 304
-0.997755, 217, 189, 232, 220
-0.997755, 333, 45, 348, 76
-0.99776, 453, 105, 468, 136
-0.99776, 463, 241, 478, 272
-0.997769, 259, 245, 274, 276
-0.997773, 177, 277, 192, 308
-0.997783, 29, 129, 60, 375
-0.997791, 333, 145, 348, 176
-0.997791, 335, 269, 350, 300
-0.997797, 337, 1, 352, 32
-0.997798, 217, 225, 232, 256
-0.997799, 319, 1, 334, 32
-0.997803, 199, 137, 214, 168
-0.997807, 261, 229, 276, 260
-0.997813, 365, 129, 396, 375
-0.997814, 73, 33, 136, 288
-0.997824, 349, 301, 364, 332
-0.997827, 311, 81, 326, 112
-0.997828, 467, 185, 482, 216
-0.99783, 323, 33, 338, 64
-0.997833, 245, 269, 260, 300
-0.997837, 253, 249, 268, 280
-0.997839, 261, 73, 276, 104
-0.997839, 157, 205, 172, 236
-0.997844, 473, 185, 488, 216
-0.997847, 155, 101, 170, 132
-0.997862, 251, 53, 266, 84
-0.997866, 443, 105, 458, 136
-0.997871, 423, 89, 438, 120
-0.997872, 367, 245, 382, 276
-0.997876, 243, 41, 258, 72
-0.99788, 371, 297, 386, 328
-0.997881, 461, 289, 476, 320
-0.997885, 253, 221, 268, 252
-0.997889, 11, 9, 26, 40
-0.997895, 199, 33, 214, 64
-0.997895, 345, 185, 360, 216
-0.997897, 205, 81, 220, 112
-0.9979, 383, 261, 398, 292
-0.997907, 453, 129, 484, 375
-0.997907, 185, 129, 200, 160
-0.997911, 481, 49, 496, 80
-0.997911, 401, 97, 432, 352
-0.997912, 289, 213, 304, 244
-0.997915, 469, 289, 484, 320
-0.997916, 189, 1, 220, 256
-0.99792, 31, 121, 46, 152
-0.997923, 317, 77, 332, 108
-0.997926, 401, 341, 416, 372
-0.997928, 429, 81, 444, 112
-0.99793, 237, 21, 252, 52
-0.99793, 327, 81, 342, 112
-0.997932, 261, 217, 276, 248
-0.997932, 5, 5, 20, 36
-0.997934, 235, 261, 250, 292
-0.997934, 161, 113, 176, 144
-0.997941, 355, 277, 370, 308
-0.997942, 339, 185, 354, 216
-0.997944, 395, 341, 410, 372
-0.99795, 271, 97, 286, 128
-0.997951, 213, 213, 228, 244
-0.997952, 293, 85, 308, 116
-0.997956, 313, 129, 328, 160
-0.997956, 253, 265, 268, 296
-0.997957, 225, 277, 240, 308
-0.997963, 465, 329, 480, 360
-0.997964, 335, 221, 350, 252
-0.997965, 331, 329, 346, 360
-0.997966, 169, 277, 184, 308
-0.997973, 247, 257, 262, 288
-0.997978, 267, 9, 282, 40
-0.997985, 429, 93, 444, 124
-0.997987, 433, 241, 448, 272
-0.997987, 449, 297, 464, 328
-0.997989, 57, 1, 88, 256
-0.997992, 377, 253, 392, 284
-0.997992, 197, 77, 212, 108
-0.997996, 277, 129, 308, 375
-0.997997, 175, 289, 190, 320
-0.997997, 5, 85, 20, 116
-0.997999, 383, 21, 398, 52
-0.998, 357, 181, 372, 212
-0.998001, 413, 37, 428, 68
-0.998002, 21, 53, 36, 84
-0.998003, 385, 293, 400, 324
-0.998009, 309, 21, 324, 52
-0.998011, 15, 53, 30, 84
-0.998011, 57, 113, 72, 144
-0.998012, 273, 205, 288, 236
-0.998017, 189, 97, 220, 352
-0.998064, 289, 97, 320, 352
-0.998072, 353, 97, 384, 352
-0.998151, 201, 97, 232, 352
-0.99821, 21, 1, 52, 256
-0.998247, 57, 129, 88, 375
-0.99826, 465, 97, 496, 352
-0.998436, 9, 335, 40, 350
-0.998436, 49, 47, 80, 62
-0.998436, 213, 281, 244, 296
-0.998436, 261, 229, 292, 244
-0.998437, 437, 31, 468, 46
-0.998437, 397, 67, 428, 82
-0.998438, 57, 165, 88, 180
-0.998439, 393, 229, 424, 244
-0.99844, 201, 211, 232, 226
-0.99844, 225, 277, 256, 292
-0.99844, 149, 111, 180, 126
-0.998441, 253, 145, 284, 160
-0.998441, 185, 55, 216, 70
-0.998441, 309, 99, 340, 114
-0.998442, 341, 315, 372, 330
-0.998442, 341, 297, 372, 312
-0.998442, 197, 99, 228, 114
-0.998442, 193, 91, 224, 106
-0.998442, 453, 341, 484, 356
-0.998442, 317, 35, 348, 50
-0.998443, 257, 63, 288, 78
-0.998443, 53, 361, 84, 375
-0.998443, 273, 215, 304, 230
-0.998444, 249, 253, 280, 268
-0.998445, 245, 63, 276, 78
-0.998445, 253, 281, 284, 296
-0.998445, 273, 207, 304, 222
-0.998445, 165, 1, 196, 256
-0.998446, 413, 163, 444, 178
-0.998446, 441, 113, 472, 128
-0.998447, 461, 35, 492, 50
-0.998449, 461, 111, 492, 126
-0.998449, 265, 139, 296, 154
-0.998449, 337, 263, 368, 278
-0.998449, 153, 245, 216, 260
-0.99845, 257, 75, 288, 90
-0.998451, 469, 243, 500, 258
-0.998451, 325, 335, 356, 350
-0.998451, 425, 43, 456, 58
-0.998451, 281, 99, 312, 114
-0.998452, 237, 255, 268, 270
-0.998453, 229, 261, 260, 276
-0.998454, 201, 217, 232, 232
-0.998456, 337, 89, 368, 104
-0.998456, 5, 57, 36, 72
-0.998457, 317, 21, 348, 36
-0.998457, 417, 139, 448, 154
-0.998457, 237, 45, 268, 60
-0.998457, 301, 79, 332, 94
-0.998457, 153, 189, 184, 204
-0.998458, 413, 261, 444, 276
-0.998458, 377, 23, 408, 38
-0.998458, 449, 33, 480, 48
-0.998458, 177, 249, 240, 264
-0.998458, 173, 41, 204, 56
-0.998459, 285, 85, 316, 100
-0.998459, 397, 291, 428, 306
-0.99846, 361, 307, 392, 322
-0.99846, 453, 307, 484, 322
-0.99846, 417, 245, 480, 260
-0.998461, 233, 1, 264, 16
-0.998462, 53, 119, 84, 134
-0.998462, 17, 121, 48, 136
-0.998462, 317, 27, 348, 42
-0.998463, 353, 293, 384, 308
-0.998465, 153, 179, 184, 194
-0.998466, 209, 271, 272, 286
-0.998466, 345, 101, 376, 116
-0.998467, 345, 283, 376, 298
-0.998469, 209, 231, 272, 246
-0.998469, 265, 243, 296, 258
-0.99847, 469, 345, 500, 360
-0.99847, 457, 245, 488, 260
-0.99847, 9, 63, 40, 78
-0.998471, 249, 239, 280, 254
-0.998471, 233, 227, 264, 242
-0.998471, 169, 249, 200, 264
-0.998472, 153, 279, 216, 294
-0.998473, 217, 191, 248, 206
-0.998476, 225, 31, 256, 46
-0.998476, 261, 217, 292, 232
-0.998476, 305, 3, 336, 18
-0.998476, 465, 253, 496, 268
-0.998477, 233, 11, 264, 26
-0.998477, 353, 285, 416, 300
-0.998477, 333, 269, 364, 284
-0.998478, 333, 99, 364, 114
-0.998478, 209, 31, 240, 46
-0.998479, 193, 81, 224, 96
-0.998479, 217, 229, 248, 244
-0.998479, 369, 297, 400, 312
-0.99848, 257, 69, 288, 84
-0.998481, 329, 21, 360, 36
-0.998482, 189, 139, 220, 154
-0.998482, 17, 57, 48, 72
-0.998483, 193, 277, 256, 292
-0.998484, 217, 209, 248, 224
-0.998485, 153, 61, 184, 76
-0.998485, 153, 255, 216, 270
-0.998486, 153, 123, 184, 138
-0.998487, 173, 147, 204, 162
-0.998488, 153, 179, 216, 194
-0.998489, 257, 215, 320, 230
-0.998489, 225, 1, 288, 16
-0.99849, 421, 103, 452, 118
-0.998492, 309, 323, 340, 338
-0.998493, 329, 147, 360, 162
-0.998495, 421, 91, 452, 106
-0.998496, 377, 291, 440, 306
-0.998496, 225, 199, 256, 214
-0.998499, 1, 15, 32, 30
-0.998499, 309, 41, 340, 56
-0.9985, 241, 271, 272, 286
-0.998501, 221, 267, 252, 282
-0.998502, 289, 247, 320, 262
-0.998502, 365, 263, 396, 278
-0.998502, 277, 193, 308, 208
-0.998503, 325, 15, 356, 30
-0.998506, 161, 283, 192, 298
-0.998507, 217, 277, 280, 292
-0.998507, 377, 291, 408, 306
-0.998508, 393, 283, 424, 298
-0.998508, 145, 101, 208, 116
-0.998508, 433, 257, 496, 272
-0.998509, 329, 259, 392, 274
-0.99851, 321, 283, 384, 298
-0.998511, 381, 341, 412, 356
-0.998511, 177, 223, 240, 238
-0.998511, 333, 179, 364, 194
-0.998512, 313, 93, 376, 108
-0.998513, 217, 237, 280, 252
-0.998514, 289, 93, 352, 108
-0.998515, 257, 249, 320, 264
-0.998515, 137, 129, 168, 375
-0.998517, 209, 265, 272, 280
-0.998517, 217, 225, 280, 240
-0.998517, 225, 19, 256, 34
-0.998517, 365, 291, 396, 306
-0.998519, 153, 31, 216, 46
-0.998519, 253, 247, 284, 262
-0.99852, 353, 293, 416, 308
-0.998521, 409, 107, 472, 122
-0.998521, 193, 241, 224, 256
-0.998521, 425, 299, 488, 314
-0.998522, 209, 235, 240, 250
-0.998522, 249, 1, 312, 16
-0.998523, 385, 141, 448, 156
-0.998524, 321, 193, 384, 208
-0.998525, 289, 9, 352, 24
-0.998526, 265, 255, 328, 270
-0.998527, 321, 47, 352, 62
-0.99853, 209, 213, 272, 228
-0.998531, 241, 51, 272, 66
-0.998532, 225, 25, 256, 40
-0.998533, 281, 265, 344, 280
-0.998534, 9, 85, 72, 100
-0.998534, 249, 275, 312, 290
-0.998535, 321, 9, 352, 24
-0.998535, 313, 329, 344, 344
-0.998536, 193, 283, 256, 298
-0.998536, 281, 329, 344, 344
-0.998536, 193, 143, 256, 158
-0.998537, 201, 273, 232, 288
-0.998537, 369, 257, 432, 272
-0.998537, 393, 65, 456, 80
-0.998537, 201, 249, 232, 264
-0.998538, 401, 115, 464, 130
-0.998538, 409, 31, 472, 46
-0.998539, 257, 241, 320, 256
-0.998539, 177, 243, 240, 258
-0.99854, 185, 271, 248, 286
-0.998541, 297, 47, 360, 62
-0.998542, 145, 61, 208, 76
-0.998543, 217, 251, 280, 266
-0.998543, 153, 185, 216, 200
-0.998544, 181, 279, 212, 294
-0.998544, 433, 51, 496, 66
-0.998545, 401, 235, 464, 250
-0.998546, 265, 129, 328, 144
-0.998546, 153, 47, 216, 62
-0.998546, 17, 129, 80, 144
-0.998547, 393, 261, 456, 276
-0.998547, 153, 285, 216, 300
-0.998547, 297, 135, 360, 150
-0.998547, 145, 139, 208, 154
-0.998548, 321, 153, 384, 168
-0.998549, 153, 107, 216, 122
-0.99855, 281, 1, 344, 16
-0.99855, 393, 147, 456, 162
-0.99855, 337, 307, 400, 322
-0.998551, 433, 339, 496, 354
-0.998551, 353, 347, 416, 362
-0.998552, 153, 149, 216, 164
-0.998552, 225, 285, 288, 300
-0.998552, 9, 41, 72, 56
-0.998552, 217, 139, 280, 154
-0.998553, 297, 53, 360, 68
-0.998553, 289, 233, 352, 248
-0.998554, 257, 53, 320, 68
-0.998554, 313, 323, 376, 338
-0.998555, 25, 119, 88, 134
-0.998555, 329, 141, 392, 156
-0.998555, 337, 339, 400, 354
-0.998556, 297, 99, 360, 114
-0.998556, 209, 243, 272, 258
-0.998556, 357, 299, 388, 314
-0.998556, 145, 85, 208, 100
-0.998557, 313, 313, 376, 328
-0.998557, 185, 3, 248, 18
-0.998557, 333, 189, 364, 204
-0.998557, 433, 113, 496, 128
-0.998557, 153, 233, 216, 248
-0.998557, 249, 229, 312, 244
-0.998558, 417, 251, 480, 266
-0.998559, 273, 45, 336, 60
-0.99856, 153, 41, 216, 56
-0.99856, 321, 159, 384, 174
-0.998561, 249, 61, 312, 76
-0.998561, 353, 279, 416, 294
-0.998561, 185, 49, 248, 64
-0.998561, 265, 209, 328, 224
-0.998563, 409, 41, 472, 56
-0.998563, 169, 91, 232, 106
-0.998563, 265, 183, 328, 198
-0.998564, 433, 61, 496, 76
-0.998564, 225, 49, 288, 64
-0.998564, 337, 265, 400, 280
-0.998565, 177, 209, 240, 224
-0.998565, 249, 281, 312, 296
-0.998566, 281, 141, 344, 156
-0.998567, 17, 71, 80, 86
-0.998567, 273, 101, 336, 116
-0.998568, 321, 147, 384, 162
-0.998568, 241, 269, 304, 284
-0.998568, 249, 67, 312, 82
-0.998568, 153, 129, 184, 375
-0.998569, 193, 201, 256, 216
-0.998569, 353, 187, 384, 202
-0.998569, 393, 71, 456, 86
-0.99857, 433, 177, 496, 192
-0.99857, 297, 335, 360, 350
-0.99857, 265, 287, 328, 302
-0.99857, 217, 201, 280, 216
-0.998571, 297, 257, 360, 272
-0.998571, 217, 219, 280, 234
-0.998571, 241, 255, 304, 270
-0.998571, 249, 73, 312, 88
-0.998571, 393, 241, 456, 256
-0.998572, 289, 39, 352, 54
-0.998572, 145, 213, 208, 228
-0.998573, 241, 141, 304, 156
-0.998573, 249, 101, 312, 116
-0.998574, 337, 185, 400, 200
-0.998574, 313, 187, 376, 202
-0.998574, 417, 137, 480, 152
-0.998574, 297, 307, 360, 322
-0.998574, 393, 57, 456, 72
-0.998575, 281, 149, 344, 164
-0.998576, 149, 117, 180, 132
-0.99858, 273, 1, 304, 256
-0.998581, 441, 107, 472, 122
-0.998587, 277, 183, 308, 198
-0.998594, 245, 57, 276, 72
-0.998607, 181, 245, 212, 260
-0.998633, 17, 97, 48, 352
-0.998653, 223, 177, 238, 304
-0.998731, 365, 225, 380, 352
-0.998753, 81, 1, 144, 375
-0.998798, 297, 225, 312, 352
-0.998835, 155, 49, 170, 176
-0.998851, 229, 177, 244, 304
-0.998865, 359, 209, 374, 336
-0.998869, 303, 225, 318, 352
-0.998876, 179, 161, 194, 288
-0.998884, 397, 225, 412, 352
-0.998899, 319, 33, 334, 160
-0.99891, 169, 241, 184, 368
-0.998913, 325, 97, 356, 352
-0.998914, 335, 241, 350, 368
-0.998925, 425, 81, 440, 208
-0.998936, 247, 1, 262, 128
-0.998939, 61, 1, 76, 128
-0.998944, 441, 209, 456, 336
-0.998956, 377, 1, 392, 128
-0.998956, 169, 97, 200, 352
-0.998959, 261, 33, 276, 160
-0.998968, 289, 225, 304, 352
-0.998969, 217, 209, 232, 336
-0.998975, 435, 209, 450, 336
-0.998975, 285, 161, 300, 288
-0.998986, 227, 17, 242, 144
-0.998989, 195, 1, 210, 128
-0.998992, 309, 1, 324, 128
-0.998993, 485, 145, 500, 272
-0.998994, 327, 1, 342, 128
-0.999006, 437, 65, 452, 192
-0.999006, 367, 1, 382, 128
-0.999018, 133, 1, 164, 256
-0.999021, 425, 1, 440, 128
-0.999026, 183, 33, 198, 160
-0.999028, 297, 177, 312, 304
-0.999029, 461, 97, 476, 224
-0.99903, 415, 65, 430, 192
-0.999032, 433, 161, 448, 288
-0.999033, 169, 17, 184, 144
-0.999035, 351, 241, 366, 368
-0.999036, 353, 177, 368, 304
-0.999037, 261, 97, 276, 224
-0.999045, 227, 225, 242, 352
-0.999047, 323, 209, 338, 336
-0.999056, 187, 145, 202, 272
-0.999057, 335, 193, 350, 320
-0.999059, 173, 161, 188, 288
-0.999066, 241, 33, 256, 160
-0.999069, 279, 161, 294, 288
-0.999071, 163, 241, 178, 368
-0.999074, 483, 65, 498, 192
-0.999077, 329, 241, 344, 368
-0.999078, 391, 1, 406, 128
-0.999078, 35, 1, 50, 128
-0.999078, 457, 1, 472, 128
-0.99908, 301, 1, 316, 128
-0.999081, 253, 209, 268, 336
-0.999081, 309, 225, 324, 352
-0.999084, 405, 193, 420, 320
-0.999085, 455, 97, 470, 224
-0.999086, 263, 177, 278, 304
-0.999088, 383, 1, 398, 128
-0.999092, 177, 17, 192, 144
-0.999097, 315, 225, 330, 352
-0.999097, 177, 241, 192, 368
-0.999098, 235, 177, 250, 304
-0.999103, 371, 225, 386, 352
-0.999107, 161, 193, 176, 320
-0.999109, 429, 209, 444, 336
-0.999109, 453, 161, 468, 288
-0.99911, 273, 129, 288, 256
-0.999113, 283, 241, 298, 368
-0.999116, 365, 177, 380, 304
-0.999116, 403, 241, 418, 368
-0.999117, 57, 81, 72, 208
-0.999118, 343, 193, 358, 320
-0.999119, 361, 129, 376, 256
-0.999119, 439, 129, 454, 256
-0.999119, 445, 17, 460, 144
-0.999121, 345, 241, 360, 368
-0.999128, 267, 49, 282, 176
-0.999128, 385, 177, 400, 304
-0.999128, 157, 129, 172, 256
-0.999129, 191, 49, 206, 176
-0.999132, 391, 225, 406, 352
-0.999143, 267, 1, 282, 128
-0.999144, 353, 1, 368, 128
-0.999146, 291, 177, 306, 304
-0.999146, 329, 193, 344, 320
-0.999149, 163, 33, 178, 160
-0.99915, 201, 33, 216, 160
-0.999153, 479, 161, 494, 288
-0.999154, 173, 113, 188, 240
-0.999154, 305, 65, 320, 192
-0.999155, 401, 145, 416, 272
-0.999155, 185, 209, 200, 336
-0.999155, 463, 1, 478, 128
-0.999161, 411, 209, 426, 336
-0.999161, 173, 65, 188, 192
-0.999161, 15, 1, 30, 128
-0.999163, 21, 81, 36, 208
-0.999165, 163, 97, 178, 224
-0.999165, 251, 49, 266, 176
-0.999166, 63, 113, 78, 240
-0.999169, 461, 161, 476, 288
-0.999171, 5, 97, 36, 352
-0.999172, 403, 97, 418, 224
-0.999177, 189, 1, 204, 128
-0.999179, 419, 1, 434, 128
-0.99918, 447, 161, 462, 288
-0.99918, 47, 97, 62, 224
-0.999181, 27, 65, 42, 192
-0.999188, 295, 1, 310, 128
-0.999189, 479, 113, 494, 240
-0.99919, 397, 49, 412, 176
-0.999193, 391, 129, 406, 256
-0.999196, 463, 225, 478, 352
-0.999199, 167, 177, 182, 304
-0.9992, 41, 65, 56, 192
-0.999204, 273, 193, 288, 320
-0.999205, 235, 17, 250, 144
-0.999207, 479, 17, 494, 144
-0.999207, 431, 97, 446, 224
-0.99921, 311, 177, 326, 304
-0.999211, 373, 129, 388, 256
-0.999212, 407, 145, 422, 272
-0.999215, 453, 209, 468, 336
-0.999215, 433, 17, 448, 144
-0.999217, 471, 113, 486, 240
-0.999219, 211, 161, 226, 288
-0.99922, 451, 1, 466, 128
-0.999221, 65, 49, 80, 176
-0.999222, 277, 1, 292, 128
-0.999223, 289, 17, 304, 144
-0.99934, 69, 65, 100, 320
-0.999498, 89, 49, 152, 176
-0.999623, 455, 245, 470, 260
-0.999624, 211, 249, 226, 264
-0.999624, 181, 279, 196, 294
-0.999624, 365, 289, 380, 304
-0.999625, 403, 229, 418, 244
-0.999625, 329, 29, 344, 44
-0.999625, 477, 161, 492, 176
-0.999626, 63, 167, 78, 182
-0.999626, 467, 297, 482, 312
-0.999626, 355, 101, 370, 116
-0.999626, 55, 119, 70, 134
-0.999626, 289, 177, 304, 192
-0.999627, 457, 165, 472, 180
-0.999627, 287, 185, 302, 200
-0.999627, 19, 117, 34, 132
-0.999628, 19, 57, 34, 72
-0.999629, 261, 73, 276, 88
-0.999629, 387, 341, 402, 356
-0.999629, 271, 185, 286, 200
-0.999629, 429, 141, 444, 156
-0.99963, 425, 93, 440, 108
-0.99963, 357, 283, 372, 298
-0.999631, 315, 91, 330, 106
-0.999631, 391, 283, 406, 298
-0.999631, 307, 83, 322, 98
-0.999632, 49, 47, 64, 62
-0.999632, 229, 191, 244, 206
-0.999633, 325, 47, 340, 62
-0.999633, 175, 281, 190, 296
-0.999633, 221, 269, 236, 284
-0.999633, 431, 93, 446, 108
-0.999635, 459, 107, 474, 122
-0.999635, 161, 275, 176, 290
-0.999636, 183, 145, 198, 160
-0.999636, 395, 343, 410, 358
-0.999637, 197, 49, 212, 64
-0.999637, 351, 343, 366, 358
-0.999637, 331, 19, 346, 34
-0.999637, 167, 283, 182, 298
-0.999638, 333, 37, 348, 52
-0.999638, 335, 261, 350, 276
-0.999639, 355, 269, 370, 284
-0.999639, 267, 13, 282, 28
-0.999639, 261, 67, 276, 82
-0.999639, 193, 277, 208, 292
-0.999639, 483, 349, 498, 364
-0.999639, 259, 57, 274, 72
-0.99964, 201, 91, 216, 106
-0.99964, 203, 241, 218, 256
-0.999641, 313, 43, 328, 58
-0.999641, 53, 69, 68, 84
-0.999642, 61, 173, 76, 188
-0.999642, 457, 117, 472, 132
-0.999643, 245, 145, 260, 160
-0.999643, 295, 95, 310, 110
-0.999643, 189, 177, 204, 192
-0.999643, 227, 13, 242, 28
-0.999644, 267, 137, 282, 152
-0.999644, 223, 31, 238, 46
-0.999644, 227, 37, 242, 52
-0.999644, 233, 175, 248, 190
-0.999645, 161, 283, 176, 298
-0.999645, 453, 27, 468, 42
-0.999646, 157, 215, 172, 230
-0.999646, 155, 113, 170, 128
-0.999647, 197, 243, 212, 258
-0.999647, 259, 239, 274, 254
-0.999647, 255, 143, 270, 158
-0.999649, 265, 241, 280, 256
-0.999649, 325, 321, 340, 336
-0.999649, 243, 53, 258, 68
-0.99965, 263, 147, 278, 162
-0.999651, 325, 7, 340, 22
-0.999652, 313, 127, 328, 142
-0.999653, 1, 327, 16, 342
-0.999653, 253, 253, 268, 268
-0.999653, 473, 313, 488, 328
-0.999653, 193, 105, 208, 120
-0.999653, 461, 33, 476, 48
-0.999654, 165, 115, 180, 130
-0.999654, 463, 307, 478, 322
-0.999655, 331, 147, 346, 162
-0.999657, 205, 83, 220, 98
-0.999657, 355, 95, 370, 110
-0.999658, 385, 265, 400, 280
-0.999658, 61, 75, 76, 90
-0.999658, 347, 185, 362, 200
-0.999658, 481, 241, 496, 256
-0.999659, 355, 185, 370, 200
-0.99966, 461, 245, 476, 260
-0.99966, 481, 63, 496, 78
-0.999661, 349, 101, 364, 116
-0.999661, 471, 253, 486, 268
-0.999661, 211, 235, 226, 250
-0.999663, 323, 37, 338, 52
-0.999663, 331, 331, 346, 346
-0.999663, 187, 279, 202, 294
-0.999664, 485, 341, 500, 356
-0.999665, 227, 25, 242, 40
-0.999667, 365, 261, 380, 276
-0.999667, 337, 99, 352, 114
-0.99967, 183, 247, 198, 262
-0.99967, 205, 275, 220, 290
-0.999671, 437, 105, 452, 120
-0.999676, 219, 191, 234, 206
-0.999678, 199, 277, 214, 292
-0.999678, 235, 47, 250, 62
-0.999679, 483, 247, 498, 262
-0.99968, 7, 331, 22, 346
-0.999682, 335, 43, 350, 58
-0.999682, 477, 253, 492, 268
-0.999683, 329, 13, 344, 28
-0.999684, 215, 273, 230, 288
-0.999687, 227, 19, 242, 34
-0.999689, 337, 9, 352, 24
-0.999689, 391, 289, 406, 304
-0.99969, 465, 251, 480, 266
-0.999692, 305, 93, 320, 108
-0.999694, 189, 245, 204, 260
-0.999695, 321, 327, 336, 342
-0.999697, 369, 297, 384, 312
-0.999699, 237, 57, 252, 72
-0.9997, 155, 119, 170, 134
-0.999705, 469, 245, 484, 260
-0.999706, 399, 281, 414, 296
-0.99971, 359, 293, 374, 308
-0.999711, 453, 107, 468, 122
-0.99973, 475, 243, 490, 258
-0.999732, 229, 197, 244, 212
-0.999762, 281, 183, 296, 198
-1.00044, 97, 161, 160, 288
-1.00053, 113, 1, 144, 256
-1.00054, 89, 129, 152, 375
-1.00066, 105, 129, 136, 375
-1.00066, 97, 1, 128, 256
-1.00068, 121, 129, 152, 375
-1.00072, 85, 1, 116, 256
-1.00073, 81, 129, 112, 375
-1.00091, 93, 129, 124, 375
-1.00547, 81, 97, 144, 224
