1963
-0.285229, 1, 1, 500, 375
-0.375359, 1, 33, 500, 288
-0.409273, 1, 129, 500, 375
-0.451242, 129, 1, 384, 375
-0.466958, 225, 1, 480, 375
-0.502408, 1, 1, 256, 375
-0.516199, 257, 129, 500, 375
-0.616473, 193, 33, 448, 288
-0.63183, 97, 129, 352, 375
-0.648387, 1, 97, 256, 352
-0.66709, 65, 1, 320, 256
-0.839913, 337, 129, 464, 375
-0.848886, 193, 1, 320, 375
-0.850672, 177, 129, 304, 375
-0.860138, 129, 129, 256, 375
-0.860809, 241, 1, 368, 375
-0.870045, 1, 225, 500, 352
-0.871479, 273, 65, 400, 320
-0.876763, 1, 1, 128, 375
-0.877037, 1, 65, 128, 320
-0.877221, 113, 1, 240, 375
-0.878625, 65, 97, 192, 352
-0.878735, 1, 49, 500, 176
-0.880508, 225, 129, 352, 375
-0.880928, 177, 1, 304, 256
-0.883521, 113, 1, 240, 256
-0.883913, 1, 177, 500, 304
-0.884494, 289, 1, 416, 375
-0.886657, 225, 33, 352, 288
-0.887522, 49, 1, 176, 256
-0.89217, 49, 1, 176, 375
-0.892273, 1, 97, 500, 224
-0.89918, 1, 177, 256, 304
-0.900007, 337, 1, 464, 375
-0.900267, 97, 177, 352, 304
-0.911218, 257, 241, 500, 368
-0.912961, 1, 1, 500, 128
-0.913351, 1, 225, 256, 352
-0.914619, 129, 225, 384, 352
-0.915327, 193, 177, 448, 304
-0.915349, 241, 209, 368, 336
-0.920412, 225, 97, 480, 224
-0.923059, 113, 177, 240, 304
-0.923455, 321, 33, 448, 288
-0.925245, 177, 145, 304, 272
-0.926298, 113, 225, 240, 352
-0.929256, 137, 161, 200, 288
-0.929761, 177, 225, 304, 352
-0.930614, 33, 1, 288, 128
-0.931953, 129, 49, 384, 176
-0.93302, 129, 129, 384, 256
-0.933318, 193, 225, 256, 352
-0.934013, 321, 241, 384, 368
-0.934919, 369, 161, 496, 288
-0.935072, 289, 241, 416, 368
-0.935307, 417, 161, 480, 288
-0.936448, 361, 113, 424, 240
-0.937183, 89, 193, 152, 320
-0.939301, 297, 241, 360, 368
-0.939441, 369, 1, 496, 256
-0.939978, 233, 225, 296, 352
-0.940458, 337, 113, 464, 240
-0.94085, 1, 65, 256, 192
-0.942562, 33, 17, 96, 144
-0.942637, 1, 49, 128, 176
-0.942856, 113, 177, 176, 304
-0.943612, 257, 225, 320, 352
-0.943948, 337, 241, 464, 368
-0.944417, 241, 177, 304, 304
-0.945014, 161, 177, 224, 304
-0.94582, 65, 1, 192, 128
-0.945891, 1, 129, 256, 256
-0.945949, 321, 161, 448, 288
-0.946649, 81, 233, 144, 296
-0.94667, 345, 241, 408, 368
-0.947216, 65, 177, 192, 304
-0.948295, 225, 161, 352, 288
-0.948765, 385, 129, 448, 256
-0.948954, 265, 177, 328, 304
-0.94897, 65, 225, 192, 352
-0.949027, 209, 273, 272, 336
-0.949193, 289, 97, 416, 224
-0.949239, 329, 193, 392, 320
-0.949517, 393, 161, 456, 224
-0.949909, 161, 1, 288, 128
-0.950943, 97, 129, 224, 256
-0.950979, 129, 1, 384, 128
-0.951192, 313, 297, 376, 360
-0.95126, 1, 161, 128, 288
-0.951312, 33, 65, 96, 192
-0.951347, 17, 1, 144, 128
-0.951373, 137, 225, 200, 352
-0.951684, 97, 209, 160, 272
-0.952418, 1, 97, 64, 224
-0.952901, 65, 1, 128, 128
-0.953258, 289, 193, 352, 320
-0.953527, 153, 169, 216, 232
-0.953545, 49, 129, 176, 256
-0.954697, 193, 145, 256, 272
-0.954826, 273, 161, 400, 288
-0.954891, 337, 97, 400, 224
-0.95553, 113, 225, 176, 352
-0.955805, 345, 273, 408, 336
-0.955926, 265, 201, 328, 264
-0.955934, 169, 225, 232, 352
-0.956097, 241, 49, 368, 176
-0.956194, 233, 233, 296, 296
-0.956219, 17, 209, 144, 336
-0.95657, 217, 161, 280, 288
-0.956653, 113, 1, 240, 128
-0.956812, 201, 241, 264, 304
-0.957261, 313, 265, 376, 328
-0.957621, 425, 169, 488, 232
-0.957735, 289, 297, 352, 360
-0.957826, 369, 241, 432, 368
-0.958059, 377, 177, 440, 304
-0.958325, 73, 49, 136, 176
-0.958656, 49, 161, 112, 288
-0.958762, 65, 81, 192, 208
-0.959032, 97, 129, 160, 256
-0.9595, 361, 121, 424, 184
-0.959849, 273, 241, 336, 304
-0.959878, 313, 65, 376, 192
-0.960266, 73, 97, 136, 224
-0.960515, 89, 241, 152, 368
-0.960844, 153, 97, 216, 224
-0.961942, 353, 313, 416, 375
-0.962091, 177, 265, 240, 328
-0.962267, 169, 225, 232, 288
-0.962337, 1, 1, 64, 128
-0.962437, 33, 73, 96, 136
-0.962496, 137, 1, 200, 128
-0.962533, 393, 241, 456, 368
-0.963044, 241, 33, 304, 160
-0.963269, 137, 241, 200, 304
-0.963536, 113, 241, 176, 304
-0.963584, 369, 145, 432, 208
-0.963779, 377, 305, 440, 368
-0.963913, 1, 97, 128, 224
-0.964227, 33, 33, 96, 96
-0.964422, 73, 1, 136, 64
-0.964553, 193, 49, 320, 176
-0.96461, 225, 49, 480, 176
-0.964611, 401, 185, 464, 248
-0.96476, 209, 1, 336, 128
-0.964841, 145, 145, 208, 208
-0.965009, 297, 217, 360, 280
-0.96512, 65, 97, 128, 160
-0.965454, 113, 49, 240, 176
-0.965461, 177, 289, 240, 352
-0.96557, 289, 297, 416, 360
-0.965611, 161, 97, 288, 224
-0.966107, 65, 209, 128, 336
-0.966268, 425, 201, 488, 264
-0.966401, 209, 1, 272, 64
-0.966462, 105, 161, 168, 224
-0.966661, 145, 1, 208, 64
-0.966872, 297, 145, 360, 272
-0.967186, 73, 129, 136, 192
-0.967226, 289, 185, 352, 248
-0.967369, 129, 113, 192, 240
-0.967775, 433, 209, 496, 336
-0.96794, 1, 65, 64, 128
-0.967963, 205, 265, 236, 328
-0.967993, 193, 161, 256, 224
-0.968004, 73, 209, 136, 272
-0.968646, 249, 49, 312, 112
-0.968732, 97, 129, 160, 192
-0.968825, 241, 169, 304, 232
-0.968832, 161, 129, 224, 375
-0.96888, 97, 1, 160, 128
-0.968909, 129, 177, 192, 240
-0.969342, 217, 1, 280, 128
-0.969577, 393, 137, 456, 200
-0.969753, 201, 129, 264, 375
-0.969781, 361, 97, 424, 352
-0.969842, 9, 97, 72, 160
-0.969924, 225, 233, 352, 296
-0.969943, 385, 129, 448, 375
-0.970077, 1, 49, 64, 176
-0.970116, 97, 185, 224, 248
-0.970404, 273, 49, 336, 176
-0.970408, 233, 225, 264, 352
-0.97041, 329, 241, 392, 304
-0.970432, 241, 209, 304, 272
-0.970441, 409, 113, 472, 240
-0.970467, 265, 129, 328, 256
-0.970505, 241, 97, 368, 224
-0.970577, 253, 209, 284, 336
-0.970656, 121, 129, 184, 375
-0.970664, 129, 249, 256, 312
-0.970782, 333, 241, 364, 368
-0.971213, 189, 209, 220, 336
-0.971388, 97, 25, 160, 88
-0.971461, 177, 225, 304, 288
-0.971638, 433, 225, 496, 288
-0.971774, 177, 281, 304, 344
-0.971815, 205, 225, 236, 352
-0.971978, 265, 313, 328, 375
-0.972031, 337, 105, 400, 168
-0.972062, 17, 177, 80, 304
-0.972073, 305, 273, 432, 336
-0.972347, 329, 145, 392, 272
-0.972403, 281, 161, 344, 224
-0.972466, 313, 185, 376, 248
-0.972483, 141, 177, 172, 304
-0.972564, 161, 1, 224, 128
-0.972591, 49, 129, 112, 192
-0.972612, 169, 1, 232, 64
-0.972655, 233, 289, 296, 352
-0.972668, 101, 217, 132, 280
-0.972799, 337, 305, 464, 368
-0.972912, 417, 153, 448, 216
-0.97294, 417, 145, 448, 272
-0.973013, 57, 313, 120, 375
-0.973066, 437, 169, 468, 232
-0.973164, 257, 209, 384, 272
-0.973194, 9, 201, 72, 264
-0.973262, 89, 257, 152, 320
-0.973291, 369, 257, 432, 320
-0.973313, 393, 281, 456, 344
-0.97338, 97, 81, 160, 208
-0.973387, 121, 1, 184, 64
-0.973442, 265, 281, 328, 344
-0.973464, 93, 209, 124, 336
-0.973489, 121, 201, 184, 264
-0.973555, 121, 177, 152, 304
-0.973786, 241, 305, 368, 368
-0.973808, 257, 257, 384, 320
-0.973839, 373, 241, 404, 368
-0.973881, 25, 9, 88, 72
-0.973934, 273, 209, 304, 272
-0.974032, 321, 265, 352, 328
-0.974049, 305, 241, 368, 304
-0.974059, 41, 113, 104, 240
-0.974061, 369, 169, 496, 232
-0.974094, 321, 145, 448, 208
-0.974097, 1, 65, 64, 320
-0.974123, 321, 241, 352, 368
-0.97415, 257, 1, 500, 128
-0.974297, 121, 201, 152, 264
-0.974362, 445, 161, 476, 288
-0.974451, 313, 81, 376, 144
-0.974484, 161, 201, 224, 264
-0.9747, 177, 161, 304, 224
-0.974701, 209, 25, 272, 88
-0.974769, 313, 193, 344, 320
-0.974909, 361, 177, 424, 240
-0.974915, 309, 241, 340, 368
-0.974917, 337, 97, 400, 352
-0.97493, 81, 57, 144, 120
-0.974943, 289, 265, 352, 328
-0.974984, 257, 129, 320, 375
-0.974993, 317, 313, 348, 375
-0.975013, 193, 201, 256, 264
-0.975043, 217, 225, 248, 352
-0.97514, 201, 241, 232, 304
-0.975212, 97, 1, 160, 64
-0.975256, 73, 145, 136, 272
-0.975265, 289, 73, 352, 136
-0.975326, 249, 257, 312, 320
-0.975438, 169, 161, 200, 288
-0.975501, 177, 97, 240, 224
-0.975508, 97, 97, 160, 352
-0.975554, 221, 241, 252, 304
-0.975687, 345, 145, 408, 208
-0.975719, 389, 113, 420, 240
-0.975724, 333, 257, 364, 320
-0.975762, 177, 201, 304, 264
-0.975846, 405, 145, 436, 208
-0.975882, 293, 201, 324, 264
-0.976053, 1, 241, 64, 368
-0.976079, 417, 129, 480, 375
-0.976141, 269, 161, 300, 288
-0.976179, 57, 49, 120, 112
-0.976184, 289, 225, 320, 352
-0.976244, 81, 161, 144, 224
-0.976314, 129, 225, 256, 288
-0.976316, 217, 1, 248, 64
-0.976419, 257, 217, 288, 280
-0.976476, 265, 209, 296, 336
-0.97652, 1, 193, 128, 256
-0.976541, 189, 225, 220, 288
-0.976562, 49, 201, 112, 264
-0.976744, 121, 65, 184, 192
-0.976756, 233, 129, 296, 375
-0.976812, 429, 161, 460, 288
-0.976845, 17, 65, 144, 128
-0.976852, 225, 273, 256, 336
-0.976858, 129, 1, 192, 256
-0.976937, 33, 97, 96, 160
-0.976946, 105, 193, 136, 320
-0.976996, 401, 305, 464, 368
-0.977048, 361, 241, 392, 368
-0.977073, 393, 137, 424, 200
-0.977183, 137, 121, 200, 184
-0.977244, 257, 161, 288, 288
-0.977283, 293, 225, 324, 288
-0.977286, 257, 33, 320, 288
-0.977329, 281, 129, 344, 375
-0.977393, 181, 161, 212, 288
-0.977456, 133, 225, 164, 352
-0.97749, 57, 25, 120, 88
-0.977498, 65, 1, 192, 64
-0.97753, 241, 129, 304, 256
-0.977549, 313, 65, 376, 320
-0.977571, 57, 241, 120, 304
-0.977594, 185, 257, 216, 320
-0.977626, 233, 33, 296, 288
-0.977627, 405, 129, 436, 256
-0.977651, 113, 105, 176, 168
-0.977672, 17, 1, 144, 64
-0.977693, 373, 97, 404, 224
-0.977703, 17, 89, 144, 152
-0.977922, 305, 161, 368, 224
-0.978015, 9, 41, 72, 104
-0.978054, 89, 217, 120, 280
-0.978116, 21, 17, 52, 144
-0.978386, 1, 1, 64, 64
-0.978394, 73, 1, 104, 128
-0.978468, 49, 201, 176, 264
-0.978473, 33, 1, 96, 256
-0.978499, 381, 113, 412, 176
-0.978535, 241, 313, 304, 375
-0.978667, 313, 289, 344, 352
-0.978736, 425, 177, 456, 240
-0.978771, 137, 241, 168, 304
-0.978835, 353, 281, 480, 344
-0.978858, 281, 177, 312, 304
-0.978869, 33, 241, 96, 368
-0.978875, 57, 153, 120, 216
-0.978895, 157, 161, 188, 288
-0.978909, 469, 177, 500, 304
-0.978925, 353, 161, 416, 288
-0.978934, 1, 217, 128, 280
-0.978951, 345, 241, 376, 368
-0.978973, 329, 209, 392, 272
-0.979034, 97, 185, 160, 248
-0.979036, 57, 73, 120, 136
-0.97915, 1, 177, 64, 240
-0.979152, 361, 273, 392, 336
-0.979173, 385, 81, 448, 208
-0.979317, 389, 313, 420, 375
-0.979324, 113, 265, 176, 328
-0.97935, 129, 161, 256, 224
-0.979396, 313, 225, 344, 288
-0.97946, 289, 97, 416, 160
-0.979526, 49, 225, 176, 288
-0.979593, 341, 305, 372, 368
-0.979608, 121, 241, 152, 304
-0.979726, 65, 153, 192, 216
-0.979734, 233, 241, 264, 304
-0.97974, 305, 121, 432, 184
-0.979766, 77, 81, 108, 208
-0.979939, 153, 25, 216, 88
-0.979941, 361, 97, 392, 224
-0.979981, 17, 33, 144, 96
-0.98001, 233, 145, 296, 208
-0.980037, 305, 177, 432, 240
-0.980043, 65, 129, 192, 192
-0.980046, 185, 137, 248, 200
-0.980052, 337, 233, 464, 296
-0.980066, 189, 281, 220, 344
-0.980093, 89, 89, 152, 152
-0.980098, 193, 305, 320, 368
-0.98016, 257, 185, 384, 248
-0.980227, 137, 161, 168, 224
-0.980236, 257, 1, 320, 375
-0.980238, 121, 225, 152, 352
-0.980301, 433, 113, 496, 240
-0.980469, 425, 145, 488, 208
-0.980478, 281, 33, 344, 288
-0.980567, 193, 1, 256, 128
-0.980627, 457, 161, 488, 288
-0.980729, 449, 177, 480, 240
-0.980774, 373, 265, 404, 328
-0.980847, 57, 65, 120, 320
-0.980874, 169, 1, 200, 64
-0.980888, 369, 145, 496, 208
-0.981003, 225, 281, 352, 344
-0.981017, 305, 193, 336, 256
-0.981029, 353, 193, 480, 256
-0.981064, 301, 177, 332, 304
-0.981188, 121, 25, 184, 88
-0.981262, 241, 281, 272, 344
-0.981293, 465, 185, 496, 248
-0.981405, 9, 97, 40, 224
-0.981427, 73, 129, 104, 192
-0.98146, 225, 57, 352, 120
-0.981466, 349, 273, 380, 336
-0.981511, 81, 129, 112, 256
-0.981535, 161, 225, 192, 352
-0.981642, 193, 33, 320, 96
-0.981653, 21, 65, 52, 128
-0.981723, 401, 233, 464, 296
-0.981731, 273, 233, 400, 296
-0.981806, 181, 153, 212, 216
-0.981886, 353, 257, 480, 320
-0.981912, 329, 297, 360, 360
-0.981956, 81, 1, 144, 256
-0.981967, 309, 257, 340, 320
-0.982078, 153, 153, 184, 216
-0.982111, 129, 129, 160, 256
-0.982124, 1, 137, 64, 200
-0.982131, 305, 201, 432, 264
-0.982134, 209, 257, 336, 320
-0.982149, 369, 209, 432, 272
-0.982163, 277, 225, 308, 352
-0.98217, 289, 33, 416, 160
-0.982173, 353, 193, 384, 320
-0.982202, 249, 25, 312, 88
-0.982205, 153, 289, 216, 352
-0.982262, 105, 1, 168, 256
-0.982278, 33, 313, 96, 375
-0.982299, 161, 1, 288, 64
-0.982329, 193, 33, 256, 288
-0.982357, 349, 81, 380, 208
-0.982358, 25, 97, 56, 160
-0.982409, 61, 65, 92, 192
-0.982521, 245, 233, 276, 296
-0.982526, 301, 305, 332, 368
-0.982529, 141, 1, 172, 128
-0.982597, 245, 161, 276, 288
-0.982633, 61, 129, 92, 192
-0.982709, 353, 233, 416, 296
-0.982765, 153, 49, 216, 176
-0.982847, 361, 65, 424, 192
-0.98286, 73, 185, 136, 248
-0.982923, 357, 313, 388, 375
-0.982923, 109, 145, 140, 272
-0.982953, 129, 273, 256, 336
-0.982985, 341, 193, 372, 320
-0.983034, 9, 305, 72, 368
-0.983131, 225, 161, 352, 224
-0.983136, 217, 97, 280, 224
-0.983196, 369, 105, 400, 168
-0.983236, 277, 233, 308, 296
-0.983263, 61, 17, 92, 144
-0.983345, 49, 1, 112, 64
-0.983369, 169, 1, 200, 128
-0.983402, 401, 257, 464, 320
-0.98346, 113, 313, 176, 375
-0.983493, 65, 105, 192, 168
-0.983549, 261, 49, 292, 112
-0.983601, 273, 313, 304, 375
-0.983609, 433, 249, 496, 312
-0.983686, 149, 177, 180, 240
-0.983698, 381, 145, 412, 208
-0.983702, 113, 1, 240, 64
-0.983745, 121, 57, 184, 120
-0.983755, 205, 305, 236, 368
-0.983767, 105, 241, 136, 304
-0.983778, 1, 145, 128, 208
-0.983782, 201, 161, 232, 288
-0.983804, 85, 129, 116, 192
-0.983858, 157, 241, 188, 304
-0.98387, 97, 81, 128, 208
-0.983905, 21, 81, 52, 208
-0.98392, 113, 81, 176, 144
-0.98393, 325, 193, 356, 320
-0.98396, 293, 177, 324, 240
-0.983978, 89, 241, 120, 304
-0.983978, 377, 297, 408, 360
-0.984035, 273, 137, 336, 200
-0.984066, 337, 169, 400, 232
-0.984095, 105, 193, 136, 256
-0.984146, 377, 233, 440, 296
-0.984175, 149, 1, 180, 64
-0.984206, 273, 1, 336, 128
-0.984276, 9, 225, 72, 288
-0.984304, 205, 1, 236, 64
-0.984332, 165, 145, 196, 208
-0.984423, 193, 49, 256, 176
-0.984424, 113, 137, 240, 200
-0.984455, 161, 121, 224, 184
-0.984459, 169, 169, 200, 232
-0.984491, 65, 25, 192, 88
-0.984558, 433, 281, 496, 344
-0.984566, 33, 289, 96, 352
-0.984635, 57, 105, 88, 168
-0.984644, 225, 49, 288, 112
-0.984659, 273, 153, 400, 216
-0.984744, 1, 257, 64, 320
-0.984812, 25, 145, 88, 208
-0.98486, 177, 137, 304, 200
-0.984919, 145, 1, 208, 375
-0.984954, 9, 105, 40, 168
-0.984962, 133, 201, 164, 264
-0.985031, 233, 1, 296, 375
-0.985049, 405, 169, 436, 232
-0.985055, 37, 41, 68, 104
-0.985091, 137, 9, 168, 72
-0.985147, 17, 249, 144, 312
-0.985166, 153, 265, 216, 328
-0.985188, 361, 233, 392, 296
-0.985203, 1, 121, 128, 184
-0.98523, 37, 9, 68, 72
-0.985277, 105, 129, 136, 192
-0.985301, 33, 49, 64, 176
-0.985315, 169, 313, 232, 375
-0.985317, 369, 281, 432, 344
-0.985364, 125, 169, 156, 232
-0.985388, 161, 97, 192, 224
-0.985457, 37, 81, 68, 144
-0.985514, 49, 17, 80, 144
-0.985552, 81, 257, 208, 320
-0.98566, 281, 1, 344, 375
-0.985673, 69, 9, 100, 72
-0.985708, 117, 65, 148, 192
-0.985728, 129, 305, 256, 368
-0.985859, 125, 1, 156, 64
-0.985878, 409, 305, 440, 368
-0.985922, 369, 137, 400, 200
-0.985939, 149, 97, 180, 224
-0.985977, 425, 225, 456, 352
-0.986031, 217, 1, 248, 128
-0.98607, 153, 33, 216, 288
-0.986093, 273, 73, 400, 136
-0.986254, 97, 81, 224, 144
-0.986272, 93, 145, 124, 272
-0.986334, 73, 97, 104, 160
-0.986338, 437, 193, 468, 256
-0.986352, 61, 57, 92, 120
-0.98641, 9, 1, 72, 375
-0.986454, 77, 225, 108, 352
-0.98654, 1, 209, 32, 336
-0.986543, 369, 65, 496, 192
-0.986599, 17, 273, 144, 336
-0.9866, 281, 185, 312, 248
-0.986637, 113, 1, 144, 64
-0.986668, 57, 25, 88, 88
-0.98668, 233, 145, 264, 272
-0.986681, 265, 33, 296, 160
-0.986754, 25, 41, 56, 104
-0.986794, 393, 177, 424, 240
-0.986813, 157, 1, 188, 128
-0.986923, 305, 1, 368, 375
-0.987005, 429, 113, 460, 240
-0.987012, 389, 161, 420, 288
-0.987036, 177, 241, 208, 368
-0.987086, 81, 153, 112, 216
-0.987127, 297, 17, 360, 144
-0.987135, 265, 169, 296, 232
-0.987135, 317, 177, 348, 240
-0.98718, 173, 249, 204, 312
-0.987181, 17, 169, 144, 232
-0.98723, 145, 33, 272, 96
-0.98724, 1, 1, 32, 64
-0.987254, 17, 313, 144, 375
-0.987285, 197, 169, 228, 232
-0.987288, 149, 225, 180, 352
-0.987299, 169, 1, 232, 375
-0.987318, 241, 129, 368, 192
-0.987383, 113, 1, 176, 375
-0.987518, 93, 33, 124, 160
-0.987558, 357, 97, 388, 160
-0.987582, 193, 1, 256, 375
-0.987732, 173, 113, 204, 240
-0.987895, 321, 65, 352, 192
-0.988073, 429, 241, 460, 304
-0.988118, 13, 177, 44, 240
-0.988146, 241, 233, 304, 264
-0.988188, 93, 89, 124, 152
-0.988242, 81, 233, 144, 264
-0.988289, 33, 129, 96, 375
-0.988295, 117, 265, 148, 328
-0.988326, 257, 297, 288, 360
-0.988328, 217, 289, 280, 320
-0.988355, 249, 145, 280, 208
-0.98836, 185, 201, 216, 264
-0.988478, 49, 313, 80, 375
-0.988534, 129, 233, 384, 296
-0.98855, 37, 1, 68, 128
-0.988556, 277, 57, 308, 120
-0.988647, 201, 1, 232, 128
-0.988661, 249, 41, 280, 104
-0.988667, 97, 57, 224, 120
-0.988674, 245, 17, 276, 144
-0.988682, 241, 9, 368, 72
-0.988719, 17, 17, 48, 80
-0.988721, 337, 81, 368, 208
-0.988724, 325, 217, 356, 280
-0.988741, 289, 49, 320, 176
-0.988785, 265, 225, 328, 256
-0.988815, 229, 1, 260, 128
-0.988824, 329, 169, 360, 232
-0.988824, 257, 241, 288, 304
-0.988831, 229, 1, 260, 64
-0.988846, 193, 257, 448, 320
-0.98887, 117, 97, 148, 160
-0.988903, 449, 209, 480, 336
-0.988916, 277, 49, 308, 176
-0.988937, 313, 305, 376, 336
-0.98894, 153, 181, 216, 212
-0.988965, 5, 129, 36, 192
-0.988969, 301, 281, 332, 344
-0.989037, 105, 1, 136, 128
-0.989046, 73, 233, 104, 296
-0.989085, 73, 57, 104, 120
-0.98911, 265, 237, 328, 268
-0.989116, 97, 49, 128, 112
-0.989155, 9, 49, 40, 176
-0.989159, 337, 49, 400, 176
-0.98916, 393, 265, 424, 328
-0.989174, 345, 249, 376, 312
-0.989181, 105, 241, 136, 368
-0.98919, 289, 65, 320, 128
-0.989203, 65, 209, 320, 272
-0.989265, 193, 277, 256, 308
-0.989283, 329, 1, 392, 375
-0.989289, 425, 201, 456, 264
-0.989305, 345, 89, 376, 152
-0.989411, 193, 145, 224, 208
-0.989415, 285, 289, 316, 352
-0.989417, 9, 73, 40, 136
-0.989425, 49, 49, 80, 112
-0.98943, 93, 161, 124, 224
-0.989455, 241, 81, 304, 208
-0.989457, 393, 165, 456, 196
-0.989461, 61, 113, 92, 240
-0.989472, 137, 245, 200, 276
-0.989483, 425, 181, 488, 212
-0.989486, 265, 249, 328, 280
-0.989506, 177, 289, 240, 320
-0.989559, 1, 1, 32, 128
-0.989561, 369, 145, 400, 272
-0.989565, 401, 189, 464, 220
-0.989603, 329, 337, 392, 368
-0.989612, 129, 1, 160, 128
-0.989625, 105, 1, 168, 32
-0.989644, 273, 201, 336, 232
-0.989653, 213, 177, 244, 304
-0.989726, 97, 245, 160, 276
-0.989732, 273, 213, 336, 244
-0.98981, 169, 233, 232, 264
-0.989829, 1, 241, 256, 304
-0.98985, 281, 305, 344, 336
-0.989861, 353, 301, 416, 332
-0.989891, 305, 265, 368, 296
-0.989893, 201, 249, 264, 280
-0.989944, 33, 85, 96, 116
-0.989945, 385, 241, 416, 368
-0.98995, 369, 121, 496, 184
-0.989999, 289, 97, 352, 224
-0.990009, 321, 317, 384, 348
-0.990012, 217, 277, 280, 308
-0.990038, 33, 57, 96, 88
-0.990044, 21, 177, 52, 304
-0.990073, 289, 333, 352, 364
-0.990106, 305, 245, 368, 276
-0.990121, 25, 45, 88, 76
-0.990135, 345, 257, 408, 288
-0.990137, 129, 177, 384, 240
-0.990148, 129, 1, 192, 32
-0.99021, 353, 1, 416, 375
-0.990221, 337, 273, 400, 304
-0.990231, 97, 205, 160, 236
-0.990255, 361, 329, 424, 360
-0.990262, 129, 49, 160, 176
-0.990263, 185, 173, 248, 204
-0.990276, 113, 229, 176, 260
-0.990281, 353, 129, 416, 160
-0.990294, 73, 253, 136, 284
-0.990303, 169, 1, 232, 32
-0.990315, 417, 205, 480, 236
-0.990324, 33, 69, 96, 100
-0.990335, 369, 149, 432, 180
-0.990342, 289, 321, 352, 352
-0.990376, 417, 169, 480, 200
-0.990382, 337, 17, 464, 144
-0.990391, 361, 317, 424, 348
-0.990406, 9, 101, 72, 132
-0.990413, 25, 33, 88, 64
-0.99045, 353, 341, 416, 372
-0.99045, 241, 221, 304, 252
-0.990477, 369, 89, 496, 152
-0.990501, 113, 257, 176, 288
-0.990521, 385, 177, 448, 208
-0.99062, 81, 1, 144, 32
-0.990635, 177, 113, 304, 176
-0.990637, 33, 1, 96, 375
-0.990651, 405, 177, 436, 304
-0.990683, 233, 245, 296, 276
-0.990695, 1, 185, 256, 248
-0.9907, 113, 113, 240, 176
-0.990717, 201, 225, 264, 256
-0.99072, 393, 301, 456, 332
-0.990728, 385, 333, 448, 364
-0.99073, 217, 301, 280, 332
-0.990744, 57, 225, 120, 256
-0.990757, 365, 193, 396, 320
-0.99076, 33, 97, 64, 224
-0.990768, 273, 113, 304, 240
-0.990769, 393, 153, 456, 184
-0.990776, 81, 161, 144, 192
-0.990788, 121, 173, 184, 204
-0.990791, 433, 193, 496, 224
-0.990792, 141, 49, 172, 176
-0.990792, 185, 301, 248, 332
-0.990795, 305, 293, 368, 324
-0.990804, 433, 233, 496, 264
-0.990847, 57, 337, 120, 368
-0.990859, 385, 345, 448, 375
-0.990864, 241, 33, 368, 96
-0.990866, 297, 233, 360, 264
-0.990881, 345, 289, 408, 320
-0.990889, 97, 185, 160, 216
-0.990891, 65, 17, 320, 80
-0.990895, 1, 73, 64, 104
-0.990896, 273, 293, 336, 324
-0.990904, 273, 177, 336, 208
-0.990929, 97, 149, 160, 180
-0.990951, 265, 329, 328, 360
-0.990954, 249, 57, 312, 88
-0.990978, 185, 97, 216, 224
-0.990991, 393, 317, 456, 348
-0.990992, 1, 89, 64, 120
-0.991003, 313, 145, 344, 272
-0.991018, 305, 345, 368, 375
-0.991054, 377, 193, 440, 224
-0.991057, 349, 129, 380, 256
-0.991069, 65, 313, 192, 375
-0.991069, 417, 97, 448, 224
-0.991072, 57, 153, 120, 184
-0.991074, 65, 133, 128, 164
-0.991081, 313, 193, 376, 224
-0.991083, 105, 13, 168, 44
-0.991093, 65, 97, 128, 128
-0.991098, 201, 5, 264, 36
-0.991106, 145, 193, 208, 224
-0.991113, 81, 221, 144, 252
-0.991117, 297, 217, 360, 248
-0.99112, 9, 221, 72, 252
-0.99117, 217, 49, 280, 176
-0.99119, 105, 161, 168, 192
-0.99121, 177, 245, 240, 276
-0.991211, 201, 161, 264, 192
-0.991219, 33, 97, 96, 128
-0.991227, 209, 237, 272, 268
-0.991255, 145, 157, 208, 188
-0.991262, 377, 1, 440, 375
-0.991283, 49, 37, 112, 68
-0.991283, 1, 217, 500, 280
-0.991297, 89, 265, 152, 296
-0.991306, 9, 201, 72, 232
-0.991327, 217, 33, 280, 64
-0.991335, 353, 181, 416, 212
-0.991351, 137, 13, 200, 44
-0.991354, 217, 17, 280, 48
-0.991355, 161, 169, 224, 200
-0.991387, 353, 117, 416, 148
-0.991396, 369, 257, 432, 288
-0.991402, 417, 217, 480, 248
-0.991412, 257, 209, 500, 272
-0.991415, 241, 305, 304, 336
-0.991424, 233, 169, 296, 200
-0.991431, 273, 165, 336, 196
-0.991436, 49, 209, 112, 240
-0.991438, 89, 1, 152, 375
-0.991463, 65, 13, 128, 44
-0.99147, 337, 1, 400, 256
-0.991471, 297, 205, 360, 236
-0.99148, 225, 297, 480, 360
-0.991481, 321, 221, 384, 252
-0.991498, 177, 265, 240, 296
-0.991522, 377, 285, 440, 316
-0.991524, 121, 197, 184, 228
-0.991526, 161, 13, 224, 44
-0.991548, 289, 189, 352, 220
-0.991552, 153, 289, 216, 320
-0.991565, 153, 221, 216, 252
-0.991579, 433, 1, 496, 375
-0.991581, 25, 21, 88, 52
-0.991598, 377, 137, 440, 168
-0.991602, 49, 325, 112, 356
-0.991606, 225, 137, 480, 200
-0.991609, 89, 81, 152, 112
-0.991638, 69, 161, 100, 288
-0.991639, 369, 165, 432, 196
-0.99164, 185, 197, 248, 228
-0.991648, 225, 45, 288, 76
-0.991733, 301, 129, 332, 256
-0.991752, 305, 49, 336, 176
-0.991818, 161, 201, 416, 264
-0.991866, 405, 81, 436, 208
-0.991948, 225, 81, 352, 144
-0.991971, 201, 285, 232, 316
-0.992063, 401, 33, 464, 288
-0.992141, 409, 1, 472, 375
-0.992144, 257, 161, 500, 224
-0.992237, 377, 1, 440, 256
-0.992262, 225, 277, 256, 308
-0.992292, 1, 265, 500, 328
-0.992327, 293, 233, 324, 264
-0.992355, 273, 229, 304, 260
-0.992368, 341, 341, 372, 372
-0.992382, 429, 189, 460, 220
-0.992394, 1, 161, 500, 224
-0.992394, 241, 281, 272, 312
-0.992421, 333, 257, 364, 288
-0.99246, 105, 229, 136, 260
-0.992468, 321, 333, 352, 364
-0.992469, 109, 1, 140, 32
-0.992485, 225, 81, 256, 208
-0.992502, 441, 173, 472, 204
-0.992513, 133, 1, 164, 32
-0.992515, 429, 165, 460, 196
-0.992519, 121, 249, 152, 280
-0.992536, 409, 173, 440, 204
-0.992541, 193, 173, 224, 204
-0.992546, 313, 317, 344, 348
-0.992548, 405, 241, 436, 368
-0.99255, 285, 217, 316, 248
-0.992571, 273, 217, 304, 248
-0.992573, 173, 173, 204, 204
-0.992575, 89, 229, 120, 260
-0.992577, 253, 233, 284, 264
-0.992587, 289, 309, 416, 340
-0.99259, 213, 273, 244, 304
-0.992591, 117, 17, 148, 144
-0.992595, 105, 209, 136, 240
-0.992602, 221, 293, 252, 324
-0.992621, 469, 129, 500, 256
-0.992631, 337, 65, 464, 128
-0.992632, 305, 229, 336, 260
-0.992642, 209, 1, 240, 32
-0.992644, 261, 221, 292, 252
-0.992665, 97, 281, 352, 344
-0.992665, 369, 269, 400, 300
-0.992666, 189, 289, 220, 320
-0.992667, 389, 333, 420, 364
-0.992671, 305, 321, 432, 352
-0.992681, 297, 197, 328, 228
-0.992721, 377, 145, 408, 176
-0.992722, 405, 145, 436, 176
-0.992724, 389, 133, 420, 164
-0.992725, 417, 153, 448, 184
-0.992734, 289, 245, 320, 276
-0.992734, 445, 113, 476, 240
-0.992739, 133, 257, 164, 288
-0.992742, 85, 1, 116, 32
-0.99276, 1, 113, 500, 176
-0.99277, 325, 301, 356, 332
-0.992788, 425, 201, 456, 232
-0.992795, 101, 245, 132, 276
-0.992797, 137, 245, 168, 276
-0.992797, 165, 1, 196, 32
-0.992799, 313, 241, 344, 272
-0.992808, 121, 229, 152, 260
-0.992813, 93, 217, 124, 248
-0.992816, 309, 201, 340, 232
-0.992819, 277, 241, 308, 272
-0.992821, 37, 53, 68, 84
-0.992823, 193, 233, 224, 264
-0.992829, 313, 213, 344, 244
-0.992833, 221, 1, 252, 32
-0.992841, 293, 325, 324, 356
-0.992841, 317, 269, 348, 300
-0.992843, 5, 109, 36, 140
-0.992844, 97, 337, 128, 368
-0.992846, 33, 97, 64, 128
-0.992853, 197, 113, 228, 240
-0.992863, 413, 185, 444, 216
-0.992865, 345, 273, 376, 304
-0.992866, 85, 145, 116, 176
-0.992875, 249, 293, 280, 324
-0.992876, 45, 345, 76, 375
-0.992886, 401, 161, 432, 192
-0.992886, 85, 161, 116, 192
-0.992893, 89, 241, 120, 272
-0.992899, 177, 57, 304, 120
-0.992903, 361, 333, 392, 364
-0.992907, 201, 269, 232, 300
-0.992914, 201, 245, 232, 276
-0.992915, 301, 217, 332, 248
-0.992924, 133, 197, 164, 228
-0.992926, 153, 185, 184, 216
-0.992932, 121, 9, 152, 40
-0.992933, 281, 321, 312, 352
-0.992934, 345, 305, 376, 336
-0.992935, 121, 261, 152, 292
-0.992937, 209, 13, 240, 44
-0.992944, 65, 153, 320, 216
-0.992947, 261, 49, 292, 80
-0.992948, 1, 289, 500, 352
-0.992957, 265, 309, 296, 340
-0.992957, 73, 133, 104, 164
-0.99296, 133, 185, 164, 216
-0.992964, 337, 129, 368, 256
-0.992966, 281, 177, 312, 208
-0.99297, 121, 193, 152, 224
-0.992972, 261, 173, 292, 204
-0.992972, 181, 189, 212, 220
-0.992974, 389, 181, 420, 212
-0.992974, 241, 237, 272, 268
-0.992976, 57, 1, 120, 375
-0.992981, 221, 13, 252, 44
-0.992984, 21, 105, 52, 136
-0.992988, 257, 97, 288, 224
-0.992989, 273, 57, 304, 88
-0.992991, 41, 41, 72, 72
-0.992991, 313, 253, 344, 284
-0.992993, 333, 269, 364, 300
-0.992995, 117, 209, 148, 240
-0.992995, 197, 21, 228, 52
-0.992996, 293, 185, 324, 216
-0.993, 393, 293, 424, 324
-0.993001, 61, 57, 92, 88
-0.993002, 469, 225, 500, 352
-0.993003, 281, 205, 312, 236
-0.993005, 265, 241, 296, 272
-0.993012, 153, 169, 184, 200
-0.993028, 425, 177, 456, 208
-0.993033, 153, 9, 184, 40
-0.993034, 453, 181, 484, 212
-0.993037, 65, 153, 96, 184
-0.993041, 353, 321, 384, 352
-0.993041, 397, 345, 428, 375
-0.993043, 301, 309, 332, 340
-0.993044, 1, 1, 32, 32
-0.993044, 193, 301, 224, 332
-0.993045, 21, 61, 52, 92
-0.993048, 157, 245, 188, 276
-0.993052, 197, 205, 228, 236
-0.993053, 5, 97, 36, 128
-0.993053, 61, 29, 92, 60
-0.993059, 177, 285, 304, 316
-0.993068, 37, 29, 68, 60
-0.993072, 137, 173, 168, 204
-0.993074, 289, 41, 416, 104
-0.993081, 41, 85, 72, 116
-0.993081, 105, 13, 136, 44
-0.993081, 181, 253, 212, 284
-0.993082, 1, 241, 500, 304
-0.993082, 393, 145, 424, 176
-0.993083, 329, 345, 360, 375
-0.993084, 413, 197, 444, 228
-0.993085, 73, 9, 104, 40
-0.993088, 313, 297, 344, 328
-0.993091, 53, 325, 84, 356
-0.993095, 353, 261, 384, 292
-0.993096, 97, 1, 128, 32
-0.993098, 385, 321, 416, 352
-0.993104, 1, 65, 500, 128
-0.993109, 81, 281, 208, 344
-0.993116, 437, 241, 468, 368
-0.993253, 37, 241, 68, 368
-0.993258, 33, 121, 288, 184
-0.993286, 13, 225, 44, 352
-0.993317, 289, 113, 320, 240
-0.993321, 193, 105, 448, 168
-0.993331, 237, 81, 268, 208
-0.993398, 225, 241, 352, 272
-0.993413, 325, 145, 356, 272
-0.993507, 211, 265, 226, 328
-0.993515, 225, 233, 480, 296
-0.993531, 129, 57, 384, 120
-0.993667, 1, 89, 256, 152
-0.993702, 211, 241, 226, 304
-0.993705, 209, 297, 336, 328
-0.993728, 279, 209, 294, 272
-0.993738, 257, 185, 500, 248
-0.993764, 219, 265, 234, 328
-0.993767, 425, 33, 488, 288
-0.99377, 1, 265, 256, 328
-0.993819, 439, 161, 454, 224
-0.993866, 1, 137, 500, 200
-0.993889, 321, 333, 448, 364
-0.993917, 145, 89, 272, 152
-0.993962, 337, 309, 464, 340
-0.99405, 305, 297, 432, 328
-0.994095, 97, 193, 224, 224
-0.994099, 369, 181, 496, 212
-0.994175, 413, 145, 428, 208
-0.994205, 129, 313, 384, 375
-0.994205, 117, 201, 132, 264
-0.994217, 97, 209, 224, 240
-0.994232, 377, 49, 408, 176
-0.994261, 177, 237, 304, 268
-0.99427, 1, 41, 256, 104
-0.994275, 225, 225, 352, 256
-0.994282, 257, 297, 384, 328
-0.994292, 65, 241, 96, 368
-0.994301, 189, 1, 220, 128
-0.994311, 329, 265, 344, 328
-0.994318, 287, 217, 302, 280
-0.994337, 177, 205, 304, 236
-0.994342, 1, 193, 500, 256
-0.994346, 113, 225, 128, 288
-0.994352, 281, 1, 312, 128
-0.994358, 343, 257, 358, 320
-0.994404, 429, 153, 444, 216
-0.99441, 93, 225, 108, 288
-0.994417, 201, 257, 216, 320
-0.994434, 177, 169, 304, 200
-0.994439, 97, 257, 352, 320
-0.994461, 193, 81, 448, 144
-0.994471, 351, 265, 366, 328
-0.994474, 1, 41, 500, 104
-0.994489, 323, 265, 338, 328
-0.994497, 221, 241, 236, 304
-0.994501, 321, 345, 448, 375
-0.994542, 17, 93, 144, 124
-0.994543, 323, 313, 338, 375
-0.994591, 99, 217, 114, 280
-0.994612, 305, 217, 320, 280
-0.994656, 227, 273, 242, 336
-0.994668, 405, 137, 420, 200
-0.994677, 337, 257, 352, 320
-0.994685, 113, 249, 240, 280
-0.994686, 431, 177, 446, 240
-0.994689, 315, 225, 330, 288
-0.994718, 1, 89, 500, 152
-0.994747, 65, 1, 192, 32
-0.994758, 423, 153, 438, 216
-0.994761, 383, 257, 398, 320
-0.994801, 229, 249, 244, 312
-0.994807, 9, 161, 40, 288
-0.994815, 113, 181, 240, 212
-0.994837, 105, 209, 120, 272
-0.994842, 177, 217, 304, 248
-0.994864, 161, 297, 288, 328
-0.994886, 457, 113, 488, 240
-0.994938, 273, 233, 400, 264
-0.994946, 357, 273, 372, 336
-0.994954, 449, 169, 464, 232
-0.994969, 237, 241, 252, 304
-0.995031, 271, 217, 286, 280
-0.995035, 1, 205, 128, 236
-0.995046, 241, 105, 368, 168
-0.995048, 305, 285, 432, 316
-0.995063, 337, 157, 464, 188
-0.995069, 213, 1, 228, 64
-0.995097, 201, 225, 216, 288
-0.995097, 111, 201, 126, 264
-0.995101, 1, 65, 256, 128
-0.995102, 309, 193, 324, 256
-0.995107, 177, 309, 304, 340
-0.995127, 315, 265, 330, 328
-0.99514, 369, 169, 496, 200
-0.995158, 257, 321, 384, 352
-0.995164, 113, 265, 240, 296
-0.995227, 221, 289, 236, 352
-0.995244, 125, 201, 140, 264
-0.995266, 193, 253, 320, 284
-0.995298, 17, 25, 144, 56
-0.995307, 277, 233, 292, 296
-0.99531, 327, 289, 342, 352
-0.995324, 321, 181, 448, 212
-0.995328, 203, 281, 218, 344
-0.995345, 195, 257, 210, 320
-0.995357, 337, 145, 464, 176
-0.995358, 353, 297, 480, 328
-0.995362, 273, 197, 400, 228
-0.995363, 81, 129, 96, 192
-0.995373, 129, 229, 256, 260
-0.995373, 243, 241, 258, 304
-0.995377, 17, 81, 144, 112
-0.995391, 219, 1, 234, 64
-0.995392, 65, 237, 192, 268
-0.995404, 257, 209, 384, 240
-0.995408, 439, 185, 454, 248
-0.995425, 319, 289, 334, 352
-0.995449, 17, 105, 144, 136
-0.995451, 149, 161, 164, 224
-0.995455, 31, 33, 46, 96
-0.995478, 75, 129, 90, 192
-0.995489, 241, 309, 368, 340
-0.995501, 299, 209, 314, 272
-0.995524, 225, 285, 352, 316
-0.995538, 399, 129, 414, 192
-0.995553, 333, 297, 348, 360
-0.99556, 161, 41, 288, 72
-0.99557, 145, 1, 272, 32
-0.995594, 199, 193, 214, 256
-0.995629, 229, 1, 244, 64
-0.995637, 17, 13, 144, 44
-0.995652, 1, 225, 128, 256
-0.995658, 273, 221, 400, 252
-0.995679, 127, 233, 142, 296
-0.995689, 129, 285, 256, 316
-0.995691, 305, 245, 432, 276
-0.995693, 397, 313, 412, 375
-0.995697, 241, 273, 256, 336
-0.995703, 289, 273, 416, 304
-0.995708, 139, 233, 154, 296
-0.995709, 455, 169, 470, 232
-0.995714, 365, 273, 380, 336
-0.995717, 127, 1, 142, 64
-0.995722, 313, 305, 328, 368
-0.995735, 1, 289, 256, 352
-0.995736, 133, 201, 148, 264
-0.99574, 273, 345, 400, 375
-0.99577, 363, 313, 378, 375
-0.995795, 285, 241, 300, 304
-0.995801, 265, 217, 280, 280
-0.995804, 143, 161, 158, 224
-0.995812, 357, 305, 372, 368
-0.995826, 293, 201, 308, 264
-0.995827, 353, 193, 480, 224
-0.995875, 151, 233, 166, 296
-0.995895, 353, 321, 480, 352
-0.995899, 375, 233, 390, 296
-0.995917, 171, 1, 186, 64
-0.995919, 135, 1, 150, 64
-0.995922, 33, 341, 160, 372
-0.995925, 177, 185, 304, 216
-0.995935, 65, 157, 192, 188
-0.99596, 353, 269, 480, 300
-0.995961, 155, 153, 170, 216
-0.995961, 193, 161, 208, 224
-0.995976, 39, 1, 54, 64
-0.995991, 371, 273, 386, 336
-0.996023, 241, 333, 368, 364
-0.996025, 65, 13, 192, 44
-0.996033, 467, 177, 482, 240
-0.996037, 69, 25, 84, 88
-0.996041, 461, 177, 476, 240
-0.996049, 257, 185, 384, 216
-0.99606, 353, 205, 480, 236
-0.996063, 39, 57, 54, 120
-0.996067, 391, 113, 406, 176
-0.996068, 337, 257, 464, 288
-0.996074, 119, 225, 134, 288
-0.996081, 65, 133, 192, 164
-0.99611, 281, 313, 296, 375
-0.996115, 111, 1, 126, 64
-0.99612, 65, 145, 192, 176
-0.99612, 195, 217, 210, 280
-0.996122, 315, 201, 330, 264
-0.99613, 249, 281, 264, 344
-0.996139, 49, 185, 176, 216
-0.996154, 33, 57, 48, 120
-0.996155, 289, 113, 416, 144
-0.996175, 93, 129, 108, 192
-0.996179, 143, 201, 158, 264
-0.996191, 343, 297, 358, 360
-0.996198, 177, 53, 304, 84
-0.996209, 17, 57, 144, 88
-0.99621, 137, 169, 152, 232
-0.996218, 399, 153, 414, 216
-0.996235, 305, 133, 432, 164
-0.996237, 1, 149, 128, 180
-0.996244, 1, 1, 16, 64
-0.996246, 129, 129, 160, 375
-0.996252, 225, 173, 352, 204
-0.996256, 391, 305, 406, 368
-0.996262, 257, 257, 384, 288
-0.996263, 287, 193, 302, 256
-0.996267, 321, 169, 448, 200
-0.996278, 113, 129, 128, 192
-0.996281, 369, 229, 496, 260
-0.996294, 87, 249, 102, 312
-0.996302, 113, 297, 240, 328
-0.996305, 113, 157, 240, 188
-0.996316, 129, 257, 144, 320
-0.996341, 155, 177, 170, 240
-0.996342, 377, 265, 392, 328
-0.996344, 161, 145, 176, 208
-0.99635, 145, 241, 160, 304
-0.996354, 225, 269, 352, 300
-0.996354, 427, 201, 442, 264
-0.996354, 301, 185, 316, 248
-0.996362, 17, 1, 144, 32
-0.996365, 197, 281, 212, 344
-0.996376, 13, 105, 28, 168
-0.99638, 105, 1, 120, 64
-0.996381, 405, 161, 420, 224
-0.996381, 199, 169, 214, 232
-0.996382, 159, 241, 174, 304
-0.996398, 181, 169, 196, 232
-0.9964, 169, 129, 200, 375
-0.996412, 255, 281, 270, 344
-0.996413, 149, 1, 164, 64
-0.996418, 351, 297, 366, 360
-0.996431, 271, 49, 286, 112
-0.996458, 369, 341, 496, 372
-0.99646, 17, 69, 144, 100
-0.996461, 373, 105, 388, 168
-0.996466, 163, 1, 178, 64
-0.996479, 161, 13, 288, 44
-0.99648, 225, 65, 352, 96
-0.996484, 233, 273, 248, 336
-0.996485, 141, 129, 172, 375
-0.996486, 381, 105, 396, 168
-0.99649, 161, 29, 288, 60
-0.99649, 161, 177, 176, 240
-0.996495, 19, 105, 34, 168
-0.996497, 369, 97, 400, 352
-0.996504, 49, 205, 176, 236
-0.996506, 191, 185, 206, 248
-0.996513, 237, 1, 252, 64
-0.996514, 207, 1, 222, 64
-0.996514, 69, 137, 84, 200
-0.996528, 65, 169, 192, 200
-0.996558, 205, 129, 236, 375
-0.996572, 425, 129, 456, 375
-0.996582, 273, 169, 400, 200
-0.996584, 225, 129, 256, 375
-0.996584, 177, 273, 304, 304
-0.996587, 225, 25, 480, 88
-0.996616, 17, 37, 144, 68
-0.99662, 369, 285, 496, 316
-0.996648, 185, 129, 216, 375
-0.996653, 33, 313, 288, 375
-0.996657, 269, 129, 300, 375
-0.996736, 177, 157, 304, 188
-0.99676, 113, 13, 240, 44
-0.996765, 49, 225, 176, 256
-0.996782, 241, 77, 368, 108
-0.996797, 241, 129, 272, 375
-0.996799, 273, 97, 400, 128
-0.996843, 1, 165, 128, 196
-0.996844, 225, 157, 352, 188
-0.996847, 343, 257, 358, 288
-0.99686, 113, 25, 240, 56
-0.996871, 257, 129, 288, 375
-0.996916, 1, 245, 128, 276
-0.996974, 433, 181, 448, 212
-0.996982, 243, 281, 258, 312
-0.996998, 1, 193, 128, 224
-0.99701, 193, 1, 320, 32
-0.997015, 17, 117, 144, 148
-0.997019, 157, 129, 188, 375
-0.997044, 61, 1, 92, 256
-0.997046, 289, 149, 416, 180
-0.997108, 17, 1, 48, 256
-0.997141, 153, 1, 184, 256
-0.997142, 81, 117, 208, 148
-0.997146, 1, 313, 500, 375
-0.997174, 213, 1, 228, 32
-0.997184, 141, 1, 172, 256
-0.997188, 129, 129, 384, 192
-0.997199, 97, 97, 352, 160
-0.997207, 49, 261, 176, 292
-0.997224, 369, 241, 496, 272
-0.997238, 389, 97, 420, 352
-0.997238, 97, 105, 224, 136
-0.997253, 17, 329, 144, 360
-0.997257, 229, 1, 244, 32
-0.997258, 1, 137, 128, 168
-0.997261, 225, 57, 480, 120
-0.99727, 241, 33, 368, 64
-0.997277, 225, 197, 352, 228
-0.997281, 115, 229, 130, 260
-0.997282, 261, 33, 292, 288
-0.997286, 309, 225, 324, 256
-0.997297, 279, 237, 294, 268
-0.99732, 285, 129, 316, 375
-0.997321, 113, 37, 240, 68
-0.99733, 77, 1, 108, 256
-0.997347, 1, 17, 500, 80
-0.997349, 213, 285, 228, 316
-0.997352, 129, 145, 256, 176
-0.997377, 439, 185, 454, 216
-0.997379, 219, 289, 234, 320
-0.997403, 341, 65, 372, 320
-0.997408, 353, 217, 480, 248
-0.997423, 287, 225, 302, 256
-0.997442, 225, 53, 352, 84
-0.997449, 113, 1, 144, 256
-0.997457, 113, 169, 240, 200
-0.997476, 445, 129, 476, 375
-0.997482, 303, 233, 318, 264
-0.997485, 275, 221, 290, 252
-0.997496, 1, 285, 128, 316
-0.997504, 1, 1, 32, 256
-0.997508, 111, 1, 126, 32
-0.99752, 1, 177, 128, 208
-0.997526, 253, 285, 268, 316
-0.997533, 209, 321, 336, 352
-0.99755, 285, 33, 316, 288
-0.997551, 353, 97, 384, 352
-0.997573, 369, 133, 496, 164
-0.997573, 273, 33, 304, 288
-0.997581, 13, 97, 44, 352
-0.997595, 429, 197, 444, 228
-0.9976, 315, 237, 330, 268
-0.9976, 193, 1, 448, 64
-0.997616, 231, 277, 246, 308
-0.997626, 65, 25, 192, 56
-0.997631, 225, 345, 352, 375
-0.997637, 245, 1, 276, 256
-0.997646, 413, 129, 444, 375
-0.997648, 123, 253, 138, 284
-0.997649, 203, 285, 218, 316
-0.997661, 223, 273, 238, 304
-0.997666, 383, 265, 398, 296
-0.99768, 195, 177, 210, 208
-0.997681, 305, 209, 432, 240
-0.997681, 195, 285, 210, 316
-0.997682, 129, 33, 160, 288
-0.997695, 369, 121, 496, 152
-0.997698, 187, 173, 202, 204
-0.997701, 217, 269, 232, 300
-0.997716, 335, 333, 350, 364
-0.99772, 29, 1, 60, 256
-0.997726, 305, 129, 336, 375
-0.997735, 427, 177, 442, 208
-0.997743, 443, 169, 458, 200
-0.997747, 65, 49, 192, 80
-0.997747, 221, 301, 236, 332
-0.997751, 321, 233, 448, 264
-0.997752, 437, 165, 452, 196
-0.997754, 109, 209, 124, 240
-0.997755, 225, 1, 256, 256
-0.997757, 17, 297, 144, 328
-0.997757, 89, 233, 104, 264
-0.99777, 119, 209, 134, 240
-0.997773, 147, 1, 162, 32
-0.997782, 297, 33, 328, 288
-0.997785, 431, 161, 446, 192
-0.997793, 425, 157, 440, 188
-0.997812, 207, 13, 222, 44
-0.997816, 31, 41, 46, 72
-0.997816, 97, 337, 224, 368
-0.99782, 335, 261, 350, 292
-0.997826, 143, 181, 158, 212
-0.997837, 415, 149, 430, 180
-0.997851, 237, 277, 252, 308
-0.997869, 289, 245, 304, 276
-0.997874, 175, 1, 190, 32
-0.997876, 409, 145, 424, 176
-0.997877, 223, 13, 238, 44
-0.997883, 315, 225, 330, 256
-0.997893, 285, 213, 300, 244
-0.997903, 97, 93, 224, 124
-0.997914, 205, 33, 236, 288
-0.99792, 97, 221, 112, 252
-0.997921, 109, 97, 140, 352
-0.997928, 309, 193, 324, 224
-0.997929, 267, 225, 282, 256
-0.997929, 127, 1, 142, 32
-0.997939, 285, 317, 300, 348
-0.997944, 211, 269, 226, 300
-0.997944, 103, 213, 118, 244
-0.997946, 201, 173, 216, 204
-0.997953, 219, 1, 234, 32
-0.997956, 317, 213, 332, 244
-0.997968, 129, 265, 144, 296
-0.99797, 281, 225, 296, 256
-0.997972, 149, 181, 164, 212
-0.997974, 291, 321, 306, 352
-0.997977, 135, 1, 150, 32
-0.997979, 329, 65, 360, 320
-0.997979, 353, 341, 368, 372
-0.997986, 339, 345, 354, 375
-0.997988, 351, 273, 366, 304
-0.997991, 327, 297, 342, 328
-0.997999, 193, 189, 208, 220
-0.998, 165, 1, 196, 256
-0.998022, 137, 249, 152, 280
-0.998022, 73, 133, 88, 164
-0.998029, 303, 213, 318, 244
-0.998032, 271, 53, 286, 84
-0.998037, 293, 229, 308, 260
-0.998038, 49, 341, 64, 372
-0.998042, 161, 9, 176, 40
-0.998043, 203, 265, 218, 296
-0.998044, 275, 173, 290, 204
-0.998046, 95, 1, 110, 32
-0.998047, 77, 153, 92, 184
-0.998048, 395, 309, 410, 340
-0.998051, 327, 317, 342, 348
-0.998059, 69, 57, 84, 88
-0.998059, 279, 313, 294, 344
-0.998062, 133, 185, 148, 216
-0.998065, 413, 165, 428, 196
-0.998068, 321, 301, 336, 332
-0.998073, 225, 289, 240, 320
-0.998074, 403, 141, 418, 172
-0.998076, 35, 61, 50, 92
-0.998079, 181, 173, 196, 204
-0.998088, 421, 169, 436, 200
-0.998088, 423, 201, 438, 232
-0.998095, 199, 201, 214, 232
-0.998099, 1, 5, 16, 36
-0.9981, 99, 145, 114, 176
-0.998107, 315, 201, 330, 232
-0.998111, 359, 309, 374, 340
-0.998113, 41, 73, 56, 104
-0.998117, 435, 197, 450, 228
-0.998117, 449, 173, 464, 204
-0.998117, 377, 269, 392, 300
-0.998123, 211, 249, 226, 280
-0.998125, 399, 321, 414, 352
-0.998129, 311, 333, 326, 364
-0.998132, 297, 241, 312, 272
-0.998133, 169, 1, 184, 32
-0.998138, 201, 297, 216, 328
-0.998139, 277, 209, 292, 240
-0.998147, 349, 261, 364, 292
-0.998151, 139, 197, 154, 228
-0.998153, 345, 341, 360, 372
-0.998155, 67, 33, 82, 64
-0.998161, 329, 269, 344, 300
-0.998164, 401, 129, 432, 375
-0.998167, 197, 161, 212, 192
-0.998168, 57, 345, 72, 375
-0.99817, 105, 153, 120, 184
-0.99817, 25, 105, 40, 136
-0.998172, 141, 1, 156, 32
-0.998185, 5, 101, 20, 132
-0.998186, 89, 1, 104, 32
-0.998187, 73, 97, 104, 352
-0.998188, 75, 57, 90, 88
-0.998195, 105, 9, 120, 40
-0.998196, 201, 25, 216, 56
-0.998198, 403, 181, 418, 212
-0.998206, 157, 173, 172, 204
-0.998215, 109, 337, 124, 368
-0.998219, 217, 13, 232, 44
-0.998219, 305, 329, 320, 360
-0.998281, 1, 97, 32, 352
-0.998362, 457, 129, 488, 375
-0.998391, 265, 247, 328, 262
-0.998393, 205, 269, 236, 284
-0.998395, 209, 11, 240, 26
-0.998395, 137, 185, 168, 200
-0.998395, 217, 275, 248, 290
-0.998396, 241, 295, 272, 310
-0.998397, 37, 79, 68, 94
-0.998398, 221, 13, 252, 28
-0.998398, 89, 65, 120, 320
-0.998399, 405, 333, 436, 348
-0.9984, 149, 17, 180, 32
-0.9984, 37, 199, 68, 214
-0.998401, 429, 181, 460, 196
-0.998402, 245, 283, 276, 298
-0.998406, 125, 11, 156, 26
-0.998406, 145, 1, 176, 16
-0.998406, 37, 55, 68, 70
-0.998406, 61, 59, 92, 74
-0.998407, 313, 237, 344, 252
-0.998407, 1, 9, 32, 24
-0.998408, 193, 287, 256, 302
-0.998409, 321, 265, 352, 280
-0.99841, 169, 183, 200, 198
-0.99841, 413, 205, 444, 220
-0.998411, 273, 217, 304, 232
-0.998412, 153, 175, 184, 190
-0.998412, 85, 163, 116, 178
-0.998412, 289, 329, 320, 344
-0.998413, 101, 255, 132, 270
-0.998413, 265, 175, 296, 190
-0.998414, 221, 303, 252, 318
-0.998415, 209, 309, 240, 324
-0.998416, 357, 277, 388, 292
-0.998417, 389, 297, 420, 312
-0.998417, 341, 273, 372, 288
-0.998418, 37, 35, 68, 50
-0.998418, 413, 199, 444, 214
-0.998418, 309, 213, 340, 228
-0.998418, 217, 295, 280, 310
-0.998419, 325, 355, 356, 370
-0.998419, 281, 185, 312, 200
-0.99842, 313, 325, 344, 340
-0.99842, 285, 227, 316, 242
-0.99842, 257, 239, 288, 254
-0.998422, 313, 305, 376, 320
-0.998422, 341, 339, 372, 354
-0.998422, 13, 103, 44, 118
-0.998423, 133, 1, 164, 16
-0.998423, 229, 295, 260, 310
-0.998423, 81, 237, 144, 252
-0.998423, 313, 259, 344, 274
-0.998424, 301, 225, 332, 240
-0.998424, 409, 187, 440, 202
-0.998425, 429, 193, 460, 208
-0.998426, 317, 271, 348, 286
-0.998426, 41, 347, 72, 362
-0.998429, 141, 7, 172, 22
-0.998429, 97, 225, 128, 240
-0.998432, 37, 45, 68, 60
-0.998432, 181, 293, 212, 308
-0.998432, 313, 243, 344, 258
-0.998434, 389, 341, 420, 356
-0.998434, 121, 247, 152, 262
-0.998435, 265, 237, 328, 252
-0.998436, 209, 5, 240, 20
-0.998436, 105, 211, 136, 226
-0.998436, 85, 249, 116, 264
-0.998437, 125, 205, 156, 220
-0.998438, 97, 341, 128, 356
-0.99844, 321, 305, 352, 320
-0.99844, 1, 103, 32, 118
-0.99844, 133, 261, 164, 276
-0.99844, 221, 3, 252, 18
-0.998442, 277, 247, 308, 262
-0.998444, 261, 233, 292, 248
-0.998445, 89, 155, 120, 170
-0.998446, 189, 303, 220, 318
-0.998448, 241, 237, 304, 252
-0.998448, 293, 195, 324, 210
-0.998448, 321, 223, 352, 238
-0.998449, 165, 5, 196, 20
-0.99845, 161, 13, 192, 28
-0.998452, 417, 181, 448, 196
-0.998453, 105, 11, 136, 26
-0.998454, 121, 265, 152, 280
-0.998454, 437, 175, 468, 190
-0.998454, 289, 215, 320, 230
-0.998455, 121, 253, 152, 268
-0.998455, 325, 345, 356, 360
-0.998456, 281, 233, 312, 248
-0.998457, 309, 219, 340, 234
-0.998458, 85, 243, 116, 258
-0.998461, 321, 339, 352, 354
-0.998461, 377, 147, 408, 162
-0.998462, 317, 331, 348, 346
-0.998464, 209, 281, 272, 296
-0.998465, 409, 175, 440, 190
-0.998466, 121, 241, 152, 256
-0.998466, 421, 187, 452, 202
-0.998467, 285, 323, 316, 338
-0.998468, 89, 5, 120, 20
-0.998469, 293, 233, 324, 248
-0.998469, 217, 301, 280, 316
-0.99847, 105, 239, 136, 254
-0.99847, 305, 269, 368, 284
-0.998471, 389, 139, 420, 154
-0.998472, 305, 259, 368, 274
-0.998472, 369, 273, 400, 288
-0.998473, 293, 201, 324, 216
-0.998473, 209, 303, 240, 318
-0.998473, 217, 289, 280, 304
-0.998474, 73, 243, 136, 258
-0.998474, 313, 311, 376, 326
-0.998475, 417, 161, 448, 176
-0.998476, 333, 261, 364, 276
-0.998476, 41, 1, 72, 256
-0.998476, 405, 151, 436, 166
-0.998478, 469, 129, 500, 375
-0.998479, 273, 231, 336, 246
-0.99848, 5, 109, 36, 124
-0.998483, 221, 281, 252, 296
-0.998483, 393, 185, 456, 200
-0.998483, 89, 1, 152, 16
-0.998484, 89, 237, 120, 252
-0.998484, 329, 263, 392, 278
-0.998484, 425, 167, 456, 182
-0.998484, 241, 243, 304, 258
-0.998485, 101, 249, 132, 264
-0.998485, 329, 335, 392, 350
-0.998486, 433, 205, 464, 220
-0.998489, 313, 345, 376, 360
-0.99849, 177, 177, 240, 192
-0.998491, 389, 183, 420, 198
-0.998492, 321, 323, 384, 338
-0.998493, 265, 253, 328, 268
-0.998495, 205, 297, 236, 312
-0.998497, 293, 247, 324, 262
-0.998499, 397, 145, 428, 160
-0.998499, 353, 311, 416, 326
-0.9985, 129, 247, 192, 262
-0.998501, 433, 189, 496, 204
-0.998501, 177, 295, 240, 310
-0.998504, 145, 183, 208, 198
-0.998504, 113, 3, 176, 18
-0.998504, 361, 329, 424, 344
-0.998506, 113, 3, 144, 18
-0.998506, 89, 249, 152, 264
-0.998506, 61, 129, 92, 375
-0.998507, 353, 317, 416, 332
-0.998508, 81, 231, 144, 246
-0.998508, 193, 177, 224, 192
-0.99851, 89, 231, 120, 246
-0.998511, 305, 339, 368, 354
-0.998511, 281, 321, 344, 336
-0.998512, 269, 223, 300, 238
-0.998513, 417, 183, 480, 198
-0.998514, 353, 305, 416, 320
-0.998515, 225, 289, 256, 304
-0.998515, 321, 317, 384, 332
-0.998515, 289, 327, 352, 342
-0.998516, 329, 329, 392, 344
-0.998516, 249, 231, 312, 246
-0.998516, 289, 221, 320, 236
-0.998517, 345, 269, 408, 284
-0.998517, 33, 93, 96, 108
-0.998518, 341, 345, 372, 360
-0.998518, 401, 199, 464, 214
-0.998518, 81, 7, 144, 22
-0.998524, 341, 351, 372, 366
-0.998524, 281, 213, 344, 228
-0.998524, 337, 277, 400, 292
-0.998524, 145, 177, 208, 192
-0.998526, 305, 333, 368, 348
-0.998526, 273, 241, 304, 256
-0.998526, 121, 259, 152, 274
-0.998527, 25, 41, 88, 56
-0.998528, 273, 223, 336, 238
-0.99853, 153, 193, 216, 208
-0.99853, 201, 239, 264, 254
-0.998531, 337, 345, 400, 360
-0.998531, 109, 233, 140, 248
-0.998531, 241, 289, 272, 304
-0.998534, 377, 339, 440, 354
-0.998534, 113, 261, 176, 276
-0.998535, 169, 243, 232, 258
-0.998536, 417, 177, 480, 192
-0.998536, 281, 315, 344, 330
-0.998537, 25, 51, 88, 66
-0.998537, 33, 75, 96, 90
-0.998538, 361, 323, 424, 338
-0.99854, 177, 303, 240, 318
-0.998541, 313, 351, 376, 366
-0.998541, 369, 149, 432, 164
-0.998541, 97, 243, 160, 258
-0.998544, 173, 177, 204, 192
-0.998545, 273, 309, 336, 324
-0.998547, 289, 239, 352, 254
-0.998548, 393, 179, 456, 194
-0.99855, 297, 239, 328, 254
-0.998551, 177, 33, 208, 288
-0.998553, 425, 199, 456, 214
-0.998554, 33, 87, 96, 102
-0.998554, 121, 9, 184, 24
-0.998555, 25, 105, 88, 120
-0.998557, 185, 249, 248, 264
-0.998557, 377, 345, 440, 360
-0.99856, 1, 105, 64, 120
-0.99856, 33, 99, 96, 114
-0.998561, 305, 231, 336, 246
-0.998561, 343, 241, 358, 368
-0.998563, 121, 177, 184, 192
-0.998563, 233, 283, 264, 298
-0.998563, 265, 303, 328, 318
-0.998564, 57, 229, 120, 244
-0.998564, 361, 141, 424, 156
-0.998565, 385, 159, 448, 174
-0.998566, 305, 253, 368, 268
-0.998567, 169, 287, 232, 302
-0.998567, 225, 249, 288, 264
-0.998567, 317, 129, 348, 375
-0.998569, 393, 165, 456, 180
-0.998569, 33, 61, 96, 76
-0.998571, 33, 69, 96, 84
-0.998571, 401, 191, 464, 206
-0.998573, 169, 3, 232, 18
-0.998575, 113, 253, 176, 268
-0.998578, 105, 15, 168, 30
-0.998578, 409, 207, 472, 222
-0.998578, 433, 243, 496, 258
-0.998579, 105, 235, 168, 250
-0.998579, 345, 299, 408, 314
-0.998581, 353, 355, 416, 370
-0.998581, 105, 207, 168, 222
-0.998582, 377, 297, 440, 312
-0.998582, 49, 337, 112, 352
-0.998582, 25, 35, 88, 50
-0.998584, 265, 259, 328, 274
-0.998584, 433, 195, 496, 210
-0.998585, 361, 183, 424, 198
-0.998588, 145, 1, 208, 16
-0.998589, 333, 267, 364, 282
-0.99859, 393, 317, 456, 332
-0.99859, 409, 171, 472, 186
-0.99859, 281, 205, 344, 220
-0.998591, 353, 339, 416, 354
-0.998591, 289, 345, 352, 360
-0.998593, 153, 11, 216, 26
-0.998593, 9, 201, 72, 216
-0.998593, 57, 211, 120, 226
-0.998594, 89, 259, 152, 274
-0.998596, 241, 173, 304, 188
-0.998597, 393, 323, 456, 338
-0.998598, 81, 153, 144, 168
-0.998599, 425, 201, 488, 216
-0.998599, 393, 333, 456, 348
-0.998599, 201, 233, 264, 248
-0.9986, 273, 185, 336, 200
-0.9986, 1, 83, 64, 98
-0.9986, 305, 219, 368, 234
-0.998601, 153, 259, 216, 274
-0.998601, 353, 135, 416, 150
-0.998601, 97, 193, 160, 208
-0.998601, 1, 1, 64, 16
-0.998603, 265, 329, 328, 344
-0.998603, 281, 199, 344, 214
-0.998605, 257, 297, 320, 312
-0.998605, 289, 17, 416, 80
-0.998624, 243, 225, 258, 352
-0.998634, 333, 241, 348, 368
-0.998638, 199, 209, 214, 336
-0.998644, 201, 287, 232, 302
-0.998648, 207, 209, 222, 336
-0.99868, 237, 225, 252, 352
-0.998696, 277, 161, 292, 288
-0.998708, 127, 193, 142, 320
-0.99871, 429, 145, 444, 272
-0.99873, 249, 225, 264, 352
-0.998736, 147, 177, 162, 304
-0.998739, 377, 241, 392, 368
-0.99876, 101, 1, 132, 256
-0.998761, 33, 17, 48, 144
-0.998763, 321, 241, 336, 368
-0.998783, 313, 33, 344, 288
-0.998786, 219, 225, 234, 352
-0.998789, 267, 209, 282, 336
-0.998792, 423, 145, 438, 272
-0.998796, 231, 225, 246, 352
-0.998797, 33, 97, 64, 352
-0.998809, 439, 145, 454, 272
-0.998822, 383, 241, 398, 368
-0.998828, 139, 177, 154, 304
-0.998832, 271, 161, 286, 288
-0.998839, 371, 241, 386, 368
-0.998856, 193, 177, 208, 304
-0.998862, 255, 209, 270, 336
-0.998876, 169, 161, 184, 288
-0.998881, 283, 225, 298, 352
-0.998882, 467, 161, 482, 288
-0.998885, 133, 177, 148, 304
-0.99889, 213, 225, 228, 352
-0.998893, 349, 241, 364, 368
-0.998901, 261, 209, 276, 336
-0.998901, 315, 193, 330, 320
-0.998901, 401, 113, 416, 240
-0.998902, 153, 177, 168, 304
-0.998905, 275, 209, 290, 336
-0.998909, 447, 161, 462, 288
-0.998924, 101, 193, 116, 320
-0.998934, 311, 241, 326, 368
-0.998944, 159, 177, 174, 304
-0.998949, 359, 241, 374, 368
-0.998951, 77, 1, 92, 128
-0.998952, 67, 17, 82, 144
-0.998952, 193, 33, 224, 288
-0.998954, 91, 225, 106, 352
-0.998954, 175, 161, 190, 288
-0.998967, 305, 225, 320, 352
-0.998969, 481, 177, 496, 304
-0.998974, 283, 177, 298, 304
-0.998982, 335, 193, 350, 320
-0.998987, 417, 129, 432, 256
-0.999008, 291, 161, 306, 288
-0.999008, 457, 161, 472, 288
-0.999015, 341, 193, 356, 320
-0.999024, 327, 241, 342, 368
-0.999031, 225, 225, 240, 352
-0.999032, 85, 81, 100, 208
-0.999033, 183, 161, 198, 288
-0.999033, 473, 177, 488, 304
-0.999044, 367, 81, 382, 208
-0.99906, 133, 225, 148, 352
-0.999064, 265, 161, 280, 288
-0.999068, 119, 225, 134, 352
-0.999069, 121, 177, 136, 304
-0.999075, 389, 97, 404, 224
-0.999081, 307, 177, 322, 304
-0.999082, 395, 113, 410, 240
-0.999084, 289, 225, 304, 352
-0.999088, 113, 177, 128, 304
-0.999092, 39, 49, 54, 176
-0.999094, 107, 177, 122, 304
-0.999097, 323, 193, 338, 320
-0.999102, 405, 33, 436, 288
-0.99911, 329, 193, 344, 320
-0.999117, 259, 145, 274, 272
-0.999122, 151, 1, 166, 128
-0.999123, 193, 241, 208, 368
-0.999125, 365, 225, 380, 352
-0.999132, 185, 241, 200, 368
-0.999133, 75, 65, 90, 192
-0.999142, 271, 33, 286, 160
-0.999145, 157, 129, 172, 256
-0.999146, 297, 161, 312, 288
-0.999147, 95, 161, 110, 288
-0.999156, 149, 129, 164, 256
-0.999156, 147, 225, 162, 352
-0.999157, 139, 129, 154, 256
-0.99916, 369, 1, 400, 256
-0.999161, 297, 225, 312, 352
-0.999163, 107, 225, 122, 352
-0.999163, 379, 97, 394, 224
-0.999164, 141, 225, 156, 352
-0.999165, 355, 81, 370, 208
-0.999169, 145, 1, 160, 128
-0.99917, 239, 1, 254, 128
-0.99918, 215, 1, 230, 128
-0.999181, 407, 113, 422, 240
-0.999189, 119, 129, 134, 256
-0.999194, 249, 177, 264, 304
-0.999195, 201, 145, 216, 272
-0.9992, 225, 1, 240, 128
-0.999201, 85, 1, 100, 128
-0.999202, 373, 97, 388, 224
-0.999205, 171, 1, 186, 128
-0.999206, 357, 1, 388, 256
-0.999206, 385, 1, 416, 256
-0.999211, 133, 129, 148, 256
-0.999225, 17, 97, 32, 224
-0.999226, 49, 97, 80, 352
-0.99924, 161, 225, 176, 352
-0.999242, 157, 1, 172, 128
-0.999248, 373, 193, 388, 320
-0.999249, 351, 193, 366, 320
-0.999251, 163, 97, 178, 224
-0.999252, 113, 225, 128, 352
-0.999255, 39, 1, 54, 128
-0.99926, 9, 97, 24, 224
-0.999262, 361, 81, 376, 208
-0.999265, 137, 1, 152, 128
-0.99927, 381, 193, 396, 320
-0.999271, 177, 113, 192, 240
-0.999271, 127, 145, 142, 272
-0.999275, 407, 161, 422, 288
-0.999276, 243, 145, 258, 272
-0.999276, 23, 97, 38, 224
-0.999289, 91, 81, 106, 208
-0.999293, 177, 225, 192, 352
-0.999293, 111, 1, 126, 128
-0.999297, 85, 225, 100, 352
-0.999298, 1, 1, 16, 128
-0.999299, 27, 17, 42, 144
-0.999304, 97, 241, 112, 368
-0.999314, 359, 193, 374, 320
-0.999317, 177, 1, 192, 128
-0.999322, 127, 241, 142, 368
-0.999322, 169, 97, 184, 224
-0.999375, 425, 33, 456, 288
-0.999577, 113, 237, 128, 252
-0.999578, 275, 229, 290, 244
-0.999578, 229, 277, 244, 292
-0.999578, 383, 143, 398, 158
-0.999578, 95, 229, 110, 244
-0.999579, 135, 261, 150, 276
-0.999579, 279, 249, 294, 264
-0.999579, 203, 179, 218, 194
-0.999581, 377, 273, 392, 288
-0.999582, 123, 15, 138, 30
-0.999583, 347, 271, 362, 286
-0.999583, 105, 149, 120, 164
-0.999583, 225, 299, 240, 314
-0.999583, 281, 215, 296, 230
-0.999583, 345, 345, 360, 360
-0.999585, 115, 7, 130, 22
-0.999585, 319, 311, 334, 326
-0.999586, 209, 1, 224, 16
-0.999586, 41, 79, 56, 94
-0.999586, 1, 11, 16, 26
-0.999586, 209, 11, 224, 26
-0.999587, 315, 245, 330, 260
-0.999588, 31, 49, 46, 64
-0.999588, 11, 105, 26, 120
-0.999589, 353, 269, 368, 284
-0.999589, 7, 3, 22, 18
-0.999591, 359, 315, 374, 330
-0.999592, 147, 199, 162, 214
-0.999592, 87, 161, 102, 176
-0.999592, 325, 353, 340, 368
-0.999592, 89, 241, 104, 256
-0.999592, 323, 303, 338, 318
-0.999592, 173, 181, 188, 196
-0.999594, 215, 17, 230, 32
-0.999595, 131, 207, 146, 222
-0.999595, 383, 265, 398, 280
-0.999599, 213, 311, 228, 326
-0.999602, 329, 271, 344, 286
-0.999603, 121, 209, 136, 224
-0.999604, 253, 291, 268, 306
-0.999604, 1, 143, 16, 158
-0.999604, 271, 53, 286, 68
-0.999605, 139, 203, 154, 218
-0.999605, 31, 43, 46, 58
-0.999605, 269, 229, 284, 244
-0.999606, 35, 63, 50, 78
-0.999606, 157, 9, 172, 24
-0.999607, 295, 243, 310, 258
-0.999607, 229, 7, 244, 22
-0.999608, 215, 7, 230, 22
-0.999608, 329, 323, 344, 338
-0.99961, 281, 229, 296, 244
-0.999611, 125, 269, 140, 284
-0.999611, 303, 223, 318, 238
-0.999611, 41, 55, 56, 70
-0.999611, 105, 155, 120, 170
-0.999612, 129, 1, 144, 16
-0.999612, 183, 1, 198, 16
-0.999613, 125, 9, 140, 24
-0.999616, 57, 39, 72, 54
-0.999616, 201, 299, 216, 314
-0.999617, 205, 173, 220, 188
-0.999617, 305, 329, 320, 344
-0.999617, 237, 287, 252, 302
-0.999618, 109, 7, 124, 22
-0.999619, 213, 301, 228, 316
-0.99962, 331, 357, 346, 372
-0.99962, 73, 59, 88, 74
-0.99962, 335, 267, 350, 282
-0.999623, 143, 1, 158, 16
-0.999623, 353, 275, 368, 290
-0.999623, 231, 1, 246, 16
-0.999624, 155, 15, 170, 30
-0.999626, 281, 243, 296, 258
-0.999626, 111, 211, 126, 226
-0.999628, 289, 249, 304, 264
-0.999628, 425, 177, 440, 192
-0.999628, 283, 317, 298, 332
-0.99963, 401, 183, 416, 198
-0.999631, 195, 295, 210, 310
-0.999631, 231, 285, 246, 300
-0.999632, 3, 105, 18, 120
-0.999637, 191, 175, 206, 190
-0.999637, 135, 13, 150, 28
-0.999637, 299, 327, 314, 342
-0.999637, 121, 261, 136, 276
-0.99964, 439, 185, 454, 200
-0.99964, 435, 201, 450, 216
-0.999641, 7, 111, 22, 126
-0.999643, 195, 181, 210, 196
-0.999644, 121, 1, 136, 16
-0.999645, 317, 239, 332, 254
-0.999645, 345, 255, 360, 270
-0.999647, 115, 1, 130, 16
-0.999648, 283, 223, 298, 238
-0.999649, 219, 1, 234, 16
-0.99965, 319, 233, 334, 248
-0.99965, 339, 353, 354, 368
-0.999651, 275, 221, 290, 236
-0.999651, 441, 191, 456, 206
-0.999651, 441, 201, 456, 216
-0.999652, 427, 205, 442, 220
-0.999653, 237, 281, 252, 296
-0.999654, 243, 289, 258, 304
-0.999655, 183, 177, 198, 192
-0.999658, 141, 9, 156, 24
-0.999667, 163, 13, 178, 28
-0.999669, 221, 291, 236, 306
-0.999671, 277, 235, 292, 250
-0.999674, 431, 179, 446, 194
-0.999677, 149, 1, 164, 16
-0.999677, 289, 321, 304, 336
-0.999679, 221, 305, 236, 320
-0.999679, 383, 271, 398, 286
-0.999679, 197, 175, 212, 190
-0.99968, 251, 285, 266, 300
-0.999692, 131, 7, 146, 22
-0.999695, 169, 7, 184, 22
-0.999698, 211, 283, 226, 298
-0.999702, 117, 231, 132, 246
-0.999706, 435, 195, 450, 210
-0.999707, 203, 287, 218, 302
-0.999709, 175, 1, 190, 16
-0.999711, 313, 227, 328, 242
-0.999726, 137, 1, 152, 16
-0.99974, 243, 283, 258, 298
-0.999743, 433, 185, 448, 200
-0.999744, 307, 235, 322, 250
-0.999772, 343, 261, 358, 276
-0.999777, 429, 199, 444, 214
-0.999907, 445, 33, 476, 288
-1.00016, 457, 33, 488, 288
-1.00016, 337, 41, 464, 104
-1.00027, 469, 33, 500, 288
-1.00136, 369, 9, 496, 72
-1.00344, 369, 17, 432, 144
-1.004, 337, 1, 400, 128
-1.00739, 409, 65, 472, 192
-1.01244, 433, 65, 496, 192
-1.01244, 425, 1, 488, 128
-1.0146, 393, 17, 456, 144
