2114
-0.32997, 1, 161, 472, 416
-0.3643, 1, 1, 472, 500
-0.41851, 1, 65, 472, 320
-0.419603, 1, 1, 256, 500
-0.471436, 1, 257, 472, 500
-0.512772, 193, 161, 448, 416
-0.586243, 97, 1, 352, 500
-0.621996, 33, 225, 288, 480
-0.623534, 33, 65, 288, 320
-0.66237, 225, 1, 472, 500
-0.729573, 193, 65, 448, 320
-0.731829, 193, 257, 448, 500
-0.838483, 225, 161, 352, 416
-0.839132, 289, 161, 416, 416
-0.845709, 1, 1, 128, 256
-0.847769, 337, 65, 464, 320
-0.861077, 1, 97, 128, 352
-0.866345, 1, 161, 472, 288
-0.866694, 17, 1, 144, 500
-0.867901, 81, 65, 208, 320
-0.874553, 145, 193, 272, 448
-0.874841, 65, 1, 192, 500
-0.881563, 289, 65, 416, 320
-0.883711, 353, 161, 472, 416
-0.886101, 17, 193, 144, 448
-0.88826, 1, 113, 472, 240
-0.889798, 129, 1, 256, 500
-0.891584, 289, 257, 416, 500
-0.892176, 209, 257, 336, 500
-0.898218, 1, 209, 472, 336
-0.902983, 97, 225, 224, 480
-0.907199, 177, 1, 304, 500
-0.910579, 1, 289, 472, 416
-0.910676, 145, 1, 272, 256
-0.911214, 1, 17, 472, 144
-0.911916, 193, 177, 448, 304
-0.914039, 353, 1, 472, 500
-0.914123, 33, 1, 288, 128
-0.914239, 1, 65, 472, 192
-0.916343, 225, 1, 352, 500
-0.918464, 289, 1, 416, 500
-0.919053, 241, 65, 368, 320
-0.922934, 337, 257, 464, 500
-0.923409, 33, 145, 288, 272
-0.923427, 257, 161, 384, 288
-0.924133, 1, 353, 472, 480
-0.92443, 193, 65, 320, 320
-0.924617, 33, 1, 96, 128
-0.929946, 33, 209, 288, 336
-0.930266, 9, 17, 72, 144
-0.931563, 377, 65, 440, 192
-0.932176, 129, 97, 256, 352
-0.932678, 297, 161, 360, 288
-0.933549, 353, 129, 472, 256
-0.93364, 225, 177, 288, 304
-0.93409, 41, 161, 104, 288
-0.934368, 17, 65, 144, 192
-0.934825, 209, 193, 336, 320
-0.935708, 49, 1, 176, 128
-0.937195, 305, 129, 432, 256
-0.937455, 1, 161, 128, 288
-0.937502, 377, 145, 440, 272
-0.938297, 225, 129, 472, 256
-0.938968, 1, 49, 256, 176
-0.939607, 1, 145, 64, 272
-0.940458, 97, 1, 224, 128
-0.94115, 161, 193, 288, 320
-0.942285, 273, 161, 336, 288
-0.942532, 193, 241, 448, 368
-0.942825, 1, 1, 128, 128
-0.942912, 113, 1, 176, 128
-0.943307, 57, 97, 120, 224
-0.943692, 305, 177, 432, 304
-0.944739, 49, 49, 112, 176
-0.945959, 337, 161, 400, 288
-0.946097, 289, 169, 352, 232
-0.946122, 17, 65, 80, 192
-0.946166, 73, 33, 136, 160
-0.946456, 353, 81, 472, 208
-0.9467, 233, 193, 296, 256
-0.94719, 401, 113, 464, 240
-0.947272, 33, 25, 96, 88
-0.947459, 249, 177, 312, 304
-0.947485, 97, 321, 352, 448
-0.949527, 361, 145, 424, 208
-0.949983, 193, 81, 448, 208
-0.950115, 1, 1, 64, 64
-0.950123, 33, 113, 96, 240
-0.950216, 81, 97, 144, 224
-0.951154, 353, 177, 472, 304
-0.951592, 65, 161, 128, 288
-0.951941, 385, 105, 448, 168
-0.952046, 401, 153, 464, 216
-0.952198, 193, 337, 448, 464
-0.952437, 137, 1, 200, 128
-0.952843, 209, 145, 336, 272
-0.953406, 329, 161, 392, 224
-0.953493, 257, 209, 384, 336
-0.954074, 361, 121, 424, 184
-0.954277, 193, 209, 256, 336
-0.95433, 105, 1, 168, 64
-0.954767, 209, 1, 272, 128
-0.954956, 113, 65, 176, 192
-0.955095, 81, 81, 208, 208
-0.9553, 1, 97, 256, 224
-0.955475, 193, 305, 320, 432
-0.955537, 353, 97, 416, 224
-0.95572, 193, 289, 448, 416
-0.95574, 1, 169, 64, 232
-0.955812, 401, 129, 464, 192
-0.956051, 97, 273, 352, 400
-0.95606, 361, 169, 424, 232
-0.956148, 25, 57, 88, 120
-0.956543, 17, 113, 144, 240
-0.956564, 177, 201, 240, 264
-0.957152, 73, 121, 136, 184
-0.957163, 1, 193, 64, 320
-0.957371, 145, 17, 272, 144
-0.957406, 201, 273, 264, 400
-0.95759, 273, 209, 336, 336
-0.957893, 217, 321, 280, 384
-0.958107, 17, 209, 144, 336
-0.958214, 105, 25, 168, 88
-0.958467, 265, 193, 328, 256
-0.958554, 1, 41, 64, 104
-0.95861, 41, 185, 104, 248
-0.958729, 65, 41, 128, 104
-0.958886, 305, 81, 432, 208
-0.959428, 57, 1, 120, 64
-0.959489, 81, 145, 208, 272
-0.9606, 257, 169, 320, 232
-0.960917, 193, 353, 320, 480
-0.961002, 33, 137, 96, 200
-0.961135, 25, 161, 88, 224
-0.961446, 201, 321, 264, 448
-0.961536, 1, 145, 64, 208
-0.96171, 297, 193, 360, 256
-0.961747, 25, 209, 88, 336
-0.961792, 145, 337, 272, 464
-0.961851, 33, 1, 96, 64
-0.962094, 17, 193, 80, 256
-0.962113, 337, 185, 400, 248
-0.962241, 401, 65, 464, 192
-0.962292, 97, 89, 160, 152
-0.96303, 81, 1, 144, 64
-0.963552, 409, 161, 472, 288
-0.963569, 241, 225, 304, 352
-0.963705, 377, 73, 440, 136
-0.963718, 273, 337, 400, 464
-0.96372, 9, 113, 72, 176
-0.963902, 225, 161, 288, 416
-0.964149, 169, 1, 232, 128
-0.9642, 273, 225, 336, 288
-0.964252, 145, 17, 208, 80
-0.964337, 41, 1, 104, 256
-0.964453, 89, 145, 152, 272
-0.96453, 209, 257, 336, 384
-0.964532, 225, 305, 288, 432
-0.964657, 393, 177, 456, 240
-0.964693, 9, 1, 72, 256
-0.964858, 57, 145, 120, 208
-0.964876, 257, 177, 384, 240
-0.965153, 21, 1, 52, 128
-0.965305, 41, 81, 104, 144
-0.965406, 377, 129, 408, 256
-0.965615, 217, 169, 280, 232
-0.96579, 1, 353, 256, 480
-0.965803, 361, 193, 424, 320
-0.966065, 281, 337, 344, 464
-0.966128, 377, 65, 440, 320
-0.966416, 9, 1, 40, 128
-0.966773, 305, 161, 336, 224
-0.966829, 113, 209, 240, 336
-0.967035, 169, 193, 232, 320
-0.967087, 145, 273, 272, 400
-0.96717, 81, 209, 144, 336
-0.967257, 209, 201, 336, 264
-0.96728, 45, 1, 76, 128
-0.967352, 33, 145, 64, 272
-0.967519, 73, 89, 136, 152
-0.967608, 49, 113, 112, 176
-0.96794, 313, 209, 376, 336
-0.968196, 25, 153, 56, 216
-0.968212, 1, 89, 64, 152
-0.968285, 297, 161, 360, 416
-0.968314, 405, 113, 436, 240
-0.96838, 161, 33, 416, 160
-0.968423, 17, 129, 144, 192
-0.968432, 25, 1, 56, 64
-0.968476, 5, 193, 36, 256
-0.968622, 297, 161, 328, 288
-0.968713, 193, 17, 256, 80
-0.968781, 13, 169, 44, 232
-0.968793, 1, 9, 32, 72
-0.968894, 145, 9, 176, 72
-0.968906, 33, 1, 160, 64
-0.968962, 337, 169, 464, 232
-0.969226, 321, 137, 384, 200
-0.969244, 13, 1, 44, 64
-0.969288, 1, 217, 64, 280
-0.969471, 37, 161, 68, 224
-0.969611, 193, 1, 320, 128
-0.969629, 321, 145, 448, 208
-0.969709, 393, 65, 424, 192
-0.969806, 249, 321, 312, 448
-0.969944, 249, 129, 312, 256
-0.970042, 113, 57, 176, 120
-0.970128, 361, 97, 424, 160
-0.970223, 33, 25, 160, 88
-0.970226, 21, 129, 52, 256
-0.970275, 377, 145, 408, 208
-0.97037, 133, 17, 164, 80
-0.970519, 85, 41, 116, 104
-0.97054, 161, 145, 288, 272
-0.97055, 37, 41, 68, 104
-0.970703, 201, 193, 264, 448
-0.97085, 49, 145, 80, 272
-0.970862, 321, 209, 384, 272
-0.97093, 113, 25, 144, 88
-0.970988, 65, 65, 128, 128
-0.971043, 225, 217, 288, 280
-0.971114, 97, 321, 224, 448
-0.971246, 49, 97, 112, 352
-0.971453, 177, 337, 240, 464
-0.971484, 25, 217, 88, 280
-0.971583, 65, 1, 96, 128
-0.97164, 201, 161, 264, 288
-0.971783, 61, 17, 92, 80
-0.97183, 1, 49, 128, 112
-0.971834, 249, 185, 280, 248
-0.971848, 121, 89, 184, 152
-0.97194, 37, 129, 68, 192
-0.971987, 201, 345, 264, 408
-0.972034, 297, 113, 360, 240
-0.972279, 257, 201, 384, 264
-0.972327, 137, 41, 200, 104
-0.972379, 65, 209, 192, 336
-0.97238, 277, 217, 308, 280
-0.97242, 241, 273, 304, 336
-0.972501, 329, 113, 392, 240
-0.97252, 321, 161, 384, 416
-0.972559, 385, 193, 448, 320
-0.972588, 29, 65, 60, 128
-0.972595, 249, 161, 312, 416
-0.972634, 65, 369, 192, 496
-0.972677, 65, 177, 128, 240
-0.972685, 81, 113, 112, 176
-0.972708, 81, 209, 144, 272
-0.97271, 321, 161, 352, 288
-0.972741, 33, 1, 64, 128
-0.97279, 253, 177, 284, 304
-0.972838, 49, 49, 80, 112
-0.972842, 33, 65, 64, 192
-0.97288, 297, 337, 360, 400
-0.972885, 97, 81, 352, 208
-0.972961, 13, 81, 44, 208
-0.972985, 25, 177, 56, 240
-0.973017, 353, 97, 416, 352
-0.973027, 409, 97, 472, 352
-0.973088, 277, 193, 308, 320
-0.973118, 141, 1, 172, 128
-0.973141, 9, 33, 40, 96
-0.973149, 65, 145, 96, 208
-0.973153, 353, 161, 384, 224
-0.973182, 113, 1, 144, 64
-0.97323, 381, 81, 412, 208
-0.973285, 49, 145, 80, 208
-0.973315, 49, 49, 176, 112
-0.973345, 389, 129, 420, 256
-0.973446, 89, 49, 152, 112
-0.973494, 345, 289, 408, 416
-0.973694, 401, 57, 432, 120
-0.973694, 401, 57, 464, 120
-0.973705, 353, 113, 472, 176
-0.973721, 1, 129, 32, 256
-0.973727, 201, 297, 264, 360
-0.97373, 57, 209, 120, 336
-0.973901, 361, 193, 424, 256
-0.973938, 61, 81, 92, 208
-0.974267, 1, 169, 32, 232
-0.974281, 193, 177, 256, 240
-0.974351, 1, 97, 64, 352
-0.97452, 401, 81, 432, 144
-0.974533, 405, 145, 436, 208
-0.974551, 265, 345, 328, 408
-0.97456, 321, 169, 352, 232
-0.974625, 337, 329, 400, 392
-0.974809, 289, 289, 416, 416
-0.97485, 297, 217, 360, 280
-0.974877, 1, 193, 128, 256
-0.974921, 125, 1, 156, 128
-0.974962, 81, 153, 144, 216
-0.974973, 209, 329, 336, 392
-0.975039, 249, 273, 312, 400
-0.975048, 97, 369, 352, 496
-0.975054, 177, 345, 240, 408
-0.975081, 13, 145, 44, 208
-0.975196, 233, 297, 264, 360
-0.975242, 409, 105, 472, 168
-0.975362, 65, 1, 128, 256
-0.975376, 101, 49, 132, 112
-0.975419, 17, 105, 144, 168
-0.975552, 161, 201, 288, 264
-0.975603, 1, 73, 128, 136
-0.975689, 17, 353, 144, 480
-0.975774, 41, 1, 72, 64
-0.975789, 405, 65, 436, 192
-0.975796, 81, 25, 208, 88
-0.975826, 289, 201, 320, 264
-0.975859, 389, 113, 420, 176
-0.975903, 421, 161, 452, 224
-0.97591, 89, 17, 120, 80
-0.976002, 1, 289, 256, 416
-0.976031, 89, 17, 120, 144
-0.976088, 217, 225, 280, 352
-0.976145, 49, 25, 80, 88
-0.976154, 249, 217, 312, 280
-0.976334, 233, 273, 264, 400
-0.976456, 141, 41, 172, 104
-0.976512, 337, 321, 464, 448
-0.976518, 425, 129, 456, 192
-0.976532, 97, 105, 128, 168
-0.976655, 97, 113, 160, 176
-0.976659, 101, 25, 132, 88
-0.976693, 161, 41, 224, 104
-0.976764, 433, 161, 464, 224
-0.977084, 237, 321, 268, 384
-0.977099, 45, 193, 76, 256
-0.977197, 337, 297, 400, 360
-0.977363, 73, 65, 104, 192
-0.977404, 321, 201, 448, 264
-0.977455, 305, 321, 368, 448
-0.977549, 257, 249, 320, 312
-0.977567, 209, 177, 336, 240
-0.977567, 373, 169, 404, 232
-0.977666, 289, 345, 416, 408
-0.977675, 81, 1, 208, 64
-0.977745, 157, 25, 188, 88
-0.977746, 241, 161, 272, 288
-0.977779, 257, 113, 384, 240
-0.977843, 233, 241, 296, 304
-0.977903, 1, 153, 128, 216
-0.977952, 89, 369, 152, 496
-0.977955, 225, 193, 256, 320
-0.977978, 129, 65, 256, 192
-0.978017, 365, 113, 396, 240
-0.978084, 21, 25, 52, 88
-0.978092, 169, 49, 232, 176
-0.978095, 193, 1, 224, 128
-0.978114, 309, 161, 340, 288
-0.978148, 5, 177, 36, 304
-0.978169, 25, 97, 88, 352
-0.978174, 137, 321, 200, 448
-0.978211, 273, 161, 336, 416
-0.978239, 5, 121, 36, 184
-0.978241, 177, 193, 240, 448
-0.978281, 333, 161, 364, 224
-0.978314, 113, 225, 176, 352
-0.978356, 137, 209, 200, 336
-0.978375, 201, 201, 264, 264
-0.978384, 73, 97, 136, 352
-0.978385, 257, 145, 320, 208
-0.978391, 201, 329, 232, 392
-0.978483, 89, 97, 120, 224
-0.978541, 33, 217, 160, 280
-0.978547, 61, 177, 92, 240
-0.978578, 65, 49, 96, 112
-0.978584, 257, 225, 384, 288
-0.978628, 113, 33, 176, 288
-0.978636, 345, 185, 376, 248
-0.978647, 73, 161, 104, 288
-0.97872, 377, 121, 408, 184
-0.978782, 249, 321, 312, 384
-0.978895, 129, 17, 256, 80
-0.978984, 381, 177, 412, 304
-0.979002, 157, 1, 188, 64
-0.979016, 21, 193, 52, 320
-0.979067, 65, 105, 192, 168
-0.979117, 217, 17, 280, 80
-0.979137, 421, 113, 452, 240
-0.979167, 433, 129, 464, 256
-0.979208, 25, 97, 56, 160
-0.979249, 337, 241, 400, 368
-0.97927, 265, 209, 296, 272
-0.9793, 113, 1, 144, 128
-0.979324, 389, 145, 420, 208
-0.979334, 129, 41, 160, 104
-0.979444, 337, 257, 400, 500
-0.979497, 73, 1, 104, 64
-0.979502, 109, 49, 140, 176
-0.97952, 25, 129, 56, 192
-0.979659, 13, 97, 44, 160
-0.979681, 45, 49, 76, 176
-0.979706, 137, 49, 200, 176
-0.979727, 365, 129, 396, 192
-0.979728, 213, 337, 244, 400
-0.97974, 209, 225, 336, 288
-0.979769, 269, 241, 300, 304
-0.979808, 265, 193, 296, 320
-0.979843, 193, 321, 256, 384
-0.979936, 185, 201, 216, 264
-0.980053, 45, 97, 76, 224
-0.980054, 241, 153, 368, 216
-0.980106, 377, 49, 440, 112
-0.98011, 61, 121, 92, 184
-0.980134, 369, 329, 432, 392
-0.9802, 157, 1, 188, 128
-0.980236, 249, 281, 280, 344
-0.980318, 49, 169, 80, 232
-0.980387, 225, 209, 256, 272
-0.980391, 81, 161, 112, 224
-0.980446, 201, 265, 264, 328
-0.980462, 85, 145, 116, 272
-0.980538, 1, 49, 32, 176
-0.980561, 361, 193, 392, 320
-0.980572, 57, 353, 120, 480
-0.980627, 401, 121, 432, 184
-0.980636, 193, 353, 320, 416
-0.980664, 25, 201, 56, 264
-0.980686, 101, 129, 132, 192
-0.980704, 401, 81, 464, 144
-0.98073, 81, 81, 208, 144
-0.980791, 249, 257, 280, 320
-0.980818, 101, 81, 132, 144
-0.980848, 185, 369, 248, 432
-0.980868, 113, 353, 176, 480
-0.980872, 361, 321, 392, 384
-0.980875, 49, 305, 176, 432
-0.980882, 169, 321, 232, 384
-0.980884, 441, 185, 472, 248
-0.98092, 337, 353, 400, 416
-0.980945, 205, 177, 236, 304
-0.981052, 9, 217, 40, 280
-0.981063, 161, 321, 288, 384
-0.9811, 437, 137, 468, 200
-0.98115, 149, 49, 180, 176
-0.981151, 161, 289, 224, 416
-0.981178, 233, 1, 296, 128
-0.981201, 389, 89, 420, 152
-0.981278, 61, 129, 92, 256
-0.981299, 349, 305, 380, 368
-0.981328, 301, 225, 332, 288
-0.981337, 129, 121, 192, 184
-0.981399, 137, 33, 200, 288
-0.98146, 85, 65, 116, 128
-0.981465, 217, 1, 248, 128
-0.981466, 121, 369, 184, 432
-0.981491, 81, 137, 112, 200
-0.981506, 145, 65, 208, 128
-0.98153, 277, 193, 308, 256
-0.981579, 73, 193, 136, 448
-0.981653, 9, 193, 72, 448
-0.981687, 225, 353, 288, 480
-0.98171, 377, 17, 440, 144
-0.981738, 397, 169, 428, 232
-0.981773, 113, 201, 240, 264
-0.981798, 145, 225, 208, 288
-0.981859, 65, 129, 192, 192
-0.981877, 385, 169, 416, 232
-0.981911, 333, 145, 364, 272
-0.981924, 225, 257, 288, 500
-0.982036, 217, 41, 280, 104
-0.982094, 145, 225, 272, 288
-0.982115, 173, 9, 204, 72
-0.982122, 185, 233, 248, 296
-0.982207, 101, 1, 132, 128
-0.98222, 69, 73, 100, 136
-0.982221, 113, 145, 176, 272
-0.982233, 193, 41, 256, 104
-0.982236, 277, 241, 308, 368
-0.982272, 1, 65, 64, 128
-0.982275, 137, 65, 168, 128
-0.982377, 341, 329, 372, 392
-0.982385, 237, 185, 268, 248
-0.982422, 237, 209, 268, 336
-0.982456, 353, 273, 384, 400
-0.982473, 413, 113, 444, 176
-0.982505, 145, 369, 272, 432
-0.982505, 241, 321, 272, 448
-0.982606, 193, 49, 256, 176
-0.982628, 49, 121, 80, 184
-0.982718, 85, 89, 116, 152
-0.982768, 357, 185, 388, 248
-0.9828, 353, 89, 472, 152
-0.982818, 369, 337, 432, 464
-0.982842, 117, 49, 148, 112
-0.982845, 289, 209, 320, 336
-0.982881, 73, 25, 104, 88
-0.982921, 169, 1, 232, 64
-0.982927, 101, 1, 132, 64
-0.982967, 349, 145, 380, 272
-0.98304, 89, 321, 152, 448
-0.983058, 229, 265, 260, 328
-0.983091, 9, 1, 72, 500
-0.983095, 241, 297, 304, 360
-0.983108, 321, 193, 352, 256
-0.983132, 409, 161, 440, 288
-0.983171, 37, 105, 68, 168
-0.983186, 353, 273, 472, 400
-0.983188, 113, 89, 144, 152
-0.983221, 1, 97, 32, 160
-0.983244, 161, 369, 224, 432
-0.983255, 373, 193, 404, 256
-0.983312, 1, 145, 32, 208
-0.983405, 329, 65, 392, 320
-0.983434, 33, 193, 96, 448
-0.983438, 17, 73, 48, 136
-0.983463, 217, 289, 248, 416
-0.983536, 65, 97, 96, 160
-0.983543, 73, 185, 104, 248
-0.98357, 53, 73, 84, 136
-0.983598, 33, 353, 96, 480
-0.983649, 277, 145, 308, 272
-0.983678, 33, 1, 96, 500
-0.98368, 105, 137, 168, 200
-0.983688, 357, 209, 388, 272
-0.983692, 201, 305, 232, 368
-0.983708, 297, 145, 360, 208
-0.983757, 249, 257, 312, 500
-0.983791, 137, 49, 168, 176
-0.9838, 241, 353, 368, 416
-0.983815, 101, 145, 132, 272
-0.984035, 341, 193, 372, 320
-0.984042, 293, 169, 324, 232
-0.984075, 73, 113, 104, 240
-0.984094, 129, 49, 256, 112
-0.984095, 225, 145, 256, 272
-0.984154, 129, 129, 384, 256
-0.984175, 125, 121, 156, 184
-0.984208, 257, 257, 288, 384
-0.984257, 369, 305, 400, 432
-0.984327, 225, 273, 352, 336
-0.984346, 65, 1, 128, 500
-0.984386, 113, 1, 176, 500
-0.984386, 105, 225, 168, 480
-0.984469, 229, 1, 260, 64
-0.984558, 225, 361, 288, 424
-0.984564, 297, 65, 360, 320
-0.984612, 205, 361, 236, 424
-0.984627, 33, 193, 64, 320
-0.984673, 129, 345, 256, 408
-0.984687, 353, 73, 416, 136
-0.984696, 377, 161, 440, 416
-0.984699, 393, 337, 456, 464
-0.984739, 337, 209, 368, 272
-0.984755, 205, 217, 236, 280
-0.98485, 353, 281, 384, 344
-0.984858, 57, 209, 120, 272
-0.984893, 385, 1, 448, 500
-0.984909, 153, 193, 216, 448
-0.984912, 373, 297, 404, 360
-0.984918, 125, 65, 156, 192
-0.984954, 89, 1, 152, 256
-0.98496, 1, 241, 64, 368
-0.984985, 281, 241, 312, 304
-0.985042, 45, 193, 76, 320
-0.985046, 137, 145, 200, 272
-0.985072, 225, 329, 256, 392
-0.985103, 305, 113, 432, 176
-0.985108, 129, 201, 192, 264
-0.985142, 353, 225, 472, 352
-0.985156, 77, 1, 108, 128
-0.985201, 297, 361, 360, 424
-0.985227, 257, 249, 384, 312
-0.985254, 201, 193, 232, 256
-0.985283, 81, 169, 208, 232
-0.985374, 41, 73, 72, 136
-0.985422, 201, 369, 264, 496
-0.985473, 153, 345, 216, 408
-0.98559, 97, 369, 160, 432
-0.985607, 305, 241, 432, 368
-0.98562, 337, 113, 400, 176
-0.985633, 317, 145, 348, 208
-0.985681, 189, 193, 220, 320
-0.985725, 177, 145, 240, 272
-0.985829, 409, 201, 472, 264
-0.985913, 297, 313, 360, 376
-0.985975, 25, 241, 88, 304
-0.985996, 385, 201, 448, 264
-0.986017, 97, 369, 224, 432
-0.986033, 345, 217, 408, 280
-0.986057, 337, 273, 400, 336
-0.986073, 297, 273, 360, 400
-0.986209, 201, 337, 232, 464
-0.986276, 209, 33, 272, 288
-0.986393, 289, 321, 416, 384
-0.986461, 213, 337, 244, 464
-0.986465, 369, 305, 432, 368
-0.98651, 393, 177, 424, 304
-0.98654, 105, 225, 168, 288
-0.986569, 177, 9, 304, 72
-0.986599, 249, 65, 312, 320
-0.986602, 49, 193, 176, 256
-0.986608, 285, 337, 316, 464
-0.986632, 1, 241, 64, 304
-0.986679, 9, 353, 72, 480
-0.986728, 353, 321, 472, 384
-0.986735, 65, 305, 128, 432
-0.98681, 49, 377, 176, 440
-0.986856, 373, 257, 404, 384
-0.986892, 169, 1, 200, 128
-0.986894, 177, 257, 304, 320
-0.986903, 161, 177, 288, 240
-0.986967, 105, 97, 136, 224
-0.986972, 209, 241, 272, 304
-0.986987, 409, 1, 472, 128
-0.987003, 161, 297, 288, 360
-0.987068, 353, 33, 472, 160
-0.987132, 113, 321, 240, 384
-0.987182, 97, 225, 224, 288
-0.987232, 121, 345, 184, 408
-0.98724, 417, 65, 448, 192
-0.98726, 225, 129, 288, 256
-0.987393, 153, 369, 216, 496
-0.98742, 357, 321, 388, 448
-0.987423, 9, 305, 72, 432
-0.987424, 313, 241, 376, 304
-0.987467, 205, 1, 236, 128
-0.987528, 97, 273, 224, 400
-0.987535, 273, 257, 336, 384
-0.987633, 129, 225, 192, 480
-0.987638, 441, 177, 472, 304
-0.98764, 57, 45, 120, 76
-0.987684, 409, 209, 472, 336
-0.987714, 49, 377, 112, 440
-0.987748, 137, 1, 200, 500
-0.987751, 341, 305, 372, 432
-0.987856, 253, 321, 284, 448
-0.987915, 337, 337, 400, 464
-0.988026, 33, 45, 96, 76
-0.988033, 229, 321, 260, 448
-0.988072, 297, 189, 360, 220
-0.988088, 1, 305, 128, 432
-0.988144, 213, 225, 244, 352
-0.988218, 89, 1, 152, 500
-0.988278, 81, 345, 208, 408
-0.988314, 17, 181, 80, 212
-0.98837, 273, 113, 336, 240
-0.988398, 337, 189, 400, 220
-0.988424, 185, 97, 248, 352
-0.988457, 241, 197, 304, 228
-0.988457, 161, 1, 224, 256
-0.988467, 193, 1, 256, 500
-0.988525, 9, 33, 72, 64
-0.988537, 41, 33, 104, 64
-0.988539, 409, 193, 472, 448
-0.988569, 245, 257, 276, 384
-0.988642, 369, 353, 432, 416
-0.988643, 337, 201, 400, 232
-0.988659, 337, 345, 464, 408
-0.988661, 65, 33, 128, 64
-0.988681, 105, 209, 136, 336
-0.988693, 1, 193, 64, 224
-0.9887, 17, 1, 80, 32
-0.98879, 177, 297, 240, 360
-0.988804, 233, 209, 296, 240
-0.988818, 305, 369, 432, 432
-0.98882, 17, 169, 80, 200
-0.988826, 97, 41, 160, 72
-0.988827, 329, 173, 392, 204
-0.988842, 377, 193, 440, 224
-0.988853, 289, 169, 352, 200
-0.988874, 73, 385, 136, 448
-0.988881, 305, 17, 432, 144
-0.988887, 25, 157, 88, 188
-0.988944, 25, 57, 88, 88
-0.988951, 121, 129, 184, 384
-0.988959, 209, 97, 336, 224
-0.988963, 377, 153, 440, 184
-0.988965, 385, 113, 448, 144
-0.988967, 385, 133, 448, 164
-0.988975, 33, 81, 96, 112
-0.98908, 377, 181, 440, 212
-0.989129, 309, 113, 340, 240
-0.989156, 81, 409, 144, 472
-0.98916, 297, 337, 328, 464
-0.989168, 305, 225, 432, 288
-0.989187, 265, 197, 328, 228
-0.989296, 9, 45, 72, 76
-0.989331, 9, 97, 72, 128
-0.989372, 17, 13, 80, 44
-0.989375, 49, 165, 112, 196
-0.989397, 409, 173, 472, 204
-0.989399, 65, 345, 128, 408
-0.989429, 17, 221, 80, 252
-0.989459, 421, 161, 452, 288
-0.989479, 257, 185, 320, 216
-0.989502, 401, 1, 464, 256
-0.989513, 217, 1, 280, 500
-0.989565, 189, 305, 220, 432
-0.989605, 97, 29, 160, 60
-0.989611, 209, 305, 336, 368
-0.989613, 49, 57, 112, 88
-0.989642, 57, 145, 120, 176
-0.989652, 1, 85, 64, 116
-0.989655, 49, 21, 112, 52
-0.989658, 289, 257, 352, 500
-0.989693, 361, 281, 424, 344
-0.989729, 25, 193, 88, 224
-0.989734, 97, 1, 160, 32
-0.989754, 385, 97, 448, 128
-0.989755, 1, 369, 128, 432
-0.989771, 1, 1, 256, 64
-0.989791, 33, 273, 96, 400
-0.989801, 273, 225, 336, 256
-0.989804, 401, 149, 464, 180
-0.989817, 345, 241, 408, 304
-0.98985, 353, 161, 416, 192
-0.989853, 41, 205, 104, 236
-0.989866, 17, 209, 80, 240
-0.989887, 329, 161, 392, 192
-0.989894, 65, 97, 128, 128
-0.989894, 217, 193, 280, 224
-0.9899, 409, 161, 472, 192
-0.989917, 337, 49, 400, 176
-0.989919, 377, 85, 440, 116
-0.989948, 33, 145, 96, 176
-0.989952, 337, 65, 464, 128
-0.989961, 129, 29, 192, 60
-0.989966, 33, 345, 160, 408
-0.989974, 209, 349, 272, 380
-0.989976, 49, 117, 112, 148
-0.989997, 81, 53, 144, 84
-0.990022, 121, 1, 184, 32
-0.99006, 209, 321, 272, 352
-0.990074, 129, 393, 256, 456
-0.990112, 257, 173, 320, 204
-0.990113, 1, 113, 64, 144
-0.990134, 113, 305, 176, 432
-0.990145, 161, 49, 192, 176
-0.990176, 1, 25, 256, 88
-0.99018, 161, 193, 416, 256
-0.990208, 177, 221, 240, 252
-0.990224, 409, 133, 472, 164
-0.990237, 193, 205, 256, 236
-0.990244, 225, 337, 288, 368
-0.990253, 361, 205, 424, 236
-0.990254, 41, 97, 104, 128
-0.990262, 121, 81, 184, 112
-0.99027, 377, 169, 440, 200
-0.990286, 41, 1, 104, 32
-0.990303, 177, 41, 304, 104
-0.990312, 25, 69, 88, 100
-0.990314, 361, 121, 424, 152
-0.990318, 409, 289, 472, 416
-0.990334, 129, 17, 192, 48
-0.990389, 73, 81, 136, 112
-0.990417, 297, 201, 360, 232
-0.990433, 33, 169, 288, 232
-0.990433, 273, 209, 336, 240
-0.990438, 1, 153, 64, 184
-0.990464, 193, 161, 448, 224
-0.990472, 9, 133, 72, 164
-0.990493, 177, 193, 208, 320
-0.99052, 409, 121, 472, 152
-0.990529, 41, 177, 104, 208
-0.990534, 181, 33, 212, 160
-0.990539, 153, 41, 216, 72
-0.990576, 289, 353, 352, 384
-0.990591, 385, 273, 448, 400
-0.990629, 169, 1, 232, 500
-0.990641, 125, 225, 156, 352
-0.990652, 89, 113, 152, 144
-0.990695, 273, 237, 336, 268
-0.9907, 401, 193, 464, 224
-0.990712, 81, 225, 144, 256
-0.990716, 193, 361, 256, 392
-0.990727, 369, 65, 400, 192
-0.990741, 73, 1, 136, 32
-0.990748, 73, 133, 136, 164
-0.990762, 145, 321, 176, 448
-0.990781, 321, 369, 448, 496
-0.990787, 65, 177, 128, 208
-0.990799, 377, 73, 440, 104
-0.990803, 313, 257, 376, 500
-0.990806, 1, 129, 472, 192
-0.990837, 65, 69, 128, 100
-0.990861, 153, 9, 216, 40
-0.99088, 1, 233, 64, 264
-0.990898, 361, 1, 424, 500
-0.990906, 353, 369, 472, 432
-0.99091, 225, 225, 288, 256
-0.991017, 353, 177, 416, 208
-0.991029, 193, 333, 256, 364
-0.99104, 337, 213, 400, 244
-0.99104, 61, 177, 92, 304
-0.991045, 361, 109, 424, 140
-0.991046, 361, 97, 424, 128
-0.991049, 25, 109, 88, 140
-0.99106, 265, 353, 328, 384
-0.99107, 97, 13, 160, 44
-0.991095, 121, 49, 184, 80
-0.991104, 265, 249, 328, 280
-0.991118, 1, 185, 472, 248
-0.99112, 225, 257, 288, 288
-0.991138, 261, 129, 292, 256
-0.991156, 41, 133, 104, 164
-0.991166, 165, 225, 196, 352
-0.991174, 81, 401, 208, 464
-0.991176, 97, 129, 160, 384
-0.991183, 361, 137, 424, 168
-0.991185, 97, 153, 160, 184
-0.991188, 137, 97, 200, 224
-0.991194, 1, 57, 64, 88
-0.991225, 241, 377, 368, 440
-0.991232, 297, 157, 360, 188
-0.991238, 233, 321, 296, 352
-0.99125, 201, 217, 264, 248
-0.991251, 97, 125, 160, 156
-0.991271, 185, 345, 248, 376
-0.991272, 217, 181, 280, 212
-0.991277, 65, 205, 128, 236
-0.991278, 129, 73, 256, 136
-0.991288, 313, 321, 344, 448
-0.991296, 249, 341, 312, 372
-0.991305, 301, 209, 332, 336
-0.991306, 297, 213, 360, 244
-0.991314, 49, 321, 176, 384
-0.991316, 337, 353, 400, 384
-0.99132, 85, 193, 116, 320
-0.991342, 169, 29, 232, 60
-0.99135, 73, 17, 136, 48
-0.991357, 289, 185, 416, 216
-0.991358, 321, 169, 448, 200
-0.99136, 401, 65, 464, 96
-0.991367, 249, 233, 312, 264
-0.99138, 377, 57, 440, 88
-0.991385, 25, 233, 88, 264
-0.991393, 1, 73, 64, 104
-0.991395, 129, 249, 256, 312
-0.991413, 1, 209, 256, 272
-0.991421, 305, 229, 368, 260
-0.99145, 217, 361, 280, 392
-0.991458, 97, 85, 160, 116
-0.991464, 345, 149, 408, 180
-0.991513, 201, 113, 264, 240
-0.991624, 257, 369, 320, 496
-0.991634, 249, 1, 312, 500
-0.991669, 193, 153, 320, 216
-0.991788, 49, 257, 176, 384
-0.991824, 297, 1, 360, 500
-0.991833, 337, 401, 464, 464
-0.991976, 85, 45, 116, 76
-0.992, 21, 165, 52, 196
-0.992014, 201, 289, 232, 416
-0.992019, 37, 45, 68, 76
-0.992025, 249, 193, 280, 224
-0.992025, 13, 1, 44, 32
-0.992035, 1, 153, 472, 216
-0.992066, 361, 257, 424, 500
-0.992083, 49, 53, 80, 84
-0.99209, 5, 13, 36, 44
-0.992101, 61, 41, 92, 72
-0.992106, 101, 41, 132, 72
-0.992115, 409, 1, 472, 500
-0.992115, 401, 113, 432, 144
-0.992138, 161, 217, 416, 280
-0.992141, 373, 193, 404, 224
-0.992158, 1, 321, 128, 384
-0.992159, 161, 241, 224, 368
-0.992165, 313, 169, 344, 200
-0.992171, 385, 181, 416, 212
-0.992181, 5, 225, 36, 256
-0.992181, 329, 209, 360, 336
-0.992188, 237, 369, 268, 496
-0.99219, 33, 189, 64, 220
-0.992209, 365, 181, 396, 212
-0.992229, 17, 33, 48, 64
-0.992239, 5, 149, 36, 180
-0.992247, 277, 233, 308, 264
-0.992247, 405, 149, 436, 180
-0.992248, 137, 69, 168, 100
-0.992251, 141, 17, 172, 48
-0.992255, 25, 21, 56, 52
-0.992277, 29, 69, 60, 100
-0.992284, 73, 45, 104, 76
-0.992287, 65, 145, 96, 176
-0.99229, 425, 145, 456, 176
-0.992301, 33, 57, 64, 88
-0.992306, 37, 165, 68, 196
-0.992306, 9, 161, 40, 192
-0.992324, 13, 213, 44, 244
-0.992324, 137, 1, 168, 32
-0.992332, 1, 201, 32, 232
-0.992335, 53, 153, 84, 184
-0.992348, 193, 377, 320, 440
-0.99235, 13, 177, 44, 208
-0.99235, 329, 1, 392, 500
-0.992353, 401, 61, 432, 92
-0.992353, 37, 149, 68, 180
-0.992353, 349, 193, 380, 224
-0.992357, 393, 93, 424, 124
-0.992384, 281, 221, 312, 252
-0.992386, 269, 201, 300, 232
-0.992387, 85, 33, 116, 64
-0.992395, 373, 157, 404, 188
-0.992408, 73, 353, 104, 480
-0.992414, 401, 73, 432, 104
-0.992418, 329, 321, 360, 448
-0.992418, 273, 337, 304, 464
-0.992423, 421, 125, 452, 156
-0.992423, 37, 177, 68, 208
-0.992428, 337, 197, 368, 228
-0.99243, 389, 113, 420, 144
-0.992434, 305, 89, 432, 152
-0.992441, 125, 9, 156, 40
-0.992445, 425, 157, 456, 188
-0.992449, 105, 141, 136, 172
-0.992449, 301, 185, 332, 216
-0.99245, 1, 57, 256, 120
-0.992457, 37, 5, 68, 36
-0.992458, 389, 137, 420, 168
-0.992459, 257, 197, 384, 228
-0.992459, 265, 257, 296, 288
-0.992468, 333, 165, 364, 196
-0.992468, 57, 17, 88, 48
-0.992471, 1, 25, 32, 56
-0.992478, 385, 169, 416, 200
-0.992482, 89, 121, 120, 152
-0.992485, 77, 161, 108, 192
-0.992488, 65, 173, 96, 204
-0.992492, 285, 209, 316, 240
-0.992498, 17, 77, 48, 108
-0.9925, 49, 193, 80, 224
-0.992501, 1, 257, 128, 384
-0.992516, 381, 125, 412, 156
-0.992516, 45, 33, 76, 64
-0.992521, 61, 125, 92, 156
-0.992522, 137, 29, 168, 60
-0.992522, 45, 129, 76, 160
-0.992525, 301, 169, 332, 200
-0.992526, 21, 193, 52, 224
-0.992533, 109, 25, 140, 56
-0.992536, 405, 137, 436, 168
-0.992536, 105, 57, 136, 88
-0.992537, 233, 309, 264, 340
-0.992541, 125, 77, 156, 108
-0.992547, 353, 185, 472, 216
-0.992547, 1, 189, 32, 220
-0.99255, 281, 197, 312, 228
-0.992552, 353, 165, 384, 196
-0.992552, 405, 17, 436, 144
-0.992555, 437, 161, 468, 192
-0.992558, 25, 221, 56, 252
-0.992565, 41, 109, 72, 140
-0.992567, 321, 185, 352, 216
-0.992572, 277, 249, 308, 280
-0.992576, 17, 97, 48, 128
-0.992577, 257, 277, 288, 308
-0.992577, 89, 149, 120, 180
-0.992578, 33, 233, 288, 296
-0.99258, 69, 57, 100, 88
-0.992581, 1, 177, 32, 208
-0.992589, 233, 213, 264, 244
-0.99259, 25, 153, 56, 184
-0.992596, 81, 137, 112, 168
-0.992609, 105, 97, 136, 128
-0.992613, 29, 89, 60, 120
-0.992614, 301, 233, 332, 264
-0.992618, 25, 1, 56, 32
-0.992626, 1, 169, 128, 200
-0.992632, 49, 165, 80, 196
-0.992638, 25, 205, 56, 236
-0.992643, 81, 1, 112, 32
-0.992646, 157, 21, 188, 52
-0.992646, 5, 37, 36, 68
-0.992655, 1, 213, 32, 244
-0.992655, 65, 5, 96, 36
-0.992656, 385, 153, 416, 184
-0.992658, 125, 37, 156, 68
-0.992661, 1, 105, 32, 136
-0.992661, 425, 173, 456, 204
-0.992665, 233, 321, 264, 352
-0.992667, 97, 29, 128, 60
-0.99267, 229, 197, 260, 228
-0.992671, 65, 29, 96, 60
-0.992671, 69, 113, 100, 144
-0.992672, 409, 125, 440, 156
-0.992676, 353, 265, 472, 328
-0.992677, 201, 345, 232, 376
-0.992686, 405, 161, 436, 192
-0.992689, 369, 125, 400, 156
-0.992694, 153, 225, 184, 352
-0.992695, 241, 277, 272, 308
-0.992698, 149, 1, 180, 32
-0.992701, 425, 185, 456, 216
-0.992702, 5, 117, 36, 148
-0.992704, 213, 345, 244, 376
-0.992708, 53, 141, 84, 172
-0.99271, 141, 41, 172, 72
-0.99271, 149, 65, 180, 96
-0.992714, 237, 289, 268, 320
-0.992714, 205, 357, 236, 388
-0.992714, 397, 173, 428, 204
-0.992715, 361, 197, 392, 228
-0.992719, 377, 113, 408, 144
-0.992725, 81, 297, 208, 360
-0.992768, 1, 401, 128, 464
-0.992772, 209, 205, 336, 236
-0.992788, 165, 321, 196, 448
-0.992888, 11, 9, 26, 72
-0.992902, 289, 401, 416, 464
-0.992936, 11, 177, 26, 240
-0.992998, 73, 209, 104, 336
-0.993003, 113, 121, 240, 184
-0.993005, 1, 297, 128, 360
-0.993039, 21, 193, 36, 256
-0.993073, 273, 1, 336, 500
-0.993146, 63, 9, 78, 72
-0.993164, 361, 241, 424, 368
-0.993205, 121, 369, 152, 496
-0.993229, 373, 145, 388, 208
-0.99325, 1, 145, 256, 208
-0.993253, 85, 33, 100, 96
-0.993291, 61, 225, 92, 352
-0.993346, 11, 145, 26, 208
-0.993348, 31, 169, 46, 232
-0.993364, 1, 209, 472, 272
-0.993378, 97, 369, 128, 496
-0.993398, 241, 289, 256, 352
-0.993434, 377, 353, 408, 480
-0.993467, 157, 41, 172, 104
-0.993475, 257, 209, 384, 240
-0.993482, 393, 145, 408, 208
-0.99349, 25, 161, 40, 224
-0.993491, 273, 65, 336, 320
-0.993513, 31, 145, 46, 208
-0.993516, 17, 1, 32, 64
-0.99352, 353, 233, 472, 296
-0.993526, 17, 137, 144, 168
-0.993564, 125, 1, 140, 64
-0.993565, 193, 401, 320, 464
-0.993592, 229, 1, 260, 128
-0.993599, 101, 97, 116, 160
-0.993633, 413, 49, 428, 112
-0.993635, 39, 41, 54, 104
-0.993639, 43, 1, 58, 64
-0.993655, 17, 157, 144, 188
-0.993655, 305, 161, 320, 224
-0.993658, 209, 193, 336, 224
-0.993676, 209, 329, 224, 392
-0.993679, 341, 241, 372, 368
-0.993759, 5, 185, 20, 248
-0.993773, 1, 81, 256, 144
-0.99378, 25, 241, 56, 368
-0.993788, 23, 1, 38, 64
-0.993794, 49, 1, 176, 32
-0.993794, 193, 241, 448, 304
-0.993811, 5, 113, 20, 176
-0.993827, 47, 33, 62, 96
-0.993833, 151, 25, 166, 88
-0.993842, 353, 157, 472, 188
-0.993846, 105, 33, 120, 96
-0.993856, 5, 9, 20, 72
-0.993859, 133, 321, 164, 448
-0.993864, 337, 197, 464, 228
-0.993871, 85, 353, 116, 480
-0.993875, 55, 33, 70, 96
-0.993887, 283, 225, 298, 288
-0.993909, 1, 213, 128, 244
-0.993918, 1, 105, 256, 168
-0.993932, 381, 33, 412, 160
-0.993953, 141, 225, 172, 352
-0.993956, 53, 153, 68, 216
-0.993963, 145, 153, 272, 216
-0.993974, 33, 329, 288, 392
-0.993975, 39, 153, 54, 216
-0.993976, 113, 145, 144, 272
-0.993986, 17, 241, 144, 304
-0.993992, 49, 33, 176, 64
-0.993995, 305, 297, 432, 360
-0.994004, 329, 161, 344, 224
-0.994063, 19, 169, 34, 232
-0.99407, 67, 145, 82, 208
-0.994085, 273, 173, 400, 204
-0.99414, 427, 161, 442, 224
-0.994173, 149, 1, 164, 64
-0.994185, 17, 53, 144, 84
-0.994208, 353, 125, 472, 156
-0.994213, 45, 57, 60, 120
-0.994227, 43, 129, 58, 192
-0.994269, 119, 17, 134, 80
-0.994302, 395, 169, 410, 232
-0.994307, 59, 153, 74, 216
-0.994329, 29, 1, 44, 64
-0.994336, 65, 49, 192, 80
-0.994346, 97, 17, 352, 80
-0.994352, 21, 137, 36, 200
-0.994356, 437, 129, 452, 192
-0.994367, 317, 161, 332, 224
-0.994367, 383, 121, 398, 184
-0.994368, 135, 9, 150, 72
-0.994369, 391, 105, 406, 168
-0.994395, 433, 161, 448, 224
-0.994401, 111, 89, 126, 152
-0.994426, 75, 17, 90, 80
-0.994439, 17, 117, 144, 148
-0.994441, 423, 137, 438, 200
-0.994442, 95, 41, 110, 104
-0.994468, 1, 161, 16, 224
-0.99447, 33, 65, 48, 128
-0.994472, 209, 229, 336, 260
-0.994483, 193, 329, 448, 392
-0.994494, 285, 201, 300, 264
-0.994501, 1, 1, 128, 32
-0.994533, 209, 217, 336, 248
-0.994544, 79, 41, 94, 104
-0.994554, 55, 9, 70, 72
-0.994569, 253, 185, 268, 248
-0.994595, 367, 161, 382, 224
-0.994598, 193, 289, 448, 352
-0.994614, 33, 65, 160, 96
-0.994615, 141, 1, 156, 64
-0.994624, 413, 81, 428, 144
-0.994642, 291, 209, 306, 272
-0.994647, 79, 145, 94, 208
-0.994662, 93, 113, 108, 176
-0.994682, 17, 273, 144, 336
-0.994687, 53, 177, 68, 240
-0.994714, 65, 41, 80, 104
-0.99472, 1, 37, 128, 68
-0.994727, 227, 1, 242, 64
-0.994736, 1, 105, 128, 136
-0.994746, 399, 145, 414, 208
-0.994747, 193, 265, 448, 328
-0.994767, 305, 157, 432, 188
-0.994775, 31, 193, 46, 256
-0.994776, 17, 13, 144, 44
-0.99478, 77, 169, 92, 232
-0.994782, 407, 57, 422, 120
-0.994785, 209, 353, 336, 384
-0.994797, 259, 185, 274, 248
-0.994817, 247, 313, 262, 376
-0.994819, 383, 153, 398, 216
-0.994826, 137, 33, 152, 96
-0.994831, 59, 185, 74, 248
-0.994832, 95, 17, 110, 80
-0.99485, 265, 249, 280, 312
-0.994854, 451, 161, 466, 224
-0.994854, 21, 81, 36, 144
-0.994872, 353, 145, 472, 176
-0.994879, 129, 25, 144, 88
-0.994882, 247, 289, 262, 352
-0.994889, 209, 245, 336, 276
-0.994912, 33, 225, 160, 256
-0.994964, 71, 41, 86, 104
-0.994973, 149, 49, 164, 112
-0.994974, 51, 121, 66, 184
-0.99498, 157, 17, 172, 80
-0.995003, 29, 121, 44, 184
-0.995003, 1, 193, 128, 224
-0.995012, 1, 313, 472, 376
-0.995024, 225, 137, 472, 200
-0.995035, 305, 209, 432, 240
-0.995037, 443, 153, 458, 216
-0.995038, 49, 201, 64, 264
-0.995046, 111, 57, 126, 120
-0.995053, 271, 209, 286, 272
-0.995061, 385, 257, 448, 500
-0.995068, 101, 73, 116, 136
-0.995074, 11, 201, 26, 264
-0.995085, 45, 161, 60, 224
-0.9951, 295, 185, 310, 248
-0.9951, 371, 305, 386, 368
-0.99512, 225, 169, 352, 200
-0.995124, 243, 177, 258, 240
-0.995136, 241, 401, 368, 464
-0.995147, 271, 241, 286, 304
-0.995148, 83, 121, 98, 184
-0.995161, 37, 129, 52, 192
-0.995168, 161, 205, 288, 236
-0.995182, 81, 1, 96, 64
-0.995185, 273, 233, 400, 264
-0.995195, 237, 201, 252, 264
-0.995206, 15, 81, 30, 144
-0.995209, 347, 177, 362, 240
-0.99522, 5, 209, 20, 272
-0.995233, 373, 185, 388, 248
-0.99525, 105, 9, 120, 72
-0.995263, 353, 289, 472, 352
-0.995271, 301, 185, 316, 248
-0.995273, 335, 161, 350, 224
-0.995274, 61, 81, 76, 144
-0.995278, 231, 193, 246, 256
-0.995288, 129, 41, 384, 104
-0.995288, 253, 161, 284, 416
-0.995291, 209, 341, 336, 372
-0.995293, 113, 17, 128, 80
-0.995299, 231, 217, 246, 280
-0.995306, 111, 129, 126, 192
-0.995317, 257, 221, 384, 252
-0.995319, 203, 329, 218, 392
-0.995324, 1, 289, 472, 352
-0.995328, 69, 17, 84, 80
-0.995334, 1, 93, 128, 124
-0.995335, 21, 1, 52, 256
-0.995342, 37, 17, 52, 80
-0.995344, 273, 273, 400, 336
-0.99537, 155, 73, 170, 136
-0.995372, 73, 145, 88, 208
-0.995379, 397, 113, 412, 176
-0.995381, 279, 201, 294, 264
-0.995388, 87, 9, 102, 72
-0.995395, 241, 129, 368, 192
-0.995398, 39, 177, 54, 240
-0.995398, 89, 57, 104, 120
-0.995399, 143, 25, 158, 88
-0.995401, 429, 137, 444, 200
-0.995406, 161, 353, 416, 416
-0.995409, 273, 357, 400, 388
-0.995419, 407, 81, 422, 144
-0.995423, 423, 113, 438, 176
-0.995423, 161, 225, 288, 256
-0.995441, 257, 297, 384, 360
-0.995504, 233, 193, 264, 448
-0.995523, 1, 241, 472, 304
-0.995578, 1, 1, 32, 256
-0.995587, 1, 337, 472, 400
-0.995601, 1, 77, 128, 108
-0.995617, 1, 25, 128, 56
-0.995717, 353, 105, 472, 136
-0.995728, 65, 121, 192, 152
-0.995731, 49, 425, 176, 488
-0.995738, 97, 33, 224, 64
-0.995745, 161, 321, 288, 352
-0.99582, 57, 1, 88, 256
-0.995821, 5, 97, 36, 352
-0.995832, 65, 81, 192, 112
-0.995904, 225, 181, 352, 212
-0.995925, 33, 361, 288, 424
-0.99593, 129, 377, 256, 408
-0.996005, 361, 129, 392, 384
-0.99601, 97, 273, 352, 336
-0.996043, 257, 245, 384, 276
-0.996074, 97, 73, 352, 136
-0.996075, 49, 169, 176, 200
-0.996084, 281, 193, 312, 448
-0.996092, 37, 1, 68, 256
-0.996111, 329, 161, 360, 416
-0.996112, 65, 13, 192, 44
-0.996139, 129, 273, 256, 336
-0.996155, 113, 49, 240, 80
-0.996171, 65, 133, 192, 164
-0.996181, 209, 365, 336, 396
-0.996235, 401, 33, 432, 288
-0.996237, 97, 221, 224, 252
-0.996282, 221, 193, 252, 448
-0.996285, 1, 425, 128, 488
-0.996313, 1, 181, 128, 212
-0.996314, 297, 129, 328, 384
-0.996327, 385, 65, 416, 320
-0.996371, 1, 9, 472, 72
-0.996405, 33, 385, 288, 448
-0.996412, 161, 49, 288, 80
-0.996437, 161, 193, 288, 224
-0.996454, 65, 153, 192, 184
-0.996472, 241, 1, 368, 128
-0.996483, 225, 33, 352, 96
-0.99649, 289, 345, 416, 376
-0.996503, 97, 305, 352, 368
-0.996508, 145, 97, 272, 160
-0.996538, 129, 361, 256, 392
-0.996555, 25, 97, 56, 352
-0.996563, 193, 113, 448, 176
-0.99657, 145, 237, 272, 268
-0.996572, 81, 97, 112, 352
-0.996584, 113, 5, 240, 36
-0.996596, 81, 65, 208, 96
-0.996612, 225, 9, 352, 72
-0.996616, 161, 33, 288, 64
-0.996629, 305, 425, 432, 488
-0.996639, 177, 181, 304, 212
-0.996667, 305, 249, 432, 312
-0.996677, 349, 225, 380, 480
-0.996678, 59, 157, 74, 188
-0.996683, 129, 17, 256, 48
-0.996711, 305, 41, 432, 104
-0.996721, 49, 97, 176, 128
-0.996732, 161, 349, 288, 380
-0.996733, 101, 33, 132, 288
-0.996738, 29, 161, 44, 192
-0.996745, 69, 153, 84, 184
-0.996786, 65, 109, 192, 140
-0.996787, 25, 181, 40, 212
-0.99679, 113, 209, 240, 240
-0.996795, 15, 185, 30, 216
-0.996814, 49, 185, 176, 216
-0.996826, 161, 333, 288, 364
-0.996839, 17, 5, 32, 36
-0.996846, 103, 45, 118, 76
-0.996859, 7, 9, 22, 40
-0.996863, 245, 281, 260, 312
-0.996866, 1, 265, 472, 328
-0.996876, 61, 97, 92, 352
-0.99688, 413, 57, 428, 88
-0.996888, 177, 377, 304, 408
-0.996911, 21, 193, 36, 224
-0.996915, 7, 137, 22, 168
-0.99692, 59, 53, 74, 84
-0.996926, 405, 73, 420, 104
-0.996938, 305, 169, 320, 200
-0.996945, 7, 149, 22, 180
-0.996949, 9, 197, 24, 228
-0.996962, 305, 141, 432, 172
-0.996967, 45, 37, 60, 68
-0.996987, 53, 49, 68, 80
-0.996997, 33, 61, 48, 92
-0.996999, 129, 65, 256, 96
-0.997, 25, 1, 40, 32
-0.997002, 281, 249, 296, 280
-0.997012, 439, 169, 454, 200
-0.997014, 271, 257, 286, 288
-0.997023, 37, 165, 52, 196
-0.997025, 9, 209, 24, 240
-0.997025, 17, 221, 32, 252
-0.997028, 241, 301, 256, 332
-0.997029, 61, 17, 76, 48
-0.997031, 139, 1, 154, 32
-0.997046, 15, 205, 30, 236
-0.997056, 95, 37, 110, 68
-0.997059, 385, 193, 400, 224
-0.997064, 21, 209, 36, 240
-0.997067, 85, 1, 116, 256
-0.997074, 265, 161, 296, 416
-0.997077, 43, 157, 58, 188
-0.99709, 75, 141, 90, 172
-0.99709, 353, 209, 472, 240
-0.997095, 225, 81, 472, 144
-0.997098, 103, 33, 118, 64
-0.997101, 327, 169, 342, 200
-0.997102, 11, 165, 26, 196
-0.997114, 417, 129, 432, 160
-0.997121, 281, 237, 296, 268
-0.997123, 51, 149, 66, 180
-0.997125, 33, 85, 48, 116
-0.997125, 423, 145, 438, 176
-0.997133, 13, 137, 28, 168
-0.997136, 53, 29, 68, 60
-0.997136, 1, 377, 472, 440
-0.997139, 161, 377, 416, 440
-0.997143, 265, 269, 280, 300
-0.997143, 125, 1, 140, 32
-0.997157, 35, 49, 50, 80
-0.997157, 1, 49, 472, 112
-0.997158, 95, 49, 110, 80
-0.997159, 19, 17, 34, 48
-0.997159, 81, 233, 208, 264
-0.997165, 3, 21, 18, 52
-0.99717, 67, 9, 82, 40
-0.997181, 23, 165, 38, 196
-0.997185, 129, 417, 256, 480
-0.99719, 31, 173, 46, 204
-0.9972, 47, 169, 62, 200
-0.997203, 17, 173, 32, 204
-0.997204, 209, 285, 336, 316
-0.997205, 285, 221, 300, 252
-0.997208, 289, 369, 416, 400
-0.997209, 375, 181, 390, 212
-0.997209, 89, 121, 104, 152
-0.99721, 77, 1, 92, 32
-0.99721, 209, 261, 336, 292
-0.997223, 417, 113, 432, 144
-0.997233, 389, 113, 404, 144
-0.997237, 1, 1, 16, 32
-0.997237, 395, 137, 410, 168
-0.997243, 145, 1, 160, 32
-0.997248, 41, 57, 56, 88
-0.997251, 247, 317, 262, 348
-0.997252, 305, 121, 432, 152
-0.997253, 341, 197, 356, 228
-0.997261, 303, 181, 318, 212
-0.997261, 207, 333, 222, 364
-0.997265, 27, 17, 42, 48
-0.997267, 113, 133, 240, 164
-0.997271, 211, 353, 226, 384
-0.997273, 25, 77, 40, 108
-0.997274, 27, 209, 42, 240
-0.997275, 15, 29, 30, 60
-0.997276, 5, 113, 20, 144
-0.997279, 383, 181, 398, 212
-0.99728, 75, 173, 90, 204
-0.997282, 431, 137, 446, 168
-0.997291, 35, 145, 50, 176
-0.997291, 449, 165, 464, 196
-0.997293, 59, 145, 74, 176
-0.997297, 317, 129, 348, 384
-0.997302, 59, 41, 74, 72
-0.997315, 37, 181, 52, 212
-0.997315, 33, 237, 160, 268
-0.997316, 287, 241, 302, 272
-0.997316, 45, 129, 76, 384
-0.997319, 105, 149, 120, 180
-0.997322, 353, 1, 416, 256
-0.997323, 97, 129, 352, 192
-0.997325, 9, 37, 24, 68
-0.99733, 217, 49, 280, 176
-0.997335, 235, 217, 250, 248
-0.997335, 379, 197, 394, 228
-0.997336, 111, 41, 126, 72
-0.997338, 23, 97, 38, 128
-0.997339, 243, 197, 258, 228
-0.997346, 81, 377, 208, 408
-0.997346, 65, 141, 80, 172
-0.997347, 289, 105, 416, 136
-0.997352, 423, 125, 438, 156
-0.997353, 375, 121, 390, 152
-0.997359, 41, 73, 56, 104
-0.997376, 61, 113, 76, 144
-0.997377, 241, 321, 256, 352
-0.997379, 391, 181, 406, 212
-0.997382, 151, 5, 166, 36
-0.997384, 133, 1, 148, 32
-0.997388, 1, 157, 16, 188
-0.997394, 161, 309, 288, 340
-0.997395, 399, 93, 414, 124
-0.997395, 433, 97, 464, 352
-0.9974, 15, 153, 30, 184
-0.997406, 409, 125, 424, 156
-0.99742, 409, 97, 424, 128
-0.997422, 275, 269, 290, 300
-0.997429, 47, 57, 62, 88
-0.997431, 225, 301, 352, 332
-0.997432, 399, 161, 414, 192
-0.997437, 5, 173, 20, 204
-0.997438, 385, 125, 400, 156
-0.997439, 151, 17, 166, 48
-0.997439, 73, 1, 104, 256
-0.997439, 69, 169, 84, 200
-0.997443, 9, 25, 24, 56
-0.997448, 127, 73, 142, 104
-0.997453, 423, 161, 438, 192
-0.997457, 153, 33, 168, 64
-0.997465, 403, 113, 418, 144
-0.997466, 253, 185, 268, 216
-0.997472, 65, 45, 80, 76
-0.997476, 79, 49, 94, 80
-0.997481, 31, 197, 46, 228
-0.997482, 99, 113, 114, 144
-0.997482, 411, 77, 426, 108
-0.997484, 75, 157, 90, 188
-0.997486, 257, 269, 384, 300
-0.997494, 279, 205, 294, 236
-0.997495, 417, 141, 432, 172
-0.997496, 33, 73, 48, 104
-0.9975, 397, 149, 412, 180
-0.997509, 225, 325, 352, 356
-0.997509, 161, 277, 288, 308
-0.99751, 209, 193, 240, 448
-0.997527, 113, 337, 240, 368
-0.997534, 129, 389, 256, 420
-0.997561, 113, 349, 240, 380
-0.997567, 197, 193, 228, 448
-0.997575, 321, 225, 448, 256
-0.997581, 225, 313, 352, 344
-0.997586, 321, 405, 448, 436
-0.997606, 141, 33, 172, 288
-0.99761, 241, 157, 368, 188
-0.997613, 113, 85, 240, 116
-0.997614, 373, 97, 404, 352
-0.997619, 225, 33, 472, 96
-0.99764, 349, 97, 380, 352
-0.997642, 1, 393, 128, 424
-0.997661, 337, 361, 464, 392
-0.997673, 81, 249, 208, 312
-0.997682, 33, 409, 288, 472
-0.997733, 185, 193, 216, 448
-0.997735, 49, 389, 176, 420
-0.997751, 1, 297, 256, 360
-0.997753, 1, 105, 472, 168
-0.997791, 273, 257, 400, 288
-0.997796, 125, 1, 156, 256
-0.997831, 353, 433, 472, 496
-0.99785, 129, 249, 256, 280
-0.997883, 421, 97, 452, 352
-0.997931, 81, 325, 208, 356
-0.997979, 165, 1, 196, 256
-0.99799, 337, 85, 464, 116
-0.998024, 97, 197, 224, 228
-0.998032, 49, 205, 176, 236
-0.998048, 101, 193, 132, 448
-0.998055, 193, 9, 448, 72
-0.998091, 129, 401, 384, 464
-0.998096, 165, 225, 196, 480
-0.998107, 81, 405, 208, 436
-0.998123, 113, 33, 144, 288
-0.998136, 1, 73, 472, 136
-0.998145, 177, 397, 304, 428
-0.998148, 177, 17, 304, 48
-0.99816, 9, 193, 40, 448
-0.998184, 369, 225, 400, 480
-0.998188, 241, 97, 272, 352
-0.99822, 229, 97, 260, 352
-0.998234, 97, 97, 224, 128
-0.99824, 161, 265, 288, 296
-0.998258, 17, 337, 144, 368
-0.998289, 153, 225, 184, 480
-0.998297, 353, 349, 472, 380
-0.998301, 65, 337, 192, 368
-0.998302, 65, 193, 96, 448
-0.998308, 161, 293, 288, 324
-0.998327, 409, 129, 440, 384
-0.998328, 337, 241, 464, 272
-0.998346, 225, 377, 352, 408
-0.998346, 89, 41, 152, 56
-0.998366, 59, 1, 74, 128
-0.998367, 305, 333, 432, 364
-0.998369, 289, 185, 352, 200
-0.99837, 113, 193, 144, 448
-0.998375, 33, 47, 96, 62
-0.998381, 25, 1, 40, 128
-0.998381, 209, 273, 336, 304
-0.998382, 9, 41, 72, 56
-0.998392, 337, 203, 400, 218
-0.998394, 353, 193, 416, 208
-0.998397, 49, 61, 112, 76
-0.998397, 281, 97, 312, 352
-0.998402, 33, 145, 48, 272
-0.998403, 321, 167, 384, 182
-0.998405, 25, 55, 88, 70
-0.998413, 49, 421, 176, 452
-0.998414, 65, 43, 128, 58
-0.998414, 297, 193, 360, 208
-0.998416, 21, 193, 52, 448
-0.998416, 301, 225, 332, 480
-0.998419, 377, 115, 440, 130
-0.998419, 57, 151, 120, 166
-0.99842, 257, 191, 320, 206
-0.99842, 381, 129, 396, 256
-0.998422, 393, 155, 456, 170
-0.998422, 1, 197, 64, 212
-0.998424, 241, 197, 304, 212
-0.99843, 329, 175, 392, 190
-0.998436, 81, 53, 144, 68
-0.998437, 385, 133, 448, 148
-0.998438, 305, 393, 432, 424
-0.998438, 33, 145, 96, 160
-0.998441, 161, 5, 288, 36
-0.998443, 73, 31, 136, 46
-0.998443, 9, 27, 72, 42
-0.998445, 289, 173, 352, 188
-0.998445, 233, 211, 296, 226
-0.998445, 377, 99, 440, 114
-0.998445, 33, 11, 96, 26
-0.998446, 401, 139, 464, 154
-0.998447, 41, 1, 104, 16
-0.99845, 9, 191, 72, 206
-0.998452, 209, 45, 336, 76
-0.998452, 377, 195, 440, 210
-0.998453, 345, 169, 408, 184
-0.998453, 113, 37, 176, 52
-0.998454, 57, 49, 120, 64
-0.998456, 17, 1, 80, 16
-0.998457, 73, 1, 136, 16
-0.998458, 73, 59, 136, 74
-0.998458, 1, 47, 64, 62
-0.998458, 17, 181, 80, 196
-0.998459, 265, 209, 328, 224
-0.99846, 25, 159, 88, 174
-0.998461, 1, 203, 64, 218
-0.998461, 265, 203, 328, 218
-0.998462, 369, 157, 432, 172
-0.998467, 329, 195, 392, 210
-0.998467, 25, 61, 88, 76
-0.998467, 1, 225, 64, 240
-0.998467, 361, 135, 424, 150
-0.998469, 25, 171, 88, 186
-0.99847, 25, 95, 88, 110
-0.998471, 369, 185, 432, 200
-0.998472, 49, 31, 112, 46
-0.998472, 49, 55, 112, 70
-0.998474, 65, 143, 128, 158
-0.998474, 25, 67, 88, 82
-0.998478, 97, 1, 160, 16
-0.998478, 1, 103, 64, 118
-0.998479, 9, 217, 72, 232
-0.99848, 65, 99, 128, 114
-0.998481, 25, 21, 88, 36
-0.998485, 1, 169, 64, 184
-0.998486, 25, 153, 88, 168
-0.998487, 225, 191, 288, 206
-0.998488, 89, 47, 152, 62
-0.998488, 41, 39, 104, 54
-0.998488, 57, 119, 120, 134
-0.998488, 297, 199, 360, 214
-0.998489, 113, 43, 176, 58
-0.998489, 225, 389, 352, 420
-0.998489, 97, 7, 160, 22
-0.99849, 129, 405, 256, 436
-0.998493, 377, 77, 440, 92
-0.998497, 33, 139, 96, 154
-0.998497, 1, 13, 64, 28
-0.998497, 233, 203, 296, 218
-0.998497, 25, 77, 88, 92
-0.998497, 39, 1, 54, 128
-0.998498, 177, 215, 240, 230
-0.998499, 113, 23, 176, 38
-0.9985, 361, 105, 424, 120
-0.998501, 409, 179, 472, 194
-0.998502, 1, 151, 64, 166
-0.998502, 1, 231, 64, 246
-0.998502, 25, 233, 88, 248
-0.998503, 401, 149, 464, 164
-0.998503, 201, 203, 264, 218
-0.998506, 33, 223, 96, 238
-0.998507, 25, 201, 88, 216
-0.998507, 137, 7, 200, 22
-0.998508, 1, 7, 64, 22
-0.998508, 49, 21, 112, 36
-0.998508, 105, 31, 168, 46
-0.998509, 1, 175, 64, 190
-0.99851, 385, 121, 448, 136
-0.99851, 329, 185, 392, 200
-0.998514, 137, 39, 200, 54
-0.998514, 1, 97, 64, 112
-0.998516, 81, 121, 144, 136
-0.998516, 41, 89, 104, 104
-0.998516, 273, 227, 336, 242
-0.998517, 49, 159, 112, 174
-0.998517, 137, 13, 200, 28
-0.998518, 1, 211, 64, 226
-0.998519, 1, 145, 64, 160
-0.998519, 9, 135, 72, 150
-0.99852, 297, 179, 360, 194
-0.99852, 361, 163, 424, 178
-0.99852, 97, 59, 160, 74
-0.998521, 409, 197, 472, 212
-0.998521, 81, 93, 144, 108
-0.998522, 297, 207, 360, 222
-0.998522, 65, 111, 128, 126
-0.998522, 409, 161, 472, 176
-0.998523, 1, 21, 64, 36
-0.998525, 53, 45, 84, 60
-0.998525, 337, 195, 368, 210
-0.998525, 161, 45, 192, 60
-0.998525, 13, 1, 28, 128
-0.998526, 277, 209, 308, 224
-0.998526, 173, 39, 204, 54
-0.998526, 361, 201, 424, 216
-0.998527, 61, 183, 92, 198
-0.998528, 29, 201, 60, 216
-0.998528, 405, 149, 436, 164
-0.998529, 65, 37, 128, 52
-0.99853, 33, 83, 96, 98
-0.99853, 233, 219, 296, 234
-0.99853, 265, 197, 328, 212
-0.998531, 133, 225, 164, 480
-0.998531, 65, 177, 96, 192
-0.998531, 41, 113, 104, 128
-0.998531, 377, 171, 440, 186
-0.998531, 65, 179, 128, 194
-0.998532, 1, 163, 64, 178
-0.998532, 385, 177, 416, 192
-0.998532, 329, 209, 392, 224
-0.998534, 161, 29, 192, 44
-0.998534, 297, 165, 360, 180
-0.998534, 361, 123, 424, 138
-0.998534, 405, 95, 436, 110
-0.998534, 373, 121, 404, 136
-0.998535, 29, 229, 60, 244
-0.998535, 25, 165, 88, 180
-0.998535, 33, 189, 96, 204
-0.998536, 9, 35, 72, 50
-0.998536, 377, 149, 440, 164
-0.998536, 29, 155, 60, 170
-0.998536, 29, 1, 60, 16
-0.998537, 73, 105, 136, 120
-0.998537, 385, 115, 416, 130
-0.998538, 213, 349, 244, 364
-0.998538, 273, 239, 336, 254
-0.998538, 41, 211, 104, 226
-0.998538, 21, 161, 52, 176
-0.998539, 277, 235, 308, 250
-0.998539, 17, 11, 48, 26
-0.99854, 361, 161, 392, 176
-0.998541, 57, 141, 88, 156
-0.998541, 17, 25, 48, 40
-0.998541, 17, 87, 48, 102
-0.998542, 381, 203, 412, 218
-0.998543, 249, 207, 280, 222
-0.998543, 37, 221, 68, 236
-0.998543, 393, 105, 424, 120
-0.998544, 37, 53, 68, 68
-0.998546, 85, 63, 116, 78
-0.998546, 421, 165, 452, 180
-0.998546, 5, 29, 36, 44
-0.998547, 401, 127, 432, 142
-0.998548, 21, 209, 52, 224
-0.998549, 81, 31, 112, 46
-0.998549, 321, 193, 352, 208
-0.99855, 301, 185, 332, 200
-0.99855, 413, 173, 444, 188
-0.998551, 69, 147, 100, 162
-0.998551, 45, 39, 76, 54
-0.998551, 13, 193, 44, 208
-0.998551, 421, 153, 452, 168
-0.998552, 387, 129, 402, 256
-0.998552, 237, 289, 268, 304
-0.998553, 317, 165, 348, 180
-0.998553, 265, 259, 296, 274
-0.998553, 249, 189, 280, 204
-0.998553, 21, 223, 52, 238
-0.998555, 277, 249, 308, 264
-0.998556, 373, 183, 404, 198
-0.998557, 405, 67, 436, 82
-0.998558, 93, 117, 124, 132
-0.998559, 1, 169, 32, 184
-0.998564, 405, 59, 436, 74
-0.998565, 57, 21, 88, 36
-0.998565, 41, 153, 72, 168
-0.998565, 381, 197, 412, 212
-0.998567, 57, 153, 88, 168
-0.998567, 49, 165, 80, 180
-0.998569, 405, 115, 436, 130
-0.99857, 369, 189, 400, 204
-0.99857, 33, 181, 64, 196
-0.998571, 97, 59, 128, 74
-0.998571, 109, 31, 140, 46
-0.998573, 1, 163, 32, 178
-0.998574, 129, 11, 160, 26
-0.998574, 17, 99, 48, 114
-0.998574, 285, 225, 316, 240
-0.998574, 141, 7, 172, 22
-0.998574, 45, 59, 76, 74
-0.998575, 149, 25, 180, 40
-0.998575, 153, 1, 184, 256
-0.998575, 117, 25, 148, 40
-0.998576, 109, 37, 140, 52
-0.998578, 25, 169, 56, 184
-0.998579, 5, 227, 36, 242
-0.998579, 333, 169, 364, 184
-0.998579, 49, 65, 80, 80
-0.99858, 17, 3, 48, 18
-0.998581, 393, 121, 424, 136
-0.998581, 409, 155, 440, 170
-0.998582, 377, 137, 408, 152
-0.998583, 149, 39, 180, 54
-0.998583, 129, 85, 160, 100
-0.998583, 101, 151, 132, 166
-0.998585, 5, 9, 36, 24
-0.998585, 385, 183, 416, 198
-0.998589, 129, 1, 160, 16
-0.998591, 389, 151, 420, 166
-0.998591, 137, 31, 168, 46
-0.998592, 369, 195, 400, 210
-0.998594, 385, 131, 416, 146
-0.998594, 353, 167, 384, 182
-0.998595, 9, 201, 40, 216
-0.998596, 1, 257, 256, 320
-0.998597, 433, 159, 464, 174
-0.998598, 13, 217, 44, 232
-0.9986, 425, 193, 456, 448
-0.998601, 69, 55, 100, 70
-0.998601, 393, 143, 424, 158
-0.998602, 45, 159, 76, 174
-0.998603, 129, 41, 160, 56
-0.998605, 381, 81, 396, 208
-0.998608, 401, 75, 432, 90
-0.998611, 249, 195, 280, 210
-0.998612, 393, 97, 424, 112
-0.998612, 13, 167, 44, 182
-0.998612, 395, 81, 410, 208
-0.998612, 37, 47, 68, 62
-0.998615, 305, 167, 336, 182
-0.998615, 19, 1, 34, 128
-0.998615, 37, 189, 68, 204
-0.998616, 61, 161, 92, 176
-0.998617, 97, 53, 128, 68
-0.998618, 5, 15, 36, 30
-0.998619, 129, 21, 160, 36
-0.99862, 1, 177, 32, 192
-0.998624, 303, 161, 318, 288
-0.998624, 349, 195, 380, 210
-0.998625, 33, 59, 64, 74
-0.998625, 277, 243, 308, 258
-0.998625, 21, 175, 52, 190
-0.998629, 97, 35, 128, 50
-0.998632, 33, 69, 64, 84
-0.998634, 1, 217, 32, 232
-0.998635, 53, 51, 84, 66
-0.998639, 47, 145, 62, 272
-0.998639, 65, 47, 96, 62
-0.998645, 17, 17, 48, 32
-0.998645, 33, 161, 64, 176
-0.998656, 393, 129, 408, 256
-0.998657, 65, 65, 80, 192
-0.998658, 97, 47, 128, 62
-0.99866, 397, 129, 428, 384
-0.998661, 389, 81, 404, 208
-0.998662, 225, 401, 472, 464
-0.998662, 441, 193, 472, 448
-0.998664, 33, 1, 48, 128
-0.998666, 81, 41, 112, 56
-0.998666, 109, 43, 140, 58
-0.998672, 127, 1, 142, 128
-0.998673, 5, 23, 36, 38
-0.99868, 1, 209, 32, 224
-0.998682, 121, 35, 152, 50
-0.998687, 21, 145, 36, 272
-0.998692, 151, 1, 166, 128
-0.998703, 277, 209, 292, 336
-0.998704, 411, 49, 426, 176
-0.998711, 53, 145, 68, 272
-0.998712, 27, 161, 42, 288
-0.998712, 337, 65, 368, 320
-0.998713, 45, 1, 60, 128
-0.998716, 77, 1, 92, 128
-0.998718, 51, 1, 66, 128
-0.998726, 39, 129, 54, 256
-0.99873, 17, 181, 48, 196
-0.998734, 51, 49, 66, 176
-0.998735, 401, 129, 416, 256
-0.998742, 213, 97, 244, 352
-0.998743, 209, 425, 336, 488
-0.998746, 313, 161, 328, 288
-0.998751, 267, 193, 282, 320
-0.998761, 59, 113, 74, 240
-0.998767, 85, 161, 100, 288
-0.998768, 269, 257, 300, 500
-0.99877, 25, 65, 40, 192
-0.998773, 1, 97, 16, 224
-0.998776, 7, 145, 22, 272
-0.998776, 85, 51, 116, 66
-0.998781, 231, 209, 246, 336
-0.998781, 71, 129, 86, 256
-0.998786, 373, 1, 404, 256
-0.9988, 157, 17, 172, 144
-0.998805, 237, 209, 252, 336
-0.998808, 3, 1, 18, 128
-0.998808, 287, 193, 302, 320
-0.998809, 137, 273, 200, 400
-0.998812, 327, 161, 342, 288
-0.998818, 43, 65, 58, 192
-0.998819, 401, 65, 416, 192
-0.998821, 13, 81, 28, 208
-0.998823, 143, 1, 158, 128
-0.998824, 85, 33, 100, 160
-0.998824, 225, 57, 472, 120
-0.99883, 411, 97, 426, 224
-0.998842, 93, 113, 108, 240
-0.998854, 313, 369, 376, 496
-0.998854, 77, 113, 92, 240
-0.998858, 245, 273, 260, 400
-0.99888, 91, 1, 106, 128
-0.99889, 431, 113, 446, 240
-0.998896, 103, 33, 118, 160
-0.998899, 125, 129, 156, 384
-0.998902, 333, 145, 348, 272
-0.99891, 239, 273, 254, 400
-0.99891, 209, 305, 224, 432
-0.998911, 137, 33, 152, 160
-0.998916, 27, 113, 42, 240
-0.998916, 97, 105, 352, 168
-0.998919, 39, 177, 54, 304
-0.998926, 67, 1, 82, 128
-0.998928, 37, 81, 52, 208
-0.998931, 79, 161, 94, 288
-0.998945, 53, 97, 68, 224
-0.998946, 443, 145, 458, 272
-0.998957, 253, 177, 268, 304
-0.998957, 437, 145, 452, 272
-0.998968, 417, 49, 432, 176
-0.998969, 163, 1, 178, 128
-0.998969, 261, 177, 276, 304
-0.99897, 77, 225, 108, 480
-0.99898, 371, 161, 386, 288
-0.99898, 15, 177, 30, 304
-0.998987, 287, 257, 302, 384
-0.998987, 85, 113, 100, 240
-0.998989, 293, 177, 308, 304
-0.998991, 127, 65, 142, 192
-0.998993, 111, 81, 126, 208
-0.998998, 319, 145, 334, 272
-0.999002, 269, 65, 300, 320
-0.999003, 15, 129, 30, 256
-0.999007, 105, 129, 120, 256
-0.999009, 243, 177, 258, 304
-0.999011, 75, 49, 90, 176
-0.999011, 65, 145, 80, 272
-0.999014, 97, 17, 112, 144
-0.999017, 337, 257, 368, 500
-0.999025, 119, 1, 134, 128
-0.999031, 383, 177, 398, 304
-0.999032, 343, 177, 358, 304
-0.99904, 375, 113, 390, 240
-0.999049, 7, 81, 22, 208
-0.999054, 361, 33, 392, 288
-0.999057, 103, 81, 118, 208
-0.999061, 225, 1, 240, 128
-0.999079, 369, 305, 384, 432
-0.999088, 361, 193, 376, 320
-0.999089, 33, 193, 48, 320
-0.999089, 31, 49, 46, 176
-0.99909, 99, 145, 114, 272
-0.999111, 451, 129, 466, 256
-0.999114, 253, 33, 284, 288
-0.999114, 151, 49, 166, 176
-0.999116, 423, 145, 438, 272
-0.99912, 211, 17, 226, 144
-0.999121, 417, 113, 432, 240
-0.999125, 205, 1, 220, 128
-0.999126, 423, 81, 438, 208
-0.999128, 389, 177, 404, 304
-0.99913, 235, 161, 250, 288
-0.999133, 53, 225, 84, 480
-0.999134, 109, 33, 124, 160
-0.999134, 191, 1, 206, 128
-0.99914, 19, 65, 34, 192
-0.99914, 249, 321, 264, 448
-0.999144, 233, 273, 248, 400
-0.99915, 111, 129, 126, 256
-0.99915, 59, 161, 74, 288
-0.999151, 203, 321, 218, 448
-0.999154, 245, 257, 276, 500
-0.999164, 1, 145, 16, 272
-0.999164, 251, 273, 266, 400
-0.999169, 121, 49, 136, 176
-0.99917, 215, 337, 230, 464
-0.999171, 361, 257, 376, 384
-0.999175, 221, 209, 236, 336
-0.999175, 351, 161, 366, 288
-0.999178, 385, 161, 416, 416
-0.999181, 309, 33, 340, 288
-0.999183, 89, 193, 120, 448
-0.999199, 91, 49, 106, 176
-0.999199, 143, 49, 158, 176
-0.999206, 289, 65, 416, 128
-0.999208, 421, 1, 452, 256
-0.999208, 353, 241, 368, 368
-0.999209, 299, 337, 314, 464
-0.999209, 45, 193, 60, 320
-0.999214, 219, 1, 234, 128
-0.999214, 5, 193, 20, 320
-0.999216, 183, 1, 198, 128
-0.999224, 229, 161, 244, 288
-0.999241, 237, 1, 268, 256
-0.999267, 161, 121, 288, 184
-0.99927, 193, 33, 224, 288
-0.999273, 313, 257, 344, 500
-0.999323, 389, 257, 420, 500
-0.999334, 193, 49, 320, 176
-0.999357, 81, 273, 208, 336
-0.999379, 161, 129, 192, 384
-0.999404, 257, 425, 384, 488
-0.999419, 257, 257, 288, 500
-0.999475, 325, 33, 356, 288
-0.999476, 33, 225, 64, 480
-0.999509, 221, 1, 252, 256
-0.999599, 209, 1, 240, 256
-0.999603, 145, 129, 176, 384
-0.999622, 185, 1, 248, 256
-0.999643, 1, 401, 472, 464
-0.999676, 353, 41, 472, 104
-0.999715, 89, 273, 152, 400
-0.999717, 23, 213, 38, 228
-0.999717, 53, 125, 68, 140
-0.999717, 361, 193, 376, 208
-0.999718, 443, 159, 458, 174
-0.999718, 51, 141, 66, 156
-0.999718, 423, 153, 438, 168
-0.999719, 205, 333, 220, 348
-0.999719, 11, 191, 26, 206
-0.999719, 57, 189, 72, 204
-0.999721, 247, 317, 262, 332
-0.999721, 21, 97, 36, 112
-0.999722, 235, 221, 250, 236
-0.999723, 115, 43, 130, 58
-0.999723, 61, 21, 76, 36
-0.999724, 415, 115, 430, 130
-0.999725, 77, 143, 92, 158
-0.999725, 75, 49, 90, 64
-0.999725, 297, 33, 328, 288
-0.999726, 395, 187, 410, 202
-0.999726, 413, 71, 428, 86
-0.999726, 21, 201, 36, 216
-0.999727, 45, 151, 60, 166
-0.999727, 427, 121, 442, 136
-0.999728, 17, 11, 32, 26
-0.999728, 17, 23, 32, 38
-0.999729, 111, 61, 126, 76
-0.999729, 65, 15, 80, 30
-0.99973, 119, 27, 134, 42
-0.99973, 377, 121, 392, 136
-0.99973, 271, 257, 286, 272
-0.99973, 35, 227, 50, 242
-0.99973, 63, 143, 78, 158
-0.999731, 83, 1, 98, 16
-0.999731, 241, 293, 256, 308
-0.999731, 71, 103, 86, 118
-0.999731, 331, 167, 346, 182
-0.999731, 371, 161, 386, 176
-0.999731, 31, 15, 46, 30
-0.999733, 151, 19, 166, 34
-0.999733, 31, 65, 46, 80
-0.999734, 17, 185, 32, 200
-0.999734, 133, 41, 148, 56
-0.999735, 91, 55, 106, 70
-0.999735, 159, 43, 174, 58
-0.999735, 145, 9, 160, 24
-0.999735, 305, 169, 320, 184
-0.999736, 27, 207, 42, 222
-0.999736, 25, 181, 40, 196
-0.999736, 59, 121, 74, 136
-0.999736, 283, 253, 298, 268
-0.999736, 43, 65, 58, 80
-0.999737, 145, 29, 160, 44
-0.999737, 79, 43, 94, 58
-0.999739, 13, 219, 28, 234
-0.99974, 399, 153, 414, 168
-0.99974, 399, 97, 414, 112
-0.99974, 383, 117, 398, 132
-0.99974, 33, 73, 48, 88
-0.99974, 115, 143, 130, 158
-0.999741, 91, 43, 106, 58
-0.999742, 355, 167, 370, 182
-0.999742, 93, 117, 108, 132
-0.999742, 123, 43, 138, 58
-0.999742, 39, 141, 54, 156
-0.999742, 283, 233, 298, 248
-0.999743, 13, 141, 28, 156
-0.999743, 305, 183, 320, 198
-0.999743, 107, 107, 122, 122
-0.999745, 39, 173, 54, 188
-0.999745, 379, 203, 394, 218
-0.999746, 89, 49, 104, 64
-0.999746, 417, 121, 432, 136
-0.999749, 7, 155, 22, 170
-0.999749, 81, 55, 96, 70
-0.999749, 37, 151, 52, 166
-0.99975, 7, 15, 22, 30
-0.999753, 383, 193, 398, 208
-0.999754, 393, 149, 408, 164
-0.999755, 413, 57, 428, 72
-0.999755, 117, 97, 132, 112
-0.999755, 71, 151, 86, 166
-0.999756, 59, 49, 74, 64
-0.999758, 7, 199, 22, 214
-0.999759, 405, 97, 420, 112
-0.999759, 61, 163, 76, 178
-0.99976, 143, 3, 158, 18
-0.99976, 49, 1, 64, 16
-0.99976, 91, 125, 106, 140
-0.99976, 97, 61, 112, 76
-0.999762, 9, 9, 24, 24
-0.999763, 5, 161, 20, 176
-0.999763, 7, 141, 22, 156
-0.999764, 105, 35, 120, 50
-0.999764, 109, 151, 124, 166
-0.999766, 45, 163, 60, 178
-0.999766, 7, 213, 22, 228
-0.999766, 25, 171, 40, 186
-0.999768, 7, 207, 22, 222
-0.999769, 137, 81, 152, 96
-0.999773, 111, 31, 126, 46
-0.999773, 247, 289, 262, 304
-0.999773, 21, 207, 36, 222
-0.999774, 405, 75, 420, 90
-0.999777, 53, 155, 68, 170
-0.99978, 37, 61, 52, 76
-0.999781, 17, 213, 32, 228
-0.999782, 19, 31, 34, 46
-0.999782, 13, 169, 28, 184
-0.999784, 13, 201, 28, 216
-0.999785, 265, 273, 280, 288
-0.999786, 27, 21, 42, 36
-0.999788, 99, 39, 114, 54
-0.99979, 117, 37, 132, 52
-0.99979, 131, 35, 146, 50
-0.999791, 37, 157, 52, 172
-0.999792, 137, 1, 152, 16
-0.999794, 9, 175, 24, 190
-0.999794, 31, 163, 46, 178
-0.999796, 361, 165, 376, 180
-0.999798, 33, 181, 48, 196
-0.999798, 53, 53, 68, 68
-0.999798, 385, 133, 400, 148
-0.999799, 349, 1, 380, 256
-0.999799, 105, 55, 120, 70
-0.999801, 101, 49, 116, 64
-0.999802, 125, 35, 140, 50
-0.999816, 43, 59, 58, 74
-0.999816, 401, 257, 432, 500
-0.99982, 37, 67, 52, 82
-0.999822, 109, 45, 124, 60
-0.999823, 287, 247, 302, 262
-0.999828, 13, 207, 28, 222
-0.999836, 437, 1, 468, 256
-0.999841, 325, 257, 356, 500
-0.999847, 33, 175, 48, 190
-0.999986, 129, 425, 384, 488
-1.00002, 257, 105, 384, 168
-1.00003, 413, 225, 444, 480
-1.00007, 181, 97, 212, 352
-1.00013, 1, 433, 256, 496
-1.00016, 177, 1, 208, 256
-1.00021, 225, 425, 472, 488
-1.00029, 337, 17, 464, 80
-1.00032, 241, 57, 368, 120
-1.00037, 193, 65, 320, 128
-1.00053, 161, 97, 224, 224
-1.00054, 161, 97, 224, 352
-1.00066, 285, 1, 316, 256
-1.00147, 1, 425, 472, 488
-1.00148, 65, 257, 128, 384
-1.00153, 273, 17, 400, 80
-1.00178, 193, 89, 320, 152
-1.0023, 241, 81, 368, 144
-1.00253, 353, 1, 416, 128
-1.00449, 265, 1, 328, 128
-1.00518, 257, 65, 384, 192
-1.00906, 289, 65, 352, 192
-1.01012, 249, 81, 312, 208
-1.01271, 329, 1, 392, 128
-1.01339, 313, 65, 376, 192
-1.01364, 289, 1, 352, 128
