1947
-0.313612, 1, 1, 500, 375
-0.314113, 1, 97, 500, 352
-0.384515, 1, 1, 500, 256
-0.406476, 65, 1, 320, 375
-0.465229, 33, 97, 288, 352
-0.467902, 161, 1, 416, 375
-0.51812, 193, 129, 448, 375
-0.658524, 257, 1, 500, 375
-0.760398, 161, 33, 416, 288
-0.767219, 257, 1, 500, 256
-0.773545, 1, 1, 256, 256
-0.841364, 49, 65, 176, 320
-0.847593, 113, 65, 240, 320
-0.85349, 1, 97, 128, 352
-0.85696, 113, 1, 240, 375
-0.859901, 17, 1, 144, 375
-0.861893, 257, 129, 384, 375
-0.866157, 1, 209, 500, 336
-0.869661, 209, 129, 336, 375
-0.871809, 1, 97, 500, 224
-0.876003, 161, 1, 288, 375
-0.878142, 273, 1, 400, 375
-0.879453, 65, 1, 192, 375
-0.882535, 1, 145, 500, 272
-0.883909, 193, 33, 320, 288
-0.886921, 209, 1, 336, 375
-0.888192, 273, 33, 400, 288
-0.892643, 97, 81, 352, 208
-0.893623, 1, 225, 256, 352
-0.898166, 305, 129, 432, 375
-0.898644, 1, 49, 500, 176
-0.901055, 97, 177, 352, 304
-0.902864, 1, 1, 128, 256
-0.904593, 321, 1, 448, 256
-0.905625, 193, 145, 448, 272
-0.905842, 353, 97, 480, 352
-0.907566, 369, 1, 496, 256
-0.910758, 1, 81, 256, 208
-0.910932, 161, 129, 288, 375
-0.912766, 321, 1, 448, 375
-0.919097, 17, 97, 144, 224
-0.920697, 65, 129, 320, 256
-0.923577, 97, 225, 352, 352
-0.925713, 193, 209, 448, 336
-0.926103, 193, 97, 448, 224
-0.929755, 369, 1, 496, 375
-0.930763, 257, 129, 384, 256
-0.930801, 1, 177, 256, 304
-0.931436, 129, 81, 256, 208
-0.934798, 49, 89, 112, 152
-0.936444, 41, 81, 104, 208
-0.937769, 113, 225, 240, 352
-0.939278, 33, 33, 288, 160
-0.940948, 33, 209, 160, 336
-0.942677, 265, 113, 328, 240
-0.942834, 129, 177, 256, 304
-0.943288, 129, 225, 192, 352
-0.943359, 193, 161, 320, 288
-0.944239, 1, 81, 64, 208
-0.944528, 209, 97, 336, 224
-0.944689, 65, 81, 192, 208
-0.945309, 1, 49, 128, 176
-0.947199, 17, 105, 80, 168
-0.9479, 65, 97, 128, 224
-0.949264, 81, 161, 208, 288
-0.949409, 337, 225, 464, 352
-0.950776, 169, 193, 232, 320
-0.951704, 89, 193, 152, 320
-0.952418, 113, 161, 176, 288
-0.954267, 209, 209, 336, 336
-0.954804, 369, 241, 432, 368
-0.954837, 177, 81, 240, 208
-0.955134, 193, 49, 448, 176
-0.955628, 337, 177, 464, 304
-0.956136, 193, 161, 256, 288
-0.95658, 217, 209, 280, 336
-0.956826, 433, 289, 496, 352
-0.956836, 345, 177, 408, 304
-0.958299, 89, 145, 152, 272
-0.958868, 89, 81, 152, 208
-0.958996, 265, 129, 328, 192
-0.959104, 169, 241, 232, 368
-0.959759, 65, 33, 192, 160
-0.959948, 121, 81, 184, 208
-0.959996, 33, 145, 160, 272
-0.960343, 289, 225, 416, 352
-0.960348, 5, 65, 36, 192
-0.960531, 393, 241, 456, 368
-0.960615, 1, 81, 64, 144
-0.960793, 225, 161, 288, 288
-0.961084, 313, 129, 376, 256
-0.961131, 17, 33, 80, 160
-0.961288, 289, 177, 416, 304
-0.961411, 337, 225, 400, 352
-0.961666, 461, 81, 492, 144
-0.961884, 369, 249, 432, 312
-0.962043, 209, 49, 336, 176
-0.96249, 169, 233, 232, 296
-0.962604, 145, 129, 272, 256
-0.963016, 89, 105, 152, 168
-0.963034, 41, 113, 104, 176
-0.963084, 1, 89, 128, 152
-0.9633, 145, 65, 208, 192
-0.963461, 185, 209, 248, 272
-0.964134, 169, 297, 232, 360
-0.964593, 1, 129, 64, 192
-0.96491, 369, 193, 432, 320
-0.96509, 257, 161, 320, 288
-0.965314, 17, 97, 48, 160
-0.965498, 433, 81, 496, 208
-0.965595, 161, 241, 288, 368
-0.965656, 25, 225, 88, 352
-0.965743, 17, 113, 144, 176
-0.966029, 1, 1, 500, 128
-0.966278, 209, 217, 272, 280
-0.966286, 273, 65, 336, 192
-0.966346, 121, 241, 184, 304
-0.966393, 69, 81, 100, 208
-0.966705, 145, 297, 208, 360
-0.966985, 81, 209, 144, 272
-0.967161, 57, 65, 120, 320
-0.967304, 169, 81, 232, 144
-0.967336, 1, 129, 64, 256
-0.967474, 17, 81, 48, 208
-0.967515, 81, 89, 112, 152
-0.967544, 145, 161, 208, 288
-0.967769, 257, 81, 384, 208
-0.968212, 345, 225, 408, 288
-0.968404, 217, 177, 280, 240
-0.968571, 393, 257, 456, 320
-0.968575, 225, 65, 288, 192
-0.968584, 65, 129, 128, 192
-0.968591, 425, 241, 488, 368
-0.968719, 289, 129, 352, 256
-0.96896, 81, 81, 112, 208
-0.969042, 433, 81, 496, 144
-0.96906, 337, 129, 464, 256
-0.969064, 57, 209, 120, 336
-0.969111, 193, 209, 256, 336
-0.969731, 113, 241, 240, 304
-0.970175, 273, 105, 336, 168
-0.970297, 61, 81, 92, 144
-0.970306, 153, 209, 216, 272
-0.970511, 169, 145, 232, 272
-0.970652, 321, 161, 384, 224
-0.970703, 169, 169, 232, 232
-0.970756, 313, 137, 376, 200
-0.970795, 49, 89, 176, 152
-0.970901, 25, 97, 88, 352
-0.971126, 281, 113, 312, 176
-0.971128, 233, 121, 296, 184
-0.971441, 257, 145, 384, 208
-0.971797, 5, 81, 36, 144
-0.971836, 209, 113, 336, 176
-0.971868, 129, 81, 256, 144
-0.971878, 209, 113, 272, 240
-0.972106, 177, 65, 240, 320
-0.972268, 105, 201, 168, 264
-0.972289, 57, 81, 88, 208
-0.972334, 185, 137, 248, 200
-0.972467, 129, 297, 256, 360
-0.972487, 113, 33, 240, 160
-0.972585, 297, 65, 360, 192
-0.973051, 249, 193, 312, 256
-0.973058, 345, 265, 408, 328
-0.973344, 265, 153, 328, 216
-0.973518, 29, 97, 60, 224
-0.973669, 193, 161, 320, 224
-0.973697, 433, 105, 496, 168
-0.973798, 65, 49, 128, 176
-0.973968, 169, 33, 232, 160
-0.973972, 145, 81, 208, 144
-0.974484, 97, 81, 160, 144
-0.974537, 417, 193, 480, 320
-0.974589, 45, 97, 76, 160
-0.974602, 145, 65, 208, 320
-0.974652, 369, 225, 432, 288
-0.974841, 129, 177, 192, 240
-0.974944, 121, 97, 184, 352
-0.974981, 17, 57, 80, 120
-0.975005, 121, 129, 184, 192
-0.975029, 417, 265, 480, 328
-0.975096, 121, 145, 152, 272
-0.975112, 281, 97, 312, 224
-0.975135, 33, 233, 96, 296
-0.97529, 33, 225, 160, 288
-0.975625, 461, 65, 492, 192
-0.975876, 89, 241, 152, 368
-0.975893, 313, 225, 376, 352
-0.975958, 1, 241, 64, 368
-0.975993, 89, 97, 152, 352
-0.976065, 29, 105, 60, 168
-0.976108, 337, 185, 400, 248
-0.97611, 41, 33, 104, 160
-0.976359, 337, 257, 464, 320
-0.976385, 249, 209, 312, 336
-0.976514, 25, 81, 88, 144
-0.976608, 225, 145, 288, 208
-0.976726, 81, 201, 208, 264
-0.97688, 129, 209, 192, 272
-0.977088, 133, 225, 164, 352
-0.9771, 425, 33, 488, 288
-0.977217, 193, 201, 320, 264
-0.977404, 185, 113, 248, 176
-0.977425, 369, 193, 432, 256
-0.97748, 5, 121, 36, 184
-0.977553, 329, 129, 392, 375
-0.977583, 193, 185, 256, 248
-0.977596, 129, 233, 160, 296
-0.977598, 193, 313, 256, 375
-0.977787, 129, 209, 256, 272
-0.977877, 273, 185, 400, 248
-0.977989, 89, 233, 152, 296
-0.978159, 213, 161, 244, 288
-0.978175, 65, 121, 96, 184
-0.978285, 193, 281, 256, 344
-0.978286, 1, 65, 64, 320
-0.978325, 105, 177, 168, 240
-0.978328, 233, 113, 296, 240
-0.978462, 213, 209, 244, 272
-0.978506, 21, 129, 52, 192
-0.978578, 273, 97, 336, 352
-0.978651, 81, 113, 208, 176
-0.978658, 289, 137, 352, 200
-0.978661, 277, 137, 308, 200
-0.978724, 153, 57, 216, 120
-0.978792, 297, 177, 360, 304
-0.978908, 241, 33, 304, 288
-0.978915, 181, 297, 212, 360
-0.978931, 257, 113, 384, 176
-0.978947, 201, 297, 232, 360
-0.97899, 89, 33, 152, 160
-0.979004, 25, 129, 88, 256
-0.97911, 177, 225, 208, 352
-0.979132, 129, 273, 192, 336
-0.979208, 365, 177, 396, 304
-0.979331, 57, 217, 120, 280
-0.979342, 89, 129, 152, 192
-0.97935, 193, 209, 224, 336
-0.979484, 1, 113, 32, 240
-0.979639, 393, 177, 456, 304
-0.979718, 129, 185, 256, 248
-0.97974, 57, 65, 120, 128
-0.97976, 273, 185, 336, 248
-0.979809, 353, 225, 480, 288
-0.979821, 417, 225, 480, 288
-0.979965, 193, 225, 320, 288
-0.979973, 321, 241, 384, 304
-0.98008, 369, 129, 432, 375
-0.98015, 65, 145, 128, 272
-0.980163, 209, 129, 272, 375
-0.980223, 45, 81, 76, 208
-0.980245, 305, 129, 368, 375
-0.98027, 393, 289, 456, 352
-0.980279, 137, 313, 168, 375
-0.980307, 329, 1, 392, 256
-0.980421, 121, 313, 184, 375
-0.980532, 193, 225, 224, 288
-0.980621, 297, 113, 360, 176
-0.980706, 129, 1, 384, 128
-0.980755, 105, 193, 136, 320
-0.980916, 129, 105, 256, 168
-0.980922, 377, 257, 408, 320
-0.980988, 109, 201, 140, 264
-0.981015, 129, 145, 256, 208
-0.98107, 297, 225, 360, 288
-0.981185, 321, 81, 448, 208
-0.981243, 461, 105, 492, 168
-0.981276, 421, 265, 452, 328
-0.981413, 293, 121, 324, 184
-0.981485, 33, 1, 96, 375
-0.981534, 89, 297, 152, 360
-0.981643, 249, 65, 312, 192
-0.981655, 177, 137, 304, 200
-0.981765, 209, 81, 240, 208
-0.981803, 105, 153, 168, 216
-0.981809, 1, 281, 64, 344
-0.981821, 153, 225, 184, 352
-0.981859, 289, 233, 416, 296
-0.981874, 169, 273, 232, 336
-0.981876, 369, 145, 432, 272
-0.981894, 337, 161, 464, 224
-0.981933, 265, 1, 328, 256
-0.981934, 145, 241, 208, 304
-0.981954, 209, 89, 336, 152
-0.981963, 433, 129, 496, 375
-0.982035, 441, 273, 472, 336
-0.982076, 213, 137, 244, 200
-0.982258, 49, 65, 176, 128
-0.98231, 293, 113, 324, 240
-0.982333, 69, 33, 100, 160
-0.982413, 337, 201, 464, 264
-0.982471, 381, 225, 412, 352
-0.982512, 221, 209, 252, 336
-0.982519, 353, 281, 480, 344
-0.982557, 165, 305, 196, 368
-0.982576, 401, 1, 464, 256
-0.982583, 25, 177, 88, 304
-0.982702, 257, 217, 320, 280
-0.982752, 361, 153, 424, 216
-0.98276, 249, 129, 312, 375
-0.982796, 369, 49, 496, 176
-0.982832, 129, 153, 192, 216
-0.982861, 133, 161, 164, 288
-0.982896, 437, 241, 468, 368
-0.982947, 209, 185, 240, 248
-0.982963, 193, 281, 320, 344
-0.982969, 261, 161, 292, 288
-0.982978, 93, 105, 124, 168
-0.983027, 433, 313, 496, 375
-0.983082, 193, 257, 320, 320
-0.983143, 269, 161, 300, 224
-0.983248, 353, 145, 384, 272
-0.98341, 225, 97, 288, 160
-0.983467, 273, 209, 336, 336
-0.983537, 121, 97, 184, 160
-0.983605, 417, 193, 480, 256
-0.983646, 201, 273, 232, 336
-0.983763, 169, 1, 232, 375
-0.983798, 93, 81, 124, 208
-0.98381, 77, 121, 108, 184
-0.983882, 117, 225, 148, 352
-0.984014, 409, 257, 440, 320
-0.984211, 1, 65, 128, 128
-0.984253, 273, 145, 304, 272
-0.984349, 269, 105, 300, 168
-0.984397, 25, 137, 88, 200
-0.984413, 125, 209, 156, 272
-0.984444, 397, 241, 428, 368
-0.984505, 125, 129, 156, 192
-0.984561, 17, 249, 144, 312
-0.984595, 177, 65, 208, 192
-0.98461, 121, 161, 152, 224
-0.984635, 81, 177, 208, 240
-0.984668, 377, 233, 408, 296
-0.984701, 337, 129, 400, 256
-0.984727, 161, 17, 288, 144
-0.984733, 17, 33, 48, 160
-0.984741, 305, 129, 336, 256
-0.984773, 153, 65, 184, 192
-0.984787, 177, 57, 240, 120
-0.984811, 321, 177, 384, 304
-0.984824, 17, 129, 48, 256
-0.984902, 389, 193, 420, 256
-0.984908, 369, 81, 496, 144
-0.984938, 177, 209, 208, 272
-0.984981, 145, 17, 208, 144
-0.985007, 33, 201, 160, 264
-0.985009, 409, 89, 472, 152
-0.985016, 361, 97, 424, 224
-0.985089, 417, 209, 448, 336
-0.985172, 321, 81, 384, 208
-0.985196, 221, 177, 252, 240
-0.985198, 393, 233, 456, 296
-0.985247, 209, 241, 272, 304
-0.985275, 17, 257, 80, 320
-0.985335, 65, 1, 128, 375
-0.985358, 165, 225, 196, 352
-0.985402, 129, 265, 256, 328
-0.985433, 409, 97, 472, 224
-0.985467, 65, 129, 96, 256
-0.985505, 337, 129, 368, 192
-0.985507, 81, 281, 208, 344
-0.985522, 233, 217, 296, 280
-0.985528, 33, 137, 160, 200
-0.985544, 249, 97, 312, 160
-0.98555, 353, 1, 416, 256
-0.985569, 349, 153, 380, 216
-0.985578, 137, 81, 168, 208
-0.985582, 389, 249, 420, 312
-0.985601, 449, 97, 480, 160
-0.985614, 269, 97, 300, 224
-0.98564, 389, 177, 420, 304
-0.985711, 225, 145, 256, 272
-0.985756, 365, 241, 396, 304
-0.985769, 81, 161, 144, 224
-0.985797, 265, 281, 328, 344
-0.985814, 361, 193, 392, 256
-0.986, 465, 289, 496, 352
-0.986008, 265, 313, 328, 375
-0.986029, 297, 201, 360, 264
-0.986058, 129, 1, 192, 375
-0.986066, 81, 185, 144, 248
-0.986067, 33, 89, 288, 152
-0.986108, 205, 89, 236, 152
-0.986252, 425, 33, 488, 160
-0.986281, 341, 129, 372, 256
-0.986307, 337, 137, 464, 200
-0.986317, 189, 201, 220, 264
-0.986367, 353, 209, 384, 336
-0.98637, 109, 145, 140, 272
-0.986382, 129, 57, 192, 120
-0.986467, 201, 161, 232, 288
-0.986493, 257, 177, 288, 240
-0.986548, 53, 121, 84, 184
-0.986556, 441, 297, 472, 360
-0.986589, 369, 241, 400, 368
-0.986675, 241, 209, 368, 272
-0.986811, 297, 249, 360, 312
-0.986892, 81, 313, 208, 375
-0.986911, 81, 33, 112, 160
-0.986939, 397, 217, 428, 280
-0.986966, 289, 257, 416, 320
-0.987022, 213, 113, 244, 176
-0.987035, 1, 17, 32, 144
-0.9871, 49, 89, 112, 120
-0.987108, 217, 33, 280, 288
-0.987158, 289, 161, 352, 224
-0.987166, 401, 129, 464, 375
-0.987184, 97, 209, 128, 272
-0.987195, 305, 33, 368, 288
-0.987247, 225, 313, 288, 375
-0.987248, 281, 1, 344, 375
-0.987272, 153, 305, 184, 368
-0.987303, 1, 1, 128, 128
-0.987303, 89, 257, 152, 320
-0.987316, 33, 129, 64, 192
-0.987328, 1, 305, 64, 368
-0.987344, 89, 1, 152, 375
-0.987475, 85, 129, 116, 256
-0.987483, 125, 97, 156, 224
-0.987496, 1, 1, 64, 375
-0.987508, 209, 313, 336, 375
-0.987514, 209, 17, 272, 144
-0.987547, 193, 161, 256, 224
-0.98756, 369, 273, 432, 336
-0.9876, 1, 273, 128, 336
-0.987622, 289, 209, 416, 272
-0.987661, 193, 65, 320, 128
-0.987692, 129, 57, 256, 120
-0.987708, 33, 161, 160, 224
-0.987764, 193, 89, 256, 152
-0.987802, 185, 57, 216, 120
-0.987915, 17, 113, 80, 144
-0.98795, 113, 129, 144, 192
-0.987957, 365, 273, 396, 336
-0.987971, 401, 153, 464, 216
-0.988024, 113, 97, 144, 224
-0.988033, 189, 65, 220, 192
-0.988058, 257, 33, 384, 160
-0.988072, 317, 129, 348, 256
-0.988113, 173, 57, 204, 120
-0.988161, 449, 209, 480, 336
-0.988193, 353, 129, 416, 192
-0.988226, 193, 81, 224, 144
-0.988228, 249, 249, 312, 312
-0.988234, 37, 73, 68, 136
-0.988267, 29, 225, 60, 352
-0.988326, 241, 169, 304, 232
-0.988346, 57, 101, 120, 132
-0.988385, 289, 281, 352, 344
-0.988426, 193, 1, 256, 375
-0.98844, 145, 113, 208, 240
-0.988444, 225, 1, 288, 375
-0.98851, 33, 233, 64, 296
-0.988546, 409, 313, 472, 375
-0.988558, 273, 281, 400, 344
-0.988561, 81, 145, 208, 208
-0.988564, 49, 193, 112, 256
-0.9886, 273, 89, 400, 152
-0.988606, 201, 65, 264, 192
-0.988613, 353, 241, 384, 304
-0.98863, 113, 265, 144, 328
-0.98867, 17, 73, 48, 136
-0.988751, 297, 65, 328, 192
-0.988781, 121, 289, 152, 352
-0.988785, 177, 309, 240, 340
-0.988796, 133, 169, 164, 232
-0.988849, 97, 177, 352, 240
-0.988922, 1, 57, 32, 120
-0.988932, 209, 65, 272, 128
-0.98896, 321, 265, 384, 328
-0.988963, 213, 313, 244, 375
-0.988969, 1, 233, 256, 296
-0.988974, 33, 125, 96, 156
-0.98898, 93, 193, 124, 320
-0.988985, 17, 89, 80, 120
-0.988991, 181, 233, 212, 296
-0.989011, 193, 169, 448, 232
-0.98904, 321, 113, 384, 176
-0.989084, 97, 137, 352, 200
-0.989142, 205, 241, 236, 368
-0.98915, 453, 289, 484, 352
-0.989155, 165, 201, 196, 264
-0.989181, 401, 193, 432, 320
-0.989186, 369, 1, 496, 128
-0.989217, 273, 241, 336, 304
-0.989268, 29, 49, 60, 176
-0.989312, 89, 57, 152, 120
-0.989324, 113, 225, 144, 288
-0.98933, 45, 33, 76, 160
-0.98938, 433, 93, 496, 124
-0.98938, 449, 97, 480, 224
-0.989399, 41, 113, 104, 144
-0.989447, 165, 49, 196, 176
-0.98945, 281, 49, 312, 176
-0.989481, 461, 113, 492, 240
-0.989522, 297, 89, 360, 152
-0.989548, 1, 133, 64, 164
-0.989557, 281, 89, 312, 152
-0.98959, 417, 145, 480, 272
-0.98961, 321, 1, 384, 375
-0.98963, 245, 193, 276, 320
-0.98964, 353, 305, 480, 368
-0.989663, 185, 341, 248, 372
-0.989708, 369, 257, 432, 288
-0.989789, 393, 193, 456, 256
-0.98982, 433, 301, 496, 332
-0.989832, 137, 289, 168, 352
-0.989855, 89, 1, 152, 256
-0.989884, 329, 113, 360, 240
-0.989888, 85, 217, 116, 280
-0.989896, 185, 273, 216, 336
-0.989898, 17, 101, 80, 132
-0.989903, 241, 217, 272, 280
-0.989915, 17, 257, 48, 320
-0.989988, 161, 209, 416, 272
-0.990019, 17, 241, 48, 368
-0.990025, 189, 161, 220, 288
-0.990044, 145, 241, 176, 304
-0.990054, 409, 65, 472, 128
-0.990057, 169, 177, 200, 304
-0.990068, 169, 241, 232, 272
-0.99009, 89, 117, 152, 148
-0.990099, 177, 81, 208, 144
-0.990121, 257, 1, 320, 375
-0.990126, 97, 113, 352, 176
-0.990128, 5, 281, 36, 344
-0.990174, 309, 145, 340, 208
-0.990179, 425, 289, 488, 320
-0.990202, 277, 185, 308, 248
-0.990242, 461, 17, 492, 144
-0.990249, 337, 245, 400, 276
-0.99025, 121, 241, 184, 272
-0.990261, 17, 77, 80, 108
-0.990277, 249, 113, 312, 144
-0.990285, 65, 201, 320, 264
-0.990286, 137, 305, 200, 336
-0.990305, 25, 1, 88, 256
-0.990379, 193, 145, 448, 208
-0.990383, 273, 113, 336, 144
-0.990403, 261, 201, 292, 264
-0.990406, 121, 185, 152, 248
-0.990464, 57, 129, 120, 160
-0.990471, 81, 217, 144, 248
-0.990481, 241, 233, 368, 296
-0.9905, 61, 209, 92, 336
-0.990511, 409, 201, 440, 264
-0.990523, 137, 145, 168, 208
-0.990583, 81, 209, 112, 336
-0.990614, 145, 325, 208, 356
-0.990635, 129, 341, 192, 372
-0.990658, 257, 125, 320, 156
-0.99075, 153, 341, 216, 372
-0.990767, 89, 105, 152, 136
-0.99077, 225, 165, 288, 196
-0.990772, 377, 193, 408, 256
-0.990773, 65, 225, 96, 288
-0.990818, 105, 105, 136, 168
-0.990824, 289, 313, 352, 375
-0.990824, 197, 57, 228, 120
-0.990827, 1, 177, 64, 304
-0.990839, 289, 209, 320, 336
-0.990844, 41, 229, 104, 260
-0.990852, 209, 217, 272, 248
-0.990921, 377, 177, 408, 304
-0.990922, 177, 205, 240, 236
-0.990924, 445, 209, 476, 272
-0.990934, 425, 289, 456, 352
-0.990967, 197, 169, 228, 232
-0.991025, 361, 169, 392, 232
-0.991053, 153, 145, 216, 208
-0.991061, 161, 57, 192, 120
-0.991074, 121, 33, 184, 160
-0.991075, 217, 281, 280, 344
-0.991084, 437, 193, 468, 320
-0.991085, 369, 197, 432, 228
-0.991093, 177, 297, 240, 328
-0.9911, 421, 241, 452, 304
-0.991103, 289, 125, 352, 156
-0.991113, 225, 153, 288, 184
-0.991113, 337, 113, 464, 176
-0.991114, 217, 185, 280, 216
-0.991127, 273, 145, 336, 176
-0.991167, 89, 93, 152, 124
-0.991182, 101, 81, 132, 144
-0.991204, 65, 113, 128, 144
-0.991221, 369, 229, 432, 260
-0.991234, 337, 257, 400, 288
-0.991243, 161, 241, 192, 304
-0.991261, 177, 89, 240, 120
-0.991291, 185, 229, 248, 260
-0.991302, 169, 321, 232, 352
-0.991322, 153, 81, 216, 112
-0.991348, 121, 193, 184, 224
-0.991351, 433, 113, 496, 144
-0.991362, 329, 193, 392, 224
-0.991428, 17, 93, 144, 124
-0.991442, 393, 293, 456, 324
-0.99145, 185, 129, 248, 160
-0.991452, 145, 105, 208, 168
-0.991465, 321, 173, 384, 204
-0.991473, 185, 217, 248, 248
-0.991476, 193, 113, 448, 176
-0.991481, 89, 129, 152, 160
-0.991494, 337, 221, 400, 252
-0.991495, 97, 229, 160, 260
-0.991497, 369, 209, 432, 240
-0.991518, 129, 293, 192, 324
-0.991524, 89, 81, 152, 112
-0.991534, 209, 197, 272, 228
-0.991536, 97, 205, 160, 236
-0.991537, 345, 1, 408, 375
-0.991537, 153, 81, 184, 144
-0.99154, 185, 173, 248, 204
-0.991541, 145, 229, 208, 260
-0.991543, 177, 193, 240, 224
-0.991587, 393, 265, 456, 296
-0.991596, 297, 233, 360, 264
-0.991604, 113, 137, 176, 168
-0.991617, 213, 281, 244, 344
-0.991624, 1, 249, 500, 312
-0.991633, 161, 241, 416, 304
-0.991638, 149, 161, 180, 288
-0.991661, 417, 197, 480, 228
-0.991662, 461, 89, 492, 120
-0.991673, 365, 217, 396, 280
-0.991674, 469, 17, 500, 80
-0.991682, 337, 233, 400, 264
-0.991684, 409, 277, 472, 308
-0.991684, 287, 105, 302, 168
-0.9917, 265, 157, 328, 188
-0.99171, 313, 149, 376, 180
-0.991713, 257, 169, 320, 200
-0.991714, 361, 245, 424, 276
-0.991719, 225, 109, 288, 140
-0.991719, 321, 145, 352, 208
-0.991739, 273, 81, 336, 144
-0.991753, 145, 249, 208, 280
-0.991757, 369, 1, 432, 375
-0.991767, 309, 65, 340, 192
-0.991773, 209, 329, 272, 360
-0.991778, 121, 149, 184, 180
-0.991872, 17, 145, 80, 176
-0.991878, 113, 309, 176, 340
-0.99189, 281, 113, 312, 144
-0.991891, 225, 141, 288, 172
-0.99191, 465, 209, 496, 272
-0.991917, 1, 201, 500, 264
-0.991929, 89, 129, 120, 192
-0.991963, 337, 209, 400, 240
-0.99197, 321, 161, 384, 192
-0.991978, 125, 105, 156, 168
-0.991983, 41, 225, 72, 352
-0.991989, 277, 225, 308, 352
-0.991992, 393, 201, 456, 232
-0.991994, 177, 101, 240, 132
-0.991994, 185, 141, 248, 172
-0.992013, 61, 89, 92, 120
-0.992015, 273, 193, 336, 224
-0.992017, 353, 157, 416, 188
-0.992018, 257, 181, 320, 212
-0.992027, 361, 185, 424, 216
-0.992029, 57, 33, 88, 160
-0.992031, 209, 245, 272, 276
-0.992039, 249, 197, 312, 228
-0.992055, 217, 241, 248, 304
-0.992062, 105, 161, 168, 192
-0.992065, 241, 213, 304, 244
-0.992075, 121, 229, 184, 260
-0.992084, 105, 341, 168, 372
-0.992097, 161, 181, 224, 212
-0.992101, 361, 169, 424, 200
-0.992119, 185, 153, 248, 184
-0.99212, 129, 85, 192, 116
-0.992121, 185, 117, 248, 148
-0.992135, 225, 345, 288, 375
-0.992137, 21, 105, 52, 136
-0.992146, 25, 241, 88, 272
-0.992146, 257, 265, 500, 328
-0.992165, 161, 69, 224, 100
-0.992169, 361, 269, 424, 300
-0.992171, 313, 137, 376, 168
-0.992173, 49, 161, 80, 288
-0.992184, 401, 213, 464, 244
-0.992191, 97, 241, 160, 272
-0.992194, 1, 89, 500, 152
-0.992198, 81, 149, 144, 180
-0.992201, 121, 125, 184, 156
-0.992211, 5, 85, 36, 116
-0.992226, 1, 113, 256, 176
-0.992233, 65, 229, 128, 260
-0.992238, 9, 233, 72, 296
-0.992265, 409, 101, 472, 132
-0.992267, 209, 233, 272, 264
-0.992269, 17, 121, 144, 152
-0.992274, 209, 257, 272, 288
-0.992275, 121, 325, 184, 356
-0.992279, 465, 81, 480, 144
-0.99228, 45, 109, 76, 140
-0.992281, 209, 289, 272, 320
-0.992284, 9, 209, 72, 272
-0.992295, 121, 181, 184, 212
-0.992299, 471, 81, 486, 144
-0.992312, 1, 305, 32, 368
-0.992333, 417, 345, 480, 375
-0.992342, 337, 273, 400, 304
-0.992346, 1, 309, 64, 340
-0.992374, 209, 301, 272, 332
-0.992383, 89, 253, 152, 284
-0.992392, 165, 305, 196, 336
-0.9924, 153, 209, 216, 240
-0.992406, 77, 89, 108, 120
-0.992412, 409, 305, 472, 336
-0.992415, 293, 97, 324, 160
-0.992416, 129, 205, 192, 236
-0.992418, 41, 97, 72, 128
-0.992427, 1, 289, 256, 352
-0.992458, 9, 277, 72, 308
-0.992462, 433, 277, 496, 308
-0.992464, 169, 253, 232, 284
-0.992482, 89, 293, 152, 324
-0.992493, 201, 305, 232, 336
-0.99254, 257, 201, 500, 264
-0.992567, 65, 125, 96, 156
-0.992571, 241, 257, 368, 320
-0.992572, 1, 125, 32, 156
-0.992597, 129, 81, 384, 144
-0.992623, 197, 337, 228, 368
-0.992641, 125, 233, 156, 264
-0.992649, 1, 257, 256, 320
-0.992665, 153, 301, 184, 332
-0.992672, 389, 169, 420, 232
-0.992693, 461, 293, 492, 324
-0.992694, 141, 321, 172, 352
-0.992716, 461, 113, 492, 144
-0.992734, 469, 313, 500, 375
-0.992739, 177, 297, 208, 328
-0.992739, 33, 129, 64, 160
-0.992742, 145, 345, 176, 375
-0.992744, 193, 229, 224, 260
-0.992751, 281, 129, 312, 160
-0.992769, 1, 297, 128, 360
-0.992771, 321, 65, 352, 192
-0.992778, 373, 261, 404, 292
-0.99278, 201, 181, 232, 212
-0.992781, 45, 233, 76, 296
-0.992781, 209, 213, 240, 244
-0.992788, 93, 89, 108, 152
-0.992801, 341, 81, 372, 208
-0.992814, 177, 309, 208, 340
-0.992823, 25, 93, 56, 124
-0.992826, 137, 309, 168, 340
-0.992826, 21, 133, 52, 164
-0.992828, 53, 121, 84, 152
-0.992833, 193, 41, 320, 104
-0.992834, 409, 113, 472, 176
-0.992837, 165, 81, 196, 144
-0.992843, 409, 1, 472, 375
-0.992843, 21, 117, 52, 148
-0.992849, 113, 197, 144, 228
-0.992858, 189, 305, 220, 336
-0.992861, 285, 233, 316, 296
-0.992862, 85, 117, 116, 148
-0.992869, 209, 337, 240, 368
-0.99288, 121, 137, 152, 168
-0.992893, 77, 133, 108, 164
-0.992896, 341, 233, 372, 296
-0.992911, 1, 153, 500, 216
-0.992926, 293, 129, 324, 160
-0.99293, 389, 257, 420, 288
-0.992932, 441, 281, 472, 312
-0.992935, 377, 161, 408, 224
-0.99294, 317, 121, 348, 184
-0.992945, 81, 101, 112, 132
-0.992952, 461, 101, 492, 132
-0.992952, 1, 105, 128, 136
-0.992954, 409, 201, 440, 232
-0.992961, 269, 125, 300, 156
-0.992974, 165, 317, 196, 348
-0.993004, 1, 177, 500, 240
-0.993006, 9, 137, 40, 168
-0.99301, 85, 221, 116, 252
-0.993012, 385, 213, 416, 244
-0.993015, 201, 285, 232, 316
-0.993023, 433, 161, 496, 224
-0.993025, 229, 217, 260, 280
-0.993028, 101, 113, 132, 144
-0.993036, 9, 97, 40, 128
-0.993042, 213, 173, 244, 204
-0.993047, 441, 101, 472, 132
-0.993047, 185, 337, 216, 368
-0.993057, 265, 181, 296, 212
-0.993064, 193, 241, 224, 272
-0.993073, 213, 133, 244, 164
-0.993079, 125, 313, 156, 375
-0.993081, 213, 153, 244, 184
-0.993081, 177, 321, 208, 352
-0.993081, 33, 117, 64, 148
-0.993081, 273, 157, 304, 188
-0.993085, 153, 317, 184, 348
-0.993091, 433, 129, 496, 192
-0.993092, 105, 209, 136, 240
-0.9931, 25, 81, 56, 112
-0.993102, 161, 345, 192, 375
-0.993108, 133, 297, 164, 328
-0.99311, 73, 225, 104, 256
-0.993115, 141, 333, 172, 364
-0.993117, 429, 269, 460, 300
-0.993118, 449, 345, 480, 375
-0.993119, 369, 249, 400, 280
-0.99312, 441, 301, 472, 332
-0.993122, 393, 193, 424, 224
-0.993125, 37, 237, 68, 268
-0.993127, 361, 261, 392, 292
-0.993127, 105, 49, 136, 176
-0.993129, 201, 317, 232, 348
-0.993137, 69, 77, 100, 108
-0.993137, 357, 189, 388, 220
-0.993139, 409, 225, 440, 288
-0.993144, 1, 153, 64, 216
-0.993152, 113, 229, 144, 260
-0.993152, 141, 245, 172, 276
-0.99316, 285, 141, 316, 172
-0.993164, 381, 201, 412, 232
-0.993168, 269, 169, 300, 200
-0.993171, 1, 73, 32, 104
-0.993174, 389, 225, 420, 256
-0.993176, 273, 41, 304, 72
-0.993177, 201, 201, 232, 232
-0.993179, 101, 97, 132, 128
-0.99318, 273, 313, 400, 375
-0.993183, 97, 281, 352, 344
-0.993189, 189, 209, 220, 240
-0.993189, 397, 209, 428, 240
-0.993191, 145, 209, 176, 272
-0.993194, 93, 33, 124, 160
-0.993194, 189, 317, 220, 348
-0.993202, 469, 305, 500, 336
-0.993202, 181, 241, 212, 272
-0.993203, 369, 277, 400, 308
-0.993211, 213, 121, 244, 152
-0.993213, 409, 213, 440, 244
-0.993217, 417, 261, 448, 292
-0.993219, 241, 217, 272, 248
-0.99322, 129, 245, 160, 276
-0.993221, 205, 89, 236, 120
-0.993221, 353, 173, 384, 204
-0.993222, 449, 113, 480, 144
-0.993224, 121, 165, 152, 196
-0.993225, 293, 117, 324, 148
-0.99323, 433, 233, 464, 296
-0.99323, 257, 201, 288, 232
-0.993238, 221, 197, 252, 228
-0.993247, 405, 257, 436, 288
-0.99325, 125, 189, 156, 220
-0.993258, 125, 149, 156, 180
-0.993259, 41, 85, 72, 116
-0.993259, 173, 345, 204, 375
-0.993265, 345, 161, 376, 192
-0.993268, 469, 21, 500, 52
-0.993268, 109, 149, 140, 180
-0.993269, 113, 277, 144, 308
-0.993276, 381, 245, 412, 276
-0.993277, 465, 233, 496, 296
-0.993285, 89, 129, 120, 160
-0.993285, 73, 113, 104, 144
-0.993285, 221, 217, 252, 248
-0.993287, 269, 113, 300, 144
-0.993287, 125, 209, 156, 240
-0.993289, 137, 189, 168, 220
-0.993292, 149, 69, 180, 100
-0.993293, 117, 289, 148, 320
-0.993293, 129, 337, 160, 368
-0.993293, 193, 85, 224, 116
-0.993295, 165, 69, 196, 100
-0.993295, 161, 333, 192, 364
-0.993296, 137, 173, 168, 204
-0.993299, 265, 209, 296, 336
-0.993322, 1, 129, 500, 192
-0.993337, 73, 65, 104, 128
-0.993339, 269, 49, 300, 176
-0.993354, 181, 177, 212, 240
-0.993377, 1, 225, 500, 288
-0.993379, 31, 97, 46, 160
-0.993423, 461, 225, 492, 352
-0.993497, 349, 177, 380, 240
-0.993505, 209, 121, 272, 184
-0.993516, 285, 161, 316, 288
-0.993525, 39, 105, 54, 168
-0.993566, 305, 209, 336, 336
-0.993573, 19, 81, 34, 144
-0.993615, 341, 225, 372, 352
-0.99365, 477, 81, 492, 144
-0.993688, 37, 177, 68, 304
-0.99374, 161, 305, 416, 368
-0.99374, 433, 1, 496, 64
-0.993762, 65, 89, 80, 152
-0.99377, 49, 109, 176, 140
-0.993914, 1, 65, 256, 128
-0.993928, 193, 181, 320, 212
-0.993936, 257, 153, 384, 184
-0.993959, 321, 209, 384, 272
-0.993973, 87, 89, 102, 152
-0.993991, 125, 49, 156, 176
-0.993996, 25, 97, 40, 160
-0.994005, 1, 81, 16, 144
-0.994023, 1, 313, 256, 375
-0.994033, 113, 1, 176, 256
-0.994097, 129, 89, 256, 120
-0.994098, 7, 81, 22, 144
-0.994135, 233, 209, 264, 336
-0.994191, 345, 105, 408, 168
-0.99423, 11, 121, 26, 184
-0.994232, 281, 105, 296, 168
-0.994284, 13, 81, 28, 144
-0.994297, 113, 245, 240, 276
-0.994348, 129, 317, 256, 348
-0.994367, 209, 113, 336, 144
-0.994389, 257, 241, 500, 304
-0.994392, 71, 81, 86, 144
-0.994412, 129, 305, 256, 336
-0.994433, 293, 105, 308, 168
-0.994448, 77, 121, 92, 184
-0.994467, 425, 161, 456, 288
-0.994553, 189, 17, 220, 144
-0.99457, 1, 273, 500, 336
-0.994579, 257, 89, 500, 152
-0.994649, 201, 33, 232, 160
-0.994661, 283, 129, 298, 192
-0.99473, 449, 33, 480, 160
-0.994743, 221, 97, 252, 224
-0.994756, 199, 305, 214, 368
-0.994756, 257, 289, 500, 352
-0.994758, 1, 153, 256, 216
-0.99478, 81, 97, 208, 128
-0.994809, 257, 65, 288, 192
-0.994864, 79, 89, 94, 152
-0.994869, 377, 129, 408, 256
-0.994885, 25, 129, 40, 192
-0.99492, 33, 233, 160, 264
-0.994928, 113, 185, 240, 216
-0.994975, 129, 101, 256, 132
-0.994979, 337, 261, 464, 292
-0.994985, 177, 17, 208, 144
-0.995019, 131, 217, 146, 280
-0.995028, 257, 65, 384, 128
-0.995081, 65, 249, 192, 312
-0.995086, 209, 125, 336, 156
-0.995089, 213, 305, 228, 368
-0.995093, 445, 145, 476, 272
-0.995103, 333, 177, 364, 304
-0.995116, 353, 57, 480, 120
-0.995134, 193, 197, 320, 228
-0.995156, 205, 209, 220, 272
-0.995178, 127, 129, 142, 192
-0.995182, 113, 197, 240, 228
-0.995182, 99, 105, 114, 168
-0.995193, 289, 129, 304, 192
-0.995215, 129, 337, 256, 368
-0.995228, 257, 165, 384, 196
-0.995233, 59, 89, 74, 152
-0.995235, 225, 177, 240, 240
-0.995261, 1, 65, 500, 128
-0.995273, 1, 81, 128, 112
-0.995309, 1, 177, 256, 240
-0.995316, 49, 81, 176, 112
-0.995341, 273, 17, 336, 144
-0.995344, 19, 129, 34, 192
-0.995359, 1, 121, 16, 184
-0.99536, 369, 1, 496, 64
-0.995373, 71, 121, 86, 184
-0.995398, 477, 105, 492, 168
-0.99543, 177, 169, 304, 200
-0.995458, 205, 305, 220, 368
-0.995464, 35, 129, 50, 192
-0.995488, 459, 89, 474, 152
-0.995495, 65, 121, 80, 184
-0.995517, 129, 293, 256, 324
-0.995559, 81, 121, 208, 152
-0.995612, 443, 273, 458, 336
-0.995642, 209, 1, 336, 128
-0.995643, 83, 121, 98, 184
-0.995653, 483, 97, 498, 160
-0.995665, 273, 185, 400, 216
-0.995669, 337, 229, 464, 260
-0.995681, 183, 297, 198, 360
-0.995682, 353, 205, 480, 236
-0.99569, 127, 161, 142, 224
-0.995739, 215, 201, 230, 264
-0.995758, 19, 105, 34, 168
-0.995767, 379, 241, 394, 304
-0.995772, 463, 113, 478, 176
-0.995799, 129, 113, 256, 144
-0.995801, 17, 133, 144, 164
-0.995816, 1, 313, 500, 375
-0.995828, 45, 113, 60, 176
-0.995856, 81, 209, 208, 240
-0.995862, 209, 145, 336, 176
-0.995879, 189, 297, 204, 360
-0.995886, 277, 129, 292, 192
-0.995898, 135, 169, 150, 232
-0.99592, 273, 201, 400, 232
-0.99592, 369, 297, 496, 328
-0.995926, 17, 245, 144, 276
-0.995927, 213, 273, 228, 336
-0.995955, 219, 313, 234, 375
-0.995967, 469, 105, 484, 168
-0.995977, 299, 121, 314, 184
-0.995986, 271, 161, 286, 224
-0.996037, 257, 141, 384, 172
-0.996064, 337, 161, 464, 192
-0.996067, 337, 273, 464, 304
-0.996087, 145, 313, 160, 375
-0.996098, 353, 97, 384, 224
-0.996101, 433, 265, 448, 328
-0.996107, 89, 129, 104, 192
-0.996131, 73, 33, 104, 288
-0.996139, 97, 233, 224, 264
-0.996147, 125, 193, 140, 256
-0.996152, 133, 137, 148, 200
-0.996159, 401, 49, 464, 176
-0.996224, 389, 257, 404, 320
-0.996227, 161, 241, 288, 272
-0.996243, 129, 161, 256, 192
-0.996246, 345, 49, 408, 176
-0.996252, 177, 305, 304, 336
-0.996263, 131, 193, 146, 256
-0.99629, 97, 137, 224, 168
-0.99629, 193, 257, 320, 288
-0.996293, 81, 305, 208, 336
-0.996296, 65, 41, 192, 104
-0.996327, 257, 117, 384, 148
-0.99633, 209, 157, 336, 188
-0.996339, 385, 233, 400, 296
-0.99635, 177, 213, 304, 244
-0.996362, 169, 129, 200, 256
-0.996363, 223, 105, 238, 168
-0.996363, 373, 257, 388, 320
-0.996367, 225, 137, 240, 200
-0.996375, 273, 1, 304, 256
-0.996377, 171, 305, 186, 368
-0.996409, 117, 201, 132, 264
-0.996417, 49, 161, 176, 192
-0.996434, 379, 273, 394, 336
-0.996435, 113, 265, 240, 296
-0.996448, 189, 209, 204, 272
-0.996454, 361, 161, 376, 224
-0.996467, 129, 57, 384, 120
-0.996478, 85, 65, 116, 320
-0.996478, 277, 153, 292, 216
-0.996482, 59, 113, 74, 176
-0.996495, 349, 1, 380, 256
-0.996498, 273, 253, 400, 284
-0.996516, 441, 33, 472, 288
-0.996517, 289, 213, 416, 244
-0.996523, 401, 145, 432, 272
-0.996525, 213, 33, 244, 160
-0.996536, 177, 305, 192, 368
-0.996554, 195, 201, 210, 264
-0.996557, 193, 269, 320, 300
-0.996565, 369, 285, 496, 316
-0.996566, 353, 193, 480, 224
-0.996605, 321, 249, 448, 280
-0.996613, 193, 97, 320, 128
-0.996613, 153, 17, 184, 144
-0.996614, 49, 221, 176, 252
-0.996626, 129, 125, 256, 156
-0.99663, 97, 145, 128, 272
-0.996653, 215, 169, 230, 232
-0.996677, 481, 9, 496, 72
-0.996686, 29, 65, 44, 128
-0.996705, 337, 181, 464, 212
-0.996705, 19, 85, 34, 116
-0.996707, 289, 273, 416, 304
-0.996709, 425, 257, 440, 320
-0.996711, 447, 305, 462, 368
-0.996713, 273, 241, 400, 272
-0.996721, 185, 65, 216, 320
-0.996725, 63, 89, 78, 120
-0.996734, 123, 249, 138, 312
-0.996736, 125, 97, 140, 160
-0.996745, 283, 113, 298, 144
-0.996754, 457, 113, 472, 176
-0.996759, 113, 277, 240, 308
-0.996761, 53, 97, 84, 352
-0.996761, 367, 169, 382, 232
-0.996765, 257, 65, 500, 128
-0.996767, 219, 289, 234, 352
-0.996775, 129, 173, 256, 204
-0.996778, 263, 177, 278, 240
-0.996787, 187, 57, 202, 120
-0.996788, 469, 289, 484, 352
-0.996801, 183, 201, 198, 264
-0.996806, 475, 289, 490, 352
-0.99681, 37, 81, 52, 144
-0.996822, 87, 217, 102, 280
-0.996828, 197, 113, 228, 240
-0.996836, 201, 65, 232, 320
-0.996842, 17, 265, 144, 296
-0.996859, 415, 257, 430, 320
-0.99686, 125, 225, 140, 288
-0.996861, 355, 153, 370, 216
-0.996863, 289, 113, 304, 144
-0.996881, 129, 77, 256, 108
-0.996884, 257, 129, 384, 160
-0.996894, 151, 305, 166, 368
-0.996904, 209, 233, 224, 296
-0.996912, 375, 193, 390, 256
-0.996913, 145, 141, 272, 172
-0.996922, 129, 209, 256, 240
-0.99693, 133, 129, 164, 375
-0.996934, 17, 57, 32, 120
-0.996938, 193, 229, 320, 260
-0.996941, 37, 105, 52, 136
-0.996948, 337, 149, 464, 180
-0.996955, 249, 17, 312, 144
-0.99696, 305, 33, 432, 160
-0.996971, 97, 149, 224, 180
-0.996988, 53, 97, 68, 160
-0.996999, 25, 65, 56, 320
-0.997001, 435, 241, 450, 304
-0.997009, 203, 281, 218, 344
-0.997021, 441, 233, 456, 296
-0.997027, 257, 9, 384, 72
-0.997029, 201, 57, 216, 120
-0.997033, 177, 57, 192, 120
-0.997037, 65, 341, 192, 372
-0.99705, 165, 305, 180, 368
-0.997055, 193, 285, 320, 316
-0.997072, 229, 49, 260, 176
-0.997077, 9, 57, 24, 120
-0.997084, 479, 209, 494, 272
-0.997129, 41, 97, 72, 352
-0.997132, 25, 257, 40, 320
-0.997135, 195, 81, 210, 144
-0.997139, 65, 329, 192, 360
-0.997147, 5, 241, 36, 368
-0.997148, 193, 57, 208, 120
-0.997161, 369, 241, 496, 272
-0.997176, 343, 129, 358, 192
-0.997179, 159, 241, 174, 304
-0.997183, 207, 185, 222, 248
-0.997184, 33, 149, 160, 180
-0.997188, 95, 129, 110, 192
-0.997189, 213, 89, 228, 152
-0.997194, 107, 209, 122, 272
-0.997194, 225, 1, 480, 128
-0.997201, 337, 217, 464, 248
-0.997203, 181, 241, 196, 304
-0.997209, 145, 65, 176, 320
-0.997213, 463, 93, 478, 124
-0.997213, 165, 1, 196, 128
-0.997233, 453, 33, 484, 288
-0.997234, 11, 125, 26, 156
-0.997234, 359, 233, 374, 296
-0.997236, 463, 289, 478, 352
-0.997251, 213, 97, 244, 352
-0.997255, 137, 201, 152, 264
-0.997259, 435, 297, 450, 360
-0.997262, 133, 297, 148, 360
-0.997267, 35, 241, 50, 304
-0.99727, 43, 233, 58, 296
-0.997272, 231, 177, 246, 240
-0.997273, 95, 93, 110, 124
-0.997273, 171, 217, 186, 280
-0.997282, 255, 217, 270, 280
-0.997287, 289, 129, 304, 160
-0.997294, 121, 97, 152, 352
-0.997304, 43, 121, 58, 152
-0.997308, 457, 129, 488, 375
-0.997324, 237, 145, 268, 272
-0.997327, 165, 65, 196, 320
-0.997335, 13, 33, 44, 288
-0.997343, 293, 97, 324, 352
-0.997351, 321, 89, 448, 152
-0.997363, 477, 93, 492, 124
-0.997379, 81, 173, 208, 204
-0.997385, 225, 209, 352, 240
-0.997395, 209, 317, 336, 348
-0.997404, 369, 97, 496, 128
-0.997425, 465, 33, 496, 288
-0.997432, 1, 33, 32, 288
-0.99744, 77, 125, 92, 156
-0.99744, 289, 225, 416, 256
-0.997442, 273, 105, 400, 136
-0.997444, 273, 129, 304, 375
-0.997454, 89, 89, 104, 120
-0.997473, 361, 1, 392, 256
-0.997497, 205, 301, 220, 332
-0.99751, 171, 301, 186, 332
-0.997514, 143, 309, 158, 340
-0.997523, 5, 81, 20, 112
-0.99754, 73, 129, 104, 375
-0.997553, 143, 321, 158, 352
-0.997571, 127, 229, 142, 260
-0.997572, 377, 261, 392, 292
-0.997601, 11, 81, 26, 112
-0.997606, 241, 33, 368, 96
-0.997611, 49, 285, 176, 316
-0.997619, 353, 129, 384, 375
-0.997624, 193, 77, 320, 108
-0.997634, 281, 129, 296, 160
-0.997635, 27, 137, 42, 168
-0.997635, 193, 333, 320, 364
-0.997636, 203, 225, 218, 256
-0.997643, 151, 341, 166, 372
-0.997663, 201, 337, 216, 368
-0.997688, 19, 133, 34, 164
-0.997706, 127, 133, 142, 164
-0.99771, 295, 129, 310, 160
-0.997745, 5, 125, 20, 156
-0.99777, 83, 129, 98, 160
-0.997772, 257, 313, 500, 375
-0.997773, 27, 101, 42, 132
-0.997775, 209, 245, 336, 276
-0.997787, 13, 129, 44, 375
-0.99779, 137, 33, 168, 160
-0.997792, 97, 97, 128, 352
-0.99782, 1, 277, 128, 308
-0.99782, 321, 129, 352, 375
-0.997825, 473, 293, 488, 324
-0.997832, 145, 345, 160, 375
-0.997832, 65, 197, 192, 228
-0.997835, 129, 221, 256, 252
-0.997843, 83, 89, 98, 120
-0.997845, 1, 161, 128, 192
-0.997849, 481, 109, 496, 140
-0.99785, 65, 245, 192, 276
-0.997858, 241, 229, 368, 260
-0.997859, 211, 341, 226, 372
-0.99786, 341, 129, 372, 375
-0.997862, 69, 89, 84, 120
-0.997875, 305, 129, 336, 375
-0.997876, 463, 113, 478, 144
-0.997883, 67, 125, 82, 156
-0.997889, 37, 129, 52, 160
-0.997898, 397, 129, 428, 375
-0.9979, 189, 305, 204, 336
-0.997904, 29, 89, 44, 120
-0.997919, 81, 317, 208, 348
-0.997929, 181, 113, 212, 240
-0.997935, 93, 129, 108, 160
-0.997936, 381, 129, 412, 375
-0.997949, 261, 33, 292, 288
-0.997951, 467, 285, 482, 316
-0.997952, 215, 289, 230, 320
-0.997953, 129, 65, 256, 96
-0.997962, 75, 89, 90, 120
-0.997997, 129, 33, 256, 96
-0.998012, 183, 345, 198, 375
-0.998015, 195, 305, 210, 336
-0.998019, 475, 113, 490, 144
-0.998031, 43, 109, 58, 140
-0.998036, 295, 117, 310, 148
-0.99804, 215, 301, 230, 332
-0.998041, 179, 305, 194, 336
-0.998043, 169, 313, 184, 344
-0.99805, 65, 69, 192, 100
-0.998053, 261, 129, 292, 375
-0.998062, 469, 113, 484, 144
-0.998063, 353, 309, 480, 340
-0.998075, 195, 317, 210, 348
-0.998075, 369, 129, 400, 375
-0.998078, 321, 289, 448, 320
-0.998088, 157, 341, 172, 372
-0.99809, 389, 261, 404, 292
-0.998092, 211, 213, 226, 244
-0.998094, 137, 301, 152, 332
-0.998096, 153, 309, 168, 340
-0.998096, 411, 201, 426, 232
-0.998101, 19, 65, 34, 192
-0.998103, 65, 185, 192, 216
-0.998104, 409, 129, 440, 375
-0.998107, 425, 129, 456, 375
-0.998113, 215, 181, 230, 212
-0.998113, 17, 201, 144, 232
-0.998115, 1, 69, 128, 100
-0.998122, 195, 341, 210, 372
-0.998134, 479, 293, 494, 324
-0.998139, 19, 121, 34, 152
-0.998139, 381, 249, 396, 280
-0.998143, 127, 193, 142, 224
-0.998149, 127, 213, 142, 244
-0.998159, 443, 293, 458, 324
-0.998165, 455, 105, 470, 136
-0.998173, 471, 85, 486, 116
-0.998181, 61, 117, 76, 148
-0.998187, 133, 169, 148, 200
-0.998188, 99, 121, 114, 152
-0.998205, 133, 205, 148, 236
-0.99821, 227, 345, 242, 375
-0.998212, 167, 341, 182, 372
-0.998225, 277, 37, 292, 68
-0.998226, 109, 129, 140, 375
-0.998227, 37, 93, 52, 124
-0.998228, 217, 329, 232, 360
-0.998237, 1, 41, 128, 104
-0.998242, 89, 117, 104, 148
-0.998245, 95, 105, 110, 136
-0.99825, 483, 17, 498, 48
-0.998252, 317, 209, 348, 336
-0.998255, 483, 97, 498, 128
-0.998265, 405, 209, 420, 240
-0.998267, 223, 185, 238, 216
-0.998269, 19, 97, 34, 128
-0.998269, 1, 305, 128, 336
-0.998276, 305, 137, 432, 168
-0.998276, 103, 109, 118, 140
-0.998277, 449, 41, 464, 72
-0.99828, 277, 153, 292, 184
-0.998281, 17, 73, 32, 104
-0.998287, 271, 165, 286, 196
-0.998288, 371, 269, 386, 300
-0.998289, 161, 321, 176, 352
-0.998291, 53, 97, 68, 128
-0.998293, 361, 37, 376, 68
-0.998295, 9, 113, 24, 144
-0.998297, 13, 137, 28, 168
-0.9983, 223, 121, 238, 152
-0.998305, 403, 221, 418, 252
-0.998311, 49, 91, 112, 106
-0.998321, 257, 1, 500, 64
-0.998323, 189, 337, 204, 368
-0.998324, 11, 65, 26, 192
-0.998324, 219, 345, 234, 375
-0.99833, 361, 165, 376, 196
-0.998335, 25, 177, 56, 304
-0.998338, 95, 221, 110, 252
-0.998338, 257, 33, 384, 64
-0.998346, 133, 237, 148, 268
-0.998351, 167, 325, 182, 356
-0.998355, 133, 153, 148, 184
-0.998356, 33, 127, 96, 142
-0.998361, 25, 81, 40, 208
-0.998361, 225, 345, 352, 375
-0.998364, 229, 173, 244, 204
-0.998365, 353, 77, 480, 108
-0.998367, 441, 99, 472, 114
-0.998367, 121, 145, 152, 160
-0.998368, 113, 283, 144, 298
-0.998368, 165, 343, 196, 358
-0.998368, 81, 119, 112, 134
-0.998369, 69, 229, 100, 244
-0.998369, 301, 229, 332, 244
-0.99837, 97, 95, 128, 110
-0.998372, 261, 123, 292, 138
-0.998373, 201, 229, 232, 244
-0.998373, 1, 65, 16, 192
-0.998373, 213, 131, 244, 146
-0.998374, 441, 105, 472, 120
-0.998374, 217, 361, 248, 375
-0.998375, 381, 233, 412, 248
-0.998375, 353, 345, 480, 375
-0.998375, 117, 201, 148, 216
-0.998375, 177, 247, 208, 262
-0.998376, 365, 279, 396, 294
-0.998376, 189, 215, 220, 230
-0.998376, 321, 33, 352, 288
-0.998376, 469, 23, 500, 38
-0.998377, 85, 113, 116, 128
-0.998378, 209, 337, 240, 352
-0.998379, 205, 297, 236, 312
-0.998379, 193, 335, 224, 350
-0.99838, 57, 97, 120, 112
-0.99838, 445, 345, 476, 360
-0.998381, 293, 131, 324, 146
-0.998381, 141, 337, 172, 352
-0.998381, 385, 205, 416, 220
-0.998382, 277, 117, 292, 148
-0.998383, 177, 345, 192, 375
-0.998384, 437, 297, 468, 312
-0.998385, 73, 81, 88, 208
-0.998385, 57, 103, 88, 118
-0.998386, 405, 231, 436, 246
-0.998388, 133, 189, 148, 220
-0.998388, 121, 241, 136, 272
-0.998388, 201, 289, 232, 304
-0.998388, 337, 33, 368, 288
-0.998388, 461, 289, 476, 320
-0.998389, 45, 237, 76, 252
-0.99839, 141, 327, 172, 342
-0.99839, 101, 101, 132, 116
-0.998392, 81, 225, 112, 240
-0.998392, 25, 91, 56, 106
-0.998393, 121, 139, 152, 154
-0.998395, 17, 95, 80, 110
-0.998395, 381, 227, 412, 242
-0.998396, 117, 201, 132, 232
-0.998397, 13, 101, 44, 116
-0.998397, 141, 349, 172, 364
-0.998401, 55, 109, 70, 140
-0.998402, 17, 119, 80, 134
-0.998403, 369, 109, 496, 140
-0.998404, 157, 361, 188, 375
-0.998405, 153, 349, 184, 364
-0.998405, 197, 235, 228, 250
-0.998406, 353, 45, 384, 60
-0.998406, 449, 353, 480, 368
-0.998406, 57, 233, 88, 248
-0.998406, 369, 273, 400, 288
-0.998407, 445, 45, 476, 60
-0.998408, 379, 277, 394, 308
-0.998408, 369, 257, 400, 272
-0.998408, 461, 293, 492, 308
-0.998408, 5, 91, 36, 106
-0.998412, 85, 107, 116, 122
-0.998412, 185, 347, 216, 362
-0.998413, 141, 321, 172, 336
-0.998414, 89, 131, 120, 146
-0.998414, 449, 111, 480, 126
-0.998415, 455, 301, 470, 332
-0.998415, 297, 125, 328, 140
-0.998416, 181, 361, 212, 375
-0.998417, 177, 355, 208, 370
-0.998417, 101, 113, 132, 128
-0.998419, 269, 45, 300, 60
-0.998419, 225, 129, 256, 375
-0.99842, 17, 89, 80, 104
-0.998421, 113, 231, 144, 246
-0.998421, 57, 113, 120, 128
-0.998421, 185, 297, 216, 312
-0.998421, 33, 173, 160, 204
-0.998421, 57, 103, 120, 118
-0.998422, 393, 257, 424, 272
-0.998423, 189, 317, 220, 332
-0.998423, 469, 241, 500, 256
-0.998424, 193, 9, 320, 72
-0.998424, 37, 129, 68, 144
-0.998426, 125, 243, 156, 258
-0.998426, 209, 215, 240, 230
-0.998428, 85, 81, 100, 208
-0.998428, 139, 241, 154, 272
-0.998428, 193, 183, 224, 198
-0.998429, 101, 121, 132, 136
-0.998429, 17, 101, 80, 116
-0.998429, 393, 227, 424, 242
-0.99843, 103, 217, 118, 248
-0.99843, 439, 273, 454, 304
-0.99843, 173, 349, 204, 364
-0.99843, 53, 125, 84, 140
-0.99843, 153, 315, 184, 330
-0.998431, 81, 97, 112, 112
-0.998432, 79, 81, 94, 208
-0.998432, 223, 333, 238, 364
-0.998432, 153, 339, 184, 354
-0.998433, 453, 287, 484, 302
-0.998435, 183, 325, 198, 356
-0.998436, 163, 309, 178, 340
-0.998436, 9, 137, 40, 152
-0.998437, 193, 361, 224, 375
-0.998437, 41, 99, 72, 114
-0.998442, 283, 145, 298, 176
-0.998443, 149, 321, 164, 352
-0.998443, 219, 209, 234, 240
-0.998444, 213, 353, 244, 368
-0.998444, 101, 107, 132, 122
-0.998445, 193, 353, 224, 368
-0.998445, 369, 267, 400, 282
-0.998445, 25, 97, 56, 112
-0.998446, 17, 107, 80, 122
-0.998447, 133, 301, 164, 316
-0.998447, 57, 119, 120, 134
-0.998449, 205, 185, 236, 200
-0.998449, 191, 293, 206, 324
-0.99845, 57, 97, 88, 112
-0.998451, 151, 245, 166, 276
-0.998455, 1, 125, 64, 140
-0.998456, 1, 129, 32, 144
-0.998457, 91, 81, 106, 208
-0.998458, 133, 309, 164, 324
-0.998459, 213, 347, 244, 362
-0.998461, 169, 307, 232, 322
-0.998461, 461, 97, 492, 112
-0.998464, 201, 317, 232, 332
-0.998466, 461, 115, 492, 130
-0.998467, 265, 121, 328, 136
-0.998469, 25, 113, 56, 128
-0.99847, 77, 135, 108, 150
-0.998473, 29, 135, 60, 150
-0.998473, 193, 341, 224, 356
-0.998476, 193, 241, 224, 256
-0.998477, 113, 207, 144, 222
-0.998479, 141, 343, 172, 358
-0.998485, 461, 105, 492, 120
-0.998486, 145, 357, 176, 372
-0.998488, 205, 303, 236, 318
-0.998488, 153, 309, 184, 324
-0.998489, 209, 179, 240, 194
-0.998489, 433, 93, 496, 108
-0.99849, 173, 301, 204, 316
-0.998493, 81, 125, 112, 140
-0.998495, 17, 113, 80, 128
-0.998496, 457, 299, 488, 314
-0.998497, 165, 315, 196, 330
-0.998501, 185, 311, 216, 326
-0.998504, 205, 309, 236, 324
-0.998505, 281, 131, 312, 146
-0.998507, 369, 259, 432, 274
-0.998508, 113, 243, 176, 258
-0.998509, 185, 353, 248, 368
-0.998509, 57, 125, 120, 140
-0.99851, 137, 315, 168, 330
-0.99851, 177, 313, 240, 328
-0.998511, 129, 305, 192, 320
-0.998512, 125, 237, 156, 252
-0.998514, 169, 301, 232, 316
-0.998517, 9, 131, 72, 146
-0.998517, 17, 127, 48, 142
-0.998524, 433, 307, 496, 322
-0.998524, 165, 309, 196, 324
-0.99853, 81, 129, 144, 144
-0.998531, 169, 245, 232, 260
-0.998533, 265, 127, 328, 142
-0.998534, 63, 81, 78, 208
-0.998536, 89, 95, 152, 110
-0.998541, 425, 301, 488, 316
-0.998541, 185, 347, 248, 362
-0.998542, 177, 295, 240, 310
-0.998544, 433, 103, 496, 118
-0.998546, 161, 347, 224, 362
-0.998548, 89, 109, 152, 124
-0.998548, 33, 133, 96, 148
-0.998558, 145, 357, 208, 372
-0.998559, 89, 121, 152, 136
-0.99856, 273, 293, 400, 324
-0.998561, 185, 341, 248, 356
-0.998562, 129, 343, 192, 358
-0.998562, 273, 115, 336, 130
-0.998563, 41, 105, 72, 120
-0.998564, 57, 131, 120, 146
-0.998564, 137, 317, 200, 332
-0.998564, 1, 293, 128, 324
-0.998564, 97, 237, 160, 252
-0.998567, 377, 231, 440, 246
-0.998568, 177, 319, 240, 334
-0.998568, 425, 295, 488, 310
-0.998568, 433, 289, 496, 304
-0.998569, 185, 183, 248, 198
-0.998571, 73, 91, 104, 106
-0.998572, 185, 239, 248, 254
-0.998572, 225, 171, 288, 186
-0.998572, 289, 127, 352, 142
-0.998577, 377, 265, 440, 280
-0.998577, 145, 239, 208, 254
-0.998577, 89, 115, 152, 130
-0.998578, 185, 303, 216, 318
-0.998582, 69, 129, 100, 144
-0.998582, 337, 263, 400, 278
-0.998583, 193, 359, 256, 374
-0.998584, 337, 247, 400, 262
-0.998585, 225, 161, 288, 176
-0.998586, 153, 337, 216, 352
-0.998586, 1, 137, 64, 152
-0.998587, 185, 177, 248, 192
-0.998589, 129, 349, 192, 364
-0.998589, 121, 249, 184, 264
-0.998591, 177, 345, 304, 375
-0.998591, 21, 107, 52, 122
-0.998594, 49, 233, 112, 248
-0.998595, 137, 311, 200, 326
-0.998595, 89, 103, 152, 118
-0.998595, 45, 119, 76, 134
-0.998596, 265, 133, 328, 148
-0.998596, 177, 215, 240, 230
-0.998598, 345, 253, 408, 268
-0.998599, 73, 225, 136, 240
-0.998603, 433, 109, 496, 124
-0.998605, 217, 181, 280, 196
-0.998606, 169, 209, 232, 224
-0.998607, 369, 203, 432, 218
-0.998607, 249, 115, 312, 130
-0.998607, 193, 231, 256, 246
-0.998612, 129, 337, 192, 352
-0.998613, 177, 129, 240, 144
-0.998613, 217, 189, 280, 204
-0.998615, 225, 155, 288, 170
-0.998615, 321, 177, 384, 192
-0.998616, 129, 299, 192, 314
-0.998616, 329, 189, 392, 204
-0.998618, 321, 183, 384, 198
-0.998619, 433, 115, 496, 130
-0.998619, 17, 83, 80, 98
-0.998621, 337, 241, 400, 256
-0.998623, 137, 323, 200, 338
-0.998623, 353, 227, 416, 242
-0.998623, 297, 233, 360, 248
-0.998623, 225, 121, 288, 136
-0.998624, 97, 215, 160, 230
-0.998624, 113, 153, 176, 168
-0.998624, 5, 85, 36, 100
-0.998625, 201, 219, 264, 234
-0.998626, 89, 231, 152, 246
-0.998627, 361, 271, 424, 286
-0.998627, 433, 1, 496, 375
-0.998628, 361, 183, 424, 198
-0.998629, 17, 189, 144, 220
-0.998631, 193, 305, 256, 320
-0.998631, 273, 149, 336, 164
-0.998632, 145, 249, 208, 264
-0.998635, 409, 109, 472, 124
-0.998635, 113, 137, 176, 152
-0.998637, 289, 133, 352, 148
-0.998638, 277, 121, 308, 136
-0.998639, 185, 333, 248, 348
-0.99864, 177, 203, 240, 218
-0.998641, 257, 179, 320, 194
-0.998641, 89, 89, 152, 104
-0.998641, 433, 313, 496, 328
-0.998642, 185, 137, 248, 152
-0.998644, 225, 355, 288, 370
-0.998644, 281, 143, 344, 158
-0.998644, 105, 339, 168, 354
-0.998645, 81, 135, 144, 150
-0.998647, 209, 201, 272, 216
-0.998647, 113, 145, 176, 160
-0.998647, 97, 359, 160, 374
-0.998648, 121, 159, 184, 174
-0.998648, 129, 329, 192, 344
-0.998648, 209, 211, 272, 226
-0.998648, 105, 205, 168, 220
-0.998649, 169, 359, 232, 374
-0.998649, 209, 347, 272, 362
-0.998649, 153, 87, 216, 102
-0.99865, 61, 91, 92, 106
-0.99865, 209, 257, 272, 272
-0.99865, 1, 145, 64, 160
-0.99865, 361, 175, 424, 190
-0.998651, 121, 193, 184, 208
-0.998651, 209, 195, 272, 210
-0.998651, 337, 205, 400, 220
-0.998659, 41, 111, 72, 126
-0.99866, 305, 33, 336, 288
-0.998664, 1, 129, 32, 375
-0.998674, 241, 265, 368, 296
-0.998683, 281, 115, 312, 130
-0.998713, 365, 97, 396, 224
-0.998722, 461, 91, 492, 106
-0.99873, 129, 145, 144, 272
-0.998734, 31, 97, 46, 224
-0.998759, 445, 129, 476, 375
-0.99876, 471, 65, 486, 192
-0.9988, 249, 129, 280, 256
-0.99881, 37, 97, 52, 224
-0.998836, 97, 81, 112, 208
-0.998844, 329, 225, 360, 352
-0.998846, 253, 241, 284, 368
-0.998883, 13, 113, 28, 240
-0.99889, 1, 9, 128, 72
-0.998891, 135, 161, 150, 288
-0.998899, 135, 225, 150, 352
-0.9989, 273, 305, 400, 336
-0.998915, 177, 65, 304, 96
-0.998917, 173, 225, 188, 352
-0.998926, 465, 65, 480, 192
-0.998937, 213, 241, 228, 368
-0.998951, 469, 129, 500, 375
-0.998961, 101, 1, 132, 256
-0.99897, 5, 193, 36, 320
-0.99897, 337, 321, 464, 352
-0.998974, 257, 321, 384, 352
-0.998977, 7, 113, 22, 240
-0.998983, 477, 65, 492, 192
-0.998992, 287, 81, 302, 208
-0.998997, 193, 45, 320, 76
-0.999002, 1, 317, 128, 348
-0.999028, 179, 225, 194, 352
-0.999042, 143, 225, 158, 352
-0.999045, 163, 225, 178, 352
-0.999064, 81, 33, 96, 160
-0.999064, 293, 97, 308, 224
-0.999066, 369, 177, 384, 304
-0.999073, 425, 33, 456, 288
-0.999074, 25, 129, 40, 256
-0.999081, 227, 129, 242, 256
-0.999081, 293, 1, 324, 256
-0.999082, 127, 209, 142, 336
-0.999083, 1, 113, 16, 240
-0.999083, 185, 65, 200, 192
-0.999099, 281, 97, 296, 224
-0.999102, 19, 113, 34, 240
-0.999102, 71, 33, 86, 160
-0.999112, 141, 145, 156, 272
-0.999112, 1, 221, 128, 252
-0.999114, 127, 97, 142, 224
-0.999116, 369, 137, 496, 168
-0.999118, 87, 33, 102, 160
-0.999128, 353, 333, 480, 364
-0.99913, 185, 225, 200, 352
-0.99914, 267, 161, 282, 288
-0.999147, 221, 97, 236, 224
-0.999149, 203, 209, 218, 336
-0.999153, 441, 225, 456, 352
-0.99916, 93, 33, 108, 160
-0.999162, 375, 177, 390, 304
-0.999167, 31, 49, 46, 176
-0.999168, 241, 45, 368, 76
-0.999177, 289, 33, 416, 96
-0.999179, 229, 33, 260, 288
-0.999182, 191, 65, 206, 192
-0.999186, 217, 161, 232, 288
-0.999191, 359, 145, 374, 272
-0.999206, 299, 113, 314, 240
-0.999208, 61, 1, 92, 256
-0.999209, 135, 97, 150, 224
-0.999211, 43, 97, 58, 224
-0.999211, 431, 241, 446, 368
-0.999217, 273, 145, 288, 272
-0.999219, 369, 125, 496, 156
-0.999222, 41, 1, 72, 256
-0.999225, 57, 81, 72, 208
-0.999233, 383, 241, 398, 368
-0.99924, 177, 65, 192, 192
-0.999248, 391, 241, 406, 368
-0.99925, 411, 241, 426, 368
-0.999256, 123, 145, 138, 272
-0.999257, 477, 17, 492, 144
-0.999259, 223, 177, 238, 304
-0.999259, 381, 193, 396, 320
-0.99926, 405, 241, 420, 368
-0.999262, 191, 225, 206, 352
-0.999276, 151, 225, 166, 352
-0.999277, 353, 29, 480, 60
-0.999279, 397, 241, 412, 368
-0.99928, 233, 129, 248, 256
-0.999284, 403, 193, 418, 320
-0.999288, 69, 129, 84, 256
-0.999291, 209, 193, 224, 320
-0.999293, 307, 129, 322, 256
-0.999295, 257, 93, 384, 124
-0.999296, 121, 193, 136, 320
-0.999297, 65, 33, 80, 160
-0.999298, 33, 41, 288, 104
-0.9993, 205, 65, 220, 192
-0.9993, 319, 129, 334, 256
-0.999306, 343, 113, 358, 240
-0.999307, 171, 65, 186, 192
-0.999311, 65, 273, 192, 304
-0.999311, 375, 225, 390, 352
-0.999316, 425, 241, 440, 368
-0.999316, 453, 209, 468, 336
-0.999318, 299, 65, 314, 192
-0.999322, 313, 129, 328, 256
-0.999329, 105, 193, 120, 320
-0.999333, 165, 65, 180, 192
-0.999334, 455, 97, 470, 224
-0.999336, 413, 161, 444, 288
-0.999341, 37, 49, 52, 176
-0.999342, 351, 129, 366, 256
-0.999345, 357, 209, 372, 336
-0.999353, 11, 17, 26, 144
-0.999355, 215, 81, 230, 208
-0.999357, 275, 81, 290, 208
-0.999357, 197, 65, 212, 192
-0.999358, 197, 193, 212, 320
-0.999362, 157, 225, 172, 352
-0.999362, 163, 177, 178, 304
-0.999371, 95, 129, 110, 256
-0.999382, 337, 113, 352, 240
-0.999384, 5, 17, 20, 144
-0.999393, 133, 33, 164, 288
-0.999395, 103, 65, 118, 192
-0.9994, 463, 17, 478, 144
-0.999405, 419, 241, 434, 368
-0.999409, 247, 209, 262, 336
-0.999413, 205, 145, 220, 272
-0.999414, 325, 129, 340, 256
-0.999417, 287, 129, 302, 256
-0.999421, 121, 97, 136, 224
-0.999425, 409, 193, 424, 320
-0.999434, 17, 17, 32, 144
-0.999434, 141, 97, 156, 224
-0.999438, 75, 129, 90, 256
-0.999438, 447, 241, 462, 368
-0.999442, 239, 209, 254, 336
-0.999443, 211, 129, 226, 256
-0.999446, 99, 209, 114, 336
-0.99945, 463, 113, 478, 240
-0.999452, 83, 209, 98, 336
-0.999456, 395, 193, 410, 320
-0.999457, 281, 225, 296, 352
-0.999458, 331, 113, 346, 240
-0.999458, 485, 1, 500, 128
-0.999459, 25, 33, 40, 160
-0.99946, 261, 177, 276, 304
-0.999463, 387, 193, 402, 320
-0.999464, 281, 145, 296, 272
-0.999466, 469, 17, 484, 144
-0.99947, 369, 225, 384, 352
-0.999474, 81, 129, 96, 256
-0.999533, 245, 129, 276, 375
-0.999549, 461, 161, 492, 288
-0.999558, 213, 1, 244, 256
-0.99958, 203, 339, 218, 354
-0.99958, 147, 359, 162, 374
-0.99958, 463, 95, 478, 110
-0.99958, 135, 163, 150, 178
-0.999581, 383, 255, 398, 270
-0.999582, 189, 347, 204, 362
-0.999583, 179, 135, 194, 150
-0.999584, 205, 185, 220, 200
-0.999584, 179, 343, 194, 358
-0.999585, 411, 229, 426, 244
-0.999586, 19, 101, 34, 116
-0.999587, 173, 343, 188, 358
-0.999587, 169, 315, 184, 330
-0.999589, 281, 115, 296, 130
-0.99959, 189, 353, 204, 368
-0.999591, 97, 111, 112, 126
-0.999591, 123, 201, 138, 216
-0.999591, 455, 111, 470, 126
-0.999592, 95, 131, 110, 146
-0.999592, 283, 43, 298, 58
-0.999592, 59, 119, 74, 134
-0.999592, 145, 351, 160, 366
-0.999592, 299, 129, 314, 144
-0.999593, 473, 241, 488, 256
-0.999595, 463, 287, 478, 302
-0.999596, 223, 349, 238, 364
-0.999596, 19, 95, 34, 110
-0.999597, 455, 351, 470, 366
-0.999598, 127, 137, 142, 152
-0.999598, 217, 215, 232, 230
-0.999599, 219, 179, 234, 194
-0.999599, 135, 173, 150, 188
-0.9996, 469, 295, 484, 310
-0.999601, 157, 345, 172, 360
-0.999601, 9, 121, 24, 136
-0.999601, 471, 361, 486, 375
-0.999602, 199, 353, 214, 368
-0.999603, 281, 133, 296, 148
-0.999604, 291, 123, 306, 138
-0.999604, 211, 219, 226, 234
-0.999605, 69, 129, 84, 144
-0.999605, 139, 319, 154, 334
-0.999606, 405, 227, 420, 242
-0.999607, 151, 345, 166, 360
-0.999608, 185, 307, 200, 322
-0.999609, 21, 131, 36, 146
-0.99961, 167, 347, 182, 362
-0.999612, 461, 115, 476, 130
-0.999613, 179, 317, 194, 332
-0.999615, 27, 97, 42, 112
-0.999618, 213, 345, 228, 360
-0.999618, 33, 135, 48, 150
-0.999618, 15, 131, 30, 146
-0.999618, 481, 241, 496, 256
-0.99962, 189, 315, 204, 330
-0.999621, 207, 303, 222, 318
-0.999622, 473, 113, 488, 128
-0.999623, 171, 355, 186, 370
-0.999625, 137, 311, 152, 326
-0.999626, 187, 297, 202, 312
-0.999626, 215, 303, 230, 318
-0.999627, 89, 135, 104, 150
-0.999627, 165, 361, 180, 375
-0.999629, 467, 115, 482, 130
-0.999629, 379, 261, 394, 276
-0.999629, 157, 357, 172, 372
-0.999629, 45, 121, 60, 136
-0.99963, 133, 207, 148, 222
-0.99963, 281, 123, 296, 138
-0.999634, 179, 311, 194, 326
-0.999635, 95, 99, 110, 114
-0.999636, 39, 113, 54, 128
-0.999637, 151, 317, 166, 332
-0.999637, 25, 105, 40, 120
-0.999638, 205, 229, 220, 244
-0.999638, 19, 139, 34, 154
-0.999638, 151, 311, 166, 326
-0.999638, 201, 315, 216, 330
-0.999639, 3, 127, 18, 142
-0.99964, 479, 105, 494, 120
-0.99964, 481, 111, 496, 126
-0.999641, 191, 359, 206, 374
-0.999641, 77, 91, 92, 106
-0.999642, 181, 299, 196, 314
-0.999643, 61, 97, 76, 112
-0.999643, 461, 107, 476, 122
-0.999644, 287, 133, 302, 148
-0.99965, 145, 317, 160, 332
-0.999653, 201, 305, 216, 320
-0.999653, 83, 131, 98, 146
-0.999653, 215, 293, 230, 308
-0.999654, 141, 303, 156, 318
-0.999654, 197, 333, 212, 348
-0.999655, 179, 305, 194, 320
-0.999655, 41, 133, 56, 148
-0.999655, 97, 105, 112, 120
-0.999663, 207, 313, 222, 328
-0.999664, 173, 307, 188, 322
-0.999664, 83, 91, 98, 106
-0.999665, 5, 85, 20, 100
-0.999665, 25, 137, 40, 152
-0.999666, 191, 305, 206, 320
-0.999667, 475, 295, 490, 310
-0.999668, 179, 349, 194, 364
-0.99967, 293, 131, 308, 146
-0.999673, 31, 107, 46, 122
-0.999675, 173, 301, 188, 316
-0.999675, 143, 325, 158, 340
-0.999676, 67, 91, 82, 106
-0.999677, 469, 289, 484, 304
-0.999677, 159, 339, 174, 354
-0.999681, 89, 127, 104, 142
-0.999683, 11, 85, 26, 100
-0.999687, 9, 127, 24, 142
-0.999697, 217, 313, 232, 328
-0.999703, 369, 25, 496, 88
-0.999703, 43, 127, 58, 142
-0.999705, 467, 89, 482, 104
-0.999707, 473, 89, 488, 104
-0.999712, 127, 231, 142, 246
-0.999718, 447, 43, 462, 58
-0.999724, 277, 43, 292, 58
-0.999728, 143, 311, 158, 326
-0.999733, 249, 33, 280, 288
-0.999736, 363, 43, 378, 58
-0.999737, 77, 129, 92, 144
-0.999738, 93, 93, 108, 108
-0.99974, 287, 113, 302, 128
-0.999749, 481, 23, 496, 38
-0.999762, 37, 107, 52, 122
-0.999763, 373, 33, 404, 288
-0.999771, 19, 87, 34, 102
-0.99978, 61, 91, 76, 106
-0.999781, 377, 1, 440, 256
-0.999938, 437, 97, 468, 224
-0.999985, 113, 1, 144, 256
-1.00012, 129, 17, 384, 80
-1.00017, 389, 1, 420, 256
-1.00023, 65, 17, 192, 80
-1.00027, 409, 1, 440, 256
-1.00048, 305, 65, 432, 128
-1.00055, 257, 25, 500, 88
-1.00066, 113, 1, 240, 64
-1.00066, 305, 9, 432, 72
-1.00071, 385, 97, 448, 224
-1.0009, 1, 1, 256, 64
-1.00129, 65, 1, 128, 128
-1.00147, 297, 17, 360, 144
-1.00163, 1, 9, 500, 72
-1.00192, 1, 33, 500, 96
-1.0048, 321, 17, 384, 144
-1.00617, 369, 17, 432, 144
-1.00827, 393, 1, 456, 128
-1.00837, 345, 1, 408, 128
