1955
-0.20406, 1, 1, 500, 375
-0.305078, 1, 33, 500, 288
-0.3322, 97, 1, 352, 375
-0.347162, 1, 129, 500, 375
-0.42469, 1, 1, 256, 375
-0.441785, 193, 1, 448, 375
-0.515638, 1, 97, 256, 352
-0.556039, 97, 97, 352, 352
-0.577785, 193, 65, 448, 320
-0.599867, 65, 1, 320, 256
-0.809599, 17, 97, 144, 352
-0.836829, 97, 65, 224, 320
-0.843582, 49, 1, 176, 375
-0.856498, 97, 1, 224, 375
-0.85999, 145, 1, 272, 375
-0.860063, 289, 65, 416, 320
-0.86132, 209, 97, 336, 352
-0.861742, 1, 113, 500, 240
-0.86243, 1, 1, 128, 375
-0.86369, 1, 177, 500, 304
-0.869282, 145, 33, 272, 288
-0.870029, 1, 65, 500, 192
-0.872935, 193, 1, 320, 375
-0.876003, 337, 1, 464, 375
-0.876115, 1, 225, 500, 352
-0.880675, 257, 1, 384, 375
-0.880897, 337, 129, 464, 375
-0.889075, 49, 1, 176, 256
-0.892774, 1, 81, 256, 208
-0.894307, 65, 129, 320, 256
-0.895334, 193, 1, 320, 256
-0.898288, 225, 113, 480, 240
-0.900071, 145, 129, 272, 375
-0.900905, 97, 49, 352, 176
-0.901633, 1, 17, 500, 144
-0.904509, 97, 177, 352, 304
-0.907883, 193, 49, 448, 176
-0.908219, 1, 1, 128, 256
-0.91192, 369, 1, 496, 256
-0.916856, 241, 1, 368, 256
-0.917697, 17, 97, 144, 224
-0.918922, 1, 193, 256, 320
-0.920047, 33, 97, 96, 224
-0.922548, 225, 193, 480, 320
-0.925076, 161, 129, 288, 256
-0.926131, 73, 145, 136, 272
-0.926425, 33, 177, 160, 304
-0.928555, 81, 145, 208, 272
-0.930224, 225, 129, 288, 256
-0.932021, 89, 97, 152, 224
-0.932377, 81, 49, 208, 176
-0.932494, 209, 113, 336, 240
-0.933787, 97, 49, 160, 176
-0.934636, 33, 177, 96, 304
-0.935402, 145, 177, 272, 304
-0.935926, 121, 161, 184, 288
-0.93621, 1, 33, 256, 160
-0.936511, 249, 113, 312, 240
-0.937279, 145, 49, 272, 176
-0.938079, 353, 81, 416, 208
-0.938083, 129, 81, 192, 208
-0.938408, 65, 97, 192, 224
-0.938576, 97, 161, 160, 288
-0.939796, 257, 161, 384, 288
-0.939803, 1, 65, 64, 192
-0.939952, 249, 177, 312, 304
-0.940641, 113, 97, 240, 224
-0.942383, 65, 97, 128, 224
-0.942435, 193, 33, 320, 160
-0.943793, 209, 177, 336, 304
-0.944763, 257, 241, 500, 368
-0.945055, 17, 49, 144, 176
-0.945133, 57, 193, 120, 320
-0.945585, 161, 161, 224, 288
-0.945793, 201, 49, 264, 176
-0.94589, 81, 193, 208, 320
-0.946491, 289, 241, 416, 368
-0.946676, 273, 65, 400, 192
-0.947391, 273, 161, 336, 288
-0.947428, 337, 145, 400, 272
-0.948147, 193, 1, 448, 128
-0.948522, 9, 193, 72, 320
-0.948569, 1, 113, 64, 240
-0.948595, 225, 33, 288, 160
-0.948766, 305, 193, 432, 320
-0.948844, 313, 161, 376, 288
-0.949213, 73, 49, 136, 176
-0.949626, 329, 65, 392, 192
-0.949819, 201, 129, 264, 256
-0.95093, 329, 145, 392, 208
-0.951267, 97, 1, 352, 128
-0.951373, 169, 49, 232, 176
-0.951406, 57, 241, 120, 368
-0.951406, 81, 161, 144, 224
-0.951781, 1, 241, 256, 368
-0.95207, 337, 209, 400, 336
-0.952412, 33, 105, 96, 168
-0.952814, 57, 169, 120, 232
-0.953197, 241, 113, 304, 176
-0.953284, 257, 113, 384, 240
-0.953396, 33, 49, 96, 176
-0.953409, 305, 145, 432, 272
-0.954707, 281, 81, 344, 208
-0.955012, 209, 177, 272, 304
-0.955265, 153, 185, 216, 248
-0.955283, 97, 81, 160, 144
-0.955351, 113, 185, 176, 248
-0.956125, 185, 185, 248, 248
-0.956226, 329, 81, 392, 144
-0.956897, 361, 193, 424, 320
-0.95715, 105, 161, 168, 224
-0.957223, 1, 241, 128, 368
-0.957348, 353, 105, 416, 168
-0.957753, 265, 105, 328, 168
-0.958353, 201, 105, 264, 168
-0.958833, 33, 241, 96, 368
-0.958854, 33, 169, 96, 232
-0.959204, 297, 209, 360, 336
-0.95921, 129, 97, 192, 160
-0.959533, 305, 113, 368, 240
-0.959738, 129, 33, 192, 160
-0.96035, 329, 121, 392, 184
-0.961126, 57, 97, 120, 352
-0.961481, 1, 73, 64, 136
-0.96167, 161, 97, 224, 224
-0.961766, 33, 97, 96, 352
-0.96183, 337, 241, 464, 368
-0.96196, 65, 65, 128, 128
-0.962171, 129, 153, 192, 216
-0.962776, 97, 65, 160, 320
-0.963044, 217, 185, 280, 248
-0.963149, 97, 209, 160, 336
-0.963155, 353, 145, 416, 208
-0.963167, 49, 241, 176, 368
-0.963443, 273, 209, 336, 272
-0.963634, 337, 1, 464, 128
-0.963861, 321, 97, 448, 224
-0.963947, 225, 81, 288, 208
-0.963958, 265, 185, 328, 248
-0.964131, 273, 105, 304, 168
-0.96429, 73, 97, 136, 160
-0.964447, 129, 209, 192, 272
-0.964866, 361, 241, 424, 368
-0.965055, 353, 161, 480, 288
-0.965241, 89, 185, 152, 248
-0.965402, 185, 177, 248, 304
-0.965584, 329, 17, 392, 144
-0.96565, 353, 177, 416, 240
-0.965766, 33, 129, 96, 192
-0.966116, 369, 113, 496, 240
-0.966163, 9, 241, 72, 368
-0.966174, 117, 145, 148, 272
-0.966377, 361, 1, 424, 128
-0.966401, 297, 161, 360, 224
-0.966439, 145, 185, 272, 248
-0.966464, 361, 145, 424, 272
-0.966719, 289, 105, 352, 168
-0.967002, 241, 17, 368, 144
-0.967021, 249, 33, 312, 160
-0.96709, 297, 209, 360, 272
-0.967414, 93, 65, 124, 192
-0.967448, 369, 97, 432, 352
-0.967605, 241, 225, 368, 352
-0.967758, 137, 57, 200, 120
-0.967918, 241, 185, 304, 248
-0.967974, 9, 129, 72, 375
-0.968309, 193, 49, 256, 112
-0.96852, 65, 257, 128, 320
-0.968661, 385, 241, 448, 368
-0.968713, 257, 129, 288, 256
-0.968991, 105, 145, 136, 272
-0.968992, 241, 129, 272, 256
-0.969057, 121, 65, 184, 320
-0.969202, 17, 265, 80, 328
-0.969222, 77, 113, 108, 240
-0.969238, 345, 65, 408, 320
-0.96944, 281, 33, 344, 160
-0.96975, 305, 65, 368, 192
-0.969777, 65, 161, 192, 224
-0.969952, 337, 113, 368, 176
-0.969994, 409, 289, 472, 352
-0.970021, 1, 121, 64, 184
-0.970067, 69, 161, 100, 288
-0.970093, 153, 185, 184, 248
-0.970321, 289, 185, 352, 248
-0.97051, 33, 73, 96, 136
-0.970611, 97, 225, 352, 352
-0.970674, 273, 209, 336, 336
-0.970721, 273, 97, 304, 224
-0.970931, 49, 161, 80, 288
-0.971187, 41, 257, 104, 320
-0.971391, 305, 129, 368, 192
-0.971447, 353, 265, 416, 328
-0.971611, 89, 241, 152, 304
-0.971617, 85, 161, 116, 224
-0.971721, 113, 57, 176, 120
-0.971889, 121, 209, 184, 336
-0.971943, 153, 161, 216, 224
-0.972082, 69, 169, 100, 232
-0.972234, 241, 113, 272, 176
-0.972332, 81, 185, 208, 248
-0.972536, 321, 49, 448, 176
-0.972582, 313, 249, 376, 312
-0.972599, 193, 185, 320, 248
-0.972609, 1, 73, 128, 136
-0.972636, 93, 161, 124, 288
-0.972678, 17, 105, 144, 168
-0.972816, 89, 129, 152, 192
-0.972817, 333, 81, 364, 144
-0.972865, 65, 97, 96, 224
-0.972869, 9, 177, 72, 240
-0.97289, 161, 121, 288, 184
-0.972914, 141, 185, 172, 248
-0.972945, 1, 65, 32, 192
-0.973086, 261, 105, 292, 168
-0.973205, 133, 97, 164, 224
-0.973219, 165, 161, 196, 288
-0.973232, 49, 73, 176, 136
-0.973265, 257, 105, 384, 168
-0.973329, 385, 129, 448, 256
-0.973343, 37, 65, 68, 192
-0.973493, 377, 273, 440, 336
-0.973512, 81, 161, 112, 288
-0.973572, 201, 41, 232, 104
-0.973581, 189, 185, 220, 248
-0.973586, 217, 49, 280, 112
-0.973645, 121, 65, 152, 192
-0.973779, 89, 57, 152, 120
-0.973827, 353, 81, 416, 144
-0.973974, 81, 97, 208, 160
-0.973981, 145, 145, 176, 272
-0.974009, 105, 161, 136, 224
-0.97405, 385, 193, 448, 320
-0.974055, 225, 145, 288, 208
-0.974063, 121, 65, 152, 128
-0.974221, 213, 49, 244, 176
-0.974233, 289, 193, 416, 256
-0.974233, 377, 97, 408, 224
-0.974235, 37, 161, 68, 288
-0.974239, 393, 65, 456, 192
-0.974272, 289, 233, 352, 296
-0.974287, 173, 185, 204, 248
-0.9743, 169, 113, 232, 176
-0.974304, 117, 161, 148, 224
-0.974366, 221, 185, 252, 248
-0.974415, 233, 217, 296, 280
-0.974468, 45, 177, 76, 240
-0.974486, 225, 217, 352, 280
-0.974556, 201, 129, 264, 192
-0.974617, 289, 81, 352, 144
-0.974618, 17, 201, 80, 264
-0.974774, 225, 89, 288, 152
-0.974831, 129, 145, 160, 272
-0.974854, 145, 209, 208, 336
-0.974855, 313, 97, 376, 352
-0.975089, 321, 225, 384, 288
-0.975124, 33, 201, 160, 264
-0.975147, 93, 113, 124, 240
-0.975275, 105, 97, 136, 224
-0.975519, 17, 169, 144, 232
-0.975564, 129, 1, 256, 128
-0.975597, 105, 193, 136, 320
-0.975685, 49, 1, 112, 256
-0.975731, 229, 129, 260, 256
-0.975747, 57, 169, 88, 232
-0.975758, 201, 185, 232, 248
-0.975787, 305, 209, 336, 272
-0.975808, 65, 193, 128, 256
-0.975818, 361, 1, 424, 64
-0.975832, 417, 241, 480, 368
-0.97585, 169, 209, 232, 272
-0.97585, 433, 297, 496, 360
-0.975861, 349, 105, 380, 168
-0.975876, 305, 145, 432, 208
-0.975956, 129, 209, 256, 272
-0.975964, 377, 201, 440, 264
-0.976037, 249, 145, 312, 208
-0.976173, 93, 73, 124, 136
-0.976297, 201, 65, 264, 320
-0.97631, 133, 153, 164, 216
-0.976338, 117, 185, 148, 248
-0.976396, 1, 145, 64, 208
-0.976423, 65, 137, 128, 200
-0.97648, 349, 81, 380, 144
-0.976485, 273, 81, 400, 144
-0.976558, 53, 113, 84, 240
-0.976686, 17, 193, 48, 320
-0.976705, 169, 57, 232, 120
-0.976771, 353, 145, 384, 208
-0.976794, 97, 105, 160, 168
-0.977069, 233, 49, 264, 176
-0.977069, 321, 201, 384, 264
-0.977125, 241, 97, 304, 352
-0.977125, 329, 177, 392, 240
-0.977235, 193, 209, 256, 272
-0.977254, 253, 177, 284, 304
-0.977364, 201, 129, 232, 256
-0.977415, 237, 177, 268, 304
-0.977589, 337, 1, 400, 64
-0.977654, 329, 65, 360, 192
-0.977654, 41, 113, 72, 240
-0.977758, 153, 65, 216, 320
-0.977937, 345, 193, 376, 320
-0.97795, 13, 65, 44, 192
-0.978045, 329, 113, 360, 240
-0.978052, 33, 177, 64, 240
-0.978143, 209, 105, 336, 168
-0.978151, 329, 57, 392, 120
-0.978245, 305, 105, 432, 168
-0.978277, 1, 209, 32, 336
-0.978417, 257, 49, 288, 176
-0.978439, 113, 129, 176, 192
-0.978442, 113, 161, 240, 224
-0.978452, 1, 33, 64, 288
-0.978453, 225, 105, 256, 168
-0.978569, 201, 49, 232, 176
-0.978594, 1, 73, 32, 136
-0.978599, 181, 49, 212, 176
-0.978646, 293, 185, 324, 248
-0.978678, 41, 201, 104, 264
-0.978804, 345, 209, 408, 272
-0.978931, 37, 113, 68, 176
-0.97894, 281, 129, 344, 192
-0.978951, 377, 105, 408, 168
-0.979055, 357, 241, 388, 368
-0.979127, 273, 177, 304, 304
-0.979141, 241, 129, 368, 192
-0.979172, 305, 169, 432, 232
-0.979195, 289, 129, 352, 375
-0.979199, 177, 33, 240, 288
-0.979291, 113, 233, 176, 296
-0.979415, 129, 57, 256, 120
-0.979531, 369, 209, 400, 336
-0.979556, 401, 233, 464, 296
-0.979568, 321, 121, 352, 184
-0.979607, 361, 113, 392, 176
-0.979628, 205, 105, 236, 168
-0.979726, 329, 193, 360, 320
-0.979794, 153, 153, 184, 216
-0.97984, 25, 113, 56, 240
-0.979887, 145, 81, 176, 208
-0.979899, 193, 73, 256, 136
-0.979935, 1, 17, 64, 144
-0.980053, 377, 137, 440, 200
-0.980234, 81, 65, 112, 192
-0.980277, 309, 161, 340, 288
-0.980397, 17, 137, 144, 200
-0.98048, 241, 185, 368, 248
-0.980538, 177, 161, 208, 288
-0.980548, 189, 129, 220, 256
-0.980563, 89, 1, 152, 375
-0.98058, 285, 161, 316, 288
-0.980595, 69, 241, 100, 368
-0.980616, 361, 161, 392, 288
-0.980636, 269, 129, 300, 192
-0.98065, 89, 209, 152, 272
-0.980721, 69, 257, 100, 320
-0.98075, 85, 105, 116, 168
-0.980755, 193, 145, 320, 208
-0.980793, 25, 1, 88, 256
-0.980855, 233, 185, 264, 248
-0.980874, 293, 209, 324, 272
-0.980931, 217, 161, 248, 288
-0.981014, 81, 241, 112, 368
-0.981115, 49, 1, 176, 128
-0.981132, 109, 49, 140, 176
-0.98115, 1, 1, 128, 128
-0.981289, 337, 1, 400, 375
-0.981306, 137, 97, 168, 160
-0.981341, 129, 201, 160, 264
-0.981346, 161, 97, 192, 224
-0.981599, 377, 161, 440, 224
-0.981649, 45, 265, 76, 328
-0.981665, 373, 161, 404, 288
-0.981674, 65, 105, 96, 168
-0.981679, 341, 137, 372, 200
-0.981705, 17, 257, 144, 320
-0.981706, 97, 1, 160, 128
-0.981707, 49, 65, 80, 192
-0.981743, 225, 49, 256, 112
-0.981752, 281, 185, 312, 248
-0.98177, 209, 25, 272, 88
-0.98179, 385, 17, 448, 144
-0.981836, 153, 137, 216, 200
-0.981871, 117, 193, 148, 320
-0.981903, 73, 1, 136, 256
-0.981969, 365, 73, 396, 136
-0.982043, 321, 145, 352, 208
-0.982086, 377, 81, 408, 144
-0.982108, 133, 225, 164, 288
-0.982144, 233, 225, 296, 352
-0.982153, 229, 129, 260, 192
-0.982169, 289, 257, 416, 320
-0.982189, 385, 33, 416, 160
-0.982198, 85, 129, 116, 192
-0.982211, 321, 81, 448, 144
-0.982222, 289, 1, 416, 128
-0.982227, 177, 209, 304, 272
-0.982414, 177, 161, 240, 224
-0.982459, 169, 33, 232, 96
-0.982501, 145, 33, 176, 160
-0.982611, 369, 289, 496, 352
-0.982648, 333, 217, 364, 280
-0.982678, 393, 33, 456, 288
-0.982701, 321, 217, 448, 280
-0.982739, 381, 209, 412, 336
-0.982751, 1, 97, 64, 160
-0.982781, 1, 1, 64, 375
-0.982792, 105, 65, 136, 128
-0.982843, 257, 153, 384, 216
-0.982947, 341, 65, 372, 192
-0.983024, 353, 33, 416, 96
-0.983031, 285, 105, 316, 168
-0.983037, 353, 81, 384, 208
-0.98308, 345, 233, 408, 296
-0.983131, 213, 113, 244, 240
-0.98317, 33, 1, 96, 375
-0.983184, 121, 1, 184, 375
-0.983211, 433, 201, 496, 264
-0.983241, 225, 1, 288, 256
-0.983317, 161, 89, 224, 152
-0.983344, 265, 233, 328, 296
-0.98346, 57, 209, 88, 336
-0.983517, 141, 57, 172, 120
-0.983523, 185, 1, 248, 128
-0.983539, 93, 249, 124, 312
-0.983564, 193, 49, 320, 112
-0.983588, 245, 81, 276, 208
-0.983662, 21, 273, 52, 336
-0.983687, 297, 161, 328, 288
-0.983727, 249, 185, 280, 248
-0.983737, 157, 49, 188, 176
-0.983744, 145, 97, 272, 160
-0.983791, 81, 65, 112, 128
-0.983797, 321, 209, 352, 272
-0.983824, 369, 177, 496, 240
-0.983838, 113, 121, 240, 184
-0.983849, 33, 73, 64, 136
-0.983949, 273, 217, 400, 280
-0.983962, 245, 33, 276, 160
-0.983963, 177, 137, 240, 200
-0.984049, 469, 305, 500, 368
-0.984051, 113, 241, 144, 304
-0.984106, 305, 17, 368, 144
-0.984145, 81, 225, 208, 288
-0.984167, 53, 73, 84, 136
-0.984199, 133, 49, 164, 176
-0.984278, 73, 129, 104, 192
-0.984308, 289, 113, 320, 240
-0.984315, 261, 193, 292, 256
-0.984318, 17, 73, 48, 136
-0.984324, 265, 97, 328, 352
-0.984338, 353, 57, 416, 120
-0.984341, 337, 265, 464, 328
-0.984343, 429, 289, 460, 352
-0.984451, 161, 1, 224, 375
-0.984462, 353, 129, 480, 192
-0.984492, 193, 225, 320, 352
-0.984505, 145, 209, 176, 272
-0.984506, 377, 137, 408, 200
-0.984522, 365, 81, 396, 208
-0.984526, 453, 297, 484, 360
-0.984564, 393, 129, 456, 375
-0.984585, 345, 57, 376, 120
-0.98461, 241, 1, 304, 375
-0.984612, 369, 65, 496, 192
-0.984622, 365, 161, 396, 224
-0.984648, 177, 129, 240, 375
-0.98465, 413, 281, 444, 344
-0.984656, 349, 129, 380, 256
-0.984674, 189, 105, 220, 168
-0.984732, 249, 145, 280, 208
-0.984751, 281, 129, 312, 192
-0.984848, 341, 241, 372, 368
-0.984896, 193, 1, 256, 375
-0.984963, 257, 17, 384, 80
-0.984978, 153, 193, 184, 320
-0.985068, 257, 33, 320, 96
-0.985085, 81, 49, 208, 112
-0.985103, 281, 217, 312, 280
-0.985122, 265, 1, 328, 256
-0.985129, 373, 265, 404, 328
-0.985129, 393, 273, 424, 336
-0.985174, 357, 257, 388, 320
-0.985184, 265, 81, 328, 144
-0.985195, 25, 65, 56, 192
-0.985293, 37, 209, 68, 336
-0.985296, 209, 225, 272, 352
-0.985309, 129, 193, 160, 320
-0.985487, 317, 113, 348, 240
-0.985551, 173, 113, 204, 240
-0.985574, 341, 249, 372, 312
-0.985605, 397, 241, 428, 368
-0.985626, 65, 1, 128, 375
-0.985648, 105, 185, 136, 248
-0.985673, 97, 97, 128, 160
-0.985682, 213, 49, 244, 112
-0.985685, 321, 97, 352, 160
-0.985739, 69, 193, 100, 256
-0.985879, 133, 129, 164, 192
-0.985908, 377, 105, 440, 168
-0.98595, 41, 233, 104, 296
-0.985957, 349, 225, 380, 288
-0.986137, 273, 153, 336, 216
-0.986147, 385, 73, 448, 136
-0.986279, 321, 1, 384, 256
-0.986336, 65, 225, 128, 288
-0.986438, 337, 17, 464, 80
-0.98644, 353, 9, 384, 72
-0.98645, 285, 209, 316, 336
-0.986491, 353, 105, 480, 168
-0.986499, 65, 49, 96, 176
-0.986575, 361, 1, 424, 375
-0.986575, 369, 1, 400, 128
-0.986575, 1, 129, 32, 256
-0.986601, 297, 57, 360, 120
-0.986605, 129, 177, 160, 240
-0.986616, 433, 193, 496, 320
-0.986629, 329, 33, 392, 96
-0.986632, 217, 1, 280, 375
-0.986653, 377, 177, 408, 240
-0.986686, 121, 137, 152, 200
-0.986686, 161, 1, 224, 128
-0.986716, 269, 49, 300, 176
-0.986728, 57, 257, 88, 320
-0.986731, 121, 17, 152, 144
-0.986747, 33, 265, 64, 328
-0.986751, 321, 241, 352, 304
-0.986767, 353, 153, 480, 216
-0.986835, 109, 89, 140, 152
-0.986851, 201, 161, 264, 224
-0.986876, 337, 41, 464, 104
-0.986878, 193, 81, 320, 144
-0.986888, 209, 25, 336, 88
-0.986919, 377, 225, 440, 288
-0.986954, 353, 1, 384, 128
-0.987136, 385, 1, 448, 375
-0.987206, 421, 209, 452, 336
-0.987287, 9, 273, 40, 336
-0.987351, 313, 185, 344, 248
-0.987397, 49, 201, 80, 264
-0.98746, 17, 137, 48, 200
-0.987462, 49, 105, 80, 168
-0.987471, 369, 233, 496, 296
-0.98748, 225, 113, 480, 176
-0.987505, 369, 1, 432, 256
-0.987557, 93, 209, 124, 336
-0.987575, 305, 17, 368, 80
-0.987626, 17, 49, 144, 112
-0.987673, 389, 97, 420, 160
-0.987696, 417, 265, 480, 328
-0.987795, 81, 249, 112, 312
-0.987829, 165, 153, 196, 216
-0.987898, 201, 129, 232, 192
-0.987903, 441, 289, 472, 352
-0.98793, 21, 241, 52, 368
-0.987934, 189, 65, 220, 128
-0.98795, 161, 97, 192, 160
-0.987956, 389, 113, 420, 240
-0.988114, 377, 249, 440, 312
-0.988136, 197, 177, 228, 304
-0.988172, 217, 209, 248, 272
-0.988193, 129, 33, 256, 96
-0.988227, 81, 17, 112, 144
-0.988271, 81, 193, 112, 256
-0.988277, 209, 161, 240, 224
-0.988299, 289, 1, 352, 375
-0.98832, 65, 137, 192, 200
-0.988324, 297, 233, 328, 296
-0.988358, 65, 73, 96, 136
-0.988365, 97, 217, 352, 280
-0.988506, 17, 49, 80, 112
-0.988518, 225, 117, 288, 148
-0.988519, 65, 249, 192, 312
-0.988543, 33, 113, 96, 144
-0.988587, 421, 217, 452, 280
-0.988647, 37, 201, 68, 264
-0.98866, 233, 25, 296, 88
-0.9887, 257, 41, 384, 104
-0.988814, 229, 209, 260, 272
-0.988835, 129, 189, 192, 220
-0.988849, 393, 9, 456, 72
-0.988864, 329, 153, 392, 184
-0.988894, 297, 209, 328, 336
-0.988984, 249, 113, 312, 144
-0.989017, 129, 137, 384, 200
-0.989021, 249, 125, 312, 156
-0.989055, 169, 49, 200, 176
-0.989059, 241, 241, 368, 304
-0.98907, 21, 209, 52, 272
-0.989078, 341, 17, 372, 144
-0.989098, 81, 193, 144, 224
-0.989116, 373, 41, 404, 104
-0.989124, 17, 241, 80, 304
-0.989128, 9, 209, 40, 272
-0.989214, 145, 33, 208, 96
-0.989243, 369, 1, 400, 64
-0.989245, 1, 105, 256, 168
-0.989282, 145, 217, 208, 248
-0.989314, 193, 177, 448, 240
-0.989324, 341, 185, 372, 248
-0.989327, 165, 209, 196, 336
-0.98934, 353, 153, 416, 184
-0.989366, 1, 193, 256, 256
-0.989371, 105, 193, 168, 224
-0.989393, 161, 193, 224, 224
-0.989393, 377, 49, 440, 112
-0.989406, 189, 161, 220, 224
-0.989417, 353, 109, 416, 140
-0.98943, 185, 205, 248, 236
-0.989446, 73, 105, 136, 136
-0.989482, 105, 93, 168, 124
-0.989525, 309, 233, 340, 296
-0.989573, 241, 193, 304, 224
-0.989595, 201, 249, 264, 312
-0.989637, 185, 189, 248, 220
-0.989656, 169, 209, 200, 272
-0.989683, 65, 41, 128, 104
-0.989722, 193, 125, 256, 156
-0.989783, 265, 1, 328, 375
-0.989814, 321, 105, 384, 136
-0.989817, 33, 297, 96, 360
-0.98983, 217, 129, 280, 160
-0.989846, 213, 73, 244, 136
-0.989859, 409, 225, 440, 352
-0.989868, 393, 177, 424, 304
-0.989888, 97, 69, 160, 100
-0.989894, 317, 65, 348, 192
-0.989915, 353, 141, 416, 172
-0.989916, 225, 205, 288, 236
-0.989938, 129, 97, 192, 128
-0.989946, 329, 141, 392, 172
-0.98998, 273, 209, 336, 240
-0.989987, 1, 97, 32, 160
-0.99001, 281, 113, 344, 144
-0.990019, 249, 205, 312, 236
-0.990039, 185, 49, 248, 80
-0.990041, 161, 205, 224, 236
-0.990063, 209, 193, 272, 224
-0.990085, 329, 117, 392, 148
-0.990123, 57, 197, 120, 228
-0.990144, 337, 89, 400, 120
-0.990167, 353, 165, 416, 196
-0.990191, 241, 273, 304, 336
-0.990198, 1, 233, 500, 296
-0.990211, 1, 185, 500, 248
-0.990217, 265, 185, 328, 216
-0.990221, 97, 33, 160, 96
-0.990246, 433, 225, 464, 352
-0.990261, 89, 165, 152, 196
-0.990268, 97, 193, 352, 256
-0.990332, 209, 53, 272, 84
-0.990401, 137, 201, 200, 232
-0.99041, 313, 1, 376, 375
-0.990414, 129, 157, 192, 188
-0.9905, 353, 313, 416, 375
-0.990507, 329, 241, 360, 368
-0.990517, 221, 209, 252, 336
-0.990531, 97, 97, 352, 160
-0.990601, 305, 149, 368, 180
-0.990608, 57, 1, 120, 128
-0.990638, 105, 181, 168, 212
-0.990647, 185, 61, 248, 92
-0.99065, 65, 69, 128, 100
-0.990652, 297, 213, 360, 244
-0.990704, 201, 113, 264, 144
-0.990709, 313, 225, 344, 352
-0.990761, 153, 181, 216, 212
-0.990765, 81, 249, 144, 280
-0.990775, 293, 49, 324, 176
-0.990784, 361, 177, 424, 208
-0.990787, 1, 97, 500, 160
-0.990794, 361, 121, 424, 152
-0.990794, 9, 305, 72, 368
-0.990798, 17, 209, 80, 240
-0.990799, 41, 177, 104, 208
-0.990811, 329, 165, 392, 196
-0.990835, 33, 161, 96, 192
-0.990838, 73, 89, 136, 120
-0.990855, 97, 105, 160, 136
-0.990861, 65, 169, 128, 200
-0.990863, 33, 265, 96, 296
-0.990873, 105, 81, 168, 112
-0.990889, 281, 125, 344, 156
-0.99094, 361, 1, 424, 32
-0.990945, 305, 129, 368, 160
-0.990977, 249, 217, 312, 248
-0.990985, 57, 257, 120, 288
-0.991022, 169, 217, 232, 248
-0.991079, 329, 77, 392, 108
-0.991087, 1, 153, 256, 216
-0.99113, 1, 141, 64, 172
-0.991149, 129, 177, 192, 208
-0.991158, 129, 229, 192, 260
-0.991173, 1, 277, 64, 308
-0.9912, 33, 141, 96, 172
-0.991204, 385, 281, 448, 312
-0.991207, 401, 185, 464, 248
-0.991212, 1, 117, 64, 148
-0.991214, 265, 137, 328, 168
-0.991218, 305, 117, 368, 148
-0.991239, 1, 17, 32, 144
-0.991241, 337, 261, 400, 292
-0.991243, 297, 201, 360, 232
-0.991253, 265, 229, 328, 260
-0.991272, 433, 301, 496, 332
-0.991273, 169, 137, 232, 168
-0.99128, 305, 85, 368, 116
-0.991312, 153, 101, 216, 132
-0.991326, 25, 73, 88, 104
-0.991337, 305, 189, 368, 220
-0.99134, 225, 217, 288, 248
-0.99135, 1, 129, 64, 160
-0.99139, 337, 209, 400, 240
-0.991393, 409, 289, 472, 320
-0.991406, 105, 205, 168, 236
-0.991409, 89, 117, 152, 148
-0.991416, 33, 129, 96, 160
-0.991416, 225, 105, 288, 136
-0.991423, 289, 241, 352, 272
-0.991431, 169, 113, 232, 144
-0.991433, 305, 161, 368, 192
-0.991453, 369, 213, 432, 244
-0.991455, 225, 89, 480, 152
-0.991457, 1, 257, 500, 320
-0.991458, 169, 125, 232, 156
-0.991458, 137, 61, 200, 92
-0.991459, 369, 73, 496, 136
-0.991468, 377, 161, 440, 192
-0.991469, 345, 13, 408, 44
-0.991506, 129, 85, 192, 116
-0.991522, 297, 101, 360, 132
-0.99153, 361, 97, 424, 128
-0.991542, 241, 137, 304, 168
-0.991544, 209, 41, 272, 72
-0.991556, 97, 17, 128, 144
-0.99156, 337, 197, 400, 228
-0.991569, 49, 101, 112, 132
-0.991597, 1, 145, 500, 208
-0.991597, 313, 249, 376, 280
-0.991599, 193, 137, 256, 168
-0.991599, 273, 197, 336, 228
-0.991608, 289, 33, 352, 288
-0.99161, 329, 129, 392, 160
-0.991611, 417, 129, 480, 375
-0.991616, 97, 57, 160, 88
-0.991628, 33, 337, 96, 368
-0.991632, 97, 57, 352, 120
-0.991638, 265, 9, 328, 72
-0.991643, 361, 269, 424, 300
-0.991655, 417, 1, 480, 128
-0.991657, 105, 241, 168, 272
-0.99166, 217, 181, 280, 212
-0.991683, 141, 193, 172, 320
-0.99172, 73, 145, 136, 176
-0.99183, 337, 177, 400, 208
-0.99183, 1, 77, 64, 108
-0.991834, 313, 225, 376, 256
-0.991836, 49, 17, 80, 144
-0.991841, 121, 113, 184, 144
-0.991868, 161, 57, 224, 88
-0.991872, 305, 173, 368, 204
-0.991886, 281, 173, 344, 204
-0.991895, 129, 145, 192, 176
-0.991906, 273, 113, 304, 144
-0.991907, 145, 225, 272, 352
-0.991911, 13, 113, 44, 240
-0.991915, 9, 169, 72, 200
-0.991926, 1, 73, 500, 136
-0.991949, 229, 121, 260, 152
-0.991972, 241, 181, 304, 212
-0.991986, 329, 1, 392, 32
-0.992019, 201, 221, 264, 252
-0.992041, 249, 121, 280, 152
-0.99207, 65, 157, 128, 188
-0.992123, 273, 129, 304, 160
-0.992125, 353, 149, 384, 180
-0.992132, 341, 141, 372, 172
-0.992133, 409, 33, 472, 96
-0.992189, 257, 201, 500, 264
-0.992219, 161, 193, 288, 224
-0.992268, 349, 105, 380, 136
-0.992287, 261, 113, 292, 144
-0.992297, 129, 233, 256, 296
-0.992304, 333, 121, 364, 152
-0.992306, 105, 241, 136, 368
-0.992328, 261, 193, 292, 224
-0.992358, 173, 193, 204, 224
-0.992358, 361, 161, 392, 192
-0.992366, 113, 193, 144, 224
-0.992374, 209, 121, 240, 152
-0.992383, 261, 125, 292, 156
-0.992405, 153, 193, 184, 224
-0.99241, 449, 241, 480, 368
-0.992436, 257, 265, 500, 328
-0.992437, 65, 109, 96, 140
-0.992453, 249, 133, 280, 164
-0.99247, 233, 193, 264, 224
-0.992471, 89, 105, 120, 136
-0.992481, 281, 33, 312, 160
-0.992501, 173, 205, 204, 236
-0.992502, 141, 185, 172, 216
-0.99251, 85, 157, 116, 188
-0.992511, 333, 121, 348, 184
-0.99253, 225, 137, 480, 200
-0.992548, 169, 217, 200, 248
-0.992561, 125, 189, 156, 220
-0.992564, 249, 205, 280, 236
-0.992568, 121, 97, 152, 128
-0.99257, 337, 109, 368, 140
-0.992583, 121, 69, 152, 100
-0.992584, 185, 193, 216, 224
-0.992589, 153, 205, 184, 236
-0.992604, 233, 133, 264, 164
-0.992618, 357, 89, 388, 120
-0.992619, 201, 189, 232, 220
-0.992623, 401, 81, 432, 208
-0.992634, 33, 113, 64, 144
-0.992643, 17, 17, 48, 144
-0.992643, 157, 217, 188, 248
-0.992656, 245, 193, 276, 224
-0.992656, 1, 129, 256, 192
-0.992657, 101, 69, 132, 100
-0.992665, 301, 205, 332, 236
-0.992668, 101, 189, 132, 220
-0.992677, 287, 105, 302, 168
-0.992679, 213, 189, 244, 220
-0.99269, 269, 213, 300, 244
-0.9927, 33, 17, 64, 144
-0.992707, 321, 129, 352, 160
-0.992722, 237, 109, 268, 140
-0.992733, 353, 117, 384, 148
-0.992736, 133, 101, 164, 132
-0.992737, 201, 49, 232, 80
-0.992738, 213, 109, 244, 140
-0.992748, 165, 181, 196, 212
-0.992748, 373, 161, 404, 192
-0.992777, 329, 149, 360, 180
-0.99278, 77, 197, 108, 228
-0.992786, 333, 85, 364, 116
-0.992792, 77, 109, 108, 140
-0.992802, 237, 205, 268, 236
-0.992804, 137, 225, 168, 256
-0.992805, 353, 137, 384, 168
-0.992811, 285, 217, 316, 248
-0.992824, 377, 109, 408, 140
-0.992824, 273, 193, 304, 224
-0.992826, 201, 61, 232, 92
-0.992833, 121, 85, 152, 116
-0.992838, 229, 53, 260, 84
-0.99284, 333, 97, 364, 128
-0.992846, 61, 201, 92, 232
-0.992853, 297, 185, 328, 216
-0.992858, 89, 197, 120, 228
-0.992866, 297, 221, 328, 252
-0.992867, 177, 181, 208, 212
-0.992876, 185, 205, 216, 236
-0.992876, 105, 249, 136, 280
-0.992881, 181, 217, 212, 248
-0.992882, 73, 121, 104, 152
-0.992887, 189, 125, 220, 156
-0.992889, 153, 181, 184, 212
-0.992892, 85, 121, 116, 152
-0.992896, 177, 209, 208, 336
-0.992897, 137, 149, 168, 180
-0.992901, 285, 193, 316, 224
-0.992907, 49, 205, 80, 236
-0.992916, 213, 53, 244, 84
-0.992921, 157, 97, 188, 128
-0.992923, 469, 241, 500, 368
-0.992931, 285, 117, 316, 148
-0.992931, 41, 165, 72, 196
-0.992933, 137, 197, 168, 228
-0.992934, 281, 205, 312, 236
-0.992936, 225, 205, 256, 236
-0.992939, 369, 89, 400, 120
-0.99294, 261, 137, 292, 168
-0.99294, 441, 297, 472, 328
-0.992946, 469, 309, 500, 340
-0.992948, 133, 161, 164, 192
-0.99295, 421, 221, 452, 252
-0.992956, 349, 77, 380, 108
-0.992956, 313, 217, 344, 248
-0.992959, 421, 289, 452, 320
-0.99296, 33, 209, 64, 240
-0.992961, 133, 89, 164, 120
-0.992963, 53, 109, 84, 140
-0.992963, 157, 161, 188, 192
-0.992973, 85, 257, 116, 288
-0.992974, 49, 269, 80, 300
-0.992984, 101, 89, 132, 120
-0.992987, 1, 81, 32, 112
-0.992988, 345, 257, 376, 288
-0.992995, 69, 261, 100, 292
-0.992995, 281, 181, 312, 212
-0.992995, 401, 281, 432, 312
-0.992996, 57, 177, 88, 208
-0.992998, 17, 213, 48, 244
-0.993, 197, 205, 228, 236
-0.993003, 317, 117, 348, 148
-0.993003, 113, 165, 144, 196
-0.993006, 457, 305, 488, 336
-0.993012, 85, 169, 116, 200
-0.993018, 321, 197, 352, 228
-0.993021, 325, 249, 356, 280
-0.993025, 33, 273, 64, 304
-0.993026, 137, 173, 168, 204
-0.993027, 73, 157, 104, 188
-0.99303, 389, 101, 420, 132
-0.99303, 1, 217, 32, 248
-0.993031, 89, 69, 120, 100
-0.993034, 373, 269, 404, 300
-0.993035, 329, 213, 360, 244
-0.993043, 209, 205, 240, 236
-0.993046, 21, 277, 52, 308
-0.993047, 109, 101, 140, 132
-0.993054, 369, 77, 400, 108
-0.993058, 329, 161, 360, 192
-0.993061, 69, 173, 100, 204
-0.993096, 161, 205, 288, 236
-0.99322, 193, 117, 320, 148
-0.993226, 197, 1, 228, 128
-0.993259, 275, 105, 290, 168
-0.99326, 217, 1, 248, 128
-0.993334, 193, 33, 448, 96
-0.993338, 157, 185, 172, 248
-0.993436, 241, 225, 272, 352
-0.993535, 97, 161, 352, 224
-0.993566, 1, 49, 500, 112
-0.993591, 305, 141, 432, 172
-0.993592, 129, 161, 144, 224
-0.993612, 281, 105, 296, 168
-0.993617, 145, 121, 272, 152
-0.993648, 65, 105, 192, 136
-0.993671, 97, 189, 224, 220
-0.993675, 205, 185, 220, 248
-0.993688, 365, 145, 380, 208
-0.993689, 71, 169, 86, 232
-0.993702, 321, 313, 448, 375
-0.993747, 341, 89, 356, 152
-0.993871, 1, 209, 500, 272
-0.993882, 345, 113, 360, 176
-0.993906, 147, 185, 162, 248
-0.993914, 235, 105, 250, 168
-0.993936, 273, 125, 400, 156
-0.993965, 263, 121, 278, 184
-0.993978, 103, 65, 118, 128
-0.994005, 193, 241, 448, 304
-0.994007, 1, 73, 256, 136
-0.994031, 105, 161, 120, 224
-0.99407, 113, 229, 240, 260
-0.994093, 89, 153, 104, 216
-0.994127, 255, 113, 270, 176
-0.994159, 49, 177, 64, 240
-0.994161, 133, 1, 164, 128
-0.994194, 77, 169, 92, 232
-0.994199, 163, 193, 178, 256
-0.994206, 205, 105, 220, 168
-0.994224, 17, 109, 144, 140
-0.994224, 371, 145, 386, 208
-0.994236, 193, 57, 448, 120
-0.994258, 81, 201, 208, 232
-0.99426, 1, 225, 128, 288
-0.994286, 173, 185, 188, 248
-0.994366, 371, 121, 386, 184
-0.994374, 81, 25, 208, 88
-0.994381, 193, 129, 320, 160
-0.994383, 33, 241, 288, 304
-0.994387, 61, 177, 76, 240
-0.994388, 221, 185, 236, 248
-0.994404, 43, 177, 58, 240
-0.994426, 49, 69, 176, 100
-0.994438, 1, 281, 128, 344
-0.994466, 409, 1, 472, 375
-0.994473, 211, 185, 226, 248
-0.994474, 119, 161, 134, 224
-0.994479, 33, 169, 160, 200
-0.994509, 307, 201, 322, 264
-0.994512, 93, 97, 124, 352
-0.99452, 209, 209, 240, 336
-0.994527, 113, 161, 128, 224
-0.994586, 87, 129, 102, 192
-0.994604, 241, 113, 256, 176
-0.994633, 177, 217, 304, 248
-0.994648, 83, 169, 98, 232
-0.994668, 273, 105, 400, 136
-0.994669, 55, 177, 70, 240
-0.994682, 365, 121, 380, 184
-0.994683, 199, 185, 214, 248
-0.994686, 183, 185, 198, 248
-0.994712, 269, 105, 284, 168
-0.994717, 153, 161, 168, 224
-0.994723, 97, 169, 112, 232
-0.994726, 257, 145, 384, 176
-0.99474, 89, 105, 104, 168
-0.994754, 139, 201, 154, 264
-0.994762, 39, 113, 54, 176
-0.994802, 139, 145, 154, 208
-0.994805, 191, 185, 206, 248
-0.994839, 335, 97, 350, 160
-0.994851, 33, 201, 160, 232
-0.994856, 409, 193, 472, 320
-0.994861, 121, 65, 136, 128
-0.994902, 231, 185, 246, 248
-0.994907, 369, 209, 496, 272
-0.994962, 337, 153, 352, 216
-0.994965, 1, 73, 128, 104
-0.994987, 17, 149, 144, 180
-0.995004, 209, 193, 336, 224
-0.995025, 229, 105, 244, 168
-0.99503, 357, 137, 372, 200
-0.995033, 139, 97, 154, 160
-0.995036, 33, 129, 64, 375
-0.995057, 305, 161, 432, 192
-0.995084, 77, 105, 92, 168
-0.995107, 145, 181, 272, 212
-0.995118, 65, 97, 96, 352
-0.995131, 329, 17, 360, 144
-0.995131, 135, 121, 150, 184
-0.995148, 111, 73, 126, 136
-0.995155, 133, 201, 148, 264
-0.995168, 351, 113, 366, 176
-0.995169, 95, 105, 110, 168
-0.995201, 257, 297, 384, 360
-0.995205, 375, 169, 390, 232
-0.995206, 355, 89, 370, 152
-0.995226, 369, 313, 496, 375
-0.995231, 161, 9, 288, 72
-0.995236, 49, 93, 176, 124
-0.99526, 159, 153, 174, 216
-0.995264, 321, 125, 448, 156
-0.99527, 177, 249, 304, 312
-0.995274, 371, 89, 386, 152
-0.995279, 349, 81, 364, 144
-0.995282, 265, 225, 296, 352
-0.995287, 313, 209, 328, 272
-0.995299, 257, 193, 384, 224
-0.995303, 97, 65, 224, 96
-0.995307, 385, 81, 400, 144
-0.995318, 1, 121, 500, 184
-0.995321, 301, 201, 316, 264
-0.99533, 153, 209, 168, 272
-0.995332, 3, 73, 18, 136
-0.995342, 217, 41, 232, 104
-0.99536, 321, 113, 448, 144
-0.995381, 249, 105, 264, 168
-0.995389, 145, 109, 272, 140
-0.995393, 209, 229, 336, 260
-0.995395, 305, 177, 432, 208
-0.995404, 325, 217, 340, 280
-0.995413, 239, 185, 254, 248
-0.995413, 193, 9, 448, 72
-0.995423, 295, 185, 310, 248
-0.995447, 45, 129, 76, 375
-0.995449, 75, 257, 90, 320
-0.995454, 109, 97, 140, 352
-0.995463, 17, 125, 144, 156
-0.995468, 339, 121, 354, 184
-0.995476, 289, 93, 416, 124
-0.995482, 97, 33, 352, 96
-0.995505, 365, 97, 396, 352
-0.995508, 269, 129, 284, 192
-0.995564, 289, 221, 416, 252
-0.995577, 81, 161, 208, 192
-0.995585, 241, 205, 368, 236
-0.995607, 137, 73, 152, 136
-0.995611, 129, 217, 256, 248
-0.995625, 377, 113, 392, 176
-0.995676, 57, 73, 72, 136
-0.995676, 147, 209, 162, 272
-0.99569, 43, 73, 58, 136
-0.995692, 245, 185, 260, 248
-0.995704, 69, 257, 84, 320
-0.995704, 209, 141, 336, 172
-0.995715, 343, 209, 358, 272
-0.995761, 145, 97, 160, 160
-0.99578, 207, 41, 222, 104
-0.995784, 425, 281, 440, 344
-0.995787, 1, 33, 256, 96
-0.995797, 61, 265, 76, 328
-0.995797, 97, 65, 112, 128
-0.9958, 49, 73, 64, 136
-0.995808, 367, 257, 382, 320
-0.995813, 335, 217, 350, 280
-0.995815, 279, 129, 294, 192
-0.995832, 167, 153, 182, 216
-0.99584, 377, 97, 408, 352
-0.995847, 231, 49, 246, 112
-0.995849, 49, 189, 176, 220
-0.995863, 285, 185, 300, 248
-0.995868, 223, 49, 238, 112
-0.995885, 257, 289, 500, 352
-0.99589, 37, 73, 52, 136
-0.995896, 387, 265, 402, 328
-0.99591, 401, 97, 416, 160
-0.995926, 133, 65, 164, 320
-0.995929, 319, 201, 334, 264
-0.99594, 351, 145, 366, 208
-0.995954, 483, 305, 498, 368
-0.995969, 463, 297, 478, 360
-0.995972, 445, 289, 460, 352
-0.995988, 81, 65, 112, 320
-0.995989, 417, 1, 480, 256
-0.996002, 407, 273, 422, 336
-0.996004, 37, 169, 52, 232
-0.996018, 433, 217, 448, 280
-0.996032, 337, 213, 464, 244
-0.996033, 177, 49, 304, 80
-0.996042, 47, 265, 62, 328
-0.99606, 117, 241, 132, 304
-0.996068, 251, 185, 266, 248
-0.996069, 127, 185, 142, 248
-0.996074, 363, 97, 378, 160
-0.996086, 305, 225, 320, 288
-0.996093, 93, 249, 108, 312
-0.996099, 147, 57, 162, 120
-0.996102, 223, 73, 238, 136
-0.996106, 139, 225, 154, 288
-0.996114, 79, 129, 94, 192
-0.996129, 257, 185, 272, 248
-0.996136, 345, 137, 360, 200
-0.996164, 1, 217, 256, 280
-0.996174, 271, 185, 286, 248
-0.996179, 349, 249, 364, 312
-0.996191, 349, 217, 364, 280
-0.996203, 279, 185, 294, 248
-0.996211, 121, 185, 136, 248
-0.996213, 81, 117, 208, 148
-0.996232, 49, 313, 176, 375
-0.996234, 419, 281, 434, 344
-0.996235, 377, 89, 392, 152
-0.996236, 305, 65, 336, 192
-0.996249, 97, 177, 224, 208
-0.996277, 161, 141, 288, 172
-0.9963, 21, 129, 52, 375
-0.996316, 369, 297, 496, 328
-0.996345, 33, 257, 160, 288
-0.996354, 257, 249, 384, 280
-0.996373, 389, 129, 420, 375
-0.996425, 225, 181, 352, 212
-0.996432, 337, 101, 464, 132
-0.996467, 49, 81, 176, 112
-0.996481, 289, 261, 416, 292
-0.996509, 1, 97, 32, 352
-0.996579, 209, 289, 336, 352
-0.996585, 37, 33, 68, 288
-0.996592, 209, 1, 336, 64
-0.996611, 337, 281, 464, 312
-0.996614, 25, 1, 88, 128
-0.996619, 129, 53, 256, 84
-0.99662, 49, 33, 80, 288
-0.99662, 305, 197, 432, 228
-0.996701, 121, 33, 152, 288
-0.996713, 257, 37, 384, 68
-0.996727, 97, 241, 224, 272
-0.996743, 225, 217, 352, 248
-0.996763, 193, 105, 320, 136
-0.996773, 353, 65, 384, 320
-0.996805, 385, 1, 416, 256
-0.996869, 313, 97, 344, 352
-0.996875, 49, 57, 176, 88
-0.996905, 239, 125, 254, 156
-0.996906, 273, 125, 288, 156
-0.99693, 193, 65, 224, 320
-0.996931, 1, 265, 256, 328
-0.996943, 251, 129, 266, 160
-0.996943, 1, 273, 128, 304
-0.996958, 341, 145, 356, 176
-0.996964, 263, 129, 278, 160
-0.996983, 365, 149, 380, 180
-0.996984, 93, 109, 108, 140
-0.996984, 337, 9, 464, 40
-0.996997, 145, 33, 176, 288
-0.997002, 205, 33, 236, 288
-0.997018, 369, 185, 496, 216
-0.997052, 97, 93, 224, 124
-0.997067, 371, 109, 386, 140
-0.99707, 337, 53, 464, 84
-0.997085, 353, 141, 480, 172
-0.997085, 1, 181, 128, 212
-0.997088, 287, 113, 302, 144
-0.997102, 337, 89, 464, 120
-0.997113, 283, 129, 298, 160
-0.997117, 337, 69, 464, 100
-0.997122, 229, 125, 244, 156
-0.99713, 97, 149, 224, 180
-0.997139, 355, 141, 370, 172
-0.997142, 225, 49, 352, 80
-0.997173, 17, 137, 144, 168
-0.997174, 233, 113, 248, 144
-0.997191, 249, 193, 264, 224
-0.997196, 137, 97, 152, 128
-0.997207, 353, 153, 480, 184
-0.997219, 329, 97, 360, 352
-0.997223, 257, 1, 384, 32
-0.997223, 257, 121, 272, 152
-0.997225, 373, 1, 404, 256
-0.997232, 333, 129, 348, 160
-0.997232, 257, 17, 384, 48
-0.997237, 289, 81, 416, 112
-0.997239, 371, 157, 386, 188
-0.997247, 245, 65, 276, 320
-0.99725, 351, 109, 366, 140
-0.997251, 181, 33, 212, 288
-0.997261, 49, 289, 176, 352
-0.997265, 61, 1, 92, 256
-0.997268, 1, 61, 128, 92
-0.997295, 245, 121, 260, 152
-0.997302, 341, 65, 372, 320
-0.997328, 279, 113, 294, 144
-0.997334, 229, 1, 260, 256
-0.997341, 205, 113, 220, 144
-0.997348, 261, 193, 276, 224
-0.997353, 177, 205, 192, 236
-0.997363, 171, 193, 186, 224
-0.997375, 289, 209, 416, 240
-0.99738, 37, 113, 52, 144
-0.997383, 91, 157, 106, 188
-0.997388, 87, 113, 102, 144
-0.997389, 81, 213, 208, 244
-0.997396, 305, 233, 432, 264
-0.997417, 81, 137, 208, 168
-0.997423, 223, 61, 238, 92
-0.997424, 109, 193, 124, 224
-0.997432, 255, 193, 270, 224
-0.997433, 187, 193, 202, 224
-0.997434, 369, 173, 496, 204
-0.997434, 105, 1, 136, 256
-0.997441, 145, 153, 272, 184
-0.997442, 333, 117, 348, 148
-0.99745, 77, 109, 92, 140
-0.997461, 129, 81, 256, 112
-0.997474, 217, 65, 248, 320
-0.997478, 157, 185, 172, 216
-0.997487, 209, 37, 336, 68
-0.997488, 243, 193, 258, 224
-0.99749, 175, 217, 190, 248
-0.997507, 277, 97, 308, 352
-0.997507, 161, 65, 192, 320
-0.99751, 115, 189, 130, 220
-0.997517, 251, 117, 266, 148
-0.997522, 205, 125, 220, 156
-0.997531, 271, 193, 286, 224
-0.997532, 301, 97, 332, 352
-0.997538, 271, 205, 286, 236
-0.997549, 341, 117, 356, 148
-0.99755, 135, 189, 150, 220
-0.997552, 361, 129, 376, 160
-0.997555, 125, 193, 140, 224
-0.997557, 337, 25, 464, 56
-0.99759, 257, 133, 272, 164
-0.997609, 137, 153, 152, 184
-0.997614, 337, 37, 464, 68
-0.997614, 261, 205, 276, 236
-0.997619, 211, 121, 226, 152
-0.997621, 337, 337, 464, 368
-0.997624, 181, 193, 196, 224
-0.997628, 289, 97, 320, 352
-0.997636, 229, 129, 260, 375
-0.997638, 1, 93, 128, 124
-0.997649, 183, 205, 198, 236
-0.997653, 1, 213, 128, 244
-0.997657, 401, 97, 432, 352
-0.997661, 235, 193, 250, 224
-0.997664, 269, 137, 284, 168
-0.997673, 195, 193, 210, 224
-0.997677, 179, 181, 194, 212
-0.997677, 163, 189, 178, 220
-0.997677, 223, 189, 238, 220
-0.997678, 17, 33, 48, 288
-0.997682, 1, 81, 16, 112
-0.997684, 281, 193, 296, 224
-0.997692, 321, 289, 448, 352
-0.997695, 373, 169, 388, 200
-0.99772, 121, 129, 152, 375
-0.997732, 181, 217, 196, 248
-0.997733, 81, 253, 208, 284
-0.997735, 251, 205, 266, 236
-0.997736, 89, 129, 104, 160
-0.997739, 369, 137, 384, 168
-0.997739, 357, 153, 372, 184
-0.99774, 165, 205, 180, 236
-0.997743, 335, 153, 350, 184
-0.997745, 207, 185, 222, 216
-0.997752, 367, 121, 382, 152
-0.997761, 365, 109, 380, 140
-0.997762, 245, 133, 260, 164
-0.997764, 171, 205, 186, 236
-0.997764, 289, 273, 416, 304
-0.997767, 1, 305, 128, 368
-0.997776, 217, 189, 232, 220
-0.997781, 267, 113, 282, 144
-0.997795, 245, 205, 260, 236
-0.997795, 79, 201, 94, 232
-0.997797, 299, 217, 314, 248
-0.997798, 257, 65, 288, 320
-0.997798, 103, 105, 118, 136
-0.997815, 1, 1, 500, 64
-0.997817, 275, 137, 290, 168
-0.997818, 239, 113, 254, 144
-0.997819, 239, 205, 254, 236
-0.997828, 291, 193, 306, 224
-0.997829, 113, 97, 128, 128
-0.997829, 201, 189, 216, 220
-0.99783, 209, 169, 336, 200
-0.997831, 143, 105, 158, 136
-0.997839, 139, 141, 154, 172
-0.997842, 103, 69, 118, 100
-0.997848, 369, 197, 496, 228
-0.99785, 1, 25, 500, 88
-0.997851, 347, 137, 362, 168
-0.997857, 229, 193, 244, 224
-0.997863, 151, 181, 166, 212
-0.997866, 353, 225, 480, 256
-0.997869, 223, 125, 238, 156
-0.997871, 257, 237, 384, 268
-0.997873, 307, 201, 322, 232
-0.997877, 257, 69, 384, 100
-0.997887, 337, 245, 464, 276
-0.997888, 169, 217, 184, 248
-0.99789, 371, 97, 386, 128
-0.997902, 145, 97, 272, 128
-0.997903, 131, 97, 146, 128
-0.997903, 95, 125, 110, 156
-0.997913, 349, 121, 364, 152
-0.997916, 181, 129, 212, 375
-0.997922, 289, 213, 304, 244
-0.997923, 187, 217, 202, 248
-0.997926, 277, 209, 292, 240
-0.997926, 343, 213, 358, 244
-0.997929, 423, 221, 438, 252
-0.997934, 339, 165, 354, 196
-0.997939, 221, 49, 236, 80
-0.997943, 257, 161, 384, 192
-0.997946, 111, 69, 126, 100
-0.99795, 133, 117, 148, 148
-0.997954, 147, 193, 162, 224
-0.997958, 1, 345, 128, 375
-0.997965, 141, 193, 156, 224
-0.997966, 87, 141, 102, 172
-0.997973, 91, 197, 106, 228
-0.997973, 345, 85, 360, 116
-0.997976, 189, 205, 204, 236
-0.997978, 365, 161, 380, 192
-0.997989, 271, 217, 286, 248
-0.997989, 65, 205, 80, 236
-0.997994, 333, 165, 348, 196
-0.997994, 103, 189, 118, 220
-0.997998, 233, 205, 248, 236
-0.998005, 71, 109, 86, 140
-0.998013, 231, 57, 246, 88
-0.998014, 123, 245, 138, 276
-0.998018, 299, 181, 314, 212
-0.998022, 417, 221, 432, 252
-0.998023, 273, 113, 288, 144
-0.998024, 461, 301, 476, 332
-0.998029, 99, 253, 114, 284
-0.998033, 61, 177, 76, 208
-0.998034, 289, 125, 304, 156
-0.998038, 113, 1, 240, 64
-0.99804, 479, 309, 494, 340
-0.998091, 145, 65, 272, 96
-0.998111, 369, 121, 496, 152
-0.998158, 145, 169, 272, 200
-0.998166, 93, 1, 124, 256
-0.998207, 145, 129, 176, 375
-0.998213, 273, 57, 400, 88
-0.998225, 33, 225, 160, 256
-0.998264, 33, 241, 160, 272
-0.998283, 337, 325, 464, 356
-0.998302, 209, 77, 336, 108
-0.998302, 269, 1, 300, 256
-0.998324, 209, 65, 336, 96
-0.998337, 255, 129, 270, 256
-0.998372, 65, 9, 320, 72
-0.998382, 97, 195, 160, 210
-0.99839, 369, 257, 496, 288
-0.998391, 249, 127, 312, 142
-0.998391, 125, 145, 140, 272
-0.998393, 209, 241, 336, 272
-0.998404, 129, 41, 256, 72
-0.998424, 337, 269, 464, 300
-0.998427, 129, 193, 192, 208
-0.99843, 73, 201, 136, 216
-0.998432, 269, 227, 300, 242
-0.998433, 469, 309, 500, 324
-0.998433, 1, 221, 32, 236
-0.998433, 193, 117, 224, 132
-0.998433, 329, 151, 360, 166
-0.998433, 225, 123, 288, 138
-0.998434, 201, 141, 232, 156
-0.998434, 101, 251, 132, 266
-0.998434, 77, 167, 108, 182
-0.998435, 67, 161, 82, 288
-0.998435, 241, 115, 272, 130
-0.998435, 413, 223, 444, 238
-0.998436, 329, 131, 360, 146
-0.998437, 25, 277, 56, 292
-0.998437, 249, 119, 312, 134
-0.998438, 65, 125, 96, 140
-0.998438, 425, 225, 456, 240
-0.998438, 369, 91, 400, 106
-0.998438, 37, 273, 68, 288
-0.998438, 457, 305, 488, 320
-0.998439, 289, 211, 320, 226
-0.998439, 361, 117, 392, 132
-0.99844, 89, 71, 120, 86
-0.998441, 61, 265, 92, 280
-0.998442, 329, 103, 360, 118
-0.998442, 49, 269, 80, 284
-0.998443, 101, 107, 132, 122
-0.998444, 297, 227, 328, 242
-0.998444, 141, 205, 172, 220
-0.998445, 73, 261, 104, 276
-0.998446, 261, 115, 292, 130
-0.998446, 213, 71, 244, 86
-0.998446, 205, 219, 236, 234
-0.998447, 349, 163, 380, 178
-0.998447, 281, 193, 312, 208
-0.998448, 261, 217, 292, 232
-0.998448, 85, 257, 116, 272
-0.998448, 33, 113, 96, 128
-0.998449, 13, 217, 44, 232
-0.998449, 225, 219, 256, 234
-0.99845, 137, 157, 168, 172
-0.99845, 141, 227, 172, 242
-0.99845, 101, 201, 132, 216
-0.998451, 201, 61, 232, 76
-0.998451, 261, 133, 292, 148
-0.998452, 77, 161, 108, 176
-0.998452, 333, 159, 364, 174
-0.998452, 97, 77, 128, 92
-0.998453, 349, 157, 380, 172
-0.998455, 89, 159, 120, 174
-0.998455, 97, 101, 160, 116
-0.998456, 257, 197, 288, 212
-0.998456, 133, 107, 164, 122
-0.998457, 197, 73, 228, 88
-0.998457, 301, 209, 332, 224
-0.998457, 353, 165, 416, 180
-0.998458, 29, 213, 60, 228
-0.998458, 229, 57, 260, 72
-0.998459, 173, 207, 204, 222
-0.998459, 225, 135, 288, 150
-0.998459, 97, 71, 160, 86
-0.998461, 341, 149, 372, 164
-0.998462, 89, 171, 120, 186
-0.998462, 353, 141, 384, 156
-0.998463, 209, 51, 240, 66
-0.998463, 353, 111, 416, 126
-0.998464, 321, 119, 352, 134
-0.998467, 261, 129, 276, 256
-0.998468, 119, 145, 134, 272
-0.998468, 121, 69, 152, 84
-0.998468, 201, 129, 232, 144
-0.998472, 361, 107, 392, 122
-0.998473, 149, 187, 180, 202
-0.998473, 89, 113, 104, 240
-0.998473, 349, 107, 380, 122
-0.998474, 377, 111, 408, 126
-0.998474, 185, 61, 248, 76
-0.998476, 265, 121, 296, 136
-0.998477, 373, 163, 404, 178
-0.998479, 349, 119, 380, 134
-0.99848, 85, 127, 116, 142
-0.998481, 137, 185, 168, 200
-0.998482, 217, 133, 248, 148
-0.998482, 353, 147, 384, 162
-0.998483, 329, 153, 392, 168
-0.998485, 349, 87, 380, 102
-0.998485, 157, 101, 188, 116
-0.998485, 225, 129, 288, 144
-0.998486, 261, 139, 292, 154
-0.998488, 121, 101, 184, 116
-0.99849, 225, 117, 288, 132
-0.998491, 73, 119, 104, 134
-0.998491, 89, 165, 120, 180
-0.998492, 117, 199, 148, 214
-0.998492, 181, 191, 212, 206
-0.998493, 33, 115, 64, 130
-0.998493, 185, 191, 248, 206
-0.998496, 217, 115, 248, 130
-0.998496, 153, 219, 216, 234
-0.998497, 281, 123, 344, 138
-0.998499, 373, 173, 404, 188
-0.9985, 193, 223, 224, 238
-0.9985, 153, 197, 216, 212
-0.9985, 109, 101, 140, 116
-0.998502, 73, 107, 136, 122
-0.998502, 193, 219, 256, 234
-0.998502, 265, 139, 328, 154
-0.998503, 233, 219, 296, 234
-0.998503, 97, 107, 160, 122
-0.998503, 201, 139, 264, 154
-0.998504, 201, 115, 264, 130
-0.998504, 49, 207, 80, 222
-0.998505, 113, 187, 176, 202
-0.998505, 213, 125, 244, 140
-0.998506, 361, 171, 424, 186
-0.998506, 357, 93, 388, 108
-0.998506, 97, 161, 112, 288
-0.998507, 281, 117, 344, 132
-0.998507, 185, 67, 248, 82
-0.998507, 201, 189, 232, 204
-0.998509, 353, 153, 416, 168
-0.99851, 133, 99, 164, 114
-0.99851, 249, 217, 280, 232
-0.998511, 329, 143, 392, 158
-0.998514, 153, 189, 216, 204
-0.998515, 157, 199, 188, 214
-0.998515, 169, 219, 200, 234
-0.998515, 321, 89, 384, 104
-0.998515, 241, 127, 272, 142
-0.998515, 129, 201, 192, 216
-0.998517, 205, 129, 236, 375
-0.998517, 353, 159, 416, 174
-0.998518, 125, 189, 156, 204
-0.998518, 237, 219, 268, 234
-0.998518, 265, 217, 328, 232
-0.998518, 49, 203, 112, 218
-0.998519, 361, 173, 392, 188
-0.998519, 205, 117, 236, 132
-0.998521, 249, 113, 312, 128
-0.998521, 229, 119, 260, 134
-0.998523, 105, 201, 168, 216
-0.998524, 185, 53, 248, 68
-0.998526, 201, 123, 264, 138
-0.998526, 69, 113, 100, 128
-0.998527, 277, 125, 308, 140
-0.998529, 145, 193, 176, 208
-0.998529, 321, 121, 384, 136
-0.998533, 89, 109, 120, 124
-0.998535, 361, 147, 424, 162
-0.998535, 129, 199, 160, 214
-0.998536, 65, 75, 128, 90
-0.998536, 201, 67, 232, 82
-0.998538, 253, 121, 284, 136
-0.998539, 201, 123, 232, 138
-0.998539, 145, 225, 208, 240
-0.99854, 353, 117, 416, 132
-0.99854, 209, 55, 272, 70
-0.998541, 33, 333, 160, 364
-0.998542, 305, 147, 368, 162
-0.998542, 321, 161, 384, 176
-0.998543, 265, 133, 328, 148
-0.998543, 109, 145, 124, 272
-0.998543, 321, 113, 384, 128
-0.998544, 181, 221, 212, 236
-0.998544, 337, 177, 400, 192
-0.998545, 241, 141, 304, 156
-0.998545, 131, 145, 146, 272
-0.998547, 249, 129, 264, 256
-0.998547, 73, 195, 136, 210
-0.998547, 73, 161, 88, 288
-0.998548, 333, 115, 364, 130
-0.998549, 33, 179, 96, 194
-0.998549, 297, 221, 360, 236
-0.998551, 321, 171, 384, 186
-0.998552, 337, 95, 400, 110
-0.998552, 101, 71, 132, 86
-0.998553, 113, 95, 176, 110
-0.998555, 169, 141, 232, 156
-0.998556, 141, 199, 172, 214
-0.998559, 169, 197, 200, 212
-0.998559, 169, 207, 232, 222
-0.998559, 361, 153, 392, 168
-0.99856, 289, 337, 416, 368
-0.998562, 33, 171, 96, 186
-0.998566, 361, 159, 392, 174
-0.998566, 33, 209, 96, 224
-0.998567, 241, 197, 304, 212
-0.998567, 1, 215, 64, 230
-0.998568, 341, 143, 372, 158
-0.998571, 201, 129, 264, 144
-0.998573, 229, 131, 260, 146
-0.998573, 121, 107, 184, 122
-0.998573, 281, 111, 344, 126
-0.998575, 137, 129, 152, 256
-0.998576, 169, 117, 232, 132
-0.998576, 185, 73, 248, 88
-0.998578, 249, 137, 280, 152
-0.998579, 361, 177, 424, 192
-0.99858, 225, 125, 256, 140
-0.998581, 361, 5, 424, 20
-0.998584, 97, 77, 160, 92
-0.998585, 277, 137, 308, 152
-0.998586, 105, 195, 136, 210
-0.998586, 33, 125, 96, 140
-0.998588, 89, 89, 152, 104
-0.998588, 33, 75, 96, 90
-0.998588, 217, 145, 280, 160
-0.998588, 361, 137, 424, 152
-0.998589, 297, 231, 360, 246
-0.998589, 333, 121, 364, 136
-0.998589, 257, 229, 320, 244
-0.998589, 305, 153, 368, 168
-0.99859, 329, 105, 392, 120
-0.998591, 61, 161, 76, 288
-0.998592, 161, 61, 224, 76
-0.998594, 121, 161, 184, 176
-0.998595, 97, 83, 160, 98
-0.998596, 209, 49, 272, 64
-0.998596, 169, 147, 232, 162
-0.998597, 321, 127, 384, 142
-0.998597, 289, 213, 352, 228
-0.998598, 361, 165, 392, 180
-0.9986, 1, 155, 64, 170
-0.9986, 97, 65, 112, 192
-0.9986, 277, 131, 308, 146
-0.998601, 329, 83, 392, 98
-0.998601, 353, 123, 416, 138
-0.998601, 249, 191, 312, 206
-0.998602, 33, 147, 96, 162
-0.998602, 65, 203, 96, 218
-0.998603, 361, 11, 424, 26
-0.998603, 433, 307, 496, 322
-0.998603, 241, 207, 304, 222
-0.998604, 1, 119, 64, 134
-0.998604, 1, 139, 64, 154
-0.998604, 305, 141, 368, 156
-0.998605, 1, 79, 64, 94
-0.998605, 297, 89, 360, 104
-0.998606, 145, 103, 208, 118
-0.998606, 33, 141, 96, 156
-0.998607, 89, 117, 152, 132
-0.998607, 337, 213, 400, 228
-0.998608, 305, 133, 368, 148
-0.998608, 89, 169, 152, 184
-0.998608, 401, 225, 464, 240
-0.998608, 33, 133, 96, 148
-0.998609, 157, 193, 188, 208
-0.998609, 177, 197, 240, 212
-0.99861, 25, 275, 88, 290
-0.99861, 169, 225, 232, 240
-0.99861, 81, 95, 144, 110
-0.99861, 361, 101, 424, 116
-0.998611, 275, 129, 290, 256
-0.998612, 1, 129, 64, 144
-0.998612, 273, 115, 304, 130
-0.998612, 409, 297, 472, 312
-0.998613, 1, 149, 64, 164
-0.998614, 129, 231, 192, 246
-0.998615, 65, 173, 128, 188
-0.998615, 145, 213, 208, 228
-0.998617, 345, 203, 408, 218
-0.998617, 265, 235, 328, 250
-0.998619, 65, 259, 128, 274
-0.998619, 193, 225, 256, 240
-0.99862, 361, 183, 424, 198
-0.99862, 257, 127, 288, 142
-0.998621, 121, 101, 152, 116
-0.998621, 209, 207, 272, 222
-0.998626, 349, 113, 380, 128
-0.998629, 229, 141, 260, 156
-0.998632, 161, 289, 416, 352
-0.998633, 165, 161, 180, 288
-0.998636, 1, 301, 128, 332
-0.998642, 85, 199, 116, 214
-0.998642, 103, 161, 118, 288
-0.99865, 241, 121, 272, 136
-0.998658, 289, 325, 416, 356
-0.998659, 83, 113, 98, 240
-0.998671, 83, 161, 98, 288
-0.998692, 269, 129, 284, 256
-0.998693, 241, 89, 368, 120
-0.998696, 111, 97, 126, 224
-0.998705, 39, 65, 54, 192
-0.99871, 77, 97, 92, 224
-0.998712, 183, 129, 198, 256
-0.998718, 55, 161, 70, 288
-0.99872, 289, 129, 304, 256
-0.998726, 251, 177, 266, 304
-0.998728, 1, 1, 32, 256
-0.998728, 171, 161, 186, 288
-0.998729, 105, 97, 120, 224
-0.998731, 95, 113, 110, 240
-0.998748, 283, 97, 298, 224
-0.998749, 139, 65, 154, 192
-0.998776, 43, 177, 58, 304
-0.998782, 225, 265, 352, 328
-0.998784, 345, 193, 360, 320
-0.998795, 129, 97, 144, 224
-0.998802, 3, 65, 18, 192
-0.998805, 69, 113, 84, 240
-0.998809, 91, 193, 106, 320
-0.99881, 243, 129, 258, 256
-0.998811, 145, 241, 272, 272
-0.998822, 159, 177, 174, 304
-0.998829, 245, 177, 260, 304
-0.998839, 177, 161, 192, 288
-0.998845, 119, 193, 134, 320
-0.998853, 49, 161, 64, 288
-0.998857, 63, 113, 78, 240
-0.998865, 261, 177, 276, 304
-0.998866, 351, 193, 366, 320
-0.998866, 357, 161, 372, 288
-0.998878, 103, 49, 118, 176
-0.99888, 255, 81, 270, 208
-0.998883, 225, 49, 240, 176
-0.998884, 379, 97, 394, 224
-0.998888, 33, 113, 48, 240
-0.998888, 113, 193, 128, 320
-0.998892, 7, 209, 22, 336
-0.998901, 365, 113, 380, 240
-0.998909, 207, 33, 222, 160
-0.998909, 205, 113, 220, 240
-0.998913, 81, 45, 208, 76
-0.998933, 23, 193, 38, 320
-0.998936, 145, 81, 160, 208
-0.998938, 15, 209, 30, 336
-0.99894, 117, 97, 132, 224
-0.998949, 29, 65, 44, 192
-0.998953, 43, 113, 58, 240
-0.998954, 37, 193, 52, 320
-0.998954, 371, 241, 386, 368
-0.998954, 55, 97, 70, 224
-0.998956, 29, 193, 44, 320
-0.998959, 275, 177, 290, 304
-0.998961, 49, 113, 64, 240
-0.998966, 239, 177, 254, 304
-0.998971, 267, 177, 282, 304
-0.998971, 215, 49, 230, 176
-0.998978, 333, 65, 348, 192
-0.998987, 363, 161, 378, 288
-0.99899, 1, 209, 16, 336
-0.998991, 211, 129, 226, 256
-0.998994, 373, 161, 388, 288
-0.998996, 329, 1, 360, 256
-0.998996, 317, 161, 332, 288
-0.999001, 369, 309, 496, 340
-0.999002, 129, 49, 144, 176
-0.999003, 83, 241, 98, 368
-0.999011, 341, 113, 356, 240
-0.999012, 297, 161, 312, 288
-0.999013, 85, 65, 100, 192
-0.999018, 249, 81, 264, 208
-0.99902, 343, 65, 358, 192
-0.999022, 67, 241, 82, 368
-0.999028, 379, 209, 394, 336
-0.99903, 125, 193, 140, 320
-0.999043, 233, 161, 248, 288
-0.999044, 153, 145, 168, 272
-0.999047, 311, 161, 326, 288
-0.999048, 389, 81, 404, 208
-0.99905, 335, 129, 350, 256
-0.999054, 349, 129, 364, 256
-0.99906, 355, 113, 370, 240
-0.999062, 281, 177, 296, 304
-0.999063, 45, 65, 60, 192
-0.999071, 159, 129, 174, 256
-0.999079, 251, 33, 266, 160
-0.999081, 365, 209, 380, 336
-0.999081, 123, 65, 138, 192
-0.999082, 1, 129, 16, 256
-0.999085, 385, 209, 400, 336
-0.999086, 227, 161, 242, 288
-0.999091, 189, 161, 204, 288
-0.999091, 63, 65, 78, 192
-0.999093, 137, 177, 152, 304
-0.999096, 399, 81, 414, 208
-0.999097, 371, 113, 386, 240
-0.999102, 277, 81, 292, 208
-0.999103, 117, 49, 132, 176
-0.999105, 425, 129, 456, 375
-0.999114, 177, 261, 304, 292
-0.999115, 283, 49, 298, 176
-0.999121, 271, 81, 286, 208
-0.999123, 33, 25, 160, 88
-0.999124, 335, 193, 350, 320
-0.999127, 245, 33, 260, 160
-0.999127, 217, 161, 232, 288
-0.999128, 109, 49, 124, 176
-0.99913, 261, 81, 276, 208
-0.999131, 183, 177, 198, 304
-0.999133, 379, 161, 394, 288
-0.999135, 209, 153, 336, 184
-0.999139, 199, 129, 214, 256
-0.99914, 391, 17, 406, 144
-0.999142, 359, 209, 374, 336
-0.999143, 323, 161, 338, 288
-0.999147, 69, 65, 84, 192
-0.99915, 143, 145, 158, 272
-0.999152, 233, 33, 248, 160
-0.999157, 73, 241, 88, 368
-0.999157, 239, 49, 254, 176
-0.999161, 281, 1, 312, 256
-0.999162, 209, 25, 336, 56
-0.999184, 257, 285, 384, 316
-0.99925, 225, 313, 480, 375
-0.999266, 193, 93, 320, 124
-0.999272, 445, 129, 476, 375
-0.999288, 297, 1, 328, 256
-0.999298, 433, 1, 496, 375
-0.999366, 209, 281, 336, 312
-0.999471, 397, 1, 428, 256
-0.999515, 209, 1, 336, 32
-0.999517, 309, 1, 340, 256
-0.999529, 321, 313, 448, 344
-0.999569, 33, 289, 160, 320
-0.999586, 177, 225, 240, 352
-0.99959, 437, 1, 468, 256
-0.999629, 409, 1, 440, 256
-0.999634, 253, 135, 268, 150
-0.999634, 261, 197, 276, 212
-0.999634, 211, 117, 226, 132
-0.999636, 289, 139, 304, 154
-0.999636, 355, 153, 370, 168
-0.999636, 245, 117, 260, 132
-0.999636, 89, 143, 104, 158
-0.999636, 93, 121, 108, 136
-0.99964, 155, 187, 170, 202
-0.99964, 89, 149, 104, 164
-0.999641, 115, 101, 130, 116
-0.999641, 91, 159, 106, 174
-0.999642, 225, 131, 240, 146
-0.999642, 251, 219, 266, 234
-0.999643, 175, 207, 190, 222
-0.999643, 333, 125, 348, 140
-0.999644, 373, 177, 388, 192
-0.999644, 363, 119, 378, 134
-0.999647, 363, 157, 378, 172
-0.999647, 87, 115, 102, 130
-0.999647, 183, 219, 198, 234
-0.999648, 361, 169, 376, 184
-0.999648, 257, 217, 272, 232
-0.99965, 61, 207, 76, 222
-0.99965, 301, 229, 316, 244
-0.999651, 139, 159, 154, 174
-0.999651, 171, 197, 186, 212
-0.999652, 141, 189, 156, 204
-0.999652, 239, 219, 254, 234
-0.999652, 273, 125, 288, 140
-0.999653, 353, 109, 368, 124
-0.999655, 231, 57, 246, 72
-0.999656, 207, 141, 222, 156
-0.999656, 87, 109, 102, 124
-0.999658, 159, 221, 174, 236
-0.999658, 217, 73, 232, 88
-0.999659, 225, 125, 240, 140
-0.999659, 265, 217, 280, 232
-0.999659, 341, 217, 356, 232
-0.999661, 205, 131, 220, 146
-0.999662, 369, 125, 384, 140
-0.999662, 309, 207, 324, 222
-0.999663, 137, 107, 152, 122
-0.999664, 289, 129, 304, 144
-0.999664, 369, 109, 384, 124
-0.999664, 245, 219, 260, 234
-0.999664, 37, 117, 52, 132
-0.999665, 205, 115, 220, 130
-0.999668, 89, 127, 104, 142
-0.999668, 469, 129, 500, 375
-0.999669, 271, 217, 286, 232
-0.999669, 375, 113, 390, 128
-0.99967, 339, 155, 354, 170
-0.999671, 359, 109, 374, 124
-0.999671, 355, 167, 370, 182
-0.999672, 175, 219, 190, 234
-0.999673, 373, 165, 388, 180
-0.999675, 333, 155, 348, 170
-0.999675, 365, 163, 380, 178
-0.999676, 111, 71, 126, 86
-0.999676, 257, 141, 272, 156
-0.999676, 357, 117, 372, 132
-0.999677, 233, 117, 248, 132
-0.999678, 341, 117, 356, 132
-0.999678, 261, 123, 276, 138
-0.999678, 223, 65, 238, 80
-0.999679, 201, 223, 216, 238
-0.99968, 75, 111, 90, 126
-0.99968, 189, 221, 204, 236
-0.99968, 107, 201, 122, 216
-0.999683, 115, 195, 130, 210
-0.999684, 231, 139, 246, 154
-0.999685, 249, 123, 264, 138
-0.999685, 269, 141, 284, 156
-0.999687, 69, 203, 84, 218
-0.999688, 369, 91, 384, 106
-0.999688, 371, 157, 386, 172
-0.999691, 161, 187, 176, 202
-0.999692, 347, 141, 362, 156
-0.999693, 287, 115, 302, 130
-0.999698, 243, 123, 258, 138
-0.999698, 121, 101, 136, 116
-0.9997, 267, 123, 282, 138
-0.999701, 205, 121, 220, 136
-0.999701, 363, 143, 378, 158
-0.999702, 87, 121, 102, 136
-0.999703, 241, 141, 256, 156
-0.999704, 341, 123, 356, 138
-0.999705, 367, 169, 382, 184
-0.999707, 223, 71, 238, 86
-0.999707, 195, 221, 210, 236
-0.999711, 197, 67, 212, 82
-0.999713, 107, 195, 122, 210
-0.999714, 121, 195, 136, 210
-0.999714, 365, 151, 380, 166
-0.999716, 259, 129, 274, 144
-0.999716, 241, 129, 256, 144
-0.999719, 93, 109, 108, 124
-0.99972, 369, 119, 384, 134
-0.999721, 283, 137, 298, 152
-0.999723, 129, 195, 144, 210
-0.999726, 331, 119, 346, 134
-0.999727, 149, 193, 164, 208
-0.999727, 103, 71, 118, 86
-0.999728, 179, 197, 194, 212
-0.999729, 91, 165, 106, 180
-0.99973, 237, 123, 252, 138
-0.999731, 273, 131, 288, 146
-0.999733, 89, 201, 104, 216
-0.999734, 247, 137, 262, 152
-0.999739, 137, 99, 152, 114
-0.999739, 339, 161, 354, 176
-0.999742, 231, 133, 246, 148
-0.999743, 275, 139, 290, 154
-0.999743, 127, 101, 142, 116
-0.999747, 421, 1, 452, 256
-0.999749, 349, 115, 364, 130
-0.99975, 145, 199, 160, 214
-0.999752, 135, 195, 150, 210
-0.999754, 373, 171, 388, 186
-0.999755, 155, 197, 170, 212
-0.999755, 79, 203, 94, 218
-0.999763, 341, 147, 356, 162
-0.999764, 173, 191, 188, 206
-0.999769, 97, 199, 112, 214
-0.999775, 255, 121, 270, 136
-0.999776, 165, 193, 180, 208
-0.999777, 353, 141, 368, 156
-0.999785, 237, 135, 252, 150
-0.999786, 355, 147, 370, 162
-0.999789, 413, 97, 444, 352
-0.999794, 283, 131, 298, 146
-0.999799, 231, 125, 246, 140
-0.999844, 457, 129, 488, 375
-0.999996, 65, 289, 320, 352
-1.00013, 417, 145, 480, 272
-1.00015, 97, 265, 352, 328
-1.00027, 161, 273, 288, 336
-1.00033, 65, 1, 192, 64
-1.00051, 1, 313, 256, 375
-1.00059, 417, 49, 480, 176
-1.00075, 1, 289, 500, 352
-1.0009, 449, 1, 480, 256
-1.00099, 177, 313, 304, 375
-1.00122, 469, 33, 500, 288
-1.00144, 1, 313, 500, 375
-1.00166, 129, 313, 384, 375
-1.00205, 97, 305, 224, 368
-1.00208, 1, 1, 128, 64
-1.00217, 97, 281, 224, 344
-1.00464, 113, 257, 240, 320
-1.00799, 97, 241, 224, 368
-1.01015, 417, 97, 480, 224
