1899
-0.690061, 1, 65, 500, 320
-0.833267, 1, 1, 500, 335
-0.87126, 193, 1, 448, 335
-0.883584, 1, 1, 256, 335
-0.931795, 97, 1, 352, 335
-0.961498, 273, 1, 400, 335
-0.965249, 65, 1, 192, 335
-0.96584, 1, 209, 500, 335
-0.968329, 161, 1, 288, 335
-0.968758, 321, 1, 448, 335
-0.970804, 1, 65, 128, 320
-0.971735, 273, 65, 400, 320
-0.971749, 1, 1, 128, 335
-0.971792, 49, 65, 176, 320
-0.972105, 321, 65, 448, 320
-0.97323, 209, 1, 336, 335
-0.973636, 97, 65, 224, 320
-0.974739, 193, 65, 320, 320
-0.975487, 369, 1, 496, 335
-0.975899, 1, 161, 500, 288
-0.976035, 105, 249, 168, 312
-0.976402, 369, 65, 496, 320
-0.977537, 113, 1, 240, 335
-0.977752, 145, 65, 272, 320
-0.979454, 49, 209, 176, 335
-0.979454, 129, 209, 256, 335
-0.979485, 105, 209, 168, 335
-0.980687, 65, 209, 320, 335
-0.982552, 1, 209, 128, 335
-0.98269, 257, 65, 500, 320
-0.984782, 161, 209, 416, 335
-0.98513, 81, 209, 144, 335
-0.986762, 1, 113, 500, 240
-0.987267, 129, 209, 192, 335
-0.987514, 129, 241, 192, 304
-0.987689, 57, 209, 120, 335
-0.989421, 65, 273, 192, 335
-0.989768, 125, 249, 156, 312
-0.99013, 137, 241, 168, 304
-0.990288, 153, 209, 216, 335
-0.990589, 193, 209, 320, 335
-0.990841, 81, 273, 144, 335
-0.990898, 97, 241, 224, 304
-0.991072, 1, 65, 500, 192
-0.99126, 257, 209, 500, 335
-0.99165, 49, 249, 176, 312
-0.991685, 133, 209, 164, 335
-0.991802, 113, 273, 176, 335
-0.991914, 97, 265, 160, 296
-0.99192, 109, 241, 140, 304
-0.992083, 65, 249, 128, 312
-0.992457, 145, 209, 176, 335
-0.992516, 101, 273, 132, 335
-0.992668, 105, 253, 168, 284
-0.992739, 113, 209, 144, 335
-0.992777, 241, 209, 368, 335
-0.992975, 97, 241, 160, 272
-0.992984, 129, 245, 192, 276
-0.992985, 105, 225, 168, 288
-0.993075, 97, 277, 160, 308
-0.993181, 113, 241, 144, 272
-0.993211, 73, 273, 136, 304
-0.993235, 137, 241, 168, 272
-0.993258, 121, 265, 184, 296
-0.99328, 105, 261, 136, 292
-0.993328, 133, 277, 164, 308
-0.993339, 121, 277, 184, 308
-0.993345, 133, 261, 164, 292
-0.993346, 125, 233, 156, 264
-0.993406, 125, 249, 156, 280
-0.993422, 105, 277, 136, 308
-0.993423, 117, 261, 148, 292
-0.993473, 117, 277, 148, 308
-0.993484, 57, 261, 120, 292
-0.993505, 17, 209, 80, 335
-0.993614, 149, 237, 180, 268
-0.99363, 145, 273, 176, 304
-0.993632, 89, 269, 120, 300
-0.993682, 145, 273, 208, 304
-0.99375, 145, 257, 176, 288
-0.993764, 129, 233, 192, 264
-0.993782, 81, 253, 144, 284
-0.993859, 105, 229, 136, 260
-0.993865, 93, 281, 124, 312
-0.993887, 85, 249, 116, 280
-0.993888, 157, 269, 188, 300
-0.993909, 137, 229, 168, 260
-0.993942, 125, 221, 156, 252
-0.993952, 145, 261, 208, 292
-0.993987, 101, 249, 132, 280
-0.994027, 49, 301, 80, 332
-0.994044, 157, 257, 188, 288
-0.994046, 153, 225, 184, 256
-0.994049, 145, 285, 176, 316
-0.994054, 61, 301, 92, 332
-0.994067, 173, 265, 204, 296
-0.994071, 193, 265, 224, 296
-0.994075, 93, 305, 124, 335
-0.994079, 105, 217, 136, 248
-0.99408, 1, 217, 32, 248
-0.994089, 137, 217, 168, 248
-0.994092, 113, 305, 144, 335
-0.994093, 1, 301, 32, 332
-0.994093, 105, 289, 136, 320
-0.994097, 313, 305, 344, 335
-0.994097, 369, 301, 400, 332
-0.994098, 469, 289, 500, 320
-0.994099, 89, 237, 120, 268
-0.994103, 37, 305, 68, 335
-0.994107, 73, 297, 104, 328
-0.99411, 29, 217, 60, 248
-0.994111, 93, 293, 124, 324
-0.994112, 397, 301, 428, 332
-0.994113, 217, 273, 248, 304
-0.994113, 97, 229, 160, 260
-0.994115, 245, 257, 276, 288
-0.994115, 205, 265, 236, 296
-0.994116, 53, 281, 84, 312
-0.994116, 181, 253, 212, 284
-0.994116, 133, 289, 164, 320
-0.994116, 57, 249, 120, 280
-0.994119, 17, 221, 48, 252
-0.99412, 41, 217, 72, 248
-0.994121, 417, 301, 448, 332
-0.994123, 205, 277, 236, 308
-0.994125, 85, 213, 116, 244
-0.994125, 117, 289, 148, 320
-0.994125, 13, 305, 44, 335
-0.994127, 157, 285, 188, 316
-0.99413, 261, 305, 292, 335
-0.99413, 301, 201, 332, 232
-0.994131, 193, 277, 224, 308
-0.994131, 293, 297, 324, 328
-0.994133, 229, 257, 260, 288
-0.994135, 145, 297, 176, 328
-0.994136, 349, 297, 380, 328
-0.994137, 165, 217, 196, 248
-0.994138, 133, 301, 164, 332
-0.994141, 229, 217, 260, 248
-0.994141, 25, 253, 56, 284
-0.994143, 57, 213, 88, 244
-0.994145, 161, 237, 192, 268
-0.994146, 77, 261, 108, 292
-0.994146, 385, 285, 416, 316
-0.994146, 13, 269, 44, 300
-0.994147, 5, 241, 36, 272
-0.994147, 345, 201, 376, 232
-0.994148, 337, 301, 368, 332
-0.99415, 217, 257, 248, 288
-0.994151, 65, 305, 128, 335
-0.994153, 13, 293, 44, 324
-0.994154, 41, 261, 72, 292
-0.994154, 305, 285, 336, 316
-0.994155, 1, 281, 32, 312
-0.994157, 321, 285, 352, 316
-0.994157, 181, 221, 212, 252
-0.994158, 197, 217, 228, 248
-0.994159, 285, 205, 316, 236
-0.994159, 181, 277, 212, 308
-0.994159, 449, 297, 480, 328
-0.994161, 17, 281, 48, 312
-0.994162, 13, 257, 44, 288
-0.994162, 169, 277, 200, 308
-0.994163, 313, 181, 344, 212
-0.994164, 65, 285, 96, 316
-0.994164, 325, 301, 356, 332
-0.994164, 433, 305, 464, 335
-0.994164, 229, 273, 260, 304
-0.994165, 257, 253, 288, 284
-0.994165, 293, 281, 324, 312
-0.994165, 9, 205, 40, 236
-0.994169, 17, 233, 48, 264
-0.994169, 309, 273, 340, 304
-0.994169, 337, 289, 368, 320
-0.99417, 33, 273, 64, 304
-0.99417, 273, 305, 304, 335
-0.994172, 317, 213, 348, 244
-0.994173, 269, 261, 300, 292
-0.994173, 169, 301, 200, 332
-0.994174, 205, 253, 236, 284
-0.994175, 213, 221, 244, 252
-0.994175, 393, 265, 424, 296
-0.994176, 461, 269, 492, 300
-0.994176, 361, 281, 392, 312
-0.994176, 433, 281, 464, 312
-0.994178, 61, 241, 92, 272
-0.994178, 289, 265, 320, 296
-0.994178, 249, 221, 280, 252
-0.994179, 1, 265, 32, 296
-0.99418, 385, 297, 416, 328
-0.99418, 189, 241, 220, 272
-0.99418, 281, 293, 312, 324
-0.99418, 41, 249, 72, 280
-0.994181, 69, 217, 100, 248
-0.994181, 169, 253, 200, 284
-0.994181, 29, 293, 60, 324
-0.994182, 97, 205, 128, 236
-0.994183, 181, 305, 212, 335
-0.994183, 329, 201, 360, 232
-0.994183, 281, 277, 312, 308
-0.994183, 405, 285, 436, 316
-0.994184, 65, 261, 96, 292
-0.994283, 153, 241, 216, 272
-0.994289, 1, 241, 128, 304
-0.994322, 33, 305, 96, 335
-0.99433, 169, 269, 232, 300
-0.994369, 65, 285, 128, 316
-0.994384, 145, 221, 208, 252
-0.994418, 113, 217, 176, 248
-0.99444, 401, 305, 464, 335
-0.994442, 105, 293, 168, 324
-0.994447, 113, 265, 240, 328
-0.994484, 121, 305, 184, 335
-0.99451, 9, 297, 72, 328
-0.994513, 81, 217, 144, 248
-0.99452, 193, 261, 256, 292
-0.994544, 41, 217, 104, 248
-0.994565, 33, 281, 96, 312
-0.994565, 313, 297, 376, 328
-0.994565, 1, 217, 64, 248
-0.994578, 289, 305, 352, 335
-0.994588, 377, 305, 440, 335
-0.994598, 65, 233, 128, 264
-0.994606, 9, 257, 72, 288
-0.994609, 433, 293, 496, 324
-0.994611, 161, 305, 224, 335
-0.994638, 17, 269, 80, 300
-0.994648, 33, 257, 96, 288
-0.994653, 169, 217, 232, 248
-0.994671, 169, 253, 232, 284
-0.994674, 377, 285, 440, 316
-0.994677, 433, 277, 496, 308
-0.994679, 193, 273, 256, 304
-0.994682, 297, 285, 360, 316
-0.994682, 153, 285, 216, 316
-0.994685, 265, 301, 328, 332
-0.994687, 289, 201, 352, 232
-0.994697, 345, 301, 408, 332
-0.994705, 33, 245, 96, 276
-0.994705, 89, 305, 152, 335
-0.994708, 337, 273, 400, 304
-0.994724, 313, 197, 376, 228
-0.994727, 225, 265, 288, 296
-0.99473, 145, 217, 208, 280
-0.994737, 289, 265, 352, 296
-0.994739, 1, 281, 64, 312
-0.994744, 433, 305, 496, 335
-0.994745, 257, 265, 320, 296
-0.994758, 17, 205, 80, 236
-0.99476, 33, 293, 96, 324
-0.994763, 289, 213, 352, 244
-0.994763, 225, 277, 288, 308
-0.994773, 353, 285, 416, 316
-0.994773, 313, 209, 376, 240
-0.994775, 193, 249, 256, 280
-0.994775, 201, 301, 264, 332
-0.994778, 9, 245, 72, 276
-0.994789, 193, 217, 256, 248
-0.994792, 265, 205, 328, 236
-0.994799, 225, 301, 288, 332
-0.9948, 425, 209, 488, 240
-0.994807, 1, 233, 64, 264
-0.994807, 57, 205, 120, 236
-0.994812, 409, 289, 472, 320
-0.994812, 129, 293, 192, 324
-0.994812, 401, 273, 464, 304
-0.994817, 329, 285, 392, 316
-0.99482, 305, 185, 368, 216
-0.994825, 337, 217, 400, 248
-0.99483, 33, 233, 96, 264
-0.99483, 217, 253, 280, 284
-0.994833, 361, 261, 424, 292
-0.994841, 169, 205, 232, 236
-0.994846, 281, 245, 344, 276
-0.994849, 329, 145, 392, 176
-0.994852, 113, 205, 176, 236
-0.994854, 265, 145, 328, 176
-0.994854, 401, 261, 464, 292
-0.994856, 329, 181, 392, 212
-0.994856, 353, 197, 416, 228
-0.994861, 145, 209, 208, 240
-0.994862, 241, 213, 304, 244
-0.994864, 177, 237, 240, 268
-0.994867, 241, 253, 304, 284
-0.994867, 201, 285, 264, 316
-0.994867, 377, 205, 440, 236
-0.994872, 241, 289, 304, 320
-0.994877, 217, 217, 280, 248
-0.994883, 321, 169, 384, 200
-0.994885, 313, 269, 376, 300
-0.994885, 425, 197, 488, 228
-0.994893, 425, 257, 488, 288
-0.994898, 401, 209, 464, 240
-0.994898, 177, 285, 240, 316
-0.994901, 281, 169, 344, 200
-0.994904, 377, 137, 440, 168
-0.994904, 81, 205, 144, 236
-0.994904, 361, 273, 424, 304
-0.994906, 209, 233, 272, 264
-0.994909, 361, 185, 424, 216
-0.994919, 233, 241, 296, 272
-0.994926, 1, 161, 256, 288
-0.994926, 129, 161, 384, 288
-0.994927, 265, 289, 328, 320
-0.994935, 393, 245, 456, 276
-0.994937, 273, 109, 336, 140
-0.994937, 193, 205, 256, 236
-0.99494, 305, 229, 368, 260
-0.994942, 281, 189, 344, 220
-0.994945, 377, 157, 440, 188
-0.994945, 385, 177, 448, 208
-0.99495, 313, 257, 376, 288
-0.99495, 361, 217, 424, 248
-0.99495, 273, 277, 336, 308
-0.994956, 337, 129, 400, 160
-0.994956, 257, 157, 320, 188
-0.994961, 281, 129, 344, 160
-0.994966, 305, 133, 368, 164
-0.994966, 241, 141, 304, 172
-0.994973, 133, 273, 164, 335
-0.994976, 281, 233, 344, 264
-0.994979, 265, 221, 328, 252
-0.995189, 289, 193, 416, 320
-0.995229, 225, 161, 480, 288
-0.995412, 81, 225, 144, 288
-0.995414, 17, 273, 144, 335
-0.995581, 89, 209, 120, 335
-0.995758, 117, 273, 148, 335
-0.99578, 145, 241, 272, 304
-0.995837, 129, 65, 384, 320
-0.995849, 129, 217, 256, 280
-0.996256, 17, 217, 144, 280
-0.99646, 209, 209, 272, 335
-0.996528, 369, 209, 496, 335
-0.996777, 1, 17, 500, 144
-0.996919, 137, 241, 152, 304
-0.996981, 81, 217, 208, 280
-0.997174, 185, 209, 248, 335
-0.997357, 137, 273, 200, 335
-0.997358, 125, 233, 140, 296
-0.997523, 157, 209, 188, 335
-0.997592, 129, 209, 160, 272
-0.997609, 117, 273, 132, 335
-0.997644, 89, 257, 120, 320
-0.997669, 145, 241, 160, 304
-0.997751, 119, 241, 134, 304
-0.997792, 161, 265, 288, 328
-0.997853, 109, 257, 124, 320
-0.997857, 65, 277, 192, 308
-0.997929, 149, 233, 180, 296
-0.99793, 49, 265, 176, 296
-0.997988, 233, 209, 296, 335
-0.998106, 151, 233, 166, 296
-0.998108, 33, 283, 64, 298
-0.998108, 113, 287, 144, 302
-0.998108, 65, 315, 96, 330
-0.998109, 97, 219, 128, 234
-0.998109, 169, 269, 200, 284
-0.998109, 233, 297, 264, 312
-0.998109, 221, 279, 252, 294
-0.99811, 41, 219, 72, 234
-0.99811, 193, 279, 224, 294
-0.99811, 41, 315, 72, 330
-0.99811, 253, 297, 284, 312
-0.99811, 457, 295, 488, 310
-0.99811, 65, 293, 96, 308
-0.99811, 425, 313, 456, 328
-0.998111, 337, 321, 368, 335
-0.998111, 109, 219, 140, 234
-0.998111, 161, 297, 192, 312
-0.998111, 425, 305, 456, 320
-0.998112, 321, 315, 352, 330
-0.998112, 309, 307, 340, 322
-0.998112, 365, 307, 396, 322
-0.998112, 89, 251, 120, 266
-0.998112, 237, 321, 268, 335
-0.998112, 357, 321, 388, 335
-0.998113, 137, 321, 168, 335
-0.998113, 297, 299, 328, 314
-0.998114, 201, 305, 232, 320
-0.998114, 273, 217, 304, 232
-0.998114, 37, 299, 68, 314
-0.998114, 341, 305, 372, 320
-0.998115, 1, 313, 32, 328
-0.998115, 137, 309, 168, 324
-0.998115, 397, 313, 428, 328
-0.998115, 53, 297, 84, 312
-0.998116, 441, 319, 472, 334
-0.998117, 13, 309, 44, 324
-0.998117, 21, 321, 52, 335
-0.998118, 153, 283, 184, 298
-0.998118, 377, 315, 408, 330
-0.998118, 29, 315, 60, 330
-0.998119, 61, 305, 92, 320
-0.998119, 337, 315, 368, 330
-0.998119, 153, 307, 184, 322
-0.99812, 293, 207, 324, 222
-0.99812, 297, 321, 328, 335
-0.99812, 321, 305, 352, 320
-0.99812, 361, 301, 392, 316
-0.99812, 93, 307, 124, 322
-0.998121, 37, 307, 68, 322
-0.998121, 193, 233, 320, 296
-0.998122, 205, 277, 236, 292
-0.998122, 125, 289, 156, 304
-0.998122, 161, 291, 192, 306
-0.998122, 377, 321, 408, 335
-0.998123, 417, 319, 448, 334
-0.998123, 1, 217, 32, 232
-0.998123, 101, 255, 132, 270
-0.998124, 53, 315, 84, 330
-0.998124, 173, 279, 204, 294
-0.998124, 353, 311, 384, 326
-0.998125, 365, 315, 396, 330
-0.998125, 393, 321, 424, 335
-0.998126, 469, 293, 500, 308
-0.998126, 189, 311, 220, 326
-0.998126, 285, 213, 316, 228
-0.998127, 17, 315, 48, 330
-0.998127, 145, 295, 176, 310
-0.998128, 173, 305, 204, 320
-0.998129, 169, 315, 200, 330
-0.99813, 377, 307, 408, 322
-0.99813, 149, 313, 180, 328
-0.99813, 1, 319, 32, 334
-0.99813, 125, 309, 156, 324
-0.998133, 129, 229, 160, 244
-0.998133, 149, 319, 180, 334
-0.998133, 77, 317, 108, 332
-0.998133, 113, 307, 144, 322
-0.998134, 93, 315, 124, 330
-0.998134, 69, 299, 100, 314
-0.998136, 129, 315, 160, 330
-0.998138, 429, 321, 460, 335
-0.998138, 97, 321, 128, 335
-0.99814, 57, 321, 88, 335
-0.998141, 85, 257, 116, 272
-0.998142, 105, 313, 136, 328
-0.998144, 405, 321, 436, 335
-0.998145, 145, 235, 176, 250
-0.998145, 37, 321, 68, 335
-0.998146, 145, 265, 176, 280
-0.998149, 49, 303, 80, 318
-0.99815, 105, 233, 136, 248
-0.99815, 109, 321, 140, 335
-0.998151, 145, 259, 176, 274
-0.998152, 125, 321, 156, 335
-0.998154, 149, 251, 180, 266
-0.998155, 117, 315, 148, 330
-0.99816, 85, 263, 116, 278
-0.998161, 157, 241, 188, 256
-0.998161, 157, 235, 188, 250
-0.998163, 105, 245, 136, 260
-0.998173, 157, 271, 188, 286
-0.998174, 141, 285, 172, 300
-0.998187, 133, 265, 164, 280
-0.998196, 93, 281, 124, 296
-0.998198, 145, 271, 176, 286
-0.998199, 145, 265, 176, 328
-0.9982, 85, 269, 116, 284
-0.998206, 101, 261, 132, 276
-0.998211, 117, 239, 148, 254
-0.998211, 131, 257, 146, 320
-0.998218, 113, 251, 144, 266
-0.998221, 117, 257, 148, 272
-0.998229, 129, 283, 160, 298
-0.998229, 117, 265, 148, 280
-0.998244, 105, 239, 136, 254
-0.998256, 89, 275, 120, 290
-0.998257, 117, 281, 148, 296
-0.998263, 129, 259, 160, 274
-0.998263, 153, 277, 184, 292
-0.998267, 133, 271, 164, 286
-0.998273, 145, 241, 176, 256
-0.998277, 125, 251, 156, 266
-0.99828, 257, 209, 320, 335
-0.998282, 137, 247, 168, 262
-0.998282, 105, 281, 136, 296
-0.998284, 105, 267, 136, 282
-0.998291, 1, 265, 256, 328
-0.998298, 129, 235, 160, 250
-0.998298, 105, 273, 136, 288
-0.998302, 141, 279, 172, 294
-0.998307, 117, 275, 148, 290
-0.998318, 129, 241, 160, 256
-0.99832, 147, 273, 162, 335
-0.998322, 137, 253, 168, 268
-0.998339, 137, 249, 152, 280
-0.998348, 129, 277, 160, 292
-0.998361, 257, 273, 384, 335
-0.998363, 117, 245, 148, 260
-0.998384, 81, 161, 208, 288
-0.998429, 137, 265, 152, 328
-0.998439, 153, 241, 216, 304
-0.998496, 97, 261, 224, 292
-0.998539, 103, 273, 118, 335
-0.998545, 209, 257, 336, 320
-0.998581, 137, 261, 152, 292
-0.998597, 129, 241, 144, 272
-0.998598, 113, 273, 240, 304
-0.998647, 109, 261, 124, 292
-0.998653, 97, 273, 160, 288
-0.998679, 97, 267, 160, 282
-0.998682, 225, 161, 352, 288
-0.998703, 1, 193, 32, 320
-0.998703, 1, 65, 256, 320
-0.998709, 105, 257, 168, 272
-0.998717, 143, 241, 158, 272
-0.998717, 129, 253, 192, 268
-0.99872, 97, 279, 160, 294
-0.998722, 113, 239, 176, 254
-0.998727, 123, 273, 138, 335
-0.998731, 121, 279, 184, 294
-0.998734, 105, 251, 168, 266
-0.998744, 131, 225, 146, 288
-0.998746, 129, 247, 192, 262
-0.998749, 73, 275, 136, 290
-0.998752, 105, 245, 168, 260
-0.998753, 145, 279, 208, 294
-0.99876, 57, 269, 120, 284
-0.998761, 111, 233, 126, 296
-0.998762, 121, 273, 184, 288
-0.998768, 123, 241, 138, 272
-0.998768, 137, 239, 200, 254
-0.998769, 129, 259, 192, 274
-0.998776, 121, 265, 184, 280
-0.998782, 73, 281, 136, 296
-0.998782, 81, 249, 144, 264
-0.998786, 145, 273, 208, 288
-0.998793, 127, 265, 142, 296
-0.998796, 57, 263, 120, 278
-0.998796, 109, 281, 124, 312
-0.998801, 89, 239, 152, 254
-0.998804, 81, 257, 144, 272
-0.998807, 105, 285, 168, 300
-0.998808, 149, 237, 164, 268
-0.998809, 337, 265, 464, 328
-0.998812, 113, 233, 176, 248
-0.998813, 25, 305, 88, 320
-0.998814, 57, 299, 120, 314
-0.998818, 9, 299, 72, 314
-0.998818, 49, 305, 112, 320
-0.998819, 161, 313, 224, 328
-0.998819, 89, 321, 152, 335
-0.99882, 137, 285, 200, 300
-0.99882, 377, 321, 440, 335
-0.998821, 137, 233, 200, 248
-0.998823, 433, 319, 496, 334
-0.998828, 121, 319, 184, 334
-0.99883, 81, 313, 144, 328
-0.998831, 57, 257, 120, 272
-0.998832, 137, 295, 200, 310
-0.998833, 41, 315, 104, 330
-0.998833, 305, 315, 368, 330
-0.998834, 409, 317, 472, 332
-0.998834, 65, 321, 128, 335
-0.998834, 169, 275, 232, 290
-0.998834, 129, 311, 192, 326
-0.998835, 289, 321, 352, 335
-0.998835, 353, 315, 416, 330
-0.998836, 145, 321, 208, 335
-0.998837, 113, 291, 176, 306
-0.998839, 265, 311, 328, 326
-0.998839, 329, 305, 392, 320
-0.998839, 81, 307, 144, 322
-0.998839, 25, 321, 88, 335
-0.99884, 129, 219, 192, 234
-0.99884, 153, 245, 216, 260
-0.998841, 49, 291, 112, 306
-0.998842, 265, 319, 328, 334
-0.998843, 393, 311, 456, 326
-0.998843, 161, 303, 224, 318
-0.998844, 169, 321, 232, 335
-0.998844, 425, 297, 488, 312
-0.998844, 329, 317, 392, 332
-0.998844, 217, 279, 280, 294
-0.998845, 25, 217, 88, 232
-0.998845, 113, 305, 176, 320
-0.998845, 353, 309, 416, 324
-0.998846, 273, 213, 336, 228
-0.998846, 305, 309, 368, 324
-0.998847, 9, 313, 72, 328
-0.998847, 289, 205, 352, 220
-0.998847, 1, 319, 64, 334
-0.998848, 185, 285, 248, 300
-0.998848, 313, 295, 376, 310
-0.998848, 433, 313, 496, 328
-0.998848, 153, 267, 216, 282
-0.998848, 89, 219, 152, 234
-0.998848, 201, 317, 264, 332
-0.998849, 1, 305, 64, 320
-0.998849, 313, 209, 376, 224
-0.998849, 81, 287, 144, 302
-0.998849, 313, 287, 376, 302
-0.99885, 25, 293, 88, 308
-0.99885, 81, 231, 144, 246
-0.99885, 25, 285, 88, 300
-0.99885, 305, 199, 368, 214
-0.99885, 113, 297, 176, 312
-0.998851, 289, 293, 352, 308
-0.998851, 57, 217, 120, 232
-0.998852, 201, 269, 264, 284
-0.998852, 289, 299, 352, 314
-0.998852, 369, 303, 432, 318
-0.998852, 89, 301, 152, 316
-0.998852, 425, 303, 488, 318
-0.998852, 297, 215, 360, 230
-0.998852, 97, 257, 352, 320
-0.998852, 273, 151, 336, 166
-0.998853, 65, 237, 128, 252
-0.998853, 393, 305, 456, 320
-0.998853, 105, 313, 168, 328
-0.998853, 425, 289, 488, 304
-0.998853, 161, 291, 224, 306
-0.998853, 137, 305, 200, 320
-0.998854, 185, 311, 248, 326
-0.998854, 297, 281, 360, 296
-0.998854, 185, 293, 248, 308
-0.998855, 169, 221, 232, 236
-0.998855, 57, 251, 120, 266
-0.998855, 153, 255, 216, 270
-0.998855, 273, 305, 336, 320
-0.998855, 257, 275, 320, 290
-0.998856, 353, 321, 416, 335
-0.998856, 1, 215, 64, 230
-0.998856, 249, 301, 312, 316
-0.998856, 393, 287, 456, 302
-0.998856, 1, 257, 64, 272
-0.998856, 9, 265, 72, 280
-0.998856, 81, 293, 144, 308
-0.998857, 1, 293, 64, 308
-0.998857, 289, 287, 352, 302
-0.998857, 161, 285, 224, 300
-0.998857, 281, 173, 344, 188
-0.998857, 265, 205, 328, 220
-0.998857, 1, 221, 64, 236
-0.998857, 1, 283, 64, 298
-0.998858, 353, 297, 416, 312
-0.998859, 129, 213, 192, 228
-0.998859, 233, 313, 296, 328
-0.998859, 89, 211, 152, 226
-0.998859, 177, 269, 240, 284
-0.998859, 169, 261, 232, 276
-0.998859, 241, 295, 304, 310
-0.99886, 119, 273, 134, 304
-0.998863, 289, 209, 352, 335
-0.998866, 143, 209, 158, 272
-0.998869, 147, 277, 162, 308
-0.998942, 57, 209, 88, 335
-0.998974, 57, 273, 120, 335
-0.999021, 257, 241, 384, 304
-0.999035, 139, 273, 154, 304
-0.999056, 81, 249, 208, 280
-0.999061, 65, 233, 320, 296
-0.999062, 155, 273, 170, 335
-0.999095, 101, 249, 116, 312
-0.999103, 103, 273, 118, 304
-0.999111, 153, 273, 168, 304
-0.999117, 143, 261, 158, 292
-0.999126, 177, 209, 304, 272
-0.999128, 305, 241, 432, 304
-0.999136, 1, 261, 128, 292
-0.999136, 131, 229, 146, 260
-0.999165, 129, 277, 144, 308
-0.999189, 119, 261, 134, 292
-0.999209, 103, 261, 118, 292
-0.999223, 131, 253, 146, 284
-0.999242, 155, 237, 170, 268
-0.999255, 157, 233, 172, 296
-0.999273, 241, 209, 368, 272
-0.999299, 17, 277, 144, 308
-0.999304, 117, 209, 132, 272
-0.99932, 101, 193, 132, 320
-0.999322, 117, 241, 132, 272
-0.999327, 137, 233, 152, 264
-0.999328, 143, 229, 158, 260
-0.99934, 273, 185, 400, 248
-0.999358, 341, 309, 356, 324
-0.999358, 187, 313, 202, 328
-0.999358, 375, 311, 390, 326
-0.999358, 173, 321, 188, 335
-0.999358, 175, 297, 190, 312
-0.999358, 337, 315, 352, 330
-0.999358, 11, 321, 26, 335
-0.999359, 165, 289, 180, 304
-0.999359, 59, 315, 74, 330
-0.999359, 165, 321, 180, 335
-0.999359, 61, 309, 76, 324
-0.999359, 85, 321, 100, 335
-0.999359, 65, 297, 80, 312
-0.999359, 311, 321, 326, 335
-0.999359, 383, 321, 398, 335
-0.99936, 111, 245, 126, 260
-0.99936, 135, 313, 150, 328
-0.99936, 311, 315, 326, 330
-0.99936, 331, 313, 346, 328
-0.99936, 197, 269, 212, 284
-0.99936, 69, 321, 84, 335
-0.99936, 119, 251, 134, 266
-0.999361, 289, 215, 304, 230
-0.999361, 137, 307, 152, 322
-0.999361, 319, 307, 334, 322
-0.999361, 127, 303, 142, 318
-0.999361, 173, 277, 188, 292
-0.999361, 153, 307, 168, 322
-0.999361, 129, 321, 144, 335
-0.999362, 239, 321, 254, 335
-0.999362, 123, 315, 138, 330
-0.999362, 413, 321, 428, 335
-0.999362, 59, 297, 74, 312
-0.999363, 11, 315, 26, 330
-0.999363, 95, 315, 110, 330
-0.999363, 99, 321, 114, 335
-0.999364, 135, 319, 150, 334
-0.999364, 389, 315, 404, 330
-0.999365, 299, 209, 314, 224
-0.999365, 119, 261, 134, 276
-0.999365, 183, 303, 198, 318
-0.999366, 207, 321, 222, 335
-0.999366, 157, 285, 172, 300
-0.999366, 249, 321, 264, 335
-0.999366, 117, 315, 132, 330
-0.999366, 141, 289, 156, 304
-0.999366, 151, 289, 166, 304
-0.999366, 445, 319, 460, 334
-0.999366, 51, 321, 66, 335
-0.999367, 301, 319, 316, 334
-0.999367, 55, 305, 70, 320
-0.999367, 129, 313, 144, 328
-0.999367, 31, 315, 46, 330
-0.999367, 21, 321, 36, 335
-0.999368, 45, 321, 60, 335
-0.999368, 423, 321, 438, 335
-0.999368, 293, 209, 308, 224
-0.999368, 87, 315, 102, 330
-0.999369, 165, 269, 180, 284
-0.999369, 151, 297, 166, 312
-0.99937, 71, 299, 86, 314
-0.99937, 1, 317, 16, 332
-0.99937, 59, 321, 74, 335
-0.99937, 21, 315, 36, 330
-0.999371, 67, 305, 82, 320
-0.999371, 53, 299, 68, 314
-0.999372, 167, 277, 182, 292
-0.999372, 79, 319, 94, 334
-0.999372, 113, 239, 128, 254
-0.999372, 159, 295, 174, 310
-0.999374, 149, 209, 164, 272
-0.999374, 433, 321, 448, 335
-0.999376, 145, 263, 160, 278
-0.999378, 125, 255, 140, 270
-0.999379, 113, 253, 128, 268
-0.99938, 153, 267, 168, 282
-0.99938, 141, 233, 156, 248
-0.999383, 109, 317, 124, 332
-0.999383, 119, 321, 134, 335
-0.999384, 99, 257, 114, 272
-0.999386, 105, 259, 120, 274
-0.999386, 153, 247, 168, 262
-0.999386, 115, 233, 130, 248
-0.999387, 149, 261, 164, 292
-0.999388, 103, 283, 118, 298
-0.999395, 137, 217, 152, 280
-0.999396, 113, 265, 128, 280
-0.999396, 149, 233, 164, 248
-0.999399, 99, 265, 114, 280
-0.9994, 125, 261, 140, 276
-0.999402, 61, 303, 76, 318
-0.999403, 125, 233, 140, 248
-0.999405, 123, 267, 138, 282
-0.999407, 161, 275, 176, 290
-0.99941, 149, 253, 164, 268
-0.99941, 159, 235, 174, 250
-0.999414, 143, 257, 158, 272
-0.999415, 157, 241, 172, 256
-0.999424, 131, 261, 146, 276
-0.999425, 111, 259, 126, 274
-0.999425, 131, 235, 146, 250
-0.999426, 129, 241, 256, 272
-0.999429, 99, 271, 114, 286
-0.99943, 155, 273, 170, 288
-0.999435, 81, 237, 208, 268
-0.999438, 107, 265, 122, 280
-0.999438, 137, 239, 152, 254
-0.999444, 117, 245, 132, 260
-0.999447, 139, 267, 154, 282
-0.999452, 97, 257, 112, 288
-0.999455, 127, 283, 142, 298
-0.999456, 147, 271, 162, 286
-0.999456, 157, 209, 172, 272
-0.999457, 119, 273, 134, 288
-0.999458, 101, 277, 116, 292
-0.999464, 131, 255, 146, 270
-0.999464, 139, 245, 154, 260
-0.999465, 129, 267, 144, 282
-0.99947, 137, 261, 152, 276
-0.999474, 131, 241, 146, 256
-0.999474, 147, 247, 162, 262
-0.999476, 119, 229, 134, 260
-0.99948, 109, 281, 124, 296
-0.999485, 37, 209, 68, 335
-0.999486, 153, 279, 168, 294
-0.999486, 145, 283, 160, 298
-0.99949, 109, 273, 124, 288
-0.999491, 137, 279, 152, 294
-0.999495, 127, 273, 142, 288
-0.999497, 155, 261, 170, 292
-0.999498, 123, 245, 138, 260
-0.9995, 17, 209, 48, 335
-0.999501, 151, 239, 166, 254
-0.999505, 145, 209, 160, 335
-0.999506, 159, 273, 174, 304
-0.999507, 97, 269, 112, 300
-0.999509, 147, 277, 162, 292
-0.99951, 145, 241, 160, 256
-0.999511, 313, 209, 376, 335
-0.999513, 119, 239, 134, 254
-0.999523, 125, 253, 140, 284
-0.999523, 137, 273, 152, 288
-0.999524, 129, 247, 144, 262
-0.99953, 119, 279, 134, 294
-0.999543, 125, 229, 140, 260
-0.999556, 17, 249, 144, 280
-0.999563, 151, 249, 166, 280
-0.999572, 95, 249, 110, 312
-0.999574, 125, 239, 140, 254
-0.999574, 49, 193, 176, 256
-0.999575, 145, 261, 272, 292
-0.999575, 369, 233, 496, 296
-0.999593, 151, 209, 166, 335
-0.999593, 127, 209, 142, 335
-0.999602, 305, 217, 432, 280
-0.999604, 139, 251, 154, 266
-0.999609, 161, 265, 176, 328
-0.99961, 107, 249, 122, 280
-0.999613, 149, 225, 164, 256
-0.999618, 119, 209, 134, 335
-0.999621, 139, 209, 154, 335
-0.999622, 109, 209, 124, 335
-0.999652, 117, 217, 148, 280
-0.999661, 157, 225, 172, 256
-0.999666, 19, 217, 34, 280
-0.999679, 165, 273, 180, 304
-0.999688, 141, 285, 156, 316
-0.999697, 63, 301, 78, 332
-0.999701, 157, 209, 172, 335
-0.999726, 101, 209, 116, 335
-0.999735, 33, 217, 96, 280
-0.999737, 143, 217, 158, 248
-0.999738, 121, 217, 136, 248
-0.99974, 151, 293, 166, 324
-0.999753, 163, 261, 178, 292
-0.999754, 159, 289, 174, 320
-0.99976, 9, 217, 72, 280
-0.999761, 133, 193, 148, 320
-0.999774, 125, 209, 140, 272
-0.999775, 31, 225, 46, 288
-0.999779, 55, 217, 70, 280
-0.999779, 57, 297, 72, 328
-0.999779, 167, 265, 182, 328
-0.999779, 167, 209, 182, 335
-0.999787, 123, 285, 138, 316
-0.999789, 69, 209, 100, 335
-0.999789, 77, 209, 92, 335
-0.99979, 105, 305, 120, 335
-0.999794, 201, 265, 216, 296
-0.999795, 19, 217, 34, 248
-0.999796, 79, 301, 94, 332
-0.999798, 15, 193, 30, 320
-0.999798, 99, 245, 114, 276
-0.999803, 5, 193, 20, 320
-0.999805, 103, 217, 118, 280
-0.999806, 181, 209, 212, 335
-0.999806, 419, 301, 434, 332
-0.999807, 63, 209, 78, 335
-0.999809, 1, 301, 16, 332
-0.999809, 127, 217, 142, 248
-0.999811, 83, 209, 98, 335
-0.999812, 69, 301, 84, 332
-0.999815, 113, 229, 128, 260
-0.999819, 87, 213, 102, 244
-0.99982, 137, 221, 152, 252
-0.99982, 115, 285, 130, 316
-0.999822, 167, 217, 182, 248
-0.999823, 11, 213, 26, 244
-0.999828, 59, 241, 74, 304
-0.999828, 61, 285, 76, 316
-0.999828, 161, 305, 176, 335
-0.999829, 47, 209, 62, 335
-0.99983, 41, 217, 56, 280
-0.999833, 49, 217, 64, 248
-0.999833, 173, 209, 188, 335
-0.999834, 207, 257, 222, 288
-0.999834, 409, 301, 424, 332
-0.999835, 57, 209, 72, 335
-0.999836, 171, 273, 186, 304
-0.99984, 9, 301, 24, 332
-0.999841, 303, 297, 318, 328
-0.999843, 211, 277, 226, 308
-0.999844, 115, 305, 130, 335
-0.999844, 205, 209, 220, 335
-0.999844, 39, 217, 54, 248
-0.999846, 183, 209, 198, 335
-0.999846, 123, 305, 138, 335
-0.999847, 195, 209, 210, 335
-0.999848, 69, 209, 84, 335
-0.999849, 9, 241, 24, 304
-0.999851, 5, 217, 20, 280
-0.999852, 231, 209, 246, 335
-0.999853, 475, 289, 490, 320
-0.999855, 1, 217, 16, 248
-0.999855, 237, 257, 252, 288
-0.999856, 21, 209, 36, 335
-0.999856, 29, 209, 44, 335
-0.999856, 37, 209, 52, 335
-0.999856, 189, 209, 204, 335
-0.999856, 93, 193, 108, 320
-0.999857, 213, 209, 228, 335
-0.999858, 193, 265, 208, 296
-0.999859, 71, 289, 86, 320
-0.999859, 93, 217, 108, 248
-0.999859, 223, 209, 238, 335
-0.999861, 35, 257, 50, 288
-0.999862, 145, 301, 160, 332
-0.999863, 27, 217, 42, 248
-0.999864, 133, 305, 148, 335
-0.999864, 177, 217, 192, 248
-0.999866, 437, 301, 452, 332
-0.999867, 245, 209, 260, 335
-0.999867, 45, 257, 60, 288
-0.999867, 359, 297, 374, 328
-0.999867, 85, 233, 116, 296
-0.999867, 237, 217, 252, 248
-0.999868, 443, 301, 458, 332
-0.999872, 213, 265, 228, 296
-0.999872, 221, 269, 236, 300
-0.999872, 425, 301, 440, 332
-0.999873, 151, 305, 166, 335
-0.999874, 33, 221, 48, 252
-0.999875, 245, 257, 260, 288
-0.999875, 271, 305, 286, 335
-0.999875, 1, 209, 256, 272
-0.999876, 317, 305, 332, 335
-0.999877, 369, 297, 384, 328
-0.999878, 21, 305, 36, 335
-0.999878, 189, 305, 204, 335
-0.999879, 51, 305, 66, 335
-0.999879, 399, 305, 414, 335
-0.99988, 485, 297, 500, 328
-0.99988, 331, 301, 346, 332
-0.999882, 81, 249, 96, 312
-0.999882, 171, 257, 186, 288
-0.999882, 55, 261, 70, 292
-0.999885, 177, 257, 192, 288
-0.999886, 101, 213, 116, 244
-0.999886, 187, 273, 202, 304
-0.999888, 353, 301, 480, 332
-0.999888, 199, 217, 214, 280
-0.999888, 11, 277, 26, 308
-0.999889, 239, 209, 254, 335
-0.999889, 81, 245, 96, 276
-0.99989, 479, 305, 494, 335
-0.999891, 129, 229, 256, 260
-0.999892, 301, 281, 316, 312
-0.999892, 217, 301, 232, 332
-0.999893, 23, 257, 38, 288
-0.999893, 181, 273, 196, 304
-0.999894, 47, 217, 62, 280
-0.999894, 43, 241, 58, 304
-0.999894, 3, 249, 18, 312
-0.999894, 205, 265, 220, 328
-0.999895, 151, 213, 166, 244
-0.999895, 71, 261, 86, 292
-0.999896, 161, 205, 176, 236
-0.999897, 9, 1, 72, 335
-0.999898, 375, 301, 390, 332
-0.999899, 61, 213, 76, 244
-0.9999, 227, 217, 242, 248
-0.9999, 191, 241, 206, 304
-0.999901, 3, 245, 18, 276
-0.999902, 291, 301, 306, 332
-0.999902, 385, 269, 400, 300
-0.999902, 409, 285, 424, 316
-0.999903, 163, 233, 178, 296
-0.999903, 433, 289, 448, 320
-0.999903, 339, 301, 354, 332
-0.999905, 277, 301, 292, 332
-0.999905, 101, 293, 116, 324
-0.999906, 65, 217, 80, 280
-0.999908, 305, 1, 368, 335
-0.999912, 263, 209, 278, 335
-0.999912, 175, 257, 190, 320
-0.999913, 271, 209, 286, 335
-0.999915, 253, 209, 268, 335
-0.999915, 193, 217, 208, 280
-0.999915, 173, 225, 188, 288
-0.999915, 183, 225, 198, 288
-0.999916, 287, 209, 302, 335
-0.999916, 131, 201, 146, 264
-0.999922, 197, 265, 212, 328
-0.999927, 209, 225, 224, 288
-0.999931, 279, 209, 294, 335
-0.999933, 87, 209, 102, 272
-0.999939, 97, 225, 112, 288
-0.999943, 387, 209, 402, 335
-0.999943, 299, 209, 314, 335
-0.999946, 75, 217, 90, 280
-0.999946, 369, 201, 496, 264
-0.99995, 327, 209, 342, 335
-0.999952, 339, 209, 354, 335
-0.999954, 417, 209, 432, 335
-0.999954, 313, 209, 328, 335
-0.999955, 227, 217, 242, 280
-0.999955, 203, 241, 218, 304
-0.999958, 407, 209, 422, 335
-0.999958, 25, 217, 40, 280
-0.999958, 65, 241, 80, 304
-0.999958, 379, 209, 394, 335
-0.99996, 477, 193, 492, 320
-0.99996, 401, 209, 416, 335
-0.999961, 13, 217, 28, 280
-0.999961, 293, 209, 308, 335
-0.999962, 319, 209, 334, 335
-0.999964, 393, 209, 408, 335
-0.999973, 369, 209, 384, 335
-0.999973, 427, 209, 442, 335
-0.999981, 483, 209, 498, 335
-0.999982, 163, 209, 178, 272
-0.999986, 305, 209, 320, 335
-0.999991, 33, 237, 160, 268
-0.999991, 361, 209, 376, 335
-0.999991, 241, 217, 256, 280
-0.999993, 463, 209, 478, 335
-0.999993, 345, 209, 360, 335
-0.999994, 457, 209, 472, 335
-0.999996, 451, 209, 466, 335
-0.999997, 333, 209, 348, 335
-0.999997, 17, 241, 32, 304
-0.999998, 37, 241, 52, 304
-1, 211, 265, 226, 328
-1.00001, 435, 209, 450, 335
-1.00001, 87, 249, 102, 312
-1.00001, 353, 209, 368, 335
-1.00001, 87, 161, 102, 288
-1.00001, 73, 161, 88, 288
-1.00001, 471, 209, 486, 335
-1.00002, 197, 241, 212, 304
-1.00002, 75, 257, 90, 320
-1.00002, 21, 161, 36, 288
-1.00002, 443, 209, 458, 335
-1.00002, 51, 257, 66, 320
-1.00002, 145, 161, 160, 288
-1.00002, 39, 161, 54, 288
-1.00003, 129, 193, 256, 256
-1.00003, 55, 161, 70, 288
-1.00003, 247, 217, 262, 280
-1.00003, 27, 257, 42, 320
-1.00003, 29, 161, 44, 288
-1.00003, 151, 161, 166, 288
-1.00003, 67, 161, 82, 288
-1.00004, 81, 161, 96, 288
-1.00004, 49, 161, 64, 288
-1.00004, 139, 161, 154, 288
-1.00005, 61, 161, 76, 288
-1.00005, 237, 161, 252, 288
-1.00006, 217, 241, 232, 304
-1.00006, 167, 161, 182, 288
-1.00006, 173, 161, 188, 288
-1.00006, 195, 161, 210, 288
-1.00006, 201, 161, 216, 288
-1.00006, 231, 161, 246, 288
-1.00006, 285, 161, 300, 288
-1.00006, 49, 221, 176, 252
-1.00007, 279, 161, 294, 288
-1.00007, 335, 161, 350, 288
-1.00007, 105, 161, 120, 288
-1.00007, 187, 161, 202, 288
-1.00007, 217, 217, 232, 280
-1.00007, 225, 161, 240, 288
-1.00007, 161, 161, 176, 288
-1.00008, 319, 161, 334, 288
-1.00008, 215, 161, 230, 288
-1.00008, 267, 161, 282, 288
-1.00008, 325, 161, 340, 288
-1.00008, 209, 161, 224, 288
-1.00008, 249, 161, 264, 288
-1.00008, 97, 209, 352, 272
-1.00009, 261, 161, 276, 288
-1.00009, 377, 161, 392, 288
-1.00009, 11, 265, 26, 328
-1.00009, 243, 161, 258, 288
-1.00009, 9, 145, 24, 272
-1.00009, 287, 233, 302, 296
-1.00009, 179, 161, 194, 288
-1.00009, 185, 257, 200, 320
-1.00009, 119, 161, 134, 288
-1.00009, 81, 273, 96, 335
-1.00009, 371, 161, 386, 288
-1.00009, 383, 161, 398, 288
-1.00009, 301, 241, 316, 304
-1.0001, 391, 161, 406, 288
-1.0001, 127, 161, 142, 288
-1.0001, 309, 161, 324, 288
-1.0001, 15, 145, 30, 272
-1.0001, 69, 265, 84, 328
-1.0001, 255, 161, 270, 288
-1.0001, 297, 161, 312, 288
-1.0001, 401, 161, 416, 288
-1.00011, 1, 145, 16, 272
-1.00011, 291, 161, 306, 288
-1.00011, 241, 257, 256, 320
-1.00011, 407, 161, 422, 288
-1.00011, 425, 161, 440, 288
-1.00012, 235, 217, 250, 280
-1.00012, 365, 161, 380, 288
-1.00012, 99, 161, 114, 288
-1.00012, 93, 145, 108, 272
-1.00012, 303, 161, 318, 288
-1.00012, 417, 161, 432, 288
-1.00012, 81, 209, 96, 272
-1.00013, 345, 209, 408, 335
-1.00013, 273, 161, 288, 288
-1.00013, 341, 161, 356, 288
-1.00013, 347, 161, 362, 288
-1.00014, 435, 161, 450, 288
-1.00014, 355, 161, 370, 288
-1.00014, 17, 161, 144, 288
-1.00014, 459, 161, 474, 288
-1.00014, 483, 161, 498, 288
-1.00014, 445, 161, 460, 288
-1.00015, 453, 161, 468, 288
-1.00015, 467, 161, 482, 288
-1.00015, 255, 225, 270, 288
-1.00015, 57, 265, 72, 328
-1.00015, 295, 241, 310, 304
-1.00015, 65, 301, 192, 332
-1.00016, 475, 265, 490, 328
-1.00017, 261, 241, 276, 304
-1.00017, 403, 273, 418, 335
-1.00018, 269, 233, 284, 296
-1.00018, 313, 233, 328, 296
-1.00019, 87, 273, 102, 335
-1.00019, 281, 241, 296, 304
-1.0002, 109, 209, 124, 272
-1.0002, 9, 193, 24, 256
-1.0002, 341, 273, 356, 335
-1.00021, 41, 265, 56, 328
-1.00021, 353, 281, 480, 312
-1.00021, 33, 1, 96, 335
-1.00022, 63, 265, 78, 328
-1.00022, 321, 233, 336, 296
-1.00022, 483, 249, 498, 312
-1.00022, 221, 209, 252, 335
-1.00022, 209, 277, 336, 308
-1.00022, 129, 305, 256, 335
-1.00023, 193, 265, 320, 296
-1.00023, 309, 209, 324, 272
-1.00023, 275, 241, 290, 304
-1.00023, 145, 217, 272, 248
-1.00023, 349, 249, 364, 312
-1.00023, 435, 257, 450, 320
-1.00024, 129, 285, 256, 316
-1.00025, 1, 273, 16, 335
-1.00025, 279, 209, 294, 272
-1.00025, 311, 257, 326, 320
-1.00025, 17, 265, 32, 328
-1.00025, 35, 265, 50, 328
-1.00025, 1, 193, 128, 256
-1.00025, 359, 225, 374, 288
-1.00025, 1, 233, 500, 296
-1.00025, 161, 233, 416, 296
-1.00026, 443, 233, 458, 296
-1.00026, 93, 201, 108, 264
-1.00026, 393, 241, 408, 304
-1.00026, 185, 1, 248, 335
-1.00026, 329, 209, 344, 272
-1.00026, 223, 257, 238, 320
-1.00027, 335, 233, 350, 296
-1.00027, 249, 241, 264, 304
-1.00027, 331, 257, 346, 320
-1.00027, 351, 273, 366, 335
-1.00027, 375, 217, 390, 280
-1.00027, 303, 209, 318, 272
-1.00027, 97, 273, 112, 335
-1.00027, 405, 241, 420, 304
-1.00027, 129, 161, 256, 288
-1.00028, 429, 233, 444, 296
-1.00028, 235, 241, 250, 304
-1.00028, 321, 265, 336, 328
-1.00029, 191, 265, 206, 328
-1.00029, 305, 293, 432, 324
-1.00029, 413, 265, 428, 328
-1.00029, 451, 233, 466, 296
-1.0003, 423, 233, 438, 296
-1.0003, 445, 257, 460, 320
-1.0003, 273, 281, 400, 312
-1.0003, 409, 209, 424, 272
-1.0003, 1, 293, 128, 324
-1.0003, 323, 209, 338, 272
-1.0003, 1, 217, 128, 248
-1.00032, 17, 305, 144, 335
-1.00033, 321, 185, 448, 248
-1.00033, 169, 209, 200, 335
-1.00036, 209, 301, 336, 332
-1.0004, 193, 273, 448, 335
-1.0004, 257, 301, 384, 332
-1.00041, 273, 1, 336, 335
-1.00042, 65, 289, 192, 320
-1.00043, 25, 241, 88, 304
-1.00044, 97, 213, 224, 244
-1.00045, 305, 269, 432, 300
-1.00048, 241, 265, 368, 296
-1.00049, 193, 209, 224, 335
-1.0005, 177, 289, 304, 320
-1.00052, 273, 197, 400, 228
-1.00052, 193, 253, 320, 284
-1.00052, 1, 205, 128, 236
-1.00053, 273, 181, 400, 212
-1.00053, 225, 209, 352, 240
-1.00054, 121, 65, 152, 320
-1.00054, 409, 209, 472, 335
-1.00054, 257, 149, 384, 180
-1.00055, 49, 209, 176, 240
-1.00056, 329, 1, 392, 335
-1.00057, 193, 233, 320, 264
-1.00058, 57, 225, 120, 288
-1.00059, 141, 65, 172, 320
-1.00059, 257, 129, 384, 160
-1.00059, 305, 305, 432, 335
-1.00059, 273, 161, 400, 224
-1.00059, 257, 241, 500, 304
-1.0006, 337, 189, 464, 220
-1.0006, 209, 209, 240, 335
-1.00061, 369, 265, 496, 296
-1.00061, 273, 209, 400, 240
-1.00062, 13, 65, 44, 320
-1.00062, 241, 245, 368, 276
-1.00063, 41, 65, 72, 320
-1.00064, 193, 141, 320, 172
-1.00065, 193, 221, 320, 252
-1.00066, 321, 253, 448, 284
-1.00066, 1, 249, 64, 312
-1.00067, 321, 165, 448, 196
-1.00068, 321, 145, 448, 176
-1.00068, 257, 117, 384, 148
-1.00069, 225, 181, 352, 212
-1.0007, 337, 129, 464, 160
-1.0007, 369, 201, 496, 232
-1.00071, 369, 249, 496, 280
-1.00071, 257, 161, 384, 192
-1.00072, 289, 65, 416, 96
-1.00072, 145, 205, 272, 236
-1.00072, 233, 1, 296, 335
-1.00072, 25, 65, 56, 320
-1.00073, 97, 201, 224, 232
-1.00073, 321, 117, 448, 148
-1.00074, 273, 81, 400, 112
-1.00074, 321, 201, 448, 232
-1.00074, 1, 65, 32, 320
-1.00074, 53, 65, 84, 320
-1.00074, 337, 213, 464, 244
-1.00074, 273, 225, 400, 256
-1.00074, 321, 237, 448, 268
-1.00074, 97, 65, 128, 320
-1.00075, 73, 65, 104, 320
-1.00075, 153, 65, 184, 320
-1.00076, 321, 105, 448, 136
-1.00076, 193, 129, 320, 160
-1.00076, 193, 169, 320, 200
-1.00077, 257, 121, 384, 184
-1.00077, 277, 65, 308, 320
-1.00077, 257, 97, 384, 128
-1.00077, 173, 65, 204, 320
-1.00077, 209, 197, 336, 228
-1.00077, 193, 225, 256, 288
-1.00078, 49, 197, 176, 228
-1.00079, 321, 85, 448, 116
-1.00079, 193, 93, 320, 124
-1.00079, 193, 157, 320, 188
-1.00079, 353, 177, 480, 208
-1.00079, 289, 57, 416, 120
-1.0008, 369, 149, 496, 180
-1.00081, 293, 65, 324, 320
-1.00081, 193, 117, 320, 148
-1.00082, 289, 53, 416, 84
-1.00084, 213, 65, 244, 320
-1.00084, 225, 289, 352, 320
-1.00084, 197, 65, 228, 320
-1.00084, 161, 265, 224, 328
-1.00086, 193, 73, 320, 104
-1.00086, 153, 209, 184, 272
-1.00086, 313, 65, 344, 320
-1.00086, 193, 105, 320, 136
-1.00086, 257, 121, 500, 184
-1.00087, 369, 117, 496, 148
-1.00088, 369, 161, 496, 192
-1.00089, 185, 65, 216, 320
-1.00089, 369, 237, 496, 268
-1.0009, 109, 65, 140, 320
-1.0009, 361, 1, 424, 335
-1.0009, 209, 57, 336, 88
-1.00091, 85, 65, 116, 320
-1.00091, 369, 105, 496, 136
-1.00093, 353, 61, 480, 92
-1.00094, 361, 65, 392, 320
-1.00094, 209, 1, 272, 335
-1.00094, 369, 89, 496, 120
-1.00094, 321, 225, 448, 256
-1.00095, 161, 1, 224, 335
-1.00095, 225, 185, 352, 248
-1.00095, 241, 69, 368, 100
-1.00095, 265, 65, 296, 320
-1.00095, 405, 65, 436, 320
-1.00095, 381, 65, 412, 320
-1.00096, 89, 1, 152, 335
-1.00096, 369, 49, 496, 80
-1.00096, 257, 145, 500, 208
-1.00097, 193, 185, 448, 248
-1.00098, 273, 41, 400, 72
-1.00098, 369, 225, 496, 256
-1.00099, 337, 129, 464, 192
-1.00099, 257, 217, 500, 280
-1.001, 177, 185, 304, 216
-1.001, 209, 45, 336, 76
-1.00101, 369, 73, 496, 104
-1.00101, 341, 65, 372, 320
-1.00101, 225, 65, 256, 320
-1.00102, 241, 209, 272, 335
-1.00103, 1, 185, 256, 248
-1.00103, 353, 37, 480, 68
-1.00103, 225, 33, 352, 64
-1.00103, 449, 65, 480, 320
-1.00104, 225, 97, 480, 160
-1.00104, 237, 65, 268, 320
-1.00104, 369, 169, 496, 232
-1.00106, 305, 29, 432, 60
-1.00106, 17, 185, 144, 216
-1.00106, 393, 65, 424, 320
-1.00107, 49, 101, 176, 132
-1.00107, 145, 101, 272, 132
-1.00107, 97, 109, 224, 140
-1.00107, 1, 113, 128, 144
-1.00107, 49, 113, 176, 144
-1.00107, 145, 113, 272, 144
-1.00107, 97, 121, 224, 152
-1.00107, 1, 125, 128, 156
-1.00107, 49, 125, 176, 156
-1.00107, 145, 125, 272, 156
-1.00107, 97, 133, 224, 164
-1.00107, 1, 137, 128, 168
-1.00107, 49, 137, 176, 168
-1.00107, 145, 137, 272, 168
-1.00107, 97, 145, 224, 176
-1.00107, 1, 149, 128, 180
-1.00107, 49, 149, 176, 180
-1.00107, 145, 149, 272, 180
-1.00107, 97, 157, 224, 188
-1.00107, 1, 161, 128, 192
-1.00107, 49, 161, 176, 192
-1.00107, 145, 161, 272, 192
-1.00107, 97, 169, 224, 200
-1.00107, 33, 173, 160, 204
-1.00107, 145, 173, 272, 204
-1.00107, 81, 181, 208, 212
-1.00107, 129, 185, 256, 216
-1.00109, 105, 201, 168, 264
-1.00109, 329, 65, 360, 320
-1.00109, 253, 65, 284, 320
-1.0011, 429, 65, 460, 320
-1.00113, 225, 81, 480, 208
-1.00114, 469, 65, 500, 320
-1.00115, 417, 65, 448, 320
-1.00121, 1, 265, 500, 328
-1.00123, 417, 1, 480, 335
-1.00123, 25, 265, 88, 328
-1.00127, 193, 137, 320, 200
-1.00129, 337, 161, 464, 288
-1.0013, 257, 73, 500, 136
-1.00134, 129, 161, 384, 224
-1.00135, 97, 137, 352, 200
-1.00141, 97, 113, 352, 176
-1.00141, 321, 161, 448, 224
-1.00141, 257, 89, 384, 152
-1.00142, 385, 1, 448, 335
-1.00143, 193, 161, 320, 224
-1.00146, 105, 217, 136, 280
-1.00146, 285, 209, 316, 335
-1.00148, 305, 81, 432, 144
-1.0015, 137, 1, 200, 335
-1.00155, 369, 209, 432, 335
-1.00156, 193, 97, 320, 160
-1.00159, 97, 185, 352, 248
-1.0016, 257, 49, 500, 112
-1.00162, 177, 185, 304, 248
-1.00164, 97, 89, 352, 152
-1.00165, 321, 105, 448, 168
-1.00166, 97, 65, 352, 128
-1.00174, 141, 209, 172, 272
-1.00175, 265, 209, 296, 335
-1.0018, 97, 41, 352, 104
-1.00185, 57, 1, 120, 335
-1.00189, 1, 209, 500, 272
-1.00194, 193, 17, 448, 80
-1.00194, 369, 41, 496, 104
-1.00195, 169, 217, 232, 280
-1.00199, 253, 209, 284, 335
-1.00199, 369, 105, 496, 168
-1.00202, 193, 49, 320, 112
-1.00206, 65, 201, 128, 264
-1.00207, 1, 153, 256, 216
-1.00207, 353, 73, 480, 136
-1.00212, 33, 9, 288, 72
-1.00212, 1, 33, 256, 96
-1.00212, 1, 57, 256, 120
-1.00212, 1, 81, 256, 144
-1.00212, 1, 105, 256, 168
-1.00212, 1, 129, 256, 192
-1.00214, 177, 161, 304, 288
-1.00215, 241, 65, 368, 128
-1.00221, 209, 249, 272, 312
-1.00222, 289, 33, 416, 96
-1.00223, 1, 65, 64, 320
-1.00229, 313, 209, 344, 335
-1.00231, 113, 1, 176, 335
-1.00237, 273, 241, 336, 304
-1.00238, 193, 73, 320, 136
-1.00241, 49, 169, 176, 232
-1.00242, 225, 25, 352, 88
-1.00243, 417, 209, 448, 335
-1.00246, 41, 65, 104, 320
-1.00247, 1, 169, 128, 232
-1.00251, 353, 17, 480, 80
-1.00251, 157, 257, 188, 320
-1.00252, 129, 169, 256, 232
-1.00257, 433, 257, 496, 320
-1.0026, 233, 233, 296, 296
-1.00261, 105, 65, 168, 320
-1.00261, 81, 161, 144, 288
-1.00264, 305, 257, 368, 320
-1.00266, 397, 209, 428, 335
-1.00266, 341, 209, 372, 335
-1.00267, 185, 265, 248, 328
-1.00269, 433, 193, 496, 320
-1.00273, 265, 65, 328, 320
-1.00274, 373, 209, 404, 335
-1.00276, 145, 113, 272, 176
-1.00277, 289, 9, 416, 72
-1.00278, 297, 209, 328, 335
-1.0028, 401, 257, 464, 320
-1.00282, 461, 209, 492, 335
-1.00285, 225, 1, 352, 64
-1.00286, 1, 185, 500, 248
-1.00288, 1, 153, 500, 216
-1.00288, 145, 89, 272, 152
-1.00291, 17, 1, 144, 64
-1.00291, 65, 1, 192, 64
-1.00291, 113, 1, 240, 64
-1.00291, 161, 17, 288, 80
-1.00291, 1, 25, 128, 88
-1.00291, 49, 25, 176, 88
-1.00291, 97, 25, 224, 88
-1.00291, 145, 41, 272, 104
-1.00291, 1, 49, 128, 112
-1.00291, 49, 49, 176, 112
-1.00291, 97, 49, 224, 112
-1.00291, 145, 65, 272, 128
-1.00291, 1, 73, 128, 136
-1.00291, 49, 73, 176, 136
-1.00291, 97, 73, 224, 136
-1.00291, 1, 97, 128, 160
-1.00291, 49, 97, 176, 160
-1.00291, 97, 97, 224, 160
-1.00291, 1, 121, 128, 184
-1.00291, 49, 121, 176, 184
-1.00291, 97, 121, 224, 184
-1.00291, 1, 145, 128, 208
-1.00291, 49, 145, 176, 208
-1.00291, 97, 145, 224, 208
-1.00291, 145, 145, 272, 208
-1.00292, 1, 97, 500, 160
-1.00292, 1, 121, 500, 184
-1.00299, 377, 249, 440, 312
-1.00306, 1, 73, 500, 136
-1.00306, 145, 161, 176, 288
-1.00307, 385, 209, 416, 335
-1.00312, 25, 217, 56, 280
-1.00312, 45, 217, 76, 280
-1.00315, 241, 257, 304, 320
-1.00318, 65, 65, 128, 320
-1.00318, 325, 193, 356, 320
-1.00319, 429, 209, 460, 335
-1.00322, 417, 233, 480, 296
-1.00322, 5, 217, 36, 280
-1.00325, 153, 65, 216, 320
-1.00327, 361, 273, 424, 335
-1.0033, 289, 49, 416, 176
-1.00336, 313, 217, 376, 280
-1.00341, 357, 209, 388, 335
-1.00346, 33, 161, 96, 288
-1.00347, 289, 217, 352, 280
-1.00347, 41, 241, 72, 304
-1.00353, 1, 161, 64, 288
-1.00355, 1, 49, 500, 112
-1.00356, 169, 225, 200, 288
-1.00359, 377, 217, 440, 280
-1.00359, 281, 273, 344, 335
-1.00363, 25, 193, 88, 256
-1.00368, 265, 209, 328, 272
-1.00371, 273, 145, 400, 272
-1.00372, 445, 209, 476, 335
-1.00378, 1, 25, 500, 88
-1.00378, 209, 65, 272, 320
-1.00381, 189, 249, 220, 312
-1.00382, 217, 209, 280, 272
-1.00382, 409, 209, 472, 272
-1.00382, 289, 65, 352, 320
-1.00386, 1, 1, 500, 64
-1.00388, 125, 161, 156, 288
-1.00389, 65, 249, 96, 312
-1.00389, 329, 257, 392, 320
-1.00391, 345, 233, 408, 296
-1.00401, 49, 161, 80, 288
-1.00401, 185, 225, 216, 288
-1.00403, 377, 65, 440, 320
-1.00407, 1, 241, 32, 304
-1.00409, 49, 273, 80, 335
-1.0041, 89, 209, 120, 272
-1.00414, 241, 209, 304, 272
-1.00419, 1, 193, 64, 256
-1.0042, 25, 161, 56, 288
-1.0042, 69, 161, 100, 288
-1.00421, 321, 113, 448, 240
-1.00421, 53, 241, 84, 304
-1.00423, 145, 193, 208, 256
-1.00427, 69, 209, 100, 272
-1.00431, 13, 161, 44, 288
-1.00434, 21, 241, 52, 304
-1.00435, 129, 65, 192, 320
-1.00444, 241, 217, 272, 280
-1.00445, 201, 233, 232, 296
-1.00454, 57, 217, 88, 280
-1.00458, 353, 209, 416, 272
-1.00458, 169, 257, 200, 320
-1.00466, 129, 113, 384, 240
-1.00466, 225, 225, 256, 288
-1.00466, 137, 161, 200, 288
-1.00467, 169, 193, 232, 256
-1.00468, 185, 65, 248, 320
-1.00468, 213, 225, 244, 288
-1.00475, 233, 65, 296, 320
-1.0048, 321, 65, 384, 320
-1.00481, 321, 193, 384, 256
-1.00492, 77, 257, 108, 320
-1.00498, 173, 161, 204, 288
-1.00501, 37, 161, 68, 288
-1.00502, 201, 265, 232, 328
-1.00502, 277, 265, 308, 328
-1.00504, 297, 177, 360, 240
-1.00505, 273, 161, 304, 288
-1.00505, 225, 33, 480, 160
-1.00506, 193, 201, 256, 264
-1.00512, 253, 225, 284, 288
-1.00513, 25, 265, 56, 328
-1.00514, 269, 217, 300, 280
-1.00519, 409, 257, 440, 320
-1.00519, 9, 265, 40, 328
-1.0052, 201, 209, 232, 272
-1.0052, 281, 233, 312, 296
-1.00521, 205, 161, 236, 288
-1.00522, 281, 161, 344, 288
-1.00522, 1, 273, 64, 335
-1.00523, 229, 257, 260, 320
-1.00525, 253, 249, 284, 312
-1.00527, 293, 241, 324, 304
-1.00528, 89, 161, 120, 288
-1.00531, 457, 265, 488, 328
-1.00533, 265, 241, 296, 304
-1.00533, 245, 161, 276, 288
-1.00534, 361, 185, 424, 248
-1.00536, 317, 265, 348, 328
-1.00539, 357, 225, 388, 288
-1.0054, 233, 161, 264, 288
-1.00541, 433, 201, 496, 264
-1.00543, 305, 161, 336, 288
-1.00546, 193, 161, 224, 288
-1.00547, 389, 233, 420, 296
-1.00548, 273, 177, 336, 240
-1.0055, 209, 273, 272, 335
-1.00553, 305, 217, 336, 280
-1.00553, 325, 241, 356, 304
-1.00553, 337, 273, 368, 335
-1.00554, 393, 273, 424, 335
-1.00556, 105, 193, 136, 256
-1.00556, 65, 273, 96, 335
-1.00559, 221, 161, 252, 288
-1.0056, 401, 65, 464, 320
-1.00565, 1, 193, 32, 256
-1.00567, 449, 241, 480, 304
-1.00568, 217, 249, 248, 312
-1.0057, 345, 161, 376, 288
-1.00573, 341, 209, 372, 272
-1.00573, 377, 233, 408, 296
-1.00573, 305, 241, 336, 304
-1.00574, 469, 249, 500, 312
-1.00576, 297, 265, 328, 328
-1.00576, 469, 273, 500, 335
-1.0058, 37, 265, 68, 328
-1.00582, 425, 65, 488, 320
-1.00582, 357, 249, 388, 312
-1.00584, 421, 241, 452, 304
-1.00585, 297, 153, 360, 216
-1.00586, 293, 161, 324, 288
-1.00587, 293, 201, 324, 264
-1.00587, 437, 273, 468, 335
-1.00587, 241, 81, 368, 208
-1.00588, 273, 113, 336, 176
-1.00588, 389, 161, 420, 288
-1.00592, 241, 241, 272, 304
-1.00592, 261, 161, 292, 288
-1.00596, 353, 65, 416, 320
-1.00599, 281, 209, 312, 272
-1.006, 249, 161, 312, 288
-1.00601, 345, 233, 376, 296
-1.00602, 105, 161, 168, 288
-1.00612, 369, 161, 400, 288
-1.00612, 409, 161, 440, 288
-1.00615, 405, 209, 436, 272
-1.00615, 325, 217, 356, 280
-1.00615, 385, 169, 448, 232
-1.00618, 433, 233, 464, 296
-1.00619, 21, 193, 52, 256
-1.0062, 321, 153, 384, 216
-1.00622, 161, 161, 192, 288
-1.00626, 369, 257, 400, 320
-1.0063, 121, 177, 184, 240
-1.00632, 393, 209, 424, 272
-1.00632, 409, 233, 440, 296
-1.00632, 421, 265, 452, 328
-1.00633, 273, 153, 336, 216
-1.00638, 381, 257, 412, 320
-1.00638, 289, 65, 352, 128
-1.00638, 273, 89, 336, 152
-1.0064, 109, 145, 140, 272
-1.00644, 57, 161, 120, 288
-1.00647, 45, 193, 76, 256
-1.00648, 181, 201, 212, 264
-1.00649, 433, 209, 464, 272
-1.00649, 329, 161, 392, 288
-1.0065, 193, 81, 320, 208
-1.00655, 193, 161, 256, 288
-1.00655, 349, 273, 380, 335
-1.00658, 1, 145, 32, 272
-1.0066, 325, 185, 356, 248
-1.00661, 445, 201, 476, 264
-1.00661, 345, 145, 408, 208
-1.00662, 369, 209, 400, 272
-1.00663, 357, 193, 388, 256
-1.00667, 249, 273, 280, 335
-1.00667, 357, 161, 388, 288
-1.00669, 265, 265, 296, 328
-1.00669, 429, 161, 460, 288
-1.00672, 421, 201, 452, 264
-1.00675, 377, 161, 440, 288
-1.00676, 57, 193, 88, 256
-1.00678, 169, 201, 200, 264
-1.00679, 221, 201, 252, 264
-1.00681, 81, 177, 144, 240
-1.00682, 241, 177, 304, 240
-1.00683, 217, 273, 248, 335
-1.00683, 465, 161, 496, 288
-1.00684, 461, 209, 492, 272
-1.0069, 441, 161, 472, 288
-1.00693, 33, 193, 64, 256
-1.00694, 345, 185, 376, 248
-1.00695, 333, 145, 364, 272
-1.00697, 385, 185, 416, 248
-1.007, 305, 185, 336, 248
-1.007, 49, 177, 112, 240
-1.00704, 169, 161, 232, 288
-1.00704, 189, 273, 220, 335
-1.00704, 285, 65, 316, 192
-1.0071, 393, 145, 456, 208
-1.00712, 425, 169, 488, 232
-1.00715, 77, 185, 108, 248
-1.0072, 217, 161, 280, 288
-1.00723, 97, 33, 352, 160
-1.00723, 381, 209, 412, 272
-1.00724, 373, 185, 404, 248
-1.00726, 321, 129, 384, 192
-1.00726, 293, 177, 324, 240
-1.00728, 233, 193, 264, 256
-1.00728, 453, 161, 484, 288
-1.00728, 369, 81, 432, 144
-1.00731, 337, 65, 464, 192
-1.00733, 241, 137, 304, 200
-1.00735, 93, 185, 124, 248
-1.00737, 249, 97, 312, 160
-1.0074, 385, 121, 448, 184
-1.00744, 305, 89, 368, 152
-1.00744, 257, 201, 288, 264
-1.00746, 369, 145, 432, 208
-1.00754, 313, 49, 376, 112
-1.00754, 417, 137, 480, 200
-1.00755, 141, 185, 172, 248
-1.00755, 245, 193, 276, 256
-1.00762, 297, 129, 360, 192
-1.00765, 293, 73, 324, 136
-1.00769, 277, 185, 308, 248
-1.00774, 209, 177, 272, 240
-1.00774, 337, 161, 368, 224
-1.00774, 401, 185, 432, 248
-1.00775, 297, 81, 328, 208
-1.00776, 369, 113, 496, 240
-1.00777, 209, 185, 240, 248
-1.00777, 177, 33, 304, 160
-1.00784, 409, 89, 472, 152
-1.00785, 385, 193, 448, 256
-1.00786, 129, 185, 160, 248
-1.00787, 157, 185, 188, 248
-1.00791, 353, 161, 384, 224
-1.00792, 9, 169, 72, 232
-1.00793, 337, 105, 400, 168
-1.00794, 269, 81, 300, 208
-1.00794, 333, 137, 364, 200
-1.00795, 353, 161, 416, 288
-1.00797, 397, 81, 428, 208
-1.008, 285, 113, 316, 240
-1.008, 273, 1, 400, 128
-1.008, 193, 185, 224, 248
-1.008, 373, 145, 404, 208
-1.00803, 321, 49, 352, 176
-1.00804, 265, 41, 328, 104
-1.00804, 241, 57, 304, 120
-1.00805, 117, 177, 148, 240
-1.00806, 413, 177, 444, 240
-1.0081, 269, 145, 300, 208
-1.0081, 341, 49, 372, 176
-1.00811, 317, 145, 348, 272
-1.00811, 309, 49, 340, 176
-1.00814, 377, 49, 408, 176
-1.00818, 409, 65, 472, 128
-1.0082, 289, 41, 352, 104
-1.00821, 357, 113, 388, 240
-1.00824, 297, 33, 328, 160
-1.00825, 409, 113, 472, 176
-1.0083, 345, 73, 408, 136
-1.0083, 361, 121, 424, 184
-1.00834, 265, 65, 328, 128
-1.00836, 369, 17, 496, 144
-1.00839, 313, 25, 376, 88
-1.00842, 225, 1, 352, 128
-1.00842, 321, 1, 448, 128
-1.00844, 337, 49, 400, 112
-1.00844, 385, 57, 448, 120
-1.00847, 305, 161, 368, 288
-1.00847, 153, 169, 216, 232
-1.0086, 273, 17, 336, 80
-1.00862, 325, 97, 356, 224
-1.00862, 329, 1, 360, 128
-1.00862, 389, 33, 420, 160
-1.00862, 409, 81, 440, 208
-1.00864, 281, 17, 312, 144
-1.00865, 341, 1, 372, 128
-1.00865, 361, 1, 392, 128
-1.00867, 345, 113, 376, 240
-1.00873, 409, 161, 472, 288
-1.00873, 317, 1, 348, 128
-1.00873, 217, 113, 280, 176
-1.00878, 269, 33, 300, 160
-1.00885, 257, 65, 288, 192
-1.0089, 361, 25, 424, 88
-1.0089, 385, 33, 448, 96
-1.00891, 425, 113, 456, 240
-1.00891, 465, 113, 496, 240
-1.00894, 449, 113, 480, 240
-1.00897, 381, 113, 412, 240
-1.00897, 377, 1, 408, 128
-1.00897, 361, 49, 392, 176
-1.00899, 217, 145, 280, 208
-1.00905, 417, 33, 448, 160
-1.00906, 225, 89, 288, 152
-1.0091, 313, 1, 376, 64
-1.00911, 13, 113, 44, 240
-1.00911, 313, 97, 344, 224
-1.00911, 437, 113, 468, 240
-1.00912, 401, 33, 432, 160
-1.00915, 409, 41, 472, 104
-1.00918, 1, 113, 256, 240
-1.00921, 257, 113, 288, 240
-1.00924, 337, 1, 400, 64
-1.00924, 361, 1, 424, 64
-1.00924, 385, 9, 448, 72
-1.00924, 433, 89, 496, 152
-1.00924, 433, 113, 496, 176
-1.00924, 185, 153, 248, 216
-1.00927, 97, 113, 128, 240
-1.00929, 121, 97, 184, 160
-1.00929, 169, 97, 232, 160
-1.00929, 145, 105, 208, 168
-1.00929, 193, 105, 256, 168
-1.00929, 17, 121, 80, 184
-1.00929, 41, 121, 104, 184
-1.00929, 65, 121, 128, 184
-1.00929, 89, 121, 152, 184
-1.00929, 113, 121, 176, 184
-1.00929, 169, 121, 232, 184
-1.00929, 137, 129, 200, 192
-1.00929, 193, 129, 256, 192
-1.00929, 9, 145, 72, 208
-1.00929, 33, 145, 96, 208
-1.00929, 57, 145, 120, 208
-1.00929, 81, 145, 144, 208
-1.00929, 105, 145, 168, 208
-1.00929, 161, 145, 224, 208
-1.00929, 129, 153, 192, 216
-1.00937, 57, 113, 88, 240
-1.0094, 69, 113, 100, 240
-1.00946, 141, 113, 172, 240
-1.00947, 429, 65, 460, 192
-1.00948, 369, 97, 400, 224
-1.00948, 273, 65, 336, 192
-1.0095, 249, 17, 280, 144
-1.0095, 229, 81, 260, 208
-1.00953, 85, 113, 116, 240
-1.00953, 1, 65, 32, 192
-1.00953, 13, 65, 44, 192
-1.00953, 245, 65, 276, 192
-1.00953, 125, 81, 156, 208
-1.00953, 157, 81, 188, 208
-1.00953, 169, 81, 200, 208
-1.00956, 221, 33, 252, 160
-1.00956, 233, 33, 264, 160
-1.00956, 29, 65, 60, 192
-1.00956, 41, 65, 72, 192
-1.00956, 53, 65, 84, 192
-1.00956, 65, 65, 96, 192
-1.00956, 77, 65, 108, 192
-1.00956, 89, 65, 120, 192
-1.00956, 101, 65, 132, 192
-1.00956, 113, 65, 144, 192
-1.00956, 145, 65, 176, 192
-1.00956, 445, 65, 476, 192
-1.00956, 457, 65, 488, 192
-1.00956, 469, 65, 500, 192
-1.00956, 185, 81, 216, 208
-1.00956, 197, 81, 228, 208
-1.00956, 209, 81, 240, 208
-1.01002, 145, 81, 272, 208
-1.01004, 1, 113, 128, 240
-1.01038, 33, 17, 160, 144
-1.01038, 81, 17, 208, 144
-1.01038, 129, 17, 256, 144
-1.01038, 1, 65, 128, 192
-1.01038, 49, 65, 176, 192
-1.01038, 97, 65, 224, 192
-1.01047, 1, 33, 256, 160
-1.01055, 369, 65, 432, 192
-1.01075, 297, 33, 360, 160
-1.0108, 65, 113, 192, 240
-1.01088, 337, 49, 400, 176
-1.0112, 281, 113, 344, 240
-1.01182, 377, 113, 440, 240
-1.0122, 433, 145, 496, 272
-1.01234, 241, 65, 304, 192
-1.01247, 313, 113, 376, 240
-1.01256, 257, 113, 320, 240
-1.01267, 337, 1, 400, 128
-1.01273, 409, 49, 472, 176
-1.01289, 409, 113, 472, 240
-1.01296, 257, 17, 320, 144
-1.01324, 353, 113, 416, 240
-1.01331, 233, 113, 296, 240
-1.01338, 377, 17, 440, 144
-1.01395, 121, 113, 184, 240
-1.01411, 81, 113, 144, 240
-1.01416, 409, 1, 472, 128
-1.01425, 17, 113, 80, 240
-1.01435, 217, 65, 280, 192
-1.01438, 41, 113, 104, 240
-1.01458, 233, 17, 296, 144
-1.01465, 433, 65, 496, 192
-1.01471, 161, 81, 224, 208
-1.01478, 1, 17, 64, 144
-1.01478, 25, 17, 88, 144
-1.01478, 49, 17, 112, 144
-1.01478, 73, 17, 136, 144
-1.01478, 97, 17, 160, 144
-1.01478, 121, 17, 184, 144
-1.01478, 145, 17, 208, 144
-1.01478, 433, 17, 496, 144
-1.01478, 169, 33, 232, 160
-1.01478, 193, 33, 256, 160
-1.01478, 17, 65, 80, 192
-1.01478, 41, 65, 104, 192
-1.01478, 65, 65, 128, 192
-1.01478, 89, 65, 152, 192
-1.01478, 113, 65, 176, 192
-1.01478, 137, 65, 200, 192
-1.01478, 193, 81, 256, 208
