1915
-0.389565, 1, 1, 333, 500
-0.393995, 1, 1, 333, 256
-0.459405, 1, 1, 256, 500
-0.511242, 1, 97, 333, 352
-0.519171, 1, 193, 333, 448
-0.623742, 1, 1, 256, 256
-0.739596, 33, 97, 288, 352
-0.834073, 33, 193, 288, 448
-0.853944, 81, 1, 208, 256
-0.859595, 145, 1, 272, 256
-0.864716, 65, 1, 192, 500
-0.867186, 145, 1, 272, 500
-0.875409, 1, 33, 128, 288
-0.878524, 1, 1, 128, 500
-0.881167, 209, 1, 333, 500
-0.887606, 209, 1, 333, 256
-0.888103, 1, 1, 333, 128
-0.895502, 129, 97, 256, 352
-0.897563, 1, 113, 333, 240
-0.898379, 1, 49, 333, 176
-0.904284, 81, 97, 208, 352
-0.904884, 129, 257, 256, 500
-0.913945, 1, 33, 256, 160
-0.91454, 1, 209, 333, 336
-0.921788, 177, 225, 304, 480
-0.92179, 81, 49, 208, 176
-0.922018, 1, 49, 128, 176
-0.927019, 169, 209, 232, 336
-0.92986, 1, 81, 256, 208
-0.930522, 81, 257, 208, 500
-0.932119, 177, 97, 304, 352
-0.932394, 217, 145, 280, 272
-0.9395, 145, 209, 272, 336
-0.940793, 81, 1, 208, 128
-0.941889, 1, 161, 333, 288
-0.942369, 25, 65, 88, 192
-0.942379, 161, 17, 288, 144
-0.942754, 57, 17, 120, 144
-0.947578, 145, 17, 208, 144
-0.947809, 1, 1, 128, 128
-0.949533, 193, 193, 256, 320
-0.94992, 145, 209, 208, 336
-0.951307, 33, 129, 160, 384
-0.951849, 65, 65, 128, 192
-0.952488, 169, 201, 232, 264
-0.953054, 209, 17, 333, 144
-0.955203, 177, 49, 240, 176
-0.955355, 65, 209, 320, 336
-0.95541, 129, 97, 256, 224
-0.955418, 137, 257, 200, 384
-0.955564, 1, 289, 333, 416
-0.955952, 217, 193, 280, 320
-0.956566, 105, 17, 168, 144
-0.957546, 209, 209, 272, 272
-0.957889, 57, 49, 120, 112
-0.958156, 33, 129, 288, 256
-0.958189, 169, 1, 232, 128
-0.958381, 1, 49, 64, 176
-0.959214, 17, 97, 144, 224
-0.959327, 241, 121, 304, 184
-0.959428, 97, 209, 224, 336
-0.960338, 193, 145, 320, 272
-0.960543, 185, 145, 248, 272
-0.961084, 25, 17, 88, 144
-0.961284, 185, 233, 248, 296
-0.961311, 209, 1, 272, 128
-0.961639, 161, 225, 224, 288
-0.961649, 265, 33, 328, 160
-0.961967, 145, 73, 208, 136
-0.962091, 153, 249, 216, 312
-0.9632, 209, 97, 333, 224
-0.963219, 113, 257, 240, 384
-0.963287, 17, 57, 80, 120
-0.96337, 225, 81, 288, 144
-0.963718, 177, 105, 240, 168
-0.963804, 217, 137, 280, 200
-0.963904, 1, 369, 333, 496
-0.964291, 65, 97, 192, 224
-0.964544, 225, 81, 288, 208
-0.965072, 57, 81, 120, 144
-0.965566, 137, 25, 200, 88
-0.965864, 129, 65, 192, 192
-0.966479, 177, 369, 304, 496
-0.967272, 145, 49, 208, 112
-0.967324, 169, 193, 200, 320
-0.967407, 65, 65, 192, 128
-0.967418, 257, 129, 320, 256
-0.967522, 97, 41, 160, 104
-0.968059, 217, 185, 280, 248
-0.96832, 161, 257, 224, 384
-0.968493, 57, 25, 120, 88
-0.968528, 145, 113, 208, 240
-0.968867, 201, 201, 232, 264
-0.968899, 153, 97, 216, 160
-0.969047, 185, 81, 248, 144
-0.969073, 177, 201, 208, 264
-0.969264, 169, 1, 232, 64
-0.969456, 209, 57, 272, 120
-0.969689, 1, 57, 128, 120
-0.969799, 257, 177, 320, 304
-0.969897, 145, 97, 208, 352
-0.970086, 153, 65, 216, 192
-0.970408, 201, 65, 264, 192
-0.970503, 169, 49, 232, 112
-0.970528, 145, 1, 208, 64
-0.97075, 241, 145, 304, 208
-0.970818, 113, 9, 176, 72
-0.9709, 145, 225, 272, 288
-0.970933, 177, 97, 240, 224
-0.971603, 265, 129, 328, 192
-0.97164, 209, 209, 333, 336
-0.972254, 201, 193, 232, 320
-0.972318, 177, 97, 240, 352
-0.972342, 161, 81, 192, 144
-0.972404, 217, 33, 280, 288
-0.972424, 93, 49, 124, 176
-0.972462, 81, 49, 112, 176
-0.97267, 121, 241, 184, 304
-0.972743, 65, 89, 192, 152
-0.97289, 145, 273, 208, 336
-0.973035, 161, 25, 224, 88
-0.973066, 265, 25, 328, 88
-0.973221, 81, 25, 208, 88
-0.973294, 193, 337, 256, 464
-0.97331, 217, 161, 280, 224
-0.973311, 13, 65, 44, 128
-0.973412, 241, 193, 304, 256
-0.973469, 25, 33, 88, 288
-0.973718, 169, 193, 232, 448
-0.973724, 177, 177, 240, 240
-0.973812, 121, 89, 184, 152
-0.973908, 165, 33, 196, 160
-0.973926, 189, 225, 220, 288
-0.974009, 49, 57, 80, 120
-0.974124, 145, 225, 208, 480
-0.974173, 89, 65, 152, 192
-0.974179, 33, 225, 160, 480
-0.974248, 145, 1, 208, 256
-0.974266, 189, 201, 220, 264
-0.974451, 181, 193, 212, 320
-0.974591, 249, 81, 312, 208
-0.974726, 241, 49, 304, 112
-0.974826, 25, 81, 88, 144
-0.97488, 145, 201, 208, 264
-0.974972, 17, 49, 48, 176
-0.975187, 209, 233, 272, 296
-0.975209, 85, 65, 116, 128
-0.97534, 181, 33, 212, 160
-0.975551, 81, 17, 144, 80
-0.97574, 97, 65, 160, 128
-0.97586, 65, 113, 128, 240
-0.975862, 161, 241, 192, 368
-0.975929, 273, 49, 333, 112
-0.975998, 97, 353, 224, 480
-0.976, 121, 193, 184, 320
-0.976128, 177, 401, 240, 464
-0.976234, 165, 217, 196, 280
-0.976243, 145, 81, 272, 144
-0.976303, 161, 201, 288, 264
-0.976319, 245, 153, 276, 216
-0.976326, 81, 1, 144, 256
-0.976596, 265, 1, 328, 256
-0.976644, 217, 129, 280, 384
-0.976647, 177, 257, 240, 320
-0.976673, 129, 49, 256, 112
-0.976679, 65, 273, 320, 400
-0.976777, 209, 25, 333, 88
-0.976862, 29, 57, 60, 120
-0.977028, 153, 249, 184, 312
-0.977101, 161, 161, 224, 288
-0.977138, 217, 241, 280, 368
-0.977173, 213, 201, 244, 264
-0.977195, 49, 49, 80, 176
-0.977282, 49, 1, 112, 256
-0.977371, 57, 105, 120, 168
-0.977409, 217, 113, 280, 176
-0.977432, 145, 17, 176, 144
-0.977458, 273, 105, 333, 168
-0.977463, 1, 1, 64, 128
-0.977528, 17, 33, 144, 96
-0.977602, 185, 1, 248, 256
-0.977694, 193, 17, 256, 80
-0.977757, 129, 17, 256, 80
-0.97781, 81, 1, 208, 64
-0.977821, 1, 81, 64, 144
-0.977942, 161, 9, 192, 72
-0.978093, 73, 49, 104, 112
-0.978281, 217, 369, 280, 496
-0.978284, 153, 57, 184, 120
-0.97841, 165, 249, 196, 312
-0.978416, 301, 49, 332, 176
-0.978562, 29, 49, 60, 176
-0.9787, 261, 145, 292, 208
-0.978742, 213, 209, 244, 336
-0.97892, 17, 113, 144, 176
-0.979013, 97, 49, 128, 112
-0.979051, 1, 81, 128, 144
-0.979123, 69, 33, 100, 160
-0.97915, 1, 49, 32, 176
-0.979264, 113, 145, 240, 272
-0.979276, 181, 89, 212, 152
-0.979354, 177, 177, 304, 240
-0.979588, 233, 33, 296, 160
-0.979668, 261, 121, 292, 184
-0.979693, 73, 81, 104, 144
-0.979697, 185, 273, 248, 400
-0.979828, 193, 129, 256, 192
-0.979988, 121, 49, 184, 112
-0.979997, 25, 33, 88, 96
-0.980092, 209, 105, 333, 168
-0.980238, 221, 161, 252, 288
-0.980317, 201, 1, 232, 128
-0.980337, 1, 57, 32, 120
-0.98035, 241, 169, 304, 232
-0.980433, 65, 369, 320, 496
-0.980492, 245, 121, 276, 184
-0.98052, 121, 265, 184, 328
-0.980601, 113, 201, 240, 264
-0.980608, 193, 1, 320, 64
-0.980789, 81, 17, 144, 144
-0.980798, 145, 89, 176, 152
-0.98087, 193, 257, 320, 384
-0.980958, 57, 1, 120, 64
-0.981101, 245, 161, 276, 288
-0.9814, 33, 113, 96, 240
-0.981594, 145, 1, 208, 500
-0.981734, 129, 305, 256, 432
-0.981791, 233, 225, 296, 288
-0.981791, 209, 137, 333, 200
-0.981827, 209, 225, 240, 288
-0.981869, 113, 257, 176, 384
-0.981889, 229, 129, 260, 192
-0.981907, 85, 41, 116, 104
-0.981956, 85, 1, 116, 128
-0.98199, 137, 121, 200, 184
-0.982043, 257, 185, 288, 248
-0.98206, 129, 177, 192, 240
-0.982136, 217, 33, 280, 96
-0.982196, 149, 33, 180, 96
-0.982328, 149, 241, 180, 368
-0.982366, 241, 65, 304, 320
-0.982381, 265, 153, 328, 216
-0.982396, 257, 1, 320, 64
-0.982434, 165, 97, 196, 224
-0.982459, 217, 385, 280, 448
-0.982482, 153, 273, 184, 336
-0.982587, 181, 81, 212, 208
-0.982669, 169, 105, 200, 168
-0.982706, 201, 73, 232, 136
-0.982765, 177, 289, 240, 352
-0.982774, 245, 225, 276, 288
-0.982866, 193, 73, 320, 136
-0.982873, 209, 49, 333, 112
-0.982983, 1, 33, 64, 96
-0.983035, 297, 129, 328, 192
-0.983077, 249, 73, 312, 136
-0.983151, 129, 105, 256, 168
-0.983158, 257, 361, 320, 424
-0.983223, 153, 65, 184, 192
-0.983235, 177, 305, 304, 432
-0.983256, 97, 225, 224, 288
-0.983274, 1, 33, 64, 288
-0.983291, 25, 105, 88, 168
-0.983339, 145, 249, 272, 312
-0.983352, 181, 41, 212, 104
-0.983414, 189, 65, 220, 128
-0.983505, 177, 401, 304, 464
-0.983533, 49, 193, 176, 320
-0.983581, 181, 401, 212, 464
-0.983584, 245, 201, 276, 264
-0.983743, 193, 49, 224, 176
-0.983744, 225, 209, 256, 272
-0.983818, 261, 177, 292, 304
-0.984005, 265, 185, 328, 248
-0.98401, 177, 225, 208, 288
-0.98402, 193, 377, 256, 440
-0.984079, 97, 25, 128, 88
-0.984088, 265, 433, 328, 496
-0.984094, 205, 49, 236, 112
-0.98414, 85, 89, 116, 152
-0.984166, 137, 81, 168, 208
-0.984257, 153, 225, 184, 288
-0.98426, 229, 81, 260, 208
-0.98438, 209, 209, 333, 272
-0.984402, 161, 33, 192, 96
-0.984563, 69, 81, 100, 208
-0.984598, 217, 425, 280, 488
-0.984617, 301, 49, 332, 112
-0.984685, 201, 145, 232, 272
-0.984687, 105, 1, 168, 256
-0.984754, 61, 25, 92, 88
-0.984848, 241, 225, 304, 352
-0.984964, 185, 1, 248, 500
-0.98501, 237, 41, 268, 104
-0.98509, 81, 433, 144, 496
-0.985096, 225, 185, 256, 248
-0.985139, 221, 49, 252, 112
-0.98516, 25, 1, 88, 500
-0.985203, 249, 369, 312, 496
-0.985221, 173, 1, 204, 64
-0.985276, 97, 249, 224, 312
-0.985448, 225, 9, 288, 72
-0.985504, 193, 329, 256, 392
-0.985532, 149, 1, 180, 64
-0.985579, 153, 401, 216, 464
-0.985593, 213, 1, 244, 128
-0.985628, 217, 273, 280, 336
-0.985633, 201, 25, 232, 88
-0.985666, 1, 137, 128, 200
-0.985732, 173, 241, 204, 368
-0.985758, 161, 425, 224, 488
-0.985764, 221, 73, 252, 136
-0.985787, 217, 65, 248, 192
-0.985847, 185, 241, 216, 368
-0.98585, 89, 89, 152, 152
-0.985886, 141, 241, 172, 304
-0.985909, 89, 113, 152, 240
-0.985923, 65, 273, 192, 400
-0.985948, 165, 193, 196, 256
-0.985952, 81, 97, 112, 224
-0.985991, 273, 81, 333, 208
-0.986013, 253, 49, 284, 112
-0.986026, 193, 425, 256, 488
-0.986068, 97, 409, 224, 472
-0.986174, 85, 17, 116, 80
-0.98621, 233, 249, 296, 312
-0.986287, 33, 1, 160, 64
-0.986389, 177, 433, 304, 496
-0.98642, 245, 177, 276, 240
-0.986564, 225, 1, 288, 500
-0.986612, 249, 249, 280, 312
-0.98664, 1, 1, 64, 500
-0.986661, 141, 65, 172, 128
-0.986679, 193, 193, 256, 448
-0.986711, 65, 113, 192, 176
-0.986729, 121, 97, 184, 352
-0.986805, 265, 1, 328, 500
-0.986894, 157, 193, 188, 320
-0.987009, 165, 57, 196, 120
-0.98701, 265, 209, 328, 272
-0.987231, 113, 281, 240, 344
-0.987279, 61, 49, 92, 112
-0.987323, 157, 105, 188, 168
-0.987339, 197, 1, 228, 64
-0.987364, 301, 25, 332, 88
-0.987402, 9, 113, 72, 240
-0.987431, 49, 97, 112, 352
-0.987441, 285, 33, 316, 96
-0.987513, 81, 1, 144, 500
-0.987568, 185, 1, 216, 64
-0.987655, 129, 433, 256, 496
-0.987709, 253, 81, 284, 144
-0.987848, 105, 33, 136, 160
-0.987884, 177, 257, 208, 320
-0.987925, 161, 153, 288, 216
-0.987968, 289, 1, 320, 128
-0.988025, 97, 73, 128, 136
-0.988078, 241, 73, 272, 136
-0.988083, 209, 1, 240, 64
-0.988114, 17, 41, 48, 104
-0.988252, 233, 153, 264, 216
-0.988288, 265, 97, 328, 352
-0.988375, 193, 353, 256, 416
-0.988411, 205, 49, 236, 176
-0.988415, 273, 369, 333, 496
-0.988442, 289, 49, 320, 176
-0.988448, 177, 377, 304, 440
-0.988531, 9, 137, 72, 200
-0.988631, 177, 209, 240, 240
-0.988631, 249, 97, 280, 224
-0.988653, 229, 17, 260, 144
-0.988707, 137, 25, 168, 88
-0.988726, 169, 229, 232, 260
-0.988736, 53, 1, 84, 128
-0.988775, 133, 273, 164, 336
-0.988848, 197, 265, 228, 328
-0.988886, 161, 273, 288, 336
-0.988928, 181, 177, 212, 240
-0.988971, 233, 129, 264, 256
-0.988986, 57, 65, 120, 96
-0.989051, 105, 369, 168, 496
-0.989093, 233, 345, 296, 408
-0.989111, 121, 1, 184, 500
-0.989134, 201, 241, 232, 368
-0.989167, 25, 73, 88, 104
-0.989238, 65, 193, 192, 256
-0.989299, 209, 217, 272, 248
-0.989309, 161, 129, 288, 192
-0.989355, 201, 113, 232, 176
-0.989363, 41, 1, 72, 128
-0.989403, 129, 329, 256, 392
-0.989477, 121, 289, 184, 352
-0.989512, 197, 177, 228, 240
-0.989535, 1, 113, 64, 176
-0.989573, 153, 261, 216, 292
-0.989587, 249, 97, 312, 160
-0.989588, 189, 145, 220, 272
-0.989591, 257, 125, 320, 156
-0.989596, 177, 337, 304, 400
-0.989602, 57, 77, 120, 108
-0.989619, 121, 257, 184, 500
-0.989626, 233, 125, 296, 156
-0.989631, 57, 53, 120, 84
-0.989654, 285, 121, 316, 184
-0.989699, 81, 113, 144, 176
-0.989728, 153, 89, 216, 120
-0.989751, 217, 257, 280, 500
-0.989772, 41, 33, 72, 96
-0.989824, 161, 129, 224, 192
-0.989909, 57, 93, 120, 124
-0.989945, 97, 57, 160, 88
-0.989951, 169, 1, 232, 32
-0.989983, 1, 65, 64, 96
-0.989994, 249, 209, 280, 336
-0.989995, 57, 105, 120, 136
-0.990022, 249, 49, 280, 176
-0.990072, 209, 229, 272, 260
-0.990081, 185, 241, 248, 272
-0.990114, 269, 209, 300, 272
-0.990124, 1, 57, 256, 120
-0.990179, 145, 249, 208, 280
-0.990192, 153, 113, 184, 240
-0.990243, 17, 113, 48, 240
-0.990251, 161, 113, 224, 144
-0.990254, 225, 193, 288, 224
-0.990291, 273, 137, 333, 168
-0.990302, 165, 273, 196, 336
-0.990311, 145, 77, 208, 108
-0.990344, 193, 425, 224, 488
-0.990361, 153, 101, 216, 132
-0.990372, 217, 161, 280, 192
-0.990453, 49, 1, 112, 500
-0.990456, 121, 145, 152, 208
-0.990459, 25, 89, 88, 120
-0.990494, 217, 113, 248, 240
-0.99051, 269, 129, 300, 256
-0.99052, 209, 73, 272, 104
-0.990522, 25, 61, 88, 92
-0.990557, 241, 161, 304, 416
-0.99057, 137, 37, 200, 68
-0.990589, 225, 205, 288, 236
-0.990601, 217, 149, 280, 180
-0.990617, 145, 1, 208, 32
-0.990656, 145, 237, 208, 268
-0.990666, 129, 13, 192, 44
-0.990673, 137, 277, 200, 308
-0.990703, 73, 97, 136, 352
-0.990721, 137, 65, 200, 96
-0.99074, 121, 265, 184, 296
-0.990745, 1, 161, 64, 288
-0.990766, 177, 65, 208, 128
-0.990779, 77, 113, 108, 176
-0.990797, 137, 225, 168, 352
-0.990803, 61, 1, 92, 64
-0.990828, 1, 77, 64, 108
-0.990828, 185, 93, 248, 124
-0.990837, 129, 177, 256, 240
-0.990859, 153, 201, 216, 232
-0.990868, 225, 85, 288, 116
-0.990888, 129, 25, 192, 56
-0.990896, 1, 1, 32, 128
-0.990926, 105, 13, 168, 44
-0.990941, 153, 21, 216, 52
-0.990942, 249, 385, 312, 448
-0.990973, 265, 49, 328, 80
-0.990974, 81, 29, 144, 60
-0.990977, 1, 33, 32, 96
-0.990985, 301, 105, 332, 168
-0.990997, 241, 137, 304, 168
-0.991037, 33, 321, 288, 448
-0.991045, 169, 145, 200, 272
-0.991054, 217, 121, 248, 184
-0.991062, 249, 205, 312, 236
-0.991076, 185, 197, 248, 228
-0.991078, 153, 213, 216, 244
-0.991081, 185, 109, 248, 140
-0.991095, 97, 69, 160, 100
-0.991144, 169, 337, 232, 464
-0.991203, 65, 1, 320, 64
-0.99121, 105, 1, 168, 32
-0.991226, 277, 1, 308, 128
-0.991244, 217, 173, 280, 204
-0.991248, 93, 97, 124, 224
-0.991268, 17, 161, 144, 224
-0.99128, 169, 77, 232, 108
-0.991295, 13, 137, 44, 200
-0.991319, 209, 1, 272, 32
-0.991323, 241, 73, 304, 104
-0.991331, 65, 13, 128, 44
-0.991354, 97, 45, 160, 76
-0.991361, 193, 153, 256, 216
-0.991371, 225, 113, 288, 144
-0.991374, 17, 1, 80, 64
-0.991378, 57, 117, 120, 148
-0.991395, 161, 53, 224, 84
-0.991406, 257, 409, 320, 472
-0.991423, 177, 413, 240, 444
-0.991445, 137, 113, 200, 144
-0.991455, 169, 65, 232, 96
-0.991459, 257, 37, 320, 68
-0.99146, 177, 265, 240, 296
-0.991483, 221, 17, 252, 80
-0.991497, 205, 289, 236, 416
-0.991499, 201, 97, 232, 224
-0.991499, 105, 425, 168, 488
-0.9915, 129, 353, 256, 416
-0.991511, 65, 33, 320, 96
-0.991519, 301, 1, 332, 128
-0.99155, 1, 53, 64, 84
-0.991571, 209, 289, 272, 416
-0.991574, 221, 233, 252, 296
-0.991582, 217, 137, 280, 168
-0.991583, 109, 41, 140, 104
-0.99166, 241, 149, 304, 180
-0.991689, 137, 53, 200, 84
-0.991703, 57, 41, 120, 72
-0.991709, 161, 33, 224, 64
-0.991715, 185, 33, 248, 64
-0.991785, 121, 249, 184, 280
-0.991798, 237, 385, 268, 448
-0.991825, 1, 41, 333, 104
-0.991825, 121, 97, 184, 128
-0.991881, 97, 85, 160, 116
-0.991883, 221, 161, 252, 224
-0.991897, 233, 177, 264, 304
-0.991916, 25, 105, 88, 136
-0.991918, 249, 61, 312, 92
-0.991937, 97, 209, 160, 336
-0.991942, 161, 277, 224, 308
-0.991949, 81, 1, 144, 32
-0.99195, 265, 185, 328, 216
-0.991951, 113, 129, 240, 192
-0.991959, 17, 61, 48, 92
-0.991961, 205, 209, 236, 240
-0.991967, 217, 277, 280, 308
-0.992001, 25, 81, 56, 144
-0.99201, 133, 169, 164, 232
-0.992034, 285, 9, 316, 72
-0.992037, 161, 125, 224, 156
-0.992049, 97, 249, 160, 312
-0.992055, 181, 201, 212, 232
-0.992058, 257, 25, 320, 56
-0.992065, 81, 105, 144, 136
-0.992065, 5, 65, 36, 96
-0.992068, 249, 221, 312, 252
-0.992076, 57, 1, 120, 32
-0.992088, 137, 1, 168, 64
-0.992093, 105, 25, 168, 56
-0.992102, 129, 305, 256, 368
-0.992104, 113, 277, 176, 308
-0.992107, 241, 433, 304, 496
-0.992108, 49, 25, 112, 56
-0.992119, 257, 449, 320, 480
-0.992134, 1, 113, 333, 176
-0.992134, 265, 113, 328, 144
-0.992151, 105, 469, 168, 500
-0.992153, 209, 13, 272, 44
-0.992153, 81, 457, 144, 488
-0.992156, 33, 61, 64, 92
-0.992158, 225, 49, 288, 80
-0.992162, 177, 401, 240, 432
-0.992162, 9, 129, 72, 160
-0.992167, 145, 225, 208, 256
-0.992171, 301, 113, 332, 240
-0.992177, 1, 61, 128, 92
-0.992192, 217, 241, 280, 272
-0.992235, 209, 61, 272, 92
-0.992251, 209, 177, 240, 240
-0.992253, 181, 369, 212, 496
-0.99226, 45, 61, 76, 92
-0.992262, 201, 125, 264, 156
-0.99228, 73, 73, 104, 104
-0.992282, 121, 217, 184, 280
-0.992286, 153, 265, 184, 296
-0.992294, 225, 453, 288, 484
-0.992301, 1, 117, 64, 148
-0.992305, 241, 177, 304, 208
-0.992322, 165, 101, 196, 132
-0.992327, 185, 13, 248, 44
-0.992328, 185, 333, 248, 364
-0.992329, 241, 237, 304, 268
-0.99233, 265, 81, 296, 144
-0.992333, 157, 89, 188, 120
-0.992334, 193, 233, 320, 296
-0.992341, 97, 105, 128, 168
-0.992342, 153, 289, 216, 320
-0.992343, 257, 9, 320, 40
-0.992344, 225, 253, 288, 284
-0.992355, 65, 81, 320, 144
-0.99236, 85, 65, 116, 96
-0.992372, 169, 425, 232, 456
-0.992374, 33, 121, 96, 152
-0.99239, 225, 37, 288, 68
-0.992401, 265, 73, 328, 104
-0.992402, 213, 225, 244, 256
-0.992404, 217, 401, 280, 432
-0.992425, 189, 225, 220, 256
-0.992425, 233, 289, 296, 416
-0.992429, 225, 437, 288, 468
-0.992438, 273, 357, 333, 388
-0.992449, 121, 85, 184, 116
-0.99246, 137, 305, 200, 432
-0.992464, 25, 73, 56, 104
-0.992468, 249, 145, 280, 176
-0.992472, 53, 97, 84, 224
-0.992475, 237, 369, 268, 496
-0.992495, 169, 237, 200, 268
-0.992499, 257, 125, 288, 156
-0.992503, 65, 73, 192, 104
-0.992513, 9, 141, 72, 172
-0.992525, 257, 161, 320, 192
-0.992534, 225, 221, 256, 252
-0.992537, 193, 213, 224, 244
-0.992545, 177, 293, 240, 324
-0.992552, 177, 213, 208, 244
-0.992555, 137, 125, 200, 156
-0.992557, 61, 81, 92, 144
-0.992559, 185, 45, 248, 76
-0.99256, 153, 413, 216, 444
-0.992562, 161, 249, 192, 280
-0.992565, 85, 77, 116, 108
-0.99257, 85, 49, 116, 80
-0.992587, 265, 205, 296, 236
-0.99259, 185, 105, 216, 136
-0.99259, 121, 169, 152, 232
-0.992591, 73, 101, 104, 132
-0.992592, 33, 45, 96, 76
-0.992593, 41, 13, 104, 44
-0.9926, 129, 213, 192, 244
-0.992608, 9, 77, 40, 108
-0.992614, 173, 257, 204, 288
-0.992622, 249, 85, 312, 116
-0.992628, 257, 369, 288, 496
-0.992635, 69, 85, 100, 116
-0.992639, 149, 245, 180, 276
-0.992643, 29, 113, 60, 176
-0.992646, 17, 145, 144, 272
-0.992651, 49, 73, 80, 104
-0.992667, 157, 113, 188, 144
-0.992683, 181, 113, 212, 176
-0.992685, 169, 21, 200, 52
-0.992708, 69, 61, 100, 92
-0.992708, 225, 209, 256, 240
-0.992725, 157, 17, 188, 48
-0.992739, 201, 225, 232, 256
-0.992743, 245, 209, 276, 240
-0.99276, 169, 225, 200, 256
-0.992761, 153, 73, 184, 104
-0.992763, 165, 77, 196, 108
-0.992766, 85, 101, 116, 132
-0.992767, 301, 137, 332, 168
-0.992779, 165, 273, 196, 304
-0.992788, 241, 129, 272, 160
-0.992788, 85, 89, 116, 120
-0.992805, 157, 5, 188, 36
-0.992806, 301, 53, 332, 84
-0.992845, 13, 1, 44, 128
-0.992847, 145, 93, 176, 124
-0.992849, 209, 1, 240, 32
-0.992863, 193, 369, 224, 432
-0.992871, 165, 33, 196, 64
-0.992873, 265, 137, 296, 168
-0.992874, 169, 1, 200, 32
-0.992874, 177, 413, 208, 444
-0.99288, 233, 233, 264, 296
-0.992887, 185, 85, 216, 116
-0.992898, 157, 61, 188, 92
-0.9929, 101, 53, 132, 84
-0.992905, 181, 321, 212, 448
-0.992905, 169, 201, 200, 232
-0.992907, 193, 369, 224, 496
-0.99292, 57, 61, 88, 92
-0.99293, 197, 197, 228, 228
-0.992937, 221, 237, 252, 268
-0.992939, 153, 281, 184, 312
-0.992944, 245, 233, 276, 264
-0.992947, 229, 145, 260, 176
-0.992948, 69, 49, 100, 80
-0.99296, 173, 89, 204, 120
-0.992961, 141, 81, 172, 112
-0.992968, 265, 193, 296, 224
-0.992977, 229, 129, 260, 160
-0.992982, 137, 277, 168, 308
-0.992985, 157, 233, 188, 264
-0.992994, 245, 197, 276, 228
-0.992994, 205, 237, 236, 268
-0.993007, 165, 213, 196, 244
-0.993011, 245, 221, 276, 252
-0.993011, 65, 85, 192, 116
-0.993012, 183, 193, 198, 256
-0.993013, 169, 117, 200, 148
-0.993028, 97, 65, 128, 96
-0.993029, 97, 81, 128, 112
-0.993032, 217, 201, 232, 264
-0.993033, 249, 249, 280, 280
-0.993035, 257, 217, 288, 280
-0.993049, 189, 73, 220, 104
-0.993052, 133, 145, 164, 208
-0.993055, 237, 257, 268, 288
-0.993056, 209, 73, 240, 104
-0.99306, 209, 13, 240, 44
-0.99306, 81, 385, 208, 448
-0.993065, 1, 53, 32, 84
-0.993067, 269, 125, 300, 156
-0.993078, 149, 37, 180, 68
-0.993079, 181, 37, 212, 68
-0.993083, 253, 185, 284, 216
-0.993098, 181, 53, 212, 84
-0.993098, 221, 273, 252, 304
-0.993099, 237, 165, 268, 196
-0.993108, 145, 105, 176, 136
-0.993113, 37, 73, 68, 104
-0.993115, 145, 25, 176, 56
-0.993116, 29, 153, 60, 216
-0.993122, 73, 113, 104, 144
-0.993125, 97, 109, 128, 140
-0.993136, 189, 237, 220, 268
-0.993138, 65, 105, 192, 136
-0.993139, 145, 57, 176, 88
-0.99314, 73, 25, 104, 88
-0.993141, 209, 117, 240, 148
-0.993148, 33, 129, 64, 160
-0.993152, 61, 73, 92, 104
-0.993152, 237, 69, 268, 100
-0.993152, 181, 117, 212, 148
-0.993155, 85, 117, 116, 148
-0.993159, 41, 49, 72, 80
-0.993159, 141, 261, 172, 292
-0.993159, 201, 93, 232, 124
-0.99316, 265, 217, 296, 248
-0.993162, 137, 69, 168, 100
-0.993163, 285, 129, 316, 160
-0.993168, 145, 5, 176, 36
-0.993168, 221, 69, 252, 100
-0.99317, 17, 57, 32, 120
-0.993171, 237, 81, 268, 112
-0.993173, 281, 41, 312, 72
-0.993175, 85, 13, 116, 44
-0.993176, 193, 429, 224, 460
-0.993178, 257, 157, 288, 188
-0.993181, 201, 33, 232, 64
-0.993188, 213, 197, 244, 228
-0.99319, 301, 125, 332, 156
-0.993196, 89, 33, 120, 64
-0.993197, 17, 137, 48, 168
-0.993207, 237, 393, 268, 424
-0.99321, 181, 21, 212, 52
-0.993212, 177, 73, 208, 104
-0.993215, 57, 85, 88, 116
-0.993217, 197, 13, 228, 44
-0.993224, 301, 41, 332, 72
-0.993225, 201, 61, 232, 92
-0.993245, 165, 49, 196, 80
-0.993271, 29, 33, 60, 96
-0.993323, 201, 393, 232, 456
-0.993351, 145, 233, 272, 264
-0.99338, 213, 409, 244, 472
-0.993403, 1, 17, 333, 80
-0.993418, 273, 41, 304, 104
-0.99342, 209, 265, 333, 328
-0.993442, 25, 1, 56, 128
-0.993504, 221, 361, 252, 424
-0.993536, 65, 113, 320, 176
-0.993575, 1, 73, 128, 104
-0.993578, 269, 185, 300, 248
-0.993591, 201, 289, 232, 352
-0.9936, 125, 1, 156, 128
-0.993653, 209, 433, 240, 496
-0.993667, 129, 377, 256, 440
-0.993669, 153, 297, 216, 360
-0.993698, 273, 121, 304, 184
-0.993714, 273, 81, 333, 144
-0.99372, 65, 433, 192, 496
-0.993762, 193, 201, 208, 264
-0.993765, 105, 401, 168, 464
-0.993777, 121, 25, 152, 88
-0.993783, 277, 97, 308, 160
-0.993804, 49, 61, 176, 92
-0.993822, 161, 129, 192, 192
-0.993822, 1, 65, 333, 128
-0.993837, 93, 73, 108, 136
-0.993899, 249, 433, 280, 496
-0.993901, 211, 201, 226, 264
-0.993933, 93, 49, 108, 112
-0.993989, 121, 145, 152, 272
-0.994028, 87, 49, 102, 112
-0.994034, 33, 225, 288, 288
-0.994037, 33, 129, 96, 192
-0.994037, 49, 137, 176, 200
-0.994074, 161, 213, 288, 244
-0.994087, 35, 57, 50, 120
-0.994105, 129, 385, 192, 448
-0.994158, 17, 85, 144, 116
-0.994158, 261, 145, 276, 208
-0.994326, 183, 233, 198, 296
-0.994328, 81, 5, 208, 36
-0.994366, 121, 113, 184, 240
-0.994371, 135, 161, 150, 224
-0.994392, 137, 153, 200, 216
-0.994396, 81, 17, 208, 48
-0.994406, 193, 225, 208, 288
-0.99441, 49, 273, 176, 336
-0.99443, 267, 121, 282, 184
-0.994436, 33, 113, 64, 240
-0.994444, 205, 201, 220, 264
-0.994474, 261, 65, 292, 192
-0.994496, 177, 81, 192, 144
-0.994575, 169, 9, 184, 72
-0.994594, 225, 225, 256, 352
-0.994596, 145, 93, 272, 124
-0.994597, 97, 153, 160, 216
-0.9946, 185, 41, 200, 104
-0.994763, 157, 73, 172, 136
-0.994784, 221, 337, 252, 464
-0.994794, 209, 45, 333, 76
-0.994803, 199, 57, 214, 120
-0.994822, 9, 73, 24, 136
-0.994833, 5, 97, 36, 224
-0.99488, 273, 337, 333, 400
-0.994897, 33, 161, 96, 224
-0.994907, 47, 57, 62, 120
-0.994914, 161, 257, 176, 320
-0.994934, 163, 33, 178, 96
-0.99495, 193, 305, 224, 432
-0.994988, 129, 353, 192, 480
-0.995001, 255, 153, 270, 216
-0.995049, 191, 65, 206, 128
-0.995059, 169, 377, 232, 440
-0.995062, 167, 89, 182, 152
-0.995132, 49, 241, 176, 304
-0.995147, 129, 9, 256, 40
-0.995156, 81, 33, 208, 64
-0.995161, 145, 177, 176, 304
-0.995166, 49, 49, 176, 80
-0.995173, 1, 217, 333, 280
-0.995174, 97, 61, 224, 92
-0.995195, 177, 209, 192, 272
-0.995203, 173, 249, 188, 312
-0.995208, 17, 433, 144, 496
-0.995211, 257, 225, 272, 288
-0.995254, 155, 49, 170, 112
-0.995254, 165, 65, 180, 128
-0.995254, 81, 305, 208, 368
-0.99527, 99, 65, 114, 128
-0.995284, 59, 57, 74, 120
-0.995309, 167, 233, 182, 296
-0.995316, 135, 137, 150, 200
-0.995317, 209, 33, 333, 64
-0.995319, 129, 21, 256, 52
-0.995326, 83, 81, 98, 144
-0.995334, 33, 201, 288, 264
-0.99535, 195, 33, 210, 96
-0.995352, 209, 5, 333, 36
-0.995366, 129, 105, 256, 136
-0.995371, 129, 73, 256, 104
-0.995404, 125, 193, 156, 320
-0.995422, 97, 273, 160, 336
-0.99546, 203, 81, 218, 144
-0.995463, 281, 97, 312, 224
-0.995466, 133, 145, 164, 272
-0.99549, 177, 305, 304, 368
-0.995506, 213, 233, 228, 296
-0.995512, 209, 217, 333, 248
-0.995518, 255, 121, 270, 184
-0.995524, 65, 129, 96, 256
-0.995545, 227, 209, 242, 272
-0.995555, 189, 17, 204, 80
-0.995587, 267, 185, 282, 248
-0.995611, 27, 73, 42, 136
-0.995665, 219, 233, 234, 296
-0.99569, 151, 241, 166, 304
-0.995691, 199, 209, 214, 272
-0.995694, 1, 105, 128, 136
-0.995697, 157, 233, 172, 296
-0.995734, 153, 177, 216, 240
-0.995737, 81, 369, 144, 496
-0.995738, 1, 49, 128, 80
-0.995762, 173, 105, 188, 168
-0.995786, 137, 273, 168, 400
-0.9958, 209, 81, 224, 144
-0.995808, 209, 17, 333, 48
-0.995827, 205, 49, 220, 112
-0.99583, 65, 273, 320, 336
-0.995831, 317, 49, 332, 112
-0.995834, 209, 133, 333, 164
-0.99584, 105, 377, 168, 440
-0.995841, 249, 145, 264, 208
-0.995875, 161, 33, 192, 288
-0.995893, 131, 185, 146, 248
-0.995906, 241, 209, 256, 272
-0.995913, 249, 41, 264, 104
-0.995919, 149, 81, 164, 144
-0.995973, 177, 201, 304, 232
-0.995973, 1, 193, 333, 256
-0.995974, 303, 121, 318, 184
-0.995981, 33, 249, 288, 312
-0.996007, 81, 117, 208, 148
-0.996012, 157, 105, 172, 168
-0.99602, 209, 117, 333, 148
-0.996045, 145, 269, 272, 300
-0.996051, 183, 89, 198, 152
-0.99606, 303, 49, 318, 112
-0.996069, 161, 1, 176, 64
-0.996072, 261, 177, 276, 240
-0.996077, 311, 49, 326, 112
-0.996085, 273, 49, 304, 176
-0.996087, 81, 41, 96, 104
-0.99609, 261, 121, 276, 184
-0.996095, 171, 209, 186, 272
-0.996101, 129, 37, 256, 68
-0.996114, 249, 185, 264, 248
-0.996124, 175, 1, 190, 64
-0.996125, 317, 129, 332, 192
-0.99613, 209, 145, 333, 176
-0.996134, 125, 257, 156, 384
-0.996156, 33, 25, 160, 56
-0.996166, 97, 25, 112, 88
-0.996171, 169, 33, 184, 96
-0.996189, 225, 49, 240, 112
-0.996193, 145, 257, 272, 288
-0.996213, 33, 13, 160, 44
-0.996215, 41, 73, 56, 136
-0.99622, 251, 225, 266, 288
-0.996232, 107, 49, 122, 112
-0.99625, 3, 73, 18, 136
-0.996256, 309, 129, 324, 192
-0.996276, 113, 209, 240, 240
-0.996276, 65, 433, 320, 496
-0.996335, 217, 49, 232, 112
-0.996351, 179, 33, 194, 96
-0.996353, 17, 117, 144, 148
-0.99637, 157, 25, 172, 88
-0.996374, 181, 257, 196, 320
-0.996393, 57, 129, 120, 192
-0.996431, 65, 153, 320, 216
-0.996442, 3, 49, 18, 112
-0.996444, 245, 65, 260, 128
-0.99645, 25, 41, 40, 104
-0.996451, 155, 273, 170, 336
-0.996457, 233, 57, 248, 120
-0.996457, 145, 245, 272, 276
-0.996463, 177, 57, 192, 120
-0.996476, 243, 145, 258, 208
-0.996485, 169, 305, 200, 432
-0.996487, 53, 57, 68, 120
-0.996494, 167, 257, 182, 320
-0.996504, 169, 321, 232, 384
-0.996505, 297, 33, 328, 288
-0.996516, 89, 257, 152, 384
-0.996517, 179, 113, 194, 176
-0.996518, 97, 233, 224, 264
-0.996522, 247, 121, 262, 184
-0.996523, 169, 193, 200, 448
-0.996528, 205, 225, 220, 288
-0.996539, 113, 153, 240, 216
-0.99654, 189, 89, 204, 152
-0.996541, 195, 409, 210, 472
-0.996542, 99, 89, 114, 152
-0.996544, 1, 137, 333, 200
-0.996545, 181, 1, 212, 256
-0.996545, 219, 177, 234, 240
-0.996547, 273, 105, 288, 168
-0.996551, 185, 393, 200, 456
-0.996569, 233, 321, 296, 384
-0.996573, 201, 25, 216, 88
-0.99658, 91, 25, 106, 88
-0.99659, 161, 49, 288, 80
-0.996593, 97, 49, 224, 80
-0.996609, 257, 201, 272, 264
-0.996611, 65, 145, 192, 272
-0.996617, 237, 185, 252, 248
-0.996619, 241, 1, 272, 128
-0.996619, 269, 81, 284, 144
-0.996643, 17, 185, 144, 248
-0.996648, 129, 145, 144, 208
-0.996663, 161, 413, 288, 444
-0.996696, 137, 321, 200, 384
-0.996699, 227, 129, 242, 192
-0.996704, 195, 9, 210, 72
-0.996709, 113, 221, 240, 252
-0.99671, 145, 61, 272, 92
-0.996726, 89, 97, 104, 160
-0.996726, 77, 73, 92, 136
-0.996728, 29, 161, 44, 224
-0.996751, 237, 129, 252, 192
-0.996759, 161, 129, 288, 160
-0.996764, 279, 121, 294, 184
-0.996766, 85, 1, 116, 256
-0.996767, 277, 193, 292, 256
-0.996785, 33, 177, 288, 240
-0.99679, 183, 201, 198, 232
-0.996792, 17, 61, 32, 92
-0.996799, 243, 41, 258, 104
-0.9968, 141, 169, 156, 232
-0.9968, 219, 209, 234, 240
-0.996803, 105, 369, 136, 496
-0.996814, 149, 97, 180, 352
-0.996814, 55, 25, 70, 88
-0.99683, 297, 41, 312, 104
-0.996835, 177, 81, 304, 112
-0.996843, 195, 89, 210, 152
-0.996844, 307, 25, 322, 88
-0.996846, 177, 185, 192, 248
-0.996849, 267, 145, 282, 208
-0.996851, 41, 33, 56, 96
-0.996862, 217, 73, 232, 136
-0.99687, 35, 65, 50, 96
-0.996874, 227, 185, 242, 248
-0.996897, 173, 25, 188, 56
-0.996905, 263, 89, 278, 152
-0.996917, 271, 125, 286, 156
-0.996918, 29, 33, 60, 288
-0.996921, 243, 185, 258, 248
-0.996921, 177, 189, 304, 220
-0.996933, 71, 81, 86, 144
-0.99694, 225, 9, 240, 72
-0.996943, 159, 265, 174, 296
-0.996945, 49, 65, 64, 96
-0.996953, 17, 33, 48, 288
-0.996974, 97, 257, 224, 288
-0.996985, 113, 281, 240, 312
-0.996991, 193, 433, 320, 464
-0.996993, 173, 97, 204, 352
-0.997018, 9, 161, 72, 224
-0.99703, 33, 369, 160, 496
-0.997034, 145, 117, 272, 148
-0.997063, 49, 33, 80, 288
-0.997065, 93, 53, 108, 84
-0.997071, 33, 1, 160, 32
-0.997079, 209, 57, 333, 88
-0.997088, 61, 61, 76, 92
-0.997091, 97, 269, 224, 300
-0.997102, 113, 421, 240, 452
-0.997148, 1, 33, 32, 288
-0.997149, 193, 365, 320, 396
-0.997182, 195, 209, 210, 240
-0.997219, 97, 245, 224, 276
-0.997233, 217, 273, 248, 400
-0.997238, 217, 1, 248, 256
-0.997248, 1, 37, 128, 68
-0.997283, 113, 293, 240, 324
-0.997285, 93, 73, 108, 104
-0.997288, 241, 33, 272, 288
-0.997296, 1, 161, 333, 224
-0.997304, 73, 1, 104, 256
-0.997321, 177, 173, 304, 204
-0.997326, 153, 225, 184, 480
-0.997332, 225, 97, 256, 352
-0.997345, 159, 93, 174, 124
-0.99737, 165, 265, 180, 296
-0.997426, 1, 89, 333, 152
-0.997441, 49, 217, 176, 280
-0.997442, 313, 57, 328, 88
-0.99746, 41, 185, 104, 248
-0.997463, 149, 1, 180, 256
-0.997465, 161, 277, 176, 308
-0.997466, 9, 77, 24, 108
-0.997473, 155, 81, 170, 112
-0.99748, 161, 401, 288, 432
-0.997486, 193, 229, 208, 260
-0.99749, 171, 269, 186, 300
-0.997492, 193, 229, 320, 260
-0.997497, 145, 437, 272, 468
-0.997507, 27, 77, 42, 108
-0.997518, 85, 85, 100, 116
-0.997525, 169, 105, 184, 136
-0.997535, 1, 137, 128, 168
-0.997535, 65, 465, 192, 496
-0.997547, 213, 193, 244, 448
-0.997548, 175, 221, 190, 252
-0.997548, 213, 225, 228, 256
-0.997562, 99, 65, 114, 96
-0.997563, 171, 5, 186, 36
-0.99757, 101, 85, 116, 116
-0.997586, 93, 105, 108, 136
-0.997595, 99, 105, 114, 136
-0.997604, 169, 245, 184, 276
-0.997609, 97, 1, 128, 256
-0.997621, 73, 169, 136, 232
-0.997628, 179, 93, 194, 124
-0.99763, 253, 213, 268, 244
-0.997637, 201, 221, 216, 252
-0.997643, 3, 77, 18, 108
-0.997645, 261, 1, 292, 128
-0.997648, 181, 37, 196, 68
-0.997657, 227, 221, 242, 252
-0.997666, 185, 97, 216, 352
-0.997669, 257, 145, 272, 176
-0.997672, 273, 201, 288, 232
-0.997674, 135, 169, 150, 200
-0.997677, 93, 85, 108, 116
-0.997683, 85, 61, 100, 92
-0.997688, 251, 137, 266, 168
-0.9977, 209, 205, 224, 236
-0.997709, 113, 129, 240, 160
-0.99771, 257, 249, 320, 312
-0.997713, 273, 321, 333, 448
-0.997717, 313, 129, 328, 160
-0.997719, 209, 385, 333, 416
-0.997727, 185, 213, 200, 244
-0.997735, 301, 133, 316, 164
-0.997736, 41, 73, 56, 104
-0.997744, 197, 1, 228, 256
-0.99776, 243, 145, 258, 176
-0.997766, 199, 65, 214, 96
-0.997781, 183, 237, 198, 268
-0.997782, 181, 257, 196, 288
-0.997789, 169, 117, 184, 148
-0.997793, 267, 185, 282, 216
-0.997799, 181, 225, 212, 480
-0.9978, 307, 137, 322, 168
-0.997812, 259, 253, 274, 284
-0.997814, 27, 61, 42, 92
-0.997822, 189, 201, 204, 232
-0.99783, 189, 85, 204, 116
-0.997837, 19, 73, 34, 104
-0.997842, 303, 57, 318, 88
-0.997842, 175, 253, 190, 284
-0.997847, 261, 197, 276, 228
-0.997852, 153, 269, 168, 300
-0.997856, 97, 193, 224, 224
-0.997857, 241, 213, 256, 244
-0.997858, 265, 125, 280, 156
-0.997859, 221, 233, 236, 264
-0.997862, 135, 145, 150, 176
-0.997864, 207, 229, 222, 260
-0.997865, 199, 77, 214, 108
-0.997868, 169, 345, 232, 408
-0.99787, 87, 73, 102, 104
-0.997873, 161, 149, 288, 180
-0.997874, 175, 205, 190, 236
-0.997879, 245, 129, 260, 160
-0.997887, 169, 229, 184, 260
-0.997891, 193, 273, 320, 304
-0.997897, 189, 97, 204, 128
-0.997911, 247, 213, 262, 244
-0.99792, 133, 193, 148, 224
-0.997926, 189, 45, 204, 76
-0.997937, 167, 89, 182, 120
-0.997944, 259, 209, 274, 240
-0.997945, 199, 41, 214, 72
-0.997949, 43, 61, 58, 92
-0.997949, 177, 121, 192, 152
-0.997953, 191, 69, 206, 100
-0.99796, 137, 1, 168, 256
-0.997962, 33, 385, 160, 448
-0.997965, 243, 225, 258, 256
-0.997977, 177, 353, 304, 384
-0.997981, 55, 69, 70, 100
-0.997982, 175, 233, 190, 264
-0.997983, 229, 1, 260, 256
-0.998008, 263, 145, 278, 176
-0.998013, 135, 181, 150, 212
-0.998014, 157, 241, 172, 272
-0.998016, 163, 245, 178, 276
-0.998024, 279, 201, 294, 232
-0.998025, 209, 297, 272, 360
-0.998027, 251, 225, 266, 256
-0.998028, 285, 1, 316, 256
-0.99803, 85, 49, 100, 80
-0.998033, 229, 209, 244, 240
-0.998048, 73, 93, 88, 124
-0.99805, 163, 17, 178, 48
-0.998058, 267, 197, 282, 228
-0.998067, 71, 73, 86, 104
-0.998072, 191, 33, 206, 64
-0.998073, 149, 89, 164, 120
-0.99808, 203, 209, 218, 240
-0.998082, 317, 141, 332, 172
-0.998085, 209, 449, 333, 480
-0.998093, 193, 69, 320, 100
-0.998098, 161, 81, 176, 112
-0.998105, 77, 73, 92, 104
-0.998105, 81, 409, 208, 440
-0.998108, 79, 105, 94, 136
-0.998109, 257, 225, 272, 256
-0.99811, 55, 57, 70, 88
-0.998111, 121, 369, 152, 496
-0.998116, 113, 97, 144, 224
-0.998122, 257, 157, 272, 188
-0.998125, 277, 125, 292, 156
-0.998127, 167, 217, 182, 248
-0.998128, 9, 65, 24, 96
-0.998129, 163, 41, 178, 72
-0.998136, 175, 105, 190, 136
-0.998136, 65, 409, 128, 472
-0.998137, 219, 221, 234, 252
-0.998143, 177, 105, 304, 136
-0.998148, 307, 45, 322, 76
-0.99815, 253, 237, 268, 268
-0.998155, 177, 341, 304, 372
-0.99816, 163, 233, 178, 264
-0.99816, 205, 89, 220, 120
-0.998161, 3, 65, 18, 96
-0.998161, 61, 1, 92, 256
-0.998161, 33, 77, 48, 108
-0.998162, 149, 77, 164, 108
-0.998163, 65, 409, 320, 472
-0.998166, 129, 333, 256, 364
-0.998179, 99, 49, 114, 80
-0.998181, 199, 53, 214, 84
-0.998186, 181, 81, 196, 112
-0.998189, 97, 433, 224, 464
-0.998189, 297, 53, 312, 84
-0.998199, 93, 117, 108, 148
-0.9982, 175, 81, 190, 112
-0.998202, 105, 53, 120, 84
-0.998204, 1, 157, 128, 188
-0.998208, 87, 101, 102, 132
-0.998223, 161, 285, 288, 316
-0.998261, 129, 321, 256, 352
-0.998273, 137, 97, 168, 352
-0.998311, 1, 241, 333, 304
-0.998339, 253, 65, 284, 320
-0.998345, 201, 161, 232, 416
-0.998353, 129, 369, 256, 400
-0.998368, 1, 417, 333, 480
-0.998369, 177, 465, 304, 496
-0.998378, 161, 381, 288, 412
-0.998401, 177, 235, 240, 250
-0.998405, 65, 97, 96, 112
-0.998405, 93, 75, 124, 90
-0.998407, 277, 139, 308, 154
-0.998408, 209, 13, 240, 28
-0.998409, 185, 97, 216, 112
-0.998409, 221, 81, 252, 96
-0.99841, 249, 129, 280, 144
-0.998411, 77, 97, 108, 352
-0.998412, 157, 285, 188, 300
-0.998413, 169, 203, 200, 218
-0.998415, 85, 87, 116, 102
-0.998416, 145, 273, 176, 288
-0.998416, 181, 29, 212, 44
-0.998417, 53, 79, 84, 94
-0.998417, 213, 1, 244, 16
-0.998419, 141, 91, 172, 106
-0.99842, 33, 61, 64, 76
-0.998421, 237, 211, 268, 226
-0.998422, 245, 137, 276, 152
-0.998423, 209, 7, 240, 22
-0.998424, 197, 203, 228, 218
-0.998426, 253, 123, 284, 138
-0.998426, 193, 215, 224, 230
-0.998427, 237, 85, 268, 100
-0.998428, 165, 79, 196, 94
-0.998432, 113, 305, 240, 336
-0.998432, 193, 161, 320, 192
-0.998434, 77, 57, 108, 72
-0.998434, 73, 113, 104, 128
-0.998436, 253, 157, 284, 172
-0.998438, 149, 31, 180, 46
-0.998438, 169, 21, 200, 36
-0.998438, 169, 213, 200, 228
-0.998438, 185, 117, 216, 132
-0.998441, 89, 59, 120, 74
-0.998441, 165, 85, 196, 100
-0.998441, 189, 77, 220, 92
-0.998441, 169, 207, 232, 222
-0.998443, 157, 1, 188, 16
-0.998443, 177, 215, 240, 230
-0.998443, 209, 239, 240, 254
-0.998444, 93, 69, 124, 84
-0.998445, 301, 149, 332, 164
-0.998446, 17, 139, 48, 154
-0.998446, 149, 9, 180, 24
-0.998446, 149, 17, 180, 32
-0.998447, 165, 93, 196, 108
-0.998447, 169, 11, 200, 26
-0.998449, 153, 81, 184, 96
-0.99845, 189, 83, 220, 98
-0.99845, 245, 151, 276, 166
-0.998452, 161, 117, 224, 132
-0.998454, 165, 123, 196, 138
-0.998454, 97, 225, 160, 288
-0.998455, 65, 71, 128, 86
-0.998456, 245, 225, 276, 240
-0.998457, 217, 193, 232, 320
-0.998457, 69, 63, 100, 78
-0.998458, 213, 209, 244, 224
-0.998458, 169, 245, 200, 260
-0.99846, 93, 97, 124, 112
-0.998461, 209, 85, 240, 100
-0.998461, 65, 83, 96, 98
-0.998461, 225, 227, 256, 242
-0.998461, 177, 229, 240, 244
-0.998462, 297, 143, 328, 158
-0.998462, 237, 77, 268, 92
-0.998465, 153, 261, 216, 276
-0.998467, 257, 143, 288, 158
-0.998467, 169, 27, 200, 42
-0.998467, 49, 61, 80, 76
-0.998467, 169, 251, 200, 266
-0.998467, 249, 215, 280, 230
-0.998468, 69, 89, 100, 104
-0.998469, 149, 257, 180, 272
-0.99847, 145, 253, 208, 268
-0.99847, 209, 79, 240, 94
-0.998472, 41, 69, 104, 84
-0.998472, 269, 209, 300, 224
-0.998473, 165, 111, 196, 126
-0.998474, 77, 97, 108, 112
-0.998475, 57, 79, 120, 94
-0.998476, 157, 263, 188, 278
-0.998478, 21, 61, 52, 76
-0.998479, 149, 251, 180, 266
-0.99848, 57, 103, 120, 118
-0.99848, 241, 129, 304, 144
-0.99848, 161, 241, 224, 256
-0.998483, 217, 147, 280, 162
-0.998484, 157, 25, 188, 40
-0.998485, 193, 209, 256, 224
-0.998485, 169, 99, 200, 114
-0.998487, 29, 135, 60, 150
-0.998487, 193, 221, 224, 236
-0.998487, 57, 63, 120, 78
-0.998487, 85, 51, 116, 66
-0.998488, 25, 75, 88, 90
-0.998488, 221, 237, 252, 252
-0.998488, 261, 129, 292, 144
-0.998489, 69, 103, 100, 118
-0.998489, 181, 219, 212, 234
-0.99849, 209, 217, 272, 232
-0.998491, 185, 103, 216, 118
-0.998491, 145, 265, 176, 280
-0.998492, 297, 135, 328, 150
-0.998492, 185, 221, 248, 236
-0.998492, 261, 149, 292, 164
-0.998493, 189, 237, 220, 252
-0.998495, 1, 65, 64, 80
-0.998496, 81, 103, 112, 118
-0.998497, 209, 221, 240, 236
-0.998498, 169, 33, 200, 48
-0.9985, 169, 9, 232, 24
-0.9985, 57, 89, 120, 104
-0.998501, 1, 75, 32, 90
-0.998502, 145, 89, 208, 104
-0.998502, 257, 257, 320, 500
-0.998503, 169, 3, 232, 18
-0.998504, 261, 201, 292, 216
-0.998505, 209, 231, 272, 246
-0.998506, 153, 109, 216, 124
-0.998508, 169, 277, 200, 292
-0.998509, 145, 279, 176, 294
-0.99851, 153, 103, 216, 118
-0.998511, 209, 337, 240, 464
-0.998514, 153, 103, 184, 118
-0.998514, 205, 227, 236, 242
-0.998515, 153, 245, 184, 260
-0.998517, 225, 221, 256, 236
-0.998518, 301, 57, 332, 72
-0.99852, 97, 55, 160, 70
-0.998521, 129, 13, 192, 28
-0.998521, 225, 85, 288, 100
-0.998521, 153, 89, 184, 104
-0.998524, 97, 63, 160, 78
-0.998528, 173, 225, 204, 240
-0.998529, 49, 409, 176, 472
-0.99853, 257, 137, 320, 152
-0.998531, 57, 109, 120, 124
-0.998532, 157, 269, 188, 284
-0.998532, 225, 211, 256, 226
-0.998532, 69, 71, 100, 86
-0.998534, 217, 155, 280, 170
-0.998535, 241, 147, 304, 162
-0.998537, 209, 79, 272, 94
-0.998538, 145, 247, 208, 262
-0.998539, 161, 123, 224, 138
-0.998539, 169, 231, 200, 246
-0.99854, 145, 97, 208, 112
-0.99854, 45, 73, 76, 88
-0.998542, 225, 123, 288, 138
-0.998542, 217, 211, 280, 226
-0.998543, 273, 143, 333, 158
-0.998543, 93, 33, 108, 160
-0.998543, 97, 69, 160, 84
-0.998545, 217, 141, 280, 156
-0.998547, 201, 209, 232, 224
-0.998547, 161, 257, 192, 272
-0.998547, 1, 77, 64, 92
-0.998547, 165, 117, 196, 132
-0.998547, 145, 3, 208, 18
-0.998547, 69, 77, 100, 92
-0.998548, 85, 81, 116, 96
-0.998549, 245, 145, 276, 160
-0.99855, 65, 453, 192, 484
-0.998553, 57, 97, 120, 112
-0.998553, 185, 111, 216, 126
-0.998555, 209, 225, 272, 240
-0.998555, 241, 77, 304, 92
-0.998557, 25, 81, 88, 96
-0.998558, 57, 57, 120, 72
-0.99856, 57, 51, 120, 66
-0.998561, 1, 71, 64, 86
-0.998561, 137, 117, 200, 132
-0.998562, 181, 211, 212, 226
-0.998564, 153, 235, 216, 250
-0.998564, 185, 243, 248, 258
-0.998565, 137, 71, 200, 86
-0.998565, 217, 161, 280, 176
-0.998565, 157, 275, 188, 290
-0.998568, 265, 127, 328, 142
-0.998568, 153, 275, 216, 290
-0.998569, 65, 321, 320, 384
-0.99857, 169, 15, 232, 30
-0.998571, 121, 265, 184, 280
-0.998571, 81, 75, 112, 90
-0.998572, 5, 63, 36, 78
-0.998575, 217, 237, 280, 252
-0.998575, 129, 19, 192, 34
-0.998575, 185, 115, 248, 130
-0.998576, 137, 79, 200, 94
-0.998576, 205, 215, 236, 230
-0.998578, 169, 21, 232, 36
-0.998578, 209, 73, 272, 88
-0.998579, 129, 29, 192, 44
-0.99858, 137, 65, 200, 80
-0.99858, 171, 49, 186, 176
-0.998581, 25, 73, 56, 88
-0.998581, 153, 213, 216, 228
-0.998582, 25, 93, 88, 108
-0.998582, 209, 285, 333, 316
-0.998583, 165, 105, 196, 120
-0.998583, 177, 201, 240, 216
-0.998584, 121, 273, 184, 288
-0.998585, 177, 83, 240, 98
-0.998586, 217, 167, 280, 182
-0.998588, 153, 95, 184, 110
-0.998589, 97, 75, 160, 90
-0.99859, 45, 67, 76, 82
-0.99859, 233, 199, 296, 214
-0.99859, 189, 231, 220, 246
-0.998593, 177, 109, 240, 124
-0.998594, 209, 233, 240, 248
-0.998594, 257, 47, 320, 62
-0.998595, 33, 87, 96, 102
-0.998595, 185, 93, 248, 108
-0.998596, 105, 7, 168, 22
-0.998599, 9, 141, 72, 156
-0.9986, 153, 267, 216, 282
-0.998603, 65, 115, 128, 130
-0.998607, 97, 49, 160, 64
-0.998607, 105, 1, 168, 16
-0.998607, 169, 263, 200, 278
-0.998608, 169, 239, 200, 254
-0.99861, 137, 123, 200, 138
-0.99861, 209, 1, 272, 16
-0.998611, 105, 19, 168, 34
-0.998612, 105, 13, 168, 28
-0.998613, 249, 83, 312, 98
-0.998613, 217, 129, 280, 144
-0.998613, 137, 59, 200, 74
-0.998614, 273, 55, 333, 70
-0.998614, 161, 33, 224, 48
-0.998614, 249, 69, 312, 84
-0.998614, 137, 193, 168, 448
-0.998615, 201, 85, 264, 100
-0.998616, 217, 135, 280, 150
-0.998616, 81, 65, 112, 80
-0.998618, 265, 149, 328, 164
-0.998619, 209, 9, 272, 24
-0.99862, 105, 25, 168, 40
-0.998622, 217, 175, 280, 190
-0.998622, 137, 207, 200, 222
-0.998623, 13, 75, 44, 90
-0.998624, 225, 193, 288, 208
-0.998624, 169, 255, 232, 270
-0.998626, 249, 157, 312, 172
-0.998627, 161, 223, 224, 238
-0.998627, 177, 77, 240, 92
-0.998627, 273, 121, 333, 136
-0.998628, 65, 121, 128, 136
-0.998629, 249, 209, 312, 224
-0.99863, 161, 129, 224, 144
-0.99863, 65, 11, 128, 26
-0.99863, 81, 33, 144, 48
-0.998631, 153, 229, 216, 244
-0.998632, 169, 249, 232, 264
-0.998633, 257, 35, 320, 50
-0.998634, 153, 201, 216, 216
-0.998637, 97, 81, 160, 96
-0.998637, 153, 27, 216, 42
-0.998638, 89, 97, 152, 112
-0.998638, 33, 297, 288, 360
-0.998638, 185, 121, 248, 136
-0.998639, 137, 37, 200, 52
-0.998639, 25, 133, 88, 148
-0.998639, 177, 103, 240, 118
-0.998639, 121, 111, 184, 126
-0.99864, 65, 25, 128, 40
-0.99864, 217, 243, 280, 258
-0.998641, 125, 161, 156, 416
-0.99865, 181, 205, 212, 220
-0.998665, 49, 361, 176, 424
-0.998674, 129, 177, 256, 208
-0.998679, 87, 33, 102, 160
-0.998684, 5, 69, 36, 84
-0.998688, 273, 177, 304, 304
-0.998695, 33, 67, 64, 82
-0.998699, 177, 49, 192, 176
-0.998711, 9, 129, 72, 384
-0.99872, 193, 93, 320, 124
-0.998721, 169, 209, 184, 336
-0.998728, 161, 449, 288, 480
-0.99873, 97, 161, 160, 416
-0.998733, 241, 321, 272, 448
-0.998746, 65, 97, 96, 352
-0.998747, 311, 49, 326, 176
-0.998749, 201, 257, 232, 500
-0.998751, 21, 67, 52, 82
-0.998777, 201, 33, 216, 160
-0.998777, 193, 249, 320, 280
-0.998778, 209, 413, 333, 444
-0.998781, 171, 1, 186, 128
-0.998784, 49, 337, 176, 400
-0.998793, 185, 193, 200, 320
-0.998799, 237, 225, 268, 352
-0.9988, 65, 205, 192, 236
-0.998802, 211, 193, 226, 320
-0.99881, 117, 1, 148, 256
-0.998822, 175, 209, 190, 336
-0.99888, 61, 49, 76, 176
-0.998881, 49, 145, 176, 176
-0.998881, 161, 297, 288, 328
-0.998884, 17, 49, 32, 176
-0.998888, 101, 65, 116, 192
-0.998897, 241, 129, 272, 384
-0.998897, 129, 345, 256, 376
-0.9989, 81, 397, 208, 428
-0.998903, 165, 81, 180, 208
-0.998917, 9, 65, 24, 192
-0.998918, 33, 49, 48, 176
-0.998919, 189, 17, 204, 144
-0.998921, 223, 161, 238, 288
-0.998932, 129, 357, 256, 388
-0.998936, 47, 49, 62, 176
-0.998938, 125, 65, 156, 192
-0.998946, 195, 193, 210, 320
-0.998952, 213, 97, 244, 352
-0.998961, 163, 33, 178, 160
-0.998972, 23, 65, 38, 192
-0.99898, 161, 309, 288, 340
-0.998983, 65, 285, 192, 316
-0.998991, 305, 49, 320, 176
-0.998997, 17, 189, 144, 220
-0.999005, 113, 141, 240, 172
-0.999023, 75, 49, 90, 176
-0.999036, 317, 49, 332, 176
-0.999037, 183, 33, 198, 160
-0.999043, 157, 33, 172, 160
-0.999044, 65, 221, 192, 252
-0.999049, 133, 129, 148, 256
-0.999051, 217, 145, 232, 272
-0.999071, 87, 81, 102, 208
-0.999075, 289, 145, 320, 272
-0.999077, 49, 133, 176, 164
-0.999077, 239, 81, 254, 208
-0.999078, 99, 1, 114, 128
-0.999081, 223, 209, 238, 336
-0.999085, 107, 33, 122, 160
-0.999089, 159, 241, 174, 368
-0.999096, 233, 65, 248, 192
-0.999101, 173, 113, 188, 240
-0.999104, 95, 81, 110, 208
-0.999109, 261, 161, 276, 288
-0.999117, 207, 1, 222, 128
-0.999129, 49, 161, 112, 288
-0.999133, 17, 177, 144, 208
-0.999138, 209, 401, 333, 432
-0.99914, 81, 49, 96, 176
-0.99914, 3, 65, 18, 192
-0.999142, 225, 225, 256, 480
-0.999143, 251, 161, 266, 288
-0.999154, 205, 193, 220, 320
-0.999155, 153, 225, 168, 352
-0.999155, 17, 465, 144, 496
-0.999159, 39, 65, 54, 192
-0.999172, 269, 177, 284, 304
-0.999177, 113, 449, 240, 480
-0.999178, 195, 65, 210, 192
-0.99918, 229, 161, 244, 288
-0.999182, 299, 49, 314, 176
-0.999193, 17, 453, 144, 484
-0.999193, 269, 129, 284, 256
-0.999201, 165, 257, 180, 384
-0.999206, 177, 325, 304, 356
-0.999213, 183, 81, 198, 208
-0.999217, 53, 65, 68, 192
-0.999219, 261, 193, 292, 448
-0.999221, 49, 261, 176, 292
-0.999223, 89, 97, 120, 352
-0.999223, 215, 241, 230, 368
-0.999224, 195, 17, 210, 144
-0.999238, 279, 129, 294, 256
-0.999249, 163, 193, 178, 320
-0.999251, 137, 177, 152, 304
-0.999255, 247, 81, 262, 208
-0.999257, 259, 209, 274, 336
-0.99928, 189, 65, 204, 192
-0.999288, 65, 345, 320, 408
-0.999292, 231, 113, 246, 240
-0.999302, 187, 241, 202, 368
-0.999313, 249, 225, 280, 480
-0.999313, 239, 129, 254, 256
-0.999318, 35, 113, 50, 240
-0.999319, 3, 17, 18, 144
-0.999328, 55, 1, 70, 128
-0.999328, 225, 81, 240, 208
-0.99933, 147, 241, 162, 368
-0.999331, 225, 1, 240, 128
-0.99934, 79, 97, 94, 224
-0.999348, 63, 1, 78, 128
-0.999359, 259, 369, 274, 496
-0.999361, 159, 81, 174, 208
-0.999365, 305, 1, 320, 128
-0.999365, 269, 369, 300, 496
-0.99937, 73, 113, 88, 240
-0.999373, 299, 1, 314, 128
-0.999375, 311, 97, 326, 224
-0.999377, 81, 321, 208, 352
-0.999381, 241, 33, 256, 160
-0.999388, 173, 161, 188, 288
-0.999389, 151, 17, 166, 144
-0.999392, 113, 385, 240, 416
-0.999397, 245, 209, 260, 336
-0.999398, 69, 65, 84, 192
-0.999404, 49, 321, 176, 448
-0.999404, 231, 17, 246, 144
-0.999411, 177, 1, 192, 128
-0.999413, 253, 81, 268, 208
-0.999413, 189, 353, 204, 480
-0.999416, 129, 161, 256, 192
-0.999416, 211, 49, 226, 176
-0.999422, 131, 177, 146, 304
-0.999426, 9, 1, 24, 128
-0.999428, 49, 273, 176, 304
-0.999434, 165, 129, 180, 256
-0.999436, 209, 145, 224, 272
-0.999436, 181, 257, 196, 384
-0.999436, 139, 129, 154, 256
-0.999444, 201, 97, 216, 224
-0.999445, 265, 65, 296, 320
-0.999447, 171, 257, 186, 384
-0.999447, 245, 129, 260, 256
-0.999448, 79, 1, 94, 128
-0.999449, 129, 461, 256, 492
-0.999454, 209, 241, 224, 368
-0.999475, 143, 177, 158, 304
-0.999488, 49, 241, 176, 272
-0.999489, 215, 1, 230, 128
-0.99949, 29, 161, 60, 288
-0.999491, 145, 81, 160, 208
-0.999493, 273, 49, 288, 176
-0.999494, 1, 409, 128, 472
-0.999495, 203, 145, 218, 272
-0.999496, 25, 17, 40, 144
-0.999503, 191, 145, 206, 272
-0.999506, 315, 1, 330, 128
-0.999508, 33, 297, 160, 360
-0.999511, 185, 305, 200, 432
-0.999512, 259, 113, 274, 240
-0.999514, 197, 257, 212, 384
-0.999524, 29, 113, 44, 240
-0.999528, 151, 65, 166, 192
-0.99953, 301, 113, 316, 240
-0.999539, 43, 1, 58, 128
-0.999539, 233, 353, 248, 480
-0.999542, 25, 177, 88, 304
-0.999551, 249, 33, 264, 160
-0.999557, 239, 177, 254, 304
-0.99956, 19, 113, 34, 240
-0.999561, 219, 81, 234, 208
-0.999565, 251, 209, 266, 336
-0.999567, 113, 1, 128, 128
-0.99957, 203, 257, 218, 384
-0.99957, 251, 369, 266, 496
-0.999573, 63, 97, 78, 224
-0.999575, 241, 369, 256, 496
-0.999585, 33, 441, 160, 472
-0.999587, 183, 369, 198, 496
-0.999589, 179, 161, 194, 288
-0.999593, 193, 261, 320, 292
-0.999617, 241, 127, 256, 142
-0.999618, 93, 105, 108, 120
-0.999618, 87, 81, 102, 96
-0.999618, 71, 77, 86, 92
-0.999619, 61, 69, 76, 84
-0.999619, 151, 253, 166, 268
-0.999621, 135, 159, 150, 174
-0.999621, 169, 123, 184, 138
-0.999621, 9, 71, 24, 86
-0.999621, 187, 41, 202, 56
-0.999622, 19, 79, 34, 94
-0.999622, 135, 151, 150, 166
-0.999622, 71, 101, 86, 116
-0.999623, 181, 275, 196, 290
-0.999624, 33, 137, 48, 152
-0.999624, 273, 147, 288, 162
-0.999625, 173, 33, 188, 48
-0.999627, 83, 63, 98, 78
-0.999627, 195, 63, 210, 78
-0.999627, 183, 245, 198, 260
-0.999627, 317, 145, 332, 160
-0.999627, 227, 235, 242, 250
-0.999628, 171, 9, 186, 24
-0.999628, 245, 133, 260, 148
-0.999628, 257, 217, 272, 232
-0.999628, 161, 101, 176, 116
-0.99963, 229, 221, 244, 236
-0.999631, 157, 255, 172, 270
-0.999631, 219, 225, 234, 240
-0.999631, 169, 267, 184, 282
-0.999632, 263, 187, 278, 202
-0.999632, 169, 245, 184, 260
-0.999632, 99, 67, 114, 82
-0.999633, 95, 87, 110, 102
-0.999634, 135, 179, 150, 194
-0.999635, 3, 81, 18, 96
-0.999635, 205, 219, 220, 234
-0.999635, 195, 89, 210, 104
-0.999636, 137, 425, 200, 488
-0.999636, 179, 101, 194, 116
-0.999636, 41, 61, 56, 76
-0.999636, 277, 129, 292, 144
-0.999636, 1, 193, 128, 320
-0.999637, 189, 91, 204, 106
-0.999638, 209, 207, 224, 222
-0.999638, 91, 93, 106, 108
-0.99964, 157, 245, 172, 260
-0.99964, 175, 225, 190, 240
-0.99964, 3, 75, 18, 90
-0.999642, 27, 77, 42, 92
-0.999642, 251, 213, 266, 228
-0.999642, 277, 207, 292, 222
-0.999644, 169, 235, 184, 250
-0.999645, 189, 97, 204, 112
-0.999646, 201, 85, 216, 100
-0.999646, 173, 21, 188, 36
-0.999647, 253, 151, 268, 166
-0.999648, 165, 89, 180, 104
-0.999648, 187, 227, 202, 242
-0.999648, 175, 239, 190, 254
-0.999648, 177, 113, 192, 128
-0.999651, 33, 77, 48, 92
-0.999651, 85, 73, 100, 88
-0.999651, 155, 83, 170, 98
-0.999653, 161, 285, 176, 300
-0.999653, 257, 139, 272, 154
-0.999654, 219, 219, 234, 234
-0.999655, 313, 135, 328, 150
-0.999657, 303, 145, 318, 160
-0.999657, 93, 75, 108, 90
-0.999657, 181, 211, 196, 226
-0.999659, 263, 123, 278, 138
-0.999659, 157, 95, 172, 110
-0.999659, 309, 147, 324, 162
-0.99966, 271, 199, 286, 214
-0.99966, 213, 233, 228, 248
-0.999661, 247, 141, 262, 156
-0.999662, 263, 151, 278, 166
-0.999662, 161, 83, 176, 98
-0.999666, 195, 221, 210, 236
-0.999668, 101, 97, 116, 112
-0.999668, 91, 57, 106, 72
-0.999668, 195, 69, 210, 84
-0.99967, 101, 73, 116, 88
-0.99967, 173, 255, 188, 270
-0.999671, 9, 79, 24, 94
-0.999671, 175, 211, 190, 226
-0.999671, 165, 253, 180, 268
-0.999674, 33, 65, 48, 80
-0.999676, 227, 209, 242, 224
-0.999677, 193, 231, 208, 246
-0.999677, 229, 229, 244, 244
-0.999677, 199, 79, 214, 94
-0.999679, 183, 237, 198, 252
-0.99968, 179, 231, 194, 246
-0.99968, 257, 145, 272, 160
-0.999681, 99, 79, 114, 94
-0.999683, 189, 203, 204, 218
-0.999684, 163, 265, 178, 280
-0.999685, 205, 225, 220, 240
-0.999685, 237, 225, 268, 480
-0.999686, 65, 421, 192, 452
-0.999687, 209, 297, 333, 328
-0.999687, 171, 3, 186, 18
-0.999689, 27, 67, 42, 82
-0.999694, 167, 103, 182, 118
-0.999694, 255, 157, 270, 172
-0.999694, 267, 193, 282, 208
-0.999695, 93, 81, 108, 96
-0.999696, 193, 209, 208, 224
-0.999696, 317, 59, 332, 74
-0.999697, 219, 213, 234, 228
-0.999698, 19, 73, 34, 88
-0.9997, 305, 57, 320, 72
-0.999706, 159, 273, 174, 288
-0.999706, 183, 217, 198, 232
-0.999707, 93, 99, 108, 114
-0.999709, 195, 215, 210, 230
-0.999712, 155, 89, 170, 104
-0.999715, 41, 67, 56, 82
-0.999715, 93, 63, 108, 78
-0.999722, 311, 141, 326, 156
-0.999723, 1, 217, 128, 280
-0.999724, 271, 127, 286, 142
-0.999724, 301, 137, 316, 152
-0.999728, 59, 63, 74, 78
-0.99973, 267, 145, 282, 160
-0.99973, 311, 59, 326, 74
-0.999732, 49, 309, 176, 340
-0.999734, 49, 71, 64, 86
-0.999737, 35, 71, 50, 86
-0.999742, 169, 273, 184, 288
-0.99975, 17, 65, 32, 80
-0.999764, 33, 409, 160, 440
-0.999766, 65, 169, 192, 232
-0.999785, 81, 333, 208, 364
-0.999792, 183, 203, 198, 218
-0.999797, 13, 129, 44, 384
-0.999798, 173, 27, 188, 42
-0.999806, 159, 279, 174, 294
-0.999807, 65, 297, 192, 328
-0.999817, 33, 397, 160, 428
-0.999842, 51, 65, 66, 80
-0.999853, 5, 145, 36, 272
-0.999856, 49, 381, 176, 412
-0.999875, 277, 97, 308, 352
-0.999883, 301, 337, 332, 464
-0.999899, 49, 161, 176, 192
-0.999901, 33, 377, 288, 440
-0.999935, 273, 385, 333, 448
-0.999992, 97, 297, 160, 360
-1.00001, 81, 377, 144, 440
-1.00003, 17, 241, 144, 368
-1.0002, 289, 129, 320, 384
-1.00026, 117, 257, 148, 500
-1.00027, 105, 185, 168, 248
-1.00028, 113, 321, 144, 448
-1.00029, 301, 129, 332, 384
-1.00031, 1, 345, 333, 408
-1.00031, 89, 353, 152, 416
-1.00052, 25, 129, 56, 384
-1.00053, 301, 257, 332, 500
-1.00054, 33, 433, 96, 496
-1.00056, 1, 289, 333, 352
-1.00057, 113, 353, 176, 416
-1.0006, 277, 193, 308, 448
-1.00065, 53, 129, 84, 384
-1.00066, 1, 129, 32, 384
-1.00067, 1, 265, 333, 328
-1.00069, 149, 289, 180, 416
-1.0007, 113, 129, 144, 384
-1.00071, 1, 249, 128, 312
-1.0009, 289, 257, 320, 500
-1.00092, 41, 129, 72, 384
-1.00095, 1, 353, 128, 416
-1.00097, 169, 369, 200, 496
-1.001, 105, 257, 136, 500
-1.00107, 17, 161, 48, 288
-1.00108, 93, 257, 124, 500
-1.00109, 1, 377, 333, 440
-1.00114, 289, 337, 320, 464
-1.00117, 1, 329, 128, 392
-1.0012, 101, 97, 132, 352
-1.00129, 113, 241, 144, 368
-1.00131, 133, 369, 164, 496
-1.00139, 105, 305, 168, 432
-1.00139, 233, 273, 264, 400
-1.0014, 1, 321, 333, 384
-1.00141, 81, 257, 112, 500
-1.00141, 1, 225, 32, 480
-1.00142, 69, 193, 100, 448
-1.00153, 45, 225, 76, 480
-1.00153, 13, 225, 44, 480
-1.00161, 45, 145, 76, 272
-1.00161, 57, 225, 88, 480
-1.00168, 33, 225, 64, 480
-1.0017, 133, 321, 164, 448
-1.00185, 261, 225, 292, 352
-1.00207, 249, 257, 280, 384
-1.00231, 301, 289, 332, 416
-1.0024, 113, 193, 144, 320
-1.00243, 277, 321, 308, 448
-1.00266, 289, 289, 320, 416
-1.00281, 1, 273, 128, 336
-1.00281, 81, 321, 144, 448
-1.00294, 261, 321, 292, 448
-1.00317, 101, 241, 132, 368
-1.00318, 85, 369, 116, 496
-1.00325, 265, 225, 328, 352
-1.00356, 97, 257, 160, 500
-1.00359, 73, 257, 136, 500
-1.00375, 1, 321, 128, 448
-1.004, 301, 161, 332, 288
-1.00413, 33, 193, 96, 448
-1.00427, 57, 177, 88, 304
-1.00427, 41, 193, 72, 320
-1.00429, 109, 145, 140, 272
-1.00435, 285, 209, 316, 336
-1.00466, 97, 161, 160, 288
-1.00552, 1, 209, 64, 336
-1.00559, 301, 241, 332, 368
-1.00562, 93, 193, 124, 320
-1.00574, 57, 353, 120, 480
-1.00668, 73, 209, 136, 336
-1.00738, 9, 225, 72, 480
-1.00789, 65, 257, 128, 384
-1.00805, 73, 161, 136, 288
-1.00919, 33, 289, 96, 416
-1.00964, 33, 241, 96, 368
-1.01015, 273, 273, 333, 400
-1.01039, 9, 257, 72, 384
-1.01318, 57, 305, 120, 432
-1.01364, 1, 337, 64, 464
-1.01396, 25, 337, 88, 464
