1871
-0.149499, 1, 1, 500, 333
-0.314704, 161, 1, 416, 333
-0.321138, 1, 1, 500, 256
-0.386338, 33, 1, 288, 333
-0.432546, 129, 33, 384, 288
-0.474821, 1, 1, 256, 256
-0.49788, 257, 1, 500, 333
-0.538921, 257, 1, 500, 256
-0.810662, 129, 1, 256, 256
-0.815625, 257, 1, 384, 256
-0.816218, 161, 1, 288, 333
-0.826119, 193, 1, 320, 256
-0.830224, 113, 1, 240, 333
-0.83454, 65, 1, 192, 333
-0.835507, 257, 1, 384, 333
-0.841023, 209, 1, 336, 333
-0.843975, 65, 65, 192, 320
-0.844059, 17, 1, 144, 256
-0.856657, 305, 1, 432, 256
-0.858877, 1, 65, 500, 192
-0.862393, 1, 1, 500, 128
-0.875272, 1, 113, 500, 240
-0.877208, 17, 1, 144, 333
-0.8802, 193, 49, 448, 176
-0.887248, 305, 1, 432, 333
-0.890076, 353, 1, 480, 256
-0.891058, 1, 1, 256, 128
-0.893829, 97, 113, 352, 240
-0.897319, 97, 65, 352, 192
-0.898195, 353, 1, 480, 333
-0.908791, 97, 1, 352, 128
-0.909739, 1, 161, 500, 288
-0.910596, 129, 81, 256, 208
-0.912606, 1, 129, 256, 256
-0.913835, 1, 81, 256, 208
-0.916711, 273, 33, 400, 160
-0.91697, 193, 97, 448, 224
-0.920533, 49, 129, 176, 256
-0.921322, 161, 161, 416, 288
-0.921334, 33, 177, 288, 304
-0.921456, 321, 17, 384, 144
-0.921774, 209, 65, 336, 192
-0.922272, 257, 81, 320, 208
-0.923715, 225, 1, 480, 128
-0.924232, 257, 1, 320, 128
-0.925634, 169, 81, 232, 208
-0.92631, 105, 129, 168, 256
-0.926382, 233, 33, 296, 160
-0.926726, 129, 161, 256, 288
-0.927676, 177, 113, 304, 240
-0.928232, 137, 97, 200, 224
-0.928551, 161, 33, 288, 160
-0.929324, 1, 209, 500, 333
-0.930222, 281, 65, 344, 192
-0.931592, 281, 1, 344, 128
-0.932646, 209, 17, 336, 144
-0.933179, 17, 1, 144, 128
-0.933636, 97, 1, 224, 128
-0.934449, 65, 1, 128, 128
-0.9358, 25, 17, 88, 144
-0.936049, 153, 1, 216, 128
-0.937706, 49, 145, 112, 272
-0.937757, 193, 161, 256, 288
-0.938048, 177, 17, 240, 144
-0.938223, 313, 65, 376, 192
-0.938592, 209, 49, 272, 176
-0.938748, 217, 113, 280, 240
-0.939503, 321, 25, 384, 88
-0.939686, 145, 177, 208, 304
-0.939859, 193, 113, 256, 240
-0.940418, 225, 113, 352, 240
-0.941401, 345, 1, 408, 128
-0.942523, 121, 1, 184, 128
-0.943211, 73, 113, 136, 240
-0.943219, 9, 1, 72, 64
-0.943465, 265, 97, 328, 160
-0.943817, 89, 177, 152, 304
-0.943859, 81, 177, 208, 304
-0.944762, 81, 81, 208, 208
-0.944961, 273, 97, 400, 224
-0.945238, 201, 1, 264, 128
-0.945804, 113, 161, 176, 224
-0.9461, 129, 209, 384, 333
-0.946222, 137, 49, 200, 176
-0.946604, 49, 1, 112, 64
-0.947125, 329, 49, 392, 112
-0.947816, 169, 89, 232, 152
-0.947895, 113, 49, 176, 176
-0.948231, 241, 177, 304, 304
-0.948613, 97, 1, 160, 128
-0.948778, 249, 41, 312, 104
-0.948804, 145, 209, 272, 333
-0.949243, 1, 1, 64, 128
-0.949244, 289, 33, 352, 96
-0.949418, 273, 145, 400, 272
-0.949496, 209, 177, 336, 304
-0.949775, 321, 33, 448, 160
-0.949984, 73, 161, 136, 224
-0.950127, 257, 145, 500, 272
-0.950333, 217, 209, 280, 333
-0.950368, 113, 177, 176, 304
-0.950498, 169, 129, 232, 256
-0.950514, 33, 81, 160, 208
-0.95106, 97, 121, 160, 184
-0.951313, 153, 177, 216, 240
-0.952253, 353, 49, 416, 176
-0.953076, 25, 49, 88, 112
-0.953108, 337, 97, 464, 224
-0.953153, 193, 209, 256, 333
-0.953277, 1, 25, 64, 88
-0.953277, 97, 185, 160, 248
-0.953291, 209, 105, 272, 168
-0.953437, 169, 9, 232, 72
-0.953456, 113, 1, 176, 64
-0.953558, 297, 65, 360, 128
-0.953624, 289, 129, 352, 256
-0.954793, 89, 65, 152, 192
-0.954945, 185, 177, 248, 240
-0.95542, 41, 65, 104, 192
-0.955651, 25, 25, 88, 88
-0.955944, 81, 1, 144, 64
-0.956163, 233, 89, 296, 152
-0.956191, 233, 65, 296, 128
-0.956233, 1, 145, 128, 272
-0.956461, 257, 209, 500, 333
-0.956683, 193, 81, 256, 144
-0.957169, 185, 201, 248, 264
-0.957301, 137, 97, 200, 160
-0.958418, 217, 209, 280, 272
-0.958484, 297, 137, 360, 200
-0.958546, 385, 17, 448, 144
-0.95895, 169, 1, 232, 256
-0.959069, 169, 137, 232, 200
-0.959119, 129, 137, 192, 200
-0.959558, 225, 1, 288, 64
-0.959622, 169, 177, 232, 304
-0.959707, 137, 17, 200, 80
-0.959843, 265, 129, 328, 256
-0.959926, 281, 1, 344, 256
-0.959939, 353, 41, 416, 104
-0.959964, 41, 161, 104, 224
-0.960105, 169, 113, 232, 176
-0.960186, 49, 25, 112, 88
-0.96048, 65, 193, 128, 320
-0.9607, 145, 1, 208, 256
-0.961061, 217, 161, 280, 288
-0.961346, 417, 33, 480, 160
-0.961587, 25, 1, 56, 128
-0.962073, 225, 1, 288, 256
-0.962139, 273, 73, 336, 136
-0.962455, 129, 97, 256, 160
-0.962707, 17, 193, 144, 320
-0.96274, 261, 17, 292, 144
-0.962934, 321, 73, 384, 136
-0.963049, 201, 17, 264, 80
-0.963105, 137, 201, 200, 264
-0.963113, 169, 65, 232, 128
-0.963171, 333, 33, 364, 96
-0.963257, 241, 33, 368, 96
-0.963302, 105, 73, 168, 136
-0.963345, 349, 25, 380, 88
-0.963967, 201, 129, 264, 192
-0.964292, 65, 1, 128, 256
-0.964308, 65, 65, 128, 192
-0.964375, 313, 1, 376, 256
-0.964709, 17, 65, 80, 192
-0.964719, 57, 185, 120, 248
-0.964797, 321, 121, 384, 184
-0.964987, 81, 25, 144, 88
-0.965364, 85, 1, 116, 64
-0.965481, 353, 97, 416, 224
-0.965521, 257, 1, 320, 256
-0.965829, 321, 129, 384, 256
-0.965893, 17, 1, 144, 64
-0.966029, 161, 209, 224, 272
-0.966128, 205, 89, 236, 152
-0.966147, 257, 9, 320, 72
-0.966319, 177, 65, 304, 128
-0.966702, 217, 89, 248, 152
-0.966766, 121, 1, 184, 256
-0.96685, 369, 209, 496, 333
-0.96704, 17, 145, 80, 272
-0.967057, 281, 81, 312, 208
-0.967108, 65, 1, 192, 64
-0.967131, 81, 209, 144, 272
-0.967173, 193, 41, 256, 104
-0.967227, 369, 49, 496, 176
-0.967257, 41, 193, 104, 320
-0.967418, 385, 49, 448, 112
-0.967494, 69, 1, 100, 64
-0.967582, 161, 129, 288, 192
-0.967588, 25, 1, 88, 256
-0.967632, 185, 225, 248, 288
-0.967714, 281, 81, 312, 144
-0.967833, 337, 1, 368, 128
-0.967869, 29, 17, 60, 80
-0.967925, 57, 57, 120, 120
-0.968234, 273, 73, 400, 136
-0.968248, 273, 1, 304, 128
-0.968255, 257, 121, 320, 184
-0.968324, 129, 153, 256, 216
-0.9684, 417, 209, 480, 333
-0.968449, 241, 129, 304, 256
-0.968465, 317, 41, 348, 104
-0.969015, 73, 121, 136, 184
-0.969023, 377, 209, 440, 333
-0.969114, 385, 25, 448, 88
-0.969157, 113, 9, 240, 72
-0.969303, 97, 1, 160, 256
-0.969378, 201, 81, 232, 208
-0.969463, 369, 1, 496, 128
-0.969486, 281, 9, 344, 72
-0.969557, 265, 81, 296, 208
-0.969575, 65, 177, 192, 240
-0.969585, 81, 89, 144, 152
-0.96966, 129, 113, 160, 240
-0.969677, 293, 17, 324, 144
-0.969703, 49, 1, 80, 64
-0.969765, 209, 89, 336, 152
-0.96993, 313, 65, 344, 192
-0.970106, 49, 129, 176, 192
-0.970208, 225, 41, 288, 104
-0.970232, 189, 81, 220, 208
-0.970232, 305, 49, 432, 112
-0.970243, 217, 169, 280, 232
-0.970273, 353, 17, 384, 144
-0.970325, 209, 121, 336, 184
-0.970531, 265, 41, 296, 104
-0.970553, 201, 17, 232, 144
-0.970651, 217, 65, 248, 192
-0.970735, 309, 121, 340, 184
-0.970754, 161, 17, 288, 80
-0.970826, 305, 25, 432, 88
-0.97088, 137, 1, 168, 64
-0.970969, 221, 113, 252, 240
-0.971008, 313, 97, 376, 160
-0.971028, 145, 73, 208, 136
-0.971088, 353, 105, 416, 168
-0.971116, 273, 105, 304, 168
-0.971348, 273, 161, 336, 224
-0.971405, 193, 65, 256, 320
-0.971418, 49, 129, 112, 192
-0.971418, 149, 97, 180, 224
-0.971435, 97, 1, 128, 64
-0.971868, 17, 17, 48, 80
-0.971884, 321, 209, 448, 333
-0.971895, 221, 113, 252, 176
-0.971938, 53, 1, 84, 128
-0.971949, 41, 1, 72, 128
-0.972125, 345, 17, 408, 80
-0.972139, 249, 33, 280, 160
-0.972148, 241, 49, 272, 112
-0.97218, 129, 209, 256, 272
-0.972181, 113, 25, 176, 88
-0.972191, 233, 129, 296, 192
-0.972204, 177, 1, 208, 128
-0.97247, 241, 233, 304, 296
-0.972491, 97, 129, 224, 192
-0.97254, 157, 1, 188, 128
-0.972541, 225, 193, 256, 320
-0.97258, 213, 1, 244, 128
-0.972644, 113, 177, 240, 240
-0.972687, 65, 153, 192, 216
-0.972698, 417, 49, 480, 112
-0.972957, 333, 57, 364, 120
-0.972963, 161, 97, 192, 224
-0.972978, 173, 145, 204, 272
-0.973035, 353, 65, 416, 128
-0.973053, 177, 153, 304, 216
-0.973071, 293, 81, 324, 208
-0.973275, 125, 129, 156, 192
-0.973303, 69, 1, 100, 128
-0.973313, 81, 65, 144, 128
-0.973328, 121, 49, 184, 112
-0.973447, 1, 17, 32, 80
-0.973555, 13, 1, 44, 128
-0.973572, 353, 1, 416, 256
-0.973613, 313, 1, 344, 128
-0.973629, 145, 233, 208, 296
-0.973671, 325, 1, 356, 128
-0.973745, 145, 49, 176, 176
-0.973821, 417, 81, 480, 208
-0.973823, 1, 49, 64, 112
-0.973886, 393, 65, 456, 192
-0.973927, 177, 89, 208, 152
-0.973944, 113, 217, 176, 280
-0.973984, 349, 49, 380, 112
-0.974017, 237, 33, 268, 160
-0.974063, 293, 81, 324, 144
-0.974105, 225, 193, 256, 256
-0.974131, 157, 177, 188, 240
-0.974149, 17, 25, 144, 88
-0.97429, 257, 185, 320, 248
-0.974296, 257, 129, 384, 192
-0.974366, 257, 97, 384, 160
-0.974432, 225, 225, 256, 288
-0.974434, 129, 1, 160, 128
-0.974442, 41, 25, 72, 88
-0.974587, 241, 9, 272, 72
-0.974661, 193, 89, 224, 152
-0.974667, 409, 273, 472, 333
-0.974687, 361, 33, 392, 96
-0.974753, 145, 49, 208, 112
-0.974871, 209, 9, 336, 72
-0.974888, 329, 49, 360, 176
-0.974899, 17, 169, 144, 232
-0.974939, 225, 57, 352, 120
-0.974955, 209, 233, 272, 296
-0.975049, 201, 113, 232, 176
-0.975067, 321, 145, 448, 272
-0.975132, 113, 9, 144, 72
-0.975258, 393, 73, 456, 136
-0.975346, 257, 209, 384, 333
-0.975436, 121, 65, 152, 192
-0.975494, 25, 41, 56, 104
-0.975584, 81, 1, 112, 128
-0.975709, 105, 153, 136, 216
-0.975784, 101, 113, 132, 240
-0.975786, 261, 81, 292, 144
-0.975786, 81, 129, 112, 256
-0.97582, 177, 81, 208, 208
-0.975845, 169, 33, 232, 96
-0.975863, 241, 209, 304, 272
-0.975991, 209, 145, 240, 272
-0.976025, 209, 177, 240, 240
-0.9761, 65, 233, 128, 296
-0.976116, 193, 153, 256, 216
-0.976123, 105, 177, 136, 240
-0.976287, 385, 273, 448, 333
-0.976337, 417, 73, 480, 136
-0.976384, 145, 1, 176, 128
-0.976452, 261, 121, 292, 184
-0.976464, 41, 209, 104, 272
-0.976476, 1, 1, 64, 256
-0.976525, 193, 209, 224, 272
-0.976532, 417, 25, 480, 88
-0.976568, 257, 17, 288, 80
-0.976578, 297, 33, 328, 96
-0.976634, 177, 217, 304, 280
-0.976752, 149, 9, 180, 72
-0.976802, 125, 9, 156, 72
-0.976804, 81, 105, 208, 168
-0.976909, 1, 1, 32, 128
-0.976929, 189, 17, 220, 144
-0.976947, 197, 65, 228, 128
-0.976972, 137, 153, 168, 216
-0.976983, 17, 49, 144, 112
-0.977015, 113, 1, 144, 128
-0.977023, 217, 1, 280, 333
-0.977028, 229, 17, 260, 80
-0.977049, 213, 1, 244, 64
-0.977056, 101, 177, 132, 304
-0.977096, 229, 89, 260, 152
-0.977119, 409, 1, 472, 64
-0.977152, 185, 65, 216, 128
-0.977212, 145, 161, 176, 288
-0.977303, 177, 193, 304, 256
-0.977335, 65, 209, 192, 272
-0.977341, 345, 273, 408, 333
-0.97737, 353, 65, 384, 192
-0.977401, 89, 161, 120, 224
-0.977458, 353, 209, 416, 333
-0.977559, 177, 1, 240, 333
-0.977635, 189, 9, 220, 72
-0.977661, 321, 145, 384, 208
-0.977668, 181, 161, 212, 224
-0.977693, 305, 65, 336, 128
-0.977759, 317, 65, 348, 128
-0.978128, 53, 25, 84, 88
-0.978148, 341, 49, 372, 176
-0.978199, 9, 73, 72, 136
-0.978207, 365, 17, 396, 144
-0.978274, 241, 105, 272, 168
-0.978291, 193, 161, 224, 288
-0.978312, 189, 185, 220, 248
-0.97836, 269, 9, 300, 72
-0.978394, 237, 193, 268, 320
-0.978451, 105, 97, 168, 160
-0.978464, 93, 1, 124, 128
-0.978465, 237, 225, 268, 288
-0.978651, 305, 1, 368, 64
-0.978772, 281, 41, 312, 104
-0.978777, 221, 65, 252, 128
-0.978806, 101, 121, 132, 184
-0.978842, 337, 97, 464, 160
-0.978868, 385, 1, 448, 64
-0.978872, 177, 9, 208, 72
-0.97889, 281, 273, 344, 333
-0.978941, 5, 57, 36, 120
-0.979078, 213, 193, 244, 320
-0.979081, 145, 1, 208, 333
-0.979162, 289, 113, 352, 176
-0.979195, 353, 33, 480, 96
-0.979195, 345, 73, 376, 136
-0.979218, 57, 81, 120, 144
-0.979251, 173, 57, 204, 120
-0.979321, 345, 129, 408, 192
-0.979415, 145, 241, 272, 304
-0.979445, 297, 161, 360, 224
-0.979518, 377, 1, 440, 256
-0.97971, 185, 249, 248, 312
-0.979739, 241, 1, 304, 333
-0.979749, 161, 177, 192, 304
-0.979769, 65, 25, 192, 88
-0.979787, 253, 41, 284, 104
-0.979985, 81, 81, 208, 144
-0.980088, 213, 217, 244, 280
-0.980165, 261, 129, 292, 256
-0.980265, 321, 273, 384, 333
-0.980288, 225, 257, 288, 320
-0.980297, 161, 49, 192, 176
-0.980383, 353, 9, 480, 72
-0.980414, 33, 185, 96, 248
-0.980428, 253, 81, 284, 208
-0.980449, 153, 97, 184, 160
-0.980449, 145, 177, 176, 240
-0.980461, 77, 169, 108, 232
-0.980561, 129, 73, 256, 136
-0.980609, 117, 177, 148, 240
-0.980628, 85, 81, 116, 208
-0.98066, 193, 145, 224, 208
-0.980698, 97, 201, 128, 264
-0.980708, 237, 201, 268, 264
-0.980714, 297, 129, 328, 192
-0.980748, 133, 49, 164, 176
-0.980749, 113, 1, 176, 333
-0.980772, 417, 73, 448, 136
-0.980778, 113, 113, 144, 240
-0.980844, 169, 129, 200, 192
-0.980939, 369, 73, 496, 136
-0.980956, 133, 161, 164, 288
-0.980959, 17, 161, 80, 224
-0.980971, 157, 145, 188, 208
-0.9811, 77, 33, 108, 96
-0.981103, 145, 41, 272, 104
-0.981153, 169, 177, 200, 240
-0.981195, 181, 217, 212, 280
-0.981225, 65, 113, 96, 240
-0.981395, 377, 97, 440, 160
-0.981426, 93, 25, 124, 88
-0.981474, 257, 161, 384, 224
-0.981543, 81, 121, 112, 184
-0.981591, 201, 9, 232, 72
-0.98162, 265, 249, 328, 312
-0.981698, 225, 17, 256, 144
-0.981725, 373, 25, 404, 88
-0.981769, 289, 153, 320, 216
-0.98177, 257, 9, 384, 72
-0.981843, 17, 193, 80, 320
-0.981855, 65, 65, 96, 192
-0.981895, 97, 49, 224, 112
-0.981946, 317, 17, 348, 80
-0.982152, 53, 129, 84, 256
-0.982159, 69, 161, 100, 288
-0.982293, 281, 1, 344, 333
-0.982417, 109, 49, 140, 176
-0.982435, 341, 129, 372, 192
-0.98245, 65, 25, 96, 88
-0.98246, 261, 193, 292, 320
-0.982517, 161, 17, 192, 80
-0.982595, 401, 97, 464, 160
-0.982638, 429, 65, 460, 192
-0.982665, 121, 177, 152, 304
-0.982716, 117, 153, 148, 216
-0.982721, 297, 209, 360, 333
-0.982774, 429, 73, 460, 136
-0.982803, 365, 113, 396, 176
-0.982835, 265, 177, 328, 304
-0.982858, 25, 49, 56, 176
-0.98286, 297, 249, 360, 312
-0.982864, 225, 193, 352, 256
-0.982961, 225, 225, 352, 288
-0.982969, 337, 121, 464, 184
-0.982973, 361, 57, 392, 120
-0.983032, 73, 1, 136, 333
-0.983044, 209, 65, 240, 128
-0.98308, 293, 57, 324, 120
-0.983166, 1, 193, 128, 256
-0.983179, 281, 145, 312, 272
-0.98329, 137, 105, 168, 168
-0.983371, 429, 273, 460, 333
-0.983413, 309, 113, 340, 240
-0.98346, 433, 265, 496, 328
-0.983498, 337, 273, 464, 333
-0.983501, 89, 209, 120, 333
-0.983567, 153, 201, 184, 264
-0.983569, 245, 145, 276, 272
-0.983583, 321, 73, 448, 136
-0.983595, 313, 1, 376, 333
-0.983647, 9, 65, 40, 192
-0.983679, 157, 65, 188, 128
-0.98368, 381, 1, 412, 128
-0.983701, 297, 217, 360, 280
-0.983814, 97, 65, 128, 192
-0.98389, 17, 73, 144, 136
-0.984021, 61, 137, 92, 200
-0.98411, 157, 41, 188, 104
-0.984184, 433, 97, 496, 160
-0.984212, 121, 241, 184, 304
-0.984225, 365, 65, 396, 192
-0.984228, 181, 113, 212, 176
-0.984464, 369, 161, 496, 288
-0.984546, 393, 1, 424, 128
-0.984558, 389, 41, 420, 104
-0.984667, 1, 137, 128, 200
-0.984804, 117, 89, 148, 152
-0.984847, 17, 1, 80, 333
-0.984979, 337, 217, 400, 280
-0.985026, 137, 25, 168, 88
-0.985041, 417, 1, 480, 256
-0.985084, 397, 273, 428, 333
-0.985172, 277, 169, 308, 232
-0.985251, 337, 145, 368, 272
-0.985289, 97, 233, 224, 296
-0.985313, 341, 97, 372, 224
-0.985321, 381, 65, 412, 128
-0.985341, 249, 209, 280, 333
-0.985362, 69, 193, 100, 256
-0.985381, 129, 177, 160, 240
-0.985431, 337, 9, 368, 72
-0.985481, 85, 217, 116, 280
-0.985527, 137, 81, 168, 144
-0.985572, 425, 225, 488, 288
-0.985603, 81, 193, 112, 256
-0.985621, 309, 97, 340, 160
-0.985652, 285, 1, 316, 64
-0.985753, 161, 265, 288, 328
-0.985764, 49, 153, 80, 216
-0.985798, 45, 49, 76, 176
-0.985833, 321, 129, 352, 192
-0.985896, 405, 65, 436, 128
-0.985958, 353, 241, 416, 304
-0.986025, 205, 33, 236, 96
-0.986027, 245, 129, 276, 192
-0.986043, 225, 273, 352, 333
-0.986077, 249, 201, 280, 264
-0.986097, 233, 81, 264, 208
-0.986124, 417, 1, 480, 333
-0.986138, 177, 193, 208, 320
-0.986154, 93, 49, 124, 112
-0.986197, 457, 73, 488, 136
-0.986207, 361, 1, 424, 333
-0.986242, 109, 33, 140, 96
-0.986286, 213, 153, 244, 216
-0.986292, 261, 193, 292, 256
-0.986304, 249, 273, 312, 333
-0.986313, 437, 17, 468, 144
-0.986497, 161, 257, 224, 320
-0.986501, 409, 1, 440, 128
-0.987001, 33, 97, 160, 160
-0.987053, 353, 113, 384, 240
-0.98713, 33, 89, 96, 152
-0.987165, 449, 209, 480, 333
-0.987202, 197, 209, 228, 333
-0.987277, 329, 97, 360, 224
-0.987309, 393, 49, 424, 176
-0.98732, 377, 49, 408, 176
-0.987322, 273, 217, 336, 280
-0.987404, 233, 129, 264, 256
-0.987469, 161, 137, 416, 200
-0.98753, 289, 273, 416, 333
-0.987531, 297, 129, 328, 256
-0.987583, 305, 1, 432, 64
-0.987602, 33, 241, 160, 304
-0.987638, 73, 209, 104, 333
-0.987655, 321, 33, 384, 64
-0.987779, 321, 241, 384, 304
-0.987786, 49, 193, 80, 320
-0.987835, 89, 257, 152, 320
-0.987854, 161, 81, 416, 144
-0.987864, 393, 1, 456, 333
-0.987931, 321, 49, 384, 80
-0.987939, 145, 209, 176, 333
-0.987943, 209, 249, 336, 312
-0.988004, 25, 1, 88, 32
-0.988105, 429, 209, 460, 333
-0.988146, 449, 17, 480, 144
-0.988154, 369, 241, 496, 304
-0.988188, 345, 145, 408, 272
-0.988207, 65, 121, 320, 184
-0.988233, 433, 1, 496, 64
-0.988289, 9, 241, 72, 304
-0.988428, 369, 217, 432, 280
-0.988436, 49, 1, 112, 333
-0.988495, 217, 121, 280, 152
-0.9885, 113, 13, 176, 44
-0.988527, 1, 25, 64, 56
-0.988578, 289, 37, 352, 68
-0.988607, 393, 217, 456, 280
-0.988649, 41, 25, 104, 56
-0.98866, 145, 173, 208, 204
-0.988681, 185, 113, 248, 144
-0.988686, 225, 49, 480, 112
-0.988707, 25, 265, 88, 328
-0.988768, 413, 49, 444, 176
-0.988786, 65, 17, 320, 80
-0.988804, 265, 85, 328, 116
-0.988824, 9, 185, 72, 248
-0.988834, 137, 145, 200, 176
-0.988882, 113, 165, 176, 196
-0.988885, 73, 169, 136, 200
-0.988912, 209, 225, 272, 256
-0.988926, 193, 201, 256, 232
-0.989013, 161, 21, 224, 52
-0.989016, 297, 73, 360, 104
-0.989034, 137, 213, 200, 244
-0.989048, 161, 93, 224, 124
-0.989086, 393, 113, 456, 240
-0.989097, 265, 105, 328, 136
-0.98913, 337, 1, 400, 333
-0.98914, 329, 209, 392, 333
-0.989168, 129, 121, 192, 152
-0.989181, 57, 5, 120, 36
-0.989197, 329, 61, 392, 92
-0.989198, 9, 37, 72, 68
-0.98921, 81, 13, 144, 44
-0.989211, 257, 121, 320, 152
-0.989225, 105, 185, 168, 216
-0.989235, 9, 13, 72, 44
-0.989242, 209, 237, 272, 268
-0.98929, 217, 201, 280, 232
-0.98929, 321, 133, 384, 164
-0.989337, 169, 221, 232, 252
-0.989354, 105, 153, 168, 184
-0.989367, 193, 125, 256, 156
-0.989399, 169, 161, 232, 192
-0.989416, 225, 109, 288, 140
-0.989432, 153, 185, 216, 216
-0.989444, 325, 145, 356, 272
-0.989456, 1, 1, 64, 32
-0.989516, 345, 41, 408, 72
-0.989528, 65, 177, 320, 240
-0.989541, 1, 25, 500, 88
-0.989545, 185, 101, 248, 132
-0.989559, 81, 257, 208, 320
-0.989564, 25, 49, 88, 80
-0.989581, 257, 249, 384, 312
-0.989582, 137, 17, 200, 48
-0.98959, 169, 125, 232, 156
-0.989611, 137, 133, 200, 164
-0.989683, 1, 145, 256, 208
-0.9897, 65, 185, 128, 216
-0.989714, 65, 97, 320, 160
-0.989766, 137, 5, 200, 36
-0.989788, 461, 1, 492, 128
-0.989789, 265, 37, 328, 68
-0.989811, 241, 89, 304, 120
-0.989823, 17, 217, 144, 280
-0.989823, 33, 37, 96, 68
-0.98983, 425, 17, 456, 144
-0.989835, 217, 65, 280, 96
-0.989839, 185, 17, 248, 48
-0.989841, 81, 25, 144, 56
-0.989846, 249, 49, 312, 80
-0.989861, 305, 145, 432, 208
-0.989884, 169, 137, 232, 168
-0.989905, 217, 213, 280, 244
-0.989919, 193, 89, 256, 120
-0.989936, 1, 113, 500, 176
-0.989937, 137, 157, 200, 188
-0.989956, 289, 145, 352, 176
-0.989957, 289, 217, 416, 280
-0.989969, 129, 109, 192, 140
-0.989983, 257, 73, 320, 104
-0.989992, 177, 189, 240, 220
-0.990003, 25, 61, 88, 92
-0.990003, 353, 301, 416, 332
-0.990009, 289, 85, 352, 116
-0.990014, 305, 61, 368, 92
-0.990014, 241, 5, 304, 36
-0.990036, 393, 297, 456, 328
-0.990047, 217, 133, 280, 164
-0.990068, 185, 1, 248, 32
-0.990082, 153, 201, 216, 232
-0.990087, 97, 129, 160, 160
-0.990095, 113, 25, 176, 56
-0.990141, 161, 113, 416, 176
-0.990168, 193, 213, 256, 244
-0.990174, 233, 225, 296, 256
-0.990197, 81, 77, 144, 108
-0.990214, 105, 141, 168, 172
-0.990263, 161, 65, 224, 96
-0.990276, 113, 1, 176, 32
-0.990295, 169, 149, 232, 180
-0.990313, 185, 233, 248, 264
-0.990321, 217, 97, 280, 128
-0.990358, 161, 113, 224, 144
-0.990366, 209, 21, 272, 52
-0.990379, 297, 125, 360, 156
-0.990398, 41, 189, 104, 220
-0.990402, 369, 49, 432, 80
-0.990447, 1, 73, 500, 136
-0.990472, 321, 297, 384, 328
-0.990472, 49, 145, 112, 176
-0.990478, 73, 157, 136, 188
-0.990481, 321, 73, 384, 104
-0.990485, 409, 209, 440, 333
-0.990488, 297, 301, 360, 332
-0.990499, 393, 49, 456, 80
-0.990501, 1, 49, 500, 112
-0.99051, 161, 9, 224, 40
-0.990523, 97, 209, 160, 240
-0.990558, 433, 45, 496, 76
-0.990563, 145, 233, 208, 264
-0.990581, 153, 81, 216, 112
-0.990592, 417, 301, 480, 332
-0.9906, 233, 189, 296, 220
-0.990622, 241, 17, 304, 48
-0.990636, 105, 197, 168, 228
-0.99065, 41, 173, 104, 204
-0.990662, 57, 45, 120, 76
-0.990667, 97, 49, 352, 112
-0.990671, 33, 13, 96, 44
-0.990691, 129, 73, 192, 104
-0.990712, 321, 121, 384, 152
-0.990726, 89, 1, 152, 32
-0.990726, 225, 33, 288, 64
-0.990733, 193, 45, 256, 76
-0.990742, 233, 77, 296, 108
-0.990748, 353, 113, 416, 144
-0.990774, 361, 21, 424, 52
-0.990779, 193, 137, 256, 168
-0.990795, 137, 97, 200, 128
-0.990798, 417, 57, 480, 88
-0.990803, 57, 201, 120, 232
-0.990848, 177, 77, 240, 108
-0.990853, 25, 77, 88, 108
-0.990861, 193, 177, 256, 208
-0.990873, 297, 49, 360, 80
-0.990909, 57, 81, 120, 112
-0.990914, 33, 157, 96, 188
-0.990918, 433, 289, 496, 320
-0.990998, 393, 37, 456, 68
-0.99102, 1, 49, 64, 80
-0.991021, 321, 21, 384, 52
-0.991032, 73, 57, 136, 88
-0.991046, 297, 17, 360, 48
-0.991069, 105, 69, 168, 100
-0.99113, 257, 73, 500, 136
-0.991149, 385, 161, 448, 288
-0.991262, 337, 209, 464, 272
-0.991275, 193, 25, 448, 88
-0.991287, 289, 193, 416, 256
-0.991375, 1, 41, 256, 104
-0.991537, 321, 241, 448, 304
-0.991547, 365, 113, 396, 240
-0.991665, 257, 105, 500, 168
-0.991724, 393, 97, 424, 224
-0.991732, 161, 161, 416, 224
-0.991754, 337, 33, 352, 96
-0.991776, 33, 273, 160, 333
-0.991819, 217, 117, 248, 148
-0.991875, 333, 49, 364, 80
-0.991879, 1, 1, 32, 32
-0.991882, 445, 65, 476, 192
-0.991941, 201, 93, 232, 124
-0.991976, 409, 97, 440, 224
-0.991976, 37, 145, 68, 272
-0.991978, 465, 97, 496, 224
-0.991997, 273, 33, 400, 64
-0.992049, 125, 133, 156, 164
-0.992064, 289, 89, 320, 120
-0.992117, 269, 113, 300, 144
-0.992128, 225, 225, 256, 256
-0.99213, 277, 85, 308, 116
-0.992132, 21, 17, 52, 48
-0.992146, 343, 25, 358, 88
-0.992146, 329, 37, 360, 68
-0.992157, 29, 1, 60, 32
-0.99218, 205, 109, 236, 140
-0.992201, 85, 9, 116, 40
-0.992203, 141, 9, 172, 40
-0.992212, 333, 297, 364, 328
-0.99224, 17, 1, 48, 32
-0.99224, 185, 89, 216, 120
-0.992246, 29, 37, 60, 68
-0.992249, 225, 197, 256, 228
-0.992259, 397, 209, 428, 333
-0.992277, 293, 77, 324, 108
-0.992282, 277, 101, 308, 132
-0.992283, 341, 29, 372, 60
-0.992292, 97, 17, 128, 48
-0.992306, 157, 17, 188, 48
-0.992321, 241, 45, 368, 76
-0.992324, 11, 1, 26, 64
-0.992327, 345, 53, 376, 84
-0.992361, 65, 73, 320, 136
-0.992367, 309, 125, 340, 156
-0.992382, 177, 165, 208, 196
-0.992383, 361, 53, 392, 84
-0.992387, 365, 209, 396, 333
-0.992401, 17, 33, 48, 64
-0.992402, 345, 301, 376, 332
-0.992403, 69, 21, 100, 52
-0.992407, 213, 225, 244, 256
-0.992417, 41, 29, 72, 60
-0.992422, 9, 13, 40, 44
-0.992424, 205, 81, 236, 112
-0.992427, 257, 49, 288, 80
-0.992433, 193, 209, 224, 240
-0.992438, 157, 101, 188, 132
-0.992442, 173, 13, 204, 44
-0.992447, 41, 1, 72, 32
-0.992448, 17, 45, 48, 76
-0.992454, 53, 25, 84, 56
-0.992457, 237, 221, 268, 252
-0.992462, 129, 13, 160, 44
-0.992465, 337, 65, 368, 96
-0.992465, 105, 173, 136, 204
-0.992474, 137, 117, 168, 148
-0.992476, 261, 125, 292, 156
-0.992479, 193, 105, 224, 136
-0.992481, 209, 117, 336, 148
-0.992494, 283, 81, 298, 144
-0.992504, 217, 17, 248, 48
-0.992504, 353, 41, 384, 72
-0.992514, 249, 37, 280, 68
-0.992515, 205, 121, 236, 152
-0.992515, 117, 145, 148, 176
-0.992521, 289, 73, 304, 136
-0.992532, 165, 145, 196, 176
-0.992533, 1, 137, 500, 200
-0.992536, 97, 13, 224, 44
-0.992537, 113, 13, 144, 44
-0.992542, 313, 65, 344, 96
-0.992547, 429, 297, 460, 328
-0.992549, 169, 221, 200, 252
-0.99255, 73, 5, 104, 36
-0.99255, 265, 97, 296, 128
-0.992553, 99, 1, 114, 64
-0.992553, 93, 189, 124, 220
-0.992561, 221, 89, 252, 120
-0.992563, 305, 77, 336, 108
-0.992568, 117, 165, 148, 196
-0.992569, 5, 25, 36, 56
-0.992572, 321, 297, 352, 328
-0.992572, 229, 121, 260, 152
-0.992579, 173, 93, 204, 124
-0.992579, 101, 153, 132, 184
-0.992582, 241, 17, 272, 48
-0.992588, 245, 53, 276, 84
-0.992589, 149, 213, 180, 244
-0.99259, 137, 161, 168, 192
-0.992593, 185, 21, 216, 52
-0.9926, 229, 21, 260, 52
-0.992613, 265, 33, 296, 64
-0.992614, 185, 153, 216, 184
-0.992616, 113, 185, 144, 216
-0.992622, 219, 97, 234, 160
-0.992625, 213, 213, 244, 244
-0.992626, 305, 137, 336, 168
-0.992626, 193, 85, 320, 116
-0.99263, 125, 25, 156, 56
-0.992634, 317, 137, 348, 168
-0.992636, 173, 133, 204, 164
-0.992638, 205, 21, 236, 52
-0.992638, 25, 57, 56, 88
-0.992644, 229, 101, 260, 132
-0.992646, 349, 65, 380, 96
-0.992651, 101, 5, 132, 36
-0.992657, 137, 25, 168, 56
-0.992663, 85, 25, 116, 56
-0.992665, 157, 157, 188, 188
-0.992683, 409, 301, 440, 332
-0.992683, 357, 301, 388, 332
-0.992684, 217, 237, 248, 268
-0.992695, 9, 73, 40, 104
-0.992695, 345, 209, 376, 333
-0.992706, 313, 37, 344, 68
-0.992707, 205, 189, 236, 220
-0.992708, 165, 81, 196, 112
-0.992715, 201, 133, 232, 164
-0.992716, 157, 177, 188, 208
-0.992722, 345, 137, 376, 168
-0.992722, 49, 45, 80, 76
-0.992723, 281, 37, 312, 68
-0.992729, 257, 1, 288, 32
-0.99273, 237, 233, 268, 264
-0.99273, 273, 73, 304, 104
-0.992732, 145, 145, 176, 176
-0.992733, 45, 13, 76, 44
-0.992738, 325, 61, 356, 92
-0.99274, 241, 121, 272, 152
-0.992742, 109, 25, 140, 56
-0.992748, 41, 17, 56, 80
-0.992753, 217, 105, 248, 136
-0.992762, 137, 105, 168, 136
-0.992763, 129, 109, 256, 140
-0.992763, 297, 37, 328, 68
-0.992763, 237, 33, 268, 64
-0.992763, 245, 205, 276, 236
-0.992774, 129, 181, 160, 212
-0.992782, 429, 73, 460, 104
-0.992792, 385, 301, 416, 332
-0.992798, 373, 301, 404, 332
-0.992799, 173, 177, 204, 208
-0.9928, 97, 201, 352, 264
-0.992804, 189, 1, 220, 32
-0.992806, 9, 61, 40, 92
-0.992808, 185, 77, 216, 108
-0.99281, 441, 301, 472, 332
-0.992812, 193, 177, 224, 208
-0.992819, 61, 1, 92, 32
-0.992822, 217, 77, 248, 108
-0.992875, 199, 105, 214, 168
-0.992879, 1, 1, 500, 64
-0.992902, 161, 133, 288, 164
-0.992935, 275, 97, 290, 160
-0.992937, 17, 5, 144, 36
-0.992967, 345, 49, 360, 112
-0.993038, 207, 89, 222, 152
-0.99305, 161, 1, 416, 64
-0.99305, 129, 213, 256, 244
-0.993118, 65, 165, 192, 196
-0.993192, 353, 25, 368, 88
-0.993231, 81, 153, 208, 184
-0.993265, 363, 25, 378, 88
-0.993304, 75, 1, 90, 64
-0.993313, 257, 161, 500, 224
-0.993365, 89, 1, 104, 64
-0.993366, 129, 97, 256, 128
-0.993396, 63, 1, 78, 64
-0.993407, 129, 169, 256, 200
-0.993411, 31, 17, 46, 80
-0.993417, 47, 1, 62, 64
-0.993433, 193, 145, 320, 176
-0.993435, 225, 133, 352, 164
-0.993442, 17, 25, 144, 56
-0.993454, 109, 9, 124, 72
-0.993458, 161, 1, 288, 32
-0.993486, 97, 1, 224, 32
-0.993518, 151, 1, 166, 64
-0.993573, 129, 225, 256, 256
-0.993642, 65, 177, 192, 208
-0.993663, 83, 17, 98, 80
-0.993676, 273, 85, 400, 116
-0.993734, 129, 153, 256, 184
-0.993743, 295, 73, 310, 136
-0.993744, 331, 41, 346, 104
-0.993762, 157, 177, 172, 240
-0.993771, 305, 53, 432, 84
-0.993814, 193, 73, 320, 104
-0.993816, 113, 169, 128, 232
-0.993847, 193, 29, 320, 60
-0.993865, 465, 209, 496, 333
-0.993888, 277, 73, 292, 136
-0.993896, 255, 9, 270, 72
-0.993915, 273, 141, 400, 172
-0.993937, 49, 141, 176, 172
-0.993937, 129, 189, 256, 220
-0.993951, 269, 89, 284, 152
-0.993953, 17, 169, 144, 200
-0.993972, 197, 81, 212, 144
-0.993976, 141, 9, 156, 72
-0.993995, 133, 209, 164, 333
-0.994048, 225, 81, 240, 144
-0.994053, 279, 9, 294, 72
-0.994085, 259, 41, 274, 104
-0.994103, 257, 97, 384, 128
-0.994113, 193, 97, 320, 128
-0.994118, 321, 121, 336, 184
-0.994129, 377, 209, 408, 333
-0.99414, 157, 9, 172, 72
-0.994154, 161, 121, 288, 152
-0.994156, 269, 121, 284, 184
-0.994157, 129, 25, 256, 56
-0.99416, 65, 25, 192, 56
-0.994177, 193, 201, 448, 264
-0.994188, 257, 273, 500, 333
-0.994188, 353, 57, 368, 120
-0.994195, 149, 153, 164, 216
-0.994198, 219, 73, 234, 136
-0.994202, 325, 41, 340, 104
-0.99421, 53, 1, 68, 64
-0.994212, 1, 201, 256, 264
-0.994226, 5, 1, 20, 64
-0.994229, 135, 9, 150, 72
-0.994234, 69, 1, 84, 64
-0.994242, 49, 125, 176, 156
-0.994242, 321, 37, 448, 68
-0.994253, 161, 1, 192, 256
-0.99426, 315, 121, 330, 184
-0.994269, 349, 161, 380, 288
-0.994281, 241, 17, 368, 48
-0.994336, 145, 13, 272, 44
-0.994344, 199, 129, 214, 192
-0.994352, 339, 57, 354, 120
-0.994356, 225, 105, 240, 168
-0.994366, 177, 1, 208, 256
-0.994384, 231, 89, 246, 152
-0.994386, 141, 113, 156, 176
-0.994405, 241, 57, 368, 88
-0.994417, 461, 49, 492, 176
-0.994421, 213, 97, 228, 160
-0.994443, 257, 137, 500, 200
-0.994446, 165, 17, 180, 80
-0.994485, 1, 209, 500, 272
-0.994487, 417, 161, 480, 288
-0.994494, 143, 137, 158, 200
-0.994514, 263, 129, 278, 192
-0.994517, 117, 145, 132, 208
-0.99453, 273, 73, 400, 104
-0.994543, 97, 141, 224, 172
-0.994545, 281, 1, 312, 256
-0.994555, 177, 241, 304, 272
-0.994616, 239, 225, 254, 288
-0.994617, 189, 145, 204, 208
-0.994619, 281, 105, 296, 168
-0.99462, 325, 209, 356, 333
-0.994629, 279, 41, 294, 104
-0.994646, 209, 9, 224, 72
-0.994652, 55, 25, 70, 88
-0.994653, 203, 65, 218, 128
-0.994664, 237, 193, 252, 256
-0.994671, 1, 161, 500, 224
-0.994674, 175, 129, 190, 192
-0.994701, 105, 177, 120, 240
-0.994715, 33, 225, 288, 288
-0.994735, 37, 97, 68, 224
-0.994741, 81, 81, 208, 112
-0.994755, 193, 157, 320, 188
-0.994755, 253, 49, 268, 112
-0.994763, 309, 121, 324, 184
-0.994769, 113, 129, 240, 160
-0.994791, 187, 9, 202, 72
-0.994807, 167, 177, 182, 240
-0.994815, 21, 9, 36, 72
-0.994826, 97, 201, 224, 232
-0.994833, 129, 9, 144, 72
-0.994866, 369, 185, 496, 248
-0.994871, 65, 189, 192, 220
-0.994905, 29, 41, 44, 104
-0.994908, 353, 297, 480, 328
-0.994917, 191, 81, 206, 144
-0.994957, 165, 145, 180, 208
-0.994961, 177, 205, 304, 236
-0.994973, 203, 185, 218, 248
-0.994977, 47, 25, 62, 88
-0.99498, 17, 153, 144, 184
-0.995006, 369, 49, 384, 112
-0.995007, 17, 41, 144, 72
-0.99501, 221, 9, 236, 72
-0.995011, 205, 1, 236, 256
-0.995011, 149, 1, 180, 256
-0.99503, 17, 81, 144, 112
-0.995046, 89, 161, 104, 224
-0.995062, 187, 185, 202, 248
-0.995083, 11, 25, 26, 88
-0.995086, 327, 129, 342, 192
-0.995093, 105, 153, 120, 216
-0.995114, 177, 181, 304, 212
-0.995114, 301, 1, 332, 256
-0.995118, 193, 17, 208, 80
-0.99512, 129, 73, 256, 104
-0.995123, 213, 73, 228, 136
-0.995126, 195, 169, 210, 232
-0.995127, 93, 33, 108, 96
-0.995139, 193, 229, 320, 260
-0.99514, 313, 33, 328, 96
-0.995176, 273, 153, 400, 184
-0.99518, 233, 113, 248, 176
-0.995188, 171, 97, 186, 160
-0.995197, 199, 17, 214, 80
-0.995199, 181, 17, 196, 80
-0.995205, 241, 105, 256, 168
-0.995209, 81, 41, 96, 104
-0.995209, 133, 121, 148, 184
-0.99522, 285, 9, 300, 72
-0.995223, 353, 25, 480, 56
-0.995224, 265, 1, 296, 256
-0.995228, 97, 257, 352, 320
-0.995235, 65, 25, 80, 88
-0.995237, 271, 9, 286, 72
-0.99524, 227, 201, 242, 264
-0.995243, 17, 181, 144, 212
-0.995251, 265, 41, 280, 104
-0.995259, 359, 57, 374, 120
-0.995259, 305, 301, 432, 332
-0.995268, 123, 9, 138, 72
-0.995281, 285, 41, 300, 104
-0.995283, 95, 185, 110, 248
-0.995284, 193, 17, 320, 48
-0.995316, 257, 225, 500, 288
-0.995317, 109, 1, 140, 256
-0.995321, 21, 57, 36, 120
-0.995321, 273, 41, 288, 104
-0.995325, 173, 25, 188, 88
-0.995333, 161, 225, 416, 288
-0.995334, 161, 41, 288, 72
-0.995344, 369, 161, 496, 224
-0.995351, 17, 53, 144, 84
-0.995353, 189, 1, 220, 256
-0.995359, 331, 17, 346, 80
-0.995368, 319, 33, 334, 96
-0.995379, 337, 105, 464, 136
-0.995384, 425, 113, 456, 240
-0.995387, 303, 65, 318, 128
-0.995399, 211, 177, 226, 240
-0.995409, 289, 97, 304, 160
-0.995409, 261, 17, 276, 80
-0.995422, 321, 65, 448, 96
-0.995424, 211, 121, 226, 184
-0.995435, 115, 1, 130, 64
-0.995441, 235, 17, 250, 80
-0.99545, 273, 121, 400, 152
-0.995455, 299, 33, 314, 96
-0.995459, 431, 57, 446, 120
-0.995464, 367, 113, 382, 176
-0.995467, 193, 169, 320, 200
-0.995473, 227, 225, 242, 288
-0.995479, 123, 145, 138, 208
-0.995479, 303, 137, 318, 200
-0.995483, 257, 297, 384, 328
-0.995494, 245, 225, 260, 288
-0.9955, 75, 25, 90, 88
-0.995505, 359, 121, 374, 184
-0.995509, 197, 57, 212, 120
-0.995514, 249, 25, 264, 88
-0.995521, 191, 57, 206, 120
-0.995523, 425, 81, 440, 144
-0.995534, 161, 57, 288, 88
-0.995597, 81, 93, 208, 124
-0.995684, 329, 1, 360, 256
-0.995692, 65, 41, 192, 72
-0.995696, 317, 1, 348, 256
-0.995706, 353, 49, 480, 80
-0.99579, 249, 1, 280, 256
-0.995812, 49, 221, 176, 252
-0.995818, 61, 209, 92, 333
-0.995868, 341, 1, 372, 256
-0.995918, 129, 85, 256, 116
-0.995943, 257, 109, 384, 140
-0.996004, 413, 145, 444, 272
-0.996045, 1, 257, 500, 320
-0.996052, 81, 113, 208, 144
-0.996068, 89, 1, 120, 256
-0.996075, 381, 97, 412, 224
-0.996078, 353, 1, 384, 256
-0.996117, 37, 193, 68, 320
-0.996147, 121, 1, 152, 256
-0.996154, 225, 1, 256, 256
-0.996158, 129, 241, 256, 272
-0.996177, 193, 193, 320, 224
-0.996184, 437, 113, 468, 240
-0.996233, 257, 249, 500, 312
-0.996245, 337, 45, 352, 76
-0.99628, 29, 1, 60, 256
-0.996323, 321, 77, 448, 108
-0.996333, 337, 133, 464, 164
-0.996374, 137, 1, 168, 256
-0.996391, 25, 97, 56, 224
-0.996398, 17, 197, 144, 228
-0.996417, 257, 173, 384, 204
-0.996423, 41, 1, 72, 256
-0.996424, 203, 93, 218, 124
-0.996427, 219, 101, 234, 132
-0.996461, 113, 37, 240, 68
-0.99648, 305, 285, 432, 316
-0.996512, 17, 65, 144, 96
-0.996522, 305, 21, 432, 52
-0.996554, 337, 117, 464, 148
-0.996564, 273, 193, 304, 320
-0.996575, 11, 9, 26, 40
-0.996614, 283, 89, 298, 120
-0.996619, 241, 225, 368, 256
-0.996621, 177, 217, 304, 248
-0.996648, 53, 1, 84, 256
-0.996664, 275, 101, 290, 132
-0.996692, 343, 49, 358, 80
-0.996712, 223, 113, 238, 144
-0.996729, 365, 1, 396, 256
-0.996736, 369, 37, 496, 68
-0.996741, 225, 245, 352, 276
-0.996771, 231, 117, 246, 148
-0.996785, 157, 13, 172, 44
-0.996798, 353, 89, 480, 120
-0.996815, 91, 9, 106, 40
-0.996815, 295, 85, 310, 116
-0.996828, 5, 1, 20, 32
-0.996862, 349, 57, 364, 88
-0.996867, 289, 85, 304, 116
-0.996869, 263, 125, 278, 156
-0.996871, 213, 101, 228, 132
-0.996878, 81, 233, 208, 264
-0.996881, 339, 33, 354, 64
-0.996895, 303, 73, 318, 104
-0.996911, 105, 9, 120, 40
-0.99692, 209, 89, 224, 120
-0.996932, 359, 301, 374, 332
-0.996939, 149, 5, 164, 36
-0.996946, 353, 13, 480, 44
-0.996957, 165, 21, 180, 52
-0.997, 31, 1, 46, 32
-0.997006, 237, 1, 268, 256
-0.997017, 335, 297, 350, 328
-0.997027, 229, 225, 244, 256
-0.99703, 275, 117, 290, 148
-0.997031, 199, 105, 214, 136
-0.997038, 333, 33, 348, 64
-0.997038, 65, 69, 192, 100
-0.997044, 111, 177, 126, 208
-0.997047, 241, 189, 368, 220
-0.997064, 69, 1, 100, 256
-0.997069, 237, 225, 252, 256
-0.997075, 33, 209, 160, 240
-0.99709, 269, 125, 284, 156
-0.997099, 1, 233, 500, 296
-0.997101, 321, 169, 448, 232
-0.997111, 199, 129, 214, 160
-0.997116, 43, 29, 58, 60
-0.997121, 219, 81, 234, 112
-0.997124, 323, 121, 338, 152
-0.99713, 113, 61, 240, 92
-0.997138, 29, 33, 44, 64
-0.99714, 197, 89, 212, 120
-0.997143, 355, 61, 370, 92
-0.997154, 405, 1, 436, 256
-0.997155, 129, 261, 256, 292
-0.997168, 237, 121, 252, 152
-0.997177, 327, 301, 342, 332
-0.997207, 217, 217, 232, 248
-0.997207, 337, 57, 352, 88
-0.997214, 189, 93, 204, 124
-0.997215, 189, 153, 204, 184
-0.997216, 99, 17, 114, 48
-0.997219, 353, 241, 480, 272
-0.997225, 33, 97, 160, 128
-0.997227, 353, 285, 480, 316
-0.997234, 105, 185, 120, 216
-0.99725, 223, 225, 238, 256
-0.997252, 179, 169, 194, 200
-0.997266, 313, 125, 328, 156
-0.997275, 149, 165, 164, 196
-0.997277, 137, 13, 152, 44
-0.997294, 185, 165, 200, 196
-0.997295, 321, 145, 448, 176
-0.997317, 365, 33, 380, 64
-0.997321, 273, 241, 400, 272
-0.997333, 119, 149, 134, 180
-0.997342, 191, 21, 206, 52
-0.99735, 329, 57, 344, 88
-0.997353, 161, 101, 176, 132
-0.997358, 253, 53, 268, 84
-0.997358, 217, 229, 232, 260
-0.997362, 99, 1, 114, 32
-0.997368, 85, 1, 100, 32
-0.997369, 337, 69, 352, 100
-0.997378, 145, 149, 160, 180
-0.997379, 109, 25, 124, 56
-0.99738, 37, 17, 52, 48
-0.997385, 1, 185, 500, 248
-0.997386, 177, 133, 192, 164
-0.997388, 177, 293, 304, 324
-0.99739, 219, 17, 234, 48
-0.997391, 65, 53, 192, 84
-0.997397, 327, 45, 342, 76
-0.997408, 259, 49, 274, 80
-0.997414, 283, 105, 298, 136
-0.997424, 143, 9, 158, 40
-0.997428, 369, 229, 496, 260
-0.997428, 279, 29, 294, 60
-0.99743, 269, 113, 284, 144
-0.997431, 213, 113, 228, 144
-0.997443, 173, 17, 188, 48
-0.997444, 17, 1, 32, 32
-0.997445, 255, 37, 270, 68
-0.997446, 113, 49, 240, 80
-0.997451, 179, 153, 194, 184
-0.997462, 207, 121, 222, 152
-0.997462, 53, 25, 68, 56
-0.997504, 189, 141, 204, 172
-0.997504, 69, 21, 84, 52
-0.997511, 289, 101, 304, 132
-0.997519, 151, 217, 166, 248
-0.997519, 209, 5, 336, 36
-0.997521, 431, 297, 446, 328
-0.997523, 361, 53, 376, 84
-0.997533, 343, 61, 358, 92
-0.997548, 177, 261, 304, 292
-0.997548, 235, 21, 250, 52
-0.99755, 279, 9, 294, 40
-0.997558, 17, 1, 48, 256
-0.997565, 179, 217, 194, 248
-0.997566, 93, 29, 108, 60
-0.997566, 397, 301, 412, 332
-0.99757, 199, 21, 214, 52
-0.997573, 21, 13, 36, 44
-0.997574, 1, 257, 256, 320
-0.997575, 155, 157, 170, 188
-0.997576, 125, 25, 140, 56
-0.997587, 209, 21, 224, 52
-0.997588, 141, 25, 156, 56
-0.997591, 37, 1, 52, 32
-0.997595, 173, 169, 188, 200
-0.997601, 291, 73, 306, 104
-0.997601, 141, 133, 156, 164
-0.997601, 131, 13, 146, 44
-0.997603, 11, 21, 26, 52
-0.997614, 45, 1, 60, 32
-0.99762, 151, 25, 166, 56
-0.997621, 387, 301, 402, 332
-0.997632, 207, 105, 222, 136
-0.997632, 443, 301, 458, 332
-0.997634, 265, 137, 280, 168
-0.997636, 1, 137, 128, 168
-0.997641, 273, 5, 400, 36
-0.997645, 5, 21, 20, 52
-0.997649, 243, 225, 258, 256
-0.997655, 301, 89, 316, 120
-0.997666, 13, 33, 28, 64
-0.997666, 193, 113, 208, 144
-0.997666, 349, 297, 364, 328
-0.99767, 153, 105, 168, 136
-0.997674, 257, 285, 384, 316
-0.997675, 239, 193, 254, 224
-0.997676, 327, 133, 342, 164
-0.997676, 255, 17, 270, 48
-0.997679, 39, 45, 54, 76
-0.997681, 21, 25, 36, 56
-0.997684, 297, 153, 312, 184
-0.997687, 143, 113, 158, 144
-0.997688, 333, 137, 348, 168
-0.99769, 51, 41, 66, 72
-0.997692, 369, 61, 496, 92
-0.997693, 255, 1, 270, 32
-0.997693, 197, 181, 212, 212
-0.9977, 257, 1, 500, 64
-0.997704, 225, 213, 352, 244
-0.997792, 1, 241, 128, 272
-0.997795, 393, 1, 424, 256
-0.997803, 81, 245, 208, 276
-0.997842, 381, 1, 412, 256
-0.997858, 369, 77, 496, 108
-0.997869, 145, 281, 272, 312
-0.997919, 225, 257, 352, 288
-0.997929, 369, 273, 496, 304
-0.997932, 17, 257, 144, 288
-0.997944, 369, 1, 496, 32
-0.998103, 5, 1, 36, 256
-0.998136, 17, 285, 144, 316
-0.998182, 425, 1, 456, 256
-0.998211, 257, 201, 384, 232
-0.998237, 289, 229, 416, 260
-0.998288, 209, 281, 336, 312
-0.998303, 275, 17, 290, 144
-0.998355, 283, 33, 298, 160
-0.99836, 29, 1, 44, 128
-0.998362, 321, 35, 384, 50
-0.998377, 321, 55, 384, 70
-0.998384, 305, 189, 432, 220
-0.998387, 209, 229, 272, 244
-0.998387, 281, 41, 344, 56
-0.998398, 209, 135, 272, 150
-0.998399, 209, 237, 272, 252
-0.998403, 25, 1, 88, 16
-0.998404, 177, 97, 240, 112
-0.998406, 9, 31, 72, 46
-0.998412, 209, 129, 272, 144
-0.998416, 321, 61, 384, 76
-0.998423, 321, 49, 384, 64
-0.998424, 57, 23, 120, 38
-0.998425, 273, 91, 336, 106
-0.998425, 137, 221, 200, 236
-0.998428, 193, 123, 256, 138
-0.998429, 305, 273, 432, 304
-0.99843, 137, 127, 200, 142
-0.99843, 217, 203, 280, 218
-0.998433, 113, 15, 176, 30
-0.998434, 105, 155, 168, 170
-0.998437, 105, 187, 168, 202
-0.998437, 265, 99, 328, 114
-0.998443, 177, 129, 240, 144
-0.998445, 321, 253, 448, 284
-0.998445, 113, 167, 176, 182
-0.998445, 357, 1, 372, 128
-0.998445, 217, 121, 280, 136
-0.998447, 321, 41, 384, 56
-0.998448, 153, 19, 216, 34
-0.998451, 161, 103, 224, 118
-0.998457, 169, 167, 232, 182
-0.99846, 9, 25, 72, 40
-0.998462, 193, 207, 256, 222
-0.998462, 9, 37, 72, 52
-0.998462, 209, 243, 272, 258
-0.998462, 289, 81, 352, 96
-0.998464, 137, 147, 200, 162
-0.998464, 145, 153, 208, 168
-0.998468, 145, 161, 208, 176
-0.998469, 393, 303, 456, 318
-0.99847, 321, 29, 384, 44
-0.998471, 137, 175, 200, 190
-0.998474, 121, 121, 184, 136
-0.998475, 345, 51, 408, 66
-0.998477, 217, 223, 280, 238
-0.998477, 329, 69, 392, 84
-0.998478, 297, 75, 360, 90
-0.998478, 313, 305, 376, 320
-0.998479, 257, 79, 320, 94
-0.998479, 233, 115, 296, 130
-0.99848, 145, 183, 208, 198
-0.998481, 81, 21, 144, 36
-0.998484, 105, 175, 168, 190
-0.998486, 49, 3, 112, 18
-0.998487, 73, 179, 136, 194
-0.998487, 343, 1, 358, 128
-0.998489, 241, 101, 304, 116
-0.99849, 25, 17, 88, 32
-0.998493, 153, 97, 216, 112
-0.998493, 21, 25, 52, 40
-0.998493, 221, 103, 252, 118
-0.998493, 137, 9, 200, 24
-0.998494, 297, 69, 360, 84
-0.998494, 421, 309, 452, 324
-0.998495, 281, 77, 312, 92
-0.998496, 337, 305, 400, 320
-0.998496, 361, 55, 392, 70
-0.998496, 25, 51, 88, 66
-0.998497, 265, 33, 280, 160
-0.998498, 181, 153, 212, 168
-0.998498, 185, 113, 248, 128
-0.998498, 169, 25, 232, 40
-0.9985, 265, 47, 296, 62
-0.9985, 245, 127, 276, 142
-0.9985, 353, 67, 384, 82
-0.9985, 237, 23, 268, 38
-0.998501, 241, 237, 272, 252
-0.998501, 217, 69, 280, 84
-0.998501, 49, 29, 112, 44
-0.998501, 401, 309, 464, 324
-0.998501, 33, 23, 96, 38
-0.998502, 145, 219, 176, 234
-0.998502, 193, 215, 256, 230
-0.998502, 281, 41, 312, 56
-0.998502, 249, 91, 312, 106
-0.998502, 17, 31, 48, 46
-0.998503, 113, 21, 144, 36
-0.998504, 97, 159, 128, 174
-0.998504, 81, 81, 144, 96
-0.998504, 177, 19, 240, 34
-0.998505, 5, 35, 36, 50
-0.998505, 217, 221, 248, 236
-0.998505, 137, 133, 200, 148
-0.998505, 85, 21, 116, 36
-0.998506, 185, 237, 248, 252
-0.998506, 105, 9, 136, 24
-0.998507, 9, 43, 72, 58
-0.998507, 105, 181, 168, 196
-0.998508, 89, 5, 152, 20
-0.998508, 229, 129, 260, 144
-0.998509, 201, 101, 264, 116
-0.998509, 377, 49, 440, 64
-0.998509, 277, 97, 292, 224
-0.99851, 245, 137, 276, 152
-0.99851, 73, 169, 136, 184
-0.998511, 57, 11, 120, 26
-0.998511, 217, 211, 280, 226
-0.998512, 281, 83, 312, 98
-0.998512, 297, 137, 360, 152
-0.998512, 297, 153, 360, 168
-0.998512, 229, 201, 260, 216
-0.998513, 93, 191, 124, 206
-0.998514, 249, 85, 312, 100
-0.998514, 13, 57, 44, 72
-0.998514, 153, 19, 184, 34
-0.998514, 385, 307, 416, 322
-0.998515, 145, 1, 208, 16
-0.998515, 269, 97, 300, 112
-0.998515, 113, 193, 176, 208
-0.998516, 39, 1, 54, 128
-0.998516, 169, 153, 232, 168
-0.998516, 313, 147, 376, 162
-0.998517, 305, 127, 368, 142
-0.998518, 197, 25, 228, 40
-0.998518, 149, 103, 180, 118
-0.998519, 249, 53, 280, 68
-0.998519, 297, 39, 328, 54
-0.998519, 85, 15, 116, 30
-0.998519, 345, 45, 408, 60
-0.99852, 113, 9, 176, 24
-0.99852, 241, 1, 304, 16
-0.998521, 169, 181, 232, 196
-0.998521, 193, 179, 224, 194
-0.998522, 365, 17, 380, 144
-0.998522, 169, 155, 200, 170
-0.998522, 113, 149, 176, 164
-0.998523, 249, 133, 312, 148
-0.998523, 217, 107, 280, 122
-0.998523, 117, 149, 148, 164
-0.998524, 209, 107, 240, 122
-0.998524, 225, 197, 288, 212
-0.998524, 297, 81, 328, 96
-0.998525, 153, 209, 216, 224
-0.998525, 73, 185, 136, 200
-0.998526, 81, 29, 144, 44
-0.998526, 229, 121, 260, 136
-0.998527, 201, 23, 264, 38
-0.998527, 301, 87, 332, 102
-0.998527, 333, 297, 364, 312
-0.998528, 177, 135, 240, 150
-0.998528, 225, 43, 288, 58
-0.998528, 313, 127, 344, 142
-0.998529, 241, 219, 272, 234
-0.99853, 345, 57, 376, 72
-0.99853, 369, 307, 432, 322
-0.99853, 249, 43, 280, 58
-0.998531, 125, 141, 156, 156
-0.998531, 265, 127, 296, 142
-0.998531, 325, 63, 356, 78
-0.998531, 225, 207, 256, 222
-0.998532, 321, 315, 384, 330
-0.998532, 269, 117, 300, 132
-0.998532, 137, 169, 200, 184
-0.998532, 297, 47, 360, 62
-0.998532, 53, 1, 84, 16
-0.998533, 109, 179, 140, 194
-0.998533, 229, 221, 260, 236
-0.998534, 193, 221, 256, 236
-0.998534, 321, 313, 352, 328
-0.998534, 181, 179, 212, 194
-0.998535, 257, 133, 288, 148
-0.998535, 321, 133, 384, 148
-0.998535, 181, 133, 212, 148
-0.998535, 265, 105, 328, 120
-0.998536, 49, 31, 80, 46
-0.998537, 177, 97, 208, 112
-0.998537, 305, 151, 336, 166
-0.998537, 313, 299, 376, 314
-0.998538, 257, 73, 320, 88
-0.998538, 93, 9, 124, 24
-0.998538, 257, 273, 384, 304
-0.998539, 1, 9, 64, 24
-0.998539, 185, 187, 248, 202
-0.998539, 217, 79, 280, 94
-0.998539, 185, 107, 248, 122
-0.99854, 201, 87, 264, 102
-0.998541, 409, 307, 440, 322
-0.998541, 25, 57, 88, 72
-0.998541, 353, 301, 384, 316
-0.998541, 425, 43, 488, 58
-0.998541, 185, 227, 248, 242
-0.998542, 257, 125, 320, 140
-0.998542, 97, 25, 128, 40
-0.998542, 65, 75, 128, 90
-0.998542, 137, 141, 200, 156
-0.998543, 289, 35, 352, 50
-0.998543, 345, 57, 408, 72
-0.998543, 241, 7, 304, 22
-0.998544, 113, 1, 176, 16
-0.998544, 201, 95, 232, 110
-0.998544, 137, 117, 168, 132
-0.998545, 373, 309, 404, 324
-0.998545, 161, 239, 224, 254
-0.998545, 321, 75, 384, 90
-0.998545, 301, 81, 316, 208
-0.998545, 161, 117, 224, 132
-0.998546, 17, 45, 48, 60
-0.998546, 97, 129, 160, 144
-0.998546, 161, 99, 192, 114
-0.998547, 29, 31, 60, 46
-0.998547, 29, 3, 60, 18
-0.998548, 205, 87, 236, 102
-0.998549, 25, 53, 56, 68
-0.998551, 1, 21, 32, 36
-0.998552, 341, 29, 372, 44
-0.998552, 177, 19, 208, 34
-0.998556, 145, 153, 176, 168
-0.998556, 69, 1, 84, 128
-0.998557, 221, 23, 252, 38
-0.998558, 325, 39, 356, 54
-0.998561, 109, 155, 140, 170
-0.998562, 173, 217, 204, 232
-0.998562, 211, 81, 226, 208
-0.998563, 97, 19, 128, 34
-0.998563, 267, 81, 282, 208
-0.998564, 205, 121, 236, 136
-0.998564, 293, 97, 324, 112
-0.998564, 169, 175, 200, 190
-0.998565, 77, 7, 108, 22
-0.998566, 301, 75, 332, 90
-0.998567, 217, 229, 248, 244
-0.998567, 17, 39, 48, 54
-0.998567, 197, 127, 228, 142
-0.998568, 229, 237, 260, 252
-0.998568, 65, 23, 96, 38
-0.998568, 169, 149, 200, 164
-0.998569, 181, 103, 212, 118
-0.99857, 129, 183, 160, 198
-0.998571, 333, 73, 364, 88
-0.998571, 137, 9, 168, 24
-0.998573, 201, 211, 232, 226
-0.998573, 21, 19, 52, 34
-0.998576, 167, 1, 182, 128
-0.998578, 273, 109, 304, 124
-0.998579, 17, 3, 48, 18
-0.998579, 277, 103, 308, 118
-0.99858, 1, 3, 32, 18
-0.99858, 307, 17, 322, 144
-0.998582, 29, 37, 60, 52
-0.998584, 101, 185, 132, 200
-0.998591, 181, 169, 212, 184
-0.998591, 217, 127, 248, 142
-0.998593, 13, 13, 44, 28
-0.998594, 165, 21, 196, 36
-0.998602, 341, 65, 372, 80
-0.998604, 189, 95, 220, 110
-0.998605, 321, 307, 352, 322
-0.998607, 337, 1, 352, 128
-0.998609, 1, 9, 32, 24
-0.99861, 157, 1, 172, 128
-0.998611, 321, 301, 352, 316
-0.998611, 213, 113, 244, 128
-0.998616, 341, 309, 372, 324
-0.998617, 193, 81, 208, 208
-0.998619, 197, 109, 228, 124
-0.998619, 237, 227, 268, 242
-0.998623, 93, 3, 124, 18
-0.998623, 217, 237, 248, 252
-0.998625, 55, 1, 70, 128
-0.998632, 223, 65, 238, 192
-0.99864, 281, 97, 312, 112
-0.998642, 65, 1, 96, 16
-0.998643, 281, 89, 312, 104
-0.998644, 293, 81, 308, 208
-0.998648, 223, 113, 238, 240
-0.998649, 283, 81, 298, 208
-0.998657, 353, 307, 384, 322
-0.998658, 351, 1, 366, 128
-0.99866, 183, 1, 198, 128
-0.99866, 217, 119, 248, 134
-0.998661, 333, 303, 364, 318
-0.998662, 179, 81, 194, 208
-0.998669, 329, 49, 360, 64
-0.998675, 217, 65, 232, 192
-0.998681, 75, 1, 90, 128
-0.998681, 213, 17, 228, 144
-0.998689, 201, 101, 232, 116
-0.998692, 333, 55, 364, 70
-0.998693, 11, 1, 26, 128
-0.998694, 319, 65, 334, 192
-0.998701, 239, 193, 254, 320
-0.998702, 289, 1, 304, 128
-0.998702, 177, 1, 192, 128
-0.998725, 219, 1, 234, 128
-0.998727, 159, 97, 174, 224
-0.99873, 151, 113, 166, 240
-0.998731, 185, 145, 200, 272
-0.998739, 141, 113, 156, 240
-0.998741, 357, 49, 372, 176
-0.998743, 301, 1, 316, 128
-0.99875, 259, 33, 274, 160
-0.998751, 233, 177, 248, 304
-0.99876, 189, 1, 204, 128
-0.998764, 63, 1, 78, 128
-0.998769, 187, 81, 202, 208
-0.99878, 203, 97, 218, 224
-0.998803, 331, 1, 346, 128
-0.998804, 81, 1, 96, 128
-0.99881, 109, 1, 124, 128
-0.998813, 143, 1, 158, 128
-0.998814, 231, 49, 246, 176
-0.998818, 207, 17, 222, 144
-0.99882, 169, 97, 184, 224
-0.99882, 45, 17, 60, 144
-0.998822, 133, 1, 148, 128
-0.998825, 325, 1, 340, 128
-0.998826, 149, 161, 164, 288
-0.998827, 325, 49, 340, 176
-0.998831, 229, 113, 244, 240
-0.998844, 105, 129, 120, 256
-0.998844, 311, 65, 326, 192
-0.998846, 195, 17, 210, 144
-0.998853, 149, 49, 164, 176
-0.998864, 115, 113, 130, 240
-0.998873, 333, 49, 348, 176
-0.99888, 191, 177, 206, 304
-0.998884, 295, 33, 310, 160
-0.998887, 253, 1, 268, 128
-0.998899, 461, 1, 492, 256
-0.9989, 201, 17, 216, 144
-0.9989, 99, 161, 114, 288
-0.998918, 161, 161, 176, 288
-0.99892, 217, 129, 232, 256
-0.998921, 225, 1, 240, 128
-0.998922, 237, 33, 252, 160
-0.998924, 369, 65, 384, 192
-0.998925, 317, 1, 332, 128
-0.998928, 435, 49, 450, 176
-0.998932, 129, 113, 144, 240
-0.998947, 149, 1, 164, 128
-0.998953, 135, 113, 150, 240
-0.998972, 103, 1, 118, 128
-0.998976, 121, 145, 136, 272
-0.998979, 245, 193, 260, 320
-0.998981, 97, 113, 112, 240
-0.998981, 227, 193, 242, 320
-0.998991, 129, 65, 144, 192
-0.998994, 141, 65, 156, 192
-0.998996, 3, 1, 18, 128
-0.998998, 193, 129, 208, 256
-0.999, 87, 1, 102, 128
-0.999015, 179, 161, 194, 288
-0.999018, 89, 145, 104, 272
-0.999022, 115, 1, 130, 128
-0.999022, 375, 1, 390, 128
-0.999033, 121, 65, 136, 192
-0.999036, 247, 1, 262, 128
-0.99904, 165, 49, 180, 176
-0.999045, 363, 65, 378, 192
-0.999045, 57, 145, 72, 272
-0.999046, 83, 113, 98, 240
-0.999056, 91, 97, 106, 224
-0.999059, 121, 1, 136, 128
-0.999068, 159, 49, 174, 176
-0.999068, 97, 1, 112, 128
-0.999076, 135, 49, 150, 176
-0.999077, 351, 49, 366, 176
-0.999079, 173, 49, 188, 176
-0.999082, 115, 65, 130, 192
-0.999085, 21, 1, 36, 128
-0.999088, 155, 161, 170, 288
-0.999095, 265, 129, 280, 256
-0.999102, 265, 193, 280, 320
-0.999102, 343, 49, 358, 176
-0.999102, 169, 161, 184, 288
-0.999107, 235, 113, 250, 240
-0.999119, 77, 129, 92, 256
-0.99912, 105, 81, 120, 208
-0.999126, 397, 1, 412, 128
-0.999129, 253, 49, 268, 176
-0.999153, 437, 65, 468, 320
-0.999159, 197, 177, 212, 304
-0.999161, 71, 49, 86, 176
-0.999169, 325, 113, 340, 240
-0.999179, 93, 209, 108, 333
-0.999179, 127, 1, 142, 128
-0.999185, 13, 49, 28, 176
-0.999186, 65, 129, 80, 256
-0.999192, 83, 161, 98, 288
-0.9992, 429, 65, 444, 192
-0.999203, 299, 145, 314, 272
-0.999219, 449, 33, 480, 288
-0.999685, 459, 313, 474, 328
-0.999685, 353, 71, 368, 86
-0.999686, 53, 31, 68, 46
-0.999686, 405, 307, 420, 322
-0.999686, 105, 5, 120, 20
-0.999687, 353, 63, 368, 78
-0.999687, 181, 165, 196, 180
-0.999688, 229, 23, 244, 38
-0.999688, 435, 311, 450, 326
-0.999688, 179, 177, 194, 192
-0.999688, 341, 305, 356, 320
-0.999688, 449, 307, 464, 322
-0.999688, 19, 3, 34, 18
-0.999689, 175, 219, 190, 234
-0.999689, 239, 195, 254, 210
-0.999689, 13, 13, 28, 28
-0.99969, 151, 115, 166, 130
-0.999691, 207, 185, 222, 200
-0.999691, 329, 49, 344, 64
-0.999691, 279, 39, 294, 54
-0.999692, 325, 147, 340, 162
-0.999692, 225, 123, 240, 138
-0.999692, 151, 107, 166, 122
-0.999693, 111, 175, 126, 190
-0.999693, 145, 151, 160, 166
-0.999694, 235, 23, 250, 38
-0.999694, 259, 53, 274, 68
-0.999694, 227, 115, 242, 130
-0.999695, 99, 9, 114, 24
-0.999695, 147, 169, 162, 184
-0.999696, 225, 237, 240, 252
-0.999699, 191, 159, 206, 174
-0.999699, 189, 105, 204, 120
-0.9997, 465, 309, 480, 324
-0.9997, 213, 23, 228, 38
-0.999701, 157, 27, 172, 42
-0.999701, 319, 123, 334, 138
-0.999701, 435, 305, 450, 320
-0.999702, 199, 181, 214, 196
-0.999702, 197, 137, 212, 152
-0.999703, 209, 93, 224, 108
-0.999704, 197, 143, 212, 158
-0.999705, 233, 221, 248, 236
-0.999707, 243, 237, 258, 252
-0.999708, 173, 99, 188, 114
-0.999708, 231, 237, 246, 252
-0.999709, 21, 13, 36, 28
-0.999709, 117, 155, 132, 170
-0.99971, 341, 67, 356, 82
-0.999711, 189, 185, 204, 200
-0.999712, 343, 73, 358, 88
-0.999714, 63, 1, 78, 16
-0.999714, 329, 37, 344, 52
-0.999715, 427, 309, 442, 324
-0.999715, 165, 155, 180, 170
-0.999716, 179, 139, 194, 154
-0.999716, 271, 123, 286, 138
-0.999717, 235, 229, 250, 244
-0.999717, 359, 65, 374, 80
-0.999719, 219, 237, 234, 252
-0.999721, 295, 81, 310, 96
-0.999721, 115, 183, 130, 198
-0.999722, 277, 105, 292, 120
-0.999722, 355, 303, 370, 318
-0.999723, 287, 89, 302, 104
-0.999723, 191, 153, 206, 168
-0.999723, 393, 305, 408, 320
-0.999724, 105, 11, 120, 26
-0.999726, 91, 11, 106, 26
-0.999727, 107, 25, 122, 40
-0.999728, 221, 105, 236, 120
-0.999728, 11, 19, 26, 34
-0.99973, 349, 305, 364, 320
-0.999731, 105, 19, 120, 34
-0.999731, 297, 97, 312, 112
-0.999731, 337, 73, 352, 88
-0.999732, 215, 101, 230, 116
-0.999732, 167, 21, 182, 36
-0.999732, 237, 237, 252, 252
-0.999733, 199, 101, 214, 116
-0.999733, 333, 313, 348, 328
-0.999733, 31, 3, 46, 18
-0.999735, 183, 21, 198, 36
-0.999735, 175, 21, 190, 36
-0.999736, 377, 305, 392, 320
-0.999736, 81, 1, 96, 16
-0.999737, 443, 307, 458, 322
-0.999737, 177, 171, 192, 186
-0.999738, 7, 3, 22, 18
-0.999742, 191, 147, 206, 162
-0.999743, 199, 129, 214, 144
-0.999744, 283, 97, 298, 112
-0.999744, 69, 1, 84, 16
-0.999746, 181, 149, 196, 164
-0.999746, 219, 115, 234, 130
-0.999748, 367, 309, 382, 324
-0.999748, 43, 31, 58, 46
-0.999748, 329, 299, 344, 314
-0.999749, 187, 165, 202, 180
-0.999752, 373, 311, 388, 326
-0.999752, 87, 5, 102, 20
-0.999754, 335, 307, 350, 322
-0.999754, 191, 137, 206, 152
-0.999754, 267, 129, 282, 144
-0.999758, 275, 113, 290, 128
-0.999759, 335, 57, 350, 72
-0.999759, 207, 105, 222, 120
-0.99976, 335, 299, 350, 314
-0.999761, 99, 3, 114, 18
-0.999762, 149, 7, 164, 22
-0.999765, 383, 307, 398, 322
-0.999776, 203, 95, 218, 110
-0.999777, 349, 57, 364, 72
-0.999778, 201, 107, 216, 122
-0.999783, 233, 119, 248, 134
-0.999783, 365, 303, 380, 318
-0.999784, 239, 123, 254, 138
-0.999791, 301, 79, 316, 94
-0.999792, 7, 9, 22, 24
-0.999793, 325, 305, 340, 320
-0.999795, 215, 109, 230, 124
-0.999798, 343, 55, 358, 70
-0.999803, 75, 1, 90, 16
-0.999804, 343, 49, 358, 64
-0.999804, 333, 43, 348, 58
-0.999816, 337, 51, 352, 66
-0.999818, 359, 309, 374, 324
-0.999821, 293, 87, 308, 102
-0.999837, 209, 99, 224, 114
-0.99985, 261, 135, 276, 150
