1951
-0.109197, 1, 1, 500, 375
-0.285255, 1, 129, 500, 375
-0.328379, 1, 1, 500, 256
-0.336327, 193, 1, 448, 375
-0.337463, 65, 1, 320, 375
-0.503741, 193, 129, 448, 375
-0.508609, 1, 129, 256, 375
-0.538906, 65, 1, 320, 256
-0.554502, 225, 1, 480, 256
-0.576648, 97, 97, 352, 352
-0.814627, 273, 1, 400, 375
-0.834896, 225, 1, 352, 375
-0.845691, 209, 129, 336, 375
-0.849127, 177, 1, 304, 256
-0.851108, 17, 129, 144, 375
-0.854906, 81, 1, 208, 256
-0.855387, 257, 1, 384, 256
-0.858911, 17, 33, 144, 288
-0.859969, 145, 1, 272, 375
-0.862455, 81, 1, 208, 375
-0.864231, 337, 129, 464, 375
-0.869198, 113, 97, 240, 352
-0.871506, 33, 1, 160, 375
-0.872427, 289, 97, 416, 352
-0.874139, 1, 129, 500, 256
-0.876221, 65, 129, 192, 375
-0.87806, 1, 177, 500, 304
-0.880807, 369, 1, 496, 375
-0.886343, 1, 225, 500, 352
-0.893996, 1, 17, 500, 144
-0.895564, 129, 1, 256, 256
-0.895622, 193, 193, 448, 320
-0.895628, 321, 1, 448, 375
-0.898576, 369, 1, 496, 256
-0.90256, 129, 1, 384, 128
-0.902855, 161, 97, 288, 352
-0.905493, 33, 113, 288, 240
-0.909462, 257, 113, 500, 240
-0.911849, 1, 81, 500, 208
-0.915048, 193, 241, 448, 368
-0.918754, 65, 49, 320, 176
-0.919949, 161, 65, 416, 192
-0.925107, 33, 177, 288, 304
-0.925879, 257, 65, 500, 192
-0.927814, 305, 225, 432, 352
-0.928177, 97, 241, 352, 368
-0.929013, 321, 1, 448, 256
-0.929081, 209, 177, 336, 304
-0.929585, 209, 1, 336, 128
-0.930317, 33, 1, 288, 128
-0.930406, 313, 225, 376, 352
-0.930427, 129, 145, 384, 272
-0.93182, 241, 1, 304, 128
-0.933097, 33, 129, 160, 256
-0.935119, 353, 209, 416, 336
-0.935493, 225, 17, 480, 144
-0.937197, 161, 1, 288, 128
-0.937875, 257, 1, 384, 128
-0.939639, 145, 113, 272, 240
-0.942793, 137, 17, 200, 144
-0.944181, 201, 241, 264, 368
-0.944331, 41, 129, 104, 256
-0.94438, 81, 113, 208, 240
-0.945499, 369, 209, 496, 336
-0.945744, 361, 161, 424, 288
-0.945784, 265, 1, 328, 128
-0.946139, 257, 65, 384, 192
-0.946423, 257, 225, 384, 352
-0.946514, 209, 225, 336, 352
-0.946747, 321, 161, 448, 288
-0.947783, 377, 209, 440, 336
-0.947895, 401, 193, 464, 320
-0.947914, 217, 1, 280, 128
-0.948231, 89, 113, 152, 240
-0.948334, 241, 9, 304, 72
-0.948436, 337, 33, 464, 160
-0.948769, 81, 33, 208, 160
-0.949243, 281, 209, 344, 336
-0.95005, 241, 161, 304, 288
-0.950231, 345, 241, 408, 304
-0.95027, 369, 81, 496, 208
-0.950617, 17, 65, 144, 192
-0.95082, 169, 1, 232, 128
-0.951146, 273, 25, 336, 88
-0.951387, 209, 129, 336, 256
-0.951959, 1, 225, 256, 352
-0.952084, 241, 305, 304, 368
-0.952166, 305, 233, 368, 296
-0.952251, 137, 25, 200, 88
-0.952529, 145, 241, 272, 368
-0.95281, 129, 161, 256, 288
-0.953575, 401, 129, 464, 256
-0.953951, 113, 113, 176, 240
-0.953954, 265, 313, 328, 375
-0.954189, 305, 273, 368, 336
-0.95445, 321, 177, 384, 304
-0.954977, 241, 49, 304, 176
-0.955413, 289, 17, 352, 144
-0.956109, 289, 113, 416, 240
-0.956306, 177, 49, 304, 176
-0.957592, 73, 49, 136, 176
-0.957685, 49, 65, 112, 192
-0.957723, 433, 65, 496, 192
-0.958255, 193, 1, 256, 128
-0.958542, 225, 97, 288, 224
-0.958557, 297, 49, 360, 112
-0.959351, 265, 145, 328, 272
-0.959731, 17, 145, 80, 272
-0.959797, 161, 113, 224, 240
-0.959912, 41, 153, 104, 216
-0.959953, 17, 209, 80, 336
-0.960079, 329, 49, 392, 176
-0.960366, 241, 33, 304, 96
-0.960832, 305, 25, 368, 88
-0.961077, 369, 129, 496, 256
-0.96121, 273, 289, 336, 352
-0.961581, 169, 17, 232, 80
-0.961588, 105, 33, 168, 160
-0.961896, 217, 305, 280, 368
-0.962041, 129, 49, 256, 176
-0.962045, 217, 193, 280, 320
-0.962558, 361, 265, 424, 328
-0.962606, 281, 233, 344, 296
-0.962617, 273, 65, 336, 192
-0.962749, 337, 217, 400, 280
-0.964049, 201, 113, 264, 240
-0.964174, 313, 209, 376, 272
-0.964215, 385, 193, 448, 256
-0.964452, 17, 177, 144, 304
-0.964459, 329, 265, 392, 328
-0.964626, 209, 9, 272, 72
-0.96463, 433, 17, 496, 144
-0.964703, 177, 241, 240, 368
-0.965244, 1, 161, 64, 224
-0.965285, 137, 113, 200, 240
-0.965312, 225, 161, 288, 224
-0.965316, 193, 65, 256, 192
-0.965396, 353, 289, 416, 352
-0.965929, 145, 65, 208, 192
-0.965996, 257, 177, 384, 304
-0.966029, 33, 241, 160, 368
-0.966053, 337, 129, 400, 256
-0.966093, 225, 241, 288, 368
-0.966269, 233, 1, 296, 256
-0.966362, 361, 217, 424, 280
-0.966477, 177, 313, 240, 375
-0.966515, 321, 57, 384, 120
-0.966765, 25, 65, 88, 192
-0.966811, 249, 241, 312, 368
-0.966811, 393, 217, 456, 280
-0.966872, 289, 161, 352, 288
-0.966884, 353, 129, 416, 375
-0.966935, 425, 129, 488, 256
-0.96696, 217, 49, 280, 176
-0.96703, 169, 65, 232, 192
-0.967247, 113, 25, 176, 88
-0.967291, 269, 297, 300, 360
-0.967413, 193, 161, 256, 288
-0.967414, 225, 113, 288, 176
-0.967675, 145, 121, 208, 184
-0.967699, 249, 169, 312, 232
-0.968094, 281, 265, 344, 328
-0.968182, 81, 129, 144, 192
-0.968358, 313, 1, 376, 128
-0.968487, 241, 97, 304, 352
-0.968593, 185, 257, 248, 320
-0.968841, 81, 49, 144, 112
-0.968966, 65, 177, 192, 304
-0.969073, 373, 225, 404, 352
-0.969618, 201, 281, 264, 344
-0.969669, 65, 129, 128, 256
-0.969727, 217, 33, 280, 96
-0.969821, 309, 209, 340, 336
-0.96987, 385, 265, 448, 328
-0.969984, 1, 185, 64, 248
-0.969987, 373, 257, 404, 320
-0.97032, 209, 193, 336, 256
-0.97037, 377, 169, 440, 232
-0.970413, 273, 193, 336, 256
-0.97046, 121, 129, 184, 192
-0.970555, 1, 65, 64, 192
-0.970806, 169, 121, 232, 184
-0.970831, 417, 153, 480, 216
-0.970838, 249, 97, 312, 224
-0.970885, 277, 1, 308, 128
-0.971068, 17, 129, 80, 375
-0.971087, 57, 177, 120, 304
-0.971171, 353, 169, 416, 232
-0.971301, 201, 233, 264, 296
-0.971344, 209, 17, 336, 80
-0.971402, 385, 233, 416, 296
-0.971465, 41, 225, 104, 352
-0.971497, 341, 209, 372, 336
-0.971521, 289, 241, 416, 304
-0.971595, 273, 49, 336, 112
-0.971603, 433, 105, 496, 168
-0.971881, 329, 225, 360, 352
-0.972246, 65, 137, 192, 200
-0.972254, 49, 33, 112, 288
-0.972316, 89, 1, 152, 256
-0.97232, 409, 177, 472, 240
-0.972367, 265, 145, 328, 208
-0.97238, 357, 233, 388, 296
-0.972387, 425, 281, 488, 344
-0.972649, 257, 73, 320, 136
-0.97268, 177, 41, 240, 104
-0.972706, 245, 1, 276, 128
-0.972745, 25, 177, 88, 240
-0.972828, 161, 297, 288, 360
-0.972937, 249, 193, 312, 256
-0.972951, 257, 1, 320, 256
-0.973016, 129, 313, 192, 375
-0.973109, 353, 145, 416, 208
-0.973144, 121, 1, 184, 256
-0.973169, 377, 289, 440, 352
-0.973263, 209, 1, 272, 256
-0.973273, 161, 289, 224, 352
-0.973306, 393, 145, 456, 208
-0.973365, 245, 9, 276, 72
-0.973393, 249, 281, 312, 344
-0.973434, 121, 105, 184, 168
-0.973563, 433, 49, 496, 112
-0.973605, 393, 161, 424, 288
-0.973606, 369, 241, 432, 304
-0.973707, 25, 33, 88, 288
-0.973709, 249, 97, 312, 160
-0.973742, 357, 225, 388, 352
-0.973777, 57, 129, 120, 375
-0.973795, 249, 305, 280, 368
-0.973887, 209, 305, 336, 368
-0.974113, 137, 1, 200, 64
-0.974164, 425, 241, 488, 368
-0.974343, 17, 217, 80, 280
-0.974362, 161, 9, 288, 72
-0.974373, 433, 81, 496, 144
-0.974498, 329, 33, 392, 96
-0.974673, 345, 233, 376, 296
-0.97469, 393, 209, 424, 336
-0.974851, 257, 1, 288, 128
-0.974877, 313, 185, 376, 248
-0.974937, 257, 25, 384, 88
-0.974996, 289, 73, 352, 136
-0.975001, 209, 89, 272, 152
-0.975101, 393, 121, 456, 184
-0.975125, 385, 81, 448, 208
-0.975252, 329, 241, 360, 304
-0.975273, 273, 9, 304, 72
-0.975465, 225, 185, 288, 248
-0.975483, 221, 241, 252, 368
-0.975747, 281, 33, 312, 96
-0.975863, 145, 1, 208, 256
-0.975884, 369, 233, 400, 296
-0.975957, 369, 281, 496, 344
-0.97605, 201, 177, 264, 240
-0.976087, 17, 273, 80, 336
-0.976139, 33, 17, 160, 144
-0.976165, 81, 241, 208, 368
-0.976224, 309, 257, 340, 320
-0.976227, 353, 193, 416, 256
-0.976229, 201, 209, 264, 272
-0.976237, 377, 129, 440, 375
-0.976245, 1, 33, 64, 288
-0.976544, 177, 113, 304, 176
-0.976557, 209, 249, 336, 312
-0.976572, 225, 233, 288, 296
-0.976578, 313, 233, 344, 296
-0.976627, 209, 41, 336, 104
-0.976775, 293, 25, 324, 88
-0.976781, 281, 1, 344, 64
-0.976789, 257, 281, 384, 344
-0.976796, 13, 169, 44, 232
-0.97685, 285, 289, 316, 352
-0.976908, 229, 297, 260, 360
-0.977003, 25, 161, 56, 224
-0.977005, 389, 257, 420, 320
-0.977035, 89, 129, 152, 375
-0.977071, 81, 33, 208, 96
-0.977097, 225, 209, 288, 272
-0.977172, 349, 257, 380, 320
-0.97718, 425, 193, 488, 320
-0.977233, 313, 25, 344, 88
-0.977276, 289, 241, 320, 304
-0.977284, 1, 145, 128, 208
-0.9773, 257, 57, 384, 120
-0.97736, 305, 65, 368, 192
-0.977432, 401, 97, 464, 352
-0.977487, 217, 193, 248, 320
-0.977571, 417, 201, 480, 264
-0.977599, 409, 209, 440, 336
-0.977684, 233, 209, 264, 336
-0.977777, 393, 241, 456, 304
-0.977864, 393, 281, 424, 344
-0.977869, 261, 153, 292, 216
-0.977912, 369, 145, 496, 208
-0.977945, 321, 297, 384, 360
-0.977963, 261, 9, 292, 72
-0.978002, 297, 177, 328, 304
-0.978075, 193, 113, 256, 176
-0.978235, 353, 17, 416, 144
-0.978235, 57, 129, 120, 192
-0.97841, 309, 49, 340, 112
-0.978542, 137, 57, 200, 120
-0.978562, 17, 177, 144, 240
-0.978664, 153, 241, 216, 368
-0.978665, 265, 49, 296, 176
-0.978702, 209, 217, 336, 280
-0.978733, 265, 97, 328, 352
-0.978829, 417, 129, 480, 192
-0.978896, 305, 1, 368, 256
-0.978901, 425, 1, 488, 256
-0.978901, 301, 209, 332, 272
-0.978989, 241, 137, 304, 200
-0.97904, 337, 265, 368, 328
-0.979056, 49, 65, 112, 128
-0.979083, 337, 225, 464, 288
-0.979154, 169, 1, 200, 128
-0.9792, 257, 305, 384, 368
-0.979228, 281, 1, 344, 256
-0.979255, 161, 33, 288, 96
-0.979273, 161, 33, 192, 96
-0.979343, 265, 33, 296, 96
-0.979414, 105, 313, 168, 375
-0.97949, 217, 129, 280, 375
-0.979546, 417, 193, 448, 256
-0.979568, 97, 105, 160, 168
-0.979577, 329, 81, 392, 144
-0.979612, 229, 1, 260, 128
-0.979727, 289, 217, 416, 280
-0.97981, 321, 193, 448, 256
-0.979816, 249, 1, 312, 375
-0.979826, 329, 57, 360, 120
-0.97983, 65, 225, 128, 352
-0.979885, 337, 41, 464, 104
-0.979941, 217, 1, 248, 128
-0.979946, 357, 289, 388, 352
-0.979975, 81, 1, 144, 128
-0.980078, 405, 193, 436, 256
-0.98008, 97, 313, 224, 375
-0.980113, 161, 161, 224, 224
-0.980131, 41, 249, 104, 312
-0.980147, 281, 313, 312, 375
-0.980315, 209, 273, 336, 336
-0.980413, 145, 169, 272, 232
-0.980446, 369, 121, 496, 184
-0.980563, 297, 297, 360, 360
-0.980564, 377, 145, 408, 272
-0.980606, 153, 313, 216, 375
-0.980608, 49, 129, 80, 256
-0.98064, 217, 137, 280, 200
-0.980659, 429, 129, 460, 256
-0.980679, 113, 121, 240, 184
-0.980679, 253, 113, 284, 176
-0.980712, 325, 25, 356, 88
-0.980813, 353, 49, 384, 176
-0.980862, 93, 113, 124, 240
-0.980866, 313, 1, 376, 375
-0.980909, 329, 129, 392, 375
-0.980915, 233, 9, 264, 72
-0.980945, 65, 65, 96, 192
-0.981026, 433, 25, 496, 88
-0.981032, 277, 113, 308, 240
-0.981062, 305, 113, 368, 240
-0.981071, 289, 241, 320, 368
-0.981189, 145, 273, 272, 336
-0.981212, 33, 185, 64, 248
-0.981242, 409, 81, 472, 208
-0.981286, 145, 17, 176, 80
-0.981311, 313, 1, 376, 64
-0.981407, 169, 49, 200, 176
-0.981429, 273, 145, 304, 208
-0.981452, 113, 9, 240, 72
-0.981455, 1, 73, 64, 136
-0.981477, 369, 81, 496, 144
-0.981494, 153, 129, 216, 375
-0.981546, 305, 265, 432, 328
-0.981593, 213, 305, 244, 368
-0.981628, 337, 169, 464, 232
-0.981664, 225, 57, 288, 120
-0.98171, 141, 113, 172, 240
-0.981748, 297, 129, 360, 375
-0.981798, 257, 81, 384, 144
-0.981856, 57, 33, 120, 96
-0.981889, 129, 129, 192, 375
-0.982011, 385, 161, 416, 224
-0.982036, 393, 209, 424, 272
-0.982088, 297, 281, 328, 344
-0.982093, 169, 1, 232, 256
-0.982099, 89, 49, 120, 176
-0.982117, 241, 153, 368, 216
-0.982149, 185, 89, 248, 152
-0.982155, 253, 33, 284, 96
-0.982197, 225, 281, 288, 344
-0.982219, 253, 113, 284, 240
-0.982234, 433, 185, 464, 248
-0.982245, 193, 97, 256, 352
-0.982303, 273, 105, 336, 168
-0.982326, 193, 153, 320, 216
-0.982433, 169, 113, 200, 240
-0.982439, 433, 1, 496, 64
-0.982502, 169, 9, 200, 72
-0.982509, 209, 241, 240, 368
-0.98262, 9, 313, 72, 375
-0.982623, 353, 41, 416, 104
-0.982626, 273, 1, 400, 64
-0.982633, 297, 65, 328, 128
-0.982651, 337, 209, 368, 272
-0.982669, 73, 289, 136, 352
-0.982691, 397, 161, 428, 224
-0.982696, 169, 129, 200, 192
-0.982716, 213, 225, 244, 288
-0.982787, 297, 1, 328, 128
-0.982794, 125, 49, 156, 176
-0.982834, 345, 41, 376, 104
-0.982914, 33, 17, 96, 144
-0.982919, 25, 65, 88, 128
-0.982959, 233, 209, 264, 272
-0.982999, 265, 145, 296, 272
-0.983006, 169, 65, 232, 128
-0.983042, 65, 313, 128, 375
-0.983049, 337, 121, 400, 184
-0.983057, 233, 257, 296, 320
-0.98308, 121, 161, 184, 288
-0.98315, 469, 65, 500, 192
-0.983151, 105, 49, 168, 112
-0.983293, 325, 217, 356, 280
-0.983318, 129, 241, 192, 368
-0.98334, 329, 177, 360, 304
-0.983392, 349, 73, 380, 136
-0.983392, 89, 241, 152, 368
-0.983394, 233, 145, 264, 272
-0.983397, 137, 1, 200, 375
-0.983447, 281, 1, 344, 375
-0.983452, 97, 1, 160, 375
-0.983455, 57, 193, 120, 256
-0.983562, 109, 33, 140, 160
-0.983604, 285, 265, 316, 328
-0.983615, 97, 289, 160, 352
-0.983628, 45, 153, 76, 216
-0.983669, 1, 65, 128, 128
-0.983764, 345, 1, 376, 128
-0.983816, 161, 257, 224, 320
-0.983826, 125, 113, 156, 240
-0.983829, 77, 49, 108, 176
-0.983834, 273, 169, 336, 232
-0.983872, 49, 289, 112, 352
-0.983907, 157, 9, 188, 72
-0.983929, 1, 137, 64, 200
-0.983948, 273, 113, 400, 176
-0.983988, 1, 177, 32, 240
-0.984029, 1, 273, 128, 336
-0.984116, 277, 241, 308, 368
-0.984151, 153, 113, 184, 240
-0.984168, 305, 289, 432, 352
-0.98417, 237, 49, 268, 176
-0.984205, 129, 289, 192, 352
-0.98422, 221, 201, 252, 264
-0.984241, 353, 81, 416, 208
-0.984247, 65, 129, 96, 256
-0.984248, 81, 25, 144, 88
-0.98426, 53, 65, 84, 192
-0.98427, 89, 129, 120, 192
-0.984396, 221, 1, 252, 64
-0.9844, 249, 153, 280, 216
-0.984467, 269, 73, 300, 136
-0.984509, 201, 1, 264, 375
-0.984573, 89, 193, 152, 320
-0.984582, 65, 113, 192, 176
-0.984616, 181, 1, 212, 128
-0.984641, 65, 137, 96, 200
-0.984643, 381, 281, 412, 344
-0.984694, 369, 193, 496, 256
-0.984697, 253, 241, 284, 368
-0.984702, 297, 161, 360, 224
-0.984737, 273, 169, 304, 232
-0.984746, 361, 257, 392, 320
-0.984761, 157, 49, 188, 176
-0.984765, 237, 33, 268, 96
-0.984774, 161, 97, 224, 160
-0.984785, 253, 161, 284, 288
-0.98479, 401, 241, 464, 368
-0.98486, 57, 1, 120, 128
-0.984888, 257, 257, 320, 320
-0.984919, 197, 241, 228, 368
-0.984923, 225, 1, 288, 375
-0.984931, 153, 129, 184, 192
-0.985018, 285, 177, 316, 304
-0.985037, 169, 161, 232, 288
-0.985043, 81, 57, 208, 120
-0.985054, 337, 1, 400, 375
-0.985068, 141, 129, 172, 192
-0.985081, 329, 33, 392, 288
-0.985116, 369, 257, 496, 320
-0.985118, 233, 177, 264, 240
-0.985124, 93, 49, 124, 112
-0.985169, 301, 233, 332, 296
-0.985173, 177, 233, 240, 296
-0.985176, 265, 241, 296, 368
-0.985192, 325, 273, 356, 336
-0.985225, 181, 305, 212, 368
-0.985245, 409, 161, 440, 288
-0.985316, 181, 65, 212, 192
-0.985351, 105, 113, 136, 240
-0.985375, 25, 129, 56, 256
-0.985391, 265, 121, 296, 184
-0.985406, 317, 161, 348, 288
-0.985586, 373, 145, 404, 208
-0.985625, 285, 65, 316, 192
-0.985627, 217, 25, 248, 88
-0.985635, 193, 33, 224, 160
-0.985679, 253, 185, 284, 248
-0.985683, 181, 9, 212, 72
-0.985728, 225, 105, 352, 168
-0.985772, 113, 97, 240, 160
-0.985845, 157, 1, 188, 128
-0.9859, 161, 313, 192, 375
-0.985929, 289, 169, 416, 232
-0.985972, 73, 1, 136, 375
-0.985988, 193, 289, 224, 352
-0.986046, 309, 1, 340, 128
-0.986151, 49, 201, 176, 264
-0.98619, 145, 225, 272, 288
-0.986197, 349, 201, 380, 264
-0.986266, 213, 113, 244, 240
-0.986289, 313, 289, 344, 352
-0.986291, 373, 209, 404, 272
-0.986375, 205, 1, 236, 128
-0.986375, 37, 129, 68, 256
-0.986391, 393, 1, 456, 375
-0.986394, 37, 65, 68, 192
-0.986427, 269, 97, 300, 160
-0.986432, 137, 33, 168, 160
-0.986508, 193, 265, 224, 328
-0.986512, 197, 113, 228, 176
-0.986651, 197, 97, 228, 224
-0.986682, 321, 145, 448, 208
-0.986786, 45, 217, 76, 280
-0.986832, 357, 177, 388, 304
-0.986839, 33, 41, 160, 104
-0.986868, 29, 177, 60, 304
-0.986879, 405, 225, 436, 288
-0.986885, 125, 121, 156, 184
-0.986886, 49, 225, 80, 352
-0.986905, 449, 129, 480, 256
-0.986907, 429, 81, 460, 208
-0.986931, 185, 41, 216, 104
-0.986995, 125, 41, 156, 104
-0.987086, 105, 129, 136, 192
-0.987099, 217, 89, 248, 152
-0.987128, 345, 161, 376, 288
-0.987171, 177, 89, 304, 152
-0.98724, 49, 313, 176, 375
-0.98724, 425, 97, 488, 352
-0.987249, 161, 1, 224, 375
-0.987272, 281, 57, 312, 120
-0.987343, 265, 97, 296, 224
-0.987361, 321, 73, 448, 136
-0.987421, 21, 193, 52, 256
-0.987461, 385, 185, 416, 248
-0.987488, 281, 89, 312, 152
-0.987532, 449, 153, 480, 216
-0.987534, 353, 305, 480, 368
-0.987561, 321, 105, 448, 168
-0.987576, 297, 49, 328, 176
-0.987621, 421, 145, 452, 208
-0.987655, 273, 273, 304, 336
-0.987674, 469, 113, 500, 176
-0.98772, 257, 193, 384, 256
-0.987724, 77, 129, 108, 256
-0.987766, 1, 313, 128, 375
-0.987917, 229, 233, 260, 296
-0.987979, 105, 105, 136, 168
-0.988016, 429, 193, 460, 320
-0.98804, 253, 281, 284, 344
-0.988053, 209, 49, 240, 176
-0.988097, 413, 169, 444, 232
-0.988119, 325, 49, 356, 176
-0.988127, 17, 177, 48, 304
-0.98814, 125, 1, 156, 128
-0.988168, 145, 57, 272, 120
-0.988294, 193, 65, 320, 128
-0.988321, 125, 9, 156, 72
-0.988363, 425, 1, 488, 375
-0.988384, 337, 17, 464, 80
-0.988384, 145, 145, 272, 208
-0.988445, 289, 241, 352, 272
-0.988456, 1, 169, 64, 200
-0.988461, 17, 249, 144, 312
-0.988491, 241, 313, 304, 344
-0.988518, 465, 81, 496, 144
-0.988522, 469, 41, 500, 104
-0.988528, 1, 145, 32, 208
-0.988542, 213, 265, 244, 328
-0.988546, 469, 113, 500, 240
-0.98856, 313, 241, 376, 272
-0.988594, 145, 105, 176, 168
-0.988651, 41, 1, 104, 375
-0.988653, 357, 49, 388, 112
-0.988656, 225, 337, 288, 368
-0.988677, 61, 241, 92, 368
-0.988744, 41, 177, 72, 304
-0.988769, 157, 105, 188, 168
-0.988783, 205, 25, 236, 88
-0.988798, 101, 25, 132, 88
-0.9888, 129, 17, 384, 80
-0.98885, 333, 1, 364, 128
-0.988853, 193, 201, 448, 264
-0.988874, 173, 33, 204, 96
-0.988965, 337, 49, 368, 176
-0.988968, 209, 113, 240, 176
-0.988974, 129, 193, 256, 256
-0.988979, 97, 289, 224, 352
-0.988988, 253, 49, 284, 176
-0.98903, 401, 257, 432, 320
-0.989038, 193, 249, 448, 312
-0.989079, 225, 325, 288, 356
-0.989103, 409, 33, 472, 160
-0.989104, 357, 97, 388, 224
-0.989114, 229, 273, 260, 336
-0.989135, 9, 281, 40, 344
-0.989151, 137, 33, 200, 64
-0.989187, 1, 201, 128, 264
-0.989202, 437, 153, 468, 216
-0.989237, 457, 281, 488, 344
-0.98928, 337, 237, 400, 268
-0.989282, 49, 289, 176, 352
-0.989354, 205, 161, 236, 288
-0.989373, 9, 1, 72, 128
-0.989418, 37, 225, 68, 352
-0.989418, 297, 253, 360, 284
-0.989419, 293, 1, 324, 64
-0.989455, 65, 65, 96, 128
-0.989467, 241, 9, 304, 40
-0.989474, 265, 313, 328, 344
-0.989476, 361, 249, 424, 280
-0.989513, 281, 29, 344, 60
-0.989604, 225, 129, 352, 192
-0.989611, 445, 185, 476, 248
-0.989638, 313, 229, 376, 260
-0.989691, 305, 65, 368, 96
-0.989718, 153, 21, 216, 52
-0.989737, 129, 249, 256, 312
-0.989796, 89, 133, 152, 164
-0.989844, 345, 301, 408, 332
-0.989849, 313, 281, 376, 312
-0.989883, 361, 261, 424, 292
-0.989903, 193, 305, 448, 368
-0.989908, 385, 1, 448, 256
-0.989916, 193, 281, 256, 312
-0.989941, 113, 129, 176, 160
-0.98995, 249, 325, 312, 356
-0.989955, 361, 289, 424, 320
-0.990042, 225, 49, 256, 176
-0.990051, 329, 253, 392, 284
-0.990053, 181, 113, 212, 240
-0.990086, 265, 49, 328, 80
-0.990103, 161, 225, 416, 288
-0.990193, 225, 301, 288, 332
-0.990237, 249, 193, 312, 224
-0.990263, 249, 37, 312, 68
-0.99028, 257, 301, 320, 332
-0.990317, 41, 157, 104, 188
-0.990337, 105, 41, 168, 72
-0.990344, 361, 237, 424, 268
-0.9904, 393, 205, 456, 236
-0.990408, 201, 301, 264, 332
-0.990431, 209, 181, 272, 212
-0.99045, 377, 189, 440, 220
-0.990483, 193, 273, 448, 336
-0.990505, 177, 337, 240, 368
-0.990511, 169, 157, 232, 188
-0.990516, 17, 105, 144, 168
-0.99055, 257, 177, 500, 240
-0.990567, 241, 21, 304, 52
-0.99057, 233, 137, 296, 168
-0.990587, 257, 337, 320, 368
-0.990595, 409, 113, 440, 240
-0.990619, 289, 229, 352, 260
-0.990626, 249, 181, 312, 212
-0.990631, 9, 277, 72, 308
-0.990633, 49, 145, 112, 176
-0.990638, 321, 41, 384, 72
-0.990669, 417, 185, 480, 216
-0.990671, 129, 321, 192, 352
-0.990676, 433, 105, 496, 136
-0.990699, 201, 313, 264, 344
-0.990714, 273, 253, 336, 284
-0.990716, 225, 41, 288, 72
-0.990716, 41, 177, 104, 208
-0.990719, 33, 269, 96, 300
-0.990727, 337, 221, 400, 252
-0.990735, 385, 229, 448, 260
-0.990744, 281, 297, 344, 328
-0.990747, 365, 33, 396, 160
-0.990749, 65, 129, 320, 192
-0.990781, 1, 193, 500, 256
-0.990789, 321, 265, 384, 296
-0.9908, 305, 313, 432, 375
-0.990811, 169, 53, 232, 84
-0.990822, 281, 269, 344, 300
-0.990823, 185, 261, 248, 292
-0.990854, 177, 325, 240, 356
-0.990865, 225, 137, 480, 200
-0.99088, 201, 41, 264, 72
-0.990905, 209, 109, 272, 140
-0.990916, 169, 41, 232, 72
-0.99092, 1, 189, 64, 220
-0.990921, 233, 53, 296, 84
-0.990945, 145, 133, 208, 164
-0.990965, 177, 21, 240, 52
-0.991, 225, 193, 288, 224
-0.991031, 1, 1, 64, 375
-0.991073, 169, 121, 232, 152
-0.991085, 313, 217, 376, 248
-0.991093, 369, 97, 400, 224
-0.991103, 241, 97, 272, 224
-0.991106, 425, 285, 488, 316
-0.991115, 161, 41, 416, 104
-0.991121, 361, 225, 424, 256
-0.991123, 217, 5, 280, 36
-0.991123, 281, 285, 344, 316
-0.991155, 233, 117, 296, 148
-0.991168, 361, 1, 424, 375
-0.991181, 249, 101, 312, 132
-0.991182, 169, 9, 232, 40
-0.991205, 9, 157, 72, 188
-0.991205, 377, 173, 440, 204
-0.991215, 129, 149, 192, 180
-0.991232, 113, 29, 176, 60
-0.991236, 13, 129, 44, 256
-0.991247, 433, 145, 496, 176
-0.991251, 433, 77, 496, 108
-0.991287, 297, 49, 360, 80
-0.991291, 65, 41, 320, 104
-0.9913, 49, 69, 112, 100
-0.9913, 137, 9, 200, 40
-0.991304, 385, 289, 448, 320
-0.991326, 273, 65, 336, 96
-0.991346, 201, 229, 264, 260
-0.991348, 281, 17, 344, 48
-0.991357, 265, 241, 328, 272
-0.991387, 161, 313, 224, 344
-0.991406, 321, 301, 384, 332
-0.991411, 241, 161, 304, 192
-0.991425, 201, 21, 264, 52
-0.991433, 433, 37, 496, 68
-0.991434, 425, 93, 488, 124
-0.991449, 289, 317, 352, 348
-0.99145, 145, 161, 208, 288
-0.991453, 33, 225, 160, 288
-0.991458, 321, 77, 384, 108
-0.991458, 81, 53, 144, 84
-0.991464, 145, 121, 208, 152
-0.991468, 393, 149, 456, 180
-0.991496, 217, 169, 280, 200
-0.99152, 65, 133, 128, 164
-0.991523, 305, 29, 368, 60
-0.991529, 161, 169, 224, 200
-0.991535, 25, 193, 88, 224
-0.991545, 313, 201, 376, 232
-0.991552, 25, 205, 88, 236
-0.991569, 185, 241, 248, 272
-0.991572, 201, 337, 264, 368
-0.991573, 9, 73, 72, 104
-0.991595, 401, 273, 464, 304
-0.99161, 97, 169, 352, 232
-0.991612, 225, 213, 288, 244
-0.991616, 97, 297, 352, 360
-0.99162, 289, 77, 352, 108
-0.991638, 193, 53, 256, 84
-0.991641, 257, 25, 500, 88
-0.991647, 81, 161, 208, 224
-0.991653, 1, 113, 32, 240
-0.991672, 137, 53, 200, 84
-0.991684, 209, 121, 272, 152
-0.991699, 417, 129, 480, 160
-0.991702, 297, 189, 360, 220
-0.991703, 1, 249, 500, 312
-0.991705, 265, 149, 328, 180
-0.991707, 353, 181, 416, 212
-0.991723, 353, 157, 416, 188
-0.991728, 169, 109, 232, 140
-0.99174, 361, 277, 424, 308
-0.991751, 201, 193, 264, 224
-0.991752, 433, 117, 496, 148
-0.991809, 289, 129, 320, 256
-0.991811, 441, 65, 472, 192
-0.991824, 257, 113, 500, 176
-0.991843, 1, 137, 500, 200
-0.991892, 265, 317, 296, 348
-0.991951, 153, 161, 184, 288
-0.992093, 177, 241, 208, 368
-0.992161, 25, 169, 56, 200
-0.992177, 225, 65, 480, 128
-0.992192, 273, 313, 288, 375
-0.992196, 17, 65, 48, 192
-0.992211, 277, 309, 308, 340
-0.992264, 357, 241, 388, 272
-0.992269, 309, 257, 340, 288
-0.992275, 265, 333, 296, 364
-0.992285, 317, 233, 348, 264
-0.992294, 1, 217, 500, 280
-0.992299, 393, 285, 424, 316
-0.992302, 333, 261, 364, 292
-0.992309, 317, 269, 348, 300
-0.992317, 345, 261, 376, 292
-0.99236, 329, 249, 360, 280
-0.99236, 1, 193, 256, 256
-0.992367, 337, 237, 368, 268
-0.992378, 249, 321, 280, 352
-0.992394, 465, 1, 496, 128
-0.992419, 305, 245, 336, 276
-0.992427, 65, 9, 192, 72
-0.992435, 309, 49, 340, 176
-0.99244, 353, 33, 416, 288
-0.99244, 265, 305, 296, 336
-0.992449, 377, 241, 408, 272
-0.992458, 389, 253, 420, 284
-0.992458, 329, 273, 360, 304
-0.992501, 145, 29, 176, 60
-0.992506, 293, 257, 324, 288
-0.992506, 277, 321, 308, 352
-0.992516, 253, 305, 284, 336
-0.992523, 345, 249, 376, 280
-0.992526, 305, 269, 336, 300
-0.992555, 293, 29, 324, 60
-0.992581, 361, 261, 392, 292
-0.992594, 293, 245, 324, 276
-0.992595, 221, 225, 252, 256
-0.992601, 409, 189, 440, 220
-0.992632, 361, 297, 392, 328
-0.992634, 305, 233, 336, 264
-0.992691, 1, 169, 32, 200
-0.992701, 345, 45, 376, 76
-0.992706, 277, 297, 308, 328
-0.992719, 321, 221, 352, 252
-0.992736, 45, 153, 76, 184
-0.992738, 389, 237, 420, 268
-0.992739, 249, 193, 280, 224
-0.992742, 233, 301, 264, 332
-0.992746, 65, 105, 320, 168
-0.992747, 377, 253, 408, 284
-0.992753, 225, 89, 480, 152
-0.992754, 245, 9, 276, 40
-0.992755, 265, 345, 296, 375
-0.992759, 213, 281, 244, 312
-0.992761, 317, 245, 348, 276
-0.992764, 373, 289, 404, 320
-0.992767, 1, 281, 500, 344
-0.992774, 389, 225, 420, 256
-0.992776, 165, 21, 196, 52
-0.992782, 273, 37, 304, 68
-0.992789, 169, 125, 200, 156
-0.992791, 333, 65, 364, 96
-0.992796, 309, 281, 340, 312
-0.992811, 233, 333, 264, 364
-0.992837, 317, 49, 348, 80
-0.992839, 17, 181, 48, 212
-0.992845, 1, 169, 500, 232
-0.992845, 289, 313, 320, 344
-0.992848, 221, 297, 252, 328
-0.99285, 309, 61, 340, 92
-0.992854, 201, 301, 232, 332
-0.992859, 141, 133, 172, 164
-0.992859, 261, 137, 292, 168
-0.99286, 253, 121, 284, 152
-0.99286, 69, 141, 100, 172
-0.99286, 237, 181, 268, 212
-0.992862, 337, 225, 368, 256
-0.99288, 281, 253, 312, 284
-0.992883, 269, 101, 300, 132
-0.992883, 253, 333, 284, 364
-0.992885, 349, 229, 380, 260
-0.992893, 305, 29, 336, 60
-0.992894, 397, 177, 428, 208
-0.992907, 341, 273, 372, 304
-0.992908, 257, 181, 288, 212
-0.992909, 249, 345, 280, 375
-0.99291, 281, 297, 296, 360
-0.992911, 177, 41, 208, 72
-0.992924, 181, 53, 212, 84
-0.992925, 245, 37, 276, 68
-0.992925, 101, 133, 132, 164
-0.992926, 213, 337, 244, 368
-0.992933, 157, 141, 188, 172
-0.992943, 289, 269, 320, 300
-0.992952, 165, 33, 196, 64
-0.992953, 65, 89, 192, 152
-0.992956, 177, 21, 208, 52
-0.992957, 13, 165, 44, 196
-0.992963, 333, 41, 364, 72
-0.992964, 37, 165, 68, 196
-0.992966, 349, 73, 380, 104
-0.992967, 401, 217, 432, 248
-0.992973, 121, 133, 152, 164
-0.992978, 289, 297, 320, 328
-0.992978, 229, 213, 260, 244
-0.99298, 361, 229, 392, 260
-0.992981, 105, 41, 136, 72
-0.992981, 265, 161, 296, 192
-0.992984, 233, 41, 264, 72
-0.992991, 93, 57, 124, 88
-0.992992, 57, 265, 88, 296
-0.992996, 261, 53, 292, 84
-0.992997, 321, 61, 352, 92
-0.993, 397, 189, 428, 220
-0.993001, 301, 49, 332, 80
-0.993004, 25, 281, 56, 312
-0.993006, 385, 153, 416, 184
-0.993007, 413, 209, 444, 240
-0.993009, 389, 165, 420, 196
-0.993015, 225, 317, 256, 348
-0.993018, 41, 269, 72, 300
-0.993019, 261, 37, 292, 68
-0.993027, 257, 109, 288, 140
-0.993034, 29, 193, 60, 224
-0.993035, 293, 17, 324, 48
-0.993037, 185, 117, 216, 148
-0.993037, 389, 297, 420, 328
-0.993039, 181, 321, 212, 352
-0.993039, 345, 301, 376, 332
-0.993043, 89, 133, 120, 164
-0.993045, 17, 201, 48, 232
-0.993047, 161, 9, 192, 40
-0.993049, 225, 9, 256, 40
-0.99305, 193, 277, 224, 308
-0.993053, 153, 321, 184, 352
-0.993057, 133, 41, 164, 72
-0.993058, 297, 69, 328, 100
-0.99306, 393, 273, 424, 304
-0.993064, 297, 281, 328, 312
-0.993069, 293, 85, 324, 116
-0.993072, 409, 177, 440, 208
-0.993076, 273, 9, 304, 40
-0.993077, 229, 193, 260, 224
-0.99308, 317, 29, 348, 60
-0.993136, 129, 241, 160, 368
-0.993155, 229, 97, 260, 224
-0.993192, 137, 177, 168, 304
-0.993294, 1, 49, 500, 112
-0.993339, 449, 177, 480, 304
-0.993356, 33, 265, 288, 328
-0.993369, 301, 129, 332, 256
-0.99338, 33, 233, 288, 296
-0.993423, 5, 65, 36, 192
-0.993539, 209, 9, 336, 40
-0.993542, 225, 1, 480, 64
-0.993546, 323, 233, 338, 296
-0.993555, 339, 241, 354, 304
-0.993564, 97, 193, 352, 256
-0.993565, 1, 153, 256, 216
-0.993585, 267, 313, 282, 375
-0.993627, 1, 313, 256, 375
-0.99363, 1, 25, 500, 88
-0.993681, 321, 265, 448, 296
-0.993713, 61, 1, 92, 128
-0.993773, 97, 241, 128, 368
-0.993807, 329, 241, 344, 304
-0.99383, 161, 113, 416, 176
-0.993885, 305, 249, 320, 312
-0.993942, 247, 9, 262, 72
-0.993987, 1, 305, 500, 368
-0.993998, 285, 9, 300, 72
-0.994042, 305, 241, 432, 272
-0.994042, 429, 33, 460, 160
-0.994043, 315, 241, 330, 304
-0.994043, 357, 241, 372, 304
-0.994079, 367, 233, 382, 296
-0.994111, 321, 1, 352, 128
-0.994122, 225, 201, 352, 232
-0.994153, 257, 65, 384, 96
-0.994241, 287, 33, 302, 96
-0.994262, 177, 301, 304, 332
-0.994272, 65, 137, 192, 168
-0.99431, 267, 153, 282, 216
-0.994316, 349, 233, 364, 296
-0.99432, 233, 209, 248, 272
-0.994336, 253, 9, 268, 72
-0.994353, 65, 249, 192, 312
-0.994383, 403, 257, 418, 320
-0.994405, 161, 337, 288, 368
-0.994414, 305, 221, 432, 252
-0.994416, 369, 149, 496, 180
-0.994427, 1, 161, 32, 288
-0.994459, 25, 225, 56, 352
-0.994497, 193, 193, 224, 320
-0.994512, 169, 9, 184, 72
-0.994574, 367, 265, 382, 328
-0.994634, 81, 49, 208, 80
-0.99465, 225, 313, 352, 344
-0.994665, 1, 113, 500, 176
-0.994692, 17, 9, 144, 72
-0.994698, 145, 241, 176, 368
-0.994719, 225, 37, 352, 68
-0.994731, 279, 9, 294, 72
-0.994752, 287, 305, 302, 368
-0.994765, 125, 177, 156, 304
-0.994783, 457, 65, 488, 192
-0.994797, 273, 257, 400, 288
-0.994798, 261, 9, 276, 72
-0.994805, 261, 1, 292, 256
-0.994831, 129, 29, 256, 60
-0.994858, 225, 49, 352, 80
-0.994881, 257, 225, 500, 288
-0.994892, 311, 25, 326, 88
-0.994894, 177, 137, 304, 168
-0.994905, 225, 213, 352, 244
-0.99491, 375, 241, 390, 304
-0.994918, 35, 169, 50, 232
-0.994927, 85, 177, 116, 304
-0.994961, 165, 241, 196, 368
-0.994988, 389, 113, 420, 240
-0.99499, 161, 41, 288, 72
-0.994996, 209, 189, 336, 220
-0.995022, 33, 9, 288, 72
-0.995025, 13, 241, 44, 368
-0.99503, 243, 297, 258, 360
-0.995032, 299, 241, 314, 304
-0.995038, 145, 317, 272, 348
-0.995043, 389, 233, 404, 296
-0.995054, 273, 29, 400, 60
-0.995059, 321, 253, 448, 284
-0.99506, 277, 33, 292, 96
-0.995066, 273, 305, 400, 336
-0.995073, 273, 153, 288, 216
-0.995081, 1, 225, 32, 352
-0.995083, 397, 217, 412, 280
-0.995094, 395, 281, 410, 344
-0.995105, 359, 41, 374, 104
-0.995105, 269, 9, 284, 72
-0.995113, 23, 169, 38, 232
-0.995117, 209, 265, 336, 296
-0.995173, 323, 257, 338, 320
-0.995187, 313, 217, 328, 280
-0.995196, 331, 273, 346, 336
-0.995201, 297, 273, 312, 336
-0.995223, 273, 269, 400, 300
-0.995251, 485, 73, 500, 136
-0.995282, 257, 293, 384, 324
-0.995298, 145, 17, 272, 48
-0.995326, 37, 193, 52, 256
-0.995343, 65, 65, 320, 128
-0.995358, 275, 289, 290, 352
-0.99536, 369, 285, 496, 316
-0.995369, 1, 157, 128, 188
-0.995372, 329, 25, 344, 88
-0.995386, 303, 273, 318, 336
-0.995397, 351, 209, 366, 272
-0.995399, 209, 25, 336, 56
-0.995407, 349, 265, 364, 328
-0.995435, 323, 41, 338, 104
-0.995446, 389, 129, 420, 375
-0.995452, 17, 193, 144, 224
-0.995469, 231, 273, 246, 336
-0.99547, 241, 9, 256, 72
-0.995495, 319, 209, 334, 272
-0.995496, 1, 169, 16, 232
-0.995509, 367, 289, 382, 352
-0.995526, 257, 297, 272, 360
-0.995529, 373, 129, 404, 375
-0.99553, 77, 1, 108, 128
-0.99553, 97, 325, 224, 356
-0.995563, 395, 153, 410, 216
-0.995571, 173, 33, 188, 96
-0.995587, 205, 257, 220, 320
-0.995609, 177, 53, 304, 84
-0.995611, 145, 169, 272, 200
-0.995616, 81, 37, 208, 68
-0.995623, 1, 73, 128, 104
-0.995626, 167, 129, 182, 192
-0.995636, 1, 169, 128, 200
-0.995638, 317, 33, 332, 96
-0.995668, 403, 209, 418, 272
-0.995671, 259, 153, 274, 216
-0.995688, 113, 129, 240, 160
-0.995701, 431, 193, 446, 256
-0.995714, 29, 153, 44, 216
-0.995737, 369, 101, 496, 132
-0.995737, 339, 217, 354, 280
-0.995738, 193, 253, 320, 284
-0.995742, 237, 297, 252, 360
-0.995747, 295, 25, 310, 88
-0.99575, 45, 153, 60, 216
-0.99575, 193, 289, 320, 320
-0.995754, 339, 265, 354, 328
-0.995781, 249, 1, 280, 256
-0.995783, 247, 33, 262, 96
-0.995788, 209, 225, 336, 256
-0.99579, 349, 25, 364, 88
-0.995796, 355, 265, 370, 328
-0.995796, 31, 193, 46, 256
-0.995801, 179, 121, 194, 184
-0.995804, 297, 49, 312, 112
-0.995806, 1, 277, 128, 308
-0.99581, 331, 217, 346, 280
-0.995841, 325, 281, 340, 344
-0.995857, 381, 233, 396, 296
-0.995865, 145, 181, 272, 212
-0.995865, 283, 273, 298, 336
-0.995872, 305, 25, 320, 88
-0.995874, 267, 33, 282, 96
-0.995886, 279, 153, 294, 216
-0.995896, 313, 265, 328, 328
-0.995904, 259, 33, 274, 96
-0.995911, 337, 49, 352, 112
-0.995913, 161, 137, 176, 200
-0.995914, 193, 157, 320, 188
-0.995915, 303, 49, 318, 112
-0.995919, 361, 289, 376, 352
-0.995928, 335, 25, 350, 88
-0.99593, 321, 277, 448, 308
-0.99593, 387, 257, 402, 320
-0.99594, 293, 297, 308, 360
-0.995941, 369, 301, 496, 332
-0.995942, 167, 33, 182, 96
-0.995944, 305, 201, 432, 232
-0.99595, 321, 177, 448, 208
-0.995951, 483, 113, 498, 176
-0.995955, 337, 77, 464, 108
-0.995962, 273, 45, 400, 76
-0.995978, 293, 241, 308, 304
-0.995989, 253, 33, 268, 96
-0.995994, 439, 177, 454, 240
-0.995997, 209, 333, 336, 364
-0.996, 237, 1, 268, 256
-0.996035, 269, 289, 284, 352
-0.996039, 43, 177, 58, 240
-0.996043, 235, 233, 250, 296
-0.996045, 193, 277, 320, 308
-0.996048, 329, 49, 344, 112
-0.996065, 177, 117, 304, 148
-0.99607, 387, 145, 402, 208
-0.996116, 485, 33, 500, 96
-0.996129, 51, 145, 66, 208
-0.996166, 263, 121, 278, 184
-0.996171, 259, 97, 274, 160
-0.996172, 25, 129, 56, 375
-0.996173, 273, 17, 400, 48
-0.99618, 423, 201, 438, 264
-0.996189, 227, 1, 242, 64
-0.996191, 397, 193, 412, 256
-0.996192, 341, 25, 356, 88
-0.9962, 275, 129, 290, 192
-0.996211, 257, 281, 384, 312
-0.996215, 321, 305, 448, 336
-0.996217, 287, 57, 302, 120
-0.996222, 307, 209, 322, 272
-0.996222, 337, 57, 464, 88
-0.996223, 305, 293, 432, 324
-0.99624, 361, 265, 376, 328
-0.996264, 369, 89, 496, 120
-0.996271, 157, 1, 188, 256
-0.996272, 273, 141, 400, 172
-0.996273, 197, 273, 212, 336
-0.996276, 179, 17, 194, 80
-0.996283, 369, 225, 496, 256
-0.996287, 159, 17, 174, 80
-0.996309, 243, 217, 258, 280
-0.996311, 231, 305, 246, 368
-0.996321, 353, 189, 480, 220
-0.996343, 297, 73, 312, 136
-0.996344, 273, 1, 304, 256
-0.996347, 267, 333, 282, 364
-0.996363, 241, 33, 256, 96
-0.996373, 375, 217, 390, 280
-0.996379, 369, 137, 496, 168
-0.996386, 241, 177, 368, 208
-0.996405, 401, 161, 416, 224
-0.996411, 385, 1, 448, 128
-0.99642, 149, 17, 164, 80
-0.996423, 357, 217, 372, 280
-0.996452, 423, 177, 438, 240
-0.996467, 289, 189, 416, 220
-0.996469, 345, 209, 360, 272
-0.996479, 17, 141, 144, 172
-0.996494, 181, 41, 196, 104
-0.996518, 91, 137, 106, 200
-0.996525, 29, 33, 60, 288
-0.996525, 45, 129, 76, 375
-0.996526, 395, 257, 410, 320
-0.996526, 289, 273, 304, 336
-0.996532, 225, 217, 240, 280
-0.996555, 97, 217, 224, 280
-0.996563, 273, 97, 304, 352
-0.996576, 257, 245, 384, 276
-0.996598, 145, 289, 272, 320
-0.996627, 337, 37, 464, 68
-0.996627, 369, 113, 496, 144
-0.996643, 257, 77, 384, 108
-0.996681, 277, 313, 292, 344
-0.996691, 145, 221, 272, 252
-0.996706, 41, 33, 72, 288
-0.996726, 81, 149, 208, 180
-0.996733, 65, 61, 192, 92
-0.996741, 177, 105, 304, 136
-0.996754, 325, 237, 340, 268
-0.996762, 113, 1, 144, 256
-0.996771, 321, 165, 448, 196
-0.996772, 353, 241, 480, 272
-0.996779, 145, 157, 272, 188
-0.99678, 1, 321, 128, 352
-0.996795, 257, 89, 384, 120
-0.996817, 81, 25, 208, 56
-0.996818, 209, 345, 336, 375
-0.996823, 39, 165, 54, 196
-0.996823, 1, 205, 128, 236
-0.996826, 285, 1, 316, 256
-0.996865, 125, 1, 156, 256
-0.996866, 65, 129, 96, 375
-0.996868, 257, 233, 384, 264
-0.99688, 337, 125, 464, 156
-0.996882, 33, 265, 160, 296
-0.996892, 361, 97, 392, 352
-0.996893, 369, 253, 496, 284
-0.996922, 33, 181, 160, 212
-0.996925, 369, 273, 496, 304
-0.996926, 273, 317, 400, 348
-0.99693, 1, 289, 256, 352
-0.996932, 273, 105, 400, 136
-0.996934, 209, 65, 336, 96
-0.996982, 1, 1, 500, 64
-0.996997, 387, 237, 402, 268
-0.996999, 369, 161, 496, 192
-0.997002, 257, 129, 384, 160
-0.997014, 225, 113, 352, 144
-0.997028, 209, 237, 336, 268
-0.997042, 129, 53, 256, 84
-0.997042, 49, 321, 176, 352
-0.997058, 245, 129, 276, 375
-0.997073, 145, 209, 272, 240
-0.997094, 241, 157, 368, 188
-0.997095, 395, 281, 410, 312
-0.997105, 229, 129, 260, 375
-0.997108, 129, 5, 256, 36
-0.997116, 81, 33, 112, 288
-0.997137, 271, 321, 286, 352
-0.997138, 265, 345, 280, 375
-0.997144, 145, 1, 176, 256
-0.997144, 193, 177, 320, 208
-0.997162, 319, 225, 334, 256
-0.997166, 97, 117, 224, 148
-0.997172, 129, 301, 256, 332
-0.997183, 377, 245, 392, 276
-0.997185, 283, 309, 298, 340
-0.997185, 93, 1, 124, 256
-0.997187, 351, 261, 366, 292
-0.997197, 145, 233, 272, 264
-0.997202, 315, 241, 330, 272
-0.997223, 343, 241, 358, 272
-0.997228, 169, 1, 200, 256
-0.997254, 289, 313, 304, 344
-0.997261, 299, 249, 314, 280
-0.997271, 145, 245, 272, 276
-0.997272, 367, 293, 382, 324
-0.997279, 319, 253, 334, 284
-0.997294, 149, 129, 180, 375
-0.997309, 401, 129, 432, 375
-0.997312, 335, 241, 350, 272
-0.997323, 363, 241, 378, 272
-0.997324, 353, 25, 480, 56
-0.997334, 129, 269, 256, 300
-0.997346, 61, 33, 92, 288
-0.997349, 261, 97, 292, 352
-0.997354, 113, 337, 240, 368
-0.99736, 325, 249, 340, 280
-0.997401, 97, 97, 128, 352
-0.997406, 17, 33, 48, 288
-0.997407, 345, 129, 376, 375
-0.997407, 353, 241, 368, 272
-0.997408, 225, 141, 352, 172
-0.997415, 369, 209, 496, 240
-0.997423, 369, 257, 384, 288
-0.997439, 117, 97, 148, 352
-0.997452, 65, 161, 192, 192
-0.997462, 49, 309, 176, 340
-0.997465, 235, 217, 250, 248
-0.997482, 303, 269, 318, 300
-0.997483, 349, 229, 364, 260
-0.997484, 425, 129, 456, 375
-0.997486, 277, 297, 292, 328
-0.997487, 17, 61, 144, 92
-0.997498, 333, 269, 348, 300
-0.997498, 317, 129, 348, 375
-0.99752, 129, 193, 256, 224
-0.997522, 341, 253, 356, 284
-0.997532, 359, 253, 374, 284
-0.997533, 77, 129, 108, 375
-0.997539, 231, 277, 246, 308
-0.997541, 321, 265, 336, 296
-0.997545, 301, 129, 332, 375
-0.997549, 307, 245, 322, 276
-0.997573, 17, 41, 144, 72
-0.997577, 1, 65, 32, 320
-0.997582, 369, 241, 384, 272
-0.99759, 343, 269, 358, 300
-0.997592, 285, 97, 316, 352
-0.997604, 383, 249, 398, 280
-0.99762, 321, 105, 448, 136
-0.997624, 273, 341, 288, 372
-0.997631, 97, 313, 224, 344
-0.997633, 307, 257, 322, 288
-0.997658, 49, 217, 176, 248
-0.997664, 397, 233, 412, 264
-0.997664, 81, 197, 208, 228
-0.997666, 265, 317, 280, 348
-0.997667, 167, 133, 182, 164
-0.99767, 159, 29, 174, 60
-0.997675, 315, 269, 330, 300
-0.997676, 209, 1, 240, 256
-0.997697, 225, 101, 352, 132
-0.997715, 369, 177, 496, 208
-0.997745, 271, 305, 286, 336
-0.997745, 309, 273, 324, 304
-0.997747, 293, 253, 308, 284
-0.99776, 369, 345, 496, 375
-0.99777, 49, 125, 176, 156
-0.99778, 145, 257, 272, 288
-0.997799, 285, 325, 300, 356
-0.9978, 137, 97, 168, 352
-0.997809, 165, 97, 196, 352
-0.99781, 413, 129, 444, 375
-0.997824, 343, 229, 358, 260
-0.997825, 359, 265, 374, 296
-0.997833, 259, 121, 274, 152
-0.997839, 333, 129, 364, 375
-0.997842, 45, 161, 60, 192
-0.997853, 401, 245, 416, 276
-0.997857, 469, 65, 500, 320
-0.99786, 255, 309, 270, 340
-0.997869, 49, 237, 176, 268
-0.997871, 325, 277, 340, 308
-0.997881, 15, 169, 30, 200
-0.997885, 289, 117, 416, 148
-0.997887, 323, 49, 338, 80
-0.99789, 321, 145, 448, 176
-0.997895, 259, 341, 274, 372
-0.997896, 393, 245, 408, 276
-0.997904, 257, 193, 272, 224
-0.997905, 259, 109, 274, 140
-0.997906, 229, 221, 244, 252
-0.997906, 205, 265, 220, 296
-0.997909, 225, 1, 256, 256
-0.997917, 331, 257, 346, 288
-0.997919, 25, 165, 40, 196
-0.997933, 287, 37, 302, 68
-0.997936, 225, 341, 240, 372
-0.997941, 245, 9, 260, 40
-0.997941, 51, 153, 66, 184
-0.997941, 411, 189, 426, 220
-0.997946, 13, 129, 44, 375
-0.997952, 349, 33, 380, 288
-0.997959, 235, 245, 250, 276
-0.997963, 35, 197, 50, 228
-0.997973, 151, 29, 166, 60
-0.997976, 317, 49, 332, 80
-0.997978, 485, 117, 500, 148
-0.99798, 485, 57, 500, 88
-0.997988, 331, 49, 346, 80
-0.99799, 359, 301, 374, 332
-0.997993, 285, 253, 300, 284
-0.997994, 235, 233, 250, 264
-0.997995, 307, 29, 322, 60
-0.997997, 103, 45, 118, 76
-0.998009, 245, 305, 260, 336
-0.998013, 359, 77, 374, 108
-0.998015, 169, 13, 184, 44
-0.998015, 313, 257, 328, 288
-0.998022, 203, 277, 218, 308
-0.998023, 283, 297, 298, 328
-0.998024, 331, 229, 346, 260
-0.998034, 485, 73, 500, 104
-0.99804, 295, 317, 310, 348
-0.998041, 377, 257, 392, 288
-0.998043, 313, 29, 328, 60
-0.998043, 403, 221, 418, 252
-0.998047, 423, 193, 438, 224
-0.998054, 23, 197, 38, 228
-0.998057, 405, 277, 420, 308
-0.998058, 173, 33, 188, 64
-0.998059, 33, 165, 48, 196
-0.99807, 239, 201, 254, 232
-0.998081, 223, 225, 238, 256
-0.998089, 63, 265, 78, 296
-0.998089, 249, 181, 264, 212
-0.998091, 297, 1, 328, 256
-0.998093, 281, 37, 296, 68
-0.998096, 233, 297, 248, 328
-0.998097, 247, 37, 262, 68
-0.998101, 403, 265, 418, 296
-0.998103, 321, 1, 352, 256
-0.998104, 485, 101, 500, 132
-0.998106, 81, 141, 96, 172
-0.998113, 265, 185, 280, 216
-0.998118, 311, 49, 326, 80
-0.998122, 391, 153, 406, 184
-0.998126, 235, 337, 250, 368
-0.998128, 195, 265, 210, 296
-0.998129, 97, 45, 112, 76
-0.998132, 295, 33, 310, 64
-0.998138, 181, 53, 196, 84
-0.998138, 153, 129, 168, 160
-0.99814, 257, 37, 272, 68
-0.998145, 175, 125, 190, 156
-0.998153, 9, 169, 24, 200
-0.998154, 103, 133, 118, 164
-0.998157, 333, 1, 364, 256
-0.998158, 297, 273, 312, 304
-0.998159, 45, 177, 60, 208
-0.99816, 1, 173, 16, 204
-0.998165, 297, 77, 312, 108
-0.99817, 303, 281, 318, 312
-0.998173, 53, 269, 68, 300
-0.998174, 333, 61, 348, 92
-0.998177, 301, 49, 316, 80
-0.998177, 277, 137, 292, 168
-0.998202, 209, 97, 240, 352
-0.998217, 193, 97, 224, 352
-0.998228, 429, 33, 460, 288
-0.998279, 437, 129, 468, 375
-0.998409, 1, 173, 64, 188
-0.998418, 269, 107, 300, 122
-0.998419, 221, 231, 252, 246
-0.998419, 373, 299, 404, 314
-0.998419, 337, 39, 368, 54
-0.998421, 213, 311, 244, 326
-0.998421, 253, 197, 284, 212
-0.998421, 181, 339, 212, 354
-0.998422, 253, 111, 284, 126
-0.998423, 253, 41, 284, 56
-0.998423, 213, 115, 244, 130
-0.998424, 233, 307, 264, 322
-0.998425, 149, 129, 180, 144
-0.998427, 345, 45, 376, 60
-0.998428, 17, 287, 48, 302
-0.998429, 181, 121, 212, 136
-0.998429, 293, 35, 324, 50
-0.99843, 297, 251, 360, 266
-0.998432, 393, 243, 424, 258
-0.998432, 241, 41, 272, 56
-0.998433, 337, 245, 368, 260
-0.998433, 217, 279, 248, 294
-0.998434, 249, 343, 280, 358
-0.998434, 301, 237, 332, 252
-0.998435, 265, 353, 296, 368
-0.998435, 309, 25, 340, 40
-0.998437, 1, 199, 32, 214
-0.998437, 209, 305, 240, 320
-0.998438, 97, 137, 128, 152
-0.998439, 349, 319, 380, 334
-0.998439, 281, 251, 312, 266
-0.998439, 29, 281, 60, 296
-0.998439, 161, 15, 192, 30
-0.99844, 357, 273, 388, 288
-0.99844, 145, 25, 176, 40
-0.99844, 305, 241, 368, 256
-0.998441, 221, 243, 252, 258
-0.998441, 341, 255, 372, 270
-0.998442, 197, 117, 228, 132
-0.998443, 193, 281, 224, 296
-0.998443, 225, 219, 256, 234
-0.998444, 285, 313, 316, 328
-0.998444, 389, 231, 420, 246
-0.998444, 329, 257, 360, 272
-0.998447, 245, 11, 276, 26
-0.998447, 373, 267, 404, 282
-0.998448, 301, 269, 332, 284
-0.998449, 249, 333, 280, 348
-0.99845, 225, 35, 256, 50
-0.99845, 69, 143, 100, 158
-0.99845, 225, 345, 288, 360
-0.998451, 33, 169, 64, 184
-0.998451, 145, 135, 176, 150
-0.998452, 21, 181, 52, 196
-0.998453, 273, 41, 304, 56
-0.998453, 225, 333, 288, 348
-0.998454, 317, 253, 348, 268
-0.998454, 305, 275, 368, 290
-0.998456, 289, 257, 320, 272
-0.998457, 321, 227, 352, 242
-0.998457, 165, 31, 196, 46
-0.998458, 137, 33, 200, 48
-0.998459, 225, 339, 288, 354
-0.998461, 305, 65, 368, 80
-0.998461, 285, 291, 316, 306
-0.998463, 293, 23, 324, 38
-0.998463, 249, 313, 312, 328
-0.998465, 93, 49, 124, 64
-0.998467, 381, 247, 412, 262
-0.998467, 273, 329, 304, 344
-0.998468, 393, 291, 424, 306
-0.998468, 241, 327, 304, 342
-0.99847, 353, 253, 416, 268
-0.99847, 277, 319, 308, 334
-0.998471, 41, 275, 72, 290
-0.998472, 229, 337, 260, 352
-0.998472, 317, 63, 348, 78
-0.998473, 321, 289, 352, 304
-0.998476, 161, 25, 192, 40
-0.998483, 341, 233, 372, 248
-0.998483, 301, 259, 332, 274
-0.998484, 413, 197, 444, 212
-0.998484, 229, 301, 260, 316
-0.998484, 169, 131, 200, 146
-0.998486, 281, 31, 344, 46
-0.998486, 393, 237, 424, 252
-0.998489, 353, 297, 416, 312
-0.99849, 289, 281, 352, 296
-0.99849, 321, 257, 384, 272
-0.998491, 293, 245, 324, 260
-0.998492, 257, 305, 288, 320
-0.998492, 225, 351, 288, 366
-0.998492, 361, 267, 392, 282
-0.998492, 261, 161, 292, 176
-0.998494, 301, 279, 332, 294
-0.998494, 373, 293, 404, 308
-0.998495, 341, 281, 372, 296
-0.998495, 325, 263, 356, 278
-0.998497, 361, 267, 424, 282
-0.9985, 257, 313, 288, 328
-0.9985, 293, 29, 324, 44
-0.9985, 1, 179, 64, 194
-0.998502, 281, 245, 344, 260
-0.998502, 337, 243, 400, 258
-0.998503, 401, 191, 432, 206
-0.998503, 249, 195, 312, 210
-0.998505, 313, 235, 376, 250
-0.998505, 105, 135, 168, 150
-0.998505, 53, 269, 84, 284
-0.998506, 361, 247, 424, 262
-0.998506, 241, 307, 304, 322
-0.99851, 317, 209, 332, 336
-0.99851, 329, 249, 392, 264
-0.998511, 377, 259, 408, 274
-0.998511, 313, 267, 344, 282
-0.998512, 241, 319, 304, 334
-0.998512, 241, 11, 304, 26
-0.998512, 281, 25, 344, 40
-0.998513, 161, 33, 224, 48
-0.998515, 137, 27, 200, 42
-0.998516, 377, 253, 408, 268
-0.998517, 273, 253, 336, 268
-0.998517, 253, 353, 284, 368
-0.998518, 225, 225, 256, 240
-0.998519, 385, 193, 448, 208
-0.99852, 321, 233, 352, 248
-0.99852, 361, 241, 392, 256
-0.998521, 361, 247, 392, 262
-0.998523, 137, 39, 200, 54
-0.998525, 297, 267, 360, 282
-0.998525, 329, 251, 360, 266
-0.998526, 329, 265, 392, 280
-0.998527, 313, 259, 344, 274
-0.998529, 381, 241, 412, 256
-0.998531, 377, 295, 440, 310
-0.998532, 265, 321, 328, 336
-0.998533, 261, 329, 292, 344
-0.998534, 149, 33, 180, 48
-0.998534, 349, 249, 380, 264
-0.998536, 393, 285, 424, 300
-0.998537, 313, 239, 344, 254
-0.998537, 345, 303, 408, 318
-0.998537, 249, 335, 312, 350
-0.998538, 353, 255, 384, 270
-0.998539, 293, 251, 324, 266
-0.998539, 281, 287, 344, 302
-0.998541, 253, 321, 284, 336
-0.998542, 1, 187, 64, 202
-0.998543, 361, 241, 424, 256
-0.998543, 25, 169, 88, 184
-0.998545, 225, 357, 288, 372
-0.998545, 361, 261, 424, 276
-0.998545, 313, 229, 376, 244
-0.998545, 201, 303, 264, 318
-0.998546, 337, 235, 400, 250
-0.998547, 297, 287, 328, 302
-0.998548, 169, 21, 232, 36
-0.998548, 225, 313, 288, 328
-0.998549, 241, 41, 304, 56
-0.998549, 137, 21, 200, 36
-0.99855, 389, 255, 420, 270
-0.998551, 261, 339, 292, 354
-0.998551, 353, 261, 384, 276
-0.998552, 329, 273, 392, 288
-0.998553, 41, 177, 104, 192
-0.998553, 113, 33, 176, 48
-0.998553, 177, 339, 240, 354
-0.998554, 73, 139, 136, 154
-0.998554, 313, 47, 376, 62
-0.998557, 249, 327, 280, 342
-0.998558, 285, 1, 300, 128
-0.998559, 193, 281, 256, 296
-0.99856, 33, 275, 96, 290
-0.99856, 169, 121, 232, 136
-0.998562, 41, 73, 104, 88
-0.998562, 217, 183, 280, 198
-0.998564, 281, 275, 344, 290
-0.998564, 129, 325, 192, 340
-0.998564, 9, 173, 40, 188
-0.998564, 209, 115, 272, 130
-0.998564, 145, 131, 208, 146
-0.998565, 201, 35, 264, 50
-0.998565, 1, 167, 64, 182
-0.998566, 433, 103, 496, 118
-0.998566, 341, 239, 372, 254
-0.998566, 297, 259, 360, 274
-0.998566, 177, 345, 240, 360
-0.998567, 241, 33, 304, 48
-0.998567, 325, 281, 356, 296
-0.998567, 185, 351, 248, 366
-0.998568, 137, 15, 200, 30
-0.998569, 349, 267, 380, 282
-0.998569, 185, 361, 248, 375
-0.99857, 357, 297, 388, 312
-0.998571, 313, 221, 376, 236
-0.998572, 209, 41, 272, 56
-0.998572, 389, 261, 420, 276
-0.998573, 233, 139, 296, 154
-0.998574, 169, 55, 232, 70
-0.998574, 201, 15, 264, 30
-0.998575, 377, 235, 440, 250
-0.998577, 337, 265, 368, 280
-0.998577, 281, 239, 344, 254
-0.998578, 313, 283, 376, 298
-0.998579, 217, 321, 280, 336
-0.998579, 161, 27, 224, 42
-0.99858, 401, 209, 464, 224
-0.99858, 273, 313, 336, 328
-0.99858, 249, 341, 312, 356
-0.998581, 265, 327, 328, 342
-0.998582, 193, 243, 256, 258
-0.998583, 169, 15, 232, 30
-0.998583, 305, 249, 336, 264
-0.998584, 433, 97, 496, 112
-0.998584, 345, 273, 376, 288
-0.998585, 433, 115, 496, 130
-0.998585, 365, 261, 396, 276
-0.998585, 225, 193, 288, 208
-0.998587, 41, 157, 104, 172
-0.998588, 417, 189, 480, 204
-0.998589, 425, 109, 488, 124
-0.998589, 309, 287, 340, 302
-0.998589, 265, 43, 328, 58
-0.99859, 161, 319, 224, 334
-0.99859, 289, 319, 352, 334
-0.998591, 105, 51, 168, 66
-0.998591, 185, 257, 248, 272
-0.998591, 9, 77, 72, 92
-0.998592, 169, 127, 232, 142
-0.998594, 365, 253, 396, 268
-0.998595, 257, 347, 320, 362
-0.998596, 193, 265, 256, 280
-0.998596, 281, 37, 344, 52
-0.998596, 41, 151, 104, 166
-0.998597, 105, 129, 168, 144
-0.998598, 261, 347, 292, 362
-0.998598, 249, 161, 312, 176
-0.998599, 325, 241, 356, 256
-0.998599, 105, 45, 168, 60
-0.9986, 177, 305, 240, 320
-0.9986, 201, 313, 264, 328
-0.998601, 193, 273, 256, 288
-0.998601, 305, 41, 368, 56
-0.998602, 433, 91, 496, 106
-0.998603, 369, 187, 432, 202
-0.998603, 177, 333, 240, 348
-0.998603, 41, 163, 104, 178
-0.998603, 417, 145, 480, 160
-0.998604, 305, 291, 368, 306
-0.998606, 121, 141, 184, 156
-0.998608, 377, 289, 440, 304
-0.998608, 241, 111, 304, 126
-0.99861, 21, 169, 52, 184
-0.998611, 17, 283, 80, 298
-0.998611, 193, 287, 256, 302
-0.998612, 233, 119, 296, 134
-0.998613, 25, 175, 56, 190
-0.998623, 313, 281, 344, 296
-0.998623, 317, 273, 348, 288
-0.998624, 329, 275, 360, 290
-0.99865, 197, 1, 228, 256
-0.998663, 177, 129, 208, 375
-0.998664, 273, 313, 304, 328
-0.998674, 359, 225, 374, 352
-0.998676, 265, 323, 296, 338
-0.998688, 365, 225, 380, 352
-0.998697, 449, 97, 480, 352
-0.998704, 333, 225, 348, 352
-0.998714, 485, 65, 500, 192
-0.998719, 257, 1, 272, 128
-0.998726, 267, 1, 282, 128
-0.998747, 251, 1, 266, 128
-0.998748, 387, 225, 402, 352
-0.998765, 233, 241, 248, 368
-0.998773, 245, 1, 260, 128
-0.998795, 395, 209, 410, 336
-0.998797, 327, 225, 342, 352
-0.998803, 275, 1, 290, 128
-0.998807, 169, 1, 184, 128
-0.998807, 181, 1, 212, 256
-0.998835, 373, 225, 388, 352
-0.998847, 341, 209, 356, 336
-0.998847, 351, 209, 366, 336
-0.998871, 401, 209, 416, 336
-0.998874, 239, 1, 254, 128
-0.998885, 233, 193, 248, 320
-0.998893, 311, 193, 326, 320
-0.998895, 413, 209, 428, 336
-0.998904, 283, 113, 298, 240
-0.998905, 403, 161, 418, 288
-0.998925, 417, 33, 448, 288
-0.998944, 395, 145, 410, 272
-0.998944, 479, 65, 494, 192
-0.998964, 379, 225, 394, 352
-0.998973, 281, 241, 296, 368
-0.999022, 407, 225, 422, 352
-0.999028, 73, 65, 88, 192
-0.999029, 387, 177, 402, 304
-0.999035, 223, 209, 238, 336
-0.999048, 179, 17, 194, 144
-0.999058, 359, 33, 374, 160
-0.999062, 173, 49, 188, 176
-0.999077, 53, 129, 68, 256
-0.999091, 97, 49, 112, 176
-0.999092, 485, 17, 500, 144
-0.999095, 233, 1, 248, 128
-0.999097, 217, 1, 232, 128
-0.999098, 309, 1, 340, 256
-0.999104, 445, 1, 476, 256
-0.999105, 63, 65, 78, 192
-0.999108, 239, 209, 254, 336
-0.999111, 87, 49, 102, 176
-0.999114, 153, 113, 168, 240
-0.999119, 277, 145, 292, 272
-0.999124, 293, 241, 308, 368
-0.999125, 79, 65, 94, 192
-0.999127, 165, 113, 180, 240
-0.999127, 291, 1, 306, 128
-0.999128, 105, 113, 120, 240
-0.999135, 37, 193, 52, 320
-0.999139, 277, 97, 292, 224
-0.999144, 301, 177, 316, 304
-0.999145, 485, 113, 500, 240
-0.999152, 159, 113, 174, 240
-0.999153, 47, 145, 62, 272
-0.999153, 375, 177, 390, 304
-0.999155, 287, 177, 302, 304
-0.999155, 143, 33, 158, 160
-0.999156, 185, 65, 200, 192
-0.999159, 147, 113, 162, 240
-0.999166, 179, 65, 194, 192
-0.999167, 309, 1, 324, 128
-0.999171, 81, 129, 96, 256
-0.999175, 363, 177, 378, 304
-0.999178, 57, 65, 72, 192
-0.999181, 31, 129, 46, 256
-0.999191, 275, 49, 290, 176
-0.999195, 129, 113, 144, 240
-0.999195, 297, 49, 312, 176
-0.999196, 173, 113, 188, 240
-0.999197, 389, 129, 404, 256
-0.999198, 289, 97, 304, 224
-0.999198, 323, 177, 338, 304
-0.999206, 365, 33, 380, 160
-0.999207, 191, 33, 206, 160
-0.999207, 125, 33, 140, 160
-0.999209, 311, 241, 326, 368
-0.99921, 37, 129, 52, 256
-0.999216, 435, 129, 450, 256
-0.99922, 63, 225, 78, 352
-0.999221, 93, 129, 108, 256
-0.999222, 267, 113, 282, 240
-0.999232, 369, 81, 384, 208
-0.99924, 351, 161, 366, 288
-0.999244, 207, 49, 222, 176
-0.999245, 131, 33, 146, 160
-0.999246, 99, 113, 114, 240
-0.999247, 259, 97, 274, 224
-0.999248, 453, 129, 468, 256
-0.99925, 223, 1, 238, 128
-0.999253, 105, 49, 120, 176
-0.999253, 63, 129, 78, 256
-0.999263, 361, 1, 392, 256
-0.999264, 199, 97, 214, 224
-0.999268, 163, 33, 178, 160
-0.999271, 137, 33, 152, 160
-0.999272, 411, 161, 426, 288
-0.999272, 223, 49, 238, 176
-0.999273, 139, 113, 154, 240
-0.999275, 239, 49, 254, 176
-0.999278, 245, 209, 260, 336
-0.999283, 427, 129, 442, 256
-0.999287, 211, 241, 226, 368
-0.999292, 179, 113, 194, 240
-0.999294, 217, 241, 232, 368
-0.999294, 69, 129, 84, 256
-0.999296, 267, 49, 282, 176
-0.999297, 357, 177, 372, 304
-0.999298, 227, 161, 242, 288
-0.9993, 303, 17, 318, 144
-0.999302, 49, 65, 64, 192
-0.999302, 269, 241, 284, 368
-0.999308, 197, 241, 212, 368
-0.99931, 331, 177, 346, 304
-0.999311, 229, 65, 244, 192
-0.999312, 349, 1, 364, 128
-0.999313, 459, 129, 474, 256
-0.999317, 305, 241, 320, 368
-0.99932, 259, 145, 274, 272
-0.999328, 287, 225, 302, 352
-0.999331, 245, 145, 260, 272
-0.999333, 257, 49, 272, 176
-0.999333, 293, 177, 308, 304
-0.999333, 31, 193, 46, 320
-0.999334, 201, 17, 216, 144
-0.999335, 249, 49, 264, 176
-0.999336, 123, 113, 138, 240
-0.999338, 87, 129, 102, 256
-0.99944, 457, 1, 488, 256
-0.999496, 1, 89, 500, 152
-0.999576, 377, 1, 408, 256
-0.999618, 273, 345, 288, 360
-0.999618, 345, 267, 360, 282
-0.999618, 311, 241, 326, 256
-0.99962, 307, 263, 322, 278
-0.999621, 169, 133, 184, 148
-0.999621, 53, 269, 68, 284
-0.999621, 281, 41, 296, 56
-0.999621, 311, 257, 326, 272
-0.999621, 399, 247, 414, 262
-0.999621, 179, 127, 194, 142
-0.999623, 303, 251, 318, 266
-0.999623, 51, 155, 66, 170
-0.999623, 347, 279, 362, 294
-0.999623, 225, 225, 240, 240
-0.999624, 259, 111, 274, 126
-0.999624, 201, 115, 216, 130
-0.999625, 381, 239, 396, 254
-0.999629, 289, 261, 304, 276
-0.99963, 367, 255, 382, 270
-0.99963, 327, 267, 342, 282
-0.999631, 261, 353, 276, 368
-0.999634, 387, 261, 402, 276
-0.999634, 231, 223, 246, 238
-0.999635, 161, 131, 176, 146
-0.999636, 339, 237, 354, 252
-0.999636, 339, 251, 354, 266
-0.999636, 237, 301, 252, 316
-0.999636, 287, 41, 302, 56
-0.999637, 317, 253, 332, 268
-0.999639, 301, 283, 316, 298
-0.999639, 247, 11, 262, 26
-0.99964, 205, 281, 220, 296
-0.999641, 359, 319, 374, 334
-0.999641, 289, 325, 304, 340
-0.999642, 159, 31, 174, 46
-0.999642, 259, 195, 274, 210
-0.999643, 297, 253, 312, 268
-0.999643, 413, 191, 428, 206
-0.999643, 263, 335, 278, 350
-0.999644, 163, 143, 178, 158
-0.999645, 361, 261, 376, 276
-0.999646, 351, 247, 366, 262
-0.999646, 1, 175, 16, 190
-0.999646, 261, 161, 276, 176
-0.999646, 391, 237, 406, 252
-0.999649, 339, 263, 354, 278
-0.99965, 423, 193, 438, 208
-0.999651, 337, 245, 352, 260
-0.999651, 325, 277, 340, 292
-0.999652, 345, 233, 360, 248
-0.999653, 375, 245, 390, 260
-0.999654, 271, 329, 286, 344
-0.999655, 397, 253, 412, 268
-0.999655, 41, 177, 56, 192
-0.999655, 231, 279, 246, 294
-0.999655, 381, 247, 396, 262
-0.99966, 333, 253, 348, 268
-0.999661, 323, 235, 338, 250
-0.999661, 363, 297, 378, 312
-0.999662, 317, 243, 332, 258
-0.999663, 311, 25, 326, 40
-0.999663, 381, 261, 396, 276
-0.999665, 309, 289, 324, 304
-0.999665, 285, 253, 300, 268
-0.999666, 369, 267, 384, 282
-0.999667, 105, 135, 120, 150
-0.999669, 207, 117, 222, 132
-0.99967, 345, 249, 360, 264
-0.999671, 405, 33, 436, 288
-0.999672, 319, 271, 334, 286
-0.999672, 259, 341, 274, 356
-0.999674, 357, 255, 372, 270
-0.999675, 237, 219, 252, 234
-0.999677, 271, 315, 286, 330
-0.999677, 309, 247, 324, 262
-0.99968, 303, 275, 318, 290
-0.999681, 363, 243, 378, 258
-0.999681, 299, 263, 314, 278
-0.999681, 333, 271, 348, 286
-0.999683, 39, 167, 54, 182
-0.999683, 103, 49, 118, 64
-0.999684, 315, 287, 330, 302
-0.999686, 233, 243, 248, 258
-0.999688, 353, 241, 368, 256
-0.999688, 11, 173, 26, 188
-0.999691, 393, 247, 408, 262
-0.999691, 387, 243, 402, 258
-0.999694, 277, 325, 292, 340
-0.999695, 317, 259, 332, 274
-0.999695, 391, 255, 406, 270
-0.999699, 323, 245, 338, 260
-0.9997, 373, 251, 388, 266
-0.9997, 337, 281, 352, 296
-0.999708, 363, 267, 378, 282
-0.999709, 267, 341, 282, 356
-0.999709, 355, 273, 370, 288
-0.99971, 375, 261, 390, 276
-0.999713, 327, 283, 342, 298
-0.999713, 369, 295, 384, 310
-0.999714, 27, 169, 42, 184
-0.999715, 267, 353, 282, 368
-0.99972, 329, 241, 344, 256
-0.999721, 269, 335, 284, 350
-0.999722, 395, 285, 410, 300
-0.999724, 279, 311, 294, 326
-0.999726, 357, 267, 372, 282
-0.99973, 347, 273, 362, 288
-0.999735, 369, 241, 384, 256
-0.999736, 27, 175, 42, 190
-0.99974, 19, 171, 34, 186
-0.999744, 287, 313, 302, 328
-0.999744, 351, 265, 366, 280
-0.999749, 279, 319, 294, 334
-0.999752, 327, 261, 342, 276
-0.999754, 363, 249, 378, 264
-0.999761, 323, 251, 338, 266
-0.999762, 347, 255, 362, 270
-0.999766, 367, 261, 382, 276
-0.999768, 267, 321, 282, 336
-0.999771, 341, 275, 356, 290
-0.999772, 309, 269, 324, 284
-0.999772, 299, 245, 314, 260
-0.999772, 343, 243, 358, 258
-0.999774, 313, 281, 328, 296
-0.999776, 383, 255, 398, 270
-0.999777, 265, 347, 280, 362
-0.999777, 331, 277, 346, 292
-0.99978, 321, 285, 336, 300
-0.999784, 33, 169, 48, 184
-0.999787, 317, 237, 332, 252
-0.999793, 305, 257, 320, 272
-0.999806, 389, 33, 420, 288
