1954
-0.571048, 1, 1, 500, 375
-0.590141, 1, 1, 500, 256
-0.620211, 1, 97, 500, 352
-0.680025, 1, 1, 256, 375
-0.682996, 129, 1, 384, 375
-0.702539, 225, 1, 480, 375
-0.824481, 129, 33, 384, 288
-0.832904, 1, 1, 256, 256
-0.848854, 257, 1, 500, 256
-0.862993, 193, 129, 448, 375
-0.902158, 145, 1, 272, 375
-0.907131, 257, 1, 384, 375
-0.910142, 177, 33, 304, 288
-0.912811, 17, 1, 144, 256
-0.918816, 209, 1, 336, 375
-0.919465, 33, 1, 160, 375
-0.919855, 65, 129, 320, 375
-0.920958, 225, 1, 352, 256
-0.92244, 273, 65, 400, 320
-0.922521, 81, 1, 208, 375
-0.928523, 97, 1, 224, 256
-0.929419, 97, 129, 224, 375
-0.929913, 145, 129, 272, 375
-0.935225, 1, 33, 500, 160
-0.935625, 225, 97, 352, 352
-0.936252, 321, 1, 448, 256
-0.936527, 321, 1, 448, 375
-0.941078, 1, 161, 500, 288
-0.941395, 49, 97, 176, 352
-0.941576, 321, 97, 448, 352
-0.944858, 1, 241, 500, 368
-0.949575, 369, 1, 496, 375
-0.951527, 369, 1, 496, 256
-0.954721, 369, 97, 496, 352
-0.955275, 1, 113, 500, 240
-0.955528, 1, 97, 128, 352
-0.956354, 1, 193, 256, 320
-0.957212, 129, 177, 384, 304
-0.962869, 113, 193, 240, 320
-0.964509, 225, 1, 480, 128
-0.965223, 1, 1, 256, 128
-0.965715, 137, 201, 200, 264
-0.966909, 249, 193, 312, 320
-0.967231, 153, 161, 216, 288
-0.967368, 225, 193, 480, 320
-0.968437, 129, 193, 192, 320
-0.968471, 161, 145, 288, 272
-0.968695, 249, 193, 312, 256
-0.969232, 1, 145, 256, 272
-0.969325, 241, 193, 368, 320
-0.969517, 113, 145, 240, 272
-0.969658, 65, 193, 192, 320
-0.969826, 161, 129, 416, 256
-0.970994, 97, 17, 352, 144
-0.971295, 113, 193, 176, 256
-0.97255, 105, 193, 168, 320
-0.973167, 65, 129, 192, 256
-0.973525, 169, 1, 232, 128
-0.973761, 257, 145, 500, 272
-0.973841, 1, 65, 256, 192
-0.974082, 129, 145, 192, 272
-0.97445, 49, 33, 176, 160
-0.974491, 9, 1, 72, 128
-0.974857, 273, 145, 336, 272
-0.975188, 129, 17, 192, 144
-0.975395, 1, 17, 128, 144
-0.975756, 257, 97, 500, 224
-0.976048, 193, 193, 320, 320
-0.976284, 393, 1, 456, 128
-0.97629, 145, 161, 208, 224
-0.97674, 289, 241, 416, 368
-0.976958, 281, 177, 344, 240
-0.977103, 145, 1, 272, 128
-0.977385, 201, 1, 264, 128
-0.977707, 105, 129, 168, 256
-0.977753, 113, 217, 176, 280
-0.977846, 273, 209, 336, 272
-0.977902, 129, 65, 384, 192
-0.978325, 161, 241, 416, 368
-0.978435, 49, 33, 112, 160
-0.97856, 393, 153, 456, 216
-0.978692, 153, 209, 216, 336
-0.978762, 257, 145, 384, 272
-0.978878, 161, 193, 224, 256
-0.978913, 305, 1, 368, 128
-0.979235, 369, 169, 432, 232
-0.979252, 337, 161, 464, 288
-0.979275, 233, 33, 296, 160
-0.979445, 385, 81, 448, 208
-0.97955, 209, 129, 336, 256
-0.97971, 217, 209, 280, 272
-0.979838, 1, 225, 128, 352
-0.979939, 353, 209, 480, 336
-0.980016, 257, 241, 500, 368
-0.980035, 89, 185, 152, 248
-0.980132, 241, 241, 368, 368
-0.980467, 169, 49, 232, 176
-0.980502, 169, 113, 232, 240
-0.980642, 297, 65, 360, 192
-0.980648, 113, 81, 240, 208
-0.980659, 177, 169, 240, 232
-0.980733, 137, 193, 168, 256
-0.980749, 257, 49, 500, 176
-0.980763, 385, 145, 448, 272
-0.98095, 97, 17, 224, 144
-0.981002, 57, 33, 120, 96
-0.981046, 305, 113, 432, 240
-0.981274, 225, 33, 352, 160
-0.98133, 249, 217, 312, 280
-0.981513, 201, 145, 264, 208
-0.981547, 225, 177, 288, 304
-0.981571, 209, 177, 272, 240
-0.981643, 25, 49, 88, 176
-0.981759, 265, 97, 328, 224
-0.981826, 145, 177, 272, 240
-0.981869, 433, 33, 496, 160
-0.981874, 73, 33, 136, 160
-0.982, 313, 241, 376, 368
-0.982109, 313, 201, 376, 264
-0.982118, 177, 241, 304, 368
-0.982165, 201, 65, 264, 192
-0.982291, 177, 145, 240, 208
-0.982381, 289, 65, 416, 192
-0.982508, 65, 81, 192, 208
-0.982522, 401, 241, 464, 368
-0.982744, 137, 65, 200, 192
-0.982758, 113, 201, 240, 264
-0.982779, 337, 113, 400, 240
-0.98301, 345, 49, 408, 176
-0.983029, 17, 177, 144, 304
-0.983171, 105, 17, 168, 144
-0.983174, 269, 193, 300, 256
-0.983247, 17, 1, 80, 64
-0.983296, 249, 169, 312, 232
-0.983336, 1, 65, 128, 192
-0.983462, 257, 33, 320, 160
-0.983497, 377, 241, 440, 368
-0.983683, 81, 33, 144, 96
-0.983751, 329, 161, 392, 224
-0.983773, 313, 225, 376, 288
-0.983824, 353, 177, 416, 304
-0.983837, 313, 113, 376, 176
-0.983983, 385, 129, 448, 192
-0.984015, 193, 145, 256, 272
-0.984081, 113, 161, 176, 224
-0.984131, 153, 177, 184, 240
-0.984206, 241, 113, 304, 240
-0.984223, 281, 153, 344, 216
-0.984372, 425, 209, 488, 336
-0.984512, 33, 241, 288, 368
-0.984565, 137, 177, 168, 304
-0.984648, 25, 33, 88, 96
-0.984734, 329, 1, 392, 128
-0.984828, 209, 201, 336, 264
-0.984923, 57, 1, 120, 64
-0.984924, 305, 17, 432, 144
-0.984954, 97, 241, 224, 368
-0.984986, 353, 1, 416, 128
-0.98509, 121, 41, 184, 104
-0.985147, 313, 193, 376, 320
-0.985243, 17, 129, 144, 256
-0.985248, 65, 185, 192, 248
-0.985266, 65, 217, 192, 280
-0.985315, 425, 177, 488, 240
-0.98539, 361, 81, 424, 144
-0.985618, 185, 289, 248, 352
-0.985639, 1, 241, 64, 368
-0.985761, 393, 265, 456, 328
-0.985804, 297, 249, 360, 312
-0.985918, 369, 249, 432, 312
-0.985933, 281, 105, 344, 168
-0.985986, 1, 137, 64, 200
-0.986036, 369, 193, 432, 256
-0.986101, 89, 209, 152, 272
-0.98619, 9, 209, 72, 272
-0.986239, 265, 177, 296, 304
-0.986289, 177, 41, 240, 104
-0.986293, 321, 57, 384, 120
-0.986308, 153, 305, 216, 368
-0.986329, 353, 129, 416, 192
-0.986364, 369, 1, 496, 128
-0.986399, 177, 49, 304, 176
-0.986422, 361, 49, 424, 112
-0.986444, 137, 225, 200, 288
-0.986487, 225, 153, 288, 216
-0.986504, 377, 193, 440, 320
-0.98654, 273, 129, 336, 192
-0.986555, 145, 137, 208, 200
-0.986557, 161, 201, 288, 264
-0.98657, 273, 193, 336, 320
-0.986586, 233, 1, 296, 64
-0.98659, 33, 1, 96, 256
-0.986651, 1, 33, 128, 96
-0.986654, 305, 169, 368, 232
-0.986694, 25, 105, 88, 168
-0.986719, 113, 137, 176, 200
-0.98674, 281, 17, 344, 144
-0.98684, 41, 289, 104, 352
-0.986866, 409, 161, 472, 288
-0.986899, 353, 81, 480, 208
-0.986931, 25, 177, 88, 304
-0.986947, 321, 137, 384, 200
-0.987022, 337, 225, 400, 288
-0.987045, 257, 185, 384, 248
-0.98705, 233, 81, 296, 144
-0.987052, 225, 81, 352, 208
-0.98708, 417, 145, 480, 208
-0.987108, 313, 89, 376, 152
-0.987115, 281, 305, 344, 368
-0.987118, 209, 73, 272, 136
-0.987127, 289, 241, 352, 368
-0.987132, 345, 241, 408, 368
-0.987134, 145, 153, 272, 216
-0.987136, 81, 1, 144, 64
-0.987189, 417, 265, 480, 328
-0.987207, 265, 17, 328, 80
-0.987207, 305, 25, 368, 88
-0.987218, 433, 161, 496, 288
-0.987223, 1, 129, 64, 256
-0.987325, 345, 265, 408, 328
-0.987343, 393, 289, 456, 352
-0.987347, 345, 193, 408, 256
-0.987386, 225, 129, 288, 192
-0.987419, 49, 1, 176, 64
-0.987464, 9, 81, 72, 144
-0.987542, 165, 161, 196, 224
-0.987559, 157, 145, 188, 272
-0.987668, 425, 225, 488, 288
-0.98771, 225, 129, 352, 192
-0.987761, 209, 65, 336, 128
-0.987776, 361, 129, 424, 256
-0.987902, 217, 113, 280, 240
-0.987993, 321, 1, 384, 64
-0.988018, 153, 65, 216, 128
-0.988102, 1, 49, 64, 176
-0.988107, 1, 33, 64, 96
-0.988108, 253, 201, 284, 264
-0.98815, 193, 169, 320, 232
-0.988196, 185, 313, 248, 375
-0.988223, 1, 233, 128, 296
-0.988238, 145, 129, 176, 256
-0.98824, 433, 113, 496, 176
-0.988253, 41, 145, 104, 208
-0.988264, 361, 25, 424, 88
-0.988264, 209, 41, 272, 104
-0.988283, 177, 121, 240, 184
-0.98833, 337, 265, 464, 328
-0.988379, 185, 265, 248, 328
-0.988428, 257, 89, 320, 152
-0.988447, 121, 17, 184, 80
-0.988447, 1, 233, 64, 296
-0.988518, 129, 113, 192, 176
-0.988549, 145, 41, 208, 104
-0.988569, 313, 129, 376, 256
-0.988639, 273, 265, 336, 328
-0.988641, 289, 1, 352, 375
-0.988645, 185, 217, 248, 280
-0.988657, 161, 41, 288, 104
-0.988685, 65, 81, 128, 144
-0.9887, 145, 81, 272, 144
-0.988702, 321, 81, 448, 144
-0.988824, 409, 201, 472, 264
-0.988843, 401, 225, 464, 288
-0.988868, 401, 105, 464, 168
-0.988881, 257, 241, 320, 368
-0.988927, 49, 57, 176, 120
-0.988928, 233, 1, 296, 375
-0.988931, 81, 161, 208, 224
-0.988935, 289, 65, 352, 128
-0.988947, 185, 241, 248, 368
-0.988973, 13, 1, 44, 128
-0.988982, 433, 17, 496, 80
-0.988988, 133, 129, 164, 256
-0.989066, 113, 41, 240, 104
-0.989096, 193, 241, 256, 304
-0.9891, 41, 57, 104, 120
-0.989118, 369, 225, 432, 288
-0.989119, 241, 161, 368, 224
-0.989123, 169, 193, 200, 256
-0.989185, 177, 129, 304, 192
-0.989242, 105, 281, 168, 344
-0.98926, 273, 241, 336, 304
-0.989264, 65, 201, 128, 264
-0.989271, 313, 1, 376, 256
-0.989282, 225, 265, 288, 328
-0.989307, 177, 65, 240, 128
-0.989357, 225, 41, 352, 104
-0.98937, 149, 201, 180, 264
-0.989399, 265, 41, 328, 104
-0.989399, 337, 81, 400, 144
-0.989399, 25, 169, 88, 232
-0.989442, 161, 1, 224, 64
-0.989471, 49, 169, 112, 232
-0.989517, 161, 241, 224, 304
-0.989633, 289, 185, 320, 248
-0.989634, 173, 161, 204, 288
-0.989635, 17, 305, 80, 368
-0.989686, 257, 209, 384, 272
-0.989701, 269, 161, 300, 224
-0.989721, 393, 81, 456, 144
-0.989735, 145, 129, 208, 375
-0.989782, 145, 33, 208, 288
-0.989794, 1, 1, 128, 64
-0.989814, 161, 217, 224, 280
-0.989838, 97, 57, 160, 120
-0.989845, 1, 1, 64, 375
-0.989858, 49, 33, 176, 96
-0.989882, 305, 273, 368, 336
-0.989886, 305, 57, 432, 120
-0.989892, 289, 193, 416, 320
-0.989902, 193, 225, 320, 288
-0.989906, 253, 177, 284, 304
-0.989943, 249, 145, 312, 208
-0.989964, 57, 1, 120, 256
-0.98997, 337, 225, 464, 288
-0.989996, 169, 97, 232, 160
-0.990002, 65, 297, 128, 360
-0.990003, 81, 137, 208, 200
-0.990046, 305, 153, 432, 216
-0.990049, 41, 265, 104, 328
-0.990074, 113, 225, 240, 288
-0.990124, 185, 145, 216, 208
-0.990125, 89, 161, 152, 224
-0.990132, 145, 265, 208, 328
-0.990139, 265, 1, 328, 375
-0.99016, 345, 1, 408, 64
-0.990174, 409, 49, 472, 176
-0.990178, 1, 193, 64, 320
-0.990278, 33, 233, 96, 296
-0.990313, 1, 73, 128, 136
-0.99032, 305, 1, 336, 128
-0.990321, 209, 17, 272, 80
-0.99037, 289, 1, 352, 64
-0.990375, 305, 97, 368, 352
-0.990423, 249, 201, 312, 232
-0.990432, 273, 129, 400, 192
-0.990443, 121, 209, 152, 272
-0.990444, 33, 225, 96, 352
-0.990459, 249, 1, 312, 256
-0.990462, 145, 181, 208, 212
-0.990463, 65, 265, 128, 328
-0.990508, 129, 33, 160, 160
-0.99053, 65, 33, 96, 96
-0.990532, 205, 153, 236, 216
-0.990538, 277, 177, 308, 304
-0.990538, 129, 197, 192, 228
-0.990553, 369, 289, 432, 352
-0.990563, 241, 97, 368, 160
-0.99057, 321, 49, 384, 176
-0.990575, 129, 113, 256, 176
-0.990653, 257, 313, 384, 375
-0.990667, 209, 305, 272, 368
-0.990669, 321, 289, 448, 352
-0.99068, 129, 1, 256, 64
-0.990688, 329, 33, 392, 96
-0.990692, 385, 49, 448, 112
-0.990722, 241, 233, 368, 296
-0.990736, 217, 225, 280, 352
-0.990759, 353, 33, 480, 96
-0.990791, 209, 1, 272, 375
-0.990812, 257, 65, 384, 128
-0.990837, 249, 177, 280, 240
-0.990927, 17, 201, 144, 264
-0.990942, 105, 1, 168, 256
-0.991027, 129, 241, 192, 368
-0.991112, 121, 217, 184, 248
-0.991115, 241, 9, 368, 72
-0.99114, 169, 1, 232, 256
-0.991144, 177, 17, 304, 80
-0.991154, 81, 81, 208, 144
-0.991184, 353, 169, 480, 232
-0.991263, 65, 225, 128, 352
-0.991273, 65, 1, 96, 128
-0.991312, 233, 129, 296, 375
-0.991369, 81, 305, 208, 368
-0.991371, 161, 1, 192, 128
-0.991394, 49, 241, 176, 368
-0.991452, 273, 193, 336, 224
-0.991487, 153, 209, 216, 240
-0.99151, 273, 209, 336, 240
-0.991535, 177, 165, 240, 196
-0.99154, 273, 33, 400, 96
-0.991547, 1, 1, 64, 256
-0.991551, 305, 185, 432, 248
-0.991574, 25, 1, 56, 128
-0.991628, 229, 1, 260, 128
-0.991657, 369, 289, 496, 352
-0.991658, 249, 213, 312, 244
-0.991689, 177, 177, 240, 208
-0.991696, 177, 105, 304, 168
-0.991715, 97, 65, 160, 192
-0.991733, 321, 129, 448, 192
-0.991753, 13, 33, 44, 96
-0.991762, 369, 145, 496, 208
-0.991764, 425, 65, 488, 320
-0.991776, 369, 313, 496, 375
-0.991783, 153, 41, 216, 72
-0.991811, 65, 81, 128, 208
-0.991828, 65, 37, 128, 68
-0.99185, 161, 197, 224, 228
-0.991896, 225, 221, 288, 252
-0.9919, 289, 249, 416, 312
-0.991904, 137, 169, 200, 200
-0.991912, 273, 273, 400, 336
-0.991935, 121, 37, 184, 68
-0.991939, 105, 185, 168, 216
-0.991974, 41, 1, 104, 375
-0.991977, 273, 65, 336, 320
-0.99199, 289, 105, 416, 168
-0.992002, 105, 205, 168, 236
-0.992027, 137, 153, 200, 184
-0.992051, 145, 221, 208, 252
-0.992088, 297, 181, 360, 212
-0.992095, 129, 273, 256, 336
-0.992103, 281, 161, 344, 192
-0.992104, 105, 229, 168, 260
-0.992109, 145, 305, 272, 368
-0.992121, 81, 33, 112, 96
-0.992134, 193, 313, 320, 375
-0.992178, 273, 181, 336, 212
-0.99218, 313, 57, 376, 88
-0.992181, 225, 185, 288, 216
-0.992187, 89, 29, 152, 60
-0.992215, 369, 81, 496, 144
-0.992218, 217, 209, 280, 240
-0.992229, 321, 185, 384, 216
-0.992241, 97, 217, 160, 248
-0.992259, 153, 1, 216, 375
-0.992264, 33, 129, 96, 256
-0.992264, 105, 97, 168, 352
-0.992289, 133, 161, 164, 224
-0.992293, 353, 57, 480, 120
-0.992302, 369, 57, 400, 120
-0.992307, 17, 257, 144, 320
-0.992356, 305, 145, 368, 176
-0.992369, 41, 33, 104, 64
-0.99237, 401, 269, 464, 300
-0.992376, 253, 129, 284, 256
-0.992385, 161, 153, 224, 184
-0.992385, 1, 113, 128, 176
-0.992385, 65, 241, 192, 304
-0.992394, 185, 193, 248, 320
-0.992396, 393, 289, 456, 320
-0.992403, 345, 1, 408, 256
-0.992416, 409, 169, 472, 200
-0.992432, 257, 13, 320, 44
-0.992433, 17, 37, 80, 68
-0.992434, 25, 21, 88, 52
-0.992435, 177, 49, 240, 80
-0.99244, 129, 233, 192, 264
-0.992449, 277, 217, 308, 280
-0.99245, 129, 133, 192, 164
-0.992467, 1, 225, 64, 256
-0.992468, 281, 109, 344, 140
-0.992483, 149, 153, 180, 216
-0.992485, 297, 197, 360, 228
-0.992492, 185, 313, 248, 344
-0.992495, 133, 217, 164, 280
-0.992499, 17, 49, 80, 80
-0.992502, 149, 193, 180, 320
-0.992518, 273, 305, 336, 336
-0.99252, 337, 73, 400, 104
-0.992535, 113, 25, 176, 56
-0.992542, 41, 1, 72, 64
-0.992549, 369, 173, 432, 204
-0.992562, 273, 221, 336, 252
-0.992567, 177, 37, 240, 68
-0.99257, 185, 193, 248, 224
-0.992578, 1, 169, 64, 200
-0.992582, 233, 133, 296, 164
-0.992587, 249, 181, 312, 212
-0.992588, 185, 169, 216, 232
-0.992588, 153, 309, 216, 340
-0.992588, 273, 317, 336, 348
-0.992596, 433, 245, 496, 276
-0.9926, 125, 177, 156, 304
-0.992604, 185, 297, 248, 328
-0.992608, 265, 149, 328, 180
-0.992613, 37, 33, 68, 160
-0.992615, 97, 1, 160, 375
-0.99262, 257, 101, 320, 132
-0.992623, 369, 97, 432, 352
-0.992627, 313, 101, 376, 132
-0.992627, 281, 261, 344, 292
-0.992633, 241, 201, 272, 264
-0.992634, 57, 53, 120, 84
-0.992655, 385, 105, 448, 136
-0.992664, 225, 145, 256, 208
-0.992669, 289, 233, 352, 264
-0.992671, 433, 181, 496, 212
-0.992673, 169, 141, 232, 172
-0.992674, 145, 117, 208, 148
-0.99268, 257, 269, 320, 300
-0.992681, 425, 113, 488, 240
-0.992683, 289, 89, 352, 120
-0.992683, 1, 157, 64, 188
-0.992686, 297, 77, 360, 108
-0.992689, 321, 197, 384, 228
-0.99269, 297, 17, 360, 48
-0.992695, 329, 97, 392, 352
-0.9927, 361, 201, 424, 232
-0.992709, 417, 157, 480, 188
-0.992715, 369, 153, 432, 184
-0.992718, 297, 209, 360, 240
-0.99272, 265, 281, 328, 312
-0.992741, 161, 129, 224, 160
-0.992746, 321, 169, 384, 200
-0.992752, 305, 249, 368, 280
-0.992757, 417, 121, 480, 152
-0.992765, 153, 53, 216, 84
-0.99277, 417, 213, 480, 244
-0.992773, 377, 269, 440, 300
-0.992775, 25, 169, 88, 200
-0.99278, 161, 97, 288, 224
-0.992782, 81, 145, 144, 272
-0.992786, 233, 153, 296, 184
-0.992789, 17, 237, 80, 268
-0.992792, 217, 197, 280, 228
-0.992794, 225, 265, 352, 328
-0.992796, 33, 73, 96, 104
-0.992799, 65, 21, 128, 52
-0.992799, 257, 341, 320, 372
-0.992801, 257, 113, 320, 144
-0.992811, 113, 173, 176, 204
-0.992812, 241, 309, 304, 340
-0.992814, 321, 213, 384, 244
-0.992815, 117, 185, 148, 248
-0.992818, 1, 21, 64, 52
-0.992822, 169, 237, 232, 268
-0.992822, 141, 201, 172, 232
-0.992823, 137, 25, 200, 56
-0.992827, 233, 53, 296, 84
-0.992828, 25, 225, 88, 256
-0.99283, 177, 1, 240, 375
-0.992846, 57, 233, 120, 264
-0.99285, 377, 1, 440, 256
-0.992851, 273, 69, 336, 100
-0.992853, 97, 41, 160, 72
-0.992859, 433, 93, 496, 124
-0.992859, 273, 137, 336, 168
-0.992869, 329, 89, 392, 120
-0.992871, 241, 325, 304, 356
-0.992875, 417, 1, 480, 32
-0.992885, 33, 129, 96, 160
-0.992885, 361, 85, 424, 116
-0.99289, 209, 241, 272, 272
-0.992895, 409, 109, 472, 140
-0.992898, 321, 321, 384, 352
-0.9929, 257, 53, 320, 84
-0.9929, 273, 25, 336, 56
-0.992906, 265, 233, 328, 264
-0.992906, 161, 249, 224, 280
-0.992907, 225, 41, 288, 72
-0.992908, 329, 245, 392, 276
-0.99291, 49, 153, 112, 184
-0.992913, 305, 269, 368, 300
-0.992914, 161, 65, 224, 96
-0.992914, 53, 17, 84, 144
-0.992925, 81, 113, 208, 176
-0.992926, 281, 293, 344, 324
-0.992926, 385, 209, 448, 240
-0.992929, 201, 221, 264, 252
-0.992976, 265, 201, 296, 232
-0.993022, 157, 185, 188, 216
-0.993056, 169, 173, 200, 204
-0.993078, 253, 205, 284, 236
-0.993081, 361, 81, 392, 144
-0.993091, 149, 217, 180, 248
-0.993109, 325, 1, 356, 128
-0.993125, 369, 201, 496, 264
-0.993141, 125, 213, 156, 244
-0.993169, 161, 209, 192, 240
-0.993178, 289, 185, 320, 216
-0.99318, 113, 221, 144, 252
-0.993191, 137, 225, 168, 256
-0.993195, 293, 213, 324, 244
-0.993207, 277, 197, 308, 228
-0.993207, 377, 81, 408, 144
-0.993217, 321, 185, 352, 248
-0.993222, 165, 161, 196, 192
-0.993236, 277, 209, 308, 240
-0.993258, 77, 37, 108, 68
-0.993275, 1, 97, 64, 352
-0.993282, 21, 1, 52, 64
-0.993296, 249, 225, 280, 256
-0.993307, 305, 161, 336, 192
-0.993312, 185, 177, 216, 208
-0.993318, 321, 313, 448, 375
-0.993319, 237, 217, 268, 248
-0.993322, 281, 221, 312, 252
-0.993323, 273, 185, 304, 216
-0.993324, 173, 201, 204, 232
-0.993331, 109, 209, 140, 240
-0.99334, 89, 41, 120, 72
-0.993345, 121, 189, 152, 220
-0.993345, 29, 221, 60, 252
-0.993348, 65, 265, 192, 328
-0.993348, 161, 217, 192, 280
-0.993357, 145, 189, 176, 220
-0.993366, 185, 161, 216, 192
-0.993367, 93, 25, 124, 56
-0.993373, 373, 81, 404, 112
-0.993377, 253, 225, 284, 288
-0.993379, 309, 181, 340, 212
-0.99338, 57, 37, 88, 68
-0.993388, 289, 173, 320, 204
-0.993391, 125, 229, 156, 260
-0.993395, 109, 41, 140, 72
-0.9934, 361, 81, 392, 112
-0.993405, 361, 65, 392, 96
-0.993406, 245, 81, 276, 144
-0.993409, 13, 209, 44, 240
-0.99341, 425, 209, 456, 336
-0.993415, 113, 29, 144, 60
-0.993417, 301, 241, 332, 272
-0.993417, 157, 33, 188, 64
-0.993417, 389, 81, 420, 112
-0.993418, 289, 197, 320, 228
-0.993422, 305, 57, 336, 88
-0.993432, 29, 41, 60, 72
-0.993434, 261, 221, 292, 252
-0.993435, 301, 197, 332, 228
-0.993439, 89, 217, 120, 248
-0.993442, 469, 133, 500, 164
-0.993443, 13, 45, 44, 76
-0.993444, 169, 37, 200, 68
-0.993445, 13, 33, 44, 64
-0.993445, 129, 41, 160, 72
-0.993449, 265, 325, 296, 356
-0.993449, 157, 173, 188, 204
-0.993454, 261, 45, 292, 76
-0.993455, 1, 153, 128, 216
-0.993457, 317, 161, 348, 288
-0.993457, 337, 85, 368, 116
-0.99346, 401, 65, 464, 320
-0.99346, 29, 233, 60, 264
-0.993465, 169, 185, 200, 216
-0.993466, 65, 1, 128, 375
-0.993466, 281, 61, 312, 92
-0.993466, 317, 225, 348, 256
-0.993468, 297, 229, 328, 260
-0.993472, 165, 149, 196, 180
-0.993473, 257, 185, 288, 216
-0.993478, 133, 181, 164, 212
-0.993479, 181, 41, 212, 72
-0.993479, 333, 165, 364, 196
-0.993481, 257, 133, 288, 164
-0.993483, 33, 209, 64, 240
-0.993483, 149, 161, 180, 192
-0.993485, 349, 125, 380, 156
-0.99349, 145, 29, 176, 60
-0.993494, 377, 209, 408, 240
-0.993495, 181, 309, 212, 340
-0.993496, 101, 269, 132, 300
-0.993496, 17, 221, 48, 252
-0.993498, 305, 209, 336, 240
-0.993503, 433, 173, 464, 204
-0.993503, 277, 345, 308, 375
-0.993505, 349, 325, 380, 356
-0.993506, 201, 245, 232, 276
-0.993506, 149, 45, 180, 76
-0.99351, 277, 165, 308, 196
-0.993511, 413, 161, 444, 192
-0.993511, 293, 65, 324, 96
-0.993512, 181, 189, 212, 220
-0.993513, 313, 149, 344, 180
-0.993514, 369, 257, 400, 288
-0.993515, 341, 313, 372, 344
-0.993517, 409, 73, 440, 104
-0.993519, 317, 197, 348, 228
-0.993519, 9, 241, 40, 272
-0.993519, 285, 269, 316, 300
-0.993523, 421, 197, 452, 228
-0.993524, 257, 65, 288, 96
-0.993525, 197, 313, 228, 344
-0.993526, 285, 45, 316, 76
-0.993526, 225, 237, 256, 268
-0.993527, 461, 209, 492, 240
-0.993529, 321, 101, 352, 132
-0.993529, 369, 197, 400, 228
-0.993529, 129, 201, 160, 232
-0.993529, 105, 233, 136, 264
-0.993531, 221, 141, 252, 172
-0.993532, 233, 205, 264, 236
-0.993533, 209, 49, 240, 80
-0.993533, 453, 177, 484, 208
-0.993533, 185, 149, 216, 180
-0.993533, 349, 257, 380, 288
-0.993538, 237, 133, 268, 164
-0.993538, 293, 257, 324, 288
-0.99354, 293, 149, 324, 180
-0.99354, 465, 185, 496, 216
-0.993541, 365, 325, 396, 356
-0.993541, 285, 21, 316, 52
-0.993541, 1, 157, 32, 188
-0.993541, 349, 93, 380, 124
-0.993545, 65, 25, 96, 56
-0.993545, 465, 345, 496, 375
-0.993547, 153, 145, 184, 176
-0.993547, 93, 229, 124, 260
-0.993548, 297, 337, 328, 368
-0.993548, 313, 69, 344, 100
-0.99355, 393, 1, 424, 32
-0.993551, 341, 273, 372, 304
-0.993551, 177, 345, 208, 375
-0.993552, 161, 197, 192, 228
-0.993552, 281, 333, 312, 364
-0.993554, 249, 321, 280, 352
-0.993578, 389, 1, 420, 64
-0.993617, 285, 129, 316, 256
-0.993622, 389, 129, 420, 192
-0.993638, 241, 1, 272, 64
-0.993641, 337, 1, 464, 64
-0.993686, 289, 217, 320, 280
-0.993702, 1, 177, 128, 240
-0.993711, 245, 33, 276, 160
-0.993717, 389, 57, 420, 120
-0.993719, 1, 305, 128, 368
-0.993728, 193, 33, 256, 288
-0.993728, 81, 17, 112, 144
-0.99378, 97, 201, 352, 264
-0.9938, 209, 289, 336, 352
-0.99382, 93, 33, 124, 96
-0.993821, 81, 1, 144, 256
-0.993856, 41, 217, 72, 280
-0.993906, 149, 17, 180, 144
-0.993914, 245, 25, 276, 88
-0.994011, 457, 225, 488, 288
-0.994016, 129, 1, 192, 375
-0.99404, 353, 225, 384, 288
-0.994045, 225, 33, 288, 288
-0.994101, 113, 249, 240, 312
-0.994108, 301, 49, 332, 176
-0.994115, 253, 1, 284, 64
-0.994126, 357, 49, 388, 176
-0.994138, 337, 105, 464, 168
-0.994145, 101, 33, 132, 160
-0.994222, 321, 145, 352, 208
-0.994237, 337, 185, 368, 248
-0.994271, 353, 241, 384, 368
-0.994308, 357, 57, 388, 120
-0.99431, 1, 209, 256, 272
-0.99433, 241, 57, 272, 120
-0.994335, 257, 225, 288, 352
-0.994348, 333, 97, 364, 224
-0.994349, 85, 9, 116, 72
-0.99435, 309, 209, 340, 336
-0.994378, 321, 249, 352, 312
-0.99438, 21, 209, 52, 336
-0.994386, 169, 137, 200, 200
-0.994389, 417, 1, 448, 128
-0.994395, 357, 1, 388, 128
-0.994397, 209, 145, 240, 272
-0.994457, 161, 65, 192, 192
-0.994512, 289, 9, 416, 72
-0.994523, 173, 1, 204, 128
-0.994538, 461, 1, 492, 128
-0.994556, 253, 153, 284, 216
-0.994558, 1, 25, 32, 88
-0.994564, 157, 41, 188, 104
-0.994604, 177, 249, 304, 312
-0.994617, 345, 1, 376, 128
-0.994619, 361, 1, 424, 375
-0.994622, 169, 129, 232, 375
-0.994624, 89, 305, 120, 368
-0.994643, 137, 25, 168, 88
-0.994682, 213, 129, 244, 192
-0.994684, 313, 1, 376, 375
-0.994684, 237, 121, 268, 184
-0.994701, 113, 209, 144, 336
-0.994705, 265, 217, 296, 280
-0.994728, 97, 177, 352, 240
-0.994763, 97, 1, 128, 64
-0.994765, 113, 49, 144, 176
-0.994765, 221, 169, 252, 232
-0.99478, 105, 33, 136, 96
-0.994813, 405, 241, 436, 304
-0.994828, 1, 161, 32, 224
-0.994829, 429, 1, 460, 128
-0.994829, 1, 17, 32, 144
-0.99483, 425, 265, 456, 328
-0.994838, 393, 1, 456, 375
-0.994842, 53, 33, 84, 96
-0.994856, 185, 129, 216, 256
-0.994857, 21, 217, 52, 280
-0.994878, 53, 1, 84, 64
-0.9949, 1, 1, 32, 64
-0.994906, 273, 129, 304, 256
-0.994935, 305, 161, 336, 224
-0.99495, 257, 49, 288, 112
-0.994957, 25, 49, 56, 176
-0.994971, 33, 1, 288, 64
-0.995, 269, 17, 300, 80
-0.995004, 41, 225, 72, 352
-0.995034, 289, 177, 320, 304
-0.995049, 297, 241, 328, 368
-0.995051, 229, 49, 260, 176
-0.995066, 201, 193, 232, 320
-0.995066, 437, 209, 468, 336
-0.995095, 33, 41, 64, 104
-0.995098, 345, 49, 376, 176
-0.995132, 185, 225, 216, 352
-0.995167, 253, 129, 284, 192
-0.99518, 69, 1, 100, 64
-0.995184, 405, 265, 436, 328
-0.99521, 105, 241, 168, 368
-0.995249, 417, 1, 480, 375
-0.995273, 345, 41, 376, 104
-0.995277, 409, 153, 440, 216
-0.99528, 193, 289, 224, 352
-0.995308, 445, 1, 476, 128
-0.995323, 269, 105, 300, 168
-0.995342, 209, 177, 240, 240
-0.995342, 73, 65, 104, 192
-0.995367, 329, 177, 360, 304
-0.995384, 377, 33, 408, 160
-0.995385, 465, 185, 496, 248
-0.995402, 329, 209, 360, 272
-0.99541, 309, 185, 340, 248
-0.995414, 445, 185, 476, 248
-0.99546, 341, 81, 372, 144
-0.995466, 345, 97, 376, 224
-0.995476, 389, 153, 420, 216
-0.995507, 17, 193, 48, 256
-0.995511, 97, 41, 352, 104
-0.995527, 321, 49, 352, 176
-0.995562, 397, 65, 428, 192
-0.995564, 25, 129, 88, 375
-0.995569, 225, 17, 256, 80
-0.995572, 177, 1, 208, 64
-0.995582, 337, 1, 400, 375
-0.995585, 193, 81, 448, 144
-0.995605, 197, 81, 228, 144
-0.995616, 257, 193, 500, 256
-0.995656, 113, 213, 240, 244
-0.995658, 285, 161, 316, 224
-0.995663, 417, 129, 448, 192
-0.995669, 193, 41, 448, 104
-0.995677, 329, 33, 360, 96
-0.995679, 201, 217, 232, 280
-0.995688, 413, 241, 444, 368
-0.995692, 53, 145, 84, 208
-0.995706, 325, 57, 356, 120
-0.995708, 301, 225, 332, 288
-0.995735, 217, 1, 248, 128
-0.995769, 297, 129, 328, 256
-0.995785, 273, 129, 304, 192
-0.995799, 9, 65, 40, 192
-0.995814, 113, 1, 144, 128
-0.995816, 469, 49, 500, 112
-0.995833, 145, 65, 176, 128
-0.995859, 161, 105, 192, 168
-0.995878, 377, 121, 408, 184
-0.995897, 409, 65, 440, 192
-0.995922, 221, 105, 252, 168
-0.995929, 389, 145, 420, 272
-0.995938, 29, 137, 60, 200
-0.995942, 209, 65, 240, 192
-0.995953, 425, 225, 456, 288
-0.995957, 309, 297, 340, 360
-0.995969, 249, 105, 280, 168
-0.995979, 193, 129, 448, 192
-0.995985, 241, 197, 368, 228
-0.995991, 269, 225, 300, 352
-0.996003, 1, 297, 32, 360
-0.996015, 257, 73, 288, 136
-0.996021, 401, 1, 432, 64
-0.996036, 197, 177, 228, 240
-0.996046, 285, 305, 316, 368
-0.99605, 145, 201, 272, 232
-0.996053, 181, 281, 212, 344
-0.996075, 357, 33, 388, 96
-0.996117, 461, 193, 492, 320
-0.996119, 141, 193, 156, 256
-0.996119, 361, 97, 392, 224
-0.996125, 329, 297, 360, 360
-0.996139, 341, 153, 372, 216
-0.996139, 329, 273, 360, 336
-0.996158, 285, 129, 316, 192
-0.996184, 161, 209, 192, 336
-0.996188, 257, 1, 500, 64
-0.996198, 237, 145, 268, 272
-0.996204, 273, 193, 288, 256
-0.996247, 153, 17, 184, 80
-0.996264, 461, 161, 492, 224
-0.996276, 257, 161, 500, 224
-0.996299, 53, 225, 84, 288
-0.99631, 33, 161, 64, 288
-0.996326, 151, 193, 166, 256
-0.996344, 189, 33, 220, 160
-0.996347, 1, 281, 128, 344
-0.996347, 437, 257, 468, 320
-0.996357, 129, 1, 384, 64
-0.996361, 377, 113, 408, 240
-0.996369, 135, 209, 150, 272
-0.996376, 133, 225, 164, 352
-0.996381, 161, 153, 416, 216
-0.996392, 65, 221, 192, 252
-0.996398, 177, 153, 192, 216
-0.996399, 163, 177, 178, 240
-0.996417, 241, 209, 368, 240
-0.996418, 1, 161, 32, 288
-0.996436, 173, 65, 204, 128
-0.996453, 205, 1, 236, 128
-0.996468, 193, 217, 448, 280
-0.996483, 389, 81, 420, 144
-0.996496, 317, 105, 348, 168
-0.996496, 29, 177, 60, 240
-0.996498, 305, 73, 336, 136
-0.996503, 279, 193, 294, 256
-0.996512, 65, 201, 192, 232
-0.996517, 269, 49, 300, 176
-0.996517, 429, 145, 460, 272
-0.996527, 9, 129, 40, 192
-0.996541, 213, 201, 244, 264
-0.99657, 257, 201, 272, 264
-0.996601, 265, 201, 280, 264
-0.996623, 157, 177, 172, 240
-0.996635, 405, 1, 436, 128
-0.996645, 329, 241, 360, 368
-0.996677, 57, 161, 120, 288
-0.996692, 53, 241, 84, 368
-0.996693, 161, 105, 416, 168
-0.99674, 257, 105, 500, 168
-0.996773, 237, 193, 268, 320
-0.996784, 209, 221, 336, 252
-0.996818, 445, 161, 476, 288
-0.99682, 193, 197, 320, 228
-0.996873, 97, 225, 352, 288
-0.996898, 1, 201, 500, 264
-0.996914, 65, 225, 96, 352
-0.996917, 53, 65, 84, 192
-0.996929, 113, 161, 144, 288
-0.996934, 93, 225, 124, 352
-0.996942, 121, 113, 152, 240
-0.996948, 291, 185, 306, 248
-0.996954, 65, 189, 192, 220
-0.996966, 417, 129, 448, 256
-0.996998, 401, 241, 432, 368
-0.997003, 201, 129, 264, 375
-0.99701, 433, 81, 464, 208
-0.997024, 147, 161, 162, 224
-0.997025, 13, 161, 44, 288
-0.99703, 225, 161, 256, 288
-0.997043, 255, 1, 270, 64
-0.997053, 149, 65, 180, 192
-0.997055, 341, 145, 372, 272
-0.997057, 469, 65, 500, 192
-0.997057, 365, 177, 396, 304
-0.997058, 157, 201, 172, 264
-0.997082, 65, 305, 320, 368
-0.997087, 185, 81, 216, 208
-0.997088, 167, 201, 182, 264
-0.9971, 193, 209, 320, 240
-0.997101, 273, 185, 400, 216
-0.997104, 285, 1, 316, 128
-0.997134, 1, 169, 500, 232
-0.997139, 113, 225, 240, 256
-0.997149, 1, 145, 256, 208
-0.997175, 161, 185, 288, 216
-0.99719, 221, 113, 252, 240
-0.997192, 169, 177, 184, 240
-0.997215, 209, 185, 336, 216
-0.997237, 183, 161, 198, 224
-0.99724, 1, 177, 256, 240
-0.997247, 63, 33, 78, 96
-0.997249, 265, 177, 280, 240
-0.997305, 167, 41, 182, 104
-0.997308, 189, 161, 204, 224
-0.997308, 185, 185, 200, 248
-0.997309, 353, 213, 480, 244
-0.997321, 219, 153, 234, 216
-0.997327, 213, 241, 244, 368
-0.997332, 89, 33, 104, 96
-0.997335, 285, 201, 300, 264
-0.997355, 167, 153, 182, 216
-0.997361, 13, 113, 44, 240
-0.997368, 97, 169, 224, 200
-0.997373, 33, 113, 64, 240
-0.997375, 155, 153, 170, 216
-0.997392, 299, 185, 314, 248
-0.997397, 17, 209, 144, 240
-0.997398, 79, 33, 94, 96
-0.997402, 147, 217, 162, 280
-0.997408, 279, 217, 294, 280
-0.997411, 273, 217, 288, 280
-0.997423, 289, 197, 416, 228
-0.997425, 45, 161, 76, 288
-0.997461, 259, 177, 274, 240
-0.997462, 257, 33, 288, 160
-0.997477, 131, 185, 146, 248
-0.997485, 97, 65, 352, 128
-0.99749, 337, 145, 464, 176
-0.997502, 17, 225, 144, 256
-0.997503, 21, 1, 36, 64
-0.997506, 289, 49, 320, 176
-0.997515, 251, 217, 266, 280
-0.997532, 103, 1, 118, 64
-0.997541, 161, 41, 176, 104
-0.997544, 241, 53, 368, 84
-0.997548, 337, 169, 352, 232
-0.997554, 97, 1, 112, 64
-0.997563, 1, 73, 256, 136
-0.997568, 409, 193, 440, 320
-0.997573, 273, 169, 288, 232
-0.997579, 373, 57, 388, 120
-0.997583, 197, 145, 228, 272
-0.997586, 285, 177, 300, 240
-0.997593, 17, 33, 32, 96
-0.997612, 257, 313, 500, 375
-0.997623, 211, 137, 226, 200
-0.997634, 57, 97, 120, 352
-0.997644, 73, 33, 88, 96
-0.997648, 1, 41, 256, 104
-0.997657, 35, 217, 50, 280
-0.99767, 113, 185, 240, 216
-0.997696, 209, 173, 336, 204
-0.997697, 325, 225, 340, 288
-0.997706, 289, 213, 416, 244
-0.997706, 205, 153, 220, 216
-0.997709, 241, 97, 272, 224
-0.997714, 73, 161, 104, 288
-0.997715, 173, 201, 188, 264
-0.997716, 337, 81, 464, 112
-0.997718, 1, 185, 128, 216
-0.997731, 145, 153, 272, 184
-0.997742, 325, 161, 340, 224
-0.997746, 405, 129, 436, 256
-0.997748, 291, 209, 306, 272
-0.997751, 27, 1, 42, 64
-0.997754, 169, 113, 200, 240
-0.997754, 151, 25, 166, 88
-0.997756, 335, 193, 350, 256
-0.997759, 279, 161, 294, 224
-0.997769, 81, 157, 208, 188
-0.997775, 285, 225, 316, 352
-0.997782, 61, 225, 76, 288
-0.997785, 23, 33, 38, 96
-0.997792, 289, 161, 416, 192
-0.997803, 263, 17, 278, 80
-0.997805, 325, 185, 340, 248
-0.997812, 113, 313, 240, 344
-0.997814, 175, 177, 190, 240
-0.997818, 227, 217, 242, 280
-0.997827, 107, 33, 122, 96
-0.997834, 225, 249, 480, 312
-0.99784, 353, 193, 384, 320
-0.997842, 5, 225, 36, 352
-0.997842, 319, 153, 334, 216
-0.997843, 161, 305, 416, 368
-0.997846, 169, 65, 184, 128
-0.997846, 321, 185, 448, 216
-0.997854, 193, 281, 448, 344
-0.997856, 81, 329, 208, 360
-0.99786, 17, 197, 144, 228
-0.997865, 49, 41, 176, 72
-0.997869, 1, 37, 128, 68
-0.997875, 97, 33, 112, 96
-0.997891, 153, 49, 168, 112
-0.997897, 197, 1, 212, 64
-0.997901, 161, 313, 288, 344
-0.997903, 179, 173, 194, 204
-0.997908, 325, 129, 340, 192
-0.997912, 209, 345, 336, 375
-0.997912, 365, 121, 380, 184
-0.997914, 161, 17, 176, 80
-0.997915, 273, 9, 288, 72
-0.997918, 53, 1, 68, 64
-0.997919, 425, 265, 440, 328
-0.997922, 365, 57, 380, 120
-0.997924, 325, 105, 340, 168
-0.997927, 205, 41, 220, 104
-0.997929, 129, 113, 256, 144
-0.99793, 483, 49, 498, 112
-0.997933, 251, 185, 266, 248
-0.997935, 225, 145, 352, 176
-0.997939, 261, 41, 276, 104
-0.99794, 307, 1, 322, 64
-0.997945, 195, 145, 210, 208
-0.997946, 1, 233, 256, 296
-0.997948, 333, 49, 364, 176
-0.997949, 7, 33, 22, 96
-0.997952, 189, 137, 204, 200
-0.997954, 353, 201, 480, 232
-0.997958, 411, 153, 426, 216
-0.997958, 257, 313, 384, 344
-0.997958, 319, 129, 334, 192
-0.997961, 97, 37, 224, 68
-0.997966, 309, 113, 340, 240
-0.997973, 381, 73, 396, 136
-0.997976, 285, 41, 300, 104
-0.997976, 37, 33, 52, 96
-0.997979, 67, 241, 82, 304
-0.997979, 337, 161, 464, 192
-0.997983, 321, 121, 448, 152
-0.997985, 195, 41, 210, 104
-0.997987, 381, 241, 412, 368
-0.997991, 1, 225, 500, 288
-0.997992, 213, 81, 228, 144
-0.997995, 477, 217, 492, 280
-0.998, 453, 97, 484, 224
-0.998002, 445, 49, 476, 176
-0.998004, 175, 41, 190, 104
-0.998009, 315, 17, 330, 80
-0.998009, 129, 217, 144, 280
-0.998014, 193, 29, 320, 60
-0.998015, 177, 333, 304, 364
-0.998015, 185, 265, 200, 328
-0.998021, 141, 33, 156, 96
-0.998022, 335, 225, 350, 288
-0.998022, 1, 17, 500, 80
-0.998024, 193, 301, 320, 332
-0.998028, 337, 225, 464, 256
-0.998031, 353, 173, 480, 204
-0.998031, 403, 1, 418, 64
-0.998043, 273, 121, 400, 152
-0.998046, 345, 233, 360, 296
-0.998047, 321, 97, 352, 224
-0.998051, 177, 161, 192, 192
-0.998053, 145, 49, 272, 80
-0.998054, 65, 233, 192, 264
-0.998055, 163, 217, 178, 248
-0.998055, 285, 1, 300, 64
-0.998058, 129, 345, 256, 375
-0.998062, 453, 177, 468, 240
-0.998063, 257, 345, 384, 375
-0.998066, 81, 137, 208, 168
-0.998067, 233, 17, 248, 80
-0.998068, 327, 41, 342, 104
-0.998075, 241, 81, 368, 112
-0.998077, 3, 289, 18, 352
-0.99808, 357, 153, 372, 216
-0.998091, 469, 209, 484, 272
-0.998095, 399, 145, 414, 208
-0.998097, 333, 145, 348, 208
-0.998099, 65, 121, 320, 184
-0.998101, 157, 305, 172, 368
-0.998109, 341, 241, 372, 368
-0.998109, 279, 9, 294, 72
-0.99811, 145, 129, 272, 160
-0.998111, 305, 185, 320, 248
-0.998111, 241, 233, 368, 264
-0.998112, 345, 145, 360, 208
-0.998113, 257, 225, 272, 288
-0.998114, 37, 1, 68, 256
-0.998119, 183, 129, 198, 192
-0.998119, 1, 49, 16, 112
-0.998121, 381, 161, 396, 224
-0.998123, 145, 173, 272, 204
-0.998126, 185, 177, 216, 304
-0.998129, 353, 249, 480, 280
-0.99813, 269, 113, 284, 176
-0.998136, 241, 25, 368, 56
-0.998137, 269, 137, 284, 200
-0.998137, 263, 129, 278, 192
-0.998139, 129, 25, 256, 56
-0.998139, 337, 313, 464, 344
-0.998143, 273, 173, 400, 204
-0.998147, 65, 273, 320, 336
-0.998149, 193, 49, 320, 80
-0.998149, 289, 233, 416, 264
-0.998159, 299, 1, 314, 64
-0.99816, 83, 1, 98, 64
-0.998161, 5, 153, 20, 216
-0.998161, 193, 65, 320, 96
-0.998168, 379, 49, 394, 112
-0.998168, 423, 161, 438, 224
-0.998171, 235, 145, 250, 208
-0.998173, 1, 25, 128, 56
-0.998173, 485, 81, 500, 144
-0.998173, 145, 85, 272, 116
-0.998174, 479, 129, 494, 192
-0.998176, 157, 129, 172, 192
-0.998187, 241, 253, 368, 284
-0.998193, 257, 69, 384, 100
-0.998205, 185, 165, 200, 196
-0.998252, 157, 221, 172, 252
-0.998262, 261, 209, 276, 240
-0.998263, 257, 133, 384, 164
-0.998273, 1, 157, 128, 188
-0.998276, 305, 93, 432, 124
-0.998278, 13, 205, 44, 220
-0.998278, 141, 163, 172, 178
-0.998278, 165, 225, 196, 240
-0.99828, 365, 63, 396, 78
-0.99828, 309, 59, 340, 74
-0.99828, 325, 211, 356, 226
-0.99828, 373, 167, 404, 182
-0.99828, 153, 237, 184, 252
-0.99828, 41, 49, 72, 64
-0.99828, 181, 197, 212, 212
-0.99828, 185, 229, 216, 244
-0.998281, 157, 181, 188, 196
-0.998281, 249, 325, 280, 340
-0.998281, 261, 329, 292, 344
-0.998282, 329, 165, 360, 180
-0.998282, 157, 359, 188, 374
-0.998283, 49, 55, 80, 70
-0.998283, 93, 265, 124, 280
-0.998283, 317, 239, 348, 254
-0.998283, 117, 31, 148, 46
-0.998283, 97, 231, 128, 246
-0.998283, 297, 63, 328, 78
-0.998284, 301, 243, 332, 258
-0.998284, 401, 167, 432, 182
-0.998284, 181, 191, 212, 206
-0.998284, 61, 41, 92, 56
-0.998284, 105, 43, 136, 58
-0.998284, 369, 245, 400, 260
-0.998284, 201, 117, 232, 132
-0.998284, 33, 211, 64, 226
-0.998285, 293, 177, 324, 192
-0.998285, 61, 35, 92, 50
-0.998285, 97, 245, 224, 276
-0.998285, 153, 167, 184, 182
-0.998286, 129, 221, 160, 236
-0.998287, 145, 229, 176, 244
-0.998287, 301, 207, 332, 222
-0.998287, 341, 165, 372, 180
-0.998288, 281, 229, 312, 244
-0.998288, 117, 233, 148, 248
-0.998289, 305, 17, 336, 32
-0.998289, 137, 209, 168, 224
-0.998289, 281, 217, 312, 232
-0.998289, 5, 247, 36, 262
-0.998289, 197, 169, 228, 184
-0.998289, 205, 239, 236, 254
-0.99829, 317, 203, 348, 218
-0.99829, 217, 111, 248, 126
-0.99829, 13, 211, 44, 226
-0.998291, 153, 161, 184, 176
-0.998292, 165, 161, 196, 176
-0.998293, 313, 223, 344, 238
-0.998293, 285, 341, 316, 356
-0.998293, 213, 179, 244, 194
-0.998293, 121, 41, 152, 56
-0.998295, 201, 309, 232, 324
-0.998296, 135, 213, 150, 244
-0.998296, 169, 209, 184, 240
-0.998296, 265, 191, 296, 206
-0.998296, 113, 209, 144, 224
-0.998297, 365, 53, 396, 68
-0.998297, 141, 169, 172, 184
-0.998297, 413, 173, 444, 188
-0.998298, 261, 209, 292, 224
-0.998298, 1, 37, 32, 52
-0.998298, 169, 187, 200, 202
-0.998299, 297, 233, 328, 248
-0.9983, 233, 223, 264, 238
-0.9983, 297, 161, 328, 176
-0.9983, 329, 189, 360, 204
-0.9983, 309, 69, 340, 84
-0.9983, 189, 185, 220, 200
-0.998301, 157, 39, 188, 54
-0.998301, 417, 271, 448, 286
-0.998301, 229, 175, 260, 190
-0.998302, 153, 217, 184, 232
-0.998302, 273, 177, 304, 192
-0.998303, 173, 231, 204, 246
-0.998303, 293, 225, 324, 240
-0.998303, 149, 33, 180, 48
-0.998304, 177, 163, 208, 178
-0.998304, 5, 43, 36, 58
-0.998306, 281, 211, 312, 226
-0.998306, 169, 209, 200, 224
-0.998306, 169, 39, 200, 54
-0.998307, 277, 185, 308, 200
-0.998308, 381, 79, 412, 94
-0.998308, 137, 191, 168, 206
-0.998309, 293, 219, 324, 234
-0.99831, 193, 175, 224, 190
-0.99831, 289, 187, 320, 202
-0.998311, 133, 215, 164, 230
-0.998311, 113, 301, 240, 332
-0.998312, 129, 229, 160, 244
-0.998314, 17, 219, 48, 234
-0.998314, 321, 197, 352, 212
-0.998317, 273, 327, 304, 342
-0.998317, 113, 225, 144, 240
-0.998317, 129, 141, 256, 172
-0.998318, 177, 203, 208, 218
-0.998318, 257, 203, 288, 218
-0.998318, 161, 97, 288, 128
-0.99832, 25, 41, 56, 56
-0.998321, 101, 271, 132, 286
-0.998321, 133, 39, 164, 54
-0.998321, 309, 185, 340, 200
-0.998322, 93, 43, 124, 58
-0.998322, 153, 175, 184, 190
-0.998323, 309, 197, 340, 212
-0.998323, 241, 157, 368, 188
-0.998326, 273, 197, 304, 212
-0.998326, 49, 13, 176, 44
-0.998327, 97, 37, 128, 52
-0.998327, 369, 113, 496, 144
-0.998327, 393, 173, 424, 188
-0.998328, 13, 35, 44, 50
-0.998329, 181, 175, 212, 190
-0.998331, 149, 223, 180, 238
-0.998331, 293, 213, 324, 228
-0.998333, 125, 193, 156, 208
-0.998337, 177, 257, 304, 288
-0.998339, 73, 37, 104, 52
-0.998339, 245, 215, 276, 230
-0.99834, 65, 125, 192, 156
-0.99834, 281, 223, 312, 238
-0.99834, 157, 187, 188, 202
-0.998342, 109, 37, 140, 52
-0.998342, 249, 223, 280, 238
-0.998343, 225, 265, 352, 296
-0.998347, 165, 215, 196, 230
-0.998354, 153, 201, 184, 216
-0.998355, 149, 207, 180, 222
-0.998355, 185, 169, 216, 184
-0.998363, 255, 209, 270, 240
-0.998365, 313, 191, 344, 206
-0.998365, 257, 325, 384, 356
-0.998369, 17, 333, 144, 364
-0.99837, 369, 189, 496, 220
-0.998371, 113, 101, 240, 132
-0.998371, 169, 181, 200, 196
-0.998374, 337, 133, 464, 164
-0.998377, 193, 77, 320, 108
-0.998378, 165, 167, 196, 182
-0.998378, 141, 197, 172, 212
-0.998378, 353, 273, 480, 304
-0.998381, 261, 221, 292, 236
-0.998386, 137, 203, 168, 218
-0.998396, 1, 41, 500, 104
-0.998396, 81, 25, 208, 56
-0.998402, 289, 57, 416, 88
-0.99841, 289, 193, 320, 208
-0.998412, 161, 205, 176, 236
-0.998414, 269, 203, 300, 218
-0.998415, 49, 173, 176, 204
-0.998416, 33, 69, 160, 100
-0.998418, 169, 175, 200, 190
-0.998418, 267, 205, 282, 236
-0.998425, 1, 257, 128, 288
-0.998429, 225, 281, 352, 312
-0.998429, 321, 301, 448, 332
-0.998429, 153, 193, 168, 224
-0.998432, 289, 41, 416, 72
-0.998441, 49, 245, 176, 276
-0.998449, 81, 33, 96, 64
-0.998451, 65, 297, 192, 328
-0.998453, 285, 209, 300, 240
-0.998461, 145, 197, 160, 228
-0.998461, 209, 321, 336, 352
-0.998471, 293, 217, 308, 248
-0.998485, 1, 237, 128, 268
-0.998486, 209, 133, 336, 164
-0.998496, 275, 197, 290, 228
-0.998504, 209, 93, 336, 124
-0.998508, 145, 289, 272, 320
-0.99851, 193, 161, 320, 192
-0.998511, 161, 245, 288, 276
-0.998514, 321, 329, 448, 360
-0.998515, 97, 257, 224, 288
-0.998515, 251, 221, 266, 252
-0.99852, 1, 173, 128, 204
-0.998521, 145, 225, 160, 256
-0.998537, 369, 301, 496, 332
-0.998539, 283, 197, 298, 228
-0.99854, 185, 153, 200, 184
-0.998542, 189, 181, 204, 212
-0.998547, 353, 261, 480, 292
-0.998548, 327, 197, 342, 228
-0.998551, 33, 97, 288, 160
-0.998553, 129, 207, 192, 222
-0.998556, 353, 341, 480, 372
-0.998559, 241, 41, 368, 72
-0.998559, 87, 37, 102, 68
-0.99856, 289, 25, 416, 56
-0.998563, 49, 269, 176, 300
-0.998568, 145, 37, 272, 68
-0.998568, 289, 149, 416, 180
-0.998572, 241, 301, 368, 332
-0.998572, 145, 1, 272, 32
-0.998575, 193, 109, 320, 140
-0.998578, 249, 209, 312, 224
-0.998578, 163, 189, 178, 220
-0.998578, 81, 73, 208, 104
-0.998581, 81, 85, 208, 116
-0.998588, 133, 233, 148, 264
-0.99859, 273, 197, 336, 212
-0.998595, 81, 57, 208, 88
-0.9986, 273, 225, 336, 240
-0.998601, 289, 269, 416, 300
-0.998607, 129, 201, 192, 216
-0.998607, 257, 105, 384, 136
-0.998609, 177, 201, 192, 232
-0.998609, 1, 145, 128, 176
-0.99861, 161, 229, 288, 260
-0.998613, 165, 45, 180, 76
-0.998615, 159, 173, 174, 204
-0.998616, 177, 175, 240, 190
-0.998617, 137, 195, 200, 210
-0.998618, 151, 221, 166, 252
-0.998623, 241, 221, 304, 236
-0.998624, 153, 215, 216, 230
-0.998625, 279, 181, 294, 212
-0.998625, 1, 121, 128, 152
-0.998626, 257, 203, 320, 218
-0.998627, 105, 229, 168, 244
-0.99863, 295, 189, 310, 220
-0.998632, 311, 161, 326, 192
-0.998635, 145, 221, 208, 236
-0.998636, 129, 213, 192, 228
-0.998636, 169, 185, 184, 216
-0.998638, 271, 221, 286, 252
-0.998639, 121, 223, 184, 238
-0.99864, 161, 181, 224, 196
-0.998641, 65, 37, 80, 68
-0.998643, 273, 217, 336, 232
-0.998647, 337, 189, 352, 220
-0.998649, 233, 201, 296, 216
-0.998653, 175, 149, 190, 180
-0.998655, 129, 41, 192, 56
-0.998655, 131, 193, 146, 224
-0.998656, 169, 203, 232, 218
-0.998656, 185, 181, 248, 196
-0.998658, 145, 173, 208, 188
-0.998658, 105, 215, 168, 230
-0.998658, 281, 189, 344, 204
-0.998659, 153, 39, 216, 54
-0.998659, 73, 39, 136, 54
-0.99866, 297, 223, 360, 238
-0.998662, 145, 187, 208, 202
-0.998663, 145, 235, 208, 250
-0.998664, 145, 309, 208, 324
-0.998664, 385, 173, 448, 188
-0.998664, 89, 207, 152, 222
-0.998665, 177, 169, 240, 184
-0.998667, 161, 209, 224, 224
-0.998668, 121, 235, 184, 250
-0.998668, 9, 249, 24, 280
-0.998668, 409, 173, 472, 188
-0.998671, 297, 209, 360, 224
-0.998671, 25, 37, 88, 52
-0.998671, 321, 187, 384, 202
-0.998675, 97, 201, 160, 216
-0.998675, 293, 205, 308, 236
-0.998675, 201, 165, 264, 180
-0.998677, 137, 155, 200, 170
-0.998678, 265, 161, 328, 176
-0.998678, 209, 175, 272, 190
-0.998678, 297, 113, 360, 128
-0.998681, 417, 293, 480, 308
-0.998681, 273, 185, 288, 216
-0.998681, 321, 195, 384, 210
-0.998681, 113, 269, 128, 300
-0.998681, 105, 195, 168, 210
-0.998682, 137, 161, 200, 176
-0.998682, 27, 45, 42, 76
-0.998683, 129, 217, 144, 248
-0.998684, 185, 51, 248, 66
-0.998684, 377, 167, 440, 182
-0.998684, 217, 213, 280, 228
-0.998684, 145, 229, 208, 244
-0.998684, 105, 41, 168, 56
-0.998685, 257, 15, 320, 30
-0.998685, 273, 211, 336, 226
-0.998686, 301, 177, 316, 208
-0.998686, 169, 245, 232, 260
-0.998687, 265, 119, 328, 134
-0.998688, 25, 43, 88, 58
-0.998689, 49, 35, 112, 50
-0.99869, 261, 1, 292, 256
-0.99869, 313, 215, 376, 230
-0.998691, 273, 67, 336, 82
-0.998691, 17, 25, 80, 40
-0.998692, 145, 167, 208, 182
-0.998692, 281, 27, 344, 42
-0.998692, 161, 151, 224, 166
-0.998692, 57, 49, 120, 64
-0.998694, 297, 195, 360, 210
-0.998694, 265, 175, 328, 190
-0.998694, 313, 319, 376, 334
-0.998695, 217, 223, 280, 238
-0.998695, 233, 327, 296, 342
-0.998695, 121, 35, 184, 50
-0.998695, 377, 297, 440, 312
-0.998696, 281, 203, 344, 218
-0.998696, 169, 45, 232, 60
-0.998696, 289, 193, 304, 224
-0.998696, 273, 325, 336, 340
-0.998697, 193, 309, 256, 324
-0.998697, 313, 59, 376, 74
-0.998697, 89, 177, 152, 192
-0.998697, 201, 159, 264, 174
-0.998698, 261, 221, 276, 252
-0.998698, 325, 185, 340, 216
-0.998698, 33, 53, 96, 68
-0.998698, 137, 47, 200, 62
-0.998699, 137, 181, 200, 196
-0.998699, 33, 217, 48, 248
-0.998699, 257, 185, 320, 200
-0.9987, 1, 39, 64, 54
-0.998701, 241, 179, 304, 194
-0.998701, 241, 195, 304, 210
-0.998701, 177, 189, 240, 204
-0.998701, 337, 137, 400, 152
-0.998701, 273, 341, 336, 356
-0.998702, 177, 163, 240, 178
-0.998702, 121, 175, 184, 190
-0.998702, 169, 197, 232, 212
-0.998703, 433, 219, 496, 234
-0.998704, 233, 67, 296, 82
-0.998704, 153, 53, 216, 68
-0.998704, 433, 181, 496, 196
-0.998705, 409, 245, 472, 260
-0.998705, 97, 221, 160, 236
-0.998705, 289, 119, 352, 134
-0.998705, 401, 303, 464, 318
-0.998705, 305, 29, 368, 44
-0.998705, 65, 175, 128, 190
-0.998706, 257, 61, 320, 76
-0.998706, 169, 75, 232, 90
-0.998706, 385, 141, 448, 156
-0.998706, 57, 299, 120, 314
-0.998707, 17, 239, 80, 254
-0.998707, 417, 229, 480, 244
-0.998707, 433, 191, 496, 206
-0.998707, 369, 129, 432, 144
-0.998708, 89, 31, 152, 46
-0.998708, 273, 319, 336, 334
-0.998708, 217, 237, 232, 268
-0.998708, 193, 145, 256, 160
-0.998709, 113, 269, 176, 284
-0.998709, 33, 179, 96, 194
-0.998709, 289, 183, 352, 198
-0.998709, 169, 359, 232, 374
-0.998709, 169, 231, 232, 246
-0.998709, 321, 325, 384, 340
-0.99871, 273, 111, 336, 126
-0.99871, 129, 361, 192, 375
-0.99871, 177, 69, 240, 84
-0.99871, 321, 69, 384, 84
-0.99871, 177, 219, 240, 234
-0.99871, 169, 351, 232, 366
-0.998711, 201, 207, 264, 222
-0.998711, 297, 139, 360, 154
-0.998711, 209, 77, 272, 92
-0.998711, 297, 157, 360, 172
-0.998717, 155, 205, 170, 236
-0.998726, 127, 229, 142, 260
-0.99873, 171, 133, 186, 164
-0.998733, 479, 45, 494, 76
-0.998738, 245, 205, 260, 236
-0.998738, 245, 221, 260, 252
-0.998739, 9, 1, 40, 256
-0.998743, 305, 193, 320, 224
-0.998744, 171, 37, 186, 68
-0.998749, 477, 121, 492, 152
-0.998752, 23, 29, 38, 60
-0.998763, 75, 33, 90, 64
-0.998764, 315, 149, 330, 180
-0.998767, 293, 177, 308, 208
-0.998769, 139, 201, 154, 232
-0.998769, 415, 169, 430, 200
-0.998773, 35, 37, 50, 68
-0.998773, 93, 41, 108, 72
-0.998782, 169, 197, 184, 228
-0.998783, 481, 133, 496, 164
-0.998784, 305, 213, 320, 244
-0.998784, 163, 33, 178, 64
-0.99879, 327, 69, 342, 100
-0.998792, 211, 157, 226, 188
-0.998793, 15, 237, 30, 268
-0.998796, 3, 257, 18, 288
-0.998798, 215, 173, 230, 204
-0.998799, 299, 209, 314, 240
-0.9988, 225, 177, 240, 208
-0.998802, 151, 181, 166, 212
-0.998802, 307, 177, 322, 208
-0.998803, 185, 193, 200, 224
-0.998804, 113, 29, 128, 60
-0.998808, 107, 41, 122, 72
-0.998808, 137, 41, 152, 72
-0.99881, 179, 133, 194, 164
-0.998814, 423, 169, 438, 200
-0.998818, 145, 185, 160, 216
-0.99882, 31, 205, 46, 236
-0.998827, 279, 209, 294, 240
-0.998831, 85, 1, 116, 256
-0.998834, 383, 81, 398, 112
-0.998835, 111, 233, 126, 264
-0.998838, 313, 181, 328, 212
-0.998838, 273, 133, 288, 164
-0.998839, 471, 25, 486, 56
-0.998839, 479, 57, 494, 88
-0.998839, 315, 225, 330, 256
-0.998839, 345, 273, 360, 304
-0.99884, 331, 173, 346, 204
-0.998841, 139, 229, 154, 260
-0.998848, 253, 53, 268, 84
-0.998849, 165, 169, 180, 200
-0.998849, 281, 221, 296, 252
-0.998849, 329, 145, 344, 176
-0.998853, 1, 29, 16, 60
-0.998855, 177, 189, 192, 220
-0.998856, 159, 45, 174, 76
-0.998856, 333, 201, 348, 232
-0.998859, 105, 29, 120, 60
-0.99886, 145, 129, 176, 375
-0.998862, 401, 81, 416, 112
-0.998868, 333, 1, 364, 256
-0.998869, 219, 161, 234, 192
-0.99887, 207, 45, 222, 76
-0.998874, 261, 321, 276, 352
-0.998875, 29, 33, 44, 64
-0.998875, 347, 149, 362, 180
-0.998877, 263, 17, 278, 48
-0.998878, 311, 197, 326, 228
-0.998878, 171, 161, 186, 192
-0.99888, 345, 101, 360, 132
-0.998885, 3, 233, 18, 264
-0.998887, 33, 229, 48, 260
-0.998891, 309, 97, 340, 352
-0.998893, 57, 53, 72, 84
-0.998895, 201, 165, 216, 196
-0.998895, 137, 1, 168, 256
-0.998895, 153, 1, 184, 256
-0.998896, 25, 233, 40, 264
-0.998897, 385, 1, 416, 256
-0.998898, 263, 45, 278, 76
-0.998898, 23, 221, 38, 252
-0.998905, 329, 25, 344, 56
-0.998909, 57, 33, 72, 64
-0.99891, 287, 221, 302, 252
-0.998911, 271, 325, 286, 356
-0.998916, 25, 1, 56, 256
-0.998925, 129, 249, 384, 312
-0.998927, 65, 1, 96, 256
-0.998962, 321, 1, 352, 256
-0.999006, 173, 1, 204, 256
-0.999059, 369, 1, 400, 256
-0.999105, 145, 177, 160, 304
-0.99914, 381, 97, 412, 352
-0.999164, 277, 177, 292, 304
-0.99917, 277, 1, 308, 256
-0.999173, 1, 145, 500, 208
-0.999175, 277, 129, 308, 375
-0.999201, 49, 1, 80, 256
-0.999206, 269, 177, 284, 304
-0.999246, 153, 129, 168, 256
-0.999247, 241, 1, 272, 256
-0.999262, 401, 65, 432, 320
-0.999264, 297, 65, 328, 320
-0.999272, 365, 97, 396, 352
-0.999274, 151, 177, 166, 304
-0.999282, 189, 1, 220, 256
-0.999301, 321, 97, 352, 352
-0.99932, 145, 129, 160, 256
-0.999336, 201, 1, 232, 256
-0.999343, 125, 1, 156, 256
-0.999351, 157, 129, 188, 375
-0.999359, 137, 177, 152, 304
-0.999369, 263, 177, 278, 304
-0.999382, 353, 97, 384, 352
-0.999395, 175, 129, 190, 256
-0.999404, 139, 129, 154, 256
-0.999411, 69, 17, 84, 144
-0.999418, 37, 33, 52, 160
-0.999428, 183, 177, 198, 304
-0.999431, 239, 1, 254, 128
-0.999442, 31, 17, 46, 144
-0.999457, 161, 209, 176, 336
-0.999468, 349, 1, 380, 256
-0.999471, 159, 161, 174, 288
-0.999483, 283, 161, 298, 288
-0.999488, 315, 1, 330, 128
-0.999493, 97, 1, 128, 256
-0.999495, 135, 225, 150, 352
-0.999498, 87, 17, 102, 144
-0.999499, 455, 1, 470, 128
-0.999502, 233, 25, 248, 40
-0.999502, 169, 1, 184, 128
-0.999502, 281, 191, 296, 206
-0.999503, 247, 219, 262, 234
-0.999503, 357, 165, 372, 180
-0.999503, 17, 37, 32, 52
-0.999503, 21, 1, 36, 128
-0.999503, 105, 33, 120, 160
-0.999503, 213, 309, 228, 324
-0.999503, 255, 61, 270, 76
-0.999503, 19, 205, 34, 220
-0.999504, 27, 47, 42, 62
-0.999504, 171, 39, 186, 54
-0.999505, 381, 81, 396, 96
-0.999505, 293, 193, 308, 208
-0.999505, 217, 239, 232, 254
-0.999505, 159, 177, 174, 192
-0.999505, 311, 167, 326, 182
-0.999505, 221, 177, 236, 192
-0.999505, 259, 133, 274, 148
-0.999506, 481, 207, 496, 222
-0.999506, 185, 161, 200, 176
-0.999507, 161, 35, 176, 50
-0.999507, 333, 65, 348, 80
-0.999508, 263, 45, 278, 60
-0.999508, 257, 177, 272, 304
-0.999508, 261, 19, 276, 34
-0.999508, 477, 217, 492, 232
-0.999508, 207, 167, 222, 182
-0.999508, 161, 191, 176, 206
-0.999509, 157, 47, 172, 62
-0.999509, 339, 103, 354, 118
-0.999509, 281, 15, 296, 30
-0.999509, 19, 45, 34, 60
-0.999509, 73, 43, 88, 58
-0.999509, 169, 237, 184, 252
-0.99951, 205, 309, 220, 324
-0.99951, 165, 155, 180, 170
-0.99951, 35, 39, 50, 54
-0.99951, 149, 225, 164, 240
-0.99951, 373, 61, 388, 76
-0.99951, 185, 199, 200, 214
-0.99951, 329, 203, 344, 218
-0.999511, 13, 243, 28, 258
-0.999511, 117, 273, 132, 288
-0.999511, 479, 131, 494, 146
-0.999512, 131, 231, 146, 246
-0.999513, 271, 225, 286, 352
-0.999513, 175, 155, 190, 170
-0.999513, 159, 59, 174, 74
-0.999513, 243, 163, 258, 178
-0.999513, 3, 17, 18, 144
-0.999513, 169, 161, 184, 288
-0.999514, 133, 97, 164, 352
-0.999514, 417, 173, 432, 188
-0.999514, 273, 13, 288, 28
-0.999515, 427, 165, 442, 180
-0.999515, 185, 45, 200, 60
-0.999515, 187, 191, 202, 206
-0.999515, 217, 257, 232, 272
-0.999515, 201, 167, 216, 182
-0.999515, 261, 323, 276, 338
-0.999516, 29, 217, 44, 232
-0.999517, 205, 161, 220, 176
-0.999517, 259, 211, 274, 226
-0.999517, 1, 247, 16, 262
-0.999517, 283, 203, 298, 218
-0.999518, 269, 231, 284, 246
-0.999518, 135, 41, 150, 56
-0.999518, 323, 197, 338, 212
-0.999518, 315, 191, 330, 206
-0.999519, 337, 199, 352, 214
-0.999519, 287, 195, 302, 210
-0.999519, 109, 43, 124, 58
-0.999519, 117, 39, 132, 54
-0.999519, 25, 35, 40, 50
-0.99952, 307, 161, 322, 176
-0.99952, 151, 191, 166, 206
-0.99952, 309, 1, 324, 128
-0.999521, 31, 209, 46, 224
-0.999522, 61, 17, 76, 144
-0.999522, 293, 1, 308, 128
-0.999522, 131, 177, 146, 304
-0.999522, 65, 37, 80, 52
-0.999523, 329, 161, 344, 288
-0.999523, 155, 169, 170, 184
-0.999523, 1, 227, 16, 242
-0.999524, 167, 59, 182, 74
-0.999524, 165, 167, 180, 182
-0.999524, 165, 49, 180, 64
-0.999524, 211, 49, 226, 64
-0.999525, 333, 189, 348, 204
-0.999526, 327, 71, 342, 86
-0.999527, 179, 201, 194, 216
-0.999529, 167, 173, 182, 188
-0.999529, 255, 217, 270, 232
-0.999529, 79, 1, 94, 128
-0.999529, 297, 217, 312, 232
-0.99953, 339, 165, 354, 180
-0.999531, 171, 209, 186, 224
-0.999531, 317, 165, 332, 180
-0.999532, 91, 39, 106, 54
-0.999532, 275, 189, 290, 204
-0.999533, 165, 205, 180, 220
-0.999533, 155, 199, 170, 214
-0.999533, 369, 53, 384, 68
-0.999533, 293, 211, 308, 226
-0.999533, 83, 37, 98, 52
-0.999534, 161, 41, 176, 56
-0.999536, 329, 33, 344, 160
-0.999536, 9, 249, 24, 264
-0.999536, 277, 129, 292, 256
-0.999537, 103, 39, 118, 54
-0.999537, 143, 203, 158, 218
-0.999537, 253, 1, 268, 128
-0.999538, 175, 161, 190, 176
-0.999538, 433, 171, 448, 186
-0.999538, 189, 51, 204, 66
-0.999539, 245, 97, 276, 352
-0.999539, 187, 185, 202, 200
-0.99954, 279, 229, 294, 244
-0.99954, 269, 129, 284, 256
-0.999541, 283, 221, 298, 236
-0.999542, 251, 225, 266, 240
-0.999543, 109, 31, 124, 46
-0.999544, 303, 193, 318, 208
-0.999545, 111, 37, 126, 52
-0.999545, 261, 223, 276, 238
-0.999545, 273, 221, 288, 236
-0.999547, 143, 229, 158, 244
-0.999549, 309, 197, 324, 212
-0.99955, 427, 171, 442, 186
-0.999551, 269, 203, 284, 218
-0.999556, 289, 223, 304, 238
-0.999556, 9, 17, 24, 144
-0.999557, 479, 17, 494, 144
-0.999557, 179, 181, 194, 196
-0.999557, 111, 269, 126, 284
-0.99956, 267, 221, 282, 236
-0.999562, 197, 33, 212, 160
-0.999563, 169, 215, 184, 230
-0.999564, 425, 209, 440, 336
-0.999566, 187, 177, 202, 192
-0.999566, 329, 197, 344, 212
-0.999568, 15, 1, 30, 128
-0.999568, 281, 197, 296, 212
-0.999569, 33, 193, 48, 320
-0.999569, 177, 207, 192, 222
-0.999572, 147, 197, 162, 212
-0.999577, 337, 145, 352, 272
-0.999577, 431, 1, 446, 128
-0.999578, 131, 33, 146, 160
-0.999578, 175, 1, 190, 128
-0.999579, 145, 33, 160, 160
-0.999579, 311, 225, 326, 352
-0.99958, 181, 129, 196, 256
-0.99958, 177, 177, 192, 304
-0.999582, 181, 1, 196, 128
-0.999582, 141, 225, 156, 352
-0.999583, 185, 169, 200, 184
-0.999583, 189, 145, 204, 272
-0.999583, 323, 17, 338, 144
-0.999584, 155, 221, 170, 236
-0.999584, 63, 65, 78, 192
-0.999585, 233, 1, 248, 128
-0.999588, 45, 17, 60, 144
-0.99959, 139, 17, 154, 144
-0.99959, 225, 33, 240, 160
-0.99959, 175, 167, 190, 182
-0.999591, 233, 65, 248, 192
-0.999591, 315, 177, 330, 304
-0.999593, 357, 1, 372, 128
-0.999593, 203, 17, 218, 144
-0.999593, 263, 1, 278, 128
-0.999599, 187, 1, 202, 128
-0.9996, 463, 1, 478, 128
-0.999601, 419, 241, 434, 368
-0.999602, 163, 217, 178, 232
-0.999606, 23, 209, 38, 336
-0.999607, 155, 225, 170, 352
-0.99961, 469, 1, 500, 256
-0.99961, 21, 161, 36, 288
-0.999612, 433, 129, 448, 256
-0.999615, 377, 241, 392, 368
-0.999616, 387, 97, 402, 224
-0.999617, 255, 129, 270, 256
-0.999617, 355, 209, 370, 336
-0.999617, 199, 225, 214, 352
-0.999621, 295, 177, 310, 304
-0.999621, 247, 49, 262, 176
-0.999623, 303, 225, 318, 352
-0.999624, 339, 1, 354, 128
-0.999624, 225, 81, 240, 208
-0.999624, 177, 175, 192, 190
-0.999625, 397, 113, 412, 240
-0.999625, 275, 199, 290, 214
-0.999626, 417, 1, 432, 128
-0.999627, 485, 1, 500, 128
-0.999629, 219, 33, 234, 160
-0.999631, 109, 1, 140, 256
-0.999631, 453, 1, 484, 256
-0.999632, 147, 225, 162, 352
-0.999632, 361, 65, 376, 192
-0.999638, 303, 177, 318, 304
-0.999639, 51, 33, 66, 160
-0.99964, 153, 49, 168, 176
-0.999644, 329, 81, 344, 208
-0.999644, 31, 65, 46, 192
-0.999645, 391, 49, 406, 176
-0.999645, 23, 49, 38, 176
-0.999645, 435, 225, 450, 352
-0.999646, 355, 81, 370, 208
-0.999647, 259, 225, 274, 352
-0.999647, 337, 65, 352, 192
-0.999648, 249, 177, 264, 304
-0.999649, 389, 145, 404, 272
-0.999649, 339, 209, 354, 336
-0.99965, 99, 49, 114, 176
-0.999651, 245, 1, 260, 128
-0.999651, 165, 113, 180, 240
-0.999653, 425, 97, 456, 352
-0.999653, 293, 81, 308, 208
-0.999653, 287, 1, 302, 128
-0.999654, 163, 17, 178, 144
-0.999655, 171, 49, 186, 176
-0.999655, 449, 1, 464, 128
-0.999656, 483, 65, 498, 192
-0.999658, 403, 65, 418, 192
-0.999659, 111, 33, 126, 160
-0.999659, 355, 129, 370, 256
-0.999659, 211, 33, 226, 160
-0.999659, 95, 1, 110, 128
-0.999661, 411, 241, 426, 368
-0.999661, 87, 65, 102, 192
-0.999662, 197, 177, 212, 304
-0.999664, 367, 241, 382, 368
-0.999664, 1, 209, 16, 336
-0.999665, 257, 49, 272, 176
-0.999666, 423, 145, 438, 272
-0.999666, 475, 225, 490, 352
-0.999666, 45, 193, 60, 320
-0.999666, 373, 49, 388, 176
-0.999666, 291, 129, 306, 256
-0.999667, 263, 113, 278, 240
-0.999676, 121, 97, 152, 352
-0.999724, 265, 97, 296, 352
-0.999727, 29, 129, 60, 375
-0.99974, 1, 73, 500, 136
-0.999747, 413, 1, 444, 256
-0.999747, 177, 97, 208, 352
-0.999768, 1, 273, 500, 336
-0.999773, 333, 97, 364, 352
-0.999783, 1, 121, 500, 184
-0.999788, 1, 97, 32, 352
-0.999791, 469, 97, 500, 352
-0.999798, 225, 33, 256, 288
-0.999862, 97, 97, 128, 352
-0.99988, 441, 65, 472, 320
-0.999905, 213, 1, 244, 256
-0.99991, 17, 97, 48, 352
-0.999932, 65, 97, 96, 352
-1.00003, 41, 129, 72, 375
-1.00003, 201, 97, 232, 352
-1.00003, 429, 1, 460, 256
-1.00005, 81, 129, 144, 375
-1.00006, 213, 97, 244, 352
-1.00009, 309, 1, 340, 256
-1.00016, 85, 97, 116, 352
-1.00025, 109, 97, 140, 352
-1.00026, 53, 129, 84, 375
-1.00031, 1, 313, 500, 375
-1.00032, 189, 97, 220, 352
-1.00037, 413, 129, 444, 375
-1.00045, 229, 129, 260, 375
-1.00045, 453, 97, 484, 352
-1.00127, 1, 249, 500, 312
-1.00129, 1, 97, 500, 160
