1913
-0.310498, 1, 65, 500, 320
-0.319345, 1, 1, 500, 352
-0.445369, 1, 1, 256, 352
-0.45354, 1, 97, 256, 352
-0.517581, 97, 1, 352, 352
-0.545321, 257, 1, 500, 352
-0.595719, 129, 65, 384, 320
-0.683326, 257, 33, 500, 288
-0.689909, 33, 1, 288, 256
-0.819317, 65, 97, 192, 352
-0.827937, 17, 65, 144, 320
-0.842524, 113, 65, 240, 320
-0.848079, 65, 1, 192, 352
-0.855679, 1, 81, 500, 208
-0.859595, 353, 1, 480, 352
-0.860998, 353, 33, 480, 288
-0.862298, 17, 1, 144, 352
-0.865753, 161, 65, 288, 320
-0.874174, 209, 65, 336, 320
-0.875744, 305, 1, 432, 352
-0.876644, 113, 1, 240, 352
-0.884893, 161, 1, 288, 352
-0.885096, 305, 33, 432, 288
-0.885813, 209, 1, 336, 352
-0.890084, 1, 81, 256, 208
-0.890663, 65, 1, 192, 256
-0.891986, 257, 65, 384, 320
-0.89381, 1, 145, 256, 272
-0.901411, 257, 1, 384, 352
-0.901793, 1, 209, 500, 336
-0.903204, 33, 193, 288, 320
-0.908193, 1, 17, 500, 144
-0.908595, 81, 129, 208, 256
-0.913584, 1, 129, 500, 256
-0.914476, 17, 81, 144, 208
-0.919121, 129, 81, 384, 208
-0.921889, 81, 209, 208, 336
-0.923177, 65, 193, 128, 320
-0.924122, 65, 81, 192, 208
-0.92467, 65, 81, 128, 208
-0.92743, 97, 81, 160, 208
-0.92929, 257, 81, 500, 208
-0.92974, 129, 193, 384, 320
-0.929905, 161, 193, 224, 320
-0.93081, 89, 129, 152, 256
-0.93099, 353, 49, 480, 176
-0.93141, 161, 209, 288, 336
-0.931811, 417, 1, 480, 128
-0.932053, 33, 145, 160, 272
-0.932063, 57, 145, 120, 272
-0.93293, 25, 81, 88, 208
-0.933658, 121, 81, 184, 208
-0.934314, 161, 145, 224, 272
-0.939285, 393, 17, 456, 144
-0.940752, 137, 129, 200, 256
-0.94151, 137, 209, 200, 336
-0.942441, 185, 161, 248, 288
-0.94269, 401, 65, 464, 192
-0.942704, 257, 17, 500, 144
-0.942996, 129, 161, 256, 288
-0.943416, 33, 225, 160, 352
-0.944591, 425, 1, 488, 64
-0.944683, 425, 49, 488, 176
-0.944916, 105, 273, 168, 336
-0.945487, 113, 81, 240, 208
-0.945619, 393, 41, 456, 104
-0.945879, 105, 225, 168, 352
-0.94645, 145, 257, 208, 320
-0.947307, 377, 65, 440, 192
-0.948322, 193, 209, 256, 336
-0.948455, 33, 145, 96, 272
-0.948499, 113, 129, 176, 256
-0.948628, 369, 1, 496, 128
-0.94901, 73, 257, 136, 320
-0.949246, 41, 225, 104, 352
-0.949773, 345, 81, 408, 208
-0.94986, 145, 185, 208, 248
-0.949872, 57, 217, 120, 280
-0.950145, 289, 81, 416, 208
-0.950427, 369, 57, 432, 120
-0.950623, 129, 145, 384, 272
-0.952089, 161, 209, 224, 272
-0.952187, 145, 81, 208, 208
-0.952893, 305, 33, 432, 160
-0.953268, 169, 265, 232, 328
-0.953549, 161, 81, 288, 208
-0.953806, 1, 129, 64, 256
-0.954077, 97, 33, 352, 160
-0.955065, 49, 65, 112, 320
-0.95518, 177, 161, 304, 288
-0.955734, 73, 185, 136, 248
-0.955787, 1, 33, 256, 160
-0.956975, 97, 137, 160, 200
-0.957994, 169, 241, 232, 304
-0.958049, 169, 81, 232, 208
-0.958835, 425, 25, 488, 88
-0.958941, 153, 289, 216, 352
-0.959114, 121, 137, 184, 200
-0.959409, 401, 17, 464, 80
-0.959899, 57, 145, 120, 208
-0.960158, 137, 217, 200, 280
-0.960474, 369, 241, 432, 304
-0.960727, 129, 281, 192, 344
-0.960953, 113, 185, 176, 248
-0.961091, 369, 17, 432, 144
-0.961334, 321, 81, 384, 208
-0.961337, 33, 89, 96, 152
-0.961504, 241, 81, 368, 208
-0.962141, 49, 241, 112, 304
-0.962255, 393, 249, 456, 312
-0.96228, 81, 281, 144, 344
-0.962391, 169, 153, 232, 216
-0.962608, 297, 65, 360, 192
-0.962793, 225, 193, 480, 320
-0.963448, 345, 241, 408, 304
-0.963456, 81, 265, 208, 328
-0.963794, 185, 193, 248, 256
-0.96388, 337, 97, 464, 224
-0.963904, 73, 97, 136, 352
-0.964011, 425, 57, 488, 120
-0.96402, 113, 217, 176, 280
-0.964052, 1, 81, 64, 208
-0.964372, 101, 81, 132, 208
-0.964613, 97, 249, 160, 312
-0.965179, 321, 241, 384, 304
-0.965471, 189, 193, 220, 320
-0.965905, 161, 65, 224, 320
-0.966125, 345, 65, 408, 128
-0.966472, 85, 265, 116, 328
-0.966941, 81, 209, 144, 272
-0.967014, 105, 177, 168, 304
-0.967072, 1, 113, 64, 176
-0.967144, 17, 65, 80, 320
-0.967203, 413, 17, 444, 144
-0.967418, 41, 177, 104, 240
-0.967457, 9, 177, 72, 304
-0.967558, 417, 17, 448, 80
-0.967585, 57, 281, 120, 344
-0.96766, 85, 81, 116, 208
-0.967835, 377, 81, 440, 144
-0.967861, 113, 273, 144, 336
-0.96801, 73, 81, 104, 208
-0.968023, 461, 1, 492, 64
-0.968041, 113, 81, 144, 208
-0.968122, 201, 217, 264, 280
-0.968247, 81, 137, 208, 200
-0.9683, 153, 273, 184, 336
-0.968466, 461, 1, 492, 128
-0.9685, 297, 241, 360, 304
-0.968575, 37, 81, 68, 208
-0.968631, 101, 273, 132, 336
-0.968964, 81, 241, 112, 304
-0.969112, 113, 217, 240, 280
-0.969129, 121, 161, 184, 224
-0.969155, 165, 129, 196, 256
-0.969236, 97, 33, 224, 160
-0.969452, 265, 241, 328, 304
-0.96955, 345, 33, 408, 160
-0.96956, 425, 17, 456, 144
-0.969655, 121, 249, 184, 312
-0.96971, 393, 49, 424, 176
-0.969807, 113, 65, 176, 320
-0.969912, 81, 225, 112, 352
-0.969918, 401, 41, 432, 104
-0.970018, 161, 241, 288, 304
-0.970155, 61, 225, 92, 288
-0.970206, 321, 73, 384, 136
-0.970212, 385, 1, 448, 256
-0.970238, 457, 41, 488, 104
-0.970241, 297, 81, 360, 144
-0.970285, 445, 9, 476, 72
-0.970303, 81, 145, 112, 272
-0.970404, 93, 129, 124, 256
-0.970429, 65, 209, 96, 336
-0.970491, 425, 233, 488, 296
-0.97058, 81, 169, 208, 232
-0.970633, 65, 241, 192, 304
-0.970913, 49, 33, 176, 160
-0.970936, 173, 265, 204, 328
-0.970962, 125, 273, 156, 336
-0.971052, 217, 193, 280, 320
-0.971127, 249, 225, 312, 352
-0.971244, 145, 137, 208, 200
-0.97128, 417, 81, 480, 144
-0.971385, 129, 81, 160, 208
-0.971457, 433, 1, 496, 256
-0.971523, 85, 145, 116, 208
-0.971544, 193, 81, 256, 208
-0.971623, 173, 209, 204, 336
-0.971635, 81, 89, 144, 152
-0.971678, 9, 201, 72, 264
-0.97181, 369, 25, 496, 88
-0.971846, 385, 65, 416, 128
-0.971877, 49, 193, 176, 256
-0.971936, 17, 97, 144, 160
-0.971974, 97, 33, 160, 160
-0.972521, 137, 281, 168, 344
-0.972625, 61, 145, 92, 272
-0.972629, 193, 209, 224, 272
-0.972769, 61, 81, 92, 208
-0.972771, 177, 145, 208, 272
-0.972917, 361, 33, 424, 288
-0.972918, 113, 193, 240, 256
-0.973023, 225, 129, 480, 256
-0.973058, 241, 257, 304, 320
-0.973069, 201, 241, 264, 304
-0.973071, 209, 225, 336, 352
-0.973097, 145, 33, 272, 160
-0.973356, 97, 289, 224, 352
-0.973406, 141, 81, 172, 208
-0.973451, 137, 97, 200, 352
-0.973495, 193, 169, 256, 232
-0.973513, 265, 81, 328, 208
-0.973558, 189, 145, 220, 272
-0.97356, 97, 161, 160, 224
-0.973565, 409, 33, 472, 288
-0.973605, 129, 169, 256, 232
-0.973638, 57, 89, 120, 152
-0.973731, 449, 17, 480, 144
-0.973896, 17, 225, 80, 352
-0.974055, 113, 241, 240, 304
-0.97409, 33, 217, 96, 280
-0.974099, 65, 33, 128, 160
-0.97413, 185, 97, 248, 352
-0.974141, 173, 209, 204, 272
-0.974329, 273, 81, 336, 144
-0.974431, 33, 217, 160, 280
-0.974488, 153, 81, 184, 208
-0.974566, 121, 81, 184, 144
-0.97491, 93, 225, 124, 352
-0.97493, 1, 137, 64, 200
-0.975022, 217, 81, 280, 208
-0.975103, 105, 137, 136, 200
-0.975125, 25, 241, 88, 304
-0.975205, 101, 249, 132, 312
-0.975235, 353, 57, 480, 120
-0.975273, 241, 33, 368, 160
-0.975274, 129, 265, 256, 328
-0.975297, 161, 225, 192, 352
-0.975541, 305, 241, 432, 304
-0.975664, 125, 225, 156, 288
-0.975846, 241, 81, 304, 208
-0.975968, 33, 169, 160, 232
-0.975979, 49, 81, 80, 208
-0.976017, 145, 161, 208, 224
-0.97608, 17, 265, 144, 328
-0.976107, 405, 65, 436, 192
-0.976264, 401, 241, 432, 304
-0.976299, 149, 129, 180, 256
-0.976406, 133, 201, 164, 264
-0.976714, 1, 121, 128, 184
-0.976785, 353, 249, 480, 312
-0.976796, 113, 241, 144, 304
-0.976839, 265, 265, 328, 328
-0.97684, 377, 17, 440, 80
-0.977029, 209, 65, 272, 320
-0.97708, 161, 217, 288, 280
-0.977101, 125, 137, 156, 200
-0.97711, 373, 81, 404, 208
-0.977116, 73, 121, 136, 184
-0.977225, 61, 153, 92, 216
-0.977253, 145, 185, 176, 248
-0.977271, 353, 89, 416, 152
-0.977332, 433, 65, 464, 192
-0.977357, 421, 65, 452, 192
-0.977434, 209, 177, 240, 304
-0.977521, 105, 129, 136, 256
-0.97756, 257, 241, 384, 304
-0.97758, 49, 145, 80, 272
-0.977654, 289, 209, 416, 336
-0.977717, 417, 257, 480, 320
-0.977754, 49, 289, 176, 352
-0.977772, 181, 241, 212, 304
-0.977822, 413, 241, 444, 304
-0.97788, 129, 33, 192, 160
-0.97795, 25, 97, 56, 224
-0.978013, 41, 89, 72, 152
-0.978199, 169, 145, 200, 208
-0.978295, 17, 113, 48, 176
-0.978321, 413, 57, 444, 120
-0.978387, 165, 169, 196, 232
-0.978443, 153, 137, 184, 200
-0.97851, 373, 65, 404, 128
-0.978655, 181, 185, 212, 248
-0.978682, 465, 49, 496, 176
-0.978688, 113, 225, 144, 352
-0.978701, 81, 217, 112, 280
-0.978779, 305, 65, 432, 128
-0.978806, 161, 193, 192, 256
-0.978887, 321, 65, 384, 320
-0.978906, 161, 193, 288, 256
-0.978921, 437, 1, 468, 128
-0.978951, 389, 241, 420, 304
-0.978968, 33, 145, 160, 208
-0.978992, 125, 129, 156, 256
-0.979111, 205, 169, 236, 232
-0.979183, 69, 185, 100, 248
-0.979228, 33, 265, 96, 328
-0.979244, 49, 1, 112, 352
-0.979307, 449, 65, 480, 128
-0.979312, 153, 33, 216, 160
-0.979422, 357, 81, 388, 208
-0.979431, 41, 33, 104, 160
-0.97951, 33, 153, 96, 216
-0.979615, 161, 249, 192, 312
-0.979618, 137, 137, 168, 200
-0.979637, 49, 169, 80, 232
-0.979641, 101, 217, 132, 280
-0.979661, 97, 81, 224, 144
-0.97973, 353, 81, 480, 144
-0.979764, 389, 41, 420, 104
-0.979768, 377, 217, 440, 280
-0.979784, 233, 65, 296, 320
-0.979828, 73, 1, 136, 352
-0.97983, 209, 145, 272, 272
-0.979841, 149, 193, 180, 320
-0.979845, 13, 113, 44, 240
-0.979856, 69, 249, 100, 312
-0.979893, 369, 113, 432, 240
-0.979913, 429, 17, 460, 80
-0.979935, 133, 249, 164, 312
-0.97997, 337, 265, 400, 328
-0.980085, 189, 265, 220, 328
-0.980267, 137, 113, 200, 176
-0.980316, 241, 81, 368, 144
-0.980419, 181, 65, 212, 192
-0.980451, 165, 289, 196, 352
-0.980513, 1, 129, 32, 192
-0.980545, 365, 241, 396, 304
-0.980583, 409, 1, 472, 352
-0.980669, 225, 161, 352, 288
-0.980682, 1, 113, 32, 240
-0.980682, 137, 129, 168, 256
-0.980839, 329, 241, 360, 304
-0.980847, 73, 145, 104, 208
-0.980885, 17, 177, 80, 240
-0.980959, 113, 217, 144, 280
-0.981034, 417, 113, 480, 240
-0.981035, 377, 241, 408, 304
-0.981045, 121, 193, 152, 256
-0.981047, 125, 225, 156, 352
-0.981383, 57, 65, 120, 128
-0.98143, 165, 81, 196, 208
-0.981513, 145, 81, 208, 144
-0.981521, 341, 241, 372, 304
-0.981529, 433, 1, 496, 352
-0.981552, 177, 265, 304, 328
-0.981623, 305, 89, 432, 152
-0.981703, 401, 217, 464, 280
-0.981743, 393, 113, 456, 240
-0.981748, 361, 265, 424, 328
-0.981786, 1, 225, 32, 288
-0.981798, 297, 57, 360, 120
-0.981844, 353, 241, 384, 304
-0.981901, 145, 249, 176, 312
-0.981904, 321, 33, 384, 160
-0.981904, 297, 65, 360, 320
-0.981939, 273, 225, 336, 352
-0.982052, 345, 65, 376, 192
-0.982065, 445, 65, 476, 192
-0.982071, 145, 217, 176, 280
-0.982114, 137, 225, 168, 352
-0.982124, 265, 257, 296, 320
-0.98228, 265, 65, 328, 320
-0.982286, 329, 97, 392, 160
-0.9823, 317, 65, 348, 192
-0.982437, 297, 265, 360, 328
-0.982477, 97, 113, 160, 176
-0.982482, 193, 17, 320, 144
-0.982561, 249, 81, 312, 144
-0.982604, 241, 177, 304, 304
-0.982684, 385, 1, 448, 352
-0.982768, 397, 73, 428, 136
-0.982817, 405, 17, 436, 80
-0.982837, 53, 89, 84, 152
-0.982853, 1, 33, 128, 160
-0.982869, 1, 241, 128, 304
-0.982976, 401, 1, 432, 128
-0.983098, 381, 33, 412, 160
-0.983177, 73, 1, 136, 256
-0.983189, 317, 241, 348, 304
-0.983216, 369, 1, 496, 64
-0.983263, 425, 249, 456, 312
-0.983369, 193, 233, 224, 296
-0.98341, 321, 49, 384, 112
-0.983463, 9, 89, 72, 152
-0.98349, 361, 89, 392, 152
-0.983491, 145, 49, 208, 112
-0.983544, 89, 65, 152, 128
-0.983686, 101, 177, 132, 304
-0.983686, 193, 161, 224, 224
-0.983694, 333, 81, 364, 208
-0.983749, 145, 1, 208, 352
-0.983806, 93, 169, 124, 232
-0.98387, 17, 1, 80, 352
-0.983877, 25, 113, 88, 176
-0.983878, 153, 161, 184, 224
-0.983985, 353, 217, 416, 280
-0.984143, 145, 289, 272, 352
-0.984158, 129, 137, 256, 200
-0.984215, 1, 193, 128, 256
-0.984249, 105, 1, 168, 352
-0.984301, 29, 97, 60, 160
-0.98443, 73, 289, 104, 352
-0.984433, 133, 161, 164, 224
-0.984452, 241, 265, 368, 328
-0.984452, 209, 193, 272, 256
-0.984567, 345, 73, 376, 136
-0.984614, 225, 81, 288, 144
-0.984667, 81, 113, 208, 176
-0.984802, 49, 121, 112, 184
-0.984945, 97, 89, 128, 152
-0.984957, 317, 81, 348, 144
-0.98498, 393, 97, 424, 224
-0.985049, 329, 217, 392, 280
-0.985093, 177, 81, 240, 144
-0.98516, 345, 129, 408, 256
-0.985266, 89, 289, 120, 352
-0.985273, 361, 65, 392, 128
-0.985299, 177, 289, 208, 352
-0.98531, 33, 73, 160, 136
-0.985345, 85, 89, 116, 152
-0.985347, 193, 273, 256, 336
-0.985365, 121, 57, 184, 120
-0.985423, 305, 81, 336, 144
-0.985556, 169, 121, 232, 184
-0.985557, 169, 57, 232, 120
-0.985613, 81, 169, 112, 232
-0.985643, 353, 1, 416, 352
-0.985727, 441, 233, 472, 296
-0.985812, 57, 201, 88, 264
-0.985821, 177, 33, 240, 160
-0.985843, 369, 225, 496, 352
-0.985888, 53, 209, 84, 336
-0.985897, 297, 241, 328, 304
-0.985938, 413, 81, 444, 144
-0.985976, 177, 169, 304, 232
-0.985999, 257, 57, 320, 120
-0.986009, 245, 257, 276, 320
-0.986081, 277, 241, 308, 304
-0.986201, 105, 161, 136, 224
-0.986242, 181, 153, 212, 216
-0.986281, 101, 193, 132, 256
-0.986331, 193, 81, 224, 208
-0.986353, 321, 217, 448, 280
-0.986455, 433, 81, 464, 144
-0.986457, 185, 1, 248, 256
-0.986463, 265, 225, 296, 352
-0.986481, 469, 57, 500, 120
-0.986487, 145, 73, 272, 136
-0.986499, 125, 177, 156, 304
-0.98657, 425, 41, 456, 104
-0.986587, 65, 89, 96, 152
-0.986672, 209, 241, 336, 304
-0.986707, 409, 105, 472, 168
-0.986763, 193, 81, 320, 144
-0.986802, 333, 81, 364, 144
-0.98687, 469, 25, 500, 88
-0.986894, 185, 1, 248, 352
-0.986917, 201, 81, 264, 144
-0.986938, 201, 129, 232, 256
-0.986984, 445, 41, 476, 104
-0.987068, 209, 145, 272, 208
-0.987122, 157, 225, 188, 288
-0.98717, 369, 33, 400, 160
-0.987307, 201, 225, 232, 352
-0.987336, 193, 185, 224, 248
-0.987364, 433, 65, 496, 96
-0.987376, 321, 1, 384, 352
-0.987393, 289, 265, 416, 328
-0.987413, 89, 193, 120, 256
-0.987437, 265, 33, 328, 160
-0.987563, 209, 33, 272, 160
-0.987632, 1, 289, 128, 352
-0.987644, 469, 233, 500, 296
-0.987645, 109, 89, 140, 152
-0.987673, 201, 257, 232, 320
-0.987723, 409, 21, 472, 52
-0.987816, 453, 233, 484, 296
-0.987882, 37, 177, 68, 304
-0.987892, 305, 65, 336, 192
-0.987901, 177, 129, 304, 192
-0.987905, 65, 269, 128, 300
-0.987925, 369, 217, 496, 280
-0.987958, 321, 1, 448, 64
-0.987966, 25, 145, 56, 272
-0.987985, 345, 41, 408, 104
-0.98801, 213, 193, 244, 256
-0.98804, 121, 169, 152, 232
-0.988115, 417, 77, 480, 108
-0.988184, 137, 1, 200, 256
-0.988185, 377, 121, 440, 184
-0.988266, 293, 81, 324, 144
-0.988273, 137, 277, 200, 308
-0.98836, 385, 69, 448, 100
-0.988397, 169, 221, 232, 252
-0.988408, 297, 1, 360, 352
-0.988434, 433, 97, 496, 352
-0.988438, 105, 297, 168, 328
-0.988477, 377, 89, 408, 152
-0.988501, 385, 97, 448, 352
-0.98851, 113, 49, 240, 112
-0.988513, 121, 81, 152, 144
-0.98852, 41, 193, 72, 256
-0.98854, 353, 77, 416, 108
-0.988554, 81, 281, 144, 312
-0.988567, 409, 37, 472, 68
-0.988653, 161, 209, 224, 240
-0.988701, 209, 1, 272, 352
-0.988705, 273, 161, 400, 288
-0.988723, 41, 137, 72, 200
-0.988757, 61, 273, 92, 336
-0.98878, 369, 177, 496, 304
-0.988818, 1, 225, 64, 288
-0.988845, 57, 257, 120, 288
-0.988902, 153, 261, 216, 292
-0.988978, 81, 241, 144, 272
-0.988995, 425, 9, 488, 40
-0.989, 161, 177, 192, 304
-0.989021, 241, 217, 368, 280
-0.989024, 49, 245, 112, 276
-0.989073, 181, 129, 212, 192
-0.989082, 37, 129, 68, 256
-0.989126, 277, 225, 308, 352
-0.989134, 57, 217, 120, 248
-0.98916, 137, 201, 200, 232
-0.989177, 169, 237, 232, 268
-0.989224, 285, 81, 316, 208
-0.989252, 241, 33, 304, 160
-0.989252, 393, 209, 456, 336
-0.989253, 105, 277, 168, 308
-0.989315, 109, 33, 140, 160
-0.989322, 169, 249, 232, 280
-0.989365, 33, 97, 96, 128
-0.989399, 65, 273, 320, 336
-0.989458, 209, 65, 240, 192
-0.989459, 145, 229, 208, 260
-0.989469, 49, 229, 112, 260
-0.989481, 409, 217, 440, 280
-0.989493, 81, 217, 144, 248
-0.989518, 133, 73, 164, 136
-0.98955, 129, 289, 192, 320
-0.9896, 253, 225, 284, 352
-0.989603, 409, 49, 472, 80
-0.989609, 93, 121, 124, 184
-0.989659, 225, 169, 288, 232
-0.989668, 193, 121, 256, 184
-0.989675, 113, 217, 176, 248
-0.989679, 161, 273, 224, 304
-0.989685, 1, 89, 256, 152
-0.989692, 409, 65, 472, 96
-0.98974, 433, 209, 496, 336
-0.989771, 129, 113, 256, 176
-0.989778, 125, 33, 156, 160
-0.989809, 65, 241, 320, 304
-0.989833, 257, 57, 384, 120
-0.989933, 393, 85, 456, 116
-0.989943, 433, 21, 496, 52
-0.989953, 377, 53, 440, 84
-0.989994, 401, 265, 432, 328
-0.990012, 113, 233, 176, 264
-0.990015, 321, 81, 384, 112
-0.990067, 65, 149, 128, 180
-0.990076, 369, 105, 496, 168
-0.990087, 277, 265, 308, 328
-0.990106, 113, 257, 176, 288
-0.990125, 249, 249, 312, 280
-0.990146, 89, 265, 152, 296
-0.990148, 1, 249, 500, 312
-0.990149, 145, 189, 208, 220
-0.990159, 137, 217, 200, 248
-0.990174, 81, 121, 112, 184
-0.990186, 57, 93, 120, 124
-0.990192, 161, 289, 224, 320
-0.990204, 201, 245, 264, 276
-0.990223, 89, 201, 152, 232
-0.990235, 89, 141, 152, 172
-0.990249, 185, 205, 248, 236
-0.990287, 233, 57, 296, 120
-0.990291, 305, 249, 368, 280
-0.990297, 385, 37, 448, 68
-0.990307, 73, 229, 136, 260
-0.990316, 397, 217, 428, 280
-0.990327, 49, 161, 112, 192
-0.990414, 225, 249, 480, 312
-0.990457, 409, 245, 472, 276
-0.990457, 81, 293, 144, 324
-0.99047, 81, 253, 144, 284
-0.990483, 273, 81, 304, 208
-0.990485, 217, 265, 280, 328
-0.990494, 97, 33, 128, 160
-0.990496, 57, 205, 120, 236
-0.990501, 209, 57, 336, 120
-0.990508, 233, 1, 296, 352
-0.990533, 177, 261, 240, 292
-0.990569, 145, 145, 208, 176
-0.990575, 361, 245, 424, 276
-0.990589, 281, 249, 344, 280
-0.990591, 49, 181, 112, 212
-0.990594, 249, 81, 280, 208
-0.990596, 33, 65, 96, 128
-0.990602, 145, 241, 208, 272
-0.990623, 89, 89, 152, 120
-0.990629, 433, 245, 496, 276
-0.990673, 97, 189, 160, 220
-0.990703, 305, 41, 432, 104
-0.990706, 321, 161, 448, 288
-0.990718, 329, 245, 392, 276
-0.990726, 221, 81, 252, 208
-0.990737, 401, 257, 464, 288
-0.990787, 385, 245, 448, 276
-0.990868, 185, 189, 248, 220
-0.990873, 57, 293, 120, 324
-0.990913, 265, 177, 328, 304
-0.990923, 129, 85, 192, 116
-0.990939, 437, 257, 468, 320
-0.99097, 57, 281, 120, 312
-0.990976, 113, 141, 176, 172
-0.990983, 169, 161, 232, 192
-0.990986, 281, 81, 312, 144
-0.99099, 33, 137, 288, 200
-0.991004, 121, 185, 184, 216
-0.991007, 1, 133, 64, 164
-0.991035, 137, 305, 200, 336
-0.991043, 305, 217, 368, 280
-0.991045, 385, 273, 448, 336
-0.991054, 33, 161, 288, 224
-0.991056, 373, 265, 404, 328
-0.991062, 265, 1, 328, 352
-0.991067, 201, 217, 264, 248
-0.991076, 161, 49, 288, 112
-0.991086, 17, 113, 80, 144
-0.991095, 417, 89, 480, 120
-0.991112, 201, 233, 264, 264
-0.991118, 65, 193, 128, 224
-0.991123, 297, 209, 360, 336
-0.991148, 353, 17, 416, 80
-0.991148, 329, 261, 392, 292
-0.991153, 385, 25, 448, 56
-0.99116, 1, 161, 32, 288
-0.991187, 17, 229, 80, 260
-0.991198, 221, 193, 252, 320
-0.991203, 41, 269, 104, 300
-0.991225, 73, 181, 136, 212
-0.991319, 297, 17, 360, 144
-0.991327, 33, 257, 96, 288
-0.991327, 261, 81, 292, 208
-0.991329, 153, 85, 216, 116
-0.991332, 433, 53, 496, 84
-0.991355, 273, 261, 336, 292
-0.991374, 241, 225, 304, 288
-0.991406, 185, 277, 248, 308
-0.991424, 321, 129, 384, 256
-0.991426, 105, 245, 168, 276
-0.991462, 113, 201, 176, 232
-0.991466, 337, 273, 464, 336
-0.991467, 345, 89, 408, 120
-0.991483, 337, 65, 400, 96
-0.991502, 217, 289, 280, 352
-0.991506, 233, 85, 296, 116
-0.991522, 41, 193, 104, 224
-0.991538, 377, 257, 440, 288
-0.991543, 89, 169, 152, 200
-0.991553, 425, 257, 488, 288
-0.991583, 185, 173, 248, 204
-0.991598, 17, 241, 80, 272
-0.991616, 297, 81, 360, 112
-0.991616, 201, 257, 264, 288
-0.991642, 33, 217, 96, 248
-0.991649, 249, 265, 312, 296
-0.991652, 97, 313, 160, 344
-0.991657, 265, 85, 328, 116
-0.991658, 121, 165, 184, 196
-0.991672, 73, 305, 136, 336
-0.991685, 33, 205, 96, 236
-0.991695, 161, 301, 224, 332
-0.991705, 361, 65, 424, 96
-0.991719, 369, 89, 432, 120
-0.991734, 305, 261, 368, 292
-0.991734, 1, 81, 500, 144
-0.991737, 193, 81, 256, 112
-0.991755, 33, 285, 96, 316
-0.991777, 153, 177, 216, 208
-0.991799, 193, 49, 256, 112
-0.991801, 353, 257, 416, 288
-0.991848, 433, 105, 496, 168
-0.991856, 465, 41, 480, 104
-0.99186, 169, 73, 232, 104
-0.991869, 65, 217, 320, 280
-0.991875, 9, 217, 72, 248
-0.991875, 97, 129, 160, 160
-0.991904, 65, 289, 192, 320
-0.991924, 25, 149, 88, 180
-0.991929, 433, 33, 496, 64
-0.992007, 457, 57, 488, 88
-0.992008, 397, 57, 428, 88
-0.992009, 329, 121, 392, 184
-0.992031, 417, 25, 448, 56
-0.992045, 467, 1, 482, 64
-0.992048, 457, 13, 488, 44
-0.992085, 225, 253, 288, 284
-0.992115, 57, 81, 120, 112
-0.992117, 25, 181, 88, 212
-0.992132, 105, 273, 136, 304
-0.992144, 441, 21, 472, 52
-0.992148, 453, 77, 484, 108
-0.992148, 137, 133, 200, 164
-0.992154, 413, 37, 444, 68
-0.992155, 113, 233, 240, 264
-0.992156, 469, 69, 500, 100
-0.992167, 193, 225, 224, 256
-0.992167, 173, 217, 204, 248
-0.992219, 257, 57, 500, 120
-0.992224, 181, 261, 212, 292
-0.992237, 157, 285, 188, 316
-0.992241, 353, 113, 416, 176
-0.992242, 429, 73, 460, 104
-0.992248, 93, 265, 124, 296
-0.992249, 41, 137, 104, 168
-0.992262, 189, 205, 220, 236
-0.992279, 81, 241, 112, 272
-0.992283, 37, 97, 68, 128
-0.992302, 357, 33, 388, 160
-0.992304, 413, 69, 444, 100
-0.992306, 441, 77, 472, 108
-0.992339, 133, 237, 164, 268
-0.99234, 105, 293, 136, 324
-0.992341, 157, 197, 188, 228
-0.992352, 445, 65, 476, 96
-0.992361, 293, 225, 324, 352
-0.992374, 121, 277, 152, 308
-0.992386, 393, 69, 424, 100
-0.992387, 125, 297, 156, 328
-0.992391, 233, 209, 264, 336
-0.992392, 145, 293, 176, 324
-0.992395, 61, 229, 92, 260
-0.992396, 65, 253, 96, 284
-0.992405, 173, 273, 204, 304
-0.992406, 65, 33, 96, 160
-0.992406, 381, 73, 412, 104
-0.992407, 73, 269, 104, 300
-0.992412, 81, 277, 208, 308
-0.992414, 173, 229, 204, 260
-0.992433, 89, 281, 120, 312
-0.992459, 457, 45, 488, 76
-0.992462, 129, 213, 160, 244
-0.99247, 113, 217, 240, 248
-0.992472, 161, 265, 192, 296
-0.992481, 401, 45, 432, 76
-0.992481, 369, 77, 400, 108
-0.992482, 353, 77, 480, 108
-0.992483, 189, 249, 220, 280
-0.992488, 85, 253, 116, 284
-0.992496, 273, 217, 336, 280
-0.992509, 257, 81, 500, 144
-0.992521, 193, 237, 224, 268
-0.992522, 107, 265, 122, 328
-0.99255, 141, 221, 172, 252
-0.992563, 141, 277, 172, 308
-0.992567, 429, 85, 460, 116
-0.992572, 425, 13, 456, 44
-0.992573, 57, 93, 88, 124
-0.992581, 145, 189, 176, 220
-0.99259, 113, 229, 144, 260
-0.992592, 465, 81, 496, 112
-0.992599, 137, 177, 168, 304
-0.992619, 113, 205, 240, 236
-0.992626, 129, 201, 160, 232
-0.99264, 129, 225, 160, 256
-0.992666, 409, 57, 440, 88
-0.992675, 417, 81, 448, 112
-0.99268, 173, 249, 204, 280
-0.992688, 61, 241, 92, 272
-0.992699, 173, 205, 204, 236
-0.992708, 113, 217, 144, 248
-0.992713, 181, 189, 212, 220
-0.992716, 101, 265, 116, 328
-0.992716, 453, 33, 484, 64
-0.992721, 101, 233, 132, 264
-0.992721, 437, 245, 468, 276
-0.99273, 93, 221, 124, 252
-0.992732, 65, 217, 192, 248
-0.992736, 469, 57, 500, 88
-0.992739, 401, 33, 432, 64
-0.992743, 333, 81, 364, 112
-0.99275, 377, 61, 408, 92
-0.992761, 329, 33, 360, 160
-0.992763, 61, 217, 92, 248
-0.99277, 153, 217, 184, 248
-0.992773, 69, 89, 100, 120
-0.992778, 81, 217, 112, 248
-0.992785, 77, 149, 108, 180
-0.992799, 457, 245, 488, 276
-0.992803, 13, 121, 44, 152
-0.992807, 155, 273, 170, 336
-0.992808, 237, 81, 268, 208
-0.992819, 425, 245, 456, 276
-0.992832, 261, 253, 292, 284
-0.992834, 445, 9, 476, 40
-0.992841, 337, 249, 368, 280
-0.992849, 165, 301, 196, 332
-0.992849, 77, 229, 108, 260
-0.99285, 469, 1, 500, 32
-0.992851, 113, 141, 144, 172
-0.992854, 89, 145, 120, 176
-0.992863, 317, 249, 348, 280
-0.992877, 465, 25, 496, 56
-0.99288, 297, 249, 328, 280
-0.992881, 105, 205, 136, 236
-0.992882, 297, 113, 360, 240
-0.992889, 413, 245, 444, 276
-0.992895, 141, 201, 172, 232
-0.992898, 65, 157, 96, 188
-0.992898, 93, 293, 124, 324
-0.992903, 137, 261, 168, 292
-0.992903, 137, 33, 168, 160
-0.992914, 353, 245, 384, 276
-0.992923, 373, 245, 404, 276
-0.992925, 113, 185, 144, 216
-0.992928, 357, 73, 388, 104
-0.992929, 285, 249, 316, 280
-0.992931, 33, 193, 288, 256
-0.992933, 113, 241, 144, 272
-0.992935, 81, 181, 112, 212
-0.992936, 25, 113, 56, 144
-0.992945, 441, 257, 472, 288
-0.992948, 93, 173, 124, 204
-0.992952, 89, 89, 120, 120
-0.992954, 93, 201, 124, 232
-0.992955, 413, 257, 444, 288
-0.992956, 405, 85, 436, 116
-0.992959, 157, 185, 188, 216
-0.992959, 273, 249, 304, 280
-0.992965, 161, 265, 176, 328
-0.992966, 393, 245, 424, 276
-0.992974, 457, 1, 488, 32
-0.992976, 445, 89, 476, 120
-0.992976, 469, 245, 500, 276
-0.99298, 429, 25, 460, 56
-0.992982, 1, 225, 32, 256
-0.992985, 125, 141, 156, 172
-0.992989, 393, 81, 424, 112
-0.992991, 165, 145, 196, 176
-0.992993, 97, 245, 128, 276
-0.992994, 429, 257, 460, 288
-0.992999, 69, 197, 100, 228
-0.993, 89, 305, 120, 336
-0.993, 173, 177, 204, 208
-0.993006, 101, 141, 132, 172
-0.993007, 145, 141, 176, 172
-0.993007, 369, 53, 496, 84
-0.993008, 253, 265, 284, 296
-0.993021, 153, 305, 184, 336
-0.993025, 405, 21, 436, 52
-0.993025, 97, 81, 352, 144
-0.993027, 181, 153, 212, 184
-0.993035, 129, 249, 160, 280
-0.993075, 209, 193, 336, 256
-0.993093, 115, 273, 130, 336
-0.993106, 187, 257, 202, 320
-0.993109, 419, 17, 434, 80
-0.993129, 9, 33, 72, 160
-0.993141, 353, 137, 416, 200
-0.993158, 473, 1, 488, 64
-0.993197, 161, 245, 288, 276
-0.993204, 65, 49, 192, 112
-0.993276, 1, 217, 500, 280
-0.993324, 81, 141, 208, 172
-0.993337, 33, 93, 160, 124
-0.99337, 93, 265, 108, 328
-0.993372, 411, 41, 426, 104
-0.993373, 179, 265, 194, 328
-0.993375, 459, 41, 474, 104
-0.993378, 81, 257, 208, 288
-0.993395, 427, 9, 442, 72
-0.993401, 1, 113, 256, 176
-0.993418, 85, 33, 116, 160
-0.993513, 129, 273, 144, 336
-0.993518, 405, 49, 420, 112
-0.993526, 321, 121, 448, 184
-0.993595, 85, 257, 100, 320
-0.99361, 93, 241, 108, 304
-0.993645, 167, 273, 182, 336
-0.993649, 143, 281, 158, 344
-0.993656, 149, 289, 164, 352
-0.993722, 193, 289, 320, 352
-0.993755, 9, 65, 72, 128
-0.993771, 241, 249, 368, 280
-0.993832, 87, 233, 102, 296
-0.993855, 241, 281, 304, 344
-0.993866, 173, 273, 188, 336
-0.993869, 37, 33, 68, 160
-0.993873, 185, 209, 200, 272
-0.993898, 123, 281, 138, 344
-0.99397, 413, 17, 428, 80
-0.994015, 65, 229, 192, 260
-0.994032, 409, 113, 440, 240
-0.994037, 143, 225, 158, 288
-0.994037, 225, 169, 352, 232
-0.994048, 25, 49, 56, 176
-0.994053, 353, 209, 416, 336
-0.994092, 123, 209, 138, 272
-0.994104, 213, 129, 244, 256
-0.994105, 49, 197, 176, 228
-0.994126, 137, 273, 152, 336
-0.994134, 369, 65, 496, 96
-0.994143, 461, 97, 492, 224
-0.994144, 149, 33, 180, 160
-0.994146, 33, 261, 160, 292
-0.994158, 89, 145, 104, 208
-0.99417, 7, 225, 22, 288
-0.994199, 415, 241, 430, 304
-0.99423, 147, 193, 162, 256
-0.99423, 177, 105, 304, 168
-0.994281, 473, 25, 488, 88
-0.994283, 161, 273, 416, 336
-0.994287, 395, 57, 410, 120
-0.994293, 461, 17, 476, 80
-0.994339, 389, 65, 404, 128
-0.994363, 421, 241, 436, 304
-0.994381, 81, 245, 208, 276
-0.994405, 33, 289, 96, 352
-0.994412, 97, 189, 224, 220
-0.994419, 161, 261, 288, 292
-0.994421, 455, 9, 470, 72
-0.994431, 113, 137, 128, 200
-0.994431, 305, 77, 432, 108
-0.994459, 421, 41, 436, 104
-0.994467, 109, 289, 124, 352
-0.994472, 409, 241, 424, 304
-0.99448, 329, 209, 392, 336
-0.994507, 125, 137, 140, 200
-0.994508, 77, 65, 108, 320
-0.994541, 133, 209, 148, 272
-0.994542, 193, 225, 448, 288
-0.994609, 381, 129, 412, 256
-0.994613, 131, 137, 146, 200
-0.994631, 97, 65, 128, 320
-0.994641, 337, 245, 464, 276
-0.994658, 13, 161, 44, 288
-0.994703, 425, 209, 488, 272
-0.994705, 179, 201, 194, 264
-0.994712, 433, 9, 448, 72
-0.994741, 149, 257, 164, 320
-0.99475, 421, 113, 452, 240
-0.994774, 99, 145, 114, 208
-0.994783, 233, 129, 296, 256
-0.99481, 65, 209, 80, 272
-0.994819, 193, 249, 208, 312
-0.994821, 41, 65, 72, 320
-0.994826, 305, 289, 368, 352
-0.994835, 119, 137, 134, 200
-0.994847, 145, 281, 272, 312
-0.994866, 33, 249, 160, 280
-0.994886, 369, 129, 496, 192
-0.994889, 107, 137, 122, 200
-0.994901, 171, 193, 186, 256
-0.994906, 139, 137, 154, 200
-0.994911, 77, 153, 92, 216
-0.994913, 273, 121, 400, 184
-0.99492, 113, 293, 240, 324
-0.994923, 25, 113, 40, 176
-0.994939, 57, 65, 88, 320
-0.99494, 157, 193, 172, 256
-0.994946, 471, 49, 486, 112
-0.994958, 113, 177, 144, 304
-0.994967, 33, 185, 160, 216
-0.994967, 195, 193, 210, 256
-0.994974, 437, 113, 468, 240
-0.99498, 403, 241, 418, 304
-0.994987, 1, 133, 128, 164
-0.995012, 369, 33, 496, 64
-0.995038, 79, 257, 94, 320
-0.995059, 257, 177, 288, 304
-0.99506, 129, 193, 384, 256
-0.995066, 145, 137, 160, 200
-0.995072, 185, 233, 200, 296
-0.995095, 377, 241, 392, 304
-0.995098, 129, 177, 256, 208
-0.995101, 13, 65, 44, 192
-0.995109, 81, 85, 208, 116
-0.995112, 105, 241, 120, 304
-0.995129, 155, 137, 170, 200
-0.995162, 369, 241, 384, 304
-0.995177, 49, 165, 176, 196
-0.995191, 205, 209, 220, 272
-0.995192, 185, 177, 200, 240
-0.995228, 449, 113, 480, 240
-0.995243, 401, 129, 464, 192
-0.995255, 161, 289, 176, 352
-0.995263, 97, 165, 224, 196
-0.995265, 103, 289, 118, 352
-0.995273, 289, 249, 416, 280
-0.995276, 337, 89, 464, 120
-0.995277, 33, 273, 160, 304
-0.995279, 149, 217, 164, 280
-0.995302, 427, 241, 442, 304
-0.995321, 99, 241, 114, 304
-0.995324, 161, 201, 288, 232
-0.995331, 1, 273, 500, 336
-0.995349, 177, 177, 192, 240
-0.99535, 1, 217, 128, 248
-0.995366, 161, 233, 288, 264
-0.995394, 129, 121, 384, 184
-0.995404, 175, 145, 190, 208
-0.995406, 83, 209, 98, 272
-0.995407, 49, 301, 176, 332
-0.99541, 383, 57, 398, 120
-0.995443, 83, 145, 98, 208
-0.995453, 397, 241, 412, 304
-0.99548, 129, 169, 384, 232
-0.995481, 113, 249, 128, 312
-0.995485, 369, 129, 400, 256
-0.995487, 357, 241, 372, 304
-0.995491, 43, 89, 58, 152
-0.995495, 15, 121, 30, 184
-0.995521, 363, 241, 378, 304
-0.995527, 343, 241, 358, 304
-0.99553, 171, 249, 186, 312
-0.995545, 185, 145, 200, 208
-0.995558, 411, 65, 426, 128
-0.995563, 17, 289, 144, 320
-0.99558, 257, 81, 384, 112
-0.995584, 161, 213, 288, 244
-0.995584, 457, 65, 472, 128
-0.995587, 173, 97, 204, 352
-0.995589, 1, 137, 16, 200
-0.995591, 405, 81, 420, 144
-0.995609, 383, 241, 398, 304
-0.995618, 33, 105, 48, 168
-0.995621, 349, 241, 364, 304
-0.995624, 65, 161, 80, 224
-0.995643, 89, 209, 104, 272
-0.995644, 63, 89, 78, 152
-0.995653, 97, 57, 352, 120
-0.995657, 169, 137, 184, 200
-0.995689, 143, 249, 158, 312
-0.995691, 333, 241, 348, 304
-0.995695, 81, 233, 96, 296
-0.995712, 389, 241, 404, 304
-0.995712, 267, 257, 282, 320
-0.995731, 109, 65, 140, 320
-0.995747, 1, 145, 500, 208
-0.995748, 121, 249, 136, 312
-0.995765, 163, 137, 178, 200
-0.995769, 353, 257, 480, 288
-0.995773, 185, 97, 216, 352
-0.995774, 49, 89, 64, 152
-0.995778, 375, 89, 390, 152
-0.995778, 129, 85, 256, 116
-0.995783, 133, 233, 148, 296
-0.995786, 145, 189, 272, 220
-0.995788, 463, 65, 478, 128
-0.995796, 461, 1, 492, 256
-0.995798, 69, 89, 84, 152
-0.995799, 53, 33, 84, 160
-0.995827, 433, 241, 448, 304
-0.995827, 323, 241, 338, 304
-0.995835, 201, 17, 232, 144
-0.99584, 321, 65, 448, 96
-0.995853, 373, 65, 388, 128
-0.995861, 17, 49, 144, 112
-0.99587, 81, 177, 208, 208
-0.995881, 71, 153, 86, 216
-0.995893, 297, 161, 360, 288
-0.995902, 197, 273, 212, 336
-0.995903, 79, 185, 94, 248
-0.995908, 205, 257, 220, 320
-0.995911, 167, 169, 182, 232
-0.995915, 177, 241, 192, 304
-0.995927, 129, 1, 256, 64
-0.995936, 409, 33, 440, 288
-0.995948, 49, 153, 176, 184
-0.995959, 273, 261, 400, 292
-0.995962, 427, 33, 442, 96
-0.995972, 137, 9, 200, 72
-0.995975, 17, 105, 144, 136
-0.995991, 193, 33, 448, 96
-0.995994, 1, 157, 128, 188
-0.995996, 1, 217, 16, 280
-0.995998, 405, 25, 420, 88
-0.996017, 407, 53, 422, 84
-0.996036, 165, 193, 180, 256
-0.996041, 1, 121, 128, 152
-0.996062, 1, 57, 500, 120
-0.99607, 139, 193, 154, 256
-0.99607, 161, 161, 176, 224
-0.996095, 127, 233, 142, 296
-0.996111, 97, 25, 224, 88
-0.996138, 113, 305, 240, 336
-0.996162, 245, 177, 276, 304
-0.996169, 189, 17, 220, 144
-0.996173, 293, 33, 324, 160
-0.996202, 377, 33, 408, 288
-0.996233, 389, 33, 420, 288
-0.996242, 157, 97, 188, 352
-0.996262, 129, 145, 384, 208
-0.996265, 209, 85, 336, 116
-0.996275, 29, 65, 60, 320
-0.996307, 421, 33, 452, 288
-0.996311, 161, 33, 192, 160
-0.996338, 17, 229, 144, 260
-0.996369, 341, 17, 372, 144
-0.996425, 401, 209, 432, 336
-0.99643, 465, 13, 480, 44
-0.996464, 423, 21, 438, 52
-0.996474, 225, 261, 352, 292
-0.996485, 417, 37, 432, 68
-0.996507, 161, 293, 288, 324
-0.996515, 449, 1, 480, 256
-0.996532, 433, 129, 496, 192
-0.996534, 41, 225, 72, 352
-0.996549, 225, 129, 256, 256
-0.996553, 197, 97, 228, 352
-0.996571, 485, 69, 500, 100
-0.996577, 257, 1, 500, 64
-0.996579, 281, 289, 344, 352
-0.996626, 465, 45, 480, 76
-0.996667, 469, 65, 484, 96
-0.996681, 117, 277, 132, 308
-0.9967, 1, 169, 500, 232
-0.996704, 321, 53, 448, 84
-0.996705, 429, 17, 444, 48
-0.99671, 273, 169, 400, 232
-0.996712, 217, 17, 248, 144
-0.996724, 213, 65, 244, 320
-0.996725, 369, 17, 496, 48
-0.996778, 181, 213, 196, 244
-0.996786, 415, 25, 430, 56
-0.996798, 107, 269, 122, 300
-0.996807, 457, 77, 472, 108
-0.996819, 145, 73, 272, 104
-0.99682, 345, 113, 376, 240
-0.996841, 99, 257, 114, 288
-0.996848, 1, 301, 128, 332
-0.996851, 461, 57, 476, 88
-0.996859, 361, 33, 392, 288
-0.99686, 1, 205, 128, 236
-0.996866, 121, 65, 152, 320
-0.996883, 241, 201, 304, 264
-0.996901, 145, 157, 272, 188
-0.996912, 99, 269, 114, 300
-0.996927, 17, 97, 48, 352
-0.996929, 479, 69, 494, 100
-0.99693, 417, 65, 432, 96
-0.996935, 65, 313, 192, 344
-0.996944, 411, 41, 426, 72
-0.996949, 157, 277, 172, 308
-0.99695, 425, 33, 440, 64
-0.996979, 1, 97, 32, 352
-0.996986, 289, 289, 416, 352
-0.997012, 41, 97, 56, 128
-0.997054, 451, 65, 466, 96
-0.997071, 145, 65, 176, 320
-0.997075, 121, 217, 136, 248
-0.997084, 93, 265, 108, 296
-0.997112, 447, 81, 462, 112
-0.997136, 463, 77, 478, 108
-0.997144, 175, 205, 190, 236
-0.997162, 269, 177, 300, 304
-0.997163, 391, 69, 406, 100
-0.997166, 427, 69, 442, 100
-0.997168, 441, 81, 456, 112
-0.997171, 397, 69, 412, 100
-0.997188, 1, 25, 500, 88
-0.997189, 439, 69, 454, 100
-0.997195, 433, 33, 464, 288
-0.9972, 443, 21, 458, 52
-0.997203, 141, 297, 156, 328
-0.997207, 1, 105, 500, 168
-0.997209, 1, 65, 256, 128
-0.997221, 435, 81, 450, 112
-0.997231, 189, 225, 204, 256
-0.997232, 153, 293, 168, 324
-0.997234, 89, 249, 104, 280
-0.997238, 321, 145, 448, 208
-0.997239, 233, 33, 264, 160
-0.997243, 445, 69, 460, 100
-0.997244, 183, 269, 198, 300
-0.997244, 149, 217, 164, 248
-0.997251, 125, 297, 140, 328
-0.99726, 1, 173, 128, 204
-0.997268, 385, 77, 400, 108
-0.997289, 125, 277, 140, 308
-0.997289, 167, 265, 182, 296
-0.997294, 169, 197, 184, 228
-0.997301, 135, 229, 150, 260
-0.997309, 399, 57, 414, 88
-0.997313, 431, 29, 446, 60
-0.997331, 1, 145, 128, 176
-0.997336, 467, 33, 482, 64
-0.997337, 433, 69, 448, 100
-0.997373, 135, 297, 150, 328
-0.997373, 109, 293, 124, 324
-0.997373, 257, 69, 384, 100
-0.99738, 143, 217, 158, 248
-0.997384, 193, 281, 320, 312
-0.997395, 159, 289, 174, 320
-0.997398, 417, 49, 432, 80
-0.997405, 349, 65, 380, 320
-0.99742, 177, 277, 192, 308
-0.997428, 429, 81, 444, 112
-0.997442, 175, 253, 190, 284
-0.997451, 333, 65, 364, 320
-0.997462, 209, 73, 336, 104
-0.997474, 305, 225, 336, 352
-0.99748, 165, 289, 180, 320
-0.997489, 321, 21, 448, 52
-0.9975, 115, 293, 130, 324
-0.9975, 177, 169, 304, 200
-0.997506, 469, 177, 500, 304
-0.997511, 87, 261, 102, 292
-0.997512, 225, 113, 352, 176
-0.997516, 173, 265, 188, 296
-0.997522, 469, 77, 484, 108
-0.997525, 163, 277, 178, 308
-0.997527, 1, 193, 500, 256
-0.997531, 435, 13, 450, 44
-0.997539, 147, 297, 162, 328
-0.997548, 153, 201, 168, 232
-0.997552, 111, 281, 126, 312
-0.997559, 131, 241, 146, 272
-0.997561, 97, 153, 224, 184
-0.997564, 141, 237, 156, 268
-0.997576, 379, 73, 394, 104
-0.997577, 459, 45, 474, 76
-0.997578, 171, 285, 186, 316
-0.997582, 129, 229, 144, 260
-0.997589, 159, 197, 174, 228
-0.997593, 63, 93, 78, 124
-0.997594, 409, 29, 424, 60
-0.997603, 321, 65, 352, 320
-0.997619, 81, 73, 208, 104
-0.99762, 273, 145, 400, 208
-0.997625, 81, 253, 96, 284
-0.997627, 183, 249, 198, 280
-0.997629, 105, 281, 120, 312
-0.997635, 309, 17, 340, 144
-0.997641, 129, 217, 144, 248
-0.997643, 471, 53, 486, 84
-0.997646, 145, 129, 272, 160
-0.997649, 257, 273, 500, 336
-0.997662, 289, 93, 416, 124
-0.997679, 273, 281, 400, 312
-0.997682, 187, 213, 202, 244
-0.997686, 31, 113, 46, 144
-0.997706, 453, 13, 468, 44
-0.997708, 421, 77, 436, 108
-0.997708, 133, 65, 164, 320
-0.997708, 471, 13, 486, 44
-0.997713, 401, 161, 464, 288
-0.997716, 161, 1, 192, 256
-0.99772, 233, 65, 264, 320
-0.99772, 305, 65, 336, 320
-0.997722, 281, 177, 312, 304
-0.997724, 141, 201, 156, 232
-0.997742, 99, 285, 114, 316
-0.997746, 57, 93, 72, 124
-0.997755, 147, 277, 162, 308
-0.997756, 93, 277, 108, 308
-0.997757, 189, 253, 204, 284
-0.997759, 187, 237, 202, 268
-0.997774, 1, 225, 16, 256
-0.997777, 89, 237, 104, 268
-0.997779, 121, 229, 136, 260
-0.997786, 473, 29, 488, 60
-0.997787, 437, 245, 452, 276
-0.997789, 293, 65, 324, 320
-0.997798, 475, 81, 490, 112
-0.997798, 147, 229, 162, 260
-0.997798, 147, 261, 162, 292
-0.997799, 19, 121, 34, 152
-0.997809, 353, 193, 480, 256
-0.997811, 393, 57, 408, 88
-0.997817, 49, 129, 176, 160
-0.997818, 443, 245, 458, 276
-0.997823, 1, 145, 16, 176
-0.99783, 83, 241, 98, 272
-0.997834, 371, 77, 386, 108
-0.997834, 485, 81, 500, 112
-0.99784, 261, 253, 276, 284
-0.997847, 449, 245, 464, 276
-0.997848, 457, 245, 472, 276
-0.997854, 71, 157, 86, 188
-0.997855, 483, 5, 498, 36
-0.997857, 431, 245, 446, 276
-0.997865, 47, 97, 62, 128
-0.997868, 391, 81, 406, 112
-0.997868, 95, 245, 110, 276
-0.997878, 477, 17, 492, 48
-0.997878, 169, 221, 184, 252
-0.997886, 69, 93, 84, 124
-0.997894, 425, 245, 440, 276
-0.997895, 131, 277, 146, 308
-0.997896, 241, 289, 368, 352
-0.997901, 261, 65, 292, 320
-0.997905, 181, 225, 196, 256
-0.997909, 321, 33, 448, 64
-0.997909, 465, 245, 480, 276
-0.997909, 75, 93, 90, 124
-0.997917, 103, 229, 118, 260
-0.997922, 25, 117, 40, 148
-0.997936, 389, 225, 420, 352
-0.998018, 277, 65, 308, 320
-0.998037, 261, 33, 292, 160
-0.998044, 353, 101, 480, 132
-0.998045, 97, 129, 224, 160
-0.998098, 357, 129, 388, 256
-0.998124, 249, 65, 280, 320
-0.998168, 369, 233, 496, 264
-0.99818, 257, 129, 500, 192
-0.998219, 33, 81, 160, 112
-0.998224, 1, 1, 500, 64
-0.998232, 1, 65, 32, 192
-0.998244, 273, 33, 304, 160
-0.998274, 257, 105, 500, 168
-0.998276, 249, 33, 280, 160
-0.998295, 409, 21, 472, 36
-0.998295, 425, 1, 440, 128
-0.998301, 177, 141, 304, 172
-0.998325, 369, 1, 496, 32
-0.998332, 189, 1, 220, 256
-0.998333, 103, 81, 118, 208
-0.998347, 193, 185, 320, 216
-0.998349, 433, 19, 496, 34
-0.998352, 73, 289, 136, 304
-0.998363, 353, 277, 480, 308
-0.998377, 65, 269, 128, 284
-0.998382, 433, 69, 496, 84
-0.998391, 377, 71, 440, 86
-0.998392, 185, 209, 200, 336
-0.998393, 153, 269, 216, 284
-0.998395, 137, 289, 200, 304
-0.998397, 265, 129, 328, 256
-0.998397, 57, 261, 120, 276
-0.998398, 113, 287, 176, 302
-0.998401, 417, 77, 480, 92
-0.998401, 113, 81, 128, 208
-0.998405, 73, 283, 136, 298
-0.998412, 33, 97, 96, 112
-0.998416, 161, 209, 224, 224
-0.99842, 145, 283, 208, 298
-0.998421, 415, 17, 430, 144
-0.998422, 97, 279, 160, 294
-0.998425, 169, 249, 232, 264
-0.998427, 409, 27, 472, 42
-0.99843, 65, 275, 128, 290
-0.998431, 137, 203, 200, 218
-0.998431, 193, 157, 320, 188
-0.998433, 161, 261, 224, 276
-0.998433, 49, 251, 112, 266
-0.998435, 169, 227, 232, 242
-0.998438, 33, 17, 160, 80
-0.998438, 369, 153, 496, 216
-0.998442, 329, 83, 392, 98
-0.998445, 175, 129, 190, 256
-0.998448, 409, 33, 472, 48
-0.998449, 113, 189, 176, 204
-0.998449, 153, 275, 216, 290
-0.99845, 145, 217, 208, 232
-0.998451, 417, 63, 480, 78
-0.998457, 161, 233, 224, 248
-0.998458, 57, 219, 120, 234
-0.998458, 81, 219, 144, 234
-0.998459, 97, 291, 128, 306
-0.99846, 89, 253, 152, 268
-0.998461, 373, 89, 404, 104
-0.998461, 105, 193, 136, 208
-0.998461, 145, 227, 208, 242
-0.998461, 463, 1, 478, 128
-0.998462, 433, 87, 464, 102
-0.998462, 89, 275, 120, 290
-0.998462, 119, 81, 134, 208
-0.998462, 49, 245, 112, 260
-0.998462, 401, 71, 464, 86
-0.998463, 121, 281, 184, 296
-0.998463, 433, 25, 496, 40
-0.998464, 409, 89, 440, 104
-0.998465, 125, 241, 156, 256
-0.998466, 405, 79, 436, 94
-0.998467, 61, 239, 92, 254
-0.998467, 145, 209, 176, 224
-0.998468, 109, 143, 140, 158
-0.998468, 129, 197, 192, 212
-0.998468, 297, 87, 360, 102
-0.998469, 393, 43, 424, 58
-0.99847, 161, 203, 224, 218
-0.998471, 85, 217, 116, 232
-0.998472, 407, 49, 422, 176
-0.998473, 91, 81, 106, 208
-0.998473, 173, 253, 204, 268
-0.998474, 129, 197, 160, 212
-0.998474, 433, 13, 496, 28
-0.998474, 153, 197, 216, 212
-0.998475, 81, 295, 144, 310
-0.998475, 141, 275, 172, 290
-0.998475, 113, 227, 176, 242
-0.998477, 129, 281, 160, 296
-0.998477, 201, 193, 216, 320
-0.998477, 81, 151, 112, 166
-0.998479, 81, 269, 112, 284
-0.998479, 105, 221, 168, 236
-0.998479, 145, 217, 176, 232
-0.998479, 69, 157, 100, 172
-0.99848, 129, 295, 192, 310
-0.99848, 353, 77, 416, 92
-0.998481, 57, 93, 120, 108
-0.998482, 165, 287, 196, 302
-0.998484, 113, 203, 176, 218
-0.998484, 113, 223, 144, 238
-0.998484, 145, 293, 176, 308
-0.998485, 169, 255, 232, 270
-0.998486, 49, 225, 112, 240
-0.998486, 433, 71, 464, 86
-0.998487, 61, 221, 92, 236
-0.998488, 49, 235, 112, 250
-0.998488, 173, 235, 204, 250
-0.998488, 409, 23, 440, 38
-0.998489, 137, 235, 168, 250
-0.998491, 453, 43, 484, 58
-0.998491, 81, 283, 112, 298
-0.998491, 129, 273, 192, 288
-0.998492, 77, 277, 108, 292
-0.998492, 461, 27, 492, 42
-0.998493, 113, 231, 144, 246
-0.998493, 137, 209, 200, 224
-0.998493, 169, 243, 232, 258
-0.998494, 113, 275, 144, 290
-0.998494, 461, 33, 492, 48
-0.998496, 169, 221, 232, 236
-0.998497, 417, 71, 448, 86
-0.998498, 401, 35, 432, 50
-0.998499, 129, 251, 192, 266
-0.9985, 365, 81, 396, 96
-0.998501, 125, 187, 156, 202
-0.998502, 377, 77, 440, 92
-0.998504, 73, 247, 136, 262
-0.998506, 417, 79, 448, 94
-0.998507, 409, 41, 472, 56
-0.998507, 97, 81, 112, 208
-0.998508, 377, 65, 440, 80
-0.998508, 61, 227, 92, 242
-0.998509, 377, 81, 408, 96
-0.998509, 369, 75, 400, 90
-0.99851, 89, 273, 152, 288
-0.998511, 69, 267, 100, 282
-0.998512, 441, 31, 472, 46
-0.998512, 113, 141, 176, 156
-0.998512, 153, 287, 184, 302
-0.998517, 417, 17, 448, 32
-0.998517, 125, 81, 140, 208
-0.998519, 369, 89, 432, 104
-0.99852, 409, 15, 472, 30
-0.99852, 61, 233, 92, 248
-0.99852, 409, 87, 472, 102
-0.998521, 129, 257, 160, 272
-0.998522, 137, 229, 168, 244
-0.998523, 409, 53, 472, 68
-0.998525, 113, 237, 144, 252
-0.998526, 73, 231, 136, 246
-0.998527, 249, 257, 312, 272
-0.998527, 169, 261, 200, 276
-0.998528, 121, 215, 184, 230
-0.998528, 309, 87, 340, 102
-0.998529, 61, 249, 92, 264
-0.998529, 49, 95, 80, 110
-0.998529, 201, 1, 232, 256
-0.998531, 97, 195, 160, 210
-0.998531, 125, 229, 156, 244
-0.998533, 137, 189, 168, 204
-0.998533, 153, 281, 184, 296
-0.998534, 105, 233, 168, 248
-0.998534, 169, 215, 232, 230
-0.998535, 189, 259, 220, 274
-0.998535, 181, 275, 212, 290
-0.998536, 399, 49, 414, 176
-0.998537, 201, 255, 264, 270
-0.998538, 389, 65, 420, 80
-0.99854, 81, 251, 112, 266
-0.99854, 57, 305, 120, 320
-0.998541, 33, 105, 96, 120
-0.998541, 193, 219, 224, 234
-0.998542, 137, 257, 200, 272
-0.998543, 169, 213, 200, 228
-0.998545, 173, 281, 204, 296
-0.998545, 77, 93, 108, 108
-0.998546, 409, 45, 440, 60
-0.998547, 65, 259, 96, 274
-0.998548, 385, 35, 448, 50
-0.998548, 133, 223, 164, 238
-0.998548, 105, 293, 168, 308
-0.998549, 133, 289, 164, 304
-0.99855, 453, 81, 484, 96
-0.998551, 65, 95, 96, 110
-0.998551, 191, 225, 206, 352
-0.998551, 185, 267, 216, 282
-0.998551, 325, 85, 356, 100
-0.998551, 169, 281, 232, 296
-0.998551, 109, 217, 140, 232
-0.998552, 93, 285, 124, 300
-0.998553, 189, 205, 220, 220
-0.998556, 137, 203, 168, 218
-0.998557, 77, 243, 108, 258
-0.998557, 1, 227, 32, 242
-0.998558, 81, 93, 144, 108
-0.998559, 81, 145, 144, 160
-0.998559, 461, 21, 492, 36
-0.998559, 193, 237, 224, 252
-0.99856, 65, 213, 128, 228
-0.998561, 413, 39, 444, 54
-0.998561, 13, 1, 44, 256
-0.998561, 177, 267, 240, 282
-0.998562, 193, 203, 256, 218
-0.998562, 85, 261, 116, 276
-0.998563, 81, 259, 144, 274
-0.998564, 193, 225, 224, 240
-0.998564, 361, 83, 424, 98
-0.998564, 79, 145, 94, 272
-0.998564, 457, 75, 488, 90
-0.998564, 145, 183, 208, 198
-0.998565, 441, 77, 472, 92
-0.998566, 185, 233, 248, 248
-0.998566, 445, 17, 476, 32
-0.998566, 173, 229, 204, 244
-0.998566, 65, 199, 128, 214
-0.998567, 345, 83, 376, 98
-0.998568, 461, 9, 492, 24
-0.998569, 433, 83, 496, 98
-0.99857, 81, 225, 144, 240
-0.99857, 153, 191, 216, 206
-0.99857, 201, 261, 264, 276
-0.998571, 81, 81, 96, 208
-0.998572, 469, 79, 500, 94
-0.998573, 257, 1, 384, 64
-0.998573, 173, 221, 204, 236
-0.998574, 393, 79, 424, 94
-0.998574, 201, 249, 264, 264
-0.998574, 193, 251, 224, 266
-0.998576, 401, 259, 464, 274
-0.998576, 273, 87, 336, 102
-0.998576, 385, 41, 448, 56
-0.998577, 377, 53, 440, 68
-0.998578, 145, 239, 208, 254
-0.998578, 57, 167, 120, 182
-0.998578, 105, 239, 168, 254
-0.998578, 189, 211, 220, 226
-0.998579, 9, 227, 72, 242
-0.998579, 337, 91, 400, 106
-0.998579, 381, 73, 412, 88
-0.998579, 169, 301, 232, 316
-0.998581, 433, 257, 496, 272
-0.998581, 193, 243, 224, 258
-0.998582, 129, 215, 160, 230
-0.998582, 97, 213, 160, 228
-0.998583, 409, 47, 472, 62
-0.998583, 105, 307, 168, 322
-0.998584, 161, 87, 224, 102
-0.998585, 201, 223, 264, 238
-0.998585, 49, 299, 112, 314
-0.998586, 225, 87, 288, 102
-0.998586, 89, 203, 152, 218
-0.998587, 41, 267, 104, 282
-0.998588, 329, 261, 392, 276
-0.998588, 57, 205, 120, 220
-0.998588, 405, 71, 436, 86
-0.998589, 73, 187, 136, 202
-0.99859, 113, 89, 176, 104
-0.998591, 73, 241, 136, 256
-0.998591, 161, 289, 224, 304
-0.998592, 161, 269, 192, 284
-0.998592, 433, 31, 496, 46
-0.998592, 89, 267, 152, 282
-0.998593, 161, 205, 192, 220
-0.998594, 91, 209, 106, 336
-0.998594, 117, 281, 148, 296
-0.998594, 429, 77, 460, 92
-0.998594, 241, 237, 368, 268
-0.998597, 177, 273, 240, 288
-0.998597, 113, 165, 176, 180
-0.998597, 169, 169, 232, 184
-0.998598, 193, 231, 224, 246
-0.998598, 137, 145, 200, 160
-0.998599, 465, 69, 496, 84
-0.998599, 81, 181, 144, 196
-0.998599, 157, 275, 188, 290
-0.998599, 65, 151, 128, 166
-0.998601, 97, 129, 112, 256
-0.998603, 125, 235, 156, 250
-0.998604, 131, 81, 146, 208
-0.998608, 405, 51, 436, 66
-0.998608, 401, 57, 432, 72
-0.998612, 469, 97, 500, 352
-0.998615, 457, 55, 488, 70
-0.998617, 37, 99, 68, 114
-0.99862, 141, 281, 172, 296
-0.998623, 429, 17, 460, 32
-0.998624, 445, 71, 476, 86
-0.998629, 417, 31, 448, 46
-0.998631, 91, 129, 106, 256
-0.998632, 61, 81, 76, 208
-0.998636, 109, 289, 140, 304
-0.998636, 353, 121, 480, 152
-0.998639, 101, 275, 132, 290
-0.998639, 137, 81, 152, 208
-0.998643, 431, 17, 446, 144
-0.998643, 471, 1, 486, 128
-0.998646, 401, 63, 432, 78
-0.998647, 145, 195, 176, 210
-0.998647, 121, 289, 152, 304
-0.998648, 173, 225, 188, 352
-0.99865, 75, 81, 90, 208
-0.998653, 425, 161, 488, 288
-0.998659, 81, 97, 208, 128
-0.998659, 69, 81, 84, 208
-0.99866, 393, 71, 424, 86
-0.998661, 105, 283, 136, 298
-0.998665, 441, 25, 472, 40
-0.998673, 421, 23, 452, 38
-0.998678, 321, 169, 448, 232
-0.998688, 187, 145, 202, 272
-0.998689, 457, 15, 488, 30
-0.998696, 457, 61, 488, 76
-0.998697, 163, 129, 178, 256
-0.9987, 193, 305, 320, 336
-0.998702, 67, 193, 82, 320
-0.998704, 65, 145, 80, 272
-0.998704, 147, 81, 162, 208
-0.998707, 441, 1, 456, 128
-0.998708, 71, 129, 86, 256
-0.998713, 389, 81, 404, 208
-0.998714, 51, 81, 66, 208
-0.998719, 83, 209, 98, 336
-0.998723, 225, 201, 480, 264
-0.998726, 241, 293, 368, 324
-0.998726, 157, 199, 188, 214
-0.998726, 477, 1, 492, 128
-0.998732, 103, 129, 118, 256
-0.998739, 93, 269, 124, 284
-0.998743, 209, 197, 336, 228
-0.998743, 195, 177, 210, 304
-0.998756, 39, 81, 54, 208
-0.998756, 105, 225, 120, 352
-0.998757, 179, 209, 194, 336
-0.998774, 177, 1, 208, 256
-0.99878, 81, 1, 208, 64
-0.998783, 29, 97, 44, 224
-0.998792, 85, 145, 100, 272
-0.998803, 45, 81, 60, 208
-0.998807, 99, 225, 114, 352
-0.998818, 423, 49, 438, 176
-0.998822, 181, 129, 196, 256
-0.998822, 1, 1, 32, 256
-0.998828, 161, 81, 176, 208
-0.998831, 17, 313, 144, 344
-0.998833, 113, 129, 128, 256
-0.998838, 153, 81, 168, 208
-0.99885, 193, 129, 208, 256
-0.998852, 289, 237, 416, 268
-0.998863, 167, 81, 182, 208
-0.998868, 201, 145, 216, 272
-0.998884, 169, 129, 184, 256
-0.998892, 447, 1, 462, 128
-0.998897, 435, 65, 450, 192
-0.998904, 455, 49, 470, 176
-0.998917, 57, 161, 72, 288
-0.99892, 321, 9, 448, 40
-0.998924, 443, 65, 458, 192
-0.998929, 167, 225, 182, 352
-0.99893, 113, 1, 240, 32
-0.998934, 117, 225, 132, 352
-0.998936, 173, 81, 188, 208
-0.998936, 475, 49, 490, 176
-0.998937, 167, 177, 182, 304
-0.998942, 119, 129, 134, 256
-0.998942, 381, 81, 396, 208
-0.998949, 417, 65, 432, 192
-0.998958, 153, 225, 168, 352
-0.998959, 485, 1, 500, 128
-0.998962, 449, 49, 464, 176
-0.998964, 375, 81, 390, 208
-0.998967, 15, 113, 30, 240
-0.998982, 151, 129, 166, 256
-0.998984, 429, 81, 444, 208
-0.998985, 457, 1, 472, 128
-0.998991, 129, 141, 256, 172
-0.998997, 173, 177, 188, 304
-0.999012, 367, 81, 382, 208
-0.999013, 147, 225, 162, 352
-0.999014, 469, 49, 484, 176
-0.999022, 125, 129, 140, 256
-0.99903, 349, 81, 364, 208
-0.999036, 445, 97, 476, 352
-0.999038, 73, 193, 88, 320
-0.999046, 357, 65, 372, 192
-0.999052, 21, 113, 36, 240
-0.999055, 161, 1, 416, 64
-0.999055, 215, 161, 230, 288
-0.999065, 181, 81, 196, 208
-0.999076, 161, 225, 176, 352
-0.999077, 111, 225, 126, 352
-0.999085, 157, 129, 172, 256
-0.999087, 135, 129, 150, 256
-0.9991, 141, 129, 156, 256
-0.999102, 101, 177, 116, 304
-0.999102, 207, 209, 222, 336
-0.999103, 207, 161, 222, 288
-0.999113, 343, 81, 358, 208
-0.999129, 461, 49, 476, 176
-0.999136, 481, 49, 496, 176
-0.999136, 393, 33, 408, 160
-0.999147, 225, 145, 352, 208
-0.999148, 61, 209, 76, 336
-0.99916, 123, 225, 138, 352
-0.999171, 457, 97, 488, 352
-0.999178, 327, 65, 342, 192
-0.999183, 1, 129, 16, 256
-0.999184, 409, 1, 424, 128
-0.999185, 187, 65, 202, 192
-0.999185, 403, 1, 418, 128
-0.999203, 141, 225, 156, 352
-0.999222, 321, 65, 336, 192
-0.99923, 337, 81, 352, 208
-0.999244, 47, 129, 62, 256
-0.999253, 403, 97, 418, 224
-0.999254, 113, 109, 240, 140
-0.999257, 177, 17, 304, 80
-0.999266, 109, 177, 124, 304
-0.999276, 197, 65, 212, 192
-0.999279, 267, 225, 282, 352
-0.999291, 409, 97, 424, 224
-0.999299, 383, 33, 398, 160
-0.999308, 321, 289, 448, 320
-0.999314, 9, 113, 24, 240
-0.999316, 155, 177, 170, 304
-0.999317, 397, 97, 412, 224
-0.999322, 273, 225, 288, 352
-0.999334, 113, 317, 240, 348
-0.999336, 305, 109, 432, 140
-0.999338, 423, 97, 438, 224
-0.999344, 81, 41, 208, 72
-0.999345, 133, 225, 148, 352
-0.999348, 279, 225, 294, 352
-0.999352, 315, 65, 330, 192
-0.999362, 41, 129, 56, 256
-0.999364, 115, 177, 130, 304
-0.999369, 225, 117, 352, 148
-0.999378, 377, 33, 392, 160
-0.999379, 207, 65, 222, 192
-0.99939, 225, 177, 480, 240
-0.999397, 305, 121, 432, 152
-0.999399, 225, 173, 352, 204
-0.999422, 241, 317, 368, 348
-0.999465, 273, 49, 400, 80
-0.999505, 113, 53, 240, 84
-0.999513, 1, 41, 256, 104
-0.999532, 209, 209, 336, 240
-0.999534, 193, 1, 320, 32
-0.999544, 193, 317, 320, 348
-0.999559, 257, 105, 384, 136
-0.999563, 369, 161, 432, 288
-0.999575, 129, 97, 256, 128
-0.999604, 305, 301, 432, 332
-0.999655, 337, 317, 464, 348
-0.999666, 129, 221, 144, 236
-0.999666, 143, 235, 158, 250
-0.999669, 85, 93, 100, 108
-0.99967, 151, 187, 166, 202
-0.999672, 11, 233, 26, 248
-0.999672, 389, 65, 404, 80
-0.999672, 129, 281, 144, 296
-0.999674, 147, 195, 162, 210
-0.999674, 479, 81, 494, 96
-0.999674, 463, 11, 478, 26
-0.999674, 447, 71, 462, 86
-0.999677, 61, 95, 76, 110
-0.999678, 417, 49, 432, 64
-0.999679, 445, 19, 460, 34
-0.999679, 405, 57, 420, 72
-0.999679, 393, 79, 408, 94
-0.99968, 409, 31, 424, 46
-0.99968, 93, 245, 108, 260
-0.999681, 335, 85, 350, 100
-0.999681, 65, 1, 320, 64
-0.999681, 55, 97, 70, 112
-0.999681, 95, 255, 110, 270
-0.999683, 411, 61, 426, 76
-0.999684, 145, 189, 160, 204
-0.999684, 463, 19, 478, 34
-0.999685, 423, 79, 438, 94
-0.999685, 119, 223, 134, 238
-0.999685, 181, 261, 196, 276
-0.999686, 465, 37, 480, 52
-0.999686, 135, 283, 150, 298
-0.999687, 79, 93, 94, 108
-0.999687, 95, 279, 110, 294
-0.999687, 83, 249, 98, 264
-0.999687, 163, 285, 178, 300
-0.999688, 65, 117, 192, 148
-0.999688, 481, 9, 496, 24
-0.999689, 145, 203, 160, 218
-0.999689, 433, 77, 448, 92
-0.999689, 459, 63, 474, 78
-0.99969, 441, 77, 456, 92
-0.99969, 417, 23, 432, 38
-0.99969, 153, 289, 168, 304
-0.99969, 125, 239, 140, 254
-0.99969, 171, 275, 186, 290
-0.999694, 467, 81, 482, 96
-0.999694, 447, 77, 462, 92
-0.999696, 369, 289, 496, 320
-0.999696, 131, 227, 146, 242
-0.999696, 369, 133, 496, 164
-0.999697, 473, 75, 488, 90
-0.999697, 177, 279, 192, 294
-0.999697, 175, 259, 190, 274
-0.999698, 421, 71, 436, 86
-0.999701, 133, 289, 148, 304
-0.999704, 473, 9, 488, 24
-0.999704, 127, 253, 142, 268
-0.999704, 385, 81, 400, 96
-0.999705, 433, 33, 448, 48
-0.999706, 467, 71, 482, 86
-0.999707, 73, 95, 88, 110
-0.999708, 147, 219, 162, 234
-0.999708, 157, 209, 172, 224
-0.99971, 161, 273, 176, 288
-0.999711, 93, 261, 108, 276
-0.999711, 125, 233, 140, 248
-0.999711, 473, 81, 488, 96
-0.999712, 459, 71, 474, 86
-0.999713, 419, 63, 434, 78
-0.999713, 465, 43, 480, 58
-0.999713, 153, 277, 168, 292
-0.999715, 67, 95, 82, 110
-0.999715, 97, 21, 224, 52
-0.999718, 107, 279, 122, 294
-0.999718, 157, 201, 172, 216
-0.999718, 453, 71, 468, 86
-0.999719, 151, 203, 166, 218
-0.99972, 143, 291, 158, 306
-0.999723, 475, 69, 490, 84
-0.999723, 397, 71, 412, 86
-0.999725, 161, 191, 176, 206
-0.999726, 395, 63, 410, 78
-0.999726, 169, 267, 184, 282
-0.999726, 177, 269, 192, 284
-0.999727, 457, 15, 472, 30
-0.999728, 385, 73, 400, 88
-0.999731, 415, 71, 430, 86
-0.999731, 41, 99, 56, 114
-0.999731, 149, 229, 164, 244
-0.999733, 479, 75, 494, 90
-0.999733, 433, 17, 448, 32
-0.999736, 121, 281, 136, 296
-0.999738, 411, 53, 426, 68
-0.999738, 273, 173, 400, 204
-0.99974, 87, 261, 102, 276
-0.99974, 485, 75, 500, 90
-0.999741, 169, 201, 184, 216
-0.999742, 461, 57, 476, 72
-0.999744, 143, 229, 158, 244
-0.999745, 185, 221, 200, 236
-0.999745, 101, 281, 116, 296
-0.999749, 181, 215, 196, 230
-0.999749, 157, 283, 172, 298
-0.99975, 421, 35, 436, 50
-0.999751, 175, 209, 190, 224
-0.999754, 153, 193, 168, 208
-0.999756, 7, 227, 22, 242
-0.999757, 451, 19, 466, 34
-0.999757, 405, 65, 420, 80
-0.999759, 209, 225, 336, 256
-0.99976, 125, 227, 140, 242
-0.999764, 135, 233, 150, 248
-0.999768, 95, 273, 110, 288
-0.99977, 473, 15, 488, 30
-0.999771, 427, 31, 442, 46
-0.999773, 415, 29, 430, 44
-0.999773, 469, 59, 484, 74
-0.999774, 411, 47, 426, 62
-0.999774, 163, 279, 178, 294
-0.999776, 121, 217, 136, 232
-0.999776, 415, 39, 430, 54
-0.999777, 107, 271, 122, 286
-0.999782, 391, 73, 406, 88
-0.999782, 123, 289, 138, 304
-0.999784, 433, 27, 448, 42
-0.999789, 369, 301, 496, 332
-0.999789, 421, 29, 436, 44
-0.99979, 1, 225, 16, 240
-0.999791, 305, 193, 432, 256
-0.999793, 163, 197, 178, 212
-0.999795, 115, 277, 130, 292
-0.999799, 427, 17, 442, 32
-0.999802, 101, 265, 116, 280
-0.999804, 161, 53, 288, 84
-0.999804, 145, 37, 272, 68
-0.999805, 101, 275, 116, 290
-0.999808, 423, 23, 438, 38
-0.999813, 469, 65, 484, 80
-0.999814, 465, 49, 480, 64
-0.999817, 209, 105, 336, 136
-0.999817, 117, 287, 132, 302
-0.999826, 93, 267, 108, 282
-0.999828, 107, 285, 122, 300
-0.99984, 321, 133, 448, 164
-0.999843, 241, 1, 368, 32
-0.999857, 225, 153, 480, 216
-0.999881, 241, 305, 368, 336
-0.999881, 33, 37, 160, 68
-0.999931, 257, 33, 384, 96
-1.00064, 257, 193, 384, 256
-1.00129, 97, 33, 352, 96
