1959
-0.435122, 1, 129, 500, 374
-0.456889, 1, 1, 500, 374
-0.486148, 1, 33, 500, 288
-0.545759, 65, 1, 320, 374
-0.597241, 65, 129, 320, 374
-0.656794, 161, 1, 416, 374
-0.728019, 65, 33, 320, 288
-0.745682, 161, 1, 416, 256
-0.772568, 161, 97, 416, 352
-0.783509, 257, 1, 500, 374
-0.852087, 65, 129, 192, 374
-0.87473, 129, 97, 256, 352
-0.883945, 1, 145, 500, 272
-0.884333, 33, 1, 160, 374
-0.885841, 65, 33, 192, 288
-0.889494, 257, 33, 500, 288
-0.890932, 17, 65, 144, 320
-0.894571, 177, 1, 304, 374
-0.899591, 161, 1, 288, 256
-0.902701, 177, 129, 304, 374
-0.905154, 129, 1, 256, 374
-0.908251, 81, 1, 208, 374
-0.91179, 241, 1, 368, 374
-0.913343, 1, 97, 500, 224
-0.915244, 257, 129, 500, 374
-0.921723, 1, 241, 500, 368
-0.922094, 65, 129, 320, 256
-0.924093, 1, 193, 500, 320
-0.927174, 1, 33, 500, 160
-0.928333, 81, 145, 144, 272
-0.928753, 241, 33, 368, 288
-0.929284, 1, 177, 256, 304
-0.930173, 33, 65, 288, 192
-0.931865, 113, 129, 240, 256
-0.93269, 105, 129, 168, 256
-0.935794, 65, 129, 192, 256
-0.936369, 49, 209, 176, 336
-0.937491, 273, 129, 400, 374
-0.937601, 193, 241, 448, 368
-0.938662, 305, 1, 432, 374
-0.939088, 321, 129, 448, 374
-0.940635, 65, 97, 128, 224
-0.940708, 345, 241, 408, 368
-0.94072, 81, 81, 208, 208
-0.941236, 225, 129, 352, 374
-0.942588, 89, 81, 152, 208
-0.943572, 49, 145, 112, 272
-0.943755, 113, 1, 240, 256
-0.945543, 289, 241, 416, 368
-0.946537, 81, 193, 144, 320
-0.948726, 161, 97, 416, 224
-0.948883, 81, 161, 144, 224
-0.948905, 17, 161, 144, 288
-0.948955, 353, 1, 480, 374
-0.949085, 105, 177, 168, 304
-0.949131, 129, 129, 192, 256
-0.949641, 97, 177, 224, 304
-0.949737, 65, 17, 320, 144
-0.950175, 345, 273, 408, 336
-0.950293, 153, 113, 216, 240
-0.951618, 105, 153, 168, 216
-0.952402, 49, 193, 112, 320
-0.95309, 161, 113, 288, 240
-0.953151, 33, 241, 288, 368
-0.953667, 321, 33, 448, 288
-0.953923, 129, 81, 192, 208
-0.953969, 17, 113, 144, 240
-0.955321, 369, 129, 496, 374
-0.955344, 129, 225, 256, 352
-0.956126, 81, 185, 144, 248
-0.957269, 65, 233, 128, 296
-0.957291, 105, 209, 168, 272
-0.957926, 97, 177, 352, 304
-0.957974, 121, 185, 184, 248
-0.958419, 161, 65, 288, 192
-0.959129, 129, 297, 192, 360
-0.959163, 145, 145, 208, 208
-0.959393, 305, 241, 368, 368
-0.959586, 321, 305, 384, 368
-0.960109, 25, 177, 88, 304
-0.960231, 161, 1, 416, 128
-0.960424, 153, 113, 216, 176
-0.960981, 1, 65, 128, 192
-0.961243, 97, 129, 160, 192
-0.961322, 161, 49, 416, 176
-0.961655, 361, 313, 424, 374
-0.962255, 1, 241, 128, 368
-0.96253, 305, 281, 368, 344
-0.962578, 177, 241, 304, 368
-0.962669, 105, 313, 168, 374
-0.962906, 57, 153, 120, 216
-0.963024, 121, 129, 184, 192
-0.963068, 105, 97, 168, 352
-0.963112, 81, 209, 144, 272
-0.963112, 385, 297, 448, 360
-0.96327, 225, 145, 288, 272
-0.963572, 41, 241, 104, 304
-0.964392, 65, 49, 128, 176
-0.964721, 57, 185, 120, 248
-0.965094, 129, 177, 192, 304
-0.965121, 153, 297, 216, 360
-0.965171, 129, 73, 192, 136
-0.965481, 193, 145, 448, 272
-0.965543, 177, 161, 304, 288
-0.965707, 193, 193, 448, 320
-0.965794, 177, 113, 240, 240
-0.965804, 105, 105, 168, 168
-0.965915, 65, 129, 128, 192
-0.966682, 169, 137, 232, 200
-0.966944, 153, 161, 216, 288
-0.967237, 369, 273, 432, 336
-0.967665, 377, 241, 440, 368
-0.967693, 177, 305, 240, 368
-0.967751, 41, 81, 104, 208
-0.96815, 65, 241, 128, 368
-0.96849, 41, 217, 104, 280
-0.968673, 81, 153, 208, 216
-0.968821, 281, 305, 344, 368
-0.969025, 129, 105, 192, 168
-0.969271, 337, 209, 464, 336
-0.969273, 369, 33, 496, 288
-0.969275, 17, 81, 80, 208
-0.969857, 145, 17, 272, 144
-0.969876, 193, 241, 256, 368
-0.970157, 289, 297, 416, 360
-0.970256, 97, 121, 224, 184
-0.9706, 201, 65, 264, 192
-0.970791, 129, 153, 256, 216
-0.970816, 65, 97, 128, 160
-0.971109, 9, 233, 72, 296
-0.971274, 241, 241, 368, 368
-0.97149, 257, 81, 500, 208
-0.971567, 225, 153, 288, 216
-0.971651, 105, 145, 136, 208
-0.971869, 153, 65, 216, 192
-0.97194, 145, 65, 208, 320
-0.97211, 105, 81, 168, 144
-0.97243, 133, 129, 164, 256
-0.972778, 337, 249, 400, 312
-0.972794, 149, 145, 180, 208
-0.973044, 49, 217, 176, 280
-0.973124, 85, 145, 116, 272
-0.973209, 145, 169, 208, 232
-0.973303, 25, 225, 88, 352
-0.973306, 113, 145, 144, 272
-0.973555, 193, 161, 256, 288
-0.97364, 305, 273, 432, 336
-0.973807, 161, 209, 224, 336
-0.973832, 129, 313, 256, 374
-0.973889, 225, 1, 352, 128
-0.974002, 257, 305, 320, 368
-0.974009, 101, 145, 132, 272
-0.97412, 337, 193, 400, 320
-0.974342, 49, 177, 176, 240
-0.974413, 217, 313, 280, 374
-0.974431, 133, 137, 164, 200
-0.97473, 81, 65, 144, 128
-0.975144, 113, 225, 176, 352
-0.975215, 1, 97, 64, 160
-0.975666, 153, 121, 184, 184
-0.975855, 281, 241, 344, 368
-0.975879, 97, 193, 224, 256
-0.976095, 161, 89, 224, 152
-0.976257, 149, 297, 180, 360
-0.976361, 81, 65, 144, 320
-0.976439, 97, 169, 128, 232
-0.976507, 41, 129, 104, 192
-0.97658, 377, 289, 408, 352
-0.976587, 17, 129, 144, 192
-0.976628, 117, 145, 148, 208
-0.976781, 97, 89, 224, 152
-0.976913, 81, 193, 112, 320
-0.976935, 17, 257, 80, 320
-0.97699, 41, 129, 104, 374
-0.977149, 109, 193, 140, 256
-0.977181, 349, 305, 380, 368
-0.977521, 65, 33, 192, 160
-0.977581, 145, 121, 272, 184
-0.977595, 113, 169, 144, 232
-0.9776, 177, 105, 208, 168
-0.977629, 173, 97, 204, 224
-0.977808, 185, 1, 248, 128
-0.977954, 125, 169, 156, 232
-0.978065, 241, 81, 368, 208
-0.978069, 89, 241, 152, 368
-0.978078, 153, 145, 184, 272
-0.97816, 225, 97, 288, 224
-0.97817, 69, 217, 100, 280
-0.978197, 97, 97, 128, 224
-0.978213, 93, 137, 124, 200
-0.97841, 165, 145, 196, 208
-0.978504, 193, 121, 256, 184
-0.978513, 397, 281, 428, 344
-0.978528, 133, 313, 164, 374
-0.97858, 337, 305, 464, 368
-0.978583, 209, 313, 336, 374
-0.978597, 81, 209, 112, 272
-0.978699, 17, 129, 80, 256
-0.978736, 325, 273, 356, 336
-0.978757, 1, 193, 64, 320
-0.978779, 157, 73, 188, 136
-0.978937, 53, 177, 84, 304
-0.979017, 49, 89, 176, 152
-0.979135, 369, 241, 400, 368
-0.979162, 25, 193, 88, 256
-0.979189, 209, 1, 272, 128
-0.979202, 97, 201, 128, 264
-0.979253, 137, 161, 168, 224
-0.979312, 69, 145, 100, 272
-0.979355, 69, 161, 100, 224
-0.979395, 257, 177, 384, 304
-0.979407, 217, 289, 280, 352
-0.979413, 69, 193, 100, 320
-0.979414, 1, 185, 128, 248
-0.979462, 313, 257, 376, 320
-0.979515, 145, 81, 176, 208
-0.979667, 41, 73, 104, 136
-0.979676, 257, 129, 384, 256
-0.979759, 149, 185, 180, 248
-0.979782, 373, 313, 404, 374
-0.979851, 357, 241, 388, 368
-0.979992, 201, 153, 264, 216
-0.98008, 53, 225, 84, 288
-0.980098, 345, 241, 376, 368
-0.980241, 65, 305, 192, 368
-0.980267, 193, 281, 256, 344
-0.980267, 1, 241, 128, 304
-0.980414, 153, 273, 216, 336
-0.980505, 85, 169, 116, 232
-0.980571, 121, 201, 152, 264
-0.981022, 1, 105, 128, 168
-0.9812, 97, 193, 128, 320
-0.981263, 9, 129, 72, 192
-0.981279, 105, 289, 168, 352
-0.981292, 169, 97, 232, 352
-0.981327, 301, 313, 332, 374
-0.981493, 165, 145, 196, 272
-0.981507, 361, 305, 392, 368
-0.981518, 137, 193, 168, 256
-0.98158, 109, 193, 140, 320
-0.981603, 345, 257, 376, 320
-0.981794, 177, 161, 240, 224
-0.981904, 257, 33, 500, 160
-0.981909, 365, 265, 396, 328
-0.982029, 125, 177, 156, 304
-0.982131, 81, 129, 112, 192
-0.982188, 41, 233, 72, 296
-0.982191, 97, 225, 224, 288
-0.98242, 161, 313, 192, 374
-0.982528, 209, 33, 272, 288
-0.98253, 217, 177, 280, 240
-0.98257, 377, 265, 408, 328
-0.982632, 33, 65, 160, 128
-0.982761, 161, 289, 192, 352
-0.982926, 69, 97, 100, 224
-0.983026, 385, 241, 416, 368
-0.983061, 105, 17, 168, 144
-0.983087, 145, 217, 208, 280
-0.983091, 1, 33, 64, 160
-0.983128, 105, 121, 136, 184
-0.983137, 1, 17, 128, 144
-0.983178, 169, 81, 200, 144
-0.983309, 41, 105, 104, 168
-0.983378, 361, 193, 424, 320
-0.983389, 133, 81, 164, 208
-0.983413, 129, 281, 256, 344
-0.983524, 369, 241, 432, 304
-0.983553, 1, 161, 128, 224
-0.983822, 145, 89, 176, 152
-0.983872, 257, 273, 384, 336
-0.983966, 1, 209, 128, 272
-0.983966, 25, 33, 88, 160
-0.984069, 81, 313, 144, 374
-0.984125, 177, 145, 304, 208
-0.984199, 165, 121, 196, 184
-0.984205, 217, 129, 280, 192
-0.984265, 353, 281, 480, 344
-0.984297, 117, 81, 148, 208
-0.984311, 313, 289, 344, 352
-0.984316, 117, 313, 148, 374
-0.984401, 145, 97, 272, 160
-0.984419, 185, 225, 248, 288
-0.984523, 333, 241, 364, 368
-0.984635, 289, 305, 320, 368
-0.984636, 217, 241, 280, 368
-0.984654, 257, 225, 320, 352
-0.98469, 209, 289, 336, 352
-0.984762, 145, 193, 208, 256
-0.984785, 1, 65, 64, 320
-0.98481, 145, 177, 272, 240
-0.984935, 65, 241, 96, 304
-0.985005, 185, 257, 248, 320
-0.985009, 81, 97, 112, 224
-0.985076, 173, 305, 204, 368
-0.985132, 201, 241, 232, 304
-0.985186, 401, 225, 464, 352
-0.985277, 389, 313, 420, 374
-0.985705, 57, 281, 120, 344
-0.985723, 81, 233, 112, 296
-0.985755, 185, 113, 216, 240
-0.985784, 321, 241, 352, 368
-0.985843, 89, 1, 152, 374
-0.985884, 353, 281, 384, 344
-0.985914, 177, 145, 208, 208
-0.985937, 69, 193, 100, 256
-0.985965, 201, 1, 264, 64
-0.986259, 93, 97, 124, 160
-0.986268, 225, 153, 256, 216
-0.986328, 93, 225, 124, 288
-0.986333, 241, 129, 304, 192
-0.986341, 129, 33, 192, 160
-0.986389, 49, 241, 176, 304
-0.986394, 233, 129, 296, 374
-0.986405, 105, 57, 168, 120
-0.986451, 113, 97, 144, 160
-0.986508, 69, 137, 100, 200
-0.986542, 137, 289, 168, 352
-0.986548, 189, 137, 220, 200
-0.98656, 385, 177, 448, 304
-0.986587, 321, 161, 448, 288
-0.986612, 161, 257, 288, 320
-0.986678, 201, 241, 232, 368
-0.986688, 337, 305, 368, 368
-0.986791, 157, 65, 188, 192
-0.986811, 237, 153, 268, 216
-0.986891, 193, 129, 256, 374
-0.98697, 57, 177, 88, 240
-0.986997, 193, 185, 256, 248
-0.987046, 141, 177, 172, 304
-0.987078, 49, 225, 80, 352
-0.98708, 1, 209, 64, 272
-0.987119, 221, 313, 252, 374
-0.987226, 217, 265, 280, 328
-0.987258, 249, 97, 312, 224
-0.987266, 365, 241, 396, 304
-0.987271, 109, 217, 140, 280
-0.987288, 305, 1, 432, 128
-0.987336, 97, 249, 224, 312
-0.987361, 281, 281, 344, 344
-0.987437, 289, 249, 416, 312
-0.987437, 93, 49, 124, 176
-0.98744, 201, 1, 264, 374
-0.987446, 201, 41, 264, 104
-0.987463, 129, 273, 192, 336
-0.987469, 129, 65, 256, 128
-0.98747, 225, 1, 256, 128
-0.987486, 57, 1, 120, 374
-0.987503, 121, 1, 184, 256
-0.987512, 1, 73, 64, 136
-0.987563, 249, 161, 312, 288
-0.987621, 177, 281, 208, 344
-0.987631, 177, 49, 240, 176
-0.987645, 233, 305, 264, 368
-0.987658, 213, 265, 244, 328
-0.987766, 41, 177, 72, 304
-0.987845, 53, 249, 84, 312
-0.98785, 233, 129, 264, 256
-0.987963, 221, 9, 252, 72
-0.987984, 133, 73, 164, 136
-0.987988, 57, 33, 120, 288
-0.988155, 69, 49, 100, 176
-0.988178, 185, 73, 248, 136
-0.988182, 1, 129, 32, 192
-0.988216, 101, 65, 132, 128
-0.988289, 193, 169, 320, 232
-0.988298, 137, 225, 200, 352
-0.988377, 193, 217, 320, 280
-0.988402, 345, 273, 408, 304
-0.988549, 209, 249, 336, 312
-0.988551, 177, 1, 240, 256
-0.988685, 241, 1, 304, 128
-0.988702, 345, 289, 408, 320
-0.988707, 33, 169, 96, 232
-0.988729, 313, 313, 344, 374
-0.98879, 225, 17, 352, 80
-0.988858, 33, 201, 64, 264
-0.988867, 129, 1, 192, 374
-0.988899, 45, 193, 76, 256
-0.988909, 49, 281, 176, 344
-0.988912, 65, 157, 128, 188
-0.988956, 193, 113, 320, 176
-0.989007, 145, 149, 208, 180
-0.989009, 69, 113, 100, 176
-0.989052, 301, 289, 332, 352
-0.989081, 265, 313, 296, 374
-0.989181, 1, 65, 32, 192
-0.989205, 129, 305, 192, 336
-0.989211, 321, 269, 384, 300
-0.989294, 73, 241, 104, 368
-0.98932, 233, 49, 296, 176
-0.989326, 133, 105, 164, 168
-0.989375, 33, 33, 96, 288
-0.989404, 369, 257, 496, 320
-0.989414, 1, 153, 64, 216
-0.989423, 97, 193, 160, 224
-0.98945, 65, 177, 128, 208
-0.989471, 105, 313, 136, 374
-0.989482, 321, 65, 448, 192
-0.989513, 177, 305, 240, 336
-0.989537, 29, 225, 60, 288
-0.989539, 329, 329, 392, 360
-0.989541, 105, 141, 168, 172
-0.989562, 89, 169, 152, 200
-0.989625, 129, 137, 192, 168
-0.989627, 113, 321, 176, 352
-0.989659, 241, 137, 368, 200
-0.989674, 89, 233, 152, 296
-0.989675, 225, 41, 352, 104
-0.989708, 73, 213, 136, 244
-0.989745, 161, 137, 224, 168
-0.989774, 165, 169, 196, 232
-0.989837, 345, 309, 408, 340
-0.989847, 113, 161, 176, 192
-0.989856, 369, 293, 432, 324
-0.989889, 305, 193, 368, 320
-0.989908, 33, 153, 288, 216
-0.989914, 105, 213, 168, 244
-0.98992, 225, 341, 288, 372
-0.989939, 81, 49, 112, 176
-0.989985, 305, 285, 368, 316
-0.990014, 1, 1, 64, 374
-0.990019, 145, 225, 272, 288
-0.990044, 153, 117, 216, 148
-0.990047, 257, 281, 320, 344
-0.990054, 193, 97, 256, 160
-0.990058, 153, 321, 216, 352
-0.990061, 89, 157, 152, 188
-0.990089, 225, 1, 288, 64
-0.990094, 369, 161, 496, 288
-0.99012, 81, 65, 208, 128
-0.990122, 313, 233, 376, 296
-0.990146, 353, 233, 480, 296
-0.990154, 129, 197, 192, 228
-0.990154, 41, 249, 104, 280
-0.990162, 129, 337, 192, 368
-0.990174, 113, 73, 144, 136
-0.99019, 29, 89, 60, 152
-0.990238, 145, 41, 272, 104
-0.990247, 81, 229, 144, 260
-0.990269, 201, 113, 264, 240
-0.990284, 129, 93, 192, 124
-0.990291, 297, 337, 360, 368
-0.990293, 113, 181, 176, 212
-0.990311, 397, 241, 428, 368
-0.990366, 281, 325, 344, 356
-0.990377, 177, 65, 304, 128
-0.990382, 49, 65, 80, 192
-0.990393, 409, 305, 440, 368
-0.990399, 153, 293, 216, 324
-0.990407, 57, 201, 88, 264
-0.99041, 17, 313, 144, 374
-0.99044, 105, 109, 168, 140
-0.990445, 209, 65, 272, 128
-0.990478, 201, 265, 232, 328
-0.990553, 305, 301, 368, 332
-0.990556, 65, 129, 320, 192
-0.990558, 345, 193, 376, 320
-0.990568, 73, 197, 136, 228
-0.990639, 57, 237, 120, 268
-0.990683, 369, 273, 432, 304
-0.990708, 33, 237, 96, 268
-0.990727, 257, 345, 320, 374
-0.990733, 229, 33, 260, 96
-0.990738, 145, 1, 272, 64
-0.990746, 49, 221, 112, 252
-0.99076, 153, 309, 216, 340
-0.990792, 377, 313, 440, 344
-0.990795, 153, 1, 216, 374
-0.990802, 241, 161, 368, 224
-0.99081, 97, 297, 352, 360
-0.990826, 345, 261, 408, 292
-0.990842, 193, 293, 256, 324
-0.990845, 189, 297, 220, 360
-0.990894, 321, 345, 384, 374
-0.990899, 249, 137, 280, 200
-0.99095, 181, 225, 212, 352
-0.990963, 1, 233, 256, 296
-0.990967, 249, 153, 312, 216
-0.990976, 65, 105, 128, 136
-0.991002, 33, 197, 96, 228
-0.991016, 217, 309, 280, 340
-0.991039, 57, 137, 120, 168
-0.991074, 33, 1, 96, 374
-0.99113, 97, 89, 160, 120
-0.991135, 177, 149, 240, 180
-0.991136, 129, 125, 192, 156
-0.991148, 309, 241, 340, 368
-0.991153, 81, 129, 144, 160
-0.991161, 89, 325, 152, 356
-0.991166, 25, 193, 56, 320
-0.99117, 129, 81, 192, 112
-0.991193, 9, 249, 72, 280
-0.991213, 321, 73, 448, 136
-0.991213, 225, 1, 288, 374
-0.991215, 209, 157, 272, 188
-0.991231, 213, 1, 244, 128
-0.991243, 85, 241, 116, 368
-0.991244, 125, 241, 156, 368
-0.991286, 49, 89, 80, 152
-0.99129, 1, 113, 64, 144
-0.991313, 53, 113, 84, 240
-0.991317, 241, 73, 368, 136
-0.991325, 305, 313, 368, 344
-0.991328, 153, 105, 216, 136
-0.991343, 353, 329, 416, 360
-0.991347, 153, 281, 216, 312
-0.99137, 233, 33, 296, 288
-0.99142, 49, 209, 112, 240
-0.99143, 25, 117, 88, 148
-0.991434, 41, 257, 72, 320
-0.991443, 385, 325, 448, 356
-0.991456, 281, 241, 344, 304
-0.991493, 241, 49, 272, 176
-0.991516, 81, 145, 144, 176
-0.991525, 321, 113, 448, 240
-0.991578, 17, 209, 48, 272
-0.991597, 257, 313, 320, 344
-0.991611, 241, 329, 304, 360
-0.991636, 189, 265, 220, 328
-0.991638, 73, 93, 136, 124
-0.991669, 337, 281, 368, 344
-0.991674, 153, 225, 216, 256
-0.991675, 201, 345, 264, 374
-0.991677, 1, 193, 256, 256
-0.99168, 9, 209, 72, 240
-0.991715, 201, 129, 232, 256
-0.991795, 105, 121, 168, 152
-0.991807, 81, 337, 144, 368
-0.991809, 193, 305, 448, 368
-0.991832, 393, 265, 456, 328
-0.991846, 193, 281, 448, 344
-0.991855, 193, 137, 256, 168
-0.991866, 225, 33, 288, 96
-0.991866, 209, 241, 272, 304
-0.991875, 257, 113, 288, 240
-0.991885, 361, 341, 424, 372
-0.9919, 1, 49, 64, 112
-0.991908, 105, 305, 168, 336
-0.991927, 65, 117, 128, 148
-0.991937, 185, 241, 248, 272
-0.991951, 233, 177, 296, 208
-0.991951, 297, 33, 360, 160
-0.991987, 1, 101, 64, 132
-0.991996, 25, 225, 88, 256
-0.992004, 213, 161, 244, 288
-0.992015, 137, 161, 200, 192
-0.992033, 217, 297, 280, 328
-0.992049, 89, 181, 152, 212
-0.992052, 73, 69, 136, 100
-0.992068, 61, 241, 92, 368
-0.992071, 129, 293, 192, 324
-0.992076, 201, 137, 232, 200
-0.99212, 9, 237, 72, 268
-0.992122, 145, 173, 208, 204
-0.992126, 81, 241, 144, 272
-0.992132, 17, 261, 80, 292
-0.992136, 221, 241, 252, 304
-0.992148, 41, 185, 104, 216
-0.992158, 145, 185, 208, 216
-0.99216, 185, 161, 248, 192
-0.992163, 177, 261, 240, 292
-0.992167, 317, 249, 348, 312
-0.992191, 389, 257, 420, 320
-0.992212, 261, 145, 292, 208
-0.992217, 177, 273, 240, 304
-0.992225, 5, 105, 36, 168
-0.992225, 169, 49, 200, 176
-0.992248, 297, 269, 360, 300
-0.992255, 129, 105, 192, 136
-0.992272, 193, 125, 256, 156
-0.992282, 105, 345, 168, 374
-0.992329, 181, 305, 212, 336
-0.992339, 377, 313, 408, 344
-0.992343, 1, 77, 64, 108
-0.992343, 213, 161, 244, 224
-0.992346, 361, 309, 392, 340
-0.992348, 169, 313, 200, 344
-0.992349, 209, 181, 272, 212
-0.992368, 281, 313, 344, 344
-0.992372, 41, 165, 104, 196
-0.992372, 389, 193, 420, 320
-0.992377, 153, 93, 216, 124
-0.992378, 25, 105, 88, 136
-0.992379, 1, 129, 64, 160
-0.992379, 145, 225, 176, 352
-0.992381, 105, 77, 168, 108
-0.992389, 45, 245, 76, 276
-0.992393, 241, 145, 304, 176
-0.992395, 133, 137, 164, 168
-0.992408, 281, 293, 344, 324
-0.99241, 157, 133, 188, 164
-0.99244, 345, 269, 376, 300
-0.992444, 133, 345, 164, 374
-0.992448, 97, 149, 128, 180
-0.992448, 1, 129, 32, 256
-0.992452, 93, 197, 124, 228
-0.992455, 245, 129, 276, 256
-0.992474, 153, 325, 184, 356
-0.992482, 305, 325, 368, 356
-0.992489, 105, 225, 168, 256
-0.992492, 177, 317, 240, 348
-0.992495, 81, 65, 112, 128
-0.992511, 225, 345, 256, 374
-0.992516, 141, 333, 172, 364
-0.992518, 1, 157, 64, 188
-0.992518, 93, 217, 124, 248
-0.99252, 201, 253, 264, 284
-0.992524, 349, 285, 380, 316
-0.992527, 361, 277, 392, 308
-0.99254, 33, 129, 96, 160
-0.992547, 41, 261, 104, 292
-0.992551, 333, 269, 364, 300
-0.992554, 101, 169, 132, 200
-0.992555, 129, 209, 192, 240
-0.992566, 105, 209, 136, 240
-0.992566, 349, 297, 380, 328
-0.992569, 373, 269, 404, 300
-0.99257, 37, 225, 68, 352
-0.992574, 393, 301, 456, 332
-0.992586, 49, 113, 80, 176
-0.992587, 173, 105, 204, 136
-0.992596, 141, 313, 172, 344
-0.992598, 81, 157, 112, 188
-0.992599, 113, 153, 144, 184
-0.992599, 25, 93, 88, 124
-0.992626, 257, 301, 320, 332
-0.992631, 1, 89, 64, 120
-0.992636, 357, 265, 388, 296
-0.992642, 161, 161, 224, 192
-0.992643, 193, 229, 256, 260
-0.992656, 237, 341, 268, 372
-0.992659, 165, 297, 196, 328
-0.992674, 153, 153, 184, 184
-0.992677, 217, 97, 280, 160
-0.992684, 169, 341, 232, 372
-0.992687, 153, 313, 184, 344
-0.992693, 329, 293, 360, 324
-0.992693, 81, 201, 112, 232
-0.992717, 105, 193, 136, 224
-0.992731, 233, 165, 296, 196
-0.992735, 81, 225, 112, 256
-0.992741, 153, 65, 216, 128
-0.992747, 141, 181, 172, 212
-0.992747, 369, 325, 400, 356
-0.992747, 389, 277, 420, 308
-0.992747, 349, 309, 380, 340
-0.992749, 61, 237, 92, 268
-0.992756, 113, 249, 176, 312
-0.992759, 1, 161, 500, 224
-0.992765, 377, 285, 408, 316
-0.992768, 369, 261, 432, 292
-0.992773, 321, 273, 352, 304
-0.992777, 169, 137, 200, 168
-0.992781, 185, 1, 248, 32
-0.992785, 197, 301, 228, 332
-0.992788, 321, 341, 352, 372
-0.992789, 165, 149, 196, 180
-0.992791, 161, 81, 192, 112
-0.992792, 129, 329, 160, 360
-0.992797, 149, 121, 180, 152
-0.992799, 125, 197, 156, 228
-0.992821, 153, 293, 184, 324
-0.992821, 1, 89, 256, 152
-0.992822, 361, 297, 392, 328
-0.992828, 81, 97, 112, 160
-0.992858, 249, 345, 280, 374
-0.992858, 153, 93, 184, 124
-0.992858, 357, 329, 388, 360
-0.992871, 1, 153, 32, 184
-0.99288, 397, 297, 428, 328
-0.992884, 309, 337, 340, 368
-0.992909, 177, 149, 208, 180
-0.992913, 165, 325, 196, 356
-0.992913, 121, 345, 152, 374
-0.992924, 69, 169, 100, 200
-0.992927, 121, 309, 152, 340
-0.992929, 1, 241, 64, 368
-0.992937, 385, 193, 448, 256
-0.992937, 397, 317, 428, 348
-0.992943, 305, 9, 432, 72
-0.992946, 89, 177, 120, 208
-0.992952, 137, 193, 168, 224
-0.992953, 77, 213, 108, 244
-0.992975, 137, 301, 168, 332
-0.992989, 153, 185, 184, 216
-0.992993, 189, 145, 220, 176
-0.992997, 133, 165, 164, 196
-0.993, 141, 85, 172, 116
-0.993001, 113, 169, 144, 200
-0.993002, 33, 253, 64, 284
-0.993004, 117, 185, 148, 216
-0.993006, 65, 153, 96, 184
-0.993022, 293, 317, 324, 348
-0.993029, 285, 345, 316, 374
-0.993031, 313, 313, 344, 344
-0.993033, 309, 301, 340, 332
-0.993056, 129, 85, 160, 116
-0.993057, 389, 329, 420, 360
-0.993058, 333, 345, 364, 374
-0.993069, 181, 317, 212, 348
-0.993074, 77, 137, 108, 168
-0.993076, 113, 97, 144, 128
-0.993077, 333, 281, 364, 312
-0.993079, 325, 329, 356, 360
-0.993087, 161, 117, 192, 148
-0.993089, 245, 305, 276, 368
-0.993092, 237, 153, 268, 184
-0.993093, 221, 301, 252, 332
-0.993094, 377, 297, 408, 328
-0.993097, 109, 129, 140, 160
-0.9931, 49, 221, 80, 252
-0.993104, 309, 285, 340, 316
-0.993104, 121, 209, 152, 240
-0.993117, 77, 185, 108, 216
-0.993118, 205, 249, 236, 280
-0.993129, 373, 341, 404, 372
-0.993133, 145, 133, 176, 164
-0.993139, 165, 93, 196, 124
-0.99314, 169, 285, 200, 316
-0.993143, 269, 337, 300, 368
-0.993143, 201, 289, 232, 320
-0.993144, 181, 125, 212, 156
-0.99315, 57, 193, 88, 224
-0.993151, 225, 209, 256, 336
-0.993152, 353, 193, 480, 256
-0.993154, 89, 133, 120, 164
-0.993155, 65, 213, 96, 244
-0.993164, 241, 97, 368, 160
-0.993173, 129, 181, 160, 212
-0.993177, 125, 149, 156, 180
-0.993182, 181, 293, 212, 324
-0.993185, 37, 233, 68, 264
-0.993189, 109, 221, 140, 252
-0.993203, 213, 345, 244, 374
-0.993203, 49, 121, 80, 152
-0.993204, 337, 309, 368, 340
-0.993217, 357, 345, 388, 374
-0.993217, 289, 305, 320, 336
-0.993219, 85, 237, 116, 268
-0.99322, 153, 173, 184, 204
-0.993221, 1, 97, 32, 128
-0.993223, 209, 261, 240, 292
-0.993227, 97, 229, 128, 260
-0.99324, 409, 309, 440, 340
-0.99324, 53, 257, 84, 288
-0.993242, 93, 97, 124, 128
-0.993251, 153, 337, 184, 368
-0.993251, 241, 329, 272, 360
-0.993254, 117, 321, 148, 352
-0.993264, 189, 261, 220, 292
-0.993278, 257, 1, 320, 256
-0.9933, 369, 193, 400, 320
-0.993369, 145, 201, 272, 264
-0.993395, 209, 297, 240, 360
-0.993415, 1, 169, 32, 232
-0.993435, 157, 241, 188, 368
-0.993477, 217, 193, 280, 320
-0.993502, 189, 233, 220, 296
-0.993524, 357, 193, 388, 320
-0.993536, 17, 97, 48, 224
-0.993551, 225, 265, 256, 328
-0.993555, 289, 9, 352, 72
-0.993558, 177, 1, 240, 374
-0.993559, 209, 193, 336, 256
-0.993565, 163, 289, 178, 352
-0.99357, 25, 313, 88, 374
-0.993573, 273, 193, 400, 256
-0.99358, 289, 33, 352, 96
-0.993596, 161, 257, 416, 320
-0.993693, 117, 121, 148, 184
-0.993703, 33, 113, 64, 176
-0.993744, 329, 57, 392, 120
-0.993827, 17, 129, 48, 192
-0.993828, 377, 233, 408, 296
-0.993876, 345, 201, 408, 264
-0.993886, 305, 129, 368, 374
-0.993903, 129, 49, 192, 112
-0.993908, 305, 273, 432, 304
-0.993925, 161, 129, 416, 192
-0.99394, 225, 337, 352, 368
-0.99394, 9, 81, 40, 144
-0.99396, 151, 297, 166, 360
-0.99396, 157, 97, 188, 160
-0.993966, 409, 185, 472, 248
-0.994004, 289, 317, 416, 348
-0.994013, 97, 185, 352, 248
-0.994019, 241, 201, 304, 264
-0.994036, 233, 57, 264, 120
-0.994044, 409, 225, 440, 352
-0.99405, 297, 1, 360, 374
-0.994058, 233, 65, 296, 128
-0.994062, 305, 49, 432, 112
-0.99407, 161, 249, 224, 312
-0.994121, 129, 301, 256, 332
-0.994182, 169, 113, 184, 176
-0.994208, 81, 153, 208, 184
-0.994244, 1, 41, 128, 104
-0.994277, 321, 285, 448, 316
-0.994319, 155, 153, 170, 216
-0.994321, 289, 281, 320, 344
-0.994328, 113, 33, 144, 160
-0.99433, 237, 129, 268, 192
-0.99434, 241, 177, 304, 240
-0.99436, 125, 289, 156, 352
-0.99439, 129, 97, 384, 160
-0.994393, 113, 185, 128, 248
-0.994397, 229, 177, 260, 240
-0.994431, 249, 113, 280, 176
-0.994466, 57, 313, 120, 374
-0.994476, 377, 73, 440, 136
-0.994512, 89, 265, 152, 328
-0.994519, 129, 149, 256, 180
-0.99453, 257, 161, 288, 288
-0.994538, 129, 153, 384, 216
-0.994548, 97, 125, 224, 156
-0.99456, 99, 193, 114, 256
-0.994566, 139, 305, 154, 368
-0.994575, 49, 181, 176, 212
-0.994603, 189, 113, 220, 176
-0.994615, 157, 193, 188, 320
-0.994617, 1, 201, 500, 264
-0.994623, 329, 129, 392, 374
-0.99463, 1, 265, 256, 328
-0.994631, 105, 161, 120, 224
-0.994634, 1, 265, 128, 328
-0.994665, 99, 153, 114, 216
-0.994673, 17, 237, 144, 268
-0.994688, 13, 193, 44, 320
-0.994703, 107, 129, 122, 192
-0.994774, 281, 193, 344, 320
-0.994796, 119, 161, 134, 224
-0.994809, 85, 201, 100, 264
-0.994812, 289, 297, 416, 328
-0.994812, 417, 313, 480, 374
-0.994821, 371, 305, 386, 368
-0.994826, 321, 1, 384, 64
-0.994831, 69, 89, 100, 152
-0.994831, 341, 233, 372, 296
-0.994864, 241, 225, 368, 288
-0.99487, 129, 329, 256, 360
-0.994871, 337, 309, 464, 340
-0.994915, 49, 165, 176, 196
-0.994916, 389, 273, 404, 336
-0.994942, 49, 217, 176, 248
-0.994943, 173, 137, 188, 200
-0.994952, 229, 49, 260, 176
-0.994969, 17, 241, 48, 304
-0.994974, 81, 193, 208, 224
-0.994981, 33, 201, 160, 232
-0.994985, 249, 169, 280, 232
-0.995, 149, 161, 164, 224
-0.995079, 105, 193, 120, 256
-0.99511, 161, 121, 176, 184
-0.995115, 65, 65, 320, 128
-0.99514, 209, 217, 272, 280
-0.995147, 161, 153, 176, 216
-0.995166, 361, 305, 376, 368
-0.995192, 119, 185, 134, 248
-0.995194, 167, 137, 182, 200
-0.995198, 433, 161, 496, 288
-0.995213, 403, 281, 418, 344
-0.995237, 75, 209, 90, 272
-0.995245, 273, 145, 336, 272
-0.995247, 393, 297, 408, 360
-0.995252, 1, 313, 256, 374
-0.995269, 113, 137, 240, 168
-0.995275, 337, 225, 400, 288
-0.995278, 17, 109, 144, 140
-0.995314, 169, 289, 184, 352
-0.995315, 97, 317, 224, 348
-0.995333, 143, 161, 158, 224
-0.995359, 97, 209, 352, 272
-0.995369, 109, 241, 140, 368
-0.995375, 93, 177, 108, 240
-0.995394, 113, 145, 128, 208
-0.995398, 241, 241, 272, 368
-0.9954, 273, 329, 400, 360
-0.995403, 225, 325, 352, 356
-0.995453, 125, 177, 140, 240
-0.995458, 65, 97, 192, 128
-0.995471, 59, 217, 74, 280
-0.995491, 325, 193, 356, 320
-0.995491, 289, 241, 320, 368
-0.995498, 143, 129, 158, 192
-0.99552, 321, 169, 448, 232
-0.995539, 1, 97, 500, 160
-0.995539, 157, 177, 172, 240
-0.995553, 171, 73, 186, 136
-0.995565, 93, 201, 108, 264
-0.995575, 47, 225, 62, 288
-0.995584, 383, 281, 398, 344
-0.995602, 289, 1, 352, 256
-0.995611, 329, 177, 392, 240
-0.995612, 321, 121, 448, 184
-0.995613, 97, 241, 128, 368
-0.995628, 149, 137, 164, 200
-0.995641, 137, 169, 152, 232
-0.995641, 269, 145, 300, 272
-0.995662, 369, 257, 384, 320
-0.995695, 37, 65, 68, 192
-0.995697, 145, 185, 160, 248
-0.995698, 185, 65, 216, 192
-0.9957, 13, 49, 44, 176
-0.995703, 131, 185, 146, 248
-0.99571, 81, 85, 208, 116
-0.995714, 97, 113, 224, 144
-0.995715, 321, 201, 384, 264
-0.99573, 129, 161, 256, 192
-0.99573, 133, 137, 148, 200
-0.995747, 97, 205, 224, 236
-0.995758, 197, 121, 212, 184
-0.995776, 383, 305, 398, 368
-0.99579, 145, 117, 272, 148
-0.995797, 97, 229, 224, 260
-0.995812, 1, 137, 500, 200
-0.995812, 65, 241, 80, 304
-0.995827, 157, 297, 172, 360
-0.995832, 355, 305, 370, 368
-0.995842, 93, 225, 108, 288
-0.995843, 377, 49, 440, 112
-0.995845, 129, 185, 256, 216
-0.995855, 145, 317, 272, 348
-0.995878, 107, 217, 122, 280
-0.99588, 65, 141, 192, 172
-0.995888, 127, 137, 142, 200
-0.995888, 1, 17, 32, 144
-0.995922, 175, 289, 190, 352
-0.995925, 145, 313, 160, 374
-0.995941, 321, 97, 448, 160
-0.995948, 363, 273, 378, 336
-0.995959, 73, 161, 88, 224
-0.995976, 369, 129, 432, 374
-0.995982, 177, 81, 192, 144
-0.995996, 273, 345, 400, 374
-0.995996, 89, 153, 104, 216
-0.995998, 1, 121, 16, 184
-0.996005, 193, 297, 208, 360
-0.996008, 95, 129, 110, 192
-0.996025, 337, 297, 464, 328
-0.996028, 343, 281, 358, 344
-0.996034, 163, 313, 178, 374
-0.99604, 1, 221, 128, 252
-0.996066, 349, 305, 364, 368
-0.996067, 313, 289, 328, 352
-0.996093, 409, 217, 472, 280
-0.996103, 1, 289, 256, 352
-0.99611, 161, 137, 288, 168
-0.996111, 377, 297, 392, 360
-0.996114, 1, 57, 500, 120
-0.99613, 179, 145, 194, 208
-0.996139, 305, 225, 432, 288
-0.996151, 319, 305, 334, 368
-0.996152, 193, 25, 448, 88
-0.996159, 99, 233, 114, 296
-0.996177, 183, 281, 198, 344
-0.996177, 209, 305, 336, 336
-0.996191, 79, 233, 94, 296
-0.99621, 193, 89, 320, 152
-0.996213, 165, 89, 180, 152
-0.996218, 69, 209, 84, 272
-0.996224, 17, 133, 144, 164
-0.996225, 321, 1, 384, 128
-0.996225, 145, 173, 272, 204
-0.996228, 189, 161, 220, 288
-0.99624, 97, 217, 224, 248
-0.996259, 273, 285, 400, 316
-0.996267, 189, 105, 204, 168
-0.99627, 375, 273, 390, 336
-0.996272, 11, 129, 26, 192
-0.996274, 53, 249, 68, 312
-0.996279, 53, 225, 68, 288
-0.996288, 119, 209, 134, 272
-0.996306, 185, 305, 200, 368
-0.996311, 97, 345, 224, 374
-0.99633, 173, 313, 188, 374
-0.996343, 151, 185, 166, 248
-0.996351, 345, 129, 408, 256
-0.996357, 153, 129, 184, 374
-0.996362, 83, 161, 98, 224
-0.996368, 1, 281, 500, 344
-0.996375, 131, 161, 146, 224
-0.99638, 17, 249, 144, 280
-0.996383, 129, 97, 160, 352
-0.996388, 81, 305, 208, 336
-0.996392, 395, 273, 410, 336
-0.996394, 101, 129, 116, 192
-0.9964, 193, 49, 448, 112
-0.996405, 161, 1, 416, 64
-0.996421, 175, 105, 190, 168
-0.996427, 1, 305, 500, 368
-0.996429, 241, 89, 304, 152
-0.996433, 79, 185, 94, 248
-0.996438, 353, 273, 368, 336
-0.996441, 17, 149, 144, 180
-0.996453, 221, 97, 252, 224
-0.996477, 321, 329, 448, 360
-0.996484, 49, 329, 176, 360
-0.996516, 1, 241, 500, 304
-0.996516, 361, 1, 424, 374
-0.99652, 213, 241, 244, 368
-0.996529, 33, 129, 64, 256
-0.996532, 297, 105, 360, 168
-0.996543, 105, 129, 136, 374
-0.996543, 49, 41, 176, 104
-0.996545, 129, 85, 256, 116
-0.996585, 337, 265, 352, 328
-0.996585, 167, 161, 182, 224
-0.996589, 131, 313, 146, 374
-0.996601, 223, 257, 238, 320
-0.996605, 85, 225, 100, 288
-0.996632, 145, 289, 272, 320
-0.996635, 309, 313, 324, 374
-0.996635, 177, 345, 304, 374
-0.996642, 141, 73, 156, 136
-0.996643, 329, 33, 392, 96
-0.996663, 215, 265, 230, 328
-0.996667, 317, 1, 348, 128
-0.996677, 139, 193, 154, 256
-0.996691, 41, 225, 56, 288
-0.996692, 133, 105, 148, 168
-0.996696, 257, 1, 320, 374
-0.996696, 49, 73, 176, 104
-0.996698, 97, 233, 352, 296
-0.996704, 17, 93, 144, 124
-0.996714, 25, 289, 88, 352
-0.996715, 321, 341, 448, 372
-0.996715, 33, 121, 160, 152
-0.996732, 155, 97, 170, 160
-0.996741, 125, 201, 140, 264
-0.996752, 115, 65, 130, 128
-0.996769, 143, 97, 158, 160
-0.996783, 191, 137, 206, 200
-0.996792, 71, 249, 86, 312
-0.9968, 81, 137, 96, 200
-0.996807, 235, 305, 250, 368
-0.996809, 113, 121, 128, 184
-0.99681, 241, 225, 304, 288
-0.996821, 321, 1, 384, 374
-0.996827, 251, 137, 266, 200
-0.996831, 145, 105, 272, 136
-0.996835, 117, 129, 148, 374
-0.996836, 325, 305, 340, 368
-0.996841, 201, 193, 232, 320
-0.996878, 177, 161, 304, 192
-0.996897, 399, 305, 414, 368
-0.996914, 227, 161, 242, 224
-0.996915, 417, 289, 480, 352
-0.996915, 193, 233, 448, 296
-0.996931, 393, 129, 456, 374
-0.996951, 1, 161, 128, 192
-0.996952, 129, 241, 256, 272
-0.996965, 97, 173, 224, 204
-0.996968, 321, 145, 448, 208
-0.996973, 7, 89, 22, 152
-0.996988, 171, 137, 186, 168
-0.996998, 81, 289, 144, 352
-0.997001, 85, 129, 116, 374
-0.997006, 159, 73, 174, 136
-0.997006, 49, 317, 176, 348
-0.997012, 211, 241, 226, 304
-0.997015, 119, 121, 134, 184
-0.997018, 87, 129, 102, 192
-0.997021, 173, 65, 204, 320
-0.997023, 141, 97, 172, 352
-0.997025, 257, 273, 384, 304
-0.997031, 113, 225, 128, 288
-0.997043, 297, 97, 360, 224
-0.997048, 347, 257, 362, 320
-0.997048, 51, 201, 66, 264
-0.99706, 5, 145, 20, 208
-0.997061, 433, 185, 496, 248
-0.997062, 221, 161, 236, 224
-0.997077, 185, 145, 200, 208
-0.997081, 165, 117, 180, 148
-0.997086, 313, 145, 376, 272
-0.997114, 193, 177, 448, 240
-0.99712, 353, 273, 480, 304
-0.99712, 343, 305, 358, 368
-0.997127, 193, 273, 208, 336
-0.997128, 65, 41, 320, 104
-0.997132, 59, 257, 74, 320
-0.997134, 37, 201, 52, 264
-0.997136, 65, 177, 80, 240
-0.997138, 369, 281, 384, 344
-0.997145, 209, 285, 336, 316
-0.997169, 347, 277, 362, 308
-0.997172, 369, 73, 496, 136
-0.997176, 183, 89, 198, 152
-0.997187, 1, 305, 64, 368
-0.99719, 177, 49, 240, 112
-0.9972, 369, 329, 496, 360
-0.997208, 145, 277, 272, 308
-0.997213, 369, 49, 496, 112
-0.997215, 237, 1, 268, 128
-0.997231, 141, 309, 156, 340
-0.997243, 371, 277, 386, 308
-0.997313, 257, 129, 320, 374
-0.997317, 297, 73, 360, 136
-0.997322, 1, 289, 128, 352
-0.997326, 97, 33, 224, 96
-0.997336, 265, 177, 328, 240
-0.997337, 169, 209, 200, 336
-0.997355, 107, 157, 122, 188
-0.997359, 151, 305, 166, 336
-0.997363, 185, 309, 200, 340
-0.997363, 161, 73, 416, 136
-0.997369, 65, 241, 192, 272
-0.997386, 159, 321, 174, 352
-0.997389, 147, 329, 162, 360
-0.99741, 145, 197, 272, 228
-0.99741, 337, 81, 400, 144
-0.997412, 1, 177, 32, 304
-0.997421, 153, 325, 168, 356
-0.997426, 393, 129, 456, 256
-0.997427, 49, 249, 64, 280
-0.997428, 363, 305, 378, 336
-0.99744, 373, 265, 388, 296
-0.997447, 413, 145, 444, 272
-0.99745, 165, 317, 180, 348
-0.997455, 171, 313, 186, 344
-0.997455, 13, 145, 44, 272
-0.997476, 179, 313, 194, 344
-0.997494, 353, 269, 368, 300
-0.997497, 157, 301, 172, 332
-0.997522, 229, 345, 244, 374
-0.997526, 177, 241, 304, 272
-0.997527, 1, 185, 128, 216
-0.997543, 137, 337, 152, 368
-0.997551, 65, 293, 192, 324
-0.997557, 53, 97, 84, 352
-0.997557, 359, 265, 374, 296
-0.997572, 109, 213, 124, 244
-0.997574, 337, 261, 464, 292
-0.997575, 365, 277, 380, 308
-0.997577, 335, 273, 350, 304
-0.997583, 115, 209, 130, 240
-0.997589, 105, 197, 120, 228
-0.997591, 177, 149, 304, 180
-0.997596, 255, 341, 270, 372
-0.997607, 199, 301, 214, 332
-0.997611, 343, 265, 358, 296
-0.997629, 65, 97, 96, 352
-0.997629, 153, 33, 184, 288
-0.997632, 257, 153, 500, 216
-0.997635, 101, 217, 116, 248
-0.997636, 131, 341, 146, 372
-0.99764, 161, 69, 288, 100
-0.997655, 95, 205, 110, 236
-0.997655, 113, 33, 144, 288
-0.997658, 353, 297, 368, 328
-0.997662, 159, 181, 174, 212
-0.997663, 57, 245, 72, 276
-0.997668, 177, 217, 304, 248
-0.997668, 383, 269, 398, 300
-0.997681, 193, 305, 208, 336
-0.997686, 95, 221, 110, 252
-0.997692, 369, 285, 496, 316
-0.997701, 365, 265, 380, 296
-0.99771, 141, 193, 156, 224
-0.997717, 165, 293, 180, 324
-0.997724, 159, 129, 174, 160
-0.997725, 377, 277, 392, 308
-0.997728, 1, 337, 128, 368
-0.997729, 177, 229, 304, 260
-0.997732, 125, 205, 140, 236
-0.997736, 371, 309, 386, 340
-0.997746, 237, 33, 268, 288
-0.997747, 65, 241, 80, 272
-0.997752, 171, 125, 186, 156
-0.997756, 135, 197, 150, 228
-0.997759, 115, 193, 130, 224
-0.997778, 325, 341, 340, 372
-0.99779, 147, 189, 162, 220
-0.997794, 71, 237, 86, 268
-0.997794, 101, 165, 116, 196
-0.997798, 371, 289, 386, 320
-0.997799, 153, 185, 168, 216
-0.997802, 97, 253, 224, 284
-0.997808, 357, 285, 372, 316
-0.997819, 143, 341, 158, 372
-0.997823, 49, 341, 176, 372
-0.997826, 175, 301, 190, 332
-0.997833, 225, 53, 352, 84
-0.997852, 113, 149, 128, 180
-0.997852, 85, 229, 100, 260
-0.997854, 393, 241, 456, 304
-0.997857, 79, 233, 94, 264
-0.997861, 147, 137, 162, 168
-0.997874, 223, 261, 238, 292
-0.99788, 225, 1, 352, 32
-0.997894, 225, 177, 352, 208
-0.9979, 131, 313, 146, 344
-0.997916, 397, 277, 412, 308
-0.997916, 261, 345, 276, 374
-0.997918, 383, 281, 398, 312
-0.997919, 97, 73, 224, 104
-0.997923, 373, 329, 388, 360
-0.99793, 1, 81, 128, 112
-0.99793, 115, 173, 130, 204
-0.997931, 201, 129, 232, 374
-0.997976, 355, 309, 370, 340
-0.997976, 177, 93, 304, 124
-0.997976, 225, 41, 352, 72
-0.997981, 333, 345, 348, 374
-0.997988, 369, 1, 432, 128
-0.997995, 197, 81, 228, 208
-0.997997, 65, 1, 320, 64
-0.997999, 185, 97, 216, 352
-0.998003, 43, 253, 58, 284
-0.998004, 235, 341, 250, 372
-0.998005, 395, 317, 410, 348
-0.998015, 125, 317, 140, 348
-0.998025, 331, 329, 346, 360
-0.998034, 183, 93, 198, 124
-0.998036, 85, 33, 116, 288
-0.998037, 177, 257, 304, 288
-0.998041, 179, 149, 194, 180
-0.998046, 175, 105, 190, 136
-0.998046, 137, 89, 152, 120
-0.998051, 17, 261, 144, 292
-0.998053, 383, 313, 398, 344
-0.998053, 343, 293, 358, 324
-0.998059, 225, 25, 352, 56
-0.99806, 95, 157, 110, 188
-0.998061, 81, 1, 144, 128
-0.998064, 123, 153, 138, 184
-0.998066, 177, 333, 304, 364
-0.998076, 85, 209, 100, 240
-0.998095, 11, 153, 26, 184
-0.998101, 151, 293, 166, 324
-0.998109, 145, 297, 160, 328
-0.998111, 117, 161, 132, 192
-0.998111, 367, 333, 382, 364
-0.998114, 153, 157, 168, 188
-0.998118, 349, 313, 364, 344
-0.99812, 169, 153, 184, 184
-0.998123, 391, 273, 406, 304
-0.998129, 225, 13, 352, 44
-0.998129, 157, 145, 172, 176
-0.998132, 319, 337, 334, 368
-0.998136, 225, 105, 480, 168
-0.998142, 105, 177, 120, 208
-0.998142, 29, 97, 60, 352
-0.998147, 95, 177, 110, 208
-0.998159, 241, 341, 256, 372
-0.99817, 193, 125, 320, 156
-0.998171, 185, 293, 200, 324
-0.998177, 165, 329, 180, 360
-0.998179, 153, 337, 168, 368
-0.998181, 121, 345, 136, 374
-0.998182, 363, 293, 378, 324
-0.998188, 225, 301, 240, 332
-0.998195, 175, 81, 190, 112
-0.998207, 391, 329, 406, 360
-0.998214, 137, 325, 152, 356
-0.99822, 163, 153, 178, 184
-0.998223, 173, 285, 188, 316
-0.998229, 159, 333, 174, 364
-0.998229, 171, 325, 186, 356
-0.998232, 313, 329, 328, 360
-0.998237, 71, 153, 86, 184
-0.998244, 71, 173, 86, 204
-0.998246, 403, 285, 418, 316
-0.998248, 107, 145, 122, 176
-0.998253, 1, 61, 16, 92
-0.998254, 273, 209, 304, 336
-0.998254, 247, 345, 262, 374
-0.998258, 165, 305, 180, 336
-0.998262, 257, 129, 500, 192
-0.998269, 157, 289, 172, 320
-0.99827, 143, 89, 158, 120
-0.998274, 321, 77, 448, 108
-0.998276, 9, 77, 24, 108
-0.998276, 341, 281, 356, 312
-0.998279, 257, 261, 384, 292
-0.998281, 205, 293, 220, 324
-0.998285, 131, 329, 146, 360
-0.998286, 193, 145, 208, 176
-0.998287, 49, 1, 112, 128
-0.998292, 377, 293, 392, 324
-0.998295, 353, 1, 480, 64
-0.998296, 127, 169, 142, 200
-0.998316, 193, 189, 320, 220
-0.998319, 145, 9, 272, 40
-0.99836, 209, 269, 336, 300
-0.998369, 241, 77, 368, 108
-0.998372, 353, 279, 384, 294
-0.998373, 129, 307, 160, 322
-0.998374, 357, 347, 388, 362
-0.998375, 349, 291, 380, 306
-0.998376, 377, 311, 408, 326
-0.998376, 129, 201, 160, 216
-0.998378, 353, 145, 384, 272
-0.998379, 401, 303, 432, 318
-0.998379, 389, 285, 420, 300
-0.99838, 77, 205, 108, 220
-0.998382, 77, 169, 108, 184
-0.998383, 225, 1, 256, 256
-0.998383, 369, 343, 400, 358
-0.998384, 153, 311, 184, 326
-0.998384, 397, 321, 428, 336
-0.998384, 201, 297, 232, 312
-0.998385, 365, 323, 396, 338
-0.998386, 389, 313, 420, 328
-0.998388, 257, 193, 384, 224
-0.998388, 329, 273, 360, 288
-0.998391, 321, 337, 352, 352
-0.998392, 293, 321, 324, 336
-0.998394, 117, 191, 148, 206
-0.998394, 177, 149, 208, 164
-0.998395, 153, 141, 184, 156
-0.998397, 221, 305, 252, 320
-0.998397, 353, 323, 384, 338
-0.998399, 201, 257, 232, 272
-0.998399, 309, 341, 340, 356
-0.998399, 157, 135, 188, 150
-0.9984, 125, 339, 156, 354
-0.998401, 189, 309, 220, 324
-0.998402, 177, 303, 208, 318
-0.998402, 77, 217, 108, 232
-0.998402, 165, 303, 196, 318
-0.998403, 361, 287, 392, 302
-0.998404, 137, 179, 168, 194
-0.998404, 133, 325, 164, 340
-0.998405, 77, 149, 108, 164
-0.998406, 337, 65, 400, 192
-0.998407, 97, 177, 128, 192
-0.998407, 201, 309, 232, 324
-0.998409, 221, 359, 252, 374
-0.998409, 101, 201, 132, 216
-0.998409, 329, 283, 360, 298
-0.99841, 321, 343, 352, 358
-0.99841, 189, 145, 220, 160
-0.998411, 105, 195, 136, 210
-0.998412, 53, 197, 84, 212
-0.998413, 125, 185, 156, 200
-0.998414, 241, 339, 272, 354
-0.998415, 113, 349, 144, 364
-0.998416, 105, 145, 136, 160
-0.998417, 397, 297, 428, 312
-0.998419, 141, 309, 172, 324
-0.998421, 113, 171, 144, 186
-0.998422, 349, 311, 380, 326
-0.998422, 113, 101, 144, 116
-0.998423, 109, 159, 140, 174
-0.998424, 381, 275, 412, 290
-0.998425, 141, 315, 172, 330
-0.998426, 1, 65, 32, 320
-0.998427, 333, 347, 364, 362
-0.998427, 377, 291, 408, 306
-0.998428, 181, 315, 212, 330
-0.998429, 161, 57, 288, 88
-0.99843, 153, 297, 184, 312
-0.998431, 225, 153, 352, 184
-0.998432, 245, 349, 276, 364
-0.998432, 377, 319, 408, 334
-0.998432, 165, 153, 196, 168
-0.998435, 81, 161, 112, 176
-0.998435, 89, 199, 120, 214
-0.998435, 349, 285, 380, 300
-0.998436, 349, 299, 380, 314
-0.998437, 361, 267, 392, 282
-0.998438, 201, 359, 264, 374
-0.998439, 149, 129, 180, 144
-0.998441, 65, 239, 96, 254
-0.998443, 205, 251, 236, 266
-0.998448, 257, 257, 500, 320
-0.99845, 93, 159, 124, 174
-0.998451, 117, 355, 148, 370
-0.998452, 105, 325, 136, 340
-0.998455, 165, 309, 196, 324
-0.998457, 161, 95, 192, 110
-0.998458, 1, 159, 32, 174
-0.998458, 137, 341, 168, 356
-0.998459, 85, 225, 116, 240
-0.99846, 101, 171, 132, 186
-0.99846, 165, 143, 196, 158
-0.998461, 241, 65, 368, 96
-0.998462, 369, 279, 400, 294
-0.998462, 125, 331, 156, 346
-0.998463, 157, 121, 188, 136
-0.998463, 173, 107, 204, 122
-0.998464, 81, 211, 112, 226
-0.998464, 305, 1, 432, 32
-0.998465, 209, 359, 240, 374
-0.998466, 77, 231, 108, 246
-0.998467, 329, 293, 360, 308
-0.998467, 129, 313, 160, 328
-0.998468, 81, 209, 144, 224
-0.998469, 225, 165, 352, 196
-0.99847, 229, 341, 260, 356
-0.99847, 345, 277, 408, 292
-0.99847, 53, 245, 84, 260
-0.998472, 97, 219, 128, 234
-0.998473, 145, 303, 176, 318
-0.998475, 65, 281, 192, 312
-0.998477, 357, 317, 388, 332
-0.998481, 377, 325, 408, 340
-0.998482, 341, 279, 372, 294
-0.998482, 1, 313, 128, 344
-0.998483, 153, 155, 184, 170
-0.998484, 73, 165, 136, 180
-0.998484, 129, 313, 192, 328
-0.998485, 161, 147, 224, 162
-0.998486, 101, 165, 132, 180
-0.998487, 129, 347, 160, 362
-0.998489, 145, 187, 176, 202
-0.99849, 89, 159, 152, 174
-0.99849, 229, 347, 260, 362
-0.998491, 341, 267, 372, 282
-0.998493, 145, 41, 272, 72
-0.998494, 1, 325, 128, 356
-0.998494, 137, 331, 168, 346
-0.998495, 133, 195, 164, 210
-0.998496, 189, 303, 220, 318
-0.998496, 345, 317, 408, 332
-0.998497, 105, 191, 168, 206
-0.9985, 153, 147, 184, 162
-0.998501, 345, 293, 408, 308
-0.998502, 361, 309, 392, 324
-0.998502, 121, 143, 184, 158
-0.998502, 149, 333, 180, 348
-0.998504, 117, 205, 148, 220
-0.998505, 321, 271, 384, 286
-0.998505, 357, 273, 388, 288
-0.998508, 101, 151, 132, 166
-0.998509, 65, 217, 128, 232
-0.998509, 157, 325, 188, 340
-0.998509, 193, 209, 448, 272
-0.998509, 69, 155, 100, 170
-0.99851, 89, 203, 152, 218
-0.998513, 353, 311, 416, 326
-0.998514, 121, 319, 152, 334
-0.998515, 97, 197, 160, 212
-0.998516, 121, 321, 184, 336
-0.998516, 145, 155, 208, 170
-0.998519, 221, 353, 252, 368
-0.998521, 157, 317, 188, 332
-0.998521, 153, 121, 216, 136
-0.998521, 169, 321, 200, 336
-0.998522, 225, 355, 288, 370
-0.998522, 105, 213, 136, 228
-0.998524, 345, 287, 408, 302
-0.998524, 237, 359, 268, 374
-0.998526, 93, 207, 124, 222
-0.998531, 373, 269, 404, 284
-0.998532, 145, 141, 208, 156
-0.998534, 113, 167, 176, 182
-0.998535, 137, 303, 200, 318
-0.998535, 177, 307, 240, 322
-0.998536, 121, 149, 184, 164
-0.998536, 41, 251, 72, 266
-0.998537, 217, 347, 280, 362
-0.998539, 305, 281, 368, 296
-0.998539, 133, 139, 164, 154
-0.998543, 129, 341, 192, 356
-0.998544, 57, 223, 120, 238
-0.998548, 65, 171, 128, 186
-0.998548, 153, 135, 216, 150
-0.998549, 253, 357, 284, 372
-0.998549, 177, 309, 208, 324
-0.99855, 349, 305, 380, 320
-0.99855, 145, 325, 176, 340
-0.998551, 253, 65, 284, 192
-0.998551, 153, 115, 216, 130
-0.998552, 97, 325, 160, 340
-0.998553, 185, 313, 248, 328
-0.998554, 89, 173, 152, 188
-0.998555, 65, 153, 128, 168
-0.998555, 65, 185, 128, 200
-0.99856, 145, 297, 208, 312
-0.998561, 225, 341, 288, 356
-0.998563, 41, 199, 104, 214
-0.998563, 345, 327, 408, 342
-0.998566, 353, 269, 416, 284
-0.998566, 321, 347, 384, 362
-0.998568, 201, 353, 264, 368
-0.998568, 33, 251, 96, 266
-0.998568, 369, 317, 432, 332
-0.998571, 129, 135, 192, 150
-0.998571, 153, 311, 216, 326
-0.998573, 217, 49, 248, 176
-0.998573, 113, 185, 176, 200
-0.998573, 121, 203, 184, 218
-0.998574, 369, 289, 432, 304
-0.998574, 101, 33, 132, 288
-0.998575, 89, 215, 152, 230
-0.998576, 81, 179, 144, 194
-0.998579, 305, 321, 368, 336
-0.998579, 305, 293, 368, 308
-0.99858, 49, 243, 112, 258
-0.99858, 193, 113, 320, 144
-0.998581, 105, 209, 168, 224
-0.998581, 161, 319, 224, 334
-0.998584, 137, 335, 200, 350
-0.998585, 305, 287, 368, 302
-0.998586, 1, 255, 64, 270
-0.998586, 321, 305, 384, 320
-0.998587, 169, 315, 200, 330
-0.998591, 137, 195, 200, 210
-0.998592, 73, 231, 136, 246
-0.998592, 89, 221, 152, 236
-0.998592, 57, 191, 120, 206
-0.998592, 57, 237, 120, 252
-0.998595, 321, 181, 448, 212
-0.998595, 329, 337, 392, 352
-0.998595, 153, 325, 216, 340
-0.998596, 97, 153, 160, 168
-0.998597, 145, 97, 208, 112
-0.998597, 289, 343, 352, 358
-0.998598, 185, 253, 248, 268
-0.9986, 377, 307, 440, 322
-0.9986, 273, 329, 336, 344
-0.998601, 329, 265, 392, 280
-0.998602, 113, 351, 176, 366
-0.998603, 297, 299, 360, 314
-0.998604, 369, 283, 432, 298
-0.998604, 217, 309, 280, 324
-0.998605, 249, 357, 312, 372
-0.998606, 177, 301, 240, 316
-0.998606, 41, 231, 104, 246
-0.998608, 265, 321, 328, 336
-0.99861, 113, 125, 176, 140
-0.99861, 129, 161, 192, 176
-0.998611, 273, 335, 336, 350
-0.998613, 241, 349, 304, 364
-0.998613, 65, 203, 128, 218
-0.998613, 97, 319, 160, 334
-0.998614, 185, 261, 248, 276
-0.998615, 33, 237, 96, 252
-0.998615, 345, 305, 408, 320
-0.998616, 129, 329, 192, 344
-0.998617, 33, 257, 96, 272
-0.998618, 385, 329, 448, 344
-0.998618, 25, 245, 88, 260
-0.998619, 97, 147, 160, 162
-0.998622, 369, 301, 432, 316
-0.998622, 73, 197, 136, 212
-0.998623, 153, 129, 216, 144
-0.998623, 113, 111, 176, 126
-0.998624, 305, 311, 368, 326
-0.998626, 265, 345, 328, 360
-0.998628, 121, 217, 184, 232
-0.998628, 385, 323, 448, 338
-0.998628, 89, 133, 152, 148
-0.99863, 297, 337, 360, 352
-0.998631, 169, 141, 232, 156
-0.998631, 89, 331, 152, 346
-0.998631, 313, 327, 376, 342
-0.998632, 89, 345, 152, 360
-0.998634, 161, 291, 224, 306
-0.998634, 105, 313, 168, 328
-0.998635, 321, 299, 384, 314
-0.998636, 361, 343, 424, 358
-0.998636, 129, 105, 192, 120
-0.998637, 201, 155, 264, 170
-0.998637, 377, 335, 440, 350
-0.998638, 33, 205, 96, 220
-0.998638, 369, 295, 432, 310
-0.998639, 193, 241, 256, 256
-0.998639, 57, 211, 120, 226
-0.99864, 65, 159, 128, 174
-0.99864, 241, 335, 304, 350
-0.998643, 113, 91, 176, 106
-0.998643, 9, 239, 72, 254
-0.998644, 153, 231, 216, 246
-0.998645, 17, 213, 80, 228
-0.998651, 305, 65, 432, 96
-0.998667, 241, 109, 368, 140
-0.998713, 17, 301, 144, 332
-0.998718, 249, 97, 280, 352
-0.998735, 145, 29, 272, 60
-0.998735, 401, 145, 432, 272
-0.998745, 1, 173, 128, 204
-0.998756, 257, 81, 500, 144
-0.998768, 117, 145, 132, 272
-0.998842, 167, 113, 182, 240
-0.998848, 65, 269, 192, 300
-0.99885, 41, 65, 72, 320
-0.99885, 145, 129, 160, 256
-0.998866, 105, 177, 120, 304
-0.998867, 129, 129, 144, 256
-0.998875, 321, 129, 448, 160
-0.998891, 305, 13, 432, 44
-0.9989, 389, 1, 420, 128
-0.998903, 85, 193, 100, 320
-0.998904, 111, 145, 126, 272
-0.998912, 129, 265, 256, 296
-0.998926, 95, 145, 110, 272
-0.998928, 241, 137, 368, 168
-0.998933, 139, 129, 154, 256
-0.998942, 321, 237, 448, 268
-0.998945, 155, 145, 170, 272
-0.998948, 273, 205, 400, 236
-0.99897, 241, 97, 368, 128
-0.998972, 107, 97, 122, 224
-0.998976, 183, 81, 198, 208
-0.998977, 93, 193, 108, 320
-0.998987, 369, 241, 384, 368
-0.998993, 305, 249, 432, 280
-0.998996, 123, 145, 138, 272
-0.998997, 1, 53, 128, 84
-0.999009, 139, 81, 154, 208
-0.999028, 75, 193, 90, 320
-0.99903, 225, 237, 352, 268
-0.999041, 161, 145, 176, 272
-0.999042, 221, 97, 252, 352
-0.99905, 177, 81, 192, 208
-0.999059, 147, 81, 162, 208
-0.999064, 53, 177, 68, 304
-0.999065, 241, 121, 368, 152
-0.999074, 361, 241, 376, 368
-0.999074, 1, 241, 32, 368
-0.999074, 89, 145, 104, 272
-0.999084, 347, 241, 362, 368
-0.999086, 369, 341, 496, 372
-0.999091, 133, 81, 148, 208
-0.999101, 261, 129, 292, 374
-0.999101, 305, 33, 432, 64
-0.999102, 321, 197, 448, 228
-0.999104, 401, 1, 464, 374
-0.999109, 173, 129, 188, 256
-0.999113, 389, 241, 404, 368
-0.999113, 67, 177, 82, 304
-0.999132, 99, 193, 114, 320
-0.999138, 75, 145, 90, 272
-0.999141, 159, 97, 174, 224
-0.999161, 189, 97, 204, 224
-0.999166, 205, 1, 236, 256
-0.999176, 409, 177, 472, 304
-0.99918, 17, 65, 48, 320
-0.999189, 59, 209, 74, 336
-0.999189, 375, 241, 390, 368
-0.999196, 83, 129, 98, 256
-0.999198, 69, 129, 84, 256
-0.999198, 47, 177, 62, 304
-0.999205, 129, 177, 144, 304
-0.999205, 153, 81, 168, 208
-0.999208, 111, 193, 126, 320
-0.99921, 129, 1, 160, 256
-0.999222, 73, 81, 88, 208
-0.999222, 381, 241, 396, 368
-0.999223, 95, 97, 110, 224
-0.999243, 395, 241, 410, 368
-0.999251, 337, 241, 352, 368
-0.99926, 353, 241, 368, 368
-0.99927, 231, 1, 246, 128
-0.999271, 5, 81, 20, 208
-0.999279, 195, 113, 210, 240
-0.999282, 165, 65, 180, 192
-0.999287, 101, 129, 116, 256
-0.999296, 89, 81, 104, 208
-0.999296, 117, 97, 132, 224
-0.999303, 123, 193, 138, 320
-0.99931, 171, 65, 186, 192
-0.999321, 245, 49, 260, 176
-0.999339, 137, 177, 152, 304
-0.999347, 147, 177, 162, 304
-0.999355, 65, 225, 80, 352
-0.999355, 323, 241, 338, 368
-0.999359, 211, 225, 226, 352
-0.99936, 237, 17, 252, 144
-0.99937, 93, 241, 108, 368
-0.99937, 401, 241, 416, 368
-0.999372, 349, 65, 380, 192
-0.999373, 369, 169, 496, 232
-0.999375, 97, 49, 112, 176
-0.999385, 397, 129, 428, 374
-0.999397, 203, 241, 218, 368
-0.9994, 253, 81, 268, 208
-0.999409, 53, 225, 68, 352
-0.999411, 361, 49, 424, 176
-0.999411, 81, 81, 96, 208
-0.999411, 117, 193, 132, 320
-0.999414, 107, 49, 122, 176
-0.999417, 245, 129, 260, 256
-0.999418, 9, 145, 24, 272
-0.999433, 357, 193, 372, 320
-0.99944, 179, 129, 194, 256
-0.999446, 15, 81, 30, 208
-0.999447, 159, 241, 174, 368
-0.99945, 61, 161, 76, 288
-0.99945, 1, 1, 16, 128
-0.999451, 177, 161, 208, 288
-0.999454, 329, 241, 344, 368
-0.999459, 77, 241, 92, 368
-0.999461, 341, 129, 372, 374
-0.999463, 69, 1, 100, 256
-0.999472, 313, 241, 328, 368
-0.999474, 133, 241, 148, 368
-0.999478, 217, 241, 232, 368
-0.999478, 251, 129, 266, 256
-0.999478, 197, 225, 212, 352
-0.999484, 189, 241, 204, 368
-0.999489, 127, 81, 142, 208
-0.999491, 169, 225, 184, 352
-0.999499, 157, 193, 172, 320
-0.999501, 259, 97, 274, 224
-0.999508, 3, 129, 18, 256
-0.999509, 71, 241, 86, 368
-0.999509, 221, 193, 236, 320
-0.99951, 215, 177, 230, 304
-0.999512, 9, 33, 24, 160
-0.999514, 45, 225, 60, 352
-0.999521, 203, 193, 218, 320
-0.999528, 227, 161, 242, 288
-0.999529, 227, 241, 242, 368
-0.999533, 105, 225, 120, 352
-0.999533, 159, 49, 174, 176
-0.999534, 369, 193, 384, 320
-0.999537, 19, 129, 34, 256
-0.99954, 147, 225, 162, 352
-0.99954, 203, 129, 218, 256
-0.99954, 47, 129, 62, 256
-0.999545, 239, 97, 254, 224
-0.999548, 83, 241, 98, 368
-0.999552, 21, 193, 36, 320
-0.999563, 197, 161, 212, 288
-0.999563, 257, 49, 320, 176
-0.999578, 389, 193, 404, 320
-0.99958, 407, 225, 422, 352
-0.999582, 357, 265, 372, 280
-0.999582, 67, 219, 82, 234
-0.999582, 1, 329, 16, 344
-0.999582, 99, 241, 114, 368
-0.999583, 349, 299, 364, 314
-0.999583, 105, 325, 120, 340
-0.999583, 169, 153, 184, 168
-0.999583, 159, 331, 174, 346
-0.999584, 343, 267, 358, 282
-0.999585, 113, 213, 128, 228
-0.999585, 229, 351, 244, 366
-0.999586, 379, 341, 394, 356
-0.999586, 243, 339, 258, 354
-0.999586, 237, 341, 252, 356
-0.999587, 125, 353, 140, 368
-0.999588, 385, 271, 400, 286
-0.999588, 249, 335, 264, 350
-0.999588, 377, 267, 392, 282
-0.999589, 233, 129, 248, 256
-0.999589, 135, 347, 150, 362
-0.999589, 227, 259, 242, 274
-0.99959, 351, 279, 366, 294
-0.999591, 77, 213, 92, 228
-0.999592, 371, 267, 386, 282
-0.999592, 179, 143, 194, 158
-0.999592, 65, 197, 80, 212
-0.999593, 149, 139, 164, 154
-0.999593, 433, 1, 496, 374
-0.999593, 335, 285, 350, 300
-0.999594, 161, 313, 176, 328
-0.999595, 171, 323, 186, 338
-0.999595, 379, 281, 394, 296
-0.999595, 95, 331, 110, 346
-0.999596, 111, 325, 126, 340
-0.999596, 37, 257, 52, 272
-0.999597, 147, 323, 162, 338
-0.999597, 123, 207, 138, 222
-0.999597, 333, 345, 348, 360
-0.999597, 39, 193, 54, 320
-0.999598, 117, 167, 132, 182
-0.999598, 141, 101, 156, 116
-0.9996, 333, 337, 348, 352
-0.999601, 117, 189, 132, 204
-0.999602, 227, 345, 242, 360
-0.999603, 101, 331, 116, 346
-0.999603, 143, 341, 158, 356
-0.999604, 155, 157, 170, 172
-0.999604, 117, 147, 132, 162
-0.999605, 255, 343, 270, 358
-0.999605, 157, 149, 172, 164
-0.999605, 363, 317, 378, 332
-0.999606, 327, 341, 342, 356
-0.999606, 177, 149, 192, 164
-0.999606, 267, 351, 282, 366
-0.999607, 101, 171, 116, 186
-0.999607, 375, 289, 390, 304
-0.999607, 147, 191, 162, 206
-0.999607, 129, 203, 144, 218
-0.999608, 141, 335, 156, 350
-0.999608, 153, 187, 168, 202
-0.999608, 97, 205, 112, 220
-0.999609, 385, 285, 400, 300
-0.999609, 253, 1, 284, 128
-0.99961, 337, 271, 352, 286
-0.99961, 137, 307, 152, 322
-0.999612, 357, 277, 372, 292
-0.999612, 413, 225, 428, 352
-0.999612, 351, 287, 366, 302
-0.999612, 179, 241, 194, 368
-0.999613, 267, 357, 282, 372
-0.999614, 167, 161, 182, 288
-0.999614, 193, 311, 208, 326
-0.999618, 135, 199, 150, 214
-0.999619, 141, 195, 156, 210
-0.999619, 161, 301, 176, 316
-0.999621, 141, 225, 156, 352
-0.999621, 203, 299, 218, 314
-0.999621, 101, 153, 116, 168
-0.999622, 399, 193, 414, 320
-0.999624, 355, 271, 370, 286
-0.999625, 221, 351, 236, 366
-0.999625, 365, 145, 380, 272
-0.999626, 27, 65, 42, 192
-0.999627, 259, 349, 274, 364
-0.999627, 343, 293, 358, 308
-0.999628, 355, 297, 370, 312
-0.99963, 107, 163, 122, 178
-0.999631, 181, 103, 196, 118
-0.999631, 185, 193, 200, 320
-0.999632, 379, 193, 394, 320
-0.999632, 157, 295, 172, 310
-0.999636, 355, 311, 370, 326
-0.999636, 275, 161, 290, 288
-0.999636, 197, 299, 212, 314
-0.999637, 177, 285, 192, 300
-0.999637, 345, 193, 360, 320
-0.999637, 111, 157, 126, 172
-0.999638, 153, 241, 168, 368
-0.999638, 111, 193, 126, 208
-0.999639, 171, 147, 186, 162
-0.999639, 351, 305, 366, 320
-0.999639, 85, 209, 100, 224
-0.99964, 221, 129, 236, 256
-0.999641, 157, 319, 172, 334
-0.999641, 89, 33, 104, 160
-0.999643, 131, 311, 146, 326
-0.999644, 121, 323, 136, 338
-0.999646, 195, 305, 210, 320
-0.999646, 187, 305, 202, 320
-0.999646, 365, 267, 380, 282
-0.999646, 147, 329, 162, 344
-0.999647, 169, 311, 184, 326
-0.999647, 169, 127, 184, 142
-0.999648, 119, 353, 134, 368
-0.99965, 169, 291, 184, 306
-0.999652, 101, 199, 116, 214
-0.999652, 241, 357, 256, 372
-0.999652, 371, 275, 386, 290
-0.999653, 365, 273, 380, 288
-0.999653, 91, 205, 106, 220
-0.999655, 185, 313, 200, 328
-0.999658, 237, 129, 268, 374
-0.999661, 107, 147, 122, 162
-0.999665, 345, 281, 360, 296
-0.999665, 171, 135, 186, 150
-0.999665, 213, 357, 228, 372
-0.999667, 179, 317, 194, 332
-0.999672, 221, 263, 236, 278
-0.999678, 251, 357, 266, 372
-0.99968, 165, 121, 180, 136
-0.999687, 153, 331, 168, 346
-0.999688, 25, 49, 56, 176
-0.99969, 159, 183, 174, 198
-0.999693, 253, 1, 284, 256
-0.999694, 147, 335, 162, 350
-0.999694, 137, 341, 152, 356
-0.999697, 45, 253, 60, 268
-0.9997, 393, 33, 456, 288
-0.999703, 363, 307, 378, 322
-0.999704, 171, 317, 186, 332
-0.999705, 127, 317, 142, 332
-0.999705, 161, 325, 176, 340
-0.99971, 179, 311, 194, 326
-0.999713, 163, 319, 178, 334
-0.999714, 155, 325, 170, 340
-0.999718, 137, 313, 152, 328
-0.99972, 129, 347, 144, 362
-0.999722, 163, 295, 178, 310
-0.999723, 149, 305, 164, 320
-0.999728, 155, 301, 170, 316
-0.999739, 143, 309, 158, 324
-0.999745, 171, 141, 186, 156
-0.999746, 261, 355, 276, 370
-0.99975, 57, 17, 88, 144
-0.999762, 1, 33, 500, 96
-0.99978, 141, 1, 172, 256
-0.999797, 309, 193, 340, 320
-0.9998, 369, 137, 496, 200
-0.999833, 185, 1, 216, 256
-0.999839, 325, 1, 356, 256
-0.999903, 393, 1, 456, 128
-0.999923, 373, 129, 404, 374
-0.999944, 409, 129, 440, 374
-0.99995, 265, 1, 296, 256
-0.999965, 1, 17, 128, 80
-0.999968, 461, 161, 492, 288
-1, 333, 145, 364, 272
-1.00002, 385, 129, 416, 374
-1.00004, 57, 1, 88, 256
-1.00014, 273, 97, 304, 352
-1.00022, 397, 33, 428, 288
-1.00024, 65, 9, 192, 72
-1.00027, 313, 1, 344, 256
-1.00028, 317, 129, 348, 374
-1.00029, 413, 33, 444, 288
-1.00029, 361, 129, 392, 374
-1.00031, 133, 17, 164, 144
-1.00032, 29, 1, 60, 256
-1.00035, 329, 97, 360, 352
-1.00037, 421, 129, 452, 374
-1.00046, 325, 49, 356, 176
-1.00047, 293, 129, 324, 374
-1.00048, 305, 97, 336, 352
-1.00049, 257, 1, 500, 64
-1.00052, 385, 1, 416, 256
-1.00053, 261, 241, 292, 368
-1.00054, 281, 129, 344, 374
-1.00055, 369, 1, 496, 128
-1.00055, 285, 33, 316, 288
-1.0006, 441, 65, 472, 320
-1.00069, 13, 241, 44, 368
-1.00071, 369, 33, 432, 288
-1.00072, 429, 33, 460, 288
-1.00073, 453, 129, 484, 374
-1.00074, 297, 1, 328, 256
-1.00079, 345, 33, 408, 288
-1.00083, 365, 145, 396, 272
-1.00084, 281, 145, 312, 272
-1.00086, 417, 129, 480, 374
-1.00086, 469, 97, 500, 352
-1.00088, 449, 161, 480, 288
-1.0009, 369, 97, 496, 160
-1.0009, 1, 1, 500, 64
-1.00092, 93, 1, 124, 128
-1.00093, 353, 33, 384, 288
-1.00094, 297, 193, 328, 320
-1.001, 245, 177, 276, 304
-1.00102, 373, 33, 404, 288
-1.00105, 453, 33, 484, 288
-1.00108, 437, 209, 468, 336
-1.0011, 421, 209, 452, 336
-1.00118, 437, 161, 468, 288
-1.00132, 369, 113, 496, 240
-1.00137, 353, 25, 480, 88
-1.00137, 341, 1, 372, 256
-1.00145, 161, 1, 192, 128
-1.00146, 449, 209, 480, 336
-1.0015, 145, 33, 176, 160
-1.00158, 37, 17, 68, 144
-1.00167, 465, 1, 496, 256
-1.00186, 329, 97, 360, 224
-1.00194, 433, 209, 496, 336
-1.00202, 401, 97, 432, 224
-1.00204, 313, 33, 376, 288
-1.00204, 201, 1, 232, 128
-1.00213, 273, 97, 304, 224
-1.0022, 273, 97, 336, 224
-1.00226, 401, 33, 432, 160
-1.0023, 265, 1, 328, 128
-1.00234, 393, 49, 456, 176
-1.00327, 417, 113, 480, 240
-1.00424, 369, 49, 496, 176
-1.00484, 417, 33, 480, 288
-1.00489, 369, 129, 432, 256
-1.00515, 153, 17, 216, 144
-1.00743, 345, 1, 408, 128
-1.00747, 417, 1, 480, 128
-1.00899, 417, 49, 480, 176
