1969
-0.287523, 1, 1, 500, 375
-0.339908, 1, 1, 500, 256
-0.388264, 1, 129, 500, 375
-0.479351, 257, 1, 500, 375
-0.488161, 33, 1, 288, 375
-0.505187, 161, 1, 416, 375
-0.568465, 193, 1, 448, 256
-0.631636, 33, 1, 288, 256
-0.689924, 97, 97, 352, 352
-0.731175, 225, 129, 480, 375
-0.781167, 1, 97, 256, 352
-0.845859, 49, 1, 176, 256
-0.847562, 289, 1, 416, 256
-0.852662, 289, 1, 416, 375
-0.855965, 241, 1, 368, 256
-0.856188, 49, 1, 176, 375
-0.858047, 337, 1, 464, 375
-0.86293, 369, 1, 496, 256
-0.864594, 1, 17, 500, 144
-0.868615, 1, 225, 500, 352
-0.872626, 97, 1, 224, 256
-0.874073, 97, 1, 224, 375
-0.875889, 241, 1, 368, 375
-0.879313, 1, 1, 128, 375
-0.88042, 1, 65, 128, 320
-0.882851, 289, 129, 416, 375
-0.886208, 161, 1, 288, 375
-0.888709, 145, 1, 272, 256
-0.890907, 1, 65, 500, 192
-0.894699, 225, 97, 352, 352
-0.895281, 337, 97, 464, 352
-0.897246, 97, 1, 352, 128
-0.897721, 225, 17, 480, 144
-0.898784, 97, 97, 224, 352
-0.904042, 177, 97, 304, 352
-0.908088, 289, 17, 416, 144
-0.909154, 49, 97, 176, 352
-0.911387, 1, 129, 500, 256
-0.912159, 1, 1, 256, 128
-0.916044, 257, 65, 500, 192
-0.91754, 193, 1, 320, 256
-0.919027, 385, 1, 448, 128
-0.919862, 337, 1, 464, 128
-0.921064, 305, 17, 368, 144
-0.923301, 33, 49, 288, 176
-0.923315, 337, 33, 400, 160
-0.924295, 225, 209, 480, 336
-0.924415, 81, 1, 208, 128
-0.925251, 361, 17, 424, 144
-0.925568, 1, 177, 500, 304
-0.927063, 241, 33, 368, 160
-0.929065, 409, 17, 472, 144
-0.930145, 129, 49, 384, 176
-0.930418, 89, 1, 152, 128
-0.931415, 337, 49, 464, 176
-0.933651, 129, 1, 192, 128
-0.933764, 1, 241, 256, 368
-0.935196, 49, 49, 176, 176
-0.936794, 113, 49, 240, 176
-0.936938, 297, 193, 360, 320
-0.937264, 161, 129, 416, 256
-0.939007, 385, 49, 448, 176
-0.939272, 129, 209, 384, 336
-0.940681, 1, 49, 128, 176
-0.941244, 1, 1, 128, 128
-0.94173, 433, 33, 496, 160
-0.942072, 289, 225, 416, 352
-0.943773, 369, 33, 432, 96
-0.943795, 33, 113, 288, 240
-0.943905, 73, 1, 136, 64
-0.944019, 241, 209, 368, 336
-0.944159, 305, 25, 368, 88
-0.944452, 385, 9, 448, 72
-0.944629, 329, 81, 392, 208
-0.94533, 329, 17, 392, 80
-0.946477, 281, 49, 344, 176
-0.94684, 393, 41, 456, 104
-0.946897, 225, 81, 352, 208
-0.946988, 161, 49, 288, 176
-0.947072, 257, 1, 320, 128
-0.94731, 121, 1, 184, 64
-0.947522, 305, 65, 368, 192
-0.947634, 289, 129, 352, 256
-0.947946, 81, 25, 144, 88
-0.94827, 49, 177, 112, 304
-0.948337, 289, 65, 416, 192
-0.94856, 81, 113, 208, 240
-0.948875, 329, 129, 392, 256
-0.949913, 329, 241, 392, 368
-0.950432, 305, 177, 432, 304
-0.950606, 369, 241, 496, 368
-0.950725, 161, 1, 288, 128
-0.950729, 241, 49, 304, 176
-0.950848, 345, 41, 408, 104
-0.951006, 257, 161, 500, 288
-0.951714, 1, 193, 256, 320
-0.952367, 257, 113, 500, 240
-0.953045, 1, 209, 128, 336
-0.953064, 401, 241, 464, 368
-0.953215, 145, 1, 208, 64
-0.95328, 289, 305, 352, 368
-0.953323, 25, 225, 88, 352
-0.953606, 289, 241, 352, 368
-0.953848, 305, 65, 368, 128
-0.954096, 289, 113, 416, 240
-0.954814, 121, 25, 184, 88
-0.955031, 433, 241, 496, 368
-0.955483, 313, 297, 376, 360
-0.955791, 113, 81, 176, 208
-0.956272, 433, 265, 496, 328
-0.95635, 369, 57, 432, 120
-0.956396, 281, 1, 344, 128
-0.956507, 425, 73, 488, 136
-0.956535, 361, 65, 424, 192
-0.956711, 289, 193, 352, 256
-0.956804, 321, 177, 384, 304
-0.956941, 409, 65, 472, 192
-0.956941, 161, 241, 288, 368
-0.957029, 425, 17, 488, 80
-0.957033, 1, 97, 128, 224
-0.957057, 401, 281, 464, 344
-0.957354, 353, 81, 416, 144
-0.957366, 161, 97, 288, 224
-0.957788, 265, 241, 328, 368
-0.958477, 1, 313, 64, 375
-0.958872, 361, 289, 424, 352
-0.959172, 265, 297, 328, 360
-0.959356, 81, 49, 144, 176
-0.959596, 409, 305, 472, 368
-0.959614, 337, 281, 400, 344
-0.959647, 65, 1, 128, 128
-0.959853, 297, 217, 360, 280
-0.960047, 361, 1, 424, 64
-0.960535, 1, 161, 128, 288
-0.960635, 329, 105, 392, 168
-0.960688, 281, 105, 344, 168
-0.96134, 241, 113, 304, 176
-0.961435, 193, 313, 256, 375
-0.961768, 433, 81, 496, 208
-0.961831, 257, 1, 320, 64
-0.9619, 369, 97, 496, 224
-0.961994, 169, 1, 232, 128
-0.962041, 225, 305, 288, 368
-0.962252, 329, 193, 392, 256
-0.96229, 349, 1, 380, 128
-0.962477, 297, 265, 360, 328
-0.962696, 97, 1, 160, 64
-0.962986, 81, 193, 208, 320
-0.96299, 33, 1, 96, 128
-0.963099, 193, 193, 320, 320
-0.963302, 289, 1, 352, 64
-0.963361, 353, 113, 416, 240
-0.963479, 425, 41, 488, 104
-0.963748, 329, 65, 392, 128
-0.963927, 401, 65, 464, 128
-0.964007, 289, 17, 416, 80
-0.964048, 361, 17, 392, 144
-0.964087, 345, 193, 408, 320
-0.964192, 49, 129, 112, 256
-0.964341, 81, 225, 144, 352
-0.964491, 357, 17, 388, 80
-0.964585, 305, 89, 368, 152
-0.965111, 73, 177, 136, 304
-0.965393, 393, 89, 456, 152
-0.965409, 317, 1, 348, 128
-0.965762, 353, 241, 416, 368
-0.965999, 217, 65, 280, 192
-0.966151, 65, 1, 192, 64
-0.966165, 321, 129, 384, 192
-0.966338, 17, 177, 80, 304
-0.96647, 381, 49, 412, 112
-0.966759, 77, 1, 108, 64
-0.966794, 209, 145, 336, 272
-0.966898, 381, 17, 412, 144
-0.967189, 49, 193, 112, 256
-0.967287, 73, 129, 136, 256
-0.967322, 33, 81, 96, 208
-0.967335, 433, 97, 496, 160
-0.967693, 17, 89, 80, 152
-0.967816, 337, 17, 368, 144
-0.967817, 273, 193, 336, 320
-0.967875, 165, 1, 196, 64
-0.967888, 145, 33, 208, 96
-0.967936, 65, 25, 192, 88
-0.967969, 305, 289, 432, 352
-0.968075, 57, 49, 120, 176
-0.968178, 153, 209, 216, 272
-0.968356, 353, 1, 416, 256
-0.968388, 209, 1, 272, 128
-0.968506, 57, 49, 120, 112
-0.968623, 357, 49, 388, 112
-0.968803, 73, 89, 136, 152
-0.969061, 81, 49, 144, 112
-0.969083, 145, 193, 272, 320
-0.969134, 337, 25, 464, 88
-0.96931, 281, 129, 344, 192
-0.969313, 41, 97, 104, 160
-0.969454, 257, 89, 320, 152
-0.969767, 421, 33, 452, 160
-0.969853, 289, 49, 416, 112
-0.969911, 137, 49, 200, 176
-0.970003, 121, 49, 184, 112
-0.970019, 393, 17, 424, 144
-0.970021, 9, 113, 72, 240
-0.970089, 241, 225, 304, 352
-0.970138, 329, 33, 392, 288
-0.970157, 25, 257, 88, 320
-0.970208, 377, 73, 408, 136
-0.970301, 393, 25, 424, 88
-0.970312, 257, 161, 384, 288
-0.970503, 169, 1, 232, 64
-0.970581, 393, 49, 424, 112
-0.970794, 377, 25, 408, 88
-0.970902, 257, 225, 320, 288
-0.971019, 113, 1, 144, 128
-0.97124, 321, 17, 352, 80
-0.971252, 273, 33, 336, 96
-0.971288, 377, 113, 440, 240
-0.971354, 221, 313, 252, 375
-0.971378, 281, 73, 344, 136
-0.971502, 41, 25, 104, 88
-0.971562, 433, 1, 464, 128
-0.971761, 321, 169, 384, 232
-0.971901, 97, 97, 160, 160
-0.971943, 345, 17, 376, 80
-0.971989, 241, 33, 368, 96
-0.972053, 121, 193, 184, 320
-0.972177, 393, 1, 456, 256
-0.972254, 337, 1, 464, 64
-0.972426, 93, 17, 124, 80
-0.972454, 257, 145, 320, 272
-0.97252, 49, 241, 176, 368
-0.972559, 49, 1, 112, 64
-0.972575, 377, 225, 440, 352
-0.972603, 257, 305, 384, 368
-0.97261, 129, 1, 160, 64
-0.972694, 81, 1, 144, 256
-0.97273, 353, 281, 480, 344
-0.972732, 49, 33, 112, 288
-0.972736, 113, 1, 240, 64
-0.972739, 193, 241, 256, 368
-0.972769, 1, 9, 128, 72
-0.972885, 345, 289, 376, 352
-0.973, 325, 305, 356, 368
-0.973056, 249, 65, 312, 128
-0.973094, 345, 161, 408, 224
-0.97321, 337, 49, 464, 112
-0.973264, 329, 129, 392, 375
-0.973296, 353, 305, 480, 368
-0.973316, 337, 305, 400, 368
-0.973349, 233, 89, 296, 152
-0.973366, 385, 313, 448, 375
-0.973387, 305, 49, 336, 176
-0.973449, 349, 49, 380, 176
-0.973489, 145, 1, 176, 128
-0.973502, 97, 73, 160, 136
-0.973504, 129, 1, 160, 128
-0.973524, 413, 41, 444, 104
-0.97353, 377, 113, 440, 176
-0.973564, 1, 65, 128, 128
-0.973572, 393, 81, 424, 144
-0.973663, 57, 217, 120, 280
-0.973722, 249, 1, 312, 256
-0.973722, 121, 105, 184, 168
-0.973732, 113, 1, 144, 64
-0.973777, 97, 129, 160, 256
-0.973844, 93, 1, 124, 128
-0.973872, 401, 1, 432, 64
-0.973931, 49, 81, 176, 144
-0.973941, 49, 169, 112, 232
-0.974143, 209, 305, 336, 368
-0.974161, 281, 289, 312, 352
-0.974184, 425, 1, 488, 256
-0.974203, 429, 1, 460, 64
-0.974217, 405, 1, 436, 128
-0.974255, 305, 1, 368, 256
-0.974259, 81, 1, 112, 128
-0.974287, 369, 265, 432, 328
-0.97429, 321, 217, 384, 280
-0.974319, 81, 241, 144, 304
-0.974423, 77, 25, 108, 88
-0.974425, 145, 193, 208, 320
-0.974453, 249, 33, 280, 160
-0.974488, 465, 265, 496, 328
-0.974519, 177, 25, 240, 88
-0.974592, 433, 297, 496, 360
-0.974652, 9, 1, 72, 128
-0.974658, 149, 1, 180, 64
-0.974691, 241, 97, 304, 224
-0.9747, 241, 9, 368, 72
-0.974852, 145, 129, 208, 256
-0.974938, 65, 49, 192, 112
-0.974958, 25, 297, 88, 360
-0.974967, 369, 89, 496, 152
-0.974974, 301, 89, 332, 152
-0.975005, 437, 25, 468, 88
-0.975013, 265, 273, 328, 336
-0.975033, 217, 17, 280, 80
-0.975106, 241, 225, 368, 288
-0.97518, 465, 65, 496, 192
-0.975235, 225, 105, 352, 168
-0.975329, 1, 273, 64, 336
-0.975407, 17, 305, 48, 368
-0.975431, 441, 273, 472, 336
-0.975586, 317, 49, 348, 176
-0.975672, 73, 113, 136, 176
-0.975713, 421, 281, 452, 344
-0.975724, 289, 129, 352, 375
-0.975749, 225, 281, 288, 344
-0.975768, 201, 105, 264, 168
-0.975787, 305, 193, 432, 256
-0.975797, 209, 73, 272, 136
-0.975864, 353, 193, 416, 256
-0.975936, 381, 65, 412, 192
-0.975951, 337, 65, 368, 192
-0.976022, 113, 217, 176, 280
-0.976149, 49, 225, 112, 352
-0.976171, 177, 225, 240, 288
-0.976197, 309, 25, 340, 88
-0.976217, 353, 177, 480, 304
-0.976247, 17, 113, 80, 176
-0.97634, 245, 105, 276, 168
-0.976379, 333, 49, 364, 112
-0.976497, 265, 97, 328, 224
-0.976557, 217, 129, 280, 192
-0.976687, 161, 1, 288, 64
-0.976692, 137, 1, 200, 256
-0.976738, 133, 25, 164, 88
-0.976774, 1, 241, 64, 368
-0.976776, 17, 233, 80, 296
-0.976791, 361, 313, 424, 375
-0.976844, 25, 177, 88, 240
-0.976878, 273, 33, 336, 288
-0.976888, 293, 305, 324, 368
-0.976937, 265, 201, 328, 264
-0.976949, 445, 1, 476, 128
-0.977014, 49, 241, 112, 304
-0.977099, 225, 177, 288, 304
-0.977129, 41, 121, 104, 184
-0.977139, 113, 1, 176, 256
-0.977141, 145, 145, 272, 272
-0.977155, 169, 49, 232, 176
-0.9772, 353, 113, 416, 176
-0.977252, 113, 25, 240, 88
-0.977266, 405, 289, 436, 352
-0.97728, 161, 97, 288, 160
-0.977331, 457, 73, 488, 136
-0.977403, 113, 241, 240, 368
-0.977446, 225, 281, 352, 344
-0.977511, 177, 129, 240, 256
-0.977556, 201, 129, 264, 256
-0.977571, 273, 73, 400, 136
-0.977573, 177, 1, 208, 64
-0.977741, 389, 289, 420, 352
-0.977742, 285, 1, 316, 128
-0.977773, 1, 113, 128, 176
-0.977798, 297, 169, 360, 232
-0.977842, 417, 1, 448, 64
-0.977886, 73, 193, 136, 256
-0.977889, 369, 49, 400, 112
-0.977896, 109, 25, 140, 88
-0.977958, 17, 33, 144, 96
-0.978041, 365, 89, 396, 152
-0.978074, 445, 241, 476, 368
-0.97813, 9, 49, 72, 176
-0.978171, 13, 273, 44, 336
-0.978208, 113, 49, 240, 112
-0.978264, 209, 313, 240, 375
-0.978279, 73, 137, 136, 200
-0.978291, 273, 97, 400, 160
-0.978386, 285, 113, 316, 176
-0.978393, 129, 57, 160, 120
-0.978506, 465, 241, 496, 368
-0.978524, 129, 49, 160, 176
-0.978544, 329, 257, 392, 320
-0.978556, 453, 273, 484, 336
-0.978617, 65, 105, 192, 168
-0.978668, 17, 201, 80, 264
-0.978706, 289, 265, 416, 328
-0.97898, 381, 97, 412, 160
-0.978982, 313, 65, 344, 128
-0.979035, 97, 177, 160, 304
-0.979076, 33, 57, 96, 120
-0.979078, 405, 49, 436, 176
-0.97909, 337, 129, 368, 256
-0.979095, 161, 241, 224, 368
-0.979117, 1, 297, 128, 360
-0.979152, 165, 25, 196, 88
-0.979222, 361, 281, 392, 344
-0.979257, 177, 1, 208, 128
-0.979267, 333, 25, 364, 88
-0.9793, 465, 97, 496, 160
-0.97932, 81, 57, 112, 120
-0.979326, 409, 249, 472, 312
-0.979394, 305, 305, 336, 368
-0.979457, 113, 129, 176, 192
-0.979495, 305, 313, 432, 375
-0.979515, 145, 313, 272, 375
-0.979607, 161, 25, 288, 88
-0.979644, 249, 25, 312, 88
-0.979791, 325, 129, 356, 256
-0.979809, 161, 1, 224, 256
-0.979845, 1, 249, 128, 312
-0.979854, 333, 1, 364, 64
-0.979879, 317, 193, 348, 256
-0.979883, 425, 25, 456, 88
-0.979909, 73, 49, 104, 176
-0.979917, 201, 233, 264, 296
-0.979945, 121, 241, 184, 368
-0.979947, 297, 241, 360, 304
-0.980016, 165, 1, 196, 128
-0.980034, 361, 97, 424, 352
-0.980064, 1, 89, 128, 152
-0.980069, 337, 89, 368, 152
-0.980111, 125, 97, 156, 160
-0.98016, 257, 201, 384, 264
-0.980184, 345, 57, 376, 120
-0.980306, 337, 185, 368, 248
-0.980318, 433, 193, 496, 320
-0.980325, 137, 81, 200, 144
-0.98039, 401, 113, 464, 240
-0.980457, 433, 241, 496, 304
-0.980461, 353, 89, 384, 152
-0.980495, 353, 113, 384, 176
-0.980506, 341, 241, 372, 368
-0.98051, 9, 65, 72, 128
-0.98052, 245, 81, 276, 208
-0.980572, 9, 65, 72, 320
-0.980586, 361, 65, 392, 192
-0.980618, 225, 57, 352, 120
-0.980643, 445, 81, 476, 144
-0.980649, 193, 49, 256, 176
-0.980753, 321, 81, 448, 144
-0.980781, 113, 105, 240, 168
-0.980821, 329, 209, 360, 336
-0.980843, 145, 25, 176, 88
-0.980873, 145, 137, 208, 200
-0.980892, 217, 241, 280, 368
-0.980915, 65, 33, 96, 96
-0.980946, 209, 129, 336, 192
-0.980971, 153, 185, 216, 248
-0.981, 309, 1, 340, 64
-0.981141, 305, 225, 336, 352
-0.981191, 177, 49, 240, 112
-0.981212, 365, 113, 396, 240
-0.981243, 337, 209, 368, 272
-0.981277, 121, 241, 184, 304
-0.98133, 361, 305, 392, 368
-0.981374, 105, 273, 168, 336
-0.981461, 321, 225, 352, 288
-0.981473, 425, 121, 488, 184
-0.981491, 209, 201, 336, 264
-0.981492, 377, 297, 408, 360
-0.981498, 121, 129, 184, 256
-0.981521, 305, 1, 336, 128
-0.981531, 81, 217, 144, 280
-0.981538, 201, 193, 264, 320
-0.981581, 13, 241, 44, 368
-0.981596, 225, 33, 288, 288
-0.98161, 437, 49, 468, 176
-0.981625, 317, 177, 348, 304
-0.981678, 113, 57, 144, 120
-0.981764, 345, 1, 408, 375
-0.98181, 341, 177, 372, 304
-0.981849, 209, 81, 336, 144
-0.981902, 161, 105, 224, 168
-0.981914, 73, 1, 136, 375
-0.981953, 249, 65, 280, 128
-0.98198, 61, 97, 92, 160
-0.981995, 169, 177, 232, 304
-0.982011, 1, 241, 32, 368
-0.982088, 97, 73, 224, 136
-0.982138, 317, 113, 348, 176
-0.982148, 81, 97, 112, 160
-0.982203, 161, 65, 288, 128
-0.982212, 253, 33, 284, 96
-0.982219, 261, 305, 292, 368
-0.982225, 289, 121, 416, 184
-0.982248, 429, 241, 460, 368
-0.982249, 437, 297, 468, 360
-0.982296, 161, 121, 288, 184
-0.982432, 113, 97, 176, 352
-0.982477, 301, 65, 332, 128
-0.982534, 369, 1, 432, 375
-0.982561, 289, 169, 416, 232
-0.982662, 157, 201, 188, 264
-0.98268, 117, 49, 148, 176
-0.982693, 305, 193, 336, 256
-0.982724, 161, 281, 224, 344
-0.982759, 225, 209, 288, 272
-0.982778, 341, 313, 372, 375
-0.98278, 153, 233, 216, 296
-0.982819, 289, 89, 320, 152
-0.982972, 1, 225, 128, 288
-0.982992, 81, 129, 208, 192
-0.982993, 389, 1, 420, 64
-0.98308, 401, 113, 464, 176
-0.983122, 297, 1, 328, 64
-0.98315, 293, 241, 324, 368
-0.983214, 425, 1, 488, 375
-0.983226, 121, 297, 184, 360
-0.983227, 429, 57, 460, 120
-0.98327, 65, 1, 96, 128
-0.983404, 129, 1, 192, 375
-0.983409, 465, 1, 496, 128
-0.98345, 301, 113, 332, 176
-0.983451, 377, 185, 440, 248
-0.983455, 449, 17, 480, 80
-0.983493, 81, 201, 208, 264
-0.983506, 113, 193, 176, 256
-0.983516, 193, 225, 320, 288
-0.983542, 105, 1, 168, 375
-0.983556, 469, 73, 500, 136
-0.983567, 269, 97, 300, 160
-0.983574, 161, 129, 192, 256
-0.983605, 233, 1, 296, 128
-0.983725, 161, 313, 224, 375
-0.983776, 241, 249, 368, 312
-0.983794, 53, 161, 84, 288
-0.983796, 89, 129, 152, 375
-0.983826, 1, 193, 128, 256
-0.983841, 81, 113, 112, 240
-0.983893, 373, 161, 404, 224
-0.983923, 17, 273, 144, 336
-0.983936, 329, 281, 360, 344
-0.983994, 265, 129, 328, 375
-0.984048, 369, 177, 432, 304
-0.984049, 337, 113, 464, 176
-0.984142, 49, 129, 112, 375
-0.984142, 453, 49, 484, 176
-0.984159, 309, 129, 340, 256
-0.984178, 293, 81, 324, 208
-0.98418, 441, 57, 472, 120
-0.984212, 233, 105, 264, 168
-0.984216, 405, 65, 436, 128
-0.984251, 333, 121, 364, 184
-0.984257, 337, 257, 464, 320
-0.984327, 377, 1, 408, 64
-0.984357, 17, 81, 48, 144
-0.984365, 233, 305, 264, 368
-0.984412, 137, 97, 200, 352
-0.984419, 361, 241, 392, 368
-0.984486, 77, 185, 108, 248
-0.984545, 393, 1, 456, 375
-0.984546, 289, 209, 320, 272
-0.984558, 241, 17, 272, 80
-0.984624, 305, 1, 368, 375
-0.984642, 249, 297, 280, 360
-0.98467, 365, 121, 396, 184
-0.984687, 29, 297, 60, 360
-0.984722, 201, 129, 264, 375
-0.984787, 5, 313, 36, 375
-0.984791, 289, 225, 416, 288
-0.984845, 277, 193, 308, 320
-0.984875, 37, 97, 68, 160
-0.984947, 129, 241, 256, 304
-0.985026, 21, 105, 52, 168
-0.985089, 53, 185, 84, 248
-0.985172, 1, 169, 128, 232
-0.985285, 373, 193, 404, 320
-0.985302, 361, 185, 392, 248
-0.985303, 129, 209, 256, 272
-0.985362, 425, 89, 456, 152
-0.985375, 409, 97, 440, 160
-0.985452, 209, 225, 240, 288
-0.985453, 233, 73, 264, 136
-0.985471, 241, 177, 368, 240
-0.985482, 141, 49, 172, 176
-0.985551, 349, 177, 380, 240
-0.985569, 109, 233, 140, 296
-0.985588, 461, 1, 492, 64
-0.985596, 65, 57, 96, 120
-0.985648, 357, 193, 388, 320
-0.985672, 73, 161, 104, 288
-0.985714, 49, 1, 112, 375
-0.985737, 401, 193, 464, 320
-0.985781, 353, 113, 384, 240
-0.985785, 61, 49, 92, 176
-0.985817, 377, 113, 408, 240
-0.9859, 417, 305, 448, 368
-0.985908, 293, 281, 324, 344
-0.985984, 297, 41, 328, 104
-0.986128, 333, 257, 364, 320
-0.986218, 377, 273, 408, 336
-0.986289, 269, 241, 300, 368
-0.986304, 237, 1, 268, 128
-0.986324, 257, 105, 288, 168
-0.986388, 65, 121, 96, 184
-0.986429, 313, 281, 344, 344
-0.986469, 289, 177, 320, 304
-0.986501, 69, 97, 100, 224
-0.986546, 285, 9, 316, 72
-0.986574, 145, 289, 272, 352
-0.986616, 297, 129, 328, 256
-0.986621, 125, 97, 156, 224
-0.986646, 85, 49, 116, 176
-0.986661, 393, 81, 424, 208
-0.986681, 153, 1, 216, 375
-0.986702, 193, 249, 320, 312
-0.986713, 145, 113, 176, 240
-0.986815, 281, 241, 312, 368
-0.986816, 233, 81, 264, 208
-0.986909, 305, 177, 336, 304
-0.986922, 161, 129, 224, 375
-0.98697, 33, 137, 160, 200
-0.987038, 289, 145, 416, 208
-0.987125, 165, 49, 196, 176
-0.987232, 225, 129, 288, 375
-0.987391, 49, 225, 176, 288
-0.987402, 389, 241, 420, 368
-0.987486, 425, 97, 488, 352
-0.987534, 409, 241, 440, 368
-0.987606, 281, 97, 312, 224
-0.987875, 101, 209, 132, 336
-0.98797, 337, 169, 464, 232
-0.987974, 85, 177, 116, 304
-0.98809, 225, 25, 480, 88
-0.988133, 369, 41, 432, 72
-0.988161, 153, 209, 184, 336
-0.988228, 1, 17, 32, 144
-0.988409, 25, 1, 88, 375
-0.988493, 385, 29, 448, 60
-0.988512, 17, 97, 48, 224
-0.988548, 121, 1, 184, 32
-0.988574, 385, 97, 448, 352
-0.988582, 193, 1, 256, 256
-0.988609, 121, 25, 184, 56
-0.988622, 369, 53, 432, 84
-0.988645, 281, 1, 344, 375
-0.988669, 1, 25, 500, 88
-0.988713, 337, 285, 400, 316
-0.988719, 93, 97, 124, 224
-0.988744, 329, 21, 392, 52
-0.988762, 345, 57, 408, 88
-0.988787, 253, 241, 284, 368
-0.988844, 305, 29, 368, 60
-0.98887, 65, 273, 192, 336
-0.988894, 241, 1, 304, 375
-0.988996, 449, 193, 480, 320
-0.989051, 297, 233, 360, 264
-0.989059, 65, 17, 128, 48
-0.98906, 145, 13, 208, 44
-0.989076, 297, 317, 360, 348
-0.989118, 73, 5, 136, 36
-0.989146, 37, 225, 68, 352
-0.989153, 145, 145, 272, 208
-0.989157, 345, 45, 408, 76
-0.989172, 81, 177, 208, 240
-0.989193, 425, 341, 488, 372
-0.989258, 129, 33, 384, 96
-0.989311, 17, 49, 48, 176
-0.989343, 305, 69, 368, 100
-0.989344, 369, 297, 432, 328
-0.98936, 109, 97, 140, 224
-0.989374, 409, 1, 472, 32
-0.989377, 385, 69, 448, 100
-0.98939, 425, 73, 488, 104
-0.989408, 145, 265, 272, 328
-0.989412, 257, 1, 500, 64
-0.989418, 241, 153, 368, 216
-0.989422, 329, 125, 392, 156
-0.989433, 385, 5, 448, 36
-0.989442, 1, 1, 64, 375
-0.98946, 377, 241, 408, 368
-0.989468, 401, 49, 464, 80
-0.989477, 409, 281, 472, 312
-0.989495, 393, 17, 456, 48
-0.989512, 321, 305, 384, 336
-0.989526, 289, 213, 352, 244
-0.989651, 433, 273, 496, 304
-0.989683, 81, 29, 144, 60
-0.989683, 297, 293, 360, 324
-0.989703, 129, 1, 384, 64
-0.989742, 329, 33, 392, 64
-0.989772, 409, 61, 472, 92
-0.989781, 273, 329, 336, 360
-0.989789, 257, 289, 500, 352
-0.989804, 361, 29, 424, 60
-0.989836, 317, 225, 348, 352
-0.989836, 105, 13, 168, 44
-0.989839, 189, 1, 220, 128
-0.989844, 305, 49, 368, 80
-0.989871, 145, 1, 208, 32
-0.989879, 233, 341, 296, 372
-0.989884, 321, 333, 384, 364
-0.98998, 329, 189, 392, 220
-0.989996, 401, 105, 464, 136
-0.989997, 97, 313, 224, 375
-0.990014, 273, 305, 336, 336
-0.990031, 1, 1, 500, 64
-0.99004, 313, 9, 376, 40
-0.990042, 249, 293, 312, 324
-0.990046, 425, 81, 456, 208
-0.990076, 65, 209, 96, 336
-0.990093, 193, 325, 256, 356
-0.990093, 289, 281, 352, 312
-0.990101, 97, 145, 128, 272
-0.990116, 89, 41, 152, 72
-0.990137, 345, 77, 408, 108
-0.990137, 425, 85, 488, 116
-0.990138, 25, 241, 56, 368
-0.990138, 361, 13, 424, 44
-0.990145, 137, 37, 200, 68
-0.990163, 97, 1, 160, 32
-0.990202, 225, 57, 480, 120
-0.990231, 297, 197, 360, 228
-0.990262, 221, 49, 252, 176
-0.990292, 217, 1, 280, 375
-0.990348, 41, 41, 104, 72
-0.990356, 261, 1, 292, 128
-0.990371, 281, 121, 344, 152
-0.990374, 297, 305, 360, 336
-0.990394, 81, 53, 144, 84
-0.990422, 425, 17, 488, 48
-0.990459, 305, 129, 368, 160
-0.990459, 225, 313, 480, 375
-0.990476, 5, 81, 36, 208
-0.990499, 361, 1, 424, 32
-0.9905, 273, 229, 336, 260
-0.990503, 97, 89, 352, 152
-0.990532, 417, 29, 480, 60
-0.990554, 297, 345, 360, 375
-0.990609, 249, 1, 312, 32
-0.99064, 361, 89, 424, 120
-0.990659, 213, 209, 244, 336
-0.990674, 401, 305, 464, 336
-0.990677, 241, 125, 304, 156
-0.990687, 329, 201, 392, 232
-0.990743, 297, 89, 360, 120
-0.990744, 433, 297, 496, 328
-0.990751, 353, 317, 416, 348
-0.990753, 17, 109, 80, 140
-0.990757, 273, 9, 336, 40
-0.990758, 329, 221, 392, 252
-0.990766, 9, 329, 72, 360
-0.990768, 177, 1, 240, 32
-0.990788, 353, 117, 416, 148
-0.990803, 225, 309, 288, 340
-0.990809, 49, 197, 112, 228
-0.990814, 9, 313, 72, 344
-0.990865, 113, 129, 176, 160
-0.990889, 233, 321, 296, 352
-0.990897, 393, 345, 456, 375
-0.990916, 425, 97, 488, 128
-0.990923, 81, 81, 144, 112
-0.990942, 113, 225, 144, 352
-0.990949, 425, 49, 488, 80
-0.990967, 401, 293, 464, 324
-0.990971, 329, 137, 392, 168
-0.990995, 305, 105, 368, 136
-0.991, 73, 69, 136, 100
-0.991012, 165, 209, 196, 336
-0.991013, 353, 193, 480, 256
-0.99103, 161, 185, 288, 248
-0.991033, 73, 117, 136, 148
-0.991034, 89, 225, 120, 352
-0.991035, 1, 49, 256, 112
-0.991054, 353, 193, 416, 224
-0.99107, 257, 113, 500, 176
-0.991071, 161, 217, 416, 280
-0.991082, 321, 321, 384, 352
-0.991085, 145, 209, 208, 240
-0.991088, 121, 57, 184, 88
-0.991093, 209, 337, 272, 368
-0.99111, 241, 105, 304, 136
-0.991133, 177, 1, 240, 375
-0.99114, 49, 1, 112, 32
-0.991147, 49, 241, 80, 368
-0.991149, 193, 233, 256, 264
-0.991153, 433, 121, 496, 152
-0.991159, 345, 177, 408, 208
-0.991168, 113, 69, 176, 100
-0.991196, 265, 81, 296, 208
-0.991202, 25, 301, 88, 332
-0.991228, 305, 181, 368, 212
-0.991232, 337, 145, 464, 208
-0.991243, 401, 81, 464, 112
-0.99125, 9, 257, 72, 288
-0.991257, 289, 25, 416, 56
-0.991285, 49, 209, 112, 240
-0.991286, 33, 9, 288, 72
-0.991289, 97, 101, 160, 132
-0.991296, 65, 225, 128, 256
-0.991302, 433, 1, 496, 32
-0.991304, 177, 29, 240, 60
-0.991306, 153, 221, 216, 252
-0.991319, 329, 113, 392, 144
-0.99134, 401, 93, 464, 124
-0.991341, 337, 233, 464, 296
-0.991342, 265, 89, 328, 120
-0.991359, 1, 1, 64, 32
-0.991365, 269, 129, 300, 256
-0.991373, 257, 33, 320, 64
-0.991387, 185, 345, 248, 375
-0.99139, 361, 105, 424, 136
-0.991397, 113, 117, 176, 148
-0.9914, 49, 185, 112, 216
-0.991441, 145, 25, 208, 56
-0.991448, 81, 245, 144, 276
-0.99145, 377, 189, 440, 220
-0.991457, 137, 113, 200, 144
-0.991478, 257, 317, 320, 348
-0.991486, 265, 109, 328, 140
-0.991493, 329, 97, 392, 128
-0.9915, 33, 125, 96, 156
-0.991567, 13, 193, 44, 320
-0.991717, 273, 1, 304, 128
-0.991722, 229, 129, 260, 256
-0.991756, 1, 105, 256, 168
-0.991762, 197, 225, 228, 352
-0.991796, 141, 241, 172, 368
-0.99183, 129, 297, 384, 360
-0.991841, 65, 249, 192, 312
-0.991903, 101, 49, 132, 176
-0.991947, 1, 49, 500, 112
-0.992001, 257, 81, 500, 144
-0.992015, 1, 137, 500, 200
-0.992026, 377, 37, 408, 68
-0.99207, 41, 113, 72, 240
-0.992078, 93, 13, 124, 44
-0.992119, 357, 57, 388, 88
-0.992125, 97, 57, 352, 120
-0.99213, 209, 129, 240, 256
-0.992148, 321, 21, 352, 52
-0.992182, 393, 89, 424, 120
-0.992183, 413, 53, 444, 84
-0.992193, 125, 21, 156, 52
-0.992225, 393, 29, 424, 60
-0.992227, 77, 5, 108, 36
-0.99225, 81, 1, 208, 32
-0.992259, 377, 49, 408, 80
-0.992284, 357, 21, 388, 52
-0.99229, 165, 1, 196, 32
-0.992314, 393, 57, 424, 88
-0.992352, 469, 193, 500, 320
-0.992391, 153, 1, 184, 32
-0.992401, 405, 41, 436, 72
-0.992404, 77, 17, 108, 48
-0.992408, 133, 1, 164, 32
-0.992411, 377, 81, 408, 112
-0.992416, 309, 309, 340, 340
-0.992433, 49, 21, 176, 52
-0.992445, 113, 5, 144, 36
-0.992446, 17, 1, 48, 128
-0.992451, 165, 13, 196, 44
-0.992456, 341, 57, 372, 88
-0.992457, 81, 1, 96, 64
-0.992459, 49, 297, 176, 360
-0.992471, 57, 113, 88, 240
-0.992477, 357, 117, 388, 148
-0.992477, 437, 1, 468, 32
-0.992497, 177, 49, 208, 176
-0.992502, 77, 41, 108, 72
-0.992504, 89, 1, 120, 32
-0.992507, 417, 1, 448, 32
-0.992512, 281, 293, 312, 324
-0.992518, 1, 249, 500, 312
-0.992522, 141, 17, 172, 48
-0.992523, 305, 301, 432, 332
-0.992528, 129, 61, 160, 92
-0.992535, 329, 313, 360, 344
-0.992551, 77, 29, 108, 60
-0.992554, 389, 77, 420, 108
-0.992555, 361, 285, 392, 316
-0.992557, 297, 313, 328, 344
-0.992557, 89, 25, 120, 56
-0.992566, 177, 5, 208, 36
-0.992581, 429, 37, 460, 68
-0.992586, 381, 25, 412, 56
-0.992596, 83, 33, 98, 96
-0.9926, 373, 69, 404, 100
-0.992604, 425, 49, 456, 80
-0.992609, 373, 181, 404, 212
-0.99261, 381, 33, 396, 96
-0.99261, 333, 341, 364, 372
-0.992613, 237, 337, 268, 368
-0.992615, 389, 129, 420, 256
-0.992619, 165, 37, 196, 68
-0.992622, 433, 13, 464, 44
-0.992626, 213, 317, 244, 348
-0.992633, 341, 125, 372, 156
-0.992638, 341, 45, 372, 76
-0.992644, 345, 21, 376, 52
-0.992649, 457, 73, 488, 104
-0.992651, 393, 41, 424, 72
-0.992661, 317, 121, 348, 152
-0.992667, 333, 29, 364, 60
-0.992671, 377, 109, 408, 140
-0.992675, 409, 25, 440, 56
-0.992682, 457, 85, 488, 116
-0.992686, 349, 281, 380, 312
-0.992686, 1, 73, 256, 136
-0.992688, 325, 301, 356, 332
-0.992689, 349, 193, 380, 224
-0.99269, 329, 125, 360, 156
-0.992696, 333, 9, 364, 40
-0.992698, 21, 313, 52, 344
-0.9927, 421, 65, 452, 96
-0.992701, 1, 281, 256, 344
-0.992703, 101, 1, 132, 32
-0.992705, 381, 301, 412, 332
-0.992709, 395, 49, 410, 112
-0.992711, 77, 53, 108, 84
-0.992714, 345, 297, 376, 328
-0.992715, 125, 109, 156, 140
-0.992716, 337, 201, 368, 232
-0.992718, 1, 313, 256, 375
-0.992721, 461, 293, 492, 324
-0.992722, 321, 345, 352, 375
-0.992722, 397, 293, 428, 324
-0.992726, 441, 281, 472, 312
-0.99273, 373, 97, 404, 128
-0.992737, 465, 273, 496, 304
-0.992737, 345, 329, 376, 360
-0.992739, 417, 289, 448, 320
-0.992744, 313, 69, 344, 100
-0.992756, 225, 317, 256, 348
-0.992763, 425, 25, 456, 56
-0.992764, 357, 85, 388, 116
-0.992764, 17, 293, 48, 324
-0.992766, 333, 69, 364, 100
-0.992767, 109, 77, 140, 108
-0.992772, 157, 209, 188, 240
-0.992778, 429, 285, 460, 316
-0.992778, 301, 101, 332, 132
-0.992782, 153, 13, 184, 44
-0.992782, 177, 21, 208, 52
-0.992787, 309, 233, 340, 264
-0.992788, 453, 277, 484, 308
-0.992793, 309, 321, 340, 352
-0.992797, 429, 345, 460, 375
-0.992798, 357, 45, 388, 76
-0.992798, 1, 1, 32, 32
-0.992813, 333, 181, 364, 212
-0.992814, 245, 109, 276, 140
-0.992818, 105, 25, 136, 56
-0.992824, 21, 109, 52, 140
-0.992828, 81, 97, 112, 128
-0.992828, 405, 313, 436, 344
-0.99283, 65, 41, 96, 72
-0.992834, 437, 301, 468, 332
-0.99284, 253, 53, 284, 84
-0.992848, 449, 337, 480, 368
-0.992851, 337, 221, 368, 252
-0.992854, 81, 65, 112, 96
-0.992856, 61, 109, 92, 140
-0.992857, 441, 65, 472, 96
-0.99286, 285, 221, 316, 252
-0.992861, 197, 345, 228, 375
-0.992862, 309, 33, 340, 64
-0.992862, 369, 121, 400, 152
-0.992866, 413, 13, 444, 44
-0.992867, 317, 213, 348, 244
-0.992873, 345, 309, 376, 340
-0.992874, 165, 25, 196, 56
-0.992877, 321, 229, 352, 260
-0.99288, 401, 5, 432, 36
-0.992883, 121, 121, 152, 152
-0.992884, 133, 33, 164, 64
-0.992884, 249, 329, 280, 360
-0.992889, 445, 105, 476, 136
-0.992889, 145, 29, 176, 60
-0.992891, 389, 105, 420, 136
-0.992892, 357, 9, 388, 40
-0.992897, 277, 333, 308, 364
-0.992899, 293, 301, 324, 332
-0.992901, 469, 61, 500, 92
-0.992907, 391, 25, 406, 88
-0.993029, 429, 193, 460, 320
-0.993033, 181, 1, 196, 64
-0.993136, 173, 129, 204, 256
-0.993194, 1, 297, 500, 360
-0.993207, 289, 37, 416, 68
-0.993231, 353, 5, 480, 36
-0.993244, 229, 241, 260, 368
-0.993304, 129, 193, 384, 256
-0.993312, 397, 25, 412, 88
-0.993329, 321, 57, 448, 88
-0.993387, 357, 17, 372, 80
-0.993403, 369, 17, 384, 80
-0.993416, 1, 145, 32, 272
-0.993441, 273, 289, 400, 320
-0.993489, 225, 265, 480, 328
-0.993509, 65, 33, 192, 64
-0.99352, 389, 49, 404, 112
-0.993529, 141, 193, 172, 320
-0.993564, 369, 17, 496, 48
-0.99364, 1, 97, 500, 160
-0.993645, 125, 209, 156, 336
-0.993647, 185, 193, 216, 320
-0.993648, 405, 25, 420, 88
-0.993664, 77, 225, 108, 352
-0.993671, 351, 17, 366, 80
-0.993676, 241, 241, 272, 368
-0.993743, 337, 45, 464, 76
-0.993766, 91, 1, 106, 64
-0.993767, 313, 33, 328, 96
-0.993768, 257, 201, 500, 264
-0.993787, 431, 25, 446, 88
-0.993857, 209, 309, 336, 340
-0.993871, 405, 57, 420, 120
-0.993903, 81, 153, 208, 216
-0.99395, 345, 25, 360, 88
-0.993969, 1, 273, 500, 336
-0.993974, 193, 137, 448, 200
-0.993979, 187, 1, 202, 64
-0.994009, 305, 317, 432, 348
-0.994035, 161, 113, 416, 176
-0.994038, 297, 289, 312, 352
-0.994039, 49, 45, 176, 76
-0.994042, 337, 289, 464, 320
-0.994052, 133, 17, 148, 80
-0.99409, 257, 325, 384, 356
-0.994101, 349, 281, 364, 344
-0.99412, 97, 1, 112, 64
-0.994134, 449, 273, 464, 336
-0.994179, 425, 129, 488, 256
-0.994193, 325, 1, 340, 64
-0.994193, 485, 265, 500, 328
-0.994195, 425, 281, 440, 344
-0.994225, 91, 25, 106, 88
-0.994244, 179, 25, 194, 88
-0.994246, 425, 25, 440, 88
-0.994257, 443, 33, 458, 96
-0.994267, 247, 105, 262, 168
-0.994296, 87, 57, 102, 120
-0.994299, 1, 81, 128, 112
-0.994334, 149, 1, 164, 64
-0.994334, 173, 1, 188, 64
-0.994349, 1, 209, 256, 272
-0.994352, 347, 49, 362, 112
-0.994355, 449, 1, 464, 64
-0.994377, 407, 1, 422, 64
-0.994384, 363, 17, 378, 80
-0.994417, 1, 73, 500, 136
-0.994418, 241, 45, 368, 76
-0.994419, 307, 49, 322, 112
-0.994423, 27, 289, 42, 352
-0.994448, 97, 21, 224, 52
-0.994451, 257, 241, 500, 304
-0.994484, 375, 17, 390, 80
-0.994487, 337, 25, 352, 88
-0.994505, 331, 305, 346, 368
-0.994507, 341, 185, 356, 248
-0.99452, 251, 73, 266, 136
-0.994521, 397, 81, 412, 144
-0.994523, 353, 309, 480, 340
-0.994528, 403, 289, 418, 352
-0.994548, 257, 229, 384, 260
-0.994568, 471, 265, 486, 328
-0.994576, 411, 289, 426, 352
-0.994615, 49, 61, 176, 92
-0.994615, 469, 65, 484, 128
-0.994617, 1, 45, 128, 76
-0.994623, 227, 313, 242, 375
-0.994631, 459, 273, 474, 336
-0.994638, 375, 49, 390, 112
-0.994639, 307, 73, 322, 136
-0.99464, 115, 1, 130, 64
-0.994653, 1, 249, 256, 312
-0.994658, 433, 1, 448, 64
-0.99466, 303, 297, 318, 360
-0.994681, 127, 1, 142, 64
-0.994687, 401, 1, 416, 64
-0.994696, 379, 89, 394, 152
-0.994703, 129, 117, 256, 148
-0.994707, 165, 1, 180, 64
-0.994713, 49, 101, 176, 132
-0.994724, 133, 49, 148, 112
-0.994727, 297, 97, 312, 160
-0.99477, 255, 49, 270, 112
-0.99479, 305, 341, 432, 372
-0.994792, 1, 225, 500, 288
-0.994801, 33, 129, 288, 192
-0.994822, 209, 125, 336, 156
-0.994852, 419, 281, 434, 344
-0.994854, 435, 57, 450, 120
-0.994864, 77, 33, 92, 96
-0.994867, 273, 57, 400, 88
-0.994874, 241, 17, 368, 48
-0.994884, 439, 281, 454, 344
-0.994892, 385, 169, 400, 232
-0.994896, 391, 73, 406, 136
-0.994906, 303, 97, 318, 160
-0.994926, 1, 5, 128, 36
-0.994944, 479, 265, 494, 328
-0.994974, 241, 337, 368, 368
-0.994978, 425, 1, 440, 64
-0.994987, 193, 153, 320, 216
-0.994992, 77, 57, 92, 120
-0.994999, 255, 25, 270, 88
-0.995045, 431, 281, 446, 344
-0.995055, 339, 49, 354, 112
-0.995067, 1, 21, 128, 52
-0.995084, 289, 13, 416, 44
-0.995085, 241, 33, 368, 64
-0.995088, 225, 293, 352, 324
-0.995107, 443, 1, 458, 64
-0.995126, 97, 45, 224, 76
-0.995129, 33, 297, 48, 360
-0.995152, 309, 305, 324, 368
-0.995153, 155, 1, 170, 64
-0.995154, 143, 1, 158, 64
-0.995155, 337, 305, 352, 368
-0.99517, 105, 1, 120, 64
-0.995188, 209, 113, 336, 144
-0.995194, 257, 305, 384, 336
-0.995195, 1, 33, 128, 64
-0.995195, 485, 81, 500, 144
-0.995198, 355, 281, 370, 344
-0.995205, 319, 17, 334, 80
-0.995207, 209, 233, 336, 264
-0.995216, 49, 117, 176, 148
-0.995218, 331, 17, 346, 80
-0.99523, 125, 33, 140, 96
-0.995254, 273, 209, 400, 240
-0.995254, 369, 49, 384, 112
-0.995267, 353, 337, 480, 368
-0.995274, 329, 193, 344, 256
-0.995289, 337, 29, 464, 60
-0.995304, 369, 105, 496, 136
-0.995305, 161, 29, 288, 60
-0.995317, 225, 57, 352, 88
-0.995322, 177, 325, 304, 356
-0.995337, 1, 261, 128, 292
-0.995341, 371, 121, 386, 184
-0.995361, 97, 73, 224, 104
-0.995372, 113, 33, 240, 64
-0.995377, 341, 1, 356, 64
-0.995382, 209, 221, 336, 252
-0.995384, 145, 13, 272, 44
-0.995391, 273, 197, 400, 228
-0.995405, 289, 1, 416, 32
-0.995406, 357, 49, 372, 112
-0.995409, 1, 57, 128, 88
-0.995419, 349, 73, 364, 136
-0.99542, 437, 33, 452, 96
-0.995428, 337, 89, 464, 120
-0.995428, 417, 41, 432, 104
-0.995434, 139, 25, 154, 88
-0.995478, 161, 241, 416, 304
-0.995487, 77, 105, 92, 168
-0.99549, 397, 289, 412, 352
-0.995494, 1, 69, 128, 100
-0.995515, 1, 309, 128, 340
-0.995521, 371, 281, 386, 344
-0.995523, 345, 97, 360, 160
-0.995524, 289, 113, 304, 176
-0.995528, 97, 61, 224, 92
-0.995535, 19, 273, 34, 336
-0.995553, 475, 89, 490, 152
-0.99556, 451, 81, 466, 144
-0.995575, 291, 289, 306, 352
-0.995583, 305, 185, 432, 216
-0.995585, 257, 277, 384, 308
-0.995593, 343, 209, 358, 272
-0.995596, 253, 97, 268, 160
-0.995603, 335, 201, 350, 264
-0.995614, 349, 193, 364, 256
-0.995617, 1, 105, 128, 136
-0.995632, 369, 77, 496, 108
-0.995635, 383, 65, 398, 128
-0.995642, 129, 89, 144, 152
-0.995644, 1, 125, 128, 156
-0.995645, 451, 25, 466, 88
-0.995654, 193, 345, 320, 375
-0.99566, 97, 129, 224, 160
-0.995668, 1, 281, 128, 312
-0.995669, 233, 305, 248, 368
-0.995685, 213, 313, 228, 375
-0.995703, 373, 97, 388, 160
-0.995712, 289, 81, 416, 112
-0.99572, 241, 245, 368, 276
-0.995736, 317, 65, 332, 128
-0.995737, 141, 105, 156, 168
-0.995738, 81, 213, 208, 244
-0.995739, 321, 197, 448, 228
-0.995741, 427, 49, 442, 112
-0.995745, 257, 105, 384, 136
-0.99575, 147, 25, 162, 88
-0.995754, 373, 73, 388, 136
-0.995776, 163, 201, 178, 264
-0.995788, 161, 101, 288, 132
-0.995789, 385, 1, 416, 256
-0.995795, 419, 1, 434, 64
-0.995795, 357, 105, 372, 168
-0.995795, 97, 273, 352, 336
-0.995795, 129, 1, 256, 32
-0.99581, 257, 177, 500, 240
-0.99582, 381, 297, 396, 360
-0.99582, 355, 185, 370, 248
-0.995821, 121, 1, 136, 64
-0.995829, 369, 277, 496, 308
-0.995844, 193, 41, 320, 72
-0.995848, 221, 313, 236, 375
-0.995851, 437, 81, 452, 144
-0.995863, 161, 129, 288, 160
-0.995874, 49, 73, 176, 104
-0.995933, 289, 121, 416, 152
-0.995942, 373, 1, 404, 256
-0.99596, 357, 1, 388, 256
-0.99597, 161, 169, 416, 232
-0.995996, 161, 73, 288, 104
-0.996065, 65, 85, 192, 116
-0.996065, 225, 89, 352, 120
-0.996106, 1, 185, 256, 248
-0.996113, 353, 325, 480, 356
-0.996122, 321, 129, 352, 375
-0.996151, 209, 101, 336, 132
-0.996172, 289, 241, 416, 272
-0.996174, 225, 69, 352, 100
-0.996197, 177, 1, 304, 32
-0.996203, 1, 93, 128, 124
-0.996291, 81, 201, 208, 232
-0.996302, 369, 65, 496, 96
-0.99632, 17, 297, 144, 328
-0.996327, 1, 213, 128, 244
-0.99634, 273, 69, 400, 100
-0.996373, 337, 1, 368, 256
-0.996389, 305, 329, 432, 360
-0.996418, 289, 133, 416, 164
-0.99642, 241, 5, 368, 36
-0.996461, 369, 121, 496, 152
-0.99647, 257, 185, 384, 216
-0.996471, 129, 317, 256, 348
-0.996501, 161, 89, 288, 120
-0.996506, 173, 1, 204, 256
-0.996563, 321, 209, 448, 240
-0.996585, 445, 1, 476, 256
-0.996585, 161, 61, 288, 92
-0.996626, 81, 41, 96, 72
-0.996637, 321, 273, 448, 304
-0.996643, 333, 129, 364, 375
-0.996658, 1, 201, 128, 232
-0.996661, 113, 85, 240, 116
-0.996671, 457, 1, 488, 256
-0.996681, 309, 1, 340, 256
-0.996686, 113, 97, 240, 128
-0.996691, 121, 1, 152, 256
-0.996698, 73, 33, 104, 288
-0.996699, 145, 1, 176, 256
-0.996706, 17, 225, 144, 256
-0.996739, 225, 137, 352, 168
-0.99674, 429, 1, 460, 256
-0.996796, 289, 173, 416, 204
-0.996811, 129, 221, 256, 252
-0.996814, 321, 225, 448, 256
-0.996928, 289, 93, 416, 124
-0.996934, 145, 45, 272, 76
-0.996945, 353, 181, 480, 212
-0.996967, 1, 201, 500, 264
-0.996986, 321, 105, 448, 136
-0.996996, 49, 129, 176, 160
-0.996997, 321, 69, 448, 100
-0.997004, 1, 249, 128, 280
-0.997014, 1, 321, 128, 352
-0.997026, 385, 33, 400, 64
-0.997029, 101, 1, 116, 32
-0.997029, 297, 1, 328, 256
-0.997039, 257, 257, 384, 288
-0.997042, 427, 49, 442, 80
-0.997051, 179, 13, 194, 44
-0.997059, 249, 1, 280, 256
-0.997063, 129, 233, 256, 264
-0.997082, 469, 73, 484, 104
-0.99712, 299, 297, 314, 328
-0.99715, 371, 121, 386, 152
-0.997164, 161, 1, 192, 256
-0.997175, 179, 1, 194, 32
-0.997177, 95, 17, 110, 48
-0.997184, 305, 313, 320, 344
-0.997189, 481, 345, 496, 375
-0.997196, 85, 1, 100, 32
-0.997216, 347, 53, 362, 84
-0.997225, 177, 245, 304, 276
-0.997245, 177, 141, 304, 172
-0.997247, 173, 1, 188, 32
-0.997247, 433, 21, 448, 52
-0.997251, 397, 1, 428, 256
-0.997252, 187, 9, 202, 40
-0.997256, 129, 329, 256, 360
-0.997274, 427, 37, 442, 68
-0.997286, 393, 53, 408, 84
-0.997287, 225, 197, 352, 228
-0.997299, 127, 1, 142, 32
-0.997303, 379, 37, 394, 68
-0.997311, 249, 333, 264, 364
-0.997312, 375, 77, 390, 108
-0.997318, 85, 61, 100, 92
-0.99732, 399, 33, 414, 64
-0.997323, 109, 1, 140, 256
-0.997331, 209, 209, 336, 240
-0.997331, 309, 61, 324, 92
-0.997362, 433, 53, 448, 84
-0.997376, 435, 33, 450, 64
-0.997393, 343, 33, 358, 64
-0.997397, 65, 141, 192, 172
-0.997406, 377, 97, 408, 352
-0.997422, 293, 289, 308, 320
-0.997423, 357, 57, 372, 88
-0.997428, 347, 285, 362, 316
-0.99743, 371, 57, 386, 88
-0.997446, 131, 21, 146, 52
-0.997456, 325, 21, 340, 52
-0.997458, 129, 209, 256, 240
-0.997478, 461, 345, 476, 375
-0.997479, 129, 305, 256, 336
-0.997479, 101, 13, 116, 44
-0.99748, 381, 49, 396, 80
-0.997485, 91, 29, 106, 60
-0.997489, 321, 1, 352, 256
-0.99749, 309, 129, 340, 375
-0.997491, 331, 125, 346, 156
-0.9975, 389, 97, 420, 352
-0.9975, 285, 1, 316, 256
-0.997506, 393, 29, 408, 60
-0.997513, 471, 341, 486, 372
-0.99752, 315, 65, 330, 96
-0.997523, 61, 1, 92, 256
-0.997526, 361, 1, 376, 32
-0.99753, 441, 345, 456, 375
-0.997532, 179, 29, 194, 60
-0.997535, 465, 97, 496, 352
-0.997537, 169, 17, 184, 48
-0.997537, 133, 1, 164, 256
-0.99754, 341, 57, 356, 88
-0.997549, 1, 161, 256, 224
-0.99755, 325, 309, 340, 340
-0.997555, 395, 77, 410, 108
-0.997568, 351, 25, 366, 56
-0.99757, 215, 317, 230, 348
-0.997581, 315, 29, 330, 60
-0.997583, 365, 13, 380, 44
-0.997586, 339, 201, 354, 232
-0.997588, 405, 5, 420, 36
-0.99759, 155, 17, 170, 48
-0.997602, 121, 21, 136, 52
-0.997603, 451, 341, 466, 372
-0.997604, 141, 113, 156, 144
-0.997606, 389, 185, 404, 216
-0.997612, 79, 25, 94, 56
-0.997615, 307, 81, 322, 112
-0.997617, 227, 317, 242, 348
-0.997618, 421, 289, 436, 320
-0.997625, 125, 117, 140, 148
-0.997625, 337, 317, 352, 348
-0.997628, 479, 269, 494, 300
-0.99763, 95, 1, 110, 32
-0.997636, 325, 9, 340, 40
-0.997644, 457, 277, 472, 308
-0.997658, 379, 121, 394, 152
-0.997659, 1, 1, 32, 256
-0.997662, 331, 341, 346, 372
-0.997665, 247, 113, 262, 144
-0.997666, 179, 41, 194, 72
-0.997666, 357, 129, 388, 375
-0.997667, 405, 61, 420, 92
-0.997668, 29, 297, 44, 328
-0.99767, 425, 25, 440, 56
-0.997674, 145, 21, 160, 52
-0.997685, 313, 313, 328, 344
-0.997686, 157, 97, 188, 352
-0.997688, 383, 301, 398, 332
-0.997688, 357, 21, 372, 52
-0.997697, 341, 221, 356, 252
-0.997697, 243, 333, 258, 364
-0.997699, 331, 21, 346, 52
-0.9977, 113, 9, 128, 40
-0.997703, 135, 1, 150, 32
-0.997713, 417, 1, 448, 256
-0.997715, 345, 305, 360, 336
-0.997717, 393, 41, 408, 72
-0.99772, 351, 189, 366, 220
-0.997723, 167, 1, 182, 32
-0.997732, 149, 1, 164, 32
-0.997733, 85, 29, 100, 60
-0.99774, 405, 25, 420, 56
-0.997741, 325, 341, 340, 372
-0.997742, 297, 129, 328, 375
-0.997747, 345, 129, 376, 375
-0.997751, 379, 25, 394, 56
-0.997757, 373, 25, 388, 56
-0.997765, 141, 1, 156, 32
-0.997765, 433, 285, 448, 316
-0.997766, 255, 57, 270, 88
-0.99777, 445, 281, 460, 312
-0.997778, 249, 93, 264, 124
-0.997781, 409, 293, 424, 324
-0.997782, 485, 121, 500, 152
-0.997782, 297, 105, 312, 136
-0.99779, 131, 61, 146, 92
-0.997797, 245, 125, 260, 156
-0.997809, 85, 1, 116, 256
-0.99782, 125, 37, 140, 68
-0.997826, 349, 77, 364, 108
-0.99783, 479, 1, 494, 32
-0.997837, 441, 105, 456, 136
-0.997837, 373, 133, 388, 164
-0.997838, 305, 301, 320, 332
-0.997838, 353, 285, 368, 316
-0.99784, 417, 41, 432, 72
-0.997846, 339, 69, 354, 100
-0.997852, 87, 41, 102, 72
-0.997858, 381, 89, 396, 120
-0.997859, 397, 297, 412, 328
-0.997861, 251, 73, 266, 104
-0.997862, 387, 45, 402, 76
-0.997873, 361, 281, 376, 312
-0.997876, 309, 45, 324, 76
-0.997882, 427, 345, 442, 375
-0.997883, 353, 41, 368, 72
-0.9979, 333, 229, 348, 260
-0.997902, 485, 1, 500, 32
-0.997913, 467, 273, 482, 304
-0.997916, 337, 129, 352, 160
-0.997916, 461, 333, 476, 364
-0.997916, 1, 177, 500, 240
-0.997981, 5, 129, 36, 375
-0.998004, 97, 1, 128, 256
-0.998107, 445, 97, 476, 352
-0.998178, 85, 97, 116, 352
-0.9982, 273, 1, 304, 256
-0.998227, 49, 65, 80, 320
-0.998256, 237, 65, 268, 320
-0.998334, 185, 1, 216, 256
-0.99835, 225, 129, 256, 375
-0.998358, 385, 49, 448, 64
-0.998372, 359, 1, 374, 128
-0.998372, 345, 25, 408, 40
-0.99839, 369, 55, 432, 70
-0.998399, 121, 33, 184, 48
-0.9984, 385, 61, 448, 76
-0.998402, 121, 97, 152, 352
-0.998405, 369, 29, 432, 44
-0.998413, 81, 21, 144, 36
-0.998422, 365, 1, 380, 128
-0.998424, 385, 35, 448, 50
-0.998433, 305, 29, 368, 44
-0.998437, 353, 1, 368, 128
-0.998439, 433, 1, 448, 128
-0.99844, 345, 57, 408, 72
-0.998443, 361, 39, 424, 54
-0.998445, 121, 1, 184, 16
-0.998448, 129, 1, 144, 128
-0.998452, 321, 353, 352, 368
-0.998452, 81, 105, 112, 120
-0.998452, 393, 39, 424, 54
-0.998453, 17, 305, 48, 320
-0.998453, 289, 303, 352, 318
-0.998453, 417, 69, 448, 84
-0.998453, 285, 299, 316, 314
-0.998453, 333, 121, 364, 136
-0.998453, 441, 65, 472, 80
-0.998454, 377, 71, 408, 86
-0.998454, 21, 315, 52, 330
-0.998454, 393, 97, 424, 112
-0.998455, 377, 115, 408, 130
-0.998455, 345, 325, 376, 340
-0.998455, 437, 5, 468, 20
-0.998455, 185, 357, 248, 372
-0.998456, 393, 29, 456, 44
-0.998457, 113, 25, 176, 40
-0.998458, 293, 331, 324, 346
-0.99846, 305, 351, 336, 366
-0.99846, 373, 193, 404, 208
-0.998462, 425, 3, 488, 18
-0.998462, 153, 31, 184, 46
-0.998462, 389, 53, 420, 68
-0.998462, 337, 207, 368, 222
-0.998463, 345, 291, 376, 306
-0.998464, 305, 357, 336, 372
-0.998465, 337, 297, 400, 312
-0.998465, 93, 9, 124, 24
-0.998465, 429, 45, 460, 60
-0.998466, 309, 325, 340, 340
-0.998466, 469, 271, 500, 286
-0.998466, 333, 73, 364, 88
-0.998466, 345, 25, 376, 40
-0.998468, 129, 17, 192, 32
-0.998468, 321, 129, 384, 144
-0.998469, 433, 17, 464, 32
-0.99847, 429, 285, 460, 300
-0.99847, 193, 351, 224, 366
-0.99847, 289, 307, 320, 322
-0.99847, 337, 291, 400, 306
-0.998471, 345, 303, 376, 318
-0.998471, 381, 301, 412, 316
-0.998471, 357, 49, 388, 64
-0.998472, 341, 297, 372, 312
-0.998472, 441, 71, 472, 86
-0.998472, 209, 129, 240, 375
-0.998472, 317, 125, 348, 140
-0.998472, 429, 65, 460, 80
-0.998474, 165, 35, 196, 50
-0.998474, 417, 289, 448, 304
-0.998474, 397, 81, 428, 96
-0.998474, 445, 279, 476, 294
-0.998474, 457, 275, 488, 290
-0.998474, 369, 89, 400, 104
-0.998475, 429, 23, 460, 38
-0.998478, 343, 17, 358, 144
-0.998479, 405, 293, 436, 308
-0.998479, 281, 335, 312, 350
-0.99848, 181, 1, 212, 16
-0.99848, 125, 69, 156, 84
-0.99848, 385, 43, 448, 58
-0.998481, 125, 29, 156, 44
-0.998481, 317, 131, 348, 146
-0.998481, 297, 235, 360, 250
-0.998483, 181, 7, 212, 22
-0.998484, 81, 1, 144, 16
-0.998484, 221, 33, 252, 288
-0.998484, 409, 65, 472, 80
-0.998485, 377, 45, 408, 60
-0.998486, 381, 23, 412, 38
-0.998486, 329, 1, 344, 128
-0.998486, 429, 97, 460, 352
-0.998486, 73, 29, 136, 44
-0.998486, 393, 297, 424, 312
-0.998486, 73, 7, 136, 22
-0.998487, 305, 55, 368, 70
-0.998488, 429, 59, 460, 74
-0.998488, 305, 309, 368, 324
-0.998488, 369, 75, 432, 90
-0.998489, 457, 79, 488, 94
-0.998489, 329, 133, 360, 148
-0.998489, 325, 343, 356, 358
-0.99849, 145, 3, 176, 18
-0.998491, 357, 17, 388, 32
-0.998491, 165, 25, 196, 40
-0.998492, 361, 45, 424, 60
-0.998492, 341, 335, 372, 350
-0.998492, 401, 23, 464, 38
-0.998492, 305, 69, 368, 84
-0.998493, 169, 41, 200, 56
-0.998493, 425, 75, 488, 90
-0.998494, 357, 121, 388, 136
-0.998494, 329, 63, 392, 78
-0.998496, 105, 11, 168, 26
-0.998498, 465, 73, 496, 88
-0.998498, 297, 327, 360, 342
-0.998498, 297, 223, 360, 238
-0.998499, 321, 135, 384, 150
-0.998499, 81, 41, 144, 56
-0.998499, 401, 51, 432, 66
-0.998501, 153, 15, 184, 30
-0.998502, 317, 69, 348, 84
-0.998502, 325, 307, 356, 322
-0.998502, 333, 19, 364, 34
-0.998502, 289, 297, 352, 312
-0.998502, 329, 19, 392, 34
-0.998503, 345, 51, 408, 66
-0.998503, 381, 95, 412, 110
-0.998504, 369, 19, 432, 34
-0.998505, 421, 51, 452, 66
-0.998505, 341, 59, 372, 74
-0.998506, 265, 303, 328, 318
-0.998508, 409, 361, 472, 375
-0.99851, 417, 7, 448, 22
-0.99851, 457, 85, 488, 100
-0.99851, 77, 11, 108, 26
-0.99851, 129, 1, 160, 16
-0.99851, 345, 191, 408, 206
-0.998511, 401, 55, 464, 70
-0.998511, 385, 67, 448, 82
-0.998512, 405, 35, 436, 50
-0.998513, 429, 31, 460, 46
-0.998513, 413, 63, 444, 78
-0.998514, 405, 27, 436, 42
-0.998514, 165, 1, 196, 16
-0.998514, 321, 195, 384, 210
-0.998515, 375, 33, 390, 160
-0.998515, 105, 15, 136, 30
-0.998515, 137, 7, 200, 22
-0.998516, 329, 317, 360, 332
-0.998517, 433, 303, 496, 318
-0.998518, 117, 1, 148, 16
-0.998518, 461, 297, 492, 312
-0.998518, 73, 15, 136, 30
-0.998519, 81, 55, 144, 70
-0.998519, 433, 345, 496, 360
-0.998519, 97, 27, 128, 42
-0.99852, 73, 31, 104, 46
-0.998522, 329, 307, 392, 322
-0.998523, 417, 1, 448, 16
-0.998523, 137, 23, 200, 38
-0.998525, 425, 85, 488, 100
-0.998525, 337, 79, 400, 94
-0.998526, 77, 51, 108, 66
-0.998526, 433, 359, 496, 374
-0.998526, 73, 43, 104, 58
-0.998526, 217, 355, 248, 370
-0.998526, 81, 47, 144, 62
-0.998527, 313, 17, 328, 144
-0.998527, 145, 1, 208, 16
-0.998528, 245, 341, 276, 356
-0.998528, 409, 11, 472, 26
-0.998531, 433, 281, 496, 296
-0.998531, 185, 351, 248, 366
-0.998531, 337, 67, 368, 82
-0.998531, 385, 11, 448, 26
-0.998531, 209, 351, 272, 366
-0.998532, 121, 135, 184, 150
-0.998532, 249, 297, 312, 312
-0.998532, 333, 127, 364, 142
-0.998532, 77, 61, 108, 76
-0.998533, 313, 321, 376, 336
-0.998533, 409, 289, 472, 304
-0.998535, 201, 325, 264, 340
-0.998536, 297, 217, 360, 232
-0.998536, 289, 201, 352, 216
-0.998536, 377, 303, 440, 318
-0.998536, 1, 337, 64, 352
-0.998537, 401, 1, 464, 16
-0.998537, 273, 315, 336, 330
-0.998537, 93, 15, 124, 30
-0.998538, 393, 295, 456, 310
-0.998539, 273, 231, 336, 246
-0.998539, 313, 75, 376, 90
-0.99854, 309, 311, 340, 326
-0.99854, 429, 37, 460, 52
-0.99854, 233, 345, 296, 360
-0.99854, 41, 43, 104, 58
-0.998541, 337, 285, 400, 300
-0.998542, 335, 1, 350, 128
-0.998542, 377, 57, 408, 72
-0.998542, 145, 39, 208, 54
-0.998543, 305, 23, 368, 38
-0.998543, 297, 35, 360, 50
-0.998544, 213, 319, 244, 334
-0.998545, 337, 45, 400, 60
-0.998545, 193, 357, 224, 372
-0.998546, 381, 89, 412, 104
-0.998546, 377, 39, 408, 54
-0.998547, 329, 69, 392, 84
-0.998547, 109, 81, 140, 96
-0.998547, 433, 353, 496, 368
-0.998548, 377, 77, 408, 92
-0.998548, 121, 39, 184, 54
-0.998549, 165, 15, 196, 30
-0.998549, 329, 313, 392, 328
-0.99855, 345, 85, 408, 100
-0.998551, 401, 73, 464, 88
-0.998551, 93, 1, 124, 16
-0.998552, 337, 123, 400, 138
-0.998552, 409, 17, 472, 32
-0.998553, 413, 41, 444, 56
-0.998553, 385, 83, 416, 98
-0.998554, 297, 43, 360, 58
-0.998554, 273, 1, 336, 16
-0.998555, 233, 331, 296, 346
-0.998556, 345, 183, 408, 198
-0.998556, 297, 229, 360, 244
-0.998557, 73, 63, 136, 78
-0.998558, 409, 309, 472, 324
-0.998558, 345, 197, 408, 212
-0.998558, 321, 1, 336, 128
-0.998559, 373, 83, 404, 98
-0.998559, 357, 23, 388, 38
-0.998559, 17, 315, 80, 330
-0.998561, 297, 353, 360, 368
-0.998561, 321, 341, 384, 356
-0.998562, 337, 31, 400, 46
-0.998563, 395, 17, 410, 144
-0.998563, 385, 361, 448, 375
-0.998563, 305, 61, 368, 76
-0.998564, 81, 3, 112, 18
-0.998564, 297, 359, 360, 374
-0.998565, 77, 25, 108, 40
-0.998565, 425, 43, 488, 58
-0.998566, 389, 59, 420, 74
-0.998567, 81, 35, 144, 50
-0.998567, 409, 353, 472, 368
-0.998567, 257, 35, 320, 50
-0.998568, 153, 13, 216, 28
-0.998568, 49, 49, 112, 64
-0.998568, 313, 301, 376, 316
-0.998571, 153, 29, 216, 44
-0.998571, 393, 91, 424, 106
-0.998572, 425, 91, 488, 106
-0.998573, 81, 69, 144, 84
-0.998573, 249, 291, 312, 306
-0.998573, 409, 37, 472, 52
-0.998574, 297, 315, 360, 330
-0.998574, 81, 83, 144, 98
-0.998575, 57, 21, 120, 36
-0.998575, 361, 91, 424, 106
-0.998576, 313, 285, 376, 300
-0.998576, 329, 225, 392, 240
-0.998577, 161, 7, 224, 22
-0.998584, 77, 19, 108, 34
-0.998589, 141, 97, 172, 352
-0.998597, 413, 57, 444, 72
-0.998598, 353, 285, 384, 300
-0.998601, 393, 31, 424, 46
-0.998607, 105, 129, 136, 375
-0.998607, 381, 33, 412, 48
-0.998607, 357, 59, 388, 74
-0.998608, 33, 97, 64, 352
-0.998611, 205, 351, 236, 366
-0.998626, 117, 23, 148, 38
-0.998631, 321, 25, 352, 40
-0.998643, 377, 51, 408, 66
-0.998644, 169, 9, 200, 24
-0.998676, 405, 1, 420, 128
-0.998678, 119, 1, 134, 128
-0.998691, 357, 49, 372, 176
-0.998696, 427, 33, 442, 160
-0.998705, 277, 129, 308, 375
-0.998707, 443, 33, 458, 160
-0.998711, 135, 1, 150, 128
-0.998717, 93, 21, 124, 36
-0.998718, 369, 49, 384, 176
-0.998723, 61, 97, 92, 352
-0.998731, 87, 17, 102, 144
-0.998742, 95, 1, 110, 128
-0.998744, 307, 49, 322, 176
-0.998751, 169, 97, 200, 352
-0.998756, 351, 49, 366, 176
-0.998758, 179, 1, 194, 128
-0.998772, 383, 17, 398, 144
-0.998788, 389, 33, 404, 160
-0.998809, 253, 49, 268, 176
-0.998818, 433, 49, 448, 176
-0.998826, 261, 1, 292, 256
-0.998829, 319, 49, 334, 176
-0.99883, 421, 33, 436, 160
-0.998834, 143, 1, 158, 128
-0.998844, 335, 49, 350, 176
-0.998861, 329, 49, 344, 176
-0.998875, 73, 129, 104, 375
-0.998877, 255, 1, 270, 128
-0.998884, 363, 49, 378, 176
-0.998889, 247, 81, 262, 208
-0.998895, 485, 49, 500, 176
-0.998907, 405, 97, 436, 352
-0.998917, 149, 1, 164, 128
-0.998922, 383, 65, 398, 192
-0.998926, 469, 65, 484, 192
-0.998939, 377, 113, 392, 240
-0.998947, 341, 65, 356, 192
-0.99895, 471, 241, 486, 368
-0.99896, 129, 49, 144, 176
-0.998962, 485, 241, 500, 368
-0.998966, 339, 129, 354, 256
-0.998969, 469, 1, 500, 256
-0.998971, 447, 241, 462, 368
-0.998991, 351, 193, 366, 320
-0.999007, 17, 1, 48, 256
-0.999015, 81, 1, 96, 128
-0.999019, 303, 225, 318, 352
-0.999025, 461, 1, 476, 128
-0.999032, 3, 241, 18, 368
-0.999038, 185, 1, 200, 128
-0.999042, 111, 1, 126, 128
-0.999042, 371, 113, 386, 240
-0.999045, 325, 129, 340, 256
-0.999047, 139, 49, 154, 176
-0.999049, 333, 145, 348, 272
-0.999061, 401, 49, 416, 176
-0.999063, 75, 17, 90, 144
-0.99907, 451, 33, 466, 160
-0.999073, 441, 241, 456, 368
-0.999074, 159, 1, 174, 128
-0.999077, 457, 241, 472, 368
-0.999079, 477, 241, 492, 368
-0.999093, 481, 1, 496, 128
-0.999097, 337, 225, 352, 352
-0.9991, 475, 65, 490, 192
-0.999115, 349, 241, 364, 368
-0.999123, 163, 129, 178, 256
-0.999126, 357, 97, 372, 224
-0.999126, 331, 209, 346, 336
-0.999138, 299, 1, 314, 128
-0.999143, 9, 241, 24, 368
-0.999146, 475, 1, 490, 128
-0.999151, 181, 129, 212, 375
-0.999155, 415, 1, 430, 128
-0.999157, 383, 113, 398, 240
-0.999158, 287, 1, 302, 128
-0.999159, 345, 193, 360, 320
-0.999169, 351, 145, 366, 272
-0.999169, 407, 49, 422, 176
-0.999173, 25, 241, 40, 368
-0.99918, 173, 1, 188, 128
-0.999181, 191, 1, 206, 128
-0.999185, 197, 129, 228, 375
-0.999186, 167, 1, 182, 128
-0.999186, 295, 193, 310, 320
-0.999189, 363, 241, 378, 368
-0.999196, 331, 97, 346, 224
-0.999199, 1, 1, 16, 128
-0.999199, 309, 241, 324, 368
-0.9992, 105, 1, 120, 128
-0.999208, 325, 177, 340, 304
-0.999211, 307, 1, 322, 128
-0.999214, 301, 49, 316, 176
-0.999215, 261, 1, 276, 128
-0.999216, 481, 113, 496, 240
-0.99922, 63, 161, 78, 288
-0.999228, 79, 65, 94, 192
-0.999229, 463, 241, 478, 368
-0.999232, 355, 241, 370, 368
-0.999232, 87, 65, 102, 192
-0.999233, 15, 241, 30, 368
-0.999233, 357, 193, 372, 320
-0.99924, 293, 1, 308, 128
-0.999244, 351, 97, 366, 224
-0.99925, 95, 97, 110, 224
-0.999253, 313, 65, 328, 192
-0.999255, 417, 97, 448, 352
-0.999258, 469, 1, 484, 128
-0.999267, 123, 65, 138, 192
-0.999285, 11, 17, 26, 144
-0.999299, 271, 241, 286, 368
-0.9993, 91, 177, 106, 304
-0.999315, 463, 65, 478, 192
-0.999316, 297, 241, 312, 368
-0.999321, 289, 193, 304, 320
-0.999323, 313, 177, 328, 304
-0.999325, 21, 49, 36, 176
-0.999327, 31, 241, 46, 368
-0.999328, 379, 241, 394, 368
-0.99933, 145, 49, 160, 176
-0.999331, 55, 177, 70, 304
-0.999333, 343, 241, 358, 368
-0.999335, 365, 113, 380, 240
-0.999337, 413, 49, 428, 176
-0.999337, 435, 225, 450, 352
-0.999343, 403, 241, 418, 368
-0.999345, 97, 193, 112, 320
-0.999351, 319, 209, 334, 336
-0.999352, 167, 81, 182, 208
-0.999353, 297, 97, 312, 224
-0.999371, 209, 1, 240, 256
-0.999389, 257, 129, 288, 375
-0.999523, 17, 129, 48, 375
-0.999642, 427, 61, 442, 76
-0.999642, 477, 341, 492, 356
-0.999642, 341, 223, 356, 238
-0.999643, 363, 285, 378, 300
-0.999644, 253, 59, 268, 74
-0.999644, 481, 269, 496, 284
-0.999644, 349, 79, 364, 94
-0.999644, 383, 69, 398, 84
-0.999645, 395, 299, 410, 314
-0.999645, 401, 297, 416, 312
-0.999646, 419, 291, 434, 306
-0.999647, 407, 295, 422, 310
-0.999647, 475, 361, 490, 375
-0.999648, 389, 301, 404, 316
-0.999649, 425, 289, 440, 304
-0.999649, 255, 47, 270, 62
-0.999649, 413, 293, 428, 308
-0.99965, 333, 233, 348, 248
-0.99965, 303, 311, 318, 326
-0.999651, 111, 17, 126, 32
-0.999651, 235, 351, 250, 366
-0.999651, 469, 83, 484, 98
-0.999652, 309, 85, 324, 100
-0.999653, 397, 81, 412, 96
-0.999653, 419, 41, 434, 56
-0.999654, 393, 49, 408, 64
-0.999654, 383, 53, 398, 68
-0.999654, 349, 27, 364, 42
-0.999654, 289, 293, 304, 308
-0.999655, 381, 75, 396, 90
-0.999655, 227, 319, 242, 334
-0.999656, 435, 39, 450, 54
-0.999656, 213, 357, 228, 372
-0.999657, 315, 31, 330, 46
-0.999657, 179, 29, 194, 44
-0.999657, 405, 317, 420, 332
-0.999658, 421, 61, 436, 76
-0.999658, 461, 361, 476, 375
-0.999658, 451, 355, 466, 370
-0.99966, 375, 85, 390, 100
-0.99966, 341, 33, 356, 48
-0.99966, 429, 21, 444, 36
-0.99966, 225, 355, 240, 370
-0.999661, 385, 181, 400, 196
-0.999661, 471, 295, 486, 310
-0.999661, 387, 31, 402, 46
-0.999662, 477, 1, 492, 16
-0.999663, 379, 43, 394, 58
-0.999664, 95, 3, 110, 18
-0.999664, 179, 41, 194, 56
-0.999664, 485, 1, 500, 16
-0.999664, 357, 59, 372, 74
-0.999666, 105, 23, 120, 38
-0.999667, 433, 55, 448, 70
-0.999667, 469, 77, 484, 92
-0.999668, 173, 3, 188, 18
-0.999668, 383, 303, 398, 318
-0.99967, 431, 47, 446, 62
-0.999672, 91, 33, 106, 48
-0.999672, 295, 295, 310, 310
-0.999673, 371, 121, 386, 136
-0.999674, 359, 19, 374, 34
-0.999675, 105, 1, 120, 16
-0.999675, 457, 351, 472, 366
-0.999676, 441, 361, 456, 375
-0.999676, 187, 13, 202, 28
-0.999677, 353, 285, 368, 300
-0.999677, 179, 15, 194, 30
-0.999677, 301, 299, 316, 314
-0.999678, 325, 311, 340, 326
-0.999679, 467, 361, 482, 375
-0.999679, 471, 355, 486, 370
-0.999679, 123, 1, 138, 16
-0.999682, 389, 189, 404, 204
-0.999682, 167, 7, 182, 22
-0.999683, 181, 35, 196, 50
-0.999685, 333, 133, 348, 148
-0.999688, 467, 349, 482, 364
-0.999688, 431, 357, 446, 372
-0.999689, 309, 61, 324, 76
-0.999689, 85, 3, 100, 18
-0.999689, 209, 349, 224, 364
-0.99969, 441, 355, 456, 370
-0.999691, 221, 319, 236, 334
-0.999691, 167, 13, 182, 28
-0.999692, 341, 229, 356, 244
-0.999692, 347, 291, 362, 306
-0.999692, 431, 31, 446, 46
-0.999693, 333, 127, 348, 142
-0.999693, 339, 69, 354, 84
-0.999694, 333, 313, 348, 328
-0.999695, 197, 1, 228, 256
-0.999696, 213, 323, 228, 338
-0.999696, 217, 351, 232, 366
-0.999697, 451, 361, 466, 375
-0.999699, 249, 339, 264, 354
-0.999699, 339, 315, 354, 330
-0.999701, 481, 355, 496, 370
-0.999702, 123, 23, 138, 38
-0.999703, 365, 19, 380, 34
-0.999703, 143, 23, 158, 38
-0.999704, 471, 343, 486, 358
-0.999704, 113, 23, 128, 38
-0.999706, 199, 353, 214, 368
-0.999709, 373, 133, 388, 148
-0.99971, 93, 23, 108, 38
-0.999711, 425, 49, 440, 64
-0.999714, 387, 47, 402, 62
-0.999714, 433, 65, 448, 80
-0.999716, 481, 361, 496, 375
-0.999717, 451, 349, 466, 364
-0.999719, 83, 63, 98, 78
-0.99972, 395, 55, 410, 70
-0.999722, 381, 37, 396, 52
-0.999724, 461, 345, 476, 360
-0.999726, 481, 347, 496, 362
-0.999726, 81, 53, 96, 68
-0.999726, 183, 7, 198, 22
-0.999727, 405, 29, 420, 44
-0.999728, 393, 31, 408, 46
-0.999733, 389, 37, 404, 52
-0.999735, 95, 17, 110, 32
-0.999741, 109, 83, 124, 98
-0.99975, 425, 35, 440, 50
-0.99975, 81, 41, 96, 56
-0.999752, 347, 57, 362, 72
-0.999752, 325, 23, 340, 38
-0.999766, 101, 17, 116, 32
-0.99977, 399, 29, 414, 44
-0.999794, 427, 55, 442, 70
-0.999805, 177, 9, 192, 24
-0.999878, 33, 1, 64, 256
