1957
-0.344158, 225, 1, 480, 375
-0.363964, 1, 65, 500, 320
-0.395884, 1, 1, 500, 375
-0.54186, 33, 1, 288, 375
-0.545251, 129, 1, 384, 375
-0.559114, 225, 97, 480, 352
-0.687347, 257, 1, 500, 256
-0.714873, 33, 65, 288, 320
-0.778044, 129, 65, 384, 320
-0.838672, 257, 1, 384, 375
-0.871134, 1, 145, 500, 272
-0.871761, 241, 97, 368, 352
-0.883346, 1, 193, 500, 320
-0.885991, 145, 1, 272, 375
-0.886887, 337, 1, 464, 375
-0.894011, 1, 129, 128, 375
-0.894386, 353, 97, 480, 352
-0.894403, 273, 1, 400, 256
-0.897137, 1, 65, 500, 192
-0.902455, 209, 1, 336, 375
-0.904598, 289, 129, 416, 375
-0.909556, 225, 1, 352, 256
-0.911475, 1, 241, 500, 368
-0.911938, 225, 241, 480, 368
-0.915039, 353, 1, 480, 256
-0.915434, 49, 1, 176, 375
-0.919141, 49, 65, 176, 320
-0.920398, 145, 33, 272, 288
-0.921757, 193, 65, 448, 192
-0.92191, 225, 193, 480, 320
-0.922432, 177, 129, 304, 375
-0.922894, 225, 145, 480, 272
-0.926993, 1, 1, 128, 375
-0.934904, 65, 129, 320, 256
-0.936115, 257, 17, 500, 144
-0.936163, 273, 241, 400, 368
-0.937223, 273, 49, 400, 176
-0.939244, 1, 177, 256, 304
-0.940767, 321, 241, 448, 368
-0.940852, 329, 241, 392, 368
-0.94096, 129, 241, 384, 368
-0.941027, 33, 145, 96, 272
-0.94203, 1, 17, 500, 144
-0.942414, 1, 33, 128, 288
-0.942981, 97, 1, 224, 375
-0.948704, 353, 241, 416, 368
-0.9519, 289, 241, 352, 368
-0.952301, 225, 113, 352, 240
-0.952409, 193, 241, 320, 368
-0.952854, 97, 49, 352, 176
-0.953137, 1, 161, 64, 288
-0.953892, 17, 161, 144, 288
-0.954239, 337, 193, 464, 320
-0.954683, 33, 153, 96, 216
-0.955151, 225, 65, 352, 192
-0.95536, 393, 209, 456, 336
-0.955431, 225, 161, 352, 288
-0.955521, 241, 81, 304, 208
-0.955879, 129, 193, 384, 320
-0.956078, 281, 33, 344, 160
-0.956419, 97, 65, 224, 320
-0.956689, 9, 209, 72, 336
-0.956882, 385, 289, 448, 352
-0.957293, 289, 289, 352, 352
-0.960941, 369, 241, 496, 368
-0.961006, 361, 281, 424, 344
-0.961031, 425, 281, 488, 344
-0.96138, 233, 129, 296, 256
-0.961485, 225, 177, 288, 304
-0.961546, 369, 49, 496, 176
-0.962031, 353, 193, 416, 320
-0.962142, 161, 49, 288, 176
-0.962707, 1, 65, 256, 192
-0.962737, 337, 289, 400, 352
-0.962789, 337, 113, 464, 240
-0.962855, 289, 113, 416, 240
-0.963955, 289, 193, 416, 320
-0.96414, 329, 49, 392, 176
-0.96442, 57, 161, 120, 288
-0.964845, 257, 241, 320, 368
-0.96488, 305, 265, 368, 328
-0.964959, 233, 241, 296, 368
-0.965748, 329, 313, 392, 375
-0.966001, 281, 313, 344, 375
-0.966009, 33, 193, 96, 320
-0.966452, 209, 49, 272, 176
-0.966629, 1, 209, 128, 336
-0.967016, 257, 1, 384, 128
-0.967872, 241, 105, 304, 168
-0.968086, 225, 177, 288, 240
-0.968134, 385, 265, 448, 328
-0.968157, 1, 81, 64, 208
-0.968311, 337, 249, 400, 312
-0.969062, 145, 161, 272, 288
-0.969234, 341, 305, 372, 368
-0.969802, 257, 33, 320, 160
-0.970059, 321, 49, 448, 176
-0.970122, 273, 297, 400, 360
-0.970395, 17, 225, 80, 288
-0.970429, 369, 145, 432, 272
-0.9705, 129, 1, 384, 128
-0.970685, 377, 313, 440, 375
-0.970859, 313, 289, 376, 352
-0.971096, 369, 281, 496, 344
-0.971393, 17, 129, 80, 375
-0.971596, 417, 209, 480, 336
-0.971964, 177, 97, 304, 224
-0.972642, 409, 305, 472, 368
-0.972708, 265, 265, 328, 328
-0.973002, 433, 33, 496, 160
-0.973812, 341, 241, 372, 368
-0.973851, 353, 225, 416, 288
-0.97395, 337, 1, 464, 128
-0.97403, 65, 113, 192, 240
-0.974199, 265, 81, 328, 208
-0.974388, 329, 193, 392, 320
-0.974432, 233, 33, 296, 160
-0.974805, 201, 177, 264, 304
-0.974853, 321, 241, 352, 368
-0.974869, 241, 129, 304, 192
-0.974933, 241, 81, 304, 144
-0.974948, 361, 97, 424, 224
-0.975029, 273, 113, 336, 176
-0.975036, 209, 129, 272, 192
-0.975184, 25, 177, 88, 240
-0.975197, 41, 201, 104, 264
-0.975221, 297, 193, 360, 320
-0.975308, 353, 313, 416, 375
-0.975379, 305, 1, 368, 128
-0.975541, 37, 145, 68, 272
-0.975556, 353, 305, 384, 368
-0.975865, 321, 313, 448, 375
-0.975883, 225, 201, 288, 264
-0.975886, 241, 97, 304, 352
-0.975976, 65, 177, 128, 240
-0.976175, 365, 225, 396, 352
-0.976247, 365, 297, 396, 360
-0.976522, 305, 313, 368, 375
-0.976606, 193, 97, 256, 224
-0.9769, 1, 257, 64, 320
-0.976937, 293, 289, 324, 352
-0.977068, 1, 81, 128, 208
-0.977076, 257, 313, 320, 375
-0.97709, 321, 289, 448, 352
-0.977215, 233, 153, 296, 216
-0.977276, 329, 129, 392, 256
-0.977438, 257, 57, 384, 120
-0.977552, 49, 145, 80, 272
-0.977561, 209, 17, 336, 144
-0.977682, 193, 193, 256, 256
-0.977759, 33, 97, 96, 224
-0.977838, 305, 49, 368, 176
-0.977926, 65, 161, 192, 288
-0.977977, 233, 185, 264, 248
-0.978053, 361, 161, 424, 224
-0.978201, 305, 249, 432, 312
-0.978232, 369, 201, 432, 264
-0.97825, 361, 137, 424, 200
-0.978417, 145, 209, 272, 336
-0.978424, 233, 225, 296, 288
-0.978482, 329, 313, 360, 375
-0.978492, 293, 241, 324, 368
-0.978493, 369, 305, 496, 368
-0.978563, 321, 225, 384, 288
-0.978573, 389, 281, 420, 344
-0.978582, 329, 137, 392, 200
-0.978675, 281, 49, 344, 112
-0.978692, 313, 305, 344, 368
-0.978754, 1, 225, 256, 352
-0.978813, 377, 33, 440, 160
-0.979078, 225, 113, 352, 176
-0.979317, 245, 113, 276, 240
-0.979452, 281, 305, 312, 368
-0.979478, 1, 161, 64, 224
-0.979481, 353, 241, 384, 368
-0.979508, 361, 249, 424, 312
-0.979536, 49, 65, 176, 192
-0.979569, 21, 161, 52, 288
-0.979586, 33, 225, 64, 288
-0.97963, 233, 177, 264, 304
-0.979707, 329, 33, 392, 288
-0.979789, 389, 241, 420, 368
-0.979793, 401, 97, 464, 224
-0.979813, 241, 265, 304, 328
-0.979821, 1, 193, 64, 256
-0.98003, 41, 129, 104, 375
-0.980108, 1, 153, 128, 216
-0.980317, 449, 281, 480, 344
-0.980525, 353, 129, 480, 192
-0.980633, 281, 241, 312, 368
-0.980746, 257, 57, 320, 120
-0.980871, 353, 281, 384, 344
-0.980891, 225, 185, 352, 248
-0.980913, 401, 137, 464, 200
-0.980963, 305, 129, 368, 192
-0.981021, 289, 121, 416, 184
-0.981098, 313, 265, 344, 328
-0.98111, 201, 153, 264, 216
-0.9812, 361, 113, 424, 176
-0.981345, 433, 73, 496, 136
-0.981524, 409, 257, 472, 320
-0.981646, 273, 1, 336, 256
-0.981698, 421, 281, 452, 344
-0.98175, 225, 225, 352, 288
-0.982016, 297, 265, 328, 328
-0.982035, 337, 193, 400, 256
-0.982056, 329, 113, 392, 176
-0.982094, 193, 217, 256, 280
-0.982127, 241, 137, 368, 200
-0.982133, 353, 105, 480, 168
-0.982181, 33, 209, 64, 336
-0.982253, 369, 129, 432, 375
-0.98226, 245, 169, 276, 232
-0.982291, 433, 81, 496, 208
-0.982406, 217, 57, 280, 120
-0.982546, 329, 289, 360, 352
-0.982665, 257, 193, 320, 320
-0.982714, 113, 49, 240, 176
-0.98282, 1, 129, 64, 192
-0.982863, 265, 81, 328, 144
-0.983035, 17, 225, 48, 352
-0.983066, 73, 113, 136, 240
-0.98308, 249, 33, 312, 96
-0.983221, 433, 257, 496, 320
-0.983245, 337, 193, 464, 256
-0.983267, 1, 161, 32, 224
-0.983366, 225, 265, 352, 328
-0.983389, 1, 145, 32, 272
-0.983444, 1, 273, 32, 336
-0.983557, 1, 217, 128, 280
-0.983692, 65, 161, 96, 288
-0.983695, 265, 289, 328, 352
-0.983737, 469, 281, 500, 344
-0.983751, 285, 49, 316, 176
-0.983763, 209, 225, 272, 352
-0.983783, 161, 57, 288, 120
-0.983835, 437, 289, 468, 352
-0.983881, 353, 161, 480, 224
-0.983945, 289, 17, 352, 80
-0.984052, 257, 81, 288, 208
-0.984067, 1, 241, 32, 368
-0.984134, 201, 105, 264, 168
-0.984146, 53, 145, 84, 208
-0.98415, 353, 81, 480, 144
-0.984264, 373, 273, 404, 336
-0.984286, 209, 241, 272, 304
-0.984332, 305, 113, 368, 240
-0.984348, 425, 49, 488, 112
-0.984379, 369, 257, 496, 320
-0.984391, 17, 193, 144, 256
-0.984434, 57, 145, 120, 208
-0.984436, 245, 129, 276, 192
-0.984465, 305, 49, 368, 112
-0.984488, 377, 225, 408, 352
-0.984511, 321, 225, 448, 288
-0.984533, 329, 1, 392, 128
-0.984616, 329, 265, 360, 328
-0.984679, 353, 57, 480, 120
-0.984694, 353, 17, 416, 144
-0.984752, 225, 305, 352, 368
-0.984921, 17, 241, 48, 304
-0.984944, 61, 201, 92, 264
-0.984948, 273, 97, 400, 160
-0.985, 409, 289, 440, 352
-0.985102, 57, 65, 120, 192
-0.985108, 65, 169, 192, 232
-0.985162, 37, 153, 68, 216
-0.985336, 309, 241, 340, 368
-0.985346, 401, 129, 464, 375
-0.985354, 289, 153, 416, 216
-0.985378, 305, 1, 368, 375
-0.98541, 65, 153, 96, 216
-0.985423, 177, 89, 304, 152
-0.985437, 265, 241, 296, 368
-0.985443, 261, 97, 292, 160
-0.985479, 401, 161, 464, 224
-0.985515, 353, 249, 384, 312
-0.985543, 49, 209, 80, 272
-0.985564, 345, 129, 408, 375
-0.98557, 281, 1, 344, 375
-0.985668, 281, 241, 344, 304
-0.985758, 237, 49, 268, 176
-0.985805, 77, 145, 108, 272
-0.985852, 277, 265, 308, 328
-0.985862, 405, 209, 436, 336
-0.985965, 185, 49, 248, 176
-0.985996, 301, 313, 332, 375
-0.98607, 233, 161, 264, 224
-0.986141, 237, 97, 268, 160
-0.986152, 49, 33, 112, 288
-0.986238, 385, 241, 448, 304
-0.986283, 269, 65, 300, 192
-0.986306, 305, 33, 368, 288
-0.986313, 233, 129, 264, 256
-0.986319, 469, 241, 500, 368
-0.986333, 329, 57, 392, 120
-0.98634, 341, 257, 372, 320
-0.986399, 145, 169, 272, 232
-0.986528, 225, 89, 352, 152
-0.986569, 337, 33, 464, 96
-0.986574, 77, 169, 108, 232
-0.986651, 81, 145, 144, 208
-0.986669, 1, 241, 128, 304
-0.98675, 201, 1, 264, 375
-0.986829, 257, 1, 320, 375
-0.986837, 161, 145, 288, 208
-0.986883, 313, 17, 376, 80
-0.986902, 369, 217, 496, 280
-0.986937, 225, 161, 352, 224
-0.986951, 353, 41, 416, 104
-0.986964, 221, 193, 252, 256
-0.986988, 245, 161, 276, 288
-0.986989, 65, 201, 128, 264
-0.98714, 1, 193, 32, 320
-0.987228, 273, 209, 400, 272
-0.987271, 273, 273, 400, 336
-0.987281, 377, 297, 408, 360
-0.987296, 345, 1, 408, 375
-0.987319, 277, 113, 308, 176
-0.987448, 289, 129, 352, 375
-0.987448, 401, 113, 464, 176
-0.987563, 225, 33, 352, 96
-0.987594, 9, 33, 72, 288
-0.987671, 177, 49, 240, 112
-0.987696, 145, 201, 272, 264
-0.987714, 337, 161, 400, 224
-0.987745, 417, 161, 480, 288
-0.987824, 13, 201, 44, 264
-0.987855, 137, 49, 200, 176
-0.987903, 357, 217, 388, 280
-0.987938, 249, 1, 312, 256
-0.98794, 337, 193, 368, 320
-0.988086, 401, 73, 464, 136
-0.988125, 449, 241, 480, 368
-0.988188, 137, 65, 200, 128
-0.988219, 433, 1, 496, 256
-0.988312, 17, 1, 80, 375
-0.98835, 45, 209, 76, 336
-0.988356, 161, 1, 288, 128
-0.988454, 401, 33, 464, 160
-0.988465, 425, 241, 456, 368
-0.988493, 433, 97, 496, 160
-0.988494, 273, 129, 336, 256
-0.988496, 377, 41, 440, 104
-0.988623, 297, 33, 328, 160
-0.98866, 401, 217, 464, 280
-0.988692, 373, 137, 404, 200
-0.988757, 161, 241, 288, 304
-0.988789, 237, 209, 268, 272
-0.988869, 217, 97, 280, 352
-0.988879, 233, 1, 296, 375
-0.988939, 209, 65, 336, 128
-0.988944, 273, 25, 400, 88
-0.988966, 369, 1, 432, 375
-0.98901, 17, 97, 48, 224
-0.989018, 257, 225, 320, 288
-0.989054, 249, 105, 280, 168
-0.989068, 249, 177, 312, 240
-0.989121, 225, 313, 288, 375
-0.989123, 421, 313, 452, 375
-0.98928, 257, 33, 288, 160
-0.989308, 425, 129, 488, 375
-0.989322, 369, 81, 432, 144
-0.989326, 465, 305, 496, 368
-0.989343, 313, 201, 376, 264
-0.989351, 389, 305, 420, 368
-0.989373, 193, 65, 256, 320
-0.989382, 397, 257, 428, 320
-0.989421, 265, 137, 328, 200
-0.989481, 341, 281, 372, 344
-0.98951, 289, 297, 352, 328
-0.989531, 281, 309, 344, 340
-0.989533, 273, 329, 336, 360
-0.989551, 337, 49, 368, 176
-0.989554, 349, 193, 380, 320
-0.989587, 321, 1, 352, 128
-0.989617, 325, 49, 356, 176
-0.989628, 369, 33, 432, 288
-0.9897, 161, 49, 224, 176
-0.989744, 433, 1, 496, 375
-0.989767, 265, 341, 328, 372
-0.989785, 417, 25, 480, 88
-0.989798, 369, 233, 400, 296
-0.989803, 49, 145, 176, 208
-0.989822, 313, 129, 376, 375
-0.989927, 409, 313, 440, 375
-0.989968, 33, 157, 96, 188
-0.989973, 317, 113, 348, 176
-0.989976, 221, 177, 252, 304
-0.990009, 401, 1, 464, 375
-0.990017, 257, 305, 500, 368
-0.990022, 73, 129, 136, 375
-0.990022, 345, 305, 408, 336
-0.990055, 81, 33, 144, 288
-0.990056, 73, 193, 104, 256
-0.990089, 309, 33, 340, 160
-0.990106, 389, 145, 420, 272
-0.990109, 265, 97, 328, 352
-0.990157, 305, 309, 368, 340
-0.9902, 345, 217, 376, 280
-0.990231, 225, 129, 256, 192
-0.99024, 65, 121, 128, 184
-0.990259, 369, 309, 432, 340
-0.990283, 177, 121, 304, 184
-0.990338, 369, 321, 432, 352
-0.990425, 393, 161, 424, 224
-0.990437, 5, 249, 36, 312
-0.990443, 33, 129, 96, 192
-0.990484, 353, 145, 384, 272
-0.990499, 429, 257, 460, 320
-0.990508, 329, 317, 392, 348
-0.990576, 433, 285, 496, 316
-0.990602, 33, 1, 288, 128
-0.99064, 17, 169, 48, 232
-0.990664, 269, 73, 300, 136
-0.990716, 385, 293, 448, 324
-0.990727, 61, 113, 92, 240
-0.990743, 353, 245, 416, 276
-0.990845, 425, 301, 488, 332
-0.990848, 393, 145, 456, 272
-0.990859, 225, 185, 288, 216
-0.990878, 329, 149, 392, 180
-0.990886, 1, 209, 500, 272
-0.990901, 241, 129, 304, 160
-0.990904, 393, 309, 456, 340
-0.990907, 329, 89, 392, 152
-0.990933, 297, 345, 360, 375
-0.99094, 57, 165, 120, 196
-0.990963, 361, 289, 424, 320
-0.990966, 297, 321, 360, 352
-0.990969, 401, 321, 464, 352
-0.990985, 321, 293, 384, 324
-0.991038, 269, 113, 300, 240
-0.991079, 193, 217, 448, 280
-0.991085, 177, 33, 304, 96
-0.991093, 1, 225, 32, 288
-0.991105, 289, 177, 416, 240
-0.991125, 33, 81, 64, 208
-0.991147, 385, 277, 448, 308
-0.991153, 81, 65, 144, 192
-0.99116, 5, 97, 36, 224
-0.991161, 337, 345, 400, 375
-0.991162, 25, 229, 88, 260
-0.991165, 369, 337, 432, 368
-0.991184, 425, 317, 488, 348
-0.991205, 381, 225, 412, 288
-0.991233, 81, 161, 144, 288
-0.991252, 1, 161, 500, 224
-0.991271, 253, 241, 284, 368
-0.991275, 273, 117, 336, 148
-0.99128, 193, 169, 448, 232
-0.9913, 1, 165, 64, 196
-0.99132, 285, 1, 316, 128
-0.991347, 237, 257, 268, 320
-0.991352, 305, 333, 368, 364
-0.991357, 329, 137, 392, 168
-0.991362, 49, 73, 176, 136
-0.991404, 445, 257, 476, 320
-0.991439, 233, 169, 296, 200
-0.991452, 253, 73, 284, 136
-0.991461, 261, 177, 292, 304
-0.99148, 41, 225, 104, 288
-0.991495, 393, 193, 456, 256
-0.991509, 241, 117, 304, 148
-0.991544, 349, 49, 380, 176
-0.991545, 329, 329, 392, 360
-0.991554, 9, 249, 72, 280
-0.991564, 225, 113, 480, 176
-0.991564, 369, 145, 432, 176
-0.991573, 1, 277, 64, 308
-0.991577, 305, 65, 432, 128
-0.991589, 33, 169, 96, 200
-0.991596, 289, 129, 352, 160
-0.9916, 409, 285, 472, 316
-0.991648, 41, 217, 104, 248
-0.991652, 225, 225, 288, 256
-0.991687, 217, 197, 280, 228
-0.991705, 57, 205, 120, 236
-0.991715, 257, 57, 500, 120
-0.991715, 373, 201, 404, 264
-0.991738, 169, 1, 232, 375
-0.991775, 217, 125, 280, 156
-0.99178, 177, 313, 304, 375
-0.991784, 9, 265, 72, 296
-0.991784, 329, 253, 392, 284
-0.991796, 225, 49, 256, 176
-0.991818, 465, 257, 496, 320
-0.99182, 73, 193, 136, 224
-0.991825, 57, 177, 88, 240
-0.991838, 329, 225, 392, 256
-0.991845, 233, 101, 296, 132
-0.991863, 185, 81, 248, 144
-0.991864, 225, 1, 288, 256
-0.991874, 305, 141, 368, 172
-0.991875, 281, 57, 312, 120
-0.991877, 233, 157, 296, 188
-0.991877, 241, 53, 304, 84
-0.991925, 361, 49, 392, 176
-0.991928, 337, 17, 400, 80
-0.991942, 177, 145, 240, 272
-0.99195, 281, 53, 344, 84
-0.991959, 401, 49, 464, 112
-0.991977, 289, 269, 352, 300
-0.991996, 361, 233, 424, 264
-0.992011, 329, 125, 392, 156
-0.992024, 57, 149, 120, 180
-0.992037, 265, 297, 328, 328
-0.992055, 113, 1, 240, 128
-0.992065, 257, 313, 320, 344
-0.992069, 33, 181, 96, 212
-0.99207, 193, 209, 256, 240
-0.992078, 385, 265, 448, 296
-0.992098, 361, 161, 424, 192
-0.992118, 9, 209, 72, 240
-0.992119, 9, 153, 72, 184
-0.992138, 177, 169, 240, 232
-0.992161, 225, 213, 288, 244
-0.992169, 241, 141, 304, 172
-0.992171, 217, 81, 280, 144
-0.992187, 297, 249, 360, 280
-0.9922, 393, 337, 456, 368
-0.992223, 369, 121, 432, 152
-0.992229, 201, 173, 264, 204
-0.99223, 57, 1, 120, 375
-0.99225, 81, 181, 144, 212
-0.992252, 201, 149, 264, 180
-0.992265, 25, 193, 88, 224
-0.992269, 289, 153, 352, 216
-0.992274, 297, 293, 328, 324
-0.992302, 249, 329, 312, 360
-0.99231, 361, 181, 424, 212
-0.99231, 433, 273, 496, 304
-0.992319, 33, 81, 96, 144
-0.992323, 1, 233, 64, 264
-0.992337, 257, 105, 320, 136
-0.992343, 265, 129, 328, 160
-0.992345, 321, 341, 352, 372
-0.992347, 361, 301, 392, 332
-0.992348, 249, 181, 312, 212
-0.992354, 33, 193, 288, 256
-0.992362, 361, 277, 424, 308
-0.99237, 193, 241, 256, 272
-0.992371, 81, 165, 144, 196
-0.992374, 369, 133, 432, 164
-0.992374, 413, 321, 444, 352
-0.992384, 201, 253, 264, 284
-0.992403, 337, 209, 400, 240
-0.992407, 385, 257, 416, 320
-0.992417, 297, 105, 360, 168
-0.992428, 65, 153, 320, 216
-0.992439, 369, 213, 432, 244
-0.992443, 257, 65, 320, 96
-0.992447, 321, 17, 352, 80
-0.992454, 113, 57, 240, 120
-0.992465, 317, 297, 348, 328
-0.992475, 301, 341, 332, 372
-0.992493, 241, 265, 304, 296
-0.992509, 241, 289, 304, 352
-0.99252, 265, 81, 328, 112
-0.992521, 305, 113, 336, 176
-0.992522, 193, 129, 256, 160
-0.992523, 249, 253, 312, 284
-0.99253, 369, 193, 432, 224
-0.99254, 233, 241, 296, 272
-0.992544, 293, 49, 324, 112
-0.992547, 401, 177, 464, 208
-0.992551, 305, 321, 336, 352
-0.99257, 201, 185, 264, 216
-0.99257, 417, 333, 480, 364
-0.992573, 241, 345, 304, 375
-0.992585, 309, 309, 340, 340
-0.992598, 361, 341, 392, 372
-0.9926, 177, 57, 240, 88
-0.992601, 337, 321, 368, 352
-0.992606, 401, 161, 464, 192
-0.992617, 69, 165, 100, 196
-0.99262, 241, 89, 304, 120
-0.992621, 229, 189, 260, 220
-0.992638, 373, 113, 404, 240
-0.992649, 365, 325, 396, 356
-0.992649, 433, 89, 496, 120
-0.992654, 193, 193, 448, 256
-0.992656, 113, 49, 176, 176
-0.992659, 193, 145, 448, 208
-0.992662, 33, 229, 64, 260
-0.99267, 201, 161, 264, 192
-0.992672, 353, 329, 384, 360
-0.992675, 333, 337, 364, 368
-0.992677, 49, 153, 80, 184
-0.992679, 373, 161, 404, 224
-0.992683, 217, 113, 280, 144
-0.992686, 57, 177, 120, 208
-0.992688, 305, 153, 368, 184
-0.992713, 341, 297, 372, 328
-0.992724, 217, 137, 280, 168
-0.992728, 333, 1, 364, 128
-0.99273, 269, 17, 300, 144
-0.992735, 345, 309, 376, 340
-0.992737, 365, 313, 396, 344
-0.992749, 193, 221, 256, 252
-0.992756, 193, 197, 256, 228
-0.992757, 433, 77, 496, 108
-0.992757, 281, 141, 344, 172
-0.992763, 305, 53, 368, 84
-0.992763, 273, 253, 336, 284
-0.992772, 373, 285, 404, 316
-0.992778, 433, 305, 496, 368
-0.992786, 257, 169, 320, 200
-0.992791, 225, 69, 288, 100
-0.992798, 433, 105, 496, 136
-0.992814, 401, 149, 464, 180
-0.992815, 289, 313, 320, 344
-0.992817, 265, 265, 328, 296
-0.992824, 413, 309, 444, 340
-0.992832, 241, 177, 272, 208
-0.992832, 33, 201, 64, 264
-0.992834, 317, 329, 348, 360
-0.992835, 289, 285, 352, 316
-0.992852, 469, 301, 500, 332
-0.992859, 325, 309, 356, 340
-0.992861, 233, 317, 296, 348
-0.992864, 361, 65, 424, 96
-0.992867, 281, 97, 312, 224
-0.99287, 469, 313, 500, 344
-0.992878, 361, 289, 392, 320
-0.992892, 385, 225, 448, 256
-0.992894, 33, 205, 96, 236
-0.992895, 329, 61, 392, 92
-0.992896, 237, 241, 268, 368
-0.992899, 89, 161, 120, 224
-0.992905, 1, 281, 32, 312
-0.992908, 469, 285, 500, 316
-0.992913, 345, 341, 376, 372
-0.992921, 425, 49, 488, 80
-0.992926, 425, 65, 488, 96
-0.99293, 281, 329, 312, 360
-0.992938, 261, 113, 292, 144
-0.992943, 425, 313, 456, 344
-0.99295, 337, 145, 368, 176
-0.992955, 245, 161, 276, 192
-0.992955, 1, 165, 32, 196
-0.992961, 321, 133, 352, 164
-0.992967, 449, 281, 480, 312
-0.992972, 21, 249, 52, 280
-0.992974, 45, 221, 76, 252
-0.992987, 393, 297, 424, 328
-0.992994, 381, 297, 412, 328
-0.992996, 229, 201, 260, 232
-0.992998, 393, 285, 424, 316
-0.992999, 273, 345, 304, 375
-0.993006, 353, 149, 384, 180
-0.993007, 425, 325, 456, 356
-0.993009, 425, 285, 456, 316
-0.993021, 253, 125, 284, 156
-0.993042, 1, 269, 32, 300
-0.993059, 277, 121, 308, 152
-0.993059, 225, 249, 480, 312
-0.993062, 293, 329, 324, 360
-0.993089, 469, 17, 500, 144
-0.993091, 433, 153, 496, 216
-0.993108, 57, 213, 88, 244
-0.99311, 385, 321, 416, 352
-0.993115, 289, 341, 320, 372
-0.993122, 357, 193, 388, 256
-0.993133, 229, 177, 260, 208
-0.993143, 1, 185, 500, 248
-0.993147, 245, 189, 276, 220
-0.993148, 57, 209, 88, 336
-0.993149, 233, 121, 264, 152
-0.99315, 17, 261, 48, 292
-0.993154, 273, 305, 400, 336
-0.993155, 245, 145, 276, 176
-0.993156, 413, 285, 444, 316
-0.993157, 233, 221, 264, 252
-0.993162, 73, 153, 104, 184
-0.993173, 225, 89, 480, 152
-0.993176, 349, 253, 380, 284
-0.993177, 437, 325, 468, 356
-0.993179, 365, 233, 396, 264
-0.993183, 177, 1, 240, 128
-0.99319, 265, 101, 296, 132
-0.993191, 37, 157, 68, 188
-0.993192, 405, 341, 436, 372
-0.993196, 69, 129, 100, 192
-0.993203, 65, 201, 96, 232
-0.993205, 177, 113, 240, 176
-0.993209, 329, 293, 360, 324
-0.99321, 393, 309, 424, 340
-0.993213, 333, 261, 364, 292
-0.993218, 301, 125, 332, 156
-0.993229, 21, 237, 52, 268
-0.993238, 449, 293, 480, 324
-0.993243, 245, 233, 276, 296
-0.993243, 465, 325, 496, 356
-0.993255, 253, 177, 284, 208
-0.993256, 217, 189, 248, 220
-0.993257, 429, 297, 460, 328
-0.993263, 265, 9, 328, 72
-0.99328, 373, 337, 404, 368
-0.99328, 393, 185, 424, 248
-0.993281, 361, 249, 392, 280
-0.993283, 81, 185, 112, 216
-0.993284, 393, 273, 424, 304
-0.993286, 357, 137, 388, 168
-0.993286, 385, 181, 416, 212
-0.993286, 13, 169, 44, 200
-0.993289, 401, 321, 432, 352
-0.99329, 13, 225, 44, 256
-0.99329, 373, 161, 404, 192
-0.993291, 285, 301, 316, 332
-0.993298, 49, 17, 176, 144
-0.993305, 381, 309, 412, 340
-0.993306, 61, 153, 92, 184
-0.993309, 89, 169, 120, 200
-0.993317, 25, 161, 56, 192
-0.993317, 249, 101, 280, 132
-0.993319, 1, 257, 32, 288
-0.993322, 381, 237, 412, 268
-0.993337, 317, 145, 348, 176
-0.993351, 317, 285, 348, 316
-0.993358, 437, 285, 468, 316
-0.993359, 437, 309, 468, 340
-0.99336, 421, 337, 452, 368
-0.993361, 265, 129, 296, 192
-0.993363, 1, 137, 500, 200
-0.993367, 373, 145, 404, 176
-0.993367, 225, 133, 256, 164
-0.993369, 393, 169, 424, 200
-0.993377, 13, 273, 44, 304
-0.99338, 233, 253, 264, 284
-0.99338, 313, 97, 344, 224
-0.993386, 429, 273, 460, 304
-0.993388, 277, 317, 308, 348
-0.993392, 337, 309, 464, 340
-0.993407, 61, 177, 92, 208
-0.993408, 381, 273, 412, 304
-0.99341, 257, 337, 384, 368
-0.993411, 281, 109, 312, 140
-0.993411, 457, 313, 488, 344
-0.993418, 369, 177, 400, 208
-0.993419, 217, 233, 248, 264
-0.993419, 229, 165, 260, 196
-0.99342, 237, 233, 268, 264
-0.993422, 233, 109, 264, 140
-0.993423, 253, 89, 284, 120
-0.993426, 333, 133, 364, 164
-0.993428, 417, 297, 448, 328
-0.993432, 309, 269, 340, 300
-0.993437, 409, 157, 440, 188
-0.993438, 257, 161, 288, 192
-0.99344, 365, 205, 396, 236
-0.993443, 5, 241, 36, 272
-0.993443, 353, 217, 384, 248
-0.993474, 49, 81, 80, 208
-0.993483, 361, 161, 392, 224
-0.993561, 1, 89, 128, 152
-0.993586, 177, 289, 304, 352
-0.993589, 377, 177, 408, 304
-0.993596, 393, 1, 456, 256
-0.993604, 65, 193, 192, 256
-0.993646, 225, 273, 480, 336
-0.993659, 221, 217, 252, 280
-0.993664, 129, 97, 256, 224
-0.993669, 361, 137, 392, 200
-0.993691, 273, 185, 336, 248
-0.993741, 221, 113, 252, 240
-0.99376, 257, 161, 288, 224
-0.993838, 1, 233, 500, 296
-0.993846, 49, 121, 176, 184
-0.993846, 369, 285, 496, 316
-0.993906, 357, 1, 388, 128
-0.993933, 379, 297, 394, 360
-0.993984, 409, 265, 440, 328
-0.994038, 365, 177, 396, 304
-0.99405, 65, 65, 320, 128
-0.994068, 65, 65, 128, 128
-0.994074, 321, 321, 448, 352
-0.994113, 177, 265, 304, 328
-0.994114, 161, 57, 416, 120
-0.994244, 417, 193, 480, 256
-0.99426, 309, 49, 340, 112
-0.994285, 309, 17, 340, 80
-0.994309, 1, 105, 64, 168
-0.994324, 351, 313, 366, 375
-0.994341, 225, 241, 256, 304
-0.994366, 1, 225, 256, 288
-0.994382, 329, 129, 360, 192
-0.994481, 213, 49, 244, 176
-0.994493, 333, 217, 364, 280
-0.994505, 17, 137, 48, 200
-0.994554, 389, 193, 420, 320
-0.994578, 253, 265, 284, 328
-0.994579, 1, 65, 500, 128
-0.994612, 249, 193, 280, 256
-0.994619, 257, 317, 384, 348
-0.994659, 225, 33, 480, 96
-0.994675, 301, 289, 316, 352
-0.994687, 325, 193, 356, 320
-0.994692, 235, 185, 250, 248
-0.994716, 385, 129, 416, 192
-0.99473, 45, 185, 76, 248
-0.994757, 369, 321, 496, 352
-0.994773, 1, 257, 500, 320
-0.994794, 377, 65, 408, 192
-0.994811, 369, 1, 496, 64
-0.994826, 65, 129, 320, 192
-0.99483, 477, 273, 492, 336
-0.994855, 321, 297, 448, 328
-0.994927, 345, 1, 376, 128
-0.995029, 329, 41, 360, 104
-0.995033, 257, 233, 288, 296
-0.995051, 437, 313, 468, 375
-0.995087, 321, 9, 448, 72
-0.9951, 337, 313, 352, 375
-0.995112, 273, 293, 400, 324
-0.995126, 345, 57, 376, 120
-0.995151, 349, 145, 380, 208
-0.99517, 1, 161, 128, 192
-0.99517, 289, 217, 352, 280
-0.995187, 433, 129, 496, 192
-0.995187, 437, 241, 468, 368
-0.995196, 457, 33, 488, 160
-0.995199, 317, 137, 348, 200
-0.995219, 313, 289, 328, 352
-0.995223, 225, 129, 352, 160
-0.995266, 307, 265, 322, 328
-0.995281, 343, 313, 358, 375
-0.995285, 307, 313, 322, 375
-0.995301, 369, 305, 384, 368
-0.995309, 61, 65, 92, 192
-0.995312, 129, 313, 384, 375
-0.995312, 387, 305, 402, 368
-0.995333, 321, 225, 352, 288
-0.995337, 1, 113, 128, 176
-0.995337, 469, 25, 500, 88
-0.99534, 35, 225, 50, 288
-0.995354, 89, 65, 152, 128
-0.995362, 329, 305, 344, 368
-0.995383, 277, 25, 308, 88
-0.995433, 433, 145, 464, 208
-0.99545, 343, 289, 358, 352
-0.995462, 305, 177, 368, 240
-0.99548, 389, 97, 420, 224
-0.995498, 89, 129, 120, 256
-0.99554, 361, 297, 376, 360
-0.995542, 307, 289, 322, 352
-0.995558, 1, 281, 64, 344
-0.995566, 317, 265, 332, 328
-0.995595, 145, 1, 208, 375
-0.995613, 369, 297, 496, 328
-0.995645, 129, 241, 384, 304
-0.995647, 295, 297, 310, 360
-0.995679, 439, 273, 454, 336
-0.9957, 177, 57, 208, 120
-0.995718, 65, 41, 192, 104
-0.995729, 305, 253, 432, 284
-0.995735, 433, 65, 464, 192
-0.995754, 265, 49, 296, 112
-0.995767, 433, 297, 448, 360
-0.995769, 241, 141, 368, 172
-0.99577, 425, 105, 456, 168
-0.99577, 413, 145, 444, 208
-0.995777, 471, 289, 486, 352
-0.995781, 297, 17, 328, 80
-0.99579, 273, 193, 304, 320
-0.995801, 425, 145, 456, 272
-0.99583, 25, 249, 40, 312
-0.995861, 409, 129, 440, 256
-0.995869, 305, 345, 432, 375
-0.995869, 273, 57, 400, 88
-0.995872, 1, 265, 128, 328
-0.995875, 353, 337, 480, 368
-0.995882, 403, 281, 418, 344
-0.995914, 225, 201, 352, 232
-0.995933, 437, 193, 468, 320
-0.995942, 257, 129, 288, 256
-0.995943, 405, 169, 436, 232
-0.995964, 469, 65, 500, 192
-0.995966, 441, 297, 456, 360
-0.995967, 75, 161, 90, 224
-0.995971, 385, 281, 400, 344
-0.995972, 289, 149, 416, 180
-0.995982, 333, 17, 364, 80
-0.996001, 289, 305, 304, 368
-0.996003, 353, 145, 480, 176
-0.996015, 233, 57, 264, 120
-0.996023, 305, 333, 432, 364
-0.996048, 213, 161, 244, 224
-0.996055, 373, 281, 388, 344
-0.996071, 325, 265, 340, 328
-0.99608, 33, 177, 64, 240
-0.99609, 413, 289, 428, 352
-0.996137, 393, 281, 408, 344
-0.996143, 113, 65, 176, 128
-0.996153, 321, 133, 448, 164
-0.996158, 469, 81, 500, 144
-0.996169, 465, 281, 480, 344
-0.996185, 309, 241, 340, 304
-0.996192, 49, 129, 80, 375
-0.996207, 319, 289, 334, 352
-0.99621, 247, 177, 262, 240
-0.996216, 97, 89, 352, 152
-0.996222, 353, 289, 368, 352
-0.996238, 249, 137, 264, 200
-0.996241, 113, 1, 176, 375
-0.996249, 411, 313, 426, 375
-0.99625, 301, 265, 316, 328
-0.99626, 201, 1, 264, 128
-0.996263, 325, 113, 356, 240
-0.996265, 225, 117, 352, 148
-0.996273, 3, 273, 18, 336
-0.996281, 321, 285, 448, 316
-0.996281, 129, 265, 384, 328
-0.996308, 81, 161, 96, 224
-0.996321, 241, 249, 368, 280
-0.996321, 449, 281, 464, 344
-0.99633, 265, 265, 296, 328
-0.996351, 431, 273, 446, 336
-0.996357, 297, 241, 328, 304
-0.99637, 1, 89, 500, 152
-0.996376, 385, 49, 416, 112
-0.996397, 367, 281, 382, 344
-0.996397, 313, 313, 328, 375
-0.996401, 369, 273, 496, 304
-0.996402, 281, 89, 312, 152
-0.996418, 33, 129, 64, 375
-0.99642, 241, 193, 256, 256
-0.996451, 289, 117, 416, 148
-0.996458, 89, 169, 152, 232
-0.996468, 177, 97, 304, 128
-0.996475, 1, 129, 32, 192
-0.99651, 373, 97, 404, 160
-0.996517, 217, 265, 280, 328
-0.996519, 225, 33, 288, 96
-0.996538, 353, 113, 480, 144
-0.996542, 353, 245, 480, 276
-0.996544, 361, 17, 424, 80
-0.996557, 331, 265, 346, 328
-0.996563, 129, 33, 256, 96
-0.996567, 57, 145, 72, 208
-0.996585, 337, 205, 464, 236
-0.996592, 283, 313, 298, 375
-0.996598, 273, 129, 400, 160
-0.996604, 225, 189, 352, 220
-0.996614, 289, 265, 416, 296
-0.996622, 257, 81, 384, 112
-0.996627, 425, 193, 456, 320
-0.996634, 281, 105, 296, 168
-0.996651, 97, 145, 224, 208
-0.996659, 337, 193, 464, 224
-0.996664, 301, 193, 332, 320
-0.996668, 73, 65, 104, 192
-0.996682, 113, 81, 240, 144
-0.996687, 161, 65, 192, 128
-0.996691, 295, 265, 310, 328
-0.996695, 15, 161, 30, 224
-0.996702, 337, 257, 352, 320
-0.996707, 49, 205, 176, 236
-0.996709, 19, 249, 34, 312
-0.996731, 353, 93, 480, 124
-0.996742, 355, 249, 370, 312
-0.996744, 213, 113, 244, 176
-0.996748, 353, 161, 480, 192
-0.99675, 43, 225, 58, 288
-0.996752, 145, 213, 272, 244
-0.996753, 43, 153, 58, 216
-0.996754, 17, 221, 144, 252
-0.996761, 161, 177, 288, 208
-0.99677, 241, 97, 272, 352
-0.996777, 239, 161, 254, 224
-0.996782, 153, 1, 216, 128
-0.996786, 409, 81, 440, 208
-0.996793, 49, 153, 64, 216
-0.996808, 425, 281, 440, 344
-0.996811, 273, 69, 400, 100
-0.996817, 121, 33, 184, 288
-0.996818, 399, 257, 414, 320
-0.996823, 421, 49, 452, 176
-0.996826, 21, 169, 36, 232
-0.996832, 73, 201, 88, 264
-0.996835, 1, 129, 32, 375
-0.996863, 1, 305, 500, 368
-0.996891, 225, 225, 256, 352
-0.996895, 67, 201, 82, 264
-0.996903, 153, 1, 216, 256
-0.996903, 49, 217, 64, 280
-0.996911, 353, 217, 480, 248
-0.996912, 251, 97, 266, 160
-0.996919, 365, 41, 396, 104
-0.996923, 81, 185, 96, 248
-0.996933, 485, 281, 500, 344
-0.996934, 241, 169, 368, 200
-0.996954, 129, 105, 256, 168
-0.996958, 13, 129, 44, 375
-0.996962, 257, 97, 384, 128
-0.996968, 257, 1, 384, 64
-0.996972, 69, 169, 84, 232
-0.996973, 353, 81, 480, 112
-0.996974, 63, 145, 78, 208
-0.996984, 313, 193, 344, 320
-0.996987, 161, 61, 288, 92
-0.996999, 273, 225, 400, 256
-0.997002, 209, 325, 336, 356
-0.997004, 255, 121, 270, 184
-0.997017, 169, 49, 200, 176
-0.997019, 49, 209, 176, 336
-0.997035, 1, 261, 128, 292
-0.99704, 335, 289, 350, 352
-0.99705, 49, 193, 176, 224
-0.997051, 17, 233, 144, 264
-0.997069, 419, 273, 434, 336
-0.997074, 209, 341, 336, 372
-0.997076, 225, 213, 352, 244
-0.997096, 361, 273, 376, 336
-0.997098, 353, 233, 480, 264
-0.997098, 363, 217, 378, 280
-0.9971, 343, 257, 358, 320
-0.997104, 307, 329, 322, 360
-0.997107, 241, 153, 368, 184
-0.997107, 301, 313, 316, 375
-0.997113, 459, 281, 474, 344
-0.997114, 87, 169, 102, 232
-0.997119, 289, 265, 304, 328
-0.997122, 97, 217, 352, 280
-0.997127, 379, 313, 394, 344
-0.997129, 353, 69, 480, 100
-0.997152, 65, 181, 192, 212
-0.997158, 225, 305, 352, 336
-0.997162, 301, 345, 316, 375
-0.997169, 61, 209, 76, 272
-0.997174, 369, 125, 496, 156
-0.997176, 325, 113, 340, 176
-0.997179, 465, 305, 480, 368
-0.997184, 379, 273, 394, 336
-0.99719, 433, 1, 496, 64
-0.997222, 149, 49, 180, 176
-0.997227, 241, 265, 368, 296
-0.997228, 209, 9, 336, 72
-0.997229, 243, 105, 258, 168
-0.997235, 405, 257, 420, 320
-0.997235, 409, 33, 440, 160
-0.997238, 393, 161, 408, 224
-0.997238, 209, 225, 336, 256
-0.99724, 9, 273, 24, 336
-0.99725, 373, 209, 388, 272
-0.997283, 69, 145, 84, 208
-0.997285, 97, 33, 352, 96
-0.997286, 161, 165, 288, 196
-0.997288, 361, 249, 376, 312
-0.997292, 233, 189, 248, 220
-0.997298, 275, 97, 290, 160
-0.997298, 337, 49, 464, 80
-0.997302, 229, 185, 244, 248
-0.997303, 13, 249, 28, 312
-0.997318, 55, 217, 70, 280
-0.997333, 293, 97, 324, 224
-0.997346, 369, 249, 384, 312
-0.997349, 465, 257, 480, 320
-0.997353, 161, 149, 288, 180
-0.997353, 37, 153, 52, 216
-0.997359, 225, 53, 352, 84
-0.997361, 1, 189, 128, 220
-0.99737, 129, 65, 160, 192
-0.997389, 349, 257, 364, 320
-0.997414, 1, 161, 16, 224
-0.997415, 129, 289, 384, 352
-0.997422, 411, 317, 426, 348
-0.997427, 451, 257, 466, 320
-0.997432, 405, 153, 420, 216
-0.997448, 235, 121, 250, 184
-0.997449, 177, 257, 304, 288
-0.997457, 177, 85, 304, 116
-0.997457, 29, 225, 44, 288
-0.99746, 237, 217, 252, 280
-0.997474, 433, 321, 448, 352
-0.997481, 145, 245, 272, 276
-0.997482, 65, 169, 192, 200
-0.997496, 267, 105, 282, 168
-0.997506, 37, 201, 52, 264
-0.99751, 375, 233, 390, 296
-0.997511, 237, 249, 252, 312
-0.997512, 9, 161, 24, 224
-0.997512, 353, 173, 480, 204
-0.997519, 289, 181, 416, 212
-0.997523, 245, 217, 260, 280
-0.997524, 287, 105, 302, 168
-0.997532, 383, 297, 398, 328
-0.997537, 177, 109, 304, 140
-0.997538, 189, 49, 220, 176
-0.997548, 261, 113, 276, 176
-0.997552, 377, 325, 392, 356
-0.997552, 275, 129, 290, 192
-0.997561, 253, 97, 284, 352
-0.997562, 145, 189, 272, 220
-0.997563, 49, 217, 176, 280
-0.997563, 399, 169, 414, 232
-0.99757, 337, 129, 352, 192
-0.997575, 145, 201, 272, 232
-0.997577, 349, 217, 364, 280
-0.997589, 477, 285, 492, 316
-0.997589, 427, 313, 442, 375
-0.997591, 325, 337, 340, 368
-0.997596, 377, 129, 408, 375
-0.9976, 61, 97, 92, 352
-0.997601, 417, 321, 432, 352
-0.997609, 375, 137, 390, 200
-0.997618, 1, 173, 128, 204
-0.997618, 313, 309, 328, 340
-0.99762, 33, 149, 160, 180
-0.997627, 477, 297, 492, 360
-0.99763, 361, 97, 392, 224
-0.99763, 405, 185, 420, 248
-0.997634, 319, 313, 334, 375
-0.997635, 201, 49, 232, 176
-0.997636, 137, 89, 200, 152
-0.997636, 461, 193, 492, 320
-0.997644, 283, 65, 298, 128
-0.997655, 471, 265, 486, 328
-0.997664, 229, 121, 244, 184
-0.997666, 333, 17, 348, 80
-0.997679, 331, 129, 346, 192
-0.997681, 283, 265, 298, 328
-0.997683, 419, 297, 434, 360
-0.997683, 209, 237, 336, 268
-0.997686, 347, 337, 362, 368
-0.997693, 257, 73, 272, 136
-0.997697, 427, 321, 442, 352
-0.997699, 333, 309, 348, 340
-0.997705, 375, 337, 390, 368
-0.997726, 1, 249, 256, 312
-0.997737, 285, 177, 316, 304
-0.997759, 37, 225, 52, 256
-0.99776, 81, 1, 144, 375
-0.997775, 363, 301, 378, 332
-0.997778, 355, 309, 370, 340
-0.997792, 473, 301, 488, 332
-0.997797, 1, 245, 128, 276
-0.997799, 373, 305, 388, 336
-0.997814, 161, 137, 288, 168
-0.997821, 351, 321, 366, 352
-0.997822, 307, 317, 322, 348
-0.997823, 387, 285, 402, 316
-0.997849, 309, 341, 324, 372
-0.997858, 57, 209, 120, 336
-0.997869, 355, 333, 370, 364
-0.997887, 305, 293, 320, 324
-0.997891, 289, 213, 416, 244
-0.997892, 329, 325, 344, 356
-0.997894, 315, 293, 330, 324
-0.997894, 305, 237, 432, 268
-0.997909, 225, 293, 352, 324
-0.997914, 137, 33, 200, 96
-0.997928, 13, 261, 28, 292
-0.997934, 315, 341, 330, 372
-0.997939, 345, 317, 360, 348
-0.997953, 365, 321, 380, 352
-0.99796, 185, 241, 248, 304
-0.997969, 371, 325, 386, 356
-0.997974, 357, 297, 372, 328
-0.997977, 339, 313, 354, 344
-0.997978, 331, 341, 346, 372
-0.997981, 301, 333, 316, 364
-0.997987, 145, 225, 272, 256
-0.997992, 337, 341, 352, 372
-0.997995, 433, 309, 448, 340
-0.998, 257, 9, 500, 72
-0.99802, 361, 337, 376, 368
-0.998021, 319, 321, 334, 352
-0.998028, 481, 313, 496, 344
-0.998028, 471, 313, 486, 344
-0.998033, 439, 309, 454, 340
-0.998053, 185, 25, 248, 88
-0.998055, 391, 301, 406, 332
-0.998059, 373, 293, 388, 324
-0.998071, 427, 309, 442, 340
-0.998082, 193, 73, 320, 104
-0.998082, 161, 121, 288, 152
-0.998086, 1, 113, 500, 176
-0.998096, 153, 161, 216, 224
-0.998104, 305, 161, 432, 192
-0.998104, 25, 249, 40, 280
-0.998107, 1, 209, 128, 240
-0.998109, 285, 117, 300, 148
-0.998117, 419, 309, 434, 340
-0.99812, 357, 321, 372, 352
-0.998132, 313, 321, 328, 352
-0.998139, 63, 153, 78, 184
-0.998142, 323, 289, 338, 320
-0.998144, 329, 289, 344, 320
-0.998154, 345, 297, 360, 328
-0.998154, 277, 33, 308, 288
-0.998155, 49, 33, 80, 288
-0.998184, 73, 205, 88, 236
-0.998184, 483, 281, 498, 312
-0.998186, 245, 185, 260, 216
-0.998192, 295, 337, 310, 368
-0.998194, 413, 305, 428, 336
-0.998207, 385, 313, 400, 344
-0.99821, 441, 297, 456, 328
-0.998211, 25, 249, 88, 312
-0.998212, 73, 153, 88, 184
-0.998217, 193, 41, 320, 72
-0.998221, 409, 329, 424, 360
-0.998233, 339, 325, 354, 356
-0.99824, 287, 313, 302, 344
-0.998249, 305, 101, 432, 132
-0.99826, 357, 33, 388, 288
-0.998264, 121, 177, 184, 240
-0.99827, 265, 97, 296, 352
-0.998285, 467, 285, 482, 316
-0.998293, 439, 285, 454, 316
-0.998295, 77, 129, 108, 375
-0.998304, 365, 129, 396, 375
-0.998316, 67, 209, 82, 240
-0.998317, 367, 289, 382, 320
-0.998326, 239, 177, 254, 208
-0.998327, 369, 261, 496, 292
-0.998331, 367, 337, 382, 368
-0.998332, 65, 73, 192, 104
-0.998333, 249, 169, 264, 200
-0.998333, 445, 33, 476, 160
-0.998343, 397, 289, 412, 320
-0.998346, 345, 299, 376, 314
-0.998347, 381, 357, 412, 372
-0.998347, 353, 345, 368, 375
-0.998348, 33, 237, 64, 252
-0.998348, 21, 251, 52, 266
-0.998349, 329, 311, 360, 326
-0.998349, 83, 165, 98, 196
-0.99835, 361, 251, 392, 266
-0.998351, 341, 307, 372, 322
-0.998351, 389, 325, 420, 340
-0.998353, 449, 285, 464, 316
-0.998353, 289, 355, 320, 370
-0.998354, 241, 193, 272, 208
-0.998354, 309, 1, 340, 256
-0.998354, 217, 191, 248, 206
-0.998355, 217, 131, 248, 146
-0.998357, 245, 157, 276, 172
-0.998358, 299, 293, 314, 324
-0.998358, 345, 259, 376, 274
-0.998358, 361, 145, 392, 160
-0.998358, 317, 319, 348, 334
-0.998359, 369, 151, 400, 166
-0.998359, 249, 101, 280, 116
-0.998361, 261, 187, 292, 202
-0.998363, 449, 291, 480, 306
-0.998363, 69, 161, 100, 176
-0.998364, 297, 349, 328, 364
-0.998364, 235, 201, 250, 232
-0.998364, 309, 313, 340, 328
-0.998365, 293, 125, 324, 140
-0.998365, 329, 143, 360, 158
-0.998366, 297, 343, 328, 358
-0.998366, 485, 293, 500, 324
-0.998366, 393, 311, 424, 326
-0.998367, 45, 225, 76, 240
-0.998368, 229, 133, 260, 148
-0.998368, 319, 305, 334, 336
-0.998371, 361, 291, 392, 306
-0.998374, 273, 45, 400, 76
-0.998375, 341, 291, 372, 306
-0.998375, 249, 181, 280, 196
-0.998375, 273, 347, 304, 362
-0.998375, 97, 113, 160, 240
-0.998377, 29, 237, 44, 268
-0.998377, 333, 263, 364, 278
-0.998377, 257, 123, 288, 138
-0.998378, 3, 281, 18, 312
-0.998381, 231, 129, 246, 160
-0.998381, 245, 165, 276, 180
-0.998387, 333, 301, 364, 316
-0.998388, 229, 203, 260, 218
-0.998389, 401, 361, 432, 375
-0.998389, 249, 187, 280, 202
-0.99839, 429, 309, 460, 324
-0.99839, 293, 361, 324, 375
-0.99839, 265, 115, 296, 130
-0.99839, 469, 287, 500, 302
-0.998391, 437, 331, 468, 346
-0.998391, 395, 277, 410, 308
-0.998393, 253, 131, 284, 146
-0.998394, 301, 321, 316, 352
-0.998394, 449, 285, 480, 300
-0.998395, 313, 295, 344, 310
-0.998397, 241, 197, 256, 228
-0.998397, 389, 33, 420, 160
-0.998397, 317, 301, 348, 316
-0.998401, 281, 127, 312, 142
-0.998404, 413, 285, 444, 300
-0.998405, 419, 333, 434, 364
-0.998405, 281, 325, 296, 356
-0.998406, 357, 155, 388, 170
-0.998406, 1, 271, 32, 286
-0.998407, 405, 327, 436, 342
-0.998407, 357, 303, 388, 318
-0.998408, 397, 289, 428, 304
-0.998409, 469, 293, 500, 308
-0.998413, 469, 313, 500, 328
-0.998413, 429, 287, 460, 302
-0.998413, 469, 303, 500, 318
-0.998416, 369, 327, 400, 342
-0.998417, 329, 317, 360, 332
-0.998417, 273, 359, 304, 374
-0.998419, 321, 347, 352, 362
-0.998419, 47, 225, 62, 256
-0.998421, 345, 335, 376, 350
-0.998422, 389, 317, 420, 332
-0.998425, 309, 361, 340, 375
-0.998426, 393, 301, 424, 316
-0.998429, 373, 305, 404, 320
-0.998429, 1, 279, 32, 294
-0.998429, 421, 97, 452, 224
-0.998431, 277, 341, 292, 372
-0.998432, 15, 273, 30, 304
-0.998433, 413, 309, 444, 324
-0.998434, 325, 359, 356, 374
-0.998435, 237, 185, 268, 200
-0.998435, 233, 127, 264, 142
-0.998436, 77, 167, 108, 182
-0.998436, 273, 121, 304, 136
-0.998437, 335, 297, 350, 328
-0.998438, 49, 153, 64, 184
-0.998439, 337, 329, 368, 344
-0.998439, 293, 307, 324, 322
-0.99844, 245, 175, 276, 190
-0.998443, 425, 217, 488, 280
-0.998444, 1, 167, 32, 182
-0.998444, 341, 355, 372, 370
-0.998444, 349, 149, 380, 164
-0.998444, 301, 355, 332, 370
-0.998446, 33, 231, 64, 246
-0.998447, 353, 327, 384, 342
-0.998447, 277, 339, 308, 354
-0.998448, 377, 289, 408, 304
-0.998449, 357, 343, 388, 358
-0.99845, 421, 327, 452, 342
-0.99845, 281, 331, 312, 346
-0.998452, 373, 299, 404, 314
-0.998454, 277, 109, 292, 140
-0.998454, 305, 323, 336, 338
-0.998454, 361, 297, 392, 312
-0.998454, 273, 353, 304, 368
-0.998454, 317, 325, 348, 340
-0.998456, 279, 125, 294, 156
-0.998459, 365, 333, 396, 348
-0.99846, 375, 229, 390, 260
-0.99846, 313, 353, 344, 368
-0.998461, 21, 261, 36, 292
-0.998461, 35, 237, 50, 268
-0.998463, 413, 359, 444, 374
-0.998463, 229, 197, 260, 212
-0.998464, 53, 155, 84, 170
-0.998464, 417, 319, 448, 334
-0.998464, 413, 303, 444, 318
-0.998464, 261, 1, 292, 256
-0.998465, 341, 145, 372, 272
-0.998466, 297, 297, 328, 312
-0.998466, 41, 161, 56, 192
-0.998466, 289, 313, 320, 328
-0.998467, 331, 133, 346, 164
-0.998467, 393, 295, 424, 310
-0.998471, 273, 331, 336, 346
-0.998472, 285, 323, 316, 338
-0.998473, 425, 337, 440, 368
-0.998474, 83, 185, 98, 216
-0.998476, 325, 33, 356, 288
-0.998479, 333, 335, 364, 350
-0.998481, 361, 319, 392, 334
-0.998482, 379, 285, 394, 316
-0.998483, 479, 301, 494, 332
-0.998484, 413, 335, 444, 350
-0.998485, 413, 293, 444, 308
-0.998486, 313, 307, 344, 322
-0.998486, 361, 351, 392, 366
-0.998487, 333, 343, 364, 358
-0.998488, 403, 285, 418, 316
-0.998488, 19, 169, 34, 200
-0.998489, 385, 295, 448, 310
-0.998489, 357, 309, 388, 324
-0.99849, 383, 329, 398, 360
-0.99849, 345, 341, 376, 356
-0.998492, 425, 303, 456, 318
-0.998493, 91, 173, 106, 204
-0.998496, 265, 353, 328, 368
-0.998497, 321, 151, 384, 166
-0.998499, 341, 313, 372, 328
-0.9985, 343, 141, 358, 172
-0.998502, 257, 361, 320, 375
-0.998502, 349, 319, 380, 334
-0.998502, 425, 293, 456, 308
-0.998503, 281, 307, 344, 322
-0.998505, 385, 321, 448, 336
-0.998507, 237, 225, 252, 256
-0.998507, 465, 321, 480, 352
-0.99851, 161, 345, 288, 375
-0.998513, 61, 217, 76, 248
-0.998513, 19, 249, 34, 280
-0.998513, 289, 295, 352, 310
-0.998514, 1, 97, 256, 160
-0.998514, 33, 161, 96, 176
-0.998514, 369, 33, 496, 64
-0.998515, 361, 313, 424, 328
-0.998516, 309, 343, 340, 358
-0.998516, 323, 129, 338, 160
-0.998518, 463, 333, 478, 364
-0.998519, 385, 309, 448, 324
-0.99852, 337, 149, 368, 164
-0.99852, 281, 315, 344, 330
-0.998521, 411, 341, 426, 372
-0.998522, 301, 329, 332, 344
-0.998522, 417, 285, 432, 316
-0.998524, 305, 353, 368, 368
-0.998525, 31, 169, 46, 200
-0.998527, 385, 315, 448, 330
-0.998529, 317, 331, 348, 346
-0.998529, 337, 323, 368, 338
-0.998534, 245, 261, 260, 292
-0.998535, 281, 359, 344, 374
-0.998537, 435, 333, 450, 364
-0.998539, 433, 287, 496, 302
-0.99854, 33, 33, 64, 288
-0.998541, 351, 145, 366, 176
-0.998541, 377, 301, 440, 316
-0.998544, 273, 343, 336, 358
-0.998544, 55, 149, 70, 180
-0.998545, 57, 167, 120, 182
-0.998547, 435, 297, 450, 328
-0.998547, 273, 337, 336, 352
-0.998548, 353, 289, 416, 304
-0.99855, 305, 335, 336, 350
-0.998551, 341, 349, 372, 364
-0.998551, 253, 125, 268, 156
-0.998552, 377, 287, 440, 302
-0.998553, 401, 303, 464, 318
-0.998555, 293, 301, 308, 332
-0.998558, 369, 311, 400, 326
-0.998558, 257, 177, 272, 208
-0.998558, 417, 293, 480, 308
-0.998558, 281, 301, 344, 316
-0.99856, 273, 325, 336, 340
-0.998562, 337, 355, 400, 370
-0.998566, 33, 155, 96, 170
-0.998566, 361, 319, 424, 334
-0.998567, 233, 1, 264, 256
-0.998569, 321, 339, 352, 354
-0.99857, 325, 353, 356, 368
-0.99857, 225, 125, 288, 140
-0.998571, 305, 309, 368, 324
-0.998574, 321, 37, 448, 68
-0.998574, 233, 183, 296, 198
-0.998574, 369, 337, 432, 352
-0.998575, 313, 299, 376, 314
-0.998575, 229, 191, 260, 206
-0.998577, 337, 297, 400, 312
-0.998578, 329, 329, 392, 344
-0.998582, 329, 317, 392, 332
-0.998584, 289, 33, 320, 288
-0.998584, 237, 249, 252, 280
-0.998585, 329, 309, 392, 324
-0.998585, 257, 25, 384, 56
-0.998585, 337, 347, 400, 362
-0.998586, 337, 33, 368, 288
-0.998587, 305, 145, 368, 160
-0.998587, 425, 313, 488, 328
-0.998587, 249, 123, 312, 138
-0.998588, 201, 131, 264, 146
-0.998589, 25, 167, 88, 182
-0.99859, 217, 191, 280, 206
-0.99859, 305, 323, 368, 338
-0.998592, 329, 323, 392, 338
-0.998592, 369, 361, 432, 375
-0.998594, 369, 327, 432, 342
-0.998594, 1, 165, 64, 180
-0.998595, 241, 191, 304, 206
-0.998595, 401, 285, 464, 300
-0.998595, 353, 147, 416, 162
-0.998598, 353, 305, 416, 320
-0.998601, 353, 251, 416, 266
-0.998602, 249, 117, 312, 132
-0.998605, 1, 273, 128, 304
-0.998605, 241, 137, 304, 152
-0.998606, 25, 231, 88, 246
-0.998609, 273, 127, 336, 142
-0.998614, 425, 299, 488, 314
-0.998614, 329, 361, 392, 375
-0.998617, 313, 347, 376, 362
-0.998617, 233, 167, 296, 182
-0.998625, 337, 139, 400, 154
-0.998625, 361, 245, 424, 260
-0.998626, 225, 131, 288, 146
-0.998628, 313, 293, 376, 308
-0.998628, 393, 327, 456, 342
-0.998628, 249, 1, 280, 256
-0.998633, 393, 361, 456, 375
-0.998634, 41, 175, 104, 190
-0.998635, 401, 335, 464, 350
-0.998635, 361, 295, 424, 310
-0.998637, 297, 329, 360, 344
-0.998638, 81, 153, 208, 184
-0.998639, 321, 223, 384, 238
-0.998639, 233, 173, 296, 188
-0.99864, 305, 335, 368, 350
-0.998641, 33, 225, 96, 240
-0.998642, 425, 333, 488, 348
-0.998643, 425, 361, 488, 375
-0.998643, 113, 65, 144, 192
-0.998644, 329, 157, 392, 172
-0.998644, 9, 257, 72, 272
-0.998645, 9, 263, 72, 278
-0.998646, 425, 321, 488, 336
-0.998646, 217, 199, 280, 214
-0.998648, 9, 251, 72, 266
-0.998649, 9, 273, 72, 288
-0.998649, 361, 153, 424, 168
-0.998651, 233, 103, 296, 118
-0.998651, 289, 259, 352, 274
-0.998651, 1, 279, 64, 294
-0.998652, 25, 237, 88, 252
-0.998653, 249, 335, 312, 350
-0.998653, 65, 203, 128, 218
-0.998653, 425, 305, 488, 320
-0.998653, 241, 351, 304, 366
-0.998655, 73, 195, 136, 210
-0.998656, 1, 171, 64, 186
-0.998657, 417, 327, 480, 342
-0.99866, 305, 315, 368, 330
-0.99866, 249, 129, 312, 144
-0.998661, 345, 257, 408, 272
-0.998662, 281, 115, 344, 130
-0.998662, 73, 189, 136, 204
-0.998663, 369, 131, 432, 146
-0.998664, 57, 161, 120, 176
-0.998664, 33, 193, 96, 208
-0.998664, 249, 329, 312, 344
-0.998664, 249, 65, 312, 80
-0.998664, 289, 139, 352, 154
-0.998667, 273, 193, 400, 224
-0.998667, 361, 161, 424, 176
-0.998668, 225, 361, 288, 375
-0.998668, 225, 207, 288, 222
-0.99867, 193, 217, 256, 232
-0.998671, 337, 237, 400, 252
-0.998671, 233, 161, 296, 176
-0.998671, 49, 219, 112, 234
-0.998672, 329, 145, 392, 160
-0.998672, 385, 279, 448, 294
-0.998672, 225, 227, 288, 242
-0.998674, 329, 133, 392, 148
-0.998674, 369, 343, 432, 358
-0.998675, 225, 235, 288, 250
-0.998676, 361, 221, 424, 236
-0.998676, 25, 243, 88, 258
-0.998677, 369, 355, 432, 370
-0.998677, 289, 269, 352, 284
-0.998679, 433, 281, 496, 296
-0.998679, 329, 263, 392, 278
-0.998679, 9, 221, 72, 236
-0.99868, 225, 215, 288, 230
-0.998734, 229, 129, 260, 375
-0.998744, 305, 89, 432, 120
-0.998745, 469, 1, 500, 256
-0.99877, 355, 241, 370, 368
-0.998784, 429, 129, 460, 375
-0.998785, 339, 241, 354, 368
-0.998812, 345, 241, 360, 368
-0.998827, 377, 17, 408, 144
-0.998827, 273, 277, 400, 308
-0.99885, 77, 33, 108, 288
-0.998861, 433, 1, 464, 128
-0.998874, 401, 129, 432, 375
-0.998886, 113, 225, 240, 288
-0.998903, 449, 129, 480, 375
-0.998913, 361, 241, 376, 368
-0.99893, 41, 145, 56, 272
-0.998938, 297, 241, 312, 368
-0.998943, 29, 161, 44, 288
-0.99895, 177, 313, 304, 344
-0.99896, 329, 241, 344, 368
-0.998961, 47, 145, 62, 272
-0.998987, 257, 237, 384, 268
-0.999006, 367, 225, 382, 352
-0.999007, 1, 305, 128, 368
-0.99901, 241, 177, 256, 304
-0.999026, 249, 113, 264, 240
-0.999034, 35, 161, 50, 288
-0.999035, 307, 241, 322, 368
-0.999038, 57, 129, 72, 256
-0.999039, 23, 161, 38, 288
-0.999058, 379, 225, 394, 352
-0.999063, 289, 241, 304, 368
-0.999066, 21, 33, 52, 288
-0.99909, 251, 49, 266, 176
-0.999094, 221, 33, 252, 288
-0.999101, 235, 177, 250, 304
-0.999103, 209, 145, 240, 272
-0.99911, 281, 241, 296, 368
-0.999112, 1, 281, 500, 344
-0.999123, 333, 129, 364, 375
-0.999129, 1, 113, 128, 144
-0.999131, 373, 225, 388, 352
-0.999136, 33, 85, 160, 116
-0.999137, 1, 41, 500, 104
-0.999146, 399, 241, 414, 368
-0.999157, 63, 129, 78, 256
-0.999158, 69, 145, 84, 272
-0.99916, 345, 129, 376, 375
-0.999161, 323, 241, 338, 368
-0.999183, 19, 241, 34, 368
-0.999185, 449, 193, 480, 320
-0.999186, 79, 161, 94, 288
-0.999193, 49, 241, 176, 304
-0.999194, 437, 145, 468, 272
-0.999195, 385, 225, 400, 352
-0.999196, 317, 241, 332, 368
-0.999199, 101, 65, 132, 192
-0.999202, 161, 1, 288, 64
-0.999206, 37, 209, 52, 336
-0.99921, 113, 65, 240, 96
-0.999216, 287, 49, 302, 176
-0.99923, 17, 161, 32, 288
-0.999235, 465, 241, 480, 368
-0.999239, 255, 113, 270, 240
-0.999241, 25, 225, 40, 352
-0.999258, 321, 129, 352, 375
-0.99926, 391, 241, 406, 368
-0.999261, 247, 161, 262, 288
-0.999262, 305, 25, 432, 56
-0.99927, 17, 97, 144, 128
-0.999282, 359, 193, 374, 320
-0.999287, 479, 241, 494, 368
-0.999299, 47, 209, 62, 336
-0.999301, 279, 65, 294, 192
-0.999303, 161, 333, 288, 364
-0.999306, 145, 49, 272, 80
-0.999313, 177, 297, 304, 328
-0.999318, 261, 113, 276, 240
-0.999331, 11, 145, 26, 272
-0.999334, 329, 49, 344, 176
-0.999337, 369, 21, 496, 52
-0.999339, 407, 209, 422, 336
-0.999342, 1, 241, 16, 368
-0.999343, 257, 65, 272, 192
-0.99935, 351, 193, 366, 320
-0.999354, 65, 193, 80, 320
-0.999355, 31, 209, 46, 336
-0.999366, 273, 49, 288, 176
-0.999368, 455, 241, 470, 368
-0.999371, 11, 193, 26, 320
-0.999372, 273, 241, 288, 368
-0.999379, 345, 193, 360, 320
-0.999389, 3, 145, 18, 272
-0.999391, 417, 225, 432, 352
-0.999393, 293, 49, 308, 176
-0.999394, 335, 49, 350, 176
-0.999395, 469, 97, 500, 352
-0.999397, 417, 129, 448, 375
-0.999404, 377, 1, 408, 256
-0.999406, 81, 281, 208, 344
-0.999406, 473, 241, 488, 368
-0.99941, 303, 1, 318, 128
-0.999413, 245, 49, 260, 176
-0.999413, 267, 81, 282, 208
-0.999426, 13, 241, 28, 368
-0.999426, 329, 1, 344, 128
-0.999433, 335, 1, 350, 128
-0.999438, 73, 193, 88, 320
-0.999442, 435, 241, 450, 368
-0.999448, 255, 177, 270, 304
-0.99945, 53, 209, 68, 336
-0.999451, 59, 193, 74, 320
-0.999451, 485, 241, 500, 368
-0.999452, 321, 33, 336, 160
-0.999452, 239, 129, 254, 256
-0.999456, 75, 113, 90, 240
-0.999463, 389, 129, 420, 375
-0.999467, 301, 49, 316, 176
-0.999467, 7, 241, 22, 368
-0.999468, 457, 1, 488, 256
-0.999469, 93, 33, 124, 288
-0.999472, 19, 97, 34, 224
-0.999476, 339, 193, 354, 320
-0.999477, 275, 113, 290, 240
-0.999478, 311, 33, 326, 160
-0.999481, 485, 1, 500, 128
-0.999485, 263, 177, 278, 304
-0.999485, 477, 17, 492, 144
-0.999486, 85, 145, 100, 272
-0.999489, 11, 97, 26, 224
-0.99949, 33, 137, 160, 168
-0.999498, 327, 97, 342, 224
-0.999498, 47, 81, 62, 208
-0.999499, 297, 1, 312, 128
-0.9995, 361, 49, 376, 176
-0.999505, 33, 49, 96, 176
-0.999514, 423, 209, 438, 336
-0.999514, 267, 241, 282, 368
-0.999519, 341, 49, 356, 176
-0.99952, 53, 81, 68, 208
-0.99952, 41, 81, 56, 208
-0.999523, 399, 129, 414, 256
-0.999526, 5, 193, 20, 320
-0.999533, 351, 49, 366, 176
-0.999541, 407, 145, 422, 272
-0.999545, 225, 281, 352, 312
-0.999545, 59, 65, 74, 192
-0.999549, 259, 241, 274, 368
-0.999553, 129, 97, 256, 128
-0.999554, 405, 1, 436, 256
-0.999555, 279, 17, 294, 144
-0.999556, 365, 177, 380, 304
-0.999561, 429, 209, 444, 336
-0.999567, 239, 49, 254, 176
-0.999567, 305, 357, 320, 372
-0.999567, 371, 145, 386, 272
-0.999568, 427, 287, 442, 302
-0.999568, 49, 229, 64, 244
-0.999568, 441, 209, 456, 336
-0.999568, 21, 263, 36, 278
-0.999569, 319, 345, 334, 360
-0.99957, 325, 303, 340, 318
-0.999571, 349, 325, 364, 340
-0.999571, 249, 181, 264, 196
-0.999571, 473, 299, 488, 314
-0.999571, 431, 315, 446, 330
-0.999571, 391, 193, 406, 320
-0.999572, 401, 289, 416, 304
-0.999573, 325, 347, 340, 362
-0.999573, 363, 331, 378, 346
-0.999573, 315, 325, 330, 340
-0.999573, 411, 287, 426, 302
-0.999574, 357, 327, 372, 342
-0.999574, 335, 349, 350, 364
-0.999574, 423, 315, 438, 330
-0.999574, 363, 325, 378, 340
-0.999575, 303, 319, 318, 334
-0.999575, 353, 339, 368, 354
-0.999576, 421, 285, 436, 300
-0.999576, 309, 313, 324, 328
-0.999577, 431, 333, 446, 348
-0.999578, 475, 293, 490, 308
-0.999578, 347, 313, 362, 328
-0.999579, 369, 295, 384, 310
-0.999579, 235, 197, 250, 212
-0.999579, 423, 309, 438, 324
-0.999579, 331, 337, 346, 352
-0.99958, 431, 309, 446, 324
-0.99958, 281, 113, 296, 240
-0.999581, 371, 331, 386, 346
-0.999581, 371, 49, 386, 176
-0.999581, 355, 333, 370, 348
-0.999581, 371, 155, 386, 170
-0.999582, 293, 353, 308, 368
-0.999582, 253, 241, 268, 368
-0.999582, 429, 327, 444, 342
-0.999583, 1, 97, 16, 224
-0.999583, 343, 319, 358, 334
-0.999583, 471, 33, 486, 160
-0.999584, 423, 299, 438, 314
-0.999584, 249, 175, 264, 190
-0.999584, 321, 327, 336, 342
-0.999584, 361, 313, 376, 328
-0.999585, 321, 97, 336, 224
-0.999586, 241, 185, 256, 200
-0.999586, 279, 119, 294, 134
-0.999588, 29, 97, 44, 224
-0.999588, 295, 343, 310, 358
-0.999588, 25, 251, 40, 266
-0.999589, 413, 315, 428, 330
-0.99959, 419, 361, 434, 375
-0.999591, 91, 145, 106, 272
-0.999591, 477, 307, 492, 322
-0.999593, 39, 233, 54, 248
-0.999593, 477, 313, 492, 328
-0.999594, 367, 341, 382, 356
-0.999597, 13, 271, 28, 286
-0.999597, 471, 313, 486, 328
-0.999599, 335, 311, 350, 326
-0.999599, 185, 1, 216, 128
-0.999599, 333, 193, 348, 320
-0.999599, 373, 319, 388, 334
-0.9996, 441, 299, 456, 314
-0.9996, 379, 319, 394, 334
-0.999601, 389, 289, 404, 304
-0.999601, 341, 1, 356, 128
-0.999601, 319, 339, 334, 354
-0.999602, 351, 351, 366, 366
-0.999604, 361, 307, 376, 322
-0.999604, 377, 329, 392, 344
-0.999604, 229, 177, 244, 304
-0.999605, 447, 289, 462, 304
-0.999605, 319, 303, 334, 318
-0.999605, 341, 325, 356, 340
-0.999605, 413, 335, 428, 350
-0.999605, 301, 295, 316, 310
-0.999606, 73, 161, 88, 176
-0.999606, 367, 317, 382, 332
-0.999607, 427, 293, 442, 308
-0.999608, 407, 361, 422, 375
-0.999608, 435, 327, 450, 342
-0.999609, 353, 319, 368, 334
-0.999609, 431, 321, 446, 336
-0.999609, 359, 145, 374, 272
-0.999609, 303, 329, 318, 344
-0.99961, 287, 1, 302, 128
-0.99961, 379, 301, 394, 316
-0.999611, 289, 129, 320, 375
-0.999611, 477, 287, 492, 302
-0.999611, 269, 177, 284, 304
-0.999611, 35, 81, 50, 208
-0.999612, 435, 287, 450, 302
-0.999614, 431, 303, 446, 318
-0.999616, 377, 307, 392, 322
-0.999617, 365, 153, 380, 168
-0.999618, 357, 347, 372, 362
-0.999618, 329, 329, 344, 344
-0.999619, 339, 337, 354, 352
-0.99962, 393, 145, 408, 272
-0.99962, 361, 341, 376, 356
-0.99962, 311, 355, 326, 370
-0.999622, 235, 225, 250, 352
-0.999622, 337, 343, 352, 358
-0.999622, 347, 343, 362, 358
-0.999623, 347, 1, 362, 128
-0.999623, 447, 241, 462, 368
-0.999623, 339, 331, 354, 346
-0.999626, 317, 355, 332, 370
-0.999626, 323, 357, 338, 372
-0.999626, 361, 297, 376, 312
-0.999628, 367, 311, 382, 326
-0.999628, 333, 355, 348, 370
-0.999629, 361, 319, 376, 334
-0.99963, 377, 335, 392, 350
-0.999631, 355, 1, 370, 128
-0.999631, 417, 299, 432, 314
-0.999631, 413, 321, 428, 336
-0.999632, 433, 293, 448, 308
-0.999632, 37, 227, 52, 242
-0.999632, 263, 33, 278, 160
-0.999632, 231, 131, 246, 146
-0.999633, 277, 129, 308, 375
-0.999633, 373, 313, 388, 328
-0.999634, 303, 335, 318, 350
-0.999635, 375, 341, 390, 356
-0.999638, 441, 287, 456, 302
-0.999639, 413, 309, 428, 324
-0.999639, 353, 313, 368, 328
-0.999641, 287, 121, 302, 136
-0.999642, 357, 151, 372, 166
-0.999643, 299, 359, 314, 374
-0.999645, 303, 345, 318, 360
-0.999647, 385, 299, 400, 314
-0.999648, 417, 293, 432, 308
-0.999653, 351, 149, 366, 164
-0.999655, 343, 147, 358, 162
-0.999656, 409, 327, 424, 342
-0.999656, 315, 311, 330, 326
-0.999658, 371, 305, 386, 320
-0.999661, 97, 213, 224, 244
-0.999662, 301, 351, 316, 366
-0.999664, 311, 319, 326, 334
-0.999665, 325, 339, 340, 354
-0.999675, 437, 305, 452, 320
-0.999675, 369, 9, 496, 40
-0.999679, 341, 353, 356, 368
-0.99968, 319, 333, 334, 348
-0.999691, 61, 1, 92, 256
-0.999693, 439, 293, 454, 308
-0.999705, 289, 13, 416, 44
-0.999707, 209, 33, 240, 288
-0.999707, 309, 325, 324, 340
-0.999711, 383, 307, 398, 322
-0.999713, 311, 335, 326, 350
-0.999722, 113, 165, 240, 196
-0.999731, 381, 313, 396, 328
-0.999741, 233, 191, 248, 206
-0.999748, 33, 309, 160, 340
-0.999767, 309, 97, 340, 352
-0.999775, 65, 53, 192, 84
-0.999778, 393, 1, 424, 256
-0.999786, 129, 85, 256, 116
-0.999795, 217, 129, 248, 375
-0.999797, 65, 97, 192, 160
-0.999807, 97, 197, 224, 228
-0.999845, 129, 109, 256, 140
-0.999856, 421, 33, 452, 288
-0.999863, 337, 97, 368, 224
-0.999872, 437, 1, 468, 256
-0.999897, 81, 93, 208, 124
-0.9999, 17, 73, 144, 104
-0.999918, 129, 9, 384, 72
-0.999921, 113, 305, 240, 368
-0.999944, 229, 1, 260, 128
-0.999951, 193, 1, 224, 256
-0.999972, 49, 305, 176, 368
-0.99999, 81, 225, 208, 256
-0.999994, 449, 113, 480, 240
-1.00002, 1, 33, 32, 288
-1.00002, 181, 33, 212, 288
-1.00005, 169, 33, 200, 288
-1.00011, 1, 65, 128, 128
-1.00012, 137, 33, 168, 288
-1.00017, 129, 273, 256, 336
-1.00017, 1, 41, 256, 104
-1.00018, 85, 65, 116, 192
-1.0002, 185, 225, 248, 352
-1.00025, 125, 33, 156, 288
-1.00026, 89, 129, 120, 375
-1.00027, 109, 33, 140, 288
-1.00028, 149, 33, 180, 288
-1.00031, 1, 33, 128, 160
-1.00033, 197, 1, 228, 128
-1.00037, 1, 17, 500, 80
-1.00052, 17, 41, 144, 104
-1.00058, 1, 297, 256, 360
-1.0007, 77, 193, 108, 320
-1.00074, 161, 97, 224, 224
-1.00082, 297, 145, 328, 272
-1.00087, 197, 97, 228, 352
-1.00087, 209, 1, 240, 128
-1.00092, 169, 1, 200, 128
-1.00092, 97, 249, 224, 312
-1.00094, 89, 17, 152, 144
-1.00095, 129, 129, 160, 375
-1.00096, 117, 129, 148, 375
-1.00097, 1, 273, 256, 336
-1.00101, 101, 129, 132, 375
-1.00109, 161, 129, 192, 375
-1.0011, 309, 145, 340, 272
-1.00118, 1, 17, 256, 80
-1.00126, 173, 129, 204, 375
-1.00129, 145, 129, 176, 375
-1.00129, 81, 17, 208, 80
-1.00133, 185, 129, 216, 375
-1.0014, 97, 209, 224, 336
-1.00141, 421, 1, 452, 128
-1.00218, 33, 1, 160, 64
-1.00226, 109, 145, 140, 272
-1.00233, 245, 1, 276, 128
-1.00256, 97, 129, 160, 375
-1.00263, 97, 209, 160, 336
-1.00264, 129, 17, 160, 144
-1.00276, 161, 193, 224, 320
-1.00293, 157, 1, 188, 128
-1.00308, 129, 1, 192, 128
-1.00312, 121, 129, 184, 256
-1.00365, 169, 97, 232, 352
-1.0037, 121, 129, 184, 375
-1.00415, 121, 177, 184, 304
-1.00435, 65, 1, 128, 128
-1.00477, 153, 145, 216, 272
-1.00554, 145, 129, 208, 375
-1.00619, 9, 33, 72, 160
-1.00668, 33, 241, 96, 368
-1.00669, 153, 241, 216, 368
-1.00689, 129, 241, 192, 368
-1.00792, 41, 1, 104, 128
