1900
-0.294748, 1, 65, 333, 320
-0.298489, 1, 1, 333, 500
-0.421129, 33, 33, 288, 288
-0.437554, 33, 1, 288, 500
-0.491824, 1, 193, 333, 448
-0.687923, 65, 129, 320, 384
-0.831479, 145, 33, 272, 288
-0.831773, 97, 1, 224, 500
-0.841065, 1, 113, 333, 240
-0.844145, 65, 225, 320, 480
-0.846472, 49, 97, 176, 352
-0.849626, 97, 33, 224, 288
-0.851637, 177, 129, 304, 384
-0.85615, 145, 1, 272, 500
-0.859357, 193, 33, 320, 288
-0.87706, 193, 1, 320, 500
-0.878899, 1, 49, 333, 176
-0.882064, 33, 113, 288, 240
-0.884496, 1, 97, 128, 352
-0.885919, 33, 1, 160, 500
-0.886225, 113, 193, 240, 448
-0.894703, 1, 161, 333, 288
-0.898916, 65, 49, 320, 176
-0.903552, 65, 193, 192, 448
-0.903991, 1, 1, 333, 128
-0.908126, 177, 225, 304, 480
-0.909635, 49, 1, 176, 256
-0.916393, 17, 193, 144, 448
-0.921499, 161, 113, 288, 240
-0.921961, 129, 65, 256, 192
-0.924732, 1, 209, 333, 336
-0.930197, 33, 1, 288, 128
-0.932606, 209, 49, 272, 176
-0.933472, 177, 65, 304, 192
-0.935909, 65, 113, 192, 240
-0.936122, 121, 49, 184, 176
-0.937439, 33, 161, 288, 288
-0.937624, 1, 1, 128, 256
-0.938606, 41, 113, 104, 240
-0.940318, 153, 49, 216, 176
-0.940363, 97, 169, 160, 232
-0.941762, 209, 129, 272, 256
-0.941811, 185, 65, 248, 192
-0.942689, 161, 1, 288, 128
-0.944763, 33, 209, 288, 336
-0.945292, 241, 97, 304, 224
-0.946206, 225, 1, 288, 128
-0.946518, 161, 177, 224, 240
-0.946538, 209, 161, 333, 288
-0.947394, 81, 49, 208, 176
-0.949164, 201, 65, 264, 128
-0.949396, 129, 169, 192, 232
-0.949554, 241, 145, 304, 272
-0.949628, 225, 33, 288, 96
-0.949897, 65, 97, 128, 224
-0.950631, 1, 257, 333, 384
-0.950695, 17, 113, 144, 240
-0.950887, 209, 113, 333, 240
-0.951347, 273, 177, 333, 304
-0.951784, 65, 169, 128, 232
-0.951896, 137, 1, 200, 128
-0.952113, 185, 129, 248, 256
-0.95263, 265, 185, 328, 248
-0.953097, 209, 17, 333, 144
-0.953484, 169, 177, 232, 304
-0.953749, 217, 89, 280, 152
-0.953925, 97, 65, 160, 192
-0.954155, 41, 129, 104, 192
-0.954203, 161, 305, 224, 432
-0.954504, 225, 1, 288, 64
-0.954804, 33, 161, 96, 288
-0.95519, 161, 297, 224, 360
-0.955527, 161, 113, 224, 176
-0.955646, 129, 145, 192, 208
-0.955808, 65, 105, 128, 168
-0.955903, 161, 113, 224, 240
-0.955982, 113, 1, 240, 128
-0.956299, 177, 209, 304, 336
-0.956718, 113, 289, 240, 416
-0.956975, 41, 161, 104, 224
-0.957021, 17, 161, 144, 288
-0.957442, 33, 305, 288, 432
-0.957501, 121, 113, 184, 240
-0.957597, 145, 193, 208, 320
-0.957909, 161, 145, 224, 208
-0.958242, 233, 113, 296, 176
-0.95843, 81, 305, 144, 432
-0.958682, 113, 113, 240, 240
-0.958822, 201, 41, 264, 104
-0.958865, 105, 137, 168, 200
-0.959036, 185, 97, 248, 160
-0.959076, 209, 121, 272, 184
-0.95916, 113, 193, 240, 320
-0.959339, 129, 193, 192, 256
-0.960053, 121, 289, 184, 416
-0.96013, 265, 113, 328, 240
-0.960328, 113, 73, 176, 136
-0.960603, 153, 81, 216, 144
-0.960807, 161, 161, 288, 288
-0.961049, 249, 1, 312, 64
-0.961394, 273, 161, 333, 224
-0.961432, 193, 33, 256, 288
-0.961556, 105, 193, 168, 256
-0.961592, 241, 177, 304, 240
-0.961685, 89, 105, 152, 168
-0.962371, 145, 57, 208, 120
-0.962424, 181, 177, 212, 240
-0.962449, 65, 145, 128, 208
-0.962486, 33, 369, 288, 496
-0.962646, 1, 353, 333, 480
-0.962734, 97, 113, 160, 240
-0.962777, 177, 65, 240, 128
-0.962888, 129, 113, 192, 176
-0.962921, 121, 169, 152, 232
-0.963074, 209, 209, 272, 336
-0.963146, 217, 425, 280, 488
-0.963209, 249, 33, 312, 96
-0.963436, 193, 369, 256, 496
-0.963663, 185, 177, 248, 240
-0.963856, 185, 153, 248, 216
-0.964331, 185, 289, 248, 416
-0.964556, 49, 97, 112, 352
-0.964579, 169, 1, 232, 128
-0.964602, 49, 169, 176, 232
-0.964853, 49, 193, 112, 256
-0.964868, 9, 129, 72, 256
-0.964876, 97, 177, 224, 240
-0.965198, 169, 201, 232, 264
-0.965514, 65, 257, 320, 384
-0.965681, 109, 169, 140, 232
-0.96615, 73, 193, 136, 256
-0.96623, 65, 161, 192, 288
-0.966282, 113, 241, 176, 368
-0.966308, 161, 1, 224, 64
-0.966566, 169, 177, 200, 240
-0.966608, 225, 65, 288, 128
-0.966727, 145, 41, 272, 104
-0.967081, 217, 1, 280, 256
-0.967124, 65, 321, 192, 448
-0.967262, 249, 73, 312, 136
-0.967489, 129, 313, 192, 376
-0.967537, 33, 65, 160, 192
-0.967609, 97, 193, 160, 320
-0.967666, 189, 289, 220, 352
-0.968143, 249, 33, 312, 160
-0.96824, 133, 169, 164, 232
-0.968298, 93, 169, 124, 232
-0.968492, 153, 33, 216, 288
-0.968495, 201, 65, 232, 128
-0.968501, 97, 241, 224, 368
-0.968699, 185, 305, 248, 368
-0.968708, 49, 113, 80, 240
-0.968729, 65, 145, 128, 272
-0.968741, 301, 169, 332, 232
-0.968951, 237, 1, 268, 64
-0.969177, 301, 161, 332, 288
-0.969291, 277, 177, 308, 240
-0.969348, 145, 1, 272, 64
-0.969371, 201, 1, 264, 64
-0.969539, 217, 145, 280, 208
-0.969564, 177, 297, 208, 360
-0.969631, 121, 281, 184, 344
-0.969713, 189, 73, 220, 136
-0.969754, 133, 49, 164, 176
-0.969849, 33, 129, 160, 192
-0.969878, 257, 105, 320, 168
-0.969912, 73, 97, 136, 352
-0.96998, 113, 145, 240, 208
-0.969983, 177, 73, 304, 136
-0.970042, 185, 225, 248, 352
-0.970083, 113, 113, 240, 176
-0.970085, 185, 121, 248, 184
-0.970247, 161, 241, 224, 368
-0.970595, 49, 105, 176, 168
-0.970642, 9, 153, 72, 216
-0.970649, 117, 145, 148, 208
-0.970748, 213, 65, 244, 192
-0.970777, 249, 105, 280, 168
-0.97088, 157, 177, 188, 240
-0.970999, 185, 145, 216, 208
-0.971015, 177, 169, 304, 232
-0.9712, 193, 193, 256, 448
-0.971428, 201, 65, 232, 192
-0.971449, 121, 17, 184, 80
-0.971482, 113, 65, 176, 320
-0.97149, 241, 201, 304, 264
-0.971528, 57, 193, 120, 320
-0.971789, 97, 73, 224, 136
-0.971866, 161, 121, 288, 184
-0.971872, 149, 49, 180, 112
-0.971949, 241, 153, 304, 216
-0.972021, 273, 1, 333, 64
-0.972332, 197, 153, 228, 216
-0.972398, 185, 281, 248, 344
-0.972438, 49, 121, 80, 184
-0.972569, 145, 369, 272, 496
-0.972653, 241, 33, 304, 288
-0.972787, 301, 201, 332, 264
-0.972794, 221, 57, 252, 120
-0.972804, 161, 321, 224, 384
-0.972904, 225, 1, 256, 64
-0.973081, 265, 33, 328, 288
-0.973147, 225, 33, 256, 160
-0.973157, 193, 41, 320, 104
-0.973158, 69, 161, 100, 224
-0.97326, 161, 145, 288, 208
-0.973374, 189, 113, 220, 176
-0.973409, 201, 209, 264, 272
-0.973432, 285, 161, 316, 288
-0.973728, 49, 209, 176, 336
-0.973849, 193, 1, 256, 128
-0.97385, 41, 105, 104, 168
-0.974021, 289, 185, 320, 248
-0.974052, 153, 193, 216, 448
-0.974108, 145, 169, 176, 232
-0.974144, 193, 177, 224, 240
-0.974158, 273, 209, 333, 272
-0.974329, 25, 193, 88, 256
-0.974336, 265, 185, 296, 248
-0.974339, 137, 241, 200, 368
-0.97448, 225, 25, 256, 88
-0.974498, 161, 273, 224, 336
-0.974543, 137, 73, 168, 136
-0.974557, 129, 145, 160, 208
-0.974684, 149, 81, 180, 144
-0.974734, 209, 41, 240, 104
-0.974735, 169, 25, 232, 88
-0.974813, 113, 193, 176, 448
-0.974847, 65, 49, 128, 176
-0.974878, 245, 41, 276, 104
-0.974882, 217, 353, 280, 480
-0.974953, 65, 361, 128, 424
-0.975054, 241, 425, 272, 488
-0.97507, 65, 1, 192, 128
-0.975136, 121, 65, 152, 192
-0.97533, 121, 193, 184, 320
-0.975447, 113, 305, 240, 368
-0.975625, 149, 49, 180, 176
-0.97565, 201, 97, 232, 160
-0.975665, 209, 1, 333, 64
-0.975693, 161, 289, 288, 416
-0.975745, 265, 137, 328, 200
-0.975797, 1, 177, 64, 240
-0.975863, 217, 97, 280, 352
-0.9761, 41, 65, 104, 192
-0.976383, 237, 81, 268, 208
-0.976421, 261, 97, 292, 224
-0.976432, 17, 273, 144, 400
-0.976477, 81, 105, 112, 168
-0.976513, 189, 65, 220, 192
-0.976527, 113, 1, 176, 128
-0.976554, 81, 313, 144, 376
-0.976626, 77, 185, 108, 248
-0.976632, 165, 305, 196, 368
-0.976703, 41, 361, 104, 424
-0.976756, 237, 1, 268, 128
-0.976783, 249, 1, 280, 64
-0.976816, 97, 265, 160, 328
-0.97684, 209, 177, 272, 240
-0.976947, 273, 289, 333, 416
-0.977057, 137, 193, 168, 256
-0.97715, 233, 193, 296, 320
-0.977361, 105, 129, 136, 192
-0.977549, 161, 97, 288, 160
-0.977636, 97, 281, 224, 344
-0.97781, 241, 425, 304, 488
-0.977844, 189, 113, 220, 240
-0.97795, 17, 193, 144, 256
-0.977994, 113, 201, 240, 264
-0.97802, 69, 129, 100, 192
-0.978025, 57, 161, 88, 224
-0.978092, 161, 193, 288, 256
-0.978131, 173, 153, 204, 216
-0.978135, 61, 97, 92, 224
-0.978147, 177, 121, 208, 184
-0.978175, 189, 289, 220, 416
-0.978244, 145, 33, 208, 96
-0.978292, 249, 193, 280, 256
-0.978325, 237, 129, 268, 256
-0.978349, 161, 1, 192, 128
-0.978439, 81, 161, 112, 224
-0.978482, 121, 73, 152, 136
-0.978528, 237, 105, 268, 168
-0.978649, 209, 201, 333, 264
-0.978679, 201, 121, 232, 184
-0.978767, 81, 337, 144, 400
-0.978781, 45, 161, 76, 224
-0.978973, 65, 185, 96, 248
-0.978979, 205, 129, 236, 256
-0.979059, 237, 129, 268, 192
-0.979103, 177, 193, 208, 320
-0.97915, 121, 49, 184, 112
-0.979154, 273, 241, 333, 368
-0.979156, 209, 353, 333, 480
-0.979179, 97, 105, 128, 168
-0.97922, 149, 25, 180, 88
-0.97922, 237, 81, 268, 144
-0.979285, 1, 161, 128, 224
-0.979315, 249, 81, 280, 208
-0.97933, 177, 49, 208, 176
-0.979472, 69, 361, 100, 424
-0.979472, 229, 425, 260, 488
-0.979595, 185, 201, 216, 264
-0.979639, 273, 33, 333, 96
-0.979685, 289, 161, 320, 224
-0.979758, 257, 161, 288, 224
-0.979805, 73, 193, 136, 448
-0.97987, 125, 193, 156, 256
-0.9799, 73, 97, 104, 224
-0.979959, 93, 145, 124, 208
-0.980004, 153, 1, 184, 64
-0.98004, 17, 129, 80, 192
-0.980041, 25, 129, 88, 384
-0.98006, 213, 17, 244, 144
-0.98009, 169, 201, 200, 264
-0.980142, 209, 145, 333, 208
-0.980165, 161, 297, 288, 360
-0.980196, 65, 105, 96, 168
-0.980217, 273, 81, 333, 144
-0.98037, 209, 121, 333, 184
-0.980374, 1, 305, 333, 432
-0.98044, 249, 1, 280, 128
-0.980492, 261, 113, 292, 176
-0.980504, 141, 145, 172, 208
-0.980636, 49, 273, 176, 336
-0.980761, 161, 81, 192, 144
-0.980767, 225, 121, 256, 184
-0.980888, 109, 105, 140, 168
-0.980954, 161, 137, 192, 200
-0.980966, 273, 65, 333, 192
-0.981042, 81, 81, 144, 144
-0.98112, 289, 113, 320, 240
-0.981306, 177, 97, 208, 160
-0.981396, 165, 1, 196, 64
-0.98141, 221, 113, 252, 240
-0.981441, 81, 1, 208, 64
-0.981461, 189, 313, 220, 376
-0.98148, 161, 1, 224, 500
-0.981587, 225, 225, 288, 288
-0.981599, 273, 177, 304, 304
-0.981653, 109, 193, 140, 256
-0.981741, 105, 241, 168, 304
-0.981742, 153, 113, 184, 176
-0.981798, 97, 49, 224, 112
-0.981887, 249, 281, 312, 344
-0.981899, 169, 369, 232, 496
-0.981958, 17, 297, 144, 360
-0.981984, 61, 161, 92, 288
-0.982049, 65, 353, 128, 480
-0.98205, 153, 281, 184, 344
-0.982139, 225, 81, 256, 144
-0.982159, 221, 217, 252, 280
-0.982257, 161, 425, 288, 488
-0.982287, 153, 305, 184, 368
-0.982372, 209, 273, 333, 400
-0.982393, 193, 273, 320, 336
-0.982499, 37, 129, 68, 256
-0.982587, 9, 177, 72, 304
-0.98265, 189, 193, 220, 320
-0.982709, 253, 65, 284, 128
-0.982755, 85, 97, 116, 224
-0.982761, 137, 97, 168, 160
-0.982774, 205, 209, 236, 336
-0.98281, 241, 129, 304, 384
-0.982838, 65, 201, 192, 264
-0.982873, 177, 305, 208, 432
-0.982883, 105, 81, 136, 208
-0.983012, 161, 57, 192, 120
-0.983027, 141, 1, 172, 64
-0.983051, 177, 73, 208, 136
-0.98309, 249, 129, 280, 256
-0.983092, 65, 321, 192, 384
-0.983132, 197, 201, 228, 264
-0.983166, 53, 193, 84, 256
-0.983173, 209, 297, 272, 360
-0.983176, 201, 1, 264, 500
-0.983188, 33, 369, 160, 496
-0.983223, 137, 41, 168, 104
-0.98328, 129, 113, 160, 240
-0.983289, 289, 209, 320, 272
-0.983405, 197, 25, 228, 88
-0.983453, 161, 217, 288, 280
-0.983497, 209, 225, 333, 288
-0.983647, 177, 273, 208, 336
-0.983698, 201, 305, 232, 368
-0.983708, 233, 57, 264, 120
-0.983727, 137, 281, 168, 344
-0.983768, 221, 209, 252, 336
-0.983856, 105, 305, 168, 368
-0.983919, 25, 289, 88, 416
-0.98398, 49, 1, 112, 128
-0.984019, 213, 121, 244, 184
-0.984097, 25, 289, 88, 352
-0.984118, 165, 113, 196, 176
-0.984128, 189, 265, 220, 328
-0.984162, 81, 257, 144, 384
-0.984233, 57, 1, 120, 256
-0.98428, 153, 201, 184, 264
-0.984297, 213, 1, 244, 64
-0.984311, 249, 289, 312, 416
-0.98442, 141, 1, 172, 128
-0.98444, 93, 193, 124, 256
-0.984492, 209, 433, 333, 496
-0.984541, 169, 241, 200, 368
-0.984585, 133, 121, 164, 184
-0.984591, 109, 73, 140, 136
-0.984667, 301, 209, 332, 336
-0.984674, 49, 73, 176, 136
-0.98474, 273, 161, 333, 416
-0.984906, 277, 201, 308, 264
-0.984934, 145, 249, 208, 312
-0.985022, 213, 97, 244, 160
-0.985107, 233, 1, 296, 500
-0.985116, 141, 193, 172, 320
-0.985144, 89, 17, 152, 144
-0.985151, 41, 353, 104, 480
-0.985186, 169, 377, 232, 440
-0.985212, 129, 1, 192, 500
-0.985218, 177, 113, 208, 240
-0.985226, 105, 337, 168, 464
-0.985277, 241, 369, 304, 496
-0.985351, 121, 209, 152, 336
-0.98544, 65, 361, 192, 424
-0.985484, 81, 129, 112, 192
-0.985605, 149, 113, 180, 240
-0.985621, 45, 177, 76, 304
-0.985676, 121, 97, 152, 160
-0.985693, 165, 281, 196, 344
-0.985708, 273, 233, 333, 296
-0.985805, 185, 241, 216, 368
-0.985813, 1, 209, 128, 336
-0.985873, 161, 49, 192, 176
-0.985958, 57, 337, 120, 400
-0.985996, 245, 153, 276, 216
-0.986019, 33, 1, 96, 256
-0.98619, 301, 113, 332, 240
-0.986227, 217, 401, 280, 464
-0.986382, 57, 233, 120, 296
-0.986399, 121, 121, 152, 184
-0.986399, 113, 345, 240, 408
-0.98648, 113, 305, 144, 432
-0.986519, 209, 217, 240, 280
-0.986538, 41, 193, 72, 256
-0.986553, 1, 105, 128, 168
-0.986642, 1, 321, 64, 384
-0.986649, 301, 9, 332, 72
-0.986703, 253, 433, 284, 496
-0.986745, 41, 1, 104, 500
-0.986786, 261, 1, 292, 64
-0.986792, 65, 25, 192, 88
-0.986869, 217, 433, 248, 496
-0.986883, 117, 113, 148, 240
-0.986927, 233, 209, 264, 336
-0.986955, 69, 337, 100, 400
-0.986957, 97, 361, 160, 424
-0.987033, 245, 177, 276, 304
-0.987033, 153, 193, 184, 320
-0.987052, 33, 145, 288, 208
-0.987089, 29, 169, 60, 232
-0.987138, 205, 177, 236, 240
-0.987144, 109, 265, 140, 328
-0.987209, 17, 105, 80, 168
-0.987226, 197, 369, 228, 496
-0.987251, 165, 289, 196, 416
-0.98729, 209, 273, 272, 336
-0.987312, 81, 1, 144, 256
-0.987328, 153, 353, 216, 416
-0.987332, 193, 425, 256, 488
-0.98749, 33, 105, 288, 168
-0.987492, 265, 81, 296, 144
-0.987529, 269, 153, 300, 216
-0.9877, 169, 309, 232, 340
-0.987722, 217, 193, 280, 448
-0.987754, 81, 289, 144, 352
-0.987833, 73, 145, 104, 272
-0.987897, 57, 289, 120, 416
-0.987919, 81, 369, 112, 432
-0.98797, 129, 241, 256, 304
-0.988072, 17, 321, 144, 448
-0.9881, 49, 193, 112, 448
-0.988104, 193, 385, 256, 448
-0.988167, 161, 113, 192, 240
-0.988228, 209, 273, 272, 400
-0.98825, 201, 353, 264, 416
-0.988278, 145, 385, 272, 448
-0.988292, 69, 49, 100, 176
-0.988366, 57, 81, 120, 144
-0.988393, 105, 1, 168, 500
-0.988405, 273, 193, 333, 224
-0.988438, 265, 305, 328, 368
-0.988442, 65, 141, 128, 172
-0.988445, 57, 385, 120, 448
-0.988508, 41, 141, 104, 172
-0.988657, 89, 49, 120, 176
-0.988672, 273, 113, 304, 240
-0.98871, 17, 329, 144, 392
-0.98873, 233, 241, 296, 368
-0.988795, 89, 189, 152, 220
-0.988812, 209, 29, 272, 60
-0.988815, 241, 369, 272, 496
-0.98882, 265, 181, 328, 212
-0.98882, 201, 273, 232, 336
-0.988836, 201, 17, 232, 144
-0.98885, 65, 173, 128, 204
-0.988854, 129, 289, 160, 416
-0.988874, 149, 305, 180, 432
-0.988908, 125, 241, 156, 304
-0.988941, 177, 321, 208, 384
-0.98895, 221, 161, 252, 288
-0.988951, 269, 273, 300, 336
-0.988981, 105, 145, 168, 176
-0.989014, 217, 433, 280, 464
-0.989028, 145, 149, 208, 180
-0.989033, 1, 81, 64, 208
-0.989036, 33, 169, 288, 232
-0.989037, 17, 369, 144, 432
-0.989038, 145, 217, 208, 280
-0.989042, 65, 185, 128, 216
-0.989046, 161, 185, 224, 216
-0.989114, 217, 77, 280, 108
-0.989117, 121, 193, 184, 224
-0.989169, 89, 321, 120, 384
-0.989217, 57, 313, 120, 376
-0.989217, 109, 193, 140, 320
-0.989218, 169, 197, 232, 228
-0.989222, 145, 317, 208, 348
-0.989252, 133, 241, 164, 368
-0.989265, 129, 97, 192, 128
-0.98929, 49, 125, 112, 156
-0.98933, 41, 173, 104, 204
-0.989349, 241, 125, 304, 156
-0.989373, 209, 17, 272, 48
-0.989386, 217, 145, 280, 176
-0.989431, 169, 149, 232, 180
-0.98945, 165, 193, 196, 320
-0.989453, 249, 197, 312, 228
-0.989459, 145, 197, 208, 228
-0.989498, 105, 177, 168, 208
-0.989514, 113, 77, 176, 108
-0.989551, 137, 181, 200, 212
-0.989573, 233, 1, 296, 32
-0.989603, 169, 85, 232, 116
-0.989613, 73, 1, 136, 500
-0.989614, 121, 317, 184, 348
-0.989616, 177, 73, 240, 104
-0.989622, 1, 153, 333, 216
-0.989631, 265, 417, 328, 480
-0.989655, 1, 105, 333, 168
-0.989658, 109, 33, 140, 160
-0.989666, 145, 265, 272, 328
-0.989709, 233, 113, 296, 144
-0.989724, 201, 65, 264, 96
-0.989737, 153, 97, 216, 128
-0.989781, 289, 225, 320, 352
-0.989781, 145, 65, 208, 96
-0.989808, 81, 109, 144, 140
-0.989886, 49, 233, 176, 296
-0.989892, 161, 321, 288, 384
-0.989921, 25, 313, 88, 376
-0.989986, 153, 329, 216, 360
-0.989999, 249, 233, 312, 296
-0.990018, 225, 41, 288, 72
-0.990029, 49, 197, 112, 228
-0.990087, 41, 185, 104, 216
-0.990116, 169, 297, 232, 328
-0.990175, 257, 113, 320, 144
-0.990182, 69, 337, 100, 464
-0.990194, 129, 109, 192, 140
-0.990195, 65, 209, 320, 272
-0.990245, 209, 97, 333, 160
-0.990276, 217, 89, 280, 120
-0.990302, 161, 117, 224, 148
-0.990406, 57, 109, 120, 140
-0.990412, 137, 85, 200, 116
-0.990415, 177, 101, 240, 132
-0.990431, 209, 113, 272, 144
-0.990445, 9, 1, 72, 64
-0.990451, 65, 81, 320, 144
-0.990456, 25, 129, 56, 256
-0.990468, 101, 321, 132, 448
-0.990468, 137, 305, 200, 336
-0.990472, 225, 101, 288, 132
-0.990482, 265, 169, 328, 200
-0.990492, 217, 125, 280, 156
-0.990501, 161, 17, 224, 48
-0.990512, 89, 329, 152, 360
-0.990534, 241, 181, 304, 212
-0.990538, 241, 73, 304, 104
-0.990549, 201, 249, 264, 312
-0.990558, 65, 1, 320, 64
-0.990575, 249, 209, 312, 240
-0.990591, 105, 97, 168, 128
-0.990593, 189, 17, 220, 144
-0.990602, 193, 369, 320, 432
-0.99063, 121, 1, 184, 32
-0.990667, 169, 137, 232, 168
-0.990699, 129, 209, 192, 240
-0.990725, 49, 49, 176, 112
-0.990733, 1, 185, 333, 248
-0.990741, 105, 329, 168, 392
-0.990748, 193, 321, 256, 352
-0.990748, 9, 185, 72, 216
-0.99077, 205, 273, 236, 400
-0.990818, 57, 289, 120, 352
-0.99088, 209, 53, 272, 84
-0.990881, 89, 273, 152, 304
-0.99089, 241, 29, 304, 60
-0.99089, 177, 161, 240, 192
-0.990895, 121, 29, 184, 60
-0.990913, 273, 205, 333, 236
-0.990956, 145, 293, 208, 324
-0.990981, 121, 157, 184, 188
-0.990999, 261, 49, 292, 176
-0.991004, 121, 65, 184, 96
-0.991023, 1, 257, 128, 320
-0.991043, 81, 153, 144, 184
-0.991047, 65, 365, 128, 396
-0.99105, 73, 257, 136, 320
-0.991056, 33, 217, 96, 280
-0.991062, 209, 297, 333, 360
-0.991066, 265, 157, 328, 188
-0.991068, 93, 193, 124, 320
-0.991068, 153, 213, 216, 244
-0.991072, 201, 221, 264, 252
-0.991078, 89, 201, 152, 232
-0.991079, 241, 89, 304, 120
-0.991084, 25, 337, 88, 400
-0.99109, 193, 141, 256, 172
-0.991097, 233, 13, 296, 44
-0.991099, 209, 209, 272, 240
-0.991138, 185, 29, 248, 60
-0.991155, 153, 161, 216, 192
-0.991158, 185, 121, 248, 152
-0.991173, 25, 197, 88, 228
-0.991176, 241, 165, 304, 196
-0.991219, 129, 133, 192, 164
-0.991219, 41, 153, 104, 184
-0.991254, 153, 1, 216, 32
-0.991288, 265, 1, 328, 32
-0.991292, 25, 129, 88, 160
-0.99131, 89, 133, 152, 164
-0.991352, 105, 113, 168, 144
-0.991392, 209, 181, 272, 212
-0.991394, 233, 61, 296, 92
-0.991397, 173, 1, 204, 128
-0.991405, 193, 85, 256, 116
-0.991407, 193, 389, 256, 420
-0.99142, 161, 385, 224, 416
-0.991492, 217, 445, 280, 476
-0.991495, 97, 217, 160, 280
-0.991499, 17, 165, 80, 196
-0.991499, 113, 305, 176, 336
-0.991511, 9, 1, 72, 256
-0.991523, 89, 357, 152, 388
-0.991525, 1, 129, 64, 384
-0.991529, 33, 49, 288, 112
-0.991552, 201, 101, 264, 132
-0.991561, 177, 217, 240, 248
-0.991576, 129, 337, 192, 400
-0.991586, 193, 197, 256, 228
-0.991591, 121, 361, 184, 424
-0.991663, 81, 97, 144, 128
-0.991677, 145, 53, 208, 84
-0.991692, 301, 289, 332, 416
-0.991727, 225, 197, 288, 228
-0.991732, 273, 1, 333, 128
-0.99174, 161, 29, 224, 60
-0.991751, 33, 109, 96, 140
-0.991752, 217, 157, 280, 188
-0.991764, 81, 317, 144, 348
-0.991765, 161, 345, 288, 408
-0.991769, 225, 457, 288, 488
-0.991772, 257, 101, 320, 132
-0.991773, 129, 17, 192, 48
-0.991782, 17, 1, 80, 500
-0.991803, 33, 177, 64, 304
-0.99181, 131, 169, 146, 232
-0.991835, 41, 365, 104, 396
-0.991838, 185, 329, 248, 392
-0.991873, 261, 161, 292, 288
-0.991878, 273, 57, 333, 120
-0.991884, 209, 1, 272, 32
-0.991885, 197, 177, 212, 240
-0.991896, 181, 309, 212, 340
-0.99193, 265, 21, 328, 52
-0.991938, 137, 169, 152, 232
-0.991941, 89, 85, 152, 116
-0.991949, 121, 45, 184, 76
-0.991953, 89, 373, 152, 404
-0.991956, 185, 185, 248, 216
-0.991964, 185, 49, 248, 80
-0.991986, 281, 185, 312, 216
-0.992005, 121, 329, 184, 360
-0.992018, 57, 261, 120, 292
-0.992028, 273, 317, 333, 348
-0.992029, 1, 129, 333, 192
-0.992057, 105, 129, 136, 256
-0.992065, 169, 317, 200, 348
-0.992067, 49, 257, 112, 320
-0.9921, 145, 241, 176, 368
-0.992121, 209, 409, 333, 472
-0.992127, 257, 113, 288, 144
-0.992155, 301, 177, 332, 208
-0.992163, 125, 145, 156, 176
-0.992174, 49, 129, 80, 160
-0.992175, 137, 85, 168, 116
-0.992184, 269, 185, 300, 216
-0.992186, 161, 149, 192, 180
-0.992188, 185, 185, 216, 216
-0.992191, 153, 313, 184, 344
-0.992193, 257, 1, 320, 500
-0.992194, 125, 73, 156, 104
-0.992209, 189, 153, 220, 184
-0.992209, 97, 41, 160, 104
-0.992243, 85, 141, 116, 172
-0.992247, 185, 293, 216, 324
-0.992248, 245, 121, 276, 152
-0.99226, 173, 149, 204, 180
-0.992298, 191, 177, 206, 240
-0.9923, 301, 189, 332, 220
-0.992302, 131, 145, 146, 208
-0.992304, 69, 141, 100, 172
-0.992311, 193, 297, 208, 360
-0.99232, 241, 401, 304, 464
-0.992326, 247, 1, 262, 64
-0.992328, 113, 145, 144, 176
-0.99233, 137, 145, 168, 176
-0.992355, 115, 169, 130, 232
-0.992358, 77, 185, 108, 216
-0.992359, 81, 193, 112, 320
-0.992359, 169, 305, 200, 336
-0.992363, 225, 57, 256, 88
-0.992373, 149, 149, 180, 180
-0.992376, 97, 141, 128, 172
-0.992377, 289, 197, 320, 228
-0.992383, 221, 25, 252, 56
-0.992386, 129, 177, 160, 208
-0.992389, 145, 193, 176, 224
-0.992389, 121, 169, 136, 232
-0.99239, 177, 177, 192, 240
-0.992395, 157, 181, 188, 212
-0.9924, 277, 197, 308, 228
-0.992412, 173, 197, 204, 228
-0.992414, 285, 173, 316, 204
-0.992427, 117, 85, 148, 116
-0.992428, 225, 69, 256, 100
-0.992435, 257, 189, 288, 220
-0.992438, 209, 369, 240, 496
-0.992451, 93, 173, 124, 204
-0.992453, 197, 73, 228, 104
-0.992459, 153, 89, 184, 120
-0.99246, 113, 189, 144, 220
-0.992476, 237, 1, 268, 32
-0.992487, 69, 169, 100, 200
-0.992489, 213, 65, 244, 96
-0.992493, 185, 177, 200, 240
-0.992494, 17, 257, 80, 320
-0.992495, 149, 61, 180, 92
-0.992501, 301, 201, 332, 232
-0.992507, 133, 193, 164, 224
-0.992515, 233, 129, 264, 160
-0.992521, 197, 321, 228, 352
-0.992524, 101, 189, 132, 220
-0.992525, 189, 201, 220, 232
-0.992528, 65, 185, 96, 216
-0.992535, 313, 161, 328, 224
-0.992543, 117, 177, 148, 208
-0.99255, 69, 365, 100, 396
-0.992556, 89, 185, 120, 216
-0.992556, 237, 25, 268, 56
-0.992573, 161, 197, 192, 228
-0.992588, 17, 141, 144, 172
-0.99259, 169, 181, 200, 212
-0.992605, 161, 5, 192, 36
-0.992611, 81, 173, 112, 204
-0.992625, 105, 177, 136, 208
-0.992632, 229, 37, 260, 68
-0.992632, 141, 181, 172, 212
-0.99264, 173, 97, 204, 128
-0.992647, 241, 429, 272, 460
-0.992655, 241, 105, 272, 136
-0.992668, 185, 81, 216, 112
-0.992672, 149, 49, 180, 80
-0.992676, 201, 29, 232, 60
-0.992677, 237, 13, 268, 44
-0.992689, 109, 169, 124, 232
-0.992693, 137, 73, 168, 104
-0.992703, 249, 9, 280, 40
-0.992704, 141, 97, 172, 128
-0.992709, 269, 173, 300, 204
-0.992716, 189, 385, 220, 416
-0.992717, 45, 177, 76, 208
-0.99272, 193, 309, 224, 340
-0.992721, 181, 325, 212, 356
-0.992721, 61, 113, 92, 144
-0.992722, 197, 85, 228, 116
-0.992725, 149, 1, 180, 32
-0.992735, 153, 105, 184, 136
-0.99274, 221, 125, 252, 156
-0.992749, 201, 145, 216, 208
-0.992754, 149, 29, 180, 60
-0.992765, 213, 77, 244, 108
-0.992765, 225, 13, 256, 44
-0.992768, 221, 441, 252, 472
-0.992777, 143, 169, 158, 232
-0.992779, 129, 65, 256, 96
-0.99278, 261, 201, 292, 232
-0.992786, 53, 197, 84, 228
-0.992788, 189, 117, 220, 148
-0.992795, 105, 269, 136, 300
-0.9928, 125, 105, 156, 136
-0.992801, 97, 201, 128, 232
-0.992803, 257, 125, 288, 156
-0.992816, 225, 249, 288, 312
-0.99282, 73, 129, 104, 160
-0.992823, 161, 117, 192, 148
-0.992828, 213, 53, 244, 84
-0.992828, 249, 29, 280, 60
-0.992832, 245, 93, 276, 124
-0.992834, 229, 81, 260, 112
-0.992855, 205, 121, 236, 152
-0.992856, 93, 109, 124, 140
-0.992868, 81, 201, 112, 232
-0.992868, 241, 141, 272, 172
-0.99287, 171, 177, 186, 240
-0.992876, 113, 97, 144, 128
-0.992877, 289, 209, 320, 240
-0.992878, 85, 153, 116, 184
-0.992884, 113, 73, 144, 104
-0.992884, 25, 185, 56, 216
-0.992888, 201, 97, 232, 128
-0.992898, 237, 69, 268, 100
-0.992907, 301, 165, 332, 196
-0.992909, 169, 329, 200, 360
-0.992912, 173, 85, 204, 116
-0.992917, 129, 61, 160, 92
-0.992919, 177, 109, 208, 140
-0.992921, 109, 321, 140, 352
-0.992923, 101, 153, 132, 184
-0.99293, 121, 17, 152, 144
-0.992934, 201, 153, 232, 184
-0.99294, 177, 161, 208, 192
-0.992942, 113, 113, 144, 144
-0.992944, 205, 141, 236, 172
-0.99295, 49, 177, 176, 208
-0.992951, 149, 17, 180, 48
-0.992956, 125, 145, 140, 208
-0.992963, 285, 273, 316, 400
-0.992964, 133, 313, 164, 344
-0.992966, 297, 29, 328, 60
-0.992969, 137, 157, 168, 188
-0.99297, 153, 325, 184, 356
-0.992971, 241, 213, 272, 244
-0.992982, 161, 17, 192, 48
-0.992995, 277, 49, 308, 176
-0.993001, 177, 241, 240, 304
-0.993012, 17, 17, 144, 144
-0.993096, 33, 25, 288, 88
-0.993124, 253, 1, 268, 64
-0.993199, 195, 153, 210, 216
-0.993225, 25, 17, 88, 144
-0.99323, 109, 241, 140, 368
-0.99324, 1, 81, 333, 144
-0.993288, 305, 177, 320, 240
-0.993303, 129, 77, 256, 108
-0.993307, 103, 169, 118, 232
-0.993353, 245, 81, 260, 144
-0.993374, 129, 337, 192, 464
-0.993379, 251, 105, 266, 168
-0.993384, 113, 321, 240, 352
-0.993439, 137, 137, 152, 200
-0.99344, 145, 41, 272, 72
-0.993458, 209, 65, 224, 128
-0.993467, 69, 161, 84, 224
-0.993474, 145, 13, 272, 44
-0.993509, 203, 73, 218, 136
-0.993516, 69, 289, 100, 416
-0.993612, 165, 177, 180, 240
-0.993619, 203, 185, 218, 248
-0.99363, 161, 137, 288, 168
-0.993635, 193, 249, 320, 312
-0.993705, 49, 305, 80, 432
-0.993711, 261, 225, 292, 352
-0.993733, 121, 161, 152, 288
-0.993746, 81, 193, 208, 224
-0.993788, 113, 101, 240, 132
-0.993795, 199, 297, 214, 360
-0.993807, 97, 149, 224, 180
-0.99384, 263, 185, 278, 248
-0.993842, 193, 73, 320, 104
-0.993845, 97, 89, 224, 120
-0.993875, 161, 25, 288, 56
-0.993955, 1, 17, 333, 80
-0.993962, 149, 65, 164, 128
-0.993964, 183, 297, 198, 360
-0.993981, 119, 145, 134, 208
-0.993984, 207, 153, 222, 216
-0.993985, 97, 181, 224, 212
-0.994021, 239, 1, 254, 64
-0.994023, 75, 161, 90, 224
-0.994043, 145, 53, 272, 84
-0.994049, 155, 81, 170, 144
-0.994062, 149, 169, 164, 232
-0.994087, 281, 177, 296, 240
-0.994088, 49, 113, 176, 144
-0.994123, 273, 273, 333, 336
-0.994138, 33, 189, 160, 220
-0.994183, 113, 417, 240, 480
-0.994184, 155, 57, 170, 120
-0.994184, 303, 201, 318, 264
-0.994199, 263, 105, 278, 168
-0.994224, 161, 57, 176, 120
-0.994233, 225, 49, 240, 112
-0.994276, 269, 177, 284, 240
-0.994304, 25, 225, 88, 480
-0.994308, 155, 169, 170, 232
-0.994331, 97, 169, 112, 232
-0.994359, 193, 185, 320, 216
-0.99437, 205, 121, 220, 184
-0.994381, 217, 57, 232, 120
-0.994382, 33, 201, 160, 232
-0.994435, 73, 129, 88, 192
-0.994438, 233, 33, 248, 96
-0.994442, 149, 41, 164, 104
-0.994463, 199, 113, 214, 176
-0.994463, 189, 153, 204, 216
-0.994477, 49, 65, 80, 192
-0.994478, 113, 309, 240, 340
-0.994485, 1, 273, 256, 336
-0.994496, 313, 201, 328, 264
-0.994501, 85, 161, 100, 224
-0.994501, 247, 41, 262, 104
-0.994524, 63, 113, 78, 176
-0.994525, 209, 9, 333, 40
-0.994525, 311, 1, 326, 64
-0.994528, 185, 353, 216, 480
-0.994531, 191, 73, 206, 136
-0.994533, 161, 153, 288, 184
-0.994564, 145, 193, 160, 256
-0.994582, 193, 117, 320, 148
-0.994603, 161, 197, 288, 228
-0.994605, 161, 1, 176, 64
-0.994623, 1, 73, 128, 136
-0.994644, 261, 1, 292, 128
-0.994671, 71, 185, 86, 248
-0.994676, 113, 145, 128, 208
-0.994687, 239, 33, 254, 96
-0.994699, 209, 97, 224, 160
-0.9947, 199, 273, 214, 336
-0.994712, 233, 9, 248, 72
-0.994712, 287, 177, 302, 240
-0.994719, 197, 73, 212, 136
-0.994724, 295, 177, 310, 240
-0.994727, 157, 25, 172, 88
-0.994737, 269, 289, 300, 416
-0.994746, 137, 193, 152, 256
-0.994803, 239, 425, 254, 488
-0.99481, 193, 113, 208, 176
-0.994819, 91, 161, 106, 224
-0.994844, 1, 145, 32, 272
-0.994861, 1, 1, 128, 64
-0.994863, 77, 185, 92, 248
-0.994878, 255, 425, 270, 488
-0.994889, 183, 153, 198, 216
-0.994898, 33, 125, 160, 156
-0.994907, 161, 105, 288, 136
-0.994912, 89, 185, 104, 248
-0.994914, 205, 289, 220, 352
-0.994915, 209, 201, 333, 232
-0.994922, 143, 137, 158, 200
-0.994927, 185, 97, 200, 160
-0.994932, 107, 145, 122, 208
-0.994933, 255, 33, 270, 96
-0.994942, 91, 105, 106, 168
-0.994965, 1, 209, 333, 272
-0.994973, 141, 65, 156, 128
-0.994973, 209, 37, 333, 68
-0.994976, 219, 33, 234, 96
-0.99498, 177, 153, 192, 216
-0.995022, 129, 1, 256, 32
-0.995024, 209, 33, 240, 288
-0.995041, 93, 257, 124, 384
-0.995049, 229, 369, 260, 496
-0.995052, 113, 117, 240, 148
-0.995059, 209, 25, 333, 56
-0.995068, 231, 57, 246, 120
-0.995081, 257, 105, 272, 168
-0.995094, 161, 165, 288, 196
-0.995114, 209, 57, 333, 88
-0.995127, 259, 161, 274, 224
-0.995128, 161, 313, 288, 344
-0.99513, 197, 33, 228, 288
-0.995131, 123, 73, 138, 136
-0.99514, 163, 305, 178, 368
-0.995142, 253, 81, 268, 144
-0.995149, 165, 81, 180, 144
-0.995158, 245, 105, 260, 168
-0.995189, 81, 209, 208, 240
-0.995209, 85, 105, 100, 168
-0.995218, 171, 137, 186, 200
-0.995224, 1, 49, 333, 112
-0.995243, 213, 321, 244, 448
-0.995247, 1, 217, 128, 280
-0.995252, 103, 105, 118, 168
-0.995257, 187, 121, 202, 184
-0.995263, 209, 433, 333, 464
-0.995278, 225, 25, 240, 88
-0.995278, 83, 185, 98, 248
-0.995286, 109, 105, 124, 168
-0.995288, 155, 193, 170, 256
-0.995294, 211, 121, 226, 184
-0.995306, 239, 121, 254, 184
-0.995323, 79, 129, 94, 192
-0.995367, 233, 425, 248, 488
-0.995374, 247, 425, 262, 488
-0.995402, 171, 305, 186, 368
-0.995404, 109, 193, 124, 256
-0.995407, 113, 133, 240, 164
-0.995409, 195, 321, 210, 384
-0.99541, 65, 233, 320, 296
-0.995415, 101, 145, 116, 208
-0.995428, 63, 161, 78, 224
-0.995441, 167, 1, 182, 64
-0.995444, 97, 105, 112, 168
-0.995444, 213, 33, 228, 96
-0.995446, 163, 153, 178, 216
-0.995452, 145, 185, 272, 216
-0.995455, 77, 105, 92, 168
-0.995456, 169, 201, 184, 264
-0.995483, 89, 305, 120, 432
-0.995492, 115, 105, 130, 168
-0.995492, 65, 305, 320, 368
-0.995531, 145, 273, 160, 336
-0.995537, 57, 241, 120, 368
-0.995573, 1, 281, 64, 344
-0.99558, 259, 1, 274, 64
-0.995592, 1, 173, 128, 204
-0.995604, 237, 57, 252, 120
-0.995608, 163, 113, 178, 176
-0.995613, 161, 217, 288, 248
-0.995613, 181, 121, 196, 184
-0.995613, 49, 97, 176, 128
-0.995658, 269, 105, 284, 168
-0.995662, 175, 201, 190, 264
-0.995722, 293, 1, 324, 128
-0.995738, 233, 33, 264, 288
-0.995747, 65, 329, 192, 360
-0.995768, 161, 93, 288, 124
-0.995786, 81, 73, 208, 104
-0.99581, 17, 153, 144, 184
-0.995836, 209, 145, 333, 176
-0.995843, 49, 97, 80, 352
-0.995876, 81, 369, 208, 496
-0.995882, 57, 353, 88, 480
-0.995902, 113, 161, 240, 192
-0.995943, 33, 269, 160, 300
-0.99595, 65, 137, 192, 168
-0.995982, 121, 65, 152, 320
-0.995994, 97, 97, 128, 352
-0.996006, 69, 97, 100, 352
-0.996051, 169, 193, 200, 448
-0.996073, 85, 97, 116, 352
-0.996092, 209, 173, 333, 204
-0.996098, 273, 1, 304, 128
-0.99611, 221, 33, 252, 288
-0.996134, 81, 373, 208, 404
-0.996136, 49, 85, 176, 116
-0.996139, 249, 329, 312, 392
-0.996156, 161, 437, 288, 468
-0.996207, 169, 417, 232, 480
-0.99621, 113, 29, 240, 60
-0.996278, 157, 241, 188, 368
-0.996278, 181, 193, 212, 448
-0.996301, 109, 97, 140, 352
-0.996307, 261, 369, 292, 496
-0.996323, 209, 157, 333, 188
-0.996337, 193, 301, 320, 332
-0.99637, 81, 17, 208, 48
-0.996371, 57, 1, 120, 64
-0.996392, 197, 129, 228, 384
-0.996412, 185, 33, 216, 288
-0.996453, 149, 33, 180, 288
-0.996485, 17, 317, 144, 348
-0.996486, 33, 209, 96, 336
-0.996548, 269, 189, 284, 220
-0.99656, 209, 213, 333, 244
-0.996569, 209, 129, 333, 160
-0.996579, 57, 1, 88, 256
-0.996623, 277, 225, 308, 352
-0.996668, 65, 5, 192, 36
-0.996682, 201, 321, 232, 448
-0.996752, 293, 97, 324, 352
-0.996778, 113, 297, 240, 328
-0.996791, 125, 193, 156, 448
-0.99685, 133, 65, 164, 320
-0.996863, 65, 317, 192, 348
-0.996864, 133, 145, 148, 176
-0.996872, 157, 193, 188, 448
-0.996873, 265, 369, 328, 496
-0.996875, 165, 149, 180, 180
-0.996887, 81, 353, 112, 480
-0.996889, 179, 317, 194, 348
-0.996892, 105, 193, 136, 448
-0.996906, 205, 153, 220, 184
-0.996909, 171, 149, 186, 180
-0.996921, 1, 369, 128, 400
-0.996926, 227, 57, 242, 88
-0.996931, 315, 9, 330, 40
-0.996953, 193, 453, 320, 484
-0.996954, 177, 149, 192, 180
-0.996955, 143, 77, 158, 108
-0.996956, 139, 145, 154, 176
-0.996974, 29, 81, 60, 208
-0.996975, 285, 177, 300, 208
-0.996986, 167, 313, 182, 344
-0.997019, 63, 113, 78, 144
-0.99702, 245, 97, 276, 352
-0.997025, 127, 145, 142, 176
-0.997026, 1, 361, 256, 424
-0.997042, 93, 141, 108, 172
-0.997046, 33, 425, 288, 488
-0.997047, 199, 185, 214, 216
-0.997047, 125, 337, 156, 464
-0.997067, 197, 153, 212, 184
-0.997074, 49, 305, 176, 336
-0.997083, 155, 149, 170, 180
-0.997091, 97, 53, 224, 84
-0.997106, 195, 325, 210, 356
-0.997107, 267, 113, 282, 144
-0.99711, 225, 129, 256, 384
-0.997114, 173, 313, 188, 344
-0.997121, 99, 141, 114, 172
-0.997122, 87, 141, 102, 172
-0.99714, 65, 165, 192, 196
-0.997141, 85, 145, 116, 272
-0.997141, 37, 289, 68, 416
-0.997146, 121, 145, 136, 176
-0.997159, 73, 141, 88, 172
-0.997162, 191, 153, 206, 184
-0.997162, 183, 149, 198, 180
-0.997163, 315, 169, 330, 200
-0.997164, 203, 385, 218, 416
-0.997166, 77, 1, 108, 128
-0.997172, 257, 65, 288, 320
-0.997173, 145, 145, 160, 176
-0.997174, 81, 141, 96, 172
-0.997183, 165, 1, 180, 32
-0.997193, 281, 193, 296, 224
-0.997194, 129, 73, 144, 104
-0.9972, 197, 289, 212, 320
-0.997209, 247, 129, 262, 160
-0.997215, 105, 141, 120, 172
-0.997222, 65, 37, 192, 68
-0.997223, 189, 309, 204, 340
-0.997224, 123, 77, 138, 108
-0.997225, 115, 145, 130, 176
-0.997259, 139, 177, 154, 208
-0.997271, 79, 185, 94, 216
-0.997274, 71, 169, 86, 200
-0.997288, 169, 181, 184, 212
-0.997289, 145, 193, 176, 448
-0.997312, 129, 389, 256, 420
-0.997325, 255, 117, 270, 148
-0.997328, 141, 193, 156, 224
-0.997334, 125, 177, 140, 208
-0.997334, 249, 25, 264, 56
-0.997335, 161, 313, 176, 344
-0.997336, 165, 89, 180, 120
-0.997337, 95, 185, 110, 216
-0.997337, 201, 201, 216, 232
-0.997344, 241, 129, 256, 160
-0.997345, 137, 77, 152, 108
-0.997352, 161, 181, 176, 212
-0.997359, 309, 9, 324, 40
-0.997361, 169, 97, 200, 352
-0.997362, 155, 193, 170, 224
-0.997366, 133, 177, 148, 208
-0.997368, 199, 85, 214, 116
-0.997372, 89, 185, 104, 216
-0.997374, 179, 305, 194, 336
-0.997393, 225, 69, 240, 100
-0.997398, 71, 185, 86, 216
-0.9974, 157, 85, 172, 116
-0.997408, 147, 193, 162, 224
-0.997408, 171, 197, 186, 228
-0.997411, 217, 29, 232, 60
-0.997415, 145, 177, 160, 208
-0.997416, 255, 1, 270, 32
-0.997416, 243, 73, 258, 104
-0.99742, 49, 361, 176, 392
-0.997421, 103, 173, 118, 204
-0.997422, 175, 181, 190, 212
-0.997423, 201, 321, 216, 352
-0.997423, 185, 197, 200, 228
-0.997425, 233, 65, 248, 96
-0.99743, 195, 69, 210, 100
-0.997431, 161, 325, 288, 356
-0.997435, 97, 265, 224, 296
-0.997437, 203, 69, 218, 100
-0.997438, 209, 85, 333, 116
-0.997441, 225, 29, 240, 60
-0.997444, 247, 85, 262, 116
-0.997465, 247, 9, 262, 40
-0.997471, 257, 185, 272, 216
-0.997471, 197, 385, 212, 416
-0.997472, 81, 129, 96, 160
-0.997477, 235, 125, 250, 156
-0.997482, 209, 73, 224, 104
-0.997482, 105, 189, 120, 220
-0.997483, 189, 185, 204, 216
-0.997485, 239, 5, 254, 36
-0.997485, 109, 173, 124, 204
-0.997487, 219, 65, 234, 96
-0.997488, 177, 197, 192, 228
-0.997491, 113, 269, 128, 300
-0.997492, 199, 309, 214, 340
-0.997495, 155, 181, 170, 212
-0.997496, 119, 177, 134, 208
-0.997497, 161, 193, 176, 224
-0.9975, 129, 189, 144, 220
-0.9975, 209, 241, 333, 272
-0.997504, 65, 181, 80, 212
-0.997507, 249, 117, 264, 148
-0.997508, 209, 129, 240, 384
-0.997521, 143, 65, 158, 96
-0.997529, 191, 197, 206, 228
-0.997541, 97, 173, 112, 204
-0.997544, 151, 49, 166, 80
-0.997548, 243, 25, 258, 56
-0.997556, 97, 285, 224, 316
-0.99756, 155, 309, 170, 340
-0.997562, 209, 345, 333, 408
-0.997566, 305, 201, 320, 232
-0.997574, 263, 185, 278, 216
-0.99758, 191, 293, 206, 324
-0.997585, 79, 173, 94, 204
-0.997589, 183, 185, 198, 216
-0.997592, 97, 385, 224, 448
-0.997594, 171, 89, 186, 120
-0.9976, 295, 193, 310, 224
-0.997603, 91, 173, 106, 204
-0.997612, 135, 189, 150, 220
-0.997622, 75, 129, 90, 160
-0.997626, 191, 81, 206, 112
-0.997629, 281, 33, 312, 288
-0.997629, 93, 193, 124, 448
-0.997632, 215, 77, 230, 108
-0.997633, 1, 417, 128, 480
-0.997637, 119, 321, 134, 352
-0.99764, 115, 189, 130, 220
-0.997645, 171, 1, 186, 32
-0.997646, 37, 129, 68, 384
-0.997652, 305, 189, 320, 220
-0.997652, 85, 173, 100, 204
-0.99766, 223, 17, 238, 48
-0.997666, 261, 205, 276, 236
-0.997667, 209, 225, 333, 256
-0.997668, 271, 177, 286, 208
-0.997677, 101, 201, 116, 232
-0.997684, 261, 173, 276, 204
-0.99769, 159, 97, 174, 128
-0.997691, 247, 97, 262, 128
-0.997732, 193, 381, 320, 412
-0.997797, 293, 193, 324, 448
-0.997819, 293, 1, 324, 256
-0.997848, 17, 381, 144, 412
-0.997861, 1, 305, 128, 336
-0.997869, 69, 1, 100, 256
-0.997903, 1, 233, 333, 296
-0.997933, 1, 113, 128, 144
-0.997955, 145, 449, 272, 480
-0.997987, 245, 1, 276, 256
-0.998001, 33, 73, 160, 104
-0.998038, 161, 425, 288, 456
-0.998039, 269, 33, 300, 288
-0.998055, 209, 313, 333, 344
-0.99806, 165, 1, 196, 256
-0.99807, 65, 409, 192, 472
-0.998084, 1, 305, 64, 432
-0.998112, 33, 213, 160, 244
-0.998112, 177, 393, 304, 424
-0.998119, 201, 225, 232, 480
-0.998128, 13, 129, 44, 256
-0.998133, 113, 337, 240, 368
-0.998158, 17, 329, 144, 360
-0.998163, 269, 161, 300, 416
-0.998191, 85, 1, 116, 256
-0.998206, 81, 193, 112, 448
-0.998231, 193, 285, 320, 316
-0.998235, 209, 105, 333, 136
-0.998269, 49, 281, 176, 312
-0.998285, 45, 1, 76, 256
-0.998314, 17, 341, 144, 372
-0.998319, 33, 257, 160, 288
-0.998323, 49, 53, 176, 84
-0.998325, 1, 401, 256, 464
-0.998348, 1, 329, 256, 392
-0.998353, 273, 201, 333, 216
-0.998366, 169, 313, 232, 328
-0.998378, 241, 225, 304, 480
-0.998393, 281, 161, 312, 416
-0.998406, 145, 277, 272, 308
-0.998408, 217, 37, 280, 52
-0.998409, 169, 155, 232, 170
-0.998412, 153, 319, 216, 334
-0.998416, 41, 143, 104, 158
-0.998426, 273, 195, 333, 210
-0.998433, 201, 75, 264, 90
-0.998439, 173, 293, 204, 308
-0.998439, 65, 143, 128, 158
-0.99844, 301, 169, 332, 184
-0.99844, 249, 71, 280, 86
-0.998442, 229, 251, 260, 266
-0.998442, 113, 207, 144, 222
-0.998443, 65, 175, 128, 190
-0.998444, 45, 177, 76, 192
-0.998444, 169, 113, 200, 128
-0.998444, 209, 29, 272, 44
-0.998445, 189, 87, 220, 102
-0.998448, 121, 325, 184, 340
-0.998448, 149, 35, 180, 50
-0.998448, 13, 321, 44, 336
-0.99845, 193, 217, 224, 232
-0.99845, 25, 323, 56, 338
-0.998451, 289, 311, 320, 326
-0.998452, 201, 83, 232, 98
-0.998452, 145, 325, 176, 340
-0.998452, 217, 443, 248, 458
-0.998453, 77, 203, 108, 218
-0.998454, 273, 207, 333, 222
-0.998454, 209, 127, 240, 142
-0.998455, 269, 285, 300, 300
-0.998455, 113, 333, 144, 348
-0.998456, 237, 141, 268, 156
-0.998456, 201, 69, 264, 84
-0.998456, 157, 11, 188, 26
-0.998456, 153, 63, 184, 78
-0.998456, 249, 107, 280, 122
-0.998458, 157, 111, 188, 126
-0.998458, 117, 275, 148, 290
-0.998458, 237, 35, 268, 50
-0.998459, 221, 59, 252, 74
-0.99846, 45, 199, 76, 214
-0.99846, 249, 33, 280, 48
-0.99846, 113, 91, 144, 106
-0.998461, 273, 177, 304, 192
-0.998461, 225, 33, 256, 48
-0.998461, 53, 129, 84, 144
-0.998463, 41, 149, 104, 164
-0.998465, 97, 205, 128, 220
-0.998466, 249, 197, 312, 212
-0.998468, 261, 203, 292, 218
-0.998468, 145, 117, 176, 132
-0.99847, 193, 337, 224, 352
-0.998471, 225, 25, 256, 40
-0.998471, 133, 209, 164, 224
-0.998472, 225, 39, 256, 54
-0.998473, 181, 303, 212, 318
-0.998475, 69, 367, 100, 382
-0.998475, 217, 43, 280, 58
-0.998476, 177, 119, 208, 134
-0.998477, 185, 93, 216, 108
-0.998477, 173, 93, 204, 108
-0.998477, 285, 195, 316, 210
-0.998478, 237, 111, 268, 126
-0.998479, 49, 135, 80, 150
-0.998479, 181, 155, 212, 170
-0.99848, 241, 75, 304, 90
-0.998481, 229, 79, 260, 94
-0.998482, 265, 183, 328, 198
-0.998483, 129, 115, 160, 130
-0.998485, 97, 323, 128, 338
-0.998485, 257, 197, 288, 212
-0.998486, 277, 315, 308, 330
-0.998486, 215, 65, 230, 192
-0.998486, 129, 103, 192, 118
-0.998486, 229, 11, 260, 26
-0.998487, 201, 95, 232, 110
-0.998487, 265, 189, 328, 204
-0.998488, 149, 49, 180, 64
-0.998489, 121, 111, 184, 126
-0.998492, 81, 143, 112, 158
-0.998494, 41, 185, 104, 200
-0.998495, 301, 313, 332, 328
-0.998495, 65, 113, 96, 128
-0.998496, 233, 117, 296, 132
-0.998496, 189, 121, 220, 136
-0.998496, 161, 27, 224, 42
-0.998497, 145, 307, 208, 322
-0.998498, 49, 145, 80, 160
-0.998499, 249, 209, 312, 224
-0.998499, 113, 149, 176, 164
-0.9985, 153, 119, 216, 134
-0.998501, 225, 131, 256, 146
-0.998501, 217, 77, 248, 92
-0.998501, 197, 323, 228, 338
-0.998501, 157, 117, 188, 132
-0.998501, 225, 137, 256, 152
-0.998502, 301, 175, 332, 190
-0.998502, 313, 161, 328, 288
-0.998503, 237, 27, 268, 42
-0.998503, 49, 127, 112, 142
-0.998504, 89, 147, 152, 162
-0.998505, 225, 69, 288, 84
-0.998505, 129, 117, 192, 132
-0.998506, 141, 91, 172, 106
-0.998507, 125, 109, 156, 124
-0.998508, 173, 327, 204, 342
-0.998508, 245, 127, 276, 142
-0.99851, 189, 189, 220, 204
-0.99851, 237, 71, 268, 86
-0.99851, 141, 67, 172, 82
-0.99851, 161, 187, 224, 202
-0.998511, 225, 435, 288, 450
-0.998512, 137, 151, 200, 166
-0.998512, 97, 207, 160, 222
-0.998514, 177, 85, 240, 100
-0.998515, 161, 325, 224, 340
-0.998517, 129, 319, 192, 334
-0.998518, 193, 73, 224, 88
-0.998518, 137, 313, 200, 328
-0.998519, 261, 191, 292, 206
-0.998519, 97, 109, 160, 124
-0.998519, 61, 121, 92, 136
-0.998519, 225, 13, 288, 28
-0.99852, 105, 273, 136, 288
-0.99852, 81, 327, 144, 342
-0.99852, 177, 319, 240, 334
-0.998521, 169, 153, 200, 168
-0.998522, 137, 65, 200, 80
-0.998522, 217, 95, 280, 110
-0.998522, 73, 113, 136, 128
-0.998524, 245, 3, 276, 18
-0.998526, 201, 29, 232, 44
-0.998526, 225, 7, 288, 22
-0.998526, 201, 89, 232, 104
-0.998526, 237, 135, 268, 150
-0.998527, 169, 389, 232, 404
-0.998528, 145, 111, 208, 126
-0.998528, 97, 275, 160, 290
-0.99853, 249, 125, 312, 140
-0.998533, 105, 87, 168, 102
-0.998533, 217, 81, 280, 96
-0.998534, 137, 1, 200, 16
-0.998534, 93, 145, 124, 160
-0.998537, 149, 151, 180, 166
-0.998537, 49, 201, 112, 216
-0.998537, 133, 149, 164, 164
-0.998538, 217, 445, 280, 460
-0.998538, 113, 147, 144, 162
-0.998538, 129, 211, 192, 226
-0.998538, 201, 23, 264, 38
-0.998539, 249, 37, 312, 52
-0.998539, 129, 85, 160, 100
-0.998541, 145, 111, 176, 126
-0.998544, 33, 179, 96, 194
-0.998544, 249, 43, 312, 58
-0.998545, 65, 173, 96, 188
-0.998546, 165, 321, 196, 336
-0.998547, 177, 91, 240, 106
-0.998549, 257, 119, 320, 134
-0.998549, 135, 49, 150, 176
-0.99855, 157, 1, 188, 16
-0.99855, 57, 375, 120, 390
-0.99855, 249, 177, 312, 192
-0.99855, 249, 203, 312, 218
-0.998552, 237, 433, 268, 448
-0.998555, 217, 133, 280, 148
-0.998556, 281, 207, 312, 222
-0.998557, 185, 295, 216, 310
-0.998558, 269, 185, 300, 200
-0.998559, 217, 215, 280, 230
-0.998559, 109, 327, 140, 342
-0.998559, 57, 269, 120, 284
-0.998559, 205, 75, 236, 90
-0.998559, 209, 117, 272, 132
-0.99856, 177, 121, 240, 136
-0.99856, 245, 9, 276, 24
-0.99856, 301, 191, 332, 206
-0.99856, 113, 77, 176, 92
-0.99856, 97, 253, 224, 284
-0.998562, 265, 315, 328, 330
-0.998563, 177, 73, 240, 88
-0.998564, 129, 97, 192, 112
-0.998564, 217, 89, 280, 104
-0.998564, 217, 155, 280, 170
-0.998566, 145, 91, 208, 106
-0.998568, 209, 125, 272, 140
-0.998569, 213, 69, 244, 84
-0.99857, 41, 137, 104, 152
-0.99857, 217, 101, 280, 116
-0.99857, 213, 31, 244, 46
-0.998571, 169, 311, 200, 326
-0.998571, 177, 217, 240, 232
-0.998571, 97, 115, 160, 130
-0.998572, 105, 179, 168, 194
-0.998573, 49, 121, 112, 136
-0.998573, 189, 81, 220, 96
-0.998573, 289, 201, 320, 216
-0.998574, 117, 85, 148, 100
-0.998575, 137, 183, 200, 198
-0.998576, 277, 201, 308, 216
-0.998576, 241, 31, 304, 46
-0.998577, 289, 189, 320, 204
-0.998578, 177, 307, 240, 322
-0.998578, 105, 319, 168, 334
-0.998579, 169, 33, 232, 48
-0.99858, 109, 1, 140, 256
-0.998581, 233, 1, 296, 16
-0.998581, 193, 35, 256, 50
-0.998581, 189, 313, 220, 328
-0.998582, 209, 145, 272, 160
-0.998582, 257, 3, 320, 18
-0.998582, 193, 389, 256, 404
-0.998583, 9, 193, 72, 208
-0.998584, 153, 21, 216, 36
-0.998584, 129, 91, 160, 106
-0.998585, 113, 193, 176, 208
-0.998585, 241, 95, 304, 110
-0.998586, 273, 113, 333, 128
-0.998586, 241, 101, 304, 116
-0.998586, 73, 189, 136, 204
-0.998587, 161, 97, 224, 112
-0.998589, 273, 191, 304, 206
-0.998589, 161, 331, 224, 346
-0.99859, 225, 451, 288, 466
-0.998591, 41, 173, 104, 188
-0.998591, 201, 221, 264, 236
-0.998592, 73, 119, 136, 134
-0.998592, 153, 71, 216, 86
-0.998593, 145, 197, 208, 212
-0.998593, 225, 65, 256, 80
-0.998593, 241, 109, 304, 124
-0.998593, 153, 91, 184, 106
-0.998595, 169, 193, 232, 208
-0.998596, 153, 213, 216, 228
-0.998597, 225, 23, 288, 38
-0.998597, 265, 171, 328, 186
-0.998597, 63, 97, 78, 224
-0.998598, 129, 31, 192, 46
-0.998598, 265, 165, 328, 180
-0.998598, 137, 79, 200, 94
-0.998599, 137, 9, 200, 24
-0.9986, 209, 63, 272, 78
-0.9986, 177, 319, 208, 334
-0.998602, 177, 107, 240, 122
-0.998603, 153, 105, 216, 120
-0.998604, 145, 161, 208, 176
-0.998604, 57, 369, 120, 384
-0.998604, 301, 197, 332, 212
-0.998605, 241, 183, 304, 198
-0.998605, 25, 199, 88, 214
-0.998606, 49, 113, 112, 128
-0.998607, 113, 71, 176, 86
-0.998607, 65, 209, 96, 336
-0.998607, 81, 385, 208, 416
-0.99861, 193, 155, 224, 170
-0.998613, 289, 177, 320, 192
-0.998614, 51, 113, 66, 240
-0.998622, 301, 181, 332, 196
-0.998629, 225, 71, 256, 86
-0.998636, 121, 79, 152, 94
-0.998636, 161, 337, 288, 368
-0.998638, 301, 205, 332, 220
-0.99864, 153, 317, 184, 332
-0.998647, 307, 161, 322, 288
-0.998654, 113, 433, 240, 464
-0.998657, 221, 65, 236, 192
-0.998659, 257, 117, 288, 132
-0.99866, 193, 389, 224, 404
-0.998673, 201, 65, 216, 192
-0.998679, 1, 313, 333, 376
-0.99868, 281, 183, 312, 198
-0.99868, 69, 143, 100, 158
-0.998689, 129, 73, 160, 88
-0.998704, 177, 369, 304, 400
-0.998704, 207, 65, 222, 192
-0.998712, 249, 81, 264, 208
-0.998739, 229, 33, 244, 160
-0.998741, 129, 241, 256, 272
-0.998742, 209, 421, 333, 452
-0.998753, 17, 353, 80, 480
-0.998767, 253, 1, 268, 128
-0.998768, 97, 1, 128, 256
-0.998776, 113, 357, 240, 388
-0.998797, 195, 65, 210, 192
-0.998808, 129, 377, 256, 408
-0.998813, 243, 33, 258, 160
-0.998817, 193, 273, 320, 304
-0.998835, 1, 357, 128, 388
-0.998836, 1, 433, 333, 496
-0.998837, 141, 49, 156, 176
-0.998842, 1, 101, 128, 132
-0.998846, 57, 113, 72, 240
-0.998872, 255, 81, 270, 208
-0.998874, 151, 49, 166, 176
-0.998879, 257, 161, 288, 416
-0.99888, 191, 273, 206, 400
-0.998883, 29, 33, 60, 288
-0.998889, 9, 241, 72, 368
-0.998893, 71, 97, 86, 224
-0.998905, 69, 193, 100, 448
-0.99892, 287, 161, 302, 288
-0.998929, 17, 393, 144, 456
-0.998933, 117, 65, 132, 192
-0.998952, 185, 193, 200, 320
-0.998958, 211, 129, 226, 256
-0.998966, 189, 49, 204, 176
-0.998987, 313, 113, 328, 240
-0.998994, 167, 1, 182, 128
-0.998999, 263, 97, 278, 224
-0.999001, 77, 97, 92, 224
-0.999008, 129, 65, 144, 192
-0.999014, 251, 129, 266, 256
-0.999018, 199, 321, 214, 448
-0.99902, 313, 209, 328, 336
-0.999027, 239, 81, 254, 208
-0.999027, 157, 49, 172, 176
-0.999032, 235, 1, 250, 128
-0.999032, 211, 209, 226, 336
-0.999033, 197, 273, 212, 400
-0.999034, 237, 193, 268, 448
-0.999043, 281, 177, 296, 304
-0.999048, 25, 129, 56, 384
-0.999055, 65, 341, 192, 372
-0.99906, 69, 161, 84, 288
-0.999066, 195, 113, 210, 240
-0.99907, 259, 1, 274, 128
-0.999072, 17, 293, 144, 324
-0.999075, 177, 253, 304, 284
-0.99908, 191, 193, 206, 320
-0.999092, 301, 161, 316, 288
-0.999095, 209, 321, 333, 384
-0.999103, 161, 229, 288, 260
-0.999114, 87, 97, 102, 224
-0.999123, 49, 237, 176, 268
-0.999124, 135, 209, 150, 336
-0.999128, 217, 129, 232, 256
-0.999128, 245, 129, 260, 256
-0.99913, 199, 177, 214, 304
-0.999134, 59, 177, 74, 304
-0.999135, 223, 17, 238, 144
-0.999139, 111, 81, 126, 208
-0.999139, 173, 1, 188, 128
-0.999143, 187, 321, 202, 448
-0.999152, 117, 113, 132, 240
-0.999158, 217, 17, 232, 144
-0.999171, 105, 113, 120, 240
-0.999173, 115, 289, 130, 416
-0.999174, 307, 113, 322, 240
-0.999177, 159, 1, 174, 128
-0.999181, 223, 209, 238, 336
-0.999182, 201, 113, 216, 240
-0.99919, 141, 209, 156, 336
-0.999192, 227, 113, 242, 240
-0.999196, 217, 209, 232, 336
-0.999199, 183, 49, 198, 176
-0.999202, 257, 145, 272, 272
-0.999208, 163, 49, 178, 176
-0.999208, 143, 113, 158, 240
-0.999211, 123, 289, 138, 416
-0.999214, 199, 225, 214, 352
-0.999214, 235, 209, 250, 336
-0.999221, 233, 81, 248, 208
-0.999223, 99, 113, 114, 240
-0.999223, 123, 113, 138, 240
-0.999226, 211, 17, 226, 144
-0.999227, 151, 113, 166, 240
-0.999233, 271, 97, 286, 224
-0.999239, 45, 129, 60, 256
-0.999243, 129, 209, 144, 336
-0.999247, 179, 193, 194, 320
-0.999251, 1, 273, 333, 336
-0.999255, 163, 113, 178, 240
-0.999268, 165, 193, 180, 320
-0.999274, 137, 113, 152, 240
-0.999278, 239, 129, 254, 256
-0.999281, 53, 177, 68, 304
-0.999283, 93, 113, 108, 240
-0.99929, 253, 369, 268, 496
-0.999297, 147, 193, 162, 320
-0.999307, 123, 65, 138, 192
-0.999311, 265, 49, 280, 176
-0.999312, 233, 129, 248, 256
-0.999314, 277, 113, 292, 240
-0.999315, 205, 321, 220, 448
-0.999315, 193, 321, 208, 448
-0.999315, 295, 145, 310, 272
-0.999316, 229, 209, 244, 336
-0.999323, 49, 257, 80, 384
-0.999324, 129, 113, 144, 240
-0.999328, 157, 113, 172, 240
-0.999332, 153, 1, 168, 128
-0.999333, 307, 209, 322, 336
-0.999336, 205, 193, 220, 320
-0.999339, 187, 97, 202, 224
-0.999341, 203, 273, 218, 400
-0.999348, 161, 413, 288, 444
-0.999351, 175, 49, 190, 176
-0.999354, 173, 161, 188, 288
-0.999368, 9, 129, 40, 384
-0.999369, 213, 225, 244, 480
-0.999369, 75, 145, 90, 272
-0.999381, 129, 289, 144, 416
-0.999381, 197, 369, 212, 496
-0.999387, 247, 369, 262, 496
-0.999397, 313, 289, 328, 416
-0.999401, 185, 273, 200, 400
-0.999401, 179, 1, 194, 128
-0.999403, 223, 161, 238, 288
-0.999407, 275, 161, 290, 288
-0.999408, 95, 193, 110, 320
-0.999408, 47, 177, 62, 304
-0.999412, 93, 65, 108, 192
-0.999413, 81, 337, 96, 464
-0.999413, 117, 209, 132, 336
-0.999416, 105, 65, 120, 192
-0.999417, 69, 337, 84, 464
-0.999418, 105, 193, 120, 320
-0.999425, 239, 369, 254, 496
-0.999426, 283, 289, 298, 416
-0.999427, 135, 257, 150, 384
-0.99943, 109, 289, 124, 416
-0.999431, 263, 161, 278, 288
-0.999431, 271, 49, 286, 176
-0.999431, 173, 209, 188, 336
-0.999451, 21, 177, 52, 304
-0.999467, 1, 437, 128, 468
-0.999483, 161, 353, 288, 384
-0.999515, 1, 193, 32, 320
-0.999537, 57, 193, 88, 448
-0.999537, 113, 401, 240, 432
-0.999555, 145, 265, 272, 296
-0.999559, 1, 229, 128, 260
-0.999566, 17, 393, 144, 424
-0.999572, 17, 1, 144, 32
-0.999584, 225, 225, 256, 480
-0.999645, 213, 393, 228, 408
-0.999645, 167, 11, 182, 26
-0.999646, 161, 17, 176, 32
-0.999646, 257, 187, 272, 202
-0.999647, 229, 13, 244, 28
-0.999649, 271, 117, 286, 132
-0.999649, 189, 93, 204, 108
-0.999649, 271, 183, 286, 198
-0.999649, 297, 183, 312, 198
-0.999651, 251, 31, 266, 46
-0.999651, 291, 315, 306, 330
-0.999651, 259, 3, 274, 18
-0.999652, 245, 39, 260, 54
-0.999652, 131, 77, 146, 92
-0.999653, 277, 285, 292, 300
-0.999653, 93, 143, 108, 158
-0.999655, 135, 109, 150, 124
-0.999656, 143, 67, 158, 82
-0.999656, 117, 91, 132, 106
-0.999656, 243, 75, 258, 90
-0.999657, 91, 203, 106, 218
-0.999657, 293, 205, 308, 220
-0.999657, 139, 209, 154, 224
-0.999657, 171, 1, 186, 16
-0.999658, 177, 327, 192, 342
-0.999659, 69, 173, 84, 188
-0.999659, 293, 65, 324, 192
-0.999659, 143, 115, 158, 130
-0.999662, 187, 153, 202, 168
-0.999662, 161, 57, 176, 72
-0.999662, 303, 201, 318, 216
-0.999663, 151, 149, 166, 164
-0.999663, 207, 389, 222, 404
-0.999664, 159, 63, 174, 78
-0.999665, 245, 105, 260, 120
-0.999665, 249, 1, 264, 16
-0.999666, 175, 153, 190, 168
-0.999666, 117, 331, 132, 346
-0.999669, 195, 155, 210, 170
-0.999669, 201, 189, 216, 204
-0.99967, 179, 95, 194, 110
-0.999671, 205, 313, 220, 328
-0.999672, 131, 91, 146, 106
-0.999672, 247, 131, 262, 146
-0.999673, 189, 303, 204, 318
-0.999673, 203, 93, 218, 108
-0.999673, 253, 121, 268, 136
-0.999675, 313, 207, 328, 222
-0.999676, 167, 91, 182, 106
-0.999676, 145, 239, 160, 254
-0.999677, 203, 79, 218, 94
-0.999679, 111, 145, 126, 160
-0.999679, 169, 151, 184, 166
-0.999679, 279, 203, 294, 218
-0.999679, 195, 387, 210, 402
-0.999679, 255, 111, 270, 126
-0.99968, 211, 31, 226, 46
-0.99968, 157, 151, 172, 166
-0.999682, 225, 57, 240, 72
-0.999682, 117, 273, 132, 288
-0.999683, 87, 143, 102, 158
-0.999683, 131, 147, 146, 162
-0.999684, 145, 283, 160, 298
-0.999685, 263, 115, 278, 130
-0.999685, 287, 175, 302, 190
-0.999686, 201, 323, 216, 338
-0.999686, 61, 115, 76, 130
-0.999686, 165, 5, 180, 20
-0.999687, 261, 193, 276, 208
-0.999687, 205, 73, 220, 88
-0.999687, 125, 79, 140, 94
-0.99969, 119, 147, 134, 162
-0.999691, 313, 313, 328, 328
-0.999691, 139, 89, 154, 104
-0.999692, 139, 149, 154, 164
-0.999693, 313, 169, 328, 184
-0.999693, 305, 207, 320, 222
-0.999694, 143, 79, 158, 94
-0.999694, 81, 143, 96, 158
-0.999694, 181, 153, 196, 168
-0.999695, 269, 201, 284, 216
-0.999697, 1, 89, 128, 120
-0.999697, 99, 145, 114, 160
-0.999697, 245, 137, 260, 152
-0.999697, 237, 129, 252, 144
-0.9997, 277, 189, 292, 204
-0.9997, 145, 91, 160, 106
-0.999701, 309, 25, 324, 40
-0.999702, 61, 269, 76, 284
-0.999704, 193, 329, 208, 344
-0.999704, 237, 73, 252, 88
-0.999706, 215, 75, 230, 90
-0.999707, 163, 151, 178, 166
-0.999708, 231, 71, 246, 86
-0.999709, 67, 119, 82, 134
-0.99971, 223, 77, 238, 92
-0.99971, 105, 145, 120, 160
-0.999711, 217, 29, 232, 44
-0.999711, 223, 69, 238, 84
-0.999712, 125, 147, 140, 162
-0.999716, 195, 293, 210, 308
-0.999716, 145, 149, 160, 164
-0.999717, 243, 7, 258, 22
-0.999717, 281, 183, 296, 198
-0.999717, 115, 325, 130, 340
-0.99972, 179, 309, 194, 324
-0.99972, 313, 19, 328, 34
-0.99972, 257, 273, 288, 400
-0.99972, 165, 321, 180, 336
-0.999721, 157, 315, 172, 330
-0.999723, 161, 11, 176, 26
-0.999723, 201, 389, 216, 404
-0.999724, 277, 257, 308, 500
-0.999725, 179, 319, 194, 334
-0.999726, 173, 317, 188, 332
-0.999727, 243, 81, 258, 96
-0.999733, 203, 27, 218, 42
-0.999736, 113, 421, 240, 452
-0.999736, 111, 273, 126, 288
-0.999739, 141, 73, 156, 88
-0.999743, 121, 85, 136, 100
-0.999744, 271, 189, 286, 204
-0.999746, 167, 315, 182, 330
-0.999747, 61, 121, 76, 136
-0.999754, 287, 181, 302, 196
-0.999754, 29, 321, 44, 336
-0.999759, 123, 327, 138, 342
-0.999759, 313, 13, 328, 28
-0.999761, 133, 71, 148, 86
-0.999761, 71, 143, 86, 158
-0.999763, 1, 17, 128, 48
-0.999765, 205, 155, 220, 170
-0.999765, 195, 335, 210, 350
-0.999768, 263, 187, 278, 202
-0.999788, 155, 89, 170, 104
-0.999793, 269, 195, 284, 210
-0.999826, 1, 425, 128, 456
-0.99983, 49, 417, 176, 448
-0.999855, 113, 221, 240, 252
-0.999867, 49, 17, 80, 144
-0.999887, 209, 357, 333, 388
-0.999913, 81, 453, 208, 484
-0.999933, 29, 225, 60, 480
-0.999971, 9, 225, 40, 480
-1.00001, 273, 257, 333, 500
-1.00006, 17, 289, 48, 416
-1.00022, 1, 1, 32, 256
-1.00029, 1, 409, 333, 472
-1.0003, 1, 33, 128, 96
-1.00035, 1, 369, 333, 432
-1.00036, 13, 1, 44, 256
-1.00036, 137, 337, 168, 464
-1.00046, 249, 225, 280, 352
-1.00046, 41, 225, 72, 480
-1.0005, 65, 433, 192, 496
-1.00051, 161, 337, 192, 464
-1.00073, 5, 257, 36, 384
-1.00073, 25, 1, 56, 128
-1.00083, 249, 257, 280, 500
-1.00098, 265, 257, 296, 500
-1.0013, 1, 337, 333, 400
-1.00234, 1, 225, 64, 480
-1.00457, 1, 1, 64, 128
