1989
-0.0891857, 1, 1, 389, 500
-0.269411, 1, 97, 389, 352
-0.360956, 33, 1, 288, 500
-0.42184, 1, 193, 389, 448
-0.429783, 1, 1, 389, 256
-0.432713, 129, 1, 384, 500
-0.521611, 33, 1, 288, 256
-0.614567, 33, 257, 288, 500
-0.615287, 97, 97, 352, 352
-0.687506, 1, 97, 256, 352
-0.699724, 129, 225, 384, 480
-0.76067, 129, 1, 384, 256
-0.824042, 193, 1, 320, 500
-0.824645, 65, 1, 192, 500
-0.846097, 65, 225, 192, 480
-0.852615, 145, 1, 272, 500
-0.862361, 65, 1, 192, 256
-0.863318, 177, 33, 304, 288
-0.863662, 1, 97, 389, 224
-0.871681, 129, 97, 256, 352
-0.875288, 1, 49, 389, 176
-0.877694, 49, 97, 176, 352
-0.878634, 145, 257, 272, 500
-0.880293, 1, 209, 389, 336
-0.89043, 1, 1, 128, 500
-0.892734, 241, 1, 368, 500
-0.896572, 33, 33, 288, 160
-0.899709, 1, 145, 389, 272
-0.902321, 113, 1, 240, 256
-0.903887, 209, 129, 336, 384
-0.905634, 241, 257, 368, 500
-0.906485, 1, 257, 389, 384
-0.912266, 1, 305, 389, 432
-0.915921, 225, 33, 352, 288
-0.916296, 33, 81, 288, 208
-0.916547, 33, 241, 288, 368
-0.917139, 1, 353, 389, 480
-0.918356, 193, 225, 320, 480
-0.919278, 1, 257, 128, 500
-0.925811, 129, 49, 384, 176
-0.926428, 17, 1, 144, 256
-0.928784, 65, 353, 320, 480
-0.928804, 105, 17, 168, 144
-0.928842, 129, 289, 384, 416
-0.928878, 217, 33, 280, 160
-0.931363, 65, 33, 192, 160
-0.931551, 65, 241, 192, 368
-0.932203, 177, 49, 304, 176
-0.933115, 97, 193, 352, 320
-0.93402, 1, 161, 128, 416
-0.934806, 1, 129, 256, 256
-0.935052, 33, 289, 288, 416
-0.937602, 257, 129, 384, 384
-0.940283, 129, 241, 384, 368
-0.941492, 113, 49, 240, 176
-0.942689, 1, 1, 389, 128
-0.943758, 193, 97, 320, 224
-0.944019, 129, 113, 384, 240
-0.944902, 169, 273, 232, 400
-0.945411, 129, 49, 192, 176
-0.94542, 177, 49, 240, 176
-0.945885, 113, 217, 176, 280
-0.946803, 121, 209, 184, 336
-0.947396, 217, 41, 280, 104
-0.949593, 73, 49, 136, 176
-0.949628, 105, 25, 168, 88
-0.95005, 1, 193, 256, 320
-0.950134, 49, 177, 176, 304
-0.950263, 33, 81, 160, 208
-0.951126, 113, 97, 240, 224
-0.952341, 17, 33, 144, 160
-0.95362, 145, 289, 272, 416
-0.955086, 65, 321, 192, 448
-0.956163, 113, 209, 240, 336
-0.957826, 145, 369, 272, 496
-0.958126, 113, 257, 176, 384
-0.95873, 241, 49, 304, 176
-0.958898, 65, 369, 192, 496
-0.958926, 57, 97, 120, 224
-0.958991, 89, 49, 152, 112
-0.959692, 153, 49, 216, 176
-0.960627, 49, 305, 112, 432
-0.96065, 193, 369, 320, 496
-0.961075, 145, 209, 208, 336
-0.961204, 113, 1, 240, 128
-0.961285, 193, 97, 256, 224
-0.961354, 257, 49, 384, 176
-0.963391, 17, 49, 80, 176
-0.963587, 257, 97, 320, 224
-0.963794, 113, 49, 176, 112
-0.96418, 193, 321, 320, 448
-0.964438, 193, 257, 320, 384
-0.965111, 121, 73, 184, 136
-0.965211, 257, 257, 320, 384
-0.965232, 73, 161, 136, 288
-0.965278, 49, 129, 176, 256
-0.965386, 145, 97, 208, 224
-0.96543, 97, 81, 160, 208
-0.965643, 145, 241, 208, 304
-0.965663, 297, 241, 360, 368
-0.965933, 17, 305, 144, 432
-0.966357, 145, 97, 208, 160
-0.966526, 129, 1, 384, 128
-0.96665, 249, 353, 312, 480
-0.966737, 225, 73, 288, 136
-0.966772, 169, 281, 232, 344
-0.966919, 81, 1, 144, 128
-0.967174, 225, 1, 288, 256
-0.967196, 33, 193, 96, 320
-0.967569, 177, 65, 240, 128
-0.967595, 65, 209, 128, 336
-0.967746, 217, 97, 280, 160
-0.968057, 25, 257, 88, 384
-0.968166, 297, 289, 360, 416
-0.968198, 121, 1, 152, 128
-0.968245, 121, 193, 184, 448
-0.968358, 217, 81, 280, 208
-0.968364, 73, 73, 136, 136
-0.968497, 1, 369, 128, 496
-0.968636, 133, 217, 164, 280
-0.96893, 209, 145, 336, 272
-0.968971, 125, 209, 156, 336
-0.969046, 265, 49, 328, 176
-0.969635, 49, 313, 112, 376
-0.969641, 217, 353, 280, 480
-0.96965, 281, 369, 344, 496
-0.969746, 49, 353, 112, 480
-0.969902, 113, 145, 176, 272
-0.970401, 17, 241, 144, 368
-0.970523, 49, 233, 176, 296
-0.97068, 65, 33, 192, 96
-0.970877, 185, 113, 248, 176
-0.970881, 265, 49, 328, 112
-0.970939, 241, 417, 304, 480
-0.971005, 97, 209, 160, 336
-0.97103, 137, 33, 168, 160
-0.971119, 225, 193, 352, 320
-0.971263, 73, 225, 136, 288
-0.97152, 113, 1, 176, 256
-0.971617, 129, 161, 256, 288
-0.971619, 169, 113, 232, 240
-0.971666, 1, 177, 128, 304
-0.971706, 177, 209, 304, 336
-0.972077, 153, 57, 216, 120
-0.972083, 257, 305, 320, 432
-0.972212, 241, 337, 368, 464
-0.972293, 145, 257, 208, 384
-0.972578, 121, 225, 152, 288
-0.972619, 97, 33, 128, 160
-0.972806, 17, 145, 80, 272
-0.972807, 65, 81, 192, 144
-0.97319, 121, 241, 184, 304
-0.973224, 257, 337, 320, 400
-0.973409, 137, 209, 168, 336
-0.973609, 221, 33, 252, 160
-0.973694, 249, 105, 312, 168
-0.974009, 65, 49, 128, 112
-0.974099, 201, 257, 264, 384
-0.974178, 257, 273, 384, 400
-0.97422, 57, 65, 120, 320
-0.974369, 281, 161, 344, 288
-0.974384, 89, 1, 152, 256
-0.974433, 33, 193, 96, 256
-0.974728, 129, 57, 256, 120
-0.974731, 201, 1, 264, 256
-0.974993, 93, 49, 124, 112
-0.975069, 161, 313, 224, 376
-0.975135, 113, 225, 240, 288
-0.975145, 193, 49, 320, 112
-0.975282, 245, 33, 276, 160
-0.975304, 281, 417, 344, 480
-0.975333, 57, 97, 120, 160
-0.975397, 49, 385, 112, 448
-0.97544, 177, 89, 240, 152
-0.975457, 217, 49, 248, 112
-0.97563, 137, 33, 200, 288
-0.975738, 65, 57, 192, 120
-0.975762, 241, 49, 304, 112
-0.976093, 49, 49, 112, 176
-0.976309, 109, 25, 140, 88
-0.97631, 201, 209, 264, 336
-0.97643, 73, 193, 136, 256
-0.976526, 49, 337, 112, 400
-0.976697, 109, 1, 140, 128
-0.976711, 217, 417, 280, 480
-0.976779, 257, 313, 320, 376
-0.976786, 33, 289, 96, 352
-0.976824, 233, 33, 264, 96
-0.976833, 25, 369, 88, 496
-0.977082, 141, 57, 172, 120
-0.977265, 209, 345, 272, 408
-0.977279, 257, 361, 320, 424
-0.977286, 257, 281, 320, 344
-0.97736, 49, 257, 112, 384
-0.977457, 49, 209, 176, 272
-0.977572, 89, 353, 152, 480
-0.977581, 313, 161, 376, 288
-0.977651, 257, 385, 320, 448
-0.9777, 137, 305, 200, 432
-0.977889, 201, 273, 264, 336
-0.977917, 97, 81, 160, 144
-0.977942, 97, 241, 160, 304
-0.97802, 245, 41, 276, 104
-0.978041, 233, 33, 264, 160
-0.978061, 161, 257, 224, 500
-0.978079, 257, 129, 384, 256
-0.978124, 41, 65, 104, 128
-0.978313, 249, 33, 312, 288
-0.978316, 209, 305, 272, 432
-0.97836, 209, 49, 240, 176
-0.978394, 193, 113, 320, 176
-0.978411, 201, 65, 264, 128
-0.978587, 9, 209, 72, 336
-0.978622, 297, 49, 360, 176
-0.978717, 225, 1, 352, 128
-0.978718, 153, 385, 216, 448
-0.978792, 289, 305, 352, 368
-0.978875, 97, 249, 224, 312
-0.979021, 289, 257, 352, 320
-0.979345, 145, 361, 272, 424
-0.979396, 181, 273, 212, 336
-0.979414, 129, 25, 192, 88
-0.979442, 121, 361, 184, 424
-0.979445, 281, 113, 344, 240
-0.979524, 57, 409, 120, 472
-0.97956, 129, 1, 192, 128
-0.979563, 177, 89, 304, 152
-0.979628, 201, 1, 264, 500
-0.979728, 25, 385, 88, 448
-0.979781, 185, 425, 248, 488
-0.979808, 65, 321, 192, 384
-0.979811, 193, 345, 320, 408
-0.979824, 1, 57, 128, 120
-0.979842, 129, 25, 160, 88
-0.97996, 289, 385, 352, 448
-0.98021, 49, 1, 112, 128
-0.980231, 257, 209, 320, 336
-0.980263, 145, 265, 208, 328
-0.980325, 161, 361, 224, 424
-0.980357, 161, 1, 288, 128
-0.980427, 153, 1, 216, 128
-0.98048, 65, 377, 192, 440
-0.980548, 281, 177, 344, 240
-0.980561, 137, 1, 200, 500
-0.980563, 145, 33, 272, 96
-0.980578, 217, 385, 280, 448
-0.980606, 193, 41, 256, 104
-0.980631, 49, 257, 176, 320
-0.980663, 121, 337, 184, 400
-0.980698, 17, 321, 80, 448
-0.980706, 161, 305, 192, 432
-0.980845, 49, 257, 112, 500
-0.980865, 65, 353, 192, 416
-0.980987, 257, 49, 288, 176
-0.98105, 177, 369, 240, 496
-0.981164, 73, 1, 136, 500
-0.981191, 213, 73, 244, 136
-0.981253, 201, 313, 264, 376
-0.981263, 1, 369, 64, 496
-0.981358, 181, 257, 212, 384
-0.98137, 25, 265, 88, 328
-0.981428, 129, 337, 256, 400
-0.98147, 289, 281, 352, 344
-0.981477, 305, 113, 368, 240
-0.981525, 177, 1, 240, 500
-0.981538, 177, 33, 240, 288
-0.981603, 81, 97, 144, 352
-0.981735, 153, 337, 216, 400
-0.981791, 17, 161, 80, 224
-0.981797, 129, 113, 256, 176
-0.981816, 113, 81, 240, 144
-0.981854, 73, 305, 104, 432
-0.981928, 197, 49, 228, 176
-0.98196, 81, 25, 144, 88
-0.981963, 297, 361, 360, 424
-0.981963, 65, 433, 128, 496
-0.982057, 145, 313, 272, 376
-0.982062, 169, 129, 232, 384
-0.982081, 1, 409, 64, 472
-0.982103, 249, 81, 280, 144
-0.982106, 57, 361, 120, 424
-0.982134, 153, 425, 216, 488
-0.982151, 161, 321, 224, 448
-0.982188, 197, 113, 228, 176
-0.982212, 209, 257, 272, 500
-0.982235, 257, 1, 320, 500
-0.982255, 273, 121, 336, 184
-0.982291, 169, 257, 232, 320
-0.982325, 61, 193, 92, 320
-0.982342, 97, 25, 128, 88
-0.982406, 57, 161, 120, 224
-0.982468, 33, 161, 96, 416
-0.982505, 137, 121, 200, 184
-0.982515, 109, 217, 140, 280
-0.982544, 149, 49, 180, 176
-0.98261, 249, 73, 312, 136
-0.982612, 257, 257, 320, 500
-0.982678, 185, 49, 216, 176
-0.982777, 73, 313, 104, 376
-0.982819, 145, 129, 208, 384
-0.982834, 241, 57, 368, 120
-0.982865, 273, 97, 336, 352
-0.982992, 137, 217, 200, 280
-0.983009, 149, 233, 180, 296
-0.983035, 321, 225, 384, 352
-0.983072, 113, 209, 144, 336
-0.983166, 89, 329, 152, 392
-0.983204, 173, 49, 204, 176
-0.983295, 1, 401, 128, 464
-0.983315, 289, 225, 352, 288
-0.98337, 257, 25, 320, 88
-0.983393, 313, 57, 376, 120
-0.983397, 121, 353, 184, 480
-0.983409, 145, 385, 272, 448
-0.983491, 313, 281, 376, 344
-0.983546, 257, 425, 384, 488
-0.983557, 201, 57, 232, 120
-0.983593, 177, 225, 240, 352
-0.983598, 217, 145, 280, 272
-0.983607, 217, 97, 248, 160
-0.983625, 289, 129, 320, 256
-0.983628, 109, 241, 140, 304
-0.98368, 81, 361, 144, 424
-0.98372, 289, 329, 352, 392
-0.983728, 97, 193, 160, 448
-0.983738, 129, 129, 160, 192
-0.983748, 245, 337, 276, 400
-0.983792, 225, 1, 288, 500
-0.983826, 69, 49, 100, 176
-0.98385, 85, 33, 116, 160
-0.983862, 289, 257, 352, 500
-0.984097, 57, 129, 120, 192
-0.984139, 33, 121, 160, 184
-0.984151, 301, 257, 332, 384
-0.984159, 177, 401, 240, 464
-0.984238, 157, 97, 188, 160
-0.984242, 145, 409, 272, 472
-0.984285, 65, 97, 96, 224
-0.984313, 113, 81, 144, 208
-0.984368, 57, 201, 88, 264
-0.984406, 17, 25, 144, 88
-0.984438, 129, 161, 160, 288
-0.984444, 1, 313, 128, 376
-0.984508, 89, 385, 152, 448
-0.984546, 81, 57, 112, 120
-0.984548, 297, 289, 328, 352
-0.984555, 153, 33, 216, 96
-0.98458, 17, 353, 80, 416
-0.984586, 93, 73, 124, 136
-0.984666, 141, 33, 172, 96
-0.984697, 257, 49, 288, 112
-0.984768, 137, 313, 200, 376
-0.98477, 65, 409, 192, 472
-0.984795, 257, 257, 320, 320
-0.984855, 265, 1, 328, 128
-0.984858, 9, 433, 72, 496
-0.984928, 73, 89, 104, 152
-0.984979, 41, 225, 104, 288
-0.984995, 109, 49, 140, 112
-0.985076, 277, 425, 308, 488
-0.985098, 313, 417, 376, 480
-0.985102, 73, 305, 136, 432
-0.985131, 33, 145, 160, 208
-0.985209, 65, 281, 192, 344
-0.985219, 65, 241, 96, 368
-0.985269, 313, 257, 376, 320
-0.985304, 161, 33, 192, 160
-0.985373, 129, 9, 256, 72
-0.985377, 1, 345, 128, 408
-0.985411, 177, 337, 240, 400
-0.985473, 57, 257, 120, 320
-0.985496, 1, 129, 128, 256
-0.985504, 289, 49, 352, 112
-0.985553, 41, 1, 104, 500
-0.985632, 209, 137, 336, 200
-0.985641, 1, 425, 128, 488
-0.98566, 257, 161, 320, 288
-0.985696, 105, 1, 168, 64
-0.985708, 125, 49, 156, 176
-0.98572, 177, 1, 240, 128
-0.985734, 41, 145, 104, 272
-0.985751, 257, 313, 384, 376
-0.985759, 129, 201, 256, 264
-0.985782, 193, 305, 320, 368
-0.985797, 233, 329, 296, 392
-0.985847, 305, 153, 368, 216
-0.985851, 1, 273, 64, 400
-0.985851, 57, 289, 88, 416
-0.985893, 161, 337, 192, 400
-0.98591, 193, 385, 320, 448
-0.985928, 161, 121, 224, 184
-0.985943, 281, 201, 344, 264
-0.986008, 17, 137, 80, 200
-0.986094, 165, 313, 196, 376
-0.986169, 33, 417, 96, 480
-0.986175, 313, 385, 376, 448
-0.986201, 269, 57, 300, 120
-0.986215, 121, 385, 184, 448
-0.986238, 1, 369, 128, 432
-0.986248, 161, 161, 224, 288
-0.986319, 145, 289, 272, 352
-0.986336, 281, 153, 344, 216
-0.986373, 289, 129, 320, 192
-0.986467, 49, 185, 176, 248
-0.986479, 153, 369, 216, 496
-0.986559, 137, 257, 168, 384
-0.986561, 313, 185, 376, 248
-0.986589, 269, 49, 300, 176
-0.98662, 241, 337, 368, 400
-0.986693, 249, 305, 280, 432
-0.986702, 193, 113, 224, 240
-0.98671, 193, 273, 320, 336
-0.986745, 117, 161, 148, 288
-0.986771, 229, 81, 260, 144
-0.986815, 17, 1, 80, 500
-0.986817, 201, 81, 232, 144
-0.986821, 149, 225, 180, 352
-0.986843, 265, 97, 296, 224
-0.986873, 205, 97, 236, 224
-0.986974, 245, 409, 276, 472
-0.987005, 97, 433, 224, 496
-0.987018, 241, 313, 272, 376
-0.987062, 321, 305, 384, 432
-0.98707, 209, 433, 336, 496
-0.987116, 113, 229, 176, 260
-0.987163, 281, 1, 344, 500
-0.987172, 301, 193, 332, 320
-0.987214, 17, 33, 80, 288
-0.987246, 169, 105, 200, 168
-0.98726, 169, 97, 200, 224
-0.987288, 9, 97, 72, 224
-0.987297, 121, 433, 184, 496
-0.987337, 97, 425, 160, 488
-0.987379, 249, 369, 280, 496
-0.98738, 113, 193, 176, 256
-0.987393, 225, 193, 288, 320
-0.987396, 121, 265, 184, 328
-0.987412, 257, 369, 384, 432
-0.987419, 321, 369, 384, 496
-0.987426, 1, 209, 128, 272
-0.987448, 225, 161, 352, 224
-0.987456, 145, 433, 272, 496
-0.987474, 65, 65, 96, 128
-0.98748, 257, 417, 288, 480
-0.987554, 185, 321, 248, 448
-0.987604, 81, 409, 112, 472
-0.987606, 45, 49, 76, 176
-0.987611, 189, 297, 220, 360
-0.987628, 193, 409, 320, 472
-0.98763, 225, 193, 352, 256
-0.987654, 305, 1, 368, 500
-0.987696, 321, 329, 384, 392
-0.987708, 269, 113, 300, 176
-0.987789, 201, 145, 264, 208
-0.987803, 305, 33, 368, 288
-0.987804, 17, 105, 80, 168
-0.987828, 225, 217, 352, 280
-0.987903, 161, 385, 192, 448
-0.987911, 121, 97, 184, 224
-0.988035, 189, 329, 220, 392
-0.988048, 49, 177, 80, 304
-0.988151, 197, 361, 228, 424
-0.988207, 125, 81, 156, 144
-0.988321, 121, 49, 152, 112
-0.98834, 209, 25, 336, 88
-0.988429, 89, 257, 152, 384
-0.988453, 233, 353, 296, 416
-0.988472, 121, 409, 184, 472
-0.988487, 225, 97, 256, 224
-0.988557, 233, 57, 264, 120
-0.988607, 293, 409, 324, 472
-0.988622, 125, 257, 156, 384
-0.988634, 201, 97, 264, 352
-0.988636, 105, 25, 168, 56
-0.98864, 217, 45, 280, 76
-0.988681, 241, 1, 304, 128
-0.98869, 69, 217, 100, 280
-0.9887, 313, 233, 376, 296
-0.988774, 297, 161, 360, 416
-0.988807, 137, 249, 168, 312
-0.988885, 33, 41, 288, 104
-0.988914, 185, 361, 248, 424
-0.988949, 113, 153, 176, 216
-0.988954, 17, 65, 80, 128
-0.988997, 245, 385, 276, 448
-0.989047, 313, 209, 376, 272
-0.989068, 89, 305, 152, 368
-0.989077, 105, 97, 168, 352
-0.989142, 145, 97, 176, 160
-0.989144, 217, 17, 280, 80
-0.989158, 257, 273, 384, 336
-0.989187, 49, 433, 176, 496
-0.989209, 185, 129, 216, 192
-0.98923, 261, 353, 292, 480
-0.989302, 117, 153, 148, 216
-0.989373, 77, 369, 108, 496
-0.989374, 57, 257, 88, 320
-0.989396, 161, 57, 192, 120
-0.989412, 121, 257, 152, 320
-0.989438, 185, 97, 216, 160
-0.989489, 181, 113, 212, 240
-0.98949, 105, 37, 168, 68
-0.989508, 253, 97, 284, 224
-0.98952, 81, 105, 208, 168
-0.98952, 113, 305, 176, 432
-0.989532, 17, 97, 144, 160
-0.989572, 169, 257, 200, 384
-0.989578, 241, 401, 368, 464
-0.98961, 321, 305, 384, 368
-0.989614, 301, 257, 332, 320
-0.989646, 161, 217, 224, 280
-0.989666, 57, 289, 88, 352
-0.989676, 281, 49, 312, 176
-0.989693, 57, 281, 120, 344
-0.989712, 113, 1, 176, 500
-0.989739, 329, 353, 389, 416
-0.989741, 273, 1, 336, 256
-0.989767, 149, 425, 180, 488
-0.989867, 249, 105, 280, 168
-0.989876, 145, 257, 272, 320
-0.989886, 193, 289, 224, 416
-0.989894, 49, 401, 80, 464
-0.989941, 113, 137, 240, 200
-0.989944, 113, 241, 176, 272
-0.989948, 289, 257, 320, 384
-0.989949, 297, 105, 360, 168
-0.990005, 89, 77, 152, 108
-0.990012, 217, 65, 280, 96
-0.990057, 113, 81, 176, 112
-0.99007, 1, 281, 128, 344
-0.990083, 177, 297, 208, 360
-0.990092, 257, 185, 320, 248
-0.990102, 177, 177, 304, 240
-0.990104, 141, 121, 172, 184
-0.990111, 61, 105, 92, 168
-0.990126, 33, 417, 64, 480
-0.990154, 89, 49, 152, 80
-0.990247, 161, 353, 192, 480
-0.990316, 301, 145, 332, 272
-0.990335, 85, 321, 116, 448
-0.990366, 117, 1, 148, 64
-0.990394, 73, 237, 136, 268
-0.990398, 105, 81, 136, 144
-0.99044, 265, 57, 328, 88
-0.990476, 33, 81, 288, 144
-0.990496, 177, 121, 240, 152
-0.990541, 73, 89, 136, 120
-0.99059, 89, 61, 152, 92
-0.990671, 53, 241, 84, 368
-0.990683, 229, 433, 260, 496
-0.990685, 105, 253, 168, 284
-0.990687, 113, 61, 176, 92
-0.990743, 1, 233, 128, 296
-0.990743, 169, 281, 232, 312
-0.990748, 41, 161, 72, 224
-0.990762, 225, 97, 288, 128
-0.990765, 25, 257, 88, 500
-0.990793, 113, 49, 176, 80
-0.990838, 81, 249, 144, 280
-0.990844, 153, 65, 216, 96
-0.990876, 129, 253, 192, 284
-0.990934, 329, 1, 389, 500
-0.990941, 161, 317, 224, 348
-0.990953, 289, 49, 320, 112
-0.991023, 169, 305, 232, 336
-0.991035, 225, 249, 352, 312
-0.99105, 165, 361, 196, 424
-0.991063, 73, 221, 136, 252
-0.991072, 177, 61, 240, 92
-0.991093, 65, 65, 128, 96
-0.991102, 329, 49, 389, 176
-0.991107, 137, 105, 200, 136
-0.991138, 89, 369, 120, 496
-0.991153, 49, 341, 112, 372
-0.991154, 145, 265, 208, 296
-0.991174, 169, 293, 232, 324
-0.991181, 101, 81, 132, 208
-0.991205, 273, 401, 304, 464
-0.991207, 309, 377, 340, 440
-0.991224, 237, 369, 268, 496
-0.991239, 245, 361, 276, 424
-0.99125, 257, 33, 384, 96
-0.991258, 153, 117, 216, 148
-0.99126, 49, 317, 112, 348
-0.991269, 17, 1, 144, 64
-0.991279, 73, 225, 136, 480
-0.991279, 177, 105, 240, 136
-0.991294, 257, 353, 320, 384
-0.991294, 257, 337, 320, 368
-0.991312, 49, 385, 112, 416
-0.991325, 33, 213, 96, 244
-0.991333, 121, 93, 184, 124
-0.991338, 61, 129, 92, 192
-0.991359, 89, 433, 120, 496
-0.991361, 33, 393, 64, 456
-0.99138, 177, 369, 208, 432
-0.99138, 293, 377, 324, 440
-0.991396, 161, 365, 224, 396
-0.991411, 169, 265, 200, 328
-0.991431, 293, 353, 324, 480
-0.991435, 193, 393, 224, 456
-0.991439, 241, 421, 304, 452
-0.991457, 65, 457, 128, 488
-0.991465, 249, 161, 312, 416
-0.991471, 229, 105, 260, 168
-0.991471, 297, 313, 328, 376
-0.991498, 145, 241, 208, 272
-0.991522, 209, 361, 272, 392
-0.991533, 49, 353, 112, 384
-0.991546, 177, 93, 240, 124
-0.991549, 257, 117, 320, 148
-0.991582, 265, 425, 328, 456
-0.991582, 161, 377, 224, 408
-0.991583, 309, 281, 340, 344
-0.991584, 65, 101, 128, 132
-0.991586, 241, 57, 304, 88
-0.991591, 317, 225, 348, 352
-0.991595, 33, 217, 288, 280
-0.991598, 49, 329, 112, 360
-0.991614, 161, 233, 288, 296
-0.991624, 241, 113, 368, 176
-0.991651, 209, 109, 272, 140
-0.99166, 209, 77, 272, 108
-0.99166, 241, 437, 304, 468
-0.991668, 129, 57, 384, 120
-0.991669, 121, 193, 152, 256
-0.991673, 45, 129, 76, 256
-0.991676, 97, 113, 352, 176
-0.991681, 169, 353, 232, 384
-0.991684, 233, 109, 296, 140
-0.991694, 257, 409, 320, 440
-0.991715, 297, 289, 360, 320
-0.991736, 177, 337, 208, 400
-0.991737, 257, 317, 320, 348
-0.991738, 209, 349, 272, 380
-0.991765, 265, 437, 328, 468
-0.991765, 201, 309, 264, 340
-0.991771, 121, 217, 184, 248
-0.991775, 217, 417, 280, 448
-0.991778, 57, 445, 120, 476
-0.991784, 141, 337, 172, 464
-0.991786, 121, 365, 184, 396
-0.991789, 161, 337, 224, 368
-0.991791, 25, 197, 88, 228
-0.991802, 153, 409, 216, 440
-0.991817, 297, 349, 360, 380
-0.991819, 97, 449, 160, 480
-0.991825, 81, 81, 112, 208
-0.991828, 25, 297, 88, 328
-0.991859, 201, 297, 264, 328
-0.991887, 1, 97, 389, 160
-0.991891, 137, 77, 200, 108
-0.991895, 185, 269, 248, 300
-0.991895, 297, 309, 360, 340
-0.991908, 49, 397, 112, 428
-0.991913, 209, 373, 272, 404
-0.991917, 121, 353, 184, 384
-0.991921, 257, 89, 384, 152
-0.991924, 89, 469, 152, 500
-0.99194, 289, 417, 352, 448
-0.991958, 289, 261, 352, 292
-0.99196, 233, 77, 296, 108
-0.991986, 257, 393, 320, 424
-0.991992, 65, 409, 320, 472
-0.992002, 57, 413, 120, 444
-0.992005, 65, 49, 128, 80
-0.992007, 169, 441, 232, 472
-0.992012, 201, 337, 264, 368
-0.992017, 65, 77, 128, 108
-0.992037, 265, 449, 328, 480
-0.99204, 177, 133, 240, 164
-0.99204, 105, 161, 136, 288
-0.992057, 177, 425, 240, 456
-0.992062, 257, 129, 320, 160
-0.992072, 289, 337, 352, 368
-0.992076, 185, 49, 248, 80
-0.992077, 289, 445, 352, 476
-0.992086, 241, 449, 304, 480
-0.992094, 201, 321, 264, 352
-0.992106, 217, 433, 280, 464
-0.992107, 225, 97, 288, 352
-0.992114, 257, 297, 320, 328
-0.992128, 313, 61, 376, 92
-0.992135, 153, 429, 216, 460
-0.99214, 57, 433, 120, 464
-0.992153, 73, 29, 136, 60
-0.992161, 129, 29, 192, 60
-0.992172, 281, 177, 344, 208
-0.992176, 65, 469, 128, 500
-0.992184, 81, 321, 144, 352
-0.992187, 1, 169, 128, 232
-0.992205, 121, 265, 184, 296
-0.992212, 257, 45, 320, 76
-0.992223, 201, 121, 264, 152
-0.992232, 289, 57, 352, 88
-0.992237, 153, 53, 216, 84
-0.992238, 277, 369, 308, 496
-0.992244, 289, 433, 352, 464
-0.992244, 289, 389, 352, 420
-0.992254, 17, 281, 80, 312
-0.992254, 257, 377, 320, 408
-0.992266, 217, 405, 280, 436
-0.992269, 277, 113, 308, 240
-0.992272, 201, 281, 264, 312
-0.992273, 153, 389, 216, 420
-0.992288, 49, 369, 112, 400
-0.992294, 317, 409, 348, 472
-0.992297, 41, 225, 104, 256
-0.9923, 257, 365, 320, 396
-0.992304, 1, 65, 64, 96
-0.992315, 17, 145, 80, 176
-0.99232, 193, 437, 256, 468
-0.992323, 121, 329, 184, 360
-0.992325, 9, 401, 72, 432
-0.992326, 153, 221, 216, 252
-0.992337, 137, 225, 168, 256
-0.992344, 281, 209, 312, 336
-0.992356, 1, 105, 256, 168
-0.99238, 233, 273, 296, 400
-0.992384, 117, 21, 148, 52
-0.99242, 293, 305, 324, 432
-0.992436, 1, 49, 389, 112
-0.992437, 1, 265, 256, 328
-0.992466, 101, 45, 132, 76
-0.992489, 121, 229, 152, 260
-0.992489, 29, 49, 60, 176
-0.992526, 141, 353, 172, 416
-0.992531, 133, 41, 164, 72
-0.992546, 57, 49, 88, 176
-0.992578, 337, 57, 368, 120
-0.99258, 65, 321, 320, 384
-0.992581, 213, 65, 244, 96
-0.992583, 105, 33, 136, 64
-0.992599, 1, 305, 389, 368
-0.992636, 301, 49, 332, 176
-0.99264, 217, 369, 248, 496
-0.992645, 221, 25, 252, 88
-0.99266, 225, 41, 256, 72
-0.992672, 141, 65, 172, 96
-0.992702, 97, 77, 128, 108
-0.992706, 97, 57, 128, 88
-0.99271, 53, 65, 84, 128
-0.992727, 129, 245, 160, 276
-0.992729, 161, 153, 288, 216
-0.992741, 317, 345, 348, 408
-0.992742, 25, 1, 88, 128
-0.992751, 105, 177, 136, 240
-0.992784, 233, 169, 264, 232
-0.992787, 209, 417, 240, 480
-0.992802, 117, 33, 148, 64
-0.992808, 249, 49, 280, 80
-0.992812, 177, 277, 208, 308
-0.992826, 237, 41, 268, 72
-0.992836, 249, 65, 280, 96
-0.992847, 109, 257, 140, 288
-0.992849, 149, 321, 180, 384
-0.992849, 129, 25, 160, 56
-0.992854, 113, 73, 144, 104
-0.992857, 245, 345, 276, 376
-0.992864, 145, 209, 176, 272
-0.992882, 141, 77, 172, 108
-0.992886, 157, 101, 188, 132
-0.992907, 33, 369, 64, 432
-0.992915, 109, 237, 140, 268
-0.992923, 65, 53, 192, 84
-0.992925, 197, 121, 228, 152
-0.992926, 73, 317, 104, 348
-0.992927, 69, 97, 100, 128
-0.992929, 237, 97, 268, 224
-0.992932, 221, 53, 252, 84
-0.992937, 105, 21, 136, 52
-0.992945, 113, 161, 240, 224
-0.992947, 137, 53, 168, 84
-0.992955, 217, 101, 248, 132
-0.992956, 157, 177, 188, 304
-0.992961, 109, 57, 140, 88
-0.992965, 201, 61, 232, 92
-0.992969, 85, 453, 116, 484
-0.992975, 213, 77, 244, 108
-0.992978, 157, 65, 188, 96
-0.992995, 97, 345, 352, 408
-0.992996, 1, 129, 256, 192
-0.992998, 165, 317, 196, 348
-0.992998, 85, 65, 116, 96
-0.993, 161, 225, 192, 288
-0.993008, 129, 233, 384, 296
-0.993009, 1, 249, 389, 312
-0.993019, 269, 33, 300, 96
-0.993021, 261, 57, 292, 88
-0.993032, 253, 101, 284, 132
-0.993037, 245, 425, 276, 456
-0.993042, 129, 257, 160, 288
-0.99305, 57, 233, 88, 296
-0.993068, 41, 369, 72, 496
-0.993073, 161, 389, 192, 420
-0.993077, 185, 129, 216, 160
-0.993078, 181, 289, 212, 320
-0.993085, 297, 289, 328, 320
-0.993085, 81, 413, 112, 444
-0.993089, 49, 241, 176, 272
-0.993089, 297, 233, 328, 296
-0.993092, 221, 437, 252, 468
-0.993094, 257, 257, 288, 384
-0.9931, 161, 361, 192, 392
-0.993103, 57, 213, 88, 244
-0.993105, 233, 409, 264, 472
-0.99311, 185, 109, 216, 140
-0.993111, 289, 141, 320, 172
-0.993112, 49, 425, 80, 488
-0.993118, 109, 225, 140, 256
-0.993123, 269, 117, 300, 148
-0.993145, 81, 53, 112, 84
-0.993147, 217, 113, 248, 144
-0.993155, 273, 61, 304, 92
-0.993155, 173, 121, 204, 152
-0.993156, 73, 69, 104, 100
-0.993156, 269, 437, 300, 468
-0.993158, 133, 137, 164, 168
-0.993169, 149, 245, 180, 276
-0.99317, 161, 345, 192, 376
-0.993173, 125, 81, 156, 112
-0.993177, 177, 265, 208, 296
-0.993179, 185, 209, 216, 336
-0.993182, 81, 89, 112, 120
-0.993182, 49, 201, 80, 232
-0.993182, 121, 49, 152, 80
-0.993184, 93, 29, 124, 60
-0.993191, 125, 61, 156, 92
-0.993198, 65, 385, 320, 448
-0.993199, 161, 373, 192, 404
-0.993201, 105, 89, 136, 120
-0.993201, 293, 353, 324, 416
-0.993208, 97, 465, 128, 496
-0.993208, 245, 397, 276, 428
-0.99321, 201, 85, 232, 116
-0.993211, 97, 241, 128, 272
-0.993216, 245, 413, 276, 444
-0.993217, 81, 437, 112, 468
-0.993225, 129, 269, 160, 300
-0.993226, 33, 297, 288, 360
-0.993227, 229, 65, 260, 96
-0.993237, 189, 301, 220, 332
-0.993238, 137, 125, 168, 156
-0.993239, 157, 233, 188, 264
-0.993241, 189, 65, 220, 96
-0.993243, 65, 9, 192, 72
-0.993247, 261, 417, 292, 448
-0.993247, 57, 273, 88, 304
-0.99325, 245, 357, 276, 388
-0.993254, 81, 425, 112, 456
-0.993254, 245, 385, 276, 416
-0.993258, 245, 333, 276, 364
-0.993263, 289, 433, 320, 496
-0.993271, 233, 93, 264, 124
-0.993272, 249, 77, 280, 108
-0.993273, 177, 365, 208, 396
-0.993275, 77, 401, 108, 432
-0.993276, 161, 329, 192, 360
-0.993277, 157, 405, 188, 436
-0.993277, 281, 125, 312, 156
-0.993278, 297, 261, 328, 292
-0.993281, 193, 357, 224, 388
-0.993282, 189, 265, 220, 296
-0.993283, 197, 373, 228, 404
-0.993286, 33, 241, 288, 304
-0.993287, 73, 385, 104, 448
-0.993293, 161, 461, 192, 492
-0.993294, 77, 369, 108, 400
-0.993294, 157, 53, 188, 84
-0.993294, 193, 337, 224, 464
-0.993295, 53, 301, 84, 332
-0.993296, 141, 29, 172, 60
-0.993296, 177, 305, 208, 336
-0.9933, 61, 313, 92, 344
-0.993301, 249, 321, 280, 352
-0.993304, 57, 261, 88, 292
-0.993306, 129, 149, 160, 180
-0.993309, 1, 257, 128, 320
-0.993311, 141, 257, 172, 288
-0.993317, 101, 449, 132, 480
-0.993319, 145, 89, 176, 120
-0.993325, 77, 385, 108, 416
-0.993327, 73, 329, 104, 360
-0.993328, 41, 449, 72, 480
-0.993333, 209, 49, 240, 80
-0.993333, 129, 297, 384, 360
-0.993333, 293, 57, 324, 88
-0.993334, 193, 337, 224, 368
-0.993335, 301, 249, 332, 280
-0.993336, 189, 321, 220, 352
-0.993344, 245, 369, 276, 400
-0.993348, 289, 425, 320, 456
-0.993349, 273, 425, 304, 456
-0.993349, 197, 413, 228, 444
-0.993355, 173, 377, 204, 408
-0.993356, 285, 257, 316, 320
-0.993358, 305, 57, 336, 88
-0.993361, 301, 277, 332, 308
-0.993365, 201, 109, 232, 140
-0.99339, 65, 353, 96, 480
-0.993409, 33, 97, 96, 224
-0.993421, 45, 185, 76, 248
-0.993497, 205, 281, 236, 344
-0.993499, 97, 305, 128, 432
-0.993528, 157, 33, 188, 96
-0.993545, 333, 385, 364, 448
-0.993553, 193, 257, 224, 320
-0.993557, 21, 401, 52, 464
-0.993569, 161, 425, 192, 488
-0.993599, 147, 217, 162, 280
-0.993619, 69, 425, 100, 488
-0.993639, 65, 17, 320, 80
-0.993686, 123, 225, 138, 288
-0.993701, 77, 361, 108, 424
-0.993754, 129, 201, 384, 264
-0.993808, 97, 233, 224, 264
-0.993864, 269, 81, 300, 144
-0.993867, 17, 353, 48, 480
-0.99388, 293, 161, 324, 224
-0.993882, 1, 121, 389, 184
-0.99389, 49, 229, 176, 260
-0.993918, 37, 321, 68, 448
-0.99395, 131, 225, 146, 288
-0.993978, 197, 33, 228, 96
-0.993978, 65, 93, 192, 124
-0.993988, 173, 57, 204, 120
-0.993989, 49, 253, 176, 284
-0.994019, 97, 433, 352, 496
-0.994051, 17, 49, 48, 176
-0.994073, 257, 137, 384, 200
-0.994118, 111, 25, 126, 88
-0.994148, 285, 281, 316, 344
-0.99416, 257, 305, 288, 368
-0.994187, 357, 369, 388, 496
-0.994237, 225, 41, 240, 104
-0.994241, 145, 45, 272, 76
-0.994269, 337, 353, 368, 480
-0.99427, 103, 33, 118, 96
-0.994309, 33, 177, 288, 240
-0.994313, 277, 257, 308, 384
-0.994363, 193, 49, 320, 80
-0.994427, 217, 57, 232, 120
-0.994488, 97, 245, 224, 276
-0.994506, 205, 257, 236, 384
-0.994542, 321, 129, 384, 384
-0.994575, 229, 241, 260, 368
-0.994581, 113, 257, 144, 384
-0.994587, 41, 241, 72, 368
-0.994619, 257, 41, 272, 104
-0.994625, 147, 33, 162, 96
-0.994634, 1, 225, 389, 288
-0.994701, 1, 345, 256, 408
-0.994715, 313, 273, 344, 400
-0.994745, 237, 305, 268, 432
-0.994748, 61, 145, 92, 272
-0.99475, 237, 161, 268, 288
-0.994751, 1, 145, 389, 208
-0.994809, 145, 61, 272, 92
-0.994816, 141, 217, 156, 280
-0.994828, 183, 265, 198, 328
-0.994853, 65, 33, 192, 64
-0.994873, 153, 225, 168, 288
-0.994932, 65, 65, 192, 96
-0.994948, 135, 17, 150, 80
-0.994952, 145, 85, 272, 116
-0.994999, 233, 257, 296, 500
-0.995004, 197, 1, 228, 128
-0.995011, 157, 97, 188, 224
-0.995014, 1, 185, 389, 248
-0.995068, 263, 49, 278, 112
-0.995076, 321, 161, 352, 288
-0.995147, 115, 225, 130, 288
-0.995153, 141, 161, 172, 288
-0.995162, 173, 305, 204, 432
-0.995175, 65, 81, 192, 112
-0.995176, 1, 153, 256, 216
-0.995186, 129, 145, 384, 208
-0.995229, 251, 305, 266, 368
-0.995244, 247, 33, 262, 96
-0.995252, 1, 25, 389, 88
-0.995284, 1, 273, 389, 336
-0.995307, 161, 113, 288, 144
-0.995317, 199, 289, 214, 352
-0.995328, 145, 365, 272, 396
-0.995335, 125, 97, 156, 224
-0.99534, 221, 81, 236, 144
-0.995367, 241, 57, 368, 88
-0.995376, 113, 73, 240, 104
-0.995383, 1, 53, 128, 84
-0.995451, 77, 257, 108, 384
-0.995452, 65, 357, 192, 388
-0.995469, 235, 33, 250, 96
-0.995474, 265, 1, 296, 128
-0.995492, 129, 81, 384, 144
-0.995502, 185, 161, 248, 288
-0.995512, 65, 369, 192, 400
-0.99552, 145, 349, 272, 380
-0.995545, 1, 73, 389, 136
-0.995609, 163, 385, 178, 448
-0.99562, 65, 341, 192, 372
-0.995629, 129, 257, 384, 320
-0.995649, 213, 81, 228, 144
-0.99567, 193, 281, 208, 344
-0.995705, 97, 261, 224, 292
-0.995715, 165, 313, 180, 376
-0.995732, 193, 357, 320, 388
-0.995741, 1, 433, 256, 496
-0.995745, 65, 325, 192, 356
-0.99579, 65, 393, 192, 424
-0.995809, 141, 25, 156, 88
-0.995815, 229, 1, 260, 256
-0.99584, 161, 101, 288, 132
-0.995855, 245, 209, 276, 336
-0.995861, 117, 17, 132, 80
-0.995866, 193, 65, 320, 96
-0.995904, 241, 33, 256, 96
-0.995908, 53, 369, 84, 496
-0.99591, 325, 369, 356, 496
-0.995919, 93, 57, 108, 120
-0.995933, 73, 1, 104, 128
-0.995941, 69, 209, 84, 272
-0.995966, 301, 273, 316, 336
-0.996032, 163, 57, 178, 120
-0.996058, 1, 225, 64, 480
-0.996066, 49, 217, 176, 248
-0.996076, 81, 437, 208, 468
-0.996084, 145, 413, 272, 444
-0.996092, 65, 381, 192, 412
-0.996107, 129, 1, 160, 256
-0.996111, 49, 265, 176, 296
-0.996126, 75, 65, 90, 128
-0.996143, 273, 57, 288, 120
-0.996146, 261, 81, 276, 144
-0.996148, 177, 209, 304, 272
-0.99615, 63, 201, 78, 264
-0.996164, 173, 353, 204, 480
-0.996179, 113, 105, 240, 136
-0.996183, 185, 257, 248, 500
-0.996196, 101, 57, 116, 120
-0.996198, 211, 57, 226, 120
-0.996202, 129, 177, 384, 240
-0.996213, 267, 73, 282, 136
-0.996217, 129, 161, 160, 416
-0.99622, 1, 369, 389, 432
-0.99625, 129, 221, 256, 252
-0.996254, 145, 377, 272, 408
-0.996257, 65, 421, 192, 452
-0.996277, 113, 49, 128, 112
-0.996301, 65, 105, 192, 136
-0.996319, 1, 409, 389, 472
-0.99632, 313, 113, 344, 240
-0.996323, 153, 49, 168, 112
-0.996328, 129, 17, 144, 80
-0.996346, 5, 49, 36, 176
-0.996351, 129, 29, 256, 60
-0.996355, 83, 65, 98, 128
-0.996361, 137, 81, 168, 208
-0.996365, 87, 313, 102, 376
-0.996367, 123, 17, 138, 80
-0.99637, 181, 113, 196, 176
-0.99638, 209, 33, 240, 288
-0.996388, 139, 129, 154, 192
-0.996413, 135, 41, 150, 104
-0.996416, 71, 97, 86, 160
-0.996431, 123, 249, 138, 312
-0.996432, 17, 449, 144, 480
-0.996433, 29, 369, 60, 496
-0.996452, 141, 193, 172, 448
-0.996459, 1, 329, 389, 392
-0.996483, 241, 1, 272, 256
-0.996497, 65, 405, 192, 436
-0.996506, 1, 41, 128, 72
-0.996506, 271, 425, 286, 488
-0.996519, 129, 389, 256, 420
-0.996539, 101, 1, 132, 256
-0.996542, 193, 121, 208, 184
-0.996553, 357, 49, 388, 176
-0.996562, 141, 33, 172, 288
-0.996576, 79, 313, 94, 376
-0.996589, 149, 1, 180, 128
-0.996591, 193, 345, 320, 376
-0.996591, 303, 137, 318, 200
-0.996595, 253, 33, 284, 288
-0.996601, 71, 233, 86, 296
-0.996609, 33, 21, 160, 52
-0.996613, 357, 241, 388, 368
-0.996615, 341, 49, 372, 176
-0.996618, 313, 257, 376, 500
-0.996625, 145, 337, 272, 368
-0.996628, 145, 313, 272, 344
-0.996628, 65, 33, 96, 288
-0.99664, 193, 433, 320, 464
-0.996643, 195, 257, 210, 320
-0.996651, 161, 425, 176, 488
-0.996652, 145, 425, 272, 456
-0.996665, 321, 49, 352, 176
-0.996683, 209, 1, 240, 128
-0.99669, 17, 69, 144, 100
-0.996692, 145, 257, 160, 320
-0.996715, 193, 417, 320, 448
-0.996733, 163, 337, 178, 400
-0.996745, 137, 161, 200, 288
-0.996748, 153, 249, 168, 312
-0.996757, 65, 305, 192, 336
-0.99676, 1, 425, 128, 456
-0.996766, 249, 73, 264, 136
-0.996767, 203, 321, 218, 384
-0.996775, 229, 65, 244, 128
-0.99678, 193, 385, 320, 416
-0.996792, 145, 441, 272, 472
-0.9968, 177, 297, 192, 360
-0.996813, 245, 257, 276, 384
-0.996816, 173, 97, 188, 160
-0.996818, 53, 1, 84, 128
-0.996839, 129, 201, 144, 264
-0.99685, 159, 225, 174, 288
-0.996855, 295, 121, 310, 184
-0.996869, 213, 113, 228, 176
-0.996876, 77, 217, 92, 280
-0.996885, 63, 257, 78, 320
-0.996889, 109, 73, 124, 136
-0.996895, 65, 113, 80, 176
-0.996898, 155, 73, 170, 136
-0.996899, 145, 401, 272, 432
-0.996903, 253, 97, 268, 160
-0.996905, 33, 181, 160, 212
-0.99691, 193, 405, 320, 436
-0.996922, 193, 125, 320, 156
-0.996929, 325, 305, 356, 432
-0.996936, 193, 373, 320, 404
-0.996942, 281, 321, 312, 448
-0.996943, 1, 317, 128, 348
-0.996946, 205, 369, 236, 496
-0.996958, 285, 425, 300, 488
-0.996964, 1, 389, 128, 420
-0.996986, 1, 433, 389, 496
-0.996986, 91, 401, 106, 464
-0.996989, 1, 369, 32, 496
-0.996989, 97, 457, 224, 488
-0.996996, 33, 145, 160, 176
-0.997003, 117, 249, 132, 312
-0.99701, 49, 117, 176, 148
-0.99701, 1, 437, 128, 468
-0.997016, 97, 469, 224, 500
-0.997017, 251, 377, 266, 440
-0.99703, 249, 161, 264, 224
-0.997034, 227, 97, 242, 160
-0.997043, 309, 289, 324, 352
-0.997046, 187, 297, 202, 360
-0.997046, 293, 129, 324, 384
-0.997055, 189, 97, 204, 160
-0.997056, 267, 97, 282, 160
-0.997059, 133, 129, 148, 192
-0.997063, 17, 461, 144, 492
-0.997069, 145, 233, 272, 264
-0.997075, 137, 241, 152, 304
-0.997075, 1, 373, 128, 404
-0.997088, 165, 361, 180, 424
-0.997089, 337, 273, 368, 400
-0.997101, 257, 321, 272, 384
-0.997103, 293, 409, 308, 472
-0.997107, 73, 305, 88, 368
-0.997112, 207, 81, 222, 144
-0.997114, 81, 21, 208, 52
-0.997129, 257, 365, 384, 396
-0.99713, 119, 49, 134, 112
-0.997134, 241, 417, 368, 448
-0.997135, 257, 345, 272, 408
-0.997146, 171, 305, 186, 368
-0.997157, 193, 329, 320, 360
-0.997161, 137, 73, 152, 136
-0.997161, 1, 401, 128, 432
-0.997173, 145, 121, 160, 184
-0.997184, 209, 113, 336, 144
-0.997185, 153, 201, 168, 264
-0.99719, 129, 325, 256, 356
-0.997191, 243, 425, 258, 488
-0.997197, 169, 425, 184, 488
-0.997198, 117, 33, 148, 288
-0.997202, 215, 69, 230, 100
-0.997206, 193, 77, 320, 108
-0.997215, 155, 425, 170, 488
-0.99722, 117, 237, 132, 268
-0.997222, 1, 337, 128, 368
-0.997228, 101, 369, 132, 496
-0.997234, 165, 97, 180, 160
-0.997236, 129, 257, 144, 320
-0.997239, 113, 117, 240, 148
-0.99724, 329, 33, 389, 288
-0.997245, 145, 289, 272, 320
-0.997251, 293, 49, 308, 112
-0.997266, 127, 57, 142, 120
-0.997268, 225, 213, 352, 244
-0.997282, 1, 225, 128, 256
-0.997285, 157, 65, 188, 320
-0.997287, 243, 185, 258, 248
-0.997289, 205, 49, 220, 112
-0.997292, 173, 361, 188, 424
-0.997294, 231, 433, 246, 496
-0.997294, 25, 305, 56, 432
-0.997296, 205, 113, 220, 176
-0.9973, 81, 89, 96, 152
-0.997301, 299, 297, 314, 360
-0.99731, 175, 57, 190, 120
-0.997311, 89, 353, 104, 416
-0.997319, 221, 433, 236, 496
-0.997321, 145, 301, 272, 332
-0.997328, 215, 425, 230, 488
-0.997334, 169, 65, 184, 128
-0.997335, 1, 1, 64, 128
-0.997343, 95, 425, 110, 488
-0.997346, 337, 177, 368, 304
-0.997353, 245, 393, 260, 456
-0.997356, 221, 105, 236, 168
-0.997369, 209, 149, 336, 180
-0.997374, 55, 153, 70, 216
-0.997387, 165, 257, 196, 500
-0.997387, 89, 81, 104, 144
-0.9974, 187, 129, 202, 192
-0.997405, 185, 257, 216, 500
-0.997409, 257, 345, 384, 376
-0.997414, 209, 37, 336, 68
-0.997417, 257, 401, 272, 464
-0.997423, 209, 137, 336, 168
-0.997424, 265, 425, 280, 488
-0.997435, 237, 81, 252, 144
-0.997435, 143, 29, 158, 60
-0.997436, 33, 161, 160, 192
-0.997445, 65, 193, 96, 448
-0.997456, 137, 265, 152, 328
-0.997457, 155, 401, 170, 464
-0.997457, 199, 113, 214, 176
-0.997459, 183, 353, 198, 416
-0.997459, 117, 21, 132, 52
-0.997459, 107, 29, 122, 60
-0.997463, 153, 229, 168, 260
-0.997466, 143, 65, 158, 128
-0.99747, 209, 201, 336, 232
-0.997476, 209, 97, 336, 128
-0.997495, 33, 133, 160, 164
-0.997512, 125, 225, 140, 256
-0.997528, 145, 461, 272, 492
-0.997534, 1, 349, 128, 380
-0.997536, 103, 45, 118, 76
-0.997542, 97, 273, 224, 304
-0.997562, 1, 413, 128, 444
-0.997567, 145, 249, 272, 280
-0.99758, 257, 445, 384, 476
-0.997588, 193, 313, 320, 344
-0.997602, 65, 293, 192, 324
-0.997603, 89, 1, 120, 256
-0.997605, 1, 241, 128, 272
-0.99762, 181, 129, 212, 384
-0.997624, 261, 69, 276, 100
-0.997625, 145, 277, 272, 308
-0.997641, 1, 361, 128, 392
-0.997649, 155, 249, 170, 280
-0.997675, 225, 45, 240, 76
-0.997679, 197, 33, 228, 288
-0.997682, 141, 221, 156, 252
-0.997685, 181, 269, 196, 300
-0.997693, 133, 21, 148, 52
-0.997699, 301, 225, 332, 480
-0.997705, 257, 457, 384, 488
-0.997719, 209, 265, 336, 296
-0.997728, 221, 61, 236, 92
-0.997741, 225, 225, 352, 256
-0.997752, 255, 45, 270, 76
-0.997766, 257, 317, 384, 348
-0.997774, 77, 65, 108, 320
-0.99779, 49, 193, 176, 224
-0.997792, 257, 261, 384, 292
-0.99782, 121, 253, 136, 284
-0.997833, 241, 397, 368, 428
-0.997835, 193, 301, 320, 332
-0.997846, 261, 57, 276, 88
-0.997856, 101, 57, 116, 88
-0.99789, 257, 429, 384, 460
-0.997902, 71, 213, 86, 244
-0.997912, 251, 325, 266, 356
-0.997917, 123, 21, 138, 52
-0.997923, 117, 193, 148, 448
-0.997926, 241, 125, 368, 156
-0.997947, 145, 261, 272, 292
-0.997952, 197, 289, 212, 320
-0.997953, 281, 97, 312, 352
-0.997964, 233, 41, 248, 72
-0.997966, 265, 33, 296, 288
-0.997971, 113, 37, 128, 68
-0.997975, 193, 281, 320, 312
-0.997987, 165, 321, 180, 352
-0.997988, 49, 205, 176, 236
-0.99799, 249, 41, 264, 72
-0.99799, 147, 45, 162, 76
-0.997999, 267, 57, 282, 88
-0.998006, 193, 445, 320, 476
-0.998015, 1, 305, 128, 336
-0.998017, 147, 225, 162, 256
-0.998035, 251, 313, 266, 344
-0.99805, 215, 57, 230, 88
-0.998053, 257, 297, 384, 328
-0.998063, 133, 229, 148, 260
-0.998065, 209, 173, 336, 204
-0.998085, 221, 81, 236, 112
-0.998087, 209, 161, 336, 192
-0.998093, 73, 101, 88, 132
-0.9981, 111, 57, 126, 88
-0.998104, 163, 409, 178, 440
-0.998116, 175, 313, 190, 344
-0.998122, 259, 97, 274, 128
-0.998123, 185, 33, 216, 288
-0.998124, 313, 225, 344, 480
-0.998126, 169, 33, 200, 288
-0.998128, 149, 57, 164, 88
-0.998133, 257, 273, 384, 304
-0.998145, 191, 133, 206, 164
-0.998162, 77, 257, 108, 500
-0.998165, 189, 117, 204, 148
-0.99817, 269, 73, 284, 104
-0.998183, 273, 61, 288, 92
-0.998198, 53, 97, 84, 352
-0.998203, 17, 93, 144, 124
-0.998211, 97, 449, 112, 480
-0.998221, 1, 81, 128, 112
-0.998223, 243, 37, 258, 68
-0.998224, 193, 457, 320, 488
-0.998228, 113, 249, 128, 280
-0.99823, 305, 281, 320, 312
-0.998232, 261, 81, 276, 112
-0.998235, 83, 317, 98, 348
-0.998243, 143, 257, 158, 288
-0.998247, 215, 89, 230, 120
-0.998257, 225, 241, 352, 272
-0.998259, 191, 281, 206, 312
-0.998265, 257, 109, 384, 140
-0.998269, 173, 105, 188, 136
-0.99828, 161, 65, 176, 96
-0.998283, 129, 129, 256, 160
-0.998286, 293, 33, 324, 288
-0.998296, 133, 37, 148, 68
-0.998301, 241, 381, 368, 412
-0.998306, 65, 205, 80, 236
-0.998325, 111, 237, 126, 268
-0.998332, 113, 85, 128, 116
-0.998336, 295, 129, 310, 160
-0.998338, 45, 201, 76, 216
-0.998338, 109, 67, 140, 82
-0.998339, 41, 457, 72, 472
-0.998339, 161, 429, 192, 444
-0.998339, 109, 227, 140, 242
-0.998339, 245, 369, 276, 384
-0.998339, 57, 217, 88, 232
-0.99834, 161, 369, 192, 384
-0.99834, 97, 247, 128, 262
-0.998341, 281, 457, 312, 472
-0.998341, 269, 437, 300, 452
-0.998343, 161, 343, 192, 358
-0.998343, 165, 441, 196, 456
-0.998343, 177, 309, 208, 324
-0.998343, 253, 113, 284, 128
-0.998343, 129, 257, 160, 500
-0.998344, 173, 129, 204, 144
-0.998345, 161, 401, 192, 416
-0.998345, 89, 89, 104, 120
-0.998346, 249, 325, 280, 340
-0.998346, 105, 253, 136, 268
-0.998347, 29, 67, 60, 82
-0.998347, 73, 331, 104, 346
-0.998348, 289, 59, 320, 74
-0.998349, 105, 457, 120, 488
-0.99835, 121, 75, 152, 90
-0.99835, 53, 299, 84, 314
-0.99835, 85, 449, 116, 464
-0.99835, 161, 435, 192, 450
-0.998351, 229, 63, 260, 78
-0.998353, 137, 87, 168, 102
-0.998353, 157, 415, 188, 430
-0.998353, 245, 389, 276, 404
-0.998353, 269, 429, 300, 444
-0.998354, 249, 99, 280, 114
-0.998354, 117, 97, 148, 112
-0.998354, 245, 343, 276, 358
-0.998355, 217, 111, 248, 126
-0.998355, 113, 81, 144, 96
-0.998355, 249, 59, 280, 74
-0.998356, 29, 461, 60, 476
-0.998356, 221, 103, 252, 118
-0.998358, 129, 273, 160, 288
-0.998358, 157, 361, 188, 376
-0.998358, 149, 251, 180, 266
-0.998358, 153, 57, 184, 72
-0.998359, 213, 117, 244, 132
-0.998359, 205, 65, 220, 96
-0.99836, 161, 377, 192, 392
-0.99836, 245, 433, 276, 448
-0.998362, 109, 57, 140, 72
-0.998363, 245, 363, 276, 378
-0.998363, 269, 117, 300, 132
-0.998364, 185, 137, 216, 152
-0.998364, 113, 231, 176, 246
-0.998364, 49, 207, 80, 222
-0.998365, 289, 481, 320, 496
-0.998365, 201, 123, 232, 138
-0.998366, 301, 281, 332, 296
-0.998366, 253, 107, 284, 122
-0.998367, 153, 467, 184, 482
-0.998368, 161, 241, 192, 256
-0.998368, 101, 89, 132, 104
-0.998371, 85, 93, 116, 108
-0.998371, 91, 405, 106, 436
-0.998371, 97, 71, 128, 86
-0.998373, 65, 301, 80, 332
-0.998373, 137, 33, 168, 48
-0.998373, 93, 461, 124, 476
-0.998374, 77, 425, 108, 440
-0.998376, 73, 383, 104, 398
-0.998377, 189, 297, 220, 312
-0.998377, 225, 101, 240, 132
-0.998378, 301, 287, 332, 302
-0.998379, 161, 389, 192, 404
-0.998382, 181, 119, 212, 134
-0.998384, 137, 125, 152, 156
-0.998384, 185, 125, 216, 140
-0.998385, 337, 63, 368, 78
-0.998386, 93, 77, 124, 92
-0.998387, 69, 101, 100, 116
-0.998388, 213, 83, 244, 98
-0.99839, 297, 295, 328, 310
-0.998392, 245, 355, 276, 370
-0.998394, 157, 67, 188, 82
-0.998394, 93, 33, 124, 48
-0.998395, 185, 131, 216, 146
-0.998396, 181, 305, 196, 336
-0.998396, 245, 427, 276, 442
-0.998397, 69, 317, 100, 332
-0.998397, 85, 455, 116, 470
-0.998398, 177, 293, 208, 308
-0.998399, 165, 319, 196, 334
-0.998404, 117, 87, 148, 102
-0.998405, 297, 261, 328, 276
-0.998406, 177, 271, 208, 286
-0.998407, 181, 125, 196, 156
-0.998407, 159, 233, 174, 264
-0.998407, 245, 45, 276, 60
-0.998407, 141, 69, 172, 84
-0.998407, 157, 105, 188, 120
-0.998409, 221, 47, 252, 62
-0.998411, 117, 251, 148, 266
-0.998416, 133, 39, 164, 54
-0.998416, 111, 465, 126, 496
-0.998417, 253, 73, 284, 88
-0.998418, 81, 67, 112, 82
-0.998421, 249, 67, 280, 82
-0.998421, 245, 349, 276, 364
-0.998428, 347, 377, 362, 408
-0.99843, 129, 245, 144, 276
-0.99843, 109, 259, 140, 274
-0.99843, 183, 293, 198, 324
-0.998431, 137, 55, 168, 70
-0.998431, 265, 61, 296, 76
-0.998431, 197, 65, 228, 80
-0.998435, 141, 75, 172, 90
-0.998435, 119, 225, 134, 256
-0.998437, 129, 257, 160, 272
-0.998437, 113, 235, 144, 250
-0.998438, 141, 235, 172, 250
-0.998441, 93, 83, 124, 98
-0.998441, 245, 53, 276, 68
-0.998442, 197, 125, 212, 156
-0.998443, 287, 433, 302, 464
-0.998444, 221, 55, 252, 70
-0.998444, 203, 285, 218, 316
-0.998446, 167, 101, 182, 132
-0.998447, 217, 67, 248, 82
-0.998447, 125, 29, 156, 44
-0.998448, 105, 35, 168, 50
-0.998449, 101, 41, 132, 56
-0.99845, 95, 437, 110, 468
-0.998451, 113, 237, 176, 252
-0.998451, 217, 61, 248, 76
-0.998453, 177, 281, 208, 296
-0.998454, 97, 65, 128, 80
-0.998454, 105, 29, 168, 44
-0.998455, 209, 77, 240, 92
-0.998456, 97, 53, 128, 68
-0.998456, 217, 47, 280, 62
-0.998456, 81, 97, 96, 128
-0.998457, 115, 69, 130, 100
-0.998458, 113, 253, 176, 268
-0.998459, 137, 47, 168, 62
-0.998459, 163, 341, 178, 372
-0.99846, 113, 241, 144, 256
-0.998461, 211, 117, 226, 148
-0.998462, 105, 29, 136, 44
-0.998463, 135, 81, 150, 112
-0.998464, 117, 35, 148, 50
-0.998465, 299, 281, 314, 312
-0.998465, 205, 337, 220, 368
-0.998467, 141, 81, 172, 96
-0.998467, 143, 73, 158, 104
-0.998471, 209, 77, 224, 108
-0.998472, 217, 55, 280, 70
-0.998472, 163, 353, 178, 384
-0.998474, 157, 161, 188, 416
-0.998474, 113, 243, 176, 258
-0.998475, 227, 65, 242, 96
-0.998479, 301, 141, 316, 172
-0.998484, 105, 23, 168, 38
-0.998484, 177, 287, 208, 302
-0.998487, 97, 59, 128, 74
-0.998491, 149, 253, 164, 284
-0.998491, 113, 225, 176, 240
-0.998492, 113, 41, 176, 56
-0.998492, 141, 63, 172, 78
-0.998493, 101, 47, 132, 62
-0.998498, 89, 89, 152, 104
-0.9985, 119, 33, 134, 64
-0.998508, 123, 241, 138, 272
-0.998508, 119, 89, 134, 120
-0.998509, 139, 137, 154, 168
-0.998514, 147, 469, 162, 500
-0.998518, 145, 269, 160, 300
-0.998519, 209, 63, 272, 78
-0.99852, 105, 35, 136, 50
-0.99852, 73, 241, 88, 272
-0.998524, 201, 325, 216, 356
-0.998524, 105, 73, 120, 104
-0.998526, 113, 87, 176, 102
-0.998526, 61, 437, 76, 468
-0.998528, 119, 53, 134, 84
-0.998529, 111, 17, 126, 48
-0.998534, 163, 373, 178, 404
-0.998534, 209, 381, 224, 412
-0.998535, 73, 231, 136, 246
-0.998535, 195, 269, 210, 300
-0.99854, 73, 239, 136, 254
-0.99854, 267, 85, 282, 116
-0.998541, 79, 225, 94, 256
-0.998541, 139, 209, 154, 336
-0.998543, 269, 465, 284, 496
-0.998546, 139, 17, 154, 48
-0.998546, 129, 263, 160, 278
-0.998548, 161, 321, 224, 336
-0.998549, 135, 49, 150, 80
-0.998551, 177, 109, 240, 124
-0.998551, 249, 341, 264, 372
-0.998552, 129, 263, 192, 278
-0.998552, 233, 43, 264, 58
-0.998553, 315, 377, 330, 408
-0.998553, 73, 313, 88, 344
-0.998555, 129, 49, 144, 80
-0.998555, 67, 253, 82, 284
-0.998555, 117, 23, 148, 38
-0.998556, 257, 59, 320, 74
-0.998556, 219, 109, 234, 140
-0.998556, 131, 137, 146, 168
-0.998558, 225, 69, 288, 84
-0.998559, 113, 47, 176, 62
-0.99856, 145, 271, 208, 286
-0.998561, 89, 337, 104, 368
-0.998568, 169, 293, 232, 308
-0.998568, 279, 457, 294, 488
-0.998571, 217, 41, 280, 56
-0.998572, 169, 281, 232, 296
-0.998572, 265, 105, 280, 136
-0.998573, 253, 73, 268, 104
-0.998573, 267, 453, 282, 484
-0.998573, 105, 261, 168, 276
-0.998574, 89, 49, 152, 64
-0.998574, 89, 65, 104, 96
-0.998575, 113, 81, 176, 96
-0.998577, 341, 369, 356, 400
-0.998578, 169, 315, 232, 330
-0.998579, 113, 61, 176, 76
-0.998579, 133, 209, 148, 336
-0.998579, 89, 81, 152, 96
-0.99858, 323, 57, 338, 88
-0.998581, 135, 265, 150, 296
-0.998582, 81, 95, 144, 110
-0.998583, 293, 429, 308, 460
-0.998585, 177, 121, 240, 136
-0.998585, 169, 303, 232, 318
-0.998586, 121, 229, 152, 244
-0.998588, 89, 41, 152, 56
-0.998589, 185, 67, 248, 82
-0.998589, 241, 257, 272, 500
-0.998591, 169, 287, 232, 302
-0.998591, 89, 59, 152, 74
-0.998593, 177, 131, 240, 146
-0.998594, 41, 319, 104, 334
-0.998595, 257, 347, 320, 362
-0.998596, 113, 75, 176, 90
-0.998596, 121, 93, 184, 108
-0.998599, 217, 103, 280, 118
-0.998599, 257, 353, 320, 368
-0.998601, 209, 77, 272, 92
-0.998602, 145, 249, 208, 264
-0.998603, 169, 309, 232, 324
-0.998604, 1, 69, 64, 84
-0.998604, 153, 67, 216, 82
-0.998606, 313, 63, 376, 78
-0.998609, 73, 223, 136, 238
-0.998614, 225, 97, 288, 112
-0.998614, 89, 65, 152, 80
-0.998615, 73, 251, 136, 266
-0.998616, 209, 365, 272, 380
-0.998616, 81, 257, 144, 272
-0.998617, 177, 115, 240, 130
-0.998618, 257, 427, 320, 442
-0.998619, 137, 105, 200, 120
-0.998619, 73, 245, 136, 260
-0.998619, 153, 243, 216, 258
-0.99862, 161, 327, 224, 342
-0.99862, 201, 321, 264, 336
-0.998622, 233, 113, 296, 128
-0.998623, 257, 361, 320, 376
-0.998623, 147, 209, 162, 336
-0.998623, 89, 75, 152, 90
-0.998625, 49, 339, 112, 354
-0.998625, 233, 63, 296, 78
-0.998625, 65, 67, 128, 82
-0.998626, 49, 387, 112, 402
-0.998626, 257, 439, 320, 454
-0.998626, 289, 263, 352, 278
-0.998628, 65, 463, 128, 478
-0.998628, 137, 81, 200, 96
-0.99863, 161, 385, 224, 400
-0.998631, 201, 315, 264, 330
-0.998632, 209, 371, 272, 386
-0.998632, 145, 121, 208, 136
-0.998632, 257, 309, 320, 324
-0.998632, 209, 351, 272, 366
-0.998632, 121, 67, 184, 82
-0.998633, 153, 233, 216, 248
-0.998633, 177, 103, 240, 118
-0.998634, 1, 457, 64, 472
-0.998634, 113, 53, 176, 68
-0.998635, 145, 257, 208, 272
-0.998635, 137, 225, 200, 240
-0.998636, 257, 367, 320, 382
-0.998637, 169, 271, 232, 286
-0.998637, 153, 417, 216, 432
-0.998638, 25, 299, 88, 314
-0.998638, 257, 421, 320, 436
-0.998639, 177, 61, 240, 76
-0.998639, 257, 125, 320, 140
-0.998639, 33, 455, 96, 470
-0.998639, 177, 373, 240, 388
-0.998639, 57, 349, 120, 364
-0.99864, 49, 325, 112, 340
-0.99864, 57, 425, 120, 440
-0.99864, 9, 463, 72, 478
-0.998641, 257, 339, 320, 354
-0.998641, 137, 115, 200, 130
-0.998642, 161, 349, 224, 364
-0.998642, 49, 411, 112, 426
-0.998642, 289, 353, 352, 368
-0.998643, 257, 331, 320, 346
-0.998643, 65, 101, 128, 116
-0.998643, 105, 97, 136, 352
-0.998643, 133, 225, 164, 240
-0.998644, 289, 433, 352, 448
-0.998644, 297, 307, 360, 322
-0.998644, 161, 333, 224, 348
-0.998645, 33, 465, 96, 480
-0.998645, 161, 355, 224, 370
-0.998645, 145, 361, 208, 376
-0.998645, 241, 451, 304, 466
-0.998646, 121, 99, 184, 114
-0.998646, 289, 445, 352, 460
-0.998647, 169, 367, 232, 382
-0.998648, 257, 383, 320, 398
-0.998648, 121, 353, 184, 368
-0.998649, 257, 131, 320, 146
-0.99865, 209, 115, 272, 130
-0.99865, 17, 197, 80, 212
-0.998651, 297, 359, 360, 374
-0.998651, 145, 439, 208, 454
-0.998652, 257, 53, 320, 68
-0.998652, 73, 31, 136, 46
-0.998652, 289, 59, 352, 74
-0.998652, 233, 433, 296, 448
-0.99866, 223, 33, 238, 160
-0.998664, 113, 17, 128, 144
-0.998665, 127, 209, 142, 336
-0.998677, 305, 129, 336, 384
-0.998693, 41, 33, 72, 288
-0.998702, 261, 257, 292, 500
-0.998707, 289, 257, 320, 500
-0.99871, 193, 129, 224, 384
-0.998723, 305, 33, 336, 288
-0.998744, 241, 97, 272, 352
-0.998746, 103, 17, 118, 144
-0.998746, 41, 161, 72, 416
-0.998771, 259, 33, 274, 160
-0.998776, 277, 1, 308, 256
-0.998778, 53, 193, 84, 448
-0.998787, 143, 17, 158, 144
-0.998829, 121, 1, 136, 128
-0.99883, 133, 1, 148, 128
-0.998882, 215, 49, 230, 176
-0.998887, 121, 209, 136, 336
-0.998904, 253, 33, 268, 160
-0.998923, 183, 257, 198, 384
-0.998936, 239, 33, 254, 160
-0.998952, 65, 193, 80, 320
-0.998961, 65, 113, 80, 240
-0.998966, 247, 33, 262, 160
-0.99897, 233, 33, 248, 160
-0.998972, 153, 209, 168, 336
-0.998989, 251, 305, 266, 432
-0.998992, 151, 33, 166, 160
-0.998996, 265, 49, 280, 176
-0.998998, 127, 1, 142, 128
-0.99901, 129, 161, 144, 288
-0.999021, 87, 305, 102, 432
-0.999025, 71, 209, 86, 336
-0.999042, 189, 49, 204, 176
-0.999044, 197, 257, 228, 500
-0.999095, 97, 33, 112, 160
-0.999096, 205, 129, 236, 384
-0.999101, 65, 241, 80, 368
-0.999101, 225, 225, 256, 480
-0.999106, 129, 81, 144, 208
-0.999134, 299, 273, 314, 400
-0.999145, 183, 49, 198, 176
-0.999153, 77, 49, 92, 176
-0.999178, 229, 97, 260, 352
-0.999179, 177, 49, 192, 176
-0.999179, 271, 49, 286, 176
-0.999181, 165, 305, 180, 432
-0.999185, 135, 81, 150, 208
-0.999193, 167, 49, 182, 176
-0.9992, 193, 273, 208, 400
-0.999202, 157, 49, 172, 176
-0.999203, 71, 65, 86, 192
-0.999206, 209, 49, 224, 176
-0.999218, 91, 49, 106, 176
-0.99923, 293, 113, 308, 240
-0.999237, 197, 113, 212, 240
-0.999249, 199, 49, 214, 176
-0.99925, 85, 49, 100, 176
-0.999252, 123, 81, 138, 208
-0.999267, 317, 33, 348, 288
-0.999291, 203, 273, 218, 400
-0.999293, 117, 161, 132, 288
-0.999293, 173, 289, 188, 416
-0.999302, 59, 177, 74, 304
-0.999302, 221, 81, 236, 208
-0.999306, 91, 369, 106, 496
-0.999307, 75, 305, 90, 432
-0.999313, 179, 97, 194, 224
-0.999315, 41, 257, 72, 500
-0.999317, 169, 129, 200, 384
-0.999322, 301, 129, 316, 256
-0.999328, 277, 193, 308, 448
-0.999329, 145, 161, 160, 288
-0.999329, 231, 97, 246, 224
-0.999332, 117, 81, 132, 208
-0.999338, 75, 257, 90, 384
-0.999339, 63, 289, 78, 416
-0.999342, 315, 257, 330, 384
-0.99935, 133, 257, 148, 384
-0.99935, 139, 257, 154, 384
-0.999351, 257, 321, 272, 448
-0.999366, 145, 257, 160, 384
-0.999371, 69, 289, 84, 416
-0.999372, 191, 113, 206, 240
-0.999376, 57, 289, 72, 416
-0.99938, 135, 129, 150, 256
-0.99938, 305, 257, 320, 384
-0.999386, 141, 65, 156, 192
-0.999386, 321, 129, 352, 384
-0.999388, 127, 257, 142, 384
-0.999393, 111, 81, 126, 208
-0.999394, 81, 305, 96, 432
-0.999397, 209, 321, 224, 448
-0.999404, 63, 49, 78, 176
-0.999411, 287, 49, 302, 176
-0.999414, 205, 113, 220, 240
-0.999419, 269, 97, 284, 224
-0.999429, 287, 113, 302, 240
-0.999431, 313, 193, 328, 320
-0.999432, 185, 113, 200, 240
-0.999434, 55, 65, 70, 192
-0.999439, 251, 257, 266, 384
-0.999439, 295, 369, 310, 496
-0.999448, 279, 97, 294, 224
-0.999449, 293, 49, 308, 176
-0.999458, 173, 97, 188, 224
-0.99946, 277, 49, 292, 176
-0.999462, 259, 369, 274, 496
-0.999464, 239, 97, 254, 224
-0.999467, 215, 97, 230, 224
-0.999468, 151, 161, 166, 288
-0.99947, 259, 81, 274, 208
-0.999474, 241, 1, 368, 64
-0.999476, 249, 369, 264, 496
-0.99948, 247, 97, 262, 224
-0.999484, 1, 369, 16, 496
-0.999486, 265, 353, 280, 480
-0.999491, 55, 241, 70, 368
-0.999498, 105, 65, 120, 192
-0.9995, 1, 273, 16, 400
-0.999505, 307, 145, 322, 272
-0.99951, 217, 369, 232, 496
-0.999514, 89, 1, 104, 128
-0.999519, 165, 97, 180, 224
-0.99952, 97, 305, 112, 432
-0.999523, 71, 161, 86, 288
-0.999525, 297, 225, 312, 352
-0.999526, 299, 49, 314, 176
-0.999534, 157, 321, 172, 448
-0.999534, 151, 257, 166, 384
-0.999536, 31, 33, 46, 160
-0.999537, 37, 33, 52, 160
-0.999537, 51, 321, 66, 448
-0.999537, 123, 145, 138, 272
-0.999537, 77, 209, 92, 336
-0.999541, 59, 129, 74, 256
-0.999545, 25, 33, 56, 288
-0.999547, 203, 333, 218, 348
-0.999548, 93, 439, 108, 454
-0.999548, 73, 315, 88, 330
-0.999548, 201, 475, 216, 490
-0.999548, 93, 65, 108, 80
-0.999549, 45, 369, 60, 496
-0.999549, 207, 85, 222, 100
-0.999549, 175, 315, 190, 330
-0.99955, 155, 465, 170, 480
-0.99955, 115, 209, 130, 336
-0.99955, 139, 135, 154, 150
-0.999551, 247, 431, 262, 446
-0.999551, 59, 201, 74, 216
-0.999551, 181, 293, 196, 308
-0.999551, 175, 365, 190, 380
-0.999551, 203, 481, 218, 496
-0.999551, 57, 369, 72, 496
-0.999552, 193, 225, 208, 352
-0.999553, 201, 301, 216, 316
-0.999553, 101, 73, 116, 88
-0.999553, 65, 299, 80, 314
-0.999553, 259, 257, 274, 384
-0.999553, 293, 57, 308, 72
-0.999553, 285, 369, 300, 496
-0.999554, 95, 449, 110, 464
-0.999554, 321, 225, 336, 352
-0.999554, 135, 89, 150, 104
-0.999554, 299, 285, 314, 300
-0.999555, 271, 79, 286, 94
-0.999555, 185, 405, 200, 420
-0.999556, 161, 415, 176, 430
-0.999556, 197, 481, 212, 496
-0.999556, 217, 1, 232, 128
-0.999556, 149, 53, 164, 68
-0.999557, 145, 271, 160, 286
-0.999557, 127, 21, 142, 36
-0.999558, 117, 93, 132, 108
-0.999559, 153, 239, 168, 254
-0.999559, 163, 379, 178, 394
-0.99956, 71, 217, 86, 232
-0.99956, 145, 257, 160, 272
-0.99956, 79, 319, 94, 334
-0.999561, 137, 69, 152, 84
-0.999561, 101, 461, 116, 476
-0.999563, 163, 343, 178, 358
-0.999563, 207, 475, 222, 490
-0.999564, 209, 369, 224, 496
-0.999565, 81, 97, 96, 112
-0.999565, 131, 263, 146, 278
-0.999566, 209, 119, 224, 134
-0.999566, 223, 47, 238, 62
-0.999567, 35, 459, 50, 474
-0.999568, 221, 83, 236, 98
-0.999568, 65, 207, 80, 222
-0.999569, 111, 67, 126, 82
-0.99957, 121, 235, 136, 250
-0.99957, 159, 243, 174, 258
-0.99957, 97, 455, 112, 470
-0.999571, 147, 47, 162, 62
-0.999573, 143, 263, 158, 278
-0.999574, 193, 291, 208, 306
-0.999574, 277, 463, 292, 478
-0.999574, 153, 471, 168, 486
-0.999575, 111, 59, 126, 74
-0.999576, 351, 63, 366, 78
-0.999576, 185, 133, 200, 148
-0.999577, 259, 61, 274, 76
-0.999577, 165, 471, 180, 486
-0.999577, 27, 401, 42, 416
-0.999577, 77, 161, 108, 416
-0.999578, 121, 245, 136, 260
-0.999579, 129, 223, 144, 238
-0.99958, 305, 287, 320, 302
-0.999581, 191, 139, 206, 154
-0.999583, 265, 77, 280, 92
-0.999583, 85, 321, 100, 336
-0.999584, 131, 231, 146, 246
-0.999585, 109, 249, 124, 264
-0.999587, 161, 67, 176, 82
-0.99959, 211, 485, 226, 500
-0.99959, 215, 83, 230, 98
-0.999591, 151, 65, 166, 80
-0.999591, 89, 93, 104, 108
-0.999592, 181, 307, 196, 322
-0.999592, 189, 285, 204, 300
-0.999594, 91, 419, 106, 434
-0.999594, 207, 67, 222, 82
-0.999595, 115, 35, 130, 50
-0.999595, 259, 67, 274, 82
-0.999596, 149, 59, 164, 74
-0.999596, 109, 467, 124, 482
-0.999597, 133, 23, 148, 38
-0.999597, 137, 227, 152, 242
-0.999598, 125, 91, 140, 106
-0.999598, 145, 41, 160, 56
-0.999598, 257, 51, 272, 66
-0.999599, 75, 101, 90, 116
-0.999602, 41, 459, 56, 474
-0.999608, 225, 53, 240, 68
-0.999608, 121, 253, 136, 268
-0.99961, 97, 257, 128, 500
-0.999611, 225, 101, 240, 116
-0.999611, 267, 63, 282, 78
-0.999612, 213, 65, 228, 80
-0.999616, 153, 257, 184, 500
-0.999616, 261, 97, 276, 112
-0.999617, 237, 41, 252, 56
-0.999618, 155, 249, 170, 264
-0.999619, 251, 319, 266, 334
-0.999619, 169, 105, 184, 120
-0.999621, 167, 319, 182, 334
-0.999623, 223, 59, 238, 74
-0.999624, 141, 29, 156, 44
-0.999625, 189, 127, 204, 142
-0.999625, 101, 63, 116, 78
-0.999625, 115, 243, 130, 258
-0.999626, 243, 41, 258, 56
-0.99963, 251, 325, 266, 340
-0.999631, 155, 233, 170, 248
-0.999631, 191, 133, 206, 148
-0.999635, 199, 295, 214, 310
-0.999636, 215, 77, 230, 92
-0.999641, 219, 69, 234, 84
-0.999644, 117, 23, 132, 38
-0.999644, 229, 45, 244, 60
-0.999645, 183, 279, 198, 294
-0.999646, 115, 251, 130, 266
-0.999646, 9, 33, 40, 288
-0.999649, 199, 285, 214, 300
-0.99965, 103, 45, 118, 60
-0.999652, 265, 71, 280, 86
-0.999653, 253, 45, 268, 60
-0.999654, 103, 51, 118, 66
-0.999654, 53, 1, 84, 256
-0.999661, 143, 35, 158, 50
-0.999662, 149, 227, 164, 242
-0.99967, 213, 225, 244, 480
-0.999674, 181, 273, 196, 288
-0.999675, 119, 259, 134, 274
-0.999675, 105, 35, 120, 50
-0.999675, 101, 57, 116, 72
-0.999687, 111, 29, 126, 44
-0.999697, 115, 237, 130, 252
-0.99972, 125, 229, 140, 244
-0.99972, 89, 161, 120, 416
-0.999726, 143, 225, 158, 240
-0.999735, 345, 33, 376, 288
-0.999747, 13, 257, 44, 500
-0.999783, 9, 129, 72, 384
-0.999834, 333, 33, 364, 288
-0.999838, 321, 1, 384, 128
-0.999889, 29, 225, 60, 480
-0.999927, 261, 129, 292, 384
-0.999961, 357, 33, 388, 288
-0.999987, 217, 129, 248, 384
-0.999988, 329, 225, 360, 480
-1.00003, 353, 225, 384, 480
-1.00006, 13, 161, 44, 416
-1.00015, 1, 225, 32, 480
-1.00029, 341, 225, 372, 480
-1.00043, 357, 129, 388, 384
-1.00045, 29, 129, 60, 384
-1.00064, 1, 129, 32, 384
-1.00083, 341, 129, 372, 384
-1.00167, 1, 1, 389, 64
-1.0019, 329, 97, 389, 224
-1.0028, 177, 1, 304, 64
-1.00379, 297, 1, 360, 128
