1873
-0.593013, 1, 1, 500, 256
-0.665254, 257, 1, 500, 332
-0.689201, 97, 1, 352, 332
-0.691093, 1, 1, 500, 332
-0.778666, 1, 1, 256, 332
-0.783808, 257, 1, 500, 256
-0.81292, 161, 33, 416, 288
-0.897859, 193, 1, 320, 332
-0.908262, 33, 1, 288, 256
-0.913584, 129, 1, 256, 332
-0.914161, 193, 1, 320, 256
-0.91784, 241, 65, 368, 320
-0.925894, 305, 1, 432, 332
-0.927328, 241, 1, 368, 332
-0.928882, 1, 49, 500, 176
-0.93128, 145, 1, 272, 256
-0.935055, 81, 1, 208, 332
-0.94012, 289, 1, 416, 256
-0.940246, 129, 65, 384, 192
-0.94413, 353, 1, 480, 256
-0.946887, 97, 65, 224, 320
-0.948157, 353, 1, 480, 332
-0.948473, 1, 145, 500, 272
-0.951119, 1, 1, 128, 332
-0.951587, 1, 1, 500, 128
-0.95566, 1, 97, 500, 224
-0.956103, 257, 81, 500, 208
-0.958395, 1, 17, 256, 144
-0.959463, 1, 1, 128, 256
-0.960559, 129, 113, 384, 240
-0.960818, 1, 193, 500, 320
-0.96148, 193, 65, 320, 192
-0.961968, 257, 33, 500, 160
-0.963404, 193, 145, 320, 272
-0.96373, 201, 153, 264, 216
-0.964124, 145, 65, 272, 192
-0.965618, 1, 97, 256, 224
-0.965908, 137, 97, 200, 224
-0.966063, 129, 17, 384, 144
-0.966838, 49, 1, 176, 256
-0.968113, 257, 129, 500, 256
-0.968344, 161, 65, 224, 192
-0.968554, 249, 65, 312, 192
-0.97192, 417, 81, 480, 208
-0.972555, 113, 113, 240, 240
-0.972746, 201, 129, 264, 256
-0.973338, 177, 1, 304, 128
-0.973545, 241, 113, 368, 240
-0.975323, 177, 145, 240, 272
-0.975946, 257, 129, 320, 256
-0.976714, 273, 57, 336, 120
-0.977145, 233, 193, 296, 256
-0.977755, 289, 81, 416, 208
-0.978118, 281, 113, 344, 240
-0.978613, 433, 265, 496, 328
-0.97914, 137, 49, 200, 176
-0.979902, 137, 105, 200, 168
-0.979927, 33, 145, 288, 272
-0.979939, 241, 65, 368, 192
-0.980294, 193, 153, 320, 216
-0.980434, 145, 161, 272, 288
-0.980561, 225, 1, 352, 128
-0.980666, 185, 177, 248, 240
-0.980823, 233, 161, 296, 224
-0.980868, 225, 145, 288, 272
-0.980963, 137, 137, 200, 200
-0.980987, 225, 65, 352, 128
-0.980994, 225, 81, 288, 208
-0.981094, 1, 17, 64, 144
-0.981134, 281, 65, 344, 192
-0.981138, 417, 81, 480, 144
-0.981139, 409, 129, 472, 256
-0.981401, 81, 49, 208, 176
-0.982149, 137, 145, 200, 272
-0.98234, 305, 81, 368, 208
-0.982901, 385, 273, 448, 332
-0.982987, 289, 105, 352, 168
-0.983139, 65, 113, 192, 240
-0.983148, 249, 65, 312, 128
-0.983179, 369, 81, 496, 208
-0.983251, 409, 137, 472, 200
-0.983251, 161, 161, 224, 224
-0.983411, 209, 193, 272, 256
-0.983458, 1, 81, 64, 144
-0.983544, 201, 81, 264, 208
-0.983623, 201, 17, 264, 144
-0.98389, 217, 57, 280, 120
-0.983948, 409, 105, 472, 168
-0.98397, 129, 161, 384, 288
-0.984089, 1, 49, 128, 176
-0.984366, 353, 129, 480, 256
-0.984611, 193, 177, 320, 240
-0.984614, 17, 1, 144, 128
-0.984941, 241, 33, 304, 288
-0.985086, 305, 33, 432, 160
-0.985393, 433, 121, 496, 184
-0.985411, 257, 153, 320, 216
-0.985767, 113, 113, 176, 176
-0.985856, 161, 17, 224, 144
-0.985922, 409, 265, 472, 328
-0.986021, 265, 17, 328, 144
-0.986387, 241, 1, 304, 128
-0.986429, 281, 137, 344, 200
-0.986553, 1, 65, 64, 192
-0.986747, 161, 121, 224, 184
-0.986859, 97, 1, 224, 128
-0.986911, 145, 153, 272, 216
-0.987006, 113, 113, 176, 240
-0.987007, 257, 89, 320, 152
-0.987106, 25, 49, 88, 176
-0.987184, 193, 121, 320, 184
-0.98741, 425, 81, 456, 208
-0.987696, 345, 265, 408, 328
-0.987736, 233, 33, 296, 96
-0.987864, 393, 81, 456, 208
-0.987877, 281, 65, 344, 320
-0.987974, 257, 177, 320, 240
-0.987986, 241, 113, 304, 176
-0.988037, 353, 1, 480, 128
-0.988145, 417, 1, 480, 256
-0.988326, 149, 97, 180, 224
-0.988363, 433, 1, 496, 128
-0.988436, 113, 129, 240, 192
-0.988503, 313, 73, 376, 136
-0.988514, 161, 65, 288, 128
-0.988689, 337, 209, 464, 332
-0.9888, 189, 161, 220, 224
-0.988861, 233, 137, 296, 200
-0.9889, 385, 129, 448, 256
-0.988956, 225, 209, 480, 332
-0.989029, 305, 65, 432, 128
-0.989108, 161, 97, 192, 224
-0.989124, 1, 57, 64, 120
-0.98926, 281, 273, 344, 332
-0.989271, 281, 1, 344, 332
-0.989277, 241, 145, 368, 208
-0.989299, 353, 137, 480, 200
-0.989395, 249, 1, 312, 332
-0.989416, 213, 145, 244, 272
-0.989684, 305, 265, 368, 328
-0.989703, 193, 65, 256, 128
-0.989745, 165, 49, 196, 176
-0.989791, 401, 33, 464, 160
-0.989821, 369, 265, 496, 328
-0.989853, 81, 105, 208, 168
-0.989923, 289, 113, 320, 240
-0.989996, 241, 89, 368, 152
-0.990033, 177, 41, 304, 104
-0.990064, 161, 97, 224, 160
-0.99008, 385, 121, 448, 184
-0.990099, 145, 97, 272, 160
-0.990114, 241, 185, 272, 248
-0.990115, 241, 145, 272, 272
-0.990125, 185, 97, 216, 224
-0.990153, 113, 65, 176, 192
-0.99016, 305, 97, 432, 160
-0.990204, 181, 49, 212, 176
-0.990221, 185, 129, 248, 192
-0.990288, 445, 65, 476, 192
-0.99034, 277, 145, 308, 272
-0.99035, 305, 65, 336, 192
-0.99042, 137, 161, 200, 224
-0.990458, 353, 89, 480, 152
-0.990516, 241, 273, 304, 332
-0.990541, 385, 145, 448, 208
-0.990628, 321, 265, 448, 328
-0.990764, 145, 105, 176, 168
-0.990777, 241, 161, 368, 288
-0.990788, 161, 185, 224, 248
-0.990796, 193, 97, 320, 160
-0.990816, 217, 89, 280, 152
-0.990816, 145, 185, 272, 248
-0.990872, 437, 265, 468, 328
-0.990932, 305, 33, 368, 160
-0.990963, 65, 209, 320, 332
-0.991069, 209, 1, 272, 256
-0.991088, 177, 1, 240, 256
-0.991129, 237, 153, 268, 216
-0.991172, 241, 169, 368, 232
-0.991188, 281, 209, 344, 332
-0.991209, 385, 65, 448, 128
-0.991228, 33, 1, 96, 128
-0.991393, 201, 153, 264, 184
-0.991415, 197, 185, 228, 248
-0.991417, 401, 273, 432, 332
-0.991564, 273, 57, 336, 88
-0.991566, 193, 1, 256, 332
-0.991633, 241, 185, 304, 216
-0.991644, 25, 65, 88, 128
-0.991676, 281, 145, 312, 208
-0.991681, 385, 249, 448, 312
-0.991769, 309, 81, 340, 144
-0.991817, 273, 121, 400, 184
-0.99182, 137, 137, 200, 168
-0.99182, 201, 145, 232, 272
-0.991823, 201, 189, 264, 220
-0.991898, 273, 69, 336, 100
-0.991951, 1, 73, 128, 136
-0.992027, 289, 81, 352, 144
-0.992054, 369, 49, 496, 112
-0.992068, 233, 193, 296, 320
-0.992106, 433, 273, 496, 304
-0.992113, 401, 145, 464, 176
-0.992173, 401, 125, 464, 156
-0.992186, 193, 193, 320, 320
-0.992213, 177, 181, 240, 212
-0.992238, 301, 113, 332, 176
-0.992289, 297, 105, 360, 136
-0.992294, 393, 277, 456, 308
-0.992322, 285, 49, 316, 176
-0.992323, 1, 89, 64, 120
-0.992339, 229, 129, 260, 256
-0.992342, 433, 241, 496, 304
-0.992416, 233, 57, 296, 88
-0.992435, 153, 49, 184, 176
-0.992441, 225, 197, 288, 228
-0.992446, 145, 65, 208, 320
-0.99245, 233, 169, 296, 200
-0.992471, 313, 89, 376, 120
-0.992489, 321, 277, 384, 308
-0.992507, 177, 149, 240, 180
-0.992515, 249, 149, 312, 180
-0.992532, 265, 73, 296, 136
-0.992555, 225, 41, 352, 104
-0.99258, 137, 121, 200, 152
-0.992583, 425, 285, 488, 316
-0.992612, 113, 137, 176, 200
-0.99264, 289, 137, 352, 168
-0.992643, 289, 285, 352, 316
-0.992648, 177, 193, 240, 224
-0.992651, 353, 269, 416, 300
-0.99266, 281, 269, 344, 300
-0.992679, 249, 73, 312, 104
-0.992682, 425, 137, 488, 168
-0.992685, 253, 169, 284, 232
-0.992689, 209, 145, 240, 208
-0.992703, 353, 285, 416, 316
-0.992716, 1, 33, 64, 96
-0.992718, 65, 137, 192, 200
-0.992752, 217, 73, 280, 104
-0.992763, 417, 85, 480, 116
-0.992763, 281, 89, 344, 120
-0.992765, 161, 161, 224, 192
-0.992776, 185, 201, 248, 264
-0.992777, 277, 57, 308, 120
-0.992782, 97, 161, 224, 224
-0.992794, 201, 201, 264, 232
-0.992818, 225, 85, 288, 116
-0.992828, 201, 177, 264, 208
-0.992832, 137, 109, 200, 140
-0.992833, 289, 41, 416, 104
-0.992848, 257, 81, 288, 208
-0.992864, 1, 77, 64, 108
-0.992865, 353, 113, 480, 176
-0.992871, 305, 65, 368, 96
-0.992877, 273, 149, 336, 180
-0.992883, 377, 133, 440, 164
-0.992892, 301, 57, 332, 120
-0.9929, 273, 265, 400, 328
-0.992903, 409, 109, 472, 140
-0.992908, 161, 137, 224, 168
-0.992909, 433, 41, 496, 104
-0.992924, 409, 241, 472, 304
-0.992935, 177, 85, 240, 116
-0.992943, 81, 65, 208, 128
-0.99295, 385, 265, 448, 296
-0.992956, 265, 181, 328, 212
-0.99297, 273, 209, 400, 332
-0.993004, 241, 45, 304, 76
-0.993008, 105, 129, 168, 160
-0.993031, 137, 149, 200, 180
-0.99305, 249, 277, 312, 308
-0.993052, 409, 265, 472, 296
-0.993054, 417, 97, 480, 128
-0.993057, 217, 45, 280, 76
-0.993062, 297, 117, 360, 148
-0.993075, 225, 157, 288, 188
-0.993086, 113, 141, 176, 172
-0.993088, 209, 129, 272, 192
-0.993096, 385, 289, 448, 320
-0.993097, 329, 293, 392, 324
-0.993105, 433, 121, 496, 152
-0.993107, 273, 45, 336, 76
-0.993113, 465, 65, 496, 192
-0.993118, 241, 137, 304, 168
-0.993127, 401, 1, 464, 332
-0.99315, 377, 273, 408, 332
-0.993155, 313, 49, 376, 112
-0.993156, 201, 85, 264, 116
-0.993164, 413, 121, 444, 184
-0.993192, 21, 33, 52, 160
-0.9932, 313, 53, 376, 84
-0.993203, 257, 121, 320, 152
-0.993213, 433, 53, 496, 84
-0.993217, 25, 77, 88, 108
-0.99322, 313, 77, 376, 108
-0.993234, 153, 97, 216, 128
-0.993262, 193, 73, 256, 104
-0.993265, 273, 169, 336, 200
-0.993271, 249, 185, 280, 216
-0.993279, 1, 65, 64, 96
-0.993285, 401, 277, 432, 308
-0.993289, 209, 25, 272, 56
-0.993294, 177, 45, 240, 76
-0.993299, 305, 265, 368, 296
-0.993299, 249, 85, 312, 116
-0.993321, 197, 193, 228, 224
-0.993322, 237, 189, 268, 220
-0.993325, 381, 277, 412, 308
-0.993335, 433, 73, 496, 104
-0.993335, 305, 1, 368, 256
-0.993336, 137, 77, 200, 108
-0.993339, 201, 165, 264, 196
-0.993343, 445, 277, 476, 308
-0.993344, 201, 177, 264, 304
-0.993344, 333, 277, 364, 308
-0.99335, 289, 57, 320, 88
-0.993361, 197, 181, 228, 212
-0.993361, 137, 1, 200, 332
-0.993363, 5, 17, 36, 144
-0.993372, 137, 165, 200, 196
-0.993379, 421, 277, 452, 308
-0.993384, 213, 189, 244, 220
-0.993385, 413, 129, 444, 160
-0.993385, 325, 89, 356, 120
-0.993391, 309, 97, 340, 128
-0.993392, 233, 201, 264, 232
-0.993393, 173, 97, 204, 224
-0.993395, 185, 161, 216, 192
-0.993397, 257, 173, 288, 204
-0.993398, 237, 157, 268, 188
-0.993407, 161, 133, 192, 164
-0.993411, 461, 281, 492, 312
-0.993418, 377, 85, 440, 116
-0.993422, 281, 149, 312, 180
-0.993424, 169, 57, 232, 88
-0.993427, 97, 105, 160, 136
-0.993429, 113, 117, 176, 148
-0.993436, 433, 277, 464, 308
-0.99344, 361, 297, 424, 328
-0.993442, 209, 97, 240, 224
-0.993447, 465, 117, 496, 148
-0.99345, 293, 141, 324, 172
-0.993451, 29, 73, 60, 104
-0.993452, 305, 109, 336, 140
-0.993452, 269, 185, 300, 216
-0.993453, 337, 81, 400, 112
-0.993457, 185, 25, 248, 56
-0.993458, 5, 85, 36, 116
-0.993465, 309, 85, 340, 116
-0.993467, 301, 57, 332, 88
-0.993467, 205, 149, 236, 180
-0.993472, 261, 81, 292, 112
-0.993475, 277, 65, 308, 96
-0.993476, 401, 265, 432, 296
-0.993478, 337, 257, 400, 288
-0.993482, 429, 145, 460, 176
-0.99349, 445, 265, 476, 296
-0.993495, 225, 153, 256, 184
-0.9935, 149, 109, 180, 140
-0.993503, 261, 57, 292, 88
-0.993505, 369, 145, 432, 176
-0.993509, 349, 285, 380, 316
-0.993512, 449, 125, 480, 156
-0.993512, 129, 89, 192, 120
-0.993515, 249, 85, 280, 116
-0.993518, 185, 189, 216, 220
-0.993518, 249, 197, 280, 228
-0.993523, 185, 173, 216, 204
-0.993525, 181, 145, 212, 176
-0.993526, 417, 297, 480, 328
-0.993534, 129, 1, 192, 32
-0.993536, 141, 141, 172, 172
-0.993538, 413, 149, 444, 180
-0.993538, 321, 269, 352, 300
-0.99354, 281, 177, 312, 208
-0.993544, 25, 33, 88, 64
-0.993547, 249, 289, 312, 320
-0.993549, 281, 273, 312, 304
-0.993552, 433, 261, 496, 292
-0.993553, 249, 65, 280, 96
-0.993554, 297, 129, 328, 160
-0.993559, 1, 33, 64, 64
-0.99356, 465, 69, 496, 100
-0.993561, 361, 277, 392, 308
-0.993563, 405, 289, 436, 320
-0.993567, 217, 201, 248, 232
-0.993568, 377, 289, 408, 320
-0.993569, 141, 121, 172, 152
-0.99357, 429, 89, 460, 120
-0.99357, 257, 105, 320, 136
-0.993573, 137, 45, 200, 76
-0.993575, 233, 33, 296, 64
-0.993577, 265, 69, 296, 100
-0.993581, 385, 301, 448, 332
-0.993581, 313, 61, 344, 92
-0.993582, 5, 33, 36, 64
-0.993583, 249, 197, 312, 228
-0.993587, 273, 49, 304, 80
-0.993588, 425, 289, 456, 320
-0.993603, 321, 281, 352, 312
-0.993603, 401, 137, 432, 168
-0.993606, 249, 37, 280, 68
-0.993606, 441, 137, 472, 168
-0.993608, 325, 101, 356, 132
-0.993614, 305, 73, 336, 104
-0.993617, 401, 69, 464, 100
-0.993618, 265, 161, 296, 192
-0.99362, 153, 189, 216, 220
-0.993621, 465, 269, 496, 300
-0.993621, 281, 289, 312, 320
-0.993623, 385, 265, 416, 296
-0.993627, 333, 289, 364, 320
-0.993628, 337, 241, 464, 304
-0.993636, 169, 97, 200, 128
-0.993636, 453, 77, 484, 108
-0.993639, 373, 265, 404, 296
-0.993646, 257, 149, 288, 180
-0.993648, 217, 141, 280, 172
-0.993649, 337, 81, 368, 112
-0.993651, 441, 81, 472, 112
-0.993658, 413, 265, 444, 296
-0.993673, 281, 257, 344, 288
-0.99368, 181, 89, 212, 120
-0.993689, 237, 89, 268, 120
-0.993689, 49, 81, 80, 112
-0.993689, 425, 261, 456, 292
-0.99369, 377, 105, 440, 136
-0.993692, 149, 1, 180, 32
-0.993694, 321, 49, 352, 80
-0.9937, 145, 57, 208, 88
-0.9937, 245, 49, 276, 80
-0.993701, 293, 277, 324, 308
-0.993701, 201, 77, 232, 108
-0.993702, 389, 293, 420, 324
-0.993704, 341, 265, 372, 296
-0.993704, 285, 165, 316, 196
-0.993705, 129, 133, 160, 164
-0.993707, 173, 185, 204, 216
-0.993709, 445, 289, 476, 320
-0.993711, 361, 289, 392, 320
-0.993712, 237, 77, 268, 108
-0.993714, 225, 45, 256, 76
-0.993716, 221, 65, 252, 96
-0.993723, 273, 297, 336, 328
-0.993727, 401, 149, 432, 180
-0.993728, 237, 25, 268, 56
-0.99373, 225, 29, 256, 60
-0.993731, 17, 89, 48, 120
-0.993731, 185, 45, 216, 76
-0.993732, 209, 185, 240, 248
-0.993732, 425, 121, 456, 152
-0.993734, 165, 149, 196, 180
-0.993735, 425, 133, 456, 164
-0.993742, 225, 85, 256, 116
-0.993742, 321, 101, 384, 132
-0.993744, 177, 57, 208, 88
-0.993745, 29, 93, 60, 124
-0.993746, 233, 13, 296, 44
-0.993747, 309, 265, 340, 296
-0.993749, 21, 61, 52, 92
-0.99375, 261, 45, 292, 76
-0.993752, 33, 57, 96, 88
-0.993753, 165, 161, 196, 192
-0.993754, 269, 269, 300, 300
-0.993755, 457, 293, 488, 324
-0.993758, 225, 189, 256, 220
-0.993759, 269, 285, 300, 316
-0.99376, 205, 161, 236, 192
-0.99376, 425, 89, 456, 152
-0.993761, 325, 73, 356, 104
-0.993764, 277, 301, 308, 332
-0.993767, 337, 93, 368, 124
-0.993767, 469, 293, 500, 324
-0.993769, 461, 257, 492, 288
-0.993769, 293, 69, 324, 100
-0.99377, 161, 33, 224, 64
-0.99377, 361, 257, 424, 288
-0.993771, 293, 265, 324, 296
-0.993772, 233, 141, 264, 172
-0.993773, 185, 1, 248, 32
-0.99378, 89, 117, 152, 148
-0.993784, 401, 253, 464, 284
-0.993786, 137, 33, 200, 64
-0.993786, 197, 65, 228, 192
-0.993798, 209, 13, 272, 44
-0.993801, 201, 57, 264, 88
-0.993822, 1, 45, 64, 76
-0.993827, 233, 1, 296, 32
-0.993845, 169, 73, 232, 104
-0.993849, 185, 133, 248, 164
-0.993867, 137, 177, 200, 208
-0.993867, 225, 209, 288, 240
-0.993873, 1, 81, 32, 144
-0.993873, 385, 97, 448, 160
-0.993885, 157, 105, 188, 168
-0.993898, 193, 25, 256, 88
-0.993901, 249, 301, 312, 332
-0.993904, 97, 33, 160, 64
-0.99392, 97, 193, 224, 320
-0.993929, 433, 109, 496, 140
-0.99393, 233, 97, 296, 128
-0.993934, 49, 77, 112, 108
-0.993969, 169, 65, 232, 128
-0.993978, 421, 265, 452, 328
-0.993985, 449, 121, 480, 184
-0.99402, 1, 1, 64, 256
-0.994058, 433, 129, 496, 256
-0.994104, 137, 1, 200, 128
-0.994105, 25, 57, 56, 120
-0.994147, 413, 97, 444, 224
-0.994162, 217, 1, 280, 332
-0.994173, 409, 49, 472, 112
-0.994181, 305, 1, 368, 332
-0.994188, 273, 33, 336, 96
-0.994208, 161, 129, 192, 192
-0.994247, 193, 1, 256, 64
-0.994264, 17, 17, 144, 80
-0.994428, 425, 1, 488, 332
-0.994434, 17, 49, 144, 112
-0.99447, 161, 1, 224, 332
-0.994473, 225, 153, 256, 216
-0.994486, 449, 73, 480, 136
-0.99459, 169, 33, 232, 96
-0.994598, 449, 265, 480, 328
-0.994602, 437, 137, 468, 200
-0.994633, 137, 65, 200, 128
-0.994655, 257, 105, 500, 168
-0.994724, 461, 113, 492, 176
-0.994776, 313, 97, 376, 160
-0.994815, 129, 41, 256, 104
-0.994958, 217, 9, 280, 72
-0.995051, 25, 17, 88, 80
-0.995081, 201, 17, 232, 144
-0.995081, 389, 273, 420, 332
-0.995098, 129, 105, 384, 168
-0.995108, 225, 65, 480, 128
-0.995128, 429, 1, 460, 128
-0.995134, 169, 97, 200, 160
-0.995137, 429, 129, 460, 256
-0.995172, 293, 137, 324, 200
-0.995176, 225, 257, 352, 320
-0.995186, 329, 73, 360, 136
-0.995194, 177, 193, 240, 320
-0.995267, 425, 145, 456, 208
-0.995302, 129, 81, 384, 144
-0.995318, 81, 41, 208, 104
-0.995327, 301, 113, 332, 240
-0.995375, 337, 265, 368, 328
-0.995425, 265, 113, 328, 176
-0.995433, 177, 17, 304, 80
-0.995541, 289, 57, 320, 120
-0.995551, 449, 113, 480, 240
-0.995653, 221, 201, 252, 264
-0.995661, 337, 73, 400, 136
-0.995705, 189, 145, 220, 272
-0.995753, 33, 105, 160, 168
-0.995786, 1, 1, 64, 332
-0.995791, 257, 145, 288, 208
-0.995811, 245, 81, 276, 208
-0.99582, 317, 265, 348, 328
-0.995849, 425, 113, 456, 176
-0.995853, 317, 81, 348, 208
-0.995945, 269, 177, 300, 240
-0.995959, 253, 145, 284, 272
-0.995969, 89, 105, 152, 168
-0.995989, 229, 81, 260, 208
-0.996017, 461, 249, 492, 312
-0.996019, 249, 57, 280, 120
-0.996044, 129, 137, 384, 200
-0.996065, 469, 273, 500, 332
-0.996072, 433, 145, 496, 208
-0.996098, 269, 153, 300, 216
-0.996102, 141, 49, 172, 176
-0.996109, 1, 81, 32, 208
-0.996127, 181, 137, 212, 200
-0.996134, 133, 113, 164, 176
-0.996138, 241, 1, 368, 64
-0.996164, 245, 1, 276, 128
-0.996175, 257, 137, 500, 200
-0.996179, 369, 1, 496, 64
-0.996195, 289, 129, 416, 256
-0.996261, 129, 57, 384, 120
-0.996271, 129, 1, 256, 64
-0.99629, 269, 65, 300, 192
-0.996294, 225, 77, 352, 108
-0.9963, 1, 57, 256, 120
-0.996318, 413, 145, 444, 208
-0.996331, 33, 49, 64, 176
-0.996334, 369, 1, 432, 256
-0.996358, 41, 41, 104, 104
-0.996388, 461, 73, 492, 136
-0.996399, 193, 153, 320, 184
-0.996403, 457, 1, 488, 128
-0.996405, 1, 57, 500, 120
-0.996405, 193, 185, 320, 216
-0.99641, 173, 145, 204, 272
-0.99642, 241, 193, 368, 256
-0.996426, 141, 137, 172, 200
-0.996477, 369, 65, 432, 192
-0.996502, 285, 273, 316, 332
-0.996562, 253, 81, 284, 144
-0.996572, 257, 265, 500, 328
-0.996617, 257, 177, 320, 304
-0.996709, 265, 129, 296, 256
-0.996741, 137, 113, 168, 240
-0.996779, 185, 89, 248, 152
-0.996779, 353, 241, 416, 304
-0.996825, 353, 265, 384, 328
-0.996832, 369, 25, 496, 88
-0.996882, 193, 201, 320, 264
-0.99689, 289, 241, 416, 304
-0.996943, 345, 209, 408, 332
-0.996966, 253, 193, 284, 256
-0.996969, 273, 273, 304, 332
-0.997009, 97, 185, 224, 248
-0.997021, 189, 1, 220, 128
-0.997025, 297, 17, 328, 144
-0.997033, 145, 41, 208, 104
-0.997054, 225, 89, 352, 120
-0.997063, 225, 65, 352, 96
-0.997068, 437, 81, 468, 144
-0.997107, 441, 1, 472, 128
-0.997115, 181, 89, 212, 152
-0.997116, 1, 97, 500, 160
-0.997127, 161, 169, 288, 200
-0.997131, 113, 141, 240, 172
-0.997171, 257, 1, 288, 128
-0.997199, 185, 193, 216, 256
-0.997211, 353, 273, 480, 304
-0.997237, 265, 177, 296, 304
-0.997238, 1, 25, 256, 88
-0.997301, 203, 161, 218, 224
-0.997314, 469, 1, 500, 128
-0.997314, 261, 49, 292, 112
-0.997316, 161, 89, 288, 120
-0.997328, 1, 161, 128, 224
-0.997339, 121, 33, 184, 96
-0.997371, 145, 209, 272, 272
-0.997382, 425, 1, 488, 64
-0.997393, 289, 145, 304, 208
-0.997397, 169, 161, 200, 224
-0.9974, 145, 153, 272, 184
-0.997414, 209, 153, 224, 216
-0.997424, 299, 121, 314, 184
-0.997442, 255, 185, 270, 248
-0.997445, 329, 1, 392, 332
-0.997458, 25, 1, 88, 332
-0.997461, 147, 113, 162, 176
-0.997468, 361, 97, 424, 160
-0.997522, 211, 185, 226, 248
-0.997522, 393, 65, 456, 320
-0.997524, 81, 17, 208, 80
-0.997561, 49, 49, 112, 176
-0.997568, 225, 1, 256, 128
-0.997609, 321, 85, 448, 116
-0.997623, 247, 153, 262, 216
-0.997629, 305, 241, 368, 304
-0.997636, 305, 277, 432, 308
-0.997651, 255, 161, 270, 224
-0.997657, 433, 209, 496, 332
-0.997663, 317, 65, 332, 128
-0.997669, 145, 189, 272, 220
-0.99767, 193, 133, 320, 164
-0.997679, 273, 145, 400, 176
-0.997689, 9, 25, 40, 88
-0.997722, 177, 69, 304, 100
-0.997725, 169, 1, 232, 64
-0.997737, 157, 105, 172, 168
-0.997749, 305, 105, 320, 168
-0.997754, 413, 65, 444, 128
-0.997766, 193, 57, 224, 120
-0.997778, 465, 33, 496, 96
-0.997793, 97, 81, 160, 144
-0.997802, 453, 49, 484, 112
-0.997829, 257, 41, 500, 104
-0.997837, 283, 153, 298, 216
-0.997841, 369, 289, 496, 320
-0.997842, 161, 33, 416, 96
-0.997843, 361, 57, 424, 120
-0.997847, 285, 273, 300, 332
-0.997855, 445, 129, 460, 192
-0.997857, 241, 153, 256, 216
-0.997861, 265, 249, 328, 312
-0.997862, 33, 81, 64, 144
-0.997872, 353, 177, 480, 240
-0.99788, 321, 89, 336, 152
-0.997886, 245, 193, 260, 256
-0.997896, 461, 113, 492, 240
-0.997901, 321, 289, 448, 320
-0.997914, 393, 273, 408, 332
-0.997916, 437, 273, 452, 332
-0.997923, 289, 169, 416, 232
-0.997924, 177, 1, 208, 128
-0.997938, 37, 1, 68, 128
-0.997944, 97, 1, 160, 332
-0.997959, 417, 129, 432, 192
-0.997985, 329, 65, 360, 192
-0.998002, 177, 57, 304, 88
-0.998009, 177, 97, 192, 160
-0.998015, 325, 97, 356, 160
-0.998016, 163, 105, 178, 168
-0.998028, 33, 129, 288, 192
-0.998044, 409, 209, 472, 332
-0.998056, 269, 73, 284, 136
-0.998066, 161, 45, 288, 76
-0.998075, 39, 65, 54, 128
-0.998096, 97, 161, 352, 224
-0.998098, 239, 193, 254, 256
-0.998101, 377, 1, 440, 332
-0.998104, 409, 265, 424, 328
-0.998114, 415, 265, 430, 328
-0.998125, 289, 113, 320, 176
-0.998136, 321, 1, 448, 64
-0.998136, 33, 201, 160, 264
-0.998146, 137, 1, 200, 64
-0.99815, 297, 49, 312, 112
-0.998156, 175, 129, 190, 192
-0.998157, 275, 65, 290, 128
-0.998167, 463, 73, 478, 136
-0.99817, 13, 81, 44, 144
-0.998178, 277, 161, 292, 224
-0.99818, 447, 257, 462, 320
-0.998186, 49, 65, 112, 128
-0.998196, 225, 49, 352, 80
-0.99821, 267, 49, 282, 112
-0.99822, 327, 89, 342, 152
-0.998223, 457, 273, 472, 332
-0.998226, 201, 163, 232, 178
-0.998226, 265, 75, 296, 90
-0.998226, 461, 63, 492, 78
-0.998226, 177, 193, 208, 208
-0.998227, 201, 153, 232, 168
-0.998228, 461, 267, 492, 282
-0.998228, 369, 61, 496, 92
-0.998228, 241, 177, 368, 208
-0.998229, 413, 297, 444, 312
-0.99823, 257, 165, 288, 180
-0.99823, 421, 277, 452, 292
-0.998231, 285, 177, 316, 192
-0.998231, 281, 297, 312, 312
-0.998231, 465, 279, 496, 294
-0.998231, 181, 59, 212, 74
-0.998232, 429, 297, 460, 312
-0.998232, 209, 203, 240, 218
-0.998233, 321, 291, 352, 306
-0.998233, 445, 135, 476, 150
-0.998235, 225, 79, 256, 94
-0.998236, 181, 155, 212, 170
-0.998236, 325, 105, 356, 120
-0.998237, 381, 279, 412, 294
-0.998238, 433, 285, 464, 300
-0.998238, 309, 91, 340, 106
-0.998238, 129, 141, 160, 156
-0.998238, 475, 273, 490, 332
-0.998239, 157, 107, 188, 122
-0.998239, 305, 81, 336, 96
-0.99824, 245, 79, 276, 94
-0.99824, 217, 69, 248, 84
-0.99824, 217, 145, 232, 208
-0.998241, 385, 267, 416, 282
-0.998241, 457, 291, 488, 306
-0.998241, 317, 281, 348, 296
-0.998242, 445, 83, 476, 98
-0.998242, 245, 203, 276, 218
-0.998242, 277, 73, 308, 88
-0.998243, 373, 267, 404, 282
-0.998243, 257, 157, 288, 172
-0.998244, 233, 189, 264, 204
-0.998244, 321, 269, 352, 284
-0.998245, 457, 79, 488, 94
-0.998245, 217, 191, 248, 206
-0.998246, 345, 279, 376, 294
-0.998247, 261, 81, 292, 96
-0.998247, 257, 269, 384, 300
-0.998248, 401, 295, 432, 310
-0.998249, 281, 159, 312, 174
-0.99825, 361, 283, 392, 298
-0.998251, 317, 61, 348, 76
-0.998251, 277, 183, 308, 198
-0.998251, 361, 271, 392, 286
-0.998251, 141, 143, 172, 158
-0.998252, 149, 113, 180, 128
-0.998252, 421, 283, 452, 298
-0.998252, 361, 277, 392, 292
-0.998252, 297, 139, 328, 154
-0.998253, 285, 153, 316, 168
-0.998253, 141, 135, 172, 150
-0.998254, 273, 55, 304, 70
-0.998255, 261, 193, 292, 208
-0.998255, 241, 91, 272, 106
-0.998256, 273, 283, 304, 298
-0.998257, 409, 141, 440, 156
-0.998257, 329, 285, 360, 300
-0.998257, 181, 161, 212, 176
-0.998258, 29, 83, 60, 98
-0.998259, 277, 33, 308, 96
-0.99826, 293, 283, 324, 298
-0.99826, 459, 121, 474, 184
-0.998261, 217, 85, 248, 100
-0.998261, 433, 87, 464, 102
-0.998261, 221, 1, 252, 64
-0.998262, 423, 129, 438, 192
-0.998264, 201, 85, 232, 100
-0.998266, 381, 297, 412, 312
-0.998266, 439, 137, 454, 200
-0.998269, 305, 69, 336, 84
-0.99827, 5, 33, 36, 48
-0.99827, 329, 99, 360, 114
-0.99827, 153, 141, 184, 156
-0.99827, 189, 177, 220, 192
-0.998272, 253, 89, 284, 104
-0.998273, 417, 291, 448, 306
-0.998273, 437, 143, 468, 158
-0.998273, 405, 289, 436, 304
-0.998273, 405, 277, 436, 292
-0.998274, 329, 91, 360, 106
-0.998275, 185, 169, 216, 184
-0.998275, 441, 273, 472, 288
-0.998275, 369, 297, 400, 312
-0.998276, 357, 293, 388, 308
-0.998277, 281, 275, 312, 290
-0.998277, 409, 151, 440, 166
-0.998277, 473, 73, 488, 136
-0.998279, 405, 283, 436, 298
-0.998279, 197, 187, 228, 202
-0.99828, 433, 279, 464, 294
-0.998281, 445, 285, 476, 300
-0.998282, 277, 67, 308, 82
-0.998282, 393, 281, 424, 296
-0.998283, 225, 155, 256, 170
-0.998283, 293, 145, 324, 160
-0.998284, 353, 141, 480, 172
-0.998284, 389, 273, 420, 288
-0.998285, 465, 285, 496, 300
-0.998286, 265, 187, 296, 202
-0.998286, 341, 273, 372, 288
-0.998289, 265, 61, 296, 76
-0.998289, 333, 293, 364, 308
-0.998292, 281, 291, 312, 306
-0.998293, 237, 157, 268, 172
-0.998296, 229, 85, 260, 100
-0.998296, 483, 265, 498, 328
-0.998296, 201, 197, 232, 212
-0.998297, 313, 105, 344, 168
-0.998297, 145, 209, 272, 332
-0.998297, 401, 271, 432, 286
-0.998297, 261, 179, 292, 194
-0.998298, 221, 203, 252, 218
-0.998298, 301, 59, 332, 74
-0.998299, 425, 147, 456, 162
-0.9983, 189, 199, 220, 214
-0.998303, 333, 279, 364, 294
-0.998303, 213, 197, 244, 212
-0.998303, 377, 291, 408, 306
-0.998304, 445, 279, 476, 294
-0.998304, 345, 293, 376, 308
-0.998304, 465, 119, 496, 134
-0.998307, 165, 137, 196, 152
-0.998307, 377, 273, 408, 288
-0.998308, 5, 87, 36, 102
-0.998308, 213, 153, 244, 168
-0.998308, 245, 191, 276, 206
-0.998311, 241, 85, 272, 100
-0.998313, 309, 109, 340, 124
-0.998313, 309, 99, 340, 114
-0.998314, 341, 285, 372, 300
-0.998314, 189, 193, 220, 208
-0.99832, 169, 105, 184, 168
-0.998329, 233, 203, 264, 218
-0.998334, 249, 197, 280, 212
-0.998334, 233, 195, 264, 210
-0.998336, 383, 273, 398, 332
-0.998338, 289, 61, 320, 76
-0.998346, 337, 129, 464, 160
-0.998351, 253, 185, 284, 200
-0.998357, 365, 273, 396, 332
-0.998357, 453, 129, 468, 192
-0.998358, 17, 113, 144, 240
-0.998362, 33, 105, 288, 168
-0.998369, 233, 193, 248, 256
-0.998377, 65, 129, 192, 160
-0.998383, 205, 185, 220, 248
-0.998385, 113, 173, 240, 204
-0.998395, 285, 65, 316, 320
-0.998399, 261, 161, 276, 224
-0.9984, 273, 217, 400, 280
-0.998403, 141, 121, 156, 184
-0.998405, 289, 57, 304, 120
-0.998407, 257, 161, 500, 224
-0.998411, 273, 65, 400, 96
-0.998418, 311, 105, 326, 168
-0.998418, 89, 129, 152, 192
-0.998428, 33, 193, 160, 320
-0.998438, 193, 233, 320, 296
-0.998439, 431, 145, 446, 208
-0.998451, 323, 89, 338, 120
-0.998451, 377, 273, 392, 332
-0.998466, 431, 89, 446, 152
-0.998473, 65, 141, 192, 172
-0.998475, 431, 273, 446, 332
-0.998475, 421, 273, 436, 332
-0.998476, 273, 109, 400, 140
-0.998477, 17, 129, 144, 192
-0.998486, 273, 133, 400, 164
-0.998504, 305, 265, 432, 296
-0.998506, 337, 273, 352, 332
-0.998509, 197, 169, 212, 232
-0.998511, 113, 81, 240, 112
-0.998514, 225, 165, 352, 196
-0.998517, 33, 57, 48, 120
-0.998517, 231, 153, 246, 216
-0.998524, 153, 137, 168, 200
-0.998524, 251, 185, 266, 216
-0.998524, 229, 57, 260, 120
-0.998539, 281, 65, 296, 128
-0.998543, 129, 65, 160, 192
-0.998544, 323, 65, 338, 128
-0.99855, 353, 117, 480, 148
-0.99855, 209, 113, 336, 144
-0.998561, 469, 113, 484, 176
-0.998588, 145, 101, 272, 132
-0.998594, 261, 193, 276, 256
-0.998597, 211, 185, 226, 216
-0.998597, 485, 121, 500, 184
-0.998604, 273, 33, 304, 288
-0.998607, 279, 185, 294, 248
-0.998607, 273, 59, 336, 74
-0.998612, 217, 193, 232, 256
-0.998613, 201, 199, 264, 214
-0.998627, 263, 81, 278, 144
-0.998634, 201, 155, 264, 170
-0.998637, 273, 69, 336, 84
-0.998644, 401, 135, 464, 150
-0.998646, 411, 129, 426, 192
-0.998646, 147, 145, 162, 208
-0.998649, 137, 139, 200, 154
-0.998655, 289, 53, 416, 84
-0.998661, 209, 191, 272, 206
-0.998661, 233, 195, 296, 210
-0.998663, 241, 187, 304, 202
-0.998663, 409, 145, 440, 272
-0.998663, 285, 89, 316, 152
-0.998663, 177, 257, 304, 320
-0.998664, 235, 197, 250, 228
-0.998668, 217, 87, 280, 102
-0.99867, 429, 1, 460, 256
-0.998673, 241, 65, 304, 80
-0.998675, 193, 85, 256, 100
-0.998676, 385, 279, 448, 294
-0.998677, 425, 275, 488, 290
-0.998677, 113, 65, 240, 96
-0.998678, 273, 289, 400, 320
-0.99868, 441, 49, 472, 112
-0.998682, 295, 145, 310, 208
-0.998686, 369, 271, 432, 286
-0.998687, 217, 81, 280, 96
-0.998687, 401, 147, 464, 162
-0.998689, 353, 289, 416, 304
-0.998692, 345, 295, 408, 310
-0.998693, 1, 87, 64, 102
-0.998693, 177, 197, 240, 212
-0.998695, 177, 191, 240, 206
-0.998696, 265, 77, 328, 92
-0.998697, 281, 169, 312, 232
-0.998697, 233, 59, 296, 74
-0.998698, 349, 265, 364, 328
-0.998699, 177, 151, 240, 166
-0.9987, 161, 201, 288, 232
-0.998702, 249, 153, 312, 168
-0.998702, 289, 291, 352, 306
-0.998702, 401, 141, 464, 156
-0.998702, 225, 203, 288, 218
-0.998703, 289, 269, 352, 284
-0.998704, 377, 299, 440, 314
-0.998704, 281, 145, 344, 160
-0.998705, 241, 181, 304, 196
-0.998706, 479, 33, 494, 96
-0.998706, 345, 275, 408, 290
-0.998706, 129, 145, 192, 160
-0.998708, 161, 145, 192, 272
-0.998709, 249, 161, 312, 176
-0.998709, 201, 179, 264, 194
-0.99871, 297, 109, 360, 124
-0.998711, 169, 185, 232, 200
-0.998711, 287, 149, 302, 180
-0.998712, 409, 269, 472, 284
-0.998712, 177, 145, 240, 160
-0.998712, 313, 91, 376, 106
-0.998712, 337, 269, 400, 284
-0.998713, 81, 153, 208, 184
-0.998713, 401, 129, 432, 192
-0.998714, 169, 157, 232, 172
-0.998715, 277, 41, 292, 104
-0.998715, 65, 1, 320, 64
-0.998716, 273, 275, 336, 290
-0.998716, 249, 85, 312, 100
-0.998717, 417, 117, 480, 132
-0.998717, 241, 175, 304, 190
-0.998718, 129, 133, 192, 148
-0.998718, 321, 295, 384, 310
-0.998719, 297, 115, 360, 130
-0.998719, 209, 185, 272, 200
-0.998719, 425, 141, 488, 156
-0.998719, 305, 65, 368, 80
-0.99872, 265, 187, 328, 202
-0.998721, 281, 285, 344, 300
-0.998721, 41, 79, 104, 94
-0.998722, 281, 151, 344, 166
-0.998723, 401, 129, 464, 144
-0.998724, 377, 145, 440, 160
-0.998726, 161, 177, 224, 192
-0.998726, 289, 137, 352, 152
-0.998728, 321, 97, 448, 128
-0.998728, 409, 123, 472, 138
-0.998728, 313, 275, 376, 290
-0.998729, 433, 269, 496, 284
-0.998729, 9, 81, 72, 96
-0.99873, 417, 299, 480, 314
-0.99873, 217, 75, 280, 90
-0.99873, 201, 205, 264, 220
-0.99873, 313, 281, 376, 296
-0.998732, 1, 93, 64, 108
-0.998733, 249, 283, 312, 298
-0.998733, 433, 285, 496, 300
-0.998733, 249, 291, 312, 306
-0.998733, 137, 117, 200, 132
-0.998735, 353, 283, 416, 298
-0.998735, 249, 167, 312, 182
-0.998735, 311, 49, 326, 112
-0.998736, 273, 181, 336, 196
-0.998736, 393, 285, 456, 300
-0.998737, 241, 79, 304, 94
-0.998737, 393, 291, 456, 306
-0.998738, 177, 163, 240, 178
-0.998738, 161, 171, 224, 186
-0.998739, 105, 137, 168, 152
-0.99874, 417, 87, 480, 102
-0.99874, 281, 99, 344, 114
-0.99874, 313, 81, 376, 96
-0.998741, 193, 79, 256, 94
-0.998741, 433, 63, 496, 78
-0.998741, 425, 147, 488, 162
-0.998742, 153, 151, 216, 166
-0.998742, 313, 59, 376, 74
-0.998742, 241, 147, 304, 162
-0.998742, 153, 165, 216, 180
-0.998743, 355, 265, 370, 328
-0.998743, 97, 121, 160, 136
-0.998743, 225, 157, 288, 172
-0.998744, 273, 159, 336, 174
-0.998744, 241, 53, 304, 68
-0.998745, 249, 275, 312, 290
-0.998746, 289, 87, 352, 102
-0.998746, 145, 111, 208, 126
-0.998747, 161, 273, 416, 332
-0.998748, 305, 57, 320, 120
-0.998749, 137, 123, 200, 138
-0.998749, 45, 73, 60, 136
-0.99875, 417, 111, 480, 126
-0.99875, 433, 123, 496, 138
-0.99875, 1, 33, 64, 48
-0.998751, 433, 291, 496, 306
-0.998751, 217, 93, 280, 108
-0.998752, 313, 267, 376, 282
-0.998752, 289, 297, 352, 312
-0.998753, 169, 85, 232, 100
-0.998753, 257, 193, 320, 208
-0.998754, 289, 121, 352, 136
-0.998754, 257, 119, 320, 134
-0.998754, 305, 103, 368, 118
-0.998755, 449, 133, 464, 164
-0.998756, 249, 297, 312, 312
-0.998756, 257, 127, 320, 142
-0.998757, 321, 287, 384, 302
-0.998757, 209, 59, 272, 74
-0.998758, 105, 113, 168, 128
-0.998758, 209, 39, 272, 54
-0.998758, 137, 57, 200, 72
-0.998758, 97, 127, 160, 142
-0.998759, 193, 65, 256, 80
-0.998759, 289, 127, 352, 142
-0.998759, 241, 71, 304, 86
-0.998759, 289, 81, 352, 96
-0.99876, 17, 39, 80, 54
-0.998761, 185, 59, 248, 74
-0.998761, 1, 75, 64, 90
-0.998763, 279, 181, 294, 212
-0.998763, 249, 141, 312, 156
-0.998763, 403, 257, 418, 320
-0.998764, 257, 181, 272, 212
-0.998767, 129, 113, 256, 144
-0.998767, 281, 161, 344, 224
-0.998769, 129, 185, 384, 248
-0.998776, 33, 69, 160, 100
-0.998777, 415, 269, 430, 300
-0.99878, 245, 189, 260, 220
-0.998781, 457, 73, 472, 136
-0.998782, 249, 9, 312, 72
-0.998783, 241, 189, 368, 220
-0.998786, 345, 273, 360, 304
-0.998788, 261, 57, 276, 120
-0.998788, 273, 185, 288, 248
-0.99879, 395, 273, 410, 304
-0.99879, 315, 65, 330, 96
-0.998793, 89, 65, 152, 192
-0.998798, 467, 49, 482, 112
-0.9988, 201, 49, 216, 112
-0.998807, 285, 269, 300, 300
-0.998812, 461, 209, 492, 332
-0.998819, 291, 273, 306, 332
-0.99882, 293, 141, 308, 172
-0.998821, 169, 129, 184, 192
-0.998822, 5, 81, 20, 144
-0.998826, 273, 121, 400, 152
-0.998827, 1, 81, 128, 112
-0.998828, 445, 1, 476, 256
-0.998832, 231, 129, 246, 192
-0.998833, 183, 89, 198, 152
-0.998842, 311, 81, 326, 144
-0.998846, 199, 193, 214, 256
-0.998851, 299, 57, 314, 88
-0.998858, 449, 265, 464, 296
-0.998861, 257, 193, 272, 224
-0.998865, 11, 81, 26, 144
-0.998868, 269, 77, 284, 108
-0.99887, 337, 217, 464, 280
-0.998871, 19, 81, 34, 144
-0.998875, 383, 277, 398, 308
-0.998876, 281, 65, 296, 96
-0.998878, 145, 25, 272, 56
-0.99888, 417, 133, 432, 164
-0.998882, 251, 197, 266, 228
-0.998884, 27, 41, 42, 104
-0.998884, 17, 33, 144, 64
-0.998891, 65, 85, 192, 116
-0.998892, 159, 137, 174, 200
-0.998895, 317, 101, 332, 132
-0.998895, 225, 129, 240, 192
-0.998896, 325, 101, 340, 132
-0.9989, 285, 281, 300, 312
-0.998904, 457, 49, 472, 112
-0.998909, 251, 157, 266, 188
-0.99891, 81, 109, 208, 140
-0.998913, 463, 273, 478, 332
-0.998916, 193, 193, 208, 256
-0.998917, 205, 181, 220, 212
-0.998917, 263, 85, 278, 116
-0.998918, 175, 133, 190, 164
-0.998918, 299, 133, 314, 164
-0.998918, 339, 281, 354, 312
-0.998919, 1, 81, 256, 144
-0.998922, 257, 89, 272, 152
-0.998922, 393, 249, 424, 312
-0.998923, 307, 109, 322, 140
-0.998925, 297, 65, 328, 320
-0.998931, 183, 169, 198, 232
-0.998932, 437, 273, 452, 304
-0.998935, 425, 105, 440, 168
-0.998936, 255, 57, 270, 120
-0.998939, 369, 81, 496, 112
-0.998943, 183, 137, 198, 200
-0.998944, 145, 117, 160, 148
-0.998945, 43, 73, 58, 104
-0.99895, 343, 273, 358, 332
-0.99895, 301, 121, 316, 152
-0.998951, 253, 65, 284, 320
-0.998958, 479, 273, 494, 304
-0.998961, 267, 169, 282, 232
-0.998963, 113, 129, 240, 160
-0.998965, 207, 153, 222, 184
-0.998966, 209, 101, 336, 132
-0.998967, 443, 65, 458, 128
-0.998967, 431, 285, 446, 316
-0.99897, 205, 49, 236, 112
-0.998972, 237, 129, 268, 192
-0.998975, 289, 145, 416, 208
-0.998975, 407, 277, 422, 308
-0.998979, 433, 65, 448, 128
-0.99898, 237, 129, 252, 192
-0.998983, 327, 265, 342, 328
-0.998989, 457, 269, 472, 300
-0.998991, 281, 157, 296, 188
-0.998991, 463, 117, 478, 148
-0.998991, 273, 189, 288, 220
-0.998993, 447, 277, 462, 308
-0.998995, 49, 273, 176, 332
-0.998998, 279, 273, 294, 332
-0.999004, 397, 209, 428, 332
-0.999005, 455, 129, 470, 160
-0.999007, 451, 57, 466, 120
-0.999009, 293, 57, 308, 88
-0.999009, 469, 273, 484, 332
-0.99901, 349, 73, 364, 136
-0.999014, 369, 105, 496, 136
-0.999015, 287, 49, 302, 80
-0.999016, 233, 1, 248, 64
-0.999018, 287, 65, 302, 96
-0.999019, 275, 73, 290, 104
-0.99902, 419, 105, 434, 168
-0.999021, 377, 289, 392, 320
-0.999022, 369, 261, 496, 292
-0.999025, 433, 145, 448, 176
-0.999026, 473, 285, 488, 316
-0.999029, 267, 193, 282, 256
-0.99903, 183, 141, 198, 172
-0.999032, 297, 33, 328, 96
-0.999034, 451, 105, 466, 168
-0.999036, 201, 193, 216, 224
-0.99904, 97, 185, 224, 216
-0.999042, 401, 277, 416, 308
-0.999044, 351, 281, 366, 312
-0.999044, 151, 141, 166, 172
-0.999044, 235, 153, 250, 184
-0.999045, 17, 81, 48, 208
-0.999049, 1, 1, 32, 256
-0.999052, 205, 121, 220, 184
-0.999062, 333, 277, 348, 308
-0.999063, 415, 153, 430, 216
-0.999063, 451, 81, 466, 144
-0.999067, 337, 33, 400, 96
-0.99907, 273, 93, 400, 124
-0.999071, 177, 153, 192, 216
-0.999071, 161, 105, 176, 136
-0.999072, 469, 113, 484, 144
-0.999074, 485, 265, 500, 296
-0.999075, 275, 57, 290, 88
-0.999075, 419, 285, 434, 316
-0.999078, 313, 53, 328, 84
-0.99908, 189, 89, 204, 152
-0.999082, 437, 113, 452, 176
-0.999083, 443, 133, 458, 164
-0.999086, 331, 65, 346, 128
-0.999088, 35, 25, 50, 88
-0.999092, 81, 45, 208, 76
-0.999094, 263, 181, 278, 212
-0.999096, 309, 17, 340, 144
-0.999101, 285, 177, 300, 208
-0.999101, 477, 113, 492, 176
-0.999103, 269, 1, 300, 128
-0.999105, 423, 149, 438, 180
-0.999107, 405, 265, 420, 296
-0.999108, 345, 285, 360, 316
-0.999108, 347, 81, 362, 112
-0.999112, 305, 57, 320, 88
-0.999113, 49, 169, 176, 232
-0.999118, 393, 285, 408, 316
-0.99912, 385, 209, 448, 332
-0.999121, 277, 169, 292, 200
-0.999125, 189, 1, 220, 256
-0.999126, 425, 289, 440, 320
-0.999128, 267, 61, 282, 92
-0.999128, 9, 81, 24, 112
-0.999128, 245, 201, 260, 232
-0.99913, 321, 61, 336, 92
-0.999131, 145, 145, 160, 176
-0.999133, 431, 89, 446, 120
-0.999135, 225, 37, 352, 68
-0.999135, 273, 165, 400, 196
-0.999136, 189, 189, 204, 220
-0.999137, 329, 89, 344, 120
-0.999137, 269, 177, 284, 208
-0.999149, 113, 201, 240, 232
-0.999156, 481, 65, 496, 96
-0.999158, 373, 277, 388, 308
-0.999158, 463, 281, 478, 312
-0.999163, 221, 129, 252, 192
-0.999167, 241, 153, 256, 184
-0.999169, 389, 269, 404, 300
-0.999171, 1, 121, 500, 184
-0.999174, 151, 109, 166, 140
-0.999176, 169, 133, 184, 164
-0.999178, 215, 149, 230, 180
-0.999181, 311, 97, 326, 128
-0.999184, 17, 45, 144, 76
-0.999184, 141, 133, 156, 164
-0.999189, 417, 149, 432, 180
-0.99919, 423, 133, 438, 164
-0.999201, 227, 149, 242, 180
-0.999203, 157, 141, 172, 172
-0.999203, 217, 197, 232, 228
-0.999213, 339, 269, 354, 300
-0.999215, 257, 85, 272, 116
-0.999215, 443, 265, 458, 296
-0.999216, 1, 145, 500, 208
-0.999217, 439, 145, 454, 176
-0.999218, 387, 289, 402, 320
-0.999219, 201, 161, 216, 192
-0.999222, 229, 201, 244, 232
-0.999224, 173, 101, 188, 132
-0.999224, 1, 169, 256, 232
-0.999227, 181, 57, 196, 88
-0.999227, 469, 1, 500, 256
-0.999227, 221, 149, 236, 180
-0.999229, 323, 265, 338, 296
-0.999232, 1, 181, 16, 212
-0.999232, 241, 65, 272, 320
-0.999234, 263, 193, 278, 224
-0.999236, 1, 273, 500, 332
-0.999238, 209, 197, 224, 228
-0.999238, 457, 281, 472, 312
-0.999241, 251, 81, 266, 112
-0.999242, 25, 37, 40, 68
-0.999244, 439, 289, 454, 320
-0.999244, 473, 73, 488, 104
-0.999245, 319, 77, 334, 108
-0.999246, 33, 57, 48, 88
-0.999246, 457, 65, 488, 320
-0.999247, 17, 57, 144, 88
-0.999247, 255, 37, 270, 68
-0.99925, 407, 141, 422, 172
-0.99925, 339, 293, 354, 324
-0.99925, 453, 81, 468, 112
-0.999255, 245, 85, 260, 116
-0.999257, 199, 173, 214, 204
-0.999258, 289, 193, 416, 256
-0.999264, 351, 269, 366, 300
-0.999273, 113, 249, 240, 312
-0.999281, 201, 1, 232, 64
-0.99931, 73, 1, 136, 332
-0.99932, 213, 1, 244, 128
-0.999326, 81, 217, 208, 280
-0.999343, 217, 49, 248, 112
-0.999355, 289, 209, 320, 332
-0.999355, 417, 209, 448, 332
-0.999355, 81, 97, 208, 128
-0.999374, 1, 33, 500, 96
-0.999374, 49, 17, 80, 144
-0.999377, 369, 49, 496, 80
-0.999383, 225, 185, 480, 248
-0.999383, 417, 65, 448, 320
-0.999387, 225, 281, 352, 312
-0.999393, 225, 25, 352, 56
-0.999406, 169, 49, 184, 176
-0.999418, 225, 9, 480, 72
-0.999422, 225, 13, 352, 44
-0.999428, 429, 81, 444, 208
-0.999428, 163, 97, 178, 224
-0.999432, 1, 181, 128, 212
-0.999438, 273, 81, 400, 112
-0.999441, 97, 33, 224, 64
-0.999442, 377, 1, 440, 128
-0.999444, 453, 83, 468, 98
-0.999444, 455, 275, 470, 290
-0.999445, 231, 203, 246, 218
-0.999446, 463, 291, 478, 306
-0.999446, 277, 179, 292, 194
-0.999446, 145, 135, 160, 150
-0.999446, 347, 87, 362, 102
-0.999446, 13, 1, 44, 256
-0.999446, 355, 271, 370, 286
-0.999446, 441, 271, 456, 286
-0.999447, 305, 61, 320, 76
-0.999447, 393, 291, 408, 306
-0.999448, 267, 197, 282, 212
-0.999448, 181, 139, 196, 154
-0.999448, 481, 277, 496, 292
-0.999448, 421, 151, 436, 166
-0.999448, 301, 135, 316, 150
-0.999448, 325, 103, 340, 118
-0.999448, 181, 57, 212, 120
-0.999448, 279, 279, 294, 294
-0.999449, 155, 111, 170, 126
-0.999449, 181, 49, 196, 176
-0.999449, 463, 121, 478, 136
-0.999449, 205, 199, 220, 214
-0.99945, 385, 277, 400, 292
-0.999451, 437, 139, 452, 154
-0.999451, 469, 287, 484, 302
-0.999451, 147, 147, 162, 162
-0.999452, 207, 155, 222, 170
-0.999453, 459, 79, 474, 94
-0.999453, 173, 97, 188, 224
-0.999453, 265, 187, 280, 202
-0.999454, 377, 295, 392, 310
-0.999454, 191, 189, 206, 204
-0.999454, 271, 183, 286, 198
-0.999455, 189, 195, 204, 210
-0.999456, 419, 291, 434, 306
-0.999456, 249, 145, 264, 272
-0.999456, 449, 281, 464, 296
-0.999457, 429, 297, 444, 312
-0.999457, 375, 267, 390, 282
-0.999458, 97, 1, 224, 32
-0.999459, 407, 279, 422, 294
-0.999459, 433, 91, 448, 106
-0.999459, 157, 97, 172, 224
-0.99946, 243, 157, 258, 172
-0.99946, 149, 115, 164, 130
-0.99946, 433, 147, 448, 162
-0.99946, 271, 79, 286, 94
-0.999461, 447, 81, 462, 208
-0.999461, 293, 281, 308, 296
-0.999462, 339, 275, 354, 290
-0.999462, 355, 283, 370, 298
-0.999462, 439, 81, 454, 208
-0.999462, 279, 61, 294, 76
-0.999462, 213, 151, 228, 166
-0.999462, 283, 183, 298, 198
-0.999463, 321, 61, 336, 76
-0.999463, 253, 85, 268, 100
-0.999463, 337, 291, 352, 306
-0.999463, 459, 281, 474, 296
-0.999463, 145, 121, 160, 136
-0.999463, 161, 107, 176, 122
-0.999463, 325, 91, 340, 106
-0.999464, 387, 291, 402, 306
-0.999464, 141, 141, 156, 156
-0.999465, 445, 131, 460, 146
-0.999465, 257, 91, 272, 106
-0.999465, 415, 277, 430, 292
-0.999466, 229, 153, 244, 168
-0.999466, 397, 281, 412, 296
-0.999467, 335, 285, 350, 300
-0.999467, 235, 155, 250, 170
-0.999467, 153, 143, 168, 158
-0.999468, 405, 273, 420, 288
-0.999468, 469, 117, 484, 132
-0.999468, 209, 1, 240, 256
-0.999469, 417, 283, 432, 298
-0.999469, 455, 127, 470, 142
-0.999469, 483, 67, 498, 82
-0.999469, 425, 289, 440, 304
-0.999469, 427, 149, 442, 164
-0.99947, 201, 193, 216, 208
-0.99947, 175, 137, 190, 152
-0.99947, 219, 151, 234, 166
-0.999471, 387, 271, 402, 286
-0.999471, 485, 269, 500, 284
-0.999473, 213, 195, 228, 210
-0.999473, 447, 273, 462, 288
-0.999473, 377, 289, 392, 304
-0.999474, 291, 59, 306, 74
-0.999475, 353, 291, 368, 306
-0.999475, 149, 97, 164, 224
-0.999476, 223, 85, 238, 100
-0.999476, 209, 187, 224, 202
-0.999477, 277, 73, 292, 88
-0.999477, 443, 143, 458, 158
-0.999478, 251, 159, 266, 174
-0.999478, 453, 269, 468, 284
-0.999479, 229, 85, 244, 100
-0.99948, 377, 273, 392, 288
-0.99948, 239, 195, 254, 210
-0.99948, 245, 205, 260, 220
-0.999481, 263, 87, 278, 102
-0.999481, 25, 89, 88, 152
-0.999482, 393, 273, 408, 288
-0.999482, 247, 85, 262, 100
-0.999482, 411, 269, 426, 284
-0.999482, 383, 297, 398, 312
-0.999483, 195, 49, 210, 176
-0.999483, 291, 149, 306, 164
-0.999485, 211, 145, 226, 272
-0.999485, 315, 69, 330, 84
-0.999486, 261, 193, 276, 208
-0.999486, 271, 191, 286, 206
-0.999487, 285, 283, 300, 298
-0.999489, 245, 195, 260, 210
-0.999489, 301, 49, 316, 176
-0.999489, 453, 65, 468, 192
-0.999489, 145, 1, 272, 32
-0.99949, 241, 85, 256, 100
-0.99949, 297, 141, 312, 156
-0.999492, 449, 139, 464, 154
-0.999492, 439, 277, 454, 292
-0.999493, 345, 283, 360, 298
-0.999494, 349, 273, 364, 288
-0.999494, 285, 155, 300, 170
-0.999495, 235, 85, 250, 100
-0.999496, 255, 187, 270, 202
-0.999496, 163, 49, 178, 176
-0.999497, 11, 85, 26, 100
-0.999499, 343, 293, 358, 308
-0.999499, 319, 103, 334, 118
-0.999499, 283, 67, 298, 82
-0.9995, 297, 59, 312, 74
-0.999501, 311, 109, 326, 124
-0.999502, 251, 201, 266, 216
-0.999505, 209, 269, 336, 300
-0.999507, 443, 137, 458, 152
-0.99951, 315, 61, 330, 76
-0.999513, 277, 187, 292, 202
-0.999516, 249, 189, 264, 204
-0.999516, 307, 49, 322, 176
-0.999518, 217, 145, 232, 272
-0.999518, 285, 273, 300, 288
-0.99952, 305, 253, 432, 284
-0.99952, 289, 65, 304, 80
-0.999521, 207, 97, 222, 224
-0.999525, 255, 195, 270, 210
-0.999525, 285, 289, 300, 304
-0.999528, 321, 73, 448, 104
-0.999529, 243, 145, 258, 272
-0.999531, 237, 201, 252, 216
-0.999533, 225, 241, 480, 304
-0.999535, 297, 129, 312, 256
-0.999537, 459, 65, 474, 192
-0.999538, 451, 133, 466, 148
-0.99954, 369, 153, 496, 184
-0.999541, 319, 65, 334, 192
-0.999542, 303, 97, 318, 224
-0.999543, 473, 65, 488, 192
-0.999543, 323, 97, 338, 112
-0.99955, 313, 49, 328, 176
-0.99955, 255, 145, 270, 272
-0.999552, 189, 193, 220, 320
-0.999554, 157, 49, 172, 176
-0.999555, 175, 49, 190, 176
-0.999556, 35, 49, 50, 176
-0.999561, 237, 145, 252, 272
-0.999565, 1, 21, 128, 52
-0.99957, 225, 1, 256, 256
-0.999571, 179, 97, 194, 224
-0.999574, 1, 9, 64, 72
-0.999575, 129, 13, 256, 44
-0.999575, 225, 145, 240, 272
-0.99958, 213, 97, 228, 224
-0.999584, 291, 129, 306, 256
-0.999585, 465, 65, 480, 192
-0.999588, 353, 301, 480, 332
-0.999589, 295, 49, 310, 176
-0.999592, 241, 89, 272, 152
-0.999594, 177, 13, 304, 44
-0.999597, 97, 249, 352, 312
-0.999599, 189, 17, 204, 144
-0.999601, 201, 33, 216, 160
-0.999603, 423, 81, 438, 208
-0.999611, 201, 97, 216, 224
-0.999612, 309, 97, 324, 224
-0.99962, 209, 1, 336, 32
-0.999624, 231, 145, 246, 272
-0.999624, 337, 97, 400, 160
-0.999624, 479, 65, 494, 192
-0.999627, 445, 1, 460, 128
-0.999633, 413, 97, 444, 160
-0.999635, 29, 33, 44, 160
-0.999636, 205, 145, 220, 272
-0.999638, 289, 49, 304, 176
-0.999641, 169, 1, 200, 256
-0.999644, 261, 81, 276, 208
-0.999647, 285, 145, 300, 272
-0.999651, 185, 97, 200, 224
-0.999652, 209, 25, 240, 88
-0.99966, 225, 257, 352, 288
-0.999661, 273, 161, 288, 288
-0.999662, 437, 1, 452, 128
-0.999662, 249, 97, 264, 224
-0.999663, 433, 129, 448, 256
-0.999664, 249, 33, 280, 96
-0.999665, 41, 49, 56, 176
-0.999671, 149, 49, 164, 176
-0.999677, 219, 97, 234, 224
-0.999681, 21, 17, 36, 144
-0.999681, 195, 97, 210, 224
-0.999683, 207, 49, 222, 176
-0.999689, 325, 81, 340, 208
-0.999694, 17, 225, 144, 288
-0.999699, 425, 65, 456, 128
-0.999699, 427, 129, 442, 256
-0.999704, 255, 81, 270, 208
-0.999709, 17, 141, 144, 172
-0.999709, 353, 17, 480, 48
-0.99971, 5, 17, 20, 144
-0.999713, 11, 17, 26, 144
-0.999713, 441, 129, 456, 256
-0.999718, 243, 81, 258, 208
-0.999718, 417, 113, 432, 240
-0.99972, 143, 97, 158, 224
-0.99972, 225, 65, 240, 192
-0.99972, 345, 73, 376, 136
-0.999722, 477, 1, 492, 128
-0.999724, 317, 57, 348, 120
-0.999724, 259, 1, 274, 128
-0.999725, 453, 113, 468, 240
-0.999727, 279, 129, 294, 256
-0.999732, 361, 121, 424, 184
-0.999733, 183, 145, 198, 272
-0.999734, 485, 49, 500, 176
-0.999735, 321, 153, 448, 184
-0.999739, 461, 113, 476, 240
-0.999741, 81, 21, 208, 52
-0.999743, 353, 249, 480, 280
-0.999748, 447, 129, 462, 256
-0.999749, 1, 81, 16, 208
-0.999753, 261, 129, 276, 256
-0.999754, 471, 1, 486, 128
-0.999754, 267, 81, 282, 208
-0.999755, 39, 1, 54, 128
-0.999756, 483, 1, 498, 128
-0.999757, 353, 1, 416, 332
-0.999757, 235, 97, 250, 224
-0.99976, 73, 81, 136, 144
-0.99976, 451, 1, 466, 128
-0.999762, 273, 37, 400, 68
-0.999763, 209, 201, 336, 232
-0.999763, 195, 1, 210, 128
-0.999767, 431, 1, 446, 128
-0.999769, 7, 65, 22, 192
-0.999771, 199, 145, 214, 272
-0.999777, 273, 65, 288, 192
-0.999782, 217, 17, 232, 144
-0.999785, 177, 145, 192, 272
-0.999789, 257, 1, 384, 32
-0.999793, 303, 1, 318, 128
-0.999795, 461, 1, 476, 128
-0.999796, 279, 177, 294, 304
-0.999798, 321, 5, 448, 36
-0.999802, 1, 185, 500, 248
-0.999804, 369, 33, 496, 64
-0.999807, 267, 177, 282, 304
-0.999808, 33, 201, 288, 264
-0.999811, 289, 301, 416, 332
-0.999812, 207, 1, 222, 128
-0.999813, 13, 65, 28, 192
-0.999814, 369, 93, 496, 124
-0.999815, 283, 65, 298, 192
-0.999816, 273, 1, 288, 128
-0.999818, 19, 81, 34, 208
-0.999819, 309, 1, 340, 256
-0.999819, 469, 113, 484, 240
-0.999819, 145, 145, 160, 272
-0.999819, 143, 49, 158, 176
-0.99982, 45, 1, 60, 128
-0.999823, 1, 169, 128, 200
-0.999827, 409, 49, 440, 176
-0.999828, 251, 1, 266, 128
-0.999829, 33, 105, 160, 136
-0.99983, 417, 65, 432, 192
-0.999831, 209, 217, 272, 280
-0.999832, 245, 1, 260, 128
-0.999832, 267, 1, 282, 128
-0.999835, 285, 209, 300, 332
-0.999835, 189, 145, 204, 272
-0.999838, 183, 1, 198, 128
-0.999841, 25, 81, 40, 208
-0.999842, 261, 177, 276, 304
-0.999845, 311, 1, 326, 128
-0.999852, 325, 33, 340, 160
-0.999854, 49, 249, 176, 312
-0.999854, 227, 1, 242, 128
-0.999855, 279, 1, 294, 128
-0.999859, 267, 129, 282, 256
-0.999866, 1, 249, 128, 312
-0.999866, 425, 1, 440, 128
-0.999868, 483, 113, 498, 240
-0.999869, 173, 185, 204, 248
-0.999873, 411, 113, 426, 240
-0.999877, 1, 161, 64, 224
-0.999878, 151, 145, 166, 272
-0.999879, 13, 49, 44, 112
-0.999881, 191, 193, 206, 320
-0.999882, 121, 65, 184, 320
-0.999884, 49, 1, 112, 332
-0.999885, 233, 1, 248, 128
-0.999887, 177, 1, 192, 128
-0.999889, 477, 113, 492, 240
-0.999894, 319, 17, 334, 144
-0.999895, 291, 209, 306, 332
-0.999896, 329, 241, 392, 304
-0.999899, 337, 137, 400, 200
-0.999907, 337, 65, 368, 320
-0.999912, 369, 5, 496, 36
-0.999916, 177, 257, 304, 288
-0.999916, 33, 213, 160, 244
-0.999928, 321, 29, 448, 60
-0.999938, 405, 1, 436, 256
-0.999945, 361, 145, 424, 208
-0.999979, 305, 17, 432, 48
-0.99999, 329, 65, 392, 320
-0.999992, 65, 57, 192, 88
-0.999992, 25, 1, 56, 256
-0.999999, 129, 273, 256, 332
-1, 157, 33, 188, 288
-1.00001, 65, 173, 192, 204
-1.00001, 401, 1, 464, 64
-1.00002, 257, 245, 384, 276
-1.00003, 321, 41, 448, 72
-1.00004, 33, 201, 160, 232
-1.00006, 1, 273, 128, 332
-1.00006, 1, 93, 128, 124
-1.00007, 17, 153, 144, 184
-1.00007, 17, 129, 144, 160
-1.00008, 145, 221, 272, 252
-1.00008, 337, 177, 464, 208
-1.00008, 201, 121, 232, 184
-1.00009, 33, 225, 160, 256
-1.00009, 17, 277, 144, 308
-1.0001, 221, 177, 252, 240
-1.0001, 273, 229, 400, 260
-1.0001, 97, 285, 224, 316
-1.0001, 193, 213, 320, 244
-1.0001, 225, 297, 352, 328
-1.00011, 177, 285, 304, 316
-1.00015, 17, 257, 144, 288
-1.00015, 261, 25, 292, 88
-1.00016, 289, 177, 416, 208
-1.00016, 161, 273, 288, 304
-1.00016, 129, 137, 160, 200
-1.00016, 49, 1, 176, 32
-1.00017, 417, 1, 448, 128
-1.00017, 49, 289, 176, 320
-1.00017, 369, 205, 496, 236
-1.00018, 353, 165, 480, 196
-1.00019, 349, 33, 380, 288
-1.00019, 33, 117, 160, 148
-1.0002, 341, 209, 372, 332
-1.0002, 121, 105, 152, 168
-1.00022, 277, 113, 308, 176
-1.00023, 357, 73, 388, 136
-1.00026, 321, 1, 352, 256
-1.00027, 57, 113, 120, 176
-1.00029, 181, 25, 212, 88
-1.00033, 1, 233, 256, 296
-1.00033, 145, 33, 176, 288
-1.00034, 129, 225, 384, 288
-1.00035, 393, 1, 424, 256
-1.00035, 201, 193, 232, 320
-1.00038, 205, 73, 236, 136
-1.00038, 65, 273, 320, 332
-1.00039, 33, 17, 64, 80
-1.0004, 213, 49, 244, 176
-1.00042, 361, 1, 392, 256
-1.00044, 297, 25, 360, 88
-1.00045, 81, 113, 144, 240
-1.00047, 81, 57, 144, 120
-1.00049, 417, 241, 448, 304
-1.0005, 125, 113, 156, 240
-1.00054, 113, 1, 176, 64
-1.00056, 129, 1, 160, 256
-1.00062, 81, 1, 112, 256
-1.00064, 161, 65, 192, 128
-1.00067, 373, 1, 404, 256
-1.0007, 37, 1, 68, 256
-1.0007, 49, 57, 80, 120
-1.00072, 49, 1, 80, 256
-1.00073, 437, 241, 468, 304
-1.00078, 217, 81, 248, 144
-1.0008, 369, 33, 432, 96
-1.0008, 381, 249, 412, 312
-1.00087, 97, 33, 160, 96
-1.00087, 153, 193, 216, 320
-1.00089, 297, 257, 328, 320
-1.00089, 225, 209, 480, 272
-1.00092, 93, 65, 124, 320
-1.00093, 69, 65, 100, 320
-1.00095, 33, 1, 96, 256
-1.00099, 333, 241, 364, 304
-1.001, 381, 57, 412, 120
-1.00105, 313, 129, 376, 192
-1.00106, 221, 25, 252, 88
-1.00106, 233, 209, 264, 272
-1.00107, 233, 249, 296, 312
-1.00109, 325, 17, 356, 144
-1.00109, 113, 65, 144, 320
-1.0011, 1, 1, 500, 64
-1.00113, 165, 1, 196, 128
-1.00114, 361, 1, 424, 64
-1.00114, 121, 201, 184, 264
-1.00116, 185, 113, 216, 176
-1.00119, 113, 1, 176, 128
-1.0012, 193, 81, 224, 144
-1.00121, 341, 81, 372, 208
-1.00124, 65, 145, 128, 208
-1.00126, 237, 193, 268, 320
-1.00127, 297, 81, 328, 144
-1.00128, 401, 73, 432, 136
-1.00129, 233, 1, 264, 64
-1.00129, 1, 209, 500, 272
-1.00131, 305, 161, 368, 224
-1.00134, 149, 145, 180, 272
-1.00138, 321, 33, 352, 96
-1.00141, 249, 193, 280, 320
-1.00144, 425, 41, 456, 104
-1.00146, 437, 113, 468, 176
-1.00146, 377, 209, 408, 332
-1.00154, 357, 209, 388, 332
-1.00157, 45, 81, 76, 144
-1.00159, 329, 65, 392, 192
-1.00161, 365, 249, 396, 312
-1.00163, 1, 233, 500, 296
-1.00163, 5, 1, 36, 64
-1.00163, 401, 153, 432, 216
-1.00165, 97, 185, 160, 248
-1.00168, 469, 9, 500, 72
-1.00171, 137, 1, 168, 128
-1.00176, 285, 1, 316, 128
-1.00179, 73, 209, 136, 272
-1.00188, 73, 33, 136, 96
-1.0019, 273, 1, 336, 64
-1.00191, 129, 225, 192, 288
-1.00191, 69, 49, 100, 176
-1.00192, 397, 113, 428, 240
-1.00204, 105, 161, 168, 288
-1.00208, 217, 193, 248, 320
-1.00209, 289, 201, 352, 264
-1.00212, 409, 161, 472, 224
-1.00214, 321, 1, 384, 64
-1.00218, 105, 161, 168, 224
-1.00219, 441, 209, 472, 332
-1.0022, 177, 193, 208, 320
-1.00222, 265, 225, 328, 288
-1.0023, 337, 1, 400, 128
-1.00245, 377, 225, 440, 288
-1.00246, 153, 217, 216, 280
-1.00247, 65, 1, 128, 128
-1.0025, 113, 57, 176, 120
-1.00251, 17, 121, 80, 184
-1.00252, 49, 89, 112, 152
-1.00253, 277, 193, 308, 320
-1.00253, 97, 209, 160, 272
-1.0026, 41, 145, 104, 208
-1.00261, 97, 1, 160, 256
-1.00262, 153, 1, 184, 128
-1.00269, 417, 185, 480, 248
-1.00269, 49, 193, 112, 320
-1.00271, 69, 1, 100, 128
-1.00271, 45, 65, 76, 192
-1.00274, 73, 65, 136, 320
-1.00278, 65, 9, 128, 72
-1.00278, 321, 209, 384, 332
-1.00282, 313, 129, 376, 256
-1.00299, 329, 209, 360, 332
-1.00299, 349, 33, 380, 160
-1.00299, 109, 113, 140, 240
-1.00308, 57, 113, 120, 240
-1.00311, 97, 49, 128, 176
-1.00361, 289, 161, 320, 288
-1.00363, 345, 129, 376, 256
-1.00366, 81, 49, 112, 176
-1.00372, 313, 209, 344, 332
-1.00374, 301, 161, 332, 288
-1.00378, 29, 97, 60, 224
-1.00387, 109, 49, 140, 176
-1.00389, 1, 129, 64, 256
-1.0039, 405, 1, 436, 128
-1.00409, 313, 129, 344, 256
-1.00414, 393, 1, 424, 128
-1.00417, 429, 209, 460, 332
-1.00419, 33, 97, 96, 224
-1.00419, 81, 1, 112, 128
-1.00422, 73, 193, 104, 320
-1.00427, 397, 65, 428, 192
-1.00428, 57, 65, 88, 192
-1.00428, 97, 113, 128, 240
-1.00433, 337, 1, 368, 128
-1.00437, 125, 177, 156, 304
-1.00442, 337, 129, 400, 256
-1.00454, 361, 1, 392, 128
-1.00454, 81, 193, 144, 320
-1.0046, 361, 113, 424, 240
-1.00462, 353, 81, 384, 208
-1.00465, 357, 129, 388, 256
-1.00475, 77, 97, 108, 224
-1.0048, 33, 145, 96, 272
-1.00486, 329, 113, 360, 240
-1.00499, 1, 145, 32, 272
-1.00499, 301, 209, 332, 332
-1.00505, 93, 1, 124, 128
-1.00516, 93, 177, 124, 304
-1.00527, 113, 177, 144, 304
-1.00529, 117, 1, 148, 128
-1.00537, 161, 193, 192, 320
-1.00542, 137, 161, 168, 288
-1.00548, 53, 145, 84, 272
-1.00551, 69, 145, 100, 272
-1.00558, 149, 193, 180, 320
-1.00601, 129, 193, 192, 320
-1.00697, 89, 17, 152, 144
-1.00701, 9, 193, 72, 320
-1.00729, 281, 161, 344, 288
-1.00825, 105, 209, 168, 332
-1.01184, 361, 161, 424, 288
