1958
-0.442852, 257, 1, 500, 375
-0.495358, 1, 97, 500, 352
-0.542662, 1, 1, 500, 256
-0.548875, 1, 1, 500, 375
-0.562978, 161, 1, 416, 375
-0.567007, 193, 97, 448, 352
-0.577765, 1, 1, 256, 375
-0.619499, 97, 97, 352, 352
-0.655977, 193, 1, 448, 256
-0.666977, 1, 97, 256, 352
-0.679852, 97, 1, 352, 256
-0.790262, 1, 1, 256, 256
-0.856887, 289, 97, 416, 352
-0.877073, 289, 1, 416, 375
-0.879944, 97, 97, 224, 352
-0.880098, 369, 97, 496, 352
-0.884099, 209, 1, 336, 256
-0.884492, 209, 129, 336, 375
-0.88926, 161, 129, 288, 375
-0.891589, 369, 1, 496, 256
-0.893252, 305, 1, 432, 256
-0.896659, 225, 1, 352, 375
-0.899201, 369, 1, 496, 375
-0.899867, 97, 1, 224, 375
-0.900553, 17, 97, 144, 352
-0.901655, 97, 1, 224, 256
-0.903821, 1, 1, 128, 256
-0.909494, 1, 1, 128, 375
-0.911377, 161, 1, 288, 256
-0.911869, 1, 209, 500, 336
-0.913961, 257, 113, 500, 240
-0.917908, 257, 209, 500, 336
-0.918956, 177, 1, 304, 375
-0.920093, 129, 113, 384, 240
-0.923421, 97, 177, 352, 304
-0.923936, 1, 49, 500, 176
-0.924068, 193, 161, 448, 288
-0.927998, 1, 97, 500, 224
-0.928018, 1, 97, 256, 224
-0.930605, 49, 1, 176, 256
-0.931999, 129, 49, 384, 176
-0.93216, 1, 1, 500, 128
-0.932421, 1, 161, 500, 288
-0.934201, 257, 1, 384, 256
-0.93707, 49, 1, 176, 375
-0.940479, 273, 177, 400, 304
-0.940746, 257, 65, 500, 192
-0.943133, 1, 145, 256, 272
-0.943662, 289, 225, 416, 352
-0.944563, 209, 113, 336, 240
-0.945534, 289, 97, 416, 224
-0.946536, 273, 265, 336, 328
-0.946998, 1, 49, 256, 176
-0.947399, 81, 97, 208, 224
-0.950127, 273, 225, 336, 352
-0.951051, 225, 225, 352, 352
-0.951886, 1, 113, 128, 240
-0.952392, 369, 225, 432, 352
-0.952815, 169, 145, 232, 272
-0.953322, 353, 209, 480, 336
-0.953666, 193, 1, 448, 128
-0.955561, 169, 169, 232, 232
-0.95624, 369, 113, 496, 240
-0.957077, 161, 161, 288, 288
-0.958675, 225, 49, 352, 176
-0.958766, 225, 161, 352, 288
-0.959286, 153, 97, 216, 224
-0.959939, 289, 33, 416, 160
-0.960474, 273, 297, 336, 360
-0.96061, 97, 145, 224, 272
-0.960666, 145, 97, 272, 224
-0.961185, 249, 281, 312, 344
-0.961332, 201, 97, 264, 224
-0.96161, 129, 225, 384, 352
-0.961694, 1, 65, 128, 192
-0.962398, 1, 1, 256, 128
-0.963004, 1, 193, 256, 320
-0.963688, 297, 49, 360, 176
-0.963936, 353, 49, 480, 176
-0.963944, 297, 1, 360, 128
-0.964382, 81, 49, 208, 176
-0.965181, 201, 145, 264, 272
-0.965285, 345, 209, 408, 336
-0.965309, 369, 161, 496, 288
-0.965508, 97, 1, 352, 128
-0.966286, 1, 145, 64, 272
-0.966662, 273, 241, 336, 304
-0.966865, 297, 225, 360, 352
-0.967217, 105, 97, 168, 224
-0.967322, 201, 169, 264, 232
-0.967348, 297, 97, 360, 224
-0.967724, 361, 273, 424, 336
-0.967726, 249, 193, 312, 320
-0.96774, 321, 17, 384, 144
-0.967875, 361, 33, 424, 160
-0.968339, 369, 1, 496, 128
-0.968541, 145, 1, 272, 128
-0.968733, 177, 209, 304, 336
-0.968862, 177, 97, 240, 224
-0.969057, 161, 49, 288, 176
-0.969268, 177, 49, 240, 176
-0.969294, 289, 265, 320, 328
-0.969564, 169, 1, 232, 128
-0.969921, 273, 1, 336, 128
-0.970142, 137, 1, 200, 128
-0.970299, 305, 289, 368, 352
-0.970334, 177, 193, 240, 256
-0.970359, 377, 177, 440, 304
-0.970589, 225, 1, 352, 128
-0.970674, 89, 193, 152, 320
-0.970776, 401, 281, 464, 344
-0.970905, 321, 65, 384, 192
-0.971086, 241, 249, 304, 312
-0.971109, 369, 249, 432, 312
-0.971138, 433, 177, 496, 304
-0.971224, 305, 105, 368, 168
-0.971607, 193, 169, 224, 232
-0.971806, 97, 49, 160, 176
-0.971872, 293, 241, 324, 304
-0.971991, 201, 193, 264, 256
-0.972456, 161, 145, 224, 208
-0.973084, 297, 265, 360, 328
-0.973099, 285, 289, 316, 352
-0.973224, 345, 97, 408, 224
-0.973234, 33, 241, 288, 368
-0.973312, 81, 193, 208, 320
-0.973361, 269, 273, 300, 336
-0.97349, 225, 281, 352, 344
-0.973534, 265, 49, 328, 176
-0.973581, 249, 241, 312, 368
-0.973695, 377, 209, 408, 336
-0.974103, 433, 241, 496, 368
-0.974199, 1, 97, 64, 224
-0.974346, 297, 177, 360, 304
-0.974374, 201, 193, 264, 320
-0.974404, 137, 49, 200, 176
-0.974491, 425, 265, 488, 328
-0.974519, 337, 209, 400, 272
-0.974581, 33, 161, 160, 288
-0.974715, 1, 17, 128, 144
-0.974787, 97, 1, 160, 128
-0.974922, 145, 161, 208, 288
-0.975057, 433, 1, 496, 128
-0.975214, 201, 1, 264, 128
-0.97529, 241, 305, 304, 368
-0.975818, 353, 145, 416, 272
-0.975825, 89, 201, 152, 264
-0.975838, 201, 145, 264, 208
-0.976105, 105, 169, 168, 232
-0.976183, 345, 97, 408, 160
-0.976203, 293, 225, 324, 352
-0.976288, 289, 105, 416, 168
-0.976403, 129, 177, 192, 240
-0.976485, 289, 177, 416, 240
-0.976758, 409, 241, 472, 368
-0.976882, 65, 113, 128, 240
-0.977033, 385, 1, 448, 128
-0.977076, 369, 225, 432, 288
-0.977129, 97, 97, 160, 160
-0.977133, 289, 209, 416, 272
-0.977453, 17, 209, 144, 336
-0.97748, 301, 265, 332, 328
-0.97756, 289, 265, 416, 328
-0.977714, 329, 289, 392, 352
-0.977777, 197, 145, 228, 272
-0.978061, 113, 169, 240, 232
-0.978069, 65, 33, 128, 160
-0.978146, 81, 169, 144, 232
-0.978169, 177, 129, 240, 375
-0.978229, 281, 241, 312, 304
-0.978328, 1, 153, 64, 216
-0.978463, 273, 177, 336, 304
-0.97852, 97, 1, 224, 128
-0.978568, 337, 273, 464, 336
-0.978687, 233, 33, 296, 160
-0.97883, 17, 113, 144, 176
-0.97885, 161, 169, 288, 232
-0.97887, 301, 289, 332, 352
-0.978892, 265, 113, 328, 240
-0.978999, 433, 169, 496, 232
-0.979035, 209, 177, 336, 240
-0.979095, 201, 49, 264, 176
-0.979225, 353, 185, 416, 248
-0.979361, 193, 97, 256, 160
-0.979385, 177, 193, 240, 320
-0.979429, 297, 65, 360, 320
-0.979571, 381, 225, 412, 288
-0.979593, 81, 145, 208, 208
-0.979723, 121, 177, 184, 304
-0.979738, 321, 81, 384, 144
-0.979836, 153, 97, 216, 352
-0.979843, 297, 225, 360, 288
-0.979852, 293, 217, 324, 280
-0.979899, 265, 201, 328, 264
-0.979911, 289, 241, 416, 304
-0.980049, 409, 33, 472, 160
-0.980147, 305, 153, 432, 216
-0.98015, 17, 1, 80, 128
-0.980171, 337, 265, 400, 328
-0.98022, 137, 97, 200, 160
-0.980225, 265, 297, 296, 360
-0.980228, 49, 1, 176, 128
-0.980355, 89, 145, 152, 272
-0.980381, 385, 49, 448, 176
-0.980381, 433, 289, 496, 352
-0.980385, 9, 209, 72, 336
-0.980405, 225, 249, 352, 312
-0.980428, 297, 129, 360, 192
-0.980452, 305, 129, 432, 192
-0.980524, 201, 97, 264, 352
-0.980763, 369, 225, 496, 288
-0.980824, 41, 209, 104, 336
-0.980855, 209, 153, 336, 216
-0.980859, 97, 105, 224, 168
-0.980884, 209, 169, 240, 232
-0.980934, 17, 49, 80, 176
-0.980951, 281, 241, 312, 368
-0.980971, 297, 177, 360, 240
-0.981173, 265, 113, 328, 176
-0.981258, 1, 145, 128, 208
-0.981356, 41, 49, 104, 176
-0.981443, 433, 241, 496, 304
-0.981524, 289, 177, 320, 304
-0.981619, 321, 145, 448, 272
-0.981871, 105, 97, 168, 352
-0.981888, 265, 1, 328, 256
-0.98206, 1, 129, 64, 192
-0.98206, 377, 201, 440, 264
-0.982158, 225, 113, 352, 176
-0.982266, 225, 113, 288, 240
-0.982308, 337, 65, 400, 320
-0.982387, 469, 193, 500, 320
-0.982452, 297, 153, 360, 216
-0.982459, 1, 177, 64, 240
-0.982469, 129, 97, 192, 224
-0.982702, 105, 145, 168, 208
-0.982723, 425, 113, 488, 240
-0.982789, 241, 225, 304, 288
-0.982833, 209, 273, 272, 336
-0.982894, 421, 273, 452, 336
-0.982905, 25, 97, 88, 224
-0.982928, 289, 289, 416, 352
-0.982934, 153, 121, 216, 184
-0.982953, 297, 201, 360, 264
-0.982966, 137, 145, 200, 208
-0.982966, 369, 169, 496, 232
-0.982985, 321, 289, 352, 352
-0.983198, 25, 105, 88, 168
-0.983198, 313, 313, 376, 375
-0.983358, 1, 105, 64, 168
-0.983422, 265, 129, 328, 375
-0.983487, 369, 105, 496, 168
-0.983501, 1, 129, 64, 375
-0.983523, 321, 193, 384, 320
-0.983542, 145, 145, 272, 208
-0.983563, 41, 1, 104, 128
-0.983611, 197, 145, 228, 208
-0.983644, 209, 97, 240, 224
-0.983771, 17, 169, 144, 232
-0.983815, 385, 113, 448, 240
-0.983829, 81, 97, 144, 352
-0.983847, 289, 193, 320, 256
-0.984038, 209, 201, 336, 264
-0.984209, 225, 225, 352, 288
-0.984223, 225, 241, 288, 368
-0.98423, 353, 249, 480, 312
-0.98424, 9, 289, 72, 352
-0.984262, 313, 97, 344, 224
-0.984404, 49, 25, 112, 88
-0.984412, 353, 153, 416, 216
-0.984413, 325, 17, 356, 144
-0.984439, 129, 97, 192, 352
-0.984457, 357, 49, 388, 176
-0.984474, 433, 193, 496, 256
-0.98449, 373, 273, 404, 336
-0.984591, 313, 105, 344, 168
-0.984657, 81, 145, 144, 208
-0.984692, 353, 201, 480, 264
-0.984768, 365, 209, 396, 336
-0.984815, 269, 241, 300, 368
-0.984879, 305, 225, 336, 352
-0.98488, 145, 105, 272, 168
-0.98489, 345, 73, 376, 136
-0.984907, 345, 1, 376, 128
-0.984926, 177, 1, 240, 256
-0.98496, 313, 49, 344, 176
-0.985, 161, 193, 288, 256
-0.985015, 345, 129, 408, 192
-0.985029, 65, 113, 128, 176
-0.985089, 305, 1, 336, 128
-0.985105, 177, 121, 240, 184
-0.985127, 197, 97, 228, 224
-0.985133, 305, 1, 368, 375
-0.985174, 277, 193, 308, 320
-0.985223, 469, 201, 500, 264
-0.985246, 437, 281, 468, 344
-0.985263, 1, 169, 32, 232
-0.985383, 381, 249, 412, 312
-0.985392, 153, 177, 184, 240
-0.985464, 257, 313, 384, 375
-0.985522, 281, 313, 312, 375
-0.985562, 353, 65, 416, 128
-0.985579, 65, 169, 192, 232
-0.985601, 177, 169, 208, 232
-0.985711, 185, 145, 216, 272
-0.985739, 433, 49, 496, 176
-0.985786, 1, 89, 128, 152
-0.985818, 129, 209, 256, 336
-0.985868, 197, 193, 228, 256
-0.986193, 361, 297, 424, 360
-0.986209, 225, 89, 352, 152
-0.986297, 349, 289, 380, 352
-0.986323, 297, 65, 360, 128
-0.986425, 153, 193, 216, 256
-0.986442, 201, 1, 264, 256
-0.986493, 209, 145, 240, 272
-0.986518, 177, 1, 208, 128
-0.986536, 177, 297, 304, 360
-0.98655, 173, 113, 204, 240
-0.986737, 393, 257, 456, 320
-0.98677, 393, 1, 456, 256
-0.986806, 105, 1, 168, 256
-0.986838, 377, 105, 408, 168
-0.98684, 369, 145, 496, 208
-0.986945, 109, 169, 140, 232
-0.986954, 217, 297, 280, 360
-0.987044, 1, 97, 32, 224
-0.987096, 9, 25, 72, 88
-0.9871, 369, 113, 432, 176
-0.987115, 345, 49, 376, 176
-0.987194, 373, 49, 404, 176
-0.987266, 133, 169, 164, 232
-0.987287, 209, 193, 240, 256
-0.987294, 345, 241, 408, 304
-0.9873, 145, 1, 176, 128
-0.987441, 365, 201, 396, 264
-0.987456, 401, 193, 464, 320
-0.987668, 257, 89, 320, 152
-0.987728, 129, 1, 192, 256
-0.987771, 113, 201, 176, 264
-0.987798, 177, 257, 304, 320
-0.987822, 97, 121, 160, 184
-0.987856, 365, 1, 396, 128
-0.98786, 361, 1, 424, 256
-0.987875, 57, 89, 120, 152
-0.987907, 73, 25, 136, 88
-0.987912, 393, 1, 424, 128
-0.987996, 173, 145, 204, 208
-0.98801, 461, 169, 492, 232
-0.988011, 169, 97, 232, 160
-0.988013, 153, 1, 216, 256
-0.988027, 81, 193, 208, 256
-0.988046, 365, 145, 396, 272
-0.98805, 293, 33, 324, 160
-0.988051, 321, 57, 384, 120
-0.988092, 121, 25, 184, 88
-0.988118, 253, 289, 284, 352
-0.98812, 389, 273, 420, 336
-0.988189, 377, 161, 408, 288
-0.988192, 361, 129, 424, 375
-0.988196, 265, 177, 328, 240
-0.988235, 145, 161, 176, 288
-0.988294, 333, 65, 364, 192
-0.988344, 209, 145, 240, 208
-0.988462, 201, 121, 264, 184
-0.988484, 1, 161, 32, 288
-0.988492, 269, 249, 300, 312
-0.988497, 377, 97, 408, 224
-0.988524, 41, 161, 104, 288
-0.988553, 145, 25, 208, 88
-0.988566, 13, 97, 44, 224
-0.988571, 265, 145, 328, 208
-0.988579, 17, 193, 144, 256
-0.988591, 165, 1, 196, 128
-0.988593, 17, 73, 80, 136
-0.988597, 337, 1, 400, 375
-0.988617, 225, 177, 288, 240
-0.988633, 381, 193, 412, 256
-0.988653, 377, 1, 408, 128
-0.988667, 97, 25, 160, 88
-0.98867, 401, 25, 464, 88
-0.988695, 81, 289, 144, 352
-0.988704, 189, 1, 220, 128
-0.988716, 17, 25, 144, 88
-0.98875, 461, 273, 492, 336
-0.988796, 377, 177, 440, 240
-0.988847, 221, 1, 252, 128
-0.988853, 265, 285, 328, 316
-0.988877, 133, 1, 164, 128
-0.988903, 313, 265, 344, 328
-0.988907, 433, 97, 496, 352
-0.988929, 389, 225, 420, 352
-0.988936, 153, 49, 184, 176
-0.988946, 177, 189, 240, 220
-0.989028, 49, 265, 112, 328
-0.989117, 65, 161, 128, 288
-0.989128, 289, 81, 416, 144
-0.989176, 353, 193, 384, 320
-0.989217, 9, 265, 72, 328
-0.989251, 281, 217, 312, 280
-0.989258, 65, 25, 192, 88
-0.98931, 49, 305, 112, 368
-0.989311, 205, 1, 236, 128
-0.989332, 385, 97, 448, 352
-0.989465, 313, 129, 344, 192
-0.989484, 229, 97, 260, 224
-0.989489, 233, 1, 264, 128
-0.989489, 465, 33, 496, 160
-0.989502, 273, 273, 336, 304
-0.989534, 337, 297, 464, 360
-0.989594, 65, 241, 192, 368
-0.989613, 161, 169, 224, 200
-0.989635, 385, 89, 448, 152
-0.989714, 153, 185, 216, 216
-0.989719, 241, 289, 304, 320
-0.989773, 17, 217, 144, 280
-0.989785, 297, 289, 360, 320
-0.989805, 365, 97, 396, 224
-0.989867, 365, 105, 396, 168
-0.989879, 169, 97, 200, 160
-0.989882, 113, 97, 144, 224
-0.989914, 465, 241, 496, 368
-0.989918, 241, 201, 304, 264
-0.989932, 113, 193, 144, 256
-0.989956, 401, 305, 464, 368
-0.989958, 185, 49, 216, 176
-0.989986, 185, 169, 248, 200
-0.990009, 1, 273, 128, 336
-0.990059, 109, 1, 140, 128
-0.990113, 217, 97, 280, 160
-0.990163, 201, 189, 264, 220
-0.990172, 145, 97, 176, 224
-0.990193, 129, 17, 256, 80
-0.990202, 333, 97, 364, 160
-0.99023, 309, 145, 340, 272
-0.990231, 385, 145, 448, 208
-0.990232, 457, 97, 488, 224
-0.990236, 185, 145, 216, 208
-0.990253, 433, 97, 496, 160
-0.990284, 189, 97, 220, 160
-0.990284, 89, 105, 120, 168
-0.990284, 177, 25, 240, 88
-0.990288, 157, 161, 188, 288
-0.990306, 293, 129, 324, 256
-0.990337, 405, 1, 436, 128
-0.990351, 305, 241, 336, 304
-0.990372, 113, 197, 176, 228
-0.990375, 221, 169, 252, 232
-0.99038, 5, 33, 36, 160
-0.990392, 353, 25, 416, 88
-0.990413, 41, 209, 104, 272
-0.990423, 225, 97, 288, 352
-0.990442, 1, 1, 64, 256
-0.990444, 385, 49, 416, 176
-0.990466, 377, 25, 440, 88
-0.99047, 333, 289, 364, 352
-0.990482, 9, 145, 40, 208
-0.990487, 129, 185, 192, 216
-0.990509, 25, 145, 88, 208
-0.990516, 249, 1, 312, 375
-0.990527, 81, 1, 112, 128
-0.990562, 125, 49, 156, 176
-0.990621, 109, 49, 140, 176
-0.990643, 273, 301, 336, 332
-0.990645, 57, 145, 120, 208
-0.990657, 193, 185, 448, 248
-0.99066, 369, 81, 496, 144
-0.990683, 345, 97, 376, 160
-0.990688, 1, 201, 64, 264
-0.990723, 393, 281, 456, 312
-0.990732, 241, 301, 304, 332
-0.990748, 313, 153, 344, 216
-0.990763, 97, 73, 160, 136
-0.990777, 49, 289, 176, 352
-0.990791, 97, 81, 224, 144
-0.990822, 301, 313, 332, 375
-0.990842, 129, 1, 192, 375
-0.990852, 297, 25, 360, 88
-0.990855, 89, 205, 152, 236
-0.990856, 25, 1, 88, 256
-0.990865, 293, 169, 324, 232
-0.990874, 193, 105, 448, 168
-0.99088, 265, 1, 296, 128
-0.990906, 345, 213, 408, 244
-0.990918, 449, 265, 480, 328
-0.990948, 81, 193, 144, 224
-0.99097, 81, 265, 144, 328
-0.990976, 425, 1, 456, 128
-0.990991, 417, 273, 480, 304
-0.990992, 169, 73, 232, 136
-0.991, 337, 25, 464, 88
-0.991009, 177, 121, 208, 184
-0.991019, 221, 49, 252, 176
-0.991044, 121, 1, 152, 128
-0.991044, 257, 153, 384, 216
-0.991047, 177, 201, 240, 232
-0.991093, 433, 217, 496, 280
-0.991104, 361, 273, 424, 304
-0.991106, 49, 1, 112, 64
-0.991119, 109, 97, 140, 160
-0.991145, 89, 97, 120, 224
-0.991149, 277, 1, 308, 128
-0.991165, 273, 325, 336, 356
-0.991176, 265, 257, 328, 288
-0.991184, 61, 1, 92, 128
-0.991192, 201, 201, 264, 232
-0.991193, 361, 265, 392, 328
-0.991238, 273, 25, 400, 88
-0.991243, 141, 49, 172, 176
-0.991261, 241, 273, 304, 304
-0.991278, 129, 145, 384, 208
-0.991292, 133, 129, 164, 256
-0.991305, 165, 49, 196, 176
-0.991316, 209, 177, 272, 208
-0.991318, 445, 241, 476, 368
-0.99132, 321, 129, 384, 192
-0.991331, 1, 113, 256, 176
-0.991337, 433, 189, 496, 220
-0.991421, 297, 117, 360, 148
-0.991439, 41, 129, 104, 375
-0.991444, 153, 97, 184, 160
-0.991461, 241, 1, 304, 256
-0.991465, 137, 197, 200, 228
-0.991477, 73, 1, 136, 64
-0.991478, 105, 185, 168, 216
-0.991487, 265, 245, 328, 276
-0.991487, 97, 101, 160, 132
-0.991487, 225, 281, 480, 344
-0.99149, 361, 253, 424, 284
-0.991501, 321, 293, 384, 324
-0.991505, 361, 301, 424, 332
-0.991539, 145, 145, 176, 208
-0.991542, 97, 1, 128, 128
-0.991543, 185, 157, 248, 188
-0.991554, 361, 289, 392, 352
-0.991562, 93, 49, 124, 176
-0.99157, 297, 101, 360, 132
-0.991573, 425, 25, 488, 88
-0.991583, 297, 129, 360, 160
-0.991612, 177, 25, 304, 88
-0.991622, 257, 153, 500, 216
-0.991623, 209, 25, 272, 88
-0.991624, 409, 273, 440, 336
-0.99163, 25, 113, 56, 240
-0.991654, 241, 261, 304, 292
-0.991673, 353, 201, 416, 232
-0.991704, 1, 165, 64, 196
-0.991705, 273, 313, 336, 344
-0.991729, 305, 201, 336, 264
-0.991744, 281, 197, 344, 228
-0.991752, 113, 177, 144, 304
-0.991758, 265, 225, 328, 256
-0.991769, 97, 1, 160, 375
-0.99178, 17, 241, 144, 304
-0.991784, 121, 289, 184, 352
-0.991788, 197, 193, 228, 320
-0.9918, 1, 25, 32, 88
-0.991809, 361, 289, 424, 320
-0.99186, 321, 313, 352, 375
-0.991871, 337, 41, 400, 72
-0.991878, 453, 1, 484, 128
-0.99188, 233, 49, 264, 176
-0.991883, 1, 169, 256, 232
-0.991884, 49, 1, 176, 64
-0.991884, 417, 301, 480, 332
-0.991892, 297, 113, 328, 176
-0.991911, 97, 185, 352, 248
-0.991915, 209, 289, 272, 320
-0.991917, 209, 165, 272, 196
-0.991921, 369, 229, 432, 260
-0.991946, 393, 269, 456, 300
-0.991952, 25, 89, 56, 152
-0.991979, 305, 41, 368, 72
-0.991979, 297, 273, 360, 304
-0.991993, 357, 177, 388, 240
-0.991997, 369, 241, 432, 272
-0.992004, 305, 141, 368, 172
-0.992005, 265, 337, 328, 368
-0.992018, 97, 113, 160, 144
-0.992028, 417, 289, 480, 320
-0.99203, 13, 169, 44, 232
-0.992033, 313, 313, 376, 344
-0.992035, 201, 1, 264, 375
-0.992047, 137, 101, 200, 132
-0.992055, 65, 193, 128, 256
-0.99206, 177, 101, 240, 132
-0.99207, 41, 241, 104, 304
-0.992074, 353, 1, 480, 64
-0.992084, 249, 213, 312, 244
-0.992088, 257, 249, 500, 312
-0.992098, 353, 165, 416, 196
-0.992107, 393, 217, 424, 280
-0.992125, 389, 129, 420, 256
-0.992126, 97, 105, 352, 168
-0.992126, 125, 97, 156, 160
-0.992129, 289, 245, 352, 276
-0.992143, 297, 301, 360, 332
-0.992147, 205, 49, 236, 176
-0.992148, 353, 149, 416, 180
-0.992148, 265, 109, 328, 140
-0.992166, 81, 177, 144, 208
-0.992176, 361, 1, 424, 375
-0.992184, 433, 177, 496, 208
-0.992191, 321, 25, 384, 88
-0.992191, 65, 297, 128, 328
-0.992196, 345, 97, 408, 128
-0.992211, 201, 101, 264, 132
-0.992212, 433, 1, 496, 256
-0.992226, 305, 29, 368, 60
-0.992244, 121, 73, 184, 136
-0.992245, 1, 101, 64, 132
-0.992249, 285, 277, 316, 308
-0.992268, 1, 189, 64, 220
-0.992268, 105, 169, 168, 200
-0.992271, 257, 209, 500, 272
-0.992275, 285, 289, 316, 320
-0.992288, 297, 209, 360, 240
-0.99229, 1, 153, 64, 184
-0.992298, 297, 177, 360, 208
-0.992304, 241, 321, 304, 352
-0.992304, 321, 93, 384, 124
-0.992315, 257, 129, 500, 192
-0.992319, 297, 277, 328, 308
-0.992324, 9, 297, 72, 328
-0.99233, 345, 29, 408, 60
-0.992339, 241, 245, 304, 276
-0.992343, 297, 229, 360, 260
-0.992344, 137, 113, 200, 144
-0.992352, 401, 113, 464, 176
-0.992356, 153, 153, 216, 184
-0.992363, 297, 165, 360, 196
-0.992373, 41, 185, 104, 248
-0.992375, 269, 289, 300, 320
-0.992379, 385, 297, 448, 328
-0.992394, 193, 169, 224, 200
-0.992406, 177, 233, 304, 296
-0.992414, 281, 1, 344, 375
-0.992414, 265, 29, 328, 60
-0.992426, 353, 137, 416, 168
-0.992437, 241, 273, 272, 336
-0.992451, 249, 25, 312, 88
-0.992453, 245, 33, 276, 160
-0.992461, 17, 1, 48, 128
-0.992462, 241, 201, 304, 232
-0.992472, 45, 1, 76, 128
-0.992473, 337, 225, 400, 256
-0.992481, 301, 289, 332, 320
-0.992481, 9, 177, 72, 208
-0.992481, 337, 281, 400, 312
-0.992491, 425, 313, 488, 375
-0.992493, 169, 1, 232, 375
-0.992495, 265, 137, 328, 168
-0.992502, 397, 49, 428, 176
-0.992507, 193, 189, 224, 220
-0.992512, 209, 189, 240, 220
-0.992513, 289, 261, 352, 292
-0.992517, 345, 125, 408, 156
-0.992522, 209, 153, 272, 184
-0.992523, 293, 253, 324, 284
-0.992525, 177, 141, 240, 172
-0.992529, 1, 113, 64, 144
-0.992529, 285, 265, 316, 296
-0.992535, 361, 189, 424, 220
-0.992541, 105, 1, 168, 64
-0.992551, 81, 1, 144, 256
-0.992551, 337, 305, 400, 336
-0.992569, 121, 169, 152, 232
-0.992569, 153, 209, 216, 240
-0.992577, 433, 201, 496, 232
-0.992577, 353, 177, 416, 208
-0.992587, 401, 313, 464, 344
-0.992591, 385, 33, 448, 64
-0.992616, 121, 209, 184, 240
-0.992616, 185, 97, 216, 224
-0.992619, 305, 153, 368, 184
-0.992623, 1, 133, 64, 164
-0.992627, 177, 113, 240, 144
-0.992643, 425, 261, 488, 292
-0.992646, 65, 101, 128, 132
-0.992656, 81, 165, 144, 196
-0.992659, 337, 53, 400, 84
-0.992661, 381, 229, 412, 260
-0.992663, 89, 289, 152, 320
-0.992664, 153, 185, 184, 216
-0.992671, 361, 45, 424, 76
-0.99268, 49, 309, 112, 340
-0.992688, 41, 289, 104, 320
-0.992689, 281, 301, 312, 332
-0.992691, 377, 217, 440, 248
-0.992692, 29, 1, 60, 128
-0.992698, 385, 109, 448, 140
-0.99271, 229, 97, 260, 160
-0.992714, 241, 341, 304, 372
-0.992715, 265, 125, 328, 156
-0.992716, 265, 157, 328, 188
-0.992716, 369, 313, 432, 344
-0.99272, 1, 241, 64, 304
-0.99272, 329, 65, 360, 128
-0.992726, 321, 81, 384, 112
-0.992726, 345, 237, 408, 268
-0.992728, 113, 193, 144, 224
-0.992729, 265, 173, 328, 204
-0.992729, 365, 217, 396, 248
-0.99273, 345, 113, 408, 144
-0.992739, 337, 249, 400, 280
-0.992741, 441, 1, 472, 128
-0.992747, 289, 225, 320, 256
-0.992751, 301, 81, 332, 208
-0.992759, 273, 277, 304, 308
-0.992763, 425, 277, 456, 308
-0.992797, 313, 289, 344, 320
-0.992805, 357, 205, 388, 236
-0.992805, 457, 105, 488, 168
-0.992816, 57, 1, 120, 256
-0.992821, 269, 301, 300, 332
-0.992838, 293, 241, 324, 272
-0.992844, 357, 57, 388, 120
-0.992848, 293, 197, 324, 228
-0.992862, 277, 333, 308, 364
-0.992863, 253, 293, 284, 324
-0.992877, 329, 145, 392, 272
-0.992899, 17, 25, 48, 88
-0.992913, 133, 189, 164, 220
-0.992918, 297, 265, 328, 296
-0.992927, 145, 73, 208, 136
-0.992972, 209, 169, 240, 200
-0.992973, 373, 129, 404, 192
-0.992974, 277, 253, 308, 284
-0.992975, 441, 305, 472, 336
-0.992976, 373, 249, 404, 280
-0.992978, 21, 49, 52, 176
-0.992983, 41, 1, 104, 375
-0.992985, 209, 193, 240, 320
-0.992992, 153, 197, 184, 228
-0.992998, 309, 177, 340, 240
-0.993009, 1, 1, 64, 375
-0.993015, 209, 157, 240, 188
-0.993032, 1, 177, 32, 208
-0.993034, 289, 325, 320, 356
-0.993046, 345, 209, 376, 240
-0.993049, 269, 313, 300, 344
-0.99305, 457, 193, 488, 320
-0.993054, 469, 189, 500, 220
-0.993062, 325, 289, 356, 320
-0.993066, 461, 297, 492, 328
-0.99307, 381, 217, 412, 248
-0.993075, 281, 241, 312, 272
-0.993077, 197, 201, 228, 232
-0.993084, 17, 1, 80, 64
-0.993086, 113, 205, 144, 236
-0.993102, 161, 97, 192, 224
-0.993106, 373, 273, 404, 304
-0.993106, 345, 85, 376, 116
-0.993109, 13, 161, 44, 288
-0.99311, 1, 165, 32, 196
-0.99311, 377, 161, 408, 224
-0.993134, 325, 313, 356, 344
-0.993139, 109, 181, 140, 212
-0.993168, 409, 281, 440, 312
-0.993185, 49, 89, 176, 152
-0.993193, 469, 281, 500, 312
-0.993195, 421, 289, 452, 320
-0.993195, 281, 313, 312, 344
-0.993199, 309, 101, 340, 132
-0.993205, 313, 121, 344, 152
-0.993216, 405, 265, 436, 296
-0.993219, 101, 101, 132, 132
-0.99322, 353, 97, 384, 224
-0.993221, 373, 285, 404, 316
-0.993222, 293, 213, 324, 244
-0.993223, 381, 205, 412, 236
-0.993232, 213, 201, 244, 232
-0.993233, 269, 345, 300, 375
-0.993234, 193, 157, 224, 188
-0.993235, 441, 281, 472, 312
-0.99324, 265, 325, 296, 356
-0.993244, 181, 189, 212, 220
-0.993246, 441, 293, 472, 324
-0.993246, 369, 225, 400, 288
-0.993249, 305, 309, 336, 340
-0.99325, 185, 101, 216, 132
-0.993253, 345, 69, 376, 100
-0.993258, 145, 101, 176, 132
-0.99326, 337, 41, 368, 72
-0.993263, 385, 281, 416, 312
-0.993263, 369, 301, 400, 332
-0.993264, 133, 101, 164, 132
-0.993267, 313, 273, 344, 304
-0.993268, 373, 261, 404, 292
-0.993269, 357, 41, 388, 72
-0.99327, 389, 177, 420, 304
-0.993276, 373, 101, 404, 132
-0.993277, 185, 201, 216, 232
-0.99328, 229, 189, 260, 220
-0.99328, 169, 113, 200, 144
-0.993283, 153, 289, 216, 352
-0.99329, 81, 241, 144, 368
-0.993291, 177, 173, 208, 204
-0.993294, 161, 101, 192, 132
-0.993301, 385, 245, 416, 276
-0.993302, 229, 177, 260, 208
-0.993302, 101, 193, 132, 224
-0.993309, 125, 205, 156, 236
-0.993311, 457, 189, 488, 220
-0.993311, 401, 209, 432, 336
-0.993314, 469, 257, 500, 288
-0.993315, 281, 345, 312, 375
-0.993317, 145, 169, 176, 200
-0.993319, 129, 281, 384, 344
-0.993319, 349, 309, 380, 340
-0.993319, 317, 41, 348, 72
-0.993322, 237, 289, 268, 320
-0.993326, 133, 177, 164, 208
-0.993328, 305, 253, 336, 284
-0.993333, 337, 53, 368, 84
-0.993333, 89, 105, 120, 136
-0.993334, 113, 101, 144, 132
-0.993334, 165, 205, 196, 236
-0.993335, 313, 137, 344, 168
-0.993336, 293, 185, 324, 216
-0.993338, 229, 101, 260, 132
-0.993341, 465, 101, 496, 132
-0.993344, 93, 129, 124, 192
-0.993346, 301, 329, 332, 360
-0.993346, 1, 189, 32, 220
-0.993348, 461, 177, 492, 208
-0.993348, 345, 97, 376, 128
-0.99335, 393, 217, 424, 248
-0.993356, 369, 205, 400, 236
-0.993357, 301, 225, 332, 256
-0.99336, 369, 41, 400, 72
-0.993363, 257, 305, 288, 336
-0.993365, 373, 29, 404, 60
-0.993371, 361, 289, 392, 320
-0.993372, 165, 189, 196, 220
-0.993376, 401, 305, 432, 336
-0.993378, 345, 293, 376, 324
-0.993382, 389, 293, 420, 324
-0.993386, 13, 177, 44, 208
-0.993388, 281, 205, 312, 236
-0.99339, 129, 193, 160, 256
-0.993391, 321, 325, 352, 356
-0.993391, 13, 165, 44, 196
-0.993393, 337, 29, 368, 60
-0.993394, 309, 149, 340, 180
-0.993394, 305, 213, 336, 244
-0.993397, 189, 145, 220, 176
-0.9934, 321, 29, 352, 60
-0.9934, 469, 205, 500, 236
-0.993414, 469, 249, 500, 312
-0.993427, 77, 25, 108, 88
-0.993435, 97, 169, 128, 232
-0.993455, 1, 297, 128, 360
-0.993458, 57, 25, 88, 88
-0.993506, 401, 1, 464, 375
-0.993527, 293, 265, 308, 328
-0.99354, 101, 113, 132, 240
-0.993574, 113, 145, 144, 208
-0.993585, 97, 209, 352, 272
-0.993592, 145, 81, 272, 144
-0.99361, 433, 1, 496, 375
-0.993628, 129, 281, 256, 344
-0.993663, 393, 193, 424, 256
-0.993665, 437, 249, 468, 312
-0.993683, 289, 217, 416, 248
-0.993692, 1, 1, 128, 64
-0.993706, 307, 265, 322, 328
-0.993729, 165, 169, 196, 232
-0.993737, 225, 289, 352, 320
-0.993771, 297, 241, 312, 304
-0.993782, 121, 25, 152, 88
-0.993852, 457, 145, 488, 272
-0.993859, 221, 145, 252, 272
-0.993861, 125, 193, 156, 320
-0.993868, 225, 25, 352, 88
-0.993875, 149, 25, 180, 88
-0.993916, 469, 97, 500, 160
-0.993922, 337, 57, 464, 120
-0.993951, 45, 25, 76, 88
-0.993958, 65, 265, 192, 328
-0.994007, 5, 97, 36, 160
-0.994011, 25, 129, 56, 192
-0.994011, 449, 289, 480, 352
-0.994038, 389, 105, 420, 168
-0.994087, 257, 49, 384, 112
-0.994103, 221, 193, 252, 256
-0.994103, 45, 305, 76, 368
-0.99411, 133, 145, 164, 208
-0.994122, 1, 65, 128, 128
-0.994152, 137, 25, 168, 88
-0.994167, 357, 313, 388, 375
-0.994205, 421, 241, 452, 368
-0.994238, 1, 145, 256, 208
-0.994258, 29, 25, 60, 88
-0.994259, 49, 49, 176, 112
-0.994273, 281, 273, 296, 336
-0.994324, 305, 241, 320, 304
-0.994353, 109, 25, 140, 88
-0.994368, 141, 193, 172, 256
-0.994398, 345, 49, 376, 112
-0.994415, 1, 89, 256, 152
-0.994416, 93, 25, 124, 88
-0.994525, 189, 121, 220, 184
-0.994541, 193, 1, 320, 64
-0.99461, 209, 97, 240, 160
-0.994612, 233, 169, 264, 232
-0.994651, 201, 161, 216, 224
-0.994681, 299, 217, 314, 280
-0.994688, 305, 1, 432, 64
-0.994703, 405, 249, 436, 312
-0.99477, 345, 129, 376, 192
-0.994772, 289, 273, 416, 304
-0.994799, 441, 49, 472, 176
-0.994819, 49, 313, 176, 375
-0.994826, 453, 49, 484, 176
-0.994842, 169, 17, 200, 80
-0.994857, 141, 97, 172, 160
-0.994867, 253, 265, 284, 328
-0.994884, 97, 305, 224, 368
-0.994904, 337, 25, 368, 88
-0.994959, 289, 157, 416, 188
-0.994959, 299, 265, 314, 328
-0.994966, 289, 205, 416, 236
-0.994967, 225, 1, 288, 375
-0.994977, 281, 49, 312, 176
-0.994979, 161, 169, 288, 200
-0.995023, 73, 1, 136, 375
-0.995033, 433, 1, 464, 64
-0.995042, 305, 117, 432, 148
-0.995056, 81, 49, 112, 176
-0.995056, 289, 241, 304, 304
-0.995058, 97, 193, 224, 224
-0.995068, 21, 225, 52, 352
-0.995086, 145, 189, 272, 220
-0.995106, 377, 249, 392, 312
-0.995106, 257, 241, 288, 368
-0.995121, 289, 289, 416, 320
-0.995138, 129, 57, 256, 120
-0.995148, 241, 1, 368, 64
-0.995151, 469, 81, 500, 208
-0.995153, 425, 297, 456, 360
-0.995159, 209, 169, 224, 232
-0.995166, 225, 277, 352, 308
-0.995203, 65, 217, 192, 280
-0.995224, 287, 273, 302, 336
-0.995274, 285, 297, 300, 360
-0.995275, 101, 193, 132, 320
-0.995284, 383, 225, 398, 288
-0.995292, 185, 193, 216, 256
-0.995305, 289, 233, 416, 264
-0.995325, 333, 129, 364, 192
-0.995344, 181, 25, 212, 88
-0.995351, 203, 185, 218, 248
-0.995354, 333, 313, 364, 375
-0.995358, 209, 173, 336, 204
-0.995379, 305, 105, 432, 136
-0.995382, 97, 257, 352, 320
-0.995405, 209, 161, 336, 192
-0.995426, 289, 137, 416, 168
-0.995458, 81, 177, 208, 208
-0.995488, 321, 241, 384, 368
-0.995514, 289, 245, 416, 276
-0.995534, 289, 169, 416, 200
-0.995538, 17, 105, 144, 136
-0.995545, 481, 177, 496, 240
-0.995547, 185, 193, 216, 320
-0.995609, 33, 49, 64, 176
-0.99561, 369, 277, 496, 308
-0.995618, 389, 225, 404, 288
-0.995638, 289, 181, 416, 212
-0.99566, 129, 305, 384, 368
-0.995669, 275, 281, 290, 344
-0.995673, 225, 301, 352, 332
-0.995703, 17, 137, 144, 168
-0.995719, 209, 65, 336, 128
-0.995722, 197, 185, 212, 248
-0.995741, 65, 241, 192, 304
-0.995775, 209, 193, 336, 224
-0.995786, 33, 225, 64, 352
-0.995809, 369, 297, 496, 328
-0.995814, 225, 241, 352, 272
-0.995827, 289, 193, 416, 224
-0.995834, 225, 305, 480, 368
-0.995835, 169, 193, 200, 320
-0.995847, 159, 177, 174, 240
-0.995851, 1, 193, 256, 256
-0.995867, 233, 145, 264, 272
-0.995923, 17, 121, 144, 152
-0.995952, 225, 209, 352, 240
-0.995965, 225, 109, 352, 140
-0.995968, 81, 157, 208, 188
-0.995984, 221, 185, 236, 248
-0.995995, 225, 253, 352, 284
-0.995995, 269, 289, 284, 352
-0.996001, 305, 217, 320, 280
-0.996031, 315, 297, 330, 360
-0.996034, 1, 249, 500, 312
-0.996041, 485, 209, 500, 272
-0.996044, 469, 145, 500, 272
-0.996046, 193, 73, 448, 136
-0.996068, 225, 149, 352, 180
-0.996085, 201, 241, 264, 368
-0.996102, 293, 209, 308, 272
-0.99611, 321, 289, 336, 352
-0.996114, 279, 313, 294, 375
-0.996114, 81, 101, 208, 132
-0.996123, 225, 137, 352, 168
-0.996152, 89, 145, 120, 272
-0.996153, 97, 117, 224, 148
-0.99616, 225, 225, 352, 256
-0.99618, 193, 145, 208, 208
-0.996217, 1, 153, 500, 216
-0.996225, 293, 289, 308, 352
-0.996259, 145, 205, 272, 236
-0.996266, 125, 193, 140, 256
-0.996271, 351, 73, 366, 136
-0.996283, 485, 241, 500, 304
-0.996299, 69, 49, 100, 176
-0.996299, 357, 73, 372, 136
-0.996307, 369, 109, 496, 140
-0.996321, 369, 261, 496, 292
-0.996336, 1, 157, 128, 188
-0.996344, 283, 249, 298, 312
-0.996344, 1, 209, 500, 272
-0.996349, 1, 289, 500, 352
-0.996356, 475, 169, 490, 232
-0.996369, 225, 125, 352, 156
-0.996397, 191, 169, 206, 232
-0.996412, 409, 97, 472, 352
-0.996428, 369, 201, 496, 232
-0.996429, 113, 169, 128, 232
-0.99645, 289, 261, 416, 292
-0.996464, 97, 129, 224, 160
-0.996467, 33, 189, 160, 220
-0.996489, 409, 49, 440, 176
-0.996502, 435, 273, 450, 336
-0.996504, 313, 265, 328, 328
-0.996508, 7, 161, 22, 224
-0.996551, 237, 225, 268, 352
-0.996581, 369, 233, 496, 264
-0.996583, 341, 113, 372, 240
-0.996584, 303, 289, 318, 352
-0.996588, 327, 297, 342, 360
-0.996621, 33, 25, 288, 88
-0.996625, 299, 193, 314, 256
-0.996655, 177, 281, 304, 312
-0.996656, 161, 157, 288, 188
-0.996662, 369, 245, 496, 276
-0.996663, 427, 265, 442, 328
-0.996679, 383, 201, 398, 264
-0.99672, 389, 193, 404, 256
-0.996733, 225, 161, 288, 288
-0.996736, 289, 41, 416, 72
-0.996745, 483, 265, 498, 328
-0.996767, 33, 173, 160, 204
-0.996771, 165, 169, 180, 232
-0.996782, 353, 213, 480, 244
-0.996791, 335, 289, 350, 352
-0.996793, 45, 49, 76, 176
-0.996796, 369, 189, 496, 220
-0.996803, 341, 225, 372, 352
-0.996808, 289, 281, 304, 312
-0.996822, 387, 105, 402, 168
-0.996832, 369, 149, 496, 180
-0.996833, 309, 289, 324, 352
-0.996833, 187, 145, 202, 208
-0.996837, 129, 101, 256, 132
-0.99684, 129, 17, 384, 80
-0.996845, 369, 137, 496, 168
-0.996875, 189, 121, 204, 184
-0.996878, 145, 145, 272, 176
-0.996895, 151, 145, 166, 208
-0.996897, 363, 97, 378, 160
-0.996923, 369, 289, 384, 352
-0.99694, 65, 205, 192, 236
-0.996959, 369, 177, 496, 208
-0.996967, 475, 193, 490, 256
-0.996973, 257, 325, 384, 356
-0.996973, 395, 233, 410, 296
-0.996982, 125, 169, 140, 232
-0.996985, 297, 273, 312, 304
-0.996998, 369, 121, 496, 152
-0.997009, 289, 301, 416, 332
-0.997011, 227, 185, 242, 248
-0.997028, 1, 153, 16, 216
-0.997031, 315, 105, 330, 168
-0.997039, 33, 289, 288, 352
-0.99704, 151, 169, 166, 232
-0.997047, 161, 233, 416, 296
-0.99705, 341, 289, 356, 352
-0.99705, 321, 313, 336, 375
-0.997052, 375, 273, 390, 336
-0.997054, 193, 97, 208, 160
-0.997056, 1, 105, 500, 168
-0.997073, 369, 165, 496, 196
-0.997075, 97, 81, 352, 144
-0.997076, 125, 193, 140, 224
-0.997076, 377, 209, 392, 272
-0.997082, 289, 29, 416, 60
-0.99709, 363, 289, 378, 352
-0.997095, 383, 249, 398, 312
-0.997112, 177, 301, 304, 332
-0.997113, 261, 49, 292, 176
-0.99713, 225, 161, 240, 224
-0.997138, 441, 281, 456, 344
-0.997147, 283, 285, 298, 316
-0.997157, 97, 141, 224, 172
-0.99716, 209, 265, 336, 296
-0.997174, 103, 97, 118, 160
-0.997174, 155, 97, 170, 160
-0.997184, 305, 193, 320, 256
-0.997191, 145, 117, 272, 148
-0.997197, 349, 97, 364, 160
-0.997206, 305, 253, 320, 284
-0.997213, 181, 105, 196, 168
-0.997213, 357, 97, 372, 160
-0.99722, 453, 281, 468, 344
-0.997242, 19, 177, 34, 240
-0.997252, 369, 265, 384, 328
-0.997253, 461, 265, 476, 328
-0.997262, 357, 289, 372, 352
-0.997288, 313, 65, 344, 320
-0.997299, 225, 97, 352, 128
-0.997309, 357, 49, 372, 112
-0.997315, 289, 313, 416, 344
-0.997321, 261, 297, 276, 360
-0.997322, 339, 105, 354, 168
-0.997323, 359, 209, 374, 240
-0.997327, 215, 161, 230, 224
-0.997335, 405, 281, 420, 344
-0.997345, 215, 185, 230, 248
-0.997355, 481, 189, 496, 220
-0.997358, 477, 265, 492, 328
-0.99738, 113, 97, 128, 160
-0.997386, 257, 25, 500, 88
-0.997395, 197, 97, 228, 352
-0.997401, 187, 89, 202, 152
-0.997403, 347, 289, 362, 352
-0.997414, 447, 281, 462, 344
-0.997416, 133, 169, 148, 232
-0.997431, 359, 201, 374, 264
-0.99746, 119, 193, 134, 256
-0.997463, 13, 169, 28, 232
-0.997469, 313, 129, 328, 192
-0.997483, 199, 137, 214, 200
-0.997484, 305, 277, 320, 308
-0.997486, 17, 201, 144, 232
-0.99751, 375, 185, 390, 248
-0.997514, 373, 105, 388, 168
-0.997535, 225, 1, 480, 64
-0.997539, 303, 289, 318, 320
-0.997539, 277, 249, 292, 312
-0.997543, 113, 97, 144, 352
-0.997544, 469, 169, 484, 232
-0.997556, 29, 97, 44, 160
-0.997559, 333, 105, 348, 168
-0.997568, 9, 225, 40, 352
-0.997568, 159, 185, 174, 216
-0.997577, 395, 209, 410, 272
-0.997586, 163, 145, 178, 208
-0.997589, 1, 177, 500, 240
-0.997591, 19, 97, 34, 160
-0.997597, 145, 133, 272, 164
-0.997604, 219, 189, 234, 220
-0.997605, 373, 65, 404, 320
-0.997605, 235, 97, 250, 160
-0.997611, 359, 177, 374, 240
-0.997614, 1, 289, 128, 320
-0.997629, 327, 105, 342, 168
-0.997637, 385, 229, 400, 260
-0.997645, 145, 97, 160, 160
-0.997651, 387, 273, 402, 336
-0.99766, 321, 105, 336, 168
-0.997669, 397, 265, 412, 328
-0.99767, 209, 145, 224, 208
-0.99767, 485, 245, 500, 276
-0.997673, 389, 249, 404, 312
-0.997687, 291, 293, 306, 324
-0.997691, 225, 313, 352, 344
-0.997693, 377, 261, 392, 292
-0.997697, 303, 229, 318, 260
-0.997698, 285, 297, 300, 328
-0.997706, 379, 105, 394, 168
-0.997708, 427, 273, 442, 304
-0.997712, 299, 261, 314, 292
-0.997712, 15, 25, 30, 88
-0.997713, 271, 289, 286, 320
-0.997721, 477, 289, 492, 352
-0.997728, 293, 129, 324, 375
-0.99773, 297, 221, 312, 252
-0.997733, 209, 193, 224, 256
-0.997734, 69, 25, 84, 88
-0.997735, 421, 49, 452, 176
-0.997737, 293, 261, 308, 292
-0.997739, 369, 177, 384, 240
-0.997752, 37, 89, 52, 152
-0.997757, 209, 1, 240, 256
-0.997766, 145, 169, 160, 232
-0.997767, 369, 33, 496, 64
-0.997772, 133, 97, 164, 352
-0.997773, 281, 329, 296, 360
-0.997773, 293, 185, 308, 248
-0.997787, 177, 97, 208, 352
-0.997787, 369, 97, 496, 128
-0.997799, 133, 193, 148, 256
-0.9978, 477, 97, 492, 160
-0.997824, 287, 269, 302, 300
-0.997825, 221, 193, 252, 320
-0.997838, 49, 297, 176, 328
-0.99784, 197, 189, 212, 220
-0.997842, 297, 245, 312, 276
-0.997852, 383, 209, 398, 240
-0.997859, 177, 101, 304, 132
-0.997862, 297, 285, 312, 316
-0.997865, 305, 241, 320, 272
-0.9979, 279, 301, 294, 332
-0.997909, 199, 169, 214, 200
-0.997923, 133, 1, 164, 256
-0.997927, 33, 1, 288, 64
-0.997928, 225, 189, 240, 220
-0.997938, 277, 289, 292, 320
-0.997947, 153, 97, 184, 352
-0.997963, 307, 265, 322, 296
-0.997966, 377, 249, 392, 280
-0.997968, 281, 317, 296, 348
-0.997977, 289, 93, 416, 124
-0.997982, 311, 289, 326, 320
-0.997989, 207, 189, 222, 220
-0.99799, 129, 217, 256, 280
-0.998013, 241, 41, 368, 72
-0.998016, 323, 321, 338, 352
-0.998031, 197, 1, 228, 256
-0.998035, 209, 97, 240, 352
-0.998047, 241, 29, 368, 60
-0.998065, 391, 229, 406, 260
-0.998068, 293, 1, 324, 256
-0.998071, 329, 289, 344, 320
-0.998081, 377, 217, 392, 248
-0.998088, 281, 341, 296, 372
-0.998098, 1, 265, 256, 328
-0.998135, 475, 189, 490, 220
-0.998136, 193, 49, 448, 112
-0.998144, 321, 289, 336, 320
-0.998148, 5, 165, 20, 196
-0.998152, 337, 45, 464, 76
-0.998175, 33, 33, 160, 64
-0.998181, 17, 237, 144, 268
-0.998205, 385, 97, 416, 352
-0.998206, 193, 33, 320, 64
-0.99821, 155, 197, 170, 228
-0.998218, 291, 209, 306, 240
-0.998222, 65, 233, 320, 296
-0.998225, 93, 97, 124, 352
-0.998229, 1, 93, 128, 124
-0.998229, 113, 185, 128, 216
-0.998241, 335, 293, 350, 324
-0.998243, 295, 233, 310, 264
-0.998244, 371, 201, 386, 232
-0.998248, 291, 249, 306, 280
-0.998256, 435, 277, 450, 308
-0.998258, 49, 21, 176, 52
-0.99826, 337, 1, 368, 256
-0.998271, 209, 345, 336, 375
-0.998276, 211, 177, 226, 208
-0.998279, 17, 277, 144, 308
-0.998282, 425, 285, 440, 316
-0.998285, 281, 273, 296, 304
-0.998286, 457, 97, 488, 352
-0.998293, 265, 293, 280, 324
-0.998308, 303, 205, 318, 236
-0.998314, 349, 1, 380, 256
-0.998318, 303, 217, 318, 248
-0.998318, 81, 33, 208, 64
-0.99832, 193, 149, 208, 180
-0.998322, 157, 181, 188, 196
-0.998324, 345, 71, 376, 86
-0.998324, 17, 225, 144, 256
-0.998324, 145, 203, 176, 218
-0.998325, 385, 241, 400, 272
-0.998325, 309, 323, 340, 338
-0.998326, 345, 83, 376, 98
-0.998326, 293, 195, 324, 210
-0.998327, 401, 293, 432, 308
-0.998328, 309, 115, 340, 130
-0.998329, 385, 281, 416, 296
-0.998329, 293, 213, 324, 228
-0.99833, 289, 333, 304, 364
-0.998331, 345, 63, 376, 78
-0.998332, 373, 287, 404, 302
-0.998333, 131, 197, 146, 228
-0.998333, 151, 185, 166, 216
-0.998335, 297, 331, 328, 346
-0.998335, 165, 181, 180, 212
-0.998335, 257, 301, 272, 332
-0.998336, 377, 45, 408, 60
-0.998336, 269, 329, 300, 344
-0.998337, 129, 297, 256, 328
-0.998337, 373, 231, 404, 246
-0.998338, 109, 181, 140, 196
-0.998338, 345, 89, 376, 104
-0.998339, 477, 177, 492, 208
-0.998339, 273, 275, 304, 290
-0.99834, 297, 297, 328, 312
-0.99834, 345, 77, 376, 92
-0.998341, 277, 241, 308, 256
-0.998342, 365, 225, 396, 240
-0.998342, 1, 1, 500, 64
-0.998342, 425, 289, 456, 304
-0.998343, 461, 193, 492, 208
-0.998343, 125, 207, 156, 222
-0.998343, 305, 269, 336, 284
-0.998343, 373, 269, 404, 284
-0.998344, 349, 221, 380, 236
-0.998344, 269, 315, 300, 330
-0.998344, 461, 203, 492, 218
-0.998345, 369, 213, 400, 228
-0.998347, 33, 313, 288, 375
-0.998347, 325, 291, 356, 306
-0.998347, 389, 289, 420, 304
-0.998347, 201, 159, 232, 174
-0.998347, 433, 283, 464, 298
-0.998349, 145, 159, 176, 174
-0.998349, 177, 241, 304, 272
-0.998349, 257, 307, 288, 322
-0.998351, 109, 187, 140, 202
-0.998356, 461, 279, 492, 294
-0.998356, 309, 121, 340, 136
-0.998356, 221, 189, 252, 204
-0.998356, 313, 45, 344, 60
-0.998356, 361, 253, 392, 268
-0.998357, 373, 281, 404, 296
-0.998357, 137, 187, 168, 202
-0.998358, 345, 97, 376, 112
-0.99836, 1, 25, 500, 88
-0.99836, 441, 303, 472, 318
-0.99836, 377, 225, 408, 240
-0.99836, 345, 317, 376, 332
-0.998362, 269, 283, 300, 298
-0.998363, 129, 21, 256, 52
-0.998363, 101, 201, 132, 216
-0.998363, 145, 181, 176, 196
-0.998365, 305, 283, 336, 298
-0.998365, 161, 197, 176, 228
-0.998367, 5, 171, 36, 186
-0.998367, 189, 159, 220, 174
-0.998367, 321, 323, 352, 338
-0.998371, 293, 219, 324, 234
-0.998371, 389, 217, 404, 248
-0.998372, 1, 97, 32, 352
-0.998373, 209, 171, 240, 186
-0.998374, 5, 1, 36, 256
-0.998374, 191, 189, 206, 220
-0.998375, 389, 225, 420, 240
-0.998376, 5, 159, 36, 174
-0.998377, 345, 213, 376, 228
-0.998378, 113, 209, 144, 224
-0.998378, 177, 159, 208, 174
-0.998378, 257, 337, 384, 368
-0.998378, 385, 275, 416, 290
-0.99838, 381, 237, 412, 252
-0.99838, 365, 313, 396, 328
-0.998382, 213, 159, 244, 174
-0.998382, 9, 165, 40, 180
-0.998384, 405, 281, 436, 296
-0.998386, 265, 335, 296, 350
-0.99839, 197, 201, 228, 216
-0.99839, 293, 261, 324, 276
-0.998391, 1, 179, 32, 194
-0.998391, 183, 117, 198, 148
-0.998392, 133, 193, 164, 208
-0.998392, 285, 327, 316, 342
-0.998395, 209, 201, 224, 232
-0.998395, 453, 305, 468, 336
-0.998397, 377, 219, 408, 234
-0.998398, 293, 201, 324, 216
-0.9984, 173, 181, 204, 196
-0.998401, 293, 197, 308, 228
-0.998401, 33, 309, 160, 340
-0.998402, 133, 201, 164, 216
-0.998402, 413, 287, 444, 302
-0.998403, 273, 247, 304, 262
-0.998403, 269, 309, 300, 324
-0.998403, 17, 265, 144, 296
-0.998404, 213, 203, 244, 218
-0.998408, 281, 309, 312, 324
-0.998412, 277, 269, 308, 284
-0.998413, 441, 309, 472, 324
-0.998413, 461, 303, 492, 318
-0.998414, 123, 177, 138, 208
-0.998415, 145, 193, 176, 208
-0.998415, 149, 197, 164, 228
-0.998416, 249, 295, 280, 310
-0.998417, 177, 313, 304, 344
-0.998417, 281, 333, 312, 348
-0.998418, 193, 165, 224, 180
-0.998419, 373, 275, 404, 290
-0.998419, 17, 213, 144, 244
-0.998421, 361, 65, 392, 320
-0.998421, 289, 53, 416, 84
-0.998421, 5, 177, 20, 208
-0.998422, 209, 165, 240, 180
-0.998423, 11, 181, 26, 212
-0.998428, 229, 97, 260, 352
-0.998429, 209, 181, 240, 196
-0.998429, 165, 97, 196, 352
-0.998431, 293, 235, 324, 250
-0.998432, 313, 269, 328, 300
-0.998434, 381, 245, 412, 260
-0.998435, 365, 219, 396, 234
-0.998436, 377, 281, 392, 312
-0.998437, 291, 313, 306, 344
-0.998438, 189, 101, 204, 132
-0.998438, 337, 309, 464, 340
-0.99844, 289, 241, 320, 256
-0.99844, 257, 301, 288, 316
-0.998441, 121, 1, 152, 256
-0.998445, 313, 291, 344, 306
-0.998446, 273, 345, 304, 360
-0.998447, 205, 169, 220, 200
-0.998448, 369, 297, 384, 328
-0.998452, 485, 265, 500, 296
-0.998454, 213, 197, 244, 212
-0.998456, 293, 225, 324, 240
-0.998458, 119, 193, 134, 224
-0.998459, 465, 297, 480, 328
-0.99846, 153, 185, 216, 200
-0.998461, 359, 197, 374, 228
-0.998462, 145, 101, 160, 132
-0.998463, 213, 189, 228, 220
-0.99847, 281, 283, 312, 298
-0.998471, 297, 275, 328, 290
-0.998471, 257, 291, 320, 306
-0.998472, 193, 185, 224, 200
-0.998473, 265, 285, 328, 300
-0.998474, 277, 339, 308, 354
-0.998476, 385, 253, 400, 284
-0.998476, 197, 191, 228, 206
-0.998477, 385, 231, 416, 246
-0.998478, 293, 253, 324, 268
-0.99848, 269, 295, 300, 310
-0.998482, 193, 179, 224, 194
-0.998484, 293, 247, 324, 262
-0.998485, 169, 1, 200, 256
-0.998487, 113, 197, 144, 212
-0.998487, 373, 253, 404, 268
-0.998488, 103, 101, 118, 132
-0.998488, 185, 171, 248, 186
-0.998488, 281, 303, 312, 318
-0.998489, 181, 1, 212, 256
-0.998495, 113, 203, 144, 218
-0.998497, 357, 213, 388, 228
-0.998499, 273, 275, 336, 290
-0.998499, 269, 301, 300, 316
-0.998501, 483, 293, 498, 324
-0.998502, 351, 65, 366, 96
-0.998503, 297, 293, 360, 308
-0.998503, 445, 301, 460, 332
-0.998504, 275, 341, 290, 372
-0.998505, 197, 201, 212, 232
-0.998507, 283, 257, 298, 288
-0.998507, 331, 309, 346, 340
-0.998508, 209, 189, 240, 204
-0.998509, 177, 189, 240, 204
-0.998511, 161, 179, 224, 194
-0.998516, 357, 77, 372, 108
-0.998517, 193, 169, 208, 200
-0.998518, 379, 237, 394, 268
-0.998519, 457, 293, 472, 324
-0.998519, 193, 137, 208, 168
-0.99852, 167, 193, 182, 224
-0.998521, 477, 201, 492, 232
-0.998524, 351, 45, 366, 76
-0.998527, 285, 295, 316, 310
-0.998532, 185, 179, 248, 194
-0.998532, 301, 291, 332, 306
-0.998532, 201, 189, 264, 204
-0.998534, 17, 253, 144, 284
-0.998534, 177, 201, 240, 216
-0.998535, 321, 309, 336, 340
-0.998537, 151, 101, 166, 132
-0.998538, 257, 301, 320, 316
-0.998538, 153, 187, 184, 202
-0.99854, 393, 279, 456, 294
-0.998541, 293, 267, 324, 282
-0.998542, 313, 101, 328, 132
-0.998542, 115, 205, 130, 236
-0.99855, 417, 279, 480, 294
-0.998551, 273, 301, 288, 332
-0.998551, 371, 309, 386, 340
-0.998553, 201, 201, 264, 216
-0.998561, 425, 277, 456, 292
-0.998561, 287, 345, 302, 375
-0.998564, 399, 221, 414, 252
-0.998564, 179, 101, 194, 132
-0.998565, 89, 205, 152, 220
-0.998567, 201, 195, 264, 210
-0.998569, 193, 171, 224, 186
-0.99857, 289, 237, 304, 268
-0.998575, 241, 281, 304, 296
-0.998577, 465, 277, 480, 308
-0.998577, 247, 293, 262, 324
-0.99858, 123, 205, 138, 236
-0.998583, 233, 291, 296, 306
-0.998584, 215, 201, 230, 232
-0.998584, 293, 285, 324, 300
-0.998586, 89, 197, 152, 212
-0.99859, 275, 277, 290, 308
-0.99859, 265, 265, 328, 280
-0.998593, 413, 305, 428, 336
-0.998594, 229, 1, 260, 256
-0.998596, 469, 129, 500, 375
-0.998596, 151, 173, 166, 204
-0.998598, 235, 101, 250, 132
-0.998598, 113, 185, 176, 200
-0.998599, 273, 289, 304, 304
-0.998599, 193, 165, 256, 180
-0.998599, 265, 335, 328, 350
-0.9986, 113, 205, 176, 220
-0.998601, 281, 329, 344, 344
-0.998601, 177, 159, 240, 174
-0.998601, 353, 209, 368, 240
-0.998602, 163, 169, 178, 200
-0.998602, 359, 41, 374, 72
-0.998603, 361, 217, 424, 232
-0.998603, 153, 191, 216, 206
-0.998606, 393, 285, 456, 300
-0.998608, 361, 275, 424, 290
-0.998609, 481, 281, 496, 312
-0.998612, 201, 207, 264, 222
-0.998612, 177, 195, 240, 210
-0.998612, 285, 275, 316, 290
-0.998612, 233, 297, 296, 312
-0.998613, 249, 275, 312, 290
-0.998614, 305, 45, 368, 60
-0.998615, 265, 243, 328, 258
-0.998615, 361, 255, 424, 270
-0.998616, 249, 307, 312, 322
-0.998616, 81, 277, 208, 308
-0.998619, 249, 259, 312, 274
-0.998621, 297, 121, 360, 136
-0.998623, 393, 1, 424, 256
-0.998624, 369, 281, 432, 296
-0.998626, 209, 183, 272, 198
-0.998627, 113, 195, 176, 210
-0.998629, 281, 303, 344, 318
-0.998629, 297, 131, 360, 146
-0.998629, 361, 261, 424, 276
-0.998629, 129, 257, 256, 320
-0.998629, 433, 197, 496, 212
-0.99863, 433, 273, 496, 288
-0.998631, 345, 45, 408, 60
-0.998632, 281, 201, 344, 216
-0.998633, 265, 249, 328, 264
-0.998635, 361, 287, 424, 302
-0.998636, 153, 165, 216, 180
-0.998636, 161, 173, 224, 188
-0.998637, 177, 207, 240, 222
-0.998637, 265, 341, 328, 356
-0.998637, 393, 273, 456, 288
-0.998638, 297, 227, 360, 242
-0.99864, 345, 223, 408, 238
-0.99864, 297, 141, 360, 156
-0.99864, 345, 211, 408, 226
-0.998642, 153, 159, 216, 174
-0.998644, 121, 179, 184, 194
-0.998644, 433, 203, 496, 218
-0.998646, 289, 285, 352, 300
-0.998647, 209, 175, 272, 190
-0.998647, 393, 295, 456, 310
-0.998648, 297, 107, 360, 122
-0.998649, 177, 153, 240, 168
-0.998649, 241, 251, 304, 266
-0.998651, 1, 159, 64, 174
-0.998653, 1, 105, 64, 120
-0.998653, 433, 189, 496, 204
-0.998655, 369, 249, 432, 264
-0.998655, 433, 285, 496, 300
-0.998656, 297, 115, 360, 130
-0.998656, 297, 237, 360, 252
-0.998657, 81, 159, 144, 174
-0.998657, 265, 237, 328, 252
-0.998658, 89, 211, 152, 226
-0.99866, 425, 307, 488, 322
-0.99866, 97, 115, 160, 130
-0.998662, 201, 159, 264, 174
-0.998663, 321, 291, 384, 306
-0.998663, 369, 229, 432, 244
-0.998664, 81, 179, 144, 194
-0.998664, 89, 105, 152, 120
-0.998665, 297, 149, 360, 164
-0.998665, 265, 105, 328, 120
-0.998667, 361, 293, 424, 308
-0.998669, 105, 159, 168, 174
-0.998669, 297, 219, 360, 234
-0.99867, 241, 265, 304, 280
-0.99867, 97, 165, 160, 180
-0.99867, 297, 181, 360, 196
-0.99867, 273, 309, 336, 324
-0.998671, 257, 221, 320, 236
-0.998671, 1, 183, 64, 198
-0.998672, 297, 173, 360, 188
-0.998672, 281, 255, 344, 270
-0.998673, 289, 269, 352, 284
-0.998674, 89, 189, 152, 204
-0.998674, 241, 203, 304, 218
-0.998674, 1, 177, 64, 192
-0.998675, 137, 203, 200, 218
-0.998675, 369, 235, 432, 250
-0.998675, 369, 309, 432, 324
-0.998675, 329, 309, 392, 324
-0.998675, 345, 137, 408, 152
-0.998676, 249, 215, 312, 230
-0.998678, 1, 165, 64, 180
-0.998678, 241, 209, 304, 224
-0.998678, 257, 231, 320, 246
-0.998678, 361, 205, 424, 220
-0.998678, 369, 315, 432, 330
-0.998678, 241, 53, 368, 84
-0.998681, 201, 103, 264, 118
-0.998681, 297, 51, 360, 66
-0.998682, 369, 211, 432, 226
-0.998682, 265, 119, 328, 134
-0.998682, 345, 101, 408, 116
-0.998683, 361, 267, 424, 282
-0.998685, 65, 203, 128, 218
-0.998686, 353, 153, 416, 168
-0.998686, 297, 157, 360, 172
-0.998686, 241, 335, 304, 350
-0.998687, 137, 115, 200, 130
-0.998687, 177, 115, 240, 130
-0.998687, 369, 303, 432, 318
-0.998687, 1, 191, 64, 206
-0.998723, 337, 21, 464, 52
-0.998726, 105, 1, 136, 256
-0.998749, 153, 1, 184, 256
-0.998782, 89, 1, 120, 256
-0.998814, 145, 33, 272, 64
-0.998823, 281, 129, 312, 375
-0.99883, 21, 1, 52, 256
-0.998844, 97, 49, 352, 112
-0.998852, 13, 97, 44, 352
-0.998855, 1, 129, 500, 192
-0.998872, 381, 209, 396, 336
-0.998875, 1, 21, 128, 52
-0.998877, 177, 229, 304, 260
-0.998887, 49, 1, 176, 32
-0.998891, 325, 65, 356, 320
-0.998893, 177, 253, 304, 284
-0.998905, 291, 241, 306, 368
-0.998933, 199, 113, 214, 240
-0.998957, 97, 1, 224, 32
-0.998958, 307, 225, 322, 352
-0.998989, 241, 1, 272, 256
-0.998993, 457, 1, 488, 256
-0.998998, 301, 209, 316, 336
-0.998998, 387, 209, 402, 336
-0.99901, 191, 129, 206, 256
-0.999017, 177, 217, 304, 248
-0.999049, 289, 17, 416, 48
-0.999074, 285, 225, 300, 352
-0.999078, 203, 161, 218, 288
-0.999127, 485, 177, 500, 304
-0.999149, 375, 241, 390, 368
-0.999153, 161, 269, 288, 300
-0.99917, 177, 333, 304, 364
-0.999184, 295, 193, 310, 320
-0.9992, 475, 193, 490, 320
-0.9992, 211, 129, 226, 256
-0.999202, 1, 65, 256, 128
-0.999207, 393, 209, 408, 336
-0.999215, 337, 9, 464, 40
-0.999233, 155, 97, 170, 224
-0.999237, 197, 161, 212, 288
-0.999238, 305, 325, 432, 356
-0.999247, 335, 17, 350, 144
-0.999249, 375, 17, 390, 144
-0.99925, 241, 13, 368, 44
-0.999252, 3, 145, 18, 272
-0.999263, 65, 217, 192, 248
-0.999266, 325, 1, 340, 128
-0.999266, 367, 1, 382, 128
-0.999268, 317, 1, 332, 128
-0.999275, 485, 225, 500, 352
-0.999277, 309, 1, 324, 128
-0.999278, 129, 89, 256, 120
-0.999288, 15, 97, 30, 224
-0.99931, 207, 1, 222, 128
-0.999312, 369, 177, 384, 304
-0.999312, 129, 285, 256, 316
-0.999313, 269, 1, 300, 256
-0.999316, 349, 17, 364, 144
-0.999318, 359, 49, 374, 176
-0.999319, 377, 161, 392, 288
-0.999324, 155, 161, 170, 288
-0.999327, 337, 57, 464, 88
-0.999328, 185, 1, 200, 128
-0.999329, 81, 89, 208, 120
-0.999333, 383, 17, 398, 144
-0.999334, 189, 49, 204, 176
-0.999336, 341, 17, 356, 144
-0.999337, 389, 17, 404, 144
-0.999345, 317, 49, 332, 176
-0.999349, 229, 1, 244, 128
-0.999351, 387, 145, 402, 272
-0.999353, 279, 225, 294, 352
-0.999355, 65, 265, 192, 296
-0.999357, 303, 1, 318, 128
-0.999363, 361, 1, 376, 128
-0.999364, 1, 97, 16, 224
-0.999365, 327, 49, 342, 176
-0.999366, 163, 1, 178, 128
-0.999369, 145, 49, 160, 176
-0.999369, 201, 1, 216, 128
-0.99937, 107, 1, 122, 128
-0.99937, 369, 49, 384, 176
-0.999372, 147, 1, 162, 128
-0.999373, 315, 97, 330, 224
-0.999373, 161, 161, 176, 288
-0.999373, 179, 1, 194, 128
-0.999379, 155, 49, 170, 176
-0.999382, 213, 1, 228, 128
-0.999384, 311, 49, 326, 176
-0.999388, 399, 1, 414, 128
-0.999388, 183, 49, 198, 176
-0.999389, 7, 81, 22, 208
-0.999393, 137, 1, 152, 128
-0.999393, 1, 1, 128, 32
-0.999394, 169, 1, 184, 128
-0.999395, 73, 1, 104, 256
-0.999396, 305, 49, 320, 176
-0.999397, 253, 1, 284, 256
-0.9994, 155, 1, 170, 128
-0.999402, 177, 21, 304, 52
-0.999403, 445, 1, 476, 256
-0.999406, 103, 49, 118, 176
-0.999407, 235, 1, 250, 128
-0.999407, 307, 177, 322, 304
-0.999411, 169, 49, 184, 176
-0.999412, 221, 161, 236, 288
-0.999414, 405, 1, 420, 128
-0.999417, 149, 113, 164, 240
-0.999419, 479, 1, 494, 128
-0.99942, 197, 65, 212, 192
-0.999421, 479, 145, 494, 272
-0.999421, 177, 49, 192, 176
-0.999422, 281, 1, 312, 256
-0.999423, 433, 1, 464, 256
-0.999424, 289, 177, 304, 304
-0.999424, 471, 1, 486, 128
-0.999425, 405, 1, 436, 256
-0.999426, 257, 69, 384, 100
-0.999426, 81, 309, 208, 340
-0.999426, 235, 49, 250, 176
-0.999427, 25, 97, 56, 352
-0.999427, 313, 241, 328, 368
-0.999428, 3, 17, 18, 144
-0.999431, 485, 33, 500, 160
-0.999431, 115, 97, 130, 224
-0.999433, 223, 97, 238, 224
-0.999436, 121, 1, 136, 128
-0.999437, 185, 113, 200, 240
-0.999437, 211, 177, 226, 304
-0.999439, 195, 1, 210, 128
-0.99944, 161, 97, 176, 224
-0.999442, 369, 225, 384, 352
-0.999444, 245, 1, 260, 128
-0.999444, 125, 177, 140, 304
-0.999449, 297, 1, 312, 128
-0.99945, 127, 17, 142, 144
-0.999451, 223, 1, 238, 128
-0.999452, 205, 97, 220, 224
-0.999453, 397, 49, 412, 176
-0.999455, 383, 81, 398, 208
-0.999457, 113, 33, 128, 160
-0.999462, 281, 1, 296, 128
-0.999462, 421, 1, 436, 128
-0.999464, 45, 209, 60, 336
-0.999465, 163, 49, 178, 176
-0.999467, 349, 65, 364, 192
-0.999467, 13, 17, 28, 144
-0.999467, 367, 97, 382, 224
-0.999469, 461, 1, 476, 128
-0.999473, 443, 1, 458, 128
-0.999476, 9, 145, 24, 272
-0.999476, 207, 49, 222, 176
-0.999478, 449, 1, 464, 128
-0.999479, 137, 49, 152, 176
-0.999479, 23, 33, 38, 160
-0.99948, 191, 177, 206, 304
-0.999484, 41, 1, 72, 256
-0.999487, 401, 241, 416, 368
-0.999488, 467, 241, 482, 368
-0.999489, 75, 1, 90, 128
-0.999489, 19, 161, 34, 288
-0.999492, 275, 1, 290, 128
-0.999492, 417, 1, 448, 256
-0.999493, 479, 241, 494, 368
-0.999493, 29, 81, 44, 208
-0.999494, 429, 1, 444, 128
-0.999494, 259, 1, 274, 128
-0.999496, 303, 113, 318, 240
-0.999497, 397, 97, 428, 352
-0.999497, 355, 1, 370, 128
-0.999502, 341, 65, 356, 192
-0.999505, 93, 33, 108, 160
-0.999506, 87, 1, 102, 128
-0.999509, 375, 97, 390, 224
-0.99951, 235, 97, 250, 224
-0.99951, 413, 1, 428, 128
-0.999538, 249, 129, 280, 375
-0.999546, 359, 223, 374, 238
-0.999547, 275, 311, 290, 326
-0.999547, 289, 249, 304, 264
-0.999549, 379, 281, 394, 296
-0.999549, 319, 321, 334, 336
-0.999549, 377, 275, 392, 290
-0.99955, 291, 213, 306, 228
-0.99955, 483, 259, 498, 274
-0.999551, 151, 159, 166, 174
-0.999551, 383, 213, 398, 228
-0.999551, 399, 229, 414, 244
-0.999551, 437, 283, 452, 298
-0.999551, 355, 59, 370, 74
-0.999553, 187, 159, 202, 174
-0.999554, 463, 303, 478, 318
-0.999555, 225, 159, 240, 174
-0.999555, 371, 213, 386, 228
-0.999556, 5, 177, 20, 192
-0.999556, 299, 241, 314, 256
-0.999557, 119, 205, 134, 220
-0.999557, 477, 185, 492, 200
-0.999557, 321, 331, 336, 346
-0.999558, 477, 197, 492, 212
-0.999558, 271, 303, 286, 318
-0.999558, 207, 159, 222, 174
-0.999558, 5, 167, 20, 182
-0.999559, 299, 261, 314, 276
-0.999559, 275, 281, 290, 296
-0.999559, 5, 159, 20, 174
-0.999559, 383, 257, 398, 272
-0.99956, 17, 181, 32, 196
-0.999561, 285, 343, 300, 358
-0.999561, 381, 229, 396, 244
-0.999561, 203, 191, 218, 206
-0.999562, 193, 143, 208, 158
-0.999564, 297, 229, 312, 244
-0.999564, 377, 269, 392, 284
-0.999564, 209, 191, 224, 206
-0.999565, 475, 191, 490, 206
-0.999565, 261, 295, 276, 310
-0.999565, 151, 193, 166, 208
-0.999565, 219, 201, 234, 216
-0.999565, 289, 259, 304, 274
-0.999566, 281, 309, 296, 324
-0.999566, 11, 183, 26, 198
-0.999567, 305, 217, 320, 232
-0.999568, 193, 153, 208, 168
-0.99957, 313, 45, 328, 60
-0.99957, 133, 205, 148, 220
-0.999571, 299, 255, 314, 270
-0.999572, 319, 291, 334, 306
-0.999572, 291, 303, 306, 318
-0.999573, 289, 267, 304, 282
-0.999573, 293, 241, 308, 256
-0.999573, 481, 203, 496, 218
-0.999574, 325, 291, 340, 306
-0.999574, 293, 219, 308, 234
-0.999576, 199, 163, 214, 178
-0.999576, 193, 191, 208, 206
-0.999577, 305, 225, 320, 240
-0.999577, 261, 301, 276, 316
-0.999578, 369, 311, 384, 326
-0.999578, 281, 325, 296, 340
-0.999583, 269, 129, 300, 375
-0.999583, 331, 291, 346, 306
-0.999583, 281, 315, 296, 330
-0.999584, 383, 251, 398, 266
-0.999584, 393, 233, 408, 248
-0.999584, 313, 291, 328, 306
-0.999586, 113, 203, 128, 218
-0.999592, 289, 337, 304, 352
-0.999592, 297, 291, 312, 306
-0.999593, 425, 287, 440, 302
-0.999597, 163, 179, 178, 194
-0.999598, 303, 231, 318, 246
-0.999598, 281, 331, 296, 346
-0.999598, 447, 307, 462, 322
-0.999599, 299, 283, 314, 298
-0.999601, 377, 257, 392, 272
-0.999602, 209, 185, 224, 200
-0.999602, 151, 187, 166, 202
-0.999603, 391, 225, 406, 240
-0.999603, 301, 267, 316, 282
-0.999604, 193, 159, 208, 174
-0.999606, 297, 249, 312, 264
-0.999608, 469, 1, 500, 256
-0.999609, 305, 239, 320, 254
-0.99961, 277, 343, 292, 358
-0.999611, 269, 297, 284, 312
-0.999612, 159, 191, 174, 206
-0.999612, 203, 169, 218, 184
-0.999615, 381, 219, 396, 234
-0.999618, 309, 275, 324, 290
-0.999618, 305, 251, 320, 266
-0.999619, 433, 277, 448, 292
-0.999621, 225, 189, 240, 204
-0.999626, 453, 307, 468, 322
-0.999626, 293, 279, 308, 294
-0.999628, 325, 323, 340, 338
-0.999628, 271, 291, 286, 306
-0.99963, 485, 247, 500, 262
-0.999633, 305, 257, 320, 272
-0.999642, 295, 267, 310, 282
-0.999644, 125, 201, 140, 216
-0.999644, 481, 191, 496, 206
-0.999644, 427, 277, 442, 292
-0.999645, 219, 189, 234, 204
-0.999645, 283, 297, 298, 312
-0.999645, 283, 273, 298, 288
-0.999645, 281, 281, 296, 296
-0.999646, 299, 223, 314, 238
-0.999647, 197, 169, 212, 184
-0.999649, 281, 303, 296, 318
-0.999652, 165, 185, 180, 200
-0.999652, 303, 291, 318, 306
-0.999655, 305, 285, 320, 300
-0.999662, 293, 297, 308, 312
-0.99967, 305, 245, 320, 260
-0.999671, 387, 231, 402, 246
-0.999675, 307, 267, 322, 282
-0.999678, 281, 337, 296, 352
-0.999686, 359, 213, 374, 228
-0.999692, 279, 287, 294, 302
-0.999695, 377, 251, 392, 266
-0.999699, 285, 287, 300, 302
-0.999711, 125, 195, 140, 210
-0.999711, 291, 291, 306, 306
-0.999711, 159, 185, 174, 200
-0.999716, 341, 97, 372, 352
-0.999722, 289, 273, 304, 288
-0.999751, 293, 285, 308, 300
-0.999759, 287, 281, 302, 296
-0.9998, 299, 275, 314, 290
-0.999826, 445, 97, 476, 352
-0.999842, 1, 81, 500, 144
-0.999898, 53, 1, 84, 256
-0.999967, 409, 129, 440, 375
-1.00002, 1, 57, 500, 120
-1.00008, 41, 129, 72, 375
-1.00025, 81, 97, 112, 352
-1.00027, 433, 129, 464, 375
-1.00031, 69, 129, 100, 375
-1.00032, 145, 209, 208, 336
-1.00032, 53, 129, 84, 375
-1.0005, 421, 129, 452, 375
-1.00062, 1, 313, 500, 375
-1.00147, 113, 241, 176, 368
-1.00254, 177, 241, 240, 368
