1950
-0.402558, 1, 97, 500, 349
-0.451695, 1, 1, 500, 256
-0.452606, 1, 1, 500, 349
-0.4958, 257, 1, 500, 349
-0.525516, 129, 1, 384, 349
-0.613285, 1, 1, 256, 349
-0.6509, 97, 97, 352, 349
-0.656602, 257, 97, 500, 349
-0.707523, 1, 33, 256, 288
-0.737756, 257, 1, 500, 256
-0.751111, 97, 1, 352, 256
-0.868128, 1, 1, 128, 349
-0.874328, 305, 97, 432, 349
-0.876075, 1, 1, 128, 256
-0.880433, 257, 97, 384, 349
-0.880438, 1, 161, 500, 288
-0.884002, 49, 97, 176, 349
-0.884018, 273, 1, 400, 349
-0.88409, 113, 97, 240, 349
-0.884184, 49, 1, 176, 349
-0.885581, 321, 1, 448, 256
-0.887184, 225, 1, 352, 349
-0.888601, 321, 1, 448, 349
-0.889679, 49, 1, 176, 256
-0.895061, 209, 65, 336, 320
-0.896207, 1, 97, 128, 349
-0.899362, 369, 1, 496, 349
-0.901207, 161, 1, 288, 349
-0.904156, 369, 1, 496, 256
-0.906, 161, 97, 288, 349
-0.907293, 1, 113, 500, 240
-0.907514, 1, 1, 500, 128
-0.911969, 273, 1, 400, 256
-0.917175, 161, 145, 416, 272
-0.919812, 97, 1, 224, 256
-0.920093, 65, 129, 320, 256
-0.921538, 1, 209, 500, 336
-0.92248, 161, 1, 288, 256
-0.922813, 97, 1, 224, 349
-0.924302, 289, 129, 416, 256
-0.926115, 369, 97, 496, 349
-0.928132, 161, 81, 416, 208
-0.934721, 257, 129, 500, 256
-0.934721, 65, 177, 320, 304
-0.934785, 65, 1, 320, 128
-0.939866, 145, 145, 272, 272
-0.942135, 81, 161, 208, 288
-0.942269, 257, 177, 500, 304
-0.943199, 305, 129, 368, 256
-0.943565, 1, 65, 500, 192
-0.944187, 257, 177, 384, 304
-0.944436, 65, 225, 320, 349
-0.945054, 129, 161, 192, 288
-0.94531, 329, 145, 392, 272
-0.945665, 241, 129, 368, 256
-0.948049, 345, 177, 408, 240
-0.948165, 193, 1, 448, 128
-0.949667, 337, 161, 464, 288
-0.949823, 1, 81, 256, 208
-0.95009, 105, 161, 168, 288
-0.950197, 161, 1, 288, 128
-0.951645, 209, 81, 336, 208
-0.951694, 81, 209, 208, 336
-0.951904, 161, 193, 416, 320
-0.952322, 353, 145, 416, 272
-0.952564, 33, 145, 160, 272
-0.953524, 201, 145, 264, 272
-0.953944, 337, 153, 400, 216
-0.954825, 273, 177, 336, 304
-0.954833, 129, 113, 192, 240
-0.954835, 193, 129, 320, 256
-0.95497, 305, 137, 368, 200
-0.954992, 289, 81, 416, 208
-0.955956, 81, 113, 208, 240
-0.956123, 161, 161, 224, 288
-0.9565, 1, 1, 128, 128
-0.956908, 89, 169, 152, 232
-0.957927, 81, 1, 208, 128
-0.958746, 257, 169, 320, 232
-0.958819, 65, 169, 128, 232
-0.958987, 185, 1, 248, 128
-0.959365, 89, 209, 152, 336
-0.959768, 369, 169, 432, 232
-0.960451, 337, 97, 464, 224
-0.960692, 33, 193, 160, 320
-0.960706, 17, 1, 80, 128
-0.960767, 113, 209, 176, 336
-0.960773, 257, 81, 500, 208
-0.960824, 401, 169, 464, 232
-0.961046, 129, 81, 256, 208
-0.961223, 361, 145, 424, 208
-0.961549, 329, 97, 392, 224
-0.961959, 81, 161, 144, 288
-0.962069, 97, 209, 160, 272
-0.962164, 297, 177, 360, 304
-0.962209, 297, 177, 360, 240
-0.962334, 209, 193, 336, 320
-0.96253, 73, 145, 136, 208
-0.962701, 41, 1, 104, 64
-0.962817, 337, 193, 400, 320
-0.963174, 161, 209, 224, 336
-0.963403, 105, 113, 168, 240
-0.963411, 305, 1, 432, 128
-0.963447, 281, 97, 344, 224
-0.963664, 353, 97, 416, 224
-0.963783, 233, 193, 296, 320
-0.964094, 145, 209, 272, 336
-0.964255, 257, 145, 320, 208
-0.964322, 257, 129, 320, 256
-0.964351, 57, 193, 120, 256
-0.964512, 113, 177, 176, 240
-0.964894, 377, 177, 440, 304
-0.965605, 305, 81, 368, 208
-0.965864, 137, 1, 200, 128
-0.965946, 177, 113, 240, 240
-0.966081, 401, 161, 464, 288
-0.966268, 153, 81, 216, 208
-0.966488, 289, 145, 416, 208
-0.966774, 25, 129, 88, 256
-0.966873, 369, 209, 496, 336
-0.966979, 217, 137, 280, 200
-0.967086, 257, 225, 500, 349
-0.967101, 385, 145, 448, 208
-0.967171, 33, 177, 96, 240
-0.96735, 321, 177, 384, 240
-0.967392, 161, 1, 224, 128
-0.967488, 433, 177, 496, 304
-0.967665, 233, 129, 296, 256
-0.967668, 153, 153, 216, 216
-0.968488, 305, 1, 368, 128
-0.968501, 289, 225, 416, 349
-0.968525, 137, 177, 200, 240
-0.968654, 393, 193, 456, 256
-0.968806, 33, 97, 160, 224
-0.968926, 257, 121, 320, 184
-0.969177, 1, 161, 64, 288
-0.96929, 97, 145, 160, 208
-0.969341, 373, 177, 404, 240
-0.969355, 369, 1, 496, 128
-0.96991, 353, 1, 416, 64
-0.969927, 305, 97, 368, 349
-0.970329, 233, 81, 296, 208
-0.970432, 369, 193, 432, 256
-0.970635, 289, 169, 416, 232
-0.970828, 361, 153, 392, 216
-0.970877, 129, 201, 192, 264
-0.97097, 17, 1, 80, 64
-0.971066, 209, 1, 272, 128
-0.971321, 97, 177, 224, 240
-0.971421, 129, 153, 192, 216
-0.971462, 417, 193, 480, 256
-0.971539, 257, 1, 384, 128
-0.971545, 225, 1, 288, 64
-0.971671, 177, 145, 240, 208
-0.971996, 49, 145, 112, 208
-0.972092, 425, 161, 488, 224
-0.972105, 209, 161, 272, 224
-0.972319, 137, 209, 200, 336
-0.972484, 113, 1, 176, 128
-0.972559, 281, 145, 344, 208
-0.97297, 417, 129, 480, 192
-0.973124, 185, 193, 248, 320
-0.973259, 65, 209, 128, 336
-0.97332, 377, 129, 440, 256
-0.973423, 337, 161, 464, 224
-0.973434, 345, 1, 408, 128
-0.973508, 345, 201, 408, 264
-0.973754, 33, 1, 96, 256
-0.974071, 345, 129, 376, 256
-0.974148, 161, 177, 224, 240
-0.974157, 65, 1, 128, 256
-0.974291, 361, 145, 392, 272
-0.974325, 281, 49, 344, 176
-0.974466, 1, 145, 64, 208
-0.974546, 209, 1, 336, 128
-0.97468, 233, 161, 296, 224
-0.974716, 185, 113, 248, 176
-0.974743, 337, 49, 400, 176
-0.974747, 349, 169, 380, 232
-0.974817, 49, 129, 112, 256
-0.975082, 385, 25, 448, 88
-0.975176, 133, 161, 164, 288
-0.975239, 209, 225, 272, 349
-0.975342, 337, 49, 464, 176
-0.975444, 377, 1, 440, 64
-0.975573, 49, 169, 176, 232
-0.975583, 265, 1, 328, 64
-0.975975, 209, 137, 336, 200
-0.9762, 337, 185, 464, 248
-0.976339, 273, 97, 336, 349
-0.976343, 361, 25, 424, 88
-0.976397, 49, 49, 176, 176
-0.976519, 33, 121, 96, 184
-0.976566, 145, 153, 272, 216
-0.976646, 41, 1, 104, 128
-0.976912, 225, 113, 288, 176
-0.976988, 49, 201, 176, 264
-0.977071, 1, 1, 128, 64
-0.977144, 369, 137, 496, 200
-0.977236, 257, 81, 320, 208
-0.977252, 57, 97, 120, 349
-0.977391, 117, 209, 148, 272
-0.977497, 193, 185, 256, 248
-0.977511, 9, 169, 72, 232
-0.977616, 1, 209, 64, 336
-0.977621, 117, 177, 148, 240
-0.977661, 241, 201, 304, 264
-0.977808, 25, 193, 88, 320
-0.977836, 281, 97, 344, 160
-0.977854, 373, 153, 404, 216
-0.977873, 417, 1, 480, 128
-0.977965, 241, 161, 368, 224
-0.978043, 281, 33, 344, 96
-0.978158, 49, 289, 112, 349
-0.978163, 369, 121, 432, 184
-0.978174, 145, 89, 208, 152
-0.9784, 73, 1, 136, 128
-0.978412, 209, 97, 272, 224
-0.978433, 73, 113, 136, 240
-0.978436, 321, 1, 384, 64
-0.978507, 9, 193, 72, 256
-0.978514, 9, 265, 72, 328
-0.978582, 1, 33, 64, 96
-0.978704, 1, 113, 64, 240
-0.978726, 305, 113, 368, 176
-0.978757, 113, 161, 144, 288
-0.978775, 45, 1, 76, 64
-0.978851, 113, 201, 240, 264
-0.978863, 385, 153, 416, 216
-0.978903, 65, 1, 128, 64
-0.97907, 433, 129, 496, 256
-0.979085, 129, 9, 192, 72
-0.979145, 349, 145, 380, 208
-0.979153, 385, 97, 448, 160
-0.979257, 353, 1, 416, 256
-0.979317, 329, 25, 392, 88
-0.979367, 241, 257, 304, 320
-0.979413, 289, 193, 416, 256
-0.979417, 297, 265, 360, 328
-0.97942, 265, 209, 328, 272
-0.979427, 401, 209, 464, 336
-0.979463, 249, 73, 312, 136
-0.979471, 377, 1, 440, 128
-0.979509, 301, 129, 332, 256
-0.979582, 105, 97, 168, 349
-0.979625, 89, 1, 152, 256
-0.97967, 321, 129, 352, 256
-0.97977, 257, 225, 320, 349
-0.979827, 301, 161, 332, 224
-0.979871, 241, 25, 304, 88
-0.979908, 1, 145, 128, 208
-0.979942, 281, 233, 344, 296
-0.980049, 393, 185, 424, 248
-0.980116, 61, 185, 92, 248
-0.980122, 329, 97, 392, 349
-0.980177, 97, 169, 128, 232
-0.980242, 89, 17, 152, 80
-0.980292, 73, 217, 136, 280
-0.980351, 81, 137, 208, 200
-0.980381, 33, 209, 96, 272
-0.980471, 153, 209, 216, 272
-0.980474, 41, 25, 104, 88
-0.980517, 401, 1, 464, 64
-0.980527, 409, 25, 472, 88
-0.980578, 393, 121, 456, 184
-0.980621, 289, 169, 320, 232
-0.980638, 141, 177, 172, 240
-0.980681, 361, 177, 392, 240
-0.980701, 345, 121, 408, 184
-0.980751, 1, 177, 128, 240
-0.980763, 297, 225, 360, 349
-0.980791, 101, 145, 132, 208
-0.980843, 193, 161, 320, 224
-0.980965, 209, 113, 336, 176
-0.981017, 1, 201, 128, 264
-0.981038, 361, 97, 392, 224
-0.98104, 73, 185, 104, 248
-0.981055, 433, 49, 496, 176
-0.981201, 333, 113, 364, 240
-0.981302, 201, 225, 264, 288
-0.981339, 209, 161, 240, 224
-0.981349, 153, 9, 216, 72
-0.981375, 25, 145, 88, 208
-0.981531, 257, 49, 320, 112
-0.98155, 373, 161, 404, 288
-0.981559, 369, 217, 432, 280
-0.981642, 25, 289, 88, 349
-0.981738, 97, 49, 160, 112
-0.98183, 417, 1, 480, 256
-0.981843, 289, 121, 416, 184
-0.981973, 121, 225, 184, 288
-0.981992, 433, 17, 496, 80
-0.982045, 201, 273, 264, 336
-0.982106, 309, 137, 340, 200
-0.982108, 145, 161, 176, 288
-0.982159, 185, 9, 248, 72
-0.982169, 433, 185, 464, 248
-0.98221, 97, 201, 128, 264
-0.982248, 321, 201, 384, 264
-0.982264, 77, 161, 108, 224
-0.982267, 321, 249, 384, 312
-0.982388, 105, 89, 168, 152
-0.982412, 217, 185, 280, 248
-0.982422, 361, 225, 424, 349
-0.982457, 161, 129, 288, 192
-0.98252, 433, 81, 496, 144
-0.982548, 433, 257, 496, 320
-0.982554, 177, 97, 240, 349
-0.982555, 65, 49, 128, 112
-0.982573, 181, 145, 212, 272
-0.982581, 137, 129, 200, 192
-0.982588, 41, 265, 104, 328
-0.982714, 57, 121, 120, 184
-0.982795, 161, 121, 224, 184
-0.982834, 305, 185, 336, 248
-0.982839, 57, 1, 88, 64
-0.982851, 101, 129, 132, 256
-0.982857, 1, 33, 128, 96
-0.982934, 129, 49, 192, 112
-0.982966, 329, 57, 392, 120
-0.982976, 193, 1, 320, 64
-0.98303, 33, 233, 96, 296
-0.983045, 185, 153, 216, 216
-0.983079, 89, 121, 152, 184
-0.983096, 337, 1, 464, 64
-0.983134, 129, 177, 160, 240
-0.983186, 145, 177, 272, 240
-0.983195, 329, 1, 392, 256
-0.983211, 181, 1, 212, 128
-0.983216, 153, 49, 216, 112
-0.98324, 345, 177, 376, 304
-0.983313, 137, 113, 168, 240
-0.983328, 113, 113, 240, 176
-0.983334, 241, 281, 304, 344
-0.983369, 121, 209, 152, 336
-0.983411, 161, 161, 192, 288
-0.983427, 1, 49, 128, 176
-0.983434, 393, 1, 456, 256
-0.983475, 337, 113, 464, 176
-0.983507, 321, 25, 448, 88
-0.983547, 261, 169, 292, 232
-0.983656, 129, 201, 160, 264
-0.983692, 121, 153, 152, 216
-0.983695, 289, 177, 320, 304
-0.983697, 201, 129, 232, 256
-0.983713, 257, 97, 320, 160
-0.983726, 169, 73, 232, 136
-0.983748, 369, 241, 432, 304
-0.983763, 281, 121, 344, 184
-0.983856, 9, 121, 72, 184
-0.983877, 305, 33, 368, 96
-0.983909, 265, 193, 296, 320
-0.983966, 417, 169, 448, 232
-0.984044, 281, 73, 344, 136
-0.984052, 169, 1, 200, 128
-0.984081, 329, 97, 392, 160
-0.984086, 209, 185, 336, 248
-0.984111, 289, 1, 416, 64
-0.984119, 65, 265, 128, 328
-0.984125, 81, 9, 208, 72
-0.984137, 265, 281, 328, 344
-0.984146, 425, 129, 456, 192
-0.984162, 129, 289, 192, 349
-0.984177, 321, 225, 384, 288
-0.984244, 125, 113, 156, 240
-0.984252, 145, 97, 208, 349
-0.984259, 337, 137, 368, 200
-0.984301, 409, 217, 472, 280
-0.984301, 161, 153, 192, 216
-0.984305, 361, 73, 424, 136
-0.984309, 257, 49, 384, 112
-0.984415, 161, 73, 288, 136
-0.984437, 49, 49, 112, 176
-0.984563, 233, 1, 296, 128
-0.984588, 113, 121, 176, 184
-0.984604, 177, 289, 240, 349
-0.984623, 177, 217, 240, 280
-0.984656, 85, 201, 116, 264
-0.984672, 121, 249, 184, 312
-0.984689, 69, 1, 100, 64
-0.984746, 213, 113, 244, 240
-0.984762, 305, 57, 368, 120
-0.984783, 289, 9, 352, 72
-0.984792, 409, 1, 472, 349
-0.984811, 149, 153, 180, 216
-0.984813, 269, 129, 300, 256
-0.984813, 1, 289, 64, 349
-0.984838, 337, 169, 368, 232
-0.984863, 161, 217, 288, 280
-0.984871, 369, 25, 496, 88
-0.984912, 201, 65, 264, 320
-0.984928, 317, 177, 348, 304
-0.984948, 373, 1, 404, 64
-0.984993, 249, 161, 280, 224
-0.984998, 33, 1, 64, 64
-0.985014, 41, 185, 72, 248
-0.985015, 33, 1, 96, 349
-0.985016, 225, 137, 256, 200
-0.985056, 345, 81, 376, 208
-0.985065, 61, 161, 92, 224
-0.985149, 337, 233, 464, 296
-0.985199, 165, 177, 196, 240
-0.985208, 1, 121, 128, 184
-0.985303, 281, 1, 344, 128
-0.985404, 209, 265, 336, 328
-0.985421, 1, 1, 64, 349
-0.985448, 97, 49, 224, 112
-0.985477, 289, 257, 416, 320
-0.98553, 209, 209, 336, 272
-0.985561, 305, 1, 368, 256
-0.985577, 197, 153, 228, 216
-0.985586, 213, 137, 244, 200
-0.98562, 377, 81, 440, 208
-0.985634, 81, 225, 208, 288
-0.985645, 353, 209, 480, 272
-0.985648, 193, 185, 224, 248
-0.985669, 265, 1, 328, 256
-0.985688, 233, 97, 296, 349
-0.985712, 49, 89, 176, 152
-0.98573, 433, 225, 496, 349
-0.985739, 25, 49, 88, 176
-0.985779, 129, 9, 256, 72
-0.985852, 17, 289, 144, 349
-0.98587, 369, 81, 496, 144
-0.985933, 9, 1, 72, 256
-0.985933, 337, 49, 464, 112
-0.98595, 133, 153, 164, 216
-0.985958, 177, 65, 240, 192
-0.985969, 1, 161, 32, 288
-0.98597, 353, 97, 416, 349
-0.98606, 325, 177, 356, 240
-0.986063, 133, 209, 164, 336
-0.986144, 153, 177, 184, 240
-0.986181, 289, 1, 352, 349
-0.986189, 45, 1, 76, 128
-0.986225, 273, 73, 400, 136
-0.986251, 261, 137, 292, 200
-0.986271, 333, 177, 364, 304
-0.986276, 245, 161, 276, 288
-0.986315, 173, 145, 204, 208
-0.986355, 405, 185, 436, 248
-0.986496, 249, 137, 280, 200
-0.986559, 193, 1, 224, 128
-0.986574, 313, 1, 376, 349
-0.986581, 33, 225, 160, 288
-0.986582, 437, 161, 468, 224
-0.986587, 225, 145, 256, 272
-0.986597, 101, 177, 132, 304
-0.98664, 49, 33, 176, 96
-0.986647, 257, 25, 384, 88
-0.9867, 21, 1, 52, 128
-0.986706, 161, 273, 288, 336
-0.98679, 385, 1, 416, 64
-0.986821, 13, 9, 44, 72
-0.986826, 289, 97, 320, 224
-0.986861, 1, 265, 128, 328
-0.986889, 277, 169, 308, 232
-0.986901, 385, 129, 416, 256
-0.986905, 41, 129, 72, 256
-0.98692, 157, 1, 188, 128
-0.986959, 13, 161, 44, 288
-0.987023, 209, 1, 240, 128
-0.987049, 209, 73, 336, 136
-0.987105, 289, 97, 416, 160
-0.98712, 73, 1, 136, 349
-0.987123, 153, 113, 184, 240
-0.987159, 425, 161, 456, 288
-0.987221, 449, 185, 480, 248
-0.987233, 257, 233, 384, 296
-0.987243, 169, 209, 200, 336
-0.987252, 177, 41, 304, 104
-0.987322, 33, 1, 64, 128
-0.98736, 89, 145, 120, 272
-0.987385, 241, 1, 368, 64
-0.987391, 389, 25, 420, 88
-0.987427, 73, 129, 104, 192
-0.987462, 113, 113, 144, 240
-0.987485, 381, 129, 412, 192
-0.987511, 1, 57, 128, 120
-0.987575, 65, 281, 192, 344
-0.987596, 257, 33, 320, 160
-0.987596, 201, 49, 264, 176
-0.987604, 285, 145, 316, 208
-0.98768, 389, 209, 420, 336
-0.987759, 369, 281, 496, 344
-0.987769, 141, 201, 172, 264
-0.987782, 317, 81, 348, 208
-0.987934, 193, 121, 224, 184
-0.987942, 301, 177, 332, 304
-0.987946, 273, 1, 304, 64
-0.987996, 13, 169, 44, 232
-0.988029, 345, 173, 408, 204
-0.988045, 61, 137, 92, 200
-0.988085, 353, 1, 384, 64
-0.988105, 49, 65, 176, 128
-0.988149, 129, 241, 256, 304
-0.988205, 113, 89, 240, 152
-0.988255, 65, 113, 192, 176
-0.98827, 245, 113, 276, 240
-0.988271, 49, 249, 176, 312
-0.988277, 341, 1, 372, 128
-0.988292, 161, 97, 288, 160
-0.988306, 385, 177, 448, 208
-0.988323, 249, 1, 312, 349
-0.988325, 89, 137, 120, 200
-0.988336, 81, 97, 144, 349
-0.988336, 381, 201, 412, 264
-0.988341, 77, 209, 108, 336
-0.988348, 437, 129, 468, 192
-0.988402, 209, 289, 336, 349
-0.98842, 145, 1, 176, 128
-0.988427, 1, 17, 32, 80
-0.988458, 357, 25, 388, 88
-0.988467, 441, 161, 472, 288
-0.988491, 417, 1, 448, 64
-0.988506, 237, 1, 268, 64
-0.988542, 405, 193, 436, 320
-0.988566, 421, 193, 452, 256
-0.98857, 417, 25, 448, 88
-0.988615, 229, 1, 260, 128
-0.988659, 465, 161, 496, 224
-0.988684, 385, 1, 448, 349
-0.988751, 325, 1, 356, 128
-0.988819, 157, 89, 188, 152
-0.988865, 113, 129, 144, 192
-0.988888, 353, 185, 416, 216
-0.988921, 377, 97, 440, 349
-0.988942, 213, 113, 244, 176
-0.98898, 409, 129, 440, 192
-0.98899, 305, 137, 368, 168
-0.988995, 425, 185, 488, 216
-0.989023, 89, 209, 120, 336
-0.989037, 181, 193, 212, 320
-0.989073, 301, 81, 332, 208
-0.989125, 401, 25, 432, 88
-0.989133, 1, 153, 32, 216
-0.989177, 221, 161, 252, 224
-0.989215, 25, 129, 56, 256
-0.989291, 53, 257, 84, 320
-0.98931, 37, 129, 68, 192
-0.989349, 49, 161, 80, 224
-0.98942, 13, 113, 44, 240
-0.989432, 289, 201, 320, 264
-0.989451, 181, 185, 212, 248
-0.989456, 209, 233, 336, 296
-0.989477, 161, 137, 416, 200
-0.989477, 369, 25, 400, 88
-0.989518, 453, 161, 484, 288
-0.989523, 261, 1, 292, 64
-0.989564, 33, 97, 96, 349
-0.989593, 397, 161, 428, 224
-0.989594, 225, 169, 480, 232
-0.989594, 365, 129, 396, 192
-0.989616, 401, 81, 464, 208
-0.989619, 245, 1, 276, 128
-0.989625, 401, 189, 464, 220
-0.989652, 45, 209, 76, 272
-0.989681, 9, 1, 40, 128
-0.989697, 253, 201, 284, 264
-0.989704, 257, 145, 288, 272
-0.98971, 425, 173, 488, 204
-0.989713, 157, 209, 188, 336
-0.989744, 257, 161, 320, 192
-0.989763, 325, 129, 356, 192
-0.989772, 137, 9, 168, 72
-0.989773, 433, 1, 496, 349
-0.989788, 21, 201, 52, 264
-0.989798, 105, 65, 168, 192
-0.989798, 285, 1, 316, 64
-0.989805, 65, 189, 128, 220
-0.989817, 205, 185, 236, 248
-0.989824, 353, 1, 384, 128
-0.989827, 133, 1, 164, 128
-0.989827, 89, 205, 152, 236
-0.989887, 297, 181, 360, 212
-0.989915, 337, 1, 400, 349
-0.989929, 237, 161, 268, 224
-0.989932, 429, 25, 460, 88
-0.989985, 357, 193, 388, 320
-0.989987, 369, 257, 496, 320
-0.989989, 273, 25, 304, 88
-0.99004, 321, 177, 384, 208
-0.990075, 129, 161, 384, 224
-0.990078, 289, 169, 352, 200
-0.99008, 345, 25, 376, 88
-0.990101, 169, 89, 200, 152
-0.990124, 325, 153, 356, 216
-0.99013, 465, 129, 496, 256
-0.990197, 33, 185, 96, 216
-0.990229, 65, 201, 128, 232
-0.990236, 1, 185, 256, 248
-0.990239, 193, 209, 224, 336
-0.990246, 233, 113, 264, 176
-0.990281, 297, 97, 328, 160
-0.990281, 401, 97, 432, 160
-0.990297, 321, 73, 448, 136
-0.990301, 253, 209, 284, 336
-0.990315, 377, 189, 440, 220
-0.990317, 97, 169, 160, 200
-0.990361, 345, 145, 408, 176
-0.990361, 345, 161, 408, 192
-0.990368, 453, 161, 484, 224
-0.990373, 113, 265, 240, 328
-0.990453, 273, 281, 400, 344
-0.990453, 257, 149, 320, 180
-0.99048, 45, 281, 76, 344
-0.990488, 77, 161, 108, 288
-0.990514, 393, 133, 456, 164
-0.990516, 1, 177, 500, 240
-0.990532, 17, 33, 48, 96
-0.990543, 57, 137, 120, 168
-0.990551, 369, 141, 432, 172
-0.990554, 73, 177, 136, 208
-0.990588, 321, 33, 352, 96
-0.9906, 289, 33, 320, 96
-0.990605, 225, 1, 288, 349
-0.990621, 145, 209, 176, 336
-0.990626, 225, 141, 288, 172
-0.990652, 369, 165, 432, 196
-0.990681, 129, 205, 192, 236
-0.99069, 241, 209, 304, 240
-0.990692, 257, 173, 320, 204
-0.990693, 173, 81, 204, 208
-0.990694, 9, 189, 72, 220
-0.990716, 329, 65, 360, 192
-0.990717, 237, 137, 268, 200
-0.990717, 165, 281, 196, 344
-0.99074, 73, 165, 136, 196
-0.990766, 185, 145, 248, 176
-0.990772, 97, 133, 160, 164
-0.990824, 49, 1, 112, 32
-0.990849, 277, 177, 308, 304
-0.990867, 417, 133, 480, 164
-0.990882, 29, 257, 60, 320
-0.990885, 265, 217, 328, 248
-0.99091, 229, 193, 260, 320
-0.990915, 73, 209, 104, 272
-0.990916, 33, 205, 96, 236
-0.990922, 369, 153, 432, 184
-0.990928, 445, 249, 476, 312
-0.990944, 273, 49, 304, 112
-0.990994, 393, 209, 424, 272
-0.991, 433, 197, 496, 228
-0.991006, 181, 121, 212, 184
-0.991011, 129, 225, 160, 288
-0.991012, 1, 113, 32, 240
-0.991024, 265, 205, 328, 236
-0.991029, 313, 1, 344, 128
-0.991059, 373, 113, 404, 240
-0.99107, 129, 145, 192, 176
-0.99108, 73, 153, 136, 184
-0.991088, 277, 73, 308, 136
-0.991094, 105, 193, 168, 224
-0.991097, 329, 13, 392, 44
-0.9911, 49, 129, 80, 192
-0.9911, 313, 165, 376, 196
-0.991111, 49, 169, 112, 200
-0.991114, 273, 137, 304, 200
-0.991161, 377, 217, 440, 248
-0.991177, 465, 1, 496, 128
-0.991183, 253, 257, 284, 320
-0.991189, 297, 153, 360, 184
-0.991207, 177, 1, 240, 349
-0.991225, 257, 137, 500, 200
-0.991232, 113, 289, 240, 349
-0.991237, 161, 157, 224, 188
-0.99125, 265, 229, 328, 260
-0.99128, 393, 165, 456, 196
-0.991292, 97, 157, 160, 188
-0.991298, 169, 133, 232, 164
-0.991315, 1, 169, 64, 200
-0.991343, 161, 185, 224, 216
-0.991355, 305, 125, 368, 156
-0.991361, 153, 209, 216, 240
-0.991377, 265, 81, 296, 208
-0.991393, 137, 181, 200, 212
-0.9914, 137, 193, 200, 224
-0.991408, 97, 1, 160, 349
-0.991426, 345, 197, 408, 228
-0.991429, 9, 141, 72, 172
-0.991431, 213, 225, 244, 349
-0.991442, 249, 253, 312, 284
-0.991443, 217, 153, 280, 184
-0.991443, 121, 161, 184, 192
-0.991476, 345, 129, 408, 160
-0.991502, 305, 197, 368, 228
-0.991523, 65, 137, 320, 200
-0.991531, 353, 5, 416, 36
-0.991531, 345, 233, 408, 264
-0.991533, 265, 269, 328, 300
-0.991542, 265, 137, 328, 168
-0.991544, 57, 1, 88, 128
-0.99156, 305, 13, 368, 44
-0.99156, 417, 225, 480, 256
-0.991573, 145, 97, 208, 128
-0.991602, 97, 181, 160, 212
-0.991622, 1, 13, 64, 44
-0.991627, 385, 233, 448, 264
-0.991637, 145, 129, 208, 160
-0.991642, 113, 221, 176, 252
-0.991645, 33, 137, 96, 168
-0.99165, 409, 201, 472, 232
-0.991665, 265, 125, 328, 156
-0.99167, 121, 133, 184, 164
-0.991677, 281, 253, 344, 284
-0.99168, 209, 261, 272, 292
-0.991685, 25, 233, 88, 264
-0.991698, 25, 5, 88, 36
-0.991713, 385, 205, 448, 236
-0.991715, 225, 81, 256, 208
-0.991718, 233, 77, 296, 108
-0.991725, 101, 225, 132, 349
-0.991744, 1, 97, 128, 160
-0.991751, 257, 193, 320, 224
-0.991759, 289, 209, 352, 240
-0.991768, 137, 37, 200, 68
-0.991806, 73, 73, 136, 104
-0.991807, 137, 53, 200, 84
-0.991815, 361, 281, 424, 312
-0.991817, 113, 237, 176, 268
-0.991844, 161, 53, 224, 84
-0.991846, 241, 225, 272, 349
-0.991851, 145, 225, 208, 256
-0.991853, 105, 145, 168, 176
-0.991856, 49, 101, 112, 132
-0.991859, 25, 289, 88, 320
-0.991867, 305, 237, 368, 268
-0.991884, 377, 1, 408, 128
-0.991896, 49, 221, 112, 252
-0.991902, 25, 173, 88, 204
-0.991903, 33, 249, 96, 280
-0.991908, 345, 221, 408, 252
-0.99191, 265, 241, 328, 272
-0.991916, 57, 121, 120, 152
-0.991919, 153, 145, 216, 176
-0.991919, 321, 289, 448, 349
-0.991926, 25, 153, 88, 184
-0.991926, 1, 209, 64, 240
-0.991931, 193, 193, 256, 224
-0.991934, 305, 249, 368, 280
-0.991938, 233, 169, 296, 200
-0.991942, 433, 209, 496, 240
-0.99196, 257, 77, 320, 108
-0.991973, 257, 317, 320, 348
-0.991986, 433, 121, 496, 152
-0.991987, 201, 249, 264, 280
-0.992009, 217, 205, 280, 236
-0.992013, 121, 85, 184, 116
-0.992014, 297, 265, 360, 296
-0.992017, 369, 93, 432, 124
-0.992033, 121, 101, 184, 132
-0.992038, 453, 1, 484, 128
-0.992044, 177, 213, 240, 244
-0.992048, 213, 161, 244, 288
-0.992054, 57, 249, 120, 280
-0.992065, 289, 81, 352, 112
-0.992072, 153, 69, 216, 100
-0.992082, 409, 213, 472, 244
-0.992082, 297, 313, 360, 344
-0.99209, 81, 257, 144, 288
-0.992112, 373, 177, 404, 208
-0.992182, 129, 65, 192, 192
-0.992189, 385, 185, 416, 216
-0.992262, 161, 1, 224, 256
-0.992273, 33, 161, 288, 224
-0.992273, 225, 1, 288, 256
-0.992288, 193, 81, 224, 208
-0.992337, 25, 177, 56, 304
-0.992391, 353, 177, 384, 208
-0.992464, 1, 97, 64, 349
-0.992485, 465, 177, 496, 304
-0.99249, 385, 173, 416, 204
-0.992492, 397, 189, 428, 220
-0.992528, 341, 173, 372, 204
-0.992546, 301, 17, 332, 144
-0.99257, 301, 173, 332, 204
-0.992572, 373, 189, 404, 220
-0.992601, 365, 161, 396, 192
-0.992633, 449, 185, 480, 216
-0.992642, 397, 177, 428, 208
-0.992656, 97, 209, 352, 272
-0.992673, 417, 181, 448, 212
-0.992682, 81, 189, 112, 220
-0.992684, 289, 169, 320, 200
-0.992701, 257, 193, 500, 256
-0.992707, 97, 201, 128, 232
-0.99272, 353, 189, 384, 220
-0.992726, 357, 145, 388, 176
-0.992727, 117, 205, 148, 236
-0.992768, 133, 213, 164, 244
-0.992772, 437, 185, 468, 216
-0.992774, 325, 181, 356, 212
-0.992813, 117, 169, 148, 200
-0.992819, 269, 209, 300, 240
-0.99282, 277, 161, 308, 192
-0.992824, 65, 189, 96, 220
-0.992825, 429, 173, 460, 204
-0.992825, 121, 1, 152, 128
-0.992829, 89, 177, 120, 208
-0.992842, 341, 185, 372, 216
-0.992848, 317, 225, 348, 349
-0.99286, 101, 133, 132, 164
-0.992861, 53, 189, 84, 220
-0.992867, 317, 133, 348, 164
-0.992873, 385, 157, 416, 188
-0.992874, 137, 201, 168, 232
-0.992889, 109, 193, 140, 224
-0.992895, 429, 133, 460, 164
-0.992898, 25, 189, 56, 220
-0.992909, 337, 137, 368, 168
-0.992918, 381, 145, 412, 176
-0.992925, 441, 169, 472, 200
-0.992926, 353, 165, 384, 196
-0.992932, 101, 165, 132, 196
-0.992939, 405, 137, 436, 168
-0.992947, 433, 97, 496, 349
-0.992951, 213, 145, 244, 176
-0.992953, 461, 185, 492, 216
-0.992961, 469, 197, 500, 228
-0.992967, 273, 161, 400, 192
-0.99297, 97, 189, 128, 220
-0.992971, 453, 173, 484, 204
-0.99298, 285, 201, 316, 232
-0.992992, 201, 1, 264, 349
-0.993, 337, 181, 464, 212
-0.993006, 129, 161, 160, 192
-0.993011, 85, 137, 116, 168
-0.993017, 265, 157, 296, 188
-0.993018, 305, 161, 336, 192
-0.993021, 385, 197, 416, 228
-0.993024, 257, 141, 288, 172
-0.993026, 141, 161, 172, 192
-0.993031, 101, 177, 132, 208
-0.993034, 425, 193, 456, 224
-0.993036, 373, 201, 404, 232
-0.993042, 289, 145, 416, 176
-0.993045, 13, 169, 44, 200
-0.993045, 245, 149, 276, 180
-0.993052, 121, 217, 152, 248
-0.993052, 37, 185, 68, 216
-0.993055, 85, 201, 116, 232
-0.993058, 285, 149, 316, 180
-0.993064, 289, 181, 320, 212
-0.993067, 225, 149, 256, 180
-0.993068, 257, 205, 288, 236
-0.993071, 73, 137, 104, 168
-0.993081, 77, 177, 108, 208
-0.99309, 173, 153, 204, 184
-0.993092, 393, 137, 424, 168
-0.993093, 65, 201, 96, 232
-0.993094, 101, 153, 132, 184
-0.993096, 225, 1, 480, 64
-0.993097, 177, 137, 208, 168
-0.993098, 9, 189, 40, 220
-0.993102, 309, 185, 340, 216
-0.993104, 357, 201, 388, 232
-0.993106, 341, 13, 372, 44
-0.993107, 233, 137, 264, 168
-0.993109, 393, 225, 424, 256
-0.993116, 285, 221, 316, 252
-0.993121, 45, 193, 76, 320
-0.993122, 61, 137, 92, 168
-0.993128, 61, 177, 92, 208
-0.993133, 69, 1, 100, 32
-0.993133, 117, 157, 148, 188
-0.993135, 453, 197, 484, 228
-0.993138, 373, 221, 404, 252
-0.993143, 325, 169, 356, 200
-0.993152, 357, 13, 388, 44
-0.993153, 297, 205, 328, 236
-0.993154, 141, 177, 172, 208
-0.993154, 49, 137, 80, 168
-0.993155, 269, 145, 300, 176
-0.993163, 369, 145, 400, 176
-0.993163, 121, 193, 152, 224
-0.993164, 417, 133, 448, 164
-0.993165, 201, 141, 232, 172
-0.993166, 165, 181, 196, 212
-0.993167, 61, 165, 92, 196
-0.993168, 45, 205, 76, 236
-0.993169, 129, 173, 160, 204
-0.993173, 249, 261, 280, 292
-0.993184, 161, 209, 192, 240
-0.993189, 297, 217, 328, 248
-0.993189, 209, 157, 240, 188
-0.993189, 149, 205, 180, 236
-0.99319, 169, 53, 200, 84
-0.99319, 85, 1, 116, 128
-0.993193, 65, 113, 320, 176
-0.993197, 165, 133, 196, 164
-0.993199, 397, 201, 428, 232
-0.993202, 97, 185, 352, 248
-0.993202, 289, 253, 320, 284
-0.993207, 161, 97, 192, 128
-0.99321, 285, 265, 316, 296
-0.993211, 1, 165, 32, 196
-0.993214, 157, 145, 188, 176
-0.993215, 133, 225, 164, 256
-0.993217, 309, 149, 340, 180
-0.993218, 65, 249, 96, 280
-0.993221, 261, 249, 292, 280
-0.993225, 413, 169, 444, 200
-0.993225, 457, 133, 488, 164
-0.993226, 409, 193, 440, 224
-0.993227, 445, 137, 476, 168
-0.993228, 13, 157, 44, 188
-0.993231, 297, 149, 328, 180
-0.993231, 329, 13, 360, 44
-0.993232, 57, 1, 88, 32
-0.993235, 265, 221, 296, 252
-0.993236, 437, 197, 468, 228
-0.993238, 341, 161, 372, 192
-0.993239, 81, 121, 112, 152
-0.993259, 121, 1, 184, 349
-0.993281, 1, 49, 64, 176
-0.993299, 365, 1, 396, 128
-0.993318, 105, 1, 136, 128
-0.993346, 53, 49, 84, 176
-0.993358, 377, 209, 408, 336
-0.993361, 57, 161, 88, 288
-0.993361, 401, 97, 464, 349
-0.993372, 383, 169, 398, 232
-0.993424, 1, 153, 500, 216
-0.99344, 401, 129, 432, 256
-0.993466, 1, 9, 256, 72
-0.993488, 225, 113, 480, 176
-0.993514, 1, 1, 500, 64
-0.993532, 373, 153, 388, 216
-0.993645, 289, 173, 416, 204
-0.993662, 253, 49, 284, 176
-0.993669, 153, 1, 216, 349
-0.993686, 429, 17, 460, 144
-0.993694, 417, 1, 448, 128
-0.993733, 73, 17, 104, 144
-0.993737, 97, 9, 352, 72
-0.993775, 417, 209, 448, 336
-0.993784, 361, 1, 424, 349
-0.993809, 365, 49, 396, 176
-0.993865, 289, 49, 320, 176
-0.99398, 441, 1, 472, 128
-0.993985, 1, 201, 500, 264
-0.994021, 137, 1, 200, 256
-0.994106, 65, 209, 96, 336
-0.9942, 469, 49, 500, 176
-0.99423, 17, 181, 144, 212
-0.994295, 367, 169, 382, 232
-0.994318, 5, 209, 36, 336
-0.99438, 33, 81, 64, 208
-0.99439, 49, 201, 176, 232
-0.994434, 453, 209, 484, 336
-0.994435, 257, 49, 500, 112
-0.994437, 161, 73, 416, 136
-0.994508, 303, 161, 318, 224
-0.994542, 257, 233, 500, 296
-0.994608, 367, 145, 382, 208
-0.994639, 377, 177, 392, 240
-0.994657, 113, 1, 176, 256
-0.994692, 369, 169, 496, 200
-0.994711, 273, 185, 400, 216
-0.994754, 65, 173, 192, 204
-0.994777, 369, 193, 496, 224
-0.994792, 33, 233, 288, 296
-0.994796, 257, 133, 384, 164
-0.994799, 193, 281, 448, 344
-0.994815, 209, 145, 336, 176
-0.994923, 405, 1, 436, 128
-0.994933, 97, 265, 352, 328
-0.99497, 369, 137, 496, 168
-0.994985, 119, 177, 134, 240
-0.99499, 389, 177, 404, 240
-0.994992, 361, 145, 376, 208
-0.995029, 1, 25, 500, 88
-0.995054, 289, 225, 320, 349
-0.995079, 97, 193, 224, 224
-0.995079, 1, 197, 128, 228
-0.99508, 33, 89, 288, 152
-0.995082, 1, 209, 256, 272
-0.995089, 193, 209, 320, 240
-0.995154, 133, 209, 148, 272
-0.995178, 97, 41, 352, 104
-0.995213, 209, 165, 336, 196
-0.995215, 65, 213, 192, 244
-0.99524, 355, 169, 370, 232
-0.995243, 225, 25, 480, 88
-0.995247, 77, 113, 108, 240
-0.995317, 337, 157, 464, 188
-0.995325, 51, 1, 66, 64
-0.995345, 129, 185, 144, 248
-0.995346, 289, 197, 416, 228
-0.995352, 429, 209, 460, 336
-0.995352, 57, 1, 72, 64
-0.995358, 309, 153, 324, 216
-0.995358, 213, 65, 244, 192
-0.995413, 113, 185, 128, 248
-0.99547, 449, 185, 464, 248
-0.995473, 361, 177, 376, 240
-0.995527, 111, 145, 126, 208
-0.995575, 1, 97, 500, 160
-0.995592, 135, 169, 150, 232
-0.995615, 17, 137, 144, 168
-0.995675, 257, 89, 500, 152
-0.995694, 129, 153, 256, 184
-0.995718, 225, 257, 480, 320
-0.995732, 301, 225, 332, 349
-0.995743, 355, 137, 370, 200
-0.995757, 65, 1, 80, 64
-0.995769, 161, 141, 288, 172
-0.995776, 395, 177, 410, 240
-0.995778, 97, 133, 224, 164
-0.995798, 45, 1, 60, 64
-0.995803, 1, 33, 256, 96
-0.995807, 65, 161, 192, 192
-0.995812, 1, 1, 128, 32
-0.995822, 113, 213, 240, 244
-0.995839, 61, 113, 92, 240
-0.995843, 75, 185, 90, 248
-0.995846, 457, 49, 488, 176
-0.995856, 57, 185, 72, 248
-0.995858, 91, 177, 106, 240
-0.995879, 431, 169, 446, 232
-0.995897, 129, 225, 256, 256
-0.99591, 1, 49, 32, 176
-0.99591, 69, 185, 84, 248
-0.995911, 71, 1, 86, 64
-0.995914, 379, 145, 394, 208
-0.995929, 107, 169, 122, 232
-0.995951, 209, 153, 224, 216
-0.995955, 203, 185, 218, 248
-0.995967, 97, 177, 112, 240
-0.99597, 1, 225, 500, 288
-0.995971, 389, 145, 404, 208
-0.995973, 321, 121, 448, 152
-0.995983, 443, 185, 458, 248
-0.996017, 225, 137, 240, 200
-0.996042, 141, 177, 156, 240
-0.996062, 101, 201, 116, 264
-0.99607, 329, 225, 360, 349
-0.996075, 297, 177, 312, 240
-0.996087, 123, 201, 138, 264
-0.996088, 101, 145, 116, 208
-0.996095, 115, 209, 130, 272
-0.99611, 1, 129, 500, 192
-0.996116, 349, 161, 364, 224
-0.996122, 127, 145, 142, 208
-0.996164, 1, 257, 256, 320
-0.996167, 321, 133, 448, 164
-0.996169, 315, 137, 330, 200
-0.996173, 113, 181, 240, 212
-0.996177, 225, 177, 352, 208
-0.996182, 33, 229, 160, 260
-0.996193, 155, 177, 170, 240
-0.996199, 79, 1, 94, 64
-0.996202, 17, 153, 144, 184
-0.996223, 209, 77, 336, 108
-0.996253, 169, 153, 184, 216
-0.996254, 63, 185, 78, 248
-0.996256, 389, 1, 404, 64
-0.996257, 65, 145, 192, 176
-0.996307, 1, 65, 500, 128
-0.996311, 163, 177, 178, 240
-0.996314, 403, 185, 418, 248
-0.996319, 457, 177, 472, 240
-0.996325, 289, 237, 416, 268
-0.996325, 17, 165, 144, 196
-0.996329, 265, 137, 280, 200
-0.996339, 157, 153, 172, 216
-0.996347, 433, 129, 448, 192
-0.996348, 263, 169, 278, 232
-0.996353, 437, 185, 452, 248
-0.99636, 257, 289, 384, 320
-0.996362, 289, 217, 416, 248
-0.996363, 321, 9, 448, 40
-0.996366, 305, 185, 320, 248
-0.996378, 163, 153, 178, 216
-0.996385, 17, 293, 144, 324
-0.996396, 209, 133, 336, 164
-0.996399, 341, 177, 356, 240
-0.996413, 65, 101, 192, 132
-0.996435, 369, 229, 496, 260
-0.99644, 189, 145, 204, 208
-0.996445, 393, 201, 408, 264
-0.996461, 1, 57, 256, 120
-0.996463, 145, 201, 272, 232
-0.996475, 139, 209, 154, 272
-0.99649, 271, 169, 286, 232
-0.996492, 145, 129, 272, 160
-0.996523, 33, 289, 288, 349
-0.996531, 49, 89, 176, 120
-0.996533, 271, 137, 286, 200
-0.996542, 113, 165, 240, 196
-0.996544, 79, 161, 94, 224
-0.996545, 411, 185, 426, 248
-0.99655, 285, 1, 300, 64
-0.996557, 383, 193, 398, 256
-0.99656, 97, 69, 224, 100
-0.996563, 383, 1, 398, 64
-0.996563, 147, 177, 162, 240
-0.996565, 369, 217, 496, 248
-0.996569, 297, 145, 312, 208
-0.996579, 39, 9, 54, 72
-0.996582, 25, 9, 40, 72
-0.996585, 215, 161, 230, 224
-0.996594, 1, 209, 128, 240
-0.996596, 201, 161, 216, 224
-0.996602, 225, 269, 352, 300
-0.996602, 85, 185, 100, 248
-0.996615, 195, 153, 210, 216
-0.996616, 179, 145, 194, 208
-0.99662, 15, 9, 30, 72
-0.996621, 209, 185, 224, 248
-0.996622, 133, 145, 148, 208
-0.996626, 241, 313, 368, 344
-0.996651, 289, 249, 416, 280
-0.99666, 117, 145, 132, 208
-0.996666, 439, 129, 454, 192
-0.996668, 399, 153, 414, 216
-0.996675, 369, 241, 496, 272
-0.99668, 313, 97, 344, 349
-0.99668, 145, 93, 272, 124
-0.996693, 89, 1, 120, 256
-0.996694, 91, 153, 106, 216
-0.996699, 365, 1, 380, 64
-0.996709, 273, 1, 288, 64
-0.99671, 441, 153, 456, 216
-0.996711, 143, 153, 158, 216
-0.996722, 235, 137, 250, 200
-0.996723, 241, 253, 368, 284
-0.996747, 241, 1, 368, 32
-0.996748, 319, 185, 334, 248
-0.996751, 1, 105, 128, 136
-0.996757, 353, 205, 480, 236
-0.996763, 427, 129, 442, 192
-0.99677, 219, 137, 234, 200
-0.996773, 383, 177, 398, 208
-0.996774, 225, 161, 240, 224
-0.996776, 33, 73, 160, 104
-0.996788, 151, 153, 166, 216
-0.996788, 349, 137, 364, 200
-0.996789, 33, 9, 48, 72
-0.996792, 241, 65, 368, 96
-0.996801, 97, 53, 224, 84
-0.996839, 107, 193, 122, 256
-0.996846, 347, 185, 362, 248
-0.996848, 13, 169, 28, 232
-0.996885, 73, 1, 104, 256
-0.996887, 49, 273, 176, 304
-0.996888, 259, 137, 274, 200
-0.996896, 311, 177, 326, 240
-0.996907, 305, 281, 432, 312
-0.996911, 389, 177, 404, 208
-0.996926, 63, 145, 78, 208
-0.996934, 399, 25, 414, 88
-0.996934, 369, 193, 384, 256
-0.996937, 273, 17, 400, 48
-0.996943, 17, 117, 144, 148
-0.996956, 229, 113, 244, 176
-0.996961, 113, 293, 240, 324
-0.996969, 1, 57, 128, 88
-0.996978, 177, 293, 304, 324
-0.996979, 209, 197, 336, 228
-0.996979, 7, 33, 22, 96
-0.996984, 57, 1, 88, 256
-0.996984, 231, 161, 246, 224
-0.996984, 95, 201, 110, 264
-0.996989, 51, 185, 66, 248
-0.996991, 407, 25, 422, 88
-0.996998, 173, 177, 188, 240
-0.997, 393, 25, 408, 88
-0.997003, 279, 1, 294, 64
-0.997003, 365, 25, 380, 88
-0.997004, 253, 161, 268, 224
-0.997009, 161, 165, 288, 196
-0.997016, 445, 129, 460, 192
-0.997024, 5, 145, 20, 208
-0.997031, 145, 69, 272, 100
-0.997031, 241, 213, 368, 244
-0.997035, 289, 69, 416, 100
-0.997039, 5, 9, 20, 72
-0.997044, 69, 161, 84, 224
-0.997045, 321, 129, 336, 192
-0.997046, 81, 37, 208, 68
-0.997046, 81, 237, 208, 268
-0.997048, 341, 137, 356, 200
-0.997052, 209, 121, 336, 152
-0.997056, 161, 57, 288, 88
-0.997057, 291, 169, 306, 232
-0.997066, 85, 161, 100, 224
-0.997091, 369, 89, 496, 120
-0.997092, 267, 1, 282, 64
-0.997097, 371, 1, 386, 64
-0.997105, 305, 81, 432, 112
-0.997113, 1, 317, 128, 348
-0.997132, 193, 245, 320, 276
-0.997162, 129, 113, 256, 144
-0.997168, 1, 13, 128, 44
-0.997172, 49, 1, 176, 32
-0.997178, 193, 221, 320, 252
-0.997193, 161, 81, 288, 112
-0.997197, 97, 309, 224, 340
-0.997207, 17, 257, 144, 288
-0.997212, 377, 177, 392, 208
-0.997219, 33, 41, 160, 72
-0.997223, 395, 185, 410, 216
-0.997241, 101, 1, 132, 256
-0.997256, 65, 117, 192, 148
-0.997257, 49, 309, 176, 340
-0.997273, 289, 45, 416, 76
-0.997278, 45, 1, 76, 256
-0.997292, 345, 97, 376, 349
-0.997303, 377, 161, 392, 192
-0.997311, 369, 29, 496, 60
-0.997322, 321, 97, 448, 128
-0.997323, 329, 97, 360, 349
-0.997324, 369, 105, 496, 136
-0.997342, 273, 265, 400, 296
-0.997358, 193, 305, 320, 336
-0.997391, 177, 257, 304, 288
-0.997394, 17, 29, 144, 60
-0.997418, 161, 189, 288, 220
-0.99742, 113, 249, 240, 280
-0.997435, 431, 181, 446, 212
-0.997436, 1, 89, 128, 120
-0.997465, 305, 165, 320, 196
-0.997466, 225, 233, 352, 264
-0.997468, 353, 293, 480, 324
-0.997471, 337, 257, 464, 288
-0.997471, 369, 117, 496, 148
-0.997489, 49, 53, 176, 84
-0.997494, 97, 85, 224, 116
-0.997504, 273, 105, 400, 136
-0.997547, 383, 165, 398, 196
-0.997555, 193, 317, 320, 348
-0.99757, 369, 177, 384, 208
-0.997574, 301, 97, 332, 349
-0.997579, 353, 77, 480, 108
-0.997585, 437, 177, 452, 208
-0.997595, 257, 81, 384, 112
-0.997601, 97, 261, 224, 292
-0.997614, 85, 97, 116, 349
-0.997618, 373, 1, 404, 256
-0.997618, 209, 97, 336, 128
-0.99762, 83, 189, 98, 220
-0.997621, 1, 265, 500, 328
-0.997622, 1, 269, 128, 300
-0.997641, 17, 241, 144, 272
-0.997642, 289, 29, 416, 60
-0.99767, 357, 177, 372, 208
-0.997677, 369, 65, 496, 96
-0.997678, 351, 173, 366, 204
-0.99769, 377, 189, 392, 220
-0.997708, 289, 313, 416, 344
-0.997711, 401, 177, 416, 208
-0.997713, 193, 5, 320, 36
-0.997732, 347, 185, 362, 216
-0.997732, 161, 233, 416, 296
-0.997744, 209, 49, 336, 80
-0.997747, 445, 189, 460, 220
-0.997776, 305, 293, 432, 324
-0.997782, 241, 29, 368, 60
-0.997797, 141, 201, 156, 232
-0.997801, 337, 49, 464, 80
-0.997802, 65, 297, 192, 328
-0.997804, 369, 269, 496, 300
-0.997807, 407, 185, 422, 216
-0.997811, 395, 173, 410, 204
-0.99782, 363, 173, 378, 204
-0.99782, 101, 201, 116, 232
-0.997828, 137, 213, 152, 244
-0.997833, 65, 17, 192, 48
-0.997838, 405, 1, 436, 256
-0.997848, 201, 97, 232, 349
-0.997849, 289, 97, 320, 349
-0.997853, 401, 189, 416, 220
-0.997883, 113, 197, 128, 228
-0.997903, 465, 185, 480, 216
-0.997905, 459, 185, 474, 216
-0.997906, 341, 181, 356, 212
-0.997944, 107, 189, 122, 220
-0.99795, 73, 189, 88, 220
-0.997957, 385, 189, 400, 220
-0.997974, 143, 213, 158, 244
-0.99798, 181, 97, 212, 349
-0.997988, 115, 209, 130, 240
-0.997993, 413, 185, 428, 216
-0.997994, 321, 129, 336, 160
-0.997995, 269, 205, 284, 236
-0.997997, 89, 181, 104, 212
-0.998012, 451, 181, 466, 212
-0.99803, 27, 189, 42, 220
-0.998037, 299, 169, 314, 200
-0.998039, 357, 189, 372, 220
-0.998049, 79, 177, 94, 208
-0.998052, 113, 165, 128, 196
-0.99806, 117, 65, 148, 320
-0.998069, 471, 185, 486, 216
-0.998076, 97, 189, 112, 220
-0.998084, 383, 145, 398, 176
-0.998096, 121, 169, 136, 200
-0.998097, 145, 161, 160, 192
-0.998106, 359, 145, 374, 176
-0.998114, 293, 161, 308, 192
-0.998124, 69, 97, 100, 349
-0.99813, 389, 165, 404, 196
-0.998137, 131, 213, 146, 244
-0.998152, 315, 177, 330, 208
-0.998155, 393, 1, 424, 256
-0.998158, 473, 197, 488, 228
-0.99816, 99, 137, 114, 168
-0.99817, 369, 145, 384, 176
-0.99817, 257, 149, 272, 180
-0.998182, 275, 209, 290, 240
-0.998183, 299, 201, 314, 232
-0.998186, 455, 169, 470, 200
-0.998188, 265, 153, 280, 184
-0.998191, 431, 193, 446, 224
-0.998194, 367, 189, 382, 220
-0.998201, 151, 213, 166, 244
-0.998209, 283, 209, 298, 240
-0.99822, 395, 197, 410, 228
-0.998224, 357, 97, 388, 349
-0.998226, 443, 177, 458, 208
-0.99823, 109, 177, 124, 208
-0.998233, 107, 205, 122, 236
-0.998237, 135, 197, 150, 228
-0.998237, 461, 197, 476, 228
-0.998238, 149, 97, 180, 349
-0.998246, 125, 205, 140, 236
-0.998246, 437, 193, 452, 224
-0.998247, 77, 137, 92, 168
-0.998252, 51, 189, 66, 220
-0.998254, 101, 177, 116, 208
-0.998257, 407, 137, 422, 168
-0.998257, 225, 65, 256, 320
-0.998261, 413, 137, 428, 168
-0.998267, 1, 193, 16, 224
-0.998268, 7, 193, 22, 224
-0.998268, 357, 165, 372, 196
-0.998268, 305, 201, 320, 232
-0.99827, 371, 165, 386, 196
-0.998275, 271, 157, 286, 188
-0.998281, 95, 177, 110, 208
-0.998284, 419, 185, 434, 216
-0.998285, 353, 141, 368, 172
-0.998287, 303, 181, 318, 212
-0.998287, 417, 1, 448, 256
-0.998294, 37, 189, 52, 220
-0.998294, 477, 185, 492, 216
-0.998294, 73, 205, 88, 236
-0.998295, 65, 189, 80, 220
-0.998308, 289, 209, 304, 240
-0.998311, 277, 149, 292, 180
-0.998312, 13, 177, 28, 208
-0.998313, 105, 133, 120, 164
-0.998314, 407, 173, 422, 204
-0.998323, 467, 197, 482, 228
-0.998324, 227, 145, 242, 176
-0.998327, 73, 49, 136, 176
-0.998328, 321, 181, 336, 212
-0.998329, 219, 145, 234, 176
-0.998332, 457, 1, 488, 256
-0.998334, 419, 137, 434, 168
-0.998338, 297, 217, 312, 248
-0.998342, 361, 1, 392, 256
-0.998342, 113, 153, 128, 184
-0.998346, 329, 129, 344, 160
-0.998347, 449, 169, 464, 200
-0.998352, 437, 133, 452, 164
-0.998352, 137, 65, 168, 320
-0.998353, 429, 1, 460, 256
-0.998354, 5, 173, 20, 204
-0.998355, 269, 141, 284, 172
-0.998357, 119, 189, 134, 220
-0.998362, 445, 133, 460, 164
-0.998363, 465, 169, 480, 200
-0.998363, 25, 177, 40, 208
-0.998366, 69, 161, 100, 176
-0.998366, 469, 197, 500, 212
-0.998366, 29, 187, 60, 202
-0.998366, 89, 275, 120, 290
-0.998366, 265, 173, 296, 188
-0.998366, 293, 235, 324, 250
-0.998366, 165, 149, 196, 164
-0.998366, 209, 151, 240, 166
-0.998366, 241, 237, 272, 252
-0.998368, 197, 229, 228, 244
-0.998368, 9, 177, 40, 192
-0.998368, 261, 145, 292, 160
-0.998368, 113, 195, 144, 210
-0.998368, 329, 19, 360, 34
-0.998369, 449, 199, 480, 214
-0.998369, 381, 161, 412, 176
-0.99837, 101, 157, 132, 172
-0.998371, 321, 137, 352, 152
-0.998371, 307, 153, 322, 184
-0.998371, 449, 241, 480, 256
-0.998372, 313, 143, 344, 158
-0.998372, 263, 205, 278, 236
-0.998372, 69, 189, 100, 204
-0.998373, 129, 199, 160, 214
-0.998374, 427, 133, 442, 164
-0.998375, 409, 173, 440, 188
-0.998375, 385, 195, 416, 210
-0.998375, 49, 181, 80, 196
-0.998376, 149, 145, 180, 160
-0.998376, 441, 227, 472, 242
-0.998376, 133, 147, 164, 162
-0.998377, 145, 233, 176, 248
-0.998378, 245, 155, 276, 170
-0.998378, 115, 133, 130, 164
-0.998379, 45, 233, 76, 248
-0.99838, 97, 187, 128, 202
-0.99838, 377, 145, 408, 160
-0.998381, 101, 271, 132, 286
-0.998381, 81, 179, 112, 194
-0.998381, 17, 189, 48, 204
-0.998382, 97, 137, 128, 152
-0.998382, 353, 173, 384, 188
-0.998382, 169, 97, 200, 349
-0.998382, 413, 197, 428, 228
-0.998382, 405, 139, 436, 154
-0.998383, 165, 229, 196, 244
-0.998383, 121, 155, 152, 170
-0.998383, 1, 169, 32, 184
-0.998383, 293, 149, 324, 164
-0.998384, 1, 195, 32, 210
-0.998384, 89, 197, 104, 228
-0.998384, 217, 239, 248, 254
-0.998385, 257, 209, 288, 224
-0.998385, 137, 179, 168, 194
-0.998385, 109, 165, 140, 180
-0.998387, 149, 177, 180, 192
-0.998388, 81, 199, 112, 214
-0.998388, 357, 153, 388, 168
-0.998388, 133, 213, 164, 228
-0.998389, 457, 179, 488, 194
-0.998389, 389, 141, 420, 156
-0.99839, 349, 145, 380, 160
-0.998391, 93, 173, 124, 188
-0.998392, 263, 141, 278, 172
-0.998393, 225, 153, 256, 168
-0.998393, 189, 151, 220, 166
-0.998393, 33, 1, 64, 256
-0.998394, 191, 209, 206, 240
-0.998394, 381, 153, 412, 168
-0.998394, 289, 247, 320, 262
-0.998394, 149, 207, 180, 222
-0.998395, 109, 177, 140, 192
-0.998395, 345, 195, 376, 210
-0.998396, 113, 139, 144, 154
-0.998396, 429, 179, 460, 194
-0.998397, 421, 173, 452, 188
-0.998397, 181, 209, 196, 240
-0.998397, 285, 175, 316, 190
-0.998398, 89, 157, 120, 172
-0.998398, 233, 149, 248, 180
-0.9984, 277, 263, 308, 278
-0.9984, 229, 159, 260, 174
-0.9984, 13, 167, 44, 182
-0.998402, 61, 199, 92, 214
-0.998403, 281, 163, 312, 178
-0.998404, 413, 183, 444, 198
-0.998405, 301, 259, 332, 274
-0.998407, 427, 169, 442, 200
-0.998408, 337, 183, 368, 198
-0.998411, 289, 157, 320, 172
-0.998412, 29, 193, 60, 208
-0.998412, 365, 163, 396, 178
-0.998413, 461, 187, 492, 202
-0.998413, 299, 149, 314, 180
-0.998414, 209, 157, 240, 172
-0.998416, 357, 201, 388, 216
-0.998416, 335, 177, 350, 208
-0.998416, 361, 179, 392, 194
-0.998416, 81, 147, 112, 162
-0.998418, 121, 147, 152, 162
-0.99842, 353, 183, 416, 198
-0.99842, 317, 131, 348, 146
-0.998421, 121, 173, 152, 188
-0.998423, 401, 183, 432, 198
-0.998423, 355, 13, 370, 44
-0.998424, 253, 169, 284, 184
-0.998424, 113, 201, 144, 216
-0.998426, 69, 181, 100, 196
-0.998427, 281, 169, 312, 184
-0.998427, 265, 161, 296, 176
-0.998429, 249, 261, 280, 276
-0.99843, 129, 205, 160, 220
-0.998431, 117, 183, 148, 198
-0.998433, 101, 149, 132, 164
-0.998433, 349, 13, 364, 44
-0.998436, 57, 187, 88, 202
-0.99844, 57, 185, 72, 216
-0.99844, 279, 161, 294, 192
-0.998441, 361, 191, 392, 206
-0.998443, 297, 173, 328, 188
-0.998443, 97, 193, 128, 208
-0.998448, 101, 199, 132, 214
-0.998452, 333, 139, 364, 154
-0.998454, 341, 173, 372, 188
-0.998455, 337, 177, 400, 192
-0.998455, 361, 147, 392, 162
-0.998456, 97, 181, 128, 196
-0.99846, 325, 183, 356, 198
-0.998461, 397, 197, 428, 212
-0.998462, 81, 185, 112, 200
-0.998462, 437, 193, 468, 208
-0.998462, 445, 177, 476, 192
-0.998464, 257, 163, 320, 178
-0.998464, 385, 171, 416, 186
-0.998468, 401, 191, 432, 206
-0.998468, 105, 201, 168, 216
-0.998468, 389, 177, 420, 192
-0.998469, 101, 205, 132, 220
-0.998473, 33, 187, 96, 202
-0.998476, 353, 189, 416, 204
-0.99848, 273, 97, 304, 349
-0.998482, 289, 177, 352, 192
-0.998484, 393, 189, 456, 204
-0.998486, 297, 179, 328, 194
-0.998486, 113, 211, 144, 226
-0.998488, 389, 183, 420, 198
-0.998489, 241, 161, 272, 176
-0.99849, 425, 185, 488, 200
-0.998497, 393, 183, 456, 198
-0.998498, 297, 183, 360, 198
-0.998501, 361, 195, 424, 210
-0.998503, 349, 179, 380, 194
-0.998505, 353, 171, 416, 186
-0.998506, 57, 199, 120, 214
-0.998511, 377, 173, 440, 188
-0.998511, 365, 173, 396, 188
-0.998514, 245, 97, 276, 349
-0.998518, 345, 189, 376, 204
-0.998519, 377, 167, 440, 182
-0.99852, 329, 187, 392, 202
-0.998523, 65, 183, 128, 198
-0.998526, 121, 209, 184, 224
-0.998532, 373, 193, 404, 208
-0.998536, 97, 173, 160, 188
-0.998536, 417, 189, 448, 204
-0.998543, 305, 139, 368, 154
-0.998543, 81, 207, 144, 222
-0.99855, 333, 1, 364, 256
-0.998552, 265, 169, 328, 184
-0.998558, 73, 191, 136, 206
-0.998559, 353, 145, 416, 160
-0.998561, 433, 185, 464, 200
-0.998561, 241, 263, 304, 278
-0.998562, 337, 165, 400, 180
-0.998563, 225, 161, 288, 176
-0.998564, 313, 177, 376, 192
-0.998565, 417, 193, 480, 208
-0.998566, 273, 259, 336, 274
-0.998567, 409, 175, 472, 190
-0.998568, 73, 177, 136, 192
-0.998571, 357, 185, 388, 200
-0.998572, 265, 177, 328, 192
-0.998573, 417, 137, 480, 152
-0.998574, 81, 157, 144, 172
-0.998579, 289, 171, 352, 186
-0.998581, 193, 157, 256, 172
-0.998585, 377, 139, 440, 154
-0.998588, 33, 193, 96, 208
-0.998588, 329, 171, 392, 186
-0.998588, 337, 159, 400, 174
-0.998589, 265, 147, 328, 162
-0.99859, 17, 231, 80, 246
-0.99859, 81, 201, 144, 216
-0.998591, 97, 97, 128, 349
-0.998591, 449, 185, 480, 200
-0.998592, 81, 167, 144, 182
-0.998594, 145, 209, 208, 224
-0.998595, 201, 151, 264, 166
-0.998595, 89, 139, 152, 154
-0.998598, 377, 185, 408, 200
-0.998599, 129, 179, 192, 194
-0.998599, 217, 263, 280, 278
-0.998599, 1, 185, 64, 200
-0.998599, 89, 149, 152, 164
-0.9986, 225, 145, 288, 160
-0.998601, 97, 213, 160, 228
-0.998601, 129, 219, 192, 234
-0.998602, 313, 145, 376, 160
-0.998602, 33, 199, 96, 214
-0.998603, 433, 179, 496, 194
-0.998603, 257, 157, 320, 172
-0.998604, 1, 195, 64, 210
-0.998604, 249, 211, 312, 226
-0.998604, 49, 151, 112, 166
-0.998606, 25, 179, 88, 194
-0.998606, 9, 169, 72, 184
-0.998608, 137, 149, 200, 164
-0.998608, 273, 183, 336, 198
-0.998609, 121, 173, 184, 188
-0.998609, 161, 151, 224, 166
-0.998611, 249, 253, 312, 268
-0.998611, 225, 167, 288, 182
-0.998611, 113, 167, 176, 182
-0.998614, 337, 201, 400, 216
-0.998614, 17, 143, 80, 158
-0.998614, 161, 55, 224, 70
-0.998614, 377, 231, 440, 246
-0.998615, 225, 153, 288, 168
-0.998615, 25, 159, 88, 174
-0.998615, 241, 243, 304, 258
-0.998616, 265, 221, 328, 236
-0.998617, 393, 195, 456, 210
-0.998617, 49, 161, 112, 176
-0.998617, 337, 195, 400, 210
-0.998617, 113, 135, 176, 150
-0.998617, 409, 227, 472, 242
-0.998618, 213, 65, 244, 320
-0.998619, 49, 5, 112, 20
-0.998621, 49, 169, 112, 184
-0.998622, 41, 293, 104, 308
-0.998622, 313, 19, 376, 34
-0.998623, 9, 203, 72, 218
-0.998624, 161, 225, 224, 240
-0.998624, 369, 155, 432, 170
-0.998624, 281, 265, 344, 280
-0.998624, 89, 269, 152, 284
-0.998625, 97, 183, 160, 198
-0.998625, 137, 129, 200, 144
-0.998625, 185, 229, 248, 244
-0.998627, 121, 235, 184, 250
-0.998627, 353, 235, 416, 250
-0.998628, 281, 329, 344, 344
-0.998628, 265, 247, 328, 262
-0.998629, 121, 157, 184, 172
-0.998629, 217, 245, 280, 260
-0.99863, 225, 251, 288, 266
-0.99863, 305, 199, 368, 214
-0.99863, 409, 169, 472, 184
-0.998631, 249, 73, 312, 88
-0.998631, 41, 139, 104, 154
-0.998632, 57, 233, 120, 248
-0.998632, 401, 203, 464, 218
-0.998634, 305, 133, 368, 148
-0.998635, 389, 189, 420, 204
-0.998635, 297, 165, 360, 180
-0.998636, 1, 289, 500, 349
-0.998636, 289, 157, 352, 172
-0.998636, 417, 239, 480, 254
-0.998637, 257, 205, 320, 220
-0.998637, 113, 147, 176, 162
-0.998637, 49, 175, 112, 190
-0.998638, 65, 51, 128, 66
-0.998638, 65, 275, 128, 290
-0.998638, 209, 239, 272, 254
-0.998639, 121, 103, 184, 118
-0.998639, 393, 239, 456, 254
-0.998639, 145, 231, 208, 246
-0.998639, 169, 159, 232, 174
-0.99864, 441, 1, 472, 256
-0.99864, 97, 195, 160, 210
-0.998641, 281, 141, 344, 156
-0.998641, 433, 247, 496, 262
-0.998642, 65, 145, 128, 160
-0.998642, 105, 227, 168, 242
-0.998643, 385, 249, 448, 264
-0.998655, 373, 179, 404, 194
-0.998682, 385, 97, 416, 349
-0.998684, 357, 129, 372, 256
-0.998696, 305, 1, 336, 256
-0.998731, 365, 129, 380, 256
-0.998734, 57, 97, 88, 349
-0.998744, 261, 97, 292, 349
-0.998857, 285, 1, 316, 256
-0.998875, 139, 161, 154, 288
-0.998878, 377, 145, 392, 272
-0.998924, 371, 145, 386, 272
-0.998952, 351, 129, 366, 256
-0.998952, 317, 1, 348, 256
-0.998999, 345, 1, 376, 256
-0.999004, 125, 129, 140, 256
-0.999027, 133, 161, 148, 288
-0.999027, 359, 177, 374, 304
-0.999038, 313, 129, 328, 256
-0.999051, 331, 97, 346, 224
-0.999056, 145, 161, 160, 288
-0.999057, 319, 97, 334, 224
-0.999064, 343, 129, 358, 256
-0.999071, 179, 161, 194, 288
-0.999074, 21, 1, 52, 256
-0.999094, 115, 129, 130, 256
-0.9991, 109, 161, 124, 288
-0.999102, 369, 97, 400, 349
-0.999107, 183, 1, 198, 128
-0.999107, 397, 97, 428, 349
-0.999114, 469, 1, 500, 256
-0.999119, 457, 97, 488, 349
-0.999131, 305, 145, 320, 272
-0.999154, 101, 177, 116, 304
-0.999159, 337, 129, 352, 256
-0.99917, 143, 113, 158, 240
-0.999173, 211, 129, 226, 256
-0.999179, 353, 177, 368, 304
-0.999184, 173, 1, 188, 128
-0.999196, 325, 129, 340, 256
-0.999198, 135, 113, 150, 240
-0.999202, 353, 81, 368, 208
-0.999204, 267, 177, 282, 304
-0.999204, 189, 1, 204, 128
-0.99921, 13, 161, 28, 288
-0.999214, 365, 81, 380, 208
-0.999214, 153, 161, 168, 288
-0.999223, 365, 177, 380, 304
-0.999224, 203, 145, 218, 272
-0.999224, 319, 177, 334, 304
-0.999227, 189, 145, 204, 272
-0.999227, 173, 161, 188, 288
-0.999234, 383, 161, 398, 288
-0.999236, 133, 209, 148, 336
-0.999243, 195, 1, 210, 128
-0.999246, 305, 97, 320, 224
-0.999251, 127, 177, 142, 304
-0.999252, 167, 1, 182, 128
-0.999254, 371, 97, 386, 224
-0.999256, 181, 209, 196, 336
-0.999268, 197, 129, 212, 256
-0.999271, 259, 177, 274, 304
-0.999274, 343, 81, 358, 208
-0.999276, 359, 81, 374, 208
-0.999277, 311, 177, 326, 304
-0.999282, 397, 209, 412, 336
-0.999282, 9, 1, 40, 256
-0.999287, 217, 113, 232, 240
-0.999292, 235, 145, 250, 272
-0.999295, 149, 113, 164, 240
-0.999298, 27, 161, 42, 288
-0.999301, 437, 161, 452, 288
-0.999303, 279, 129, 294, 256
-0.999304, 273, 177, 288, 304
-0.999304, 45, 1, 60, 128
-0.999307, 343, 177, 358, 304
-0.999309, 33, 1, 48, 128
-0.999313, 57, 1, 72, 128
-0.999318, 35, 161, 50, 288
-0.999319, 7, 161, 22, 288
-0.99932, 273, 129, 288, 256
-0.999322, 299, 161, 314, 288
-0.999325, 231, 1, 246, 128
-0.999325, 107, 209, 122, 336
-0.999326, 9, 97, 40, 349
-0.999333, 101, 129, 116, 256
-0.999337, 39, 1, 54, 128
-0.999337, 337, 177, 352, 304
-0.999338, 139, 209, 154, 336
-0.99934, 279, 193, 294, 320
-0.99934, 313, 81, 328, 208
-0.999342, 229, 145, 244, 272
-0.999347, 347, 1, 362, 128
-0.999348, 117, 177, 132, 304
-0.999349, 327, 177, 342, 304
-0.99935, 469, 97, 500, 349
-0.99935, 205, 1, 220, 128
-0.999352, 95, 177, 110, 304
-0.999357, 27, 1, 42, 128
-0.999357, 213, 1, 228, 128
-0.999357, 167, 161, 182, 288
-0.999362, 51, 1, 66, 128
-0.999362, 21, 161, 36, 288
-0.999364, 383, 113, 398, 240
-0.999369, 431, 161, 446, 288
-0.999372, 447, 177, 462, 304
-0.999373, 47, 129, 62, 256
-0.999377, 267, 129, 282, 256
-0.999381, 155, 113, 170, 240
-0.999385, 241, 193, 256, 320
-0.999388, 63, 1, 78, 128
-0.999389, 337, 81, 352, 208
-0.99939, 223, 145, 238, 272
-0.999391, 161, 161, 176, 288
-0.999394, 465, 161, 480, 288
-0.999395, 1, 161, 16, 288
-0.999395, 325, 81, 340, 208
-0.999395, 377, 81, 392, 208
-0.9994, 261, 1, 292, 256
-0.999403, 41, 129, 56, 256
-0.999408, 249, 1, 280, 256
-0.999408, 247, 145, 262, 272
-0.999409, 109, 113, 124, 240
-0.99941, 453, 161, 468, 288
-0.999414, 169, 209, 184, 336
-0.999414, 459, 161, 474, 288
-0.999416, 299, 97, 314, 224
-0.999417, 161, 1, 176, 128
-0.999419, 253, 161, 268, 288
-0.99942, 219, 1, 234, 128
-0.99942, 389, 161, 404, 288
-0.99942, 285, 129, 300, 256
-0.999421, 145, 209, 160, 336
-0.999424, 53, 129, 68, 256
-0.999426, 149, 1, 164, 128
-0.999428, 237, 1, 252, 128
-0.999428, 241, 145, 256, 272
-0.99943, 21, 113, 36, 240
-0.999434, 261, 129, 276, 256
-0.999434, 397, 161, 412, 288
-0.999437, 341, 1, 356, 128
-0.999438, 247, 1, 262, 128
-0.999438, 319, 49, 334, 176
-0.999438, 13, 1, 28, 128
-0.999439, 331, 49, 346, 176
-0.99944, 95, 129, 110, 256
-0.999443, 35, 113, 50, 240
-0.999446, 403, 161, 418, 288
-0.999447, 89, 209, 104, 336
-0.999479, 237, 1, 268, 256
-0.999483, 169, 1, 200, 256
-0.999508, 201, 1, 232, 256
-0.999511, 45, 97, 76, 349
-0.99952, 33, 97, 64, 349
-0.999543, 189, 1, 220, 256
-0.999555, 485, 195, 500, 210
-0.999555, 423, 191, 438, 206
-0.999555, 381, 251, 396, 266
-0.999555, 7, 185, 22, 200
-0.999556, 377, 195, 392, 210
-0.999557, 107, 207, 122, 222
-0.999558, 205, 157, 220, 172
-0.999558, 293, 263, 308, 278
-0.999558, 153, 203, 168, 218
-0.999559, 453, 197, 468, 212
-0.999559, 141, 211, 156, 226
-0.99956, 95, 175, 110, 190
-0.999561, 313, 177, 328, 192
-0.999561, 3, 193, 18, 208
-0.999561, 215, 155, 230, 170
-0.999562, 473, 189, 488, 204
-0.999565, 123, 167, 138, 182
-0.999566, 451, 203, 466, 218
-0.999566, 331, 181, 346, 196
-0.999566, 303, 181, 318, 196
-0.999567, 377, 145, 392, 160
-0.999567, 241, 161, 256, 176
-0.999567, 423, 173, 438, 188
-0.999568, 101, 205, 116, 220
-0.999568, 81, 183, 96, 198
-0.999568, 237, 153, 252, 168
-0.999568, 147, 209, 162, 224
-0.999569, 253, 261, 268, 276
-0.999569, 113, 149, 128, 164
-0.99957, 107, 195, 122, 210
-0.99957, 21, 189, 36, 204
-0.99957, 27, 193, 42, 208
-0.999572, 75, 191, 90, 206
-0.999572, 335, 135, 350, 150
-0.999573, 13, 169, 28, 184
-0.999573, 105, 173, 120, 188
-0.999574, 187, 205, 202, 220
-0.999575, 401, 177, 416, 192
-0.999575, 129, 147, 144, 162
-0.999575, 123, 173, 138, 188
-0.999575, 201, 151, 216, 166
-0.999576, 27, 167, 42, 182
-0.999576, 377, 165, 392, 180
-0.999577, 351, 195, 366, 210
-0.999578, 117, 137, 132, 152
-0.999578, 413, 173, 428, 188
-0.999579, 363, 175, 378, 190
-0.999579, 55, 189, 70, 204
-0.999579, 65, 185, 80, 200
-0.99958, 269, 161, 284, 176
-0.99958, 453, 235, 468, 250
-0.99958, 259, 169, 274, 184
-0.99958, 87, 145, 102, 160
-0.999581, 403, 195, 418, 210
-0.999581, 317, 185, 332, 200
-0.999581, 123, 149, 138, 164
-0.999582, 297, 163, 312, 178
-0.999582, 371, 191, 386, 206
-0.999583, 113, 209, 128, 224
-0.999583, 453, 191, 468, 206
-0.999584, 345, 139, 360, 154
-0.999584, 469, 179, 484, 194
-0.999584, 113, 191, 128, 206
-0.999585, 431, 183, 446, 198
-0.999585, 97, 185, 112, 200
-0.999586, 415, 197, 430, 212
-0.999586, 225, 155, 240, 170
-0.999588, 375, 201, 390, 216
-0.99959, 459, 175, 474, 190
-0.99959, 323, 133, 338, 148
-0.999591, 125, 207, 140, 222
-0.999592, 235, 159, 250, 174
-0.999593, 429, 173, 444, 188
-0.999593, 431, 189, 446, 204
-0.999595, 391, 195, 406, 210
-0.999595, 119, 185, 134, 200
-0.999595, 119, 211, 134, 226
-0.999596, 353, 179, 368, 194
-0.999597, 441, 191, 456, 206
-0.999597, 305, 163, 320, 178
-0.999599, 481, 189, 496, 204
-0.999602, 407, 183, 422, 198
-0.999603, 389, 169, 404, 184
-0.999603, 367, 197, 382, 212
-0.999605, 375, 175, 390, 190
-0.999606, 417, 189, 432, 204
-0.999607, 383, 153, 398, 168
-0.999608, 453, 177, 468, 192
-0.99961, 337, 183, 352, 198
-0.99961, 257, 161, 272, 176
-0.99961, 343, 185, 358, 200
-0.999611, 397, 195, 412, 210
-0.999611, 263, 163, 278, 178
-0.999612, 33, 193, 48, 208
-0.999617, 353, 143, 368, 158
-0.999619, 297, 179, 312, 194
-0.99962, 363, 147, 378, 162
-0.999623, 305, 175, 320, 190
-0.999624, 115, 201, 130, 216
-0.999636, 447, 175, 462, 190
-0.999636, 361, 189, 376, 204
-0.999637, 247, 159, 262, 174
-0.999637, 459, 185, 474, 200
-0.999638, 81, 189, 96, 204
-0.999639, 355, 189, 370, 204
-0.999639, 369, 175, 384, 190
-0.999641, 395, 177, 410, 192
-0.999641, 75, 183, 90, 198
-0.999643, 87, 183, 102, 198
-0.999654, 437, 183, 452, 198
-0.999654, 401, 183, 416, 198
-0.999654, 381, 183, 396, 198
-0.999657, 305, 169, 320, 184
-0.999658, 381, 171, 396, 186
-0.999662, 447, 191, 462, 206
-0.999664, 109, 201, 124, 216
-0.999664, 385, 193, 400, 208
-0.999674, 361, 181, 376, 196
-0.999674, 375, 181, 390, 196
-0.999675, 349, 187, 364, 202
-0.999678, 273, 1, 304, 256
-0.99968, 409, 191, 424, 206
-0.999682, 377, 189, 392, 204
-0.999699, 387, 179, 402, 194
-0.999705, 445, 185, 460, 200
-0.999705, 453, 185, 468, 200
-0.999718, 369, 183, 384, 198
-0.999731, 403, 189, 418, 204
-0.99974, 391, 185, 406, 200
-0.999771, 397, 189, 412, 204
-0.999782, 381, 177, 396, 192
-0.999795, 409, 97, 440, 349
-0.999816, 21, 97, 52, 349
-0.999841, 425, 97, 456, 349
-0.999851, 157, 1, 188, 256
-1.00004, 445, 97, 476, 349
