1972
-0.27054, 1, 1, 500, 375
-0.392795, 1, 65, 500, 320
-0.48262, 193, 1, 448, 375
-0.489105, 1, 1, 256, 375
-0.625224, 97, 1, 352, 375
-0.650004, 257, 1, 500, 256
-0.650452, 1, 129, 256, 375
-0.746179, 161, 129, 416, 375
-0.748964, 1, 33, 256, 288
-0.773496, 161, 33, 416, 288
-0.787844, 257, 97, 500, 352
-0.853962, 49, 129, 176, 375
-0.860452, 49, 1, 176, 375
-0.869308, 321, 65, 448, 320
-0.871183, 369, 1, 496, 375
-0.871524, 1, 17, 500, 144
-0.877628, 289, 1, 416, 375
-0.881607, 1, 209, 500, 336
-0.882904, 49, 1, 176, 256
-0.885218, 1, 65, 500, 192
-0.886353, 1, 129, 128, 375
-0.886379, 1, 145, 500, 272
-0.890204, 97, 129, 224, 375
-0.890549, 225, 1, 352, 375
-0.890905, 369, 1, 496, 256
-0.894011, 113, 1, 240, 256
-0.896438, 129, 1, 256, 375
-0.898907, 273, 129, 400, 375
-0.900847, 1, 1, 128, 375
-0.902635, 241, 1, 368, 256
-0.904214, 145, 129, 272, 375
-0.906584, 1, 209, 256, 336
-0.910019, 225, 129, 352, 375
-0.910619, 1, 33, 128, 288
-0.912224, 369, 97, 496, 352
-0.922431, 161, 209, 416, 336
-0.92279, 1, 161, 256, 288
-0.926529, 65, 177, 192, 304
-0.926538, 17, 193, 144, 320
-0.929648, 193, 1, 320, 256
-0.932416, 177, 1, 304, 375
-0.933224, 129, 241, 192, 368
-0.933545, 1, 241, 128, 368
-0.933814, 329, 1, 392, 128
-0.937013, 257, 1, 500, 128
-0.937227, 433, 33, 496, 160
-0.938271, 65, 225, 192, 352
-0.938305, 105, 193, 168, 320
-0.938675, 337, 1, 464, 128
-0.939124, 1, 17, 256, 144
-0.939332, 33, 193, 96, 320
-0.939845, 225, 49, 480, 176
-0.941395, 161, 1, 416, 128
-0.941696, 1, 113, 256, 240
-0.94285, 49, 129, 176, 256
-0.942919, 57, 145, 120, 272
-0.943911, 225, 129, 480, 256
-0.944497, 129, 161, 384, 288
-0.945201, 329, 49, 392, 176
-0.946449, 81, 225, 144, 352
-0.946871, 273, 1, 400, 128
-0.94712, 305, 145, 432, 272
-0.94757, 49, 1, 176, 128
-0.947683, 113, 193, 240, 320
-0.948016, 369, 49, 496, 176
-0.948264, 145, 177, 208, 304
-0.948835, 353, 33, 416, 160
-0.949045, 329, 129, 392, 256
-0.950253, 81, 161, 144, 288
-0.951356, 49, 49, 176, 176
-0.951613, 1, 65, 256, 192
-0.951907, 113, 145, 176, 272
-0.952428, 321, 49, 448, 176
-0.952528, 121, 265, 184, 328
-0.95294, 1, 145, 128, 272
-0.953422, 49, 201, 112, 264
-0.953888, 121, 313, 184, 375
-0.953934, 257, 177, 384, 304
-0.954101, 257, 177, 500, 304
-0.954234, 145, 185, 208, 248
-0.954281, 65, 265, 128, 328
-0.954907, 57, 1, 120, 128
-0.955133, 57, 81, 120, 208
-0.955348, 33, 281, 96, 344
-0.955528, 33, 241, 96, 368
-0.955803, 57, 209, 120, 336
-0.956173, 81, 161, 144, 224
-0.956295, 1, 225, 64, 352
-0.956338, 273, 241, 400, 368
-0.956491, 321, 177, 384, 304
-0.956634, 113, 145, 240, 272
-0.956652, 433, 65, 496, 128
-0.956876, 129, 1, 192, 128
-0.957072, 121, 201, 184, 264
-0.957163, 105, 241, 168, 368
-0.957212, 289, 193, 352, 256
-0.957265, 337, 41, 400, 104
-0.95779, 113, 177, 176, 240
-0.957872, 409, 97, 472, 224
-0.958139, 25, 257, 88, 320
-0.958416, 409, 33, 472, 160
-0.958473, 369, 97, 496, 224
-0.95849, 305, 1, 368, 128
-0.958748, 129, 241, 256, 368
-0.958833, 345, 177, 408, 304
-0.958964, 25, 145, 88, 272
-0.959082, 145, 209, 208, 272
-0.959193, 145, 249, 208, 312
-0.959316, 169, 209, 232, 336
-0.959574, 161, 289, 224, 352
-0.959607, 73, 185, 136, 248
-0.959853, 329, 17, 392, 80
-0.959983, 321, 241, 384, 368
-0.960061, 9, 297, 72, 360
-0.960554, 337, 193, 464, 320
-0.960727, 297, 177, 360, 304
-0.960727, 361, 41, 424, 104
-0.961082, 161, 193, 288, 320
-0.961234, 73, 289, 136, 352
-0.961646, 161, 1, 224, 128
-0.961654, 361, 113, 424, 240
-0.961765, 121, 289, 184, 352
-0.96194, 97, 257, 160, 320
-0.962011, 209, 1, 336, 128
-0.962348, 273, 49, 400, 176
-0.962384, 177, 201, 240, 264
-0.962773, 433, 81, 496, 208
-0.962899, 289, 49, 352, 176
-0.963012, 57, 33, 120, 96
-0.963059, 97, 217, 160, 280
-0.9631, 105, 1, 168, 128
-0.963262, 313, 41, 376, 104
-0.963528, 1, 97, 128, 224
-0.963756, 321, 185, 384, 248
-0.964, 145, 313, 208, 375
-0.964059, 97, 289, 160, 352
-0.964119, 305, 97, 432, 224
-0.964238, 57, 161, 120, 224
-0.964305, 265, 185, 328, 248
-0.964552, 121, 225, 184, 288
-0.964684, 25, 201, 88, 264
-0.96509, 409, 81, 472, 144
-0.965208, 369, 177, 432, 240
-0.965433, 233, 185, 296, 248
-0.965955, 273, 161, 336, 288
-0.966425, 385, 57, 448, 120
-0.966587, 385, 129, 448, 256
-0.966647, 377, 113, 440, 176
-0.966652, 257, 1, 320, 128
-0.966731, 257, 241, 500, 368
-0.96703, 369, 177, 432, 304
-0.96709, 289, 9, 352, 72
-0.967139, 433, 1, 496, 64
-0.96719, 49, 169, 176, 232
-0.967376, 289, 169, 352, 232
-0.967473, 433, 89, 496, 152
-0.967595, 81, 113, 144, 240
-0.967614, 281, 1, 344, 128
-0.967767, 57, 89, 120, 152
-0.96785, 33, 225, 96, 288
-0.967936, 385, 1, 448, 64
-0.967953, 153, 1, 216, 64
-0.967961, 385, 1, 448, 128
-0.968208, 433, 41, 496, 104
-0.968341, 25, 177, 88, 240
-0.968397, 25, 33, 88, 160
-0.968551, 129, 49, 384, 176
-0.968702, 145, 177, 176, 240
-0.96903, 97, 113, 352, 240
-0.969123, 345, 1, 376, 128
-0.969276, 81, 129, 144, 375
-0.969395, 97, 313, 160, 375
-0.969572, 313, 297, 376, 360
-0.969653, 345, 193, 408, 256
-0.969693, 17, 201, 144, 264
-0.969971, 57, 57, 120, 120
-0.970117, 321, 273, 384, 336
-0.970504, 81, 1, 144, 128
-0.970658, 65, 273, 192, 336
-0.970847, 137, 129, 200, 256
-0.970947, 469, 1, 500, 128
-0.97097, 361, 305, 424, 368
-0.971255, 129, 1, 256, 128
-0.971255, 1, 289, 128, 352
-0.971377, 1, 33, 128, 160
-0.971446, 1, 257, 64, 320
-0.971489, 409, 49, 472, 112
-0.971525, 193, 241, 320, 368
-0.971531, 341, 33, 372, 96
-0.971535, 57, 9, 120, 72
-0.971605, 145, 265, 176, 328
-0.971845, 345, 129, 408, 192
-0.971931, 353, 153, 416, 216
-0.971938, 353, 65, 416, 128
-0.971957, 193, 161, 256, 288
-0.971969, 41, 129, 104, 375
-0.972077, 313, 233, 376, 296
-0.972302, 177, 265, 240, 328
-0.97233, 437, 57, 468, 120
-0.972428, 409, 25, 472, 88
-0.972521, 169, 233, 232, 296
-0.972606, 257, 129, 384, 256
-0.972722, 57, 1, 120, 256
-0.972738, 185, 177, 248, 240
-0.972781, 305, 129, 368, 256
-0.972857, 105, 153, 168, 216
-0.972876, 113, 49, 176, 176
-0.972886, 353, 9, 416, 72
-0.972924, 57, 113, 120, 176
-0.972955, 433, 113, 496, 176
-0.972983, 393, 177, 456, 240
-0.973023, 385, 65, 448, 192
-0.973108, 457, 49, 488, 176
-0.973212, 185, 1, 248, 128
-0.973257, 321, 49, 448, 112
-0.973329, 209, 193, 336, 320
-0.973354, 365, 41, 396, 104
-0.973369, 265, 209, 328, 272
-0.973402, 97, 97, 224, 224
-0.973505, 9, 225, 72, 288
-0.973593, 57, 313, 120, 375
-0.973598, 329, 73, 392, 136
-0.973627, 129, 193, 256, 256
-0.973902, 333, 33, 364, 160
-0.973929, 33, 313, 160, 375
-0.973957, 61, 193, 92, 256
-0.974015, 65, 137, 128, 200
-0.974024, 25, 81, 88, 208
-0.974145, 361, 33, 392, 160
-0.974234, 177, 313, 240, 375
-0.974421, 137, 201, 168, 264
-0.974613, 305, 169, 432, 232
-0.974655, 149, 305, 180, 368
-0.974682, 33, 313, 96, 375
-0.974795, 153, 193, 184, 320
-0.974807, 89, 265, 120, 328
-0.974889, 257, 193, 384, 256
-0.974942, 65, 241, 128, 304
-0.974967, 25, 153, 88, 216
-0.975033, 297, 65, 360, 128
-0.975252, 453, 41, 484, 104
-0.975308, 437, 33, 468, 160
-0.975347, 1, 177, 64, 304
-0.975355, 273, 41, 400, 104
-0.975363, 289, 33, 352, 96
-0.975501, 369, 145, 496, 272
-0.97552, 57, 281, 88, 344
-0.975548, 337, 241, 464, 368
-0.975571, 121, 313, 152, 375
-0.97559, 105, 289, 136, 352
-0.975608, 113, 97, 176, 224
-0.975697, 369, 113, 496, 176
-0.975742, 153, 161, 216, 224
-0.975745, 369, 49, 496, 112
-0.97584, 257, 33, 320, 96
-0.975904, 385, 137, 448, 200
-0.975916, 73, 209, 136, 272
-0.975932, 165, 313, 196, 375
-0.976083, 465, 41, 496, 104
-0.976214, 193, 209, 256, 336
-0.976226, 73, 265, 104, 328
-0.976257, 149, 241, 180, 368
-0.97626, 409, 113, 472, 176
-0.976279, 121, 25, 184, 88
-0.976301, 345, 1, 408, 256
-0.976392, 169, 161, 232, 288
-0.976425, 105, 129, 168, 375
-0.976437, 137, 289, 168, 352
-0.976461, 105, 1, 168, 64
-0.976466, 125, 265, 156, 328
-0.97649, 81, 193, 208, 256
-0.976528, 157, 281, 188, 344
-0.976585, 25, 81, 88, 144
-0.97662, 177, 145, 304, 272
-0.976647, 1, 265, 128, 328
-0.976732, 297, 225, 360, 352
-0.976749, 425, 1, 488, 256
-0.976898, 193, 193, 320, 256
-0.976984, 77, 169, 108, 232
-0.977, 337, 73, 464, 136
-0.977086, 345, 49, 376, 176
-0.977147, 313, 209, 376, 272
-0.977187, 265, 161, 328, 224
-0.97724, 273, 281, 336, 344
-0.977353, 381, 33, 412, 96
-0.97739, 249, 161, 312, 288
-0.977404, 289, 225, 352, 288
-0.977458, 385, 89, 448, 152
-0.977511, 209, 185, 272, 248
-0.977521, 201, 209, 264, 272
-0.977558, 133, 209, 164, 336
-0.977654, 225, 49, 352, 176
-0.977748, 113, 281, 240, 344
-0.977767, 101, 161, 132, 288
-0.977797, 117, 161, 148, 288
-0.977835, 37, 193, 68, 320
-0.977884, 321, 1, 448, 64
-0.977923, 161, 257, 192, 320
-0.977994, 273, 9, 400, 72
-0.977997, 465, 1, 496, 64
-0.978004, 265, 209, 328, 336
-0.978096, 81, 249, 208, 312
-0.978129, 257, 305, 384, 368
-0.978176, 441, 81, 472, 144
-0.978305, 181, 273, 212, 336
-0.978327, 49, 201, 80, 264
-0.978385, 181, 241, 212, 368
-0.978389, 49, 257, 80, 320
-0.978391, 217, 193, 280, 320
-0.978465, 369, 1, 432, 256
-0.978583, 161, 1, 224, 256
-0.978584, 85, 209, 116, 336
-0.978585, 25, 241, 56, 368
-0.978623, 125, 185, 156, 248
-0.978624, 57, 193, 88, 320
-0.978628, 25, 57, 88, 120
-0.978726, 329, 161, 392, 224
-0.978731, 325, 193, 356, 256
-0.978739, 329, 105, 392, 168
-0.978745, 145, 129, 208, 375
-0.978839, 29, 257, 60, 320
-0.978847, 297, 265, 360, 328
-0.97891, 457, 1, 488, 128
-0.978928, 145, 25, 208, 88
-0.978959, 21, 297, 52, 360
-0.979, 305, 193, 432, 256
-0.979086, 81, 65, 144, 192
-0.979105, 89, 161, 120, 288
-0.979126, 273, 113, 336, 240
-0.979129, 45, 281, 76, 344
-0.979153, 349, 1, 380, 64
-0.979261, 1, 193, 64, 256
-0.979323, 137, 313, 168, 375
-0.979329, 289, 65, 352, 320
-0.979341, 313, 185, 344, 248
-0.979419, 65, 217, 192, 280
-0.979465, 129, 169, 256, 232
-0.979487, 349, 57, 380, 120
-0.979518, 353, 225, 416, 352
-0.979521, 157, 193, 188, 256
-0.979568, 33, 57, 160, 120
-0.979658, 329, 129, 392, 375
-0.979698, 97, 49, 224, 176
-0.97976, 281, 305, 344, 368
-0.979835, 49, 145, 176, 208
-0.979842, 89, 177, 120, 240
-0.979845, 393, 1, 456, 256
-0.979876, 89, 33, 152, 288
-0.98005, 101, 169, 132, 232
-0.980053, 453, 65, 484, 128
-0.980057, 361, 1, 392, 64
-0.980108, 441, 33, 472, 96
-0.980134, 25, 1, 88, 64
-0.980139, 49, 97, 176, 160
-0.980176, 329, 1, 392, 375
-0.980183, 337, 313, 464, 375
-0.980233, 121, 209, 152, 336
-0.980236, 389, 169, 420, 232
-0.980258, 165, 209, 196, 336
-0.980266, 33, 209, 64, 272
-0.980299, 321, 33, 384, 288
-0.980364, 113, 161, 144, 224
-0.980381, 321, 25, 448, 88
-0.980399, 409, 313, 472, 375
-0.980412, 333, 57, 364, 120
-0.980441, 1, 241, 128, 304
-0.980468, 285, 185, 316, 248
-0.980598, 177, 297, 208, 360
-0.980616, 369, 1, 496, 64
-0.980648, 141, 161, 172, 288
-0.980739, 101, 265, 132, 328
-0.98079, 161, 1, 192, 128
-0.980879, 349, 241, 380, 368
-0.980882, 377, 57, 408, 120
-0.980907, 41, 305, 72, 368
-0.98091, 1, 177, 128, 240
-0.980938, 129, 1, 192, 64
-0.980976, 409, 1, 472, 64
-0.980986, 61, 145, 92, 272
-0.980992, 129, 217, 256, 280
-0.981045, 113, 265, 144, 328
-0.98109, 385, 33, 448, 96
-0.981114, 189, 201, 220, 264
-0.98112, 81, 41, 144, 104
-0.981149, 145, 241, 176, 304
-0.981201, 265, 57, 328, 120
-0.981227, 49, 17, 176, 80
-0.981234, 81, 1, 144, 64
-0.981267, 65, 49, 96, 112
-0.98127, 393, 41, 424, 104
-0.98128, 425, 57, 456, 120
-0.981377, 177, 1, 240, 64
-0.9814, 381, 17, 412, 144
-0.981471, 193, 233, 256, 296
-0.981513, 353, 97, 416, 160
-0.981547, 265, 49, 328, 176
-0.981573, 73, 241, 104, 368
-0.981721, 321, 177, 352, 304
-0.981734, 241, 217, 368, 280
-0.981746, 373, 177, 404, 240
-0.981768, 385, 129, 416, 256
-0.981778, 341, 161, 372, 288
-0.981829, 93, 201, 124, 264
-0.981873, 73, 193, 104, 256
-0.981921, 193, 97, 320, 224
-0.981982, 257, 257, 384, 320
-0.98201, 185, 289, 248, 352
-0.982037, 69, 97, 100, 224
-0.98204, 85, 289, 116, 352
-0.982046, 353, 193, 384, 320
-0.982048, 429, 81, 460, 144
-0.982116, 153, 81, 216, 208
-0.982163, 105, 201, 136, 264
-0.982252, 201, 265, 264, 328
-0.982314, 65, 169, 96, 232
-0.982316, 393, 113, 424, 176
-0.982319, 305, 129, 432, 192
-0.982328, 417, 89, 448, 152
-0.982447, 97, 241, 128, 368
-0.982452, 89, 81, 152, 144
-0.982475, 361, 129, 392, 256
-0.982542, 353, 97, 416, 352
-0.982573, 25, 113, 88, 176
-0.982599, 17, 129, 80, 375
-0.982616, 25, 33, 88, 96
-0.98264, 401, 185, 432, 248
-0.982675, 273, 65, 400, 128
-0.982719, 345, 217, 408, 280
-0.982725, 109, 209, 140, 336
-0.982735, 1, 145, 128, 208
-0.982763, 77, 161, 108, 288
-0.98278, 337, 297, 400, 360
-0.982816, 129, 257, 256, 320
-0.982892, 61, 225, 92, 288
-0.982938, 241, 209, 304, 272
-0.982938, 353, 1, 416, 375
-0.982977, 121, 33, 184, 288
-0.982983, 121, 217, 152, 280
-0.98311, 289, 145, 352, 208
-0.983142, 49, 121, 176, 184
-0.983262, 169, 41, 232, 104
-0.983333, 33, 33, 96, 288
-0.983335, 13, 241, 44, 368
-0.983383, 33, 281, 64, 344
-0.983384, 333, 225, 364, 352
-0.983391, 53, 169, 84, 232
-0.983431, 329, 33, 360, 96
-0.983458, 417, 81, 448, 208
-0.983477, 405, 113, 436, 240
-0.983498, 377, 201, 440, 264
-0.983557, 469, 81, 500, 144
-0.983563, 149, 217, 180, 280
-0.983586, 65, 1, 96, 128
-0.983642, 393, 177, 456, 304
-0.983642, 241, 161, 304, 224
-0.983651, 297, 1, 360, 375
-0.98366, 469, 97, 500, 224
-0.983663, 425, 33, 456, 160
-0.983694, 285, 1, 316, 128
-0.983762, 173, 249, 204, 312
-0.983792, 337, 193, 368, 256
-0.983794, 469, 49, 500, 176
-0.983799, 129, 153, 192, 216
-0.983811, 309, 161, 340, 288
-0.983831, 145, 49, 272, 176
-0.983836, 17, 193, 48, 320
-0.983857, 125, 289, 156, 352
-0.983881, 129, 161, 160, 288
-0.983934, 321, 217, 448, 280
-0.983939, 445, 81, 476, 208
-0.983962, 433, 105, 464, 168
-0.983964, 453, 89, 484, 152
-0.983966, 193, 113, 256, 240
-0.983996, 433, 1, 496, 375
-0.98402, 369, 25, 496, 88
-0.984044, 241, 9, 304, 72
-0.984048, 81, 313, 208, 375
-0.984053, 269, 185, 300, 248
-0.984088, 361, 281, 424, 344
-0.984089, 33, 1, 96, 375
-0.984137, 161, 281, 288, 344
-0.98415, 257, 281, 384, 344
-0.984222, 65, 73, 96, 136
-0.984323, 61, 241, 92, 368
-0.984357, 265, 129, 328, 375
-0.984382, 129, 1, 256, 64
-0.984388, 257, 1, 320, 256
-0.984405, 73, 297, 104, 360
-0.98443, 369, 137, 496, 200
-0.984433, 225, 145, 288, 272
-0.98445, 349, 265, 380, 328
-0.984529, 209, 201, 240, 264
-0.984578, 429, 97, 460, 224
-0.984647, 257, 169, 384, 232
-0.984654, 241, 209, 304, 336
-0.984726, 381, 121, 412, 184
-0.9848, 65, 25, 96, 88
-0.984862, 369, 177, 400, 304
-0.984869, 9, 313, 40, 375
-0.984888, 145, 305, 272, 368
-0.98489, 397, 1, 428, 64
-0.984919, 189, 193, 220, 320
-0.984951, 353, 185, 480, 248
-0.984984, 321, 97, 448, 160
-0.984996, 97, 113, 128, 240
-0.985045, 337, 233, 368, 296
-0.985149, 161, 1, 192, 64
-0.985221, 69, 129, 100, 192
-0.985228, 209, 169, 336, 232
-0.985307, 453, 1, 484, 64
-0.985333, 385, 97, 448, 352
-0.98536, 1, 281, 32, 344
-0.985413, 133, 161, 164, 224
-0.985424, 173, 209, 204, 272
-0.985525, 133, 241, 164, 304
-0.985569, 301, 201, 332, 264
-0.985617, 401, 1, 464, 375
-0.985618, 225, 33, 352, 96
-0.985623, 105, 225, 136, 288
-0.985627, 201, 193, 232, 320
-0.985636, 377, 201, 408, 264
-0.985738, 49, 145, 80, 272
-0.98584, 321, 57, 352, 120
-0.985846, 57, 313, 88, 375
-0.985926, 237, 185, 268, 248
-0.985943, 469, 113, 500, 176
-0.985986, 349, 209, 380, 272
-0.986036, 97, 49, 224, 112
-0.986139, 153, 33, 184, 96
-0.986185, 221, 201, 252, 264
-0.98619, 89, 153, 120, 216
-0.986282, 37, 241, 68, 368
-0.98631, 145, 97, 272, 224
-0.986311, 65, 97, 96, 160
-0.986319, 353, 25, 384, 88
-0.986329, 169, 177, 200, 240
-0.986393, 1, 121, 128, 184
-0.986413, 177, 49, 240, 176
-0.986431, 45, 225, 76, 288
-0.986479, 209, 265, 336, 328
-0.986494, 165, 161, 196, 288
-0.98662, 193, 273, 224, 336
-0.986657, 377, 1, 440, 375
-0.986658, 129, 145, 256, 208
-0.986702, 33, 185, 64, 248
-0.986723, 353, 161, 480, 224
-0.986929, 197, 177, 228, 240
-0.986957, 249, 113, 312, 240
-0.986981, 389, 201, 420, 264
-0.987022, 405, 129, 436, 192
-0.98703, 49, 241, 80, 368
-0.987065, 401, 161, 432, 288
-0.987111, 361, 73, 392, 136
-0.987159, 109, 1, 140, 128
-0.987185, 21, 217, 52, 280
-0.987191, 225, 57, 352, 120
-0.987247, 13, 265, 44, 328
-0.987253, 109, 313, 140, 375
-0.987374, 185, 97, 248, 352
-0.987384, 297, 9, 328, 72
-0.987417, 173, 1, 204, 64
-0.987449, 217, 241, 280, 368
-0.987483, 305, 281, 432, 344
-0.987514, 177, 1, 208, 128
-0.987565, 321, 17, 352, 144
-0.987608, 405, 1, 436, 128
-0.987616, 341, 113, 372, 240
-0.987644, 53, 81, 84, 144
-0.987671, 121, 113, 152, 240
-0.987692, 457, 97, 488, 224
-0.987694, 65, 1, 128, 375
-0.987703, 157, 169, 188, 232
-0.987749, 289, 177, 320, 304
-0.987755, 81, 225, 112, 288
-0.987826, 281, 41, 312, 104
-0.987844, 305, 161, 336, 224
-0.987886, 193, 1, 320, 64
-0.987925, 257, 177, 288, 240
-0.987944, 369, 137, 400, 200
-0.987954, 381, 89, 412, 152
-0.987959, 49, 33, 80, 160
-0.988, 1, 33, 128, 96
-0.988016, 145, 73, 272, 136
-0.988043, 105, 1, 168, 375
-0.988094, 97, 81, 224, 144
-0.988169, 329, 49, 392, 80
-0.988228, 185, 1, 248, 256
-0.988246, 141, 113, 172, 240
-0.988258, 377, 65, 408, 192
-0.98827, 145, 341, 208, 372
-0.988335, 113, 333, 176, 364
-0.98846, 49, 81, 80, 208
-0.988471, 273, 105, 400, 168
-0.988487, 177, 217, 304, 280
-0.988527, 373, 129, 404, 256
-0.988555, 137, 285, 200, 316
-0.988574, 113, 213, 176, 244
-0.988574, 141, 1, 172, 128
-0.988596, 289, 193, 352, 224
-0.98866, 209, 1, 272, 128
-0.98874, 65, 213, 128, 244
-0.988766, 405, 49, 436, 176
-0.988771, 105, 345, 168, 375
-0.988788, 209, 289, 336, 352
-0.988789, 145, 197, 208, 228
-0.988989, 409, 97, 472, 352
-0.988996, 81, 113, 112, 240
-0.989059, 337, 201, 400, 232
-0.989083, 177, 205, 240, 236
-0.989099, 189, 145, 220, 272
-0.989127, 109, 113, 140, 240
-0.989137, 105, 189, 168, 220
-0.989187, 297, 1, 328, 128
-0.989222, 293, 49, 324, 176
-0.989236, 177, 193, 208, 320
-0.989287, 69, 49, 100, 176
-0.98932, 1, 81, 128, 144
-0.989327, 73, 173, 136, 204
-0.989372, 353, 49, 416, 80
-0.989397, 129, 269, 192, 300
-0.989397, 49, 201, 112, 232
-0.989415, 265, 193, 328, 224
-0.989464, 121, 321, 184, 352
-0.989465, 393, 33, 424, 160
-0.989486, 1, 297, 64, 328
-0.989528, 433, 73, 496, 104
-0.989537, 65, 273, 128, 304
-0.989567, 193, 313, 320, 375
-0.989585, 145, 49, 272, 112
-0.989606, 313, 193, 376, 224
-0.989612, 277, 177, 308, 304
-0.989627, 357, 81, 388, 208
-0.989646, 1, 265, 256, 328
-0.98966, 17, 209, 80, 240
-0.989703, 105, 257, 168, 288
-0.989733, 329, 37, 392, 68
-0.989758, 293, 129, 324, 256
-0.989787, 177, 25, 304, 88
-0.989792, 137, 209, 200, 240
-0.989815, 105, 281, 168, 312
-0.989816, 417, 129, 448, 256
-0.989855, 1, 209, 256, 272
-0.989861, 41, 281, 104, 312
-0.98987, 17, 221, 80, 252
-0.989894, 169, 1, 232, 375
-0.989898, 265, 1, 328, 375
-0.989926, 121, 177, 184, 208
-0.989947, 33, 253, 96, 284
-0.989958, 57, 101, 120, 132
-0.989963, 409, 65, 472, 96
-0.989964, 25, 333, 88, 364
-0.989975, 73, 293, 136, 324
-0.989988, 101, 65, 132, 192
-0.989993, 161, 297, 224, 328
-0.989996, 137, 297, 200, 328
-0.990003, 289, 205, 352, 236
-0.990005, 1, 241, 32, 368
-0.990006, 153, 329, 216, 360
-0.990045, 41, 213, 104, 244
-0.990104, 25, 301, 88, 332
-0.990144, 353, 37, 416, 68
-0.990148, 57, 65, 120, 96
-0.990161, 33, 145, 64, 272
-0.99017, 73, 201, 136, 232
-0.990189, 65, 185, 128, 216
-0.990196, 433, 97, 496, 352
-0.990197, 425, 53, 488, 84
-0.990255, 153, 225, 216, 256
-0.990257, 57, 33, 120, 64
-0.990272, 153, 317, 216, 348
-0.990275, 73, 345, 136, 375
-0.990278, 41, 225, 104, 256
-0.990309, 177, 277, 240, 308
-0.990319, 97, 173, 160, 204
-0.990322, 337, 69, 400, 100
-0.990326, 1, 1, 128, 64
-0.990334, 289, 37, 352, 68
-0.990351, 145, 185, 208, 216
-0.990352, 377, 197, 440, 228
-0.990356, 385, 61, 448, 92
-0.990381, 25, 197, 88, 228
-0.990383, 177, 241, 304, 304
-0.990395, 381, 177, 412, 304
-0.990405, 89, 213, 152, 244
-0.990435, 97, 201, 160, 232
-0.990439, 125, 17, 156, 144
-0.990443, 1, 297, 256, 360
-0.990446, 205, 1, 236, 128
-0.990467, 121, 245, 184, 276
-0.990493, 105, 293, 168, 324
-0.990496, 145, 257, 208, 288
-0.990504, 297, 49, 360, 80
-0.990512, 417, 341, 480, 372
-0.990514, 329, 113, 360, 240
-0.990518, 9, 317, 72, 348
-0.990527, 369, 1, 432, 32
-0.990544, 97, 225, 160, 256
-0.990548, 377, 117, 440, 148
-0.990581, 177, 189, 240, 220
-0.990582, 57, 89, 120, 120
-0.990588, 337, 25, 400, 56
-0.990595, 65, 1, 128, 32
-0.990603, 433, 93, 496, 124
-0.99061, 153, 269, 216, 300
-0.990644, 353, 185, 416, 216
-0.990652, 217, 197, 280, 228
-0.990659, 329, 213, 392, 244
-0.990678, 409, 93, 472, 124
-0.990683, 137, 1, 200, 375
-0.990687, 313, 65, 376, 96
-0.990688, 305, 257, 432, 320
-0.990689, 217, 1, 280, 375
-0.990741, 129, 209, 384, 272
-0.990747, 113, 25, 240, 88
-0.990756, 49, 301, 112, 332
-0.990764, 265, 193, 296, 320
-0.990765, 353, 117, 416, 148
-0.990773, 145, 105, 272, 168
-0.990778, 57, 45, 120, 76
-0.990783, 9, 345, 72, 375
-0.990803, 97, 305, 160, 336
-0.990817, 433, 113, 496, 144
-0.990826, 121, 309, 184, 340
-0.990847, 273, 177, 336, 208
-0.990854, 305, 1, 368, 32
-0.990856, 321, 301, 384, 332
-0.990874, 17, 285, 80, 316
-0.990874, 73, 305, 136, 336
-0.9909, 249, 209, 312, 240
-0.990905, 33, 169, 96, 200
-0.99094, 289, 61, 352, 92
-0.99094, 33, 345, 96, 375
-0.990943, 305, 181, 368, 212
-0.990974, 377, 181, 440, 212
-0.990985, 73, 249, 136, 280
-0.991013, 193, 129, 320, 192
-0.991028, 401, 45, 464, 76
-0.991032, 1, 169, 256, 232
-0.991036, 169, 1, 232, 32
-0.991039, 213, 177, 244, 304
-0.991041, 305, 241, 368, 272
-0.991046, 361, 317, 424, 348
-0.991051, 49, 321, 112, 352
-0.991066, 65, 77, 128, 108
-0.991077, 193, 217, 256, 248
-0.991118, 145, 245, 208, 276
-0.991123, 65, 21, 128, 52
-0.991147, 57, 153, 120, 184
-0.991164, 377, 133, 440, 164
-0.991166, 1, 257, 500, 320
-0.991183, 389, 81, 420, 208
-0.991185, 433, 1, 496, 32
-0.991195, 1, 41, 500, 104
-0.991207, 425, 41, 488, 72
-0.991216, 249, 45, 312, 76
-0.991226, 329, 9, 392, 40
-0.991231, 241, 189, 304, 220
-0.991244, 321, 281, 384, 312
-0.991252, 17, 241, 80, 272
-0.991257, 289, 25, 352, 56
-0.991262, 57, 113, 120, 144
-0.991264, 409, 121, 472, 152
-0.991272, 121, 33, 184, 64
-0.991286, 89, 49, 152, 80
-0.991288, 85, 1, 116, 128
-0.991288, 401, 77, 464, 108
-0.991311, 17, 265, 80, 296
-0.991315, 353, 289, 480, 352
-0.991328, 25, 81, 88, 112
-0.991352, 257, 137, 384, 200
-0.991356, 361, 61, 424, 92
-0.991359, 249, 305, 312, 336
-0.991367, 137, 1, 200, 32
-0.991416, 281, 313, 344, 344
-0.991567, 309, 113, 340, 240
-0.991666, 209, 241, 240, 368
-0.991725, 433, 129, 496, 256
-0.991838, 193, 1, 256, 375
-0.991891, 233, 65, 296, 320
-0.991924, 161, 297, 416, 360
-0.992002, 145, 205, 176, 236
-0.992039, 1, 97, 500, 160
-0.992069, 341, 37, 372, 68
-0.992084, 225, 97, 288, 224
-0.992146, 341, 57, 372, 88
-0.992163, 437, 73, 468, 104
-0.992176, 1, 281, 500, 344
-0.992201, 1, 169, 500, 232
-0.992201, 1, 241, 256, 304
-0.992243, 145, 181, 176, 212
-0.992266, 445, 57, 476, 88
-0.99227, 161, 321, 192, 352
-0.99229, 161, 333, 192, 364
-0.992323, 361, 49, 392, 80
-0.992323, 141, 341, 172, 372
-0.992328, 97, 209, 128, 240
-0.992341, 457, 53, 488, 84
-0.992351, 113, 345, 144, 375
-0.992384, 349, 197, 380, 228
-0.99241, 125, 209, 156, 240
-0.992421, 145, 321, 176, 352
-0.992426, 325, 193, 356, 224
-0.992436, 301, 193, 332, 224
-0.992463, 145, 265, 176, 296
-0.992483, 381, 57, 412, 88
-0.99249, 113, 65, 144, 192
-0.992492, 373, 197, 404, 228
-0.992495, 469, 45, 500, 76
-0.992523, 153, 193, 184, 224
-0.992541, 129, 185, 384, 248
-0.992541, 209, 201, 240, 232
-0.992543, 177, 277, 208, 308
-0.992544, 113, 281, 144, 312
-0.992548, 161, 289, 192, 320
-0.992554, 137, 217, 168, 248
-0.992556, 113, 209, 144, 240
-0.992571, 153, 345, 184, 375
-0.992571, 81, 169, 112, 200
-0.992583, 41, 205, 72, 236
-0.992585, 129, 281, 160, 312
-0.992585, 65, 297, 96, 328
-0.992591, 157, 309, 188, 340
-0.992592, 277, 189, 308, 220
-0.992593, 457, 73, 488, 104
-0.992596, 77, 205, 108, 236
-0.992597, 29, 217, 60, 248
-0.992598, 97, 1, 128, 128
-0.992605, 25, 293, 56, 324
-0.992606, 329, 49, 360, 80
-0.992611, 133, 173, 164, 204
-0.992613, 285, 205, 316, 236
-0.992615, 97, 121, 224, 184
-0.992617, 61, 173, 92, 204
-0.992635, 361, 61, 392, 92
-0.992639, 165, 345, 196, 375
-0.992639, 133, 197, 164, 228
-0.992649, 149, 277, 180, 308
-0.99265, 81, 193, 112, 224
-0.992655, 97, 197, 128, 228
-0.992663, 129, 233, 384, 296
-0.992666, 65, 53, 96, 84
-0.992671, 265, 189, 296, 220
-0.992672, 133, 313, 164, 344
-0.992675, 21, 345, 52, 375
-0.992679, 273, 1, 304, 128
-0.992681, 125, 337, 156, 368
-0.992682, 469, 65, 500, 96
-0.992689, 41, 345, 72, 375
-0.9927, 117, 293, 148, 324
-0.992705, 53, 197, 84, 228
-0.992706, 85, 293, 116, 324
-0.992716, 113, 221, 144, 252
-0.992718, 17, 213, 144, 244
-0.992718, 97, 289, 128, 320
-0.992723, 109, 165, 140, 196
-0.992723, 313, 193, 344, 224
-0.992723, 133, 293, 164, 324
-0.992726, 189, 1, 220, 128
-0.992727, 165, 189, 196, 220
-0.992731, 133, 261, 164, 292
-0.992731, 445, 41, 476, 72
-0.992732, 185, 205, 216, 236
-0.992734, 437, 85, 468, 116
-0.992735, 429, 53, 460, 84
-0.992737, 53, 209, 84, 240
-0.992738, 49, 313, 80, 344
-0.99275, 37, 257, 68, 288
-0.992751, 257, 185, 500, 248
-0.992759, 197, 201, 228, 232
-0.99276, 329, 37, 360, 68
-0.992765, 21, 305, 52, 336
-0.992773, 177, 297, 208, 328
-0.992789, 337, 197, 368, 228
-0.992791, 45, 221, 76, 252
-0.9928, 65, 193, 96, 224
-0.992802, 41, 301, 72, 332
-0.992805, 161, 261, 192, 292
-0.992809, 329, 65, 360, 96
-0.99281, 173, 1, 204, 32
-0.992812, 105, 305, 136, 336
-0.992812, 85, 217, 116, 248
-0.992815, 73, 181, 104, 212
-0.992821, 97, 177, 128, 208
-0.992824, 313, 209, 344, 240
-0.992828, 65, 213, 96, 244
-0.992829, 49, 285, 80, 316
-0.992829, 37, 289, 68, 320
-0.992838, 361, 197, 392, 228
-0.992838, 213, 213, 244, 244
-0.992838, 373, 37, 404, 68
-0.992839, 329, 209, 360, 240
-0.99284, 125, 221, 156, 252
-0.992842, 161, 265, 416, 328
-0.992845, 289, 241, 320, 368
-0.992852, 345, 69, 376, 100
-0.992854, 113, 333, 144, 364
-0.992856, 5, 337, 36, 368
-0.992857, 357, 73, 388, 104
-0.992859, 421, 337, 452, 368
-0.99286, 49, 193, 176, 224
-0.992865, 57, 253, 88, 284
-0.992865, 301, 209, 332, 336
-0.992866, 33, 245, 64, 276
-0.992868, 385, 129, 416, 160
-0.992868, 1, 129, 64, 256
-0.992868, 385, 117, 416, 148
-0.99287, 97, 345, 128, 375
-0.992877, 321, 241, 352, 368
-0.99288, 173, 333, 204, 364
-0.992881, 145, 305, 176, 336
-0.992882, 113, 253, 144, 284
-0.992893, 145, 293, 176, 324
-0.992894, 353, 29, 384, 60
-0.992896, 73, 273, 104, 304
-0.9929, 149, 245, 180, 276
-0.992905, 69, 157, 100, 188
-0.992908, 365, 185, 396, 216
-0.992911, 289, 193, 320, 224
-0.992912, 9, 293, 40, 324
-0.992916, 305, 49, 336, 176
-0.992925, 1, 65, 500, 128
-0.992929, 157, 221, 188, 252
-0.992934, 45, 245, 76, 276
-0.992937, 65, 41, 96, 72
-0.992942, 417, 61, 448, 92
-0.992946, 385, 193, 416, 224
-0.99295, 121, 169, 152, 200
-0.992957, 5, 309, 36, 340
-0.992958, 157, 205, 188, 236
-0.992959, 469, 113, 500, 144
-0.992961, 133, 325, 164, 356
-0.992961, 117, 197, 148, 228
-0.993055, 193, 241, 224, 368
-0.993075, 33, 97, 288, 160
-0.993162, 49, 293, 176, 324
-0.993167, 257, 1, 500, 64
-0.993178, 225, 193, 352, 224
-0.993197, 257, 41, 500, 104
-0.993224, 157, 177, 172, 240
-0.993231, 1, 1, 500, 64
-0.993238, 1, 49, 256, 112
-0.993245, 1, 209, 500, 272
-0.993322, 289, 197, 416, 228
-0.993346, 97, 197, 224, 228
-0.993404, 33, 1, 288, 64
-0.993416, 49, 277, 176, 308
-0.993455, 209, 65, 272, 320
-0.99347, 339, 41, 354, 104
-0.993536, 369, 57, 496, 88
-0.993643, 97, 213, 224, 244
-0.993719, 125, 65, 156, 192
-0.993729, 225, 89, 352, 152
-0.99376, 65, 173, 192, 204
-0.993784, 171, 289, 186, 352
-0.993788, 33, 73, 288, 136
-0.9938, 1, 25, 256, 88
-0.993909, 1, 145, 500, 208
-0.993913, 233, 1, 296, 128
-0.993926, 97, 281, 224, 312
-0.993965, 159, 305, 174, 368
-0.993982, 237, 161, 268, 288
-0.994045, 257, 65, 500, 128
-0.994067, 447, 57, 462, 120
-0.99412, 1, 233, 500, 296
-0.994148, 225, 209, 480, 272
-0.994174, 95, 177, 110, 240
-0.994194, 281, 49, 312, 176
-0.994205, 253, 129, 284, 256
-0.994222, 141, 49, 172, 176
-0.994294, 49, 305, 176, 336
-0.994302, 441, 57, 456, 120
-0.994303, 1, 293, 128, 324
-0.994304, 105, 265, 120, 328
-0.994309, 177, 145, 208, 272
-0.99431, 33, 225, 160, 256
-0.994338, 33, 121, 288, 184
-0.994349, 147, 169, 162, 232
-0.994365, 1, 121, 500, 184
-0.994385, 69, 273, 84, 336
-0.994402, 145, 209, 272, 240
-0.994435, 165, 113, 196, 240
-0.994441, 117, 273, 132, 336
-0.994442, 277, 225, 308, 352
-0.994442, 241, 1, 304, 375
-0.994465, 165, 313, 180, 375
-0.994468, 225, 161, 480, 224
-0.994478, 33, 253, 160, 284
-0.994528, 155, 265, 170, 328
-0.994533, 69, 193, 84, 256
-0.994535, 463, 41, 478, 104
-0.994536, 249, 209, 280, 336
-0.994539, 49, 85, 176, 116
-0.994541, 129, 273, 144, 336
-0.994563, 453, 49, 468, 112
-0.994564, 161, 1, 416, 64
-0.994575, 153, 201, 168, 264
-0.994579, 457, 73, 472, 136
-0.9946, 327, 185, 342, 248
-0.994611, 129, 345, 256, 375
-0.994623, 161, 41, 416, 104
-0.994636, 337, 337, 464, 368
-0.994641, 141, 273, 156, 336
-0.994662, 343, 17, 358, 80
-0.994667, 345, 49, 360, 112
-0.994668, 109, 289, 124, 352
-0.994707, 65, 265, 192, 296
-0.994708, 79, 177, 94, 240
-0.994709, 281, 113, 312, 240
-0.99471, 83, 265, 98, 328
-0.994743, 213, 129, 244, 256
-0.994761, 73, 297, 88, 360
-0.994794, 131, 313, 146, 375
-0.994805, 149, 249, 164, 312
-0.994809, 221, 225, 252, 352
-0.994826, 1, 197, 128, 228
-0.994831, 97, 293, 224, 324
-0.994838, 321, 49, 448, 80
-0.994851, 77, 265, 92, 328
-0.99487, 321, 73, 448, 104
-0.994871, 153, 65, 184, 192
-0.994879, 1, 237, 128, 268
-0.9949, 99, 265, 114, 328
-0.994903, 17, 345, 144, 375
-0.99491, 1, 305, 500, 368
-0.994916, 261, 241, 292, 368
-0.994917, 321, 37, 448, 68
-0.994939, 473, 1, 488, 64
-0.994941, 113, 269, 240, 300
-0.994954, 69, 169, 84, 232
-0.994965, 225, 137, 480, 200
-0.994965, 321, 181, 448, 212
-0.994965, 389, 49, 404, 112
-0.994979, 257, 313, 500, 375
-0.994993, 369, 73, 496, 104
-0.995014, 87, 169, 102, 232
-0.995017, 149, 313, 164, 375
-0.995027, 467, 1, 482, 64
-0.995028, 147, 201, 162, 264
-0.995033, 49, 1, 176, 32
-0.995044, 63, 193, 78, 256
-0.995046, 483, 81, 498, 144
-0.995054, 51, 209, 66, 272
-0.99506, 193, 113, 448, 176
-0.995065, 81, 201, 96, 264
-0.995065, 117, 209, 132, 272
-0.995069, 193, 205, 320, 236
-0.995072, 241, 209, 368, 240
-0.995085, 37, 257, 52, 320
-0.995085, 385, 25, 400, 88
-0.995115, 49, 97, 176, 128
-0.995121, 165, 257, 180, 320
-0.99513, 303, 185, 318, 248
-0.995131, 57, 193, 72, 256
-0.995138, 67, 297, 82, 360
-0.99516, 447, 81, 462, 144
-0.995164, 1, 305, 128, 336
-0.995175, 273, 305, 400, 336
-0.99518, 131, 185, 146, 248
-0.995189, 183, 265, 198, 328
-0.995193, 369, 37, 496, 68
-0.995202, 211, 193, 226, 256
-0.99521, 61, 297, 76, 360
-0.995214, 383, 49, 398, 112
-0.995216, 57, 217, 72, 280
-0.995224, 369, 133, 496, 164
-0.995233, 137, 313, 152, 375
-0.995234, 333, 185, 348, 248
-0.995253, 441, 89, 456, 152
-0.995255, 369, 85, 496, 116
-0.995257, 273, 37, 400, 68
-0.995274, 89, 265, 104, 328
-0.995285, 101, 161, 116, 224
-0.995286, 163, 185, 178, 248
-0.995298, 395, 41, 410, 104
-0.9953, 65, 333, 192, 364
-0.995307, 47, 281, 62, 344
-0.995312, 353, 1, 480, 32
-0.995318, 129, 249, 144, 312
-0.995347, 463, 65, 478, 128
-0.995356, 49, 33, 176, 64
-0.995368, 369, 113, 496, 144
-0.995397, 81, 49, 112, 176
-0.995411, 9, 1, 72, 375
-0.995421, 81, 345, 208, 375
-0.995428, 129, 185, 256, 216
-0.995443, 353, 265, 480, 328
-0.995447, 391, 129, 406, 192
-0.995448, 217, 1, 248, 128
-0.995453, 305, 209, 432, 240
-0.995459, 187, 193, 202, 256
-0.99546, 135, 281, 150, 344
-0.995461, 49, 21, 176, 52
-0.995468, 33, 145, 288, 208
-0.995474, 79, 289, 94, 352
-0.995484, 297, 185, 312, 248
-0.995504, 51, 249, 66, 312
-0.995514, 391, 169, 406, 232
-0.995516, 143, 313, 158, 375
-0.99552, 145, 197, 272, 228
-0.995534, 49, 161, 176, 192
-0.99554, 121, 313, 136, 375
-0.99555, 129, 253, 256, 284
-0.995566, 257, 89, 500, 152
-0.995581, 283, 185, 298, 248
-0.995585, 171, 313, 186, 375
-0.995617, 125, 161, 140, 224
-0.995619, 371, 1, 386, 64
-0.995625, 93, 153, 108, 216
-0.995627, 153, 145, 184, 272
-0.995633, 87, 193, 102, 256
-0.995636, 105, 185, 120, 248
-0.995637, 219, 193, 234, 256
-0.995637, 157, 225, 172, 288
-0.995638, 1, 281, 128, 312
-0.99564, 365, 1, 380, 64
-0.995658, 385, 177, 400, 240
-0.995663, 367, 41, 382, 104
-0.995664, 313, 185, 328, 248
-0.995664, 445, 33, 460, 96
-0.995665, 17, 305, 32, 368
-0.995668, 33, 53, 160, 84
-0.995678, 67, 41, 82, 104
-0.995679, 289, 61, 416, 92
-0.995681, 53, 281, 68, 344
-0.995682, 289, 1, 416, 32
-0.99569, 41, 313, 56, 375
-0.995721, 99, 289, 114, 352
-0.995737, 365, 225, 396, 352
-0.995738, 181, 305, 196, 368
-0.995745, 125, 217, 140, 280
-0.995746, 141, 177, 156, 240
-0.995752, 401, 129, 416, 192
-0.995777, 175, 1, 190, 64
-0.995782, 309, 1, 340, 128
-0.995794, 201, 145, 232, 272
-0.995795, 353, 25, 368, 88
-0.995799, 225, 177, 256, 304
-0.995825, 97, 201, 112, 264
-0.99584, 195, 273, 210, 336
-0.995848, 469, 49, 484, 112
-0.995848, 123, 281, 138, 344
-0.995856, 273, 49, 400, 80
-0.995858, 137, 249, 152, 312
-0.995873, 197, 193, 212, 256
-0.995875, 41, 281, 56, 344
-0.995894, 377, 41, 392, 104
-0.995899, 81, 253, 208, 284
-0.995901, 113, 333, 240, 364
-0.995907, 33, 65, 160, 96
-0.995912, 123, 185, 138, 248
-0.995925, 67, 81, 82, 144
-0.995936, 289, 185, 304, 248
-0.995937, 165, 9, 180, 72
-0.995968, 149, 273, 164, 336
-0.995969, 333, 41, 348, 104
-0.995971, 273, 181, 400, 212
-0.995976, 69, 105, 84, 168
-0.996006, 401, 161, 416, 224
-0.996012, 273, 317, 400, 348
-0.996028, 35, 289, 50, 352
-0.996031, 63, 273, 78, 336
-0.996043, 43, 257, 58, 320
-0.996051, 385, 129, 400, 192
-0.996061, 353, 193, 480, 224
-0.996065, 111, 265, 126, 328
-0.996077, 465, 1, 496, 256
-0.996081, 189, 265, 204, 328
-0.996085, 339, 193, 354, 256
-0.996086, 399, 97, 414, 160
-0.996099, 141, 209, 156, 272
-0.9961, 319, 169, 334, 232
-0.996111, 335, 65, 350, 128
-0.996127, 435, 89, 450, 152
-0.996138, 1, 317, 128, 348
-0.996138, 337, 325, 464, 356
-0.996141, 273, 261, 400, 292
-0.996146, 123, 257, 138, 320
-0.996149, 241, 221, 368, 252
-0.996151, 273, 25, 400, 56
-0.996157, 55, 305, 70, 368
-0.996206, 145, 301, 272, 332
-0.996239, 273, 273, 400, 304
-0.996241, 97, 305, 224, 336
-0.996248, 305, 149, 432, 180
-0.996254, 65, 241, 192, 272
-0.996275, 17, 173, 144, 204
-0.996313, 81, 97, 112, 352
-0.996331, 257, 237, 384, 268
-0.996365, 257, 337, 384, 368
-0.996378, 145, 225, 272, 256
-0.996388, 49, 129, 176, 160
-0.996426, 81, 317, 208, 348
-0.996471, 49, 109, 176, 140
-0.996476, 369, 97, 496, 128
-0.996498, 129, 161, 384, 224
-0.996508, 257, 293, 384, 324
-0.996511, 65, 97, 96, 352
-0.996538, 241, 61, 368, 92
-0.996539, 337, 13, 464, 44
-0.996554, 273, 13, 400, 44
-0.996562, 97, 225, 224, 256
-0.996562, 161, 277, 288, 308
-0.996571, 257, 289, 500, 352
-0.996577, 145, 289, 272, 320
-0.99658, 1, 153, 128, 184
-0.996588, 257, 249, 384, 280
-0.996613, 177, 185, 304, 216
-0.996626, 17, 265, 144, 296
-0.996656, 225, 241, 480, 304
-0.996656, 321, 113, 448, 144
-0.996671, 369, 209, 496, 272
-0.99668, 289, 125, 416, 156
-0.996746, 377, 33, 408, 288
-0.996752, 273, 169, 400, 200
-0.996759, 113, 241, 240, 272
-0.996766, 129, 65, 384, 128
-0.996798, 113, 173, 240, 204
-0.996798, 109, 97, 140, 352
-0.996823, 343, 41, 358, 72
-0.996862, 161, 265, 288, 296
-0.99687, 451, 65, 466, 96
-0.996876, 129, 321, 256, 352
-0.996884, 49, 141, 176, 172
-0.996892, 339, 53, 354, 84
-0.996892, 337, 313, 464, 344
-0.996894, 457, 73, 472, 104
-0.996908, 193, 49, 320, 80
-0.996929, 89, 1, 120, 256
-0.996935, 161, 241, 288, 272
-0.996943, 113, 49, 240, 80
-0.996956, 469, 53, 484, 84
-0.996964, 97, 129, 128, 375
-0.996969, 209, 49, 272, 176
-0.996975, 443, 77, 458, 108
-0.996996, 113, 157, 240, 188
-0.997004, 1, 185, 128, 216
-0.997021, 65, 1, 96, 256
-0.997035, 151, 345, 166, 375
-0.997043, 341, 129, 372, 375
-0.997045, 157, 337, 172, 368
-0.997066, 457, 53, 472, 84
-0.997096, 1, 333, 128, 364
-0.997101, 115, 213, 130, 244
-0.997104, 145, 197, 160, 228
-0.997111, 393, 241, 456, 368
-0.997112, 445, 49, 460, 80
-0.997126, 121, 345, 136, 375
-0.997131, 163, 325, 178, 356
-0.997139, 121, 129, 152, 375
-0.997148, 321, 169, 448, 200
-0.997157, 309, 197, 324, 228
-0.997178, 129, 5, 256, 36
-0.997206, 193, 293, 320, 324
-0.997207, 463, 57, 478, 88
-0.997214, 161, 173, 288, 204
-0.997226, 1, 81, 128, 112
-0.997228, 209, 305, 336, 336
-0.997238, 193, 229, 320, 260
-0.997254, 217, 201, 232, 232
-0.997274, 145, 313, 160, 344
-0.99728, 451, 85, 466, 116
-0.997282, 157, 269, 172, 300
-0.99729, 139, 209, 154, 240
-0.997304, 163, 261, 178, 292
-0.997304, 151, 205, 166, 236
-0.997306, 107, 289, 122, 320
-0.997315, 171, 325, 186, 356
-0.997324, 305, 137, 432, 168
-0.997324, 113, 69, 240, 100
-0.997332, 115, 289, 130, 320
-0.997342, 315, 193, 330, 224
-0.997357, 445, 1, 476, 256
-0.997368, 333, 1, 364, 256
-0.997385, 305, 293, 432, 324
-0.997392, 113, 345, 128, 375
-0.997397, 69, 301, 84, 332
-0.997408, 321, 25, 448, 56
-0.997411, 95, 213, 110, 244
-0.997416, 353, 241, 480, 304
-0.99743, 439, 61, 454, 92
-0.997431, 165, 337, 180, 368
-0.997432, 141, 281, 156, 312
-0.997444, 61, 297, 76, 328
-0.997448, 369, 173, 496, 204
-0.99745, 125, 209, 140, 240
-0.997464, 241, 157, 368, 188
-0.997467, 53, 129, 84, 375
-0.997467, 159, 185, 174, 216
-0.997468, 147, 293, 162, 324
-0.997471, 129, 33, 256, 64
-0.997482, 105, 201, 120, 232
-0.997486, 1, 113, 128, 144
-0.997493, 161, 129, 192, 375
-0.997497, 151, 177, 166, 208
-0.997499, 389, 201, 404, 232
-0.997509, 161, 89, 416, 152
-0.997514, 53, 205, 68, 236
-0.997518, 209, 269, 336, 300
-0.997518, 303, 197, 318, 228
-0.997519, 225, 181, 352, 212
-0.997533, 393, 65, 424, 320
-0.997534, 193, 217, 320, 248
-0.997537, 153, 317, 168, 348
-0.997542, 341, 209, 356, 240
-0.997546, 293, 1, 324, 256
-0.997547, 133, 205, 148, 236
-0.997548, 383, 205, 398, 236
-0.997549, 105, 213, 120, 244
-0.99757, 329, 129, 360, 375
-0.99757, 347, 197, 362, 228
-0.997591, 429, 1, 460, 256
-0.997594, 337, 197, 352, 228
-0.997598, 357, 97, 388, 352
-0.997607, 67, 213, 82, 244
-0.997609, 19, 341, 34, 372
-0.99761, 289, 101, 416, 132
-0.99761, 173, 289, 188, 320
-0.997611, 169, 313, 184, 344
-0.997612, 117, 277, 132, 308
-0.997612, 81, 169, 96, 200
-0.997618, 47, 245, 62, 276
-0.997624, 151, 257, 166, 288
-0.997624, 77, 297, 92, 328
-0.997625, 177, 325, 304, 356
-0.997634, 383, 57, 398, 88
-0.997634, 129, 1, 160, 256
-0.997642, 89, 201, 104, 232
-0.997646, 331, 193, 346, 224
-0.997653, 227, 209, 242, 240
-0.997661, 351, 53, 366, 84
-0.997664, 405, 1, 436, 256
-0.997666, 369, 25, 496, 56
-0.997671, 97, 201, 112, 232
-0.997684, 1, 137, 128, 168
-0.997685, 39, 293, 54, 324
-0.997688, 337, 65, 352, 96
-0.997694, 289, 225, 416, 256
-0.997695, 371, 197, 386, 228
-0.997695, 131, 341, 146, 372
-0.997706, 161, 201, 176, 232
-0.997711, 209, 245, 336, 276
-0.997713, 101, 1, 132, 256
-0.997718, 131, 217, 146, 248
-0.997724, 163, 273, 178, 304
-0.997725, 139, 197, 154, 228
-0.997729, 445, 65, 460, 96
-0.997729, 343, 29, 358, 60
-0.997731, 295, 189, 310, 220
-0.997733, 129, 281, 144, 312
-0.997743, 323, 193, 338, 224
-0.997747, 137, 297, 152, 328
-0.997749, 337, 37, 352, 68
-0.997751, 181, 281, 196, 312
-0.997753, 153, 189, 168, 220
-0.997765, 113, 165, 128, 196
-0.997766, 363, 57, 378, 88
-0.997769, 211, 201, 226, 232
-0.997772, 95, 293, 110, 324
-0.997773, 187, 209, 202, 240
-0.997777, 67, 197, 82, 228
-0.997779, 47, 301, 62, 332
-0.997799, 463, 69, 478, 100
-0.997803, 391, 57, 406, 88
-0.997807, 51, 221, 66, 252
-0.997809, 461, 41, 476, 72
-0.997816, 377, 129, 408, 375
-0.997819, 361, 1, 392, 256
-0.99782, 359, 193, 374, 224
-0.99782, 123, 221, 138, 252
-0.997821, 59, 201, 74, 232
-0.997824, 145, 209, 160, 240
-0.997828, 435, 81, 450, 112
-0.997829, 345, 53, 360, 84
-0.997838, 105, 177, 120, 208
-0.997842, 99, 169, 114, 200
-0.997843, 389, 37, 404, 68
-0.997848, 353, 193, 368, 224
-0.997861, 45, 345, 60, 375
-0.997863, 151, 329, 166, 360
-0.997865, 183, 337, 198, 368
-0.997866, 87, 169, 102, 200
-0.99788, 409, 49, 424, 80
-0.99788, 293, 129, 324, 375
-0.997882, 29, 293, 44, 324
-0.997883, 77, 205, 92, 236
-0.997885, 135, 281, 150, 312
-0.997886, 55, 345, 70, 375
-0.997889, 381, 69, 396, 100
-0.997891, 35, 213, 50, 244
-0.997895, 161, 309, 176, 340
-0.997895, 149, 129, 180, 375
-0.997896, 145, 345, 160, 375
-0.997901, 157, 257, 172, 288
-0.997901, 135, 169, 150, 200
-0.997905, 125, 293, 140, 324
-0.997913, 377, 197, 392, 228
-0.99792, 83, 205, 98, 236
-0.99792, 117, 201, 132, 232
-0.997922, 127, 185, 142, 216
-0.997928, 121, 333, 136, 364
-0.997934, 3, 305, 18, 336
-0.997937, 131, 301, 146, 332
-0.99794, 193, 129, 224, 375
-0.997941, 151, 269, 166, 300
-0.997943, 177, 329, 192, 360
-0.997943, 17, 325, 32, 356
-0.997944, 173, 301, 188, 332
-0.997945, 141, 333, 156, 364
-0.997982, 77, 1, 108, 256
-0.99803, 137, 97, 168, 352
-0.998041, 117, 1, 148, 256
-0.998045, 305, 129, 336, 375
-0.998079, 345, 1, 376, 256
-0.998105, 233, 49, 296, 176
-0.998141, 317, 129, 348, 375
-0.998175, 417, 1, 448, 256
-0.998213, 173, 129, 204, 375
-0.998231, 257, 265, 500, 328
-0.998239, 129, 137, 384, 200
-0.998246, 189, 1, 220, 256
-0.99829, 277, 1, 308, 256
-0.998361, 161, 1, 192, 256
-0.998412, 113, 355, 176, 370
-0.998412, 329, 49, 392, 64
-0.998419, 137, 349, 200, 364
-0.998419, 137, 213, 200, 228
-0.998419, 305, 1, 336, 256
-0.998431, 113, 217, 176, 232
-0.998433, 289, 211, 352, 226
-0.998435, 113, 347, 176, 362
-0.998445, 57, 171, 120, 186
-0.998446, 25, 301, 88, 316
-0.998448, 145, 343, 208, 358
-0.998448, 113, 361, 176, 375
-0.998451, 125, 257, 156, 272
-0.998451, 105, 225, 136, 240
-0.998451, 41, 223, 72, 238
-0.998452, 397, 191, 428, 206
-0.998452, 57, 203, 88, 218
-0.998453, 153, 283, 184, 298
-0.998453, 369, 181, 400, 196
-0.998453, 69, 225, 100, 240
-0.998453, 101, 291, 132, 306
-0.998455, 405, 97, 436, 352
-0.998457, 329, 49, 360, 64
-0.998458, 305, 189, 336, 204
-0.998458, 109, 337, 140, 352
-0.998458, 381, 59, 412, 74
-0.998458, 285, 193, 316, 208
-0.998459, 373, 197, 404, 212
-0.998461, 145, 187, 176, 202
-0.998461, 161, 309, 192, 324
-0.998461, 165, 203, 196, 218
-0.998461, 137, 331, 200, 346
-0.998463, 137, 193, 168, 208
-0.998464, 177, 207, 240, 222
-0.998465, 105, 191, 168, 206
-0.998466, 137, 257, 168, 272
-0.998466, 129, 205, 160, 220
-0.998466, 329, 61, 360, 76
-0.998469, 157, 291, 188, 306
-0.998469, 257, 193, 320, 208
-0.998471, 137, 293, 200, 308
-0.998471, 397, 201, 428, 216
-0.998471, 53, 357, 84, 372
-0.998471, 133, 321, 164, 336
-0.998472, 97, 207, 128, 222
-0.998472, 437, 89, 468, 104
-0.998473, 385, 199, 416, 214
-0.998473, 65, 195, 128, 210
-0.998474, 105, 223, 168, 238
-0.998474, 113, 297, 144, 312
-0.998474, 381, 179, 412, 194
-0.998475, 93, 195, 124, 210
-0.998475, 145, 261, 208, 276
-0.998476, 329, 197, 392, 212
-0.998477, 145, 275, 176, 290
-0.998477, 57, 297, 120, 312
-0.998477, 113, 189, 144, 204
-0.998478, 377, 65, 408, 80
-0.998479, 25, 309, 88, 324
-0.998479, 25, 293, 56, 308
-0.99848, 65, 53, 96, 68
-0.99848, 353, 49, 416, 64
-0.998482, 329, 67, 360, 82
-0.998483, 93, 221, 124, 236
-0.998483, 121, 305, 184, 320
-0.998484, 165, 345, 196, 360
-0.998484, 57, 45, 120, 60
-0.998484, 45, 299, 76, 314
-0.998485, 1, 305, 64, 320
-0.998485, 105, 197, 168, 212
-0.998486, 353, 55, 416, 70
-0.998486, 161, 315, 192, 330
-0.998487, 441, 65, 472, 80
-0.998487, 341, 207, 372, 222
-0.998488, 137, 211, 168, 226
-0.998489, 197, 203, 228, 218
-0.998491, 49, 217, 80, 232
-0.998492, 129, 343, 160, 358
-0.998492, 145, 207, 208, 222
-0.998492, 117, 279, 148, 294
-0.998493, 17, 221, 80, 236
-0.998493, 333, 213, 364, 228
-0.998493, 45, 33, 76, 288
-0.998493, 73, 211, 104, 226
-0.998493, 165, 213, 196, 228
-0.998494, 357, 69, 388, 84
-0.998494, 457, 73, 488, 88
-0.998494, 49, 203, 112, 218
-0.998495, 469, 117, 500, 132
-0.998496, 17, 213, 80, 228
-0.998496, 361, 63, 392, 78
-0.998496, 113, 335, 176, 350
-0.998497, 129, 287, 192, 302
-0.998498, 29, 299, 60, 314
-0.998498, 57, 251, 120, 266
-0.998498, 285, 205, 316, 220
-0.998498, 137, 263, 168, 278
-0.998499, 153, 223, 216, 238
-0.9985, 65, 211, 128, 226
-0.9985, 345, 213, 408, 228
-0.9985, 149, 1, 180, 256
-0.9985, 161, 223, 192, 238
-0.998504, 41, 213, 104, 228
-0.998504, 441, 121, 472, 136
-0.998505, 81, 219, 144, 234
-0.998506, 109, 169, 140, 184
-0.998507, 109, 361, 140, 375
-0.998507, 137, 219, 168, 234
-0.998508, 137, 357, 168, 372
-0.998508, 41, 227, 104, 242
-0.998508, 65, 275, 128, 290
-0.998508, 137, 315, 200, 330
-0.998509, 161, 297, 192, 312
-0.998509, 337, 69, 400, 84
-0.99851, 225, 195, 288, 210
-0.99851, 45, 257, 76, 272
-0.99851, 81, 171, 144, 186
-0.998511, 449, 51, 480, 66
-0.998511, 93, 201, 124, 216
-0.998511, 77, 171, 108, 186
-0.998512, 81, 297, 144, 312
-0.998512, 113, 341, 176, 356
-0.998513, 117, 309, 148, 324
-0.998513, 17, 207, 80, 222
-0.998513, 81, 225, 144, 240
-0.998514, 137, 355, 200, 370
-0.998514, 97, 291, 160, 306
-0.998515, 89, 295, 120, 310
-0.998515, 329, 207, 392, 222
-0.998515, 321, 213, 384, 228
-0.998515, 433, 119, 496, 134
-0.998515, 73, 187, 136, 202
-0.998516, 25, 315, 88, 330
-0.998516, 329, 55, 392, 70
-0.998516, 329, 55, 360, 70
-0.998517, 57, 303, 120, 318
-0.998518, 149, 329, 180, 344
-0.998518, 121, 171, 152, 186
-0.998518, 41, 219, 104, 234
-0.998519, 461, 67, 492, 82
-0.998519, 369, 187, 432, 202
-0.99852, 133, 301, 164, 316
-0.99852, 329, 207, 360, 222
-0.998521, 333, 41, 364, 56
-0.998522, 297, 205, 328, 220
-0.998525, 141, 199, 172, 214
-0.998525, 97, 309, 160, 324
-0.998526, 133, 293, 164, 308
-0.998526, 29, 219, 60, 234
-0.998527, 369, 203, 400, 218
-0.998528, 349, 199, 380, 214
-0.998528, 121, 269, 184, 284
-0.998529, 121, 325, 184, 340
-0.99853, 77, 205, 108, 220
-0.99853, 121, 259, 184, 274
-0.998531, 113, 173, 176, 188
-0.998532, 149, 317, 180, 332
-0.998533, 57, 299, 88, 314
-0.998534, 109, 303, 140, 318
-0.998534, 157, 323, 188, 338
-0.998534, 105, 285, 168, 300
-0.998534, 33, 129, 64, 375
-0.998535, 9, 337, 72, 352
-0.998535, 73, 181, 136, 196
-0.998536, 377, 73, 408, 88
-0.998536, 453, 117, 484, 132
-0.998537, 297, 197, 360, 212
-0.998538, 105, 207, 168, 222
-0.998539, 57, 105, 120, 120
-0.99854, 117, 221, 148, 236
-0.99854, 89, 169, 120, 184
-0.99854, 345, 39, 408, 54
-0.99854, 133, 315, 164, 330
-0.998541, 345, 41, 376, 56
-0.998541, 145, 267, 208, 282
-0.998542, 297, 205, 360, 220
-0.998543, 441, 77, 472, 92
-0.998543, 161, 339, 192, 354
-0.998545, 313, 211, 344, 226
-0.998545, 353, 205, 416, 220
-0.998545, 161, 295, 224, 310
-0.998546, 25, 199, 88, 214
-0.998546, 137, 299, 200, 314
-0.998547, 361, 193, 424, 208
-0.998547, 65, 345, 128, 360
-0.998547, 93, 213, 124, 228
-0.998548, 325, 193, 356, 208
-0.998548, 117, 349, 148, 364
-0.998549, 145, 337, 208, 352
-0.998549, 121, 185, 184, 200
-0.998549, 145, 335, 176, 350
-0.99855, 65, 173, 96, 188
-0.99855, 113, 287, 144, 302
-0.99855, 417, 67, 480, 82
-0.998551, 353, 199, 416, 214
-0.998551, 25, 361, 88, 375
-0.998551, 57, 75, 120, 90
-0.998552, 149, 193, 180, 208
-0.998553, 65, 305, 96, 320
-0.998553, 341, 47, 372, 62
-0.998553, 369, 61, 432, 76
-0.998553, 9, 355, 72, 370
-0.998553, 369, 175, 432, 190
-0.998553, 169, 1, 232, 16
-0.998554, 121, 213, 152, 228
-0.998555, 137, 275, 200, 290
-0.998555, 113, 319, 176, 334
-0.998555, 337, 33, 400, 48
-0.998555, 313, 67, 376, 82
-0.998556, 149, 211, 180, 226
-0.998557, 149, 261, 180, 276
-0.998557, 425, 53, 488, 68
-0.998557, 57, 33, 120, 48
-0.998557, 121, 355, 152, 370
-0.998557, 433, 75, 496, 90
-0.998558, 425, 81, 488, 96
-0.998558, 113, 179, 176, 194
-0.998559, 305, 191, 368, 206
-0.998561, 81, 361, 144, 375
-0.998561, 25, 295, 88, 310
-0.998562, 33, 257, 96, 272
-0.998562, 9, 329, 72, 344
-0.998563, 57, 99, 120, 114
-0.998563, 265, 207, 328, 222
-0.998563, 161, 303, 224, 318
-0.998563, 433, 91, 496, 106
-0.998564, 425, 59, 488, 74
-0.998565, 57, 111, 120, 126
-0.998565, 129, 35, 192, 50
-0.998566, 377, 199, 440, 214
-0.998566, 89, 213, 152, 228
-0.998566, 329, 61, 392, 76
-0.998566, 145, 201, 208, 216
-0.998567, 149, 309, 180, 324
-0.998567, 57, 67, 120, 82
-0.998568, 169, 283, 232, 298
-0.998568, 145, 325, 208, 340
-0.998568, 169, 213, 232, 228
-0.998569, 225, 201, 288, 216
-0.99857, 161, 349, 224, 364
-0.998572, 89, 351, 152, 366
-0.998572, 57, 165, 120, 180
-0.998573, 305, 47, 368, 62
-0.998573, 401, 89, 464, 104
-0.998573, 453, 61, 484, 76
-0.998573, 145, 345, 176, 360
-0.998574, 129, 251, 192, 266
-0.998575, 25, 343, 88, 358
-0.998576, 105, 219, 136, 234
-0.998576, 57, 51, 120, 66
-0.998576, 305, 197, 336, 212
-0.998577, 33, 175, 96, 190
-0.998578, 361, 49, 392, 64
-0.998578, 69, 299, 100, 314
-0.998586, 145, 351, 176, 366
-0.998586, 165, 333, 196, 348
-0.9986, 129, 307, 160, 322
-0.998601, 437, 83, 468, 98
-0.998615, 209, 205, 240, 220
-0.998616, 341, 53, 372, 68
-0.998616, 149, 205, 180, 220
-0.998623, 109, 355, 140, 370
-0.998624, 441, 71, 472, 86
-0.998636, 341, 59, 372, 74
-0.998638, 341, 65, 372, 80
-0.998659, 177, 1, 208, 256
-0.998714, 321, 1, 352, 256
-0.99875, 465, 1, 480, 128
-0.998784, 353, 1, 368, 128
-0.99879, 101, 177, 116, 304
-0.998797, 469, 97, 500, 352
-0.998808, 157, 177, 172, 304
-0.998825, 463, 49, 478, 176
-0.998854, 471, 1, 486, 128
-0.998855, 95, 177, 110, 304
-0.998862, 21, 129, 52, 375
-0.998871, 367, 1, 382, 128
-0.998888, 477, 1, 492, 128
-0.998894, 213, 97, 244, 352
-0.998899, 85, 209, 100, 336
-0.998902, 121, 177, 136, 304
-0.998905, 155, 225, 170, 352
-0.99891, 41, 209, 56, 336
-0.998922, 149, 209, 164, 336
-0.998923, 343, 33, 358, 160
-0.998927, 29, 193, 44, 320
-0.998945, 421, 97, 452, 352
-0.998964, 179, 241, 194, 368
-0.998975, 439, 33, 454, 160
-0.998981, 483, 1, 498, 128
-0.998985, 171, 241, 186, 368
-0.998991, 295, 1, 310, 128
-0.998992, 163, 177, 178, 304
-0.998995, 77, 241, 92, 368
-0.998998, 185, 241, 200, 368
-0.999001, 139, 193, 154, 320
-0.999005, 273, 129, 304, 375
-0.999006, 377, 1, 392, 128
-0.99901, 411, 113, 426, 240
-0.999016, 115, 193, 130, 320
-0.999024, 79, 177, 94, 304
-0.999041, 123, 129, 138, 256
-0.999043, 261, 1, 292, 256
-0.999044, 469, 49, 484, 176
-0.99905, 337, 177, 352, 304
-0.999051, 95, 129, 110, 256
-0.999051, 457, 49, 472, 176
-0.999053, 359, 49, 374, 176
-0.99906, 449, 49, 464, 176
-0.999068, 35, 241, 50, 368
-0.999072, 371, 49, 386, 176
-0.999079, 63, 145, 78, 272
-0.999084, 117, 1, 132, 128
-0.999089, 195, 241, 210, 368
-0.99909, 433, 97, 464, 352
-0.999091, 109, 145, 124, 272
-0.999094, 351, 177, 366, 304
-0.999095, 343, 161, 358, 288
-0.999095, 47, 193, 62, 320
-0.999115, 173, 1, 188, 128
-0.999116, 131, 209, 146, 336
-0.999116, 89, 161, 104, 288
-0.999118, 111, 1, 126, 128
-0.999121, 387, 145, 402, 272
-0.999124, 67, 1, 82, 128
-0.999129, 303, 1, 318, 128
-0.99913, 165, 225, 180, 352
-0.999136, 201, 1, 232, 256
-0.999136, 459, 1, 474, 128
-0.999138, 117, 129, 132, 256
-0.99914, 289, 1, 304, 128
-0.99914, 53, 193, 68, 320
-0.99914, 59, 193, 74, 320
-0.999142, 393, 129, 408, 256
-0.999146, 35, 193, 50, 320
-0.999153, 377, 49, 392, 176
-0.999153, 433, 49, 448, 176
-0.999158, 237, 97, 268, 352
-0.999161, 361, 1, 376, 128
-0.999162, 143, 241, 158, 368
-0.999168, 71, 161, 86, 288
-0.99917, 123, 1, 138, 128
-0.999174, 369, 129, 384, 256
-0.999183, 337, 17, 352, 144
-0.999184, 109, 209, 124, 336
-0.999186, 71, 241, 86, 368
-0.999187, 205, 193, 220, 320
-0.999187, 125, 241, 140, 368
-0.999194, 101, 129, 116, 256
-0.999198, 129, 145, 144, 272
-0.999201, 93, 241, 108, 368
-0.999204, 153, 129, 168, 256
-0.999205, 485, 97, 500, 224
-0.999207, 381, 177, 396, 304
-0.999209, 379, 113, 394, 240
-0.999209, 365, 193, 380, 320
-0.999213, 423, 65, 438, 192
-0.999217, 167, 1, 182, 128
-0.99922, 401, 113, 416, 240
-0.999225, 119, 49, 134, 176
-0.999226, 349, 49, 364, 176
-0.999231, 365, 49, 380, 176
-0.999231, 325, 161, 340, 288
-0.999237, 51, 241, 66, 368
-0.999242, 347, 225, 362, 352
-0.99925, 475, 49, 490, 176
-0.999258, 331, 161, 346, 288
-0.999261, 373, 193, 388, 320
-0.999261, 69, 113, 84, 240
-0.999261, 99, 225, 114, 352
-0.999262, 257, 97, 288, 352
-0.999263, 309, 1, 324, 128
-0.999263, 211, 177, 226, 304
-0.999264, 317, 161, 332, 288
-0.999272, 443, 97, 458, 224
-0.999273, 63, 65, 78, 192
-0.999274, 407, 33, 422, 160
-0.999277, 23, 225, 38, 352
-0.999279, 359, 177, 374, 304
-0.999282, 343, 113, 358, 240
-0.999286, 39, 145, 54, 272
-0.999286, 145, 161, 160, 288
-0.999287, 353, 241, 368, 368
-0.999296, 417, 113, 432, 240
-0.9993, 199, 193, 214, 320
-0.999301, 61, 241, 76, 368
-0.999304, 191, 177, 206, 304
-0.99931, 473, 97, 488, 224
-0.999313, 113, 81, 128, 208
-0.999315, 447, 1, 462, 128
-0.999316, 311, 161, 326, 288
-0.99933, 383, 1, 398, 128
-0.999334, 423, 113, 438, 240
-0.999335, 299, 49, 314, 176
-0.999339, 437, 97, 452, 224
-0.999341, 349, 97, 364, 224
-0.999342, 415, 49, 430, 176
-0.999347, 29, 241, 44, 368
-0.999349, 481, 49, 496, 176
-0.999357, 135, 129, 150, 256
-0.999364, 359, 113, 374, 240
-0.999367, 51, 145, 66, 272
-0.999369, 383, 49, 398, 176
-0.999369, 363, 241, 378, 368
-0.999372, 413, 1, 428, 128
-0.999375, 137, 1, 152, 128
-0.999378, 331, 209, 346, 336
-0.999414, 449, 97, 480, 352
-0.999531, 225, 65, 256, 320
-0.999582, 249, 1, 280, 256
-0.999645, 391, 197, 406, 212
-0.999645, 445, 65, 460, 80
-0.999645, 339, 197, 354, 212
-0.999645, 465, 115, 480, 130
-0.999646, 87, 211, 102, 226
-0.999647, 449, 119, 464, 134
-0.999647, 127, 299, 142, 314
-0.999647, 165, 327, 180, 342
-0.999647, 49, 221, 64, 236
-0.999647, 113, 347, 128, 362
-0.999648, 123, 279, 138, 294
-0.999648, 89, 203, 104, 218
-0.999648, 79, 295, 94, 310
-0.999648, 379, 181, 394, 196
-0.999648, 153, 207, 168, 222
-0.999648, 171, 317, 186, 332
-0.999649, 159, 199, 174, 214
-0.999649, 63, 305, 78, 320
-0.99965, 157, 183, 172, 198
-0.99965, 385, 211, 400, 226
-0.99965, 61, 335, 76, 350
-0.99965, 131, 313, 146, 328
-0.999651, 137, 325, 152, 340
-0.999651, 165, 345, 180, 360
-0.999652, 361, 361, 376, 375
-0.999652, 445, 89, 460, 104
-0.999652, 201, 207, 216, 222
-0.999653, 337, 53, 352, 68
-0.999654, 117, 361, 132, 375
-0.999654, 345, 191, 360, 206
-0.999654, 455, 65, 470, 80
-0.999655, 351, 63, 366, 78
-0.999655, 91, 295, 106, 310
-0.999656, 99, 199, 114, 214
-0.999657, 51, 255, 66, 270
-0.999658, 95, 193, 110, 208
-0.999659, 105, 203, 120, 218
-0.999659, 141, 309, 156, 324
-0.999659, 351, 199, 366, 214
-0.999659, 385, 55, 400, 70
-0.99966, 337, 63, 352, 78
-0.99966, 45, 259, 60, 274
-0.99966, 75, 173, 90, 188
-0.99966, 445, 77, 460, 92
-0.99966, 103, 169, 118, 184
-0.999662, 153, 193, 168, 208
-0.999662, 145, 283, 160, 298
-0.999663, 57, 221, 72, 236
-0.999663, 161, 317, 176, 332
-0.999663, 451, 87, 466, 102
-0.999663, 391, 205, 406, 220
-0.999664, 151, 345, 166, 360
-0.999664, 107, 219, 122, 234
-0.999664, 375, 203, 390, 218
-0.999664, 451, 77, 466, 92
-0.999665, 71, 327, 86, 342
-0.999665, 143, 293, 158, 308
-0.999665, 163, 269, 178, 284
-0.999665, 157, 309, 172, 324
-0.999666, 143, 351, 158, 366
-0.999667, 391, 211, 406, 226
-0.999667, 137, 211, 152, 226
-0.999668, 439, 81, 454, 96
-0.999668, 457, 81, 472, 96
-0.999669, 153, 263, 168, 278
-0.99967, 137, 355, 152, 370
-0.99967, 123, 361, 138, 375
-0.999671, 121, 223, 136, 238
-0.999673, 107, 299, 122, 314
-0.999674, 335, 211, 350, 226
-0.999675, 65, 215, 80, 230
-0.999677, 315, 209, 330, 224
-0.999678, 213, 1, 244, 256
-0.999679, 135, 301, 150, 316
-0.999681, 473, 117, 488, 132
-0.999681, 373, 173, 388, 188
-0.999681, 117, 287, 132, 302
-0.999681, 175, 333, 190, 348
-0.999682, 381, 73, 396, 88
-0.999682, 95, 205, 110, 220
-0.999683, 95, 223, 110, 238
-0.999683, 105, 195, 120, 210
-0.999683, 157, 341, 172, 356
-0.999683, 61, 299, 76, 314
-0.999684, 69, 173, 84, 188
-0.999685, 127, 215, 142, 230
-0.999686, 159, 263, 174, 278
-0.999686, 77, 303, 92, 318
-0.999688, 129, 359, 144, 374
-0.99969, 113, 167, 128, 182
-0.99969, 451, 93, 466, 108
-0.99969, 111, 357, 126, 372
-0.99969, 149, 201, 164, 216
-0.999692, 121, 347, 136, 362
-0.999692, 133, 219, 148, 234
-0.999696, 83, 171, 98, 186
-0.999696, 459, 75, 474, 90
-0.999697, 111, 293, 126, 308
-0.999699, 123, 355, 138, 370
-0.999699, 159, 189, 174, 204
-0.999701, 129, 307, 144, 322
-0.999701, 467, 59, 482, 74
-0.999702, 307, 201, 322, 216
-0.999703, 127, 221, 142, 236
-0.999703, 343, 49, 358, 64
-0.999703, 171, 325, 186, 340
-0.999704, 139, 217, 154, 232
-0.999704, 1, 129, 32, 375
-0.999705, 155, 269, 170, 284
-0.999705, 85, 297, 100, 312
-0.999708, 143, 303, 158, 318
-0.999712, 301, 207, 316, 222
-0.999713, 69, 301, 84, 316
-0.999717, 119, 341, 134, 356
-0.999718, 343, 41, 358, 56
-0.999719, 159, 205, 174, 220
-0.999721, 459, 57, 474, 72
-0.999724, 141, 315, 156, 330
-0.999728, 385, 201, 400, 216
-0.999728, 151, 313, 166, 328
-0.99973, 465, 53, 480, 68
-0.99973, 343, 59, 358, 74
-0.99973, 223, 205, 238, 220
-0.999733, 461, 65, 476, 80
-0.999737, 211, 203, 226, 218
-0.999738, 147, 211, 162, 226
-0.999743, 117, 353, 132, 368
-0.999744, 451, 71, 466, 86
-0.999747, 135, 307, 150, 322
-0.999747, 161, 335, 176, 350
-0.999754, 117, 217, 132, 232
-0.999756, 341, 207, 356, 222
-1.00017, 237, 1, 268, 256
-1.00042, 9, 33, 72, 288
-1.00043, 29, 33, 60, 288
-1.00057, 9, 33, 40, 288
-1.00283, 1, 81, 64, 208
-1.00305, 417, 177, 480, 304
-1.00671, 433, 241, 496, 368
-1.00863, 1, 1, 64, 128
