1953
-0.251372, 1, 1, 500, 375
-0.292976, 257, 1, 500, 375
-0.319983, 129, 1, 384, 375
-0.349537, 1, 33, 500, 288
-0.376479, 33, 1, 288, 375
-0.418861, 1, 129, 500, 375
-0.446254, 33, 65, 288, 320
-0.452051, 129, 1, 384, 256
-0.519274, 257, 33, 500, 288
-0.578106, 225, 129, 480, 375
-0.628755, 129, 97, 384, 352
-0.809335, 177, 1, 304, 256
-0.811661, 353, 1, 480, 375
-0.818848, 209, 1, 336, 375
-0.821774, 321, 97, 448, 352
-0.824721, 289, 1, 416, 256
-0.82746, 225, 33, 352, 288
-0.836393, 353, 1, 480, 256
-0.837217, 145, 1, 272, 375
-0.838911, 273, 97, 400, 352
-0.839233, 305, 1, 432, 375
-0.841324, 257, 1, 384, 375
-0.848673, 81, 1, 208, 256
-0.849141, 225, 129, 352, 375
-0.850333, 1, 161, 500, 288
-0.85225, 65, 1, 192, 375
-0.852257, 1, 97, 500, 224
-0.855559, 369, 129, 496, 375
-0.859339, 145, 97, 272, 352
-0.865215, 129, 1, 256, 256
-0.86548, 1, 97, 128, 352
-0.86977, 17, 1, 144, 375
-0.872789, 1, 49, 500, 176
-0.876859, 1, 209, 500, 336
-0.88027, 97, 97, 224, 352
-0.883749, 193, 97, 448, 224
-0.885082, 1, 1, 500, 128
-0.887359, 65, 113, 320, 240
-0.892855, 17, 1, 144, 256
-0.899477, 193, 177, 448, 304
-0.905576, 1, 65, 256, 192
-0.90655, 129, 49, 384, 176
-0.909471, 257, 225, 500, 352
-0.909529, 241, 97, 368, 224
-0.911181, 257, 33, 500, 160
-0.911926, 65, 161, 320, 288
-0.912207, 49, 97, 176, 352
-0.913144, 321, 113, 448, 240
-0.916058, 209, 129, 272, 256
-0.917467, 65, 1, 320, 128
-0.917938, 281, 97, 344, 224
-0.918612, 177, 113, 304, 240
-0.918724, 289, 49, 416, 176
-0.920226, 353, 177, 480, 304
-0.920903, 297, 49, 360, 176
-0.921059, 321, 81, 384, 208
-0.923303, 177, 49, 304, 176
-0.923749, 1, 113, 128, 240
-0.924159, 233, 129, 296, 256
-0.924589, 369, 129, 496, 256
-0.924821, 369, 241, 496, 368
-0.925718, 393, 193, 456, 320
-0.927509, 249, 49, 312, 176
-0.927509, 257, 97, 320, 224
-0.927605, 129, 129, 256, 256
-0.927742, 129, 241, 384, 368
-0.928426, 145, 97, 208, 224
-0.928755, 329, 129, 392, 256
-0.928813, 97, 81, 224, 208
-0.929021, 217, 177, 280, 304
-0.929712, 209, 177, 336, 304
-0.93035, 33, 225, 288, 352
-0.931414, 169, 129, 232, 256
-0.932316, 369, 1, 496, 128
-0.933261, 305, 209, 432, 336
-0.933374, 425, 145, 488, 272
-0.933409, 353, 129, 416, 256
-0.935055, 273, 145, 400, 272
-0.936749, 241, 49, 368, 176
-0.937339, 353, 209, 416, 336
-0.93741, 49, 81, 176, 208
-0.937827, 361, 33, 424, 160
-0.937997, 257, 113, 320, 176
-0.938128, 17, 97, 80, 224
-0.93879, 1, 161, 128, 288
-0.938923, 305, 129, 368, 256
-0.939139, 81, 129, 208, 256
-0.940451, 65, 145, 128, 272
-0.940755, 377, 113, 440, 240
-0.941265, 409, 241, 472, 368
-0.941296, 169, 81, 232, 208
-0.94141, 281, 145, 344, 272
-0.941979, 297, 1, 360, 128
-0.94202, 321, 1, 448, 128
-0.942091, 273, 49, 336, 176
-0.942103, 281, 113, 344, 176
-0.943031, 417, 193, 480, 320
-0.943101, 105, 81, 168, 208
-0.943587, 209, 1, 336, 128
-0.94434, 257, 193, 384, 320
-0.944492, 145, 1, 272, 128
-0.944499, 337, 33, 400, 160
-0.944527, 193, 129, 256, 192
-0.945201, 209, 225, 272, 352
-0.945276, 65, 145, 128, 208
-0.945642, 81, 17, 208, 144
-0.946172, 161, 145, 224, 208
-0.946192, 145, 33, 208, 160
-0.946357, 321, 33, 384, 96
-0.946357, 289, 153, 352, 216
-0.946771, 353, 81, 416, 208
-0.946899, 353, 49, 480, 176
-0.946915, 161, 1, 416, 128
-0.947111, 329, 177, 392, 304
-0.947181, 105, 129, 168, 256
-0.947183, 201, 153, 264, 216
-0.947375, 145, 145, 208, 272
-0.947788, 1, 225, 128, 352
-0.947853, 433, 1, 496, 128
-0.948091, 265, 1, 328, 128
-0.94819, 145, 121, 208, 184
-0.948212, 225, 153, 288, 216
-0.948651, 201, 177, 264, 240
-0.948879, 249, 177, 312, 304
-0.949036, 193, 177, 256, 304
-0.949158, 257, 1, 384, 128
-0.94934, 321, 89, 384, 152
-0.949593, 33, 145, 96, 272
-0.949625, 393, 257, 456, 320
-0.94965, 225, 129, 288, 192
-0.949763, 145, 225, 272, 352
-0.949899, 9, 145, 72, 272
-0.950132, 393, 17, 456, 144
-0.950137, 385, 241, 448, 368
-0.951028, 169, 121, 232, 184
-0.951254, 265, 145, 328, 208
-0.951378, 313, 145, 376, 208
-0.952377, 153, 89, 216, 152
-0.952413, 145, 49, 208, 112
-0.952453, 417, 193, 480, 256
-0.952586, 401, 113, 464, 240
-0.952831, 297, 65, 360, 128
-0.952841, 49, 177, 176, 304
-0.952963, 33, 113, 96, 176
-0.953045, 353, 113, 416, 176
-0.953069, 433, 241, 496, 368
-0.953078, 9, 49, 72, 176
-0.953306, 385, 217, 448, 280
-0.953521, 1, 65, 128, 192
-0.953545, 233, 177, 296, 240
-0.95374, 9, 97, 72, 160
-0.954083, 25, 137, 88, 200
-0.954083, 209, 249, 272, 312
-0.954121, 65, 169, 128, 232
-0.954204, 361, 33, 424, 96
-0.954248, 193, 241, 320, 368
-0.954359, 73, 225, 136, 352
-0.954827, 233, 41, 296, 104
-0.955199, 313, 113, 376, 176
-0.955392, 297, 89, 360, 152
-0.955492, 257, 241, 384, 368
-0.955628, 1, 121, 64, 184
-0.955691, 297, 33, 360, 96
-0.955847, 49, 81, 112, 208
-0.956098, 129, 81, 192, 144
-0.956309, 73, 97, 136, 224
-0.956355, 409, 225, 472, 288
-0.956772, 297, 1, 360, 256
-0.956812, 433, 241, 496, 304
-0.95685, 385, 1, 448, 64
-0.957579, 393, 185, 456, 248
-0.957685, 401, 121, 464, 184
-0.957737, 257, 25, 320, 88
-0.957795, 321, 33, 384, 288
-0.957834, 137, 145, 200, 208
-0.957904, 209, 201, 272, 264
-0.957975, 209, 65, 272, 192
-0.958089, 97, 1, 160, 128
-0.958115, 305, 177, 368, 304
-0.958414, 289, 177, 352, 240
-0.958537, 321, 169, 384, 232
-0.959042, 401, 145, 464, 208
-0.959097, 433, 161, 496, 224
-0.959278, 257, 169, 320, 232
-0.95935, 233, 1, 296, 256
-0.959546, 361, 153, 424, 216
-0.959763, 49, 241, 176, 368
-0.959828, 361, 1, 424, 256
-0.959861, 321, 65, 384, 128
-0.960229, 25, 73, 88, 136
-0.960421, 273, 97, 336, 352
-0.960696, 121, 121, 184, 184
-0.960724, 105, 161, 168, 224
-0.960724, 353, 185, 416, 248
-0.960739, 233, 1, 296, 64
-0.960761, 293, 105, 324, 168
-0.960849, 145, 177, 272, 304
-0.960877, 217, 1, 280, 128
-0.960944, 33, 1, 96, 128
-0.961032, 209, 225, 272, 288
-0.961124, 105, 177, 168, 304
-0.961227, 313, 241, 376, 368
-0.961345, 249, 113, 280, 240
-0.961445, 17, 17, 144, 144
-0.961781, 433, 273, 496, 336
-0.961856, 113, 9, 176, 72
-0.962045, 185, 241, 248, 368
-0.962104, 273, 105, 400, 168
-0.962185, 49, 193, 112, 320
-0.962191, 161, 129, 288, 192
-0.962499, 209, 25, 272, 88
-0.962748, 173, 97, 204, 224
-0.963354, 289, 97, 320, 224
-0.963489, 385, 33, 448, 96
-0.963638, 225, 121, 352, 184
-0.963655, 265, 1, 328, 256
-0.963811, 209, 129, 240, 256
-0.963837, 41, 161, 104, 224
-0.963932, 177, 121, 208, 184
-0.963939, 277, 113, 308, 176
-0.964126, 121, 1, 184, 128
-0.96418, 433, 121, 496, 184
-0.964298, 297, 1, 360, 64
-0.964461, 153, 97, 216, 352
-0.964571, 257, 193, 320, 256
-0.964575, 73, 153, 104, 216
-0.964612, 225, 145, 256, 272
-0.964659, 29, 89, 60, 152
-0.964714, 289, 49, 320, 176
-0.964856, 257, 121, 288, 184
-0.964865, 417, 25, 480, 88
-0.964968, 297, 145, 328, 208
-0.965252, 97, 209, 224, 336
-0.965288, 25, 225, 88, 352
-0.965309, 369, 249, 432, 312
-0.965418, 321, 185, 448, 248
-0.965426, 185, 33, 248, 160
-0.965431, 249, 33, 280, 96
-0.965499, 217, 97, 280, 352
-0.965656, 193, 161, 320, 224
-0.965824, 241, 145, 368, 208
-0.966035, 221, 185, 252, 248
-0.966101, 353, 57, 416, 120
-0.966266, 321, 113, 448, 176
-0.966367, 237, 129, 268, 256
-0.96648, 245, 145, 276, 208
-0.966497, 321, 193, 384, 256
-0.96651, 433, 97, 496, 224
-0.966631, 321, 49, 352, 176
-0.966642, 269, 145, 300, 208
-0.966706, 269, 97, 300, 224
-0.966743, 129, 1, 192, 256
-0.96693, 405, 177, 436, 304
-0.967043, 1, 169, 64, 232
-0.967139, 73, 257, 136, 320
-0.967275, 65, 233, 128, 296
-0.967427, 37, 65, 68, 192
-0.967437, 145, 153, 272, 216
-0.967446, 225, 273, 288, 336
-0.967467, 213, 177, 244, 304
-0.967476, 353, 9, 416, 72
-0.967509, 257, 1, 320, 64
-0.967511, 73, 193, 136, 256
-0.967541, 105, 73, 168, 136
-0.967658, 369, 97, 432, 352
-0.967759, 177, 89, 240, 152
-0.967778, 329, 129, 360, 256
-0.967834, 353, 153, 480, 216
-0.967928, 185, 217, 248, 280
-0.968073, 369, 193, 496, 256
-0.968103, 309, 121, 340, 184
-0.968125, 305, 97, 336, 224
-0.968239, 1, 153, 128, 216
-0.96829, 305, 153, 432, 216
-0.968336, 121, 33, 184, 96
-0.968394, 377, 121, 440, 184
-0.968429, 25, 81, 56, 208
-0.968459, 209, 1, 272, 256
-0.96852, 309, 33, 340, 96
-0.968524, 9, 97, 72, 352
-0.968591, 297, 97, 360, 352
-0.968657, 249, 65, 312, 128
-0.968682, 177, 169, 240, 232
-0.968728, 353, 225, 416, 288
-0.968818, 329, 129, 392, 375
-0.969007, 389, 113, 420, 176
-0.969078, 17, 105, 48, 168
-0.969081, 209, 305, 272, 368
-0.969373, 161, 313, 224, 375
-0.969376, 1, 145, 64, 208
-0.969435, 241, 33, 368, 96
-0.969443, 337, 257, 464, 320
-0.969466, 89, 153, 120, 216
-0.969496, 241, 297, 304, 360
-0.969535, 417, 129, 480, 375
-0.969615, 1, 305, 64, 368
-0.969655, 405, 1, 436, 64
-0.969688, 165, 129, 196, 192
-0.969703, 1, 193, 64, 256
-0.969865, 1, 177, 128, 240
-0.969871, 317, 129, 348, 256
-0.969872, 241, 241, 304, 368
-0.969899, 29, 65, 60, 128
-0.969925, 409, 1, 472, 64
-0.969937, 321, 161, 352, 224
-0.970002, 425, 1, 488, 256
-0.970056, 69, 145, 100, 272
-0.970195, 273, 89, 336, 152
-0.970407, 345, 97, 376, 224
-0.970409, 189, 129, 220, 192
-0.97041, 81, 145, 208, 208
-0.970487, 421, 193, 452, 320
-0.9705, 321, 9, 384, 72
-0.970523, 421, 201, 452, 264
-0.970527, 305, 97, 336, 160
-0.970669, 81, 121, 208, 184
-0.970679, 373, 97, 404, 224
-0.970718, 1, 65, 64, 128
-0.970726, 273, 49, 304, 176
-0.970735, 369, 33, 400, 160
-0.970824, 97, 41, 160, 104
-0.970826, 361, 97, 392, 224
-0.970873, 1, 193, 64, 320
-0.970941, 241, 97, 304, 352
-0.970944, 153, 97, 184, 224
-0.970952, 385, 97, 416, 224
-0.970954, 149, 121, 180, 184
-0.970987, 397, 113, 428, 240
-0.971026, 81, 145, 112, 272
-0.971038, 105, 185, 168, 248
-0.971139, 401, 209, 432, 272
-0.971259, 157, 89, 188, 152
-0.971288, 329, 217, 392, 280
-0.971327, 49, 113, 80, 176
-0.971431, 65, 121, 128, 184
-0.971433, 361, 113, 392, 176
-0.971468, 13, 97, 44, 224
-0.97152, 185, 265, 248, 328
-0.97156, 145, 9, 272, 72
-0.971618, 433, 193, 464, 320
-0.971639, 401, 1, 464, 256
-0.971749, 217, 153, 248, 216
-0.971842, 369, 289, 432, 352
-0.971925, 345, 257, 408, 320
-0.971929, 401, 65, 464, 192
-0.971951, 145, 169, 208, 232
-0.972076, 309, 49, 340, 176
-0.972088, 97, 73, 224, 136
-0.97216, 37, 113, 68, 176
-0.972188, 97, 105, 160, 168
-0.972203, 209, 1, 272, 64
-0.972216, 409, 281, 472, 344
-0.972302, 49, 193, 112, 256
-0.972316, 257, 161, 288, 288
-0.972385, 337, 137, 400, 200
-0.972398, 193, 57, 256, 120
-0.972429, 41, 81, 72, 144
-0.972445, 113, 225, 176, 352
-0.972575, 241, 169, 368, 232
-0.97258, 65, 17, 128, 144
-0.972583, 329, 33, 360, 96
-0.972596, 185, 305, 248, 368
-0.97261, 17, 113, 144, 176
-0.972692, 105, 249, 168, 312
-0.972766, 385, 9, 416, 72
-0.972767, 241, 1, 304, 128
-0.972825, 357, 145, 388, 272
-0.972894, 209, 193, 240, 256
-0.972933, 9, 129, 40, 192
-0.972991, 281, 153, 312, 216
-0.973045, 273, 281, 336, 344
-0.973091, 33, 265, 96, 328
-0.973124, 49, 73, 112, 136
-0.973156, 373, 113, 404, 176
-0.973166, 397, 1, 428, 128
-0.973167, 345, 89, 408, 152
-0.973297, 189, 129, 220, 256
-0.973313, 153, 1, 216, 256
-0.973327, 209, 9, 336, 72
-0.973377, 353, 41, 480, 104
-0.973377, 193, 185, 320, 248
-0.973436, 325, 113, 356, 176
-0.973566, 185, 65, 248, 320
-0.973655, 337, 233, 464, 296
-0.973666, 433, 297, 496, 360
-0.973698, 329, 65, 360, 128
-0.973706, 273, 65, 336, 128
-0.973706, 369, 121, 496, 184
-0.973735, 1, 241, 64, 368
-0.973754, 177, 41, 304, 104
-0.973807, 141, 81, 172, 208
-0.973814, 225, 129, 256, 192
-0.973907, 345, 97, 376, 160
-0.974017, 405, 177, 436, 240
-0.97403, 237, 33, 268, 96
-0.974085, 89, 129, 152, 192
-0.974111, 297, 305, 360, 368
-0.974151, 129, 305, 192, 368
-0.974392, 233, 201, 296, 264
-0.974412, 301, 1, 332, 128
-0.974479, 213, 217, 244, 280
-0.974487, 389, 33, 420, 96
-0.974503, 401, 97, 464, 160
-0.97459, 325, 1, 356, 128
-0.97459, 321, 137, 352, 200
-0.974666, 393, 97, 456, 352
-0.974695, 281, 145, 312, 272
-0.974703, 169, 177, 232, 304
-0.974716, 369, 313, 432, 375
-0.974882, 221, 97, 252, 224
-0.974927, 161, 17, 224, 80
-0.975005, 25, 129, 56, 192
-0.975013, 305, 9, 432, 72
-0.975013, 177, 89, 208, 152
-0.97502, 201, 129, 232, 192
-0.975088, 377, 161, 408, 288
-0.975092, 265, 1, 328, 375
-0.975164, 93, 145, 124, 272
-0.975177, 189, 81, 220, 208
-0.975211, 393, 1, 456, 375
-0.975261, 113, 281, 176, 344
-0.975299, 245, 121, 276, 184
-0.975309, 129, 33, 256, 96
-0.975312, 225, 97, 352, 160
-0.97539, 273, 65, 400, 128
-0.975434, 237, 169, 268, 232
-0.975438, 49, 97, 80, 224
-0.975443, 309, 153, 340, 216
-0.975463, 393, 161, 424, 288
-0.97547, 449, 129, 480, 256
-0.975474, 233, 225, 296, 288
-0.975565, 357, 153, 388, 216
-0.975584, 269, 169, 300, 232
-0.975623, 249, 177, 280, 240
-0.975648, 429, 265, 460, 328
-0.975679, 297, 281, 360, 344
-0.975695, 189, 153, 220, 216
-0.975714, 201, 105, 264, 168
-0.975719, 41, 233, 104, 296
-0.975857, 17, 89, 144, 152
-0.975873, 349, 49, 380, 176
-0.976135, 233, 105, 296, 168
-0.976275, 333, 65, 364, 192
-0.976302, 37, 113, 68, 240
-0.976312, 253, 49, 284, 176
-0.976348, 33, 313, 96, 375
-0.976361, 461, 193, 492, 320
-0.976458, 265, 1, 296, 64
-0.976487, 333, 137, 364, 200
-0.976563, 413, 241, 444, 304
-0.97659, 145, 105, 272, 168
-0.976595, 321, 1, 352, 64
-0.976618, 217, 241, 248, 304
-0.976622, 369, 297, 496, 360
-0.976669, 201, 153, 232, 216
-0.97668, 449, 249, 480, 312
-0.976694, 417, 241, 448, 368
-0.976735, 77, 97, 108, 224
-0.976818, 237, 49, 268, 176
-0.976848, 409, 113, 440, 240
-0.976882, 305, 305, 432, 368
-0.976888, 33, 33, 96, 288
-0.976933, 305, 209, 432, 272
-0.976938, 105, 97, 168, 352
-0.976965, 253, 1, 284, 64
-0.977059, 401, 113, 432, 176
-0.977119, 229, 193, 260, 320
-0.977135, 377, 145, 408, 208
-0.977162, 73, 129, 104, 192
-0.977291, 289, 33, 416, 96
-0.977305, 345, 73, 376, 136
-0.97732, 173, 49, 204, 176
-0.977334, 213, 121, 244, 184
-0.977344, 17, 57, 144, 120
-0.977346, 273, 193, 336, 320
-0.977412, 161, 153, 192, 216
-0.977434, 241, 1, 304, 375
-0.977463, 153, 145, 184, 272
-0.977475, 13, 313, 44, 375
-0.977521, 9, 1, 72, 256
-0.977539, 457, 1, 488, 128
-0.977568, 217, 241, 248, 368
-0.977584, 33, 129, 96, 375
-0.977629, 257, 193, 384, 256
-0.977714, 97, 97, 224, 160
-0.977723, 369, 49, 400, 112
-0.977728, 397, 313, 428, 375
-0.977761, 385, 33, 416, 160
-0.977774, 177, 145, 208, 208
-0.977853, 305, 177, 336, 240
-0.977914, 49, 185, 176, 248
-0.977925, 277, 1, 308, 128
-0.978, 385, 241, 416, 368
-0.978045, 137, 129, 168, 192
-0.978097, 309, 1, 340, 64
-0.978133, 269, 161, 300, 288
-0.978207, 49, 241, 112, 368
-0.978224, 261, 33, 292, 96
-0.978445, 393, 137, 424, 200
-0.978447, 345, 49, 376, 112
-0.978458, 209, 305, 336, 368
-0.978707, 281, 177, 312, 240
-0.978729, 145, 41, 176, 104
-0.978735, 305, 145, 336, 272
-0.978785, 209, 65, 336, 128
-0.978831, 217, 25, 248, 88
-0.9789, 209, 1, 272, 375
-0.979043, 1, 113, 32, 240
-0.979046, 329, 193, 360, 256
-0.979051, 361, 1, 424, 375
-0.979053, 81, 1, 208, 64
-0.979054, 421, 129, 452, 256
-0.979056, 317, 177, 348, 304
-0.979066, 341, 169, 372, 232
-0.979128, 153, 49, 184, 176
-0.979139, 257, 153, 288, 216
-0.979187, 441, 273, 472, 336
-0.979342, 413, 17, 444, 144
-0.979375, 237, 9, 268, 72
-0.979437, 145, 313, 272, 375
-0.97946, 265, 1, 296, 128
-0.979466, 345, 1, 376, 128
-0.979502, 353, 177, 384, 240
-0.979552, 129, 185, 256, 248
-0.979609, 297, 1, 360, 375
-0.979698, 233, 209, 264, 272
-0.979714, 209, 273, 240, 336
-0.979736, 93, 177, 124, 240
-0.979737, 313, 1, 344, 128
-0.979789, 301, 65, 332, 128
-0.979801, 341, 145, 372, 272
-0.979827, 321, 81, 448, 144
-0.979846, 149, 153, 180, 216
-0.979861, 417, 33, 448, 96
-0.979919, 65, 129, 128, 375
-0.979942, 437, 145, 468, 272
-0.980268, 105, 1, 168, 256
-0.980279, 161, 81, 288, 144
-0.980319, 65, 305, 192, 368
-0.980338, 81, 33, 208, 96
-0.980351, 177, 65, 208, 128
-0.980374, 397, 241, 428, 368
-0.980392, 437, 241, 468, 304
-0.980419, 317, 57, 348, 120
-0.980565, 145, 89, 176, 152
-0.980608, 461, 129, 492, 256
-0.980665, 249, 1, 280, 128
-0.980682, 245, 209, 276, 336
-0.980694, 257, 1, 384, 64
-0.980716, 321, 1, 384, 375
-0.980771, 265, 193, 296, 256
-0.980783, 1, 201, 128, 264
-0.980884, 401, 25, 432, 88
-0.980887, 437, 241, 468, 368
-0.981029, 129, 65, 160, 128
-0.981075, 1, 297, 128, 360
-0.981124, 449, 241, 480, 368
-0.981133, 93, 193, 124, 320
-0.981145, 401, 233, 432, 296
-0.981153, 289, 233, 416, 296
-0.981161, 345, 137, 376, 200
-0.981195, 297, 41, 328, 104
-0.981229, 433, 17, 464, 144
-0.981339, 289, 1, 320, 128
-0.98134, 281, 241, 344, 368
-0.98134, 81, 177, 112, 240
-0.981359, 393, 177, 424, 240
-0.981368, 177, 209, 304, 272
-0.98139, 145, 9, 176, 72
-0.98142, 437, 33, 468, 96
-0.981456, 417, 1, 480, 375
-0.981466, 393, 257, 424, 320
-0.981527, 17, 265, 144, 328
-0.981591, 257, 305, 384, 368
-0.981637, 129, 49, 160, 176
-0.981727, 353, 1, 480, 64
-0.981727, 161, 49, 192, 112
-0.981753, 69, 193, 100, 256
-0.981775, 369, 177, 400, 240
-0.981791, 153, 1, 216, 375
-0.981793, 329, 89, 360, 152
-0.981804, 225, 265, 256, 328
-0.981878, 61, 105, 92, 168
-0.981948, 177, 313, 208, 375
-0.981972, 273, 25, 304, 88
-0.982002, 257, 273, 384, 336
-0.982092, 225, 49, 256, 176
-0.982099, 129, 1, 160, 128
-0.982125, 257, 209, 288, 336
-0.982136, 417, 1, 448, 64
-0.982165, 129, 89, 160, 152
-0.982243, 193, 249, 320, 312
-0.982253, 133, 129, 164, 256
-0.982289, 357, 217, 388, 280
-0.982337, 449, 137, 480, 200
-0.982409, 445, 1, 476, 128
-0.982428, 445, 177, 476, 240
-0.98244, 417, 177, 448, 240
-0.982483, 293, 145, 324, 272
-0.982505, 217, 1, 248, 64
-0.982508, 85, 129, 116, 192
-0.982536, 89, 97, 120, 224
-0.982556, 41, 17, 72, 144
-0.98256, 189, 97, 220, 160
-0.982572, 237, 1, 268, 128
-0.982639, 5, 105, 36, 168
-0.982699, 229, 241, 260, 304
-0.982736, 469, 1, 500, 128
-0.983043, 25, 129, 56, 256
-0.983223, 221, 1, 252, 128
-0.983278, 129, 209, 256, 272
-0.983324, 129, 97, 192, 352
-0.983411, 241, 225, 368, 288
-0.983473, 145, 265, 272, 328
-0.983505, 57, 145, 88, 272
-0.983515, 461, 241, 492, 368
-0.983545, 113, 1, 176, 375
-0.983546, 25, 33, 56, 160
-0.983605, 13, 49, 44, 176
-0.98361, 65, 249, 192, 312
-0.983661, 321, 281, 448, 344
-0.98389, 17, 233, 144, 296
-0.983903, 161, 225, 224, 352
-0.984259, 145, 1, 176, 128
-0.984275, 317, 225, 348, 352
-0.984411, 337, 193, 368, 320
-0.984573, 397, 49, 428, 176
-0.984635, 77, 193, 108, 320
-0.984714, 97, 241, 128, 368
-0.984776, 61, 65, 92, 192
-0.984776, 445, 193, 476, 320
-0.984816, 177, 145, 208, 272
-0.984911, 9, 161, 40, 288
-0.984934, 201, 177, 232, 304
-0.984951, 65, 281, 192, 344
-0.984952, 185, 1, 248, 375
-0.985127, 365, 209, 396, 336
-0.985351, 81, 1, 144, 256
-0.985497, 113, 97, 144, 224
-0.985634, 137, 209, 168, 336
-0.985655, 425, 49, 488, 176
-0.985727, 17, 33, 144, 96
-0.985744, 25, 1, 88, 375
-0.985896, 17, 1, 144, 64
-0.985994, 161, 1, 192, 128
-0.98601, 1, 1, 64, 375
-0.986069, 105, 145, 136, 272
-0.986126, 1, 241, 32, 368
-0.986203, 165, 145, 196, 272
-0.986367, 73, 1, 136, 375
-0.986424, 129, 233, 256, 296
-0.986465, 209, 273, 336, 336
-0.986501, 65, 193, 96, 320
-0.9868, 197, 225, 228, 352
-0.987048, 225, 137, 288, 168
-0.987058, 145, 289, 272, 352
-0.987145, 1, 145, 256, 208
-0.987227, 265, 117, 328, 148
-0.98724, 433, 97, 464, 224
-0.987263, 97, 129, 352, 192
-0.987327, 193, 133, 256, 164
-0.987459, 1, 121, 256, 184
-0.987652, 193, 153, 256, 184
-0.98766, 297, 101, 360, 132
-0.987797, 369, 97, 496, 160
-0.987864, 65, 209, 192, 272
-0.9879, 101, 97, 132, 224
-0.987947, 1, 49, 32, 176
-0.988014, 249, 137, 312, 168
-0.98804, 161, 149, 224, 180
-0.988058, 453, 81, 484, 208
-0.988118, 337, 113, 400, 144
-0.988122, 13, 241, 44, 368
-0.988129, 97, 153, 352, 216
-0.988172, 65, 161, 128, 192
-0.988221, 161, 161, 224, 192
-0.988229, 25, 225, 56, 352
-0.988246, 201, 165, 264, 196
-0.988297, 257, 113, 500, 176
-0.988308, 233, 149, 296, 180
-0.988341, 281, 137, 344, 168
-0.988381, 241, 125, 304, 156
-0.988398, 65, 149, 128, 180
-0.988404, 9, 109, 72, 140
-0.988439, 65, 177, 128, 208
-0.988475, 209, 49, 240, 176
-0.988538, 233, 173, 296, 204
-0.988575, 289, 181, 352, 212
-0.988596, 201, 185, 264, 216
-0.988631, 297, 125, 360, 156
-0.988676, 233, 49, 296, 80
-0.988676, 401, 261, 464, 292
-0.988701, 201, 213, 264, 244
-0.988753, 169, 329, 232, 360
-0.988758, 9, 133, 72, 164
-0.988767, 369, 37, 432, 68
-0.988779, 49, 209, 80, 336
-0.988792, 385, 1, 448, 32
-0.988828, 153, 93, 216, 124
-0.988838, 233, 241, 264, 368
-0.988859, 193, 153, 448, 216
-0.988866, 361, 129, 424, 160
-0.988884, 361, 117, 424, 148
-0.98891, 1, 113, 500, 176
-0.988913, 265, 153, 328, 184
-0.988921, 17, 121, 80, 152
-0.988928, 1, 97, 256, 160
-0.988959, 17, 73, 80, 104
-0.988966, 361, 49, 424, 80
-0.988989, 161, 137, 224, 168
-0.989005, 313, 181, 376, 212
-0.989006, 313, 141, 376, 172
-0.989028, 249, 185, 312, 216
-0.989035, 377, 245, 440, 276
-0.989049, 153, 125, 216, 156
-0.989054, 401, 133, 464, 164
-0.989105, 377, 225, 440, 256
-0.989128, 145, 73, 208, 104
-0.989129, 209, 257, 272, 288
-0.989173, 321, 41, 384, 72
-0.989174, 297, 113, 360, 144
-0.9892, 137, 153, 200, 184
-0.989207, 129, 133, 192, 164
-0.989213, 17, 341, 80, 372
-0.989262, 321, 101, 384, 132
-0.989264, 257, 241, 500, 304
-0.989349, 209, 201, 272, 232
-0.989361, 401, 273, 464, 304
-0.989371, 385, 121, 448, 152
-0.989427, 433, 257, 496, 288
-0.989427, 401, 149, 464, 180
-0.989434, 353, 149, 416, 180
-0.989438, 425, 1, 488, 32
-0.989444, 377, 181, 440, 212
-0.98945, 401, 181, 464, 212
-0.989481, 41, 341, 104, 372
-0.98949, 233, 161, 296, 192
-0.989497, 433, 141, 496, 172
-0.989513, 129, 117, 192, 148
-0.989517, 25, 153, 88, 184
-0.989535, 393, 37, 456, 68
-0.989603, 417, 201, 480, 232
-0.989608, 353, 165, 416, 196
-0.989614, 17, 97, 80, 128
-0.989615, 265, 105, 328, 136
-0.989631, 297, 193, 360, 224
-0.989642, 353, 193, 384, 320
-0.98966, 129, 105, 384, 168
-0.989668, 337, 53, 400, 84
-0.989669, 113, 1, 176, 32
-0.989672, 393, 193, 456, 224
-0.989693, 313, 153, 376, 184
-0.989695, 401, 161, 464, 192
-0.989709, 345, 37, 408, 68
-0.98971, 225, 1, 480, 64
-0.98971, 201, 245, 264, 276
-0.989732, 217, 33, 280, 64
-0.989751, 433, 181, 496, 212
-0.989775, 225, 185, 288, 216
-0.989808, 169, 317, 232, 348
-0.989827, 297, 49, 360, 80
-0.989829, 129, 89, 192, 120
-0.989858, 313, 169, 376, 200
-0.989873, 353, 253, 416, 284
-0.989892, 409, 229, 472, 260
-0.989901, 233, 17, 296, 48
-0.989907, 233, 201, 296, 232
-0.989913, 233, 1, 296, 32
-0.989916, 289, 153, 352, 184
-0.989917, 433, 273, 496, 304
-0.989931, 337, 185, 400, 216
-0.989935, 41, 181, 104, 212
-0.989949, 297, 65, 360, 96
-0.989961, 153, 113, 216, 144
-0.989982, 321, 89, 384, 120
-0.989983, 337, 125, 400, 156
-0.990005, 321, 65, 384, 96
-0.990011, 257, 173, 320, 204
-0.990026, 273, 193, 336, 224
-0.990066, 129, 105, 192, 136
-0.990078, 377, 213, 440, 244
-0.990106, 105, 181, 168, 212
-0.990114, 217, 125, 280, 156
-0.990127, 161, 65, 416, 128
-0.990139, 73, 193, 136, 224
-0.990165, 369, 65, 496, 128
-0.990167, 345, 237, 408, 268
-0.990197, 257, 177, 500, 240
-0.990209, 41, 165, 104, 196
-0.990218, 297, 37, 360, 68
-0.990225, 41, 133, 104, 164
-0.990264, 409, 121, 472, 152
-0.990275, 105, 85, 168, 116
-0.99029, 401, 249, 464, 280
-0.990323, 177, 93, 240, 124
-0.990347, 121, 17, 184, 48
-0.990356, 145, 49, 208, 80
-0.990367, 1, 145, 64, 176
-0.990369, 1, 169, 500, 232
-0.990378, 361, 345, 424, 375
-0.99039, 33, 85, 96, 116
-0.990398, 289, 1, 352, 32
-0.990406, 225, 269, 288, 300
-0.990406, 337, 137, 400, 168
-0.990412, 1, 145, 500, 208
-0.99043, 257, 37, 320, 68
-0.990446, 97, 145, 160, 176
-0.990447, 121, 37, 184, 68
-0.990451, 41, 117, 104, 148
-0.990472, 417, 33, 480, 64
-0.990472, 169, 345, 232, 375
-0.990478, 393, 13, 456, 44
-0.990525, 65, 241, 128, 272
-0.990686, 65, 177, 320, 240
-0.990821, 193, 41, 448, 104
-0.990915, 129, 17, 384, 80
-0.991104, 137, 241, 200, 368
-0.991148, 1, 57, 256, 120
-0.99122, 225, 265, 480, 328
-0.991485, 161, 137, 288, 168
-0.991498, 1, 193, 500, 256
-0.991529, 65, 257, 320, 320
-0.991561, 257, 129, 288, 160
-0.991594, 1, 1, 500, 64
-0.991611, 1, 25, 500, 88
-0.991687, 303, 113, 318, 176
-0.991693, 225, 125, 352, 156
-0.991696, 1, 217, 500, 280
-0.991784, 191, 121, 206, 184
-0.991795, 273, 117, 304, 148
-0.991859, 237, 133, 268, 164
-0.99189, 169, 145, 200, 176
-0.991893, 289, 113, 320, 144
-0.99191, 161, 153, 288, 184
-0.991942, 29, 113, 60, 144
-0.991969, 41, 73, 72, 104
-0.991982, 181, 145, 212, 176
-0.991985, 249, 145, 280, 176
-0.992015, 249, 53, 280, 84
-0.992024, 9, 109, 40, 140
-0.99206, 305, 49, 336, 80
-0.992064, 249, 37, 280, 68
-0.992065, 281, 129, 312, 160
-0.992068, 169, 133, 200, 164
-0.992069, 389, 37, 420, 68
-0.992079, 373, 113, 404, 144
-0.992083, 269, 145, 300, 176
-0.99209, 385, 117, 416, 148
-0.992108, 157, 145, 188, 176
-0.99211, 29, 97, 60, 128
-0.992116, 397, 345, 428, 375
-0.99212, 241, 249, 368, 312
-0.992137, 221, 145, 252, 176
-0.992141, 373, 125, 404, 156
-0.992143, 297, 125, 328, 156
-0.992146, 81, 181, 112, 212
-0.992161, 269, 165, 300, 196
-0.992164, 69, 149, 100, 180
-0.992169, 29, 65, 60, 96
-0.992181, 261, 33, 276, 96
-0.992195, 237, 145, 268, 176
-0.992196, 201, 137, 232, 168
-0.992199, 321, 173, 352, 204
-0.9922, 361, 117, 392, 148
-0.992208, 65, 313, 320, 375
-0.992241, 257, 217, 500, 280
-0.992247, 401, 1, 432, 32
-0.992272, 295, 105, 310, 168
-0.99228, 305, 137, 336, 168
-0.992287, 41, 113, 72, 144
-0.992288, 13, 133, 44, 164
-0.992289, 185, 157, 216, 188
-0.992291, 165, 89, 196, 120
-0.992293, 225, 133, 256, 164
-0.992298, 329, 53, 360, 84
-0.9923, 213, 245, 244, 276
-0.992304, 177, 121, 208, 152
-0.992306, 257, 181, 288, 212
-0.992311, 93, 181, 124, 212
-0.992315, 37, 129, 68, 160
-0.992315, 241, 201, 272, 232
-0.992316, 181, 133, 212, 164
-0.992317, 273, 113, 400, 144
-0.99232, 261, 117, 292, 148
-0.992321, 201, 153, 232, 184
-0.992322, 237, 181, 268, 212
-0.992323, 309, 101, 340, 132
-0.992328, 161, 177, 416, 240
-0.99233, 345, 81, 376, 112
-0.992334, 81, 149, 208, 180
-0.992341, 297, 101, 328, 132
-0.992341, 245, 157, 276, 188
-0.992342, 85, 153, 116, 184
-0.992343, 269, 129, 300, 160
-0.992351, 373, 45, 404, 76
-0.992357, 173, 329, 204, 360
-0.992366, 285, 101, 316, 132
-0.992366, 225, 185, 256, 216
-0.992373, 149, 129, 180, 160
-0.992376, 169, 157, 200, 188
-0.99238, 237, 37, 268, 68
-0.992397, 281, 141, 312, 172
-0.992404, 237, 21, 268, 52
-0.992409, 309, 37, 340, 68
-0.992413, 149, 97, 180, 128
-0.992416, 317, 53, 348, 84
-0.992417, 261, 1, 292, 32
-0.992425, 177, 89, 208, 120
-0.992428, 401, 213, 432, 244
-0.992429, 221, 161, 252, 192
-0.99244, 277, 181, 308, 212
-0.992442, 417, 201, 448, 232
-0.992444, 13, 121, 44, 152
-0.992445, 385, 1, 416, 32
-0.992449, 273, 129, 400, 160
-0.992451, 213, 129, 244, 160
-0.992451, 225, 149, 352, 180
-0.992453, 33, 97, 48, 160
-0.992454, 209, 209, 240, 240
-0.992454, 345, 109, 376, 140
-0.992455, 401, 37, 432, 68
-0.992461, 301, 153, 332, 184
-0.992462, 349, 65, 380, 96
-0.992465, 325, 125, 356, 156
-0.992467, 309, 185, 340, 216
-0.99247, 53, 341, 84, 372
-0.99247, 193, 325, 224, 356
-0.992471, 413, 1, 444, 32
-0.992481, 321, 41, 352, 72
-0.992482, 237, 49, 268, 80
-0.992484, 77, 137, 108, 168
-0.992495, 361, 129, 392, 160
-0.992503, 61, 137, 92, 168
-0.992503, 49, 1, 112, 375
-0.992504, 385, 345, 416, 375
-0.992506, 345, 121, 376, 152
-0.992507, 157, 157, 188, 188
-0.992509, 177, 317, 208, 348
-0.99251, 321, 161, 352, 192
-0.992516, 337, 193, 368, 224
-0.992518, 345, 93, 376, 124
-0.992524, 329, 101, 360, 132
-0.992525, 21, 77, 52, 108
-0.99253, 249, 1, 280, 32
-0.992531, 385, 133, 416, 164
-0.992534, 425, 181, 456, 212
-0.992535, 49, 125, 80, 156
-0.992537, 293, 137, 324, 168
-0.992542, 215, 193, 230, 256
-0.992544, 169, 109, 200, 140
-0.992549, 41, 97, 72, 128
-0.99255, 77, 145, 92, 208
-0.992552, 69, 161, 100, 192
-0.992554, 401, 181, 432, 212
-0.992555, 397, 121, 428, 152
-0.992557, 361, 161, 392, 192
-0.992557, 43, 65, 58, 128
-0.992569, 349, 185, 380, 216
-0.992569, 81, 341, 112, 372
-0.992573, 433, 201, 464, 232
-0.992577, 429, 269, 460, 300
-0.992586, 321, 121, 448, 152
-0.99259, 329, 17, 360, 48
-0.992592, 149, 73, 180, 104
-0.992594, 217, 41, 248, 72
-0.992595, 25, 125, 56, 156
-0.992597, 233, 213, 264, 244
-0.992598, 325, 189, 356, 220
-0.992602, 33, 341, 64, 372
-0.992611, 43, 89, 58, 152
-0.992611, 69, 341, 100, 372
-0.992614, 17, 97, 48, 128
-0.992625, 249, 25, 280, 56
-0.992629, 221, 197, 252, 228
-0.992631, 13, 333, 44, 364
-0.992632, 213, 265, 244, 296
-0.992635, 129, 281, 384, 344
-0.992702, 353, 193, 480, 224
-0.992719, 255, 33, 270, 96
-0.992742, 395, 9, 410, 72
-0.992766, 49, 89, 64, 152
-0.992839, 265, 121, 280, 184
-0.992888, 321, 181, 448, 212
-0.992898, 33, 25, 288, 88
-0.992909, 353, 149, 480, 180
-0.992909, 241, 173, 368, 204
-0.99293, 247, 137, 262, 200
-0.992931, 33, 1, 288, 64
-0.993004, 399, 113, 414, 176
-0.993021, 161, 57, 288, 88
-0.993039, 225, 137, 352, 168
-0.993041, 145, 165, 272, 196
-0.993044, 309, 97, 324, 160
-0.993059, 275, 113, 290, 176
-0.993069, 55, 81, 70, 144
-0.993069, 289, 113, 304, 176
-0.993077, 311, 121, 326, 184
-0.993083, 353, 245, 480, 276
-0.99309, 353, 133, 480, 164
-0.993147, 193, 173, 320, 204
-0.993171, 97, 73, 224, 104
-0.993175, 305, 141, 432, 172
-0.993188, 321, 257, 448, 288
-0.993192, 273, 101, 400, 132
-0.993195, 1, 89, 500, 152
-0.993271, 401, 9, 416, 72
-0.993297, 239, 177, 254, 240
-0.993315, 257, 89, 500, 152
-0.99335, 145, 1, 272, 32
-0.993355, 373, 113, 388, 176
-0.993375, 319, 33, 334, 96
-0.993387, 1, 173, 128, 204
-0.993402, 41, 121, 56, 184
-0.993407, 353, 269, 480, 300
-0.993414, 97, 85, 224, 116
-0.993423, 225, 305, 480, 368
-0.993436, 309, 33, 324, 96
-0.993448, 49, 161, 176, 192
-0.993449, 241, 193, 368, 224
-0.99345, 1, 57, 500, 120
-0.993536, 51, 113, 66, 176
-0.993561, 161, 241, 416, 304
-0.993576, 369, 121, 496, 152
-0.993601, 319, 121, 334, 184
-0.993619, 321, 225, 448, 256
-0.993635, 105, 153, 120, 216
-0.99364, 271, 161, 286, 224
-0.99368, 227, 185, 242, 248
-0.993694, 257, 65, 500, 128
-0.993701, 241, 129, 256, 192
-0.993721, 99, 145, 114, 208
-0.993724, 97, 161, 224, 192
-0.993728, 65, 233, 320, 296
-0.993784, 267, 33, 282, 96
-0.993785, 257, 121, 272, 184
-0.993801, 171, 137, 186, 200
-0.993802, 91, 153, 106, 216
-0.993807, 289, 45, 416, 76
-0.993822, 341, 65, 356, 128
-0.993822, 209, 37, 336, 68
-0.993826, 1, 153, 128, 184
-0.993863, 287, 153, 302, 216
-0.99388, 369, 1, 496, 32
-0.993893, 337, 161, 464, 192
-0.99392, 299, 145, 314, 208
-0.993921, 369, 217, 496, 248
-0.993925, 161, 45, 288, 76
-0.993971, 81, 137, 208, 168
-0.993991, 321, 213, 448, 244
-0.993993, 305, 145, 320, 208
-0.994009, 439, 265, 454, 328
-0.994027, 57, 1, 120, 256
-0.994037, 321, 1, 448, 32
-0.99405, 113, 125, 240, 156
-0.994055, 241, 53, 368, 84
-0.994061, 249, 185, 264, 248
-0.994066, 183, 137, 198, 200
-0.994076, 313, 145, 328, 208
-0.994091, 83, 153, 98, 216
-0.994092, 325, 33, 340, 96
-0.9941, 407, 1, 422, 64
-0.994116, 241, 161, 368, 192
-0.994118, 37, 65, 52, 128
-0.994155, 1, 341, 128, 372
-0.994169, 31, 65, 46, 128
-0.994176, 423, 193, 438, 256
-0.994182, 151, 73, 166, 136
-0.994185, 145, 29, 272, 60
-0.994192, 445, 257, 460, 320
-0.994232, 211, 137, 226, 200
-0.994234, 245, 161, 260, 224
-0.994241, 189, 89, 204, 152
-0.99428, 327, 137, 342, 200
-0.994282, 319, 97, 334, 160
-0.994287, 177, 185, 304, 216
-0.994291, 483, 257, 498, 320
-0.994291, 17, 117, 144, 148
-0.994292, 1, 289, 256, 352
-0.994293, 209, 1, 336, 32
-0.994304, 271, 193, 286, 256
-0.994306, 367, 121, 382, 184
-0.994333, 321, 57, 448, 88
-0.99434, 197, 137, 212, 200
-0.994341, 209, 21, 336, 52
-0.994349, 343, 33, 358, 96
-0.994378, 331, 33, 346, 96
-0.994381, 161, 105, 288, 136
-0.994393, 239, 153, 254, 216
-0.994405, 249, 33, 264, 96
-0.994429, 369, 161, 384, 224
-0.994436, 281, 153, 296, 216
-0.994439, 301, 89, 316, 152
-0.994449, 273, 25, 288, 88
-0.994455, 165, 121, 180, 184
-0.994457, 177, 125, 304, 156
-0.994459, 107, 177, 122, 240
-0.994465, 339, 97, 354, 160
-0.994465, 389, 9, 404, 72
-0.994469, 333, 169, 348, 232
-0.994485, 17, 73, 144, 104
-0.994494, 369, 181, 496, 212
-0.994496, 157, 89, 172, 152
-0.994499, 145, 17, 272, 48
-0.99452, 381, 121, 396, 184
-0.994523, 231, 153, 246, 216
-0.994533, 219, 225, 234, 288
-0.994535, 413, 209, 428, 272
-0.994536, 257, 1, 384, 32
-0.994546, 179, 81, 194, 144
-0.994546, 263, 153, 278, 216
-0.994549, 305, 345, 432, 375
-0.99455, 7, 113, 22, 176
-0.994553, 411, 113, 426, 176
-0.99457, 217, 153, 232, 216
-0.99457, 177, 209, 304, 240
-0.994576, 323, 1, 338, 64
-0.994578, 305, 1, 336, 256
-0.994579, 165, 145, 180, 208
-0.994586, 35, 121, 50, 184
-0.994606, 223, 25, 238, 88
-0.994612, 339, 129, 354, 192
-0.994616, 323, 57, 338, 120
-0.994618, 179, 113, 194, 176
-0.99463, 217, 249, 232, 312
-0.994641, 419, 1, 434, 64
-0.994666, 289, 169, 416, 200
-0.994667, 161, 217, 416, 280
-0.99468, 169, 81, 184, 144
-0.994682, 177, 145, 192, 208
-0.994696, 393, 113, 408, 176
-0.994697, 321, 33, 352, 288
-0.994707, 305, 269, 432, 300
-0.994723, 425, 33, 440, 96
-0.994723, 253, 145, 268, 208
-0.994731, 337, 1, 352, 64
-0.994732, 433, 257, 448, 320
-0.994742, 271, 137, 286, 200
-0.99476, 219, 121, 234, 184
-0.994765, 329, 113, 344, 176
-0.99477, 97, 49, 224, 80
-0.99477, 85, 129, 100, 192
-0.994779, 395, 33, 410, 96
-0.994781, 159, 121, 174, 184
-0.994783, 97, 61, 224, 92
-0.994791, 1, 185, 128, 216
-0.994798, 221, 185, 236, 248
-0.994811, 171, 113, 186, 176
-0.994815, 369, 233, 496, 264
-0.994827, 203, 153, 218, 216
-0.994833, 341, 169, 356, 232
-0.994834, 17, 137, 144, 168
-0.994836, 255, 185, 270, 248
-0.994838, 245, 1, 276, 256
-0.99484, 89, 177, 104, 240
-0.994848, 153, 121, 168, 184
-0.99488, 225, 113, 352, 144
-0.994884, 49, 65, 64, 128
-0.994886, 281, 113, 296, 176
-0.994905, 303, 33, 318, 96
-0.994923, 29, 121, 44, 184
-0.994924, 61, 81, 76, 144
-0.99493, 289, 197, 416, 228
-0.994935, 241, 205, 368, 236
-0.994953, 1, 257, 500, 320
-0.994958, 231, 121, 246, 184
-0.994959, 387, 113, 402, 176
-0.994963, 249, 97, 280, 352
-0.994965, 337, 25, 352, 88
-0.994965, 1, 313, 500, 375
-0.994965, 49, 61, 176, 92
-0.994972, 353, 281, 480, 312
-0.994973, 99, 169, 114, 232
-0.994987, 353, 345, 480, 375
-0.994992, 261, 1, 276, 64
-0.995019, 353, 41, 480, 72
-0.995027, 365, 33, 396, 288
-0.995032, 269, 1, 284, 64
-0.995035, 411, 305, 426, 368
-0.995044, 261, 177, 276, 240
-0.995061, 425, 217, 440, 280
-0.995065, 373, 185, 388, 248
-0.995065, 33, 105, 160, 136
-0.995078, 49, 177, 176, 208
-0.995087, 219, 281, 234, 344
-0.995089, 273, 1, 304, 256
-0.995122, 81, 13, 208, 44
-0.995169, 209, 341, 336, 372
-0.995244, 241, 65, 368, 96
-0.995294, 305, 237, 432, 268
-0.995299, 321, 109, 448, 140
-0.995307, 293, 1, 324, 256
-0.995314, 33, 209, 288, 272
-0.995315, 81, 1, 208, 32
-0.995322, 17, 85, 144, 116
-0.995347, 177, 305, 304, 336
-0.995374, 65, 125, 192, 156
-0.995398, 257, 341, 384, 372
-0.995404, 345, 97, 376, 352
-0.995406, 113, 113, 240, 144
-0.995433, 369, 257, 496, 288
-0.995463, 145, 77, 272, 108
-0.995484, 261, 1, 292, 256
-0.995488, 13, 33, 44, 288
-0.99549, 293, 97, 324, 352
-0.99552, 81, 97, 208, 128
-0.995528, 369, 17, 496, 48
-0.995546, 377, 1, 408, 256
-0.995563, 289, 153, 416, 184
-0.995572, 65, 345, 192, 375
-0.995599, 145, 93, 272, 124
-0.995622, 305, 333, 432, 364
-0.995624, 65, 253, 192, 284
-0.995639, 97, 37, 224, 68
-0.995643, 65, 305, 192, 336
-0.995656, 65, 193, 192, 224
-0.995672, 33, 33, 64, 288
-0.995696, 1, 197, 128, 228
-0.995706, 1, 253, 128, 284
-0.99572, 221, 1, 252, 256
-0.995722, 369, 205, 496, 236
-0.99574, 369, 297, 496, 328
-0.995744, 97, 25, 224, 56
-0.995777, 305, 305, 432, 336
-0.995782, 333, 33, 364, 288
-0.995868, 321, 93, 448, 124
-0.995873, 369, 333, 496, 364
-0.995926, 237, 97, 268, 352
-0.995979, 353, 69, 480, 100
-0.996001, 145, 317, 272, 348
-0.99603, 433, 1, 464, 256
-0.996032, 193, 265, 320, 296
-0.996034, 193, 93, 320, 124
-0.996035, 389, 1, 420, 256
-0.996062, 437, 129, 468, 375
-0.996072, 401, 1, 432, 256
-0.996074, 17, 265, 144, 296
-0.996086, 129, 205, 256, 236
-0.996107, 1, 241, 128, 272
-0.996124, 305, 97, 336, 352
-0.996127, 177, 1, 208, 256
-0.996133, 289, 29, 416, 60
-0.996149, 65, 241, 192, 272
-0.996151, 145, 329, 272, 360
-0.996153, 17, 289, 144, 320
-0.99617, 113, 177, 240, 208
-0.996183, 153, 1, 184, 256
-0.996212, 255, 137, 270, 168
-0.99625, 257, 329, 384, 360
-0.996253, 193, 129, 224, 375
-0.996255, 177, 197, 304, 228
-0.996269, 209, 65, 240, 320
-0.996273, 281, 97, 312, 352
-0.996289, 453, 1, 484, 256
-0.996314, 257, 277, 384, 308
-0.996327, 353, 29, 480, 60
-0.996335, 263, 125, 278, 156
-0.996346, 273, 85, 400, 116
-0.996352, 17, 277, 144, 308
-0.996364, 295, 113, 310, 144
-0.996375, 369, 53, 496, 84
-0.996413, 257, 301, 384, 332
-0.996434, 43, 113, 58, 144
-0.996439, 257, 265, 384, 296
-0.996444, 129, 293, 256, 324
-0.996446, 211, 209, 226, 240
-0.996467, 209, 329, 336, 360
-0.99648, 345, 1, 376, 256
-0.996494, 361, 129, 392, 375
-0.996496, 1, 221, 128, 252
-0.9965, 245, 141, 260, 172
-0.996503, 265, 129, 296, 375
-0.99651, 173, 145, 188, 176
-0.99653, 277, 113, 292, 144
-0.99653, 163, 149, 178, 180
-0.996545, 385, 97, 416, 352
-0.996547, 237, 145, 252, 176
-0.996566, 1, 281, 500, 344
-0.996568, 329, 129, 360, 375
-0.996571, 181, 97, 212, 352
-0.996583, 1, 97, 32, 352
-0.996598, 317, 129, 348, 375
-0.996598, 449, 129, 480, 375
-0.996612, 141, 1, 172, 256
-0.996635, 299, 101, 314, 132
-0.996642, 69, 129, 100, 375
-0.996687, 405, 97, 436, 352
-0.996716, 317, 49, 332, 80
-0.996716, 397, 117, 412, 148
-0.996718, 379, 117, 394, 148
-0.996742, 191, 125, 206, 156
-0.996745, 273, 129, 288, 160
-0.996751, 233, 1, 264, 256
-0.996752, 407, 37, 422, 68
-0.99676, 395, 37, 410, 68
-0.996763, 31, 97, 46, 128
-0.996788, 253, 53, 268, 84
-0.996791, 181, 153, 196, 184
-0.996799, 265, 141, 280, 172
-0.996814, 313, 37, 328, 68
-0.996821, 75, 145, 90, 176
-0.996831, 265, 1, 280, 32
-0.996836, 91, 181, 106, 212
-0.996837, 283, 117, 298, 148
-0.99684, 51, 113, 66, 144
-0.996859, 387, 125, 402, 156
-0.996862, 373, 117, 388, 148
-0.996877, 193, 145, 208, 176
-0.996894, 307, 121, 322, 152
-0.996906, 201, 153, 216, 184
-0.996935, 235, 133, 250, 164
-0.996947, 225, 97, 256, 352
-0.996966, 37, 117, 52, 148
-0.996968, 415, 1, 430, 32
-0.99697, 263, 53, 278, 84
-0.996972, 45, 73, 60, 104
-0.996985, 323, 41, 338, 72
-0.996988, 105, 181, 120, 212
-0.996996, 13, 129, 44, 375
-0.997007, 421, 97, 452, 352
-0.99701, 309, 133, 324, 164
-0.997011, 215, 197, 230, 228
-0.997014, 99, 181, 114, 212
-0.997016, 217, 221, 232, 252
-0.997029, 325, 57, 340, 88
-0.997032, 241, 209, 256, 240
-0.997034, 193, 317, 208, 348
-0.997037, 165, 1, 196, 256
-0.997049, 301, 117, 316, 148
-0.997058, 483, 257, 498, 288
-0.997063, 253, 201, 268, 232
-0.997077, 149, 81, 164, 112
-0.99709, 231, 145, 246, 176
-0.997091, 261, 37, 276, 68
-0.997103, 399, 1, 414, 32
-0.997105, 271, 117, 286, 148
-0.997107, 253, 29, 268, 60
-0.997113, 375, 129, 390, 160
-0.997123, 367, 117, 382, 148
-0.997129, 189, 1, 220, 256
-0.997134, 53, 81, 68, 112
-0.997139, 43, 97, 58, 128
-0.997141, 389, 37, 404, 68
-0.99715, 427, 1, 442, 32
-0.997156, 85, 181, 100, 212
-0.997159, 157, 129, 188, 375
-0.99718, 7, 109, 22, 140
-0.99719, 269, 185, 284, 216
-0.997206, 373, 129, 404, 375
-0.997207, 187, 149, 202, 180
-0.997211, 413, 37, 428, 68
-0.997226, 241, 181, 256, 212
-0.997226, 319, 141, 334, 172
-0.997233, 461, 129, 492, 375
-0.997238, 271, 149, 286, 180
-0.997238, 341, 193, 356, 224
-0.997243, 411, 345, 426, 375
-0.997271, 93, 341, 108, 372
-0.997275, 31, 121, 46, 152
-0.997278, 289, 133, 304, 164
-0.997278, 223, 145, 238, 176
-0.997279, 465, 1, 496, 256
-0.997283, 209, 161, 224, 192
-0.997287, 347, 41, 362, 72
-0.997287, 169, 89, 184, 120
-0.997287, 341, 101, 356, 132
-0.99729, 445, 273, 460, 304
-0.997302, 405, 345, 420, 375
-0.997302, 241, 129, 256, 160
-0.997304, 169, 97, 200, 352
-0.997307, 213, 145, 228, 176
-0.99731, 261, 17, 276, 48
-0.997318, 65, 341, 80, 372
-0.997329, 229, 133, 244, 164
-0.99733, 421, 1, 452, 256
-0.997333, 183, 133, 198, 164
-0.997334, 269, 161, 284, 192
-0.997336, 341, 65, 356, 96
-0.997347, 219, 133, 234, 164
-0.997354, 251, 181, 266, 212
-0.997361, 247, 213, 262, 244
-0.997363, 247, 49, 262, 80
-0.997364, 25, 129, 56, 375
-0.997366, 11, 137, 26, 168
-0.997368, 1, 1, 64, 128
-0.997373, 97, 149, 112, 180
-0.997376, 327, 165, 342, 196
-0.997377, 337, 9, 352, 40
-0.997379, 271, 1, 286, 32
-0.997385, 7, 125, 22, 156
-0.997387, 21, 333, 36, 364
-0.99739, 175, 109, 190, 140
-0.997394, 293, 101, 308, 132
-0.997397, 369, 129, 384, 160
-0.997398, 311, 49, 326, 80
-0.997404, 31, 85, 46, 116
-0.997405, 339, 181, 354, 212
-0.997414, 297, 137, 312, 168
-0.997415, 225, 241, 240, 272
-0.997418, 419, 37, 434, 68
-0.997419, 265, 173, 280, 204
-0.99742, 319, 177, 334, 208
-0.99742, 55, 341, 70, 372
-0.997432, 255, 1, 270, 32
-0.99744, 257, 125, 272, 156
-0.99744, 41, 129, 56, 160
-0.99745, 289, 117, 304, 148
-0.997453, 435, 201, 450, 232
-0.997458, 339, 125, 354, 156
-0.99746, 21, 345, 36, 375
-0.997464, 37, 93, 52, 124
-0.997467, 385, 113, 400, 144
-0.997475, 405, 1, 420, 32
-0.997477, 217, 209, 232, 240
-0.997481, 125, 1, 156, 256
-0.997482, 171, 157, 186, 188
-0.997482, 37, 105, 52, 136
-0.997487, 281, 145, 296, 176
-0.997499, 51, 125, 66, 156
-0.997523, 181, 89, 196, 120
-0.997532, 81, 145, 96, 176
-0.997587, 49, 65, 80, 320
-0.997617, 85, 97, 116, 352
-0.997839, 125, 97, 156, 352
-0.997913, 37, 129, 68, 375
-0.998057, 145, 97, 176, 352
-0.998288, 293, 97, 308, 224
-0.998348, 201, 215, 264, 230
-0.99835, 153, 93, 216, 108
-0.99835, 301, 49, 316, 176
-0.998354, 193, 149, 256, 164
-0.998354, 209, 135, 272, 150
-0.998355, 193, 143, 256, 158
-0.998357, 65, 183, 128, 198
-0.998366, 41, 65, 56, 192
-0.998369, 289, 103, 352, 118
-0.99837, 201, 161, 264, 176
-0.998371, 233, 141, 296, 156
-0.998371, 49, 345, 112, 360
-0.998373, 225, 157, 288, 172
-0.99838, 385, 7, 448, 22
-0.99838, 257, 121, 320, 136
-0.998381, 297, 133, 360, 148
-0.998381, 161, 163, 224, 178
-0.998385, 169, 157, 232, 172
-0.998387, 1, 115, 64, 130
-0.998392, 169, 139, 232, 154
-0.998393, 297, 115, 360, 130
-0.998393, 233, 135, 296, 150
-0.998393, 307, 97, 322, 224
-0.998394, 9, 127, 72, 142
-0.998396, 201, 187, 264, 202
-0.9984, 65, 159, 128, 174
-0.998402, 193, 155, 256, 170
-0.998404, 169, 329, 232, 344
-0.998405, 273, 133, 336, 148
-0.998405, 161, 151, 224, 166
-0.998405, 169, 133, 232, 148
-0.998406, 233, 151, 296, 166
-0.998407, 261, 113, 276, 240
-0.998408, 329, 111, 392, 126
-0.998412, 65, 177, 128, 192
-0.998414, 233, 177, 296, 192
-0.998415, 243, 129, 258, 256
-0.998417, 65, 153, 128, 168
-0.99842, 249, 129, 312, 144
-0.998421, 231, 129, 246, 256
-0.998421, 281, 157, 344, 172
-0.998432, 129, 133, 192, 148
-0.998433, 401, 275, 464, 290
-0.998433, 305, 39, 368, 54
-0.998433, 369, 41, 432, 56
-0.998434, 337, 43, 400, 58
-0.998434, 401, 267, 464, 282
-0.998437, 361, 47, 424, 62
-0.998442, 265, 151, 328, 166
-0.998442, 273, 139, 336, 154
-0.998445, 9, 345, 72, 360
-0.998445, 217, 145, 232, 272
-0.998446, 281, 109, 344, 124
-0.998447, 369, 121, 432, 136
-0.998447, 305, 45, 368, 60
-0.998449, 109, 1, 140, 256
-0.99845, 201, 169, 264, 184
-0.998451, 401, 185, 464, 200
-0.998451, 233, 185, 296, 200
-0.998453, 297, 191, 360, 206
-0.998454, 377, 249, 440, 264
-0.998455, 417, 191, 480, 206
-0.998455, 65, 169, 128, 184
-0.998457, 265, 41, 328, 56
-0.998457, 105, 181, 168, 196
-0.998458, 1, 1, 32, 256
-0.998458, 431, 193, 446, 320
-0.99846, 369, 127, 432, 142
-0.99846, 409, 241, 472, 256
-0.99846, 273, 127, 336, 142
-0.99846, 361, 55, 424, 70
-0.99846, 233, 169, 296, 184
-0.998461, 9, 133, 72, 148
-0.998462, 65, 189, 128, 204
-0.998463, 265, 187, 328, 202
-0.998463, 345, 117, 408, 132
-0.998465, 233, 17, 296, 32
-0.998466, 153, 101, 216, 116
-0.998466, 377, 239, 440, 254
-0.998467, 313, 103, 376, 118
-0.998468, 79, 113, 94, 240
-0.998468, 17, 77, 80, 92
-0.998469, 233, 209, 296, 224
-0.998469, 193, 99, 256, 114
-0.99847, 201, 177, 264, 192
-0.998471, 169, 341, 232, 356
-0.998471, 265, 115, 328, 130
-0.998471, 153, 127, 216, 142
-0.998471, 41, 151, 104, 166
-0.998472, 313, 185, 376, 200
-0.998472, 9, 139, 72, 154
-0.998473, 385, 255, 448, 270
-0.998473, 145, 83, 208, 98
-0.998474, 401, 157, 464, 172
-0.998474, 401, 145, 464, 160
-0.998477, 233, 163, 296, 178
-0.998477, 377, 223, 440, 238
-0.998479, 145, 75, 208, 90
-0.99848, 377, 1, 440, 16
-0.99848, 233, 53, 296, 68
-0.99848, 393, 191, 456, 206
-0.998482, 161, 145, 224, 160
-0.998482, 313, 139, 376, 154
-0.998484, 41, 121, 104, 136
-0.998484, 337, 139, 400, 154
-0.998484, 313, 179, 376, 194
-0.998484, 401, 179, 464, 194
-0.998485, 209, 221, 272, 236
-0.998485, 169, 335, 232, 350
-0.998485, 377, 231, 440, 246
-0.998485, 233, 191, 296, 206
-0.998489, 201, 267, 264, 282
-0.998489, 89, 145, 104, 272
-0.998489, 321, 149, 384, 164
-0.998489, 321, 155, 384, 170
-0.998491, 189, 97, 204, 224
-0.998493, 137, 159, 200, 174
-0.998493, 289, 185, 352, 200
-0.998493, 137, 149, 200, 164
-0.998493, 73, 33, 104, 288
-0.998494, 225, 129, 288, 144
-0.998495, 409, 15, 472, 30
-0.998496, 17, 109, 80, 124
-0.998496, 33, 351, 96, 366
-0.998497, 353, 149, 416, 164
-0.998497, 377, 185, 440, 200
-0.998497, 409, 247, 472, 262
-0.998497, 129, 119, 192, 134
-0.998499, 401, 283, 464, 298
-0.998499, 385, 13, 448, 28
-0.998499, 433, 273, 496, 288
-0.998499, 321, 63, 384, 78
-0.998499, 433, 259, 496, 274
-0.998501, 257, 105, 320, 120
-0.998501, 241, 99, 304, 114
-0.998502, 401, 163, 464, 178
-0.998502, 281, 145, 344, 160
-0.998502, 409, 235, 472, 250
-0.998503, 361, 261, 424, 276
-0.998504, 249, 129, 264, 256
-0.998505, 9, 351, 72, 366
-0.998505, 289, 151, 352, 166
-0.998505, 409, 227, 472, 242
-0.998506, 33, 141, 96, 156
-0.998506, 181, 81, 196, 208
-0.998506, 337, 185, 400, 200
-0.998524, 373, 129, 388, 256
-0.998526, 113, 97, 144, 352
-0.998529, 331, 129, 346, 256
-0.998534, 149, 109, 180, 124
-0.998535, 329, 103, 360, 118
-0.998535, 237, 113, 252, 240
-0.998536, 217, 41, 248, 56
-0.998536, 145, 93, 176, 108
-0.998536, 339, 49, 354, 176
-0.998537, 237, 39, 268, 54
-0.998538, 261, 17, 292, 32
-0.998538, 289, 147, 320, 162
-0.998538, 345, 107, 376, 122
-0.998539, 181, 167, 212, 182
-0.99854, 73, 177, 104, 192
-0.99854, 201, 99, 232, 114
-0.998541, 61, 33, 92, 288
-0.998541, 425, 193, 440, 320
-0.998541, 41, 75, 72, 90
-0.998541, 53, 149, 84, 164
-0.998541, 325, 117, 356, 132
-0.998542, 157, 129, 188, 144
-0.998542, 409, 39, 440, 54
-0.998546, 285, 111, 316, 126
-0.998546, 261, 195, 292, 210
-0.998547, 221, 211, 252, 226
-0.998549, 81, 345, 112, 360
-0.998551, 217, 51, 248, 66
-0.998552, 185, 159, 216, 174
-0.998553, 401, 219, 432, 234
-0.998553, 237, 157, 268, 172
-0.998554, 325, 191, 356, 206
-0.998555, 293, 125, 324, 140
-0.998555, 197, 327, 228, 342
-0.998555, 325, 133, 356, 148
-0.998555, 405, 1, 436, 16
-0.998556, 249, 53, 280, 68
-0.998556, 277, 105, 308, 120
-0.998557, 313, 185, 344, 200
-0.998557, 69, 157, 100, 172
-0.998559, 309, 51, 340, 66
-0.998559, 169, 121, 200, 136
-0.998561, 377, 131, 408, 146
-0.998562, 97, 153, 128, 168
-0.998562, 229, 45, 260, 60
-0.998564, 17, 103, 48, 118
-0.998565, 213, 135, 244, 150
-0.998565, 281, 141, 312, 156
-0.998566, 393, 37, 424, 52
-0.998566, 295, 49, 310, 176
-0.998566, 329, 39, 360, 54
-0.998567, 227, 177, 242, 304
-0.998568, 175, 97, 190, 224
-0.998568, 141, 157, 172, 172
-0.998569, 401, 353, 432, 368
-0.99857, 241, 205, 272, 220
-0.998572, 241, 179, 272, 194
-0.998572, 177, 327, 208, 342
-0.998574, 301, 113, 316, 240
-0.998574, 33, 141, 64, 156
-0.998575, 237, 137, 268, 152
-0.998575, 97, 129, 128, 375
-0.998576, 85, 153, 116, 168
-0.998576, 221, 217, 252, 232
-0.998577, 345, 87, 376, 102
-0.998577, 313, 97, 328, 224
-0.998578, 321, 179, 352, 194
-0.998578, 289, 49, 304, 176
-0.998578, 225, 187, 256, 202
-0.998578, 393, 49, 424, 64
-0.998579, 197, 139, 228, 154
-0.99858, 13, 129, 44, 144
-0.99858, 255, 113, 270, 240
-0.99858, 307, 49, 322, 176
-0.998581, 269, 149, 300, 164
-0.998583, 377, 41, 408, 56
-0.998584, 345, 113, 376, 128
-0.998585, 349, 67, 380, 82
-0.998585, 301, 153, 332, 168
-0.998585, 425, 189, 456, 204
-0.998586, 61, 143, 92, 158
-0.998586, 177, 93, 208, 108
-0.998586, 237, 51, 268, 66
-0.998587, 399, 113, 414, 240
-0.998591, 281, 123, 312, 138
-0.998593, 417, 1, 448, 16
-0.998593, 149, 151, 180, 166
-0.998593, 249, 185, 280, 200
-0.998594, 53, 345, 84, 360
-0.998594, 293, 101, 324, 116
-0.998595, 189, 133, 220, 148
-0.998595, 329, 45, 360, 60
-0.998596, 157, 93, 188, 108
-0.998596, 9, 111, 40, 126
-0.998597, 233, 217, 264, 232
-0.998598, 41, 123, 72, 138
-0.998599, 385, 351, 416, 366
-0.9986, 269, 165, 300, 180
-0.998601, 161, 153, 192, 168
-0.998602, 339, 129, 354, 256
-0.998602, 237, 185, 268, 200
-0.998602, 367, 97, 382, 224
-0.998603, 273, 115, 304, 130
-0.998603, 237, 149, 268, 164
-0.998605, 319, 49, 334, 176
-0.998606, 29, 129, 60, 144
-0.998607, 281, 49, 296, 176
-0.998608, 213, 187, 244, 202
-0.998608, 177, 127, 208, 142
-0.99861, 245, 211, 276, 226
-0.99861, 225, 113, 240, 240
-0.998612, 209, 215, 240, 230
-0.998612, 213, 247, 244, 262
-0.998613, 249, 61, 280, 76
-0.998614, 25, 109, 56, 124
-0.998615, 405, 7, 436, 22
-0.998615, 297, 131, 328, 146
-0.998617, 97, 145, 112, 272
-0.998618, 367, 49, 382, 176
-0.998619, 29, 115, 60, 130
-0.998619, 397, 347, 428, 362
-0.99862, 369, 123, 400, 138
-0.99862, 271, 113, 286, 240
-0.998621, 377, 49, 408, 64
-0.998621, 201, 161, 232, 176
-0.998622, 265, 143, 296, 158
-0.998627, 345, 97, 376, 112
-0.998629, 253, 145, 284, 160
-0.998639, 41, 85, 72, 100
-0.99864, 9, 117, 40, 132
-0.99864, 221, 153, 252, 168
-0.998642, 13, 135, 44, 150
-0.998649, 399, 1, 414, 128
-0.99865, 29, 73, 60, 88
-0.99865, 443, 177, 458, 304
-0.998651, 161, 161, 192, 176
-0.998654, 389, 121, 420, 136
-0.998658, 181, 147, 212, 162
-0.998659, 369, 117, 400, 132
-0.99866, 285, 117, 316, 132
-0.998663, 253, 133, 284, 148
-0.998664, 181, 153, 212, 168
-0.998665, 103, 145, 118, 272
-0.998667, 69, 151, 100, 166
-0.998667, 249, 151, 280, 166
-0.998668, 281, 113, 296, 240
-0.99867, 309, 41, 340, 56
-0.99867, 253, 139, 284, 154
-0.998672, 267, 49, 282, 176
-0.998675, 389, 43, 420, 58
-0.998676, 273, 131, 304, 146
-0.998678, 177, 137, 208, 152
-0.998679, 29, 123, 60, 138
-0.998681, 411, 161, 426, 288
-0.998684, 35, 65, 50, 192
-0.998685, 269, 121, 300, 136
-0.998687, 325, 1, 340, 128
-0.998691, 393, 1, 424, 16
-0.9987, 287, 97, 302, 224
-0.998702, 333, 49, 348, 176
-0.998704, 211, 129, 226, 256
-0.998705, 41, 117, 72, 132
-0.998706, 169, 145, 200, 160
-0.998708, 233, 177, 248, 304
-0.998709, 335, 1, 350, 128
-0.998722, 319, 97, 334, 224
-0.998725, 149, 97, 164, 224
-0.998727, 401, 193, 416, 320
-0.998727, 275, 49, 290, 176
-0.998731, 241, 143, 272, 158
-0.998731, 249, 39, 280, 54
-0.998744, 389, 97, 404, 224
-0.998745, 261, 127, 292, 142
-0.998748, 55, 49, 70, 176
-0.998751, 379, 113, 394, 240
-0.998755, 195, 113, 210, 240
-0.998758, 169, 81, 184, 208
-0.998761, 267, 161, 282, 288
-0.998776, 221, 209, 236, 336
-0.998783, 365, 145, 380, 272
-0.998784, 81, 177, 96, 304
-0.998784, 5, 97, 20, 224
-0.998792, 417, 1, 432, 128
-0.998798, 71, 129, 86, 256
-0.998798, 437, 177, 452, 304
-0.998799, 301, 1, 316, 128
-0.998801, 409, 1, 424, 128
-0.998801, 313, 49, 328, 176
-0.998806, 417, 193, 432, 320
-0.99881, 259, 49, 274, 176
-0.998813, 381, 33, 396, 160
-0.998821, 267, 1, 282, 128
-0.998828, 203, 145, 218, 272
-0.998832, 393, 1, 408, 128
-0.998836, 163, 97, 178, 224
-0.998841, 29, 97, 44, 224
-0.998848, 311, 1, 326, 128
-0.998848, 373, 33, 388, 160
-0.998852, 467, 209, 482, 336
-0.998861, 281, 1, 296, 128
-0.998867, 417, 145, 432, 272
-0.998867, 75, 177, 90, 304
-0.99887, 89, 1, 120, 256
-0.998872, 325, 129, 340, 256
-0.998874, 341, 1, 356, 128
-0.998875, 219, 97, 234, 224
-0.998876, 261, 161, 276, 288
-0.998876, 11, 113, 26, 240
-0.998884, 45, 113, 60, 240
-0.998885, 327, 81, 342, 208
-0.998893, 49, 65, 64, 192
-0.998898, 401, 241, 416, 368
-0.998906, 399, 49, 414, 176
-0.998907, 453, 129, 468, 256
-0.998916, 435, 17, 450, 144
-0.998918, 389, 161, 404, 288
-0.998919, 281, 161, 296, 288
-0.99892, 37, 113, 52, 240
-0.998925, 457, 225, 472, 352
-0.998928, 459, 1, 474, 128
-0.99893, 241, 177, 256, 304
-0.998931, 389, 49, 404, 176
-0.998932, 109, 161, 124, 288
-0.998934, 407, 113, 422, 240
-0.998936, 249, 1, 264, 128
-0.998938, 227, 225, 242, 352
-0.99894, 423, 145, 438, 272
-0.998944, 375, 177, 390, 304
-0.998946, 157, 81, 172, 208
-0.99895, 255, 177, 270, 304
-0.998954, 99, 97, 114, 224
-0.998955, 249, 193, 264, 320
-0.998963, 273, 177, 288, 304
-0.998968, 475, 129, 490, 256
-0.998969, 359, 129, 374, 256
-0.998971, 465, 129, 480, 256
-0.998971, 313, 145, 328, 272
-0.998973, 245, 49, 260, 176
-0.998973, 433, 241, 448, 368
-0.998989, 239, 49, 254, 176
-0.998992, 395, 161, 410, 288
-0.998993, 373, 81, 388, 208
-0.998998, 305, 177, 320, 304
-0.998999, 209, 177, 224, 304
-0.999002, 85, 97, 100, 224
-0.999029, 91, 97, 106, 224
-0.999038, 395, 225, 410, 352
-0.999042, 333, 177, 348, 304
-0.999044, 481, 161, 496, 288
-0.999044, 451, 1, 466, 128
-0.999701, 339, 179, 354, 194
-0.999702, 171, 107, 186, 122
-0.999702, 417, 41, 432, 56
-0.999702, 81, 147, 96, 162
-0.999702, 107, 189, 122, 204
-0.999702, 265, 151, 280, 166
-0.999703, 325, 55, 340, 70
-0.999703, 183, 145, 198, 160
-0.999703, 75, 155, 90, 170
-0.999703, 339, 133, 354, 148
-0.999704, 333, 1, 348, 16
-0.999705, 183, 155, 198, 170
-0.999707, 81, 347, 96, 362
-0.999707, 61, 83, 76, 98
-0.999708, 305, 41, 320, 56
-0.999708, 345, 43, 360, 58
-0.999708, 45, 73, 60, 88
-0.999708, 255, 153, 270, 168
-0.999709, 31, 119, 46, 134
-0.99971, 215, 135, 230, 150
-0.99971, 297, 101, 312, 116
-0.99971, 245, 211, 260, 226
-0.999711, 265, 141, 280, 156
-0.999711, 367, 121, 382, 136
-0.999711, 175, 93, 190, 108
-0.999712, 415, 47, 430, 62
-0.999712, 395, 119, 410, 134
-0.999712, 55, 343, 70, 358
-0.999712, 193, 141, 208, 156
-0.999712, 53, 117, 68, 132
-0.999713, 173, 159, 188, 174
-0.999713, 339, 43, 354, 58
-0.999713, 341, 201, 356, 216
-0.999714, 273, 67, 288, 82
-0.999714, 55, 75, 70, 90
-0.999714, 227, 187, 242, 202
-0.999715, 9, 121, 24, 136
-0.999715, 93, 345, 108, 360
-0.999715, 5, 309, 20, 324
-0.999715, 321, 41, 336, 56
-0.999716, 45, 123, 60, 138
-0.999716, 315, 43, 330, 58
-0.999717, 341, 67, 356, 82
-0.999717, 483, 261, 498, 276
-0.999717, 249, 185, 264, 200
-0.999718, 411, 347, 426, 362
-0.999718, 319, 133, 334, 148
-0.99972, 239, 137, 254, 152
-0.99972, 217, 229, 232, 244
-0.999721, 199, 165, 214, 180
-0.999721, 273, 15, 288, 30
-0.999721, 225, 245, 240, 260
-0.999721, 421, 7, 436, 22
-0.999721, 261, 63, 276, 78
-0.999721, 181, 139, 196, 154
-0.999723, 275, 131, 290, 146
-0.999724, 263, 185, 278, 200
-0.999725, 371, 127, 386, 142
-0.999728, 347, 37, 362, 52
-0.999729, 75, 143, 90, 158
-0.999729, 255, 29, 270, 44
-0.999729, 265, 13, 280, 28
-0.999732, 91, 157, 106, 172
-0.999733, 97, 153, 112, 168
-0.999735, 43, 87, 58, 102
-0.999735, 323, 47, 338, 62
-0.999736, 385, 119, 400, 134
-0.999737, 235, 153, 250, 168
-0.999737, 257, 135, 272, 150
-0.999739, 37, 107, 52, 122
-0.99974, 191, 135, 206, 150
-0.99974, 253, 63, 268, 78
-0.999742, 255, 1, 270, 16
-0.999742, 263, 39, 278, 54
-0.999742, 405, 41, 420, 56
-0.999744, 165, 153, 180, 168
-0.999744, 273, 121, 288, 136
-0.999746, 35, 93, 50, 108
-0.999748, 257, 223, 272, 238
-0.99975, 235, 145, 250, 160
-0.999751, 425, 43, 440, 58
-0.999752, 385, 47, 400, 62
-0.999753, 305, 123, 320, 138
-0.999754, 215, 201, 230, 216
-0.999755, 161, 93, 176, 108
-0.999756, 75, 149, 90, 164
-0.999756, 3, 111, 18, 126
-0.999757, 399, 35, 414, 50
-0.999757, 339, 115, 354, 130
-0.999757, 51, 125, 66, 140
-0.999758, 247, 217, 262, 232
-0.999758, 411, 9, 426, 24
-0.999759, 243, 151, 258, 166
-0.99976, 275, 115, 290, 130
-0.99976, 391, 47, 406, 62
-0.999761, 291, 117, 306, 132
-0.999761, 401, 1, 416, 16
-0.999762, 31, 101, 46, 116
-0.999762, 313, 37, 328, 52
-0.999765, 241, 157, 256, 172
-0.999765, 247, 139, 262, 154
-0.999766, 409, 1, 424, 16
-0.999766, 171, 113, 186, 128
-0.999767, 193, 147, 208, 162
-0.999768, 263, 129, 278, 144
-0.999769, 281, 119, 296, 134
-0.999769, 407, 355, 422, 370
-0.999771, 31, 125, 46, 140
-0.999772, 239, 185, 254, 200
-0.999774, 271, 163, 286, 178
-0.999775, 39, 117, 54, 132
-0.999776, 171, 145, 186, 160
-0.999779, 31, 111, 46, 126
-0.999781, 55, 85, 70, 100
-0.999781, 45, 115, 60, 130
-0.999783, 405, 47, 420, 62
-0.999784, 395, 41, 410, 56
-0.999785, 375, 115, 390, 130
-0.999788, 411, 41, 426, 56
-0.999803, 191, 129, 206, 144
-0.999805, 415, 1, 430, 16
-0.999809, 239, 213, 254, 228
-0.99981, 251, 55, 266, 70
-0.99982, 213, 213, 228, 228
-0.999822, 301, 117, 316, 132
-0.999823, 397, 47, 412, 62
-0.99984, 203, 159, 218, 174
-0.99984, 255, 143, 270, 158
-0.99984, 245, 145, 260, 160
-0.999854, 267, 123, 282, 138
-1.0025, 137, 193, 200, 320
