1963
-0.294034, 1, 1, 375, 500
-0.382628, 1, 257, 375, 500
-0.397825, 1, 129, 375, 384
-0.429951, 1, 1, 256, 500
-0.448183, 97, 1, 352, 500
-0.45446, 1, 1, 375, 256
-0.586688, 1, 225, 256, 480
-0.649796, 65, 1, 320, 256
-0.659436, 1, 129, 256, 384
-0.664143, 97, 257, 352, 500
-0.686306, 97, 161, 352, 416
-0.850945, 177, 161, 304, 416
-0.853171, 81, 1, 208, 500
-0.860762, 193, 1, 320, 500
-0.86279, 33, 1, 160, 500
-0.863287, 241, 1, 368, 500
-0.863918, 1, 257, 128, 500
-0.872723, 225, 257, 352, 500
-0.874033, 65, 129, 192, 384
-0.877037, 177, 1, 304, 256
-0.877046, 113, 225, 240, 480
-0.878065, 97, 1, 224, 256
-0.87944, 129, 1, 256, 500
-0.881417, 33, 1, 160, 256
-0.882427, 241, 161, 368, 416
-0.886252, 1, 97, 128, 352
-0.886303, 1, 241, 375, 368
-0.886536, 1, 193, 375, 320
-0.886665, 1, 145, 375, 272
-0.887392, 1, 1, 375, 128
-0.887606, 177, 257, 304, 500
-0.88934, 1, 65, 375, 192
-0.891267, 49, 225, 176, 480
-0.8921, 1, 337, 375, 464
-0.897332, 225, 33, 352, 288
-0.899174, 1, 289, 375, 416
-0.901788, 113, 97, 240, 352
-0.912802, 97, 1, 352, 128
-0.919223, 1, 161, 256, 288
-0.919995, 65, 209, 320, 336
-0.923522, 1, 273, 256, 400
-0.929523, 129, 353, 375, 480
-0.930458, 1, 145, 64, 272
-0.933948, 97, 49, 352, 176
-0.935903, 97, 97, 352, 224
-0.936093, 1, 1, 256, 128
-0.936504, 97, 257, 352, 384
-0.936612, 1, 49, 256, 176
-0.939168, 1, 257, 64, 384
-0.939253, 1, 321, 256, 448
-0.939822, 1, 177, 128, 304
-0.940064, 25, 113, 88, 240
-0.940439, 1, 257, 128, 384
-0.941588, 97, 145, 352, 272
-0.942383, 177, 193, 304, 320
-0.943493, 9, 193, 72, 320
-0.944641, 1, 369, 256, 496
-0.944851, 1, 129, 128, 256
-0.945801, 225, 1, 352, 128
-0.946826, 241, 145, 368, 272
-0.9479, 49, 129, 112, 256
-0.947905, 1, 113, 256, 240
-0.949238, 1, 353, 128, 480
-0.949864, 145, 1, 272, 128
-0.950218, 65, 1, 192, 128
-0.950354, 33, 305, 160, 432
-0.951089, 1, 97, 64, 224
-0.95115, 97, 305, 352, 432
-0.951168, 81, 113, 144, 240
-0.951277, 217, 1, 280, 128
-0.951287, 33, 209, 96, 336
-0.951312, 97, 225, 224, 352
-0.951842, 81, 129, 208, 256
-0.952036, 161, 353, 288, 480
-0.952367, 49, 177, 176, 304
-0.952635, 89, 65, 152, 192
-0.952691, 81, 49, 208, 176
-0.952867, 241, 273, 368, 400
-0.953202, 273, 1, 336, 128
-0.953413, 97, 273, 224, 400
-0.953641, 161, 273, 288, 400
-0.953687, 17, 33, 80, 160
-0.953728, 177, 145, 304, 272
-0.953962, 57, 257, 120, 384
-0.954602, 57, 49, 120, 176
-0.955041, 33, 81, 160, 208
-0.955133, 121, 1, 184, 128
-0.955705, 97, 257, 160, 384
-0.956101, 225, 97, 352, 224
-0.95643, 257, 145, 320, 272
-0.95752, 201, 129, 264, 256
-0.957536, 241, 33, 304, 160
-0.957765, 241, 369, 368, 496
-0.958307, 49, 257, 176, 384
-0.958651, 225, 193, 288, 320
-0.958661, 97, 177, 224, 304
-0.958782, 65, 1, 128, 128
-0.958788, 177, 97, 304, 224
-0.958903, 145, 177, 208, 304
-0.958963, 225, 49, 352, 176
-0.959247, 81, 321, 208, 448
-0.959335, 233, 321, 296, 448
-0.959356, 25, 289, 88, 416
-0.959405, 185, 1, 248, 128
-0.959437, 73, 193, 136, 320
-0.959475, 177, 353, 240, 480
-0.959702, 241, 193, 368, 320
-0.959707, 17, 33, 144, 160
-0.960109, 65, 305, 128, 432
-0.960175, 313, 369, 375, 496
-0.960237, 129, 129, 256, 256
-0.960597, 305, 1, 368, 128
-0.960628, 65, 345, 128, 408
-0.960818, 161, 1, 224, 128
-0.960844, 313, 49, 375, 176
-0.96101, 297, 113, 360, 240
-0.961074, 105, 33, 168, 96
-0.961152, 97, 273, 160, 336
-0.961271, 145, 225, 208, 352
-0.961463, 313, 409, 375, 472
-0.961478, 9, 265, 72, 328
-0.961546, 249, 273, 312, 400
-0.961973, 273, 257, 336, 384
-0.962094, 33, 337, 96, 464
-0.962159, 57, 65, 120, 128
-0.962185, 89, 17, 152, 144
-0.962437, 177, 169, 240, 232
-0.962502, 201, 1, 264, 64
-0.962783, 209, 353, 272, 480
-0.96308, 73, 113, 136, 176
-0.963185, 313, 385, 375, 448
-0.963438, 73, 25, 136, 88
-0.96373, 313, 177, 375, 304
-0.963858, 105, 145, 168, 272
-0.963895, 241, 97, 304, 224
-0.963986, 145, 185, 208, 248
-0.964257, 257, 193, 320, 320
-0.964427, 169, 129, 232, 256
-0.964462, 137, 113, 200, 240
-0.964574, 121, 49, 184, 176
-0.965266, 105, 129, 168, 192
-0.965346, 185, 209, 248, 336
-0.965493, 281, 193, 344, 320
-0.965562, 17, 241, 80, 304
-0.965663, 161, 49, 224, 176
-0.965683, 137, 1, 200, 64
-0.965718, 137, 57, 200, 120
-0.965729, 105, 209, 168, 336
-0.96598, 169, 145, 232, 208
-0.966048, 97, 345, 160, 408
-0.966307, 281, 49, 344, 176
-0.966329, 305, 41, 368, 104
-0.966415, 97, 313, 160, 376
-0.966604, 145, 129, 208, 192
-0.966851, 73, 89, 136, 152
-0.9669, 225, 145, 288, 272
-0.967004, 57, 137, 120, 200
-0.967017, 33, 361, 96, 424
-0.967229, 1, 217, 64, 280
-0.967329, 1, 241, 32, 368
-0.96739, 89, 65, 152, 128
-0.967529, 25, 49, 88, 112
-0.967554, 201, 145, 264, 208
-0.967748, 177, 49, 304, 176
-0.967936, 1, 33, 64, 96
-0.968014, 241, 65, 304, 128
-0.96804, 225, 273, 288, 400
-0.968225, 25, 105, 88, 168
-0.968255, 97, 97, 160, 160
-0.9685, 65, 305, 128, 368
-0.968519, 153, 273, 216, 400
-0.968743, 113, 1, 176, 64
-0.968938, 209, 321, 336, 448
-0.969128, 49, 369, 176, 496
-0.969154, 129, 25, 192, 88
-0.969224, 49, 417, 112, 480
-0.969269, 81, 1, 144, 64
-0.969471, 265, 177, 328, 240
-0.969696, 49, 265, 112, 328
-0.969746, 225, 313, 288, 376
-0.969782, 113, 65, 176, 128
-0.970222, 57, 369, 120, 496
-0.970225, 17, 193, 80, 256
-0.970503, 257, 41, 320, 104
-0.970535, 129, 65, 256, 192
-0.970929, 9, 289, 72, 352
-0.971003, 81, 161, 144, 224
-0.971068, 9, 193, 40, 320
-0.971075, 233, 169, 296, 232
-0.971137, 289, 417, 352, 480
-0.971143, 41, 1, 104, 128
-0.971235, 41, 337, 104, 400
-0.971248, 193, 305, 256, 368
-0.971328, 49, 89, 112, 152
-0.97133, 1, 305, 64, 432
-0.97139, 273, 97, 336, 224
-0.971499, 241, 1, 304, 64
-0.97157, 265, 369, 328, 496
-0.971573, 1, 105, 64, 168
-0.971656, 113, 369, 240, 496
-0.971681, 89, 209, 152, 272
-0.971709, 201, 169, 264, 232
-0.971956, 49, 1, 112, 64
-0.971956, 1, 385, 64, 448
-0.972013, 193, 273, 256, 400
-0.972105, 161, 209, 224, 272
-0.972123, 233, 33, 296, 96
-0.972127, 121, 201, 184, 264
-0.972277, 105, 409, 168, 472
-0.972294, 161, 57, 224, 120
-0.97236, 5, 257, 36, 320
-0.972383, 185, 217, 248, 280
-0.972489, 1, 369, 64, 496
-0.972577, 113, 153, 176, 216
-0.972584, 9, 417, 72, 480
-0.972676, 153, 337, 216, 464
-0.972735, 145, 153, 208, 216
-0.972902, 201, 65, 264, 192
-0.972924, 1, 73, 64, 136
-0.972945, 1, 9, 64, 72
-0.972954, 65, 1, 128, 256
-0.973096, 49, 33, 112, 96
-0.97318, 257, 153, 320, 216
-0.973215, 313, 433, 375, 496
-0.973437, 305, 65, 368, 128
-0.973473, 265, 97, 328, 352
-0.973477, 185, 193, 248, 256
-0.973546, 89, 321, 152, 448
-0.973591, 81, 233, 144, 296
-0.973629, 233, 345, 296, 408
-0.973802, 1, 129, 64, 192
-0.973812, 273, 265, 336, 328
-0.973821, 121, 289, 184, 416
-0.973823, 57, 233, 120, 296
-0.973926, 249, 273, 312, 336
-0.974037, 217, 57, 280, 120
-0.974102, 17, 169, 80, 232
-0.974126, 81, 137, 144, 200
-0.974216, 281, 49, 344, 112
-0.974238, 25, 97, 88, 352
-0.974241, 225, 193, 288, 256
-0.974265, 105, 1, 168, 256
-0.974437, 1, 257, 64, 500
-0.974478, 33, 345, 160, 408
-0.974774, 49, 225, 112, 480
-0.974833, 345, 369, 375, 496
-0.974884, 33, 137, 96, 200
-0.974916, 9, 129, 40, 256
-0.974952, 9, 313, 72, 376
-0.97498, 289, 129, 352, 192
-0.974982, 13, 65, 44, 192
-0.975116, 129, 1, 256, 64
-0.975137, 49, 113, 112, 176
-0.975223, 233, 145, 296, 208
-0.975366, 17, 41, 144, 104
-0.975459, 169, 1, 232, 64
-0.975465, 313, 129, 375, 192
-0.975475, 65, 385, 128, 448
-0.975546, 129, 1, 192, 256
-0.975647, 297, 89, 360, 152
-0.975662, 145, 257, 208, 320
-0.975682, 249, 273, 280, 400
-0.975685, 233, 1, 296, 256
-0.975727, 105, 369, 168, 496
-0.975891, 313, 1, 375, 64
-0.97591, 1, 281, 32, 344
-0.975926, 89, 377, 152, 440
-0.975984, 129, 89, 192, 152
-0.975984, 105, 129, 168, 384
-0.976179, 81, 369, 144, 496
-0.976184, 241, 161, 304, 416
-0.976211, 193, 329, 256, 392
-0.976222, 57, 209, 120, 272
-0.976223, 193, 1, 256, 256
-0.976356, 1, 273, 128, 336
-0.976491, 73, 129, 136, 384
-0.976621, 177, 209, 304, 272
-0.976683, 25, 73, 88, 136
-0.976743, 217, 81, 280, 144
-0.976857, 93, 65, 124, 192
-0.976887, 273, 1, 336, 64
-0.976956, 225, 425, 288, 488
-0.976979, 265, 257, 328, 500
-0.976996, 81, 425, 144, 488
-0.976996, 161, 161, 288, 224
-0.977168, 1, 337, 64, 400
-0.977225, 129, 417, 192, 480
-0.977231, 5, 73, 36, 136
-0.977252, 109, 49, 140, 176
-0.977286, 209, 25, 272, 88
-0.977333, 241, 185, 368, 248
-0.977343, 1, 321, 32, 448
-0.977395, 29, 113, 60, 240
-0.977397, 89, 185, 152, 248
-0.977407, 265, 241, 328, 304
-0.977411, 1, 1, 64, 256
-0.977489, 53, 273, 84, 400
-0.977493, 97, 321, 224, 384
-0.977537, 89, 89, 120, 152
-0.977629, 217, 1, 248, 128
-0.977664, 57, 329, 88, 392
-0.977704, 265, 417, 328, 480
-0.977801, 97, 17, 128, 80
-0.977832, 121, 1, 152, 128
-0.977846, 185, 193, 216, 256
-0.977873, 121, 177, 184, 240
-0.977886, 49, 185, 112, 248
-0.977914, 193, 417, 256, 480
-0.977932, 305, 97, 368, 352
-0.977965, 17, 1, 144, 64
-0.977979, 273, 73, 336, 136
-0.978002, 89, 1, 120, 128
-0.978025, 121, 233, 184, 296
-0.978028, 153, 417, 216, 480
-0.978049, 21, 161, 52, 288
-0.978068, 265, 113, 328, 176
-0.978087, 225, 1, 256, 64
-0.978119, 1, 169, 32, 232
-0.978131, 161, 313, 288, 376
-0.978136, 89, 65, 120, 128
-0.97816, 65, 65, 96, 192
-0.978221, 17, 73, 144, 136
-0.978257, 313, 185, 375, 248
-0.978305, 1, 249, 128, 312
-0.978356, 233, 369, 296, 496
-0.978375, 77, 1, 108, 64
-0.978383, 25, 25, 88, 88
-0.978417, 113, 97, 176, 224
-0.978522, 145, 281, 208, 344
-0.978578, 49, 129, 112, 384
-0.978608, 65, 137, 192, 200
-0.978667, 1, 145, 128, 208
-0.978681, 1, 369, 128, 432
-0.978688, 241, 313, 272, 376
-0.978721, 241, 257, 304, 500
-0.978736, 17, 265, 48, 328
-0.978764, 1, 129, 64, 384
-0.978904, 65, 25, 192, 88
-0.978925, 33, 65, 64, 192
-0.979088, 1, 17, 32, 144
-0.979107, 57, 113, 88, 240
-0.97911, 1, 417, 128, 480
-0.97915, 281, 153, 344, 216
-0.979189, 309, 1, 340, 128
-0.979243, 241, 89, 304, 152
-0.979249, 289, 193, 352, 256
-0.979255, 1, 209, 32, 272
-0.979321, 193, 1, 320, 64
-0.979336, 153, 81, 216, 144
-0.97935, 33, 97, 160, 160
-0.979366, 149, 1, 180, 128
-0.979366, 13, 257, 44, 384
-0.979419, 1, 177, 128, 240
-0.979437, 169, 161, 200, 224
-0.979461, 345, 393, 375, 456
-0.979479, 217, 161, 280, 416
-0.979481, 137, 321, 200, 384
-0.979546, 25, 1, 88, 64
-0.979589, 257, 1, 320, 256
-0.979602, 33, 321, 160, 384
-0.979618, 65, 161, 192, 224
-0.979659, 117, 25, 148, 88
-0.9797, 185, 281, 248, 344
-0.979722, 65, 49, 192, 112
-0.979723, 289, 369, 352, 496
-0.979758, 73, 105, 104, 168
-0.979816, 193, 185, 320, 248
-0.979866, 1, 297, 128, 360
-0.9799, 241, 417, 368, 480
-0.979922, 129, 185, 256, 248
-0.979957, 9, 361, 72, 424
-0.98003, 101, 129, 132, 256
-0.980033, 129, 17, 160, 80
-0.980045, 133, 1, 164, 128
-0.980053, 273, 385, 336, 448
-0.980056, 33, 289, 96, 352
-0.980086, 25, 225, 88, 480
-0.9801, 145, 1, 176, 64
-0.980108, 177, 121, 240, 184
-0.980282, 81, 281, 208, 344
-0.980315, 241, 1, 368, 64
-0.980327, 33, 177, 64, 304
-0.980331, 229, 137, 260, 200
-0.980338, 105, 1, 168, 500
-0.980372, 17, 97, 48, 160
-0.980423, 41, 1, 104, 256
-0.980428, 109, 57, 140, 120
-0.980459, 245, 161, 276, 224
-0.980505, 193, 193, 256, 448
-0.980567, 65, 289, 96, 416
-0.98068, 85, 113, 116, 240
-0.980772, 1, 321, 32, 384
-0.980784, 49, 129, 80, 192
-0.980791, 45, 49, 76, 176
-0.980818, 1, 225, 128, 288
-0.98082, 225, 57, 352, 120
-0.980824, 213, 1, 244, 64
-0.980909, 177, 1, 208, 128
-0.980928, 173, 185, 204, 248
-0.980928, 161, 233, 288, 296
-0.98098, 229, 129, 260, 256
-0.981018, 121, 49, 152, 176
-0.981077, 177, 137, 304, 200
-0.981083, 77, 353, 108, 416
-0.981102, 121, 97, 152, 160
-0.981131, 333, 369, 364, 496
-0.981141, 145, 257, 208, 500
-0.981143, 333, 385, 364, 448
-0.981164, 161, 273, 288, 336
-0.981201, 181, 145, 212, 208
-0.981226, 233, 1, 296, 500
-0.981279, 57, 337, 88, 464
-0.981283, 81, 1, 208, 64
-0.981318, 89, 225, 152, 480
-0.981331, 241, 113, 272, 240
-0.981359, 129, 49, 160, 112
-0.981371, 149, 41, 180, 104
-0.981373, 293, 193, 324, 320
-0.981378, 129, 97, 192, 352
-0.98138, 225, 265, 352, 328
-0.981408, 33, 113, 64, 176
-0.981499, 269, 225, 300, 352
-0.981506, 81, 73, 208, 136
-0.981545, 149, 417, 180, 480
-0.981583, 105, 337, 136, 400
-0.981629, 289, 193, 352, 448
-0.981665, 257, 321, 288, 448
-0.981667, 25, 57, 56, 120
-0.981698, 173, 209, 204, 272
-0.981704, 65, 209, 96, 336
-0.981747, 97, 241, 224, 304
-0.981763, 101, 89, 132, 152
-0.981778, 109, 1, 140, 128
-0.981799, 61, 65, 92, 128
-0.981812, 345, 1, 375, 128
-0.981856, 149, 129, 180, 192
-0.98193, 285, 1, 316, 128
-0.981998, 81, 97, 208, 160
-0.982002, 45, 97, 76, 224
-0.982163, 97, 417, 224, 480
-0.982276, 113, 121, 240, 184
-0.982303, 81, 1, 144, 500
-0.982328, 93, 345, 124, 408
-0.982341, 153, 65, 216, 320
-0.982365, 125, 193, 156, 320
-0.982366, 305, 225, 368, 352
-0.982392, 45, 89, 76, 152
-0.982423, 77, 57, 108, 120
-0.982424, 329, 49, 360, 176
-0.98243, 97, 345, 224, 408
-0.982438, 257, 321, 320, 448
-0.982443, 301, 49, 332, 176
-0.98251, 193, 353, 224, 480
-0.98256, 257, 193, 288, 320
-0.982593, 73, 129, 104, 192
-0.982621, 345, 417, 375, 480
-0.982659, 177, 129, 208, 256
-0.982679, 173, 257, 204, 320
-0.9827, 49, 417, 176, 480
-0.982713, 85, 113, 116, 176
-0.982757, 241, 161, 368, 224
-0.98277, 173, 177, 204, 304
-0.982772, 77, 273, 108, 400
-0.982802, 65, 1, 96, 128
-0.982863, 261, 41, 292, 104
-0.982919, 241, 393, 368, 456
-0.982948, 85, 25, 116, 88
-0.982977, 45, 49, 76, 112
-0.983004, 41, 265, 72, 328
-0.983011, 329, 1, 360, 128
-0.983021, 125, 273, 156, 336
-0.98305, 137, 417, 168, 480
-0.98312, 85, 137, 116, 200
-0.983121, 313, 1, 375, 500
-0.98314, 121, 257, 152, 384
-0.98316, 225, 89, 352, 152
-0.983184, 245, 65, 276, 128
-0.983189, 125, 321, 156, 384
-0.983225, 97, 41, 128, 104
-0.983327, 153, 161, 216, 416
-0.983327, 249, 201, 280, 264
-0.983401, 161, 1, 192, 128
-0.983409, 113, 209, 240, 272
-0.983464, 1, 65, 32, 192
-0.983466, 145, 81, 272, 144
-0.983478, 145, 1, 208, 500
-0.983524, 169, 49, 200, 112
-0.983557, 241, 233, 368, 296
-0.983587, 305, 1, 368, 256
-0.983593, 297, 273, 360, 400
-0.983601, 265, 177, 296, 240
-0.983649, 129, 369, 192, 496
-0.983672, 129, 129, 160, 192
-0.98376, 129, 201, 160, 264
-0.983828, 109, 209, 140, 336
-0.98385, 1, 121, 128, 184
-0.983855, 149, 129, 180, 256
-0.983859, 169, 17, 200, 80
-0.983885, 41, 361, 72, 424
-0.983887, 21, 209, 52, 336
-0.98389, 49, 241, 176, 304
-0.983969, 181, 121, 212, 184
-0.984014, 257, 1, 320, 500
-0.984058, 161, 25, 288, 88
-0.984063, 201, 153, 232, 216
-0.984097, 73, 129, 104, 256
-0.984098, 85, 233, 116, 296
-0.984108, 177, 337, 304, 400
-0.984111, 97, 393, 224, 456
-0.984125, 185, 217, 216, 280
-0.984136, 205, 353, 236, 480
-0.984137, 157, 49, 188, 176
-0.984181, 269, 273, 300, 400
-0.984187, 257, 17, 288, 80
-0.984189, 261, 145, 292, 272
-0.984198, 13, 369, 44, 496
-0.98426, 33, 393, 160, 456
-0.98428, 73, 81, 104, 144
-0.984285, 233, 1, 264, 128
-0.984306, 229, 177, 260, 240
-0.984328, 169, 129, 200, 192
-0.984374, 117, 225, 148, 288
-0.98439, 301, 129, 332, 256
-0.984423, 245, 321, 276, 448
-0.984477, 41, 289, 72, 416
-0.98451, 313, 321, 375, 448
-0.984601, 33, 81, 64, 144
-0.984603, 217, 257, 280, 500
-0.984605, 45, 161, 76, 288
-0.984606, 345, 1, 375, 64
-0.984608, 113, 145, 240, 208
-0.984621, 5, 233, 36, 296
-0.984646, 169, 257, 232, 500
-0.984661, 113, 1, 144, 64
-0.984692, 209, 25, 336, 88
-0.984711, 1, 201, 128, 264
-0.984722, 313, 417, 344, 480
-0.984741, 225, 129, 352, 192
-0.984759, 9, 377, 40, 440
-0.984788, 321, 393, 352, 456
-0.984846, 1, 1, 64, 500
-0.984874, 1, 41, 32, 104
-0.984879, 49, 1, 80, 128
-0.984909, 49, 417, 80, 480
-0.984971, 165, 113, 196, 240
-0.985019, 177, 49, 304, 112
-0.985057, 245, 1, 276, 128
-0.985074, 261, 225, 292, 288
-0.985093, 109, 361, 140, 424
-0.985115, 117, 201, 148, 264
-0.985118, 173, 233, 204, 296
-0.985119, 257, 1, 288, 128
-0.985129, 113, 97, 144, 224
-0.98513, 93, 313, 124, 376
-0.985151, 73, 417, 104, 480
-0.985175, 13, 145, 44, 208
-0.985195, 77, 1, 108, 128
-0.985203, 17, 1, 48, 128
-0.985208, 245, 193, 276, 320
-0.985225, 217, 137, 248, 200
-0.985273, 49, 209, 176, 272
-0.985281, 245, 33, 276, 96
-0.985291, 85, 225, 116, 352
-0.9853, 345, 41, 375, 104
-0.985313, 113, 25, 240, 88
-0.985345, 13, 185, 44, 248
-0.985368, 225, 329, 256, 392
-0.985402, 81, 185, 208, 248
-0.985438, 53, 353, 84, 416
-0.98545, 85, 417, 116, 480
-0.98545, 217, 113, 248, 240
-0.985474, 49, 153, 80, 216
-0.985498, 69, 289, 100, 352
-0.98552, 161, 417, 192, 480
-0.985536, 133, 105, 164, 168
-0.98554, 193, 409, 320, 472
-0.985567, 57, 257, 88, 320
-0.985592, 333, 89, 364, 152
-0.985594, 65, 353, 96, 416
-0.985597, 109, 257, 140, 384
-0.985635, 33, 17, 64, 144
-0.985642, 273, 209, 304, 272
-0.985666, 241, 137, 272, 200
-0.985681, 1, 97, 32, 160
-0.985688, 5, 9, 36, 72
-0.985698, 289, 1, 352, 500
-0.985708, 165, 81, 196, 144
-0.985777, 241, 289, 368, 352
-0.9858, 129, 113, 160, 240
-0.985829, 177, 225, 208, 352
-0.985882, 65, 41, 96, 104
-0.985896, 309, 193, 340, 320
-0.985933, 205, 1, 236, 128
-0.985938, 281, 233, 312, 296
-0.985979, 185, 1, 248, 500
-0.985983, 229, 65, 260, 192
-0.985986, 109, 113, 140, 176
-0.985992, 81, 321, 112, 384
-0.98601, 245, 1, 276, 64
-0.986024, 233, 321, 264, 448
-0.986054, 197, 17, 228, 80
-0.986055, 333, 417, 364, 480
-0.986086, 45, 337, 76, 464
-0.986091, 113, 49, 240, 112
-0.986136, 313, 49, 344, 176
-0.986148, 133, 49, 164, 176
-0.98621, 177, 49, 208, 176
-0.986218, 257, 337, 288, 400
-0.986229, 45, 225, 76, 352
-0.986242, 77, 65, 108, 192
-0.986249, 245, 337, 276, 400
-0.986261, 189, 129, 220, 256
-0.98628, 145, 417, 272, 480
-0.986406, 313, 193, 375, 448
-0.986417, 181, 1, 212, 64
-0.986431, 61, 145, 92, 208
-0.986458, 61, 121, 92, 184
-0.986505, 345, 193, 375, 320
-0.98656, 25, 1, 88, 500
-0.986618, 157, 153, 188, 216
-0.986628, 193, 97, 256, 352
-0.986632, 253, 313, 284, 376
-0.986645, 289, 57, 320, 120
-0.986649, 297, 113, 328, 176
-0.986651, 237, 289, 268, 352
-0.986681, 13, 209, 44, 272
-0.98669, 57, 289, 88, 352
-0.986721, 45, 25, 76, 88
-0.98684, 177, 361, 304, 424
-0.98686, 57, 161, 88, 288
-0.986875, 177, 273, 208, 400
-0.986892, 69, 337, 100, 464
-0.986898, 313, 97, 344, 224
-0.986928, 289, 49, 320, 176
-0.986935, 273, 1, 304, 128
-0.986947, 329, 113, 360, 240
-0.986984, 209, 1, 272, 500
-0.987014, 269, 49, 300, 176
-0.987016, 189, 1, 220, 128
-0.987221, 321, 369, 352, 496
-0.987231, 281, 97, 312, 224
-0.987253, 281, 257, 312, 384
-0.987323, 277, 177, 308, 304
-0.987442, 225, 321, 352, 384
-0.987497, 181, 353, 212, 480
-0.987527, 221, 353, 252, 480
-0.98753, 49, 369, 176, 432
-0.98755, 177, 105, 304, 168
-0.987582, 25, 273, 56, 400
-0.987779, 297, 1, 328, 128
-0.987791, 253, 49, 284, 176
-0.987828, 341, 129, 372, 256
-0.987841, 261, 369, 292, 496
-0.987904, 225, 209, 352, 272
-0.987915, 269, 321, 300, 448
-0.987971, 241, 369, 272, 496
-0.987982, 85, 177, 116, 304
-0.987997, 241, 65, 272, 192
-0.988048, 341, 49, 372, 176
-0.98805, 1, 369, 32, 496
-0.988125, 13, 305, 44, 432
-0.988134, 25, 369, 56, 496
-0.988352, 185, 177, 216, 304
-0.988498, 49, 1, 112, 500
-0.988561, 177, 385, 304, 448
-0.988578, 161, 161, 192, 288
-0.988669, 225, 369, 352, 432
-0.988721, 97, 257, 128, 384
-0.988766, 189, 81, 220, 208
-0.989119, 113, 145, 144, 272
-0.989186, 281, 1, 344, 256
-0.989225, 297, 369, 328, 496
-0.989341, 209, 49, 240, 176
-0.989411, 17, 269, 80, 300
-0.989943, 1, 197, 64, 228
-0.990043, 105, 37, 168, 68
-0.990064, 17, 137, 80, 168
-0.990174, 9, 281, 72, 312
-0.990233, 105, 141, 168, 172
-0.990235, 57, 137, 120, 168
-0.990237, 137, 1, 200, 32
-0.99028, 73, 77, 136, 108
-0.99029, 73, 65, 136, 96
-0.990292, 97, 281, 160, 312
-0.990312, 209, 1, 272, 32
-0.990356, 81, 153, 144, 184
-0.990399, 1, 241, 64, 272
-0.990424, 225, 345, 352, 408
-0.990428, 1, 41, 64, 72
-0.990437, 17, 73, 80, 104
-0.990441, 129, 17, 192, 48
-0.990457, 17, 121, 80, 152
-0.990545, 73, 53, 136, 84
-0.990564, 65, 349, 128, 380
-0.99061, 73, 121, 136, 152
-0.990611, 241, 69, 304, 100
-0.990639, 121, 57, 184, 88
-0.99064, 57, 281, 120, 312
-0.990653, 97, 81, 160, 112
-0.990666, 177, 197, 240, 228
-0.990666, 233, 1, 296, 32
-0.990668, 1, 213, 64, 244
-0.990668, 89, 17, 152, 48
-0.990675, 153, 193, 216, 224
-0.990683, 137, 157, 200, 188
-0.990706, 193, 153, 256, 184
-0.990712, 33, 109, 96, 140
-0.990713, 313, 421, 375, 452
-0.990737, 81, 137, 144, 168
-0.990757, 129, 33, 192, 64
-0.990781, 217, 305, 280, 336
-0.990799, 17, 229, 80, 260
-0.99082, 41, 57, 104, 88
-0.990831, 17, 253, 80, 284
-0.990861, 265, 49, 328, 80
-0.990871, 57, 149, 120, 180
-0.990894, 49, 73, 112, 104
-0.990898, 225, 201, 288, 232
-0.990908, 169, 161, 232, 192
-0.990921, 41, 361, 104, 392
-0.990928, 1, 153, 64, 184
-0.990952, 49, 125, 112, 156
-0.990961, 1, 305, 64, 336
-0.990963, 177, 185, 240, 216
-0.990966, 1, 193, 256, 256
-0.990975, 233, 329, 296, 360
-0.990999, 233, 173, 296, 204
-0.991004, 49, 337, 112, 368
-0.991009, 201, 141, 264, 172
-0.991009, 265, 185, 328, 216
-0.991012, 41, 193, 104, 224
-0.991014, 97, 65, 160, 96
-0.99102, 113, 1, 176, 32
-0.991033, 65, 9, 320, 72
-0.991049, 65, 33, 128, 64
-0.991057, 137, 73, 200, 104
-0.991092, 41, 1, 104, 32
-0.99111, 161, 149, 224, 180
-0.991111, 97, 345, 160, 376
-0.991119, 105, 157, 168, 188
-0.991121, 57, 97, 120, 128
-0.991123, 193, 165, 256, 196
-0.99113, 9, 61, 72, 92
-0.991137, 249, 157, 312, 188
-0.991137, 57, 261, 120, 292
-0.991138, 1, 93, 64, 124
-0.991145, 281, 429, 344, 460
-0.991155, 121, 209, 184, 240
-0.991156, 137, 45, 200, 76
-0.991181, 113, 369, 240, 432
-0.991181, 153, 177, 216, 208
-0.991184, 241, 57, 304, 88
-0.991199, 1, 177, 64, 208
-0.991202, 185, 313, 248, 344
-0.991206, 33, 349, 96, 380
-0.991266, 225, 29, 288, 60
-0.991268, 177, 209, 240, 240
-0.991271, 129, 421, 192, 452
-0.991277, 89, 93, 152, 124
-0.991312, 97, 49, 160, 80
-0.991317, 313, 405, 375, 436
-0.991319, 201, 189, 264, 220
-0.991319, 153, 205, 216, 236
-0.991323, 41, 37, 104, 68
-0.991329, 81, 209, 144, 240
-0.991341, 233, 345, 296, 376
-0.991347, 313, 449, 375, 480
-0.991364, 9, 293, 72, 324
-0.991373, 65, 321, 320, 384
-0.991376, 145, 301, 208, 332
-0.991385, 305, 1, 368, 32
-0.991408, 305, 61, 368, 92
-0.991409, 129, 141, 192, 172
-0.99142, 1, 397, 64, 428
-0.991427, 185, 225, 248, 256
-0.991429, 1, 109, 64, 140
-0.991434, 89, 229, 152, 260
-0.991444, 281, 169, 344, 200
-0.991446, 145, 281, 208, 312
-0.991447, 97, 305, 160, 336
-0.991452, 225, 81, 288, 112
-0.99146, 169, 29, 232, 60
-0.991469, 81, 109, 144, 140
-0.991476, 145, 233, 208, 264
-0.991476, 265, 241, 328, 272
-0.991479, 1, 161, 375, 224
-0.991482, 25, 205, 88, 236
-0.991483, 225, 161, 288, 192
-0.991489, 185, 9, 248, 40
-0.991493, 241, 185, 304, 216
-0.991499, 57, 241, 120, 272
-0.991515, 177, 81, 240, 112
-0.991517, 121, 85, 184, 116
-0.991518, 257, 1, 320, 32
-0.991526, 65, 33, 320, 96
-0.991534, 289, 441, 352, 472
-0.991545, 313, 113, 375, 144
-0.991561, 17, 13, 80, 44
-0.991569, 49, 85, 112, 116
-0.991573, 1, 165, 64, 196
-0.991581, 161, 69, 224, 100
-0.991583, 41, 165, 104, 196
-0.991585, 225, 141, 288, 172
-0.991586, 65, 1, 128, 32
-0.991591, 65, 17, 128, 48
-0.991591, 217, 93, 280, 124
-0.991594, 121, 225, 184, 480
-0.991595, 49, 229, 112, 260
-0.991599, 305, 45, 368, 76
-0.991601, 289, 145, 352, 176
-0.991608, 313, 389, 375, 420
-0.991983, 65, 345, 320, 408
-0.992083, 65, 289, 320, 352
-0.99217, 65, 257, 320, 320
-0.992256, 193, 433, 320, 496
-0.992442, 97, 177, 352, 240
-0.992477, 1, 265, 375, 328
-0.992504, 1, 197, 32, 228
-0.992515, 1, 289, 32, 320
-0.992564, 1, 313, 375, 376
-0.992577, 49, 137, 80, 168
-0.992612, 33, 137, 64, 168
-0.992612, 1, 325, 32, 356
-0.992621, 253, 1, 284, 32
-0.99263, 1, 229, 32, 260
-0.992656, 185, 189, 216, 220
-0.992659, 65, 65, 96, 96
-0.992667, 249, 337, 280, 368
-0.992669, 57, 337, 88, 368
-0.992671, 13, 265, 44, 296
-0.992715, 9, 209, 40, 240
-0.992738, 245, 197, 276, 228
-0.992754, 13, 101, 44, 132
-0.992755, 173, 189, 204, 220
-0.99276, 5, 85, 36, 116
-0.992762, 1, 301, 32, 332
-0.992783, 93, 37, 124, 68
-0.992783, 117, 229, 148, 260
-0.992789, 1, 313, 32, 344
-0.992795, 105, 53, 136, 84
-0.992797, 73, 109, 104, 140
-0.992801, 109, 149, 140, 180
-0.992802, 65, 65, 320, 128
-0.992807, 89, 145, 120, 176
-0.992812, 1, 169, 256, 232
-0.992814, 65, 133, 96, 164
-0.992818, 25, 273, 56, 304
-0.99282, 5, 41, 36, 72
-0.992825, 61, 97, 92, 128
-0.992828, 25, 97, 56, 128
-0.99283, 49, 149, 80, 180
-0.992833, 85, 85, 116, 116
-0.992836, 149, 37, 180, 68
-0.992846, 45, 365, 76, 396
-0.99285, 201, 153, 232, 184
-0.992851, 129, 137, 160, 168
-0.992858, 29, 149, 60, 180
-0.992859, 301, 61, 332, 92
-0.992865, 229, 197, 260, 228
-0.992866, 241, 1, 272, 32
-0.992869, 13, 185, 44, 216
-0.992871, 261, 209, 292, 240
-0.992872, 117, 89, 148, 120
-0.992874, 245, 13, 276, 44
-0.992881, 137, 13, 168, 44
-0.992885, 133, 1, 164, 32
-0.992893, 53, 125, 84, 156
-0.992894, 29, 197, 60, 228
-0.992896, 97, 225, 352, 288
-0.992898, 237, 301, 268, 332
-0.992898, 41, 69, 72, 100
-0.992902, 177, 213, 208, 244
-0.992903, 173, 137, 204, 168
-0.992903, 173, 257, 204, 288
-0.992904, 93, 65, 124, 96
-0.992905, 5, 73, 36, 104
-0.992906, 181, 153, 212, 184
-0.992907, 105, 77, 136, 108
-0.99291, 21, 117, 52, 148
-0.992912, 105, 37, 136, 68
-0.992913, 117, 13, 148, 44
-0.992917, 13, 281, 44, 312
-0.992918, 85, 53, 116, 84
-0.992919, 9, 125, 40, 156
-0.99292, 109, 137, 140, 168
-0.99292, 345, 401, 375, 432
-0.992921, 65, 121, 96, 152
-0.992923, 129, 33, 160, 64
-0.992926, 181, 177, 212, 208
-0.992926, 85, 129, 116, 160
-0.992927, 217, 5, 248, 36
-0.992928, 101, 25, 132, 56
-0.99293, 41, 109, 72, 140
-0.992938, 61, 85, 92, 116
-0.992942, 337, 93, 368, 124
-0.992942, 25, 85, 56, 116
-0.992942, 41, 89, 72, 120
-0.992947, 125, 49, 156, 80
-0.992952, 253, 57, 284, 88
-0.992955, 1, 265, 32, 296
-0.992957, 181, 201, 212, 232
-0.992957, 173, 269, 204, 300
-0.992957, 341, 81, 372, 112
-0.99296, 273, 233, 304, 264
-0.992966, 41, 269, 72, 300
-0.992966, 41, 125, 72, 156
-0.992966, 85, 289, 116, 320
-0.992967, 241, 321, 272, 352
-0.992969, 1, 53, 32, 84
-0.992975, 213, 157, 244, 188
-0.992978, 261, 345, 292, 376
-0.992979, 93, 157, 124, 188
-0.992984, 33, 137, 288, 200
-0.992986, 229, 145, 260, 176
-0.992987, 9, 245, 40, 276
-0.99299, 65, 285, 96, 316
-0.99299, 145, 57, 176, 88
-0.992994, 165, 201, 196, 232
-0.993, 17, 197, 48, 228
-0.993001, 337, 389, 368, 420
-0.993002, 149, 1, 180, 32
-0.993005, 273, 245, 304, 276
-0.993005, 189, 213, 220, 244
-0.993008, 201, 141, 232, 172
-0.99301, 153, 145, 184, 176
-0.993011, 41, 201, 72, 232
-0.993011, 97, 13, 128, 44
-0.993013, 105, 65, 136, 96
-0.993015, 257, 229, 288, 260
-0.993016, 325, 417, 356, 448
-0.993016, 101, 89, 132, 120
-0.993017, 305, 49, 336, 80
-0.993017, 9, 173, 40, 204
-0.993023, 53, 49, 84, 80
-0.993027, 65, 145, 96, 176
-0.993027, 49, 177, 80, 208
-0.993028, 337, 449, 368, 480
-0.993028, 77, 17, 108, 48
-0.993031, 17, 137, 48, 168
-0.993031, 169, 165, 200, 196
-0.993032, 57, 349, 88, 380
-0.993032, 297, 73, 328, 104
-0.993033, 165, 149, 196, 180
-0.993034, 189, 225, 220, 256
-0.993036, 257, 197, 288, 228
-0.993036, 29, 217, 60, 248
-0.993036, 173, 237, 204, 268
-0.993039, 169, 69, 200, 100
-0.99304, 9, 29, 40, 60
-0.993044, 241, 353, 272, 384
-0.993045, 105, 213, 136, 244
-0.993045, 65, 1, 96, 32
-0.993818, 129, 409, 375, 472
-0.993839, 1, 225, 256, 288
-0.993881, 1, 417, 375, 480
-0.994001, 145, 1, 160, 64
-0.994015, 1, 209, 375, 272
-0.99403, 97, 201, 352, 264
-0.994121, 19, 257, 34, 320
-0.994204, 1, 49, 375, 112
-0.994271, 129, 153, 375, 216
-0.994331, 289, 321, 352, 448
-0.994371, 1, 89, 256, 152
-0.994414, 1, 181, 128, 212
-0.994415, 1, 233, 375, 296
-0.994481, 1, 185, 375, 248
-0.994501, 13, 257, 28, 320
-0.994531, 93, 89, 108, 152
-0.994539, 177, 197, 304, 228
-0.994576, 361, 385, 375, 448
-0.994582, 3, 289, 18, 352
-0.994591, 33, 353, 160, 384
-0.994693, 1, 277, 128, 308
-0.994723, 177, 181, 304, 212
-0.994744, 129, 113, 375, 176
-0.994764, 65, 141, 192, 172
-0.994765, 27, 89, 42, 152
-0.99477, 85, 121, 100, 184
-0.994786, 9, 217, 24, 280
-0.994881, 85, 97, 100, 160
-0.994929, 33, 417, 288, 480
-0.994964, 89, 1, 104, 64
-0.99497, 1, 209, 16, 272
-0.994976, 1, 17, 16, 80
-0.99499, 1, 25, 375, 88
-0.994998, 27, 257, 42, 320
-0.995, 49, 41, 176, 72
-0.995005, 1, 29, 128, 60
-0.99504, 1, 49, 128, 80
-0.995055, 161, 221, 288, 252
-0.995055, 3, 249, 18, 312
-0.995058, 81, 305, 208, 336
-0.995062, 129, 9, 256, 40
-0.995066, 7, 313, 22, 376
-0.995066, 1, 249, 128, 280
-0.995082, 227, 1, 242, 64
-0.995113, 11, 289, 26, 352
-0.995137, 1, 361, 375, 424
-0.99517, 13, 177, 28, 240
-0.995175, 107, 73, 122, 136
-0.99519, 1, 265, 128, 296
-0.995196, 61, 321, 76, 384
-0.995201, 137, 25, 152, 88
-0.995217, 145, 25, 160, 88
-0.995245, 161, 317, 288, 348
-0.99525, 361, 1, 375, 64
-0.995291, 33, 337, 160, 368
-0.995294, 3, 169, 18, 232
-0.99531, 93, 113, 108, 176
-0.995313, 129, 197, 256, 228
-0.995313, 357, 409, 372, 472
-0.995324, 225, 185, 352, 216
-0.99534, 99, 345, 114, 408
-0.995347, 7, 57, 22, 120
-0.995357, 129, 89, 375, 152
-0.995358, 139, 1, 154, 64
-0.995359, 21, 281, 36, 344
-0.995378, 161, 333, 288, 364
-0.995391, 65, 65, 192, 96
-0.995393, 65, 169, 192, 200
-0.995402, 169, 1, 184, 64
-0.995414, 353, 385, 368, 448
-0.995428, 189, 185, 204, 248
-0.995446, 209, 1, 336, 32
-0.995449, 19, 73, 34, 136
-0.995453, 131, 25, 146, 88
-0.995462, 193, 149, 320, 180
-0.995466, 249, 313, 264, 376
-0.995467, 351, 409, 366, 472
-0.995477, 1, 377, 256, 440
-0.995478, 97, 345, 224, 376
-0.995479, 177, 169, 304, 200
-0.995484, 161, 305, 288, 336
-0.995489, 1, 197, 128, 228
-0.995495, 61, 49, 76, 112
-0.995503, 13, 385, 28, 448
-0.995513, 97, 321, 224, 352
-0.995529, 257, 41, 272, 104
-0.995529, 57, 73, 72, 136
-0.995532, 161, 345, 288, 376
-0.995547, 129, 97, 144, 160
-0.995557, 199, 193, 214, 256
-0.995561, 87, 417, 102, 480
-0.995563, 1, 289, 128, 320
-0.995571, 155, 417, 170, 480
-0.995572, 17, 77, 144, 108
-0.995576, 129, 21, 256, 52
-0.995578, 205, 153, 220, 216
-0.995593, 129, 369, 375, 432
-0.995609, 345, 385, 360, 448
-0.995611, 183, 177, 198, 240
-0.995616, 315, 417, 330, 480
-0.995617, 1, 41, 16, 104
-0.995618, 107, 337, 122, 400
-0.995625, 121, 25, 136, 88
-0.995625, 1, 301, 128, 332
-0.995644, 93, 145, 108, 208
-0.995659, 97, 89, 224, 120
-0.995667, 257, 17, 272, 80
-0.995672, 101, 65, 116, 128
-0.995674, 233, 1, 248, 64
-0.995674, 263, 41, 278, 104
-0.995693, 67, 329, 82, 392
-0.995694, 49, 53, 176, 84
-0.995713, 1, 425, 128, 456
-0.995715, 33, 113, 288, 176
-0.995716, 113, 337, 128, 400
-0.995716, 241, 201, 368, 232
-0.995718, 73, 337, 88, 400
-0.99572, 47, 41, 62, 104
-0.995723, 1, 153, 128, 184
-0.995733, 99, 17, 114, 80
-0.995738, 151, 1, 166, 64
-0.995747, 79, 73, 94, 136
-0.995766, 129, 433, 375, 496
-0.995773, 249, 161, 264, 224
-0.995788, 239, 1, 254, 64
-0.995795, 71, 153, 86, 216
-0.995795, 195, 137, 210, 200
-0.995798, 257, 177, 272, 240
-0.995799, 67, 65, 82, 128
-0.9958, 1, 81, 375, 144
-0.995801, 89, 49, 104, 112
-0.995802, 65, 17, 192, 48
-0.995808, 97, 33, 224, 64
-0.99582, 171, 145, 186, 208
-0.995828, 253, 65, 268, 128
-0.99583, 263, 201, 278, 264
-0.995839, 65, 157, 192, 188
-0.995843, 35, 369, 50, 432
-0.995856, 115, 49, 130, 112
-0.995866, 251, 41, 266, 104
-0.995867, 255, 313, 270, 376
-0.99587, 37, 105, 52, 168
-0.99587, 217, 1, 232, 64
-0.995882, 165, 145, 180, 208
-0.995883, 177, 37, 304, 68
-0.995891, 1, 337, 375, 400
-0.995896, 241, 129, 256, 192
-0.995903, 335, 25, 350, 88
-0.995909, 103, 137, 118, 200
-0.995918, 1, 165, 128, 196
-0.995924, 49, 285, 176, 316
-0.995924, 5, 137, 20, 200
-0.995926, 1, 329, 16, 392
-0.995938, 177, 209, 304, 240
-0.995943, 225, 429, 352, 460
-0.995951, 177, 253, 304, 284
-0.995961, 209, 89, 336, 120
-0.995961, 17, 97, 144, 128
-0.995964, 1, 137, 375, 200
-0.995965, 131, 49, 146, 112
-0.995969, 121, 57, 136, 120
-0.99597, 77, 137, 92, 200
-0.995972, 67, 361, 82, 424
-0.995977, 249, 17, 264, 80
-0.995977, 101, 113, 116, 176
-0.995984, 345, 417, 360, 480
-0.995986, 165, 417, 180, 480
-0.995998, 11, 105, 26, 168
-0.995998, 59, 257, 74, 320
-0.996005, 335, 49, 350, 112
-0.996006, 57, 129, 72, 192
-0.99601, 1, 393, 375, 456
-0.996011, 1, 313, 128, 344
-0.996013, 339, 385, 354, 448
-0.996018, 55, 25, 70, 88
-0.996031, 97, 333, 224, 364
-0.996034, 53, 265, 68, 328
-0.996036, 21, 233, 36, 296
-0.996038, 67, 417, 82, 480
-0.996046, 299, 121, 314, 184
-0.996046, 53, 345, 68, 408
-0.996046, 65, 185, 192, 216
-0.996051, 65, 137, 80, 200
-0.996056, 267, 329, 282, 392
-0.996065, 147, 417, 162, 480
-0.996065, 225, 77, 352, 108
-0.996075, 49, 29, 176, 60
-0.996079, 45, 361, 60, 424
-0.996088, 161, 41, 176, 104
-0.996088, 271, 1, 286, 64
-0.996095, 139, 273, 154, 336
-0.9961, 69, 33, 84, 96
-0.9961, 59, 289, 74, 352
-0.9961, 79, 345, 94, 408
-0.996101, 129, 177, 256, 208
-0.996107, 163, 9, 178, 72
-0.996111, 197, 217, 212, 280
-0.996124, 87, 73, 102, 136
-0.996127, 19, 97, 34, 160
-0.996132, 19, 193, 34, 256
-0.996133, 269, 225, 284, 288
-0.996134, 211, 1, 226, 64
-0.99614, 249, 281, 264, 344
-0.996143, 115, 25, 130, 88
-0.996147, 145, 141, 272, 172
-0.99616, 107, 17, 122, 80
-0.996163, 327, 409, 342, 472
-0.996167, 345, 73, 360, 136
-0.996167, 55, 97, 70, 160
-0.996168, 65, 425, 192, 456
-0.996179, 1, 105, 16, 168
-0.996203, 33, 125, 160, 156
-0.996206, 145, 81, 272, 112
-0.996216, 97, 209, 224, 240
-0.996219, 241, 441, 368, 472
-0.996221, 113, 157, 240, 188
-0.996222, 1, 65, 128, 96
-0.996271, 81, 77, 208, 108
-0.996282, 225, 13, 352, 44
-0.996289, 113, 229, 240, 260
-0.99629, 1, 237, 128, 268
-0.996304, 53, 257, 84, 500
-0.996304, 1, 289, 375, 352
-0.996308, 17, 365, 144, 396
-0.996309, 49, 249, 176, 280
-0.996313, 241, 41, 368, 72
-0.996356, 241, 273, 368, 304
-0.996358, 1, 209, 128, 240
-0.996365, 97, 241, 224, 272
-0.996372, 177, 277, 304, 308
-0.996375, 161, 233, 288, 264
-0.996403, 245, 161, 276, 416
-0.996438, 241, 145, 368, 176
-0.996468, 17, 1, 144, 32
-0.99647, 161, 289, 288, 320
-0.996504, 1, 137, 128, 168
-0.99652, 241, 389, 368, 420
-0.996551, 13, 257, 44, 500
-0.996568, 241, 409, 368, 440
-0.996603, 49, 129, 80, 384
-0.996607, 1, 397, 128, 428
-0.99661, 129, 1, 160, 256
-0.996642, 161, 69, 288, 100
-0.996649, 1, 105, 375, 168
-0.996656, 129, 97, 160, 352
-0.996665, 97, 269, 224, 300
-0.996693, 1, 109, 128, 140
-0.996713, 65, 197, 192, 228
-0.996746, 1, 225, 128, 256
-0.996749, 85, 33, 116, 288
-0.996754, 145, 129, 272, 160
-0.99678, 1, 445, 128, 476
-0.996802, 49, 317, 176, 348
-0.996804, 65, 413, 192, 444
-0.996812, 97, 65, 128, 320
-0.996812, 265, 225, 296, 480
-0.996814, 225, 289, 352, 320
-0.996826, 97, 253, 224, 284
-0.996834, 113, 417, 240, 448
-0.996841, 25, 161, 56, 416
-0.996858, 85, 129, 116, 384
-0.996858, 65, 5, 192, 36
-0.996869, 49, 269, 176, 300
-0.996878, 49, 209, 176, 240
-0.996887, 113, 293, 240, 324
-0.99691, 1, 1, 375, 64
-0.996918, 29, 1, 60, 256
-0.996926, 49, 113, 176, 144
-0.996945, 113, 53, 240, 84
-0.996948, 209, 117, 336, 148
-0.996948, 209, 25, 336, 56
-0.996952, 5, 129, 36, 384
-0.996953, 209, 57, 336, 88
-0.996965, 113, 357, 240, 388
-0.996967, 49, 237, 176, 268
-0.996985, 81, 129, 208, 160
-0.997015, 81, 101, 208, 132
-0.997015, 109, 97, 140, 352
-0.997019, 225, 345, 352, 376
-0.99703, 161, 93, 288, 124
-0.997043, 113, 281, 240, 312
-0.997045, 17, 13, 144, 44
-0.997055, 65, 257, 96, 500
-0.997064, 241, 261, 368, 292
-0.997094, 37, 129, 68, 384
-0.99712, 177, 265, 304, 296
-0.997137, 249, 257, 280, 500
-0.997163, 49, 445, 176, 476
-0.997166, 65, 1, 96, 256
-0.997167, 65, 97, 96, 352
-0.997185, 241, 101, 368, 132
-0.997192, 9, 325, 24, 356
-0.997194, 1, 225, 32, 480
-0.997211, 65, 221, 192, 252
-0.997212, 161, 413, 288, 444
-0.997218, 1, 385, 128, 416
-0.997245, 177, 357, 304, 388
-0.997259, 225, 133, 352, 164
-0.99727, 113, 429, 240, 460
-0.997303, 225, 173, 352, 204
-0.997328, 3, 321, 18, 352
-0.997338, 209, 321, 336, 352
-0.997354, 41, 1, 72, 256
-0.997368, 241, 217, 368, 248
-0.997371, 209, 309, 336, 340
-0.997373, 1, 325, 128, 356
-0.997381, 241, 161, 368, 192
-0.997388, 11, 313, 26, 344
-0.997393, 85, 125, 100, 156
-0.997411, 265, 345, 280, 376
-0.997443, 117, 1, 148, 256
-0.997449, 171, 149, 186, 180
-0.997474, 241, 233, 368, 264
-0.997498, 225, 357, 352, 388
-0.997501, 277, 257, 308, 500
-0.997507, 5, 33, 36, 288
-0.997514, 93, 117, 108, 148
-0.997522, 241, 245, 368, 276
-0.997527, 249, 33, 280, 288
-0.997546, 297, 97, 328, 352
-0.997554, 239, 1, 254, 32
-0.997564, 85, 105, 100, 136
-0.997566, 107, 157, 122, 188
-0.997571, 345, 129, 375, 384
-0.997579, 77, 225, 108, 480
-0.997592, 53, 33, 84, 288
-0.997631, 193, 205, 208, 236
-0.997633, 111, 145, 126, 176
-0.997634, 103, 145, 118, 176
-0.997638, 289, 257, 320, 500
-0.997646, 187, 185, 202, 216
-0.99765, 125, 133, 140, 164
-0.997659, 143, 5, 158, 36
-0.997661, 173, 161, 204, 416
-0.997667, 205, 1, 236, 256
-0.997669, 177, 1, 208, 256
-0.997674, 305, 193, 336, 448
-0.997696, 61, 73, 76, 104
-0.997705, 271, 345, 286, 376
-0.997707, 109, 77, 124, 108
-0.997712, 165, 1, 196, 256
-0.997717, 141, 1, 172, 256
-0.997725, 257, 129, 288, 384
-0.99774, 21, 265, 36, 296
-0.99774, 205, 145, 220, 176
-0.997741, 19, 85, 34, 116
-0.997742, 27, 265, 42, 296
-0.997755, 117, 137, 132, 168
-0.997762, 265, 1, 296, 256
-0.997782, 237, 1, 268, 256
-0.997789, 55, 89, 70, 120
-0.99779, 33, 257, 64, 500
-0.997792, 269, 129, 300, 384
-0.997807, 169, 5, 184, 36
-0.997807, 361, 401, 375, 432
-0.997811, 53, 141, 68, 172
-0.997831, 93, 141, 108, 172
-0.997838, 9, 289, 24, 320
-0.997841, 31, 97, 46, 128
-0.997846, 181, 257, 212, 500
-0.997847, 53, 365, 68, 396
-0.997851, 233, 161, 264, 416
-0.997851, 1, 165, 16, 196
-0.997853, 91, 13, 106, 44
-0.997854, 5, 217, 20, 248
-0.997862, 65, 57, 80, 88
-0.997865, 333, 161, 364, 416
-0.997874, 107, 37, 122, 68
-0.997883, 193, 193, 208, 224
-0.997886, 57, 129, 72, 160
-0.997886, 135, 145, 150, 176
-0.997891, 285, 97, 316, 352
-0.997892, 101, 37, 116, 68
-0.997894, 3, 53, 18, 84
-0.997895, 317, 161, 348, 416
-0.997902, 137, 1, 152, 32
-0.997906, 85, 137, 100, 168
-0.997908, 253, 57, 268, 88
-0.997925, 45, 365, 60, 396
-0.997931, 113, 49, 128, 80
-0.997937, 161, 97, 192, 352
-0.997938, 193, 225, 208, 256
-0.99794, 13, 125, 28, 156
-0.997942, 7, 197, 22, 228
-0.997951, 117, 225, 148, 480
-0.997955, 15, 185, 30, 216
-0.997959, 159, 1, 174, 32
-0.99796, 87, 1, 102, 32
-0.997961, 253, 69, 268, 100
-0.997961, 307, 57, 322, 88
-0.997966, 143, 49, 158, 80
-0.997967, 177, 25, 192, 56
-0.997972, 15, 265, 30, 296
-0.997976, 97, 161, 128, 416
-0.997977, 25, 97, 40, 128
-0.997979, 267, 333, 282, 364
-0.99798, 127, 5, 142, 36
-0.997982, 151, 21, 166, 52
-0.997983, 17, 209, 32, 240
-0.997987, 9, 173, 24, 204
-0.997987, 55, 269, 70, 300
-0.997988, 149, 9, 164, 40
-0.997994, 25, 141, 40, 172
-0.997995, 253, 305, 268, 336
-0.997996, 1, 121, 16, 152
-0.997996, 225, 33, 256, 288
-0.998, 143, 17, 158, 48
-0.998001, 3, 289, 18, 320
-0.998006, 317, 257, 348, 500
-0.998007, 177, 165, 192, 196
-0.99801, 149, 129, 180, 384
-0.998021, 131, 121, 146, 152
-0.998023, 103, 73, 118, 104
-0.998023, 271, 229, 286, 260
-0.998026, 15, 325, 30, 356
-0.998027, 197, 257, 228, 500
-0.998033, 15, 289, 30, 320
-0.998042, 265, 1, 280, 32
-0.998046, 265, 213, 280, 244
-0.998049, 117, 37, 132, 68
-0.998051, 91, 105, 106, 136
-0.998051, 11, 37, 26, 68
-0.998055, 107, 89, 122, 120
-0.998056, 259, 1, 274, 32
-0.998057, 207, 157, 222, 188
-0.998058, 45, 137, 60, 168
-0.998064, 15, 249, 30, 280
-0.998064, 101, 157, 116, 188
-0.99807, 257, 197, 272, 228
-0.998079, 137, 13, 152, 44
-0.998079, 175, 265, 190, 296
-0.998085, 315, 421, 330, 452
-0.998085, 131, 37, 146, 68
-0.998086, 125, 149, 140, 180
-0.998087, 333, 49, 348, 80
-0.998087, 341, 1, 372, 256
-0.998088, 247, 321, 262, 352
-0.998099, 39, 113, 54, 144
-0.998105, 77, 89, 92, 120
-0.998105, 77, 145, 92, 176
-0.998108, 77, 349, 92, 380
-0.998114, 13, 65, 28, 96
-0.998115, 33, 113, 48, 144
-0.998116, 263, 57, 278, 88
-0.998116, 351, 389, 366, 420
-0.998118, 159, 17, 174, 48
-0.998118, 29, 277, 44, 308
-0.99812, 39, 365, 54, 396
-0.998128, 71, 61, 86, 92
-0.998128, 61, 101, 76, 132
-0.998129, 59, 145, 74, 176
-0.998131, 183, 201, 198, 232
-0.998132, 23, 201, 38, 232
-0.998132, 187, 213, 202, 244
-0.998133, 361, 9, 375, 40
-0.998136, 3, 301, 18, 332
-0.998136, 65, 121, 80, 152
-0.998137, 123, 49, 138, 80
-0.99814, 25, 113, 40, 144
-0.99814, 81, 73, 96, 104
-0.998142, 245, 333, 260, 364
-0.998143, 91, 129, 106, 160
-0.998145, 101, 25, 116, 56
-0.998149, 1, 237, 16, 268
-0.99815, 217, 9, 232, 40
-0.998152, 87, 81, 102, 112
-0.998152, 145, 157, 160, 188
-0.998154, 9, 53, 24, 84
-0.998155, 45, 197, 60, 228
-0.998158, 107, 53, 122, 84
-0.99816, 69, 153, 84, 184
-0.998222, 185, 97, 216, 352
-0.99823, 193, 1, 224, 256
-0.998244, 329, 1, 360, 256
-0.998308, 309, 1, 340, 256
-0.998341, 333, 257, 364, 500
-0.998364, 289, 1, 320, 256
-0.998369, 17, 1, 48, 256
-0.998409, 313, 441, 344, 456
-0.99841, 37, 355, 68, 370
-0.99841, 125, 131, 156, 146
-0.99841, 293, 243, 324, 258
-0.99841, 113, 99, 144, 114
-0.998411, 217, 161, 248, 176
-0.998412, 93, 115, 124, 130
-0.998413, 117, 71, 148, 86
-0.998414, 5, 35, 36, 50
-0.998414, 17, 305, 48, 320
-0.998415, 121, 89, 152, 104
-0.998415, 17, 151, 48, 166
-0.998415, 65, 287, 96, 302
-0.998416, 345, 23, 375, 38
-0.998416, 5, 281, 36, 296
-0.998418, 245, 197, 276, 212
-0.998419, 61, 83, 92, 98
-0.998419, 109, 143, 140, 158
-0.998419, 45, 93, 76, 108
-0.998419, 37, 201, 68, 216
-0.998419, 181, 211, 212, 226
-0.99842, 325, 55, 356, 70
-0.998422, 89, 83, 120, 98
-0.998423, 121, 59, 152, 74
-0.998423, 85, 67, 116, 82
-0.998423, 181, 157, 212, 172
-0.998423, 281, 247, 312, 262
-0.998423, 345, 85, 375, 100
-0.998423, 97, 357, 128, 372
-0.998424, 25, 273, 56, 288
-0.998424, 49, 135, 80, 150
-0.998424, 93, 19, 124, 34
-0.998424, 25, 89, 56, 104
-0.998424, 237, 167, 268, 182
-0.998424, 181, 203, 212, 218
-0.998424, 25, 101, 56, 116
-0.998425, 21, 145, 52, 160
-0.998425, 73, 95, 104, 110
-0.998425, 29, 151, 60, 166
-0.998425, 9, 137, 40, 152
-0.998425, 45, 63, 76, 78
-0.998426, 113, 45, 144, 60
-0.998426, 229, 335, 260, 350
-0.998427, 69, 295, 100, 310
-0.998428, 101, 29, 132, 44
-0.998428, 85, 135, 116, 150
-0.998428, 341, 393, 372, 408
-0.998429, 5, 65, 36, 80
-0.998429, 13, 185, 44, 200
-0.998429, 173, 149, 204, 164
-0.99843, 97, 159, 128, 174
-0.99843, 317, 61, 348, 76
-0.998431, 149, 1, 180, 16
-0.998432, 101, 69, 132, 84
-0.998432, 77, 109, 108, 124
-0.998433, 301, 71, 332, 86
-0.998433, 173, 269, 204, 284
-0.998434, 9, 113, 40, 128
-0.998434, 49, 57, 80, 72
-0.998435, 169, 1, 200, 16
-0.998435, 201, 157, 232, 172
-0.998435, 29, 137, 60, 152
-0.998435, 269, 247, 300, 262
-0.998436, 85, 159, 116, 174
-0.998436, 9, 89, 40, 104
-0.998436, 65, 69, 96, 84
-0.998436, 117, 137, 148, 152
-0.998438, 69, 127, 100, 142
-0.998439, 57, 295, 88, 310
-0.998439, 177, 45, 208, 60
-0.99844, 5, 175, 36, 190
-0.99844, 97, 143, 128, 158
-0.998441, 25, 199, 56, 214
-0.998442, 305, 435, 336, 450
-0.998443, 253, 5, 284, 20
-0.998444, 89, 127, 120, 142
-0.998444, 65, 137, 96, 152
-0.998445, 93, 101, 124, 116
-0.998445, 117, 23, 148, 38
-0.998446, 181, 195, 212, 210
-0.998446, 25, 185, 56, 200
-0.998447, 125, 49, 156, 64
-0.998447, 125, 357, 156, 372
-0.998447, 9, 191, 40, 206
-0.998448, 65, 61, 96, 76
-0.998449, 305, 57, 336, 72
-0.998449, 77, 153, 108, 168
-0.99845, 101, 55, 132, 70
-0.99845, 333, 93, 364, 108
-0.998451, 113, 53, 144, 68
-0.998451, 1, 201, 32, 216
-0.998451, 345, 225, 375, 480
-0.998454, 53, 151, 84, 166
-0.998455, 41, 275, 72, 290
-0.998457, 9, 249, 40, 264
-0.998457, 1, 335, 32, 350
-0.998457, 253, 337, 284, 352
-0.998458, 165, 185, 196, 200
-0.998459, 65, 101, 96, 116
-0.99846, 9, 99, 40, 114
-0.998461, 241, 333, 272, 348
-0.998461, 165, 195, 196, 210
-0.998461, 1, 209, 32, 224
-0.998462, 9, 267, 40, 282
-0.998464, 81, 355, 112, 370
-0.998464, 5, 231, 36, 246
-0.998464, 1, 305, 32, 320
-0.998465, 33, 145, 64, 160
-0.998466, 85, 121, 116, 136
-0.998466, 105, 75, 136, 90
-0.998467, 29, 95, 60, 110
-0.998467, 245, 343, 276, 358
-0.998469, 73, 117, 104, 132
-0.99847, 89, 51, 120, 66
-0.99847, 9, 217, 40, 232
-0.99847, 57, 337, 88, 352
-0.998471, 109, 93, 140, 108
-0.998472, 5, 81, 36, 96
-0.998474, 105, 61, 136, 76
-0.998477, 5, 41, 36, 56
-0.998477, 65, 145, 96, 160
-0.99848, 45, 141, 76, 156
-0.998481, 105, 37, 136, 52
-0.998488, 245, 203, 276, 218
-0.99849, 109, 153, 140, 168
-0.998491, 89, 153, 120, 168
-0.998498, 1, 243, 32, 258
-0.998498, 81, 159, 144, 174
-0.9985, 105, 153, 168, 168
-0.998502, 101, 47, 132, 62
-0.998502, 97, 91, 128, 106
-0.998503, 9, 191, 72, 206
-0.998509, 73, 357, 136, 372
-0.998514, 185, 189, 216, 204
-0.998514, 49, 351, 112, 366
-0.998524, 17, 137, 80, 152
-0.998524, 233, 337, 296, 352
-0.998527, 17, 277, 80, 292
-0.99853, 97, 47, 160, 62
-0.99853, 17, 75, 80, 90
-0.998546, 17, 269, 80, 284
-0.998548, 105, 37, 168, 52
-0.998549, 1, 247, 64, 262
-0.99855, 233, 3, 296, 18
-0.99855, 73, 87, 136, 102
-0.998551, 9, 197, 72, 212
-0.998553, 217, 309, 280, 324
-0.998553, 81, 145, 144, 160
-0.998554, 1, 329, 32, 344
-0.998554, 17, 203, 80, 218
-0.998555, 25, 143, 88, 158
-0.998555, 209, 7, 272, 22
-0.998557, 49, 357, 112, 372
-0.998558, 33, 59, 96, 74
-0.998559, 41, 133, 104, 148
-0.998559, 97, 31, 160, 46
-0.998559, 153, 159, 216, 174
-0.99856, 81, 153, 144, 168
-0.99856, 113, 13, 176, 28
-0.99856, 41, 125, 104, 140
-0.99856, 57, 151, 120, 166
-0.998561, 73, 67, 136, 82
-0.998562, 73, 93, 136, 108
-0.998562, 105, 53, 168, 68
-0.998563, 1, 231, 64, 246
-0.998567, 241, 347, 304, 362
-0.998567, 97, 355, 160, 370
-0.998568, 49, 97, 112, 112
-0.998569, 113, 83, 176, 98
-0.998571, 57, 53, 120, 68
-0.998571, 73, 135, 136, 150
-0.998572, 97, 349, 160, 364
-0.998572, 17, 131, 80, 146
-0.998572, 73, 127, 136, 142
-0.998573, 313, 421, 375, 436
-0.998573, 105, 159, 168, 174
-0.998573, 57, 47, 120, 62
-0.998574, 17, 261, 80, 276
-0.998574, 49, 117, 112, 132
-0.998575, 1, 223, 64, 238
-0.998576, 1, 177, 64, 192
-0.998576, 1, 69, 64, 84
-0.998577, 25, 109, 88, 124
-0.998577, 97, 23, 160, 38
-0.998577, 177, 93, 240, 108
-0.998577, 49, 285, 112, 300
-0.998578, 25, 119, 88, 134
-0.998579, 49, 143, 112, 158
-0.99858, 1, 283, 64, 298
-0.99858, 105, 143, 168, 158
-0.99858, 129, 163, 192, 178
-0.998582, 73, 351, 136, 366
-0.998582, 113, 93, 176, 108
-0.998583, 153, 185, 216, 200
-0.998584, 137, 29, 200, 44
-0.998584, 177, 193, 240, 208
-0.998585, 129, 37, 192, 52
-0.998585, 57, 157, 120, 172
-0.998585, 41, 77, 104, 92
-0.998587, 193, 161, 256, 176
-0.998587, 225, 329, 288, 344
-0.998588, 81, 119, 144, 134
-0.998588, 153, 195, 216, 210
-0.998588, 65, 35, 128, 50
-0.998588, 33, 1, 96, 16
-0.998589, 97, 361, 160, 376
-0.998589, 129, 43, 192, 58
-0.99859, 1, 121, 64, 136
-0.99859, 137, 85, 200, 100
-0.998591, 153, 149, 216, 164
-0.998591, 257, 77, 320, 92
-0.998591, 97, 281, 160, 296
-0.998592, 161, 79, 224, 94
-0.998592, 209, 1, 272, 16
-0.998592, 81, 165, 144, 180
-0.998592, 281, 435, 344, 450
-0.998592, 17, 49, 80, 64
-0.998592, 97, 63, 160, 78
-0.998593, 49, 365, 112, 380
-0.998594, 185, 155, 248, 170
-0.998594, 17, 151, 80, 166
-0.998594, 9, 185, 72, 200
-0.998595, 161, 33, 224, 48
-0.998595, 225, 203, 288, 218
-0.998595, 81, 55, 144, 70
-0.998595, 233, 19, 296, 34
-0.998595, 137, 1, 200, 16
-0.998595, 57, 167, 120, 182
-0.998596, 289, 443, 352, 458
-0.998597, 233, 69, 296, 84
-0.998597, 89, 13, 152, 28
-0.998598, 1, 41, 64, 56
-0.998598, 49, 277, 112, 292
-0.998599, 73, 77, 136, 92
-0.998599, 81, 99, 144, 114
-0.9986, 105, 315, 168, 330
-0.9986, 193, 203, 256, 218
-0.998601, 17, 81, 80, 96
-0.998601, 305, 51, 368, 66
-0.998601, 185, 317, 248, 332
-0.998601, 265, 191, 328, 206
-0.998602, 17, 239, 80, 254
-0.998602, 33, 69, 96, 84
-0.998602, 49, 111, 112, 126
-0.998602, 49, 291, 112, 306
-0.998603, 9, 101, 72, 116
-0.998603, 241, 183, 304, 198
-0.998604, 137, 21, 200, 36
-0.998605, 313, 453, 375, 468
-0.998605, 265, 1, 328, 16
-0.998606, 1, 213, 64, 228
-0.998607, 217, 91, 280, 106
-0.998607, 145, 297, 208, 312
-0.998608, 9, 55, 72, 70
-0.998608, 225, 191, 288, 206
-0.998608, 289, 73, 352, 88
-0.998609, 265, 197, 328, 212
-0.998609, 1, 113, 64, 128
-0.998609, 9, 177, 24, 304
-0.998609, 73, 29, 136, 44
-0.99861, 305, 61, 368, 76
-0.99861, 185, 333, 248, 348
-0.998638, 3, 209, 18, 336
-0.998639, 3, 257, 18, 384
-0.998644, 361, 369, 375, 496
-0.998658, 205, 97, 236, 352
-0.998677, 11, 257, 26, 384
-0.998682, 97, 257, 128, 500
-0.998722, 277, 1, 308, 256
-0.998735, 237, 257, 268, 500
-0.998753, 15, 177, 30, 304
-0.998806, 23, 145, 38, 272
-0.998822, 1, 145, 16, 272
-0.998826, 131, 1, 146, 128
-0.998854, 247, 1, 262, 128
-0.998855, 31, 145, 46, 272
-0.998868, 11, 305, 26, 432
-0.998872, 109, 65, 124, 192
-0.998877, 149, 1, 164, 128
-0.998882, 67, 289, 82, 416
-0.99889, 197, 353, 212, 480
-0.998891, 345, 369, 360, 496
-0.998897, 227, 1, 242, 128
-0.998911, 355, 369, 370, 496
-0.998912, 219, 1, 234, 128
-0.99892, 17, 225, 32, 352
-0.998928, 21, 97, 36, 224
-0.99893, 91, 113, 106, 240
-0.998933, 153, 1, 184, 256
-0.998938, 359, 1, 374, 128
-0.998947, 265, 273, 280, 400
-0.998958, 177, 129, 192, 256
-0.998958, 169, 257, 200, 500
-0.998963, 65, 49, 80, 176
-0.998974, 239, 129, 254, 256
-0.998983, 55, 49, 70, 176
-0.998985, 119, 17, 134, 144
-0.998987, 129, 257, 160, 500
-0.998995, 23, 193, 38, 320
-0.998996, 61, 289, 76, 416
-0.999006, 85, 113, 100, 240
-0.999007, 29, 81, 44, 208
-0.999009, 35, 97, 50, 224
-0.999021, 103, 65, 118, 192
-0.999026, 75, 289, 90, 416
-0.999027, 11, 97, 26, 224
-0.999031, 115, 65, 130, 192
-0.999035, 313, 1, 328, 128
-0.999037, 51, 289, 66, 416
-0.999043, 91, 1, 106, 128
-0.999047, 109, 1, 124, 128
-0.999066, 167, 1, 182, 128
-0.999067, 61, 337, 76, 464
-0.99907, 19, 289, 34, 416
-0.999072, 61, 97, 76, 224
-0.999076, 45, 177, 60, 304
-0.999076, 83, 65, 98, 192
-0.999078, 1, 1, 16, 128
-0.99908, 123, 65, 138, 192
-0.999082, 73, 97, 88, 224
-0.999082, 261, 193, 276, 320
-0.999084, 3, 321, 18, 448
-0.999093, 95, 65, 110, 192
-0.999093, 139, 1, 154, 128
-0.999096, 133, 65, 148, 192
-0.999096, 349, 1, 364, 128
-0.999098, 129, 129, 144, 256
-0.999099, 205, 353, 220, 480
-0.999102, 339, 369, 354, 496
-0.999109, 191, 1, 206, 128
-0.999113, 271, 337, 286, 464
-0.999115, 103, 17, 118, 144
-0.999117, 105, 113, 120, 240
-0.999125, 183, 177, 198, 304
-0.999128, 307, 49, 322, 176
-0.999134, 175, 1, 190, 128
-0.999135, 169, 81, 184, 208
-0.999136, 237, 49, 252, 176
-0.999138, 5, 65, 20, 192
-0.999139, 89, 49, 104, 176
-0.999139, 177, 177, 192, 304
-0.999142, 157, 1, 172, 128
-0.999144, 321, 49, 336, 176
-0.999149, 71, 337, 86, 464
-0.999149, 321, 1, 336, 128
-0.999156, 91, 209, 106, 336
-0.999156, 221, 161, 252, 416
-0.999158, 271, 1, 286, 128
-0.999161, 67, 97, 82, 224
-0.999163, 245, 129, 260, 256
-0.999165, 297, 193, 312, 320
-0.999166, 225, 257, 256, 500
-0.999167, 189, 129, 204, 256
-0.999168, 139, 49, 154, 176
-0.999173, 297, 113, 312, 240
-0.999174, 145, 225, 176, 480
-0.999174, 25, 369, 40, 496
-0.999175, 17, 49, 32, 176
-0.99918, 191, 337, 206, 464
-0.999181, 181, 81, 196, 208
-0.999186, 111, 129, 126, 256
-0.999186, 261, 1, 276, 128
-0.999187, 309, 193, 324, 320
-0.999187, 125, 1, 140, 128
-0.999189, 171, 129, 186, 256
-0.999189, 81, 273, 96, 400
-0.999189, 271, 257, 286, 384
-0.999192, 65, 1, 80, 128
-0.999194, 333, 1, 348, 128
-0.999194, 261, 145, 276, 272
-0.999199, 65, 241, 80, 368
-0.9992, 145, 113, 160, 240
-0.999201, 29, 193, 44, 320
-0.999206, 13, 369, 28, 496
-0.999207, 211, 353, 226, 480
-0.999208, 281, 1, 296, 128
-0.999209, 119, 113, 134, 240
-0.999213, 317, 129, 332, 256
-0.999216, 55, 97, 70, 224
-0.999216, 283, 225, 298, 352
-0.999216, 77, 33, 92, 160
-0.999219, 303, 193, 318, 320
-0.999219, 123, 257, 138, 384
-0.99922, 55, 161, 70, 288
-0.999221, 45, 33, 60, 160
-0.999222, 11, 49, 26, 176
-0.999222, 99, 113, 114, 240
-0.999225, 341, 49, 356, 176
-0.999226, 249, 321, 264, 448
-0.999228, 253, 1, 268, 128
-0.999228, 223, 353, 238, 480
-0.999232, 253, 129, 268, 256
-0.999234, 49, 129, 64, 256
-0.999238, 139, 257, 154, 384
-0.999239, 233, 129, 248, 256
-0.999244, 233, 1, 248, 128
-0.999247, 327, 49, 342, 176
-0.999249, 19, 369, 34, 496
-0.999249, 349, 49, 364, 176
-0.99925, 37, 17, 52, 144
-0.999251, 357, 193, 372, 320
-0.999279, 209, 257, 240, 500
-0.999601, 157, 257, 188, 500
-0.999602, 57, 91, 72, 106
-0.999602, 23, 95, 38, 110
-0.999603, 3, 177, 18, 192
-0.999603, 1, 43, 16, 58
-0.999603, 133, 143, 148, 158
-0.999604, 1, 335, 16, 350
-0.999604, 99, 27, 114, 42
-0.999604, 11, 35, 26, 50
-0.999604, 117, 73, 132, 88
-0.999604, 79, 293, 94, 308
-0.999604, 339, 57, 354, 72
-0.999604, 85, 1, 100, 16
-0.999605, 247, 25, 262, 40
-0.999605, 145, 155, 160, 170
-0.999605, 103, 355, 118, 370
-0.999606, 251, 151, 266, 166
-0.999606, 99, 47, 114, 62
-0.999606, 145, 21, 160, 36
-0.999607, 361, 21, 375, 36
-0.999607, 15, 395, 30, 410
-0.999608, 131, 45, 146, 60
-0.999609, 147, 163, 162, 178
-0.999609, 119, 37, 134, 52
-0.999609, 127, 39, 142, 54
-0.999609, 7, 201, 22, 216
-0.99961, 215, 97, 230, 112
-0.99961, 267, 331, 282, 346
-0.99961, 125, 59, 140, 74
-0.99961, 155, 1, 170, 16
-0.99961, 143, 1, 158, 16
-0.999611, 101, 157, 116, 172
-0.999612, 171, 153, 186, 168
-0.999612, 115, 87, 130, 102
-0.999612, 83, 109, 98, 124
-0.999613, 21, 89, 36, 104
-0.999613, 273, 347, 288, 362
-0.999614, 145, 9, 160, 24
-0.999614, 261, 211, 276, 226
-0.999614, 267, 7, 282, 22
-0.999614, 29, 99, 44, 114
-0.999615, 37, 373, 52, 388
-0.999615, 83, 101, 98, 116
-0.999615, 25, 147, 40, 162
-0.999616, 31, 273, 46, 288
-0.999617, 181, 89, 196, 104
-0.999617, 61, 337, 76, 352
-0.999617, 311, 71, 326, 86
-0.999617, 197, 197, 212, 212
-0.999618, 13, 79, 28, 94
-0.999618, 297, 119, 312, 134
-0.999619, 217, 27, 232, 42
-0.999619, 267, 343, 282, 358
-0.999619, 193, 225, 208, 240
-0.999619, 61, 147, 76, 162
-0.99962, 119, 95, 134, 110
-0.99962, 351, 89, 366, 104
-0.99962, 151, 155, 166, 170
-0.99962, 61, 55, 76, 70
-0.999621, 93, 127, 108, 142
-0.999621, 271, 245, 286, 260
-0.999622, 71, 65, 86, 80
-0.999624, 199, 223, 214, 238
-0.999624, 31, 145, 46, 160
-0.999624, 81, 123, 96, 138
-0.999625, 67, 141, 82, 156
-0.999626, 89, 109, 104, 124
-0.999626, 105, 145, 120, 160
-0.999626, 61, 81, 76, 96
-0.999626, 137, 357, 152, 372
-0.999627, 93, 115, 108, 130
-0.999627, 99, 117, 114, 132
-0.999627, 111, 39, 126, 54
-0.999628, 335, 95, 350, 110
-0.999628, 127, 147, 142, 162
-0.999629, 93, 145, 108, 160
-0.999629, 43, 355, 58, 370
-0.999629, 177, 195, 192, 210
-0.99963, 127, 133, 142, 148
-0.99963, 119, 49, 134, 64
-0.99963, 109, 89, 124, 104
-0.999631, 65, 99, 80, 114
-0.999632, 117, 141, 132, 156
-0.999632, 121, 133, 136, 148
-0.999635, 273, 353, 288, 368
-0.999635, 115, 55, 130, 70
-0.999635, 7, 61, 22, 76
-0.999635, 105, 35, 120, 50
-0.999635, 333, 51, 348, 66
-0.999635, 57, 97, 72, 112
-0.999636, 35, 117, 50, 132
-0.999636, 21, 267, 36, 282
-0.999637, 105, 47, 120, 62
-0.999637, 1, 115, 16, 130
-0.999638, 187, 219, 202, 234
-0.999638, 193, 203, 208, 218
-0.999638, 55, 273, 70, 288
-0.99964, 173, 1, 188, 16
-0.99964, 17, 195, 32, 210
-0.999641, 51, 141, 66, 156
-0.999641, 241, 333, 256, 348
-0.999641, 361, 411, 375, 426
-0.999642, 231, 333, 246, 348
-0.999644, 69, 155, 84, 170
-0.999644, 141, 27, 156, 42
-0.999645, 87, 129, 102, 144
-0.999645, 139, 19, 154, 34
-0.999646, 23, 141, 38, 156
-0.999647, 109, 153, 124, 168
-0.999648, 11, 189, 26, 204
-0.999648, 11, 69, 26, 84
-0.999649, 65, 61, 80, 76
-0.999652, 69, 335, 84, 350
-0.999652, 267, 349, 282, 364
-0.999654, 345, 93, 360, 108
-0.999655, 87, 139, 102, 154
-0.999656, 193, 209, 208, 224
-0.99966, 87, 149, 102, 164
-0.999663, 93, 121, 108, 136
-0.999664, 123, 139, 138, 154
-0.999668, 5, 323, 20, 338
-0.99967, 193, 215, 208, 230
-0.999678, 187, 189, 202, 204
-0.999684, 1, 171, 16, 186
-0.999685, 107, 159, 122, 174
-0.999686, 207, 155, 222, 170
-0.999687, 87, 119, 102, 134
-0.999694, 115, 151, 130, 166
-0.999696, 267, 337, 282, 352
-0.999698, 265, 355, 280, 370
-0.999762, 11, 327, 26, 342
