1915
-0.575806, 1, 257, 334, 500
-0.622153, 1, 161, 334, 416
-0.704557, 1, 1, 334, 256
-0.720124, 1, 1, 334, 500
-0.748984, 33, 1, 288, 500
-0.861199, 1, 225, 256, 480
-0.902537, 113, 257, 240, 500
-0.915516, 65, 129, 320, 384
-0.917163, 1, 1, 334, 128
-0.928665, 209, 1, 334, 500
-0.929361, 113, 1, 240, 500
-0.930541, 1, 241, 334, 368
-0.931766, 1, 257, 128, 500
-0.932046, 49, 1, 176, 500
-0.932119, 97, 161, 224, 416
-0.935643, 161, 225, 288, 480
-0.938325, 49, 225, 176, 480
-0.939671, 1, 1, 128, 500
-0.941741, 1, 289, 334, 416
-0.94338, 17, 129, 144, 384
-0.945726, 161, 1, 288, 500
-0.946388, 1, 353, 334, 480
-0.946927, 209, 193, 334, 448
-0.953718, 33, 225, 288, 352
-0.956512, 1, 193, 334, 320
-0.958268, 145, 129, 272, 384
-0.95929, 33, 1, 288, 128
-0.959458, 129, 337, 256, 464
-0.961874, 97, 289, 224, 416
-0.963261, 1, 129, 334, 256
-0.963645, 33, 273, 288, 400
-0.963768, 209, 1, 334, 256
-0.965815, 81, 257, 144, 384
-0.966908, 49, 225, 176, 352
-0.967387, 177, 1, 304, 128
-0.967571, 161, 33, 288, 288
-0.96849, 33, 353, 288, 480
-0.968559, 1, 1, 128, 256
-0.96859, 209, 97, 334, 352
-0.96879, 97, 241, 224, 368
-0.968899, 193, 1, 256, 128
-0.969763, 177, 369, 304, 496
-0.97007, 217, 1, 280, 128
-0.970574, 57, 273, 120, 400
-0.971173, 81, 1, 208, 128
-0.971505, 49, 1, 176, 256
-0.971978, 17, 289, 144, 416
-0.972184, 129, 1, 256, 128
-0.972288, 121, 289, 184, 416
-0.972515, 145, 289, 272, 416
-0.972946, 121, 225, 184, 352
-0.973197, 1, 241, 128, 368
-0.973564, 193, 337, 256, 464
-0.973623, 169, 257, 232, 320
-0.973742, 97, 65, 224, 320
-0.974138, 169, 289, 232, 416
-0.974214, 73, 281, 136, 344
-0.974726, 89, 305, 152, 432
-0.975279, 49, 225, 112, 352
-0.975333, 1, 249, 64, 312
-0.976526, 129, 241, 192, 304
-0.977178, 49, 273, 112, 336
-0.977187, 161, 1, 224, 128
-0.977336, 193, 353, 256, 416
-0.977381, 97, 209, 160, 336
-0.977651, 145, 241, 208, 368
-0.977899, 169, 241, 232, 368
-0.978323, 137, 1, 200, 128
-0.978325, 97, 273, 160, 336
-0.978381, 161, 281, 224, 344
-0.978504, 89, 225, 152, 288
-0.978678, 73, 209, 136, 336
-0.978928, 1, 81, 334, 208
-0.978994, 49, 337, 176, 464
-0.97928, 65, 337, 128, 464
-0.979345, 105, 369, 168, 496
-0.979685, 113, 1, 176, 128
-0.979977, 89, 1, 152, 128
-0.980499, 137, 273, 200, 336
-0.980798, 145, 289, 208, 416
-0.981147, 145, 241, 272, 368
-0.981199, 193, 321, 320, 448
-0.981354, 33, 1, 160, 128
-0.981494, 153, 377, 216, 440
-0.981622, 33, 273, 96, 400
-0.981673, 105, 249, 168, 312
-0.981874, 65, 249, 128, 312
-0.981887, 57, 305, 120, 368
-0.982074, 241, 1, 304, 128
-0.982313, 65, 273, 192, 336
-0.982466, 169, 353, 232, 480
-0.982522, 129, 337, 192, 464
-0.982702, 89, 377, 152, 440
-0.982804, 193, 257, 256, 384
-0.982845, 177, 329, 240, 392
-0.983158, 105, 401, 168, 464
-0.983191, 201, 377, 264, 440
-0.983587, 33, 249, 96, 312
-0.983943, 113, 193, 240, 320
-0.984196, 65, 177, 320, 304
-0.984283, 97, 337, 160, 400
-0.984454, 113, 241, 240, 304
-0.984456, 49, 233, 176, 296
-0.984485, 193, 257, 320, 384
-0.984846, 17, 281, 144, 344
-0.984904, 121, 1, 184, 64
-0.984957, 257, 1, 320, 64
-0.98517, 97, 281, 128, 344
-0.985347, 233, 1, 296, 64
-0.985478, 65, 129, 320, 256
-0.985529, 185, 281, 248, 344
-0.985612, 225, 377, 288, 440
-0.985822, 57, 129, 120, 192
-0.985965, 9, 241, 72, 368
-0.985986, 177, 1, 240, 64
-0.98599, 81, 313, 144, 376
-0.986008, 177, 305, 240, 368
-0.986036, 73, 353, 136, 416
-0.986134, 221, 1, 252, 128
-0.986205, 129, 345, 256, 408
-0.986224, 213, 353, 244, 480
-0.986256, 93, 273, 124, 400
-0.986475, 113, 273, 240, 336
-0.986521, 129, 225, 192, 480
-0.986707, 17, 273, 80, 336
-0.986753, 153, 257, 216, 500
-0.986758, 209, 209, 334, 336
-0.986775, 193, 257, 224, 320
-0.986868, 81, 1, 144, 64
-0.98696, 193, 409, 256, 472
-0.987008, 145, 369, 272, 432
-0.98731, 49, 145, 176, 272
-0.987322, 113, 377, 176, 440
-0.987337, 85, 297, 116, 360
-0.987519, 153, 233, 216, 296
-0.987571, 81, 297, 208, 360
-0.987684, 89, 425, 152, 488
-0.987807, 153, 1, 216, 64
-0.987832, 193, 257, 256, 320
-0.98787, 1, 241, 128, 304
-0.98799, 17, 1, 80, 128
-0.988352, 129, 233, 160, 296
-0.988472, 201, 329, 264, 392
-0.988479, 169, 281, 200, 344
-0.988489, 161, 1, 288, 64
-0.988548, 65, 9, 192, 72
-0.988596, 201, 1, 264, 64
-0.988613, 81, 241, 112, 368
-0.988664, 177, 257, 240, 500
-0.988664, 121, 353, 184, 416
-0.988666, 209, 1, 240, 128
-0.988724, 97, 321, 224, 384
-0.988835, 65, 1, 128, 128
-0.988972, 205, 265, 236, 328
-0.989022, 209, 1, 334, 64
-0.989118, 65, 225, 128, 288
-0.989139, 161, 257, 288, 320
-0.989214, 217, 353, 280, 416
-0.989218, 57, 257, 120, 500
-0.989224, 113, 425, 176, 488
-0.989402, 193, 1, 224, 128
-0.989421, 169, 353, 232, 416
-0.989465, 221, 361, 252, 424
-0.989515, 1, 193, 128, 320
-0.989571, 209, 377, 334, 440
-0.989802, 113, 337, 144, 464
-0.989803, 109, 265, 140, 328
-0.989953, 69, 257, 100, 384
-0.98997, 97, 385, 224, 448
-0.989989, 129, 385, 160, 448
-0.990053, 237, 1, 268, 128
-0.990077, 129, 401, 192, 464
-0.99023, 105, 289, 136, 416
-0.990286, 81, 289, 112, 416
-0.990352, 129, 297, 256, 360
-0.990377, 57, 329, 120, 392
-0.990385, 177, 337, 304, 400
-0.990438, 217, 305, 280, 368
-0.990526, 77, 265, 108, 328
-0.990598, 165, 1, 196, 128
-0.990602, 57, 1, 120, 64
-0.990654, 113, 217, 176, 280
-0.990691, 153, 193, 216, 320
-0.990745, 201, 257, 232, 384
-0.990801, 89, 225, 152, 480
-0.990803, 209, 353, 240, 416
-0.99081, 273, 1, 334, 128
-0.990843, 17, 305, 144, 368
-0.990853, 117, 369, 148, 432
-0.990874, 65, 401, 128, 464
-0.990878, 201, 353, 232, 480
-0.990909, 169, 269, 232, 300
-0.990921, 81, 345, 208, 408
-0.990995, 121, 297, 184, 360
-0.991063, 225, 401, 288, 464
-0.991105, 1, 129, 128, 256
-0.991159, 193, 121, 256, 184
-0.991172, 113, 1, 240, 64
-0.991183, 233, 385, 264, 448
-0.991185, 145, 285, 208, 316
-0.991194, 133, 337, 164, 464
-0.991205, 209, 377, 240, 440
-0.991271, 161, 113, 288, 240
-0.991276, 113, 277, 176, 308
-0.991345, 169, 401, 232, 464
-0.991429, 105, 241, 136, 368
-0.991431, 57, 153, 120, 216
-0.991479, 145, 393, 272, 456
-0.991482, 97, 217, 224, 280
-0.991531, 1, 253, 64, 284
-0.991535, 33, 249, 64, 312
-0.99155, 217, 353, 280, 480
-0.991559, 49, 285, 112, 316
-0.991591, 33, 297, 96, 360
-0.991609, 89, 289, 152, 320
-0.991612, 101, 225, 132, 288
-0.991638, 17, 9, 80, 72
-0.991656, 201, 365, 264, 396
-0.991688, 145, 241, 176, 304
-0.991808, 181, 1, 212, 128
-0.991815, 65, 65, 320, 192
-0.991818, 161, 305, 192, 432
-0.991818, 97, 129, 224, 256
-0.991825, 153, 1, 184, 128
-0.991921, 97, 233, 160, 264
-0.99194, 105, 421, 168, 452
-0.991951, 249, 1, 280, 128
-0.991985, 181, 281, 212, 344
-0.992014, 49, 305, 112, 336
-0.992023, 153, 257, 216, 288
-0.992072, 273, 257, 334, 384
-0.992087, 153, 241, 184, 368
-0.992103, 201, 65, 264, 192
-0.992107, 209, 273, 334, 336
-0.992123, 17, 1, 144, 64
-0.992137, 193, 377, 256, 408
-0.992154, 209, 249, 334, 312
-0.992166, 89, 129, 152, 192
-0.992169, 177, 281, 240, 312
-0.992172, 73, 301, 136, 332
-0.99231, 169, 373, 232, 404
-0.992316, 65, 273, 128, 304
-0.992322, 53, 257, 84, 320
-0.992329, 89, 337, 120, 464
-0.992359, 177, 349, 240, 380
-0.992372, 157, 273, 188, 336
-0.992387, 177, 313, 304, 376
-0.992413, 9, 241, 40, 304
-0.992419, 113, 245, 176, 276
-0.992419, 193, 413, 256, 444
-0.992453, 225, 353, 256, 480
-0.992479, 177, 293, 240, 324
-0.99248, 73, 297, 104, 360
-0.99249, 89, 129, 152, 256
-0.992492, 97, 349, 160, 380
-0.992502, 169, 257, 200, 320
-0.99252, 193, 401, 320, 464
-0.992531, 41, 225, 104, 288
-0.992534, 153, 305, 216, 368
-0.992539, 137, 245, 200, 276
-0.992545, 57, 357, 120, 388
-0.992548, 129, 417, 256, 480
-0.992553, 129, 265, 192, 296
-0.992557, 93, 225, 124, 352
-0.992596, 181, 321, 212, 448
-0.992625, 97, 433, 160, 464
-0.992661, 177, 337, 240, 368
-0.992677, 49, 129, 176, 192
-0.992678, 25, 277, 88, 308
-0.992682, 73, 233, 136, 264
-0.992703, 177, 305, 240, 336
-0.992705, 193, 393, 256, 424
-0.992733, 113, 1, 144, 128
-0.992744, 113, 381, 176, 412
-0.992745, 81, 421, 144, 452
-0.992773, 153, 385, 216, 416
-0.992775, 25, 293, 88, 324
-0.992798, 137, 289, 168, 416
-0.992807, 217, 377, 280, 408
-0.992812, 57, 133, 120, 164
-0.992813, 89, 249, 120, 312
-0.992829, 125, 1, 156, 128
-0.992834, 105, 409, 168, 440
-0.992836, 89, 377, 152, 408
-0.99284, 137, 225, 168, 352
-0.992848, 65, 145, 128, 176
-0.992854, 217, 9, 280, 40
-0.992857, 193, 425, 256, 456
-0.992861, 193, 269, 256, 300
-0.992873, 117, 233, 148, 296
-0.992875, 193, 9, 256, 40
-0.992882, 217, 305, 280, 432
-0.992883, 57, 345, 120, 376
-0.992924, 41, 245, 104, 276
-0.992934, 49, 209, 176, 272
-0.992936, 217, 349, 280, 380
-0.992941, 89, 277, 152, 308
-0.992984, 25, 257, 88, 500
-0.993006, 209, 401, 240, 464
-0.993023, 57, 157, 120, 188
-0.993041, 161, 9, 224, 40
-0.993048, 93, 293, 124, 324
-0.993055, 149, 289, 180, 416
-0.993056, 173, 289, 204, 320
-0.993057, 257, 1, 320, 32
-0.99306, 73, 433, 136, 464
-0.993062, 217, 425, 280, 456
-0.993068, 105, 129, 168, 160
-0.993068, 73, 313, 136, 344
-0.993075, 1, 281, 64, 312
-0.993098, 61, 289, 92, 352
-0.993103, 33, 257, 96, 288
-0.993111, 121, 9, 184, 40
-0.993114, 193, 133, 256, 164
-0.993119, 153, 401, 216, 432
-0.993129, 57, 421, 120, 452
-0.993133, 109, 281, 140, 312
-0.993135, 97, 361, 160, 392
-0.993153, 161, 285, 192, 316
-0.993158, 1, 337, 128, 464
-0.993182, 81, 337, 144, 368
-0.993192, 177, 321, 240, 352
-0.993199, 1, 193, 64, 320
-0.993203, 65, 173, 128, 204
-0.993209, 169, 361, 232, 392
-0.993214, 77, 289, 108, 320
-0.993216, 213, 361, 244, 392
-0.993219, 169, 417, 232, 448
-0.993221, 201, 269, 232, 300
-0.993231, 137, 241, 168, 272
-0.993234, 33, 345, 160, 408
-0.993249, 1, 13, 64, 44
-0.99325, 25, 153, 88, 184
-0.993252, 9, 25, 72, 56
-0.993263, 65, 377, 128, 408
-0.993266, 197, 381, 228, 412
-0.993267, 129, 409, 192, 440
-0.99327, 129, 369, 192, 400
-0.993276, 73, 309, 104, 340
-0.993282, 1, 265, 64, 296
-0.993284, 109, 377, 140, 408
-0.993284, 93, 305, 124, 336
-0.993288, 97, 397, 160, 428
-0.993307, 73, 245, 136, 276
-0.993315, 209, 145, 272, 176
-0.993317, 225, 413, 288, 444
-0.993326, 65, 425, 128, 488
-0.993327, 209, 337, 272, 368
-0.993331, 125, 237, 156, 268
-0.993333, 201, 285, 264, 316
-0.993334, 89, 257, 152, 288
-0.993341, 121, 293, 184, 324
-0.993343, 209, 69, 272, 100
-0.993344, 133, 385, 164, 416
-0.993358, 229, 373, 260, 404
-0.99336, 129, 277, 160, 308
-0.993361, 157, 1, 188, 64
-0.993361, 205, 289, 236, 352
-0.993365, 41, 241, 72, 368
-0.993367, 137, 421, 200, 452
-0.993369, 1, 293, 64, 324
-0.993373, 209, 413, 240, 444
-0.993376, 153, 273, 184, 304
-0.993379, 201, 281, 232, 312
-0.993387, 241, 373, 304, 404
-0.993388, 89, 13, 152, 44
-0.99339, 117, 393, 148, 456
-0.993398, 153, 297, 216, 328
-0.993398, 233, 389, 296, 420
-0.9934, 185, 293, 216, 324
-0.993401, 189, 257, 220, 288
-0.993402, 141, 1, 172, 128
-0.993403, 89, 221, 152, 252
-0.993403, 177, 33, 240, 64
-0.993406, 153, 329, 216, 392
-0.993415, 217, 373, 248, 404
-0.993428, 97, 301, 160, 332
-0.993429, 105, 293, 136, 324
-0.99343, 49, 317, 112, 348
-0.993435, 65, 129, 128, 256
-0.993435, 1, 253, 32, 284
-0.993438, 137, 233, 200, 264
-0.993441, 93, 325, 124, 356
-0.993443, 109, 425, 140, 456
-0.993445, 85, 277, 116, 308
-0.993448, 233, 77, 296, 108
-0.99345, 13, 249, 44, 280
-0.993456, 133, 413, 164, 444
-0.993458, 137, 397, 168, 428
-0.993468, 57, 333, 120, 364
-0.993475, 193, 245, 256, 276
-0.993483, 157, 385, 188, 416
-0.993484, 61, 297, 92, 328
-0.993489, 221, 389, 252, 420
-0.993494, 29, 253, 60, 284
-0.993495, 81, 321, 112, 352
-0.993496, 177, 257, 240, 288
-0.993497, 21, 241, 52, 304
-0.9935, 121, 381, 152, 412
-0.993504, 201, 393, 232, 424
-0.993508, 121, 305, 184, 336
-0.993508, 121, 417, 152, 448
-0.99351, 173, 253, 204, 284
-0.99351, 241, 381, 272, 412
-0.993511, 149, 245, 180, 276
-0.993523, 193, 121, 256, 152
-0.993523, 81, 325, 144, 356
-0.993523, 141, 289, 172, 320
-0.993523, 97, 357, 128, 388
-0.993525, 93, 169, 124, 200
-0.993526, 193, 65, 320, 192
-0.993531, 121, 433, 184, 464
-0.993532, 173, 277, 204, 308
-0.993538, 189, 277, 220, 308
-0.993541, 77, 237, 108, 268
-0.993552, 189, 409, 220, 440
-0.993553, 181, 249, 212, 312
-0.993553, 173, 265, 204, 296
-0.993554, 213, 401, 244, 432
-0.993558, 221, 9, 252, 40
-0.993561, 137, 373, 168, 404
-0.993564, 73, 409, 136, 440
-0.993567, 153, 29, 216, 60
-0.993568, 89, 369, 120, 400
-0.993569, 89, 145, 152, 176
-0.99357, 57, 285, 88, 316
-0.99357, 41, 257, 72, 288
-0.993573, 205, 293, 236, 324
-0.993574, 141, 277, 172, 308
-0.993576, 53, 273, 84, 304
-0.993577, 85, 337, 116, 368
-0.993577, 89, 233, 120, 264
-0.993579, 209, 345, 240, 376
-0.993582, 113, 233, 144, 264
-0.993584, 33, 281, 64, 312
-0.993585, 113, 269, 144, 300
-0.993586, 109, 413, 140, 444
-0.993586, 97, 381, 128, 412
-0.993589, 13, 281, 44, 312
-0.993591, 245, 9, 276, 40
-0.993595, 261, 1, 292, 64
-0.993595, 121, 429, 152, 460
-0.993596, 129, 25, 192, 56
-0.993597, 189, 369, 220, 400
-0.993599, 93, 153, 124, 184
-0.993601, 205, 9, 236, 40
-0.993603, 201, 309, 232, 340
-0.993606, 233, 57, 296, 88
-0.993606, 81, 133, 144, 164
-0.993612, 305, 261, 334, 292
-0.993618, 129, 221, 192, 252
-0.993619, 221, 425, 252, 456
-0.993619, 273, 265, 334, 328
-0.993626, 33, 145, 96, 208
-0.993626, 193, 113, 256, 240
-0.993629, 165, 9, 196, 40
-0.993633, 93, 141, 124, 172
-0.993634, 177, 9, 208, 40
-0.993634, 153, 257, 184, 288
-0.993635, 57, 13, 120, 44
-0.993636, 81, 353, 112, 384
-0.993636, 117, 401, 148, 432
-0.993639, 97, 281, 128, 312
-0.993641, 73, 145, 104, 176
-0.993645, 149, 9, 180, 40
-0.993645, 25, 305, 88, 336
-0.99365, 225, 361, 256, 392
-0.99365, 209, 313, 272, 344
-0.993653, 97, 421, 128, 452
-0.993655, 141, 1, 172, 64
-0.993656, 193, 9, 224, 40
-0.993657, 129, 265, 160, 296
-0.993659, 133, 433, 164, 464
-0.99366, 197, 421, 228, 452
-0.993661, 233, 9, 264, 40
-0.993661, 25, 165, 88, 196
-0.993662, 233, 401, 264, 432
-0.993663, 101, 233, 132, 264
-0.993668, 181, 393, 212, 424
-0.993669, 61, 309, 92, 340
-0.993671, 193, 133, 224, 164
-0.993672, 221, 393, 252, 456
-0.993672, 133, 129, 164, 160
-0.993675, 169, 133, 232, 164
-0.993677, 53, 261, 84, 292
-0.99368, 33, 25, 96, 56
-0.993681, 117, 13, 148, 44
-0.993683, 45, 293, 76, 324
-0.993683, 161, 25, 192, 56
-0.993684, 221, 413, 252, 444
-0.993686, 109, 389, 140, 420
-0.993689, 209, 257, 272, 288
-0.993693, 121, 365, 152, 396
-0.993696, 149, 397, 180, 428
-0.993697, 241, 145, 272, 176
-0.993698, 265, 1, 296, 32
-0.9937, 97, 157, 160, 188
-0.993703, 305, 273, 334, 304
-0.993704, 77, 129, 108, 160
-0.993706, 205, 333, 236, 364
-0.993708, 65, 133, 96, 164
-0.993709, 1, 269, 32, 300
-0.993712, 233, 413, 264, 444
-0.993712, 233, 361, 296, 392
-0.993712, 225, 401, 288, 432
-0.993712, 65, 253, 96, 284
-0.993713, 213, 121, 244, 152
-0.993713, 217, 33, 280, 64
-0.993716, 25, 13, 88, 44
-0.993719, 93, 181, 124, 212
-0.993721, 97, 13, 128, 44
-0.993723, 53, 153, 84, 184
-0.993723, 33, 137, 96, 168
-0.993725, 205, 321, 236, 352
-0.993731, 145, 385, 176, 416
-0.993731, 21, 293, 52, 324
-0.993736, 65, 273, 96, 304
-0.993737, 241, 149, 304, 180
-0.993738, 209, 325, 272, 356
-0.993739, 225, 341, 256, 372
-0.993739, 89, 129, 120, 160
-0.993739, 193, 21, 256, 52
-0.993739, 73, 389, 136, 420
-0.99374, 141, 229, 172, 260
-0.99374, 221, 309, 252, 340
-0.993742, 241, 157, 272, 188
-0.993742, 193, 45, 256, 76
-0.993742, 89, 1, 152, 32
-0.993744, 237, 73, 268, 104
-0.993746, 305, 257, 334, 320
-0.993747, 9, 57, 40, 88
-0.993749, 1, 241, 64, 272
-0.993749, 153, 297, 184, 328
-0.993761, 49, 161, 112, 416
-0.993762, 153, 337, 216, 368
-0.993768, 169, 61, 232, 92
-0.993824, 57, 257, 88, 384
-0.993929, 205, 305, 236, 432
-0.994, 1, 137, 128, 200
-0.994013, 49, 369, 176, 432
-0.994015, 193, 33, 256, 96
-0.994055, 101, 337, 132, 400
-0.994084, 105, 1, 168, 500
-0.99409, 41, 273, 72, 336
-0.994134, 141, 385, 172, 448
-0.994154, 129, 193, 256, 256
-0.994216, 101, 1, 132, 128
-0.994255, 1, 209, 128, 272
-0.994266, 137, 209, 200, 272
-0.994279, 145, 65, 272, 192
-0.994281, 125, 289, 156, 416
-0.994378, 137, 361, 168, 424
-0.994385, 81, 329, 112, 392
-0.994415, 1, 265, 256, 328
-0.994442, 117, 1, 148, 64
-0.994447, 133, 409, 164, 472
-0.994459, 177, 25, 304, 88
-0.994494, 201, 233, 264, 296
-0.994545, 9, 289, 72, 416
-0.994551, 209, 1, 272, 500
-0.994589, 165, 257, 196, 384
-0.99462, 209, 329, 240, 392
-0.994748, 193, 305, 224, 432
-0.994768, 209, 225, 334, 288
-0.994794, 177, 377, 240, 440
-0.994797, 273, 209, 334, 336
-0.994804, 97, 129, 224, 192
-0.994806, 1, 25, 128, 88
-0.994844, 137, 265, 168, 328
-0.994853, 1, 241, 256, 304
-0.994878, 249, 1, 280, 64
-0.994882, 285, 1, 316, 64
-0.994909, 145, 217, 272, 280
-0.994937, 81, 417, 208, 480
-0.99494, 125, 273, 156, 336
-0.994954, 97, 1, 128, 64
-0.994974, 57, 1, 120, 500
-0.994981, 161, 1, 224, 500
-0.994983, 241, 345, 304, 408
-0.994989, 145, 337, 176, 464
-0.994995, 181, 273, 212, 400
-0.995, 209, 1, 240, 64
-0.995014, 109, 417, 140, 480
-0.99506, 233, 361, 264, 424
-0.995116, 9, 225, 72, 288
-0.995125, 177, 425, 304, 488
-0.99517, 225, 1, 256, 64
-0.995189, 49, 97, 176, 224
-0.995203, 177, 153, 304, 216
-0.995215, 217, 41, 280, 104
-0.995287, 105, 361, 136, 424
-0.995295, 129, 329, 192, 392
-0.995297, 101, 369, 132, 496
-0.995306, 129, 1, 160, 64
-0.995313, 273, 1, 304, 64
-0.99532, 209, 209, 272, 336
-0.99535, 197, 369, 228, 432
-0.995371, 89, 353, 120, 416
-0.995414, 85, 225, 116, 288
-0.995419, 305, 225, 334, 352
-0.995447, 145, 25, 208, 88
-0.995447, 93, 137, 124, 200
-0.995468, 217, 73, 280, 136
-0.99552, 157, 249, 188, 312
-0.995545, 81, 1, 144, 500
-0.995561, 17, 393, 144, 456
-0.995632, 81, 281, 208, 312
-0.995638, 97, 425, 128, 488
-0.995654, 217, 145, 280, 208
-0.9957, 129, 1, 192, 500
-0.995708, 185, 1, 216, 64
-0.995723, 33, 289, 288, 352
-0.995735, 153, 161, 216, 416
-0.995743, 209, 185, 334, 248
-0.995752, 189, 369, 220, 496
-0.995767, 125, 209, 156, 336
-0.995771, 5, 241, 36, 368
-0.995837, 177, 57, 304, 120
-0.995842, 241, 81, 304, 208
-0.995878, 93, 177, 124, 304
-0.99588, 169, 1, 200, 64
-0.995886, 9, 297, 72, 360
-0.995951, 241, 49, 304, 112
-0.995976, 157, 377, 188, 440
-0.996003, 209, 129, 334, 256
-0.996034, 69, 209, 100, 336
-0.996037, 81, 201, 144, 264
-0.996058, 65, 265, 96, 328
-0.996064, 89, 1, 120, 128
-0.9961, 33, 337, 288, 400
-0.996101, 209, 97, 334, 160
-0.996172, 237, 1, 268, 64
-0.996195, 161, 193, 288, 320
-0.996201, 97, 105, 160, 168
-0.996207, 217, 305, 248, 432
-0.996216, 29, 241, 60, 368
-0.996246, 145, 113, 272, 176
-0.996273, 49, 169, 176, 232
-0.996278, 65, 241, 96, 304
-0.996328, 113, 33, 240, 96
-0.996346, 121, 177, 184, 304
-0.996353, 1, 281, 334, 344
-0.996365, 49, 353, 112, 416
-0.996391, 17, 417, 144, 480
-0.996415, 113, 209, 144, 272
-0.996437, 33, 361, 288, 424
-0.996464, 65, 1, 320, 64
-0.996474, 261, 1, 292, 128
-0.996497, 145, 353, 208, 416
-0.996523, 145, 377, 272, 408
-0.996524, 1, 161, 128, 224
-0.996527, 25, 161, 88, 416
-0.996529, 217, 281, 280, 344
-0.996556, 221, 305, 252, 368
-0.996575, 113, 129, 176, 192
-0.9966, 93, 129, 124, 256
-0.996618, 211, 265, 226, 328
-0.996622, 97, 153, 160, 216
-0.996649, 101, 313, 132, 376
-0.996649, 1, 225, 64, 480
-0.996653, 17, 265, 48, 328
-0.996658, 177, 233, 240, 296
-0.996674, 265, 1, 328, 500
-0.99671, 49, 237, 176, 268
-0.996729, 49, 177, 112, 304
-0.996747, 209, 129, 334, 192
-0.996759, 33, 1, 96, 500
-0.996761, 237, 369, 268, 496
-0.996761, 197, 1, 228, 64
-0.996763, 281, 1, 312, 128
-0.996794, 139, 385, 154, 448
-0.996795, 99, 289, 114, 352
-0.9968, 65, 105, 192, 168
-0.996834, 129, 265, 256, 296
-0.996876, 21, 1, 52, 128
-0.996898, 121, 417, 152, 480
-0.996932, 97, 293, 224, 324
-0.996945, 91, 297, 106, 360
-0.996955, 231, 361, 246, 424
-0.996979, 175, 273, 190, 336
-0.996991, 185, 345, 216, 408
-0.997, 81, 129, 144, 384
-0.99701, 185, 385, 216, 448
-0.997025, 177, 225, 208, 352
-0.997029, 1, 241, 334, 304
-0.997094, 1, 1, 64, 500
-0.997136, 297, 1, 328, 64
-0.997139, 111, 393, 126, 456
-0.997171, 117, 337, 148, 400
-0.997175, 241, 137, 304, 200
-0.997185, 135, 233, 150, 296
-0.997237, 105, 393, 136, 456
-0.997242, 189, 409, 220, 472
-0.997245, 33, 285, 160, 316
-0.997262, 53, 209, 84, 336
-0.997295, 141, 233, 156, 296
-0.997298, 113, 253, 240, 284
-0.997308, 127, 377, 142, 440
-0.997315, 185, 281, 200, 344
-0.997335, 29, 273, 60, 336
-0.997353, 1, 369, 128, 432
-0.997356, 185, 129, 248, 384
-0.997397, 185, 1, 248, 500
-0.997406, 131, 401, 146, 464
-0.997417, 221, 337, 252, 400
-0.997431, 221, 417, 252, 480
-0.997447, 225, 385, 240, 448
-0.997466, 205, 257, 220, 320
-0.997472, 109, 281, 124, 344
-0.997473, 129, 169, 256, 232
-0.997476, 33, 313, 288, 376
-0.99749, 1, 297, 128, 328
-0.997491, 145, 425, 272, 456
-0.997515, 145, 217, 176, 280
-0.997518, 33, 121, 96, 184
-0.997547, 211, 385, 226, 448
-0.997549, 25, 33, 88, 96
-0.997551, 245, 369, 276, 432
-0.997557, 113, 129, 176, 256
-0.997561, 57, 377, 120, 440
-0.997571, 129, 233, 144, 296
-0.997582, 201, 401, 216, 464
-0.997584, 219, 345, 234, 408
-0.997589, 265, 33, 328, 96
-0.997589, 81, 281, 96, 344
-0.997621, 49, 297, 176, 328
-0.997636, 169, 33, 232, 96
-0.997666, 45, 249, 60, 312
-0.997701, 157, 369, 188, 496
-0.997729, 175, 249, 190, 312
-0.997732, 193, 57, 256, 120
-0.997743, 217, 273, 232, 336
-0.997744, 17, 273, 144, 304
-0.997749, 245, 369, 260, 432
-0.997764, 257, 1, 272, 64
-0.997778, 169, 129, 232, 192
-0.997781, 123, 225, 138, 288
-0.997785, 157, 1, 172, 64
-0.997795, 305, 273, 334, 400
-0.997803, 169, 273, 184, 336
-0.997806, 117, 369, 132, 432
-0.997813, 41, 321, 104, 448
-0.997818, 75, 273, 90, 336
-0.997821, 241, 97, 304, 160
-0.997821, 125, 265, 140, 328
-0.997831, 109, 249, 124, 312
-0.99784, 93, 377, 124, 440
-0.997842, 225, 353, 240, 416
-0.997845, 87, 273, 102, 336
-0.997851, 237, 377, 252, 440
-0.997854, 165, 249, 180, 312
-0.997857, 131, 345, 146, 408
-0.997859, 83, 313, 98, 376
-0.997863, 193, 249, 208, 312
-0.997876, 85, 1, 116, 64
-0.997881, 161, 277, 288, 308
-0.997887, 65, 269, 192, 300
-0.997891, 119, 273, 134, 336
-0.997903, 199, 257, 214, 320
-0.997905, 157, 297, 188, 360
-0.997911, 273, 209, 334, 272
-0.99793, 109, 225, 124, 288
-0.997938, 17, 241, 48, 368
-0.99794, 131, 265, 146, 328
-0.997952, 193, 417, 320, 448
-0.997966, 189, 225, 220, 352
-0.997967, 51, 249, 66, 312
-0.997977, 125, 209, 156, 272
-0.997981, 33, 385, 288, 448
-0.997982, 147, 233, 162, 296
-0.997994, 81, 129, 112, 192
-0.997994, 103, 225, 118, 288
-0.997996, 49, 249, 176, 280
-0.997997, 1, 425, 256, 488
-0.997999, 81, 309, 208, 340
-0.998002, 113, 413, 240, 444
-0.998007, 233, 401, 248, 464
-0.998022, 97, 265, 112, 328
-0.998028, 145, 357, 272, 388
-0.998029, 241, 1, 304, 500
-0.998034, 193, 361, 320, 392
-0.998035, 287, 1, 302, 64
-0.998041, 1, 1, 334, 64
-0.998047, 217, 257, 280, 320
-0.998047, 1, 241, 128, 272
-0.99805, 217, 113, 280, 176
-0.998062, 25, 241, 40, 304
-0.998063, 181, 257, 196, 320
-0.998064, 111, 417, 126, 480
-0.99807, 233, 337, 264, 400
-0.998079, 33, 33, 288, 288
-0.99808, 119, 249, 134, 312
-0.998083, 95, 225, 110, 288
-0.998089, 167, 1, 182, 64
-0.998091, 193, 289, 224, 352
-0.998097, 139, 257, 154, 320
-0.998104, 45, 273, 60, 336
-0.998105, 219, 401, 234, 464
-0.998106, 97, 349, 224, 380
-0.998108, 161, 389, 288, 420
-0.998111, 131, 9, 146, 72
-0.998112, 205, 369, 220, 432
-0.998112, 97, 365, 224, 396
-0.998113, 97, 329, 112, 392
-0.998116, 39, 249, 54, 312
-0.998128, 153, 385, 168, 448
-0.998137, 105, 377, 120, 440
-0.998145, 133, 377, 148, 440
-0.998149, 121, 1, 136, 64
-0.998151, 81, 9, 208, 40
-0.998159, 141, 1, 156, 64
-0.998178, 209, 5, 334, 36
-0.998179, 169, 129, 232, 256
-0.998201, 33, 249, 48, 312
-0.998211, 145, 401, 160, 464
-0.998217, 65, 33, 192, 96
-0.998217, 139, 361, 154, 424
-0.99822, 205, 415, 236, 430
-0.99822, 245, 373, 276, 388
-0.998221, 81, 239, 112, 254
-0.998221, 21, 293, 52, 308
-0.998221, 205, 427, 236, 442
-0.998221, 105, 281, 136, 296
-0.998222, 209, 387, 240, 402
-0.998222, 13, 59, 44, 74
-0.998222, 233, 425, 264, 440
-0.998223, 141, 233, 172, 248
-0.998223, 1, 277, 32, 292
-0.998223, 1, 261, 32, 276
-0.998223, 197, 395, 228, 410
-0.998225, 125, 397, 156, 412
-0.998225, 85, 365, 116, 380
-0.998225, 133, 131, 164, 146
-0.998226, 81, 341, 112, 356
-0.998226, 97, 433, 128, 448
-0.998226, 221, 361, 252, 376
-0.998228, 149, 397, 180, 412
-0.998228, 205, 345, 236, 360
-0.998229, 237, 367, 268, 382
-0.998229, 93, 179, 124, 194
-0.99823, 97, 427, 128, 442
-0.998231, 79, 233, 94, 296
-0.998231, 151, 1, 166, 64
-0.998232, 189, 419, 220, 434
-0.998232, 109, 385, 140, 400
-0.998232, 133, 421, 164, 436
-0.998233, 181, 403, 212, 418
-0.998233, 217, 427, 248, 442
-0.998233, 141, 383, 172, 398
-0.998234, 89, 143, 120, 158
-0.998234, 185, 371, 216, 386
-0.998234, 89, 355, 120, 370
-0.998234, 57, 257, 72, 320
-0.998234, 185, 285, 216, 300
-0.998235, 201, 305, 232, 320
-0.998236, 305, 267, 334, 282
-0.998236, 121, 275, 152, 290
-0.998237, 217, 413, 248, 428
-0.998238, 137, 287, 168, 302
-0.998239, 97, 363, 128, 378
-0.99824, 9, 289, 40, 304
-0.998241, 205, 339, 236, 354
-0.998241, 263, 1, 278, 64
-0.998241, 125, 437, 156, 452
-0.998242, 241, 387, 272, 402
-0.998243, 93, 235, 124, 250
-0.998243, 61, 307, 92, 322
-0.998244, 193, 133, 224, 148
-0.998244, 61, 301, 92, 316
-0.998244, 201, 299, 232, 314
-0.998245, 217, 129, 280, 256
-0.998245, 89, 377, 120, 392
-0.998245, 145, 253, 176, 268
-0.998245, 93, 171, 124, 186
-0.998245, 105, 421, 136, 436
-0.998246, 93, 333, 124, 348
-0.998246, 33, 257, 64, 272
-0.998249, 103, 249, 118, 312
-0.998249, 137, 433, 168, 448
-0.998249, 57, 289, 88, 304
-0.99825, 85, 317, 116, 332
-0.99825, 121, 425, 152, 440
-0.99825, 209, 351, 240, 366
-0.998251, 93, 281, 124, 296
-0.998251, 145, 293, 272, 324
-0.998252, 205, 311, 236, 326
-0.998252, 165, 257, 196, 272
-0.998252, 89, 293, 120, 308
-0.998253, 217, 401, 248, 416
-0.998254, 97, 287, 128, 302
-0.998254, 209, 389, 334, 420
-0.998255, 81, 335, 112, 350
-0.998255, 81, 371, 112, 386
-0.998256, 69, 313, 100, 328
-0.998256, 97, 385, 128, 400
-0.998256, 209, 1, 224, 64
-0.998257, 97, 337, 224, 368
-0.998258, 201, 409, 232, 424
-0.99826, 81, 329, 112, 344
-0.998261, 1, 255, 32, 270
-0.998262, 225, 391, 256, 406
-0.998263, 33, 291, 64, 306
-0.998263, 185, 299, 216, 314
-0.998264, 205, 281, 236, 296
-0.998264, 99, 129, 114, 192
-0.998265, 117, 391, 148, 406
-0.998269, 197, 383, 228, 398
-0.99827, 109, 433, 140, 448
-0.998271, 157, 385, 188, 400
-0.998273, 161, 9, 288, 40
-0.998276, 209, 357, 240, 372
-0.998276, 223, 313, 238, 376
-0.998276, 73, 321, 104, 336
-0.998276, 53, 295, 84, 310
-0.998277, 93, 327, 124, 342
-0.998277, 205, 421, 236, 436
-0.998278, 101, 369, 132, 384
-0.998278, 149, 291, 180, 306
-0.998279, 133, 427, 164, 442
-0.99828, 173, 279, 204, 294
-0.998281, 229, 385, 260, 400
-0.998283, 251, 1, 266, 64
-0.998284, 125, 383, 156, 398
-0.998284, 217, 381, 248, 396
-0.998284, 201, 291, 232, 306
-0.998285, 201, 275, 232, 290
-0.998286, 101, 353, 116, 416
-0.998286, 173, 1, 188, 64
-0.998289, 97, 297, 112, 328
-0.99829, 141, 247, 172, 262
-0.998291, 217, 419, 248, 434
-0.998291, 133, 405, 164, 420
-0.998295, 189, 263, 220, 278
-0.998296, 1, 129, 256, 192
-0.998296, 181, 257, 212, 272
-0.998297, 187, 249, 202, 312
-0.998297, 245, 381, 276, 396
-0.998298, 137, 399, 168, 414
-0.998298, 217, 367, 248, 382
-0.998299, 137, 389, 168, 404
-0.998299, 81, 311, 112, 326
-0.9983, 137, 281, 168, 296
-0.998302, 173, 285, 204, 300
-0.998303, 97, 299, 128, 314
-0.998304, 189, 377, 220, 392
-0.998304, 13, 251, 44, 266
-0.998306, 277, 1, 292, 64
-0.998307, 225, 373, 256, 388
-0.998308, 93, 307, 124, 322
-0.99831, 103, 289, 118, 320
-0.998312, 121, 237, 152, 252
-0.998315, 77, 299, 108, 314
-0.998316, 85, 287, 116, 302
-0.998317, 121, 401, 136, 464
-0.99832, 101, 1, 116, 64
-0.99832, 137, 409, 152, 472
-0.998322, 201, 269, 232, 284
-0.998323, 233, 1, 248, 64
-0.998323, 77, 305, 108, 320
-0.998323, 133, 241, 164, 256
-0.998323, 65, 201, 320, 264
-0.998324, 121, 431, 152, 446
-0.998325, 77, 293, 108, 308
-0.998328, 109, 427, 140, 442
-0.998336, 89, 249, 104, 312
-0.998336, 209, 377, 334, 408
-0.998338, 223, 1, 238, 64
-0.998338, 107, 345, 122, 408
-0.998338, 93, 401, 124, 464
-0.998343, 97, 321, 224, 352
-0.998344, 109, 287, 140, 302
-0.998345, 109, 379, 140, 394
-0.998347, 157, 281, 188, 296
-0.99835, 177, 291, 208, 306
-0.998353, 117, 281, 148, 296
-0.998354, 75, 297, 90, 360
-0.998354, 209, 375, 240, 390
-0.998356, 101, 293, 132, 308
-0.99836, 207, 417, 222, 480
-0.99836, 229, 379, 260, 394
-0.998365, 117, 225, 132, 288
-0.998367, 197, 345, 228, 408
-0.998368, 19, 241, 34, 304
-0.998371, 129, 229, 256, 260
-0.998374, 69, 257, 84, 320
-0.998376, 111, 369, 126, 432
-0.998377, 97, 241, 224, 272
-0.998378, 49, 129, 176, 160
-0.998378, 217, 425, 280, 488
-0.998389, 173, 285, 188, 316
-0.998392, 219, 369, 234, 432
-0.998393, 107, 1, 122, 64
-0.998396, 179, 1, 194, 64
-0.998396, 215, 1, 230, 64
-0.998409, 271, 1, 286, 64
-0.998412, 295, 1, 310, 64
-0.998414, 169, 225, 200, 480
-0.998414, 227, 417, 242, 480
-0.998417, 221, 281, 252, 344
-0.998422, 237, 373, 252, 404
-0.998423, 319, 233, 334, 296
-0.998426, 13, 241, 28, 304
-0.998435, 213, 297, 228, 360
-0.998435, 89, 321, 104, 384
-0.998442, 161, 287, 192, 302
-0.998446, 111, 417, 126, 448
-0.998451, 1, 253, 128, 284
-0.99846, 141, 241, 156, 272
-0.99846, 51, 273, 66, 336
-0.998465, 17, 153, 144, 184
-0.998467, 25, 417, 88, 480
-0.998471, 129, 305, 256, 336
-0.998471, 115, 1, 130, 64
-0.998483, 145, 377, 160, 440
-0.9985, 179, 289, 194, 320
-0.998512, 81, 385, 208, 416
-0.998514, 145, 113, 208, 176
-0.998516, 17, 313, 144, 344
-0.998518, 159, 377, 174, 440
-0.998523, 315, 257, 330, 320
-0.998523, 239, 1, 254, 64
-0.998526, 203, 1, 218, 64
-0.998533, 213, 273, 228, 304
-0.998542, 33, 9, 160, 40
-0.998543, 129, 381, 144, 412
-0.998544, 103, 321, 118, 384
-0.998544, 237, 345, 252, 408
-0.998548, 205, 377, 220, 408
-0.99855, 185, 289, 200, 320
-0.998551, 81, 257, 96, 320
-0.998556, 91, 305, 106, 336
-0.998559, 197, 1, 212, 64
-0.998561, 109, 285, 124, 316
-0.998566, 305, 233, 334, 296
-0.998566, 113, 281, 176, 296
-0.998568, 319, 209, 334, 272
-0.99857, 83, 297, 98, 328
-0.998572, 179, 297, 194, 360
-0.998574, 199, 361, 214, 424
-0.99858, 217, 321, 232, 384
-0.998581, 105, 137, 120, 200
-0.998586, 129, 57, 256, 120
-0.998587, 193, 405, 320, 436
-0.998588, 105, 401, 120, 464
-0.998589, 233, 409, 264, 472
-0.99859, 105, 193, 168, 256
-0.998595, 105, 193, 136, 320
-0.998599, 171, 297, 186, 360
-0.998603, 311, 233, 326, 296
-0.998603, 209, 265, 334, 296
-0.998603, 241, 25, 304, 88
-0.998604, 135, 237, 150, 268
-0.998608, 139, 389, 154, 420
-0.998609, 7, 249, 22, 312
-0.998612, 169, 281, 232, 296
-0.998612, 145, 291, 208, 306
-0.998613, 305, 209, 334, 272
-0.998614, 177, 341, 304, 372
-0.998614, 33, 377, 160, 408
-0.99862, 201, 409, 216, 440
-0.998621, 201, 377, 264, 392
-0.998622, 205, 265, 220, 296
-0.998623, 81, 193, 112, 320
-0.998629, 245, 381, 260, 412
-0.998633, 95, 1, 110, 64
-0.998634, 93, 153, 108, 216
-0.998637, 1, 253, 64, 268
-0.99864, 97, 427, 160, 442
-0.998645, 89, 237, 152, 252
-0.998649, 201, 371, 264, 386
-0.998649, 49, 299, 112, 314
-0.998652, 213, 361, 228, 424
-0.998652, 189, 257, 220, 500
-0.998657, 73, 287, 136, 302
-0.998658, 49, 305, 112, 320
-0.998658, 169, 267, 232, 282
-0.99866, 73, 305, 136, 320
-0.998663, 145, 285, 208, 300
-0.998666, 49, 291, 112, 306
-0.998666, 169, 379, 232, 394
-0.998668, 153, 257, 216, 272
-0.99867, 105, 287, 168, 302
-0.998674, 185, 287, 248, 302
-0.998675, 97, 433, 160, 448
-0.998678, 193, 417, 256, 432
-0.998679, 65, 281, 128, 296
-0.998679, 137, 417, 152, 448
-0.998682, 89, 297, 152, 312
-0.998682, 165, 25, 196, 88
-0.998683, 25, 293, 88, 308
-0.998685, 169, 275, 232, 290
-0.998686, 73, 427, 136, 442
-0.998687, 193, 383, 256, 398
-0.998687, 129, 275, 192, 290
-0.99869, 49, 311, 112, 326
-0.998691, 97, 421, 160, 436
-0.998695, 73, 311, 136, 326
-0.998695, 113, 243, 176, 258
-0.998697, 241, 337, 304, 464
-0.998701, 177, 347, 240, 362
-0.998702, 193, 423, 256, 438
-0.998705, 57, 353, 120, 368
-0.998705, 145, 401, 272, 432
-0.998708, 217, 383, 280, 398
-0.998713, 121, 431, 184, 446
-0.998714, 185, 355, 248, 370
-0.998714, 177, 341, 240, 356
-0.998714, 209, 285, 334, 316
-0.998715, 129, 89, 256, 152
-0.998715, 113, 381, 176, 396
-0.998715, 193, 411, 256, 426
-0.998718, 73, 275, 136, 290
-0.998719, 177, 335, 240, 350
-0.998721, 97, 415, 160, 430
-0.998721, 129, 249, 192, 264
-0.998722, 153, 297, 216, 312
-0.998723, 97, 351, 160, 366
-0.998724, 97, 357, 160, 372
-0.998724, 113, 387, 176, 402
-0.998724, 81, 379, 144, 394
-0.998725, 49, 317, 112, 332
-0.998725, 153, 387, 216, 402
-0.998725, 121, 419, 184, 434
-0.998725, 169, 305, 200, 368
-0.998727, 193, 365, 256, 380
-0.998728, 73, 317, 136, 332
-0.99873, 57, 359, 120, 374
-0.998731, 201, 389, 264, 404
-0.998732, 89, 281, 152, 296
-0.998732, 25, 287, 88, 302
-0.998733, 57, 147, 120, 162
-0.998733, 217, 425, 280, 440
-0.998734, 193, 397, 256, 412
-0.998734, 185, 317, 248, 332
-0.998734, 149, 225, 180, 480
-0.998736, 241, 381, 304, 396
-0.998736, 193, 431, 256, 446
-0.998737, 25, 299, 88, 314
-0.998738, 231, 373, 246, 404
-0.998739, 97, 371, 160, 386
-0.998739, 49, 253, 112, 268
-0.998739, 1, 289, 64, 304
-0.99874, 177, 307, 240, 322
-0.99874, 193, 269, 256, 284
-0.99874, 73, 437, 136, 452
-0.998743, 177, 329, 240, 344
-0.998743, 17, 259, 80, 274
-0.998743, 177, 293, 240, 308
-0.998744, 97, 409, 160, 424
-0.998744, 193, 405, 256, 420
-0.998745, 57, 347, 120, 362
-0.998745, 153, 415, 216, 430
-0.998746, 57, 133, 120, 148
-0.998749, 81, 345, 144, 360
-0.998749, 57, 421, 120, 436
-0.998749, 57, 365, 120, 380
-0.998749, 137, 235, 200, 250
-0.99875, 89, 387, 152, 402
-0.998751, 33, 155, 96, 170
-0.998751, 121, 425, 184, 440
-0.998751, 217, 353, 280, 368
-0.998752, 153, 251, 216, 266
-0.998752, 193, 275, 256, 290
-0.998753, 73, 323, 136, 338
-0.998753, 121, 305, 184, 320
-0.998754, 177, 323, 240, 338
-0.998755, 33, 247, 96, 262
-0.998755, 153, 409, 216, 424
-0.998756, 177, 301, 240, 316
-0.998757, 201, 347, 264, 362
-0.998757, 177, 37, 240, 52
-0.998757, 185, 133, 248, 148
-0.998758, 33, 275, 96, 290
-0.998758, 73, 243, 136, 258
-0.998758, 233, 389, 296, 404
-0.998759, 121, 413, 184, 428
-0.998759, 89, 231, 152, 246
-0.99876, 87, 317, 102, 348
-0.99876, 217, 71, 280, 86
-0.99876, 257, 5, 320, 20
-0.998761, 33, 281, 96, 296
-0.998761, 145, 429, 208, 444
-0.998762, 113, 395, 176, 410
-0.998762, 1, 271, 64, 286
-0.998762, 41, 267, 104, 282
-0.998762, 217, 431, 280, 446
-0.998762, 153, 423, 216, 438
-0.998763, 217, 149, 280, 164
-0.998764, 81, 143, 144, 158
-0.998765, 169, 373, 232, 388
-0.998765, 129, 255, 192, 270
-0.998765, 73, 153, 136, 168
-0.998765, 149, 245, 164, 276
-0.998766, 217, 341, 280, 356
-0.998766, 153, 395, 216, 410
-0.998766, 1, 295, 64, 310
-0.998766, 209, 359, 272, 374
-0.998766, 241, 373, 304, 388
-0.998767, 65, 173, 128, 188
-0.998767, 89, 363, 152, 378
-0.998767, 73, 373, 136, 388
-0.998767, 193, 139, 256, 154
-0.998768, 1, 25, 256, 88
-0.998768, 73, 249, 136, 264
-0.998768, 57, 139, 120, 154
-0.998768, 49, 261, 112, 276
-0.998772, 193, 253, 320, 284
-0.998776, 179, 277, 194, 308
-0.998776, 121, 417, 136, 448
-0.998776, 137, 401, 152, 432
-0.998779, 129, 337, 160, 400
-0.99878, 201, 209, 232, 336
-0.998789, 273, 289, 334, 352
-0.998795, 81, 25, 144, 88
-0.998796, 49, 421, 176, 452
-0.998803, 145, 405, 160, 436
-0.998808, 167, 277, 182, 308
-0.998819, 115, 277, 130, 308
-0.998821, 195, 257, 210, 288
-0.998825, 225, 257, 288, 500
-0.998827, 155, 281, 170, 312
-0.998831, 17, 105, 144, 168
-0.998841, 211, 373, 226, 404
-0.998842, 201, 225, 264, 480
-0.998842, 225, 409, 240, 440
-0.998848, 213, 413, 228, 444
-0.998849, 1, 369, 334, 432
-0.998849, 177, 329, 304, 360
-0.998849, 161, 317, 288, 348
-0.998858, 1, 185, 128, 248
-0.998859, 127, 413, 142, 444
-0.998862, 233, 385, 248, 416
-0.998863, 41, 1, 104, 128
-0.998863, 265, 49, 328, 176
-0.998864, 207, 421, 222, 452
-0.998866, 209, 65, 240, 192
-0.998868, 227, 357, 242, 388
-0.998871, 121, 377, 136, 408
-0.998874, 113, 429, 128, 460
-0.998894, 177, 57, 304, 88
-0.998896, 89, 257, 120, 500
-0.998901, 239, 393, 254, 424
-0.998904, 143, 417, 158, 448
-0.99891, 249, 73, 312, 136
-0.99891, 241, 321, 272, 448
-0.998913, 81, 29, 208, 60
-0.998916, 1, 29, 128, 60
-0.998919, 111, 405, 126, 436
-0.998923, 107, 365, 122, 396
-0.998925, 49, 225, 176, 256
-0.99893, 17, 169, 144, 200
-0.998931, 91, 357, 106, 388
-0.998936, 103, 277, 118, 308
-0.99894, 137, 225, 168, 480
-0.998953, 127, 277, 142, 308
-0.998953, 17, 249, 32, 280
-0.998955, 117, 297, 148, 360
-0.998957, 97, 425, 224, 456
-0.998958, 211, 361, 226, 392
-0.998963, 173, 269, 188, 300
-0.998964, 191, 293, 206, 324
-0.998967, 113, 373, 128, 404
-0.998968, 109, 385, 124, 416
-0.998975, 77, 285, 92, 316
-0.998976, 129, 401, 144, 432
-0.998978, 249, 409, 312, 472
-0.998991, 131, 425, 146, 456
-0.998991, 129, 237, 144, 268
-0.998995, 235, 405, 250, 436
-0.999002, 161, 41, 288, 72
-0.999005, 159, 381, 174, 412
-0.999006, 135, 369, 150, 400
-0.999009, 23, 249, 38, 280
-0.999009, 221, 353, 236, 384
-0.999011, 149, 277, 164, 308
-0.999011, 95, 341, 110, 372
-0.999012, 65, 397, 192, 428
-0.999017, 51, 257, 66, 288
-0.999023, 31, 253, 46, 284
-0.999024, 133, 277, 148, 308
-0.999027, 145, 385, 160, 416
-0.999031, 105, 173, 120, 204
-0.999032, 165, 265, 180, 296
-0.999035, 1, 137, 334, 200
-0.999039, 121, 429, 136, 460
-0.999041, 17, 349, 144, 380
-0.999044, 99, 373, 114, 404
-0.999044, 205, 233, 236, 296
-0.999047, 193, 429, 320, 460
-0.999053, 249, 145, 264, 176
-0.999053, 69, 305, 100, 432
-0.999054, 319, 205, 334, 236
-0.999054, 155, 249, 170, 280
-0.999054, 143, 277, 158, 308
-0.999058, 121, 281, 136, 312
-0.999058, 189, 253, 204, 284
-0.999063, 113, 133, 240, 164
-0.999064, 107, 433, 122, 464
-0.999069, 101, 357, 116, 388
-0.999074, 69, 293, 84, 324
-0.999074, 225, 429, 240, 460
-0.999075, 9, 249, 24, 280
-0.999077, 93, 317, 108, 348
-0.999079, 17, 141, 144, 172
-0.99908, 223, 9, 238, 40
-0.999085, 167, 9, 182, 40
-0.999085, 73, 177, 136, 240
-0.999086, 185, 277, 200, 308
-0.999087, 49, 409, 176, 440
-0.999088, 81, 313, 96, 344
-0.999088, 97, 233, 112, 264
-0.99909, 53, 1, 84, 128
-0.999091, 257, 9, 272, 40
-0.999094, 233, 9, 248, 40
-0.999097, 199, 297, 214, 328
-0.999099, 243, 369, 258, 400
-0.999099, 207, 409, 222, 440
-0.999101, 143, 125, 158, 156
-0.999104, 103, 385, 118, 416
-0.999106, 225, 393, 240, 424
-0.999106, 199, 377, 214, 408
-0.999107, 163, 253, 178, 284
-0.99911, 151, 389, 166, 420
-0.99911, 95, 165, 110, 196
-0.99911, 319, 301, 334, 332
-0.999111, 65, 141, 192, 172
-0.999111, 17, 325, 144, 356
-0.999111, 311, 253, 326, 284
-0.999113, 89, 161, 120, 224
-0.999113, 109, 273, 124, 304
-0.999114, 213, 257, 244, 500
-0.999115, 49, 9, 80, 72
-0.999118, 213, 297, 228, 328
-0.999118, 73, 305, 88, 336
-0.999128, 91, 289, 106, 320
-0.999129, 123, 233, 138, 264
-0.999136, 219, 377, 234, 408
-0.999136, 89, 237, 104, 268
-0.999138, 207, 9, 222, 40
-0.999145, 161, 281, 176, 312
-0.999145, 81, 145, 112, 272
-0.999147, 173, 13, 188, 44
-0.999148, 1, 129, 64, 384
-0.999148, 23, 285, 38, 316
-0.999152, 1, 417, 128, 448
-0.999153, 319, 217, 334, 248
-0.999153, 213, 309, 228, 340
-0.999154, 205, 301, 220, 332
-0.999155, 101, 421, 116, 452
-0.999158, 201, 257, 232, 500
-0.999158, 229, 289, 260, 416
-0.999158, 213, 9, 228, 40
-0.999159, 161, 9, 176, 40
-0.999159, 129, 129, 192, 384
-0.99916, 201, 9, 216, 40
-0.999162, 149, 289, 164, 320
-0.999164, 179, 9, 194, 40
-0.999167, 87, 341, 102, 372
-0.999172, 251, 9, 266, 40
-0.999173, 209, 397, 224, 428
-0.999181, 193, 9, 208, 40
-0.999184, 243, 9, 258, 40
-0.999187, 45, 253, 60, 284
-0.999187, 77, 273, 92, 304
-0.999216, 69, 121, 100, 184
-0.999228, 209, 153, 334, 184
-0.999236, 97, 217, 224, 248
-0.999236, 1, 305, 334, 368
-0.999248, 293, 1, 324, 128
-0.99925, 223, 1, 238, 128
-0.999253, 185, 153, 248, 216
-0.999257, 129, 25, 256, 56
-0.999267, 25, 177, 88, 304
-0.999273, 1, 81, 128, 208
-0.999274, 265, 169, 328, 232
-0.999279, 221, 257, 252, 320
-0.99928, 95, 273, 110, 400
-0.999283, 177, 77, 304, 108
-0.999297, 177, 177, 240, 304
-0.999302, 229, 1, 244, 128
-0.999305, 73, 225, 104, 480
-0.999307, 105, 225, 136, 480
-0.999324, 121, 25, 184, 88
-0.999343, 129, 337, 144, 464
-0.999343, 145, 297, 176, 360
-0.999344, 21, 289, 52, 416
-0.999345, 161, 241, 288, 272
-0.999345, 201, 425, 232, 488
-0.999346, 177, 141, 304, 172
-0.999351, 33, 193, 64, 448
-0.999355, 83, 257, 98, 384
-0.99936, 103, 289, 118, 416
-0.999365, 17, 337, 144, 368
-0.99937, 217, 169, 280, 232
-0.999371, 129, 121, 256, 152
-0.999376, 169, 377, 200, 440
-0.999379, 57, 105, 120, 168
-0.999384, 17, 365, 144, 396
-0.999391, 57, 129, 88, 192
-0.999391, 235, 1, 250, 128
-0.9994, 209, 197, 334, 228
-0.999403, 177, 125, 304, 156
-0.999407, 101, 337, 116, 464
-0.999413, 89, 129, 120, 384
-0.999416, 209, 317, 334, 348
-0.999434, 139, 353, 154, 480
-0.999437, 217, 1, 232, 128
-0.999442, 111, 321, 126, 448
-0.999447, 203, 1, 218, 128
-0.999451, 129, 297, 160, 360
-0.999452, 251, 1, 266, 128
-0.999452, 223, 337, 238, 464
-0.999452, 241, 391, 256, 406
-0.999453, 115, 437, 130, 452
-0.999453, 219, 385, 234, 400
-0.999453, 251, 383, 266, 398
-0.999453, 227, 415, 242, 430
-0.999454, 201, 371, 216, 386
-0.999454, 247, 373, 262, 388
-0.999455, 213, 301, 228, 316
-0.999455, 239, 399, 254, 414
-0.999455, 111, 403, 126, 418
-0.999456, 225, 431, 240, 446
-0.999457, 229, 401, 244, 416
-0.999457, 175, 277, 190, 292
-0.999457, 133, 435, 148, 450
-0.999457, 229, 383, 244, 398
-0.999458, 317, 251, 332, 266
-0.999458, 111, 409, 126, 424
-0.999458, 93, 367, 108, 382
-0.999458, 127, 389, 142, 404
-0.999458, 143, 279, 158, 294
-0.999459, 165, 209, 196, 336
-0.99946, 17, 251, 32, 266
-0.99946, 95, 289, 110, 304
-0.99946, 145, 425, 160, 440
-0.99946, 89, 257, 104, 384
-0.999461, 103, 387, 118, 402
-0.999461, 199, 407, 214, 422
-0.999461, 107, 373, 122, 388
-0.999461, 145, 409, 160, 424
-0.999462, 149, 399, 164, 414
-0.999462, 145, 433, 160, 448
-0.999462, 317, 303, 332, 318
-0.999463, 213, 309, 228, 324
-0.999463, 143, 385, 158, 400
-0.999463, 127, 415, 142, 430
-0.999464, 93, 323, 108, 338
-0.999464, 209, 1, 224, 128
-0.999464, 129, 423, 144, 438
-0.999464, 169, 289, 184, 416
-0.999465, 99, 379, 114, 394
-0.999465, 187, 287, 202, 302
-0.999465, 101, 285, 116, 300
-0.999465, 225, 421, 240, 436
-0.999465, 71, 305, 86, 320
-0.999467, 131, 407, 146, 422
-0.999467, 101, 427, 116, 442
-0.999467, 121, 421, 136, 436
-0.999467, 179, 1, 194, 128
-0.999469, 109, 379, 124, 394
-0.99947, 109, 387, 124, 402
-0.99947, 77, 287, 92, 302
-0.99947, 145, 415, 160, 430
-0.999471, 161, 383, 176, 398
-0.999471, 121, 433, 136, 448
-0.999473, 207, 429, 222, 444
-0.999473, 209, 421, 224, 436
-0.999473, 229, 337, 244, 464
-0.999473, 167, 257, 182, 272
-0.999473, 139, 421, 154, 436
-0.999474, 217, 377, 232, 392
-0.999474, 131, 239, 146, 254
-0.999474, 129, 279, 144, 294
-0.999475, 165, 277, 180, 292
-0.999475, 9, 253, 24, 268
-0.999475, 233, 393, 248, 408
-0.999475, 139, 435, 154, 450
-0.999475, 217, 315, 232, 330
-0.999476, 159, 1, 174, 128
-0.999478, 99, 303, 114, 318
-0.999478, 169, 289, 184, 304
-0.999478, 201, 299, 216, 314
-0.999479, 227, 365, 242, 380
-0.999479, 97, 355, 112, 370
-0.999479, 79, 299, 94, 314
-0.99948, 149, 393, 164, 408
-0.99948, 135, 279, 150, 294
-0.99948, 157, 249, 172, 264
-0.999481, 107, 435, 122, 450
-0.999481, 211, 353, 226, 480
-0.999482, 131, 401, 146, 416
-0.999482, 131, 395, 146, 410
-0.999484, 91, 357, 106, 372
-0.999484, 133, 389, 148, 404
-0.999485, 89, 297, 104, 312
-0.999485, 139, 427, 154, 442
-0.999486, 191, 1, 206, 128
-0.999487, 201, 413, 216, 428
-0.999487, 191, 257, 206, 272
-0.999487, 87, 323, 102, 338
-0.999491, 137, 405, 152, 420
-0.999492, 135, 415, 150, 430
-0.999493, 149, 281, 164, 296
-0.999493, 197, 1, 212, 128
-0.999493, 119, 427, 134, 442
-0.999494, 89, 315, 104, 330
-0.999494, 213, 277, 228, 292
-0.999494, 223, 359, 238, 374
-0.999495, 151, 287, 166, 302
-0.999496, 111, 419, 126, 434
-0.999497, 197, 261, 212, 276
-0.999497, 231, 375, 246, 390
-0.9995, 91, 309, 106, 324
-0.999502, 165, 1, 180, 128
-0.999503, 139, 391, 154, 406
-0.999503, 1, 329, 334, 392
-0.999504, 103, 241, 118, 368
-0.999507, 129, 429, 144, 444
-0.999507, 123, 281, 138, 296
-0.999508, 187, 293, 202, 308
-0.999508, 83, 317, 98, 332
-0.999508, 185, 1, 200, 128
-0.999509, 155, 281, 170, 296
-0.999509, 203, 421, 218, 436
-0.999509, 217, 353, 232, 480
-0.99951, 101, 363, 116, 378
-0.999511, 119, 377, 134, 392
-0.999511, 131, 289, 146, 416
-0.999511, 113, 431, 128, 446
-0.999513, 193, 295, 208, 310
-0.999514, 93, 303, 108, 318
-0.999514, 181, 283, 196, 298
-0.999516, 211, 271, 226, 286
-0.999517, 129, 383, 144, 398
-0.999517, 139, 397, 154, 412
-0.999517, 237, 369, 252, 496
-0.999517, 211, 375, 226, 390
-0.999517, 143, 243, 158, 258
-0.999518, 151, 247, 166, 262
-0.999518, 111, 369, 126, 496
-0.999519, 125, 225, 156, 480
-0.99952, 157, 287, 172, 302
-0.99952, 95, 225, 110, 352
-0.999522, 83, 307, 98, 322
-0.999522, 257, 1, 272, 128
-0.999524, 137, 241, 152, 256
-0.999527, 117, 305, 132, 432
-0.999528, 209, 381, 224, 396
-0.999529, 235, 387, 250, 402
-0.999531, 175, 283, 190, 298
-0.999531, 111, 425, 126, 440
-0.999533, 121, 1, 136, 128
-0.999535, 13, 193, 44, 448
-0.999535, 181, 291, 196, 306
-0.999537, 245, 385, 260, 400
-0.999537, 117, 283, 132, 298
-0.999542, 119, 353, 134, 480
-0.999543, 177, 29, 304, 60
-0.999544, 135, 1, 150, 128
-0.999545, 171, 1, 186, 128
-0.999546, 237, 375, 252, 390
-0.999547, 101, 297, 116, 312
-0.999547, 149, 289, 164, 416
-0.999548, 165, 283, 180, 298
-0.999549, 205, 267, 220, 282
-0.999551, 127, 1, 142, 128
-0.999552, 77, 273, 92, 400
-0.999553, 213, 257, 228, 384
-0.999554, 203, 377, 218, 392
-0.999556, 163, 289, 178, 416
-0.999557, 241, 1, 256, 128
-0.999558, 175, 289, 190, 304
-0.99956, 115, 1, 130, 128
-0.999561, 209, 297, 334, 328
-0.999563, 97, 169, 224, 200
-0.999564, 81, 209, 96, 336
-0.999569, 159, 241, 174, 368
-0.999572, 53, 257, 84, 500
-0.999575, 153, 1, 168, 128
-0.999575, 105, 291, 120, 306
-0.999576, 151, 225, 166, 352
-0.999577, 205, 369, 220, 496
-0.999584, 71, 257, 86, 384
-0.999585, 111, 287, 126, 302
-0.999587, 169, 225, 200, 288
-0.999589, 175, 305, 190, 432
-0.999589, 213, 113, 244, 176
-0.99959, 155, 289, 170, 416
-0.999592, 89, 305, 104, 432
-0.999593, 243, 379, 258, 394
-0.999594, 1, 221, 128, 252
-0.999596, 141, 1, 156, 128
-0.999597, 97, 81, 224, 208
-0.999597, 1, 129, 128, 160
-0.999603, 1, 469, 128, 500
-0.999608, 183, 289, 198, 416
-0.999609, 107, 1, 122, 128
-0.99961, 147, 337, 162, 464
-0.99961, 89, 209, 104, 336
-0.999611, 111, 257, 126, 384
-0.999614, 1, 45, 128, 76
-0.999614, 123, 257, 138, 384
-0.999618, 147, 1, 162, 128
-0.99962, 137, 289, 152, 416
-0.999635, 319, 257, 334, 384
-0.999646, 169, 369, 200, 496
-0.999647, 197, 353, 212, 480
-0.999648, 169, 241, 184, 368
-0.999651, 203, 321, 218, 448
-0.999653, 313, 225, 328, 352
-0.999653, 101, 1, 116, 128
-0.999656, 45, 225, 60, 352
-0.999658, 95, 337, 110, 464
-0.999667, 115, 209, 130, 336
-0.999671, 161, 153, 288, 184
-0.999673, 195, 289, 210, 416
-0.999674, 1, 445, 128, 476
-0.999682, 127, 209, 142, 336
-0.999682, 57, 241, 72, 368
-0.999683, 209, 113, 334, 144
-0.999684, 117, 257, 132, 384
-0.999685, 149, 353, 180, 416
-0.999686, 17, 397, 144, 428
-0.999687, 175, 225, 190, 352
-0.999689, 217, 305, 232, 432
-0.999689, 123, 305, 138, 432
-0.999698, 65, 117, 192, 148
-0.999699, 155, 353, 170, 480
-0.9997, 27, 1, 42, 128
-0.9997, 319, 209, 334, 336
-0.999707, 135, 209, 150, 336
-0.999707, 37, 225, 52, 352
-0.999715, 143, 289, 158, 416
-0.999716, 129, 65, 256, 96
-0.999718, 51, 241, 66, 368
-0.999721, 189, 289, 204, 416
-0.999722, 177, 169, 304, 200
-0.999722, 95, 1, 110, 128
-0.999724, 9, 241, 24, 368
-0.999725, 161, 337, 176, 464
-0.999729, 121, 209, 136, 336
-0.99973, 257, 57, 288, 120
-0.999731, 129, 201, 256, 232
-0.999734, 145, 225, 160, 352
-0.999736, 263, 1, 278, 128
-0.999737, 201, 241, 216, 368
-0.999738, 185, 337, 200, 464
-0.99974, 103, 129, 118, 256
-0.999748, 289, 1, 304, 128
-0.999749, 83, 305, 98, 432
-0.999751, 207, 241, 222, 368
-0.999752, 103, 177, 118, 304
-0.999753, 209, 221, 334, 252
-0.999757, 277, 1, 292, 128
-0.999759, 97, 161, 112, 288
-0.999759, 9, 1, 40, 64
-0.999763, 81, 157, 208, 188
-0.999766, 307, 209, 322, 336
-0.999776, 109, 209, 124, 336
-0.999776, 31, 241, 46, 368
-0.999776, 185, 225, 200, 352
-0.999777, 283, 1, 298, 128
-0.999779, 65, 453, 192, 484
-0.999782, 191, 225, 206, 352
-0.999787, 75, 209, 90, 336
-0.999791, 209, 305, 224, 432
-0.999793, 241, 145, 272, 208
-0.999793, 235, 321, 250, 448
-0.999796, 17, 241, 32, 368
-0.999796, 45, 273, 60, 400
-0.999796, 243, 337, 258, 464
-0.999803, 167, 337, 182, 464
-0.999804, 33, 433, 160, 464
-0.999805, 213, 209, 228, 336
-0.999806, 175, 369, 190, 496
-0.999811, 65, 241, 80, 368
-0.999814, 193, 89, 320, 120
-0.999815, 271, 1, 286, 128
-0.999816, 23, 241, 38, 368
-0.999816, 191, 353, 206, 480
-0.999817, 145, 189, 272, 220
-0.999817, 307, 257, 322, 384
-0.999817, 17, 457, 144, 488
-0.999817, 223, 289, 238, 416
-0.999818, 37, 273, 52, 400
-0.999823, 3, 241, 18, 368
-0.999825, 65, 289, 80, 416
-0.999826, 21, 1, 36, 128
-0.999827, 97, 437, 224, 468
-0.999827, 295, 1, 310, 128
-0.99983, 67, 1, 82, 128
-0.999833, 209, 461, 334, 492
-0.999833, 197, 161, 228, 416
-0.999833, 177, 49, 240, 176
-0.999838, 313, 177, 328, 304
-0.999839, 143, 145, 158, 272
-0.999849, 81, 181, 208, 212
-0.99985, 217, 257, 280, 384
-0.99985, 173, 129, 204, 384
-0.999853, 221, 49, 252, 176
-0.999868, 65, 465, 192, 496
-0.999874, 69, 9, 100, 72
-0.999881, 145, 453, 272, 484
-0.999896, 101, 185, 132, 248
-0.999901, 153, 129, 184, 384
-0.99992, 137, 425, 200, 488
-0.999924, 25, 169, 88, 232
-0.999927, 49, 33, 112, 96
-0.999927, 209, 209, 334, 240
-0.999934, 209, 17, 334, 48
-0.999939, 185, 161, 216, 416
-0.999941, 209, 101, 334, 132
-0.999945, 81, 45, 208, 76
-0.999948, 57, 129, 88, 384
-0.999951, 193, 449, 320, 480
-0.99996, 73, 417, 104, 480
-0.999963, 21, 1, 52, 64
-0.999966, 49, 213, 176, 244
-0.999975, 181, 313, 212, 376
-0.999976, 33, 185, 160, 216
-1, 53, 233, 84, 296
-1.00001, 265, 129, 328, 192
-1.00001, 209, 41, 334, 72
-1.00002, 165, 337, 196, 400
-1.00003, 65, 1, 96, 128
-1.00004, 129, 53, 256, 84
-1.00004, 209, 233, 334, 264
-1.00005, 33, 105, 288, 168
-1.00005, 153, 193, 184, 320
-1.00005, 305, 225, 334, 480
-1.00006, 193, 129, 224, 192
-1.00007, 65, 73, 320, 136
-1.0001, 113, 469, 240, 500
-1.0001, 133, 121, 164, 184
-1.00011, 1, 153, 64, 216
-1.00011, 193, 433, 256, 496
-1.00011, 101, 129, 132, 384
-1.00011, 33, 153, 288, 216
-1.00013, 241, 129, 304, 256
-1.00013, 41, 137, 72, 200
-1.00014, 33, 177, 288, 240
-1.00015, 113, 145, 240, 176
-1.00016, 161, 465, 288, 496
-1.00017, 193, 181, 320, 212
-1.00018, 5, 265, 36, 328
-1.00019, 45, 161, 76, 416
-1.00019, 65, 197, 192, 228
-1.00019, 145, 441, 272, 472
-1.00021, 113, 109, 240, 140
-1.00021, 1, 225, 32, 480
-1.00023, 129, 77, 256, 108
-1.00023, 1, 117, 128, 148
-1.00024, 33, 49, 288, 112
-1.00025, 145, 217, 272, 248
-1.00025, 137, 129, 168, 384
-1.00025, 33, 1, 64, 128
-1.00027, 1, 217, 334, 280
-1.00029, 41, 97, 104, 224
-1.00031, 41, 289, 72, 416
-1.00033, 225, 225, 256, 480
-1.00035, 237, 65, 268, 192
-1.00037, 17, 49, 144, 112
-1.00037, 69, 129, 100, 384
-1.00038, 73, 1, 104, 256
-1.00038, 257, 1, 288, 256
-1.00038, 249, 1, 312, 256
-1.00039, 269, 1, 300, 256
-1.00039, 301, 1, 332, 256
-1.0004, 281, 1, 312, 256
-1.0004, 17, 197, 144, 228
-1.00041, 1, 209, 128, 240
-1.00041, 1, 57, 128, 88
-1.00043, 305, 297, 334, 360
-1.00044, 1, 33, 334, 96
-1.00046, 193, 113, 224, 240
-1.0005, 213, 257, 244, 384
-1.0005, 137, 177, 168, 304
-1.0005, 77, 97, 108, 224
-1.00052, 81, 61, 208, 92
-1.00052, 77, 1, 108, 128
-1.00053, 125, 129, 156, 384
-1.00053, 21, 97, 52, 352
-1.00056, 49, 1, 112, 256
-1.00057, 241, 257, 272, 500
-1.00057, 61, 1, 92, 256
-1.00059, 305, 129, 334, 384
-1.00059, 33, 105, 160, 136
-1.0006, 233, 65, 264, 320
-1.00062, 289, 129, 320, 384
-1.00062, 293, 257, 324, 500
-1.00064, 45, 1, 76, 256
-1.00065, 57, 201, 120, 264
-1.00066, 273, 385, 334, 448
-1.00066, 213, 33, 244, 288
-1.00068, 33, 97, 64, 352
-1.00074, 113, 129, 144, 384
-1.00075, 1, 401, 334, 464
-1.00075, 273, 65, 334, 128
-1.00076, 245, 1, 276, 256
-1.00077, 33, 369, 96, 496
-1.00078, 185, 65, 216, 320
-1.00079, 273, 233, 334, 296
-1.00084, 9, 97, 40, 352
-1.00084, 201, 65, 232, 320
-1.00087, 9, 1, 40, 256
-1.00089, 9, 1, 40, 128
-1.0009, 221, 129, 252, 384
-1.0009, 273, 369, 334, 496
-1.00091, 241, 129, 272, 256
-1.00091, 265, 353, 328, 416
-1.00092, 185, 209, 248, 272
-1.00094, 169, 425, 232, 488
-1.00095, 77, 353, 108, 480
-1.00095, 245, 97, 276, 352
-1.00096, 305, 177, 334, 304
-1.00096, 1, 33, 64, 96
-1.00099, 129, 185, 192, 248
-1.00102, 93, 1, 124, 256
-1.00103, 65, 81, 128, 208
-1.00104, 49, 49, 176, 176
-1.00106, 33, 193, 64, 320
-1.00106, 1, 425, 334, 488
-1.00107, 33, 377, 96, 440
-1.00107, 277, 97, 308, 352
-1.00108, 209, 161, 240, 416
-1.00109, 257, 97, 288, 352
-1.0011, 33, 321, 96, 384
-1.00111, 169, 1, 200, 256
-1.00112, 133, 33, 164, 288
-1.00112, 9, 193, 40, 320
-1.00113, 221, 209, 252, 336
-1.00113, 293, 257, 324, 384
-1.00113, 197, 65, 228, 192
-1.00114, 273, 1, 334, 256
-1.00115, 105, 33, 136, 288
-1.00116, 153, 49, 216, 176
-1.00117, 1, 113, 334, 176
-1.00119, 149, 1, 180, 256
-1.00119, 21, 193, 52, 320
-1.0012, 277, 225, 308, 480
-1.00121, 21, 1, 52, 256
-1.00127, 33, 1, 64, 256
-1.00128, 253, 193, 284, 448
-1.00133, 265, 129, 328, 384
-1.00135, 265, 225, 296, 480
-1.00137, 81, 57, 208, 120
-1.0014, 5, 289, 36, 416
-1.0014, 117, 33, 148, 288
-1.00153, 49, 81, 176, 144
-1.00153, 153, 65, 216, 320
-1.00157, 1, 161, 334, 224
-1.00161, 273, 145, 334, 272
-1.00163, 209, 65, 272, 320
-1.00169, 1, 185, 334, 248
-1.00169, 105, 97, 168, 352
-1.0017, 57, 305, 88, 432
-1.00184, 137, 129, 168, 256
-1.00186, 253, 65, 284, 192
-1.00189, 105, 145, 136, 272
-1.00191, 293, 209, 324, 336
-1.00196, 217, 113, 248, 240
-1.00199, 273, 225, 334, 480
-1.002, 65, 129, 96, 256
-1.00204, 269, 49, 300, 176
-1.00206, 1, 57, 334, 120
-1.00221, 229, 113, 260, 240
-1.00224, 257, 113, 288, 240
-1.00227, 105, 81, 168, 208
-1.0023, 1, 81, 128, 144
-1.00231, 205, 113, 236, 240
-1.0024, 305, 369, 334, 496
-1.00242, 305, 1, 334, 128
-1.00255, 1, 89, 334, 152
-1.00265, 117, 161, 148, 288
-1.00272, 65, 353, 96, 480
-1.00274, 185, 49, 216, 176
-1.00276, 1, 337, 64, 464
-1.00293, 25, 1, 88, 256
-1.00301, 261, 337, 292, 464
-1.00319, 145, 145, 208, 272
-1.00345, 185, 177, 216, 304
-1.00349, 13, 49, 44, 176
-1.0035, 33, 369, 64, 496
-1.00355, 289, 337, 320, 464
-1.00357, 53, 113, 84, 240
-1.00357, 157, 145, 188, 272
-1.00369, 113, 97, 144, 224
-1.00369, 293, 161, 324, 288
-1.00376, 241, 177, 304, 304
-1.00381, 277, 337, 308, 464
-1.00391, 185, 33, 248, 288
-1.00393, 53, 353, 84, 480
-1.00396, 281, 241, 312, 368
-1.00403, 97, 81, 128, 208
-1.00406, 201, 161, 232, 288
-1.00409, 173, 161, 204, 288
-1.00418, 265, 321, 328, 448
-1.00424, 305, 65, 334, 192
-1.00428, 293, 49, 324, 176
-1.00432, 89, 1, 152, 256
-1.00433, 293, 113, 324, 240
-1.00438, 145, 97, 208, 224
-1.00441, 265, 97, 328, 224
-1.00443, 241, 97, 304, 352
-1.00452, 1, 1, 64, 256
-1.00558, 17, 97, 80, 224
-1.0058, 241, 289, 304, 416
-1.00595, 129, 33, 192, 288
-1.00614, 1, 49, 64, 176
-1.00648, 249, 225, 312, 480
-1.00652, 249, 241, 312, 368
-1.00733, 25, 49, 88, 176
-1.00899, 129, 49, 192, 176
-1.0093, 1, 145, 64, 272
