1963
-0.566947, 1, 97, 500, 352
-0.621816, 1, 1, 500, 256
-0.637723, 1, 1, 500, 375
-0.665149, 257, 1, 500, 375
-0.680479, 129, 1, 384, 375
-0.721213, 129, 129, 384, 375
-0.73175, 1, 1, 256, 375
-0.799229, 257, 65, 500, 320
-0.833945, 1, 97, 256, 352
-0.846996, 97, 33, 352, 288
-0.89982, 193, 129, 320, 375
-0.902198, 97, 129, 224, 375
-0.904289, 241, 129, 368, 375
-0.907863, 1, 161, 500, 288
-0.909725, 97, 161, 352, 288
-0.912757, 1, 1, 128, 375
-0.915252, 161, 1, 288, 375
-0.915727, 257, 1, 384, 375
-0.918973, 113, 1, 240, 375
-0.919829, 1, 97, 128, 352
-0.924333, 337, 97, 464, 352
-0.924496, 145, 129, 272, 375
-0.924858, 257, 33, 384, 288
-0.925555, 1, 209, 500, 336
-0.926358, 49, 97, 176, 352
-0.92698, 177, 33, 304, 288
-0.927522, 33, 209, 288, 336
-0.932224, 289, 129, 416, 375
-0.9324, 193, 161, 448, 288
-0.935952, 129, 33, 256, 288
-0.936383, 225, 161, 352, 288
-0.937206, 305, 1, 432, 375
-0.937507, 369, 1, 496, 375
-0.938029, 209, 1, 336, 375
-0.938386, 49, 1, 176, 375
-0.938459, 97, 177, 160, 304
-0.938996, 81, 177, 208, 304
-0.9396, 1, 1, 128, 256
-0.941013, 233, 145, 296, 272
-0.94444, 241, 153, 304, 216
-0.944577, 1, 113, 500, 240
-0.945683, 369, 1, 496, 256
-0.945786, 145, 177, 208, 240
-0.945828, 257, 161, 320, 288
-0.946411, 145, 161, 208, 288
-0.947319, 129, 209, 384, 336
-0.949688, 33, 161, 160, 288
-0.950085, 121, 177, 184, 304
-0.950657, 1, 161, 256, 288
-0.951006, 177, 177, 304, 304
-0.951507, 1, 49, 500, 176
-0.951591, 225, 225, 480, 352
-0.952337, 129, 201, 192, 264
-0.952943, 97, 113, 352, 240
-0.953174, 169, 185, 232, 248
-0.954646, 65, 161, 128, 288
-0.955907, 257, 113, 500, 240
-0.956018, 281, 177, 344, 304
-0.956118, 129, 145, 256, 272
-0.956536, 1, 1, 500, 128
-0.956547, 273, 161, 400, 288
-0.956596, 273, 209, 400, 336
-0.957386, 321, 1, 448, 256
-0.957982, 233, 177, 296, 240
-0.958224, 17, 225, 144, 352
-0.959269, 81, 1, 208, 256
-0.959917, 265, 177, 328, 240
-0.959997, 169, 161, 232, 288
-0.960146, 129, 193, 256, 320
-0.96042, 177, 129, 304, 256
-0.960633, 105, 185, 168, 248
-0.961551, 177, 217, 240, 280
-0.961579, 257, 113, 320, 240
-0.961677, 105, 209, 168, 272
-0.961683, 153, 209, 216, 272
-0.962286, 273, 201, 336, 264
-0.962308, 65, 225, 128, 288
-0.96274, 33, 169, 96, 232
-0.963139, 89, 225, 152, 352
-0.963324, 65, 225, 192, 352
-0.963622, 25, 161, 88, 288
-0.964161, 57, 209, 120, 336
-0.964341, 265, 153, 328, 216
-0.964597, 1, 1, 256, 256
-0.965615, 289, 129, 352, 256
-0.966065, 169, 209, 232, 336
-0.966475, 321, 193, 448, 320
-0.966669, 65, 169, 128, 232
-0.96693, 209, 145, 272, 272
-0.966957, 201, 193, 264, 256
-0.967303, 169, 169, 200, 232
-0.967394, 113, 185, 240, 248
-0.967625, 209, 161, 272, 224
-0.968307, 253, 153, 284, 216
-0.969275, 257, 113, 384, 240
-0.969911, 225, 209, 352, 336
-0.970863, 89, 129, 152, 256
-0.970879, 169, 161, 232, 224
-0.971541, 125, 185, 156, 248
-0.97157, 121, 129, 184, 256
-0.971734, 297, 225, 360, 288
-0.971822, 209, 161, 336, 224
-0.971836, 321, 161, 384, 288
-0.971924, 177, 193, 304, 256
-0.972077, 273, 225, 336, 288
-0.97219, 129, 177, 160, 304
-0.972358, 369, 241, 496, 368
-0.972371, 97, 209, 224, 272
-0.972672, 1, 113, 128, 240
-0.972697, 273, 161, 304, 224
-0.972816, 193, 193, 256, 320
-0.972859, 281, 161, 312, 288
-0.973003, 181, 177, 212, 240
-0.97324, 89, 233, 152, 296
-0.973415, 25, 113, 88, 240
-0.973716, 257, 209, 320, 336
-0.974105, 9, 169, 72, 232
-0.974135, 81, 193, 144, 256
-0.974221, 1, 97, 256, 224
-0.974247, 33, 233, 96, 296
-0.974672, 121, 161, 184, 224
-0.974705, 49, 193, 112, 256
-0.975215, 225, 185, 352, 248
-0.975561, 321, 201, 384, 264
-0.975586, 105, 209, 136, 272
-0.97568, 49, 225, 176, 288
-0.975749, 289, 169, 352, 232
-0.975867, 145, 209, 208, 336
-0.975886, 249, 201, 312, 264
-0.975911, 205, 193, 236, 256
-0.976225, 193, 65, 448, 192
-0.976365, 297, 201, 360, 264
-0.97638, 313, 225, 376, 352
-0.9764, 285, 193, 316, 256
-0.976446, 137, 201, 168, 264
-0.976732, 33, 225, 96, 352
-0.977043, 17, 169, 144, 232
-0.977054, 369, 145, 496, 272
-0.977063, 113, 241, 240, 368
-0.977193, 253, 129, 284, 256
-0.977544, 65, 169, 96, 232
-0.977761, 193, 185, 224, 248
-0.977864, 33, 145, 96, 208
-0.977917, 177, 225, 304, 352
-0.97803, 321, 145, 448, 272
-0.978059, 285, 169, 316, 232
-0.978152, 49, 97, 176, 224
-0.978169, 393, 225, 456, 352
-0.978259, 269, 161, 300, 288
-0.978308, 89, 161, 152, 224
-0.978346, 149, 201, 180, 264
-0.978449, 201, 217, 264, 280
-0.978522, 433, 177, 496, 304
-0.97855, 225, 201, 288, 264
-0.978646, 101, 161, 132, 288
-0.978839, 149, 177, 180, 240
-0.978898, 117, 161, 148, 288
-0.978995, 185, 113, 248, 240
-0.979122, 25, 193, 88, 256
-0.979123, 33, 193, 160, 256
-0.979189, 293, 161, 324, 288
-0.979274, 417, 225, 480, 288
-0.979471, 113, 225, 176, 352
-0.979501, 281, 225, 344, 352
-0.979569, 145, 113, 208, 240
-0.979705, 129, 97, 256, 224
-0.97971, 289, 193, 416, 256
-0.979732, 233, 193, 296, 320
-0.979755, 161, 153, 288, 216
-0.979779, 1, 145, 64, 272
-0.979846, 161, 201, 192, 264
-0.980002, 273, 193, 304, 256
-0.980075, 1, 97, 64, 224
-0.980104, 145, 193, 176, 320
-0.980481, 265, 129, 328, 375
-0.980612, 261, 177, 292, 240
-0.98064, 185, 217, 216, 280
-0.980684, 57, 113, 120, 240
-0.980709, 153, 233, 216, 296
-0.980845, 361, 185, 424, 248
-0.980877, 93, 225, 124, 288
-0.980989, 257, 225, 384, 288
-0.981055, 233, 129, 296, 375
-0.981057, 97, 161, 224, 224
-0.981246, 369, 209, 432, 336
-0.981336, 81, 161, 112, 288
-0.981403, 161, 217, 288, 280
-0.981439, 113, 185, 144, 248
-0.981494, 293, 217, 324, 280
-0.981894, 125, 225, 156, 288
-0.982066, 249, 225, 312, 288
-0.982103, 105, 209, 136, 336
-0.982118, 61, 161, 92, 288
-0.982331, 257, 129, 320, 192
-0.982351, 269, 113, 300, 240
-0.982389, 281, 217, 312, 280
-0.982396, 25, 49, 88, 176
-0.982522, 145, 153, 208, 216
-0.98255, 45, 169, 76, 232
-0.982573, 321, 225, 384, 288
-0.982606, 201, 137, 264, 200
-0.982628, 105, 129, 168, 375
-0.982681, 309, 217, 340, 280
-0.982699, 297, 193, 328, 256
-0.982714, 289, 145, 352, 208
-0.982744, 1, 1, 64, 128
-0.98275, 1, 17, 256, 144
-0.982876, 385, 201, 448, 264
-0.982974, 377, 313, 440, 375
-0.982991, 185, 161, 216, 288
-0.983082, 257, 161, 384, 224
-0.983145, 113, 233, 176, 296
-0.983186, 289, 65, 352, 320
-0.983262, 1, 209, 64, 272
-0.983304, 265, 65, 328, 192
-0.983546, 197, 209, 228, 336
-0.983651, 233, 97, 296, 224
-0.983737, 321, 241, 448, 368
-0.983741, 9, 145, 72, 208
-0.983794, 165, 177, 196, 304
-0.983836, 297, 81, 360, 208
-0.983958, 345, 313, 408, 375
-0.984013, 313, 169, 376, 232
-0.984208, 377, 225, 440, 288
-0.984239, 217, 193, 248, 256
-0.984304, 173, 209, 204, 272
-0.984327, 1, 225, 128, 288
-0.984363, 65, 145, 128, 208
-0.984414, 209, 217, 336, 280
-0.984428, 9, 241, 72, 368
-0.98458, 297, 313, 360, 375
-0.984694, 17, 9, 80, 72
-0.984813, 233, 129, 296, 192
-0.984842, 241, 177, 272, 240
-0.984913, 337, 193, 464, 256
-0.984974, 73, 209, 104, 272
-0.98498, 257, 65, 384, 192
-0.985019, 417, 281, 480, 344
-0.985074, 93, 225, 124, 352
-0.985137, 33, 249, 160, 312
-0.985216, 353, 161, 416, 288
-0.985244, 401, 313, 464, 375
-0.985325, 177, 81, 304, 208
-0.985337, 53, 233, 84, 296
-0.985554, 137, 177, 168, 240
-0.985559, 409, 201, 472, 264
-0.985569, 337, 177, 400, 240
-0.985602, 369, 193, 496, 320
-0.985699, 273, 137, 304, 200
-0.985751, 337, 217, 464, 280
-0.985901, 117, 209, 148, 336
-0.985956, 345, 209, 408, 336
-0.985983, 73, 129, 136, 375
-0.986021, 145, 97, 208, 352
-0.986026, 1, 49, 64, 176
-0.98605, 65, 233, 96, 296
-0.986073, 309, 193, 340, 256
-0.986096, 201, 217, 232, 280
-0.986189, 13, 1, 44, 128
-0.98619, 409, 249, 472, 312
-0.986313, 281, 121, 344, 184
-0.986324, 33, 169, 64, 232
-0.986325, 97, 233, 224, 296
-0.986333, 9, 233, 72, 296
-0.986347, 185, 209, 216, 336
-0.986351, 265, 305, 328, 368
-0.9864, 177, 241, 240, 304
-0.986404, 57, 249, 120, 312
-0.986409, 433, 225, 496, 352
-0.98646, 209, 97, 272, 224
-0.986634, 281, 209, 312, 336
-0.986666, 241, 153, 272, 216
-0.986676, 141, 145, 172, 272
-0.986686, 257, 137, 384, 200
-0.986754, 337, 97, 464, 224
-0.986779, 305, 193, 336, 320
-0.986807, 241, 145, 272, 272
-0.986841, 209, 129, 272, 375
-0.986875, 401, 177, 464, 304
-0.986899, 17, 1, 144, 128
-0.986903, 293, 209, 324, 336
-0.987166, 97, 33, 352, 160
-0.987235, 349, 193, 380, 256
-0.987241, 341, 177, 372, 304
-0.98727, 213, 177, 244, 304
-0.987322, 313, 289, 376, 352
-0.987393, 261, 201, 292, 264
-0.987439, 1, 49, 64, 112
-0.987457, 241, 157, 304, 188
-0.987589, 85, 193, 116, 256
-0.987613, 105, 233, 136, 296
-0.987655, 73, 241, 104, 368
-0.98768, 101, 185, 132, 248
-0.987696, 25, 73, 88, 136
-0.987708, 433, 257, 496, 320
-0.987767, 345, 209, 408, 272
-0.987783, 465, 161, 496, 288
-0.987878, 385, 257, 448, 320
-0.987942, 257, 177, 288, 304
-0.987973, 257, 173, 320, 204
-0.988057, 297, 169, 328, 232
-0.988058, 1, 49, 128, 176
-0.988107, 193, 161, 224, 224
-0.98811, 1, 105, 64, 168
-0.988198, 377, 145, 440, 272
-0.988207, 425, 1, 488, 128
-0.988295, 285, 113, 316, 240
-0.988329, 53, 193, 84, 256
-0.988379, 321, 313, 384, 375
-0.988407, 305, 145, 336, 272
-0.988407, 337, 273, 400, 336
-0.988415, 1, 193, 64, 320
-0.988445, 65, 193, 320, 256
-0.988494, 161, 129, 288, 192
-0.988543, 265, 281, 328, 344
-0.988549, 305, 89, 368, 152
-0.988568, 377, 281, 440, 344
-0.988598, 65, 229, 128, 260
-0.988601, 405, 217, 436, 280
-0.988622, 285, 145, 316, 208
-0.988639, 145, 257, 208, 320
-0.988639, 33, 145, 160, 208
-0.988685, 25, 1, 88, 128
-0.988722, 169, 189, 232, 220
-0.988735, 137, 177, 200, 208
-0.988768, 257, 129, 288, 192
-0.988783, 185, 97, 248, 352
-0.988851, 113, 197, 176, 228
-0.988879, 325, 193, 356, 320
-0.988954, 25, 33, 88, 96
-0.989005, 61, 209, 92, 336
-0.989023, 225, 169, 256, 232
-0.989065, 433, 305, 496, 368
-0.989179, 409, 177, 472, 240
-0.989216, 137, 205, 200, 236
-0.98925, 385, 177, 448, 240
-0.989252, 353, 313, 480, 375
-0.989324, 393, 185, 424, 248
-0.989415, 333, 201, 364, 264
-0.989434, 229, 193, 260, 256
-0.989439, 233, 185, 296, 216
-0.989631, 45, 145, 76, 208
-0.989665, 433, 201, 496, 264
-0.989667, 353, 241, 480, 304
-0.989759, 213, 217, 244, 280
-0.98977, 49, 145, 80, 272
-0.989772, 77, 169, 108, 232
-0.989834, 41, 225, 72, 288
-0.989834, 97, 213, 160, 244
-0.989859, 25, 97, 88, 352
-0.989901, 197, 145, 228, 272
-0.989936, 305, 1, 368, 128
-0.989971, 273, 225, 336, 256
-0.989995, 41, 233, 104, 264
-0.990017, 297, 265, 360, 328
-0.990024, 185, 289, 248, 352
-0.990049, 97, 313, 160, 375
-0.990054, 265, 185, 328, 216
-0.990066, 265, 225, 296, 288
-0.990111, 105, 229, 168, 260
-0.990117, 337, 249, 400, 312
-0.990128, 21, 169, 52, 232
-0.990186, 61, 145, 92, 208
-0.990239, 113, 161, 144, 224
-0.990254, 209, 177, 272, 208
-0.9903, 321, 217, 352, 280
-0.990344, 201, 241, 264, 368
-0.990471, 229, 161, 260, 288
-0.990473, 241, 33, 304, 288
-0.990499, 161, 1, 224, 375
-0.990513, 177, 265, 240, 328
-0.990535, 469, 209, 500, 336
-0.990542, 177, 217, 240, 248
-0.990572, 5, 113, 36, 240
-0.99058, 25, 173, 88, 204
-0.990589, 265, 161, 328, 192
-0.990594, 137, 225, 168, 288
-0.99062, 1, 305, 64, 368
-0.990623, 305, 153, 432, 216
-0.990624, 137, 305, 200, 368
-0.990625, 1, 297, 128, 360
-0.990637, 161, 185, 416, 248
-0.990662, 97, 185, 160, 216
-0.990667, 369, 153, 496, 216
-0.990694, 161, 177, 224, 208
-0.990713, 65, 297, 128, 360
-0.990718, 177, 137, 240, 200
-0.990731, 113, 1, 176, 375
-0.990736, 425, 81, 488, 208
-0.990759, 241, 313, 368, 375
-0.990764, 297, 173, 360, 204
-0.990766, 9, 1, 72, 375
-0.990825, 281, 1, 344, 375
-0.990827, 129, 161, 384, 224
-0.990828, 25, 97, 88, 160
-0.990846, 297, 225, 360, 256
-0.990942, 321, 193, 352, 256
-0.990989, 33, 1, 64, 128
-0.990999, 153, 217, 216, 248
-0.991002, 81, 233, 112, 296
-0.991039, 209, 241, 336, 304
-0.991053, 145, 241, 272, 304
-0.991055, 273, 213, 336, 244
-0.991058, 73, 217, 136, 248
-0.991069, 233, 173, 296, 204
-0.991075, 1, 177, 64, 208
-0.991075, 65, 241, 128, 272
-0.991077, 225, 197, 288, 228
-0.991081, 65, 113, 96, 240
-0.991081, 373, 313, 404, 375
-0.991089, 193, 201, 256, 232
-0.991105, 313, 129, 376, 375
-0.991109, 425, 129, 488, 256
-0.991131, 25, 305, 88, 368
-0.99114, 153, 145, 184, 272
-0.991148, 129, 129, 160, 256
-0.991224, 145, 189, 208, 220
-0.991228, 81, 173, 144, 204
-0.991267, 329, 225, 392, 256
-0.991278, 209, 213, 272, 244
-0.991283, 169, 201, 232, 232
-0.991319, 329, 97, 392, 224
-0.991356, 89, 241, 152, 272
-0.991359, 1, 73, 64, 136
-0.991372, 377, 229, 440, 260
-0.991374, 201, 313, 264, 375
-0.991421, 89, 169, 120, 232
-0.991427, 273, 197, 336, 228
-0.991429, 249, 225, 312, 256
-0.991452, 217, 241, 280, 304
-0.991457, 49, 173, 112, 204
-0.991458, 433, 217, 464, 280
-0.99146, 17, 237, 80, 268
-0.991472, 41, 245, 104, 276
-0.991514, 289, 185, 352, 216
-0.991551, 289, 313, 416, 375
-0.99161, 177, 313, 240, 375
-0.991613, 105, 257, 168, 320
-0.991617, 181, 153, 212, 216
-0.991664, 217, 161, 280, 192
-0.991672, 341, 169, 372, 232
-0.991673, 129, 217, 192, 248
-0.991683, 257, 17, 500, 144
-0.991685, 289, 161, 352, 192
-0.991686, 73, 197, 136, 228
-0.991687, 161, 229, 224, 260
-0.991691, 193, 189, 256, 220
-0.991713, 41, 221, 104, 252
-0.991724, 241, 313, 304, 375
-0.991728, 249, 205, 312, 236
-0.991747, 41, 185, 104, 216
-0.991795, 73, 185, 136, 216
-0.991836, 117, 113, 148, 240
-0.991857, 121, 165, 184, 196
-0.99188, 313, 305, 376, 336
-0.991882, 133, 225, 164, 352
-0.991904, 273, 237, 336, 268
-0.991913, 97, 289, 160, 352
-0.991942, 353, 305, 416, 336
-0.99195, 385, 189, 448, 220
-0.991965, 401, 225, 464, 256
-0.991967, 17, 225, 80, 256
-0.991986, 353, 209, 384, 336
-0.992011, 185, 177, 248, 208
-0.992014, 297, 209, 360, 240
-0.992028, 145, 165, 208, 196
-0.992045, 361, 161, 424, 224
-0.992055, 305, 237, 368, 268
-0.992056, 113, 245, 176, 276
-0.992059, 137, 233, 200, 264
-0.992064, 265, 149, 328, 180
-0.992075, 377, 293, 440, 324
-0.992105, 417, 201, 448, 264
-0.992109, 81, 257, 208, 320
-0.992117, 1, 281, 64, 344
-0.992117, 185, 229, 248, 260
-0.992121, 33, 65, 64, 128
-0.992126, 9, 317, 72, 348
-0.992142, 177, 165, 240, 196
-0.992154, 33, 169, 288, 232
-0.992186, 101, 221, 132, 252
-0.99219, 121, 137, 184, 200
-0.99219, 273, 173, 304, 204
-0.992198, 369, 337, 432, 368
-0.9922, 241, 145, 304, 176
-0.992223, 1, 329, 64, 360
-0.992235, 145, 245, 208, 276
-0.992241, 361, 209, 424, 240
-0.992261, 433, 205, 496, 236
-0.992267, 337, 213, 400, 244
-0.992268, 385, 325, 448, 356
-0.992268, 65, 305, 192, 368
-0.992269, 1, 225, 256, 288
-0.992277, 209, 225, 240, 352
-0.992287, 281, 89, 344, 152
-0.992291, 337, 289, 464, 352
-0.992298, 165, 129, 196, 256
-0.992306, 81, 145, 112, 208
-0.99231, 281, 305, 344, 336
-0.992312, 1, 189, 64, 220
-0.99234, 277, 161, 308, 192
-0.992351, 257, 313, 320, 344
-0.992353, 125, 193, 156, 224
-0.992354, 17, 33, 80, 64
-0.99236, 249, 81, 280, 208
-0.992368, 361, 201, 392, 264
-0.992371, 49, 193, 80, 320
-0.992371, 269, 209, 300, 336
-0.992377, 225, 225, 288, 256
-0.992377, 401, 301, 464, 332
-0.992384, 297, 197, 360, 228
-0.992386, 101, 233, 132, 264
-0.99239, 165, 173, 196, 204
-0.992403, 385, 313, 448, 344
-0.992406, 289, 173, 320, 204
-0.992419, 305, 317, 368, 348
-0.992419, 149, 201, 180, 232
-0.992428, 85, 229, 116, 260
-0.992449, 1, 273, 128, 336
-0.992457, 213, 161, 244, 224
-0.992464, 153, 173, 184, 204
-0.992467, 409, 225, 440, 352
-0.99247, 297, 49, 360, 112
-0.992471, 257, 153, 288, 184
-0.992471, 249, 237, 312, 268
-0.992476, 249, 1, 312, 375
-0.992484, 89, 341, 152, 372
-0.992487, 185, 1, 248, 375
-0.992489, 361, 317, 424, 348
-0.992497, 329, 325, 392, 356
-0.9925, 353, 233, 416, 264
-0.9925, 289, 149, 352, 180
-0.992501, 209, 137, 336, 200
-0.992508, 193, 313, 320, 375
-0.992512, 189, 185, 220, 216
-0.992513, 217, 149, 280, 180
-0.992515, 281, 321, 344, 352
-0.992538, 205, 197, 236, 228
-0.992541, 433, 229, 496, 260
-0.992544, 393, 241, 456, 272
-0.992562, 321, 185, 384, 216
-0.992564, 425, 301, 488, 332
-0.992566, 145, 153, 176, 216
-0.992567, 433, 337, 496, 368
-0.992588, 173, 233, 204, 296
-0.992588, 9, 13, 72, 44
-0.99259, 1, 301, 64, 332
-0.992594, 201, 341, 264, 372
-0.992601, 185, 217, 216, 248
-0.992602, 169, 185, 200, 216
-0.992607, 89, 253, 152, 284
-0.992609, 353, 197, 416, 228
-0.992613, 425, 217, 488, 248
-0.992618, 273, 197, 304, 228
-0.99262, 57, 233, 88, 264
-0.99262, 345, 345, 408, 375
-0.99262, 337, 97, 400, 352
-0.992623, 9, 1, 72, 256
-0.992632, 117, 229, 148, 260
-0.992633, 161, 205, 192, 236
-0.99265, 49, 333, 112, 364
-0.992662, 113, 217, 144, 248
-0.99267, 137, 197, 168, 228
-0.992676, 433, 285, 496, 316
-0.992684, 253, 165, 284, 196
-0.992685, 393, 341, 456, 372
-0.992692, 353, 289, 416, 320
-0.992703, 389, 305, 420, 368
-0.992707, 33, 209, 96, 240
-0.992715, 73, 229, 104, 260
-0.992717, 285, 221, 316, 252
-0.992736, 417, 245, 480, 276
-0.992747, 137, 209, 168, 240
-0.992748, 1, 165, 64, 196
-0.992752, 193, 305, 256, 336
-0.992753, 285, 197, 316, 228
-0.992762, 345, 177, 408, 208
-0.992765, 89, 329, 152, 360
-0.992772, 25, 177, 56, 208
-0.992776, 293, 185, 324, 216
-0.992778, 409, 313, 472, 344
-0.992783, 273, 185, 304, 216
-0.992787, 457, 217, 488, 280
-0.992791, 9, 257, 72, 320
-0.992794, 425, 189, 488, 220
-0.992806, 113, 313, 240, 375
-0.99281, 25, 113, 88, 144
-0.992814, 253, 185, 284, 216
-0.992822, 161, 257, 224, 288
-0.992828, 177, 173, 208, 204
-0.99283, 425, 325, 488, 356
-0.992832, 297, 221, 328, 252
-0.992832, 25, 341, 88, 372
-0.992834, 45, 233, 76, 264
-0.992845, 313, 293, 376, 324
-0.992847, 233, 241, 296, 368
-0.992851, 321, 341, 384, 372
-0.992858, 401, 213, 464, 244
-0.992859, 409, 261, 472, 292
-0.992866, 33, 317, 96, 348
-0.99287, 289, 161, 320, 192
-0.992871, 401, 201, 464, 232
-0.992872, 273, 281, 400, 344
-0.992873, 401, 129, 464, 256
-0.992887, 221, 201, 252, 232
-0.992898, 9, 249, 72, 280
-0.992908, 57, 173, 88, 204
-0.992915, 321, 225, 352, 256
-0.992923, 9, 177, 40, 208
-0.992932, 273, 225, 304, 256
-0.992945, 433, 153, 496, 216
-0.992962, 45, 173, 76, 204
-0.992982, 333, 229, 364, 260
-0.992983, 205, 213, 236, 244
-0.992995, 17, 113, 48, 240
-0.992996, 129, 225, 160, 256
-0.992998, 113, 245, 144, 276
-0.993005, 149, 189, 180, 220
-0.993006, 137, 181, 168, 212
-0.993009, 165, 161, 196, 192
-0.993014, 273, 149, 304, 180
-0.99304, 81, 217, 112, 248
-0.993041, 113, 185, 240, 216
-0.993054, 113, 189, 144, 220
-0.99307, 273, 209, 304, 240
-0.993073, 377, 97, 440, 224
-0.993074, 201, 185, 232, 216
-0.993076, 257, 225, 288, 256
-0.993081, 121, 205, 152, 236
-0.993083, 161, 209, 416, 272
-0.993088, 285, 209, 316, 240
-0.993092, 69, 241, 100, 272
-0.993092, 193, 197, 224, 228
-0.993094, 161, 289, 224, 352
-0.993097, 77, 177, 108, 208
-0.993105, 305, 185, 336, 216
-0.993106, 309, 225, 340, 256
-0.993108, 245, 153, 276, 184
-0.993117, 125, 181, 156, 212
-0.993138, 213, 185, 244, 216
-0.993143, 241, 185, 272, 216
-0.993143, 409, 225, 440, 256
-0.993143, 261, 213, 292, 244
-0.993145, 153, 161, 184, 192
-0.993148, 149, 213, 180, 244
-0.99315, 345, 221, 376, 252
-0.993152, 385, 145, 448, 208
-0.993158, 377, 289, 408, 320
-0.993162, 33, 257, 96, 320
-0.993167, 377, 345, 408, 375
-0.993174, 57, 185, 88, 216
-0.993174, 33, 241, 64, 272
-0.993175, 101, 245, 132, 276
-0.99318, 49, 221, 80, 252
-0.993181, 109, 173, 140, 204
-0.993187, 173, 197, 204, 228
-0.993191, 193, 289, 320, 352
-0.993192, 101, 209, 132, 240
-0.993203, 305, 205, 336, 236
-0.99321, 241, 113, 368, 176
-0.993215, 217, 213, 248, 244
-0.993225, 233, 161, 264, 192
-0.99323, 197, 225, 228, 256
-0.99323, 141, 233, 172, 264
-0.993241, 313, 237, 344, 268
-0.993247, 365, 193, 396, 320
-0.99325, 101, 197, 132, 228
-0.993253, 365, 301, 396, 332
-0.993257, 81, 173, 208, 204
-0.993259, 137, 169, 168, 200
-0.993261, 197, 173, 228, 204
-0.993263, 425, 229, 456, 260
-0.993265, 29, 165, 60, 196
-0.993265, 101, 185, 132, 216
-0.993265, 233, 197, 264, 228
-0.993267, 313, 145, 376, 208
-0.99327, 265, 33, 328, 288
-0.993276, 321, 213, 352, 244
-0.993284, 57, 245, 88, 276
-0.993286, 37, 185, 68, 216
-0.993287, 273, 237, 304, 268
-0.993291, 69, 217, 100, 248
-0.993293, 149, 245, 180, 276
-0.993297, 257, 197, 288, 228
-0.993297, 25, 229, 56, 260
-0.9933, 285, 233, 316, 264
-0.993302, 469, 221, 500, 252
-0.993307, 89, 241, 120, 272
-0.993307, 113, 81, 176, 208
-0.993312, 329, 173, 360, 204
-0.993312, 381, 217, 412, 248
-0.993315, 225, 181, 256, 212
-0.993324, 17, 189, 48, 220
-0.993325, 305, 173, 336, 204
-0.993327, 161, 225, 192, 288
-0.993329, 377, 333, 408, 364
-0.993331, 237, 173, 268, 204
-0.993337, 301, 237, 332, 268
-0.993341, 33, 73, 64, 104
-0.993344, 393, 317, 424, 348
-0.993346, 149, 225, 180, 288
-0.993347, 97, 281, 224, 344
-0.99335, 9, 165, 40, 196
-0.993351, 389, 305, 420, 336
-0.993352, 97, 329, 128, 360
-0.993356, 173, 213, 204, 244
-0.993357, 345, 233, 376, 264
-0.993357, 421, 345, 452, 375
-0.993358, 397, 229, 428, 260
-0.993358, 301, 309, 332, 340
-0.99336, 397, 189, 428, 220
-0.993361, 361, 225, 392, 256
-0.993362, 161, 241, 192, 272
-0.993363, 317, 181, 348, 212
-0.993363, 345, 305, 376, 336
-0.993364, 393, 213, 424, 244
-0.993364, 173, 233, 204, 264
-0.993365, 1, 105, 128, 168
-0.993365, 413, 213, 444, 244
-0.993366, 425, 97, 488, 352
-0.993368, 13, 45, 44, 76
-0.993384, 377, 241, 408, 368
-0.993433, 29, 145, 60, 208
-0.993434, 25, 281, 88, 344
-0.993442, 433, 177, 464, 304
-0.993452, 245, 217, 276, 280
-0.993452, 337, 153, 400, 216
-0.993455, 425, 225, 456, 352
-0.993455, 249, 257, 312, 320
-0.993474, 33, 233, 160, 264
-0.993481, 13, 33, 44, 96
-0.993483, 305, 241, 432, 304
-0.993487, 37, 145, 68, 272
-0.993497, 381, 193, 412, 256
-0.9935, 17, 145, 48, 208
-0.993508, 353, 265, 480, 328
-0.993526, 289, 17, 416, 144
-0.993546, 85, 113, 116, 240
-0.993572, 349, 233, 380, 296
-0.993574, 5, 169, 36, 232
-0.993589, 305, 89, 432, 152
-0.993591, 325, 145, 356, 272
-0.993614, 145, 281, 272, 344
-0.993617, 421, 305, 452, 368
-0.993623, 209, 289, 272, 352
-0.993641, 225, 1, 288, 375
-0.993651, 321, 153, 352, 216
-0.993669, 241, 281, 304, 344
-0.993674, 97, 213, 224, 244
-0.99369, 301, 241, 332, 304
-0.993692, 377, 65, 440, 320
-0.993701, 465, 193, 496, 256
-0.993714, 125, 161, 156, 224
-0.993724, 257, 105, 320, 168
-0.993762, 1, 169, 500, 232
-0.993792, 425, 241, 456, 304
-0.993839, 1, 9, 128, 72
-0.99387, 25, 209, 56, 272
-0.993876, 425, 9, 488, 72
-0.993883, 191, 193, 206, 256
-0.993884, 13, 49, 44, 176
-0.993884, 457, 209, 488, 336
-0.993885, 193, 173, 320, 204
-0.993893, 97, 137, 224, 200
-0.993899, 257, 217, 500, 280
-0.993917, 279, 169, 294, 232
-0.99393, 361, 281, 392, 344
-0.993963, 33, 65, 64, 192
-0.993967, 369, 49, 496, 176
-0.993981, 209, 33, 336, 160
-0.993997, 229, 97, 260, 224
-0.994012, 217, 265, 280, 328
-0.994044, 445, 241, 476, 368
-0.994079, 161, 193, 288, 224
-0.994083, 181, 169, 196, 232
-0.994131, 321, 113, 448, 176
-0.994211, 241, 89, 368, 152
-0.994213, 161, 233, 416, 296
-0.994216, 361, 257, 424, 320
-0.994222, 369, 81, 496, 144
-0.994226, 425, 1, 488, 375
-0.99423, 369, 1, 496, 128
-0.994238, 257, 145, 500, 208
-0.994259, 265, 145, 280, 208
-0.994264, 453, 145, 484, 272
-0.994272, 121, 97, 184, 160
-0.99428, 1, 97, 64, 352
-0.994307, 287, 193, 302, 256
-0.994328, 401, 313, 432, 375
-0.994334, 105, 33, 168, 288
-0.994363, 33, 9, 64, 72
-0.994375, 115, 209, 130, 272
-0.994382, 25, 161, 56, 288
-0.994382, 41, 249, 72, 312
-0.994385, 21, 9, 52, 72
-0.994387, 305, 1, 368, 375
-0.994395, 113, 97, 240, 160
-0.994401, 295, 161, 310, 224
-0.994407, 341, 129, 372, 256
-0.994428, 13, 81, 44, 144
-0.99443, 425, 33, 488, 96
-0.994438, 437, 297, 468, 360
-0.994448, 17, 81, 144, 144
-0.994452, 441, 185, 472, 248
-0.994465, 197, 177, 212, 240
-0.994473, 141, 249, 172, 312
-0.994512, 49, 193, 176, 224
-0.994512, 225, 265, 352, 328
-0.994537, 209, 33, 272, 288
-0.994569, 73, 1, 136, 375
-0.994656, 1, 193, 500, 256
-0.994667, 401, 97, 464, 352
-0.994672, 1, 289, 32, 352
-0.99468, 193, 105, 320, 168
-0.994694, 361, 177, 392, 240
-0.994696, 1, 241, 32, 368
-0.994703, 461, 281, 492, 344
-0.994712, 49, 105, 176, 168
-0.99472, 25, 233, 56, 296
-0.994747, 129, 185, 144, 248
-0.994749, 309, 153, 340, 216
-0.994771, 137, 1, 200, 375
-0.994777, 257, 169, 500, 232
-0.994788, 113, 197, 240, 228
-0.994798, 105, 225, 120, 288
-0.994801, 257, 193, 500, 256
-0.994816, 185, 193, 200, 256
-0.99482, 209, 193, 224, 256
-0.994841, 305, 241, 336, 368
-0.994847, 289, 241, 320, 304
-0.99487, 289, 57, 416, 120
-0.994873, 469, 217, 500, 280
-0.994878, 369, 129, 496, 192
-0.994891, 49, 49, 176, 176
-0.994906, 397, 209, 428, 336
-0.994919, 225, 185, 352, 216
-0.994931, 353, 161, 384, 288
-0.994951, 279, 201, 294, 264
-0.99497, 229, 145, 260, 208
-0.994978, 225, 157, 352, 188
-0.995003, 369, 33, 496, 96
-0.995015, 143, 193, 158, 256
-0.995018, 289, 161, 304, 224
-0.995023, 175, 169, 190, 232
-0.995025, 101, 113, 132, 240
-0.995059, 219, 193, 234, 256
-0.995073, 137, 193, 152, 256
-0.995079, 353, 113, 416, 240
-0.995087, 253, 153, 268, 216
-0.995105, 185, 241, 216, 304
-0.995115, 297, 137, 328, 200
-0.99512, 177, 221, 304, 252
-0.995125, 81, 225, 208, 256
-0.995151, 21, 305, 52, 368
-0.995155, 445, 217, 476, 280
-0.995166, 33, 145, 288, 208
-0.995172, 273, 185, 400, 216
-0.995213, 393, 209, 424, 272
-0.995241, 41, 241, 72, 368
-0.995251, 301, 97, 332, 224
-0.995262, 17, 173, 144, 204
-0.995263, 209, 113, 272, 176
-0.995275, 9, 193, 40, 256
-0.995313, 41, 1, 104, 375
-0.995314, 65, 33, 128, 288
-0.995321, 361, 305, 392, 368
-0.995342, 151, 201, 166, 264
-0.995344, 289, 289, 352, 352
-0.995359, 17, 221, 144, 252
-0.995383, 1, 33, 128, 96
-0.995385, 313, 313, 344, 375
-0.995405, 61, 161, 76, 224
-0.99541, 199, 217, 214, 280
-0.995412, 333, 225, 364, 288
-0.995429, 145, 165, 272, 196
-0.995437, 307, 177, 322, 240
-0.995444, 65, 273, 128, 336
-0.99546, 187, 169, 202, 232
-0.995474, 377, 289, 408, 352
-0.995484, 209, 197, 336, 228
-0.995491, 1, 313, 32, 375
-0.995491, 273, 225, 400, 256
-0.995536, 457, 153, 488, 216
-0.995568, 97, 217, 112, 280
-0.995576, 273, 169, 288, 232
-0.995586, 9, 9, 40, 72
-0.995604, 145, 209, 272, 240
-0.995621, 49, 281, 176, 344
-0.995629, 401, 273, 432, 336
-0.995641, 341, 225, 372, 352
-0.995649, 241, 57, 368, 120
-0.995653, 45, 81, 76, 208
-0.995663, 301, 281, 332, 344
-0.995681, 67, 169, 82, 232
-0.995687, 273, 145, 288, 208
-0.9957, 409, 177, 440, 304
-0.995703, 303, 217, 318, 280
-0.995706, 437, 273, 468, 336
-0.99571, 203, 177, 218, 240
-0.99572, 127, 225, 142, 288
-0.995722, 321, 217, 336, 280
-0.995725, 425, 73, 488, 136
-0.995731, 293, 201, 308, 264
-0.995742, 93, 249, 124, 312
-0.99575, 129, 17, 256, 144
-0.995755, 311, 217, 326, 280
-0.995763, 163, 193, 178, 256
-0.995774, 101, 161, 132, 224
-0.995775, 121, 193, 136, 256
-0.995787, 121, 281, 184, 344
-0.995814, 121, 225, 136, 288
-0.995834, 279, 145, 294, 208
-0.99584, 193, 73, 256, 136
-0.995878, 77, 169, 92, 232
-0.995914, 193, 209, 320, 240
-0.99592, 259, 145, 274, 208
-0.995927, 55, 169, 70, 232
-0.995943, 49, 161, 64, 224
-0.995971, 81, 81, 144, 208
-0.995994, 401, 81, 464, 208
-0.996011, 245, 193, 276, 320
-0.996035, 287, 217, 302, 280
-0.996036, 169, 169, 184, 232
-0.99604, 69, 225, 84, 288
-0.996049, 193, 217, 208, 280
-0.996056, 313, 33, 376, 288
-0.996061, 225, 225, 352, 256
-0.996068, 273, 165, 400, 196
-0.99607, 13, 161, 44, 288
-0.996094, 329, 49, 392, 176
-0.996108, 321, 225, 448, 256
-0.996109, 301, 193, 316, 256
-0.996127, 193, 73, 320, 136
-0.996141, 41, 161, 56, 224
-0.996154, 17, 57, 144, 120
-0.99616, 257, 237, 384, 268
-0.996211, 13, 225, 44, 352
-0.996234, 141, 169, 156, 232
-0.996244, 113, 73, 240, 136
-0.996254, 177, 153, 304, 184
-0.99629, 33, 245, 160, 276
-0.996321, 241, 213, 368, 244
-0.996343, 385, 1, 448, 375
-0.996357, 329, 241, 360, 368
-0.99636, 109, 201, 124, 264
-0.996379, 213, 129, 244, 256
-0.99638, 267, 185, 282, 248
-0.996388, 301, 169, 316, 232
-0.996421, 315, 193, 330, 256
-0.996423, 221, 225, 252, 352
-0.996427, 227, 201, 242, 264
-0.996477, 169, 201, 184, 264
-0.996482, 205, 217, 220, 280
-0.996499, 157, 209, 172, 272
-0.996506, 247, 169, 262, 232
-0.996511, 33, 205, 160, 236
-0.996526, 61, 185, 76, 248
-0.99658, 257, 121, 500, 184
-0.996588, 225, 313, 480, 375
-0.996595, 91, 225, 106, 288
-0.996606, 111, 233, 126, 296
-0.996638, 83, 169, 98, 232
-0.996639, 77, 217, 92, 280
-0.99664, 285, 137, 300, 200
-0.996643, 1, 161, 32, 288
-0.996668, 81, 237, 208, 268
-0.996674, 321, 193, 336, 256
-0.996686, 1, 217, 500, 280
-0.996714, 329, 1, 360, 128
-0.996715, 211, 217, 226, 280
-0.996742, 359, 185, 374, 248
-0.996747, 35, 169, 50, 232
-0.996752, 377, 193, 408, 320
-0.996754, 65, 161, 192, 192
-0.996756, 369, 57, 496, 120
-0.996776, 169, 225, 200, 352
-0.996776, 135, 225, 150, 288
-0.996788, 157, 225, 188, 352
-0.996793, 425, 1, 488, 256
-0.996801, 327, 217, 342, 280
-0.996802, 329, 1, 392, 375
-0.996803, 187, 217, 202, 280
-0.996809, 179, 209, 194, 272
-0.996816, 365, 241, 396, 368
-0.996818, 143, 217, 158, 280
-0.99682, 99, 193, 114, 256
-0.996862, 49, 129, 112, 375
-0.996866, 135, 169, 150, 232
-0.996867, 1, 185, 128, 216
-0.996897, 325, 97, 356, 224
-0.996915, 225, 177, 240, 240
-0.996943, 273, 201, 288, 264
-0.996955, 63, 225, 78, 288
-0.996982, 149, 177, 164, 240
-0.996998, 457, 1, 488, 128
-0.997005, 369, 105, 496, 168
-0.997009, 295, 225, 310, 288
-0.997043, 161, 1, 224, 128
-0.997045, 67, 145, 82, 208
-0.997056, 163, 161, 178, 224
-0.997092, 321, 237, 448, 268
-0.997109, 185, 177, 200, 208
-0.99711, 75, 145, 90, 208
-0.997119, 55, 225, 70, 288
-0.997126, 279, 225, 294, 288
-0.997131, 327, 193, 342, 256
-0.997135, 41, 1, 104, 256
-0.997141, 165, 201, 180, 232
-0.997142, 129, 225, 256, 256
-0.997143, 283, 161, 298, 192
-0.997169, 57, 33, 120, 160
-0.997177, 173, 173, 188, 204
-0.99718, 23, 9, 38, 72
-0.997186, 237, 193, 252, 256
-0.997192, 29, 169, 44, 232
-0.997192, 351, 185, 366, 248
-0.997197, 321, 17, 448, 80
-0.997203, 1, 1, 32, 128
-0.997212, 175, 145, 190, 208
-0.997217, 75, 241, 90, 304
-0.997222, 45, 209, 60, 272
-0.997234, 87, 193, 102, 256
-0.997244, 145, 197, 160, 228
-0.997252, 103, 221, 118, 252
-0.997286, 369, 333, 496, 364
-0.997292, 213, 161, 228, 224
-0.997294, 167, 169, 182, 200
-0.997296, 121, 169, 136, 232
-0.997324, 213, 193, 228, 224
-0.997328, 289, 161, 304, 192
-0.997344, 41, 185, 56, 248
-0.997346, 55, 145, 70, 208
-0.997363, 111, 233, 126, 264
-0.997378, 81, 1, 208, 128
-0.997381, 117, 233, 132, 264
-0.997381, 65, 273, 320, 336
-0.997383, 113, 221, 128, 252
-0.997384, 417, 217, 432, 280
-0.997384, 353, 185, 480, 216
-0.997386, 409, 129, 440, 256
-0.997392, 115, 185, 130, 248
-0.997392, 1, 249, 256, 312
-0.997398, 193, 185, 208, 216
-0.997403, 179, 177, 194, 208
-0.997407, 281, 129, 312, 375
-0.997408, 371, 185, 386, 248
-0.997434, 129, 161, 144, 224
-0.997435, 337, 301, 464, 332
-0.997436, 45, 241, 60, 304
-0.997446, 411, 209, 426, 272
-0.997448, 305, 333, 432, 364
-0.997452, 91, 169, 106, 232
-0.997463, 219, 217, 234, 280
-0.997471, 155, 169, 170, 232
-0.997492, 419, 193, 434, 256
-0.997497, 275, 157, 290, 188
-0.997499, 333, 217, 348, 280
-0.997511, 459, 217, 474, 280
-0.997515, 109, 169, 124, 232
-0.997524, 337, 345, 464, 375
-0.997524, 185, 145, 200, 208
-0.997526, 181, 233, 196, 296
-0.997535, 361, 1, 424, 375
-0.997553, 241, 145, 368, 176
-0.997554, 67, 193, 82, 256
-0.997556, 47, 185, 62, 248
-0.997563, 397, 201, 412, 264
-0.997565, 369, 1, 496, 64
-0.997567, 285, 193, 300, 224
-0.997573, 17, 9, 32, 72
-0.997585, 95, 233, 110, 264
-0.997592, 279, 205, 294, 236
-0.997597, 259, 225, 274, 288
-0.9976, 313, 65, 344, 192
-0.997605, 33, 145, 48, 208
-0.997605, 431, 233, 446, 296
-0.997609, 295, 165, 310, 196
-0.997614, 345, 169, 360, 232
-0.997616, 337, 321, 464, 352
-0.997617, 153, 233, 168, 296
-0.997618, 113, 129, 144, 375
-0.997622, 161, 169, 176, 200
-0.997624, 221, 197, 236, 228
-0.997629, 273, 197, 400, 228
-0.997638, 369, 209, 496, 240
-0.997639, 289, 301, 416, 332
-0.997642, 313, 169, 328, 232
-0.99765, 105, 233, 120, 264
-0.99765, 337, 249, 464, 280
-0.997651, 159, 201, 174, 232
-0.997653, 65, 233, 80, 264
-0.997654, 135, 193, 150, 224
-0.997665, 199, 185, 214, 216
-0.997671, 209, 237, 336, 268
-0.997673, 129, 1, 256, 64
-0.997674, 305, 289, 432, 320
-0.997675, 307, 153, 322, 216
-0.997692, 461, 81, 492, 208
-0.997706, 275, 173, 290, 204
-0.997721, 5, 169, 20, 232
-0.997727, 83, 217, 98, 280
-0.997727, 321, 213, 448, 244
-0.997728, 23, 49, 38, 112
-0.997737, 253, 153, 268, 184
-0.997737, 225, 281, 480, 344
-0.99775, 153, 205, 168, 236
-0.997758, 257, 337, 384, 368
-0.997761, 145, 241, 176, 368
-0.997764, 97, 249, 112, 312
-0.997766, 485, 217, 500, 280
-0.997768, 409, 185, 424, 248
-0.997769, 177, 113, 208, 240
-0.997775, 421, 177, 452, 304
-0.99778, 335, 225, 350, 256
-0.997786, 123, 229, 138, 260
-0.997793, 119, 217, 134, 248
-0.997821, 257, 241, 500, 304
-0.997822, 75, 229, 90, 260
-0.997828, 25, 177, 40, 208
-0.997829, 307, 181, 322, 212
-0.997843, 65, 81, 192, 144
-0.99785, 79, 177, 94, 208
-0.997869, 167, 181, 182, 212
-0.997872, 145, 237, 272, 268
-0.997885, 173, 185, 188, 216
-0.997891, 253, 241, 284, 368
-0.997895, 129, 305, 384, 368
-0.997923, 241, 33, 368, 96
-0.997925, 213, 217, 228, 248
-0.997941, 199, 221, 214, 252
-0.997942, 207, 185, 222, 216
-0.997947, 353, 289, 480, 320
-0.997953, 289, 221, 304, 252
-0.997957, 325, 225, 340, 256
-0.997968, 389, 161, 420, 288
-0.99797, 223, 209, 238, 240
-0.997979, 293, 181, 308, 212
-0.998006, 45, 241, 60, 272
-0.998006, 65, 337, 192, 368
-0.998009, 271, 193, 286, 224
-0.998011, 301, 169, 316, 200
-0.998015, 49, 1, 176, 64
-0.998025, 269, 153, 284, 184
-0.998026, 55, 173, 70, 204
-0.998027, 145, 209, 160, 240
-0.998032, 259, 153, 274, 184
-0.998048, 161, 137, 416, 200
-0.998057, 33, 313, 288, 375
-0.99806, 369, 237, 496, 268
-0.998061, 97, 217, 112, 248
-0.998065, 35, 173, 50, 204
-0.998076, 17, 297, 144, 328
-0.99808, 129, 189, 144, 220
-0.998082, 303, 221, 318, 252
-0.998083, 289, 317, 416, 348
-0.998087, 369, 225, 496, 256
-0.998089, 281, 173, 296, 204
-0.998092, 113, 329, 240, 360
-0.998095, 49, 25, 176, 88
-0.998098, 81, 249, 208, 280
-0.998106, 125, 129, 156, 375
-0.99811, 73, 173, 88, 204
-0.998115, 1, 161, 128, 192
-0.998118, 289, 153, 416, 184
-0.998122, 137, 177, 152, 208
-0.998126, 91, 217, 106, 248
-0.998127, 71, 241, 86, 272
-0.998128, 49, 33, 80, 160
-0.998161, 65, 173, 80, 204
-0.998177, 1, 325, 128, 356
-0.998183, 49, 173, 64, 204
-0.998184, 297, 225, 312, 256
-0.998187, 241, 1, 368, 64
-0.998187, 33, 121, 288, 184
-0.998188, 317, 225, 332, 256
-0.998191, 369, 173, 496, 204
-0.998208, 129, 229, 144, 260
-0.998211, 51, 233, 66, 264
-0.998215, 283, 225, 298, 256
-0.998221, 41, 173, 56, 204
-0.998223, 187, 193, 202, 224
-0.998232, 295, 205, 310, 236
-0.998232, 189, 213, 204, 244
-0.998234, 153, 193, 168, 224
-0.998236, 311, 225, 326, 256
-0.998239, 137, 209, 152, 240
-0.998247, 1, 65, 32, 192
-0.998255, 121, 197, 136, 228
-0.998262, 353, 197, 480, 228
-0.998262, 353, 113, 384, 240
-0.998266, 257, 97, 288, 352
-0.998268, 205, 225, 220, 256
-0.998271, 329, 1, 392, 128
-0.998282, 1, 97, 500, 160
-0.998286, 293, 97, 324, 352
-0.99829, 171, 201, 186, 232
-0.998297, 267, 181, 282, 212
-0.998301, 277, 229, 292, 260
-0.998304, 241, 321, 368, 352
-0.998306, 81, 229, 96, 260
-0.998307, 415, 225, 430, 256
-0.998308, 225, 273, 352, 304
-0.998313, 369, 153, 496, 184
-0.998315, 57, 233, 72, 264
-0.998316, 125, 217, 140, 248
-0.998319, 191, 173, 206, 204
-0.998326, 341, 129, 372, 375
-0.998333, 441, 129, 472, 256
-0.998336, 301, 191, 332, 206
-0.998336, 177, 261, 304, 292
-0.998337, 345, 225, 376, 240
-0.998339, 109, 185, 140, 200
-0.998339, 173, 195, 204, 210
-0.99834, 333, 245, 364, 260
-0.998342, 141, 219, 172, 234
-0.998343, 377, 287, 408, 302
-0.998344, 265, 235, 296, 250
-0.998344, 393, 191, 424, 206
-0.998344, 401, 237, 432, 252
-0.998345, 221, 209, 252, 224
-0.998346, 377, 293, 408, 308
-0.998346, 317, 241, 348, 368
-0.998346, 345, 197, 376, 212
-0.998347, 41, 183, 72, 198
-0.998348, 357, 301, 388, 316
-0.998348, 177, 1, 304, 64
-0.998349, 341, 225, 356, 256
-0.99835, 285, 149, 300, 180
-0.998352, 269, 65, 300, 192
-0.998352, 29, 243, 60, 258
-0.998353, 65, 251, 96, 266
-0.998354, 285, 209, 316, 224
-0.998354, 81, 239, 112, 254
-0.998354, 117, 245, 132, 276
-0.998354, 69, 185, 100, 200
-0.998355, 101, 201, 132, 216
-0.998356, 215, 181, 230, 212
-0.998357, 189, 197, 220, 212
-0.998357, 429, 245, 460, 260
-0.998358, 105, 241, 136, 256
-0.998359, 85, 169, 100, 200
-0.99836, 357, 201, 388, 216
-0.998361, 153, 217, 168, 248
-0.998361, 377, 201, 408, 216
-0.998362, 389, 349, 420, 364
-0.998362, 49, 233, 80, 248
-0.998364, 345, 243, 376, 258
-0.998367, 65, 231, 128, 246
-0.99837, 117, 211, 148, 226
-0.998371, 265, 155, 296, 170
-0.998372, 277, 237, 308, 252
-0.998373, 193, 97, 448, 160
-0.998373, 265, 229, 296, 244
-0.998373, 305, 221, 336, 236
-0.998374, 141, 173, 172, 188
-0.998375, 417, 233, 448, 248
-0.998375, 93, 251, 124, 266
-0.998377, 133, 187, 164, 202
-0.99838, 101, 211, 132, 226
-0.99838, 253, 227, 284, 242
-0.998381, 273, 217, 304, 232
-0.998381, 181, 189, 196, 220
-0.998381, 141, 213, 172, 228
-0.998382, 409, 227, 440, 242
-0.998383, 121, 203, 152, 218
-0.998383, 249, 167, 280, 182
-0.998384, 89, 229, 104, 260
-0.998385, 57, 245, 88, 260
-0.998385, 231, 201, 246, 232
-0.998386, 165, 203, 196, 218
-0.998386, 85, 245, 116, 260
-0.998387, 271, 217, 286, 248
-0.998389, 61, 239, 92, 254
-0.99839, 201, 215, 232, 230
-0.998391, 41, 245, 72, 260
-0.998398, 221, 215, 252, 230
-0.998398, 233, 201, 264, 216
-0.998399, 117, 247, 148, 262
-0.9984, 371, 185, 386, 216
-0.998402, 293, 169, 324, 184
-0.998403, 137, 177, 200, 192
-0.998404, 81, 225, 112, 240
-0.998405, 285, 203, 316, 218
-0.998406, 73, 179, 104, 194
-0.998407, 169, 211, 200, 226
-0.998409, 153, 199, 184, 214
-0.99841, 19, 173, 34, 204
-0.998412, 297, 193, 312, 224
-0.998412, 135, 225, 150, 256
-0.998415, 377, 349, 408, 364
-0.998415, 241, 161, 304, 176
-0.998416, 117, 217, 148, 232
-0.998417, 337, 231, 368, 246
-0.998418, 269, 97, 300, 352
-0.99842, 325, 235, 356, 250
-0.998421, 251, 173, 266, 204
-0.998422, 353, 65, 416, 192
-0.998423, 313, 237, 344, 252
-0.998423, 265, 181, 328, 196
-0.998425, 273, 191, 304, 206
-0.998426, 49, 177, 80, 192
-0.998426, 69, 231, 100, 246
-0.998427, 91, 173, 106, 204
-0.998427, 129, 173, 144, 204
-0.998428, 57, 183, 88, 198
-0.998429, 65, 317, 192, 348
-0.998429, 241, 183, 304, 198
-0.998429, 1, 1, 256, 64
-0.998429, 5, 183, 36, 198
-0.998429, 469, 17, 500, 144
-0.99843, 113, 193, 144, 208
-0.99843, 113, 203, 176, 218
-0.998434, 205, 221, 236, 236
-0.998434, 185, 219, 216, 234
-0.998434, 145, 247, 176, 262
-0.998435, 155, 169, 170, 200
-0.998435, 109, 223, 140, 238
-0.998436, 241, 175, 304, 190
-0.998437, 249, 189, 280, 204
-0.998437, 293, 233, 324, 248
-0.998441, 285, 219, 316, 234
-0.998441, 253, 173, 284, 188
-0.998443, 273, 203, 304, 218
-0.998444, 165, 245, 196, 260
-0.998445, 269, 185, 300, 200
-0.998446, 133, 201, 164, 216
-0.998447, 237, 241, 268, 368
-0.998448, 257, 253, 384, 284
-0.998449, 269, 167, 300, 182
-0.998451, 37, 177, 68, 192
-0.998451, 243, 165, 258, 196
-0.998451, 325, 227, 356, 242
-0.998452, 249, 161, 280, 176
-0.998453, 129, 213, 160, 228
-0.998453, 253, 183, 284, 198
-0.998454, 289, 187, 320, 202
-0.998455, 129, 227, 160, 242
-0.998457, 81, 285, 208, 316
-0.998458, 69, 245, 100, 260
-0.998458, 209, 201, 240, 216
-0.998459, 93, 239, 124, 254
-0.998464, 265, 175, 328, 190
-0.998467, 241, 293, 368, 324
-0.998467, 241, 309, 368, 340
-0.99847, 281, 227, 344, 242
-0.998471, 207, 197, 222, 228
-0.998471, 241, 167, 304, 182
-0.998473, 137, 209, 200, 224
-0.998473, 17, 337, 144, 368
-0.998474, 13, 177, 28, 208
-0.998474, 281, 163, 312, 178
-0.998475, 173, 181, 204, 196
-0.998476, 17, 179, 48, 194
-0.998477, 285, 197, 316, 212
-0.998478, 165, 187, 196, 202
-0.998478, 97, 225, 128, 240
-0.998478, 97, 231, 160, 246
-0.998478, 33, 241, 96, 256
-0.998479, 273, 197, 304, 212
-0.99848, 89, 225, 152, 240
-0.99848, 149, 179, 180, 194
-0.998481, 265, 223, 296, 238
-0.998482, 117, 231, 148, 246
-0.998482, 189, 191, 220, 206
-0.998482, 289, 181, 320, 196
-0.998483, 105, 249, 136, 264
-0.998484, 113, 197, 176, 212
-0.998486, 1, 29, 128, 60
-0.998488, 73, 237, 136, 252
-0.998489, 113, 201, 128, 232
-0.998491, 307, 193, 322, 224
-0.998492, 287, 177, 302, 208
-0.998494, 61, 177, 92, 192
-0.998496, 313, 227, 344, 242
-0.998497, 289, 175, 320, 190
-0.998499, 157, 213, 188, 228
-0.998499, 93, 233, 124, 248
-0.998499, 209, 341, 336, 372
-0.998499, 269, 173, 300, 188
-0.998507, 257, 225, 320, 240
-0.99851, 281, 229, 312, 244
-0.998511, 25, 225, 56, 352
-0.998511, 49, 239, 80, 254
-0.998512, 1, 5, 128, 36
-0.998512, 213, 195, 244, 210
-0.998514, 241, 191, 304, 206
-0.998516, 149, 65, 180, 320
-0.998516, 169, 193, 232, 208
-0.998517, 129, 345, 256, 375
-0.998518, 161, 187, 224, 202
-0.99852, 111, 245, 126, 276
-0.998521, 129, 183, 192, 198
-0.998522, 265, 187, 328, 202
-0.998523, 1, 309, 128, 340
-0.998523, 1, 179, 64, 194
-0.998524, 113, 211, 176, 226
-0.998524, 353, 277, 480, 308
-0.998524, 337, 237, 352, 268
-0.998527, 145, 181, 160, 212
-0.998527, 65, 221, 80, 252
-0.998528, 247, 185, 262, 216
-0.998534, 1, 145, 500, 208
-0.998534, 141, 207, 172, 222
-0.998536, 105, 235, 136, 250
-0.998536, 67, 185, 82, 216
-0.998536, 241, 155, 304, 170
-0.998541, 305, 235, 368, 250
-0.998542, 269, 161, 300, 176
-0.998543, 131, 209, 146, 240
-0.998543, 273, 233, 336, 248
-0.998543, 425, 233, 440, 264
-0.998548, 201, 193, 232, 208
-0.99855, 287, 209, 302, 240
-0.998552, 265, 169, 328, 184
-0.998554, 201, 193, 264, 208
-0.998558, 373, 145, 404, 272
-0.998559, 33, 177, 96, 192
-0.998562, 125, 195, 156, 210
-0.998563, 293, 227, 324, 242
-0.998563, 313, 229, 376, 244
-0.998565, 165, 237, 180, 268
-0.998566, 197, 173, 212, 204
-0.998566, 65, 297, 192, 328
-0.998567, 81, 231, 112, 246
-0.998567, 217, 17, 280, 144
-0.998568, 137, 129, 168, 375
-0.998569, 153, 173, 184, 188
-0.99857, 145, 193, 208, 208
-0.998571, 313, 237, 328, 268
-0.998572, 77, 241, 92, 272
-0.998572, 113, 175, 176, 190
-0.998573, 277, 217, 292, 248
-0.998573, 97, 129, 128, 375
-0.998574, 297, 179, 360, 194
-0.998574, 305, 277, 432, 308
-0.998574, 385, 189, 400, 220
-0.998575, 57, 243, 120, 258
-0.998578, 185, 185, 216, 200
-0.998579, 217, 187, 280, 202
-0.998579, 161, 177, 224, 192
-0.99858, 43, 229, 58, 260
-0.998581, 225, 203, 288, 218
-0.998582, 113, 217, 176, 232
-0.998582, 161, 213, 176, 244
-0.998583, 253, 155, 284, 170
-0.998584, 179, 165, 194, 196
-0.998584, 161, 257, 416, 320
-0.998584, 41, 235, 104, 250
-0.998586, 237, 197, 252, 228
-0.998587, 153, 233, 168, 264
-0.998589, 273, 201, 336, 216
-0.998589, 153, 215, 216, 230
-0.998589, 295, 153, 310, 184
-0.998592, 137, 203, 200, 218
-0.998594, 57, 179, 120, 194
-0.998598, 121, 231, 184, 246
-0.998599, 81, 185, 144, 200
-0.9986, 113, 243, 176, 258
-0.998605, 445, 193, 476, 320
-0.998605, 265, 193, 328, 208
-0.998605, 265, 163, 328, 178
-0.998606, 241, 197, 304, 212
-0.998606, 257, 219, 320, 234
-0.998606, 41, 185, 104, 200
-0.998609, 97, 237, 160, 252
-0.99861, 81, 247, 144, 262
-0.99861, 177, 281, 304, 312
-0.998611, 73, 199, 136, 214
-0.998612, 193, 213, 256, 228
-0.998613, 33, 247, 96, 262
-0.998614, 153, 245, 216, 260
-0.998614, 97, 191, 160, 206
-0.998614, 233, 229, 296, 244
-0.998615, 193, 219, 256, 234
-0.998615, 289, 185, 352, 200
-0.998616, 169, 175, 200, 190
-0.998618, 145, 171, 208, 186
-0.998619, 89, 207, 152, 222
-0.99862, 105, 249, 168, 264
-0.998621, 185, 199, 248, 214
-0.998623, 361, 349, 424, 364
-0.998628, 121, 169, 184, 184
-0.99863, 169, 207, 232, 222
-0.998633, 169, 229, 232, 244
-0.998634, 81, 219, 144, 234
-0.998635, 9, 245, 72, 260
-0.998637, 401, 225, 464, 240
-0.998639, 169, 239, 232, 254
-0.99864, 249, 203, 312, 218
-0.99864, 297, 221, 360, 236
-0.99864, 73, 191, 136, 206
-0.998641, 17, 231, 80, 246
-0.998642, 329, 243, 392, 258
-0.998642, 129, 153, 256, 184
-0.998643, 65, 225, 128, 240
-0.998643, 1, 249, 500, 312
-0.998643, 409, 233, 472, 248
-0.998646, 281, 169, 312, 184
-0.998647, 217, 163, 280, 178
-0.998647, 201, 181, 264, 196
-0.998648, 369, 193, 432, 208
-0.998648, 409, 245, 472, 260
-0.998649, 377, 227, 440, 242
-0.99865, 281, 239, 344, 254
-0.998652, 153, 221, 216, 236
-0.998653, 337, 343, 400, 358
-0.998653, 233, 235, 296, 250
-0.998654, 89, 175, 152, 190
-0.998655, 273, 179, 304, 194
-0.998656, 393, 191, 456, 206
-0.998657, 185, 187, 248, 202
-0.998657, 273, 207, 336, 222
-0.998657, 161, 141, 288, 172
-0.998657, 217, 211, 280, 226
-0.998657, 9, 185, 72, 200
-0.998658, 233, 223, 296, 238
-0.998658, 337, 227, 400, 242
-0.998658, 217, 157, 280, 172
-0.998659, 361, 319, 424, 334
-0.998659, 409, 251, 472, 266
-0.99866, 289, 169, 352, 184
-0.998661, 217, 173, 280, 188
-0.998661, 25, 171, 88, 186
-0.998663, 401, 313, 464, 328
-0.998665, 369, 337, 432, 352
-0.998665, 297, 203, 360, 218
-0.998666, 385, 239, 448, 254
-0.998667, 313, 319, 376, 334
-0.998667, 369, 233, 432, 248
-0.998667, 129, 225, 192, 240
-0.998668, 65, 171, 128, 186
-0.998668, 361, 287, 424, 302
-0.998668, 297, 193, 360, 208
-0.998669, 329, 221, 392, 236
-0.998669, 161, 201, 224, 216
-0.998669, 145, 239, 208, 254
-0.998669, 329, 235, 392, 250
-0.99867, 265, 157, 328, 172
-0.998671, 313, 185, 376, 200
-0.998672, 409, 239, 472, 254
-0.998672, 129, 249, 192, 264
-0.998672, 313, 309, 376, 324
-0.998673, 41, 229, 104, 244
-0.998674, 241, 209, 304, 224
-0.998675, 289, 161, 352, 176
-0.998676, 57, 249, 120, 264
-0.998676, 385, 349, 448, 364
-0.998676, 9, 239, 72, 254
-0.998676, 57, 219, 120, 234
-0.998677, 289, 65, 320, 192
-0.998682, 153, 205, 184, 220
-0.99869, 193, 309, 320, 340
-0.998721, 193, 293, 320, 324
-0.998724, 169, 97, 200, 352
-0.998727, 289, 161, 304, 288
-0.998731, 161, 249, 288, 280
-0.998734, 149, 97, 180, 224
-0.998735, 257, 73, 500, 136
-0.998754, 145, 301, 272, 332
-0.998769, 1, 17, 128, 48
-0.998775, 321, 173, 448, 204
-0.998776, 1, 257, 128, 288
-0.99879, 321, 97, 352, 352
-0.9988, 125, 161, 140, 288
-0.998802, 13, 1, 44, 256
-0.998819, 17, 285, 144, 316
-0.998824, 129, 269, 256, 300
-0.998842, 369, 265, 496, 296
-0.998843, 295, 145, 310, 272
-0.998851, 305, 65, 336, 320
-0.99886, 283, 161, 298, 288
-0.998861, 147, 177, 162, 304
-0.998862, 213, 129, 244, 375
-0.998874, 189, 97, 220, 352
-0.998874, 289, 265, 416, 296
-0.998874, 193, 329, 320, 360
-0.99888, 137, 177, 152, 304
-0.998886, 237, 129, 268, 375
-0.998893, 437, 81, 468, 208
-0.998901, 421, 129, 452, 256
-0.998923, 449, 65, 480, 192
-0.998925, 113, 317, 240, 348
-0.998929, 85, 97, 116, 352
-0.998954, 33, 269, 160, 300
-0.998956, 303, 161, 318, 288
-0.998965, 1, 305, 500, 368
-0.998972, 131, 161, 146, 288
-0.998974, 321, 137, 448, 168
-0.998982, 103, 193, 118, 320
-0.998982, 1, 129, 128, 160
-0.998986, 17, 117, 144, 148
-0.998994, 265, 129, 280, 256
-0.999008, 129, 289, 256, 320
-0.999011, 33, 105, 160, 136
-0.999022, 113, 161, 128, 288
-0.999023, 1, 97, 256, 160
-0.999038, 277, 145, 292, 272
-0.999041, 393, 81, 424, 208
-0.999051, 25, 97, 56, 352
-0.999053, 305, 93, 432, 124
-0.999053, 357, 65, 388, 320
-0.999056, 73, 97, 104, 352
-0.999065, 309, 161, 324, 288
-0.999068, 297, 193, 312, 320
-0.999076, 97, 97, 352, 160
-0.999082, 185, 1, 248, 256
-0.999085, 193, 25, 320, 88
-0.99909, 209, 249, 336, 280
-0.999091, 271, 145, 286, 272
-0.999099, 161, 49, 288, 112
-0.999106, 257, 17, 320, 144
-0.999107, 95, 225, 110, 352
-0.999136, 281, 33, 312, 288
-0.999139, 225, 101, 352, 132
-0.999148, 97, 161, 112, 288
-0.999151, 153, 193, 168, 320
-0.999154, 159, 193, 174, 320
-0.999156, 201, 97, 232, 352
-0.999156, 119, 161, 134, 288
-0.999163, 105, 241, 120, 368
-0.99917, 225, 129, 352, 160
-0.99917, 1, 97, 32, 352
-0.999172, 191, 161, 206, 288
-0.999179, 317, 1, 348, 128
-0.999186, 81, 269, 208, 300
-0.999215, 121, 33, 184, 160
-0.999222, 13, 97, 44, 352
-0.999227, 85, 161, 100, 288
-0.99923, 369, 85, 496, 116
-0.999232, 61, 145, 76, 272
-0.999234, 253, 145, 268, 272
-0.999234, 25, 1, 56, 256
-0.999243, 277, 193, 292, 320
-0.999246, 123, 209, 138, 336
-0.999252, 219, 193, 234, 320
-0.999253, 1, 25, 256, 88
-0.999256, 259, 129, 274, 256
-0.999263, 165, 193, 180, 320
-0.999267, 317, 193, 332, 320
-0.999271, 75, 193, 90, 320
-0.999274, 209, 209, 224, 336
-0.999276, 197, 193, 212, 320
-0.999279, 241, 69, 368, 100
-0.999284, 129, 209, 144, 336
-0.999285, 1, 41, 128, 72
-0.999286, 129, 113, 256, 144
-0.999297, 69, 161, 84, 288
-0.999297, 113, 25, 240, 88
-0.999301, 137, 129, 152, 256
-0.999301, 103, 145, 118, 272
-0.999303, 481, 161, 496, 288
-0.999313, 457, 65, 488, 320
-0.999318, 37, 193, 68, 320
-0.999327, 61, 193, 76, 320
-0.999333, 81, 105, 208, 136
-0.999336, 17, 89, 144, 120
-0.999336, 321, 109, 448, 140
-0.999342, 115, 209, 130, 336
-0.999343, 185, 145, 200, 272
-0.999348, 203, 209, 218, 336
-0.999358, 369, 37, 496, 68
-0.999365, 227, 193, 242, 320
-0.999365, 437, 97, 468, 352
-0.999371, 305, 81, 432, 112
-0.999372, 281, 1, 344, 128
-0.999377, 283, 113, 298, 240
-0.999378, 273, 117, 400, 148
-0.999378, 155, 145, 170, 272
-0.999379, 143, 129, 158, 256
-0.999382, 323, 193, 338, 320
-0.999383, 351, 161, 366, 288
-0.999384, 409, 65, 440, 320
-0.999387, 53, 97, 84, 352
-0.999388, 247, 161, 262, 288
-0.999392, 425, 225, 440, 352
-0.999395, 291, 209, 306, 336
-0.999396, 181, 193, 196, 320
-0.9994, 91, 177, 106, 304
-0.9994, 303, 209, 318, 336
-0.9994, 129, 97, 256, 128
-0.999403, 315, 145, 330, 272
-0.999411, 145, 49, 208, 176
-0.999412, 31, 145, 46, 272
-0.999413, 289, 113, 304, 240
-0.999417, 25, 1, 40, 128
-0.99942, 79, 145, 94, 272
-0.999422, 225, 81, 352, 112
-0.99943, 385, 65, 416, 320
-0.999442, 1, 281, 500, 344
-0.999443, 483, 209, 498, 336
-0.999443, 265, 177, 280, 304
-0.999445, 69, 209, 84, 336
-0.999446, 187, 209, 202, 336
-0.999446, 171, 161, 186, 288
-0.999457, 225, 113, 352, 144
-0.999458, 475, 225, 490, 352
-0.999458, 311, 209, 326, 336
-0.99946, 273, 97, 288, 224
-0.99946, 363, 161, 378, 288
-0.999461, 345, 177, 360, 304
-0.999467, 301, 113, 316, 240
-0.99947, 283, 209, 298, 336
-0.999473, 337, 193, 352, 320
-0.999474, 19, 1, 34, 128
-0.999474, 7, 113, 22, 240
-0.999478, 83, 225, 98, 352
-0.99948, 177, 145, 192, 272
-0.99948, 369, 65, 400, 320
-0.999483, 89, 241, 104, 368
-0.999484, 21, 113, 36, 240
-0.999485, 257, 33, 500, 96
-0.999496, 373, 209, 388, 336
-0.999496, 209, 161, 224, 288
-0.999509, 49, 1, 176, 32
-0.999509, 129, 125, 256, 156
-0.999511, 271, 193, 286, 320
-0.999512, 473, 161, 488, 288
-0.999515, 425, 65, 456, 320
-0.999523, 185, 65, 248, 192
-0.999524, 253, 97, 268, 224
-0.999527, 307, 113, 322, 240
-0.999528, 317, 1, 348, 256
-0.999529, 225, 145, 240, 272
-0.99953, 29, 97, 44, 224
-0.999533, 203, 161, 218, 288
-0.999533, 197, 145, 212, 272
-0.999534, 305, 21, 432, 52
-0.999534, 67, 113, 82, 240
-0.999539, 55, 145, 70, 272
-0.99954, 419, 177, 434, 304
-0.999542, 369, 141, 496, 172
-0.999542, 147, 225, 162, 352
-0.999543, 37, 145, 52, 272
-0.999548, 261, 81, 276, 208
-0.999553, 177, 1, 304, 32
-0.999558, 379, 177, 394, 304
-0.999559, 129, 73, 384, 136
-0.999561, 461, 225, 476, 352
-0.999562, 289, 65, 416, 96
-0.999562, 241, 161, 256, 288
-0.999564, 125, 113, 140, 240
-0.999565, 115, 239, 130, 254
-0.999565, 211, 187, 226, 202
-0.999565, 107, 223, 122, 238
-0.999565, 357, 161, 372, 288
-0.999566, 97, 113, 112, 240
-0.999566, 229, 209, 244, 224
-0.999566, 263, 221, 278, 236
-0.999567, 359, 193, 374, 208
-0.999567, 277, 199, 292, 214
-0.999568, 291, 159, 306, 174
-0.999568, 173, 211, 188, 226
-0.999568, 447, 221, 462, 236
-0.999568, 177, 109, 304, 140
-0.999568, 39, 243, 54, 258
-0.999569, 271, 197, 286, 212
-0.999569, 371, 195, 386, 210
-0.999569, 297, 199, 312, 214
-0.999569, 275, 235, 290, 250
-0.999569, 285, 235, 300, 250
-0.999571, 283, 193, 298, 208
-0.999571, 169, 183, 184, 198
-0.999571, 273, 105, 400, 136
-0.999572, 37, 177, 52, 192
-0.999572, 47, 177, 62, 192
-0.999573, 121, 247, 136, 262
-0.999573, 423, 249, 438, 264
-0.999574, 305, 221, 320, 236
-0.999574, 3, 161, 18, 288
-0.999574, 71, 183, 86, 198
-0.999575, 219, 205, 234, 220
-0.999575, 15, 113, 30, 240
-0.999577, 197, 219, 212, 234
-0.999577, 69, 243, 84, 258
-0.999577, 97, 1, 352, 64
-0.999577, 369, 65, 496, 96
-0.999577, 253, 161, 268, 176
-0.999578, 57, 183, 72, 198
-0.999578, 309, 185, 324, 200
-0.999578, 285, 221, 300, 236
-0.999578, 133, 187, 148, 202
-0.999578, 35, 1, 50, 128
-0.999579, 81, 117, 208, 148
-0.999579, 269, 155, 284, 170
-0.999581, 219, 145, 234, 272
-0.999581, 391, 349, 406, 364
-0.999581, 337, 235, 352, 250
-0.999581, 287, 171, 302, 186
-0.999582, 11, 1, 26, 128
-0.999582, 51, 239, 66, 254
-0.999582, 125, 213, 140, 228
-0.999583, 155, 199, 170, 214
-0.999583, 187, 215, 202, 230
-0.999585, 119, 113, 134, 240
-0.999585, 109, 241, 124, 256
-0.999586, 343, 241, 358, 368
-0.999587, 115, 211, 130, 226
-0.999587, 121, 195, 136, 210
-0.999587, 295, 221, 310, 236
-0.999587, 425, 243, 440, 258
-0.999587, 165, 145, 180, 272
-0.999588, 117, 219, 132, 234
-0.999588, 9, 183, 24, 198
-0.999589, 207, 197, 222, 212
-0.99959, 109, 247, 124, 262
-0.999592, 331, 227, 346, 242
-0.999593, 307, 191, 322, 206
-0.999594, 139, 211, 154, 226
-0.999595, 61, 175, 76, 190
-0.999595, 453, 161, 468, 288
-0.999595, 317, 241, 332, 368
-0.999598, 21, 181, 36, 196
-0.999599, 409, 209, 424, 336
-0.999599, 317, 235, 332, 250
-0.999602, 133, 229, 148, 244
-0.999602, 297, 241, 312, 368
-0.999603, 79, 181, 94, 196
-0.999603, 111, 113, 126, 240
-0.999605, 363, 201, 378, 216
-0.999605, 309, 233, 324, 248
-0.999606, 355, 209, 370, 336
-0.999606, 213, 221, 228, 236
-0.999606, 223, 199, 238, 214
-0.999607, 129, 223, 144, 238
-0.999607, 269, 225, 284, 240
-0.999608, 137, 225, 152, 352
-0.999609, 327, 145, 342, 272
-0.999609, 135, 195, 150, 210
-0.999609, 77, 241, 92, 368
-0.999609, 291, 233, 306, 248
-0.99961, 223, 213, 238, 228
-0.999612, 127, 231, 142, 246
-0.999614, 163, 179, 178, 194
-0.999614, 103, 239, 118, 254
-0.999615, 263, 153, 278, 168
-0.999615, 53, 177, 68, 192
-0.999615, 225, 65, 256, 320
-0.999616, 15, 181, 30, 196
-0.999617, 169, 245, 184, 260
-0.999617, 213, 199, 228, 214
-0.999617, 297, 229, 312, 244
-0.99962, 27, 49, 42, 176
-0.999621, 257, 155, 272, 170
-0.999621, 235, 193, 250, 320
-0.999622, 293, 187, 308, 202
-0.999623, 287, 205, 302, 220
-0.999623, 73, 233, 88, 248
-0.999623, 43, 145, 58, 272
-0.999624, 149, 129, 164, 256
-0.999625, 381, 225, 396, 352
-0.999625, 337, 227, 352, 242
-0.999628, 325, 241, 340, 368
-0.999628, 89, 229, 104, 244
-0.999628, 159, 247, 174, 262
-0.999628, 145, 209, 160, 224
-0.999628, 159, 213, 174, 228
-0.99963, 285, 159, 300, 174
-0.99963, 75, 243, 90, 258
-0.999631, 49, 145, 64, 272
-0.999632, 37, 97, 52, 224
-0.999633, 467, 193, 482, 320
-0.999633, 167, 211, 182, 226
-0.999634, 277, 221, 292, 236
-0.999635, 325, 227, 340, 242
-0.999636, 119, 233, 134, 248
-0.999637, 231, 145, 246, 272
-0.999638, 289, 227, 304, 242
-0.999638, 27, 179, 42, 194
-0.99964, 469, 1, 484, 128
-0.99964, 331, 225, 346, 352
-0.999643, 63, 181, 78, 196
-0.999643, 311, 227, 326, 242
-0.999643, 115, 247, 130, 262
-0.999644, 45, 241, 60, 256
-0.999645, 141, 197, 156, 212
-0.999646, 109, 235, 124, 250
-0.999648, 277, 175, 292, 190
-0.999648, 151, 209, 166, 224
-0.99965, 177, 187, 192, 202
-0.99965, 275, 159, 290, 174
-0.999651, 279, 205, 294, 220
-0.999652, 299, 175, 314, 190
-0.999653, 317, 227, 332, 242
-0.99966, 65, 237, 80, 252
-0.999665, 97, 233, 112, 248
-0.999667, 191, 185, 206, 200
-0.999668, 73, 177, 88, 192
-0.999669, 281, 229, 296, 244
-0.999672, 305, 227, 320, 242
-0.999675, 99, 227, 114, 242
-0.99968, 129, 33, 160, 288
-0.999685, 129, 193, 144, 208
-0.999688, 469, 1, 500, 256
-0.999688, 345, 33, 376, 288
-0.999696, 287, 177, 302, 192
-0.999699, 149, 203, 164, 218
-0.999702, 183, 179, 198, 194
-0.999702, 177, 177, 192, 192
-0.999703, 157, 173, 172, 188
-0.999706, 205, 191, 220, 206
-0.99971, 171, 173, 186, 188
-0.999712, 287, 165, 302, 180
-0.999715, 301, 49, 332, 176
-0.99972, 157, 207, 172, 222
-0.999724, 199, 189, 214, 204
-0.999725, 287, 199, 302, 214
-0.999731, 163, 173, 178, 188
-0.999732, 37, 1, 68, 256
-0.999738, 293, 167, 308, 182
-0.99974, 281, 169, 296, 184
-0.999746, 333, 33, 364, 288
-0.999748, 215, 193, 230, 208
-0.999764, 103, 233, 118, 248
-0.999783, 1, 65, 500, 128
-0.999801, 117, 33, 148, 288
-0.999805, 237, 33, 268, 288
-0.999806, 397, 65, 428, 320
-0.999818, 165, 203, 180, 218
-0.999842, 97, 33, 128, 288
-0.999888, 261, 1, 292, 256
-0.999898, 425, 81, 456, 208
-0.999917, 41, 129, 72, 375
-0.999929, 401, 17, 464, 144
-0.999942, 249, 1, 280, 256
-0.999983, 65, 49, 192, 112
-0.999994, 213, 33, 244, 288
-0.999999, 1, 49, 256, 112
-1.00003, 441, 1, 472, 256
-1.00004, 441, 1, 472, 128
-1.0001, 469, 129, 500, 375
-1.00014, 201, 1, 232, 256
-1.00014, 1, 73, 256, 136
-1.0002, 337, 1, 400, 256
-1.00022, 57, 1, 88, 256
-1.00023, 113, 49, 240, 112
-1.00025, 1, 33, 500, 96
-1.00025, 169, 1, 200, 256
-1.00029, 1, 1, 32, 256
-1.00029, 293, 1, 324, 256
-1.00033, 341, 1, 372, 128
-1.00033, 161, 49, 416, 112
-1.00035, 245, 1, 276, 128
-1.00041, 257, 9, 500, 72
-1.00041, 337, 65, 368, 192
-1.00043, 197, 97, 228, 224
-1.00055, 73, 1, 104, 256
-1.00056, 97, 25, 352, 88
-1.00057, 61, 65, 92, 192
-1.00062, 405, 81, 436, 208
-1.00063, 381, 65, 412, 192
-1.00064, 377, 49, 440, 176
-1.00068, 85, 1, 116, 256
-1.00073, 1, 121, 500, 184
-1.00075, 137, 1, 200, 256
-1.00079, 1, 1, 500, 64
-1.0008, 189, 1, 220, 256
-1.00082, 165, 65, 196, 192
-1.00093, 401, 1, 464, 256
-1.00227, 97, 1, 160, 128
-1.00246, 193, 1, 256, 128
-1.00299, 161, 1, 224, 256
-1.006, 377, 1, 440, 128
-1.0074, 353, 17, 416, 144
