1973
-0.309782, 1, 1, 500, 375
-0.356185, 1, 1, 256, 375
-0.373377, 1, 65, 500, 320
-0.460892, 161, 1, 416, 375
-0.465374, 1, 129, 256, 375
-0.596941, 257, 1, 500, 375
-0.661261, 1, 1, 256, 256
-0.672005, 161, 33, 416, 288
-0.768741, 161, 129, 416, 375
-0.809798, 257, 129, 500, 375
-0.845859, 97, 97, 224, 352
-0.847875, 17, 33, 144, 288
-0.85548, 65, 1, 192, 256
-0.861848, 17, 1, 144, 375
-0.864823, 81, 1, 208, 375
-0.865306, 177, 1, 304, 375
-0.867849, 1, 129, 128, 375
-0.869446, 257, 1, 500, 256
-0.876075, 129, 1, 256, 375
-0.876883, 1, 129, 500, 256
-0.883199, 49, 129, 176, 375
-0.886724, 161, 1, 288, 256
-0.895145, 1, 177, 500, 304
-0.896922, 289, 1, 416, 375
-0.898876, 1, 177, 256, 304
-0.904895, 1, 65, 500, 192
-0.905956, 241, 1, 368, 375
-0.908612, 305, 97, 432, 352
-0.908717, 1, 113, 256, 240
-0.90935, 1, 1, 500, 128
-0.910076, 369, 129, 496, 375
-0.917144, 337, 1, 464, 375
-0.91758, 113, 1, 240, 256
-0.920783, 1, 225, 256, 352
-0.923534, 321, 1, 448, 256
-0.924973, 145, 129, 272, 375
-0.927518, 17, 113, 144, 240
-0.928325, 241, 1, 368, 256
-0.929313, 81, 97, 208, 224
-0.93183, 1, 241, 500, 368
-0.932968, 49, 17, 176, 144
-0.93327, 369, 33, 496, 288
-0.934183, 209, 129, 336, 375
-0.934444, 129, 81, 192, 208
-0.935098, 57, 113, 120, 240
-0.93682, 33, 1, 288, 128
-0.937488, 161, 241, 416, 368
-0.938272, 97, 113, 352, 240
-0.938487, 1, 49, 256, 176
-0.939128, 97, 145, 224, 272
-0.939247, 257, 129, 384, 375
-0.940163, 161, 161, 416, 288
-0.940723, 17, 65, 144, 192
-0.941628, 129, 49, 384, 176
-0.944825, 129, 1, 256, 128
-0.946597, 1, 1, 128, 128
-0.947076, 81, 81, 144, 208
-0.947155, 177, 225, 240, 352
-0.947528, 17, 193, 144, 320
-0.94904, 17, 97, 80, 224
-0.949434, 161, 281, 224, 344
-0.950559, 169, 177, 232, 304
-0.950831, 161, 241, 288, 368
-0.950931, 1, 241, 128, 368
-0.951935, 97, 129, 160, 256
-0.952103, 41, 1, 104, 128
-0.954338, 17, 193, 80, 320
-0.954897, 41, 1, 104, 64
-0.955194, 105, 17, 168, 144
-0.955243, 97, 49, 224, 176
-0.957049, 385, 145, 448, 272
-0.957286, 257, 225, 500, 352
-0.957359, 33, 145, 96, 272
-0.957615, 417, 193, 480, 320
-0.957636, 201, 241, 264, 368
-0.958407, 369, 161, 496, 288
-0.958476, 1, 241, 64, 368
-0.958604, 129, 193, 256, 320
-0.958815, 73, 1, 136, 128
-0.958921, 137, 105, 200, 168
-0.95912, 49, 65, 112, 192
-0.959451, 1, 17, 64, 144
-0.959593, 193, 265, 256, 328
-0.96003, 105, 65, 168, 192
-0.960436, 129, 1, 384, 128
-0.960528, 257, 177, 500, 304
-0.960539, 57, 153, 120, 216
-0.961613, 193, 113, 448, 240
-0.961863, 393, 193, 456, 320
-0.962169, 201, 1, 264, 128
-0.962435, 161, 49, 288, 176
-0.962553, 177, 241, 240, 304
-0.962659, 81, 121, 144, 184
-0.962937, 257, 1, 500, 128
-0.963338, 153, 241, 216, 368
-0.96337, 153, 129, 216, 256
-0.963587, 17, 217, 80, 280
-0.963652, 25, 113, 88, 176
-0.963715, 161, 305, 224, 368
-0.963909, 377, 193, 440, 256
-0.964183, 193, 1, 320, 128
-0.96474, 25, 49, 88, 176
-0.96486, 49, 113, 112, 176
-0.965052, 89, 89, 152, 152
-0.965272, 57, 161, 120, 288
-0.965738, 193, 193, 320, 320
-0.965946, 425, 145, 488, 272
-0.966181, 177, 17, 240, 144
-0.966208, 401, 201, 464, 264
-0.96623, 321, 113, 448, 240
-0.96632, 81, 241, 208, 368
-0.966472, 113, 73, 176, 136
-0.966626, 433, 209, 496, 272
-0.966725, 129, 97, 256, 224
-0.966808, 57, 81, 120, 144
-0.967211, 193, 297, 256, 360
-0.968002, 209, 241, 336, 368
-0.968215, 17, 89, 80, 152
-0.968265, 129, 33, 192, 160
-0.96846, 33, 185, 96, 248
-0.968663, 9, 145, 72, 272
-0.968725, 177, 201, 240, 264
-0.969028, 201, 17, 264, 80
-0.969177, 393, 65, 456, 192
-0.969201, 65, 1, 128, 256
-0.969492, 377, 225, 440, 288
-0.969578, 25, 161, 88, 224
-0.969635, 225, 273, 288, 336
-0.969668, 129, 129, 192, 192
-0.969878, 113, 97, 176, 160
-0.969913, 97, 153, 160, 216
-0.969934, 49, 81, 176, 144
-0.970369, 57, 129, 88, 256
-0.97037, 17, 153, 144, 216
-0.97101, 377, 169, 440, 232
-0.971167, 1, 129, 64, 192
-0.971182, 425, 185, 488, 248
-0.97146, 177, 129, 240, 256
-0.971487, 321, 241, 448, 368
-0.971842, 57, 177, 120, 240
-0.971862, 217, 193, 280, 320
-0.971872, 369, 209, 496, 336
-0.971906, 353, 113, 416, 240
-0.972297, 241, 33, 368, 160
-0.972331, 97, 161, 224, 224
-0.972852, 65, 1, 128, 64
-0.972902, 121, 129, 184, 256
-0.972973, 33, 65, 96, 320
-0.973254, 369, 113, 496, 240
-0.973255, 177, 25, 240, 88
-0.97365, 145, 273, 272, 336
-0.973669, 177, 273, 208, 336
-0.973833, 89, 41, 152, 104
-0.973876, 217, 41, 280, 104
-0.973904, 105, 1, 168, 64
-0.973967, 33, 121, 160, 184
-0.974158, 17, 249, 80, 312
-0.974399, 97, 113, 224, 176
-0.974506, 177, 129, 304, 256
-0.974529, 81, 145, 112, 272
-0.974619, 225, 49, 480, 176
-0.97474, 225, 1, 288, 128
-0.974801, 361, 193, 424, 320
-0.974845, 101, 113, 132, 240
-0.974983, 401, 225, 464, 288
-0.975079, 37, 129, 68, 256
-0.975227, 433, 153, 496, 216
-0.97525, 69, 113, 100, 240
-0.975269, 105, 1, 168, 256
-0.975283, 61, 153, 92, 216
-0.975323, 25, 313, 88, 375
-0.975368, 429, 201, 460, 264
-0.975447, 153, 33, 216, 160
-0.975508, 145, 305, 272, 368
-0.975551, 169, 137, 232, 200
-0.975585, 49, 1, 176, 64
-0.975752, 49, 1, 80, 64
-0.975793, 241, 57, 304, 120
-0.975815, 321, 49, 448, 176
-0.975826, 1, 289, 64, 352
-0.975857, 393, 209, 424, 272
-0.975861, 177, 1, 240, 64
-0.975923, 105, 129, 168, 192
-0.975926, 137, 313, 200, 375
-0.975992, 97, 137, 224, 200
-0.976043, 153, 177, 216, 240
-0.976319, 425, 1, 488, 128
-0.976345, 321, 193, 448, 320
-0.976454, 385, 145, 448, 208
-0.976541, 33, 137, 96, 200
-0.976737, 361, 241, 424, 368
-0.976786, 53, 65, 84, 192
-0.976883, 1, 1, 128, 64
-0.976937, 305, 1, 432, 128
-0.977094, 25, 65, 88, 128
-0.977115, 109, 161, 140, 224
-0.977157, 201, 209, 264, 272
-0.977274, 53, 89, 84, 152
-0.977441, 93, 17, 124, 80
-0.977469, 249, 1, 312, 128
-0.977608, 1, 73, 128, 136
-0.977611, 193, 49, 256, 112
-0.977672, 41, 33, 104, 96
-0.977679, 393, 121, 456, 184
-0.977804, 33, 33, 160, 96
-0.977889, 329, 81, 392, 144
-0.977943, 273, 241, 400, 368
-0.977959, 81, 193, 208, 320
-0.97797, 53, 129, 84, 192
-0.978076, 17, 193, 144, 256
-0.978099, 321, 33, 384, 160
-0.978203, 33, 153, 64, 216
-0.978229, 45, 1, 76, 128
-0.978271, 273, 97, 400, 224
-0.978298, 177, 113, 208, 240
-0.978365, 65, 41, 128, 104
-0.978377, 165, 97, 196, 224
-0.978429, 137, 1, 168, 64
-0.978482, 1, 9, 64, 72
-0.978522, 9, 129, 72, 375
-0.978582, 177, 65, 240, 192
-0.978626, 377, 1, 440, 128
-0.978785, 409, 225, 440, 288
-0.978807, 137, 97, 200, 352
-0.978814, 97, 305, 224, 368
-0.978887, 113, 113, 144, 240
-0.978932, 193, 201, 224, 264
-0.978944, 409, 201, 440, 264
-0.978989, 197, 193, 228, 320
-0.979097, 137, 1, 200, 256
-0.979165, 97, 185, 224, 248
-0.979293, 193, 177, 256, 240
-0.979329, 97, 1, 224, 64
-0.979332, 69, 1, 100, 64
-0.979334, 109, 137, 140, 200
-0.97947, 145, 17, 176, 144
-0.979498, 161, 129, 224, 375
-0.979518, 417, 49, 480, 176
-0.979609, 153, 81, 216, 208
-0.979626, 113, 313, 176, 375
-0.979639, 177, 241, 208, 368
-0.979685, 129, 57, 256, 120
-0.979722, 369, 169, 496, 232
-0.979813, 1, 257, 128, 320
-0.979821, 353, 217, 416, 280
-0.979868, 137, 65, 200, 128
-0.97996, 137, 153, 200, 216
-0.980018, 401, 177, 464, 240
-0.98008, 1, 217, 128, 280
-0.980105, 117, 17, 148, 144
-0.980126, 169, 105, 200, 168
-0.980172, 213, 1, 244, 128
-0.980181, 77, 153, 108, 216
-0.980223, 397, 177, 428, 240
-0.980244, 117, 89, 148, 152
-0.980259, 281, 1, 344, 128
-0.980312, 1, 33, 64, 96
-0.98034, 185, 1, 248, 256
-0.980431, 361, 257, 424, 320
-0.98051, 145, 249, 208, 312
-0.980545, 217, 297, 280, 360
-0.980573, 21, 217, 52, 280
-0.980598, 89, 1, 120, 128
-0.980663, 329, 241, 392, 368
-0.98067, 109, 161, 140, 288
-0.980684, 169, 49, 232, 112
-0.980754, 57, 17, 88, 144
-0.980837, 125, 1, 156, 64
-0.980914, 97, 89, 224, 152
-0.980928, 89, 137, 120, 200
-0.980998, 13, 241, 44, 368
-0.981004, 385, 241, 448, 368
-0.981008, 81, 177, 144, 304
-0.981013, 41, 81, 72, 208
-0.981074, 105, 1, 136, 64
-0.9811, 121, 145, 152, 208
-0.981157, 65, 313, 128, 375
-0.981178, 409, 145, 472, 208
-0.981237, 89, 97, 120, 224
-0.981258, 369, 209, 496, 272
-0.981277, 129, 1, 192, 64
-0.981456, 33, 185, 64, 248
-0.981512, 49, 65, 80, 128
-0.981533, 1, 65, 32, 192
-0.981657, 177, 177, 208, 240
-0.981674, 389, 161, 420, 288
-0.981708, 329, 97, 392, 224
-0.981714, 101, 17, 132, 144
-0.981731, 161, 249, 288, 312
-0.981765, 57, 177, 88, 240
-0.981787, 21, 193, 52, 320
-0.981816, 105, 113, 136, 176
-0.981839, 81, 65, 144, 128
-0.981844, 185, 177, 216, 304
-0.981859, 97, 177, 160, 240
-0.981877, 417, 65, 480, 128
-0.981887, 113, 65, 144, 192
-0.981894, 13, 113, 44, 240
-0.981944, 297, 49, 360, 176
-0.981954, 1, 97, 128, 160
-0.981955, 353, 121, 416, 184
-0.981992, 121, 25, 184, 88
-0.981994, 213, 241, 244, 368
-0.982058, 65, 129, 96, 192
-0.982088, 57, 97, 120, 352
-0.982103, 137, 289, 200, 352
-0.982131, 125, 65, 156, 192
-0.982173, 49, 57, 176, 120
-0.982209, 9, 185, 72, 248
-0.982225, 133, 65, 164, 128
-0.982316, 109, 33, 140, 96
-0.982332, 49, 153, 80, 216
-0.982454, 105, 97, 168, 352
-0.98252, 321, 57, 384, 120
-0.982563, 177, 113, 240, 176
-0.982583, 353, 17, 416, 144
-0.982587, 169, 49, 200, 176
-0.982634, 129, 225, 192, 352
-0.982665, 305, 241, 368, 368
-0.982702, 225, 1, 288, 64
-0.982753, 13, 129, 44, 192
-0.982769, 53, 177, 84, 304
-0.982774, 181, 137, 212, 200
-0.982842, 249, 25, 312, 88
-0.982965, 225, 297, 256, 360
-0.982991, 145, 177, 208, 304
-0.983074, 81, 9, 112, 72
-0.983098, 209, 281, 336, 344
-0.983121, 129, 25, 256, 88
-0.983259, 433, 233, 496, 296
-0.983319, 9, 1, 72, 256
-0.983325, 385, 233, 416, 296
-0.983388, 1, 153, 64, 216
-0.983586, 81, 33, 208, 96
-0.983612, 57, 201, 120, 264
-0.983652, 177, 25, 304, 88
-0.983684, 25, 1, 88, 375
-0.983703, 469, 129, 500, 256
-0.983751, 449, 145, 480, 272
-0.983754, 165, 289, 196, 352
-0.983804, 441, 201, 472, 264
-0.983816, 249, 1, 312, 64
-0.983835, 209, 289, 240, 352
-0.983868, 73, 17, 104, 144
-0.983948, 153, 1, 216, 64
-0.983964, 129, 17, 160, 144
-0.983984, 41, 129, 72, 192
-0.98402, 377, 97, 440, 160
-0.984038, 89, 161, 120, 224
-0.984131, 193, 305, 224, 368
-0.984185, 1, 65, 64, 128
-0.984195, 129, 1, 192, 375
-0.984253, 153, 81, 184, 208
-0.984264, 1, 241, 32, 304
-0.984276, 1, 313, 64, 375
-0.984286, 409, 177, 440, 240
-0.984314, 453, 193, 484, 256
-0.984349, 225, 241, 288, 368
-0.984368, 241, 193, 368, 320
-0.984474, 417, 113, 480, 176
-0.984546, 13, 297, 44, 360
-0.984558, 465, 193, 496, 256
-0.984583, 329, 105, 392, 168
-0.984612, 393, 209, 424, 336
-0.984744, 265, 273, 328, 336
-0.984747, 241, 273, 272, 336
-0.98478, 33, 209, 64, 272
-0.984832, 161, 137, 288, 200
-0.984894, 465, 177, 496, 304
-0.984911, 249, 241, 312, 368
-0.984912, 145, 193, 272, 256
-0.984914, 33, 177, 64, 304
-0.984933, 37, 313, 68, 375
-0.98498, 369, 17, 496, 144
-0.984991, 97, 281, 224, 344
-0.985008, 1, 73, 32, 136
-0.985096, 65, 81, 96, 144
-0.98513, 321, 257, 384, 320
-0.985168, 281, 241, 344, 368
-0.985182, 369, 65, 496, 192
-0.985217, 453, 193, 484, 320
-0.985222, 425, 89, 488, 152
-0.985231, 73, 105, 104, 168
-0.985251, 289, 65, 352, 128
-0.985319, 81, 33, 112, 96
-0.985328, 17, 313, 144, 375
-0.985345, 433, 193, 464, 320
-0.985385, 221, 273, 252, 336
-0.985394, 201, 145, 264, 272
-0.985401, 185, 1, 248, 375
-0.985404, 161, 1, 288, 64
-0.985416, 1, 129, 32, 192
-0.985457, 37, 81, 68, 144
-0.985465, 93, 113, 124, 176
-0.985484, 33, 17, 64, 144
-0.985489, 193, 305, 320, 368
-0.985553, 433, 145, 464, 272
-0.985658, 1, 1, 64, 375
-0.985695, 217, 249, 280, 312
-0.985733, 469, 145, 500, 208
-0.985769, 305, 25, 368, 88
-0.985826, 249, 49, 280, 112
-0.985845, 169, 161, 200, 288
-0.985854, 321, 1, 384, 64
-0.985876, 217, 25, 248, 88
-0.985919, 149, 313, 180, 375
-0.985949, 241, 49, 304, 176
-0.986007, 425, 97, 488, 224
-0.986039, 141, 65, 172, 192
-0.986119, 349, 1, 380, 64
-0.986137, 161, 89, 288, 152
-0.986174, 125, 129, 156, 256
-0.986225, 177, 49, 304, 112
-0.986233, 241, 65, 368, 128
-0.986249, 341, 89, 372, 152
-0.986267, 385, 129, 448, 375
-0.986301, 153, 201, 216, 264
-0.986318, 417, 241, 480, 368
-0.98641, 209, 1, 336, 64
-0.98647, 385, 177, 416, 240
-0.986477, 157, 17, 188, 144
-0.98651, 21, 169, 52, 232
-0.986534, 101, 65, 132, 192
-0.986536, 305, 249, 432, 312
-0.986542, 369, 241, 496, 304
-0.986663, 409, 177, 440, 304
-0.986666, 209, 257, 240, 320
-0.986672, 113, 233, 240, 296
-0.986679, 241, 41, 368, 104
-0.986711, 21, 193, 52, 256
-0.986728, 353, 25, 416, 88
-0.98673, 217, 49, 248, 112
-0.986755, 177, 169, 304, 232
-0.986781, 437, 177, 468, 240
-0.986833, 145, 65, 176, 128
-0.98684, 65, 65, 96, 192
-0.986873, 1, 193, 32, 320
-0.986905, 393, 153, 424, 216
-0.986911, 297, 265, 360, 328
-0.986926, 165, 241, 196, 368
-0.98697, 129, 25, 160, 88
-0.986987, 233, 57, 264, 120
-0.986994, 213, 201, 244, 264
-0.987018, 121, 65, 152, 128
-0.987027, 113, 49, 176, 112
-0.987041, 425, 73, 456, 136
-0.987118, 101, 185, 132, 248
-0.987118, 385, 249, 448, 312
-0.987238, 229, 209, 260, 336
-0.987248, 161, 33, 224, 288
-0.987281, 337, 65, 368, 128
-0.987281, 129, 121, 160, 184
-0.987293, 129, 97, 160, 160
-0.987438, 369, 145, 496, 208
-0.987442, 201, 1, 232, 128
-0.987464, 177, 73, 240, 136
-0.987476, 153, 25, 216, 88
-0.987526, 345, 1, 408, 256
-0.987587, 45, 177, 76, 240
-0.987624, 353, 65, 416, 192
-0.987665, 353, 193, 416, 256
-0.987669, 65, 1, 128, 375
-0.987797, 409, 129, 472, 375
-0.987805, 93, 313, 124, 375
-0.987817, 217, 1, 248, 64
-0.987829, 241, 305, 304, 368
-0.987831, 81, 129, 144, 375
-0.98789, 413, 105, 444, 168
-0.987896, 369, 1, 432, 256
-0.987898, 217, 89, 280, 152
-0.987924, 357, 89, 388, 152
-0.987945, 77, 65, 108, 192
-0.987965, 161, 249, 192, 312
-0.987984, 181, 17, 212, 144
-0.988037, 321, 121, 448, 184
-0.988057, 433, 41, 496, 104
-0.98808, 93, 73, 124, 136
-0.988092, 193, 201, 320, 264
-0.988116, 397, 233, 428, 296
-0.988164, 149, 89, 180, 152
-0.98819, 241, 1, 304, 375
-0.988226, 209, 233, 240, 296
-0.98823, 345, 97, 408, 352
-0.988238, 97, 41, 128, 104
-0.98831, 25, 241, 88, 368
-0.988313, 209, 241, 336, 304
-0.988329, 189, 273, 220, 336
-0.988365, 217, 1, 280, 375
-0.988393, 321, 57, 448, 120
-0.988426, 13, 65, 44, 192
-0.988435, 281, 41, 344, 104
-0.988457, 93, 161, 124, 288
-0.98848, 177, 249, 208, 312
-0.98852, 1, 1, 32, 128
-0.988551, 225, 1, 256, 128
-0.988611, 57, 241, 120, 368
-0.988617, 385, 289, 448, 352
-0.988655, 189, 129, 220, 256
-0.988676, 429, 225, 460, 288
-0.9887, 153, 285, 216, 316
-0.988821, 305, 313, 368, 375
-0.988828, 105, 241, 168, 368
-0.988846, 345, 281, 408, 344
-0.988848, 81, 185, 112, 248
-0.988865, 469, 65, 500, 192
-0.988903, 141, 33, 172, 96
-0.988903, 181, 201, 212, 264
-0.988904, 409, 217, 472, 248
-0.988934, 353, 1, 416, 375
-0.988937, 457, 217, 488, 280
-0.988982, 337, 193, 400, 320
-0.988997, 201, 17, 232, 80
-0.988999, 161, 113, 288, 176
-0.989016, 185, 129, 248, 375
-0.989054, 1, 161, 256, 224
-0.98911, 409, 205, 472, 236
-0.989158, 49, 41, 80, 104
-0.989167, 353, 89, 416, 152
-0.989181, 241, 25, 272, 88
-0.989266, 1, 185, 256, 248
-0.989381, 297, 1, 360, 256
-0.989384, 385, 233, 448, 264
-0.989399, 121, 265, 184, 328
-0.989421, 377, 221, 440, 252
-0.989446, 273, 313, 336, 375
-0.989451, 185, 277, 248, 308
-0.989462, 377, 209, 440, 240
-0.989518, 381, 209, 412, 272
-0.989567, 433, 97, 496, 352
-0.989583, 321, 185, 448, 248
-0.989616, 41, 9, 104, 40
-0.98966, 25, 325, 88, 356
-0.989662, 193, 293, 256, 324
-0.989673, 89, 137, 152, 168
-0.989727, 161, 1, 224, 375
-0.989743, 353, 81, 480, 144
-0.989771, 361, 313, 424, 375
-0.989775, 161, 309, 224, 340
-0.98979, 337, 49, 368, 176
-0.989796, 257, 265, 384, 328
-0.989815, 29, 81, 60, 208
-0.989817, 165, 169, 196, 232
-0.98982, 305, 89, 368, 152
-0.989877, 185, 209, 248, 240
-0.989882, 57, 117, 120, 148
-0.989902, 1, 137, 256, 200
-0.989915, 205, 41, 236, 104
-0.989937, 1, 49, 32, 112
-0.989944, 169, 209, 200, 272
-0.989973, 469, 217, 500, 280
-0.990006, 41, 29, 104, 60
-0.990028, 197, 241, 228, 304
-0.990036, 117, 113, 148, 176
-0.990043, 161, 65, 192, 128
-0.990064, 105, 81, 136, 144
-0.990068, 445, 225, 476, 288
-0.990086, 49, 153, 112, 184
-0.990088, 433, 233, 496, 264
-0.990116, 373, 241, 404, 304
-0.99016, 329, 25, 392, 88
-0.99016, 81, 257, 208, 320
-0.990163, 377, 197, 440, 228
-0.990168, 197, 241, 228, 368
-0.990187, 377, 113, 408, 240
-0.990191, 209, 193, 240, 320
-0.990195, 397, 113, 428, 240
-0.990224, 21, 249, 52, 312
-0.990228, 305, 289, 368, 352
-0.990256, 69, 161, 100, 288
-0.990269, 261, 49, 292, 112
-0.990281, 145, 113, 208, 144
-0.99031, 189, 1, 220, 64
-0.990311, 345, 1, 376, 128
-0.990322, 161, 297, 224, 328
-0.990371, 81, 153, 144, 184
-0.990381, 185, 265, 248, 296
-0.990413, 69, 33, 100, 96
-0.990458, 49, 233, 176, 296
-0.990461, 105, 93, 168, 124
-0.990481, 1, 25, 64, 56
-0.990506, 337, 33, 464, 96
-0.990524, 353, 161, 416, 224
-0.99054, 137, 101, 200, 132
-0.990541, 25, 105, 88, 136
-0.990544, 205, 313, 236, 375
-0.990551, 57, 89, 120, 120
-0.990562, 25, 153, 88, 184
-0.990578, 181, 113, 212, 176
-0.99058, 53, 201, 84, 264
-0.990589, 161, 341, 224, 372
-0.990589, 417, 65, 448, 192
-0.990592, 169, 145, 200, 208
-0.990617, 65, 329, 128, 360
-0.990628, 121, 153, 184, 184
-0.99063, 225, 281, 288, 312
-0.990633, 433, 209, 496, 240
-0.990638, 189, 33, 220, 96
-0.990654, 297, 1, 360, 375
-0.990682, 17, 253, 80, 284
-0.990685, 357, 33, 388, 160
-0.990687, 1, 217, 32, 280
-0.990689, 425, 177, 456, 240
-0.990725, 73, 105, 136, 136
-0.990732, 421, 193, 452, 320
-0.990737, 5, 97, 36, 160
-0.990743, 381, 209, 412, 336
-0.990745, 321, 217, 448, 280
-0.990754, 161, 321, 224, 352
-0.990773, 49, 201, 112, 232
-0.990798, 57, 189, 120, 220
-0.990808, 17, 117, 80, 148
-0.990814, 97, 105, 160, 136
-0.990815, 409, 193, 472, 224
-0.99083, 161, 201, 224, 232
-0.990849, 81, 93, 144, 124
-0.990858, 37, 1, 68, 64
-0.990882, 261, 1, 292, 128
-0.990904, 1, 209, 256, 272
-0.990926, 33, 189, 96, 220
-0.990933, 433, 1, 496, 375
-0.990942, 225, 193, 288, 256
-0.990949, 145, 273, 208, 304
-0.99096, 273, 1, 400, 64
-0.99096, 49, 137, 112, 168
-0.990992, 345, 49, 408, 112
-0.991, 129, 133, 192, 164
-0.991004, 81, 121, 144, 152
-0.991014, 225, 53, 288, 84
-0.991054, 409, 129, 440, 256
-0.991059, 433, 221, 496, 252
-0.99106, 273, 145, 400, 272
-0.99106, 409, 245, 472, 276
-0.991062, 177, 241, 240, 272
-0.991067, 33, 77, 96, 108
-0.991083, 273, 1, 336, 375
-0.991085, 409, 229, 472, 260
-0.99111, 369, 253, 432, 284
-0.99111, 169, 229, 232, 260
-0.991115, 105, 1, 168, 32
-0.991171, 17, 141, 80, 172
-0.991176, 17, 233, 80, 264
-0.991207, 185, 197, 248, 228
-0.991228, 245, 1, 276, 128
-0.991231, 49, 101, 112, 132
-0.991294, 169, 157, 232, 188
-0.991305, 217, 65, 280, 128
-0.991331, 209, 1, 272, 256
-0.991332, 421, 145, 452, 272
-0.991341, 25, 217, 88, 248
-0.991344, 273, 105, 400, 168
-0.991345, 1, 281, 128, 344
-0.991351, 193, 313, 256, 344
-0.991363, 273, 49, 336, 176
-0.991365, 305, 153, 432, 216
-0.991379, 385, 185, 448, 216
-0.991388, 433, 197, 496, 228
-0.991399, 25, 205, 88, 236
-0.991411, 1, 321, 64, 352
-0.991427, 145, 177, 208, 208
-0.99143, 161, 189, 224, 220
-0.991457, 385, 169, 448, 200
-0.99146, 409, 149, 472, 180
-0.991472, 377, 109, 440, 140
-0.991516, 57, 177, 120, 208
-0.991533, 81, 201, 144, 264
-0.991549, 177, 49, 240, 80
-0.991552, 33, 41, 96, 72
-0.991554, 9, 13, 72, 44
-0.991562, 129, 333, 192, 364
-0.991571, 81, 81, 144, 112
-0.991571, 17, 89, 80, 120
-0.991573, 57, 233, 120, 296
-0.991602, 249, 1, 312, 256
-0.991616, 65, 29, 128, 60
-0.991623, 201, 33, 264, 64
-0.991631, 177, 253, 240, 284
-0.991636, 57, 165, 120, 196
-0.991636, 9, 129, 72, 160
-0.991676, 217, 265, 280, 296
-0.991684, 417, 85, 480, 116
-0.991684, 185, 329, 248, 360
-0.991732, 57, 77, 120, 108
-0.991739, 153, 225, 216, 288
-0.991747, 81, 165, 144, 196
-0.991749, 105, 117, 168, 148
-0.991764, 113, 81, 176, 112
-0.991765, 9, 265, 72, 296
-0.99177, 201, 21, 264, 52
-0.99179, 369, 113, 496, 176
-0.991791, 121, 321, 184, 352
-0.991796, 137, 345, 200, 375
-0.991799, 97, 189, 160, 220
-0.991799, 161, 213, 224, 244
-0.991803, 25, 165, 88, 196
-0.991822, 145, 165, 208, 196
-0.991831, 289, 33, 416, 96
-0.99184, 385, 153, 448, 184
-0.99185, 105, 37, 168, 68
-0.991858, 33, 177, 96, 208
-0.991859, 89, 17, 152, 48
-0.991859, 129, 297, 384, 360
-0.991871, 385, 141, 448, 172
-0.991909, 177, 13, 240, 44
-0.991942, 9, 193, 72, 224
-0.991942, 433, 249, 496, 280
-0.991948, 337, 9, 464, 72
-0.991955, 433, 153, 496, 184
-0.991955, 1, 65, 64, 96
-0.991956, 361, 1, 424, 64
-0.991958, 321, 97, 384, 352
-0.991971, 369, 225, 400, 352
-0.991977, 73, 201, 136, 232
-0.991995, 217, 5, 280, 36
-0.991995, 425, 61, 488, 92
-0.992017, 105, 341, 168, 372
-0.992023, 201, 53, 264, 84
-0.992025, 409, 1, 440, 128
-0.992025, 73, 1, 136, 32
-0.99203, 105, 169, 168, 200
-0.992031, 329, 89, 392, 120
-0.992036, 161, 37, 224, 68
-0.992048, 121, 49, 184, 80
-0.992062, 65, 13, 128, 44
-0.992066, 1, 337, 64, 368
-0.992069, 1, 309, 64, 340
-0.99209, 1, 161, 500, 224
-0.992092, 1, 193, 500, 256
-0.992101, 57, 41, 120, 72
-0.992106, 345, 245, 408, 276
-0.992117, 369, 1, 400, 128
-0.99212, 249, 277, 312, 308
-0.992132, 1, 113, 500, 176
-0.992145, 9, 37, 72, 68
-0.992192, 169, 145, 232, 176
-0.992195, 1, 233, 256, 296
-0.992229, 425, 137, 488, 168
-0.992229, 409, 177, 472, 208
-0.992238, 97, 209, 224, 272
-0.99224, 305, 273, 432, 336
-0.99225, 469, 225, 500, 352
-0.992282, 393, 221, 424, 252
-0.992328, 217, 129, 280, 375
-0.992369, 161, 225, 288, 288
-0.992438, 181, 281, 212, 312
-0.992454, 57, 97, 88, 128
-0.992466, 101, 157, 132, 188
-0.992483, 53, 113, 84, 144
-0.992513, 1, 137, 500, 200
-0.992528, 161, 273, 416, 336
-0.992554, 417, 217, 448, 248
-0.992569, 105, 1, 168, 375
-0.992602, 97, 37, 128, 68
-0.992602, 189, 209, 220, 240
-0.992647, 393, 241, 424, 272
-0.992655, 45, 29, 76, 60
-0.992661, 409, 233, 440, 264
-0.992665, 201, 49, 264, 176
-0.992669, 429, 217, 460, 248
-0.992675, 21, 233, 52, 264
-0.992676, 113, 93, 144, 124
-0.99268, 109, 169, 140, 200
-0.992682, 61, 165, 92, 196
-0.992683, 49, 77, 80, 108
-0.992691, 413, 201, 444, 232
-0.992692, 445, 221, 476, 252
-0.992698, 117, 145, 148, 176
-0.992701, 33, 321, 64, 352
-0.992702, 89, 25, 120, 56
-0.992704, 93, 329, 124, 360
-0.992704, 57, 153, 88, 184
-0.992705, 61, 177, 92, 208
-0.99271, 109, 37, 140, 68
-0.992711, 177, 269, 208, 300
-0.992715, 77, 149, 108, 180
-0.992719, 405, 213, 436, 244
-0.992738, 425, 201, 456, 232
-0.992753, 229, 277, 260, 308
-0.992759, 81, 161, 112, 192
-0.992766, 57, 125, 88, 156
-0.992774, 57, 33, 88, 64
-0.992794, 165, 345, 196, 375
-0.992797, 85, 37, 116, 68
-0.992809, 121, 157, 152, 188
-0.992817, 69, 109, 100, 140
-0.992819, 213, 209, 244, 240
-0.992821, 385, 201, 416, 232
-0.992822, 93, 109, 124, 140
-0.992828, 101, 25, 132, 56
-0.99283, 73, 25, 104, 56
-0.992831, 45, 93, 76, 124
-0.992837, 45, 9, 76, 40
-0.992843, 33, 221, 64, 252
-0.992852, 185, 197, 216, 228
-0.992854, 33, 169, 64, 200
-0.992863, 377, 161, 408, 288
-0.992878, 33, 157, 64, 188
-0.992883, 461, 201, 492, 232
-0.992885, 89, 149, 120, 180
-0.992886, 1, 81, 32, 112
-0.992891, 401, 1, 464, 128
-0.992894, 237, 93, 268, 124
-0.9929, 137, 1, 168, 32
-0.992902, 201, 201, 232, 232
-0.992905, 1, 241, 32, 272
-0.992907, 401, 197, 432, 228
-0.992909, 433, 229, 464, 260
-0.99291, 33, 201, 64, 232
-0.992922, 445, 201, 476, 232
-0.992925, 121, 113, 152, 144
-0.992926, 121, 29, 152, 60
-0.992928, 1, 253, 32, 284
-0.992934, 125, 97, 156, 128
-0.992936, 165, 101, 196, 132
-0.992937, 1, 297, 256, 360
-0.992939, 457, 233, 488, 264
-0.992941, 41, 181, 72, 212
-0.99295, 169, 285, 200, 316
-0.992957, 381, 241, 412, 272
-0.992957, 421, 237, 452, 268
-0.992959, 389, 185, 420, 216
-0.992967, 465, 153, 496, 184
-0.992974, 153, 333, 184, 364
-0.99298, 381, 229, 412, 260
-0.992981, 93, 13, 124, 44
-0.992983, 109, 125, 140, 156
-0.992984, 181, 185, 212, 216
-0.99299, 97, 129, 352, 192
-0.993, 201, 313, 232, 344
-0.993003, 465, 221, 496, 252
-0.993003, 197, 325, 228, 356
-0.993003, 177, 337, 208, 368
-0.993012, 113, 81, 144, 112
-0.993026, 329, 1, 392, 375
-0.993026, 73, 121, 104, 152
-0.993027, 65, 81, 96, 112
-0.993036, 69, 97, 100, 128
-0.993038, 89, 173, 120, 204
-0.993038, 109, 13, 140, 44
-0.99304, 177, 209, 208, 240
-0.993041, 89, 49, 120, 176
-0.993044, 133, 73, 164, 104
-0.993049, 253, 53, 284, 84
-0.99305, 53, 189, 84, 220
-0.99305, 225, 297, 256, 328
-0.993052, 89, 189, 120, 220
-0.993062, 93, 137, 124, 168
-0.993064, 13, 153, 44, 184
-0.993066, 177, 153, 208, 184
-0.99307, 201, 297, 232, 328
-0.993072, 429, 49, 460, 176
-0.993074, 405, 185, 436, 216
-0.993077, 209, 281, 240, 312
-0.993084, 33, 145, 64, 176
-0.993085, 161, 165, 192, 196
-0.993088, 63, 153, 78, 216
-0.993091, 445, 233, 476, 264
-0.993092, 165, 269, 196, 300
-0.993093, 33, 25, 64, 56
-0.993093, 1, 113, 256, 176
-0.993095, 9, 137, 40, 168
-0.993098, 53, 137, 84, 168
-0.993101, 273, 1, 336, 256
-0.993105, 249, 281, 280, 312
-0.993111, 221, 53, 252, 84
-0.993113, 225, 89, 256, 120
-0.993113, 169, 245, 200, 276
-0.993113, 205, 249, 236, 280
-0.993121, 141, 45, 172, 76
-0.993122, 377, 253, 408, 284
-0.993123, 101, 97, 132, 128
-0.993125, 453, 149, 484, 180
-0.993127, 465, 189, 496, 220
-0.993127, 213, 313, 244, 344
-0.993133, 173, 113, 204, 144
-0.993134, 185, 65, 216, 192
-0.993136, 49, 257, 80, 288
-0.993137, 145, 93, 176, 124
-0.993137, 49, 165, 80, 196
-0.99314, 81, 109, 112, 140
-0.993143, 21, 173, 52, 204
-0.993144, 141, 29, 172, 60
-0.993146, 213, 293, 244, 324
-0.99315, 101, 81, 132, 112
-0.993152, 81, 329, 112, 360
-0.993153, 45, 41, 76, 72
-0.993154, 125, 13, 156, 44
-0.993158, 69, 37, 100, 68
-0.993179, 1, 241, 32, 368
-0.993194, 377, 1, 440, 375
-0.993285, 49, 81, 176, 112
-0.993299, 353, 313, 480, 375
-0.993304, 193, 209, 448, 272
-0.993321, 129, 57, 384, 120
-0.993336, 305, 81, 432, 144
-0.993356, 1, 257, 256, 320
-0.993398, 321, 1, 384, 256
-0.99344, 365, 97, 396, 224
-0.993442, 321, 49, 352, 176
-0.993469, 405, 225, 436, 352
-0.99347, 1, 89, 256, 152
-0.993534, 241, 313, 368, 375
-0.993593, 49, 93, 176, 124
-0.993678, 369, 57, 496, 120
-0.993702, 289, 305, 416, 368
-0.993749, 33, 1, 288, 64
-0.993771, 71, 161, 86, 224
-0.993803, 97, 169, 224, 200
-0.993844, 17, 329, 144, 360
-0.993848, 97, 161, 352, 224
-0.993972, 369, 281, 496, 344
-0.993974, 241, 193, 304, 320
-0.99402, 41, 225, 72, 352
-0.994027, 97, 189, 224, 220
-0.994034, 409, 1, 472, 375
-0.994046, 61, 89, 76, 152
-0.994051, 69, 137, 84, 200
-0.994058, 33, 41, 288, 104
-0.994066, 137, 113, 168, 240
-0.994099, 145, 301, 272, 332
-0.994163, 97, 157, 224, 188
-0.994172, 1, 65, 500, 128
-0.994214, 337, 97, 368, 224
-0.994224, 103, 161, 118, 224
-0.994321, 145, 281, 272, 312
-0.994327, 1, 217, 500, 280
-0.994371, 149, 241, 180, 368
-0.994391, 183, 265, 198, 328
-0.994397, 369, 225, 496, 256
-0.994424, 81, 145, 208, 176
-0.994434, 49, 157, 176, 188
-0.99445, 81, 105, 208, 136
-0.994483, 193, 185, 448, 248
-0.994513, 53, 81, 68, 144
-0.994536, 1, 113, 32, 240
-0.994537, 33, 141, 160, 172
-0.99457, 161, 25, 416, 88
-0.994634, 33, 125, 160, 156
-0.994693, 281, 1, 312, 128
-0.994715, 1, 65, 256, 128
-0.994749, 25, 129, 56, 256
-0.994783, 97, 325, 224, 356
-0.994885, 161, 1, 416, 64
-0.994932, 97, 125, 224, 156
-0.99495, 145, 313, 272, 344
-0.994968, 195, 193, 210, 256
-0.994987, 17, 29, 144, 60
-0.994999, 97, 193, 352, 256
-0.995013, 101, 9, 116, 72
-0.995016, 65, 25, 192, 56
-0.995028, 145, 269, 272, 300
-0.995031, 161, 233, 416, 296
-0.995037, 55, 105, 70, 168
-0.995045, 17, 189, 144, 220
-0.995082, 201, 305, 216, 368
-0.995101, 49, 1, 64, 64
-0.995102, 49, 1, 176, 32
-0.995104, 1, 1, 500, 64
-0.995138, 127, 137, 142, 200
-0.99514, 249, 241, 280, 368
-0.995179, 257, 33, 500, 96
-0.995191, 1, 81, 128, 112
-0.995192, 435, 201, 450, 264
-0.995198, 369, 197, 496, 228
-0.995244, 405, 217, 420, 280
-0.995249, 113, 153, 128, 216
-0.995254, 301, 241, 332, 368
-0.995286, 1, 157, 128, 188
-0.99531, 117, 121, 132, 184
-0.99533, 273, 185, 400, 248
-0.995337, 77, 145, 92, 208
-0.995343, 33, 193, 48, 256
-0.995385, 57, 153, 72, 216
-0.995387, 381, 65, 412, 192
-0.995426, 97, 153, 112, 216
-0.995427, 27, 225, 42, 288
-0.995433, 57, 129, 72, 192
-0.99544, 193, 301, 320, 332
-0.995441, 65, 1, 80, 64
-0.995473, 17, 173, 144, 204
-0.995478, 161, 97, 416, 160
-0.995493, 457, 201, 472, 264
-0.995509, 191, 273, 206, 336
-0.995521, 1, 237, 128, 268
-0.995531, 399, 217, 414, 280
-0.995534, 189, 185, 204, 248
-0.995536, 33, 113, 160, 144
-0.995538, 17, 13, 144, 44
-0.995556, 465, 193, 480, 256
-0.995562, 369, 237, 496, 268
-0.995584, 117, 81, 132, 144
-0.995617, 67, 81, 82, 144
-0.995649, 151, 1, 166, 64
-0.995656, 17, 201, 144, 232
-0.99566, 97, 341, 224, 372
-0.995663, 1, 261, 128, 292
-0.995678, 13, 289, 28, 352
-0.99568, 93, 1, 124, 256
-0.995683, 401, 177, 416, 240
-0.995695, 181, 145, 196, 208
-0.995699, 161, 53, 288, 84
-0.995699, 107, 137, 122, 200
-0.99571, 145, 329, 272, 360
-0.995718, 57, 177, 72, 240
-0.995722, 257, 249, 500, 312
-0.995729, 97, 129, 112, 192
-0.995733, 121, 153, 136, 216
-0.995767, 273, 177, 336, 304
-0.995784, 369, 213, 496, 244
-0.995789, 65, 13, 192, 44
-0.995794, 219, 249, 234, 312
-0.995819, 63, 177, 78, 240
-0.995832, 257, 113, 500, 176
-0.995846, 133, 137, 148, 200
-0.995854, 415, 209, 430, 272
-0.995895, 317, 1, 348, 128
-0.995897, 93, 9, 108, 72
-0.995904, 39, 313, 54, 375
-0.995905, 389, 193, 404, 256
-0.995932, 39, 209, 54, 272
-0.99594, 49, 289, 176, 352
-0.995943, 109, 1, 140, 256
-0.995958, 133, 65, 148, 128
-0.995959, 429, 209, 444, 272
-0.995965, 183, 177, 198, 240
-0.99597, 1, 101, 128, 132
-0.995973, 171, 289, 186, 352
-0.995979, 59, 1, 74, 64
-0.995982, 401, 33, 464, 288
-0.995988, 181, 105, 196, 168
-0.995995, 441, 201, 456, 264
-0.995996, 201, 201, 216, 264
-0.996005, 193, 281, 320, 312
-0.996011, 65, 37, 192, 68
-0.996012, 483, 193, 498, 256
-0.996025, 391, 217, 406, 280
-0.996053, 231, 273, 246, 336
-0.996064, 209, 89, 336, 152
-0.996083, 421, 201, 436, 264
-0.996097, 29, 153, 44, 216
-0.996119, 145, 213, 272, 244
-0.996127, 249, 65, 264, 128
-0.996131, 105, 33, 120, 96
-0.996137, 79, 121, 94, 184
-0.996144, 85, 153, 100, 216
-0.996149, 435, 65, 450, 128
-0.996154, 475, 193, 490, 256
-0.996158, 15, 241, 30, 304
-0.99616, 1, 249, 128, 280
-0.996162, 97, 293, 224, 324
-0.996174, 125, 17, 140, 80
-0.996181, 1, 129, 16, 192
-0.996184, 133, 89, 148, 152
-0.996185, 273, 225, 400, 288
-0.996194, 173, 257, 188, 320
-0.9962, 63, 129, 78, 192
-0.996206, 61, 65, 76, 128
-0.996208, 261, 49, 292, 176
-0.996223, 69, 185, 84, 248
-0.996233, 175, 153, 190, 216
-0.996234, 33, 69, 160, 100
-0.996239, 157, 193, 188, 320
-0.996249, 395, 193, 410, 256
-0.996273, 35, 153, 50, 216
-0.996277, 437, 177, 452, 240
-0.996278, 337, 241, 368, 368
-0.996282, 229, 297, 244, 360
-0.996283, 401, 153, 416, 216
-0.996296, 169, 1, 200, 128
-0.996309, 103, 201, 118, 264
-0.996318, 127, 113, 142, 176
-0.996326, 71, 113, 86, 176
-0.996329, 239, 57, 254, 120
-0.99633, 139, 65, 154, 128
-0.996351, 161, 97, 288, 128
-0.996354, 453, 81, 484, 208
-0.996358, 187, 129, 202, 192
-0.996362, 225, 81, 352, 208
-0.996373, 407, 185, 422, 248
-0.996375, 113, 37, 240, 68
-0.996377, 175, 97, 190, 160
-0.996411, 241, 273, 368, 304
-0.996418, 405, 241, 420, 304
-0.996421, 207, 209, 222, 272
-0.996426, 107, 113, 122, 176
-0.996438, 129, 1, 160, 256
-0.996439, 65, 49, 192, 80
-0.996444, 447, 193, 462, 256
-0.996444, 87, 9, 102, 72
-0.996447, 195, 297, 210, 360
-0.996448, 111, 17, 126, 80
-0.99645, 321, 241, 352, 368
-0.996451, 143, 1, 158, 64
-0.996454, 53, 33, 84, 288
-0.996464, 225, 65, 480, 128
-0.996468, 425, 241, 456, 368
-0.996475, 237, 273, 252, 336
-0.99648, 61, 241, 92, 368
-0.996481, 177, 201, 304, 232
-0.996485, 421, 225, 436, 288
-0.99649, 265, 25, 280, 88
-0.996496, 137, 1, 152, 64
-0.996508, 201, 145, 232, 272
-0.996514, 247, 273, 262, 336
-0.996524, 349, 97, 380, 224
-0.996525, 73, 1, 104, 256
-0.996528, 39, 185, 54, 248
-0.996541, 207, 305, 222, 368
-0.996545, 111, 177, 126, 240
-0.996552, 1, 1, 128, 32
-0.996555, 97, 201, 224, 232
-0.99656, 257, 49, 272, 112
-0.996571, 369, 249, 496, 280
-0.996589, 241, 129, 304, 375
-0.99659, 223, 273, 238, 336
-0.996605, 145, 341, 272, 372
-0.996607, 235, 297, 250, 360
-0.996607, 229, 49, 260, 176
-0.996611, 397, 65, 428, 192
-0.996644, 483, 233, 498, 296
-0.996646, 129, 17, 256, 48
-0.996648, 113, 65, 240, 96
-0.996654, 399, 241, 414, 304
-0.996659, 17, 41, 144, 72
-0.99667, 213, 241, 228, 304
-0.996672, 369, 185, 496, 216
-0.996674, 51, 49, 66, 112
-0.996681, 221, 161, 252, 288
-0.996681, 129, 1, 256, 32
-0.99669, 107, 81, 122, 144
-0.99669, 1, 313, 500, 375
-0.996715, 17, 213, 144, 244
-0.996717, 217, 9, 232, 72
-0.996719, 263, 49, 278, 112
-0.996733, 431, 113, 446, 176
-0.996737, 165, 89, 180, 152
-0.996745, 89, 121, 104, 184
-0.996747, 127, 89, 142, 152
-0.996747, 393, 169, 408, 232
-0.99675, 1, 225, 128, 256
-0.996765, 205, 281, 220, 344
-0.996768, 117, 33, 132, 96
-0.996774, 61, 249, 76, 312
-0.996777, 97, 313, 224, 344
-0.996782, 17, 73, 32, 136
-0.996782, 23, 249, 38, 312
-0.996784, 429, 97, 460, 224
-0.996794, 231, 25, 246, 88
-0.996801, 427, 185, 442, 248
-0.996808, 73, 73, 88, 136
-0.99681, 339, 89, 354, 152
-0.996812, 37, 65, 68, 320
-0.996822, 129, 81, 256, 112
-0.996828, 193, 313, 320, 344
-0.996841, 161, 157, 288, 188
-0.996844, 447, 217, 462, 280
-0.996848, 477, 145, 492, 208
-0.99686, 193, 261, 320, 292
-0.996878, 273, 129, 336, 375
-0.996913, 129, 257, 256, 288
-0.996944, 225, 153, 352, 216
-0.996944, 97, 93, 224, 124
-0.996966, 329, 1, 360, 128
-0.996971, 129, 245, 256, 276
-0.996988, 141, 1, 172, 256
-0.997015, 177, 97, 208, 352
-0.997045, 17, 129, 48, 375
-0.997058, 257, 137, 500, 200
-0.99706, 289, 265, 416, 296
-0.997075, 349, 241, 380, 368
-0.997077, 457, 1, 488, 128
-0.997104, 105, 177, 168, 304
-0.997115, 225, 129, 352, 256
-0.997132, 183, 269, 198, 300
-0.997132, 209, 57, 336, 88
-0.997142, 273, 129, 400, 192
-0.997149, 49, 253, 176, 284
-0.997152, 225, 161, 480, 224
-0.997157, 61, 109, 76, 140
-0.997158, 113, 157, 128, 188
-0.997166, 385, 17, 416, 144
-0.997169, 297, 193, 360, 320
-0.997204, 61, 93, 76, 124
-0.997208, 67, 101, 82, 132
-0.997222, 257, 49, 384, 80
-0.997231, 97, 213, 224, 244
-0.997242, 49, 129, 80, 375
-0.99725, 177, 181, 304, 212
-0.997277, 321, 185, 448, 216
-0.997288, 97, 281, 224, 312
-0.997292, 129, 233, 256, 264
-0.997293, 1, 41, 500, 104
-0.997316, 369, 173, 496, 204
-0.997318, 161, 141, 288, 172
-0.99732, 113, 49, 240, 80
-0.997327, 241, 193, 272, 320
-0.997331, 321, 229, 448, 260
-0.997374, 421, 201, 436, 232
-0.997396, 67, 161, 82, 192
-0.997402, 273, 49, 304, 176
-0.99741, 419, 213, 434, 244
-0.997414, 413, 221, 428, 252
-0.99743, 25, 233, 40, 264
-0.997437, 123, 165, 138, 196
-0.997445, 321, 249, 448, 280
-0.997451, 161, 37, 288, 68
-0.997455, 161, 129, 288, 160
-0.997464, 369, 153, 496, 184
-0.997468, 321, 197, 448, 228
-0.997496, 321, 61, 448, 92
-0.997524, 97, 269, 224, 300
-0.997532, 273, 241, 304, 368
-0.997539, 63, 177, 78, 208
-0.99754, 225, 85, 352, 116
-0.997553, 39, 321, 54, 352
-0.997555, 53, 101, 68, 132
-0.997555, 201, 205, 216, 236
-0.997556, 389, 229, 404, 260
-0.997574, 421, 225, 436, 256
-0.997585, 257, 9, 500, 72
-0.997589, 127, 145, 142, 176
-0.997604, 321, 93, 448, 124
-0.997607, 429, 217, 444, 248
-0.997612, 209, 49, 240, 176
-0.997629, 193, 21, 320, 52
-0.997636, 129, 113, 256, 144
-0.997639, 153, 1, 184, 256
-0.997644, 47, 25, 62, 56
-0.997675, 433, 73, 448, 104
-0.997676, 55, 113, 70, 144
-0.997682, 51, 81, 66, 112
-0.997691, 63, 189, 78, 220
-0.997699, 399, 245, 414, 276
-0.997699, 67, 113, 82, 144
-0.997702, 61, 129, 92, 375
-0.997706, 293, 1, 324, 128
-0.997707, 121, 153, 136, 184
-0.997711, 195, 193, 210, 224
-0.997711, 69, 149, 84, 180
-0.997712, 369, 141, 496, 172
-0.997713, 337, 261, 464, 292
-0.997714, 437, 1, 468, 128
-0.997715, 1, 273, 128, 304
-0.997723, 59, 161, 74, 192
-0.997728, 413, 233, 428, 264
-0.99773, 395, 221, 410, 252
-0.997734, 101, 189, 116, 220
-0.997744, 71, 185, 86, 216
-0.997748, 337, 73, 464, 104
-0.99775, 1, 89, 500, 152
-0.997755, 97, 161, 112, 192
-0.997763, 57, 77, 72, 108
-0.997768, 55, 29, 70, 60
-0.99777, 71, 173, 86, 204
-0.997778, 257, 281, 500, 344
-0.997786, 1, 129, 32, 375
-0.997788, 305, 97, 368, 224
-0.997788, 189, 129, 220, 375
-0.997789, 321, 129, 448, 160
-0.997798, 241, 69, 368, 100
-0.997801, 189, 273, 204, 304
-0.997804, 107, 161, 122, 192
-0.997805, 1, 249, 500, 312
-0.997806, 49, 37, 64, 68
-0.997808, 109, 97, 140, 352
-0.99781, 413, 209, 428, 240
-0.997811, 241, 37, 368, 68
-0.997816, 469, 17, 500, 144
-0.997818, 33, 341, 160, 372
-0.99782, 107, 189, 122, 220
-0.997827, 197, 49, 228, 176
-0.997827, 17, 241, 32, 272
-0.997828, 39, 209, 54, 240
-0.99783, 177, 169, 304, 200
-0.997831, 63, 257, 78, 288
-0.997832, 257, 305, 500, 368
-0.997836, 77, 157, 92, 188
-0.997846, 193, 9, 320, 40
-0.997851, 391, 241, 406, 272
-0.997869, 289, 117, 416, 148
-0.997876, 231, 281, 246, 312
-0.997877, 193, 209, 208, 240
-0.997885, 423, 237, 438, 268
-0.99789, 475, 205, 490, 236
-0.997895, 69, 89, 84, 120
-0.997913, 393, 205, 408, 236
-0.997918, 173, 1, 204, 256
-0.997921, 39, 221, 54, 252
-0.997928, 397, 97, 428, 352
-0.997937, 165, 97, 196, 352
-0.997938, 167, 337, 182, 368
-0.997942, 441, 97, 472, 224
-0.997944, 261, 241, 292, 368
-0.99796, 445, 229, 460, 260
-0.997961, 103, 177, 118, 208
-0.997962, 137, 97, 152, 128
-0.99797, 173, 273, 188, 304
-0.997971, 321, 105, 448, 136
-0.997972, 67, 33, 82, 64
-0.997976, 439, 213, 454, 244
-0.99798, 321, 141, 448, 172
-0.997984, 73, 105, 88, 136
-0.997986, 455, 217, 470, 248
-0.997987, 101, 33, 116, 64
-0.997988, 129, 93, 144, 124
-0.997993, 217, 249, 232, 280
-0.997993, 203, 313, 218, 344
-0.997994, 73, 117, 88, 148
-0.997994, 107, 329, 122, 360
-0.997995, 433, 201, 448, 232
-0.997995, 63, 81, 78, 112
-0.997999, 485, 205, 500, 236
-0.998001, 35, 157, 50, 188
-0.998001, 193, 329, 320, 360
-0.998001, 405, 237, 420, 268
-0.998005, 389, 217, 404, 248
-0.998015, 423, 105, 438, 136
-0.998015, 467, 201, 482, 232
-0.998017, 61, 33, 76, 64
-0.998027, 249, 93, 264, 124
-0.998034, 79, 109, 94, 140
-0.998037, 73, 97, 104, 352
-0.998037, 115, 93, 130, 124
-0.99804, 225, 177, 352, 240
-0.99804, 265, 49, 280, 80
-0.998044, 455, 229, 470, 260
-0.998045, 111, 29, 126, 60
-0.998056, 87, 141, 102, 172
-0.998056, 117, 169, 132, 200
-0.998059, 445, 217, 460, 248
-0.99806, 103, 201, 118, 232
-0.998061, 185, 141, 200, 172
-0.998062, 57, 173, 72, 204
-0.998065, 241, 89, 256, 120
-0.998066, 51, 69, 66, 100
-0.998071, 47, 9, 62, 40
-0.998074, 117, 105, 132, 136
-0.998082, 273, 9, 400, 40
-0.998088, 257, 345, 384, 375
-0.998093, 207, 209, 222, 240
-0.998097, 413, 193, 428, 224
-0.998098, 73, 197, 88, 228
-0.998107, 131, 157, 146, 188
-0.998114, 53, 129, 68, 160
-0.998117, 151, 1, 166, 32
-0.998117, 465, 149, 480, 180
-0.998119, 133, 145, 148, 176
-0.998123, 391, 193, 406, 224
-0.998132, 95, 13, 110, 44
-0.998135, 125, 1, 140, 32
-0.998141, 405, 221, 420, 252
-0.998144, 171, 293, 186, 324
-0.998146, 129, 133, 144, 164
-0.998149, 193, 289, 208, 320
-0.998149, 127, 81, 142, 112
-0.998149, 173, 341, 188, 372
-0.998152, 121, 37, 136, 68
-0.998164, 241, 25, 368, 56
-0.998169, 109, 109, 124, 140
-0.998173, 321, 217, 448, 248
-0.998173, 17, 317, 144, 348
-0.998173, 101, 13, 116, 44
-0.998173, 193, 221, 320, 252
-0.998175, 89, 25, 104, 56
-0.998176, 63, 205, 78, 236
-0.998192, 95, 149, 110, 180
-0.998192, 193, 333, 208, 364
-0.998195, 193, 249, 320, 280
-0.998197, 193, 233, 320, 264
-0.998203, 471, 153, 486, 184
-0.998204, 427, 205, 442, 236
-0.998212, 185, 181, 200, 212
-0.998221, 29, 157, 44, 188
-0.998221, 97, 173, 112, 204
-0.998224, 399, 233, 414, 264
-0.998225, 459, 205, 474, 236
-0.998226, 35, 169, 50, 200
-0.998227, 405, 209, 420, 240
-0.998228, 1, 285, 128, 316
-0.998228, 121, 93, 136, 124
-0.99823, 199, 329, 214, 360
-0.998242, 353, 17, 480, 48
-0.998294, 321, 173, 448, 204
-0.998326, 1, 273, 500, 336
-0.998353, 297, 97, 360, 352
-0.998387, 209, 345, 336, 375
-0.998388, 193, 315, 224, 330
-0.998388, 85, 45, 116, 60
-0.998388, 41, 191, 72, 206
-0.998389, 121, 29, 152, 44
-0.998391, 45, 103, 76, 118
-0.998391, 69, 163, 100, 178
-0.998392, 1, 89, 32, 104
-0.998392, 381, 241, 412, 256
-0.998393, 181, 201, 212, 216
-0.998394, 1, 241, 32, 256
-0.998394, 109, 35, 140, 50
-0.998395, 461, 209, 492, 224
-0.998395, 441, 151, 472, 166
-0.998395, 17, 157, 48, 172
-0.998396, 37, 87, 68, 102
-0.998396, 201, 299, 232, 314
-0.998397, 33, 151, 64, 166
-0.998397, 113, 111, 144, 126
-0.998397, 433, 1, 496, 256
-0.998397, 165, 353, 196, 368
-0.998398, 109, 47, 140, 62
-0.998402, 181, 293, 212, 308
-0.998402, 237, 99, 268, 114
-0.998403, 165, 291, 196, 306
-0.998403, 81, 189, 112, 204
-0.998403, 121, 155, 152, 170
-0.998404, 429, 149, 460, 164
-0.998404, 377, 97, 408, 352
-0.998405, 41, 185, 72, 200
-0.998407, 137, 71, 168, 86
-0.998407, 13, 329, 44, 344
-0.998407, 73, 119, 104, 134
-0.99841, 337, 45, 464, 76
-0.99841, 93, 31, 124, 46
-0.99841, 81, 163, 112, 178
-0.998412, 321, 325, 448, 356
-0.998412, 33, 175, 64, 190
-0.998413, 61, 191, 92, 206
-0.998414, 109, 133, 140, 148
-0.998415, 225, 289, 256, 304
-0.998415, 445, 207, 476, 222
-0.998416, 397, 189, 428, 204
-0.998417, 101, 113, 132, 128
-0.998417, 337, 273, 464, 304
-0.998417, 61, 181, 92, 196
-0.998417, 53, 41, 84, 56
-0.998417, 153, 293, 216, 308
-0.998418, 337, 95, 368, 110
-0.998419, 201, 205, 232, 220
-0.998419, 221, 93, 252, 108
-0.99842, 21, 239, 52, 254
-0.99842, 185, 343, 216, 358
-0.99842, 413, 247, 444, 262
-0.998421, 89, 155, 120, 170
-0.998421, 97, 129, 128, 375
-0.998422, 229, 283, 260, 298
-0.998423, 37, 223, 68, 238
-0.998424, 457, 215, 488, 230
-0.998425, 89, 197, 120, 212
-0.998425, 5, 255, 36, 270
-0.998426, 61, 91, 92, 106
-0.998428, 113, 87, 144, 102
-0.998429, 425, 223, 456, 238
-0.998429, 425, 207, 456, 222
-0.998429, 73, 39, 104, 54
-0.998431, 397, 203, 428, 218
-0.998432, 61, 261, 92, 276
-0.998432, 421, 75, 452, 90
-0.998434, 45, 11, 76, 26
-0.998434, 413, 113, 444, 128
-0.998435, 429, 231, 460, 246
-0.998438, 61, 175, 92, 190
-0.998439, 397, 237, 428, 252
-0.998439, 449, 223, 480, 238
-0.998441, 45, 73, 76, 88
-0.998443, 141, 355, 172, 370
-0.998444, 1, 247, 32, 262
-0.998445, 393, 231, 424, 246
-0.998445, 401, 217, 464, 232
-0.998446, 77, 151, 108, 166
-0.998446, 217, 209, 248, 224
-0.998446, 45, 29, 76, 44
-0.998447, 413, 217, 444, 232
-0.998449, 77, 111, 108, 126
-0.99845, 93, 161, 124, 176
-0.99845, 53, 35, 84, 50
-0.998451, 109, 169, 140, 184
-0.998452, 461, 203, 492, 218
-0.998454, 33, 163, 64, 178
-0.998456, 397, 255, 428, 270
-0.998457, 1, 83, 32, 98
-0.998457, 173, 347, 204, 362
-0.998457, 185, 277, 248, 292
-0.998457, 117, 95, 148, 110
-0.998457, 57, 109, 88, 124
-0.998458, 49, 259, 80, 274
-0.998458, 445, 233, 476, 248
-0.998461, 49, 97, 80, 112
-0.998463, 33, 213, 64, 228
-0.998464, 385, 211, 416, 226
-0.998464, 393, 245, 424, 260
-0.998466, 117, 149, 148, 164
-0.998469, 193, 299, 256, 314
-0.99847, 97, 37, 128, 52
-0.99847, 33, 157, 64, 172
-0.998471, 49, 157, 80, 172
-0.998472, 41, 169, 72, 184
-0.998475, 201, 211, 232, 226
-0.998477, 209, 97, 336, 128
-0.99848, 77, 157, 108, 172
-0.998481, 413, 209, 444, 224
-0.998481, 189, 217, 220, 232
-0.998481, 17, 57, 144, 88
-0.998483, 53, 115, 84, 130
-0.998484, 169, 271, 200, 286
-0.998486, 109, 41, 140, 56
-0.998486, 153, 287, 216, 302
-0.998486, 429, 217, 460, 232
-0.998486, 85, 39, 116, 54
-0.99849, 57, 103, 88, 118
-0.99849, 185, 1, 216, 256
-0.998491, 377, 223, 440, 238
-0.998494, 57, 127, 88, 142
-0.998494, 401, 223, 464, 238
-0.998494, 425, 213, 488, 228
-0.998495, 193, 213, 256, 228
-0.998496, 133, 97, 164, 352
-0.998496, 49, 155, 112, 170
-0.998499, 409, 225, 440, 240
-0.998501, 49, 91, 80, 106
-0.998501, 177, 283, 240, 298
-0.998501, 409, 241, 440, 256
-0.998502, 461, 155, 492, 170
-0.998504, 153, 305, 216, 320
-0.998505, 445, 213, 476, 228
-0.998507, 25, 329, 88, 344
-0.998507, 93, 331, 124, 346
-0.998507, 57, 121, 88, 136
-0.998507, 177, 117, 304, 148
-0.998509, 57, 165, 88, 180
-0.99851, 213, 215, 244, 230
-0.99851, 429, 239, 460, 254
-0.998511, 109, 159, 140, 174
-0.998513, 233, 93, 264, 108
-0.998514, 409, 233, 440, 248
-0.998514, 401, 235, 464, 250
-0.998515, 401, 217, 432, 232
-0.998516, 89, 149, 152, 164
-0.998517, 53, 79, 84, 94
-0.998521, 57, 111, 120, 126
-0.998522, 1, 1, 32, 256
-0.998522, 257, 105, 384, 136
-0.998524, 377, 213, 440, 228
-0.998528, 185, 219, 248, 234
-0.998529, 61, 155, 92, 170
-0.998529, 89, 157, 152, 172
-0.99853, 97, 43, 128, 58
-0.99853, 25, 155, 88, 170
-0.998533, 161, 311, 224, 326
-0.998535, 57, 117, 120, 132
-0.998536, 17, 261, 80, 276
-0.99854, 181, 287, 212, 302
-0.99854, 433, 239, 496, 254
-0.998541, 65, 331, 128, 346
-0.998544, 161, 211, 224, 226
-0.998544, 193, 289, 256, 304
-0.998548, 177, 277, 208, 292
-0.998548, 185, 207, 248, 222
-0.998548, 401, 241, 464, 256
-0.998549, 377, 199, 440, 214
-0.998553, 33, 325, 64, 340
-0.998554, 1, 325, 64, 340
-0.998557, 401, 229, 464, 244
-0.998559, 425, 219, 488, 234
-0.99856, 217, 281, 280, 296
-0.998562, 25, 117, 88, 132
-0.998562, 49, 161, 112, 176
-0.998565, 89, 95, 152, 110
-0.998567, 113, 95, 176, 110
-0.998568, 369, 229, 432, 244
-0.998568, 153, 281, 216, 296
-0.998568, 81, 139, 144, 154
-0.998568, 161, 319, 224, 334
-0.998571, 377, 239, 440, 254
-0.998571, 425, 247, 488, 262
-0.998571, 397, 223, 428, 238
-0.998572, 49, 39, 112, 54
-0.998572, 153, 299, 216, 314
-0.998573, 129, 353, 192, 368
-0.998577, 73, 89, 136, 104
-0.998577, 49, 167, 112, 182
-0.998578, 129, 155, 192, 170
-0.998578, 41, 13, 104, 28
-0.998578, 337, 345, 464, 375
-0.998578, 161, 327, 224, 342
-0.998579, 33, 79, 96, 94
-0.998579, 189, 211, 220, 226
-0.998581, 137, 113, 200, 128
-0.998583, 393, 247, 456, 262
-0.998584, 41, 33, 104, 48
-0.998585, 305, 153, 432, 184
-0.998585, 209, 93, 272, 108
-0.998587, 369, 245, 432, 260
-0.998587, 57, 201, 120, 216
-0.998588, 41, 127, 104, 142
-0.998588, 129, 149, 192, 164
-0.998589, 417, 207, 480, 222
-0.998591, 177, 247, 240, 262
-0.998591, 161, 339, 224, 354
-0.998592, 393, 207, 456, 222
-0.998592, 161, 333, 224, 348
-0.998593, 65, 123, 128, 138
-0.998593, 417, 89, 480, 104
-0.998593, 393, 193, 456, 208
-0.998594, 161, 203, 224, 218
-0.998595, 17, 255, 80, 270
-0.998597, 385, 253, 448, 268
-0.998598, 161, 217, 224, 232
-0.998599, 57, 193, 120, 208
-0.998599, 225, 53, 288, 68
-0.998599, 25, 163, 88, 178
-0.998599, 433, 233, 496, 248
-0.9986, 349, 1, 380, 256
-0.9986, 49, 149, 112, 164
-0.9986, 161, 225, 224, 240
-0.9986, 161, 345, 224, 360
-0.998602, 73, 103, 136, 118
-0.998603, 409, 199, 472, 214
-0.998603, 193, 305, 256, 320
-0.998605, 49, 137, 112, 152
-0.998605, 57, 177, 120, 192
-0.998605, 385, 113, 448, 128
-0.998605, 81, 167, 144, 182
-0.998606, 25, 107, 88, 122
-0.998607, 97, 117, 160, 132
-0.998607, 17, 131, 80, 146
-0.998607, 145, 123, 208, 138
-0.998608, 185, 265, 248, 280
-0.998609, 153, 197, 216, 212
-0.99861, 417, 149, 480, 164
-0.99861, 57, 183, 120, 198
-0.998611, 105, 353, 168, 368
-0.998612, 17, 123, 80, 138
-0.998613, 185, 271, 248, 286
-0.998613, 433, 227, 496, 242
-0.998613, 25, 203, 88, 218
-0.998614, 145, 183, 208, 198
-0.998614, 1, 35, 64, 50
-0.998614, 81, 133, 144, 148
-0.998614, 97, 107, 160, 122
-0.998617, 49, 101, 112, 116
-0.998619, 17, 149, 80, 164
-0.998619, 25, 211, 88, 226
-0.99862, 33, 195, 96, 210
-0.998621, 1, 25, 64, 40
-0.998621, 65, 95, 128, 110
-0.998621, 17, 237, 80, 252
-0.998622, 185, 335, 248, 350
-0.998622, 225, 295, 288, 310
-0.998622, 201, 19, 264, 34
-0.998623, 121, 139, 184, 154
-0.998623, 81, 175, 144, 190
-0.998623, 201, 317, 264, 332
-0.998623, 49, 7, 112, 22
-0.998624, 353, 263, 416, 278
-0.998625, 41, 89, 104, 104
-0.998626, 41, 27, 104, 42
-0.998626, 217, 273, 280, 288
-0.998627, 129, 71, 192, 86
-0.998628, 145, 271, 208, 286
-0.998628, 41, 21, 104, 36
-0.998629, 161, 47, 224, 62
-0.998629, 129, 163, 192, 178
-0.998629, 33, 181, 96, 196
-0.99863, 361, 257, 424, 272
-0.998632, 49, 207, 112, 222
-0.998649, 59, 129, 74, 256
-0.998651, 113, 113, 128, 240
-0.998651, 337, 29, 464, 60
-0.998655, 289, 29, 416, 60
-0.998679, 69, 113, 84, 240
-0.998683, 77, 113, 92, 240
-0.998701, 121, 97, 152, 352
-0.998719, 365, 97, 396, 352
-0.998746, 201, 129, 232, 375
-0.998752, 469, 129, 500, 375
-0.998754, 33, 161, 48, 288
-0.998772, 197, 1, 228, 256
-0.998776, 85, 97, 116, 352
-0.998785, 183, 97, 198, 224
-0.998834, 107, 113, 122, 240
-0.99884, 413, 97, 444, 352
-0.998847, 13, 33, 44, 288
-0.998871, 55, 81, 70, 208
-0.998883, 153, 97, 184, 352
-0.99889, 69, 161, 84, 288
-0.998919, 49, 1, 64, 128
-0.998924, 63, 1, 78, 128
-0.998937, 101, 145, 116, 272
-0.998942, 19, 241, 34, 368
-0.998988, 101, 1, 116, 128
-0.998993, 225, 113, 352, 176
-0.998993, 119, 113, 134, 240
-0.998998, 457, 129, 488, 375
-0.998998, 189, 113, 204, 240
-0.999005, 425, 97, 456, 352
-0.999009, 111, 161, 126, 288
-0.999013, 175, 81, 190, 208
-0.999022, 183, 241, 198, 368
-0.999022, 67, 65, 82, 192
-0.999024, 361, 1, 392, 256
-0.99903, 151, 17, 166, 144
-0.999036, 181, 145, 196, 272
-0.999057, 189, 225, 204, 352
-0.99906, 117, 65, 132, 192
-0.999075, 189, 177, 204, 304
-0.999077, 129, 81, 144, 208
-0.999077, 27, 145, 42, 272
-0.999079, 119, 1, 134, 128
-0.999087, 201, 193, 216, 320
-0.999091, 83, 113, 98, 240
-0.999101, 429, 49, 444, 176
-0.999101, 95, 145, 110, 272
-0.999109, 111, 17, 126, 144
-0.999124, 17, 65, 32, 192
-0.999129, 401, 193, 416, 320
-0.999131, 43, 17, 58, 144
-0.999138, 157, 17, 172, 144
-0.999139, 95, 1, 110, 128
-0.999139, 5, 65, 20, 192
-0.999144, 57, 33, 72, 160
-0.999145, 249, 1, 280, 256
-0.999146, 137, 17, 152, 144
-0.999147, 195, 177, 210, 304
-0.999162, 183, 49, 198, 176
-0.999163, 217, 1, 232, 128
-0.999164, 55, 177, 70, 304
-0.999165, 221, 225, 236, 352
-0.999175, 333, 97, 364, 352
-0.999183, 27, 209, 42, 336
-0.999189, 125, 145, 140, 272
-0.999195, 53, 129, 68, 256
-0.999198, 217, 1, 248, 256
-0.999199, 25, 1, 56, 256
-0.9992, 231, 1, 246, 128
-0.999201, 391, 161, 406, 288
-0.99921, 49, 49, 64, 176
-0.999218, 87, 1, 102, 128
-0.999221, 93, 97, 108, 224
-0.999225, 145, 17, 160, 144
-0.999226, 111, 65, 126, 192
-0.999228, 3, 17, 18, 144
-0.999238, 69, 1, 84, 128
-0.99924, 169, 81, 184, 208
-0.999242, 127, 1, 142, 128
-0.999243, 163, 49, 178, 176
-0.999251, 39, 161, 54, 288
-0.999254, 215, 225, 230, 352
-0.99926, 445, 177, 460, 304
-0.999261, 173, 225, 188, 352
-0.999264, 73, 65, 88, 192
-0.999266, 435, 177, 450, 304
-0.999267, 469, 145, 484, 272
-0.999268, 63, 177, 78, 304
-0.999282, 61, 81, 76, 208
-0.999286, 89, 145, 104, 272
-0.999292, 75, 161, 90, 288
-0.999296, 483, 145, 498, 272
-0.9993, 117, 161, 132, 288
-0.9993, 401, 145, 416, 272
-0.999304, 409, 1, 440, 256
-0.999304, 469, 193, 484, 320
-0.99931, 141, 65, 156, 192
-0.99931, 13, 241, 28, 368
-0.999312, 455, 145, 470, 272
-0.999313, 229, 1, 260, 256
-0.999315, 447, 129, 462, 256
-0.999321, 25, 97, 40, 224
-0.999322, 445, 129, 476, 375
-0.999323, 237, 1, 252, 128
-0.999324, 183, 193, 198, 320
-0.999326, 211, 1, 226, 128
-0.999328, 231, 209, 246, 336
-0.999334, 101, 97, 116, 224
-0.999336, 477, 177, 492, 304
-0.999338, 289, 1, 320, 256
-0.999341, 463, 145, 478, 272
-0.999342, 81, 65, 96, 192
-0.999344, 265, 1, 280, 128
-0.999345, 391, 209, 406, 336
-0.999346, 11, 65, 26, 192
-0.99935, 47, 161, 62, 288
-0.999354, 195, 241, 210, 368
-0.999354, 5, 241, 20, 368
-0.999356, 395, 113, 410, 240
-0.999356, 345, 97, 376, 352
-0.999362, 173, 33, 188, 160
-0.999364, 195, 129, 210, 256
-0.999376, 281, 97, 344, 224
-0.999377, 455, 193, 470, 320
-0.999379, 75, 17, 90, 144
-0.999381, 123, 65, 138, 192
-0.999382, 149, 81, 164, 208
-0.999385, 337, 1, 368, 256
-0.999385, 135, 65, 150, 192
-0.999387, 407, 209, 422, 336
-0.999388, 87, 65, 102, 192
-0.999391, 47, 97, 62, 224
-0.999393, 157, 65, 172, 192
-0.999397, 207, 193, 222, 320
-0.999398, 423, 65, 438, 192
-0.999398, 439, 129, 454, 256
-0.999406, 223, 1, 238, 128
-0.999406, 201, 241, 216, 368
-0.999419, 103, 193, 118, 320
-0.999426, 393, 1, 424, 256
-0.999431, 415, 161, 430, 288
-0.999432, 477, 129, 492, 256
-0.999435, 429, 193, 444, 320
-0.999437, 389, 113, 404, 240
-0.999443, 433, 129, 448, 256
-0.999443, 385, 177, 400, 304
-0.999449, 81, 1, 96, 128
-0.999449, 425, 129, 440, 256
-0.999457, 131, 145, 146, 272
-0.999458, 189, 17, 204, 144
-0.999466, 167, 241, 182, 368
-0.999469, 485, 209, 500, 336
-0.999473, 361, 33, 376, 160
-0.999489, 175, 177, 190, 304
-0.999494, 383, 113, 398, 240
-0.999495, 473, 49, 488, 176
-0.999501, 347, 65, 362, 192
-0.999522, 225, 129, 256, 375
-0.999528, 261, 1, 292, 256
-0.999569, 309, 1, 340, 256
-0.999603, 387, 231, 402, 246
-0.999603, 31, 231, 46, 246
-0.999603, 63, 155, 78, 170
-0.999603, 53, 123, 68, 138
-0.999603, 63, 161, 78, 176
-0.999604, 391, 197, 406, 212
-0.999605, 133, 157, 148, 172
-0.999606, 79, 161, 94, 176
-0.999606, 469, 89, 484, 104
-0.999606, 455, 233, 470, 248
-0.999607, 67, 41, 82, 56
-0.999607, 171, 353, 186, 368
-0.999608, 17, 253, 32, 268
-0.999611, 423, 207, 438, 222
-0.999611, 391, 251, 406, 266
-0.999612, 251, 99, 266, 114
-0.999612, 197, 201, 212, 216
-0.999612, 53, 129, 68, 144
-0.999613, 483, 243, 498, 258
-0.999614, 183, 275, 198, 290
-0.999614, 97, 15, 112, 30
-0.999614, 481, 253, 496, 268
-0.999615, 413, 223, 428, 238
-0.999615, 77, 121, 92, 136
-0.999616, 433, 231, 448, 246
-0.999616, 73, 191, 88, 206
-0.999616, 173, 245, 188, 260
-0.999617, 189, 277, 204, 292
-0.999617, 177, 347, 192, 362
-0.999617, 65, 209, 80, 224
-0.999618, 465, 203, 480, 218
-0.999618, 73, 181, 88, 196
-0.999618, 53, 117, 68, 132
-0.999618, 57, 169, 72, 184
-0.999619, 411, 189, 426, 204
-0.99962, 145, 351, 160, 366
-0.99962, 409, 243, 424, 258
-0.99962, 411, 13, 426, 28
-0.999621, 107, 195, 122, 210
-0.999621, 103, 207, 118, 222
-0.999621, 429, 207, 444, 222
-0.999621, 457, 209, 472, 224
-0.999624, 17, 247, 32, 262
-0.999624, 75, 153, 90, 168
-0.999624, 171, 293, 186, 308
-0.999625, 399, 261, 414, 276
-0.999625, 51, 93, 66, 108
-0.999625, 233, 209, 248, 224
-0.999625, 99, 39, 114, 54
-0.999626, 57, 81, 72, 96
-0.999627, 215, 211, 230, 226
-0.999627, 39, 219, 54, 234
-0.999628, 413, 215, 428, 230
-0.999628, 107, 177, 122, 192
-0.999628, 113, 167, 128, 182
-0.999628, 439, 207, 454, 222
-0.999628, 57, 157, 72, 172
-0.999629, 189, 219, 204, 234
-0.999629, 97, 167, 112, 182
-0.999629, 469, 33, 500, 288
-0.99963, 399, 223, 414, 238
-0.99963, 103, 183, 118, 198
-0.999631, 437, 239, 452, 254
-0.999631, 67, 35, 82, 50
-0.999632, 419, 217, 434, 232
-0.999632, 389, 217, 404, 232
-0.999632, 417, 241, 432, 256
-0.999634, 403, 215, 418, 230
-0.999634, 431, 215, 446, 230
-0.999635, 51, 75, 66, 90
-0.999635, 377, 1, 408, 256
-0.999636, 53, 105, 68, 120
-0.999636, 59, 115, 74, 130
-0.999637, 449, 215, 464, 230
-0.99964, 103, 189, 118, 204
-0.999641, 473, 155, 488, 170
-0.999642, 69, 159, 84, 174
-0.999643, 399, 243, 414, 258
-0.999645, 69, 105, 84, 120
-0.999646, 103, 169, 118, 184
-0.999646, 49, 39, 64, 54
-0.999647, 51, 99, 66, 114
-0.999648, 73, 205, 88, 220
-0.999648, 427, 237, 442, 252
-0.999649, 439, 213, 454, 228
-0.99965, 445, 239, 460, 254
-0.999651, 125, 153, 140, 168
-0.999655, 113, 159, 128, 174
-0.999658, 71, 175, 86, 190
-0.999658, 277, 1, 308, 256
-0.999658, 395, 209, 410, 224
-0.999658, 53, 111, 68, 126
-0.99966, 63, 193, 78, 208
-0.99966, 67, 99, 82, 114
-0.99966, 123, 169, 138, 184
-0.99966, 401, 249, 416, 264
-0.999662, 427, 221, 442, 236
-0.999662, 73, 199, 88, 214
-0.999664, 63, 177, 78, 192
-0.999666, 415, 231, 430, 246
-0.999667, 51, 87, 66, 102
-0.999669, 63, 109, 78, 124
-0.99967, 129, 147, 144, 162
-0.999671, 453, 225, 468, 240
-0.999671, 193, 213, 208, 228
-0.999672, 23, 237, 38, 252
-0.999672, 427, 113, 442, 128
-0.999673, 433, 73, 448, 88
-0.999673, 61, 99, 76, 114
-0.999675, 67, 183, 82, 198
-0.999676, 63, 199, 78, 214
-0.999679, 103, 201, 118, 216
-0.99968, 391, 241, 406, 256
-0.999681, 57, 163, 72, 178
-0.999682, 421, 105, 436, 120
-0.999683, 199, 219, 214, 234
-0.999683, 209, 213, 224, 228
-0.999683, 445, 233, 460, 248
-0.999684, 237, 93, 252, 108
-0.999684, 419, 113, 434, 128
-0.999688, 71, 165, 86, 180
-0.99969, 227, 95, 242, 110
-0.999691, 39, 323, 54, 338
-0.999692, 61, 91, 76, 106
-0.999692, 465, 153, 480, 168
-0.999698, 97, 161, 112, 176
-0.9997, 437, 33, 468, 288
-0.999702, 247, 93, 262, 108
-0.999713, 103, 163, 118, 178
-0.999719, 65, 167, 80, 182
-0.99973, 199, 213, 214, 228
-0.999737, 419, 225, 434, 240
-0.999752, 181, 269, 196, 284
-0.999759, 257, 89, 500, 152
-0.99976, 63, 259, 78, 274
-0.999766, 281, 129, 312, 375
-0.999797, 213, 129, 244, 375
-0.999894, 421, 1, 452, 256
-0.99991, 321, 1, 352, 256
-0.999961, 269, 129, 300, 375
-1.00007, 249, 129, 312, 256
-1.00011, 313, 129, 344, 375
-1.00014, 241, 129, 272, 375
-1.00031, 297, 129, 328, 375
-1.00035, 449, 33, 480, 288
-1.00039, 253, 129, 284, 375
-1.00166, 81, 241, 144, 368
-1.00296, 201, 97, 264, 224
-1.00321, 297, 145, 360, 272
-1.00349, 225, 145, 288, 272
-1.00495, 329, 145, 392, 272
-1.0084, 225, 97, 288, 224
