1981
-0.45955, 1, 1, 500, 375
-0.502437, 1, 1, 500, 256
-0.53749, 193, 1, 448, 375
-0.565826, 1, 1, 256, 375
-0.605069, 97, 1, 352, 375
-0.638078, 1, 97, 500, 352
-0.76842, 225, 1, 480, 256
-0.772695, 97, 65, 352, 320
-0.809205, 1, 33, 256, 288
-0.838284, 193, 97, 448, 352
-0.863015, 225, 1, 352, 375
-0.871612, 113, 1, 240, 375
-0.88132, 273, 1, 400, 375
-0.885279, 17, 1, 144, 375
-0.885308, 177, 1, 304, 375
-0.888867, 81, 1, 208, 256
-0.889136, 241, 1, 368, 256
-0.894113, 65, 1, 192, 375
-0.895263, 161, 129, 288, 375
-0.895797, 33, 1, 160, 256
-0.899489, 321, 1, 448, 375
-0.905484, 241, 97, 368, 352
-0.905855, 321, 1, 448, 256
-0.90602, 1, 129, 256, 375
-0.907787, 161, 1, 288, 256
-0.912774, 369, 1, 496, 375
-0.918405, 1, 1, 500, 128
-0.924827, 369, 1, 496, 256
-0.925903, 193, 193, 448, 320
-0.931153, 129, 145, 384, 272
-0.934506, 1, 161, 500, 288
-0.935756, 1, 1, 256, 128
-0.936459, 1, 97, 128, 352
-0.937024, 1, 225, 500, 352
-0.938276, 65, 97, 192, 352
-0.93975, 113, 97, 240, 352
-0.941118, 1, 49, 500, 176
-0.943075, 129, 1, 384, 128
-0.945827, 1, 1, 128, 128
-0.94618, 185, 177, 248, 304
-0.946302, 217, 177, 280, 304
-0.946495, 225, 49, 480, 176
-0.946808, 241, 145, 368, 272
-0.947295, 225, 129, 480, 256
-0.949059, 209, 209, 336, 336
-0.950261, 337, 97, 464, 352
-0.950773, 153, 209, 216, 336
-0.950779, 177, 161, 304, 288
-0.951352, 65, 241, 320, 368
-0.951493, 1, 49, 256, 176
-0.952838, 289, 129, 416, 375
-0.953271, 129, 49, 384, 176
-0.953681, 161, 65, 288, 192
-0.953724, 65, 193, 320, 320
-0.953808, 1, 113, 500, 240
-0.956568, 313, 193, 376, 320
-0.956688, 161, 209, 288, 336
-0.956777, 257, 1, 500, 128
-0.956928, 193, 233, 256, 296
-0.956955, 97, 1, 224, 128
-0.957098, 185, 225, 248, 352
-0.957546, 17, 1, 80, 128
-0.958003, 225, 225, 288, 352
-0.958068, 73, 1, 136, 128
-0.95843, 273, 1, 336, 128
-0.958535, 153, 17, 216, 144
-0.959596, 49, 33, 112, 160
-0.960023, 313, 185, 376, 248
-0.960053, 33, 145, 288, 272
-0.960232, 161, 17, 288, 144
-0.960282, 97, 49, 224, 176
-0.960666, 49, 1, 176, 128
-0.960731, 225, 233, 288, 296
-0.960769, 153, 161, 216, 288
-0.961471, 249, 161, 312, 288
-0.961519, 153, 233, 216, 296
-0.961748, 25, 25, 88, 88
-0.962489, 217, 209, 280, 272
-0.962489, 33, 97, 288, 224
-0.962747, 193, 1, 256, 128
-0.963065, 249, 209, 312, 272
-0.963153, 209, 1, 336, 128
-0.963324, 33, 49, 160, 176
-0.963492, 273, 177, 336, 304
-0.96359, 217, 129, 280, 256
-0.964851, 281, 185, 344, 248
-0.965806, 273, 1, 400, 128
-0.965999, 129, 33, 192, 160
-0.966212, 17, 49, 80, 112
-0.966457, 249, 209, 312, 336
-0.966723, 241, 97, 368, 224
-0.967116, 313, 209, 376, 272
-0.967579, 321, 145, 384, 272
-0.967786, 241, 153, 304, 216
-0.967814, 249, 33, 312, 160
-0.967975, 297, 1, 360, 128
-0.968414, 41, 57, 104, 120
-0.96871, 97, 1, 160, 128
-0.968778, 281, 25, 344, 88
-0.969097, 257, 193, 384, 320
-0.969171, 145, 41, 208, 104
-0.969188, 249, 113, 312, 240
-0.969216, 385, 1, 448, 128
-0.969347, 345, 1, 408, 128
-0.969644, 241, 49, 368, 176
-0.970077, 193, 49, 256, 176
-0.970203, 217, 169, 280, 232
-0.970221, 161, 113, 288, 240
-0.970221, 49, 33, 112, 96
-0.970295, 129, 97, 384, 224
-0.97066, 1, 97, 64, 224
-0.970669, 113, 209, 240, 336
-0.970709, 9, 49, 72, 176
-0.970772, 129, 161, 256, 288
-0.970805, 369, 1, 496, 128
-0.97096, 185, 201, 248, 264
-0.971089, 1, 1, 64, 64
-0.971124, 1, 97, 128, 224
-0.971928, 273, 209, 336, 272
-0.972447, 261, 161, 292, 288
-0.972594, 425, 1, 488, 128
-0.972601, 217, 65, 280, 192
-0.972824, 41, 1, 104, 64
-0.973323, 233, 41, 296, 104
-0.973455, 185, 145, 248, 208
-0.973516, 161, 241, 416, 368
-0.973606, 153, 209, 216, 272
-0.973619, 337, 177, 400, 240
-0.973987, 129, 225, 192, 352
-0.974411, 257, 49, 320, 112
-0.97446, 225, 1, 288, 128
-0.974507, 193, 129, 256, 256
-0.974643, 333, 185, 364, 248
-0.975222, 177, 49, 240, 112
-0.975396, 161, 65, 224, 192
-0.975462, 169, 9, 232, 72
-0.975527, 145, 233, 272, 296
-0.975596, 249, 225, 280, 288
-0.975938, 245, 193, 276, 320
-0.976121, 265, 201, 296, 264
-0.976332, 177, 257, 240, 320
-0.97655, 73, 49, 136, 176
-0.976579, 425, 1, 488, 64
-0.97662, 297, 145, 360, 272
-0.976744, 321, 1, 448, 128
-0.976749, 233, 257, 296, 320
-0.976937, 321, 145, 448, 272
-0.977014, 121, 49, 184, 112
-0.977134, 321, 1, 384, 128
-0.977269, 209, 233, 240, 296
-0.977304, 217, 145, 280, 208
-0.977353, 225, 209, 352, 272
-0.977382, 145, 17, 208, 80
-0.97745, 305, 25, 368, 88
-0.977546, 393, 9, 456, 72
-0.977586, 297, 49, 360, 176
-0.977669, 1, 1, 64, 256
-0.977691, 105, 49, 168, 176
-0.977765, 193, 169, 256, 232
-0.978052, 217, 129, 280, 375
-0.978083, 193, 25, 256, 88
-0.978086, 281, 1, 344, 64
-0.978239, 337, 201, 400, 264
-0.978255, 1, 25, 64, 88
-0.9783, 305, 1, 368, 64
-0.9784, 193, 233, 224, 296
-0.978438, 337, 49, 464, 176
-0.978693, 161, 161, 224, 224
-0.978757, 249, 177, 312, 240
-0.978862, 305, 193, 432, 320
-0.978906, 81, 17, 144, 80
-0.978953, 337, 49, 400, 176
-0.979004, 193, 233, 320, 296
-0.979027, 81, 57, 144, 120
-0.97905, 217, 225, 248, 352
-0.979055, 177, 169, 304, 232
-0.979311, 257, 25, 320, 88
-0.979428, 105, 17, 168, 80
-0.979529, 273, 129, 336, 256
-0.979624, 249, 233, 312, 296
-0.979735, 17, 73, 80, 136
-0.979763, 225, 153, 352, 216
-0.980271, 345, 129, 408, 256
-0.980415, 1, 57, 128, 120
-0.980418, 245, 153, 276, 216
-0.980439, 249, 1, 312, 64
-0.980455, 249, 1, 312, 256
-0.980511, 29, 1, 60, 128
-0.980663, 273, 65, 336, 192
-0.980721, 209, 177, 240, 304
-0.980916, 333, 145, 364, 272
-0.980957, 241, 145, 272, 272
-0.98099, 177, 201, 304, 264
-0.980993, 225, 17, 288, 80
-0.981133, 161, 1, 224, 375
-0.981185, 257, 209, 288, 336
-0.981204, 229, 241, 260, 304
-0.981568, 177, 233, 208, 296
-0.981695, 81, 49, 208, 112
-0.981748, 41, 81, 104, 208
-0.981767, 257, 25, 384, 88
-0.981856, 337, 25, 400, 88
-0.981868, 257, 177, 288, 240
-0.981896, 193, 1, 256, 64
-0.982026, 361, 25, 424, 88
-0.982065, 321, 193, 352, 320
-0.982349, 257, 185, 384, 248
-0.982352, 177, 1, 304, 64
-0.982448, 65, 25, 192, 88
-0.982466, 209, 49, 336, 112
-0.982476, 161, 145, 288, 208
-0.982617, 261, 113, 292, 240
-0.982619, 321, 193, 352, 256
-0.982674, 261, 137, 292, 200
-0.98268, 9, 1, 40, 128
-0.982691, 9, 65, 40, 128
-0.982717, 305, 161, 368, 224
-0.982805, 201, 49, 264, 112
-0.982836, 417, 25, 480, 88
-0.982841, 241, 97, 304, 352
-0.982923, 121, 241, 184, 304
-0.982935, 1, 33, 128, 96
-0.982941, 181, 209, 212, 336
-0.982966, 201, 257, 264, 320
-0.983013, 193, 25, 320, 88
-0.983158, 33, 1, 160, 64
-0.983191, 65, 1, 96, 128
-0.983244, 153, 65, 216, 128
-0.983256, 233, 121, 296, 184
-0.983291, 289, 49, 352, 112
-0.983305, 49, 97, 176, 224
-0.98342, 185, 129, 248, 375
-0.983424, 129, 209, 256, 272
-0.983444, 257, 249, 288, 312
-0.983458, 133, 1, 164, 128
-0.983528, 137, 81, 200, 208
-0.983562, 113, 217, 176, 280
-0.983717, 193, 177, 224, 304
-0.983754, 65, 25, 96, 88
-0.983806, 337, 1, 400, 64
-0.983906, 469, 313, 500, 375
-0.983913, 289, 49, 416, 176
-0.983941, 169, 193, 200, 320
-0.983996, 305, 25, 432, 88
-0.984017, 113, 9, 240, 72
-0.984037, 41, 1, 72, 128
-0.98408, 117, 1, 148, 128
-0.984158, 61, 49, 92, 112
-0.984173, 129, 257, 256, 320
-0.984177, 1, 105, 64, 168
-0.984177, 1, 129, 64, 192
-0.984195, 161, 185, 224, 248
-0.984239, 345, 153, 376, 216
-0.984252, 369, 1, 432, 64
-0.984316, 225, 161, 256, 224
-0.984326, 273, 1, 336, 256
-0.984329, 153, 257, 216, 320
-0.984379, 249, 81, 280, 208
-0.984503, 337, 193, 400, 320
-0.984585, 241, 129, 368, 192
-0.984596, 345, 177, 376, 240
-0.984598, 105, 193, 168, 320
-0.984622, 225, 1, 288, 256
-0.984697, 81, 41, 112, 104
-0.984741, 77, 1, 108, 128
-0.984771, 129, 145, 192, 272
-0.984793, 369, 241, 496, 368
-0.98482, 201, 1, 232, 128
-0.984853, 369, 1, 496, 64
-0.984878, 145, 41, 272, 104
-0.984883, 393, 1, 456, 256
-0.984894, 273, 209, 400, 272
-0.984906, 277, 217, 308, 280
-0.984908, 225, 65, 288, 128
-0.984994, 41, 81, 104, 144
-0.985029, 113, 97, 240, 224
-0.98508, 161, 129, 224, 375
-0.985115, 257, 1, 384, 64
-0.985133, 185, 1, 248, 375
-0.985233, 189, 193, 220, 256
-0.985246, 181, 161, 212, 224
-0.985298, 229, 225, 260, 352
-0.985376, 153, 1, 216, 256
-0.985377, 265, 145, 328, 208
-0.985454, 229, 49, 260, 176
-0.985466, 129, 73, 256, 136
-0.985474, 177, 33, 208, 96
-0.985679, 157, 177, 188, 304
-0.985783, 25, 65, 56, 128
-0.985808, 337, 209, 368, 272
-0.985902, 105, 1, 168, 256
-0.985905, 89, 33, 120, 160
-0.985942, 209, 193, 240, 256
-0.985959, 337, 1, 400, 375
-0.985963, 53, 33, 84, 160
-0.986063, 217, 1, 248, 128
-0.986085, 305, 1, 368, 256
-0.986107, 193, 1, 256, 256
-0.986206, 305, 49, 432, 112
-0.986237, 25, 1, 88, 256
-0.986268, 385, 33, 448, 96
-0.986286, 81, 81, 144, 144
-0.986288, 305, 25, 336, 88
-0.986357, 145, 137, 208, 200
-0.986369, 121, 41, 152, 104
-0.986376, 129, 73, 192, 136
-0.986468, 233, 1, 296, 375
-0.986479, 233, 33, 264, 96
-0.986518, 269, 161, 300, 224
-0.986567, 177, 1, 208, 128
-0.986593, 257, 257, 320, 320
-0.986594, 145, 33, 176, 160
-0.986619, 445, 1, 476, 128
-0.986664, 345, 49, 408, 112
-0.986704, 133, 33, 164, 96
-0.986722, 305, 185, 432, 248
-0.986762, 293, 1, 324, 128
-0.986767, 149, 225, 180, 352
-0.986767, 5, 33, 36, 96
-0.986772, 221, 177, 252, 304
-0.986871, 193, 73, 256, 136
-0.986878, 361, 1, 392, 128
-0.98691, 349, 1, 380, 128
-0.987001, 181, 161, 212, 288
-0.987091, 65, 177, 192, 304
-0.987134, 345, 145, 376, 272
-0.987168, 97, 233, 224, 296
-0.98718, 285, 193, 316, 256
-0.987184, 349, 33, 380, 96
-0.987192, 249, 41, 280, 104
-0.987219, 105, 1, 136, 128
-0.987219, 193, 121, 320, 184
-0.987233, 237, 217, 268, 280
-0.987252, 205, 33, 236, 96
-0.987304, 97, 65, 128, 128
-0.987311, 289, 225, 352, 352
-0.987446, 177, 257, 304, 320
-0.987455, 305, 1, 368, 375
-0.987491, 193, 257, 224, 320
-0.987493, 205, 225, 236, 352
-0.987504, 337, 153, 400, 216
-0.987504, 105, 1, 168, 375
-0.987542, 145, 41, 176, 104
-0.987548, 45, 57, 76, 120
-0.987557, 457, 1, 488, 128
-0.987592, 93, 41, 124, 104
-0.987595, 249, 201, 280, 264
-0.987602, 1, 121, 128, 184
-0.987628, 369, 49, 432, 176
-0.987633, 253, 1, 284, 128
-0.987655, 429, 1, 460, 128
-0.987668, 205, 169, 236, 232
-0.987718, 313, 1, 344, 64
-0.987751, 281, 1, 344, 375
-0.987774, 13, 1, 44, 64
-0.987792, 169, 113, 232, 240
-0.987823, 333, 161, 364, 224
-0.987853, 157, 49, 188, 112
-0.987862, 85, 65, 116, 128
-0.987894, 257, 49, 384, 112
-0.987905, 189, 49, 220, 176
-0.987931, 65, 49, 96, 176
-0.988004, 369, 1, 432, 256
-0.988055, 237, 1, 268, 128
-0.988064, 257, 73, 320, 136
-0.988077, 149, 241, 180, 304
-0.988089, 313, 49, 376, 112
-0.988097, 257, 1, 320, 375
-0.988097, 113, 17, 144, 80
-0.988209, 157, 17, 188, 80
-0.988209, 289, 25, 320, 88
-0.988217, 209, 1, 272, 375
-0.988262, 1, 81, 128, 144
-0.988295, 197, 57, 228, 120
-0.988298, 193, 145, 224, 208
-0.988329, 189, 1, 220, 128
-0.988344, 433, 305, 496, 368
-0.988357, 137, 169, 200, 232
-0.9884, 221, 41, 252, 104
-0.988411, 49, 89, 176, 152
-0.988427, 129, 1, 192, 256
-0.988433, 1, 81, 32, 208
-0.988441, 165, 225, 196, 288
-0.988443, 221, 1, 252, 64
-0.988458, 269, 49, 300, 112
-0.988567, 261, 65, 292, 192
-0.988642, 309, 185, 340, 248
-0.988664, 401, 49, 464, 176
-0.988674, 337, 1, 368, 128
-0.988736, 157, 1, 188, 128
-0.988745, 17, 1, 80, 375
-0.988752, 137, 1, 200, 375
-0.988876, 321, 1, 448, 64
-0.988965, 41, 1, 104, 375
-0.98898, 261, 225, 292, 288
-0.988986, 225, 237, 288, 268
-0.989011, 269, 25, 300, 88
-0.989072, 265, 97, 328, 352
-0.989134, 273, 161, 304, 288
-0.989143, 305, 17, 336, 144
-0.989207, 41, 49, 72, 176
-0.989262, 269, 209, 300, 336
-0.989276, 305, 197, 368, 228
-0.98934, 177, 237, 240, 268
-0.989398, 245, 177, 276, 240
-0.989408, 89, 97, 152, 224
-0.989411, 193, 129, 224, 256
-0.989607, 17, 49, 80, 80
-0.989628, 353, 41, 480, 104
-0.989641, 129, 185, 256, 248
-0.98965, 105, 73, 168, 136
-0.989722, 209, 1, 240, 64
-0.989743, 241, 73, 368, 136
-0.989762, 117, 49, 148, 176
-0.989767, 197, 1, 228, 64
-0.989784, 17, 25, 48, 88
-0.98981, 265, 209, 328, 240
-0.989813, 261, 113, 292, 176
-0.989833, 225, 249, 288, 280
-0.989834, 457, 1, 488, 64
-0.989836, 233, 65, 264, 128
-0.989842, 49, 1, 112, 256
-0.989848, 293, 1, 324, 64
-0.989856, 417, 1, 480, 256
-0.989864, 81, 1, 144, 375
-0.989868, 153, 237, 216, 268
-0.989882, 273, 233, 336, 296
-0.989889, 321, 209, 384, 240
-0.989904, 73, 1, 104, 64
-0.989913, 57, 105, 120, 168
-0.989923, 77, 49, 108, 176
-0.989954, 33, 1, 64, 64
-0.989954, 241, 153, 304, 184
-0.990003, 317, 217, 348, 280
-0.990039, 273, 129, 304, 192
-0.990048, 153, 249, 216, 280
-0.990052, 233, 169, 296, 200
-0.990053, 397, 1, 428, 128
-0.990128, 1, 153, 64, 216
-0.990135, 233, 97, 296, 160
-0.990167, 281, 33, 344, 64
-0.990192, 469, 1, 500, 128
-0.990219, 193, 225, 224, 352
-0.990244, 353, 9, 384, 72
-0.990251, 305, 97, 368, 224
-0.990291, 65, 225, 192, 352
-0.990311, 225, 225, 288, 256
-0.990341, 169, 1, 200, 64
-0.990349, 33, 121, 96, 184
-0.990358, 185, 9, 216, 72
-0.990365, 317, 41, 348, 104
-0.990393, 205, 257, 236, 320
-0.990429, 57, 53, 120, 84
-0.99043, 85, 17, 116, 80
-0.990431, 193, 253, 256, 284
-0.990437, 177, 49, 208, 176
-0.990448, 241, 241, 368, 304
-0.990459, 221, 201, 252, 264
-0.990468, 329, 33, 360, 96
-0.990495, 1, 145, 128, 208
-0.990497, 297, 209, 360, 240
-0.990509, 437, 1, 468, 64
-0.990525, 369, 1, 432, 375
-0.99054, 45, 25, 76, 88
-0.990563, 225, 129, 256, 256
-0.990577, 281, 197, 344, 228
-0.990595, 257, 21, 320, 52
-0.990597, 273, 113, 304, 240
-0.990604, 133, 49, 164, 176
-0.990622, 185, 189, 248, 220
-0.990631, 249, 17, 280, 80
-0.990662, 289, 97, 416, 224
-0.990674, 209, 157, 272, 188
-0.990684, 41, 37, 104, 68
-0.990685, 313, 185, 376, 216
-0.990691, 177, 209, 208, 272
-0.990774, 345, 1, 408, 256
-0.990805, 49, 65, 112, 96
-0.990841, 349, 201, 380, 264
-0.990841, 269, 17, 300, 144
-0.990858, 137, 41, 200, 72
-0.99089, 321, 145, 352, 272
-0.990911, 81, 1, 144, 256
-0.990925, 33, 25, 96, 56
-0.990925, 273, 153, 400, 216
-0.990925, 393, 1, 456, 375
-0.990929, 257, 197, 320, 228
-0.990929, 129, 53, 192, 84
-0.990934, 241, 213, 304, 244
-0.990969, 297, 97, 360, 352
-0.990976, 9, 13, 72, 44
-0.990985, 233, 261, 296, 292
-0.991012, 337, 197, 400, 228
-0.991016, 309, 145, 340, 272
-0.991048, 109, 41, 140, 104
-0.991048, 17, 61, 80, 92
-0.991048, 317, 1, 348, 128
-0.99107, 49, 13, 112, 44
-0.991071, 1, 153, 32, 216
-0.991122, 201, 241, 264, 272
-0.991146, 161, 45, 224, 76
-0.991146, 129, 249, 192, 280
-0.991146, 297, 13, 360, 44
-0.991155, 89, 49, 152, 80
-0.991166, 333, 193, 364, 320
-0.991172, 161, 57, 224, 88
-0.991173, 185, 165, 248, 196
-0.991202, 209, 197, 272, 228
-0.99125, 217, 185, 280, 216
-0.991251, 273, 65, 304, 192
-0.991284, 329, 9, 360, 72
-0.991286, 217, 213, 280, 244
-0.991287, 177, 73, 304, 136
-0.991288, 29, 49, 60, 176
-0.991293, 97, 37, 160, 68
-0.9913, 185, 121, 248, 184
-0.991306, 257, 105, 384, 168
-0.991308, 305, 33, 368, 64
-0.991311, 1, 129, 32, 192
-0.991316, 433, 49, 496, 112
-0.991369, 425, 1, 488, 375
-0.991375, 337, 185, 400, 216
-0.991385, 97, 61, 160, 92
-0.991391, 369, 305, 496, 368
-0.991412, 249, 225, 312, 256
-0.991422, 81, 209, 208, 272
-0.991426, 233, 41, 296, 72
-0.991465, 353, 49, 384, 176
-0.99147, 89, 25, 152, 56
-0.991487, 257, 249, 320, 280
-0.991489, 1, 1, 64, 32
-0.991511, 9, 29, 72, 60
-0.991516, 1, 97, 64, 352
-0.991524, 185, 225, 248, 256
-0.991539, 141, 65, 172, 128
-0.991544, 129, 65, 192, 96
-0.99156, 65, 29, 128, 60
-0.991581, 385, 21, 448, 52
-0.99159, 209, 173, 272, 204
-0.991591, 29, 41, 60, 104
-0.991608, 257, 1, 320, 32
-0.991613, 201, 269, 264, 300
-0.991616, 337, 25, 400, 56
-0.991634, 49, 233, 176, 296
-0.991648, 1, 1, 32, 64
-0.991655, 45, 1, 76, 64
-0.991659, 121, 29, 184, 60
-0.99167, 185, 177, 248, 208
-0.99167, 433, 345, 496, 375
-0.99168, 369, 33, 432, 64
-0.991684, 41, 1, 104, 32
-0.991696, 265, 121, 328, 184
-0.991705, 185, 57, 216, 120
-0.991705, 177, 201, 240, 232
-0.991707, 9, 73, 72, 104
-0.99171, 153, 69, 216, 100
-0.991717, 233, 29, 296, 60
-0.991726, 257, 41, 320, 72
-0.991734, 65, 185, 128, 248
-0.991739, 417, 1, 448, 128
-0.991753, 265, 237, 328, 268
-0.991765, 265, 157, 328, 188
-0.991784, 153, 261, 216, 292
-0.991792, 129, 9, 160, 72
-0.991794, 241, 141, 304, 172
-0.991804, 81, 169, 208, 232
-0.991823, 185, 153, 248, 184
-0.991862, 257, 53, 320, 84
-0.991874, 105, 1, 168, 32
-0.99189, 385, 1, 448, 32
-0.991895, 101, 49, 132, 176
-0.991902, 253, 65, 284, 128
-0.991932, 193, 209, 448, 272
-0.991938, 329, 45, 392, 76
-0.991946, 425, 49, 488, 176
-0.991947, 169, 25, 232, 56
-0.991955, 161, 177, 224, 208
-0.991958, 145, 29, 208, 60
-0.991965, 161, 165, 224, 196
-0.991989, 169, 1, 232, 32
-0.991996, 193, 61, 256, 92
-0.991999, 281, 45, 344, 76
-0.992004, 233, 53, 296, 84
-0.99202, 65, 1, 128, 32
-0.992027, 73, 13, 136, 44
-0.992029, 353, 45, 416, 76
-0.992035, 337, 173, 400, 204
-0.992045, 245, 249, 276, 312
-0.992045, 233, 197, 296, 228
-0.992057, 137, 225, 200, 256
-0.992074, 373, 9, 404, 72
-0.992085, 201, 49, 264, 80
-0.992094, 297, 1, 360, 32
-0.992109, 257, 89, 320, 120
-0.992124, 417, 17, 480, 48
-0.992149, 321, 169, 352, 232
-0.992189, 193, 5, 256, 36
-0.992196, 201, 37, 264, 68
-0.992208, 57, 85, 120, 116
-0.992208, 273, 185, 336, 216
-0.992216, 401, 33, 464, 64
-0.992231, 361, 21, 424, 52
-0.992236, 257, 173, 320, 204
-0.992251, 225, 17, 288, 48
-0.992252, 313, 173, 376, 204
-0.992252, 65, 41, 128, 72
-0.992252, 249, 65, 312, 96
-0.992254, 169, 13, 232, 44
-0.992257, 193, 21, 256, 52
-0.992258, 193, 169, 224, 232
-0.992262, 73, 65, 136, 96
-0.992276, 457, 305, 488, 368
-0.992277, 73, 65, 104, 128
-0.992279, 337, 13, 400, 44
-0.992281, 353, 1, 416, 32
-0.992285, 105, 145, 168, 272
-0.9923, 1, 145, 64, 176
-0.992303, 433, 309, 496, 340
-0.992316, 153, 217, 184, 280
-0.992321, 233, 105, 296, 136
-0.992341, 253, 237, 284, 268
-0.992341, 289, 49, 320, 112
-0.992356, 305, 45, 368, 76
-0.992359, 253, 153, 284, 184
-0.99236, 137, 225, 168, 288
-0.992371, 137, 17, 200, 48
-0.992382, 17, 85, 80, 116
-0.992391, 425, 33, 488, 64
-0.992399, 161, 189, 224, 220
-0.992407, 1, 129, 64, 160
-0.992409, 333, 201, 364, 232
-0.992415, 465, 345, 496, 375
-0.992432, 209, 145, 272, 176
-0.99244, 373, 1, 404, 128
-0.992441, 433, 1, 496, 32
-0.992442, 345, 193, 376, 320
-0.992448, 105, 237, 168, 268
-0.992454, 261, 205, 292, 236
-0.992478, 237, 161, 268, 192
-0.992523, 409, 341, 472, 372
-0.992523, 129, 33, 384, 96
-0.992554, 145, 81, 208, 112
-0.992564, 113, 13, 176, 44
-0.992566, 337, 97, 464, 224
-0.992576, 9, 97, 72, 128
-0.992583, 257, 217, 288, 248
-0.992594, 193, 97, 320, 160
-0.992598, 245, 241, 276, 368
-0.992599, 201, 189, 232, 220
-0.992605, 333, 189, 364, 220
-0.99261, 61, 1, 92, 64
-0.992617, 129, 65, 160, 128
-0.992645, 129, 193, 192, 256
-0.992659, 269, 217, 300, 248
-0.992666, 241, 129, 272, 192
-0.992681, 217, 237, 248, 268
-0.992681, 269, 249, 300, 312
-0.992697, 153, 249, 184, 280
-0.992701, 213, 189, 244, 220
-0.992718, 61, 53, 92, 84
-0.992723, 197, 237, 228, 268
-0.992749, 233, 9, 264, 72
-0.992756, 241, 241, 272, 272
-0.992769, 309, 193, 340, 320
-0.992772, 337, 177, 368, 208
-0.992776, 309, 209, 340, 240
-0.992779, 161, 233, 416, 296
-0.992787, 257, 249, 288, 280
-0.992791, 169, 57, 200, 120
-0.992794, 321, 205, 352, 236
-0.992798, 73, 57, 104, 88
-0.992801, 145, 121, 272, 184
-0.992807, 141, 249, 172, 280
-0.992814, 221, 253, 252, 284
-0.992832, 249, 165, 280, 196
-0.992848, 237, 97, 268, 224
-0.992854, 17, 1, 48, 32
-0.99286, 349, 153, 380, 184
-0.992864, 265, 193, 296, 224
-0.992875, 289, 197, 320, 228
-0.992882, 45, 81, 76, 144
-0.992889, 305, 137, 368, 200
-0.992904, 1, 61, 32, 92
-0.992908, 169, 249, 200, 280
-0.992917, 333, 213, 364, 244
-0.992921, 261, 165, 292, 196
-0.992923, 253, 89, 284, 152
-0.992925, 281, 1, 312, 64
-0.992928, 361, 33, 392, 96
-0.99293, 265, 149, 296, 180
-0.992935, 165, 201, 196, 264
-0.992945, 453, 345, 484, 375
-0.992947, 233, 53, 264, 84
-0.992948, 341, 49, 372, 176
-0.992966, 197, 257, 228, 288
-0.992969, 345, 205, 376, 236
-0.992986, 185, 237, 216, 268
-0.99299, 113, 65, 144, 128
-0.992991, 213, 49, 244, 176
-0.992991, 121, 57, 152, 88
-0.993002, 277, 149, 308, 180
-0.993003, 9, 13, 40, 44
-0.993007, 321, 193, 352, 224
-0.993017, 157, 237, 188, 268
-0.993017, 193, 177, 448, 240
-0.993023, 137, 49, 168, 80
-0.993024, 181, 169, 212, 200
-0.993027, 245, 221, 276, 252
-0.993029, 169, 145, 200, 272
-0.993031, 101, 57, 132, 88
-0.993031, 57, 65, 88, 96
-0.993033, 469, 321, 500, 352
-0.993046, 349, 181, 380, 212
-0.993051, 245, 253, 276, 284
-0.993052, 469, 9, 500, 72
-0.993056, 13, 73, 44, 104
-0.993058, 249, 205, 280, 236
-0.99306, 145, 17, 176, 80
-0.99308, 321, 217, 352, 248
-0.993085, 273, 205, 304, 236
-0.993086, 245, 45, 276, 76
-0.993086, 185, 57, 216, 88
-0.993087, 5, 1, 36, 32
-0.993088, 249, 57, 280, 88
-0.993092, 45, 69, 76, 100
-0.993095, 461, 333, 492, 364
-0.993096, 237, 173, 268, 204
-0.993097, 85, 49, 116, 80
-0.993098, 221, 49, 252, 80
-0.9931, 233, 41, 264, 72
-0.9931, 77, 69, 108, 100
-0.993104, 181, 253, 212, 284
-0.993106, 13, 65, 44, 192
-0.993109, 309, 37, 340, 68
-0.993115, 117, 25, 148, 56
-0.993122, 1, 145, 128, 272
-0.993123, 309, 197, 340, 228
-0.993123, 265, 233, 296, 264
-0.993128, 137, 65, 168, 96
-0.99313, 97, 69, 128, 100
-0.993131, 225, 173, 256, 204
-0.993134, 37, 1, 68, 32
-0.993138, 205, 201, 236, 232
-0.993138, 117, 41, 148, 72
-0.993139, 29, 65, 60, 96
-0.993153, 225, 189, 256, 220
-0.993157, 157, 261, 188, 292
-0.993159, 193, 177, 224, 208
-0.993163, 261, 261, 292, 292
-0.993171, 269, 245, 300, 276
-0.993172, 345, 45, 376, 76
-0.993174, 297, 33, 328, 64
-0.993177, 49, 49, 80, 80
-0.993179, 293, 17, 324, 48
-0.99318, 337, 161, 368, 192
-0.993183, 241, 149, 272, 180
-0.993184, 249, 177, 280, 208
-0.99319, 465, 305, 496, 336
-0.993192, 345, 193, 376, 224
-0.993192, 209, 121, 272, 184
-0.993195, 221, 37, 252, 68
-0.993197, 13, 57, 44, 88
-0.993201, 253, 101, 284, 132
-0.993204, 1, 157, 32, 188
-0.993206, 261, 133, 292, 164
-0.993208, 225, 69, 256, 100
-0.993209, 229, 149, 260, 180
-0.993217, 285, 65, 316, 192
-0.99322, 189, 193, 220, 224
-0.993221, 209, 253, 240, 284
-0.993227, 161, 45, 192, 76
-0.993229, 237, 201, 268, 232
-0.993233, 297, 209, 328, 240
-0.993237, 197, 53, 228, 84
-0.993239, 221, 265, 252, 296
-0.99324, 173, 37, 204, 68
-0.993248, 285, 213, 316, 244
-0.993249, 1, 73, 32, 104
-0.993249, 269, 49, 300, 80
-0.993251, 209, 177, 240, 208
-0.993253, 61, 41, 92, 72
-0.993254, 33, 1, 288, 64
-0.993254, 385, 1, 416, 128
-0.993266, 129, 17, 160, 48
-0.993268, 205, 65, 236, 96
-0.993268, 233, 229, 264, 260
-0.993273, 185, 33, 216, 64
-0.993275, 169, 237, 200, 268
-0.993276, 21, 13, 52, 44
-0.993277, 73, 45, 104, 76
-0.993277, 185, 157, 216, 188
-0.993279, 105, 37, 136, 68
-0.993281, 229, 25, 260, 56
-0.993282, 137, 237, 168, 268
-0.993285, 357, 193, 388, 224
-0.993286, 9, 25, 40, 56
-0.993289, 125, 69, 156, 100
-0.993289, 197, 225, 228, 256
-0.993295, 253, 193, 284, 224
-0.993298, 153, 33, 184, 64
-0.993304, 357, 33, 388, 64
-0.993315, 225, 205, 352, 236
-0.993387, 113, 145, 240, 208
-0.993387, 413, 1, 444, 64
-0.993388, 357, 113, 388, 240
-0.993395, 193, 33, 224, 96
-0.993427, 137, 113, 200, 176
-0.993448, 205, 129, 236, 256
-0.993497, 81, 257, 208, 320
-0.993541, 357, 177, 388, 240
-0.993585, 137, 209, 168, 336
-0.993587, 33, 97, 96, 352
-0.993593, 181, 257, 212, 320
-0.993598, 469, 289, 500, 352
-0.993619, 169, 169, 200, 232
-0.993647, 321, 161, 448, 224
-0.993651, 397, 1, 428, 64
-0.993696, 161, 49, 192, 176
-0.993777, 369, 273, 496, 336
-0.993823, 297, 193, 328, 256
-0.993854, 193, 153, 448, 216
-0.993943, 137, 129, 200, 375
-0.993954, 417, 97, 480, 160
-0.993968, 97, 201, 352, 264
-0.993974, 145, 249, 272, 280
-0.99403, 1, 33, 256, 96
-0.994039, 49, 113, 176, 176
-0.994068, 225, 265, 352, 328
-0.994083, 261, 209, 276, 272
-0.994098, 257, 1, 500, 64
-0.994105, 113, 161, 176, 224
-0.994126, 25, 169, 88, 232
-0.994191, 345, 129, 408, 375
-0.994421, 129, 237, 256, 268
-0.994449, 429, 49, 460, 176
-0.994458, 129, 265, 192, 328
-0.994461, 97, 97, 224, 160
-0.994461, 349, 177, 364, 240
-0.994475, 321, 209, 448, 272
-0.994492, 1, 33, 500, 96
-0.9945, 65, 233, 320, 296
-0.994525, 257, 217, 384, 248
-0.994615, 81, 105, 144, 168
-0.994701, 339, 185, 354, 248
-0.994713, 223, 233, 238, 296
-0.994724, 257, 193, 384, 224
-0.99473, 173, 97, 204, 224
-0.994737, 265, 233, 280, 296
-0.994768, 89, 97, 152, 352
-0.994775, 201, 49, 232, 176
-0.994818, 433, 241, 496, 368
-0.994841, 281, 17, 312, 144
-0.994865, 105, 121, 168, 184
-0.994866, 205, 233, 220, 296
-0.994882, 1, 57, 256, 120
-0.994882, 177, 205, 304, 236
-0.994926, 161, 1, 416, 64
-0.994955, 297, 145, 328, 272
-0.994971, 329, 185, 344, 248
-0.995001, 33, 209, 160, 272
-0.995013, 177, 237, 304, 268
-0.995027, 17, 193, 144, 320
-0.995054, 113, 97, 176, 160
-0.995054, 329, 97, 360, 224
-0.995076, 409, 49, 472, 112
-0.995082, 199, 233, 214, 296
-0.995116, 105, 185, 168, 248
-0.995125, 89, 225, 152, 288
-0.995154, 65, 97, 128, 224
-0.99518, 273, 137, 288, 200
-0.995213, 161, 57, 416, 120
-0.995263, 357, 161, 388, 288
-0.995274, 1, 9, 500, 72
-0.995278, 217, 233, 232, 296
-0.995278, 257, 241, 500, 368
-0.995295, 177, 193, 304, 224
-0.995404, 33, 97, 64, 224
-0.995406, 161, 241, 192, 368
-0.995412, 1, 177, 128, 240
-0.995419, 33, 145, 96, 208
-0.995443, 277, 217, 292, 280
-0.99545, 289, 73, 352, 136
-0.995471, 1, 145, 64, 272
-0.99549, 361, 225, 424, 352
-0.99552, 1, 61, 128, 92
-0.995525, 193, 233, 208, 296
-0.995557, 231, 233, 246, 296
-0.995642, 85, 25, 100, 88
-0.995669, 205, 33, 220, 96
-0.995688, 211, 233, 226, 296
-0.995698, 269, 161, 284, 224
-0.995699, 351, 153, 366, 216
-0.99572, 97, 257, 352, 320
-0.995726, 129, 53, 256, 84
-0.995744, 81, 45, 208, 76
-0.995755, 353, 185, 480, 248
-0.995759, 369, 49, 400, 176
-0.995763, 247, 153, 262, 216
-0.995765, 267, 209, 282, 272
-0.995788, 187, 225, 202, 288
-0.995815, 275, 161, 290, 224
-0.99584, 161, 89, 224, 152
-0.995844, 273, 193, 288, 256
-0.99585, 177, 225, 304, 256
-0.995858, 263, 145, 278, 208
-0.995872, 97, 169, 352, 232
-0.995905, 177, 153, 304, 184
-0.995907, 305, 197, 432, 228
-0.995923, 271, 241, 286, 304
-0.995932, 353, 225, 416, 288
-0.995957, 225, 25, 480, 88
-0.995971, 33, 49, 160, 80
-0.995973, 1, 209, 500, 272
-0.995982, 79, 9, 94, 72
-0.996013, 225, 149, 352, 180
-0.996015, 409, 313, 472, 375
-0.996036, 209, 1, 224, 64
-0.996046, 1, 137, 16, 200
-0.996049, 195, 25, 210, 88
-0.99605, 305, 73, 432, 136
-0.996089, 257, 145, 272, 208
-0.996091, 263, 169, 278, 232
-0.996092, 17, 1, 32, 64
-0.996102, 113, 97, 176, 352
-0.996109, 441, 49, 472, 176
-0.996127, 369, 65, 496, 128
-0.996141, 241, 161, 256, 224
-0.996151, 23, 9, 38, 72
-0.996156, 259, 233, 274, 296
-0.996176, 57, 97, 120, 352
-0.996191, 203, 9, 218, 72
-0.996197, 209, 193, 224, 256
-0.996201, 67, 41, 82, 104
-0.996234, 65, 297, 192, 360
-0.996244, 191, 161, 206, 224
-0.996261, 177, 165, 304, 196
-0.996269, 257, 97, 320, 160
-0.996292, 1, 129, 32, 256
-0.99632, 153, 33, 168, 96
-0.996338, 329, 209, 344, 272
-0.99635, 401, 73, 464, 136
-0.996352, 59, 25, 74, 88
-0.996368, 485, 313, 500, 375
-0.996371, 323, 185, 338, 248
-0.996384, 145, 161, 176, 288
-0.996398, 253, 217, 268, 280
-0.996409, 203, 193, 218, 256
-0.996411, 129, 1, 256, 32
-0.996429, 357, 177, 372, 240
-0.996455, 21, 33, 36, 96
-0.99647, 65, 33, 192, 64
-0.99648, 345, 153, 360, 216
-0.996498, 273, 241, 400, 368
-0.996514, 153, 225, 168, 288
-0.996525, 209, 53, 336, 84
-0.996527, 87, 49, 102, 112
-0.996528, 197, 49, 212, 112
-0.99653, 1, 161, 16, 224
-0.996539, 59, 57, 74, 120
-0.99654, 65, 145, 320, 208
-0.996541, 219, 201, 234, 264
-0.996541, 323, 25, 338, 88
-0.996547, 113, 97, 176, 224
-0.996551, 73, 97, 104, 224
-0.996562, 193, 249, 320, 280
-0.996569, 357, 145, 372, 208
-0.996577, 161, 41, 288, 72
-0.996578, 145, 49, 160, 112
-0.996583, 61, 97, 92, 224
-0.996585, 239, 41, 254, 104
-0.996589, 97, 249, 224, 280
-0.996589, 1, 17, 16, 80
-0.996592, 369, 105, 496, 168
-0.996598, 285, 145, 316, 272
-0.996616, 225, 233, 352, 264
-0.996617, 317, 33, 332, 96
-0.996617, 95, 49, 110, 112
-0.996624, 17, 9, 144, 40
-0.996624, 257, 41, 384, 72
-0.996632, 193, 177, 320, 208
-0.996636, 255, 177, 270, 240
-0.996637, 201, 257, 216, 320
-0.996638, 245, 41, 260, 104
-0.996642, 157, 249, 172, 312
-0.996654, 1, 209, 256, 272
-0.996661, 335, 209, 350, 272
-0.996672, 97, 65, 224, 96
-0.996688, 185, 41, 200, 104
-0.99669, 185, 153, 200, 216
-0.9967, 273, 25, 400, 56
-0.996704, 257, 49, 500, 112
-0.996715, 65, 81, 320, 144
-0.996725, 211, 49, 226, 112
-0.996727, 11, 1, 26, 64
-0.99673, 95, 17, 110, 80
-0.996733, 225, 209, 240, 272
-0.996742, 279, 25, 294, 88
-0.996749, 283, 201, 298, 264
-0.996751, 31, 25, 46, 88
-0.996754, 113, 33, 240, 64
-0.996755, 241, 233, 256, 296
-0.99676, 213, 25, 228, 88
-0.996774, 343, 33, 358, 96
-0.996785, 81, 49, 96, 112
-0.996791, 349, 201, 364, 264
-0.996795, 197, 193, 212, 256
-0.996813, 161, 281, 288, 344
-0.996817, 31, 1, 46, 64
-0.99683, 1, 41, 16, 104
-0.996831, 273, 9, 400, 40
-0.996837, 37, 1, 52, 64
-0.996837, 195, 1, 210, 64
-0.996841, 145, 69, 272, 100
-0.996846, 171, 1, 186, 64
-0.996847, 241, 181, 368, 212
-0.996849, 1, 37, 128, 68
-0.996865, 433, 281, 496, 344
-0.996866, 289, 233, 416, 296
-0.996875, 225, 161, 352, 192
-0.996879, 369, 345, 496, 375
-0.996898, 195, 257, 210, 320
-0.996904, 343, 209, 358, 272
-0.996908, 305, 213, 432, 244
-0.996911, 69, 17, 84, 80
-0.996913, 49, 61, 176, 92
-0.996922, 119, 33, 134, 96
-0.996927, 103, 41, 118, 104
-0.996936, 75, 33, 90, 96
-0.996938, 129, 193, 256, 224
-0.996942, 193, 29, 320, 60
-0.996955, 255, 57, 270, 120
-0.996962, 1, 241, 500, 304
-0.996967, 473, 1, 488, 64
-0.996969, 181, 225, 196, 288
-0.99697, 221, 169, 236, 232
-0.996978, 309, 25, 324, 88
-0.996981, 139, 41, 154, 104
-0.996986, 23, 65, 38, 128
-0.996994, 321, 129, 384, 375
-0.996994, 127, 17, 142, 80
-0.996997, 469, 241, 500, 368
-0.997003, 323, 209, 338, 272
-0.997005, 349, 181, 364, 212
-0.997006, 245, 157, 260, 188
-0.997008, 193, 9, 320, 40
-0.997013, 301, 65, 332, 192
-0.997027, 241, 137, 368, 168
-0.997036, 49, 137, 176, 200
-0.99705, 209, 41, 336, 72
-0.997057, 89, 1, 104, 64
-0.997058, 37, 49, 52, 112
-0.997061, 163, 41, 178, 104
-0.997064, 29, 49, 44, 112
-0.997075, 145, 25, 160, 88
-0.997078, 479, 313, 494, 375
-0.997079, 291, 17, 306, 80
-0.997079, 133, 33, 148, 96
-0.997086, 65, 217, 128, 280
-0.997099, 273, 153, 400, 184
-0.9971, 233, 33, 248, 96
-0.99711, 269, 49, 284, 112
-0.997112, 219, 33, 234, 96
-0.997114, 191, 201, 206, 264
-0.997117, 53, 25, 68, 88
-0.997118, 461, 1, 476, 64
-0.997124, 177, 261, 304, 292
-0.997125, 49, 57, 64, 120
-0.997133, 319, 1, 334, 64
-0.997134, 151, 57, 166, 120
-0.997152, 389, 9, 404, 72
-0.997153, 113, 49, 128, 112
-0.997174, 25, 129, 88, 256
-0.997183, 279, 137, 294, 200
-0.997186, 273, 113, 288, 176
-0.997192, 75, 57, 90, 120
-0.997192, 289, 193, 304, 256
-0.997192, 113, 21, 240, 52
-0.997195, 481, 1, 496, 64
-0.997196, 187, 17, 202, 80
-0.997198, 215, 1, 230, 64
-0.997201, 211, 169, 226, 232
-0.997211, 191, 49, 206, 112
-0.99722, 259, 209, 274, 240
-0.997224, 289, 257, 416, 320
-0.997282, 253, 161, 268, 192
-0.997289, 1, 305, 128, 368
-0.997301, 1, 101, 128, 132
-0.997314, 279, 205, 294, 236
-0.997325, 155, 249, 170, 280
-0.997334, 241, 129, 272, 375
-0.997348, 317, 49, 348, 176
-0.997349, 337, 137, 464, 200
-0.997361, 267, 245, 282, 276
-0.997363, 177, 141, 304, 172
-0.997369, 193, 69, 320, 100
-0.997369, 341, 197, 356, 228
-0.997381, 241, 289, 368, 352
-0.997407, 65, 129, 128, 192
-0.997415, 267, 233, 282, 264
-0.997416, 469, 341, 484, 372
-0.997421, 129, 261, 256, 292
-0.997433, 65, 21, 192, 52
-0.997447, 253, 65, 284, 320
-0.997458, 81, 85, 208, 116
-0.997463, 161, 129, 416, 192
-0.99747, 221, 185, 236, 216
-0.99748, 275, 145, 290, 176
-0.997488, 347, 197, 362, 228
-0.997489, 81, 1, 208, 32
-0.997518, 271, 209, 286, 240
-0.997528, 321, 73, 384, 136
-0.997535, 1, 257, 256, 320
-0.997543, 453, 49, 484, 176
-0.997572, 369, 21, 496, 52
-0.997581, 213, 193, 228, 224
-0.997585, 321, 29, 448, 60
-0.997589, 335, 205, 350, 236
-0.997592, 381, 49, 412, 176
-0.997595, 337, 49, 464, 80
-0.997596, 81, 193, 144, 320
-0.997597, 321, 13, 448, 44
-0.9976, 369, 5, 496, 36
-0.997601, 161, 253, 176, 284
-0.997603, 45, 97, 76, 224
-0.997604, 353, 149, 368, 180
-0.997622, 1, 77, 128, 108
-0.997626, 321, 1, 448, 32
-0.997655, 17, 25, 144, 56
-0.997658, 257, 53, 384, 84
-0.997672, 129, 181, 256, 212
-0.99768, 259, 245, 274, 276
-0.997688, 475, 341, 490, 372
-0.997696, 269, 153, 284, 184
-0.997697, 257, 73, 500, 136
-0.9977, 113, 305, 240, 368
-0.997702, 49, 73, 176, 104
-0.997709, 193, 129, 320, 160
-0.997715, 267, 197, 282, 228
-0.997721, 261, 221, 276, 252
-0.997723, 265, 129, 296, 375
-0.997727, 425, 97, 488, 224
-0.99774, 361, 169, 424, 232
-0.997742, 289, 129, 416, 192
-0.997744, 221, 233, 236, 264
-0.997755, 1, 185, 500, 248
-0.997758, 129, 213, 256, 244
-0.997766, 97, 225, 224, 256
-0.997777, 335, 185, 350, 216
-0.997777, 67, 57, 82, 88
-0.997778, 369, 209, 496, 272
-0.997791, 149, 245, 164, 276
-0.997804, 327, 209, 342, 240
-0.997817, 261, 173, 276, 204
-0.997818, 189, 169, 204, 200
-0.997819, 145, 273, 272, 304
-0.997827, 281, 209, 312, 336
-0.997827, 1, 161, 500, 224
-0.997833, 337, 185, 464, 216
-0.997836, 345, 129, 408, 192
-0.997839, 129, 161, 256, 192
-0.99784, 21, 1, 52, 256
-0.997842, 1, 57, 500, 120
-0.997843, 265, 281, 328, 344
-0.997849, 271, 169, 286, 200
-0.99786, 223, 197, 238, 228
-0.997863, 255, 149, 270, 180
-0.997868, 161, 85, 288, 116
-0.99787, 261, 233, 276, 264
-0.997878, 1, 121, 256, 184
-0.997887, 233, 33, 264, 288
-0.997891, 145, 81, 176, 208
-0.997903, 1, 177, 256, 240
-0.997906, 85, 97, 116, 224
-0.997907, 33, 1, 48, 32
-0.997908, 239, 161, 254, 192
-0.997912, 1, 145, 128, 176
-0.997921, 369, 97, 432, 352
-0.997922, 481, 341, 496, 372
-0.997925, 351, 169, 366, 200
-0.997928, 145, 97, 272, 160
-0.99794, 445, 97, 476, 224
-0.997944, 227, 237, 242, 268
-0.997953, 207, 189, 222, 220
-0.99796, 1, 89, 128, 120
-0.997977, 187, 157, 202, 188
-0.997993, 231, 249, 246, 280
-0.997998, 485, 321, 500, 352
-0.998003, 263, 149, 278, 180
-0.998006, 1, 153, 16, 184
-0.99801, 81, 237, 208, 268
-0.998011, 199, 237, 214, 268
-0.998024, 343, 185, 358, 216
-0.998043, 215, 181, 230, 212
-0.998045, 333, 217, 348, 248
-0.998046, 241, 245, 368, 276
-0.998053, 49, 97, 176, 128
-0.998055, 461, 337, 476, 368
-0.99806, 185, 233, 200, 264
-0.998062, 259, 161, 274, 192
-0.998063, 269, 257, 284, 288
-0.998065, 211, 49, 226, 80
-0.998074, 257, 233, 500, 296
-0.998075, 261, 197, 276, 228
-0.998076, 347, 213, 362, 244
-0.998078, 87, 45, 102, 76
-0.998079, 105, 241, 168, 368
-0.99808, 1, 157, 128, 188
-0.998084, 161, 105, 416, 168
-0.998087, 1, 165, 16, 196
-0.998091, 191, 233, 206, 264
-0.998095, 369, 161, 496, 288
-0.998096, 25, 1, 40, 32
-0.998101, 49, 113, 176, 144
-0.998107, 155, 45, 170, 76
-0.998109, 177, 305, 304, 368
-0.998111, 285, 205, 300, 236
-0.998113, 277, 157, 292, 188
-0.998115, 255, 97, 270, 128
-0.998118, 41, 193, 104, 256
-0.99812, 211, 237, 226, 268
-0.998121, 273, 133, 288, 164
-0.998124, 273, 65, 400, 96
-0.998125, 67, 45, 82, 76
-0.998132, 19, 9, 34, 40
-0.998133, 73, 49, 88, 80
-0.998136, 203, 37, 218, 68
-0.998136, 353, 201, 368, 232
-0.998142, 125, 1, 156, 256
-0.99815, 241, 257, 368, 288
-0.998156, 319, 201, 334, 232
-0.998159, 155, 29, 170, 60
-0.998161, 1, 113, 128, 144
-0.998163, 167, 249, 182, 280
-0.998166, 193, 97, 224, 352
-0.998175, 245, 53, 260, 84
-0.998175, 131, 37, 146, 68
-0.998179, 193, 257, 448, 320
-0.99818, 341, 209, 356, 240
-0.998182, 255, 233, 270, 264
-0.998185, 77, 1, 108, 256
-0.99819, 369, 33, 496, 64
-0.998197, 1, 33, 32, 288
-0.998197, 227, 185, 242, 216
-0.998203, 199, 261, 214, 292
-0.998211, 195, 177, 210, 208
-0.998217, 369, 57, 432, 120
-0.998227, 121, 97, 152, 224
-0.998234, 241, 125, 368, 156
-0.998238, 161, 49, 176, 80
-0.998245, 281, 145, 296, 176
-0.998247, 155, 57, 170, 88
-0.99825, 143, 41, 158, 72
-0.998262, 247, 169, 262, 200
-0.998264, 9, 13, 24, 44
-0.998267, 189, 145, 204, 176
-0.998277, 107, 37, 122, 68
-0.998277, 97, 57, 112, 88
-0.998281, 337, 241, 464, 304
-0.998286, 137, 53, 152, 84
-0.998291, 241, 237, 256, 268
-0.998295, 357, 189, 372, 220
-0.998296, 207, 257, 222, 288
-0.998301, 161, 101, 288, 132
-0.998302, 61, 61, 76, 92
-0.998304, 7, 53, 22, 84
-0.998307, 247, 41, 262, 72
-0.998307, 145, 53, 160, 84
-0.998314, 201, 49, 216, 80
-0.998316, 253, 173, 268, 204
-0.998318, 89, 57, 104, 88
-0.998322, 27, 53, 42, 84
-0.998323, 179, 233, 194, 264
-0.998323, 273, 245, 288, 276
-0.998325, 163, 61, 178, 92
-0.998326, 311, 205, 326, 236
-0.998326, 193, 157, 208, 188
-0.99833, 23, 69, 38, 100
-0.998332, 43, 9, 58, 40
-0.998332, 191, 253, 206, 284
-0.998337, 79, 53, 94, 84
-0.998337, 329, 197, 344, 228
-0.99835, 277, 217, 292, 248
-0.998352, 251, 53, 266, 84
-0.998353, 329, 185, 344, 216
-0.998355, 285, 1, 316, 256
-0.998355, 17, 65, 32, 96
-0.998357, 235, 53, 250, 84
-0.998358, 319, 213, 334, 244
-0.998361, 257, 313, 384, 375
-0.998361, 57, 19, 88, 34
-0.998361, 457, 337, 488, 352
-0.998361, 257, 231, 288, 246
-0.998362, 245, 233, 276, 248
-0.998362, 337, 175, 368, 190
-0.998363, 261, 145, 292, 160
-0.998363, 209, 183, 240, 198
-0.998364, 357, 205, 388, 220
-0.998365, 309, 39, 340, 54
-0.998365, 197, 231, 228, 246
-0.998366, 273, 155, 304, 170
-0.998366, 305, 33, 336, 48
-0.998367, 195, 45, 210, 76
-0.998367, 247, 145, 262, 176
-0.998368, 17, 7, 48, 22
-0.998368, 37, 3, 68, 18
-0.998368, 345, 161, 376, 176
-0.998368, 221, 35, 252, 50
-0.99837, 217, 251, 248, 266
-0.998371, 453, 355, 484, 370
-0.998371, 233, 155, 264, 170
-0.998371, 133, 39, 164, 54
-0.998372, 279, 193, 294, 224
-0.998372, 117, 55, 148, 70
-0.998372, 105, 67, 136, 82
-0.998373, 273, 149, 304, 164
-0.998373, 221, 193, 252, 208
-0.998373, 217, 57, 232, 88
-0.998373, 17, 1, 48, 16
-0.998374, 269, 197, 300, 212
-0.998375, 347, 153, 362, 184
-0.998375, 225, 171, 256, 186
-0.998376, 33, 13, 48, 44
-0.998377, 173, 43, 204, 58
-0.998378, 349, 175, 380, 190
-0.998378, 317, 189, 348, 204
-0.998378, 219, 257, 234, 288
-0.998378, 357, 33, 388, 288
-0.998379, 173, 159, 204, 174
-0.998379, 117, 67, 148, 82
-0.99838, 273, 163, 304, 178
-0.99838, 103, 49, 118, 80
-0.998381, 357, 161, 372, 192
-0.998381, 229, 45, 260, 60
-0.998381, 193, 247, 224, 262
-0.998382, 21, 13, 52, 28
-0.998383, 193, 25, 208, 56
-0.998383, 253, 245, 268, 276
-0.998384, 65, 67, 96, 82
-0.998385, 361, 33, 392, 48
-0.998385, 145, 257, 176, 272
-0.998385, 35, 49, 50, 80
-0.998385, 329, 181, 360, 196
-0.998385, 53, 59, 84, 74
-0.998386, 185, 157, 216, 172
-0.99839, 65, 49, 96, 64
-0.998392, 181, 169, 212, 184
-0.998395, 453, 349, 484, 364
-0.998396, 457, 343, 488, 358
-0.998396, 269, 223, 300, 238
-0.998397, 261, 187, 292, 202
-0.998398, 97, 121, 224, 184
-0.998398, 321, 241, 448, 368
-0.998399, 201, 55, 232, 70
-0.9984, 9, 17, 40, 32
-0.998401, 25, 73, 56, 88
-0.998402, 213, 203, 244, 218
-0.998402, 177, 243, 208, 258
-0.998403, 237, 239, 268, 254
-0.998403, 241, 51, 272, 66
-0.998405, 77, 57, 108, 72
-0.998405, 177, 253, 208, 268
-0.998406, 33, 1, 64, 256
-0.998406, 469, 343, 500, 358
-0.998406, 241, 43, 272, 58
-0.998409, 9, 63, 40, 78
-0.998413, 249, 57, 280, 72
-0.998413, 197, 199, 228, 214
-0.998413, 349, 153, 380, 168
-0.998414, 325, 195, 356, 210
-0.998416, 149, 245, 180, 260
-0.998419, 229, 245, 260, 260
-0.998419, 97, 61, 128, 76
-0.998421, 289, 211, 320, 226
-0.998422, 133, 249, 164, 264
-0.998422, 261, 161, 276, 288
-0.998423, 217, 245, 248, 260
-0.998424, 309, 219, 340, 234
-0.998425, 237, 177, 268, 192
-0.998427, 345, 211, 376, 226
-0.998427, 81, 261, 208, 292
-0.998427, 249, 167, 280, 182
-0.998427, 261, 167, 292, 182
-0.998428, 245, 215, 276, 230
-0.998429, 249, 225, 280, 240
-0.99843, 165, 247, 196, 262
-0.998432, 49, 1, 80, 256
-0.998433, 277, 211, 308, 226
-0.998435, 129, 67, 160, 82
-0.998436, 225, 245, 288, 260
-0.998436, 193, 163, 224, 178
-0.998436, 77, 67, 108, 82
-0.998437, 341, 189, 372, 204
-0.998438, 141, 63, 172, 78
-0.998441, 265, 245, 296, 260
-0.998441, 9, 75, 40, 90
-0.998442, 321, 219, 352, 234
-0.998445, 229, 51, 260, 66
-0.998446, 249, 153, 280, 168
-0.998447, 5, 69, 36, 84
-0.998448, 337, 195, 368, 210
-0.998449, 181, 235, 212, 250
-0.998449, 377, 233, 440, 296
-0.998449, 229, 57, 260, 72
-0.99845, 313, 207, 344, 222
-0.99845, 197, 239, 228, 254
-0.99845, 257, 161, 288, 176
-0.99845, 285, 205, 316, 220
-0.998451, 193, 193, 224, 208
-0.998458, 261, 205, 292, 220
-0.998462, 369, 329, 496, 360
-0.998463, 65, 55, 96, 70
-0.998463, 117, 61, 148, 76
-0.998463, 185, 1, 216, 256
-0.998464, 465, 349, 496, 364
-0.998466, 225, 161, 256, 176
-0.998466, 249, 173, 280, 188
-0.998468, 209, 189, 240, 204
-0.998468, 157, 253, 188, 268
-0.998468, 153, 253, 216, 268
-0.998471, 249, 213, 312, 228
-0.998471, 341, 183, 372, 198
-0.998473, 65, 61, 96, 76
-0.998484, 313, 213, 376, 228
-0.998484, 209, 239, 240, 254
-0.998488, 249, 101, 280, 116
-0.998489, 241, 245, 272, 260
-0.998491, 465, 355, 496, 370
-0.998492, 233, 167, 296, 182
-0.998492, 469, 321, 500, 336
-0.998492, 273, 213, 336, 228
-0.998494, 273, 33, 304, 288
-0.998495, 369, 305, 496, 336
-0.998495, 209, 197, 240, 212
-0.998496, 193, 239, 256, 254
-0.998498, 297, 1, 328, 256
-0.998502, 257, 237, 288, 252
-0.998502, 185, 195, 248, 210
-0.998504, 313, 191, 376, 206
-0.998504, 57, 61, 120, 76
-0.998504, 297, 207, 360, 222
-0.998505, 225, 129, 256, 375
-0.998506, 241, 155, 304, 170
-0.998506, 193, 161, 256, 176
-0.998508, 333, 215, 364, 230
-0.998508, 261, 151, 292, 166
-0.99851, 129, 145, 256, 176
-0.998512, 305, 213, 336, 228
-0.998517, 245, 159, 276, 174
-0.99852, 145, 245, 208, 260
-0.998522, 65, 165, 192, 196
-0.998523, 257, 251, 288, 266
-0.998524, 329, 189, 360, 204
-0.998526, 233, 251, 296, 266
-0.998526, 233, 161, 296, 176
-0.998528, 333, 205, 364, 220
-0.998529, 145, 251, 176, 266
-0.998529, 225, 237, 288, 252
-0.99853, 433, 129, 496, 375
-0.998532, 305, 225, 432, 256
-0.998533, 17, 55, 80, 70
-0.998537, 185, 249, 248, 264
-0.998538, 297, 37, 360, 52
-0.998539, 233, 173, 296, 188
-0.998543, 17, 49, 80, 64
-0.998548, 265, 211, 296, 226
-0.998548, 1, 129, 128, 160
-0.998552, 81, 177, 208, 208
-0.998554, 193, 167, 256, 182
-0.998554, 161, 59, 224, 74
-0.998554, 257, 217, 288, 232
-0.998556, 237, 171, 268, 186
-0.998557, 297, 219, 360, 234
-0.998557, 161, 113, 224, 176
-0.998557, 113, 281, 240, 344
-0.998557, 145, 41, 208, 56
-0.998559, 105, 1, 136, 256
-0.998559, 321, 207, 384, 222
-0.998563, 49, 69, 112, 84
-0.998563, 313, 1, 344, 256
-0.998564, 17, 63, 80, 78
-0.998565, 305, 197, 368, 212
-0.998567, 273, 205, 336, 220
-0.998569, 317, 213, 348, 228
-0.998569, 25, 37, 88, 52
-0.998569, 185, 189, 248, 204
-0.998571, 269, 217, 300, 232
-0.998572, 121, 251, 184, 266
-0.998573, 241, 221, 304, 236
-0.998573, 33, 43, 96, 58
-0.998574, 321, 185, 384, 200
-0.99858, 57, 49, 120, 64
-0.998583, 225, 213, 288, 228
-0.998584, 169, 235, 232, 250
-0.998587, 9, 69, 72, 84
-0.998588, 321, 61, 448, 92
-0.998588, 57, 37, 120, 52
-0.998589, 253, 243, 284, 258
-0.998591, 121, 65, 184, 80
-0.998591, 129, 33, 192, 48
-0.998594, 81, 61, 144, 76
-0.998594, 217, 203, 280, 218
-0.998595, 237, 165, 268, 180
-0.998596, 145, 235, 208, 250
-0.998596, 249, 207, 312, 222
-0.998597, 161, 259, 224, 274
-0.998598, 25, 25, 88, 40
-0.9986, 57, 55, 120, 70
-0.9986, 273, 191, 336, 206
-0.9986, 169, 241, 232, 256
-0.9986, 273, 31, 336, 46
-0.998601, 249, 239, 312, 254
-0.998601, 217, 257, 280, 272
-0.998603, 241, 41, 304, 56
-0.998603, 281, 43, 344, 58
-0.998603, 241, 149, 304, 164
-0.998604, 9, 77, 72, 92
-0.998605, 9, 19, 72, 34
-0.998605, 249, 35, 312, 50
-0.998605, 153, 165, 216, 180
-0.998605, 225, 231, 288, 246
-0.998605, 161, 81, 416, 144
-0.998607, 193, 57, 256, 72
-0.998607, 241, 197, 304, 212
-0.998608, 57, 43, 120, 58
-0.998608, 217, 185, 280, 200
-0.998608, 281, 49, 344, 64
-0.998609, 177, 129, 208, 375
-0.99861, 89, 55, 152, 70
-0.99861, 233, 263, 296, 278
-0.99861, 209, 269, 272, 284
-0.998612, 217, 191, 280, 206
-0.998612, 113, 59, 176, 74
-0.998613, 433, 359, 496, 374
-0.998615, 273, 37, 336, 52
-0.998615, 137, 57, 200, 72
-0.998618, 265, 219, 328, 234
-0.998618, 193, 263, 256, 278
-0.998621, 241, 93, 368, 124
-0.998621, 97, 67, 160, 82
-0.998621, 241, 47, 304, 62
-0.998622, 257, 247, 320, 262
-0.998623, 49, 21, 112, 36
-0.998625, 177, 205, 240, 220
-0.998627, 257, 165, 320, 180
-0.998627, 49, 75, 112, 90
-0.998629, 41, 13, 104, 28
-0.998629, 265, 229, 328, 244
-0.998629, 161, 199, 224, 214
-0.998632, 169, 41, 232, 56
-0.998633, 249, 55, 312, 70
-0.998633, 265, 25, 328, 40
-0.998634, 209, 197, 272, 212
-0.998635, 161, 171, 224, 186
-0.998635, 267, 145, 282, 272
-0.998635, 297, 27, 360, 42
-0.998636, 337, 213, 400, 228
-0.998636, 129, 51, 192, 66
-0.998636, 425, 353, 488, 368
-0.998638, 297, 19, 360, 34
-0.998638, 201, 233, 264, 248
-0.998639, 193, 173, 256, 188
-0.998639, 89, 47, 152, 62
-0.99864, 353, 19, 416, 34
-0.99864, 281, 197, 344, 212
-0.99864, 397, 1, 428, 256
-0.998641, 329, 45, 392, 60
-0.998642, 353, 35, 416, 50
-0.998642, 177, 229, 240, 244
-0.998642, 113, 41, 176, 56
-0.998642, 185, 47, 248, 62
-0.998643, 161, 191, 224, 206
-0.998643, 217, 59, 280, 74
-0.998643, 153, 269, 216, 284
-0.998643, 173, 1, 204, 256
-0.998644, 161, 51, 224, 66
-0.998645, 193, 255, 256, 270
-0.998645, 217, 41, 280, 56
-0.998645, 193, 37, 256, 52
-0.998646, 185, 63, 248, 78
-0.998647, 393, 29, 456, 44
-0.998647, 329, 29, 392, 44
-0.998648, 9, 9, 72, 24
-0.998649, 1, 27, 64, 42
-0.99865, 57, 161, 120, 224
-0.99865, 121, 259, 184, 274
-0.998652, 257, 19, 320, 34
-0.998653, 193, 155, 256, 170
-0.998653, 161, 185, 224, 200
-0.998654, 9, 43, 72, 58
-0.998654, 153, 69, 216, 84
-0.998655, 41, 31, 104, 46
-0.998655, 225, 103, 288, 118
-0.998656, 417, 347, 480, 362
-0.998658, 417, 49, 448, 176
-0.998659, 161, 113, 288, 144
-0.998667, 57, 177, 120, 304
-0.998671, 1, 177, 64, 240
-0.998676, 1, 249, 128, 312
-0.998696, 49, 249, 176, 280
-0.998726, 133, 161, 164, 288
-0.998737, 385, 1, 416, 256
-0.998743, 289, 281, 416, 344
-0.998746, 157, 1, 188, 256
-0.998761, 305, 113, 368, 176
-0.998767, 369, 1, 400, 256
-0.99877, 221, 1, 252, 256
-0.998782, 137, 1, 168, 256
-0.998794, 261, 209, 276, 336
-0.998797, 329, 33, 360, 288
-0.998811, 209, 105, 336, 136
-0.998814, 433, 73, 496, 136
-0.998821, 49, 125, 176, 156
-0.998839, 255, 145, 270, 272
-0.998839, 231, 225, 246, 352
-0.998846, 97, 97, 224, 128
-0.998863, 93, 33, 124, 288
-0.9989, 257, 305, 500, 368
-0.998921, 393, 97, 456, 352
-0.998948, 321, 149, 448, 180
-0.99895, 1, 81, 500, 144
-0.998957, 345, 33, 376, 288
-0.998962, 469, 49, 500, 176
-0.998967, 225, 269, 352, 300
-0.998968, 329, 49, 360, 176
-0.998973, 49, 225, 176, 256
-0.998975, 321, 173, 448, 204
-0.998988, 465, 1, 496, 256
-0.998992, 133, 97, 164, 224
-0.999006, 65, 65, 96, 320
-0.999011, 33, 237, 160, 268
-0.999027, 201, 1, 232, 256
-0.99903, 225, 209, 240, 336
-0.999037, 261, 113, 276, 240
-0.999038, 267, 193, 282, 320
-0.999045, 213, 129, 244, 375
-0.999052, 81, 213, 208, 244
-0.999055, 187, 161, 202, 288
-0.999063, 255, 193, 270, 320
-0.999067, 425, 1, 456, 256
-0.999091, 363, 1, 378, 128
-0.999091, 325, 177, 340, 304
-0.999098, 91, 1, 106, 128
-0.999098, 369, 317, 496, 348
-0.999111, 237, 225, 252, 352
-0.999111, 37, 1, 52, 128
-0.999117, 449, 1, 480, 256
-0.999118, 71, 1, 86, 128
-0.999121, 349, 145, 364, 272
-0.999123, 97, 273, 224, 304
-0.999137, 165, 97, 196, 352
-0.999141, 103, 1, 118, 128
-0.999142, 79, 49, 94, 176
-0.999143, 219, 209, 234, 336
-0.999146, 1, 121, 500, 184
-0.99915, 13, 113, 44, 240
-0.999151, 83, 1, 98, 128
-0.999165, 47, 1, 62, 128
-0.999177, 147, 17, 162, 144
-0.999182, 101, 97, 132, 224
-0.999186, 81, 189, 208, 220
-0.999186, 203, 1, 218, 128
-0.999194, 1, 129, 16, 256
-0.999196, 193, 177, 208, 304
-0.999196, 127, 33, 142, 160
-0.999203, 11, 1, 26, 128
-0.999207, 273, 161, 288, 288
-0.999225, 153, 225, 168, 352
-0.999226, 31, 1, 46, 128
-0.999226, 331, 193, 346, 320
-0.999228, 241, 81, 368, 112
-0.99923, 213, 177, 228, 304
-0.999232, 77, 1, 92, 128
-0.999236, 153, 17, 168, 144
-0.999239, 437, 1, 468, 256
-0.999245, 1, 1, 16, 128
-0.999246, 357, 1, 372, 128
-0.999249, 113, 1, 128, 128
-0.999249, 119, 1, 134, 128
-0.999257, 53, 1, 68, 128
-0.999262, 355, 129, 370, 256
-0.999264, 63, 17, 78, 144
-0.999266, 313, 1, 328, 128
-0.999267, 209, 1, 224, 128
-0.999283, 185, 1, 200, 128
-0.999283, 193, 1, 208, 128
-0.999285, 65, 145, 192, 176
-0.999285, 207, 209, 222, 336
-0.999288, 137, 1, 152, 128
-0.999289, 417, 1, 432, 128
-0.99929, 181, 193, 196, 320
-0.999294, 463, 1, 478, 128
-0.999299, 231, 177, 246, 304
-0.999302, 187, 209, 202, 336
-0.999305, 353, 129, 384, 375
-0.999308, 337, 129, 368, 375
-0.999315, 73, 49, 88, 176
-0.999317, 273, 17, 288, 144
-0.999323, 17, 169, 144, 200
-0.999333, 65, 201, 192, 232
-0.999334, 271, 65, 286, 192
-0.999336, 223, 161, 238, 288
-0.999337, 329, 1, 344, 128
-0.999339, 255, 65, 270, 192
-0.999341, 199, 209, 214, 336
-0.999342, 235, 1, 250, 128
-0.999347, 17, 17, 32, 144
-0.999348, 23, 1, 38, 128
-0.999349, 411, 1, 426, 128
-0.999352, 203, 49, 218, 176
-0.999353, 249, 161, 264, 288
-0.999354, 403, 1, 418, 128
-0.999355, 337, 161, 352, 288
-0.999355, 247, 33, 262, 160
-0.999356, 165, 1, 180, 128
-0.999356, 439, 1, 454, 128
-0.999357, 263, 65, 278, 192
-0.999359, 1, 177, 32, 304
-0.99936, 215, 1, 230, 128
-0.99936, 323, 17, 338, 144
-0.999361, 3, 81, 18, 208
-0.999365, 331, 145, 346, 272
-0.999368, 273, 113, 288, 240
-0.999371, 159, 33, 174, 160
-0.999372, 25, 97, 56, 352
-0.999379, 53, 49, 68, 176
-0.99938, 87, 49, 102, 176
-0.99938, 433, 1, 448, 128
-0.999381, 177, 17, 192, 144
-0.999382, 267, 1, 282, 128
-0.999383, 335, 1, 350, 128
-0.999384, 279, 1, 294, 128
-0.99939, 241, 177, 256, 304
-0.999394, 261, 1, 276, 128
-0.999395, 457, 1, 472, 128
-0.999397, 97, 109, 224, 140
-0.999401, 287, 17, 302, 144
-0.999402, 1, 185, 128, 216
-0.999407, 389, 1, 404, 128
-0.999407, 483, 1, 498, 128
-0.999407, 257, 129, 500, 192
-0.999407, 297, 1, 312, 128
-0.99941, 381, 1, 396, 128
-0.999412, 135, 49, 150, 176
-0.999417, 197, 49, 212, 176
-0.999418, 97, 33, 112, 160
-0.999421, 353, 197, 480, 228
-0.999423, 193, 129, 208, 256
-0.999425, 159, 225, 174, 352
-0.999426, 211, 49, 226, 176
-0.999428, 337, 137, 464, 168
-0.999429, 213, 225, 228, 352
-0.99943, 325, 129, 356, 375
-0.999441, 157, 177, 172, 304
-0.999442, 289, 237, 416, 268
-0.999444, 117, 49, 132, 176
-0.999445, 47, 49, 62, 176
-0.999445, 193, 225, 208, 352
-0.999447, 427, 1, 442, 128
-0.999448, 369, 97, 496, 128
-0.999449, 355, 177, 370, 304
-0.99945, 229, 1, 244, 128
-0.999453, 23, 49, 38, 176
-0.999455, 273, 169, 400, 200
-0.999456, 319, 209, 334, 336
-0.999457, 447, 1, 462, 128
-0.999459, 473, 1, 488, 128
-0.999466, 109, 49, 124, 176
-0.999468, 325, 129, 340, 256
-0.999469, 33, 273, 160, 336
-0.99947, 349, 1, 364, 128
-0.99947, 171, 1, 186, 128
-0.99947, 433, 97, 464, 224
-0.999472, 371, 1, 386, 128
-0.999472, 269, 241, 284, 368
-0.999477, 273, 113, 400, 144
-0.99948, 277, 209, 292, 336
-0.99949, 255, 17, 270, 144
-0.99949, 245, 225, 260, 352
-0.999491, 409, 1, 440, 256
-0.999499, 279, 161, 294, 288
-0.999502, 13, 97, 44, 352
-0.999504, 103, 49, 118, 176
-0.999505, 241, 49, 256, 176
-0.999505, 37, 49, 52, 176
-0.999506, 353, 65, 368, 192
-0.999507, 163, 177, 178, 304
-0.999513, 305, 1, 320, 128
-0.999513, 175, 193, 190, 320
-0.999518, 199, 161, 214, 288
-0.999518, 97, 325, 224, 356
-0.999522, 343, 161, 358, 288
-0.999532, 369, 293, 496, 324
-0.999542, 393, 177, 456, 304
-0.999553, 33, 213, 160, 244
-0.999556, 257, 293, 384, 324
-0.999557, 321, 97, 448, 160
-0.999559, 1, 197, 128, 228
-0.999559, 305, 77, 432, 108
-0.99956, 77, 97, 108, 352
-0.999575, 325, 221, 340, 236
-0.999575, 193, 235, 208, 250
-0.999575, 1, 67, 16, 82
-0.999576, 463, 345, 478, 360
-0.999576, 19, 67, 34, 82
-0.999577, 187, 253, 202, 268
-0.999578, 269, 161, 284, 176
-0.999578, 209, 199, 224, 214
-0.999578, 247, 49, 262, 64
-0.999578, 355, 209, 370, 224
-0.999579, 225, 281, 352, 312
-0.999579, 317, 33, 332, 48
-0.999579, 9, 17, 24, 32
-0.99958, 261, 229, 276, 244
-0.999581, 65, 67, 80, 82
-0.999581, 345, 195, 360, 210
-0.999581, 153, 243, 168, 258
-0.999582, 485, 331, 500, 346
-0.999582, 29, 3, 44, 18
-0.999582, 151, 43, 166, 58
-0.999582, 343, 183, 358, 198
-0.999583, 315, 217, 330, 232
-0.999583, 461, 339, 476, 354
-0.999583, 469, 359, 484, 374
-0.999583, 145, 53, 160, 68
-0.999583, 193, 49, 208, 64
-0.999584, 21, 27, 36, 42
-0.999584, 269, 261, 284, 276
-0.999585, 265, 173, 280, 188
-0.999585, 267, 255, 282, 270
-0.999585, 261, 103, 276, 118
-0.999586, 257, 161, 272, 176
-0.999588, 247, 55, 262, 70
-0.999588, 169, 247, 184, 262
-0.999588, 187, 171, 202, 186
-0.999588, 49, 309, 176, 340
-0.999588, 25, 19, 40, 34
-0.999589, 303, 213, 318, 228
-0.999589, 351, 189, 366, 204
-0.99959, 235, 171, 250, 186
-0.99959, 29, 73, 44, 88
-0.999592, 249, 101, 264, 116
-0.999592, 451, 101, 466, 116
-0.999593, 45, 97, 76, 352
-0.999593, 283, 155, 298, 170
-0.999594, 279, 205, 294, 220
-0.999594, 223, 193, 238, 208
-0.999597, 349, 209, 364, 224
-0.999597, 65, 55, 80, 70
-0.999597, 11, 61, 26, 76
-0.999597, 1, 225, 128, 256
-0.999598, 187, 235, 202, 250
-0.999599, 215, 187, 230, 202
-0.999599, 21, 73, 36, 88
-0.999599, 201, 43, 216, 58
-0.999601, 7, 69, 22, 84
-0.999601, 35, 7, 50, 22
-0.999603, 275, 143, 290, 158
-0.999604, 263, 165, 278, 180
-0.999606, 259, 249, 274, 264
-0.999606, 305, 97, 336, 352
-0.999607, 153, 97, 184, 352
-0.999607, 463, 355, 478, 370
-0.999608, 469, 347, 484, 362
-0.999609, 327, 209, 342, 224
-0.99961, 259, 151, 274, 166
-0.99961, 277, 161, 292, 176
-0.99961, 223, 199, 238, 214
-0.999611, 483, 323, 498, 338
-0.999611, 225, 241, 240, 256
-0.999612, 253, 237, 268, 252
-0.999612, 479, 357, 494, 372
-0.999613, 129, 41, 144, 56
-0.999613, 335, 217, 350, 232
-0.999614, 261, 223, 276, 238
-0.999615, 241, 177, 256, 192
-0.999616, 191, 165, 206, 180
-0.999616, 221, 235, 236, 250
-0.999617, 469, 353, 484, 368
-0.999617, 345, 189, 360, 204
-0.999618, 271, 167, 286, 182
-0.999619, 163, 253, 178, 268
-0.99962, 273, 155, 288, 170
-0.999622, 231, 247, 246, 262
-0.999623, 345, 215, 360, 230
-0.999624, 351, 177, 366, 192
-0.999624, 261, 207, 276, 222
-0.999624, 253, 175, 268, 190
-0.999624, 159, 259, 174, 274
-0.999626, 259, 173, 274, 188
-0.999628, 201, 49, 216, 64
-0.999629, 207, 49, 222, 64
-0.999629, 189, 159, 204, 174
-0.999629, 339, 197, 354, 212
-0.99963, 1, 167, 16, 182
-0.999632, 253, 155, 268, 170
-0.999634, 335, 211, 350, 226
-0.999634, 145, 249, 160, 264
-0.999636, 357, 159, 372, 174
-0.999637, 1, 157, 16, 172
-0.999639, 351, 157, 366, 172
-0.99964, 277, 217, 292, 232
-0.999643, 337, 205, 352, 220
-0.999646, 265, 153, 280, 168
-0.999649, 269, 249, 284, 264
-0.999649, 347, 203, 362, 218
-0.999651, 255, 101, 270, 116
-0.999654, 221, 187, 236, 202
-0.999654, 251, 165, 266, 180
-0.999657, 207, 193, 222, 208
-0.999661, 177, 285, 304, 316
-0.99967, 285, 213, 300, 228
-0.999673, 217, 197, 232, 212
-0.999676, 309, 213, 324, 228
-0.999676, 257, 243, 272, 258
-0.999677, 241, 171, 256, 186
-0.99968, 273, 209, 288, 224
-0.999682, 331, 189, 346, 204
-0.999682, 267, 243, 282, 258
-0.999685, 67, 61, 82, 76
-0.999686, 247, 157, 262, 172
-0.999691, 353, 149, 368, 164
-0.999695, 315, 211, 330, 226
-0.999697, 151, 249, 166, 264
-0.999698, 329, 215, 344, 230
-0.999698, 339, 189, 354, 204
-0.999701, 239, 161, 254, 176
-0.999703, 349, 183, 364, 198
-0.999705, 275, 149, 290, 164
-0.999709, 157, 251, 172, 266
-0.999714, 245, 165, 260, 180
-0.999716, 271, 215, 286, 230
-0.999723, 321, 305, 448, 368
-0.999725, 405, 49, 436, 176
-0.999727, 247, 171, 262, 186
-0.999728, 263, 235, 278, 250
-0.999731, 279, 211, 294, 226
-0.999737, 257, 281, 500, 344
-0.999737, 323, 215, 338, 230
-0.999742, 257, 97, 500, 160
-0.999771, 261, 213, 276, 228
-0.999771, 121, 97, 152, 352
-0.999821, 277, 129, 308, 375
-0.999822, 293, 97, 324, 352
-0.999868, 1, 209, 64, 336
-0.999901, 345, 97, 376, 224
-0.999939, 105, 97, 136, 352
-0.999968, 369, 161, 496, 224
-0.999976, 141, 97, 172, 352
-1.00003, 393, 49, 424, 176
-1.00007, 433, 97, 464, 352
-1.00008, 129, 297, 384, 360
-1.00012, 381, 97, 412, 352
-1.0002, 33, 313, 288, 375
-1.0002, 365, 129, 396, 375
-1.00021, 1, 281, 256, 344
-1.00022, 1, 129, 32, 375
-1.00025, 361, 177, 424, 304
-1.00025, 445, 97, 476, 352
-1.00027, 469, 129, 500, 375
-1.00032, 393, 97, 424, 352
-1.00033, 409, 97, 440, 352
-1.00034, 157, 129, 188, 256
-1.00036, 89, 129, 120, 375
-1.00039, 1, 265, 500, 328
-1.00046, 457, 129, 488, 375
-1.0005, 421, 129, 452, 375
-1.00092, 369, 161, 400, 288
-1.00106, 369, 129, 432, 256
-1.00123, 1, 313, 500, 375
-1.0013, 41, 225, 104, 352
-1.00146, 25, 177, 88, 304
-1.00172, 1, 241, 128, 368
-1.00201, 313, 241, 376, 368
-1.00208, 81, 145, 144, 272
-1.0021, 1, 289, 500, 352
-1.00228, 385, 241, 448, 368
-1.0024, 393, 97, 456, 224
-1.00253, 73, 241, 136, 368
-1.00302, 417, 177, 480, 304
-1.00649, 337, 241, 400, 368
-1.00677, 409, 241, 472, 368
