1953
-0.279993, 1, 1, 500, 375
-0.302642, 193, 1, 448, 375
-0.353912, 33, 1, 288, 375
-0.362252, 1, 65, 500, 320
-0.45687, 161, 97, 416, 352
-0.49535, 65, 97, 320, 352
-0.516023, 1, 1, 256, 256
-0.536279, 161, 1, 416, 256
-0.540378, 257, 1, 500, 256
-0.611428, 257, 129, 500, 375
-0.815989, 161, 1, 288, 375
-0.820195, 177, 97, 304, 352
-0.825166, 145, 1, 272, 256
-0.827138, 17, 1, 144, 256
-0.829789, 81, 33, 208, 288
-0.833636, 81, 1, 208, 375
-0.835554, 273, 1, 400, 375
-0.839474, 209, 1, 336, 375
-0.84233, 33, 1, 160, 375
-0.851404, 305, 1, 432, 256
-0.851936, 1, 129, 500, 256
-0.852295, 97, 129, 224, 375
-0.855467, 369, 1, 496, 375
-0.861051, 193, 1, 320, 256
-0.864081, 49, 129, 176, 375
-0.866772, 241, 33, 368, 288
-0.870538, 321, 1, 448, 375
-0.87117, 337, 97, 464, 352
-0.875043, 257, 129, 384, 375
-0.885356, 1, 129, 128, 375
-0.889947, 1, 81, 500, 208
-0.893203, 161, 129, 416, 256
-0.894916, 1, 1, 500, 128
-0.897093, 1, 177, 500, 304
-0.897601, 225, 49, 480, 176
-0.902581, 257, 113, 500, 240
-0.902588, 65, 113, 320, 240
-0.903199, 353, 1, 480, 256
-0.905962, 1, 65, 256, 192
-0.909903, 65, 1, 320, 128
-0.911861, 1, 177, 256, 304
-0.914923, 161, 177, 416, 304
-0.915352, 33, 225, 288, 352
-0.918886, 177, 113, 304, 240
-0.919796, 129, 225, 384, 352
-0.921322, 129, 65, 384, 192
-0.924699, 33, 1, 160, 128
-0.92526, 257, 1, 500, 128
-0.926397, 97, 129, 224, 256
-0.926513, 257, 161, 500, 288
-0.926625, 241, 49, 368, 176
-0.927518, 97, 177, 224, 304
-0.927803, 33, 145, 96, 272
-0.92809, 1, 241, 500, 368
-0.929333, 257, 209, 500, 336
-0.92963, 281, 49, 344, 176
-0.930441, 145, 33, 272, 160
-0.93081, 97, 65, 224, 192
-0.932004, 369, 113, 496, 240
-0.932977, 17, 161, 144, 288
-0.933352, 273, 113, 400, 240
-0.93354, 17, 81, 144, 208
-0.933996, 177, 113, 240, 240
-0.934417, 273, 177, 400, 304
-0.934981, 9, 145, 72, 272
-0.935629, 177, 1, 240, 128
-0.935982, 113, 33, 176, 160
-0.937026, 209, 177, 336, 304
-0.937087, 225, 129, 352, 256
-0.937344, 153, 65, 216, 192
-0.93837, 409, 129, 472, 256
-0.939124, 25, 81, 88, 208
-0.939405, 321, 49, 448, 176
-0.939831, 321, 145, 448, 272
-0.940202, 321, 1, 448, 128
-0.940204, 145, 209, 272, 336
-0.940712, 217, 33, 280, 160
-0.940857, 249, 113, 312, 240
-0.941356, 153, 161, 216, 288
-0.941849, 97, 1, 224, 128
-0.94235, 353, 161, 416, 288
-0.942602, 369, 193, 496, 320
-0.943124, 305, 17, 368, 144
-0.943194, 113, 81, 176, 208
-0.943729, 433, 81, 496, 208
-0.943864, 65, 177, 128, 304
-0.943887, 289, 161, 352, 288
-0.944086, 1, 97, 64, 224
-0.944091, 97, 241, 224, 368
-0.944253, 385, 161, 448, 288
-0.944627, 113, 145, 176, 272
-0.945443, 305, 113, 368, 240
-0.946109, 17, 209, 144, 336
-0.946575, 1, 17, 64, 144
-0.947206, 193, 65, 320, 192
-0.947617, 393, 1, 456, 128
-0.947669, 321, 97, 448, 224
-0.947725, 241, 65, 304, 192
-0.947744, 145, 161, 272, 288
-0.948287, 217, 81, 280, 208
-0.948625, 193, 49, 256, 176
-0.949257, 433, 17, 496, 144
-0.949404, 321, 225, 448, 352
-0.949926, 193, 121, 256, 184
-0.950611, 385, 161, 448, 224
-0.950634, 33, 193, 96, 320
-0.950697, 9, 153, 72, 216
-0.95149, 369, 65, 496, 192
-0.95177, 233, 97, 296, 160
-0.951837, 385, 113, 448, 240
-0.952079, 161, 1, 416, 128
-0.952163, 257, 241, 384, 368
-0.952218, 153, 113, 216, 240
-0.952395, 73, 113, 136, 240
-0.952476, 401, 185, 464, 248
-0.952735, 1, 193, 64, 320
-0.952871, 49, 1, 112, 128
-0.952962, 25, 193, 88, 256
-0.953214, 417, 161, 480, 224
-0.953215, 113, 49, 176, 112
-0.953424, 433, 129, 496, 256
-0.954046, 257, 241, 320, 368
-0.954461, 113, 89, 176, 152
-0.954491, 273, 113, 336, 176
-0.954515, 353, 1, 416, 128
-0.954994, 209, 225, 336, 352
-0.955047, 153, 209, 216, 336
-0.955103, 57, 225, 120, 352
-0.955315, 329, 113, 392, 240
-0.955381, 153, 1, 216, 128
-0.955407, 137, 177, 200, 240
-0.955542, 409, 137, 472, 200
-0.955573, 1, 33, 64, 96
-0.955591, 81, 49, 144, 176
-0.955949, 193, 17, 320, 144
-0.956018, 329, 193, 392, 320
-0.956127, 217, 225, 280, 352
-0.956195, 281, 97, 344, 224
-0.956251, 241, 121, 304, 184
-0.956487, 401, 65, 464, 192
-0.956498, 273, 1, 400, 128
-0.956671, 273, 217, 336, 280
-0.956813, 265, 193, 328, 320
-0.956965, 169, 121, 232, 184
-0.957429, 73, 185, 136, 248
-0.957725, 273, 89, 336, 152
-0.958282, 161, 209, 224, 272
-0.958547, 385, 129, 448, 192
-0.958729, 409, 105, 472, 168
-0.958747, 305, 209, 368, 336
-0.958786, 305, 145, 368, 208
-0.958971, 113, 121, 176, 184
-0.958989, 41, 169, 104, 232
-0.959172, 17, 1, 80, 64
-0.959269, 129, 241, 192, 368
-0.959324, 113, 25, 176, 88
-0.959468, 145, 145, 208, 208
-0.959582, 337, 49, 400, 176
-0.959975, 1, 185, 64, 248
-0.960137, 361, 113, 424, 240
-0.960382, 409, 177, 472, 304
-0.960514, 369, 193, 432, 256
-0.960545, 1, 65, 64, 128
-0.960674, 433, 281, 496, 344
-0.960827, 217, 121, 280, 184
-0.961095, 113, 169, 176, 232
-0.961191, 321, 201, 384, 264
-0.961299, 369, 89, 432, 152
-0.961321, 425, 1, 488, 64
-0.961528, 25, 17, 88, 144
-0.961602, 113, 193, 176, 320
-0.961809, 169, 145, 232, 208
-0.961828, 113, 145, 176, 208
-0.961973, 385, 209, 448, 336
-0.96202, 353, 209, 416, 336
-0.962022, 433, 129, 496, 192
-0.96203, 281, 41, 344, 104
-0.962149, 153, 233, 216, 296
-0.96248, 153, 97, 216, 160
-0.962731, 201, 25, 264, 88
-0.962805, 113, 1, 176, 64
-0.963019, 265, 137, 328, 200
-0.963103, 433, 41, 496, 104
-0.96318, 297, 225, 360, 288
-0.963272, 321, 25, 384, 88
-0.963537, 297, 185, 360, 248
-0.963682, 297, 121, 360, 184
-0.963791, 385, 57, 448, 120
-0.963912, 257, 57, 320, 120
-0.96399, 233, 241, 296, 304
-0.963996, 177, 161, 240, 288
-0.96404, 193, 225, 256, 352
-0.964075, 81, 1, 144, 128
-0.964146, 345, 185, 408, 248
-0.964301, 153, 65, 216, 128
-0.964406, 425, 65, 488, 128
-0.964616, 337, 153, 400, 216
-0.964639, 185, 97, 248, 352
-0.964684, 65, 153, 128, 216
-0.964848, 337, 121, 400, 184
-0.965073, 433, 97, 496, 160
-0.965193, 377, 217, 440, 280
-0.965265, 249, 17, 312, 144
-0.965294, 209, 89, 272, 152
-0.965675, 49, 97, 112, 224
-0.965715, 369, 1, 496, 128
-0.96624, 17, 89, 80, 152
-0.96627, 361, 161, 424, 224
-0.966453, 257, 249, 320, 312
-0.966679, 401, 297, 464, 360
-0.966793, 401, 25, 464, 88
-0.966867, 113, 33, 176, 288
-0.966888, 233, 41, 296, 104
-0.967016, 329, 1, 392, 128
-0.967294, 377, 49, 440, 176
-0.967429, 97, 241, 160, 368
-0.967447, 161, 121, 288, 184
-0.967584, 297, 1, 360, 256
-0.96791, 257, 273, 320, 336
-0.967913, 17, 1, 80, 256
-0.968018, 121, 209, 184, 272
-0.968104, 209, 1, 272, 256
-0.968201, 17, 97, 80, 352
-0.968453, 177, 233, 240, 296
-0.968457, 33, 41, 96, 104
-0.968542, 17, 1, 144, 64
-0.968589, 425, 185, 488, 248
-0.968775, 361, 1, 424, 64
-0.968841, 417, 209, 480, 272
-0.968871, 401, 1, 464, 64
-0.968904, 153, 33, 216, 96
-0.968994, 233, 65, 296, 128
-0.969005, 273, 193, 336, 256
-0.969047, 97, 137, 224, 200
-0.969062, 89, 177, 152, 304
-0.969138, 73, 273, 136, 336
-0.969339, 233, 97, 296, 352
-0.969365, 137, 121, 200, 184
-0.969376, 305, 185, 432, 248
-0.969403, 145, 33, 208, 288
-0.969495, 81, 161, 208, 224
-0.969545, 97, 1, 224, 64
-0.969567, 377, 305, 440, 368
-0.969652, 33, 41, 160, 104
-0.969759, 177, 257, 240, 320
-0.969805, 345, 233, 408, 296
-0.96985, 1, 129, 64, 192
-0.969957, 97, 105, 224, 168
-0.970094, 97, 249, 224, 312
-0.970212, 257, 97, 320, 352
-0.970306, 321, 225, 384, 288
-0.970419, 433, 33, 496, 288
-0.970596, 1, 225, 64, 288
-0.970809, 177, 1, 240, 64
-0.970856, 129, 233, 192, 296
-0.971117, 129, 25, 256, 88
-0.971131, 33, 241, 96, 368
-0.971224, 465, 113, 496, 240
-0.971361, 49, 169, 80, 232
-0.971424, 201, 233, 264, 296
-0.971527, 157, 113, 188, 240
-0.971699, 49, 233, 112, 296
-0.971722, 241, 193, 304, 320
-0.971842, 329, 89, 392, 152
-0.971863, 65, 185, 192, 248
-0.971868, 41, 145, 104, 208
-0.971899, 433, 241, 496, 368
-0.97191, 265, 161, 328, 224
-0.972137, 369, 241, 496, 368
-0.972158, 329, 241, 392, 368
-0.972196, 281, 65, 344, 128
-0.972306, 49, 193, 80, 320
-0.972407, 321, 177, 384, 240
-0.972414, 209, 129, 272, 256
-0.972423, 337, 1, 400, 64
-0.972423, 105, 257, 168, 320
-0.972438, 185, 57, 248, 120
-0.972448, 81, 121, 144, 184
-0.972584, 49, 201, 112, 264
-0.97265, 197, 121, 228, 184
-0.972658, 241, 97, 368, 160
-0.97272, 353, 97, 480, 160
-0.972735, 209, 49, 272, 112
-0.972871, 393, 129, 456, 375
-0.972952, 225, 265, 288, 328
-0.973035, 145, 145, 272, 208
-0.97304, 165, 161, 196, 288
-0.973058, 233, 289, 296, 352
-0.973185, 185, 89, 248, 152
-0.973197, 409, 1, 472, 256
-0.973274, 177, 233, 304, 296
-0.973346, 225, 121, 256, 184
-0.973414, 153, 129, 216, 375
-0.973449, 65, 1, 128, 64
-0.973453, 381, 145, 412, 272
-0.973503, 157, 145, 188, 208
-0.97357, 345, 57, 408, 120
-0.973586, 61, 209, 92, 272
-0.973597, 241, 57, 368, 120
-0.973685, 273, 129, 400, 192
-0.973714, 257, 249, 384, 312
-0.973853, 393, 81, 456, 144
-0.973887, 41, 1, 104, 256
-0.973918, 1, 113, 128, 176
-0.973922, 65, 81, 192, 144
-0.973931, 285, 49, 316, 176
-0.973996, 465, 25, 496, 88
-0.974054, 185, 113, 216, 240
-0.974069, 57, 1, 88, 64
-0.974109, 237, 33, 268, 160
-0.974171, 297, 97, 360, 352
-0.974177, 21, 97, 52, 224
-0.974201, 21, 145, 52, 208
-0.97424, 73, 33, 136, 288
-0.974284, 241, 185, 368, 248
-0.974304, 217, 65, 248, 192
-0.974475, 369, 161, 496, 224
-0.974476, 13, 1, 44, 128
-0.974548, 181, 137, 212, 200
-0.974638, 1, 185, 128, 248
-0.974715, 445, 113, 476, 240
-0.974791, 113, 193, 240, 256
-0.974801, 81, 97, 144, 160
-0.974806, 361, 121, 424, 184
-0.97481, 305, 209, 432, 272
-0.974831, 153, 9, 216, 72
-0.974833, 9, 145, 40, 208
-0.974853, 29, 177, 60, 304
-0.974865, 61, 177, 92, 304
-0.974935, 325, 225, 356, 288
-0.974948, 157, 209, 188, 272
-0.97498, 233, 209, 296, 272
-0.97498, 465, 129, 496, 192
-0.975097, 201, 257, 264, 320
-0.975103, 305, 161, 432, 224
-0.975105, 33, 161, 160, 224
-0.975116, 305, 97, 368, 160
-0.975125, 157, 233, 188, 296
-0.975162, 113, 65, 240, 128
-0.975188, 81, 177, 112, 304
-0.975251, 469, 1, 500, 128
-0.975292, 305, 105, 432, 168
-0.975293, 329, 1, 392, 256
-0.975304, 41, 33, 72, 160
-0.975359, 225, 121, 352, 184
-0.975383, 33, 161, 64, 224
-0.975387, 345, 209, 408, 272
-0.975435, 433, 193, 496, 320
-0.975475, 297, 257, 360, 320
-0.975494, 185, 1, 248, 256
-0.975496, 37, 185, 68, 248
-0.975502, 1, 113, 32, 240
-0.975554, 121, 97, 152, 224
-0.975582, 113, 273, 240, 336
-0.975669, 81, 73, 144, 136
-0.975685, 337, 1, 464, 64
-0.975702, 49, 193, 80, 256
-0.975708, 145, 89, 272, 152
-0.97579, 369, 129, 432, 375
-0.975808, 193, 97, 320, 160
-0.975825, 357, 1, 388, 128
-0.975894, 33, 65, 96, 128
-0.975906, 225, 113, 256, 240
-0.975923, 217, 177, 280, 304
-0.975931, 161, 185, 224, 248
-0.975988, 197, 113, 228, 240
-0.976012, 369, 33, 432, 96
-0.976015, 353, 313, 416, 375
-0.976085, 469, 161, 500, 224
-0.976166, 69, 177, 100, 240
-0.976173, 209, 1, 240, 128
-0.976218, 245, 41, 276, 104
-0.976231, 305, 65, 368, 192
-0.976241, 33, 121, 96, 184
-0.97629, 89, 153, 152, 216
-0.976337, 41, 17, 104, 80
-0.976427, 305, 233, 432, 296
-0.976434, 225, 145, 352, 208
-0.976504, 317, 145, 348, 272
-0.97654, 241, 209, 368, 272
-0.976548, 321, 97, 384, 352
-0.97655, 1, 1, 64, 375
-0.976588, 49, 49, 112, 176
-0.976595, 289, 57, 320, 120
-0.976598, 33, 137, 160, 200
-0.976601, 97, 265, 128, 328
-0.976752, 289, 129, 320, 192
-0.976758, 25, 217, 88, 280
-0.976798, 469, 65, 500, 128
-0.976812, 289, 145, 320, 272
-0.976827, 305, 193, 336, 320
-0.97692, 49, 217, 176, 280
-0.976994, 65, 273, 192, 336
-0.977007, 305, 33, 432, 96
-0.977011, 81, 49, 144, 112
-0.977035, 125, 1, 156, 128
-0.977049, 337, 17, 368, 144
-0.977092, 321, 73, 448, 136
-0.977094, 369, 177, 400, 240
-0.977131, 173, 65, 204, 192
-0.977179, 365, 153, 396, 216
-0.977229, 305, 153, 336, 216
-0.977279, 305, 57, 368, 120
-0.977301, 145, 1, 272, 64
-0.977316, 269, 97, 300, 224
-0.977341, 309, 41, 340, 104
-0.97736, 245, 97, 276, 160
-0.977398, 161, 1, 192, 128
-0.977533, 381, 169, 412, 232
-0.977538, 41, 145, 72, 272
-0.977557, 217, 1, 280, 375
-0.977606, 457, 169, 488, 232
-0.977635, 449, 137, 480, 200
-0.977644, 265, 273, 296, 336
-0.977649, 25, 73, 56, 136
-0.977659, 49, 129, 112, 375
-0.977676, 21, 97, 52, 160
-0.9777, 281, 313, 344, 375
-0.977724, 305, 241, 336, 304
-0.977755, 157, 169, 188, 232
-0.977775, 145, 257, 208, 320
-0.977809, 209, 121, 240, 184
-0.977836, 425, 313, 488, 375
-0.977848, 209, 225, 240, 288
-0.977938, 85, 193, 116, 256
-0.977942, 285, 105, 316, 168
-0.977964, 113, 129, 176, 375
-0.978013, 17, 73, 144, 136
-0.978114, 17, 177, 48, 240
-0.978237, 353, 217, 480, 280
-0.978306, 469, 1, 500, 64
-0.978329, 25, 1, 88, 375
-0.978424, 193, 33, 320, 96
-0.978514, 49, 105, 176, 168
-0.978558, 469, 49, 500, 176
-0.978621, 1, 225, 128, 288
-0.978645, 457, 49, 488, 176
-0.978652, 445, 49, 476, 176
-0.978676, 241, 121, 272, 184
-0.978708, 193, 65, 320, 128
-0.978724, 353, 185, 480, 248
-0.97877, 53, 1, 84, 128
-0.978796, 125, 41, 156, 104
-0.978838, 369, 65, 496, 128
-0.978889, 121, 49, 152, 176
-0.978944, 433, 129, 464, 192
-0.978963, 305, 217, 336, 280
-0.978986, 225, 225, 256, 352
-0.978987, 393, 129, 424, 256
-0.979016, 177, 257, 304, 320
-0.979071, 321, 17, 352, 144
-0.979103, 81, 129, 112, 256
-0.979105, 353, 161, 384, 288
-0.979116, 233, 33, 264, 96
-0.979184, 285, 97, 316, 224
-0.979198, 329, 25, 360, 88
-0.979204, 209, 97, 272, 352
-0.979212, 1, 33, 32, 160
-0.979284, 469, 89, 500, 152
-0.979291, 257, 241, 288, 304
-0.979296, 241, 33, 368, 96
-0.979297, 201, 9, 232, 72
-0.979366, 369, 177, 400, 304
-0.97937, 121, 97, 152, 160
-0.97937, 285, 161, 316, 224
-0.97942, 405, 201, 436, 264
-0.979454, 377, 137, 408, 200
-0.979512, 349, 177, 380, 240
-0.979532, 337, 313, 464, 375
-0.979543, 305, 129, 336, 256
-0.979575, 221, 25, 252, 88
-0.979593, 457, 1, 488, 64
-0.979593, 397, 129, 428, 192
-0.979594, 225, 17, 256, 144
-0.979602, 353, 41, 480, 104
-0.979612, 37, 49, 68, 112
-0.97962, 169, 193, 200, 256
-0.979628, 129, 225, 256, 288
-0.979656, 25, 1, 56, 128
-0.979672, 421, 1, 452, 128
-0.979697, 281, 193, 312, 320
-0.979722, 369, 121, 496, 184
-0.979805, 65, 225, 96, 352
-0.979815, 101, 193, 132, 320
-0.979827, 257, 113, 288, 176
-0.979875, 333, 193, 364, 320
-0.979879, 253, 113, 284, 240
-0.979907, 273, 1, 336, 256
-0.979919, 417, 129, 480, 375
-0.97993, 17, 257, 144, 320
-0.979941, 161, 169, 288, 232
-0.979954, 341, 201, 372, 264
-0.979984, 9, 241, 72, 368
-0.979999, 357, 201, 388, 264
-0.980001, 425, 129, 456, 256
-0.980028, 469, 273, 500, 336
-0.980033, 437, 1, 468, 128
-0.980065, 449, 113, 480, 176
-0.98009, 321, 129, 448, 192
-0.980093, 173, 105, 204, 168
-0.980141, 141, 177, 172, 304
-0.980146, 137, 33, 168, 160
-0.980176, 193, 65, 224, 192
-0.980186, 161, 209, 192, 336
-0.980217, 9, 193, 40, 320
-0.980277, 125, 9, 156, 72
-0.980356, 369, 1, 400, 64
-0.980357, 305, 1, 368, 375
-0.980382, 281, 1, 344, 375
-0.980385, 429, 65, 460, 128
-0.980392, 97, 153, 128, 216
-0.980461, 185, 1, 248, 375
-0.980509, 301, 33, 332, 160
-0.980511, 37, 225, 68, 352
-0.980513, 17, 281, 144, 344
-0.980526, 121, 153, 152, 216
-0.98058, 205, 65, 236, 192
-0.980614, 281, 257, 312, 320
-0.980633, 9, 113, 40, 176
-0.980644, 105, 1, 136, 128
-0.980746, 249, 1, 312, 375
-0.980774, 345, 17, 376, 80
-0.980791, 37, 233, 68, 296
-0.980865, 269, 121, 300, 184
-0.980879, 177, 177, 208, 304
-0.980923, 393, 185, 424, 248
-0.980963, 373, 209, 404, 272
-0.980965, 157, 1, 188, 64
-0.981069, 221, 233, 252, 296
-0.981086, 385, 33, 448, 288
-0.981095, 417, 185, 448, 248
-0.981102, 421, 137, 452, 200
-0.981163, 161, 113, 192, 176
-0.981191, 333, 129, 364, 256
-0.981195, 193, 241, 224, 304
-0.981249, 397, 161, 428, 224
-0.981325, 17, 145, 48, 272
-0.981393, 69, 129, 100, 256
-0.981406, 337, 225, 368, 288
-0.981412, 453, 81, 484, 144
-0.981415, 81, 25, 208, 88
-0.981541, 325, 121, 356, 184
-0.981646, 121, 73, 152, 136
-0.981668, 281, 241, 344, 368
-0.981727, 413, 105, 444, 168
-0.981739, 305, 177, 336, 240
-0.981806, 49, 225, 80, 288
-0.981855, 137, 81, 168, 208
-0.981862, 21, 121, 52, 184
-0.981866, 253, 49, 284, 176
-0.981871, 265, 241, 296, 368
-0.981887, 405, 49, 436, 176
-0.981898, 101, 113, 132, 240
-0.981906, 137, 9, 168, 72
-0.981909, 369, 113, 400, 240
-0.981916, 441, 41, 472, 104
-0.981926, 393, 209, 424, 336
-0.981943, 117, 161, 148, 288
-0.981958, 429, 49, 460, 176
-0.982044, 161, 201, 288, 264
-0.982045, 105, 41, 136, 104
-0.98208, 385, 1, 448, 375
-0.982165, 405, 145, 436, 272
-0.982197, 417, 49, 448, 176
-0.982287, 357, 9, 388, 72
-0.982316, 49, 25, 80, 88
-0.982349, 149, 241, 180, 368
-0.982355, 413, 161, 444, 224
-0.982357, 101, 65, 132, 192
-0.982368, 157, 65, 188, 192
-0.982368, 153, 1, 216, 375
-0.982387, 433, 1, 496, 375
-0.982427, 249, 1, 312, 256
-0.982467, 457, 1, 488, 128
-0.982488, 213, 209, 244, 336
-0.982502, 453, 57, 484, 120
-0.982562, 281, 1, 344, 128
-0.982571, 321, 249, 352, 312
-0.982636, 101, 241, 132, 368
-0.982732, 349, 97, 380, 160
-0.982755, 113, 1, 176, 375
-0.982829, 33, 81, 64, 208
-0.98283, 453, 281, 484, 344
-0.982836, 233, 89, 264, 152
-0.982849, 65, 233, 96, 296
-0.982881, 385, 65, 416, 192
-0.982907, 81, 137, 112, 200
-0.982974, 321, 201, 352, 264
-0.982995, 445, 169, 476, 232
-0.983019, 141, 241, 172, 304
-0.983064, 141, 169, 172, 232
-0.983078, 277, 145, 308, 272
-0.983173, 353, 1, 416, 256
-0.983182, 61, 153, 92, 216
-0.983207, 81, 281, 112, 344
-0.983332, 409, 225, 472, 352
-0.983427, 221, 81, 252, 144
-0.983447, 21, 1, 52, 64
-0.983484, 81, 129, 144, 375
-0.98349, 209, 113, 240, 240
-0.983627, 333, 177, 364, 240
-0.983646, 9, 41, 40, 104
-0.983691, 61, 81, 92, 208
-0.983724, 209, 281, 336, 344
-0.983768, 81, 169, 112, 232
-0.983781, 313, 121, 344, 184
-0.983836, 329, 1, 392, 375
-0.983849, 137, 81, 168, 144
-0.983899, 189, 1, 220, 64
-0.983902, 405, 97, 436, 224
-0.983938, 121, 129, 152, 192
-0.983954, 101, 201, 132, 264
-0.983989, 13, 49, 44, 176
-0.983995, 137, 33, 168, 96
-0.984005, 445, 161, 476, 288
-0.984018, 197, 1, 228, 128
-0.984053, 433, 289, 464, 352
-0.984064, 105, 65, 136, 128
-0.984078, 237, 97, 268, 224
-0.984113, 409, 297, 440, 360
-0.984134, 393, 209, 424, 272
-0.984139, 141, 129, 172, 256
-0.984144, 337, 137, 368, 200
-0.984191, 409, 1, 472, 375
-0.984233, 409, 193, 440, 320
-0.984586, 77, 81, 108, 208
-0.98471, 49, 97, 80, 224
-0.984729, 373, 1, 404, 128
-0.984935, 49, 241, 80, 368
-0.985082, 457, 193, 488, 320
-0.985115, 225, 1, 352, 64
-0.985122, 469, 161, 500, 288
-0.985123, 317, 193, 348, 320
-0.985172, 345, 97, 408, 352
-0.985346, 265, 49, 296, 176
-0.985349, 65, 1, 96, 128
-0.985364, 345, 97, 376, 224
-0.985452, 381, 193, 412, 320
-0.985684, 289, 9, 416, 72
-0.985711, 361, 225, 392, 352
-0.985763, 317, 97, 348, 224
-0.985811, 253, 225, 284, 352
-0.985864, 357, 49, 388, 176
-0.985941, 429, 193, 460, 320
-0.986537, 49, 1, 112, 375
-0.986737, 353, 289, 480, 352
-0.986874, 353, 241, 480, 304
-0.986941, 81, 1, 144, 375
-0.987012, 297, 241, 328, 368
-0.987173, 169, 113, 200, 240
-0.987235, 33, 305, 160, 368
-0.98755, 265, 193, 296, 320
-0.98758, 317, 241, 348, 368
-0.987589, 241, 209, 272, 336
-0.9877, 209, 161, 240, 288
-0.987787, 297, 81, 328, 208
-0.987814, 357, 113, 388, 240
-0.987994, 329, 241, 360, 368
-0.988045, 257, 273, 384, 336
-0.98808, 345, 209, 376, 336
-0.988127, 229, 177, 260, 304
-0.988177, 33, 9, 288, 72
-0.988211, 293, 193, 324, 320
-0.988305, 81, 313, 208, 375
-0.988319, 25, 241, 56, 368
-0.988339, 177, 225, 208, 352
-0.98835, 25, 197, 88, 228
-0.988369, 353, 1, 416, 375
-0.988373, 197, 225, 228, 352
-0.988464, 305, 257, 432, 320
-0.988492, 1, 65, 64, 96
-0.988525, 305, 181, 368, 212
-0.988547, 369, 65, 400, 192
-0.98862, 113, 105, 176, 136
-0.988656, 161, 137, 416, 200
-0.988741, 257, 121, 500, 184
-0.98875, 401, 189, 464, 220
-0.988784, 129, 49, 384, 112
-0.988838, 369, 181, 432, 212
-0.988909, 313, 201, 376, 232
-0.988956, 393, 157, 456, 188
-0.988989, 9, 45, 72, 76
-0.988997, 17, 29, 80, 60
-0.989025, 337, 193, 400, 224
-0.989044, 425, 177, 488, 208
-0.989116, 113, 93, 176, 124
-0.98914, 281, 137, 344, 168
-0.989171, 129, 217, 384, 280
-0.98919, 185, 129, 248, 160
-0.989211, 113, 53, 176, 84
-0.989242, 113, 41, 176, 72
-0.989266, 137, 189, 200, 220
-0.989309, 145, 297, 272, 360
-0.989331, 217, 53, 280, 84
-0.989346, 25, 9, 88, 40
-0.989359, 113, 73, 176, 104
-0.989379, 329, 169, 392, 200
-0.989409, 153, 145, 216, 176
-0.989423, 113, 177, 176, 208
-0.989453, 265, 113, 328, 144
-0.989454, 153, 73, 216, 104
-0.989455, 113, 117, 176, 148
-0.989515, 113, 9, 176, 40
-0.989557, 113, 189, 176, 220
-0.98956, 417, 209, 480, 240
-0.989569, 401, 113, 464, 144
-0.989593, 65, 189, 128, 220
-0.989612, 113, 25, 176, 56
-0.989624, 241, 113, 304, 144
-0.989656, 113, 129, 176, 160
-0.989659, 153, 117, 216, 148
-0.989682, 289, 161, 352, 192
-0.989698, 225, 125, 288, 156
-0.989715, 257, 65, 320, 96
-0.989731, 313, 341, 376, 372
-0.989741, 161, 161, 416, 224
-0.989746, 337, 181, 400, 212
-0.989746, 33, 213, 96, 244
-0.989747, 409, 33, 472, 64
-0.989747, 249, 85, 312, 116
-0.989756, 257, 161, 500, 224
-0.989757, 17, 161, 80, 192
-0.989759, 153, 1, 216, 32
-0.989788, 393, 209, 456, 240
-0.989813, 289, 149, 352, 180
-0.989822, 1, 105, 256, 168
-0.989824, 393, 221, 456, 252
-0.989825, 321, 213, 384, 244
-0.989841, 65, 129, 320, 192
-0.989846, 433, 145, 496, 176
-0.989858, 161, 233, 224, 264
-0.98987, 177, 57, 240, 88
-0.989872, 113, 165, 176, 196
-0.989889, 409, 125, 472, 156
-0.989919, 433, 61, 496, 92
-0.989924, 393, 309, 456, 340
-0.989937, 281, 53, 344, 84
-0.989943, 1, 193, 64, 224
-0.989971, 433, 109, 496, 140
-0.989976, 137, 177, 200, 208
-0.989988, 153, 133, 216, 164
-0.98999, 385, 169, 448, 200
-0.990002, 177, 149, 240, 180
-0.990003, 33, 201, 288, 264
-0.990014, 153, 201, 216, 232
-0.990019, 201, 33, 264, 64
-0.990024, 169, 257, 232, 288
-0.990026, 249, 125, 312, 156
-0.990036, 273, 81, 336, 112
-0.990048, 369, 209, 432, 240
-0.990049, 417, 97, 480, 128
-0.990053, 273, 125, 336, 156
-0.990081, 113, 149, 176, 180
-0.990081, 273, 205, 336, 236
-0.990105, 425, 189, 488, 220
-0.990106, 393, 89, 456, 120
-0.990109, 249, 137, 312, 168
-0.990129, 297, 125, 360, 156
-0.99014, 241, 97, 304, 128
-0.990143, 137, 165, 200, 196
-0.990176, 257, 185, 500, 248
-0.990193, 41, 177, 104, 208
-0.990228, 129, 241, 384, 304
-0.990273, 161, 113, 416, 176
-0.990275, 417, 1, 480, 32
-0.990277, 313, 153, 376, 184
-0.99028, 9, 209, 72, 240
-0.990281, 433, 165, 496, 196
-0.990283, 129, 25, 384, 88
-0.990327, 9, 225, 72, 256
-0.990334, 313, 141, 376, 172
-0.990341, 433, 25, 496, 56
-0.990342, 209, 113, 272, 144
-0.990353, 305, 41, 368, 72
-0.99036, 153, 37, 216, 68
-0.990368, 353, 165, 416, 196
-0.990369, 417, 81, 480, 112
-0.990374, 145, 61, 208, 92
-0.990421, 193, 21, 256, 52
-0.990428, 321, 253, 384, 284
-0.990472, 361, 121, 424, 152
-0.990475, 81, 121, 144, 152
-0.990475, 41, 149, 104, 180
-0.990482, 9, 245, 72, 276
-0.990502, 185, 69, 248, 100
-0.990502, 65, 161, 128, 192
-0.990502, 169, 161, 232, 192
-0.990513, 289, 313, 416, 375
-0.990522, 329, 129, 392, 160
-0.990523, 17, 93, 80, 124
-0.990524, 97, 269, 160, 300
-0.990528, 257, 285, 320, 316
-0.99053, 73, 201, 136, 232
-0.990537, 161, 193, 416, 256
-0.990548, 153, 105, 216, 136
-0.99057, 81, 109, 144, 140
-0.990571, 433, 125, 496, 156
-0.990575, 425, 13, 488, 44
-0.99058, 153, 89, 216, 120
-0.990606, 297, 213, 360, 244
-0.990608, 145, 245, 208, 276
-0.990616, 241, 49, 304, 80
-0.990628, 233, 289, 296, 320
-0.990633, 369, 133, 432, 164
-0.990643, 281, 173, 344, 204
-0.990659, 361, 193, 424, 224
-0.99067, 153, 49, 216, 80
-0.990673, 265, 161, 328, 192
-0.990681, 401, 69, 464, 100
-0.990699, 17, 173, 80, 204
-0.990707, 281, 65, 344, 96
-0.990714, 233, 69, 296, 100
-0.99072, 409, 297, 472, 328
-0.990728, 433, 329, 496, 360
-0.990729, 369, 221, 432, 252
-0.990732, 1, 161, 256, 224
-0.990733, 433, 285, 496, 316
-0.990749, 1, 65, 256, 128
-0.990857, 33, 225, 288, 288
-0.991065, 33, 257, 288, 320
-0.991262, 209, 305, 336, 368
-0.991572, 257, 9, 500, 72
-0.991651, 225, 57, 480, 120
-0.991791, 97, 185, 224, 216
-0.991926, 129, 89, 384, 152
-0.99199, 33, 33, 288, 96
-0.992039, 1, 161, 32, 192
-0.992059, 97, 141, 224, 172
-0.99207, 225, 89, 480, 152
-0.992072, 177, 129, 304, 160
-0.992116, 1, 185, 500, 248
-0.992122, 1, 137, 500, 200
-0.992261, 325, 205, 356, 236
-0.992317, 101, 269, 132, 300
-0.99234, 197, 125, 228, 156
-0.992427, 17, 145, 48, 176
-0.992428, 465, 177, 496, 208
-0.99245, 441, 189, 472, 220
-0.99245, 161, 253, 192, 284
-0.99245, 271, 241, 286, 304
-0.992454, 469, 9, 500, 40
-0.992504, 445, 53, 476, 84
-0.992504, 433, 145, 464, 176
-0.992511, 457, 133, 488, 164
-0.99252, 121, 105, 152, 136
-0.992521, 353, 265, 480, 328
-0.992522, 53, 9, 84, 40
-0.992527, 165, 193, 196, 224
-0.992529, 461, 37, 492, 68
-0.992534, 449, 121, 480, 152
-0.992535, 377, 153, 408, 184
-0.992541, 1, 69, 32, 100
-0.992543, 453, 189, 484, 220
-0.992549, 13, 97, 44, 128
-0.99255, 353, 213, 384, 244
-0.992551, 157, 237, 188, 268
-0.99256, 49, 197, 80, 228
-0.992563, 301, 157, 332, 188
-0.992565, 317, 37, 348, 68
-0.992566, 257, 257, 500, 320
-0.992566, 469, 25, 500, 56
-0.992566, 157, 149, 188, 180
-0.992568, 465, 281, 496, 312
-0.99257, 125, 25, 156, 56
-0.992572, 225, 125, 256, 156
-0.992575, 17, 1, 144, 32
-0.992576, 9, 173, 40, 204
-0.992578, 329, 337, 360, 368
-0.992579, 365, 165, 396, 196
-0.992579, 157, 169, 188, 200
-0.992589, 201, 9, 232, 40
-0.992593, 41, 37, 72, 68
-0.992597, 45, 25, 76, 56
-0.992599, 341, 329, 372, 360
-0.992599, 465, 189, 496, 220
-0.992599, 345, 193, 376, 224
-0.992606, 25, 157, 56, 188
-0.992612, 245, 81, 276, 112
-0.992613, 309, 173, 340, 204
-0.992614, 125, 57, 156, 88
-0.992614, 21, 81, 52, 112
-0.992618, 125, 41, 156, 72
-0.99262, 65, 217, 96, 248
-0.992623, 125, 69, 156, 100
-0.992625, 425, 157, 456, 188
-0.992628, 469, 117, 500, 148
-0.992633, 261, 277, 292, 308
-0.992636, 369, 181, 496, 212
-0.992637, 445, 145, 476, 176
-0.992641, 257, 121, 288, 152
-0.992645, 185, 133, 216, 164
-0.992646, 289, 53, 320, 84
-0.992653, 125, 9, 156, 40
-0.992657, 45, 257, 76, 288
-0.992657, 33, 249, 64, 280
-0.992659, 245, 49, 276, 80
-0.99266, 465, 105, 496, 136
-0.992663, 465, 61, 496, 92
-0.992665, 421, 141, 452, 172
-0.992667, 353, 173, 384, 204
-0.992668, 305, 249, 336, 280
-0.992672, 369, 185, 400, 216
-0.992673, 405, 137, 436, 168
-0.992679, 33, 53, 64, 84
-0.99268, 357, 189, 388, 220
-0.992685, 257, 217, 500, 280
-0.992685, 329, 29, 360, 60
-0.992686, 241, 129, 272, 160
-0.992691, 213, 125, 244, 156
-0.992692, 97, 1, 224, 32
-0.992695, 129, 1, 384, 64
-0.992701, 137, 21, 168, 52
-0.992705, 453, 73, 484, 104
-0.992707, 37, 189, 68, 220
-0.99271, 333, 181, 364, 212
-0.992716, 373, 1, 404, 32
-0.992716, 25, 69, 56, 100
-0.99272, 169, 129, 200, 160
-0.992722, 25, 17, 56, 48
-0.99273, 337, 221, 368, 252
-0.992735, 285, 97, 316, 128
-0.992738, 441, 201, 472, 232
-0.992739, 21, 181, 52, 212
-0.992744, 393, 149, 424, 180
-0.992745, 465, 153, 496, 184
-0.992746, 137, 5, 168, 36
-0.99275, 429, 193, 460, 224
-0.992752, 337, 249, 368, 280
-0.992753, 437, 121, 468, 152
-0.992753, 9, 109, 40, 140
-0.992754, 433, 133, 464, 164
-0.992754, 381, 197, 412, 228
-0.992756, 285, 165, 316, 196
-0.992757, 269, 141, 300, 172
-0.992758, 53, 173, 84, 204
-0.992761, 17, 33, 48, 64
-0.992764, 301, 49, 332, 80
-0.992769, 281, 269, 312, 300
-0.992769, 213, 21, 244, 52
-0.99277, 97, 129, 224, 160
-0.99277, 305, 213, 336, 244
-0.992773, 417, 317, 448, 348
-0.992777, 81, 277, 112, 308
-0.992779, 157, 1, 188, 32
-0.992779, 293, 145, 324, 176
-0.99278, 269, 113, 300, 144
-0.99278, 281, 125, 312, 156
-0.992781, 425, 301, 456, 332
-0.992782, 121, 173, 152, 204
-0.992783, 157, 213, 188, 244
-0.992783, 265, 289, 296, 320
-0.992789, 209, 233, 240, 264
-0.99279, 485, 17, 500, 80
-0.992791, 121, 93, 152, 124
-0.992794, 437, 289, 468, 320
-0.992794, 209, 245, 240, 276
-0.9928, 101, 185, 132, 216
-0.992802, 33, 185, 160, 216
-0.992802, 361, 9, 392, 40
-0.992802, 349, 17, 380, 48
-0.992803, 453, 201, 484, 232
-0.992806, 441, 165, 472, 196
-0.992807, 229, 33, 260, 64
-0.992807, 9, 53, 40, 84
-0.992811, 425, 177, 456, 208
-0.992811, 49, 237, 80, 268
-0.992812, 245, 105, 276, 136
-0.992812, 33, 1, 64, 32
-0.992814, 177, 145, 208, 176
-0.992817, 73, 165, 104, 196
-0.99282, 101, 113, 132, 144
-0.992821, 413, 165, 444, 196
-0.993011, 97, 153, 224, 184
-0.993081, 1, 209, 500, 272
-0.993126, 305, 189, 432, 220
-0.99317, 273, 149, 400, 180
-0.993235, 225, 33, 480, 96
-0.993257, 129, 25, 256, 56
-0.993291, 81, 173, 208, 204
-0.993295, 305, 281, 432, 344
-0.993311, 81, 269, 208, 300
-0.993316, 161, 149, 288, 180
-0.993359, 33, 21, 160, 52
-0.993376, 1, 89, 500, 152
-0.993394, 321, 209, 448, 240
-0.993405, 353, 193, 480, 224
-0.993419, 97, 13, 224, 44
-0.993591, 49, 33, 176, 64
-0.993641, 33, 49, 160, 80
-0.99365, 65, 109, 192, 140
-0.993671, 75, 209, 90, 272
-0.993777, 391, 161, 406, 224
-0.993832, 241, 249, 368, 280
-0.993866, 113, 109, 240, 140
-0.993872, 55, 169, 70, 232
-0.993872, 471, 161, 486, 224
-0.993878, 57, 1, 72, 64
-0.993907, 21, 137, 36, 200
-0.993959, 289, 177, 416, 208
-0.993982, 335, 217, 350, 280
-0.993984, 257, 49, 272, 112
-0.993991, 161, 233, 176, 296
-0.994005, 113, 253, 240, 284
-0.994008, 33, 197, 160, 228
-0.994018, 33, 65, 160, 96
-0.994029, 219, 121, 234, 184
-0.994053, 377, 1, 392, 64
-0.99407, 289, 253, 416, 284
-0.994072, 359, 17, 374, 80
-0.994086, 1, 161, 500, 224
-0.9941, 17, 161, 32, 224
-0.994118, 65, 93, 192, 124
-0.99412, 257, 89, 272, 152
-0.994129, 403, 193, 418, 256
-0.994131, 461, 137, 476, 200
-0.994134, 241, 73, 368, 104
-0.994145, 369, 109, 496, 140
-0.994152, 415, 113, 430, 176
-0.994154, 369, 153, 496, 184
-0.994168, 481, 161, 496, 224
-0.99419, 113, 41, 240, 72
-0.994193, 1, 113, 128, 144
-0.994199, 247, 41, 262, 104
-0.994226, 33, 161, 160, 192
-0.99423, 111, 265, 126, 328
-0.994271, 335, 177, 350, 240
-0.9943, 33, 173, 160, 204
-0.994308, 183, 145, 198, 208
-0.994336, 33, 153, 48, 216
-0.994343, 113, 97, 240, 128
-0.994348, 161, 265, 416, 328
-0.994351, 247, 121, 262, 184
-0.994358, 443, 49, 458, 112
-0.994384, 341, 153, 356, 216
-0.99439, 289, 165, 416, 196
-0.994395, 25, 169, 40, 232
-0.994399, 463, 161, 478, 224
-0.994407, 427, 89, 442, 152
-0.994411, 353, 1, 480, 32
-0.994413, 289, 49, 416, 80
-0.994415, 205, 241, 220, 304
-0.994416, 461, 97, 476, 160
-0.994417, 1, 9, 500, 72
-0.994417, 421, 97, 436, 160
-0.994423, 167, 233, 182, 296
-0.994459, 417, 145, 432, 208
-0.99446, 427, 129, 442, 192
-0.994461, 1, 85, 128, 116
-0.994465, 225, 125, 352, 156
-0.994468, 229, 25, 244, 88
-0.994474, 393, 185, 408, 248
-0.994477, 45, 161, 60, 224
-0.994478, 233, 105, 248, 168
-0.994478, 301, 169, 316, 232
-0.994479, 51, 17, 66, 80
-0.994484, 257, 221, 384, 252
-0.99449, 21, 81, 36, 144
-0.994503, 47, 193, 62, 256
-0.994505, 65, 169, 80, 232
-0.994515, 65, 201, 80, 264
-0.994516, 473, 25, 488, 88
-0.994526, 437, 153, 452, 216
-0.994533, 9, 185, 24, 248
-0.994544, 327, 225, 342, 288
-0.994548, 171, 209, 186, 272
-0.994551, 327, 201, 342, 264
-0.994551, 241, 49, 368, 80
-0.994555, 305, 129, 320, 192
-0.994557, 297, 145, 312, 208
-0.99456, 479, 49, 494, 112
-0.99456, 433, 177, 448, 240
-0.994565, 223, 89, 238, 152
-0.994566, 225, 141, 352, 172
-0.994567, 105, 265, 120, 328
-0.994567, 65, 81, 192, 112
-0.99458, 213, 121, 228, 184
-0.994596, 451, 145, 466, 208
-0.994596, 441, 129, 456, 192
-0.994604, 445, 185, 460, 248
-0.994618, 381, 89, 396, 152
-0.994618, 193, 109, 320, 140
-0.99464, 209, 81, 224, 144
-0.994648, 295, 57, 310, 120
-0.994648, 9, 153, 24, 216
-0.994665, 241, 33, 256, 96
-0.994674, 365, 9, 380, 72
-0.994674, 323, 33, 338, 96
-0.994682, 321, 25, 448, 56
-0.994683, 461, 25, 476, 88
-0.994685, 17, 265, 144, 296
-0.99471, 369, 45, 496, 76
-0.994711, 241, 93, 368, 124
-0.994717, 161, 209, 176, 272
-0.994721, 75, 177, 90, 240
-0.994725, 399, 161, 414, 224
-0.994728, 1, 33, 128, 64
-0.994732, 199, 233, 214, 296
-0.994736, 455, 169, 470, 232
-0.994739, 341, 25, 356, 88
-0.994773, 311, 185, 326, 248
-0.994775, 467, 49, 482, 112
-0.994777, 473, 113, 488, 176
-0.994779, 469, 281, 484, 344
-0.994791, 37, 185, 52, 248
-0.994795, 177, 169, 192, 232
-0.994823, 363, 185, 378, 248
-0.994831, 231, 225, 246, 288
-0.994836, 409, 81, 424, 144
-0.994838, 203, 1, 218, 64
-0.99485, 293, 121, 308, 184
-0.994857, 43, 33, 58, 96
-0.994866, 191, 129, 206, 192
-0.994881, 455, 121, 470, 184
-0.994884, 113, 85, 240, 116
-0.994886, 241, 61, 368, 92
-0.994887, 241, 121, 256, 184
-0.9949, 351, 169, 366, 232
-0.99491, 251, 81, 266, 144
-0.994913, 321, 241, 336, 304
-0.994914, 437, 65, 452, 128
-0.994923, 435, 129, 450, 192
-0.994927, 351, 17, 366, 80
-0.994931, 305, 249, 320, 312
-0.994933, 271, 265, 286, 328
-0.994939, 257, 113, 272, 176
-0.99495, 35, 81, 50, 144
-0.994957, 311, 153, 326, 216
-0.994972, 201, 121, 216, 184
-0.994986, 385, 121, 400, 184
-0.994988, 273, 137, 400, 168
-0.99499, 285, 97, 300, 160
-0.994998, 221, 17, 236, 80
-0.995002, 273, 121, 400, 152
-0.995003, 177, 209, 192, 272
-0.995005, 409, 105, 424, 168
-0.995013, 433, 97, 448, 160
-0.995013, 113, 197, 240, 228
-0.995017, 415, 185, 430, 248
-0.99503, 193, 53, 320, 84
-0.995045, 337, 13, 464, 44
-0.995046, 321, 217, 336, 280
-0.995048, 97, 65, 224, 96
-0.995048, 17, 277, 144, 308
-0.995054, 453, 25, 468, 88
-0.995054, 415, 49, 430, 112
-0.995067, 33, 57, 48, 120
-0.995067, 483, 273, 498, 336
-0.995068, 343, 225, 358, 288
-0.995072, 353, 125, 480, 156
-0.995075, 389, 81, 404, 144
-0.995076, 27, 145, 42, 208
-0.995077, 311, 241, 326, 304
-0.995087, 1, 113, 500, 176
-0.995091, 369, 97, 496, 128
-0.995092, 97, 53, 224, 84
-0.995096, 241, 189, 368, 220
-0.995106, 23, 113, 38, 176
-0.995106, 471, 137, 486, 200
-0.995107, 177, 241, 192, 304
-0.995113, 309, 209, 324, 272
-0.995115, 355, 145, 370, 208
-0.995115, 375, 177, 390, 240
-0.995126, 407, 169, 422, 232
-0.995128, 371, 113, 386, 176
-0.995131, 323, 121, 338, 184
-0.995137, 341, 185, 356, 248
-0.995161, 65, 281, 192, 312
-0.995166, 161, 289, 416, 352
-0.995181, 305, 233, 432, 264
-0.995186, 1, 125, 128, 156
-0.995208, 209, 157, 336, 188
-0.99521, 65, 213, 192, 244
-0.995243, 241, 261, 368, 292
-0.995251, 177, 241, 304, 272
-0.995277, 353, 77, 480, 108
-0.995295, 241, 37, 368, 68
-0.995342, 337, 329, 464, 360
-0.995372, 9, 1, 40, 256
-0.995377, 33, 149, 160, 180
-0.995385, 305, 37, 432, 68
-0.995391, 193, 97, 320, 128
-0.995403, 29, 65, 60, 320
-0.995426, 233, 1, 264, 256
-0.995432, 145, 13, 272, 44
-0.995471, 161, 41, 288, 72
-0.995472, 1, 101, 128, 132
-0.995474, 129, 237, 256, 268
-0.99548, 337, 169, 464, 200
-0.995485, 241, 169, 368, 200
-0.9955, 353, 317, 480, 348
-0.995527, 321, 149, 448, 180
-0.995532, 65, 281, 320, 344
-0.99555, 257, 209, 384, 240
-0.99556, 305, 109, 432, 140
-0.995594, 465, 1, 496, 256
-0.995618, 17, 97, 48, 352
-0.995658, 189, 97, 220, 352
-0.995665, 1, 281, 500, 344
-0.995673, 1, 209, 128, 240
-0.995699, 241, 273, 368, 304
-0.995735, 129, 265, 256, 296
-0.995759, 49, 249, 176, 280
-0.995761, 1, 229, 128, 260
-0.995802, 49, 229, 176, 260
-0.995803, 353, 137, 480, 168
-0.995816, 129, 313, 384, 375
-0.995828, 49, 121, 176, 152
-0.995837, 353, 305, 480, 336
-0.99585, 241, 105, 368, 136
-0.995874, 305, 221, 432, 252
-0.995875, 217, 1, 248, 256
-0.995885, 257, 281, 500, 344
-0.995887, 305, 81, 432, 112
-0.995897, 177, 257, 304, 288
-0.995898, 289, 265, 416, 296
-0.995901, 337, 249, 464, 280
-0.995946, 145, 53, 272, 84
-0.995975, 145, 185, 272, 216
-0.99598, 369, 205, 496, 236
-0.995999, 1, 65, 500, 128
-0.996006, 49, 1, 80, 256
-0.99601, 369, 57, 496, 88
-0.996022, 33, 137, 160, 168
-0.996035, 281, 129, 312, 375
-0.996099, 177, 229, 304, 260
-0.996124, 145, 161, 272, 192
-0.99621, 321, 1, 352, 256
-0.996236, 173, 129, 204, 375
-0.99624, 369, 345, 496, 375
-0.996247, 285, 33, 316, 288
-0.996276, 425, 65, 456, 320
-0.99628, 209, 97, 240, 352
-0.996291, 437, 1, 468, 256
-0.996302, 145, 1, 272, 32
-0.996306, 145, 65, 272, 96
-0.996368, 301, 33, 332, 288
-0.99638, 193, 85, 320, 116
-0.996405, 257, 233, 384, 264
-0.996441, 449, 129, 480, 375
-0.996453, 289, 93, 416, 124
-0.99649, 453, 1, 484, 256
-0.996495, 321, 61, 448, 92
-0.996509, 137, 1, 168, 256
-0.99652, 225, 21, 352, 52
-0.996556, 1, 253, 128, 284
-0.996576, 157, 33, 188, 288
-0.99658, 101, 1, 132, 256
-0.996584, 209, 209, 336, 240
-0.996586, 405, 97, 436, 352
-0.996603, 161, 173, 288, 204
-0.99663, 369, 33, 496, 64
-0.996635, 145, 209, 272, 240
-0.996645, 401, 1, 432, 256
-0.996652, 381, 97, 412, 352
-0.996672, 305, 341, 432, 372
-0.996686, 205, 1, 236, 256
-0.996691, 245, 33, 276, 288
-0.996713, 345, 1, 376, 256
-0.996714, 61, 129, 92, 375
-0.996718, 193, 269, 320, 300
-0.996759, 469, 97, 500, 352
-0.996762, 225, 97, 256, 352
-0.996806, 121, 1, 152, 256
-0.996849, 1, 33, 500, 96
-0.996856, 55, 13, 70, 44
-0.996876, 313, 97, 344, 352
-0.996876, 35, 57, 50, 88
-0.996905, 353, 225, 480, 256
-0.996915, 85, 97, 116, 352
-0.996928, 193, 69, 320, 100
-0.996929, 65, 1, 96, 256
-0.996937, 1, 97, 32, 352
-0.996951, 17, 289, 144, 320
-0.996962, 15, 101, 30, 132
-0.996969, 327, 249, 342, 280
-0.996997, 1, 249, 500, 312
-0.996999, 111, 265, 126, 296
-0.99701, 61, 1, 76, 32
-0.99701, 173, 33, 204, 288
-0.997011, 231, 233, 246, 264
-0.99702, 265, 97, 296, 352
-0.997022, 65, 293, 192, 324
-0.997047, 485, 25, 500, 56
-0.997077, 45, 97, 76, 352
-0.997094, 437, 97, 468, 352
-0.997117, 481, 9, 496, 40
-0.997124, 49, 25, 64, 56
-0.997133, 481, 185, 496, 216
-0.997135, 75, 213, 90, 244
-0.997142, 305, 261, 320, 292
-0.997145, 29, 69, 44, 100
-0.997161, 473, 185, 488, 216
-0.997177, 185, 1, 216, 256
-0.99718, 121, 97, 152, 352
-0.997182, 39, 45, 54, 76
-0.997194, 319, 249, 334, 280
-0.997195, 161, 237, 176, 268
-0.997205, 351, 213, 366, 244
-0.997214, 463, 189, 478, 220
-0.99722, 333, 249, 348, 280
-0.997224, 141, 97, 172, 352
-0.997227, 21, 85, 36, 116
-0.997241, 381, 181, 396, 212
-0.997249, 271, 245, 286, 276
-0.997259, 343, 249, 358, 280
-0.99727, 293, 141, 308, 172
-0.99728, 357, 97, 388, 352
-0.997283, 205, 241, 220, 272
-0.997296, 9, 153, 24, 184
-0.997327, 333, 1, 364, 256
-0.997336, 101, 273, 116, 304
-0.997343, 337, 33, 352, 64
-0.997343, 39, 189, 54, 220
-0.997353, 393, 129, 424, 375
-0.997354, 355, 173, 370, 204
-0.997357, 311, 245, 326, 276
-0.997358, 157, 129, 188, 375
-0.997365, 351, 249, 366, 280
-0.997371, 291, 61, 306, 92
-0.997372, 371, 165, 386, 196
-0.997378, 237, 129, 268, 375
-0.997381, 375, 181, 390, 212
-0.997381, 67, 205, 82, 236
-0.997388, 209, 113, 224, 144
-0.997392, 347, 177, 362, 208
-0.997395, 201, 5, 216, 36
-0.997395, 215, 121, 230, 152
-0.997395, 293, 129, 324, 375
-0.9974, 323, 41, 338, 72
-0.997401, 311, 197, 326, 228
-0.997402, 273, 261, 288, 292
-0.997404, 47, 193, 62, 224
-0.997408, 411, 113, 426, 144
-0.997414, 245, 41, 260, 72
-0.997415, 267, 285, 282, 316
-0.997423, 479, 57, 494, 88
-0.997423, 345, 29, 360, 60
-0.997425, 257, 313, 500, 375
-0.997439, 233, 117, 248, 148
-0.997439, 175, 253, 190, 284
-0.997441, 227, 125, 242, 156
-0.997445, 437, 153, 452, 184
-0.997454, 301, 157, 316, 188
-0.997455, 95, 277, 110, 308
-0.997457, 251, 45, 266, 76
-0.997458, 471, 25, 486, 56
-0.997458, 387, 161, 402, 192
-0.997459, 211, 13, 226, 44
-0.99746, 341, 205, 356, 236
-0.99746, 369, 129, 400, 375
-0.997463, 361, 213, 376, 244
-0.997471, 241, 125, 256, 156
-0.997471, 311, 133, 326, 164
-0.997472, 341, 189, 356, 220
-0.997481, 257, 49, 272, 80
-0.997482, 305, 249, 320, 280
-0.997484, 267, 269, 282, 300
-0.997488, 477, 45, 492, 76
-0.997488, 389, 177, 404, 208
-0.997496, 167, 237, 182, 268
-0.997498, 381, 193, 396, 224
-0.997498, 409, 137, 424, 168
-0.997507, 397, 157, 412, 188
-0.997509, 419, 113, 434, 144
-0.997511, 331, 37, 346, 68
-0.997512, 419, 101, 434, 132
-0.997513, 21, 169, 36, 200
-0.997514, 333, 121, 348, 152
-0.997517, 325, 201, 340, 232
-0.997519, 351, 189, 366, 220
-0.997529, 59, 197, 74, 228
-0.997533, 331, 337, 346, 368
-0.997536, 363, 169, 378, 200
-0.997537, 223, 25, 238, 56
-0.99754, 359, 17, 374, 48
-0.997542, 255, 129, 270, 160
-0.997544, 251, 117, 266, 148
-0.997552, 239, 53, 254, 84
-0.997557, 455, 193, 470, 224
-0.99756, 239, 69, 254, 100
-0.99756, 485, 37, 500, 68
-0.997566, 297, 53, 312, 84
-0.997567, 367, 185, 382, 216
-0.997567, 307, 157, 322, 188
-0.997567, 191, 133, 206, 164
-0.997568, 303, 141, 318, 172
-0.997575, 229, 29, 244, 60
-0.997576, 405, 149, 420, 180
-0.997577, 379, 161, 394, 192
-0.997578, 183, 153, 198, 184
-0.997579, 45, 37, 60, 68
-0.997581, 435, 129, 450, 160
-0.997583, 311, 209, 326, 240
-0.997584, 393, 221, 408, 252
-0.997584, 451, 289, 466, 320
-0.997586, 273, 273, 288, 304
-0.997587, 161, 253, 176, 284
-0.997587, 277, 125, 292, 156
-0.997589, 233, 245, 248, 276
-0.99759, 429, 113, 444, 144
-0.997594, 373, 125, 388, 156
-0.9976, 367, 213, 382, 244
-0.997605, 357, 149, 372, 180
-0.997606, 391, 93, 406, 124
-0.997611, 341, 337, 356, 368
-0.997612, 417, 133, 432, 164
-0.997614, 217, 17, 232, 48
-0.997617, 427, 165, 442, 196
-0.997618, 459, 145, 474, 176
-0.997621, 397, 81, 412, 112
-0.997622, 369, 145, 384, 176
-0.997629, 235, 33, 250, 64
-0.997635, 417, 145, 432, 176
-0.997637, 335, 205, 350, 236
-0.997641, 485, 77, 500, 108
-0.997642, 53, 197, 68, 228
-0.997648, 367, 13, 382, 44
-0.997648, 423, 137, 438, 168
-0.997721, 361, 1, 392, 256
-0.99781, 73, 97, 104, 352
-0.997849, 33, 305, 288, 368
-0.997856, 77, 1, 108, 256
-0.997982, 105, 97, 136, 352
-0.99809, 261, 1, 292, 256
-0.998121, 389, 1, 420, 256
-0.998184, 333, 129, 364, 375
-0.99824, 413, 1, 444, 256
-0.998273, 273, 1, 304, 256
-0.998369, 345, 97, 376, 352
-0.998389, 193, 129, 256, 144
-0.998402, 1, 67, 64, 82
-0.998409, 1, 53, 64, 68
-0.998423, 113, 61, 176, 76
-0.998428, 113, 111, 176, 126
-0.998436, 113, 51, 176, 66
-0.998437, 9, 47, 72, 62
-0.998442, 145, 203, 208, 218
-0.998444, 113, 85, 176, 100
-0.998444, 113, 103, 176, 118
-0.998446, 17, 31, 80, 46
-0.998447, 113, 39, 176, 54
-0.998449, 113, 75, 176, 90
-0.998452, 25, 13, 88, 28
-0.998453, 401, 205, 464, 220
-0.998453, 25, 1, 88, 16
-0.998454, 9, 37, 72, 52
-0.998455, 145, 133, 208, 148
-0.998459, 113, 69, 176, 84
-0.99846, 113, 45, 176, 60
-0.99846, 113, 91, 176, 106
-0.99846, 17, 21, 80, 36
-0.99846, 113, 31, 176, 46
-0.998461, 153, 1, 216, 16
-0.998462, 153, 127, 216, 142
-0.998463, 113, 97, 176, 112
-0.998463, 113, 117, 176, 132
-0.998464, 9, 195, 72, 210
-0.998464, 113, 193, 176, 208
-0.998467, 137, 193, 200, 208
-0.998468, 305, 169, 336, 184
-0.998468, 245, 87, 276, 102
-0.998468, 33, 251, 64, 266
-0.998468, 121, 171, 152, 186
-0.998468, 465, 155, 496, 170
-0.998468, 469, 27, 500, 42
-0.998469, 337, 179, 368, 194
-0.998469, 189, 139, 220, 154
-0.998469, 325, 355, 356, 370
-0.998469, 245, 79, 276, 94
-0.998469, 289, 161, 352, 176
-0.99847, 137, 37, 168, 52
-0.99847, 137, 7, 168, 22
-0.99847, 97, 199, 128, 214
-0.99847, 33, 257, 64, 272
-0.99847, 1, 305, 500, 368
-0.998471, 145, 143, 208, 158
-0.998471, 465, 15, 496, 30
-0.998471, 121, 187, 152, 202
-0.998471, 469, 171, 500, 186
-0.998472, 289, 149, 320, 164
-0.998472, 157, 243, 188, 258
-0.998474, 281, 275, 312, 290
-0.998474, 421, 179, 452, 194
-0.998474, 137, 79, 168, 94
-0.998475, 325, 341, 356, 356
-0.998475, 13, 101, 44, 116
-0.998475, 113, 129, 176, 144
-0.998476, 469, 43, 500, 58
-0.998476, 29, 191, 60, 206
-0.998476, 137, 29, 168, 44
-0.998478, 113, 15, 176, 30
-0.998478, 429, 135, 460, 150
-0.998479, 25, 205, 88, 220
-0.998479, 377, 215, 440, 230
-0.998479, 177, 1, 208, 16
-0.99848, 457, 205, 488, 220
-0.99848, 417, 71, 448, 86
-0.99848, 453, 287, 484, 302
-0.99848, 449, 97, 480, 112
-0.998481, 465, 177, 496, 192
-0.998481, 213, 29, 244, 44
-0.998482, 313, 215, 376, 230
-0.998482, 265, 139, 296, 154
-0.998482, 305, 249, 336, 264
-0.998482, 41, 43, 72, 58
-0.998482, 305, 175, 336, 190
-0.998484, 321, 339, 384, 354
-0.998484, 41, 229, 104, 244
-0.998485, 113, 123, 176, 138
-0.998485, 17, 85, 48, 100
-0.998485, 25, 151, 88, 166
-0.998485, 17, 169, 80, 184
-0.998485, 261, 275, 292, 290
-0.998485, 173, 149, 204, 164
-0.998485, 305, 181, 368, 196
-0.998486, 385, 155, 448, 170
-0.998486, 433, 75, 496, 90
-0.998486, 17, 153, 48, 168
-0.998486, 113, 187, 176, 202
-0.998486, 305, 207, 368, 222
-0.998487, 113, 23, 176, 38
-0.998487, 265, 131, 328, 146
-0.998487, 49, 191, 112, 206
-0.998487, 285, 103, 316, 118
-0.998487, 369, 189, 432, 204
-0.998488, 25, 77, 56, 92
-0.998488, 49, 21, 80, 36
-0.998488, 137, 19, 168, 34
-0.998489, 113, 9, 176, 24
-0.998489, 1, 73, 64, 88
-0.998489, 413, 215, 444, 230
-0.998489, 25, 7, 88, 22
-0.998489, 197, 121, 228, 136
-0.998489, 409, 195, 472, 210
-0.99849, 337, 251, 368, 266
-0.998491, 237, 121, 268, 136
-0.998491, 433, 129, 464, 144
-0.998492, 469, 65, 500, 80
-0.998493, 225, 39, 256, 54
-0.998494, 281, 121, 344, 136
-0.998495, 469, 35, 500, 50
-0.998495, 485, 1, 500, 128
-0.998495, 41, 37, 72, 52
-0.998495, 345, 215, 408, 230
-0.998496, 137, 13, 168, 28
-0.998496, 169, 155, 232, 170
-0.998497, 101, 191, 132, 206
-0.998497, 125, 67, 156, 82
-0.998497, 297, 173, 360, 188
-0.998497, 433, 199, 464, 214
-0.998497, 165, 191, 196, 206
-0.998497, 401, 213, 464, 228
-0.998497, 457, 185, 488, 200
-0.998498, 153, 121, 216, 136
-0.998498, 425, 23, 488, 38
-0.998498, 377, 89, 440, 104
-0.998498, 409, 125, 472, 140
-0.998498, 1, 59, 64, 74
-0.998499, 321, 259, 352, 274
-0.998499, 349, 175, 380, 190
-0.9985, 401, 219, 432, 234
-0.9985, 425, 169, 456, 184
-0.9985, 125, 81, 156, 96
-0.998501, 113, 3, 176, 18
-0.998501, 125, 73, 156, 88
-0.998502, 125, 89, 156, 104
-0.998502, 125, 23, 156, 38
-0.998502, 281, 63, 344, 78
-0.998502, 313, 251, 376, 266
-0.998502, 369, 165, 400, 180
-0.998502, 469, 89, 500, 104
-0.998503, 157, 157, 188, 172
-0.998503, 137, 179, 200, 194
-0.998503, 173, 131, 204, 146
-0.998503, 421, 185, 452, 200
-0.998503, 393, 161, 456, 176
-0.998504, 409, 189, 472, 204
-0.998504, 445, 177, 476, 192
-0.998504, 289, 155, 320, 170
-0.998504, 239, 33, 254, 160
-0.998505, 241, 113, 304, 128
-0.998505, 145, 77, 208, 92
-0.998505, 233, 99, 296, 114
-0.998505, 17, 91, 48, 106
-0.998506, 389, 227, 420, 242
-0.998507, 137, 187, 200, 202
-0.998507, 313, 355, 376, 370
-0.998507, 305, 219, 336, 234
-0.998508, 125, 53, 156, 68
-0.998508, 305, 201, 368, 216
-0.998508, 377, 221, 440, 236
-0.998508, 249, 87, 312, 102
-0.998508, 125, 13, 156, 28
-0.998509, 305, 187, 368, 202
-0.99851, 113, 199, 176, 214
-0.99851, 57, 3, 88, 18
-0.99851, 17, 183, 48, 198
-0.99851, 469, 5, 500, 20
-0.998511, 125, 39, 156, 54
-0.998511, 65, 219, 96, 234
-0.998511, 193, 123, 256, 138
-0.998512, 169, 141, 200, 156
-0.998513, 465, 137, 496, 152
-0.998513, 125, 61, 156, 76
-0.998514, 45, 29, 76, 44
-0.998514, 401, 143, 464, 158
-0.998514, 113, 167, 176, 182
-0.998514, 113, 137, 176, 152
-0.998515, 281, 109, 344, 124
-0.998515, 161, 181, 192, 196
-0.998515, 305, 193, 368, 208
-0.998515, 249, 125, 312, 140
-0.998516, 457, 119, 488, 134
-0.998516, 125, 45, 156, 60
-0.998516, 377, 179, 440, 194
-0.998516, 65, 199, 128, 214
-0.998516, 157, 163, 188, 178
-0.998517, 337, 181, 400, 196
-0.998517, 257, 73, 320, 88
-0.998517, 169, 263, 232, 278
-0.998517, 121, 109, 152, 124
-0.998518, 241, 65, 304, 80
-0.998518, 269, 117, 300, 132
-0.998518, 305, 47, 368, 62
-0.998519, 233, 129, 264, 144
-0.998519, 313, 223, 376, 238
-0.998519, 25, 211, 88, 226
-0.99852, 417, 113, 480, 128
-0.99852, 145, 155, 208, 170
-0.998521, 113, 205, 176, 220
-0.998521, 137, 163, 200, 178
-0.998521, 397, 193, 428, 208
-0.998521, 165, 265, 196, 280
-0.998522, 217, 123, 248, 138
-0.998522, 185, 139, 248, 154
-0.998523, 417, 3, 480, 18
-0.998523, 241, 49, 272, 64
-0.998523, 145, 211, 208, 226
-0.998523, 137, 173, 200, 188
-0.998524, 417, 29, 480, 44
-0.998525, 377, 1, 440, 16
-0.998525, 153, 149, 216, 164
-0.998525, 465, 281, 496, 296
-0.998525, 201, 17, 232, 32
-0.998525, 113, 155, 176, 170
-0.998525, 33, 265, 64, 280
-0.998525, 409, 119, 472, 134
-0.998526, 97, 275, 160, 290
-0.998527, 157, 237, 188, 252
-0.998528, 153, 93, 216, 108
-0.998528, 9, 231, 72, 246
-0.998528, 261, 287, 292, 302
-0.998528, 433, 149, 496, 164
-0.998529, 393, 149, 456, 164
-0.998529, 289, 215, 352, 230
-0.99853, 441, 165, 472, 180
-0.998531, 465, 113, 496, 128
-0.998531, 217, 51, 280, 66
-0.998531, 305, 129, 368, 144
-0.998531, 433, 67, 496, 82
-0.998531, 425, 107, 488, 122
-0.998532, 289, 167, 352, 182
-0.998532, 113, 161, 176, 176
-0.998533, 1, 167, 32, 182
-0.998533, 93, 277, 124, 292
-0.998533, 433, 81, 496, 96
-0.998533, 369, 197, 432, 212
-0.998533, 145, 237, 208, 252
-0.998534, 401, 169, 464, 184
-0.998535, 457, 27, 488, 42
-0.998535, 193, 37, 256, 52
-0.998536, 169, 269, 232, 284
-0.998536, 453, 193, 484, 208
-0.998536, 217, 129, 280, 144
-0.998536, 453, 165, 484, 180
-0.998536, 113, 147, 176, 162
-0.998537, 165, 197, 196, 212
-0.998538, 193, 9, 224, 24
-0.998539, 157, 173, 188, 188
-0.998541, 125, 31, 156, 46
-0.998541, 9, 175, 40, 190
-0.998542, 157, 1, 188, 16
-0.998549, 465, 163, 496, 178
-0.998555, 449, 199, 480, 214
-0.998557, 445, 123, 476, 138
-0.998559, 433, 175, 464, 190
-0.998563, 311, 193, 326, 320
-0.998564, 101, 271, 132, 286
-0.998571, 441, 189, 472, 204
-0.998573, 465, 191, 496, 206
-0.998577, 201, 127, 232, 142
-0.998605, 71, 161, 86, 288
-0.99862, 449, 171, 480, 186
-0.998623, 25, 97, 40, 224
-0.998645, 253, 33, 268, 160
-0.998646, 289, 65, 304, 192
-0.998648, 409, 129, 424, 256
-0.998651, 301, 161, 316, 288
-0.998651, 39, 177, 54, 304
-0.998652, 319, 193, 334, 320
-0.998657, 423, 17, 438, 144
-0.998673, 1, 161, 32, 176
-0.998687, 65, 161, 80, 288
-0.998689, 311, 145, 326, 272
-0.998696, 159, 177, 174, 304
-0.998699, 245, 33, 260, 160
-0.998707, 389, 113, 404, 240
-0.998724, 479, 49, 494, 176
-0.998724, 365, 161, 380, 288
-0.998725, 29, 1, 44, 128
-0.998728, 345, 17, 360, 144
-0.99873, 337, 17, 352, 144
-0.998737, 399, 81, 414, 208
-0.998737, 403, 129, 418, 256
-0.998747, 353, 1, 368, 128
-0.998748, 419, 97, 434, 224
-0.998757, 433, 65, 448, 192
-0.998759, 329, 161, 344, 288
-0.998761, 377, 1, 408, 256
-0.998773, 329, 17, 344, 144
-0.998774, 249, 129, 280, 375
-0.998775, 439, 1, 454, 128
-0.998775, 35, 81, 50, 208
-0.998779, 481, 113, 496, 240
-0.998791, 335, 161, 350, 288
-0.998791, 1, 65, 16, 192
-0.998792, 259, 65, 274, 192
-0.9988, 181, 145, 196, 272
-0.998801, 231, 33, 246, 160
-0.998804, 191, 113, 206, 240
-0.998806, 473, 129, 488, 256
-0.998815, 271, 209, 286, 336
-0.998816, 225, 65, 240, 192
-0.99882, 479, 1, 494, 128
-0.99882, 469, 1, 484, 128
-0.998821, 17, 17, 32, 144
-0.998824, 363, 1, 378, 128
-0.998834, 409, 17, 424, 144
-0.998835, 375, 145, 390, 272
-0.998839, 459, 113, 474, 240
-0.998843, 11, 145, 26, 272
-0.998845, 425, 113, 440, 240
-0.998845, 11, 33, 26, 160
-0.998845, 417, 49, 432, 176
-0.998849, 295, 129, 310, 256
-0.99885, 169, 193, 184, 320
-0.998852, 247, 97, 262, 224
-0.998853, 393, 161, 408, 288
-0.998857, 23, 1, 38, 128
-0.998866, 387, 161, 402, 288
-0.998868, 67, 1, 82, 128
-0.998869, 407, 65, 422, 192
-0.99887, 485, 49, 500, 176
-0.99887, 3, 129, 18, 256
-0.998875, 265, 209, 280, 336
-0.998879, 231, 209, 246, 336
-0.998879, 393, 65, 408, 192
-0.998881, 433, 17, 448, 144
-0.998885, 439, 49, 454, 176
-0.998896, 197, 113, 212, 240
-0.998899, 329, 113, 344, 240
-0.9989, 415, 145, 430, 272
-0.9989, 313, 33, 328, 160
-0.998902, 297, 49, 312, 176
-0.998902, 47, 145, 62, 272
-0.998903, 321, 145, 336, 272
-0.998903, 19, 113, 34, 240
-0.998908, 451, 33, 466, 160
-0.99891, 219, 1, 234, 128
-0.998911, 459, 1, 474, 128
-0.99892, 435, 113, 450, 240
-0.99892, 463, 49, 478, 176
-0.998922, 161, 97, 176, 224
-0.998928, 307, 65, 322, 192
-0.998935, 305, 209, 320, 336
-0.998936, 427, 65, 442, 192
-0.998936, 73, 209, 88, 336
-0.998942, 453, 113, 468, 240
-0.998944, 287, 113, 302, 240
-0.998945, 399, 17, 414, 144
-0.998945, 59, 1, 74, 128
-0.998946, 203, 65, 218, 192
-0.998946, 49, 193, 64, 320
-0.998947, 341, 145, 356, 272
-0.998949, 377, 193, 392, 320
-0.998952, 467, 113, 482, 240
-0.998957, 209, 65, 224, 192
-0.998958, 229, 113, 244, 240
-0.998958, 81, 145, 96, 272
-0.998958, 381, 97, 396, 224
-0.998959, 235, 81, 250, 208
-0.998962, 33, 129, 48, 256
-0.998962, 305, 113, 320, 240
-0.998966, 371, 1, 386, 128
-0.998967, 139, 97, 154, 224
-0.998972, 323, 33, 338, 160
-0.998972, 213, 1, 228, 128
-0.998977, 161, 225, 176, 352
-0.998977, 443, 129, 458, 256
-0.99898, 369, 97, 384, 224
-0.998984, 219, 65, 234, 192
-0.998985, 59, 225, 74, 352
-0.998994, 329, 241, 344, 368
-0.998994, 415, 1, 430, 128
-0.998995, 59, 145, 74, 272
-0.998996, 109, 193, 124, 320
-0.998996, 355, 177, 370, 304
-0.999009, 25, 49, 40, 176
-0.999015, 471, 49, 486, 176
-0.999016, 241, 81, 256, 208
-0.999022, 387, 49, 402, 176
-0.999022, 53, 1, 68, 128
-0.999025, 203, 113, 218, 240
-0.999026, 225, 17, 240, 144
-0.999028, 339, 97, 354, 224
-0.99903, 43, 65, 58, 192
-0.999033, 349, 161, 364, 288
-0.999035, 445, 65, 460, 192
-0.99904, 71, 113, 86, 240
-0.999041, 27, 145, 42, 272
-0.999048, 225, 209, 240, 336
-0.99905, 317, 97, 332, 224
-0.999212, 89, 1, 120, 256
-0.999678, 439, 109, 454, 124
-0.999678, 305, 265, 320, 280
-0.999678, 297, 155, 312, 170
-0.999678, 359, 191, 374, 206
-0.999679, 77, 219, 92, 234
-0.999679, 479, 111, 494, 126
-0.999679, 381, 117, 396, 132
-0.999679, 253, 49, 268, 64
-0.99968, 477, 135, 492, 150
-0.99968, 471, 193, 486, 208
-0.99968, 51, 197, 66, 212
-0.99968, 447, 81, 462, 96
-0.99968, 365, 145, 380, 160
-0.99968, 367, 207, 382, 222
-0.99968, 311, 209, 326, 224
-0.99968, 485, 85, 500, 100
-0.99968, 273, 281, 288, 296
-0.999681, 303, 125, 318, 140
-0.999681, 403, 225, 418, 240
-0.999682, 433, 201, 448, 216
-0.999682, 273, 275, 288, 290
-0.999682, 443, 205, 458, 220
-0.999682, 367, 213, 382, 228
-0.999682, 209, 125, 224, 140
-0.999683, 51, 255, 66, 270
-0.999683, 297, 141, 312, 156
-0.999683, 345, 27, 360, 42
-0.999683, 463, 119, 478, 134
-0.999684, 371, 167, 386, 182
-0.999684, 329, 255, 344, 270
-0.999685, 267, 285, 282, 300
-0.999686, 227, 123, 242, 138
-0.999686, 425, 113, 440, 128
-0.999686, 445, 71, 460, 86
-0.999686, 457, 189, 472, 204
-0.999686, 383, 201, 398, 216
-0.999686, 95, 279, 110, 294
-0.999686, 451, 75, 466, 90
-0.999686, 411, 193, 426, 208
-0.999687, 363, 127, 378, 142
-0.999687, 327, 39, 342, 54
-0.999687, 209, 83, 224, 98
-0.999687, 303, 247, 318, 262
-0.999688, 375, 161, 390, 176
-0.999688, 465, 195, 480, 210
-0.999688, 49, 35, 64, 50
-0.999689, 59, 11, 74, 26
-0.999689, 381, 183, 396, 198
-0.999689, 13, 113, 28, 128
-0.999689, 255, 77, 270, 92
-0.999689, 331, 341, 346, 356
-0.999689, 317, 263, 332, 278
-0.999689, 167, 255, 182, 270
-0.999689, 231, 237, 246, 252
-0.99969, 161, 239, 176, 254
-0.99969, 485, 45, 500, 60
-0.999691, 349, 179, 364, 194
-0.999692, 427, 89, 442, 104
-0.999693, 333, 203, 348, 218
-0.999693, 471, 161, 486, 176
-0.999694, 177, 265, 192, 280
-0.999695, 327, 249, 342, 264
-0.999695, 451, 173, 466, 188
-0.999696, 481, 21, 496, 36
-0.999696, 441, 79, 456, 94
-0.999696, 457, 29, 472, 44
-0.999696, 257, 87, 272, 102
-0.999697, 407, 103, 422, 118
-0.999697, 21, 175, 36, 190
-0.999698, 101, 273, 116, 288
-0.999698, 203, 7, 218, 22
-0.999699, 177, 207, 192, 222
-0.999699, 357, 221, 372, 236
-0.9997, 247, 83, 262, 98
-0.999701, 303, 143, 318, 158
-0.999701, 423, 95, 438, 110
-0.999701, 303, 271, 318, 286
-0.999702, 307, 131, 322, 146
-0.999702, 371, 123, 386, 138
-0.999703, 39, 55, 54, 70
-0.999704, 63, 3, 78, 18
-0.999704, 347, 185, 362, 200
-0.999704, 447, 33, 462, 48
-0.999705, 397, 105, 412, 120
-0.999705, 451, 291, 466, 306
-0.999705, 481, 181, 496, 196
-0.999706, 319, 251, 334, 266
-0.999706, 241, 121, 256, 136
-0.999706, 473, 185, 488, 200
-0.999706, 317, 211, 332, 226
-0.999707, 451, 125, 466, 140
-0.999708, 401, 195, 416, 210
-0.999709, 325, 207, 340, 222
-0.99971, 255, 127, 270, 142
-0.99971, 351, 221, 366, 236
-0.99971, 333, 187, 348, 202
-0.99971, 441, 85, 456, 100
-0.999711, 233, 121, 248, 136
-0.999711, 209, 119, 224, 134
-0.999711, 327, 263, 342, 278
-0.999711, 241, 39, 256, 54
-0.999711, 411, 187, 426, 202
-0.999712, 343, 199, 358, 214
-0.999712, 325, 213, 340, 228
-0.999712, 233, 115, 248, 130
-0.999713, 309, 215, 324, 230
-0.999715, 459, 195, 474, 210
-0.999718, 405, 149, 420, 164
-0.999719, 293, 149, 308, 164
-0.999719, 335, 257, 350, 272
-0.999719, 41, 189, 56, 204
-0.99972, 219, 121, 234, 136
-0.999723, 441, 175, 456, 190
-0.999724, 247, 47, 262, 62
-0.999728, 383, 207, 398, 222
-0.999729, 389, 113, 404, 128
-0.999729, 399, 153, 414, 168
-0.999731, 341, 183, 356, 198
-0.999733, 371, 185, 386, 200
-0.999734, 273, 287, 288, 302
-0.999734, 391, 157, 406, 172
-0.999735, 375, 211, 390, 226
-0.999735, 7, 155, 22, 170
-0.999736, 111, 269, 126, 284
-0.999743, 383, 161, 398, 176
-0.999743, 433, 85, 448, 100
-0.999745, 231, 243, 246, 258
-0.999749, 415, 99, 430, 114
-0.999758, 409, 143, 424, 158
-0.999765, 375, 203, 390, 218
