1879
-0.364598, 1, 65, 500, 320
-0.427404, 1, 1, 500, 333
-0.579758, 225, 1, 480, 333
-0.581676, 97, 65, 352, 320
-0.621886, 65, 1, 320, 333
-0.682719, 225, 65, 480, 320
-0.710629, 1, 33, 256, 288
-0.85795, 241, 65, 368, 320
-0.862956, 321, 65, 448, 320
-0.867023, 161, 65, 288, 320
-0.875742, 1, 161, 500, 288
-0.87846, 337, 1, 464, 333
-0.880976, 1, 97, 500, 224
-0.881799, 257, 1, 384, 333
-0.883918, 65, 65, 192, 320
-0.88656, 1, 65, 128, 320
-0.893578, 33, 1, 160, 333
-0.894258, 113, 65, 240, 320
-0.899341, 177, 1, 304, 333
-0.902767, 369, 33, 496, 288
-0.908251, 81, 1, 208, 333
-0.908434, 1, 49, 500, 176
-0.915998, 129, 97, 384, 224
-0.918698, 97, 193, 352, 320
-0.919903, 1, 209, 500, 333
-0.92393, 225, 129, 480, 256
-0.924107, 1, 177, 256, 304
-0.927901, 129, 1, 256, 333
-0.932233, 161, 177, 288, 304
-0.932398, 33, 97, 288, 224
-0.934706, 1, 161, 128, 288
-0.936444, 305, 113, 432, 240
-0.936688, 193, 193, 448, 320
-0.937911, 129, 145, 384, 272
-0.938745, 225, 97, 352, 224
-0.940336, 225, 193, 352, 320
-0.941027, 209, 177, 272, 304
-0.942131, 193, 49, 448, 176
-0.942454, 81, 177, 208, 304
-0.943495, 233, 113, 296, 240
-0.943677, 345, 97, 408, 224
-0.944861, 257, 145, 384, 272
-0.944956, 1, 129, 64, 256
-0.945105, 321, 65, 448, 192
-0.946402, 185, 177, 248, 304
-0.946521, 145, 177, 208, 304
-0.949633, 1, 177, 64, 304
-0.949899, 385, 65, 448, 192
-0.950636, 121, 161, 184, 288
-0.950925, 321, 113, 384, 240
-0.950936, 17, 209, 144, 333
-0.952971, 297, 113, 360, 240
-0.953133, 33, 49, 288, 176
-0.953348, 201, 177, 264, 240
-0.953641, 145, 97, 272, 224
-0.953859, 81, 129, 208, 256
-0.954049, 33, 145, 96, 272
-0.954123, 233, 169, 296, 232
-0.954288, 257, 49, 384, 176
-0.954294, 97, 209, 160, 333
-0.95433, 217, 81, 280, 144
-0.954362, 345, 105, 408, 168
-0.954682, 305, 177, 432, 304
-0.9547, 337, 209, 400, 333
-0.955247, 193, 233, 256, 296
-0.955412, 249, 81, 312, 144
-0.955861, 281, 161, 344, 288
-0.956655, 257, 241, 320, 304
-0.956731, 233, 193, 296, 320
-0.956771, 377, 193, 440, 320
-0.957079, 313, 161, 376, 288
-0.957853, 257, 161, 320, 288
-0.958124, 57, 161, 120, 288
-0.958586, 121, 97, 184, 224
-0.959764, 169, 129, 232, 256
-0.959913, 65, 209, 128, 333
-0.959949, 297, 241, 360, 304
-0.96006, 121, 209, 184, 333
-0.960227, 145, 233, 208, 296
-0.960267, 217, 241, 280, 304
-0.960421, 177, 169, 240, 232
-0.960599, 273, 81, 336, 208
-0.960817, 409, 233, 472, 296
-0.96117, 377, 81, 440, 144
-0.96121, 1, 153, 64, 216
-0.961553, 369, 241, 432, 304
-0.961579, 209, 145, 336, 272
-0.961649, 361, 49, 424, 176
-0.961684, 97, 161, 160, 288
-0.961764, 17, 97, 144, 224
-0.96208, 377, 113, 440, 240
-0.962174, 265, 177, 328, 240
-0.962904, 369, 177, 496, 304
-0.963002, 297, 65, 360, 192
-0.963078, 225, 105, 288, 168
-0.963231, 321, 121, 384, 184
-0.963383, 169, 249, 232, 312
-0.963393, 289, 161, 352, 224
-0.96342, 81, 217, 144, 280
-0.963603, 369, 49, 496, 176
-0.963844, 401, 49, 464, 112
-0.963949, 33, 97, 96, 224
-0.964005, 33, 129, 96, 192
-0.964031, 257, 209, 320, 333
-0.964187, 17, 105, 80, 168
-0.964201, 401, 177, 464, 304
-0.964378, 209, 97, 272, 224
-0.964614, 145, 49, 272, 176
-0.964734, 121, 225, 184, 288
-0.965383, 321, 145, 384, 208
-0.965865, 161, 193, 224, 256
-0.966116, 153, 153, 216, 216
-0.966308, 353, 113, 480, 240
-0.966569, 409, 49, 472, 176
-0.966571, 337, 161, 400, 288
-0.966643, 297, 209, 360, 333
-0.966653, 65, 81, 192, 208
-0.966716, 321, 49, 384, 176
-0.966783, 217, 201, 280, 264
-0.966861, 49, 177, 112, 240
-0.967173, 169, 225, 232, 288
-0.967396, 97, 241, 160, 304
-0.967589, 381, 81, 412, 144
-0.96763, 81, 81, 144, 208
-0.96765, 17, 225, 80, 288
-0.967925, 145, 129, 208, 192
-0.967976, 241, 201, 304, 264
-0.967986, 369, 105, 432, 168
-0.968013, 377, 265, 440, 328
-0.968285, 217, 65, 280, 320
-0.968321, 137, 177, 200, 240
-0.968412, 353, 265, 416, 328
-0.968919, 241, 65, 304, 320
-0.968926, 57, 217, 120, 280
-0.969201, 193, 201, 256, 264
-0.969318, 1, 177, 64, 240
-0.969608, 1, 1, 500, 128
-0.969786, 129, 153, 192, 216
-0.969796, 369, 97, 400, 160
-0.969903, 361, 137, 424, 200
-0.970203, 377, 49, 440, 112
-0.970259, 145, 129, 208, 256
-0.97037, 217, 265, 280, 328
-0.970382, 177, 121, 240, 184
-0.970549, 1, 201, 64, 264
-0.970621, 249, 65, 312, 192
-0.970814, 217, 57, 280, 120
-0.970991, 321, 97, 448, 160
-0.971273, 193, 265, 256, 328
-0.971366, 5, 161, 36, 288
-0.971495, 273, 81, 336, 144
-0.971645, 321, 121, 448, 184
-0.971734, 257, 89, 288, 152
-0.971738, 1, 81, 64, 208
-0.971887, 193, 185, 320, 248
-0.97192, 221, 161, 252, 288
-0.972062, 249, 105, 312, 168
-0.972349, 265, 217, 328, 280
-0.972383, 41, 105, 104, 168
-0.97242, 121, 121, 184, 184
-0.972488, 289, 241, 320, 304
-0.972634, 329, 249, 392, 312
-0.972766, 233, 241, 264, 304
-0.972924, 401, 257, 464, 320
-0.973051, 193, 97, 256, 160
-0.973255, 41, 241, 104, 304
-0.973265, 129, 273, 192, 333
-0.973278, 373, 65, 404, 192
-0.973301, 257, 265, 320, 328
-0.973308, 21, 129, 52, 256
-0.973504, 33, 209, 96, 333
-0.973538, 353, 81, 416, 144
-0.973607, 237, 177, 268, 304
-0.973703, 241, 89, 368, 152
-0.973866, 73, 65, 136, 128
-0.973898, 161, 81, 288, 144
-0.97391, 145, 177, 272, 240
-0.97391, 393, 65, 424, 192
-0.973919, 393, 65, 424, 128
-0.973923, 433, 233, 496, 296
-0.974012, 425, 193, 488, 320
-0.974108, 1, 217, 128, 280
-0.974232, 297, 265, 360, 328
-0.974318, 325, 113, 356, 240
-0.974402, 177, 81, 240, 208
-0.974515, 245, 81, 276, 144
-0.974656, 129, 225, 256, 288
-0.974668, 5, 217, 36, 280
-0.97478, 301, 241, 332, 304
-0.974897, 145, 97, 208, 160
-0.974927, 201, 49, 264, 176
-0.975154, 209, 49, 336, 176
-0.975174, 157, 177, 188, 304
-0.975263, 273, 161, 400, 224
-0.975285, 169, 177, 200, 304
-0.975498, 1, 81, 64, 144
-0.975501, 225, 241, 352, 304
-0.9756, 1, 49, 128, 176
-0.975646, 265, 241, 296, 304
-0.975729, 65, 105, 128, 168
-0.975847, 389, 105, 420, 168
-0.975966, 349, 97, 380, 224
-0.975998, 49, 73, 176, 136
-0.976293, 145, 153, 272, 216
-0.976352, 217, 169, 248, 232
-0.976404, 49, 217, 176, 280
-0.976516, 257, 57, 320, 120
-0.976556, 345, 121, 376, 184
-0.976639, 161, 65, 224, 320
-0.976657, 245, 113, 276, 240
-0.976751, 1, 129, 128, 192
-0.976903, 321, 169, 384, 232
-0.976999, 217, 233, 248, 296
-0.977015, 253, 241, 284, 304
-0.977032, 409, 49, 440, 176
-0.977119, 129, 201, 192, 264
-0.977163, 145, 201, 272, 264
-0.97722, 113, 209, 144, 333
-0.977255, 121, 249, 184, 312
-0.977378, 137, 225, 168, 288
-0.977392, 177, 145, 240, 208
-0.977466, 377, 65, 440, 320
-0.977472, 25, 193, 88, 256
-0.977685, 117, 225, 148, 288
-0.977716, 177, 225, 304, 288
-0.977836, 121, 97, 184, 160
-0.977836, 33, 105, 160, 168
-0.9779, 329, 137, 360, 200
-0.978021, 321, 161, 352, 224
-0.978128, 413, 241, 444, 304
-0.97814, 165, 129, 196, 192
-0.978168, 305, 89, 368, 152
-0.978223, 369, 65, 496, 128
-0.978313, 21, 177, 52, 304
-0.97837, 265, 65, 328, 320
-0.978378, 73, 257, 136, 320
-0.978382, 233, 81, 264, 144
-0.978434, 353, 65, 416, 320
-0.978436, 61, 161, 92, 288
-0.978437, 277, 177, 308, 240
-0.978506, 153, 225, 184, 288
-0.97857, 373, 121, 404, 184
-0.978587, 329, 225, 392, 288
-0.978617, 57, 97, 120, 224
-0.978658, 257, 97, 288, 224
-0.978667, 269, 81, 300, 144
-0.978733, 25, 73, 88, 136
-0.978814, 85, 161, 116, 288
-0.978859, 201, 153, 264, 216
-0.978866, 41, 161, 72, 288
-0.978936, 353, 217, 416, 280
-0.97898, 165, 185, 196, 248
-0.979009, 205, 233, 236, 296
-0.97914, 289, 217, 352, 280
-0.979221, 393, 105, 456, 168
-0.979239, 81, 241, 208, 304
-0.979264, 201, 121, 264, 184
-0.979271, 345, 161, 408, 224
-0.979287, 193, 161, 320, 224
-0.979351, 173, 153, 204, 216
-0.97939, 277, 233, 308, 296
-0.979447, 305, 97, 336, 224
-0.97948, 17, 241, 144, 304
-0.979547, 113, 33, 176, 288
-0.979597, 393, 257, 424, 320
-0.979605, 357, 105, 388, 168
-0.979609, 113, 161, 144, 288
-0.979659, 409, 49, 440, 112
-0.979726, 149, 121, 180, 184
-0.979772, 29, 153, 60, 216
-0.979784, 1, 81, 128, 144
-0.9798, 121, 73, 184, 136
-0.979873, 257, 185, 384, 248
-0.979954, 81, 177, 144, 240
-0.979979, 65, 105, 96, 168
-0.980074, 1, 193, 128, 256
-0.980153, 241, 161, 272, 224
-0.980183, 277, 193, 308, 320
-0.980219, 305, 233, 432, 296
-0.980227, 177, 249, 304, 312
-0.980234, 289, 73, 416, 136
-0.980257, 253, 265, 284, 328
-0.980271, 297, 65, 360, 320
-0.980417, 393, 113, 424, 240
-0.980573, 337, 113, 368, 240
-0.980592, 85, 233, 116, 296
-0.980597, 169, 89, 232, 152
-0.980626, 81, 177, 208, 240
-0.980642, 81, 113, 208, 176
-0.980644, 197, 177, 228, 304
-0.980653, 289, 185, 352, 248
-0.980676, 125, 209, 156, 333
-0.980677, 105, 217, 136, 280
-0.980687, 241, 121, 368, 184
-0.980729, 429, 241, 460, 304
-0.980759, 81, 153, 208, 216
-0.98082, 169, 273, 232, 333
-0.980823, 209, 177, 240, 304
-0.980845, 329, 65, 392, 320
-0.980868, 193, 193, 224, 256
-0.980928, 97, 89, 224, 152
-0.98094, 245, 201, 276, 264
-0.980958, 193, 73, 256, 136
-0.980978, 89, 89, 152, 152
-0.980984, 245, 105, 276, 168
-0.980994, 261, 177, 292, 240
-0.980999, 329, 241, 360, 304
-0.981007, 221, 209, 252, 333
-0.981012, 177, 105, 304, 168
-0.981044, 313, 241, 344, 304
-0.981061, 21, 233, 52, 296
-0.981066, 25, 121, 56, 184
-0.981091, 45, 129, 76, 192
-0.981102, 161, 153, 192, 216
-0.981148, 129, 121, 256, 184
-0.981205, 229, 177, 260, 240
-0.981291, 225, 209, 352, 272
-0.981303, 145, 177, 176, 304
-0.981337, 21, 177, 52, 240
-0.981347, 17, 65, 80, 320
-0.98139, 45, 105, 76, 168
-0.98142, 161, 57, 224, 120
-0.981475, 25, 153, 88, 216
-0.981519, 185, 33, 248, 288
-0.981546, 265, 145, 328, 208
-0.981556, 425, 257, 488, 320
-0.981588, 81, 33, 208, 160
-0.981657, 373, 249, 404, 312
-0.981679, 17, 209, 48, 272
-0.981703, 121, 49, 184, 176
-0.981738, 149, 153, 180, 216
-0.981806, 281, 57, 344, 120
-0.981828, 385, 129, 448, 192
-0.981849, 41, 65, 104, 320
-0.981886, 365, 113, 396, 240
-0.981904, 249, 177, 280, 304
-0.981923, 93, 209, 124, 333
-0.981933, 289, 177, 320, 240
-0.981976, 181, 121, 212, 184
-0.981993, 401, 233, 432, 296
-0.982007, 289, 113, 352, 176
-0.982071, 177, 233, 208, 296
-0.982095, 225, 33, 288, 160
-0.982177, 369, 169, 432, 232
-0.982238, 145, 81, 208, 208
-0.982289, 369, 97, 496, 160
-0.982331, 369, 241, 496, 304
-0.98244, 53, 217, 84, 280
-0.982447, 105, 241, 136, 304
-0.982495, 1, 209, 32, 333
-0.982548, 73, 209, 104, 272
-0.982556, 273, 201, 304, 264
-0.982616, 321, 145, 448, 208
-0.98263, 205, 193, 236, 256
-0.982672, 401, 97, 432, 160
-0.982767, 305, 161, 336, 288
-0.982778, 305, 17, 432, 144
-0.982788, 5, 193, 36, 256
-0.982794, 1, 161, 128, 224
-0.982795, 105, 201, 168, 264
-0.982804, 9, 169, 40, 232
-0.982837, 193, 233, 224, 296
-0.982838, 49, 81, 112, 144
-0.982868, 241, 265, 368, 328
-0.982871, 9, 129, 72, 192
-0.982951, 209, 97, 240, 160
-0.983074, 53, 177, 84, 240
-0.983084, 137, 65, 200, 320
-0.98314, 233, 113, 264, 240
-0.983169, 341, 161, 372, 288
-0.983271, 93, 209, 124, 272
-0.983299, 193, 1, 448, 128
-0.983299, 337, 57, 400, 120
-0.98334, 33, 217, 64, 280
-0.983379, 97, 65, 224, 128
-0.983484, 237, 57, 268, 120
-0.983491, 401, 73, 464, 136
-0.983524, 405, 73, 436, 136
-0.983528, 73, 33, 136, 288
-0.983556, 105, 177, 168, 240
-0.983564, 277, 265, 308, 328
-0.983577, 241, 65, 368, 128
-0.983598, 221, 89, 252, 152
-0.983661, 361, 1, 424, 128
-0.983787, 385, 233, 416, 296
-0.983854, 441, 233, 472, 296
-0.983898, 269, 97, 300, 224
-0.983922, 157, 113, 188, 240
-0.983983, 385, 17, 448, 144
-0.984048, 13, 81, 44, 144
-0.984095, 5, 97, 36, 224
-0.984145, 321, 65, 352, 192
-0.984211, 181, 177, 212, 240
-0.984223, 1, 33, 64, 160
-0.984225, 341, 241, 372, 304
-0.984279, 145, 57, 272, 120
-0.984366, 321, 169, 448, 232
-0.984368, 405, 265, 436, 328
-0.98439, 221, 209, 252, 272
-0.984455, 57, 129, 120, 192
-0.984488, 345, 49, 376, 176
-0.984546, 137, 97, 168, 224
-0.984546, 405, 177, 436, 304
-0.984596, 145, 249, 176, 312
-0.984646, 241, 145, 304, 208
-0.984649, 97, 201, 224, 264
-0.984653, 101, 65, 132, 128
-0.984715, 161, 105, 192, 168
-0.984767, 37, 193, 68, 256
-0.984797, 421, 49, 452, 112
-0.984855, 289, 177, 320, 304
-0.984872, 273, 209, 400, 272
-0.984886, 1, 49, 128, 112
-0.984924, 181, 193, 212, 320
-0.985014, 165, 233, 196, 296
-0.985091, 337, 209, 368, 333
-0.985105, 129, 249, 256, 312
-0.985166, 385, 217, 448, 280
-0.985178, 185, 265, 216, 328
-0.985198, 261, 57, 292, 120
-0.985232, 33, 97, 64, 224
-0.985274, 101, 161, 132, 288
-0.985277, 85, 73, 116, 136
-0.985292, 233, 105, 264, 168
-0.985311, 293, 113, 324, 240
-0.985327, 457, 233, 488, 296
-0.98542, 73, 161, 104, 288
-0.985479, 133, 161, 164, 288
-0.985517, 205, 169, 236, 232
-0.985555, 369, 1, 432, 333
-0.98556, 65, 265, 192, 328
-0.985563, 389, 209, 420, 333
-0.985593, 197, 97, 228, 160
-0.985695, 25, 97, 56, 160
-0.985695, 181, 201, 212, 264
-0.98574, 305, 209, 336, 333
-0.985772, 273, 33, 336, 160
-0.985776, 177, 129, 304, 192
-0.985814, 393, 1, 456, 333
-0.985856, 97, 33, 160, 160
-0.985909, 317, 177, 348, 304
-0.985921, 193, 57, 320, 120
-0.986005, 373, 193, 404, 320
-0.986023, 97, 65, 160, 128
-0.986041, 141, 81, 172, 144
-0.986044, 313, 193, 376, 256
-0.986072, 89, 153, 152, 216
-0.986079, 357, 241, 388, 304
-0.986099, 297, 217, 328, 280
-0.986118, 137, 113, 168, 176
-0.986119, 9, 1, 72, 333
-0.986153, 369, 73, 400, 136
-0.98627, 169, 129, 200, 256
-0.986324, 469, 233, 500, 296
-0.986438, 417, 265, 448, 328
-0.986474, 17, 265, 144, 328
-0.986493, 193, 169, 224, 232
-0.986502, 297, 137, 360, 200
-0.986508, 361, 209, 392, 333
-0.986586, 33, 49, 96, 176
-0.986626, 321, 257, 448, 320
-0.986653, 421, 177, 452, 304
-0.986659, 405, 97, 436, 224
-0.986678, 281, 81, 312, 144
-0.986685, 65, 209, 96, 333
-0.986686, 333, 65, 364, 192
-0.986778, 233, 265, 264, 328
-0.98678, 393, 193, 456, 256
-0.986877, 309, 217, 340, 280
-0.986921, 245, 65, 276, 192
-0.986923, 221, 97, 252, 224
-0.986999, 401, 1, 464, 256
-0.98702, 261, 161, 292, 288
-0.987024, 329, 81, 392, 144
-0.987062, 9, 49, 72, 112
-0.987071, 417, 1, 480, 128
-0.987073, 125, 201, 156, 264
-0.98712, 41, 241, 72, 304
-0.987208, 257, 201, 288, 264
-0.987316, 321, 49, 448, 112
-0.987393, 369, 121, 496, 184
-0.987417, 133, 249, 164, 312
-0.987431, 333, 169, 364, 232
-0.987486, 313, 81, 344, 144
-0.987499, 177, 273, 304, 333
-0.987511, 153, 177, 184, 240
-0.987573, 209, 257, 240, 320
-0.987611, 381, 273, 412, 333
-0.987646, 309, 161, 340, 224
-0.987709, 233, 201, 264, 264
-0.987713, 357, 81, 388, 144
-0.987748, 337, 121, 400, 152
-0.987754, 465, 177, 496, 304
-0.987778, 349, 153, 380, 216
-0.987799, 157, 265, 188, 328
-0.987823, 225, 1, 288, 333
-0.987841, 409, 97, 472, 224
-0.987854, 305, 65, 368, 128
-0.987962, 21, 81, 52, 208
-0.987979, 169, 177, 232, 208
-0.988011, 153, 33, 216, 160
-0.988052, 305, 265, 336, 328
-0.988059, 441, 193, 472, 320
-0.988127, 381, 129, 412, 256
-0.988136, 233, 181, 296, 212
-0.98824, 261, 49, 292, 176
-0.988274, 361, 65, 392, 192
-0.988295, 45, 81, 76, 208
-0.988321, 329, 273, 392, 333
-0.988328, 221, 265, 252, 328
-0.988358, 153, 201, 184, 264
-0.98836, 57, 129, 88, 192
-0.988364, 109, 81, 140, 208
-0.988365, 117, 249, 148, 312
-0.988386, 49, 1, 112, 333
-0.988483, 49, 57, 112, 120
-0.988563, 453, 177, 484, 304
-0.988733, 201, 189, 264, 220
-0.988743, 313, 1, 376, 333
-0.988796, 97, 113, 160, 176
-0.988805, 41, 209, 72, 333
-0.98883, 241, 105, 304, 136
-0.988864, 121, 49, 184, 112
-0.988945, 401, 161, 464, 224
-0.988947, 181, 145, 212, 272
-0.988958, 153, 49, 184, 176
-0.988969, 201, 169, 264, 200
-0.988991, 353, 145, 384, 272
-0.989043, 49, 153, 112, 216
-0.989065, 281, 65, 312, 192
-0.989113, 289, 1, 352, 333
-0.989116, 145, 241, 208, 272
-0.989158, 129, 121, 384, 184
-0.989173, 361, 93, 424, 124
-0.989174, 265, 237, 328, 268
-0.989242, 329, 141, 392, 172
-0.989313, 361, 129, 424, 160
-0.989342, 265, 1, 328, 333
-0.989353, 201, 233, 264, 264
-0.989382, 201, 109, 264, 140
-0.989403, 261, 209, 292, 333
-0.989478, 217, 93, 280, 124
-0.989486, 125, 97, 156, 224
-0.989489, 337, 193, 400, 256
-0.989497, 377, 269, 440, 300
-0.989643, 345, 109, 408, 140
-0.989648, 185, 253, 248, 284
-0.989665, 1, 125, 64, 156
-0.989677, 377, 241, 440, 272
-0.989696, 425, 209, 488, 272
-0.989723, 1, 225, 256, 288
-0.989741, 137, 173, 200, 204
-0.989789, 233, 117, 296, 148
-0.989794, 353, 249, 416, 280
-0.989822, 369, 81, 432, 112
-0.989827, 169, 229, 232, 260
-0.989842, 17, 249, 80, 312
-0.989849, 313, 165, 376, 196
-0.989852, 337, 1, 400, 333
-0.989868, 257, 89, 320, 120
-0.989883, 25, 221, 88, 252
-0.989949, 401, 53, 464, 84
-0.989964, 1, 225, 64, 256
-0.989999, 69, 97, 100, 224
-0.99, 105, 249, 168, 280
-0.990016, 289, 173, 352, 204
-0.990031, 281, 113, 312, 240
-0.990031, 349, 209, 380, 333
-0.990066, 241, 237, 304, 268
-0.990088, 177, 189, 240, 220
-0.990092, 73, 217, 136, 248
-0.990094, 17, 113, 80, 144
-0.990101, 25, 125, 88, 156
-0.990111, 337, 237, 400, 268
-0.990126, 241, 249, 304, 280
-0.990134, 361, 141, 424, 172
-0.990141, 217, 245, 280, 276
-0.990144, 225, 89, 480, 152
-0.99019, 49, 125, 112, 156
-0.990208, 433, 241, 496, 272
-0.990217, 421, 33, 452, 160
-0.990226, 313, 245, 376, 276
-0.990251, 377, 281, 440, 312
-0.990252, 169, 241, 232, 272
-0.990264, 1, 181, 64, 212
-0.990304, 169, 165, 232, 196
-0.990308, 1, 209, 64, 240
-0.990338, 9, 237, 72, 268
-0.990353, 41, 109, 104, 140
-0.990363, 377, 105, 440, 136
-0.990373, 225, 81, 288, 112
-0.990411, 121, 73, 184, 104
-0.990439, 329, 177, 392, 208
-0.990466, 281, 253, 344, 284
-0.990469, 105, 221, 168, 252
-0.990473, 129, 229, 192, 260
-0.990475, 321, 105, 384, 136
-0.990481, 385, 69, 448, 100
-0.990516, 49, 213, 112, 244
-0.990526, 257, 77, 320, 108
-0.990533, 233, 169, 296, 200
-0.990543, 97, 237, 160, 268
-0.990558, 369, 217, 496, 280
-0.990565, 141, 49, 172, 176
-0.990568, 1, 169, 64, 200
-0.990607, 369, 193, 432, 256
-0.990612, 73, 249, 136, 280
-0.990626, 385, 253, 448, 284
-0.990657, 289, 237, 352, 268
-0.990657, 209, 121, 272, 152
-0.99067, 137, 185, 200, 216
-0.990688, 425, 33, 488, 96
-0.990696, 185, 97, 216, 224
-0.990711, 161, 253, 224, 284
-0.990722, 33, 233, 96, 264
-0.990753, 321, 153, 384, 184
-0.990754, 401, 233, 464, 264
-0.990773, 281, 161, 344, 192
-0.990785, 57, 233, 120, 264
-0.990808, 425, 145, 488, 272
-0.990838, 265, 185, 328, 216
-0.990847, 337, 273, 400, 304
-0.990866, 409, 245, 472, 276
-0.99087, 1, 193, 64, 224
-0.990887, 337, 193, 464, 256
-0.990905, 97, 265, 160, 328
-0.990922, 129, 293, 192, 324
-0.990945, 165, 65, 196, 192
-0.990996, 433, 229, 496, 260
-0.991006, 89, 113, 152, 144
-0.991017, 361, 181, 424, 212
-0.991035, 33, 81, 288, 144
-0.991051, 265, 101, 328, 132
-0.991055, 377, 117, 440, 148
-0.991058, 105, 1, 168, 333
-0.99108, 217, 269, 280, 300
-0.991089, 81, 125, 144, 156
-0.991091, 1, 97, 64, 128
-0.991095, 1, 157, 64, 188
-0.991124, 241, 193, 304, 224
-0.991148, 129, 169, 384, 232
-0.99115, 389, 17, 420, 144
-0.991156, 145, 149, 208, 180
-0.991163, 177, 109, 240, 140
-0.991166, 377, 229, 440, 260
-0.991174, 153, 297, 216, 328
-0.991182, 49, 201, 112, 232
-0.99119, 113, 273, 240, 333
-0.991225, 305, 89, 368, 120
-0.991226, 65, 113, 128, 144
-0.991239, 33, 137, 96, 168
-0.991248, 1, 121, 500, 184
-0.991257, 185, 265, 248, 296
-0.991268, 409, 257, 472, 288
-0.991284, 193, 85, 256, 116
-0.991288, 313, 257, 376, 288
-0.991295, 345, 261, 408, 292
-0.991307, 9, 145, 72, 176
-0.991316, 417, 121, 480, 184
-0.991334, 161, 121, 224, 152
-0.991344, 25, 201, 88, 232
-0.991417, 329, 161, 360, 288
-0.991427, 385, 133, 448, 164
-0.991431, 137, 161, 200, 192
-0.991435, 113, 261, 176, 292
-0.991453, 161, 93, 224, 124
-0.991465, 113, 109, 176, 140
-0.991476, 337, 93, 400, 124
-0.991486, 81, 81, 112, 208
-0.991488, 25, 177, 88, 208
-0.991511, 377, 53, 440, 84
-0.991512, 97, 97, 128, 224
-0.991525, 233, 49, 264, 176
-0.991544, 217, 257, 280, 288
-0.991546, 281, 89, 344, 120
-0.991565, 293, 65, 324, 192
-0.991566, 25, 249, 88, 280
-0.991571, 361, 69, 424, 100
-0.991594, 25, 93, 88, 124
-0.991596, 81, 69, 144, 100
-0.991599, 1, 249, 256, 312
-0.991602, 345, 81, 408, 112
-0.991625, 305, 49, 336, 176
-0.991631, 129, 129, 192, 160
-0.991648, 337, 165, 400, 196
-0.991658, 137, 253, 200, 284
-0.99166, 241, 221, 304, 252
-0.991672, 193, 97, 256, 128
-0.991701, 1, 73, 64, 104
-0.991728, 337, 225, 400, 256
-0.991733, 105, 293, 168, 324
-0.991742, 113, 177, 176, 208
-0.991775, 153, 1, 216, 333
-0.991807, 209, 97, 240, 224
-0.991815, 369, 153, 496, 216
-0.991841, 129, 193, 384, 256
-0.991928, 57, 81, 88, 208
-0.991993, 393, 73, 424, 104
-0.991999, 253, 105, 284, 136
-0.992033, 81, 209, 112, 333
-0.992051, 369, 97, 400, 128
-0.992067, 225, 153, 480, 216
-0.992077, 49, 49, 176, 112
-0.992106, 249, 93, 280, 124
-0.99211, 361, 109, 392, 140
-0.992119, 97, 233, 352, 296
-0.992132, 369, 41, 496, 104
-0.992133, 33, 105, 288, 168
-0.992184, 57, 49, 120, 176
-0.992189, 193, 1, 320, 128
-0.992191, 381, 81, 412, 112
-0.992207, 257, 241, 500, 304
-0.992217, 261, 81, 292, 112
-0.99228, 129, 97, 384, 160
-0.992295, 417, 1, 480, 333
-0.992321, 413, 245, 444, 276
-0.992331, 1, 193, 256, 256
-0.992338, 73, 1, 136, 333
-0.992341, 257, 245, 288, 276
-0.992343, 433, 245, 464, 276
-0.992343, 377, 109, 408, 140
-0.992378, 221, 169, 252, 200
-0.992388, 301, 261, 332, 292
-0.992406, 233, 109, 264, 140
-0.99241, 1, 221, 32, 252
-0.992419, 1, 49, 32, 176
-0.99242, 381, 93, 412, 124
-0.99243, 177, 173, 208, 204
-0.992445, 225, 185, 256, 216
-0.99246, 69, 113, 100, 144
-0.99246, 349, 117, 380, 148
-0.992461, 405, 61, 436, 92
-0.992463, 373, 121, 404, 152
-0.992491, 149, 245, 180, 276
-0.992494, 181, 233, 212, 264
-0.992508, 289, 241, 320, 272
-0.992526, 389, 109, 420, 140
-0.992527, 241, 181, 272, 212
-0.992532, 25, 177, 56, 208
-0.992565, 245, 117, 276, 148
-0.992566, 373, 137, 404, 168
-0.992568, 397, 237, 428, 268
-0.992575, 233, 85, 264, 116
-0.992586, 177, 33, 240, 160
-0.992587, 201, 173, 232, 204
-0.992592, 193, 181, 320, 212
-0.992601, 357, 241, 388, 272
-0.992603, 321, 165, 352, 196
-0.992604, 1, 89, 32, 120
-0.992605, 165, 145, 196, 176
-0.992616, 5, 177, 36, 208
-0.992625, 237, 233, 268, 264
-0.992632, 337, 245, 368, 276
-0.992633, 409, 49, 440, 80
-0.992637, 145, 177, 272, 208
-0.992638, 277, 237, 308, 268
-0.99264, 237, 97, 268, 128
-0.992649, 229, 245, 260, 276
-0.992653, 413, 233, 444, 264
-0.992655, 213, 185, 244, 216
-0.992659, 369, 85, 400, 116
-0.99266, 377, 241, 408, 272
-0.99266, 165, 229, 196, 260
-0.992662, 393, 85, 424, 116
-0.992663, 217, 253, 248, 284
-0.992664, 261, 93, 292, 124
-0.992665, 389, 129, 420, 160
-0.992667, 269, 177, 300, 208
-0.992667, 405, 73, 436, 104
-0.992676, 161, 177, 192, 208
-0.992682, 221, 109, 252, 140
-0.992683, 265, 105, 296, 136
-0.992685, 245, 249, 276, 280
-0.992685, 197, 229, 228, 260
-0.992694, 17, 157, 48, 188
-0.992697, 5, 165, 36, 196
-0.992698, 277, 249, 308, 280
-0.992698, 313, 241, 344, 272
-0.992702, 189, 169, 220, 200
-0.992706, 137, 225, 168, 256
-0.99271, 41, 217, 72, 248
-0.992711, 1, 209, 32, 240
-0.992715, 57, 121, 88, 152
-0.992719, 425, 233, 456, 264
-0.992719, 217, 233, 248, 264
-0.992721, 393, 61, 424, 92
-0.992723, 21, 217, 52, 248
-0.992724, 105, 241, 136, 272
-0.992724, 173, 189, 204, 220
-0.992734, 97, 221, 128, 252
-0.992736, 325, 153, 356, 184
-0.992739, 201, 1, 264, 333
-0.992746, 169, 249, 200, 280
-0.992746, 301, 249, 332, 280
-0.992753, 153, 229, 184, 260
-0.992759, 137, 73, 168, 104
-0.992763, 193, 253, 224, 284
-0.992768, 309, 85, 340, 116
-0.992769, 53, 221, 84, 252
-0.992775, 325, 237, 356, 268
-0.992777, 85, 241, 116, 272
-0.99278, 89, 209, 120, 240
-0.992786, 309, 161, 340, 192
-0.992788, 25, 229, 56, 260
-0.992789, 1, 169, 256, 232
-0.992798, 289, 261, 320, 292
-0.9928, 237, 193, 268, 224
-0.992801, 137, 237, 168, 268
-0.992803, 5, 233, 36, 264
-0.992808, 285, 193, 316, 224
-0.992812, 397, 265, 428, 296
-0.992813, 105, 209, 136, 240
-0.992814, 445, 249, 476, 280
-0.992815, 445, 237, 476, 268
-0.992819, 373, 257, 404, 288
-0.992825, 385, 273, 416, 304
-0.99283, 349, 105, 380, 136
-0.99283, 65, 217, 96, 248
-0.992836, 85, 121, 116, 152
-0.992837, 117, 237, 148, 268
-0.992838, 425, 257, 456, 288
-0.992839, 69, 125, 100, 156
-0.992844, 245, 169, 276, 200
-0.992851, 1, 121, 32, 152
-0.992853, 233, 169, 264, 200
-0.992854, 5, 189, 36, 220
-0.99286, 29, 125, 60, 156
-0.992863, 313, 253, 344, 284
-0.992867, 289, 177, 320, 208
-0.992868, 229, 265, 260, 296
-0.992869, 205, 245, 236, 276
-0.992875, 393, 249, 424, 280
-0.992877, 97, 41, 224, 104
-0.992881, 165, 165, 196, 196
-0.992882, 145, 257, 176, 288
-0.992886, 17, 101, 48, 132
-0.992886, 381, 285, 412, 316
-0.992888, 185, 157, 216, 188
-0.992896, 301, 237, 332, 268
-0.992899, 41, 189, 72, 220
-0.992899, 153, 77, 184, 108
-0.992903, 233, 121, 264, 152
-0.992915, 249, 17, 312, 144
-0.992916, 205, 109, 236, 140
-0.992916, 61, 233, 92, 264
-0.992917, 177, 297, 208, 328
-0.992919, 345, 257, 376, 288
-0.992921, 41, 229, 72, 260
-0.992957, 1, 137, 256, 200
-0.993002, 257, 177, 500, 240
-0.993023, 177, 1, 240, 333
-0.99316, 225, 129, 480, 192
-0.993245, 257, 89, 272, 152
-0.993266, 383, 81, 398, 144
-0.993292, 425, 33, 488, 288
-0.993299, 1, 97, 500, 160
-0.993398, 161, 257, 416, 320
-0.993529, 197, 97, 228, 224
-0.993688, 1, 201, 500, 264
-0.993707, 257, 165, 384, 196
-0.993756, 193, 217, 448, 280
-0.993767, 193, 193, 320, 224
-0.993777, 97, 145, 352, 208
-0.993777, 369, 265, 496, 328
-0.993806, 373, 97, 388, 160
-0.993808, 321, 137, 448, 168
-0.993846, 145, 189, 272, 220
-0.993929, 1, 169, 500, 232
-0.993971, 257, 177, 384, 208
-0.994003, 9, 209, 24, 272
-0.994028, 1, 1, 128, 128
-0.994045, 81, 225, 208, 256
-0.994052, 263, 81, 278, 144
-0.994059, 333, 145, 348, 208
-0.994085, 321, 117, 448, 148
-0.994107, 367, 105, 382, 168
-0.994128, 241, 233, 256, 296
-0.994165, 307, 241, 322, 304
-0.994167, 1, 217, 128, 248
-0.99422, 177, 245, 304, 276
-0.994238, 179, 145, 194, 208
-0.994249, 125, 49, 156, 176
-0.994251, 145, 233, 272, 264
-0.99428, 15, 209, 30, 272
-0.994314, 233, 241, 248, 304
-0.994346, 129, 1, 192, 333
-0.994371, 269, 81, 284, 144
-0.994394, 433, 241, 448, 304
-0.994404, 381, 105, 396, 168
-0.994411, 145, 109, 272, 140
-0.994411, 339, 145, 354, 208
-0.994429, 225, 65, 480, 128
-0.994457, 419, 241, 434, 304
-0.994465, 405, 65, 420, 128
-0.994472, 29, 217, 44, 280
-0.994476, 241, 257, 368, 288
-0.994478, 65, 1, 320, 128
-0.994489, 227, 233, 242, 296
-0.99449, 1, 73, 500, 136
-0.994566, 193, 225, 208, 288
-0.994576, 209, 85, 336, 116
-0.99458, 427, 233, 442, 296
-0.994582, 257, 105, 384, 136
-0.994593, 373, 17, 404, 144
-0.994604, 259, 249, 274, 312
-0.994625, 279, 249, 294, 312
-0.994639, 43, 105, 58, 168
-0.994642, 165, 145, 180, 208
-0.994662, 251, 97, 266, 160
-0.9947, 205, 233, 220, 296
-0.994746, 299, 241, 314, 304
-0.994777, 65, 121, 192, 152
-0.99484, 97, 57, 352, 120
-0.994869, 129, 245, 256, 276
-0.994901, 1, 233, 500, 296
-0.994911, 121, 217, 136, 280
-0.994924, 315, 233, 330, 296
-0.994927, 97, 109, 224, 140
-0.994934, 269, 241, 284, 304
-0.994936, 17, 129, 144, 160
-0.994954, 247, 73, 262, 136
-0.994954, 393, 73, 408, 136
-0.994966, 17, 109, 144, 140
-0.995, 171, 153, 186, 216
-0.995002, 49, 73, 176, 104
-0.99501, 225, 237, 352, 268
-0.995016, 395, 105, 410, 168
-0.995016, 217, 233, 232, 296
-0.995017, 289, 89, 416, 120
-0.99504, 1, 145, 500, 208
-0.995044, 37, 145, 52, 208
-0.99505, 273, 241, 400, 272
-0.995053, 343, 241, 358, 304
-0.995059, 241, 41, 368, 104
-0.995065, 389, 105, 404, 168
-0.995079, 369, 1, 496, 128
-0.995079, 293, 233, 308, 296
-0.995082, 277, 81, 292, 144
-0.995083, 9, 185, 24, 248
-0.995094, 23, 185, 38, 248
-0.995108, 253, 241, 268, 304
-0.995109, 53, 177, 68, 240
-0.995133, 305, 181, 432, 212
-0.995138, 161, 89, 288, 120
-0.995149, 97, 77, 224, 108
-0.995155, 45, 193, 60, 256
-0.995166, 31, 153, 46, 216
-0.995185, 139, 225, 154, 288
-0.995194, 129, 217, 144, 280
-0.995198, 241, 89, 256, 152
-0.995208, 347, 121, 362, 184
-0.995215, 287, 233, 302, 296
-0.995217, 1, 217, 16, 280
-0.995219, 51, 105, 66, 168
-0.995224, 35, 217, 50, 280
-0.995225, 359, 113, 374, 176
-0.995233, 37, 177, 52, 240
-0.995247, 289, 77, 416, 108
-0.995247, 337, 105, 464, 136
-0.995254, 399, 65, 414, 128
-0.995256, 391, 257, 406, 320
-0.99526, 211, 233, 226, 296
-0.995268, 161, 233, 176, 296
-0.995274, 81, 189, 208, 220
-0.995295, 249, 161, 264, 224
-0.995303, 213, 185, 228, 248
-0.995303, 145, 165, 272, 196
-0.995308, 221, 33, 252, 160
-0.99531, 45, 225, 60, 288
-0.995316, 327, 153, 342, 216
-0.995319, 113, 225, 128, 288
-0.995319, 379, 233, 394, 296
-0.995331, 277, 201, 292, 264
-0.995331, 287, 177, 302, 240
-0.995336, 23, 209, 38, 272
-0.995341, 153, 225, 168, 288
-0.995352, 157, 137, 172, 200
-0.995352, 175, 177, 190, 240
-0.995356, 293, 177, 308, 240
-0.995365, 1, 201, 128, 232
-0.995368, 235, 169, 250, 232
-0.995371, 353, 237, 480, 268
-0.995383, 393, 161, 424, 288
-0.995389, 209, 109, 336, 140
-0.995394, 209, 169, 336, 200
-0.995394, 469, 233, 484, 296
-0.995395, 119, 249, 134, 312
-0.995398, 9, 233, 24, 296
-0.995404, 397, 241, 412, 304
-0.995426, 155, 113, 170, 176
-0.995429, 97, 217, 112, 280
-0.995448, 145, 225, 160, 288
-0.995458, 403, 97, 418, 160
-0.995469, 1, 237, 128, 268
-0.995473, 201, 193, 216, 256
-0.995477, 413, 49, 428, 112
-0.995495, 49, 129, 64, 192
-0.995498, 187, 113, 202, 176
-0.995501, 305, 161, 432, 192
-0.995535, 183, 169, 198, 232
-0.995545, 243, 185, 258, 248
-0.995546, 163, 113, 178, 176
-0.995548, 241, 125, 368, 156
-0.995548, 433, 145, 464, 272
-0.995555, 193, 257, 320, 288
-0.995556, 375, 257, 390, 320
-0.995572, 177, 121, 304, 152
-0.995593, 65, 93, 192, 124
-0.995599, 69, 105, 84, 168
-0.995603, 271, 177, 286, 240
-0.995605, 369, 69, 496, 100
-0.995606, 229, 169, 244, 232
-0.995608, 219, 169, 234, 232
-0.995621, 199, 241, 214, 304
-0.995623, 97, 177, 224, 208
-0.995624, 335, 241, 350, 304
-0.995635, 175, 121, 190, 184
-0.995653, 1, 57, 256, 120
-0.995671, 99, 241, 114, 304
-0.995674, 37, 105, 52, 168
-0.995679, 439, 233, 454, 296
-0.995683, 75, 225, 90, 288
-0.995688, 53, 217, 68, 280
-0.995701, 413, 233, 428, 296
-0.995702, 353, 113, 368, 176
-0.995703, 169, 121, 184, 184
-0.995728, 359, 241, 374, 304
-0.995732, 243, 161, 258, 224
-0.995744, 107, 233, 122, 296
-0.99575, 81, 153, 208, 184
-0.995759, 209, 97, 336, 128
-0.995759, 207, 193, 222, 256
-0.995765, 419, 265, 434, 328
-0.995768, 479, 241, 494, 304
-0.995788, 83, 217, 98, 280
-0.995796, 305, 149, 432, 180
-0.995799, 321, 249, 448, 280
-0.995813, 261, 225, 276, 288
-0.995819, 409, 1, 440, 128
-0.99582, 43, 129, 58, 192
-0.995821, 337, 93, 464, 124
-0.995823, 77, 201, 92, 264
-0.995827, 213, 97, 228, 160
-0.995838, 263, 105, 278, 168
-0.995842, 181, 193, 196, 256
-0.99585, 49, 241, 176, 272
-0.99586, 181, 113, 196, 176
-0.995863, 129, 241, 144, 304
-0.995871, 267, 201, 282, 264
-0.995872, 89, 209, 104, 272
-0.995879, 169, 177, 184, 240
-0.99588, 145, 257, 272, 288
-0.995882, 17, 141, 144, 172
-0.995884, 485, 225, 500, 288
-0.995887, 249, 65, 280, 320
-0.995892, 63, 217, 78, 280
-0.995896, 29, 185, 44, 248
-0.995897, 405, 233, 420, 296
-0.995902, 365, 233, 380, 296
-0.995916, 97, 297, 224, 328
-0.995917, 369, 253, 496, 284
-0.995958, 17, 97, 144, 128
-0.996085, 185, 49, 216, 176
-0.996105, 369, 133, 496, 164
-0.996163, 241, 193, 368, 224
-0.99617, 81, 257, 208, 288
-0.996181, 145, 221, 272, 252
-0.996229, 305, 65, 432, 96
-0.996235, 17, 253, 144, 284
-0.996258, 113, 33, 144, 160
-0.996264, 241, 269, 368, 300
-0.996296, 161, 205, 288, 236
-0.996351, 1, 81, 128, 112
-0.996375, 145, 77, 272, 108
-0.996392, 269, 65, 300, 320
-0.996404, 321, 265, 448, 296
-0.996465, 353, 81, 480, 112
-0.996519, 241, 153, 368, 184
-0.996528, 233, 65, 264, 320
-0.99656, 17, 153, 144, 184
-0.996586, 201, 33, 232, 160
-0.99665, 241, 73, 368, 104
-0.996658, 129, 121, 256, 152
-0.996669, 177, 285, 304, 316
-0.996695, 113, 93, 240, 124
-0.996721, 251, 105, 266, 136
-0.996725, 369, 121, 496, 152
-0.996767, 365, 105, 380, 136
-0.996825, 269, 97, 284, 128
-0.996841, 383, 113, 398, 144
-0.996852, 257, 93, 272, 124
-0.996854, 353, 181, 480, 212
-0.996879, 49, 213, 176, 244
-0.99688, 267, 81, 282, 112
-0.99689, 145, 1, 272, 128
-0.996908, 397, 73, 412, 104
-0.996917, 53, 209, 84, 333
-0.996921, 1, 177, 128, 208
-0.996922, 321, 25, 448, 88
-0.996924, 191, 233, 206, 264
-0.996942, 215, 233, 230, 264
-0.996958, 373, 97, 388, 128
-0.996959, 257, 137, 384, 168
-0.996977, 357, 65, 388, 320
-0.996987, 65, 133, 192, 164
-0.997002, 181, 177, 196, 208
-0.997005, 45, 65, 76, 320
-0.99701, 81, 113, 96, 144
-0.997021, 389, 245, 404, 276
-0.997032, 1, 165, 128, 196
-0.997033, 157, 241, 172, 272
-0.997072, 29, 65, 60, 320
-0.997081, 323, 161, 338, 192
-0.997082, 261, 81, 276, 112
-0.997084, 369, 57, 496, 88
-0.997089, 1, 189, 128, 220
-0.99709, 403, 65, 418, 96
-0.997093, 205, 233, 220, 264
-0.997093, 49, 177, 176, 208
-0.997096, 243, 113, 258, 144
-0.997101, 193, 157, 320, 188
-0.997112, 249, 181, 264, 212
-0.997113, 365, 245, 380, 276
-0.997118, 129, 65, 256, 96
-0.99713, 85, 65, 116, 320
-0.99714, 5, 221, 20, 252
-0.99715, 353, 117, 368, 148
-0.997171, 93, 33, 124, 160
-0.997192, 75, 113, 90, 144
-0.997194, 257, 41, 500, 104
-0.997197, 263, 109, 278, 140
-0.997206, 391, 109, 406, 140
-0.997211, 423, 245, 438, 276
-0.997213, 385, 77, 400, 108
-0.997223, 437, 245, 452, 276
-0.997225, 379, 233, 394, 264
-0.997238, 255, 245, 270, 276
-0.99725, 421, 113, 452, 240
-0.997253, 321, 225, 448, 256
-0.997256, 81, 165, 208, 196
-0.997277, 257, 281, 384, 312
-0.997278, 377, 65, 408, 320
-0.997279, 97, 213, 224, 244
-0.997285, 359, 241, 374, 272
-0.997288, 411, 53, 426, 84
-0.997311, 65, 65, 96, 320
-0.997312, 33, 273, 288, 333
-0.997317, 379, 93, 394, 124
-0.99732, 353, 241, 368, 272
-0.997328, 209, 245, 224, 276
-0.997331, 281, 65, 312, 320
-0.997335, 231, 249, 246, 280
-0.99734, 145, 133, 272, 164
-0.997341, 25, 217, 40, 248
-0.997357, 391, 77, 406, 108
-0.997359, 237, 241, 252, 272
-0.997366, 373, 109, 388, 140
-0.997368, 263, 93, 278, 124
-0.997373, 129, 153, 256, 184
-0.997384, 7, 177, 22, 208
-0.997391, 41, 217, 56, 248
-0.997392, 221, 169, 236, 200
-0.997397, 219, 185, 234, 216
-0.997403, 243, 181, 258, 212
-0.997417, 1, 69, 128, 100
-0.997423, 1, 233, 16, 264
-0.997445, 145, 225, 160, 256
-0.997453, 49, 61, 176, 92
-0.997457, 221, 65, 252, 320
-0.997457, 7, 93, 22, 124
-0.997459, 161, 297, 288, 328
-0.997461, 307, 257, 322, 288
-0.997466, 193, 225, 320, 256
-0.997467, 345, 241, 360, 272
-0.997473, 329, 157, 344, 188
-0.997475, 107, 213, 122, 244
-0.997479, 411, 73, 426, 104
-0.99748, 31, 213, 46, 244
-0.997486, 275, 77, 290, 108
-0.997488, 109, 241, 124, 272
-0.997492, 269, 237, 284, 268
-0.997493, 301, 237, 316, 268
-0.997494, 315, 237, 330, 268
-0.997497, 257, 265, 500, 328
-0.997505, 33, 225, 48, 256
-0.997509, 55, 225, 70, 256
-0.997516, 341, 65, 372, 320
-0.997522, 181, 229, 196, 260
-0.997525, 179, 293, 194, 324
-0.997528, 233, 109, 248, 140
-0.997533, 165, 237, 180, 268
-0.997542, 17, 213, 32, 244
-0.99756, 359, 105, 374, 136
-0.997562, 17, 169, 32, 200
-0.997569, 149, 237, 164, 268
-0.99757, 383, 125, 398, 156
-0.997573, 153, 33, 184, 288
-0.997584, 9, 233, 24, 264
-0.997584, 431, 257, 446, 288
-0.997588, 109, 33, 140, 288
-0.997588, 399, 237, 414, 268
-0.997594, 427, 233, 442, 264
-0.997597, 293, 249, 308, 280
-0.997605, 401, 33, 432, 288
-0.997612, 79, 101, 94, 132
-0.997614, 393, 125, 408, 156
-0.997615, 117, 233, 132, 264
-0.997618, 195, 249, 210, 280
-0.997621, 403, 77, 418, 108
-0.997629, 481, 237, 496, 268
-0.997652, 113, 205, 128, 236
-0.997654, 241, 229, 256, 260
-0.997656, 199, 237, 214, 268
-0.997658, 97, 285, 224, 316
-0.997658, 173, 181, 188, 212
-0.997659, 175, 225, 190, 256
-0.997664, 69, 113, 84, 144
-0.997664, 363, 121, 378, 152
-0.997669, 275, 93, 290, 124
-0.997674, 421, 277, 436, 308
-0.997675, 373, 241, 388, 272
-0.997679, 193, 69, 320, 100
-0.997679, 301, 65, 332, 320
-0.99769, 1, 57, 128, 88
-0.997691, 73, 241, 88, 272
-0.997693, 137, 225, 152, 256
-0.997702, 225, 233, 240, 264
-0.997706, 385, 93, 400, 124
-0.997706, 251, 85, 266, 116
-0.997708, 55, 237, 70, 268
-0.99771, 441, 233, 456, 264
-0.997714, 435, 233, 450, 264
-0.997715, 301, 261, 316, 292
-0.997717, 223, 245, 238, 276
-0.997717, 143, 249, 158, 280
-0.997718, 209, 173, 224, 204
-0.997722, 317, 65, 348, 320
-0.997724, 49, 189, 64, 220
-0.997726, 83, 233, 98, 264
-0.997734, 377, 121, 392, 152
-0.99774, 369, 169, 496, 200
-0.99774, 263, 237, 278, 268
-0.997743, 299, 249, 314, 280
-0.997748, 235, 229, 250, 260
-0.997752, 203, 249, 218, 280
-0.997755, 383, 245, 398, 276
-0.997755, 249, 117, 264, 148
-0.997757, 157, 93, 172, 124
-0.997759, 269, 249, 284, 280
-0.997759, 317, 257, 332, 288
-0.99776, 1, 93, 16, 124
-0.99776, 475, 237, 490, 268
-0.99776, 209, 205, 336, 236
-0.997761, 369, 225, 496, 256
-0.997765, 339, 241, 354, 272
-0.99777, 335, 253, 350, 284
-0.997771, 287, 189, 302, 220
-0.997773, 289, 177, 304, 208
-0.997774, 113, 201, 240, 232
-0.997783, 261, 249, 276, 280
-0.997785, 277, 237, 292, 268
-0.997786, 75, 125, 90, 156
-0.997794, 151, 225, 166, 256
-0.997794, 233, 261, 248, 292
-0.997799, 449, 237, 464, 268
-0.997801, 181, 165, 196, 196
-0.997813, 417, 1, 448, 256
-0.997827, 321, 277, 448, 308
-0.997829, 137, 33, 168, 288
-0.997875, 193, 65, 224, 320
-0.99789, 129, 269, 256, 300
-0.997916, 97, 33, 128, 288
-0.99793, 389, 65, 420, 320
-0.997937, 209, 65, 240, 320
-0.997952, 17, 265, 144, 296
-0.997979, 193, 269, 320, 300
-0.997995, 125, 33, 156, 288
-0.99802, 177, 65, 208, 320
-0.998039, 65, 201, 192, 232
-0.99805, 17, 65, 48, 320
-0.998179, 1, 265, 500, 328
-0.998179, 273, 225, 400, 256
-0.998205, 13, 33, 44, 160
-0.99821, 5, 65, 36, 320
-0.99835, 337, 193, 464, 224
-0.998373, 169, 179, 232, 194
-0.998377, 65, 269, 192, 300
-0.998382, 257, 205, 384, 236
-0.9984, 337, 125, 400, 140
-0.998412, 201, 191, 264, 206
-0.998415, 233, 181, 296, 196
-0.998423, 257, 245, 320, 260
-0.998432, 369, 265, 496, 296
-0.99844, 33, 49, 64, 176
-0.998442, 321, 53, 448, 84
-0.998446, 217, 173, 280, 188
-0.998446, 233, 107, 296, 122
-0.998448, 353, 111, 416, 126
-0.998449, 145, 241, 208, 256
-0.99845, 169, 185, 232, 200
-0.998454, 185, 251, 248, 266
-0.998458, 241, 113, 304, 128
-0.998463, 105, 251, 168, 266
-0.998464, 377, 111, 440, 126
-0.998468, 169, 233, 232, 248
-0.99847, 285, 179, 316, 194
-0.998471, 285, 263, 316, 278
-0.998471, 389, 183, 420, 198
-0.998473, 457, 243, 488, 258
-0.998474, 317, 241, 348, 256
-0.998474, 145, 257, 176, 272
-0.998474, 369, 83, 432, 98
-0.998474, 21, 143, 52, 158
-0.998474, 197, 247, 228, 262
-0.998474, 85, 213, 116, 228
-0.998474, 21, 151, 52, 166
-0.998474, 105, 245, 136, 260
-0.998474, 333, 149, 364, 164
-0.998475, 385, 255, 448, 270
-0.998475, 153, 229, 184, 244
-0.998476, 369, 93, 432, 108
-0.998476, 357, 249, 388, 264
-0.998476, 329, 143, 392, 158
-0.998476, 353, 101, 416, 116
-0.998477, 365, 239, 396, 254
-0.998477, 25, 231, 56, 246
-0.998478, 21, 223, 52, 238
-0.998478, 85, 251, 116, 266
-0.998479, 261, 95, 292, 110
-0.998479, 321, 149, 384, 164
-0.998479, 409, 57, 440, 72
-0.99848, 97, 225, 128, 240
-0.99848, 245, 173, 276, 188
-0.99848, 317, 265, 348, 280
-0.99848, 349, 113, 380, 128
-0.998482, 377, 133, 440, 148
-0.998482, 145, 245, 176, 260
-0.998482, 229, 251, 260, 266
-0.998483, 201, 185, 264, 200
-0.998484, 173, 229, 204, 244
-0.998484, 445, 253, 476, 268
-0.998485, 425, 247, 456, 262
-0.998485, 1, 101, 32, 116
-0.998485, 169, 173, 232, 188
-0.998486, 285, 195, 316, 210
-0.998487, 237, 125, 268, 140
-0.998487, 189, 173, 220, 188
-0.998487, 133, 77, 164, 92
-0.998489, 177, 239, 240, 254
-0.99849, 413, 247, 444, 262
-0.998491, 345, 247, 376, 262
-0.998491, 217, 251, 248, 266
-0.998491, 249, 101, 312, 116
-0.998492, 5, 173, 36, 188
-0.998492, 389, 133, 420, 148
-0.998492, 301, 269, 332, 284
-0.998493, 337, 119, 400, 134
-0.998493, 33, 217, 64, 232
-0.998494, 237, 195, 268, 210
-0.998494, 249, 91, 312, 106
-0.998494, 13, 187, 44, 202
-0.998495, 281, 239, 344, 254
-0.998496, 313, 257, 344, 272
-0.998496, 225, 91, 288, 106
-0.998497, 265, 251, 328, 266
-0.998497, 453, 237, 484, 252
-0.998497, 393, 109, 424, 124
-0.998498, 381, 121, 412, 136
-0.998498, 49, 219, 112, 234
-0.998498, 209, 233, 272, 248
-0.998498, 185, 257, 248, 272
-0.998498, 369, 181, 400, 196
-0.998499, 37, 233, 68, 248
-0.998499, 233, 241, 296, 256
-0.9985, 261, 255, 292, 270
-0.998501, 237, 243, 268, 258
-0.998501, 365, 103, 396, 118
-0.998502, 1, 103, 64, 118
-0.998502, 393, 91, 424, 106
-0.998503, 9, 193, 40, 208
-0.998503, 281, 245, 344, 260
-0.998503, 149, 73, 180, 88
-0.998503, 13, 229, 44, 244
-0.998505, 329, 65, 360, 320
-0.998506, 145, 247, 208, 262
-0.998506, 237, 237, 268, 252
-0.998506, 257, 115, 288, 130
-0.998506, 409, 63, 440, 78
-0.998508, 337, 137, 400, 152
-0.998508, 405, 239, 436, 254
-0.998509, 233, 121, 296, 136
-0.998509, 233, 249, 296, 264
-0.99851, 385, 245, 416, 260
-0.99851, 197, 253, 228, 268
-0.99851, 229, 173, 260, 188
-0.998511, 241, 175, 304, 190
-0.998511, 329, 177, 392, 192
-0.998511, 233, 257, 264, 272
-0.998512, 153, 235, 184, 250
-0.998512, 377, 285, 440, 300
-0.998512, 241, 83, 304, 98
-0.998513, 229, 119, 260, 134
-0.998513, 65, 255, 128, 270
-0.998513, 285, 255, 316, 270
-0.998514, 361, 139, 424, 154
-0.998515, 233, 195, 296, 210
-0.998515, 17, 233, 80, 248
-0.998515, 421, 235, 452, 250
-0.998515, 277, 249, 308, 264
-0.998515, 353, 181, 416, 196
-0.998515, 337, 131, 400, 146
-0.998516, 313, 155, 376, 170
-0.998517, 273, 179, 336, 194
-0.998518, 117, 231, 148, 246
-0.998518, 233, 189, 296, 204
-0.998518, 425, 255, 456, 270
-0.99852, 401, 77, 432, 92
-0.998521, 1, 217, 64, 232
-0.998521, 221, 179, 252, 194
-0.998521, 257, 239, 320, 254
-0.998521, 237, 95, 268, 110
-0.998521, 237, 89, 268, 104
-0.998522, 393, 237, 456, 252
-0.998523, 221, 241, 252, 256
-0.998523, 377, 249, 440, 264
-0.998525, 45, 227, 76, 242
-0.998525, 97, 257, 160, 272
-0.998525, 313, 173, 344, 188
-0.998525, 177, 191, 240, 206
-0.998526, 349, 241, 380, 256
-0.998526, 57, 125, 88, 140
-0.998526, 201, 245, 264, 260
-0.998528, 25, 129, 88, 144
-0.998528, 1, 221, 32, 236
-0.998528, 217, 191, 248, 206
-0.998529, 297, 173, 360, 188
-0.99853, 345, 241, 408, 256
-0.99853, 201, 179, 264, 194
-0.99853, 1, 127, 64, 142
-0.998531, 365, 109, 396, 124
-0.998532, 185, 231, 216, 246
-0.998532, 213, 235, 244, 250
-0.998532, 89, 245, 152, 260
-0.998532, 145, 255, 208, 270
-0.998533, 33, 227, 96, 242
-0.998533, 169, 245, 232, 260
-0.998533, 393, 239, 424, 254
-0.998534, 305, 243, 368, 258
-0.998536, 181, 237, 212, 252
-0.998537, 1, 237, 32, 252
-0.998537, 1, 137, 64, 152
-0.998537, 249, 257, 312, 272
-0.998538, 49, 125, 112, 140
-0.998538, 1, 227, 32, 242
-0.998538, 261, 101, 292, 116
-0.998538, 257, 175, 288, 190
-0.998538, 209, 97, 272, 112
-0.998538, 369, 241, 432, 256
-0.998538, 57, 249, 120, 264
-0.998539, 413, 51, 444, 66
-0.99854, 25, 219, 88, 234
-0.998541, 157, 241, 188, 256
-0.998541, 209, 239, 272, 254
-0.998542, 265, 249, 296, 264
-0.998542, 293, 249, 324, 264
-0.998542, 161, 301, 224, 316
-0.998543, 145, 235, 208, 250
-0.998543, 377, 77, 440, 92
-0.998543, 217, 113, 280, 128
-0.998544, 369, 269, 432, 284
-0.998545, 177, 177, 208, 192
-0.998545, 245, 181, 276, 196
-0.998546, 329, 243, 360, 258
-0.998546, 345, 247, 408, 262
-0.998546, 265, 107, 296, 122
-0.998546, 241, 249, 272, 264
-0.998546, 381, 89, 412, 104
-0.998548, 137, 173, 200, 188
-0.998549, 129, 225, 160, 240
-0.998549, 373, 95, 404, 110
-0.998549, 1, 173, 64, 188
-0.998549, 289, 271, 352, 286
-0.99855, 193, 173, 256, 188
-0.99855, 289, 263, 352, 278
-0.99855, 401, 61, 464, 76
-0.99855, 313, 163, 376, 178
-0.998551, 209, 251, 272, 266
-0.998552, 145, 229, 208, 244
-0.998553, 137, 239, 168, 254
-0.998553, 177, 243, 208, 258
-0.998553, 393, 243, 456, 258
-0.998554, 265, 243, 296, 258
-0.998554, 137, 187, 200, 202
-0.998554, 201, 119, 264, 134
-0.998556, 305, 257, 368, 272
-0.998557, 393, 71, 424, 86
-0.998557, 249, 17, 280, 144
-0.998557, 437, 247, 468, 262
-0.998558, 353, 263, 416, 278
-0.998558, 393, 85, 424, 100
-0.998558, 1, 195, 64, 210
-0.998558, 329, 253, 392, 268
-0.998559, 153, 261, 216, 276
-0.998559, 421, 241, 452, 256
-0.998559, 89, 221, 152, 236
-0.99856, 385, 279, 448, 294
-0.99856, 145, 149, 208, 164
-0.998561, 177, 263, 240, 278
-0.998561, 201, 107, 264, 122
-0.998563, 253, 249, 284, 264
-0.998563, 201, 197, 264, 212
-0.998566, 245, 119, 276, 134
-0.998568, 301, 239, 332, 254
-0.998568, 373, 139, 404, 154
-0.998569, 417, 243, 480, 258
-0.99857, 57, 213, 120, 228
-0.99857, 409, 251, 472, 266
-0.998571, 1, 227, 64, 242
-0.998572, 81, 125, 144, 140
-0.998572, 9, 119, 72, 134
-0.998572, 413, 253, 444, 268
-0.998573, 385, 71, 448, 86
-0.998573, 1, 243, 64, 258
-0.998573, 121, 243, 184, 258
-0.998573, 209, 257, 272, 272
-0.998574, 185, 89, 248, 104
-0.998575, 137, 181, 200, 196
-0.998575, 273, 95, 336, 110
-0.998575, 265, 79, 296, 94
-0.998578, 121, 235, 184, 250
-0.998578, 89, 73, 152, 88
-0.99858, 129, 295, 192, 310
-0.99858, 221, 161, 236, 288
-0.998582, 433, 251, 496, 266
-0.998582, 141, 233, 172, 248
-0.998582, 9, 187, 72, 202
-0.998584, 217, 265, 280, 280
-0.998584, 165, 33, 196, 288
-0.998584, 417, 237, 480, 252
-0.998584, 249, 99, 280, 114
-0.998585, 165, 235, 196, 250
-0.998586, 217, 85, 280, 100
-0.998586, 313, 183, 376, 198
-0.99859, 349, 119, 380, 134
-0.998595, 297, 17, 360, 144
-0.998601, 281, 241, 312, 256
-0.998605, 257, 89, 288, 104
-0.998607, 225, 185, 256, 200
-0.998615, 301, 263, 332, 278
-0.99862, 381, 83, 412, 98
-0.99862, 249, 109, 280, 124
-0.998623, 231, 161, 246, 288
-0.998626, 389, 77, 420, 92
-0.998635, 173, 177, 188, 304
-0.998635, 369, 121, 400, 136
-0.998659, 377, 113, 408, 128
-0.998661, 1, 49, 500, 112
-0.998673, 237, 161, 252, 288
-0.998698, 361, 115, 392, 130
-0.998703, 257, 61, 384, 92
-0.998728, 411, 49, 426, 176
-0.998734, 289, 193, 416, 224
-0.998737, 19, 161, 34, 288
-0.998743, 9, 161, 24, 288
-0.998758, 369, 45, 496, 76
-0.998796, 49, 293, 176, 324
-0.998816, 391, 65, 406, 192
-0.998824, 401, 65, 416, 192
-0.998827, 345, 113, 360, 240
-0.99885, 25, 161, 40, 288
-0.998854, 69, 49, 100, 176
-0.998865, 1, 25, 128, 88
-0.998877, 263, 81, 278, 208
-0.998891, 383, 81, 398, 208
-0.998902, 243, 161, 258, 288
-0.998925, 289, 177, 304, 304
-0.998926, 333, 97, 348, 224
-0.998931, 111, 209, 126, 333
-0.998933, 71, 161, 86, 288
-0.998945, 257, 293, 384, 324
-0.998952, 351, 97, 366, 224
-0.998953, 339, 97, 354, 224
-0.998953, 35, 129, 50, 256
-0.998959, 37, 177, 52, 304
-0.99896, 231, 209, 246, 333
-0.998965, 129, 209, 144, 333
-0.998967, 367, 97, 382, 224
-0.998973, 249, 113, 264, 240
-0.998973, 157, 161, 172, 288
-0.998975, 103, 161, 118, 288
-0.998981, 249, 161, 264, 288
-0.998996, 111, 161, 126, 288
-0.998997, 357, 97, 372, 224
-0.999, 49, 161, 64, 288
-0.999003, 321, 289, 448, 320
-0.999005, 117, 209, 132, 333
-0.999005, 407, 97, 422, 224
-0.999011, 105, 209, 120, 333
-0.999015, 327, 97, 342, 224
-0.999016, 273, 81, 288, 208
-0.999023, 83, 161, 98, 288
-0.999032, 167, 161, 182, 288
-0.999033, 129, 161, 144, 288
-0.999035, 319, 97, 334, 224
-0.999036, 135, 209, 150, 333
-0.999038, 17, 209, 32, 333
-0.999038, 257, 81, 272, 208
-0.99904, 339, 145, 354, 272
-0.999044, 215, 177, 230, 304
-0.999049, 3, 177, 18, 304
-0.999051, 29, 209, 44, 333
-0.999055, 259, 193, 274, 320
-0.999056, 55, 161, 70, 288
-0.999059, 117, 161, 132, 288
-0.99906, 429, 33, 460, 288
-0.999074, 281, 193, 296, 320
-0.999083, 243, 113, 258, 240
-0.999083, 23, 209, 38, 333
-0.999087, 141, 209, 156, 333
-0.999088, 369, 145, 496, 176
-0.999093, 165, 97, 180, 224
-0.999102, 43, 177, 58, 304
-0.999104, 395, 113, 410, 240
-0.999104, 209, 177, 224, 304
-0.999105, 147, 209, 162, 333
-0.999106, 123, 209, 138, 333
-0.999106, 417, 49, 432, 176
-0.999113, 139, 161, 154, 288
-0.999113, 97, 161, 112, 288
-0.999121, 183, 209, 198, 333
-0.999122, 389, 113, 404, 240
-0.999129, 427, 177, 442, 304
-0.99913, 155, 97, 170, 224
-0.999137, 377, 65, 392, 192
-0.999139, 377, 209, 392, 333
-0.999144, 241, 1, 368, 128
-0.999146, 77, 161, 92, 288
-0.999147, 251, 65, 266, 192
-0.999148, 341, 209, 356, 333
-0.999158, 237, 209, 252, 333
-0.999161, 221, 209, 236, 333
-0.999164, 383, 193, 398, 320
-0.999165, 7, 97, 22, 224
-0.999165, 89, 161, 104, 288
-0.999167, 407, 209, 422, 333
-0.999167, 65, 161, 80, 288
-0.999174, 209, 141, 336, 172
-0.999178, 129, 53, 256, 84
-0.999181, 243, 209, 258, 333
-0.999184, 47, 97, 62, 224
-0.999185, 147, 161, 162, 288
-0.999201, 269, 209, 284, 333
-0.999203, 27, 81, 42, 208
-0.999203, 173, 113, 188, 240
-0.999208, 1, 97, 16, 224
-0.999209, 291, 113, 306, 240
-0.999213, 263, 33, 278, 160
-0.999217, 295, 193, 310, 320
-0.999218, 319, 161, 334, 288
-0.999218, 345, 161, 360, 288
-0.999224, 325, 145, 340, 272
-0.999226, 353, 161, 368, 288
-0.99923, 313, 209, 328, 333
-0.999231, 417, 177, 432, 304
-0.999234, 231, 113, 246, 240
-0.999236, 413, 97, 428, 224
-0.999238, 333, 145, 348, 272
-0.999239, 253, 209, 268, 333
-0.99924, 297, 113, 312, 240
-0.999241, 353, 209, 368, 333
-0.999247, 313, 81, 328, 208
-0.99925, 237, 97, 252, 224
-0.999251, 199, 177, 214, 304
-0.999257, 183, 161, 198, 288
-0.999258, 329, 193, 344, 320
-0.999259, 75, 209, 90, 333
-0.999261, 399, 209, 414, 333
-0.99927, 83, 209, 98, 333
-0.999271, 15, 113, 30, 240
-0.999272, 99, 209, 114, 333
-0.999272, 167, 209, 182, 333
-0.999286, 305, 209, 320, 333
-0.999287, 179, 97, 194, 224
-0.999288, 319, 209, 334, 333
-0.999289, 209, 297, 336, 328
-0.99929, 41, 129, 56, 256
-0.999291, 1, 293, 128, 324
-0.999292, 279, 81, 294, 208
-0.999294, 129, 81, 144, 208
-0.999296, 149, 81, 164, 208
-0.999298, 361, 49, 376, 176
-0.999299, 361, 17, 392, 144
-0.9993, 365, 209, 380, 333
-0.999309, 461, 177, 476, 304
-0.99931, 401, 113, 416, 240
-0.99931, 143, 97, 158, 224
-0.999312, 161, 209, 176, 333
-0.999315, 177, 57, 304, 88
-0.999315, 193, 193, 208, 320
-0.999316, 345, 65, 360, 192
-0.999318, 137, 97, 152, 224
-0.999318, 391, 177, 406, 304
-0.999339, 145, 33, 272, 96
-0.99941, 165, 17, 196, 144
-0.999416, 17, 277, 144, 308
-0.999435, 97, 33, 352, 96
-0.999436, 65, 49, 192, 80
-0.99947, 353, 157, 480, 188
-0.999588, 353, 213, 480, 244
-0.999637, 369, 289, 496, 320
-0.999669, 175, 229, 190, 244
-0.99967, 63, 233, 78, 248
-0.999671, 291, 269, 306, 284
-0.999671, 31, 235, 46, 250
-0.999671, 55, 217, 70, 232
-0.999672, 219, 177, 234, 192
-0.999672, 29, 229, 44, 244
-0.999673, 237, 257, 252, 272
-0.999673, 417, 243, 432, 258
-0.999673, 453, 245, 468, 260
-0.999673, 407, 77, 422, 92
-0.999673, 261, 175, 276, 190
-0.999673, 371, 99, 386, 114
-0.999674, 407, 239, 422, 254
-0.999674, 309, 239, 324, 254
-0.999674, 393, 265, 408, 280
-0.999674, 101, 241, 116, 256
-0.999674, 269, 241, 284, 256
-0.999676, 143, 249, 158, 264
-0.999676, 15, 231, 30, 246
-0.999677, 481, 239, 496, 254
-0.999677, 377, 139, 392, 154
-0.999678, 473, 239, 488, 254
-0.999678, 9, 231, 24, 246
-0.999678, 165, 149, 180, 164
-0.999678, 383, 125, 398, 140
-0.999678, 321, 163, 336, 178
-0.999679, 301, 267, 316, 282
-0.99968, 155, 251, 170, 266
-0.999681, 125, 227, 140, 242
-0.999684, 401, 71, 416, 86
-0.999685, 385, 81, 400, 96
-0.999685, 255, 105, 270, 120
-0.999686, 427, 247, 442, 262
-0.999686, 181, 179, 196, 194
-0.999687, 309, 261, 324, 276
-0.999688, 35, 219, 50, 234
-0.999688, 253, 243, 268, 258
-0.999689, 399, 249, 414, 264
-0.99969, 293, 239, 308, 254
-0.99969, 35, 229, 50, 244
-0.999691, 151, 233, 166, 248
-0.999692, 259, 241, 274, 256
-0.999692, 45, 225, 60, 240
-0.999693, 197, 237, 212, 252
-0.999693, 303, 239, 318, 254
-0.999693, 359, 245, 374, 260
-0.999693, 371, 141, 386, 156
-0.999694, 23, 227, 38, 242
-0.999694, 345, 241, 360, 256
-0.999694, 109, 247, 124, 262
-0.999695, 409, 59, 424, 74
-0.999695, 217, 239, 232, 254
-0.999695, 129, 291, 144, 306
-0.999696, 49, 233, 64, 248
-0.999696, 235, 249, 250, 264
-0.999698, 255, 87, 270, 102
-0.999699, 7, 103, 22, 118
-0.999699, 389, 257, 404, 272
-0.999699, 375, 243, 390, 258
-0.999701, 1, 227, 16, 242
-0.999701, 307, 245, 322, 260
-0.999702, 1, 247, 16, 262
-0.999704, 165, 237, 180, 252
-0.999704, 433, 255, 448, 270
-0.999704, 267, 79, 282, 94
-0.999704, 427, 253, 442, 268
-0.999706, 421, 277, 436, 292
-0.999707, 289, 191, 304, 206
-0.999708, 271, 95, 286, 110
-0.999709, 247, 181, 262, 196
-0.999711, 275, 81, 290, 96
-0.999712, 7, 223, 22, 238
-0.999713, 355, 121, 370, 136
-0.999713, 141, 227, 156, 242
-0.999714, 197, 249, 212, 264
-0.999714, 287, 241, 302, 256
-0.999717, 385, 111, 400, 126
-0.999717, 365, 243, 380, 258
-0.99972, 29, 217, 44, 232
-0.99972, 339, 241, 354, 256
-0.999721, 157, 239, 172, 254
-0.999721, 373, 113, 388, 128
-0.999722, 395, 73, 410, 88
-0.999722, 437, 249, 452, 264
-0.999723, 55, 227, 70, 242
-0.999723, 377, 93, 392, 108
-0.999724, 355, 253, 370, 268
-0.999726, 391, 113, 406, 128
-0.999728, 351, 243, 366, 258
-0.999728, 389, 247, 404, 262
-0.999728, 277, 239, 292, 254
-0.999729, 379, 119, 394, 134
-0.99973, 179, 297, 194, 312
-0.99973, 259, 93, 274, 108
-0.99973, 211, 241, 226, 256
-0.999732, 191, 241, 206, 256
-0.999732, 243, 119, 258, 134
-0.999732, 417, 237, 432, 252
-0.999734, 299, 245, 314, 260
-0.999735, 267, 89, 282, 104
-0.999736, 391, 79, 406, 94
-0.999737, 261, 85, 276, 100
-0.99974, 403, 65, 418, 80
-0.999741, 205, 245, 220, 260
-0.999742, 183, 235, 198, 250
-0.999744, 219, 183, 234, 198
-0.999745, 241, 249, 256, 264
-0.999746, 277, 249, 292, 264
-0.999748, 205, 237, 220, 252
-0.99975, 441, 33, 472, 288
-0.999752, 385, 119, 400, 134
-0.999752, 365, 249, 380, 264
-0.999752, 211, 233, 226, 248
-0.999754, 9, 237, 24, 252
-0.999754, 255, 249, 270, 264
-0.999756, 307, 255, 322, 270
-0.999756, 363, 109, 378, 124
-0.999757, 219, 189, 234, 204
-0.999761, 263, 113, 278, 128
-0.999765, 1, 239, 16, 254
-0.999771, 369, 105, 384, 120
-0.999777, 235, 241, 250, 256
-0.999782, 269, 105, 284, 120
-0.999784, 357, 115, 372, 130
-0.999787, 1, 233, 16, 248
-0.999791, 383, 87, 398, 102
-0.999791, 49, 25, 176, 88
-0.999793, 379, 113, 394, 128
-0.999794, 261, 99, 276, 114
-0.999799, 373, 119, 388, 134
-0.999885, 363, 115, 378, 130
-1.00001, 457, 65, 488, 320
-1.00001, 469, 65, 500, 320
-1.00014, 53, 33, 84, 160
-1.00018, 281, 17, 312, 144
-1.00018, 81, 33, 112, 160
-1.00037, 193, 33, 320, 96
-1.00052, 1, 33, 256, 96
-1.00054, 433, 17, 464, 144
-1.00079, 317, 17, 348, 144
-1.00091, 193, 17, 448, 80
-1.00094, 321, 1, 384, 128
-1.00099, 433, 97, 496, 224
-1.00118, 133, 1, 164, 128
-1.00134, 121, 1, 184, 128
-1.00136, 153, 1, 184, 128
-1.00144, 453, 129, 484, 256
-1.00145, 433, 97, 464, 224
-1.0015, 201, 1, 264, 128
-1.00151, 369, 17, 496, 80
-1.00164, 433, 49, 496, 176
-1.00166, 293, 17, 324, 144
-1.00175, 257, 17, 384, 80
-1.00192, 469, 49, 500, 176
-1.00197, 49, 1, 112, 128
-1.00201, 65, 9, 320, 72
-1.00225, 1, 25, 500, 88
-1.00229, 261, 1, 292, 128
-1.00241, 469, 129, 500, 256
-1.00258, 453, 65, 484, 192
-1.00283, 97, 17, 224, 80
-1.00284, 145, 1, 272, 64
-1.00285, 209, 9, 336, 72
-1.00308, 33, 1, 160, 64
-1.00326, 305, 1, 432, 64
-1.00332, 73, 1, 136, 128
-1.0035, 1, 1, 500, 64
-1.00515, 25, 1, 88, 128
