1968
-0.186256, 1, 1, 375, 500
-0.337616, 1, 225, 375, 480
-0.372302, 33, 1, 288, 500
-0.404769, 1, 129, 375, 384
-0.430001, 1, 225, 256, 480
-0.448621, 1, 33, 375, 288
-0.482891, 1, 129, 256, 384
-0.497514, 129, 1, 375, 500
-0.584351, 129, 65, 375, 320
-0.619675, 97, 193, 352, 448
-0.649524, 1, 1, 256, 256
-0.815978, 97, 161, 224, 416
-0.822643, 97, 257, 224, 500
-0.828347, 33, 129, 160, 384
-0.833398, 49, 1, 176, 500
-0.842621, 145, 193, 272, 448
-0.852621, 1, 257, 128, 500
-0.854236, 81, 65, 208, 320
-0.858488, 1, 1, 128, 500
-0.86537, 209, 1, 336, 500
-0.866919, 97, 1, 224, 500
-0.869437, 49, 225, 176, 480
-0.875594, 193, 225, 320, 480
-0.8766, 33, 1, 160, 256
-0.876867, 1, 257, 375, 384
-0.878677, 161, 1, 288, 500
-0.879558, 1, 321, 375, 448
-0.882382, 1, 209, 375, 336
-0.884607, 1, 225, 256, 352
-0.885906, 1, 113, 375, 240
-0.887037, 177, 1, 304, 256
-0.889207, 145, 97, 272, 352
-0.898367, 1, 369, 375, 496
-0.899017, 1, 305, 256, 432
-0.899022, 225, 1, 352, 256
-0.900897, 193, 129, 320, 384
-0.901221, 33, 369, 288, 496
-0.902207, 1, 161, 375, 288
-0.903783, 1, 113, 256, 240
-0.909687, 1, 1, 375, 128
-0.912798, 241, 225, 368, 480
-0.914753, 1, 49, 375, 176
-0.915901, 169, 193, 232, 320
-0.915967, 137, 97, 200, 224
-0.916038, 65, 177, 320, 304
-0.918107, 97, 337, 224, 464
-0.918879, 97, 129, 224, 256
-0.918879, 97, 305, 352, 432
-0.922916, 97, 257, 352, 384
-0.923054, 113, 305, 176, 432
-0.924016, 33, 305, 160, 432
-0.924585, 129, 1, 256, 256
-0.926822, 113, 241, 240, 368
-0.928319, 153, 241, 216, 368
-0.928442, 185, 241, 248, 368
-0.928521, 129, 65, 375, 192
-0.928708, 17, 305, 80, 432
-0.929334, 161, 209, 288, 336
-0.929552, 97, 289, 224, 416
-0.930019, 17, 353, 144, 480
-0.931022, 57, 305, 120, 432
-0.931098, 113, 193, 240, 320
-0.931633, 153, 321, 216, 448
-0.932477, 97, 129, 352, 256
-0.935023, 145, 177, 208, 304
-0.936155, 129, 369, 375, 496
-0.936329, 129, 257, 192, 384
-0.936583, 1, 241, 128, 368
-0.937157, 89, 369, 152, 496
-0.937435, 89, 321, 152, 448
-0.937595, 1, 49, 256, 176
-0.938872, 193, 305, 256, 432
-0.938971, 49, 257, 176, 384
-0.940793, 161, 81, 288, 208
-0.94092, 33, 193, 160, 320
-0.940939, 113, 129, 176, 256
-0.941363, 177, 273, 304, 400
-0.942125, 65, 1, 320, 128
-0.942546, 89, 193, 152, 320
-0.94275, 33, 97, 160, 224
-0.942767, 241, 97, 368, 352
-0.94304, 137, 113, 200, 176
-0.943349, 169, 201, 232, 264
-0.943624, 121, 353, 184, 480
-0.944039, 9, 241, 72, 368
-0.944159, 33, 145, 160, 272
-0.944709, 105, 313, 168, 376
-0.944746, 177, 161, 304, 288
-0.944816, 169, 145, 232, 272
-0.944913, 145, 297, 208, 360
-0.945052, 9, 305, 72, 368
-0.94506, 161, 369, 288, 496
-0.94518, 49, 49, 176, 176
-0.945894, 89, 217, 152, 280
-0.946225, 169, 225, 232, 288
-0.947136, 49, 321, 112, 384
-0.947167, 105, 65, 168, 192
-0.947263, 209, 177, 272, 304
-0.947828, 177, 321, 304, 448
-0.948091, 33, 369, 96, 496
-0.948896, 73, 337, 136, 400
-0.949121, 153, 321, 216, 384
-0.950036, 209, 225, 272, 352
-0.951022, 137, 265, 200, 328
-0.951093, 89, 273, 152, 400
-0.951199, 209, 369, 336, 496
-0.951731, 185, 249, 248, 312
-0.951842, 121, 177, 184, 304
-0.951851, 1, 369, 64, 496
-0.952568, 33, 225, 96, 352
-0.95267, 9, 161, 72, 288
-0.952806, 25, 417, 88, 480
-0.953412, 17, 329, 80, 392
-0.953683, 113, 81, 240, 208
-0.953731, 105, 345, 168, 408
-0.954398, 169, 289, 232, 352
-0.954702, 161, 97, 224, 224
-0.954702, 201, 369, 264, 496
-0.95502, 145, 225, 208, 288
-0.955104, 185, 313, 248, 376
-0.95628, 241, 49, 368, 176
-0.956708, 185, 81, 248, 208
-0.956761, 153, 137, 216, 200
-0.956766, 57, 1, 120, 128
-0.957204, 33, 1, 160, 128
-0.957382, 137, 49, 200, 176
-0.957522, 57, 257, 120, 384
-0.957753, 177, 369, 240, 496
-0.957948, 225, 161, 352, 288
-0.958151, 113, 289, 176, 352
-0.958282, 225, 401, 288, 464
-0.958889, 97, 17, 160, 144
-0.959014, 201, 385, 264, 448
-0.959311, 41, 177, 104, 304
-0.959598, 57, 353, 120, 480
-0.959907, 201, 225, 264, 288
-0.959924, 57, 361, 120, 424
-0.960729, 161, 249, 224, 312
-0.960814, 81, 145, 144, 272
-0.960875, 209, 209, 336, 336
-0.960888, 105, 137, 168, 200
-0.960898, 81, 65, 144, 192
-0.960968, 121, 257, 184, 500
-0.961027, 185, 417, 248, 480
-0.96115, 241, 177, 304, 304
-0.96115, 57, 425, 120, 488
-0.96119, 129, 201, 192, 264
-0.961364, 89, 193, 152, 256
-0.961637, 225, 273, 288, 400
-0.961642, 49, 97, 112, 224
-0.961774, 209, 113, 336, 240
-0.96196, 209, 185, 272, 248
-0.96222, 161, 401, 224, 464
-0.962369, 105, 369, 168, 432
-0.962429, 153, 225, 216, 480
-0.962722, 161, 425, 224, 488
-0.962769, 273, 353, 336, 480
-0.962843, 233, 17, 296, 144
-0.962867, 193, 129, 256, 256
-0.963327, 241, 273, 368, 400
-0.963446, 81, 313, 144, 376
-0.96346, 1, 153, 64, 216
-0.963492, 297, 289, 360, 416
-0.963629, 225, 369, 288, 496
-0.963801, 185, 193, 216, 256
-0.96387, 249, 337, 312, 464
-0.96402, 129, 321, 192, 384
-0.964028, 33, 321, 160, 384
-0.964155, 225, 377, 288, 440
-0.964246, 81, 193, 144, 448
-0.964276, 1, 409, 64, 472
-0.964329, 81, 361, 144, 424
-0.964358, 17, 353, 80, 416
-0.964405, 157, 297, 188, 360
-0.964502, 81, 329, 208, 392
-0.96476, 145, 97, 208, 352
-0.964796, 165, 97, 196, 224
-0.964842, 81, 1, 208, 128
-0.964858, 57, 209, 120, 272
-0.964923, 9, 177, 72, 240
-0.964966, 233, 161, 296, 224
-0.96505, 225, 129, 288, 256
-0.965151, 17, 385, 80, 448
-0.96529, 129, 137, 192, 200
-0.965579, 113, 113, 176, 176
-0.965584, 121, 1, 184, 128
-0.965769, 185, 193, 248, 448
-0.965779, 141, 289, 172, 352
-0.965875, 273, 401, 336, 464
-0.965931, 189, 177, 220, 304
-0.966076, 209, 249, 272, 312
-0.966137, 193, 353, 256, 416
-0.96614, 97, 433, 160, 496
-0.966208, 89, 241, 152, 304
-0.966347, 113, 225, 240, 288
-0.96649, 161, 369, 224, 432
-0.966575, 209, 1, 336, 128
-0.966661, 185, 225, 216, 352
-0.966833, 133, 313, 164, 376
-0.966944, 81, 401, 144, 464
-0.967104, 177, 289, 208, 352
-0.967563, 129, 33, 256, 160
-0.967628, 129, 377, 192, 440
-0.967643, 153, 97, 184, 224
-0.967656, 161, 49, 224, 176
-0.967837, 121, 129, 184, 384
-0.967853, 177, 177, 208, 304
-0.967945, 185, 249, 216, 312
-0.967999, 225, 297, 288, 360
-0.968014, 313, 401, 375, 464
-0.968135, 97, 297, 224, 360
-0.968175, 41, 305, 72, 432
-0.968176, 165, 225, 196, 352
-0.968255, 153, 345, 216, 408
-0.968505, 25, 113, 88, 240
-0.968561, 225, 217, 288, 280
-0.968808, 173, 201, 204, 264
-0.968978, 1, 353, 128, 416
-0.969071, 177, 225, 208, 288
-0.969126, 129, 89, 192, 152
-0.969199, 105, 73, 168, 136
-0.969239, 133, 305, 164, 432
-0.969433, 185, 153, 248, 216
-0.969442, 133, 241, 164, 368
-0.969475, 17, 193, 80, 448
-0.96948, 133, 113, 164, 176
-0.969484, 25, 289, 56, 416
-0.96957, 121, 305, 152, 432
-0.969631, 249, 49, 312, 112
-0.969716, 241, 321, 368, 448
-0.969746, 97, 25, 160, 88
-0.969781, 265, 177, 328, 304
-0.969881, 1, 417, 128, 480
-0.969948, 33, 201, 160, 264
-0.970042, 273, 49, 336, 176
-0.970089, 225, 65, 288, 192
-0.970208, 249, 129, 312, 256
-0.970319, 169, 113, 200, 176
-0.970379, 121, 161, 184, 224
-0.970387, 149, 289, 180, 416
-0.970407, 201, 273, 264, 336
-0.970485, 1, 433, 64, 496
-0.970589, 205, 225, 236, 352
-0.97065, 1, 281, 64, 344
-0.970689, 53, 313, 84, 376
-0.970715, 125, 65, 156, 192
-0.970726, 305, 337, 368, 464
-0.970756, 137, 97, 168, 224
-0.970768, 189, 297, 220, 360
-0.970826, 33, 297, 96, 360
-0.970863, 153, 369, 216, 496
-0.970924, 249, 393, 312, 456
-0.970925, 105, 305, 136, 432
-0.970995, 41, 129, 104, 192
-0.971012, 165, 273, 196, 336
-0.971061, 137, 433, 200, 496
-0.971138, 233, 225, 296, 352
-0.971139, 205, 225, 236, 288
-0.971195, 161, 417, 288, 480
-0.971202, 249, 297, 312, 360
-0.971214, 249, 425, 312, 488
-0.971263, 225, 9, 288, 72
-0.971315, 101, 329, 132, 392
-0.971381, 89, 97, 152, 160
-0.971499, 289, 425, 352, 488
-0.971553, 77, 321, 108, 384
-0.971742, 113, 201, 240, 264
-0.971761, 281, 129, 344, 256
-0.971815, 33, 1, 96, 128
-0.971938, 105, 49, 168, 112
-0.97194, 181, 433, 212, 496
-0.971999, 169, 97, 232, 352
-0.972006, 49, 1, 112, 64
-0.972013, 29, 241, 60, 368
-0.972485, 85, 241, 116, 368
-0.972545, 305, 81, 368, 208
-0.972558, 113, 313, 144, 376
-0.972619, 125, 137, 156, 200
-0.972627, 225, 129, 288, 192
-0.9729, 177, 321, 208, 384
-0.972995, 225, 273, 288, 336
-0.972998, 109, 201, 140, 264
-0.973067, 161, 313, 288, 376
-0.973102, 81, 377, 208, 440
-0.973177, 129, 113, 256, 176
-0.973185, 185, 105, 248, 168
-0.973233, 241, 329, 304, 392
-0.973242, 225, 433, 288, 496
-0.973247, 57, 257, 120, 500
-0.973263, 153, 169, 216, 232
-0.973326, 145, 241, 176, 368
-0.973446, 41, 385, 104, 448
-0.973491, 209, 249, 240, 312
-0.973499, 145, 265, 272, 328
-0.973526, 177, 369, 304, 432
-0.973534, 41, 305, 72, 368
-0.973561, 177, 113, 208, 240
-0.973566, 41, 233, 104, 296
-0.973644, 113, 257, 176, 320
-0.973807, 273, 241, 336, 368
-0.973818, 21, 305, 52, 368
-0.973903, 185, 177, 248, 240
-0.973949, 145, 113, 176, 176
-0.973961, 25, 1, 88, 64
-0.973987, 257, 193, 320, 256
-0.974062, 93, 353, 124, 480
-0.974126, 297, 161, 360, 224
-0.97419, 65, 249, 192, 312
-0.974239, 57, 49, 120, 176
-0.974355, 189, 225, 220, 288
-0.974364, 145, 313, 176, 376
-0.974501, 161, 113, 224, 176
-0.974589, 81, 33, 144, 288
-0.974687, 1, 377, 128, 440
-0.974736, 113, 353, 240, 416
-0.974809, 89, 1, 152, 64
-0.97484, 61, 337, 92, 400
-0.974894, 189, 273, 220, 336
-0.974967, 33, 129, 160, 192
-0.974974, 145, 289, 272, 352
-0.97498, 225, 89, 288, 152
-0.975008, 41, 329, 72, 392
-0.975018, 177, 393, 304, 456
-0.975025, 209, 225, 272, 480
-0.975073, 81, 73, 144, 136
-0.975219, 81, 321, 112, 448
-0.975227, 121, 113, 152, 240
-0.975233, 65, 321, 96, 448
-0.975359, 249, 369, 312, 432
-0.975397, 1, 273, 128, 336
-0.975415, 173, 249, 204, 312
-0.975426, 49, 105, 176, 168
-0.975434, 257, 137, 320, 200
-0.975512, 145, 1, 208, 128
-0.975551, 233, 185, 296, 248
-0.975563, 41, 97, 104, 352
-0.975568, 97, 137, 224, 200
-0.975665, 81, 433, 208, 496
-0.975666, 225, 49, 288, 112
-0.975694, 193, 129, 256, 192
-0.975777, 113, 225, 176, 288
-0.97583, 177, 337, 304, 400
-0.975917, 53, 369, 84, 496
-0.975926, 73, 273, 104, 400
-0.975975, 209, 57, 336, 120
-0.975988, 297, 177, 360, 304
-0.976005, 49, 353, 176, 416
-0.976044, 273, 289, 336, 416
-0.976087, 141, 49, 172, 176
-0.976131, 113, 65, 144, 192
-0.976148, 157, 113, 188, 176
-0.976159, 165, 225, 196, 288
-0.976305, 133, 337, 164, 400
-0.976315, 113, 345, 144, 408
-0.9764, 273, 273, 336, 336
-0.976469, 197, 289, 228, 416
-0.976532, 249, 273, 312, 400
-0.976605, 57, 297, 120, 360
-0.97662, 161, 193, 288, 256
-0.976643, 209, 129, 272, 384
-0.976676, 81, 401, 208, 464
-0.976698, 249, 105, 312, 168
-0.976716, 81, 289, 144, 352
-0.976803, 49, 289, 176, 352
-0.976886, 169, 273, 200, 400
-0.976943, 161, 217, 288, 280
-0.976958, 257, 169, 320, 232
-0.977002, 33, 225, 160, 288
-0.977005, 89, 241, 120, 304
-0.97723, 105, 353, 136, 480
-0.977268, 161, 201, 192, 264
-0.977369, 25, 257, 88, 320
-0.977438, 97, 169, 224, 232
-0.977497, 209, 177, 336, 240
-0.977498, 113, 73, 144, 136
-0.97753, 113, 193, 144, 320
-0.977541, 53, 305, 84, 432
-0.977583, 129, 345, 192, 408
-0.977586, 249, 257, 312, 320
-0.977613, 13, 289, 44, 416
-0.977639, 13, 369, 44, 496
-0.977672, 181, 369, 212, 496
-0.977684, 197, 201, 228, 264
-0.977773, 305, 241, 368, 368
-0.977862, 101, 369, 132, 432
-0.977864, 1, 217, 64, 280
-0.977948, 13, 385, 44, 448
-0.978025, 289, 65, 352, 128
-0.978028, 313, 265, 375, 328
-0.978047, 225, 353, 288, 416
-0.97808, 149, 137, 180, 200
-0.978315, 57, 1, 120, 256
-0.978337, 313, 433, 375, 496
-0.978487, 89, 329, 120, 392
-0.978644, 81, 417, 112, 480
-0.978657, 129, 9, 160, 72
-0.978686, 137, 409, 200, 472
-0.978696, 121, 353, 152, 480
-0.978698, 121, 33, 184, 288
-0.9787, 241, 1, 304, 256
-0.978742, 305, 185, 368, 248
-0.97883, 89, 1, 152, 500
-0.97888, 173, 137, 204, 200
-0.97893, 65, 1, 128, 500
-0.978981, 121, 289, 152, 352
-0.978986, 209, 417, 336, 480
-0.978999, 133, 257, 164, 320
-0.979004, 197, 249, 228, 312
-0.979023, 145, 137, 272, 200
-0.979236, 177, 321, 208, 448
-0.979246, 65, 313, 96, 376
-0.979369, 1, 297, 128, 360
-0.979401, 81, 353, 112, 416
-0.979426, 129, 377, 256, 440
-0.979524, 281, 97, 344, 160
-0.979532, 193, 249, 320, 312
-0.979571, 57, 105, 120, 168
-0.979678, 157, 321, 188, 384
-0.979768, 81, 161, 144, 224
-0.979775, 241, 281, 368, 344
-0.979785, 181, 401, 212, 464
-0.979856, 57, 417, 88, 480
-0.979871, 249, 25, 312, 88
-0.979892, 233, 409, 264, 472
-0.979905, 217, 321, 280, 448
-0.979912, 161, 145, 192, 272
-0.979928, 101, 305, 132, 368
-0.980065, 1, 1, 128, 64
-0.980073, 1, 49, 128, 176
-0.980121, 93, 217, 124, 280
-0.980253, 25, 337, 56, 464
-0.980299, 145, 1, 208, 256
-0.980309, 17, 249, 144, 312
-0.980331, 81, 33, 208, 96
-0.980397, 33, 177, 160, 240
-0.980452, 193, 49, 256, 112
-0.980457, 313, 361, 375, 424
-0.980459, 97, 273, 224, 336
-0.980532, 305, 129, 368, 256
-0.980617, 245, 369, 276, 432
-0.98066, 93, 305, 124, 432
-0.980669, 273, 161, 304, 224
-0.980673, 157, 49, 188, 176
-0.980722, 273, 41, 304, 104
-0.980727, 25, 329, 56, 392
-0.980756, 305, 425, 336, 488
-0.980845, 217, 225, 248, 352
-0.980875, 177, 97, 304, 160
-0.980913, 185, 273, 216, 400
-0.980956, 265, 337, 328, 400
-0.980958, 273, 377, 336, 440
-0.980971, 201, 313, 232, 376
-0.981009, 161, 137, 192, 200
-0.981019, 9, 297, 40, 360
-0.981035, 113, 1, 176, 500
-0.981046, 9, 65, 72, 192
-0.981053, 41, 225, 72, 352
-0.981138, 257, 81, 320, 144
-0.981164, 49, 81, 176, 144
-0.981195, 253, 289, 284, 352
-0.981224, 217, 329, 280, 392
-0.981325, 241, 153, 368, 216
-0.981334, 1, 305, 32, 432
-0.9814, 65, 185, 128, 248
-0.981403, 137, 145, 168, 208
-0.981421, 113, 97, 144, 160
-0.981449, 145, 337, 176, 464
-0.981534, 305, 241, 368, 304
-0.981551, 9, 241, 40, 368
-0.981555, 149, 265, 180, 328
-0.98159, 17, 97, 80, 352
-0.981642, 33, 169, 96, 232
-0.981655, 209, 305, 336, 368
-0.981747, 201, 177, 232, 304
-0.981824, 173, 177, 204, 240
-0.981876, 281, 417, 312, 480
-0.981892, 193, 33, 256, 288
-0.981931, 161, 1, 224, 500
-0.982009, 289, 65, 352, 320
-0.982103, 241, 161, 272, 288
-0.982115, 153, 241, 184, 304
-0.982172, 241, 1, 272, 128
-0.982185, 53, 113, 84, 240
-0.982292, 201, 273, 232, 336
-0.982306, 145, 169, 272, 232
-0.982407, 29, 409, 60, 472
-0.982427, 209, 17, 272, 144
-0.982462, 129, 89, 160, 152
-0.982479, 109, 129, 140, 256
-0.9825, 261, 409, 292, 472
-0.982581, 113, 129, 144, 192
-0.982608, 21, 353, 52, 416
-0.982617, 153, 193, 184, 320
-0.982658, 33, 385, 64, 448
-0.98272, 225, 385, 352, 448
-0.98272, 245, 97, 276, 224
-0.982778, 165, 433, 196, 496
-0.982865, 249, 65, 312, 192
-0.983003, 185, 33, 248, 160
-0.983113, 129, 17, 160, 144
-0.98313, 265, 129, 296, 192
-0.983212, 133, 353, 164, 480
-0.983254, 129, 33, 160, 96
-0.983302, 249, 193, 312, 448
-0.983314, 193, 281, 320, 344
-0.983337, 261, 25, 292, 88
-0.983342, 129, 57, 256, 120
-0.983347, 293, 425, 324, 488
-0.983424, 177, 25, 304, 88
-0.983439, 341, 305, 372, 432
-0.983441, 33, 145, 64, 272
-0.983449, 185, 169, 216, 232
-0.983648, 69, 417, 100, 480
-0.983657, 49, 353, 80, 416
-0.983729, 17, 409, 48, 472
-0.983857, 233, 377, 264, 440
-0.983923, 225, 353, 352, 416
-0.984, 273, 393, 304, 456
-0.984027, 93, 401, 124, 464
-0.984079, 33, 153, 160, 216
-0.98411, 193, 433, 224, 496
-0.984122, 237, 369, 268, 496
-0.984131, 337, 145, 368, 272
-0.984156, 241, 129, 368, 192
-0.984158, 317, 433, 348, 496
-0.98417, 185, 97, 216, 160
-0.984187, 301, 161, 332, 224
-0.984199, 25, 281, 56, 344
-0.984263, 169, 49, 200, 176
-0.984326, 229, 1, 260, 128
-0.984379, 129, 89, 256, 152
-0.984425, 33, 1, 96, 500
-0.984441, 289, 353, 320, 480
-0.984455, 33, 201, 64, 264
-0.984456, 265, 97, 296, 224
-0.984457, 285, 57, 316, 120
-0.98446, 289, 49, 320, 176
-0.984522, 341, 337, 372, 400
-0.984526, 53, 1, 84, 64
-0.984579, 189, 129, 220, 256
-0.984591, 113, 1, 240, 64
-0.98462, 261, 49, 292, 112
-0.984716, 245, 105, 276, 168
-0.984747, 233, 1, 264, 64
-0.984752, 37, 353, 68, 480
-0.984761, 13, 329, 44, 392
-0.984763, 117, 433, 148, 496
-0.984806, 141, 177, 172, 304
-0.984809, 233, 145, 264, 208
-0.98485, 105, 177, 136, 240
-0.984853, 33, 33, 160, 96
-0.984863, 121, 241, 152, 368
-0.984894, 137, 1, 200, 500
-0.984898, 229, 273, 260, 336
-0.984907, 257, 161, 288, 288
-0.984945, 237, 65, 268, 128
-0.98497, 101, 433, 132, 496
-0.985011, 257, 1, 320, 128
-0.985041, 121, 233, 152, 296
-0.985041, 49, 1, 176, 64
-0.985072, 193, 145, 320, 208
-0.985096, 253, 137, 284, 200
-0.985146, 253, 169, 284, 232
-0.985198, 301, 65, 332, 192
-0.985215, 233, 97, 296, 352
-0.985219, 149, 73, 180, 136
-0.985287, 265, 33, 296, 160
-0.985298, 165, 321, 196, 448
-0.985343, 261, 337, 292, 400
-0.985348, 69, 1, 100, 128
-0.985351, 97, 177, 128, 304
-0.985352, 81, 369, 112, 496
-0.985356, 45, 185, 76, 248
-0.985366, 233, 65, 264, 192
-0.985435, 313, 257, 375, 500
-0.98545, 249, 369, 280, 496
-0.985458, 229, 209, 260, 336
-0.985476, 53, 129, 84, 192
-0.985484, 281, 161, 312, 288
-0.985505, 185, 121, 216, 184
-0.985507, 1, 329, 32, 392
-0.985513, 285, 145, 316, 208
-0.985518, 229, 257, 260, 384
-0.985551, 33, 57, 160, 120
-0.985553, 245, 417, 276, 480
-0.985555, 5, 353, 36, 416
-0.98559, 345, 257, 375, 384
-0.985671, 289, 169, 320, 232
-0.985687, 345, 81, 375, 208
-0.985692, 265, 313, 296, 376
-0.985695, 289, 1, 352, 500
-0.985708, 189, 321, 220, 384
-0.985716, 81, 57, 208, 120
-0.985755, 101, 65, 132, 192
-0.985797, 249, 17, 280, 80
-0.985814, 285, 393, 316, 456
-0.985845, 269, 321, 300, 448
-0.985849, 325, 369, 356, 496
-0.98588, 225, 81, 352, 144
-0.985882, 257, 377, 288, 440
-0.985899, 241, 257, 368, 320
-0.985907, 305, 73, 336, 136
-0.985927, 209, 209, 336, 272
-0.985958, 265, 369, 296, 496
-0.986054, 105, 1, 136, 128
-0.986077, 5, 409, 36, 472
-0.986116, 125, 161, 156, 288
-0.986265, 313, 65, 375, 320
-0.986322, 217, 1, 280, 500
-0.986367, 73, 193, 104, 320
-0.986415, 1, 369, 32, 496
-0.986423, 53, 1, 84, 128
-0.986595, 89, 1, 120, 128
-0.986712, 117, 17, 148, 144
-0.986754, 273, 257, 336, 500
-0.986878, 185, 1, 248, 500
-0.987063, 277, 33, 308, 160
-0.987078, 209, 273, 240, 400
-0.987121, 129, 33, 256, 96
-0.987155, 289, 97, 320, 224
-0.987162, 281, 1, 344, 128
-0.987191, 321, 81, 352, 208
-0.987293, 229, 161, 260, 288
-0.987339, 265, 33, 328, 288
-0.987465, 89, 49, 120, 176
-0.987479, 153, 321, 216, 352
-0.98755, 33, 329, 288, 392
-0.987614, 253, 17, 284, 144
-0.987693, 157, 369, 188, 496
-0.987789, 333, 257, 364, 384
-0.987797, 97, 257, 128, 384
-0.987802, 21, 161, 52, 288
-0.987809, 9, 129, 40, 256
-0.987843, 337, 353, 368, 480
-0.987855, 169, 209, 232, 240
-0.987926, 313, 1, 375, 500
-0.987986, 73, 353, 136, 384
-0.988033, 333, 81, 364, 208
-0.988042, 225, 329, 352, 392
-0.988053, 261, 209, 292, 336
-0.988088, 213, 161, 244, 288
-0.988161, 225, 105, 352, 168
-0.988248, 201, 369, 232, 496
-0.988272, 145, 333, 208, 364
-0.988275, 301, 113, 332, 240
-0.988319, 65, 193, 128, 320
-0.988339, 145, 309, 208, 340
-0.988364, 169, 261, 232, 292
-0.98842, 1, 1, 64, 500
-0.988452, 257, 1, 320, 500
-0.988507, 113, 337, 176, 368
-0.988534, 169, 229, 232, 260
-0.988576, 85, 97, 116, 224
-0.988646, 277, 369, 308, 496
-0.988684, 89, 337, 152, 368
-0.988741, 17, 313, 80, 344
-0.988841, 181, 65, 212, 192
-0.988879, 1, 113, 64, 240
-0.988944, 57, 337, 120, 368
-0.988949, 121, 321, 184, 352
-0.989025, 65, 113, 96, 240
-0.989042, 325, 177, 356, 304
-0.989059, 225, 33, 352, 96
-0.989072, 245, 209, 276, 336
-0.989085, 1, 289, 256, 352
-0.989098, 185, 441, 248, 472
-0.989105, 33, 377, 288, 440
-0.989105, 97, 449, 160, 480
-0.98911, 161, 197, 224, 228
-0.989194, 145, 297, 208, 328
-0.989235, 145, 449, 208, 480
-0.989235, 169, 305, 232, 336
-0.989257, 185, 249, 248, 280
-0.989259, 1, 129, 256, 192
-0.989261, 137, 249, 200, 280
-0.989287, 53, 257, 84, 384
-0.989301, 137, 117, 200, 148
-0.989309, 1, 233, 256, 296
-0.989354, 269, 161, 300, 288
-0.989404, 153, 345, 216, 376
-0.989429, 89, 225, 152, 256
-0.989433, 345, 209, 375, 336
-0.989435, 313, 369, 344, 496
-0.989443, 153, 141, 216, 172
-0.989444, 33, 437, 96, 468
-0.989453, 1, 353, 256, 416
-0.989489, 89, 325, 152, 356
-0.989519, 185, 317, 248, 348
-0.989535, 109, 257, 140, 384
-0.989595, 85, 193, 116, 320
-0.989611, 57, 457, 120, 488
-0.989621, 33, 49, 96, 176
-0.989629, 65, 369, 128, 400
-0.989689, 193, 405, 256, 436
-0.989695, 97, 237, 160, 268
-0.989733, 97, 349, 160, 380
-0.989778, 301, 353, 332, 480
-0.98978, 161, 437, 224, 468
-0.989782, 97, 305, 352, 368
-0.989788, 201, 417, 264, 448
-0.989809, 193, 377, 256, 408
-0.989849, 237, 305, 268, 432
-0.989866, 273, 409, 336, 440
-0.989872, 105, 381, 168, 412
-0.989909, 201, 453, 264, 484
-0.989909, 17, 353, 80, 384
-0.989947, 305, 17, 368, 144
-0.989963, 225, 417, 288, 448
-0.989968, 129, 145, 192, 176
-0.989974, 161, 285, 224, 316
-0.990031, 49, 161, 80, 288
-0.990044, 185, 469, 248, 500
-0.990049, 121, 309, 184, 340
-0.990076, 137, 273, 200, 304
-0.990101, 73, 445, 136, 476
-0.990132, 201, 389, 264, 420
-0.990139, 105, 137, 168, 168
-0.990158, 129, 225, 192, 256
-0.990162, 129, 213, 192, 244
-0.990171, 49, 349, 112, 380
-0.990183, 161, 241, 224, 272
-0.990184, 25, 425, 88, 456
-0.990185, 121, 297, 184, 328
-0.990207, 185, 197, 248, 228
-0.990209, 89, 209, 152, 240
-0.990237, 201, 273, 264, 304
-0.990269, 285, 257, 316, 384
-0.990269, 193, 233, 256, 264
-0.990279, 9, 301, 72, 332
-0.990284, 193, 429, 256, 460
-0.990288, 225, 405, 288, 436
-0.990316, 193, 333, 256, 364
-0.990334, 225, 369, 256, 496
-0.990346, 225, 453, 288, 484
-0.990353, 153, 129, 216, 160
-0.990375, 17, 341, 80, 372
-0.990385, 161, 389, 224, 420
-0.990385, 33, 329, 96, 360
-0.990401, 177, 273, 240, 304
-0.990462, 185, 289, 248, 320
-0.990473, 161, 413, 224, 444
-0.99048, 201, 261, 264, 292
-0.99048, 121, 349, 184, 380
-0.990492, 225, 65, 288, 96
-0.990552, 97, 301, 160, 332
-0.990553, 1, 345, 375, 408
-0.990582, 193, 357, 256, 388
-0.990608, 209, 213, 272, 244
-0.990612, 249, 409, 312, 440
-0.990613, 57, 13, 120, 44
-0.990625, 161, 377, 224, 408
-0.990632, 9, 329, 72, 360
-0.990635, 1, 313, 375, 376
-0.990669, 105, 161, 168, 192
-0.990687, 65, 325, 128, 356
-0.990695, 9, 373, 72, 404
-0.990697, 225, 465, 288, 496
-0.990715, 161, 1, 288, 64
-0.990774, 305, 161, 368, 416
-0.990788, 185, 141, 248, 172
-0.990794, 129, 425, 375, 488
-0.990804, 9, 1, 72, 32
-0.990809, 161, 401, 224, 432
-0.990845, 57, 469, 120, 500
-0.99085, 209, 189, 272, 220
-0.990856, 137, 285, 200, 316
-0.990856, 161, 425, 224, 456
-0.990861, 1, 449, 64, 480
-0.990886, 185, 125, 248, 156
-0.990889, 41, 317, 104, 348
-0.990894, 89, 393, 152, 424
-0.990901, 281, 161, 344, 416
-0.990905, 97, 25, 160, 56
-0.990909, 33, 365, 96, 396
-0.99091, 121, 201, 184, 232
-0.990911, 1, 257, 256, 320
-0.990911, 1, 105, 128, 168
-0.990913, 225, 173, 288, 204
-0.99092, 193, 345, 256, 376
-0.990943, 9, 389, 72, 420
-0.990949, 209, 201, 272, 232
-0.99095, 249, 97, 312, 128
-0.990959, 33, 401, 288, 464
-0.990959, 273, 421, 336, 452
-0.990968, 217, 1, 280, 256
-0.990974, 97, 129, 352, 192
-0.990989, 89, 369, 152, 400
-0.991001, 129, 105, 192, 136
-0.991002, 65, 213, 128, 244
-0.991005, 137, 237, 200, 268
-0.991006, 209, 249, 272, 280
-0.991015, 225, 161, 288, 192
-0.991016, 129, 129, 192, 160
-0.991031, 249, 53, 312, 84
-0.991035, 225, 433, 288, 464
-0.991076, 33, 457, 96, 488
-0.991086, 313, 465, 375, 496
-0.991092, 185, 185, 248, 216
-0.991102, 177, 453, 240, 484
-0.991123, 217, 225, 280, 256
-0.991158, 225, 93, 288, 124
-0.991159, 129, 385, 192, 416
-0.991164, 97, 1, 160, 32
-0.991175, 281, 469, 344, 500
-0.991192, 169, 1, 232, 256
-0.991194, 217, 237, 280, 268
-0.991196, 49, 425, 112, 456
-0.991202, 17, 1, 80, 256
-0.991207, 169, 333, 232, 364
-0.991216, 225, 113, 288, 144
-0.991228, 185, 113, 248, 144
-0.991236, 145, 185, 208, 216
-0.991238, 73, 433, 136, 464
-0.991245, 313, 401, 375, 432
-0.991599, 1, 209, 256, 272
-0.991831, 1, 225, 375, 288
-0.991859, 33, 433, 288, 496
-0.991875, 1, 169, 256, 232
-0.991931, 185, 441, 216, 472
-0.99195, 241, 233, 368, 296
-0.992003, 97, 353, 352, 416
-0.992065, 97, 329, 224, 360
-0.992087, 185, 197, 216, 228
-0.992092, 105, 349, 136, 380
-0.992116, 145, 301, 176, 332
-0.992145, 185, 453, 216, 484
-0.992156, 161, 305, 192, 336
-0.992179, 149, 333, 180, 364
-0.9922, 177, 325, 208, 356
-0.992211, 177, 305, 208, 336
-0.992218, 165, 317, 196, 348
-0.992223, 209, 249, 240, 280
-0.992241, 81, 449, 208, 480
-0.992242, 137, 337, 168, 368
-0.992264, 185, 257, 216, 288
-0.992268, 121, 333, 152, 364
-0.992278, 181, 209, 212, 240
-0.992327, 121, 321, 152, 352
-0.992329, 181, 469, 212, 500
-0.992332, 97, 281, 352, 344
-0.992348, 193, 213, 224, 244
-0.992352, 173, 197, 204, 228
-0.992364, 185, 233, 216, 264
-0.992366, 165, 241, 196, 272
-0.992369, 201, 229, 232, 260
-0.992388, 93, 337, 124, 368
-0.992406, 173, 229, 204, 260
-0.992408, 133, 317, 164, 348
-0.992428, 97, 361, 128, 392
-0.992449, 97, 257, 352, 320
-0.99246, 77, 445, 108, 476
-0.992471, 193, 245, 224, 276
-0.992474, 1, 265, 375, 328
-0.992476, 17, 385, 48, 416
-0.992496, 81, 353, 112, 384
-0.992506, 161, 297, 176, 360
-0.992514, 109, 337, 140, 368
-0.992517, 213, 233, 244, 264
-0.99253, 1, 385, 375, 448
-0.992542, 189, 317, 220, 348
-0.992549, 1, 289, 375, 352
-0.992561, 25, 309, 56, 340
-0.992566, 125, 141, 156, 172
-0.992592, 93, 249, 124, 280
-0.992608, 101, 449, 132, 480
-0.992611, 165, 213, 196, 244
-0.99262, 153, 321, 184, 352
-0.992621, 169, 129, 200, 160
-0.992629, 189, 305, 220, 336
-0.992633, 173, 141, 204, 172
-0.992635, 93, 349, 124, 380
-0.992638, 181, 289, 196, 352
-0.992648, 177, 245, 208, 276
-0.992661, 105, 209, 136, 240
-0.992662, 153, 297, 168, 360
-0.992662, 105, 325, 136, 356
-0.992663, 173, 265, 204, 296
-0.992666, 169, 117, 200, 148
-0.992675, 113, 373, 144, 404
-0.992692, 85, 265, 116, 296
-0.992702, 181, 429, 212, 460
-0.992706, 161, 333, 192, 364
-0.992711, 65, 425, 96, 456
-0.992711, 229, 437, 260, 468
-0.992719, 165, 293, 196, 324
-0.99273, 113, 449, 144, 480
-0.99273, 301, 445, 332, 476
-0.992735, 33, 421, 64, 452
-0.99274, 241, 469, 272, 500
-0.992745, 61, 361, 92, 392
-0.992746, 125, 101, 156, 132
-0.992749, 145, 305, 160, 368
-0.992756, 173, 441, 204, 472
-0.992761, 189, 289, 220, 320
-0.992776, 81, 329, 112, 360
-0.992784, 225, 469, 256, 500
-0.992789, 45, 357, 76, 388
-0.99279, 161, 145, 192, 176
-0.99279, 109, 221, 140, 252
-0.992801, 181, 413, 212, 444
-0.992801, 129, 129, 160, 160
-0.992804, 185, 277, 216, 308
-0.992807, 289, 441, 320, 472
-0.992815, 53, 429, 84, 460
-0.992818, 113, 129, 144, 160
-0.992819, 17, 333, 48, 364
-0.992824, 145, 113, 176, 144
-0.992829, 137, 141, 168, 172
-0.992829, 177, 337, 208, 368
-0.99283, 101, 377, 132, 408
-0.992832, 273, 409, 304, 440
-0.992838, 161, 277, 192, 308
-0.992841, 29, 377, 60, 408
-0.992843, 229, 449, 260, 480
-0.992845, 177, 293, 208, 324
-0.992846, 187, 433, 202, 496
-0.992846, 141, 289, 172, 320
-0.992849, 49, 317, 80, 348
-0.992852, 113, 229, 240, 260
-0.992853, 241, 457, 272, 488
-0.992857, 229, 425, 260, 456
-0.992859, 113, 209, 240, 240
-0.992862, 97, 201, 352, 264
-0.992863, 133, 381, 164, 412
-0.992867, 85, 365, 116, 396
-0.992867, 121, 245, 152, 276
-0.992868, 189, 217, 204, 280
-0.992871, 301, 417, 332, 448
-0.992872, 113, 109, 144, 140
-0.992873, 297, 461, 328, 492
-0.992874, 209, 261, 240, 292
-0.992874, 261, 469, 292, 500
-0.992875, 129, 25, 160, 56
-0.99288, 305, 429, 336, 460
-0.992882, 183, 113, 198, 176
-0.992884, 133, 305, 164, 336
-0.992886, 141, 349, 172, 380
-0.992886, 77, 429, 108, 460
-0.992888, 109, 141, 140, 172
-0.992892, 37, 329, 68, 360
-0.992893, 161, 449, 192, 480
-0.992898, 85, 461, 116, 492
-0.992903, 17, 365, 48, 396
-0.992905, 65, 105, 320, 168
-0.992906, 201, 313, 232, 344
-0.992907, 129, 117, 160, 148
-0.992911, 125, 357, 156, 388
-0.992916, 97, 349, 224, 380
-0.992919, 193, 329, 224, 360
-0.99292, 33, 341, 64, 372
-0.992924, 113, 309, 240, 340
-0.99293, 97, 389, 128, 420
-0.992936, 149, 141, 180, 172
-0.992951, 289, 417, 320, 448
-0.992954, 25, 1, 56, 32
-0.992957, 289, 429, 320, 460
-0.992958, 125, 345, 156, 376
-0.992959, 197, 269, 228, 300
-0.992961, 277, 433, 308, 464
-0.992963, 265, 421, 296, 452
-0.992964, 65, 373, 96, 404
-0.992966, 5, 317, 36, 348
-0.99297, 245, 409, 276, 440
-0.99297, 13, 465, 44, 496
-0.992974, 97, 153, 352, 216
-0.992975, 341, 357, 372, 388
-0.992976, 317, 449, 348, 480
-0.992977, 61, 321, 92, 352
-0.992977, 113, 69, 144, 100
-0.992977, 25, 469, 56, 500
-0.992978, 57, 441, 88, 472
-0.992993, 187, 193, 202, 256
-0.993014, 33, 333, 160, 364
-0.993072, 197, 185, 212, 248
-0.993128, 97, 57, 352, 120
-0.993202, 137, 113, 152, 176
-0.993257, 129, 401, 375, 464
-0.993318, 173, 297, 188, 360
-0.993348, 33, 321, 160, 352
-0.993359, 1, 113, 375, 176
-0.993361, 181, 233, 196, 296
-0.993369, 1, 81, 128, 144
-0.993399, 129, 329, 375, 392
-0.99348, 1, 445, 128, 476
-0.993481, 195, 433, 210, 496
-0.99355, 33, 349, 160, 380
-0.99356, 103, 329, 118, 392
-0.993609, 139, 313, 154, 376
-0.993637, 67, 337, 82, 400
-0.993643, 97, 197, 224, 228
-0.993649, 129, 233, 375, 296
-0.993663, 187, 305, 202, 368
-0.993668, 241, 9, 368, 72
-0.993705, 97, 33, 352, 96
-0.993705, 21, 305, 36, 368
-0.993724, 1, 365, 128, 396
-0.993748, 175, 201, 190, 264
-0.993796, 113, 241, 240, 272
-0.99382, 139, 137, 154, 200
-0.993845, 187, 257, 202, 320
-0.993854, 61, 313, 76, 376
-0.993874, 167, 297, 182, 360
-0.993924, 33, 221, 160, 252
-0.993953, 205, 193, 220, 256
-0.993954, 97, 361, 224, 392
-0.993979, 199, 209, 214, 272
-0.993997, 181, 201, 196, 264
-0.994006, 191, 281, 206, 344
-0.994013, 81, 461, 208, 492
-0.994035, 145, 325, 272, 356
-0.994039, 129, 177, 375, 240
-0.994054, 49, 305, 64, 368
-0.994087, 97, 117, 224, 148
-0.994093, 197, 305, 212, 368
-0.994094, 17, 381, 144, 412
-0.994123, 129, 377, 375, 440
-0.994133, 133, 321, 148, 384
-0.994135, 97, 377, 224, 408
-0.994148, 1, 457, 128, 488
-0.994152, 161, 113, 176, 176
-0.994182, 129, 253, 256, 284
-0.994204, 161, 201, 288, 232
-0.994221, 55, 313, 70, 376
-0.994235, 149, 113, 164, 176
-0.994249, 161, 469, 288, 500
-0.994266, 143, 113, 158, 176
-0.994269, 33, 305, 48, 368
-0.994285, 125, 313, 140, 376
-0.994288, 1, 57, 375, 120
-0.99429, 65, 81, 320, 144
-0.994306, 77, 321, 92, 384
-0.994308, 93, 321, 108, 384
-0.994309, 155, 113, 170, 176
-0.99432, 177, 113, 192, 176
-0.994358, 113, 337, 128, 400
-0.994367, 129, 137, 144, 200
-0.994383, 171, 113, 186, 176
-0.994384, 97, 145, 224, 176
-0.994388, 145, 297, 272, 328
-0.994398, 1, 285, 128, 316
-0.994408, 1, 201, 375, 264
-0.994422, 177, 417, 304, 448
-0.994424, 67, 313, 82, 376
-0.99446, 211, 217, 226, 280
-0.994469, 177, 373, 304, 404
-0.99449, 177, 405, 304, 436
-0.994497, 81, 269, 208, 300
-0.994507, 155, 321, 170, 384
-0.994524, 81, 389, 208, 420
-0.994529, 145, 433, 272, 464
-0.994539, 27, 313, 42, 376
-0.994556, 237, 41, 252, 104
-0.99456, 27, 281, 42, 344
-0.994568, 245, 1, 260, 64
-0.994589, 33, 233, 160, 264
-0.994599, 33, 209, 160, 240
-0.994608, 171, 273, 186, 336
-0.99463, 33, 1, 288, 64
-0.994644, 177, 349, 304, 380
-0.994649, 145, 269, 272, 300
-0.99465, 131, 113, 146, 176
-0.994681, 1, 273, 128, 304
-0.994716, 1, 393, 128, 424
-0.994746, 195, 233, 210, 296
-0.994792, 33, 129, 160, 160
-0.994796, 149, 145, 164, 208
-0.994798, 145, 337, 160, 400
-0.994813, 145, 337, 272, 368
-0.994814, 257, 73, 272, 136
-0.994825, 1, 25, 375, 88
-0.994825, 49, 105, 176, 136
-0.994831, 105, 361, 120, 424
-0.99486, 119, 313, 134, 376
-0.994898, 161, 217, 288, 248
-0.9949, 15, 313, 30, 376
-0.994907, 79, 417, 94, 480
-0.994933, 113, 297, 128, 360
-0.994936, 43, 305, 58, 368
-0.994937, 55, 345, 70, 408
-0.994942, 189, 161, 220, 416
-0.994953, 217, 225, 232, 288
-0.994972, 277, 41, 292, 104
-0.994981, 161, 445, 288, 476
-0.994986, 117, 193, 132, 256
-0.995019, 177, 253, 304, 284
-0.995028, 81, 433, 208, 464
-0.995041, 235, 409, 250, 472
-0.995052, 97, 293, 224, 324
-0.995063, 197, 281, 212, 344
-0.995067, 117, 369, 132, 432
-0.995071, 17, 469, 144, 500
-0.995071, 109, 193, 140, 448
-0.995097, 161, 457, 288, 488
-0.995102, 181, 257, 196, 320
-0.995107, 129, 345, 144, 408
-0.995117, 19, 385, 34, 448
-0.995122, 263, 169, 278, 232
-0.995127, 187, 137, 202, 200
-0.995131, 177, 389, 304, 420
-0.995132, 1, 433, 128, 464
-0.995153, 177, 125, 304, 156
-0.995156, 19, 353, 34, 416
-0.995172, 155, 137, 170, 200
-0.995178, 81, 281, 208, 312
-0.995195, 81, 257, 208, 288
-0.995199, 223, 241, 238, 304
-0.995203, 91, 257, 106, 320
-0.995209, 61, 337, 76, 400
-0.995213, 209, 69, 336, 100
-0.99523, 27, 369, 42, 432
-0.995234, 51, 137, 66, 200
-0.995237, 33, 265, 48, 328
-0.99524, 201, 193, 232, 448
-0.995258, 135, 345, 150, 408
-0.995274, 1, 409, 375, 472
-0.995278, 165, 137, 180, 200
-0.995281, 133, 89, 148, 152
-0.995285, 73, 409, 88, 472
-0.995294, 97, 209, 112, 272
-0.995295, 263, 113, 278, 176
-0.9953, 125, 97, 140, 160
-0.995306, 169, 201, 184, 264
-0.995315, 143, 265, 158, 328
-0.995331, 97, 129, 224, 160
-0.995334, 87, 321, 102, 384
-0.995335, 197, 409, 212, 472
-0.995337, 49, 369, 176, 400
-0.995338, 273, 169, 288, 232
-0.995359, 1, 417, 128, 448
-0.995359, 177, 109, 304, 140
-0.995363, 65, 309, 192, 340
-0.995366, 209, 465, 336, 496
-0.995396, 137, 289, 152, 352
-0.995398, 203, 305, 218, 368
-0.995414, 253, 153, 268, 216
-0.99542, 177, 361, 304, 392
-0.995421, 161, 137, 288, 168
-0.995429, 243, 73, 258, 136
-0.995429, 33, 141, 160, 172
-0.995441, 129, 417, 256, 448
-0.995443, 251, 89, 266, 152
-0.995448, 33, 197, 160, 228
-0.995464, 269, 97, 284, 160
-0.99547, 117, 65, 132, 128
-0.995471, 87, 409, 102, 472
-0.995475, 161, 313, 288, 344
-0.995475, 283, 49, 298, 112
-0.995492, 253, 297, 268, 360
-0.995501, 247, 161, 262, 224
-0.995507, 161, 285, 288, 316
-0.995508, 11, 337, 26, 400
-0.99552, 251, 41, 266, 104
-0.99553, 99, 353, 114, 416
-0.995531, 201, 233, 216, 296
-0.995549, 203, 273, 218, 336
-0.995554, 167, 321, 182, 384
-0.995571, 259, 137, 274, 200
-0.995573, 177, 97, 208, 352
-0.995575, 103, 217, 118, 280
-0.995581, 191, 329, 206, 392
-0.99559, 209, 53, 336, 84
-0.995595, 241, 109, 368, 140
-0.995602, 1, 169, 375, 232
-0.995605, 129, 65, 160, 320
-0.995632, 193, 257, 208, 320
-0.995635, 167, 233, 182, 296
-0.995646, 1, 1, 375, 64
-0.995648, 239, 1, 254, 64
-0.995674, 1, 137, 375, 200
-0.995679, 151, 265, 166, 328
-0.995687, 133, 9, 148, 72
-0.995708, 91, 233, 106, 296
-0.995714, 181, 137, 196, 200
-0.995715, 123, 353, 138, 416
-0.995716, 165, 161, 196, 416
-0.995718, 263, 289, 278, 352
-0.995718, 179, 177, 194, 240
-0.995721, 267, 33, 282, 96
-0.995729, 243, 385, 258, 448
-0.995743, 43, 329, 58, 392
-0.995743, 273, 145, 288, 208
-0.99575, 269, 57, 284, 120
-0.995755, 259, 401, 274, 464
-0.995777, 225, 421, 352, 452
-0.995812, 81, 401, 208, 432
-0.995816, 97, 185, 224, 216
-0.99585, 209, 437, 336, 468
-0.995876, 129, 161, 160, 416
-0.995912, 1, 433, 375, 496
-0.995923, 133, 257, 164, 500
-0.995928, 65, 413, 192, 444
-0.99596, 193, 241, 320, 272
-0.995961, 153, 129, 184, 384
-0.995966, 209, 453, 336, 484
-0.995968, 161, 229, 288, 260
-0.996049, 17, 253, 144, 284
-0.996052, 1, 5, 128, 36
-0.996071, 129, 389, 256, 420
-0.996073, 177, 189, 304, 220
-0.996087, 49, 297, 176, 328
-0.996087, 1, 405, 128, 436
-0.996117, 49, 1, 176, 32
-0.996135, 1, 41, 256, 104
-0.996183, 129, 405, 256, 436
-0.99619, 17, 309, 144, 340
-0.996215, 213, 225, 244, 480
-0.996281, 93, 225, 124, 480
-0.996291, 141, 129, 172, 384
-0.996294, 25, 225, 56, 480
-0.996297, 173, 257, 204, 500
-0.996308, 1, 89, 375, 152
-0.996336, 117, 65, 148, 320
-0.996367, 81, 69, 208, 100
-0.996371, 241, 181, 368, 212
-0.99639, 81, 29, 208, 60
-0.996398, 209, 93, 336, 124
-0.996399, 161, 257, 192, 500
-0.99641, 37, 257, 68, 500
-0.996422, 241, 345, 368, 376
-0.996423, 187, 453, 202, 484
-0.996491, 81, 257, 112, 500
-0.996503, 81, 41, 208, 72
-0.996509, 81, 165, 208, 196
-0.996522, 241, 317, 368, 348
-0.996524, 241, 377, 368, 408
-0.996536, 165, 65, 196, 320
-0.996574, 103, 349, 118, 380
-0.996578, 129, 105, 256, 136
-0.996578, 65, 245, 192, 276
-0.99658, 215, 229, 230, 260
-0.996595, 129, 93, 256, 124
-0.996606, 49, 93, 176, 124
-0.996636, 225, 81, 352, 112
-0.996652, 225, 133, 352, 164
-0.996683, 33, 185, 160, 216
-0.996688, 33, 17, 160, 48
-0.996692, 49, 117, 176, 148
-0.996731, 225, 361, 352, 392
-0.996732, 187, 441, 202, 472
-0.996732, 33, 69, 160, 100
-0.996756, 209, 217, 336, 248
-0.996787, 197, 445, 212, 476
-0.996817, 113, 13, 240, 44
-0.996829, 157, 301, 172, 332
-0.996847, 81, 53, 208, 84
-0.996903, 145, 257, 176, 500
-0.99691, 195, 197, 210, 228
-0.996919, 33, 29, 160, 60
-0.996933, 81, 81, 208, 112
-0.996947, 241, 333, 368, 364
-0.996953, 129, 65, 256, 96
-0.996976, 177, 177, 304, 208
-0.996977, 129, 173, 256, 204
-0.996983, 181, 205, 196, 236
-0.996992, 127, 321, 142, 352
-0.996992, 33, 165, 160, 196
-0.996993, 129, 161, 256, 192
-0.997011, 187, 229, 202, 260
-0.99704, 225, 289, 352, 320
-0.997046, 129, 25, 256, 56
-0.99705, 221, 129, 252, 384
-0.997052, 241, 153, 368, 184
-0.997085, 185, 309, 200, 340
-0.997086, 145, 337, 160, 368
-0.997099, 109, 365, 124, 396
-0.9971, 241, 397, 368, 428
-0.997106, 225, 225, 256, 480
-0.99711, 157, 325, 172, 356
-0.997113, 131, 141, 146, 172
-0.997115, 85, 1, 116, 256
-0.997119, 141, 1, 172, 256
-0.997125, 269, 1, 300, 256
-0.997134, 177, 305, 192, 336
-0.997135, 225, 193, 352, 224
-0.99714, 177, 225, 192, 256
-0.997141, 133, 333, 148, 364
-0.997158, 149, 297, 164, 328
-0.99716, 187, 197, 202, 228
-0.997181, 67, 361, 82, 392
-0.997187, 177, 37, 304, 68
-0.997188, 69, 193, 100, 448
-0.997201, 103, 337, 118, 368
-0.997206, 33, 81, 160, 112
-0.997218, 209, 265, 336, 296
-0.997223, 49, 193, 80, 448
-0.997225, 33, 57, 160, 88
-0.997228, 157, 337, 172, 368
-0.99724, 33, 153, 160, 184
-0.997249, 165, 333, 180, 364
-0.997256, 201, 197, 216, 228
-0.997269, 209, 305, 336, 336
-0.997278, 169, 301, 184, 332
-0.997288, 121, 257, 152, 500
-0.997295, 193, 317, 208, 348
-0.997312, 207, 217, 222, 248
-0.997327, 195, 457, 210, 488
-0.997339, 191, 305, 206, 336
-0.997345, 253, 1, 284, 256
-0.997355, 29, 313, 44, 344
-0.997361, 139, 317, 154, 348
-0.997369, 199, 317, 214, 348
-0.997371, 183, 297, 198, 328
-0.997376, 151, 333, 166, 364
-0.997383, 139, 337, 154, 368
-0.997385, 167, 313, 182, 344
-0.997391, 177, 25, 304, 56
-0.997394, 183, 321, 198, 352
-0.997402, 181, 265, 196, 296
-0.99743, 129, 9, 375, 72
-0.997433, 173, 213, 188, 244
-0.997449, 19, 309, 34, 340
-0.997463, 183, 217, 198, 248
-0.99747, 97, 457, 112, 488
-0.997478, 117, 205, 132, 236
-0.997479, 73, 365, 88, 396
-0.997479, 181, 249, 196, 280
-0.997491, 199, 333, 214, 364
-0.997491, 137, 141, 152, 172
-0.997496, 105, 97, 136, 352
-0.997497, 125, 145, 140, 176
-0.997515, 221, 249, 236, 280
-0.997531, 127, 333, 142, 364
-0.997532, 103, 361, 118, 392
-0.997546, 133, 125, 148, 156
-0.997548, 23, 381, 38, 412
-0.997553, 113, 349, 128, 380
-0.997557, 87, 273, 102, 304
-0.997575, 189, 257, 204, 288
-0.997576, 177, 317, 192, 348
-0.99758, 133, 321, 148, 352
-0.997583, 93, 245, 108, 276
-0.997584, 181, 117, 196, 148
-0.997584, 181, 445, 196, 476
-0.997592, 97, 337, 112, 368
-0.997606, 209, 229, 224, 260
-0.997607, 113, 329, 128, 360
-0.997612, 221, 233, 236, 264
-0.997615, 187, 137, 202, 168
-0.997615, 189, 329, 204, 360
-0.997628, 207, 205, 222, 236
-0.997632, 163, 301, 178, 332
-0.997649, 57, 425, 72, 456
-0.99765, 235, 449, 250, 480
-0.997666, 13, 257, 44, 500
-0.997673, 53, 97, 84, 352
-0.997683, 21, 369, 36, 400
-0.9977, 55, 133, 70, 164
-0.997713, 133, 345, 148, 376
-0.997714, 207, 305, 222, 336
-0.997714, 107, 377, 122, 408
-0.997715, 171, 201, 186, 232
-0.997716, 237, 421, 252, 452
-0.997722, 179, 237, 194, 268
-0.99774, 97, 349, 112, 380
-0.997743, 197, 433, 212, 464
-0.997745, 215, 241, 230, 272
-0.997757, 27, 301, 42, 332
-0.997759, 295, 417, 310, 448
-0.997765, 31, 385, 46, 416
-0.997781, 195, 257, 210, 288
-0.997782, 193, 209, 208, 240
-0.997795, 209, 241, 224, 272
-0.997798, 119, 329, 134, 360
-0.997804, 101, 445, 116, 476
-0.997808, 127, 129, 142, 160
-0.997809, 177, 289, 192, 320
-0.99781, 189, 257, 220, 500
-0.997819, 213, 217, 228, 248
-0.99782, 235, 433, 250, 464
-0.997821, 77, 425, 92, 456
-0.997832, 59, 357, 74, 388
-0.997834, 241, 449, 256, 480
-0.997841, 33, 129, 64, 384
-0.997842, 289, 429, 304, 460
-0.997851, 17, 385, 32, 416
-0.997859, 243, 421, 258, 452
-0.997864, 145, 309, 160, 340
-0.997867, 85, 261, 100, 292
-0.997871, 111, 309, 126, 340
-0.997871, 231, 465, 246, 496
-0.997874, 101, 249, 116, 280
-0.997875, 181, 145, 196, 176
-0.997886, 19, 321, 34, 352
-0.997886, 187, 465, 202, 496
-0.997891, 199, 241, 214, 272
-0.997894, 121, 341, 136, 372
-0.997894, 341, 257, 372, 500
-0.997908, 143, 249, 158, 280
-0.99791, 201, 297, 216, 328
-0.997915, 65, 97, 96, 352
-0.997925, 279, 421, 294, 452
-0.99793, 297, 33, 328, 288
-0.997935, 137, 301, 152, 332
-0.997938, 35, 309, 50, 340
-0.997938, 277, 97, 308, 352
-0.997939, 161, 145, 176, 176
-0.997947, 27, 325, 42, 356
-0.997951, 263, 373, 278, 404
-0.997953, 167, 141, 182, 172
-0.997956, 97, 361, 112, 392
-0.997956, 171, 333, 186, 364
-0.997979, 255, 189, 270, 220
-0.99798, 141, 105, 156, 136
-0.997982, 239, 461, 254, 492
-0.997985, 359, 93, 374, 124
-0.99799, 247, 409, 262, 440
-0.997994, 127, 105, 142, 136
-0.997997, 193, 137, 208, 168
-0.997998, 39, 337, 54, 368
-0.998036, 237, 1, 268, 256
-0.998069, 153, 1, 184, 256
-0.998099, 209, 97, 240, 352
-0.998099, 281, 257, 312, 500
-0.998138, 245, 225, 276, 480
-0.998157, 309, 65, 340, 320
-0.99816, 73, 1, 104, 256
-0.998196, 233, 97, 264, 352
-0.998241, 189, 65, 220, 320
-0.998246, 345, 65, 375, 320
-0.998309, 81, 97, 112, 352
-0.998344, 21, 129, 52, 384
-0.998354, 257, 97, 288, 352
-0.998356, 187, 177, 202, 304
-0.998361, 261, 257, 292, 500
-0.998362, 145, 337, 208, 352
-0.998364, 169, 213, 232, 228
-0.998374, 145, 331, 208, 346
-0.998377, 177, 231, 240, 246
-0.998382, 153, 347, 216, 362
-0.998389, 89, 351, 152, 366
-0.99839, 169, 97, 184, 224
-0.998397, 129, 319, 192, 334
-0.998401, 113, 347, 176, 362
-0.998402, 161, 203, 224, 218
-0.998404, 177, 97, 192, 224
-0.998406, 145, 311, 208, 326
-0.998416, 153, 323, 216, 338
-0.998417, 73, 367, 136, 382
-0.998432, 209, 211, 240, 226
-0.998432, 85, 351, 116, 366
-0.998433, 133, 17, 164, 32
-0.998433, 253, 417, 284, 432
-0.998434, 109, 221, 140, 236
-0.998435, 113, 107, 144, 122
-0.998435, 29, 467, 60, 482
-0.998437, 225, 233, 256, 248
-0.998437, 153, 147, 216, 162
-0.998437, 85, 271, 116, 286
-0.998439, 89, 451, 152, 466
-0.998439, 137, 117, 200, 132
-0.99844, 53, 435, 84, 450
-0.99844, 217, 225, 248, 240
-0.99844, 233, 429, 264, 444
-0.998441, 225, 485, 256, 500
-0.998441, 65, 371, 96, 386
-0.998441, 25, 353, 56, 368
-0.998441, 289, 481, 320, 496
-0.998442, 145, 449, 208, 464
-0.998442, 97, 323, 128, 338
-0.998443, 125, 105, 156, 120
-0.998443, 173, 273, 204, 288
-0.998444, 5, 309, 36, 324
-0.998446, 9, 481, 40, 496
-0.998446, 133, 355, 164, 370
-0.998447, 185, 255, 248, 270
-0.998447, 189, 143, 220, 158
-0.998447, 177, 301, 208, 316
-0.998447, 197, 323, 228, 338
-0.998449, 305, 483, 336, 498
-0.99845, 33, 311, 64, 326
-0.998451, 161, 345, 192, 360
-0.998451, 165, 213, 196, 228
-0.998452, 21, 311, 52, 326
-0.998453, 13, 467, 44, 482
-0.998453, 209, 265, 240, 280
-0.998454, 169, 267, 232, 282
-0.998454, 185, 195, 216, 210
-0.998454, 229, 443, 260, 458
-0.998455, 113, 337, 176, 352
-0.998455, 145, 305, 208, 320
-0.998456, 277, 431, 308, 446
-0.998457, 21, 421, 52, 436
-0.998458, 301, 257, 332, 500
-0.998459, 201, 429, 264, 444
-0.998459, 181, 193, 196, 320
-0.99846, 109, 215, 140, 230
-0.99846, 97, 367, 128, 382
-0.998461, 109, 141, 140, 156
-0.998461, 89, 261, 120, 276
-0.998461, 41, 427, 72, 442
-0.998461, 169, 261, 232, 276
-0.998461, 169, 219, 232, 234
-0.998462, 173, 199, 204, 214
-0.998462, 145, 353, 176, 368
-0.998464, 85, 465, 116, 480
-0.998464, 9, 313, 72, 328
-0.998464, 233, 453, 264, 468
-0.998466, 177, 249, 240, 264
-0.998467, 199, 177, 214, 304
-0.998467, 1, 389, 64, 404
-0.998467, 265, 483, 296, 498
-0.998468, 113, 347, 144, 362
-0.998469, 273, 437, 304, 452
-0.99847, 177, 341, 208, 356
-0.998471, 169, 273, 232, 288
-0.998471, 137, 295, 168, 310
-0.998473, 121, 327, 184, 342
-0.998473, 57, 351, 120, 366
-0.998473, 253, 425, 284, 440
-0.998473, 185, 443, 248, 458
-0.998476, 145, 117, 176, 132
-0.998477, 177, 237, 240, 252
-0.998477, 85, 365, 116, 380
-0.998477, 189, 255, 220, 270
-0.998478, 89, 223, 152, 238
-0.998479, 193, 389, 256, 404
-0.99848, 185, 201, 248, 216
-0.998481, 191, 225, 206, 352
-0.998481, 9, 317, 40, 332
-0.998481, 265, 431, 296, 446
-0.998482, 169, 119, 200, 134
-0.998482, 173, 141, 204, 156
-0.998482, 181, 421, 212, 436
-0.998483, 1, 225, 32, 480
-0.998484, 165, 223, 196, 238
-0.998485, 165, 239, 196, 254
-0.998486, 137, 331, 168, 346
-0.998486, 169, 225, 232, 240
-0.998486, 333, 65, 364, 320
-0.998489, 169, 317, 232, 332
-0.99849, 185, 329, 248, 344
-0.998491, 97, 245, 160, 260
-0.998492, 177, 229, 208, 244
-0.998493, 209, 243, 240, 258
-0.998493, 101, 359, 132, 374
-0.998493, 163, 97, 178, 224
-0.998494, 185, 451, 248, 466
-0.998494, 109, 227, 140, 242
-0.998494, 181, 481, 212, 496
-0.998495, 185, 475, 248, 490
-0.998495, 185, 327, 216, 342
-0.998496, 197, 249, 228, 264
-0.998497, 177, 243, 240, 258
-0.998497, 73, 357, 136, 372
-0.998497, 137, 383, 168, 398
-0.998498, 153, 321, 184, 336
-0.998498, 181, 435, 212, 450
-0.998498, 177, 333, 208, 348
-0.998499, 185, 481, 248, 496
-0.998499, 29, 387, 60, 402
-0.9985, 185, 323, 248, 338
-0.998503, 185, 207, 248, 222
-0.998503, 185, 263, 216, 278
-0.998504, 193, 407, 256, 422
-0.998504, 165, 147, 196, 162
-0.998505, 89, 331, 152, 346
-0.998505, 105, 321, 168, 336
-0.998506, 17, 335, 48, 350
-0.998506, 97, 451, 128, 466
-0.998506, 165, 449, 196, 464
-0.998509, 197, 243, 228, 258
-0.998511, 89, 345, 152, 360
-0.998511, 161, 399, 224, 414
-0.998512, 105, 383, 168, 398
-0.998512, 193, 423, 256, 438
-0.998514, 93, 97, 124, 352
-0.998514, 189, 301, 220, 316
-0.998514, 25, 429, 88, 444
-0.998515, 165, 313, 196, 328
-0.998515, 213, 235, 244, 250
-0.998516, 181, 213, 212, 228
-0.998516, 73, 373, 136, 388
-0.998518, 49, 447, 112, 462
-0.99852, 109, 353, 140, 368
-0.99852, 65, 461, 128, 476
-0.998521, 193, 381, 256, 396
-0.998521, 281, 485, 344, 500
-0.998521, 185, 249, 216, 264
-0.998522, 89, 253, 120, 268
-0.998522, 225, 425, 288, 440
-0.998522, 17, 385, 48, 400
-0.998522, 33, 437, 96, 452
-0.998522, 13, 391, 44, 406
-0.998522, 193, 401, 256, 416
-0.998523, 161, 441, 224, 456
-0.998525, 17, 319, 80, 334
-0.998526, 137, 251, 200, 266
-0.998526, 57, 485, 120, 500
-0.998526, 113, 353, 176, 368
-0.998526, 193, 307, 224, 322
-0.998526, 185, 143, 248, 158
-0.998526, 87, 257, 102, 384
-0.998529, 201, 417, 264, 432
-0.998529, 155, 97, 170, 224
-0.99853, 137, 257, 200, 272
-0.99853, 161, 207, 192, 222
-0.998532, 201, 461, 264, 476
-0.998533, 201, 273, 264, 288
-0.998534, 185, 243, 216, 258
-0.998534, 185, 337, 248, 352
-0.998534, 149, 97, 164, 224
-0.998534, 77, 455, 108, 470
-0.998534, 165, 333, 196, 348
-0.998534, 89, 239, 152, 254
-0.998534, 201, 435, 264, 450
-0.998535, 185, 469, 248, 484
-0.998535, 197, 227, 228, 242
-0.998535, 123, 305, 138, 432
-0.998536, 209, 211, 272, 226
-0.998538, 49, 335, 112, 350
-0.998539, 273, 425, 336, 440
-0.99854, 129, 223, 192, 238
-0.99854, 193, 375, 256, 390
-0.99854, 153, 245, 216, 260
-0.99854, 193, 213, 224, 228
-0.99854, 225, 431, 288, 446
-0.99854, 33, 273, 48, 400
-0.998541, 89, 229, 152, 244
-0.998541, 145, 141, 208, 156
-0.998541, 17, 353, 80, 368
-0.998543, 121, 213, 184, 228
-0.998543, 177, 147, 208, 162
-0.998543, 133, 349, 164, 364
-0.998544, 201, 267, 264, 282
-0.998544, 125, 143, 156, 158
-0.998545, 225, 483, 288, 498
-0.998546, 153, 235, 216, 250
-0.998547, 161, 279, 224, 294
-0.998547, 121, 301, 184, 316
-0.998548, 141, 317, 172, 332
-0.998548, 161, 393, 224, 408
-0.998549, 153, 353, 216, 368
-0.998549, 161, 435, 224, 450
-0.998549, 201, 233, 264, 248
-0.99855, 249, 431, 312, 446
-0.998551, 249, 481, 312, 496
-0.998551, 129, 229, 192, 244
-0.998551, 1, 307, 64, 322
-0.998552, 9, 383, 72, 398
-0.998553, 185, 137, 248, 152
-0.998553, 121, 147, 184, 162
-0.998554, 153, 337, 184, 352
-0.998554, 185, 195, 248, 210
-0.998554, 129, 341, 160, 356
-0.998555, 57, 479, 120, 494
-0.998555, 97, 377, 160, 392
-0.998555, 185, 317, 216, 332
-0.998556, 117, 323, 148, 338
-0.998556, 65, 455, 128, 470
-0.998557, 209, 239, 272, 254
-0.998557, 281, 1, 312, 256
-0.998558, 225, 189, 288, 204
-0.998558, 169, 303, 232, 318
-0.998559, 249, 413, 312, 428
-0.998559, 209, 261, 272, 276
-0.998559, 161, 429, 224, 444
-0.99856, 145, 303, 176, 318
-0.998561, 209, 255, 272, 270
-0.998562, 121, 311, 184, 326
-0.998563, 105, 261, 168, 276
-0.998564, 121, 389, 184, 404
-0.998564, 161, 387, 224, 402
-0.998564, 161, 405, 224, 420
-0.998564, 89, 217, 152, 232
-0.998565, 161, 423, 224, 438
-0.998565, 97, 25, 160, 40
-0.998566, 145, 285, 208, 300
-0.998566, 181, 235, 212, 250
-0.998566, 45, 305, 60, 432
-0.998566, 209, 205, 272, 220
-0.998566, 193, 363, 256, 378
-0.998567, 193, 395, 256, 410
-0.998567, 169, 309, 232, 324
-0.998568, 121, 141, 184, 156
-0.998568, 225, 477, 288, 492
-0.998568, 25, 331, 88, 346
-0.998568, 65, 467, 128, 482
-0.998568, 105, 1, 136, 256
-0.99857, 125, 111, 156, 126
-0.99857, 209, 251, 240, 266
-0.998576, 165, 245, 196, 260
-0.998583, 121, 335, 152, 350
-0.998584, 61, 305, 76, 432
-0.998585, 177, 255, 208, 270
-0.998586, 201, 233, 232, 248
-0.998589, 81, 449, 112, 464
-0.998589, 177, 309, 208, 324
-0.998594, 181, 459, 212, 474
-0.998595, 189, 207, 220, 222
-0.998602, 149, 345, 180, 360
-0.998603, 185, 465, 216, 480
-0.998608, 145, 311, 176, 326
-0.998609, 197, 241, 212, 368
-0.998611, 193, 161, 208, 288
-0.998612, 131, 305, 146, 432
-0.998613, 173, 327, 204, 342
-0.998615, 97, 351, 128, 366
-0.998619, 173, 205, 204, 220
-0.99862, 157, 303, 188, 318
-0.998622, 185, 241, 200, 368
-0.998642, 181, 475, 212, 490
-0.998644, 289, 129, 320, 384
-0.998647, 141, 337, 172, 352
-0.998653, 141, 65, 156, 192
-0.998653, 183, 97, 198, 224
-0.998656, 157, 327, 188, 342
-0.998656, 175, 193, 190, 320
-0.998659, 185, 445, 216, 460
-0.998662, 185, 453, 216, 468
-0.998665, 151, 289, 166, 416
-0.998672, 185, 201, 216, 216
-0.998674, 205, 193, 220, 320
-0.998674, 145, 289, 160, 416
-0.998675, 39, 241, 54, 368
-0.99868, 55, 305, 70, 432
-0.998688, 103, 353, 118, 480
-0.998727, 165, 321, 196, 336
-0.998733, 39, 289, 54, 416
-0.998735, 61, 1, 92, 256
-0.998739, 161, 241, 176, 368
-0.998758, 113, 305, 128, 432
-0.998768, 149, 241, 164, 368
-0.998775, 5, 129, 36, 384
-0.998776, 25, 289, 40, 416
-0.998781, 175, 145, 190, 272
-0.998782, 321, 97, 352, 352
-0.998788, 167, 273, 182, 400
-0.998789, 329, 257, 360, 500
-0.998802, 139, 305, 154, 432
-0.998804, 241, 113, 256, 240
-0.998804, 143, 241, 158, 368
-0.998807, 91, 321, 106, 448
-0.998831, 167, 225, 182, 352
-0.998835, 159, 289, 174, 416
-0.998844, 217, 209, 232, 336
-0.998858, 119, 353, 134, 480
-0.998859, 101, 305, 116, 432
-0.998862, 15, 305, 30, 432
-0.998863, 251, 145, 266, 272
-0.998863, 263, 145, 278, 272
-0.998866, 71, 321, 86, 448
-0.998869, 223, 225, 238, 352
-0.998871, 181, 145, 196, 272
-0.998871, 155, 241, 170, 368
-0.998875, 201, 289, 216, 416
-0.998876, 313, 193, 344, 448
-0.998879, 173, 49, 188, 176
-0.998882, 245, 129, 276, 384
-0.998882, 133, 65, 148, 192
-0.998884, 9, 1, 72, 128
-0.998898, 175, 241, 190, 368
-0.998905, 127, 65, 142, 192
-0.998908, 127, 145, 142, 272
-0.998918, 81, 257, 96, 384
-0.998929, 211, 209, 226, 336
-0.998929, 241, 1, 256, 128
-0.998929, 143, 113, 158, 240
-0.998933, 119, 145, 134, 272
-0.998939, 157, 49, 172, 176
-0.998941, 107, 305, 122, 432
-0.998945, 149, 337, 164, 464
-0.998966, 45, 225, 60, 352
-0.998967, 135, 225, 150, 352
-0.99897, 147, 49, 162, 176
-0.998973, 177, 1, 208, 256
-0.998982, 35, 337, 50, 464
-0.998988, 241, 161, 256, 288
-0.998995, 93, 241, 108, 368
-0.998998, 25, 369, 40, 496
-0.998999, 33, 225, 48, 352
-0.999002, 163, 49, 178, 176
-0.999016, 85, 321, 100, 448
-0.999017, 191, 321, 206, 448
-0.999024, 97, 353, 112, 480
-0.999026, 109, 353, 124, 480
-0.999028, 133, 145, 148, 272
-0.999028, 249, 1, 264, 128
-0.999034, 77, 305, 92, 432
-0.999037, 125, 353, 140, 480
-0.999037, 19, 241, 34, 368
-0.999043, 55, 353, 70, 480
-0.999045, 155, 337, 170, 464
-0.999055, 265, 97, 280, 224
-0.999056, 221, 33, 252, 288
-0.999076, 235, 177, 250, 304
-0.999077, 129, 225, 144, 352
-0.99908, 189, 113, 204, 240
-0.999081, 275, 161, 290, 288
-0.999082, 199, 129, 214, 256
-0.999091, 239, 49, 254, 176
-0.999091, 359, 81, 374, 208
-0.999093, 49, 145, 64, 272
-0.999098, 19, 353, 34, 480
-0.999099, 55, 129, 70, 256
-0.999104, 169, 145, 184, 272
-0.999112, 119, 193, 134, 320
-0.999114, 99, 257, 114, 384
-0.999115, 257, 177, 272, 304
-0.999117, 179, 49, 194, 176
-0.999127, 247, 369, 262, 496
-0.999137, 257, 1, 272, 128
-0.999137, 41, 369, 56, 496
-0.999139, 203, 241, 218, 368
-0.999141, 349, 81, 364, 208
-0.999145, 235, 1, 250, 128
-0.999156, 9, 321, 24, 448
-0.999159, 209, 257, 224, 384
-0.999162, 169, 321, 184, 448
-0.999163, 195, 369, 210, 496
-0.999164, 133, 1, 148, 128
-0.999165, 161, 353, 176, 480
-0.999169, 275, 113, 290, 240
-0.999172, 191, 273, 206, 400
-0.999174, 251, 97, 266, 224
-0.999175, 61, 1, 76, 128
-0.999181, 141, 1, 156, 128
-0.999193, 351, 257, 366, 384
-0.999195, 269, 33, 284, 160
-0.999199, 217, 257, 232, 384
-0.999202, 257, 97, 272, 224
-0.999203, 239, 369, 254, 496
-0.999213, 307, 65, 322, 192
-0.999216, 283, 33, 298, 160
-0.999217, 27, 241, 42, 368
-0.999224, 113, 113, 128, 240
-0.999227, 133, 353, 148, 480
-0.999228, 247, 193, 262, 320
-0.999229, 89, 193, 104, 320
-0.999233, 207, 145, 222, 272
-0.999252, 333, 161, 364, 416
-0.999261, 321, 1, 352, 256
-0.999381, 345, 161, 375, 416
-0.999431, 301, 161, 332, 416
-0.999469, 41, 1, 72, 256
-0.999633, 195, 151, 210, 166
-0.999634, 97, 351, 112, 366
-0.999634, 133, 125, 148, 140
-0.999635, 189, 253, 204, 268
-0.999635, 91, 353, 106, 368
-0.999635, 199, 325, 214, 340
-0.999635, 103, 221, 118, 236
-0.999635, 253, 189, 268, 204
-0.999635, 179, 245, 194, 260
-0.999635, 117, 345, 132, 360
-0.999636, 137, 341, 152, 356
-0.999636, 171, 205, 186, 220
-0.999637, 147, 313, 162, 328
-0.999637, 181, 331, 196, 346
-0.999638, 259, 111, 274, 126
-0.999639, 55, 143, 70, 158
-0.999639, 181, 119, 196, 134
-0.999639, 97, 359, 112, 374
-0.999641, 129, 335, 144, 350
-0.999642, 185, 303, 200, 318
-0.999642, 215, 249, 230, 264
-0.999644, 155, 353, 170, 368
-0.999644, 91, 265, 106, 280
-0.999645, 173, 311, 188, 326
-0.999648, 197, 315, 212, 330
-0.999649, 187, 475, 202, 490
-0.999649, 205, 243, 220, 258
-0.999649, 255, 195, 270, 210
-0.99965, 221, 251, 236, 266
-0.999651, 137, 335, 152, 350
-0.999652, 207, 223, 222, 238
-0.999652, 245, 193, 260, 208
-0.999654, 69, 363, 84, 378
-0.999654, 165, 303, 180, 318
-0.999655, 125, 121, 140, 136
-0.999655, 139, 463, 154, 478
-0.999655, 93, 253, 108, 268
-0.999656, 203, 209, 218, 224
-0.999658, 169, 337, 184, 352
-0.999658, 163, 345, 178, 360
-0.999659, 25, 317, 40, 332
-0.999659, 181, 223, 196, 238
-0.999659, 165, 311, 180, 326
-0.999661, 177, 239, 192, 254
-0.999663, 75, 367, 90, 382
-0.999664, 203, 317, 218, 332
-0.999665, 123, 141, 138, 156
-0.999665, 195, 473, 210, 488
-0.999667, 149, 353, 164, 368
-0.999668, 237, 421, 252, 436
-0.999669, 181, 147, 196, 162
-0.999669, 137, 143, 152, 158
-0.999669, 195, 437, 210, 452
-0.99967, 29, 33, 60, 288
-0.999672, 89, 259, 104, 274
-0.999673, 17, 383, 32, 398
-0.999674, 193, 321, 208, 336
-0.999674, 177, 275, 192, 290
-0.999675, 99, 465, 114, 480
-0.999676, 85, 281, 100, 296
-0.999676, 117, 207, 132, 222
-0.999677, 173, 221, 188, 236
-0.999677, 111, 323, 126, 338
-0.999678, 123, 67, 138, 82
-0.999679, 31, 387, 46, 402
-0.99968, 195, 145, 210, 160
-0.999681, 177, 449, 192, 464
-0.999681, 197, 463, 212, 478
-0.999682, 181, 255, 196, 270
-0.999682, 199, 341, 214, 356
-0.999683, 15, 337, 30, 352
-0.999684, 17, 311, 32, 326
-0.999686, 19, 319, 34, 334
-0.999686, 187, 141, 202, 156
-0.999687, 183, 447, 198, 462
-0.999687, 169, 213, 184, 228
-0.999689, 55, 137, 70, 152
-0.99969, 185, 211, 200, 226
-0.999692, 85, 275, 100, 290
-0.999693, 185, 311, 200, 326
-0.999693, 113, 259, 128, 274
-0.999695, 201, 203, 216, 218
-0.999697, 103, 367, 118, 382
-0.999698, 99, 449, 114, 464
-0.9997, 137, 349, 152, 364
-0.999701, 19, 391, 34, 406
-0.999703, 129, 145, 144, 160
-0.999705, 205, 217, 220, 232
-0.999705, 187, 147, 202, 162
-0.999712, 187, 467, 202, 482
-0.999712, 211, 241, 226, 256
-0.999713, 175, 327, 190, 342
-0.999715, 111, 369, 126, 384
-0.999715, 159, 325, 174, 340
-0.999717, 143, 339, 158, 354
-0.999718, 23, 385, 38, 400
-0.999719, 185, 229, 200, 244
-0.999721, 219, 239, 234, 254
-0.999722, 103, 351, 118, 366
-0.999722, 163, 331, 178, 346
-0.999723, 163, 339, 178, 354
-0.999723, 157, 299, 172, 314
-0.999723, 149, 337, 164, 352
-0.999725, 157, 331, 172, 346
-0.999726, 189, 199, 204, 214
-0.999726, 193, 331, 208, 346
-0.999728, 185, 263, 200, 278
-0.999729, 191, 259, 206, 274
-0.99973, 191, 207, 206, 222
-0.999733, 159, 311, 174, 326
-0.999734, 177, 207, 192, 222
-0.999736, 155, 337, 170, 352
-0.999742, 169, 327, 184, 342
-0.999744, 109, 375, 124, 390
-0.999744, 195, 443, 210, 458
-0.999744, 183, 325, 198, 340
-0.999747, 187, 461, 202, 476
-0.999748, 197, 453, 212, 468
-0.999751, 151, 305, 166, 320
-0.999756, 179, 213, 194, 228
-0.999758, 195, 199, 210, 214
-0.999763, 155, 347, 170, 362
-0.999764, 177, 321, 192, 336
-0.999769, 145, 347, 160, 362
-0.99978, 165, 321, 180, 336
-0.999789, 171, 317, 186, 332
-0.999794, 189, 445, 204, 460
-0.999799, 187, 455, 202, 470
-0.999807, 103, 361, 118, 376
-0.999809, 215, 229, 230, 244
-0.999826, 183, 205, 198, 220
-1.00016, 209, 1, 240, 256
-1.00021, 17, 1, 48, 256
-1.0005, 1, 33, 32, 288
