1894
-0.575874, 1, 65, 500, 320
-0.655885, 97, 1, 352, 333
-0.693397, 1, 1, 256, 333
-0.715737, 225, 1, 480, 333
-0.741534, 161, 65, 416, 320
-0.763954, 1, 1, 500, 333
-0.820318, 65, 65, 320, 320
-0.864754, 257, 65, 500, 320
-0.874205, 177, 65, 304, 320
-0.880183, 161, 1, 288, 333
-0.903636, 129, 65, 256, 320
-0.904873, 257, 1, 384, 333
-0.910025, 97, 1, 224, 333
-0.912612, 257, 33, 384, 288
-0.915356, 321, 1, 448, 256
-0.917263, 177, 113, 304, 240
-0.917926, 129, 113, 384, 240
-0.917981, 209, 1, 336, 333
-0.922253, 185, 97, 248, 224
-0.922974, 305, 1, 432, 333
-0.92526, 233, 113, 296, 240
-0.930388, 209, 81, 272, 208
-0.933115, 81, 1, 208, 256
-0.93572, 209, 129, 272, 256
-0.935759, 1, 161, 500, 288
-0.93791, 49, 1, 176, 333
-0.93841, 97, 193, 352, 320
-0.941471, 1, 113, 500, 240
-0.943418, 193, 65, 448, 192
-0.943828, 177, 161, 304, 288
-0.945431, 225, 113, 352, 240
-0.945834, 233, 121, 296, 184
-0.949388, 273, 97, 336, 224
-0.949532, 209, 97, 272, 160
-0.949768, 209, 177, 272, 304
-0.950407, 241, 145, 304, 208
-0.951452, 97, 265, 160, 328
-0.951653, 33, 81, 288, 208
-0.951926, 161, 129, 224, 256
-0.952129, 1, 65, 500, 192
-0.952132, 265, 97, 328, 160
-0.952534, 185, 113, 248, 176
-0.952787, 129, 177, 256, 304
-0.953277, 1, 177, 256, 304
-0.953531, 161, 65, 288, 192
-0.954729, 225, 65, 352, 192
-0.955173, 185, 145, 248, 272
-0.956596, 153, 177, 216, 304
-0.956643, 225, 177, 288, 240
-0.957063, 241, 161, 304, 288
-0.957697, 201, 169, 264, 232
-0.957906, 1, 209, 500, 333
-0.958031, 353, 1, 480, 333
-0.958107, 337, 1, 464, 128
-0.959293, 233, 65, 296, 192
-0.959485, 121, 273, 184, 333
-0.95949, 201, 145, 264, 208
-0.959644, 209, 121, 272, 184
-0.95971, 273, 121, 336, 184
-0.959881, 1, 1, 128, 333
-0.96022, 169, 137, 232, 200
-0.960258, 129, 113, 256, 240
-0.960271, 225, 129, 480, 256
-0.960935, 105, 209, 168, 333
-0.960985, 65, 209, 192, 333
-0.961654, 185, 89, 248, 152
-0.961736, 257, 161, 384, 288
-0.962092, 1, 1, 500, 128
-0.96229, 145, 33, 208, 160
-0.962309, 185, 49, 248, 176
-0.962381, 73, 265, 136, 328
-0.963228, 273, 65, 400, 192
-0.963981, 377, 1, 440, 128
-0.964588, 145, 265, 208, 328
-0.965122, 161, 81, 224, 208
-0.965204, 169, 177, 232, 240
-0.965449, 369, 17, 432, 80
-0.966004, 193, 65, 256, 320
-0.966127, 33, 129, 288, 256
-0.966753, 297, 81, 360, 208
-0.967145, 177, 209, 304, 333
-0.967252, 265, 161, 328, 288
-0.967613, 345, 33, 408, 96
-0.968321, 265, 153, 328, 216
-0.96846, 249, 193, 312, 256
-0.968467, 229, 81, 260, 208
-0.968607, 161, 17, 416, 144
-0.969096, 217, 97, 248, 224
-0.969732, 33, 65, 160, 320
-0.969771, 297, 89, 360, 152
-0.970018, 65, 273, 192, 333
-0.970188, 209, 209, 272, 272
-0.97051, 265, 113, 296, 240
-0.970887, 193, 137, 320, 200
-0.971126, 209, 89, 240, 152
-0.971303, 177, 113, 304, 176
-0.971408, 245, 129, 276, 256
-0.971573, 313, 65, 376, 128
-0.971794, 33, 33, 288, 160
-0.971819, 369, 1, 496, 256
-0.971837, 257, 113, 288, 176
-0.971968, 129, 273, 160, 333
-0.972065, 233, 97, 296, 160
-0.972297, 229, 129, 260, 192
-0.972897, 145, 161, 272, 224
-0.973391, 297, 121, 360, 184
-0.97342, 113, 65, 240, 192
-0.97351, 221, 105, 252, 168
-0.97411, 233, 65, 296, 320
-0.974168, 265, 137, 296, 200
-0.974256, 145, 273, 176, 333
-0.974403, 169, 65, 232, 320
-0.974556, 97, 241, 160, 304
-0.974642, 113, 265, 144, 328
-0.974743, 65, 209, 128, 333
-0.974754, 237, 153, 268, 216
-0.975424, 329, 49, 392, 176
-0.97544, 137, 153, 200, 216
-0.975795, 181, 113, 212, 240
-0.975883, 289, 33, 352, 160
-0.976037, 257, 177, 288, 304
-0.976078, 81, 129, 208, 256
-0.976147, 257, 49, 320, 176
-0.976196, 393, 1, 456, 64
-0.976224, 281, 105, 312, 168
-0.976329, 233, 129, 264, 256
-0.976439, 221, 145, 252, 272
-0.976574, 213, 137, 244, 200
-0.976607, 257, 185, 288, 248
-0.976806, 233, 97, 264, 160
-0.976806, 145, 137, 272, 200
-0.977249, 177, 185, 304, 248
-0.977337, 129, 209, 192, 333
-0.977378, 241, 17, 368, 144
-0.977427, 245, 113, 276, 176
-0.9775, 49, 273, 112, 333
-0.977506, 177, 137, 208, 200
-0.977639, 201, 81, 232, 208
-0.977695, 197, 105, 228, 168
-0.977744, 293, 137, 324, 200
-0.977822, 353, 1, 416, 128
-0.977886, 193, 89, 320, 152
-0.977887, 93, 273, 124, 333
-0.977929, 241, 81, 272, 208
-0.978042, 257, 161, 384, 224
-0.978348, 233, 73, 296, 136
-0.978433, 321, 49, 448, 176
-0.978443, 145, 193, 208, 256
-0.978461, 249, 137, 280, 200
-0.978464, 273, 113, 400, 240
-0.978465, 129, 145, 192, 272
-0.97876, 193, 177, 448, 304
-0.978943, 305, 121, 336, 184
-0.978958, 153, 241, 216, 304
-0.978965, 237, 177, 268, 240
-0.978994, 301, 89, 332, 152
-0.979294, 233, 209, 296, 333
-0.979377, 277, 137, 308, 200
-0.97943, 225, 113, 352, 176
-0.979659, 169, 129, 200, 256
-0.97967, 261, 161, 292, 224
-0.979771, 289, 65, 352, 128
-0.979925, 217, 161, 248, 224
-0.980066, 337, 57, 400, 120
-0.980071, 193, 161, 320, 224
-0.980176, 185, 65, 248, 128
-0.980437, 313, 1, 376, 128
-0.980556, 113, 273, 240, 333
-0.980571, 165, 153, 196, 216
-0.980762, 129, 17, 192, 80
-0.980847, 281, 129, 312, 256
-0.981033, 241, 137, 368, 200
-0.981139, 205, 129, 236, 256
-0.981185, 329, 1, 392, 64
-0.981274, 161, 73, 224, 136
-0.981289, 181, 161, 212, 288
-0.98139, 209, 73, 272, 136
-0.981402, 185, 249, 248, 312
-0.981475, 325, 81, 356, 144
-0.981556, 121, 1, 184, 128
-0.981708, 185, 209, 248, 333
-0.981816, 221, 81, 252, 144
-0.981854, 313, 89, 344, 152
-0.981884, 273, 177, 336, 240
-0.982048, 269, 177, 300, 304
-0.982194, 269, 113, 300, 176
-0.98229, 233, 177, 264, 304
-0.982469, 249, 161, 280, 224
-0.982712, 121, 177, 184, 240
-0.982857, 129, 185, 256, 248
-0.982948, 93, 249, 124, 312
-0.982991, 225, 209, 352, 333
-0.983072, 257, 1, 500, 128
-0.983455, 145, 41, 208, 104
-0.983487, 353, 41, 384, 104
-0.98351, 245, 177, 276, 304
-0.983602, 289, 145, 352, 272
-0.98366, 161, 113, 224, 176
-0.983776, 17, 273, 144, 333
-0.983835, 269, 185, 300, 248
-0.983847, 209, 33, 272, 160
-0.983907, 273, 113, 400, 176
-0.983962, 125, 209, 156, 333
-0.984054, 209, 233, 272, 296
-0.984059, 373, 25, 404, 88
-0.984069, 289, 145, 352, 208
-0.984091, 17, 209, 144, 333
-0.984093, 169, 185, 200, 248
-0.984106, 321, 81, 352, 208
-0.984156, 241, 81, 368, 144
-0.984163, 201, 169, 232, 232
-0.984188, 177, 1, 240, 128
-0.984225, 257, 209, 288, 272
-0.984276, 193, 209, 320, 272
-0.984347, 177, 161, 208, 224
-0.984384, 193, 17, 320, 144
-0.984416, 169, 201, 232, 264
-0.984417, 77, 273, 108, 333
-0.984425, 209, 113, 240, 176
-0.984514, 169, 177, 200, 304
-0.984545, 145, 89, 272, 152
-0.98474, 245, 89, 276, 152
-0.984893, 129, 17, 256, 144
-0.985072, 337, 57, 368, 120
-0.985139, 225, 185, 352, 248
-0.985186, 153, 1, 216, 64
-0.985201, 169, 1, 232, 333
-0.985457, 129, 249, 256, 312
-0.985507, 201, 201, 232, 264
-0.985532, 121, 209, 184, 272
-0.985538, 301, 97, 332, 224
-0.985549, 241, 57, 368, 120
-0.985607, 233, 217, 296, 280
-0.985643, 129, 113, 256, 176
-0.985729, 393, 9, 424, 72
-0.98582, 145, 1, 208, 256
-0.985928, 177, 233, 304, 296
-0.986023, 321, 57, 352, 120
-0.986045, 233, 73, 264, 136
-0.986119, 233, 1, 296, 333
-0.986128, 193, 1, 256, 333
-0.98618, 185, 113, 216, 176
-0.986197, 169, 33, 200, 160
-0.986301, 257, 209, 320, 333
-0.986362, 73, 241, 136, 304
-0.98637, 137, 209, 168, 333
-0.986466, 413, 1, 444, 64
-0.986527, 201, 209, 232, 333
-0.986627, 65, 249, 192, 312
-0.986701, 245, 201, 276, 264
-0.986702, 153, 1, 184, 128
-0.986784, 97, 209, 224, 272
-0.986788, 17, 249, 144, 312
-0.986876, 185, 65, 216, 192
-0.986912, 161, 1, 192, 64
-0.987009, 285, 81, 316, 208
-0.987016, 337, 49, 368, 176
-0.987029, 157, 177, 188, 304
-0.987042, 289, 1, 416, 128
-0.987058, 305, 41, 368, 104
-0.987109, 273, 161, 304, 224
-0.98712, 185, 185, 216, 248
-0.987315, 129, 249, 160, 312
-0.9874, 185, 225, 248, 288
-0.987491, 157, 25, 188, 88
-0.98751, 41, 209, 104, 333
-0.987614, 201, 145, 232, 208
-0.987727, 157, 201, 188, 264
-0.987792, 137, 81, 200, 208
-0.987822, 169, 273, 232, 333
-0.98786, 273, 65, 336, 320
-0.987865, 49, 249, 112, 312
-0.987866, 257, 233, 288, 296
-0.987894, 81, 161, 208, 224
-0.987918, 193, 81, 224, 144
-0.987936, 253, 81, 284, 208
-0.988195, 173, 41, 204, 104
-0.988251, 193, 161, 224, 288
-0.98827, 265, 73, 328, 136
-0.988278, 241, 141, 304, 172
-0.98831, 109, 241, 140, 304
-0.988311, 305, 17, 368, 80
-0.988396, 81, 17, 208, 144
-0.988489, 157, 273, 188, 333
-0.988524, 97, 269, 160, 300
-0.988687, 321, 49, 448, 112
-0.988693, 305, 65, 336, 128
-0.988729, 321, 97, 448, 224
-0.988759, 285, 169, 316, 232
-0.988805, 121, 249, 184, 312
-0.988813, 233, 189, 296, 220
-0.988918, 353, 33, 384, 160
-0.988922, 193, 113, 256, 144
-0.98902, 233, 201, 264, 264
-0.989022, 225, 121, 288, 152
-0.989326, 265, 117, 328, 148
-0.989415, 149, 1, 180, 64
-0.989446, 241, 157, 304, 188
-0.98945, 209, 97, 272, 128
-0.989489, 137, 1, 200, 333
-0.989577, 145, 209, 272, 272
-0.989579, 369, 9, 496, 72
-0.989582, 233, 173, 296, 204
-0.989606, 97, 137, 224, 200
-0.989655, 201, 169, 264, 200
-0.989725, 257, 129, 320, 160
-0.989738, 177, 273, 208, 333
-0.989742, 433, 301, 496, 332
-0.989756, 89, 289, 152, 320
-0.989797, 197, 241, 228, 304
-0.989922, 65, 273, 128, 304
-0.989923, 201, 137, 264, 168
-0.989923, 209, 149, 272, 180
-0.989941, 121, 277, 184, 308
-0.989945, 289, 81, 416, 144
-0.989947, 217, 49, 248, 176
-0.989995, 265, 105, 328, 136
-0.990046, 325, 33, 356, 160
-0.990053, 185, 101, 248, 132
-0.990105, 177, 125, 240, 156
-0.990108, 305, 153, 432, 216
-0.990111, 153, 169, 184, 232
-0.990113, 217, 109, 280, 140
-0.990183, 201, 85, 264, 116
-0.990206, 273, 149, 336, 180
-0.990232, 157, 129, 188, 256
-0.990263, 233, 201, 296, 232
-0.990332, 289, 81, 352, 112
-0.990338, 281, 93, 344, 124
-0.990355, 145, 65, 272, 128
-0.990358, 181, 73, 212, 136
-0.990392, 161, 189, 224, 220
-0.990431, 189, 265, 220, 328
-0.990433, 161, 157, 224, 188
-0.990459, 209, 181, 272, 212
-0.990465, 201, 125, 264, 156
-0.990474, 337, 1, 368, 128
-0.990499, 273, 165, 336, 196
-0.990526, 145, 273, 208, 304
-0.99063, 389, 1, 420, 128
-0.990658, 81, 301, 144, 332
-0.990663, 113, 289, 176, 320
-0.990731, 381, 1, 412, 64
-0.990733, 65, 185, 192, 248
-0.990741, 273, 1, 336, 333
-0.990793, 169, 141, 232, 172
-0.990876, 169, 169, 232, 200
-0.990877, 313, 73, 376, 104
-0.990879, 73, 261, 136, 292
-0.990894, 305, 1, 432, 64
-0.990925, 369, 25, 432, 56
-0.990968, 113, 209, 144, 333
-0.990991, 225, 85, 288, 116
-0.991013, 121, 301, 184, 332
-0.991013, 257, 225, 320, 288
-0.991035, 209, 197, 272, 228
-0.991049, 65, 285, 128, 316
-0.991128, 385, 13, 448, 44
-0.991137, 321, 153, 384, 216
-0.991158, 269, 65, 300, 192
-0.99116, 297, 161, 360, 192
-0.991217, 137, 289, 200, 320
-0.991259, 205, 33, 236, 160
-0.991271, 233, 97, 296, 128
-0.991276, 129, 177, 192, 208
-0.991281, 345, 49, 408, 80
-0.991314, 273, 25, 400, 88
-0.991356, 353, 37, 416, 68
-0.99138, 185, 241, 216, 304
-0.991381, 321, 61, 384, 92
-0.991392, 209, 209, 272, 240
-0.991524, 401, 1, 464, 32
-0.991614, 41, 293, 104, 324
-0.99163, 321, 157, 384, 188
-0.991634, 73, 201, 136, 264
-0.991645, 153, 201, 216, 232
-0.991658, 145, 261, 208, 292
-0.991677, 313, 85, 376, 116
-0.991687, 121, 265, 184, 296
-0.991708, 257, 185, 320, 216
-0.991708, 101, 209, 132, 333
-0.991723, 289, 105, 352, 136
-0.991724, 25, 273, 88, 333
-0.991743, 97, 33, 224, 96
-0.99175, 189, 161, 220, 224
-0.991773, 209, 225, 272, 256
-0.991774, 185, 157, 248, 188
-0.991806, 297, 117, 360, 148
-0.991825, 177, 89, 240, 120
-0.991867, 257, 201, 320, 232
-0.991893, 233, 213, 296, 244
-0.991901, 289, 129, 352, 160
-0.99191, 281, 41, 344, 104
-0.991951, 233, 241, 296, 304
-0.991952, 145, 301, 208, 332
-0.991973, 41, 281, 104, 312
-0.992009, 185, 49, 216, 112
-0.992048, 81, 249, 112, 312
-0.992061, 409, 301, 472, 332
-0.992068, 249, 81, 312, 112
-0.992073, 185, 181, 248, 212
-0.992114, 137, 165, 200, 196
-0.992116, 377, 149, 440, 180
-0.992156, 229, 85, 260, 116
-0.992156, 129, 121, 192, 184
-0.99217, 97, 257, 160, 288
-0.992174, 289, 69, 352, 100
-0.992199, 185, 73, 248, 104
-0.992205, 169, 113, 232, 144
-0.992208, 209, 237, 272, 268
-0.992222, 129, 25, 192, 56
-0.992247, 445, 301, 476, 332
-0.992251, 301, 49, 332, 176
-0.99226, 113, 265, 144, 296
-0.992266, 141, 249, 172, 312
-0.99227, 249, 117, 280, 148
-0.992287, 261, 133, 292, 164
-0.992308, 345, 153, 408, 184
-0.992308, 209, 97, 240, 128
-0.992338, 229, 33, 260, 160
-0.992339, 129, 273, 160, 304
-0.992353, 313, 45, 376, 76
-0.99236, 221, 113, 252, 144
-0.992414, 145, 41, 272, 104
-0.99242, 185, 257, 248, 288
-0.99242, 177, 257, 304, 320
-0.992431, 317, 81, 348, 112
-0.992454, 277, 137, 308, 168
-0.992455, 141, 269, 172, 300
-0.992462, 205, 65, 236, 128
-0.992472, 121, 221, 184, 252
-0.992479, 361, 145, 424, 208
-0.992488, 313, 97, 376, 128
-0.992504, 233, 133, 264, 164
-0.992506, 49, 225, 112, 288
-0.992516, 425, 289, 488, 320
-0.992522, 233, 153, 264, 184
-0.992545, 145, 53, 208, 84
-0.992548, 93, 269, 124, 300
-0.99256, 129, 129, 384, 192
-0.992563, 249, 141, 280, 172
-0.992568, 329, 29, 392, 60
-0.992571, 217, 209, 248, 272
-0.992575, 261, 189, 292, 220
-0.992577, 121, 189, 184, 220
-0.992578, 169, 281, 232, 312
-0.992579, 261, 121, 292, 152
-0.992591, 297, 93, 328, 124
-0.992618, 329, 81, 360, 112
-0.99262, 121, 1, 184, 256
-0.992622, 241, 185, 272, 216
-0.992635, 293, 113, 324, 176
-0.992636, 137, 37, 200, 68
-0.992642, 145, 281, 176, 312
-0.992642, 137, 153, 200, 184
-0.992657, 349, 65, 380, 128
-0.992657, 73, 273, 104, 304
-0.992666, 345, 17, 408, 48
-0.992669, 233, 165, 264, 196
-0.992677, 221, 141, 252, 172
-0.99268, 233, 105, 264, 136
-0.992694, 365, 17, 396, 144
-0.992707, 121, 289, 152, 320
-0.992728, 369, 1, 432, 32
-0.992731, 81, 1, 208, 64
-0.992731, 169, 165, 200, 196
-0.992732, 129, 201, 192, 232
-0.992733, 457, 293, 488, 324
-0.99274, 161, 181, 192, 212
-0.992747, 153, 9, 216, 40
-0.992749, 253, 201, 284, 232
-0.992755, 185, 201, 248, 232
-0.992762, 289, 145, 320, 176
-0.992763, 273, 157, 304, 188
-0.992774, 269, 209, 300, 272
-0.992777, 197, 109, 228, 140
-0.992777, 249, 241, 312, 272
-0.992777, 325, 69, 356, 100
-0.992777, 237, 121, 268, 152
-0.992782, 213, 161, 244, 192
-0.992791, 169, 301, 232, 332
-0.992791, 217, 125, 248, 156
-0.992792, 301, 125, 332, 156
-0.992805, 277, 121, 308, 152
-0.992807, 105, 281, 136, 312
-0.992809, 49, 261, 112, 292
-0.992821, 89, 285, 120, 316
-0.992822, 361, 45, 392, 76
-0.992825, 209, 109, 240, 140
-0.992838, 185, 237, 248, 268
-0.992839, 241, 197, 272, 228
-0.992841, 169, 53, 232, 84
-0.992844, 153, 69, 216, 100
-0.99286, 229, 205, 260, 236
-0.992861, 241, 109, 304, 140
-0.992866, 333, 57, 364, 88
-0.992871, 261, 177, 292, 208
-0.992878, 189, 121, 220, 152
-0.992881, 105, 233, 168, 264
-0.992883, 325, 93, 356, 124
-0.992895, 121, 13, 184, 44
-0.992896, 177, 269, 240, 300
-0.992902, 181, 185, 212, 216
-0.992906, 305, 81, 336, 112
-0.992907, 65, 249, 128, 280
-0.992908, 161, 21, 224, 52
-0.992908, 393, 5, 424, 36
-0.99291, 245, 153, 276, 184
-0.992915, 133, 285, 164, 316
-0.992922, 89, 297, 120, 328
-0.992924, 113, 301, 144, 332
-0.992924, 133, 301, 164, 332
-0.992927, 17, 249, 80, 312
-0.992932, 321, 1, 384, 256
-0.992933, 297, 145, 360, 176
-0.992938, 129, 1, 192, 32
-0.992939, 265, 201, 296, 232
-0.992942, 265, 145, 296, 176
-0.992949, 277, 109, 308, 140
-0.992958, 177, 53, 208, 84
-0.992959, 309, 113, 340, 144
-0.992963, 153, 213, 216, 244
-0.992965, 289, 161, 320, 192
-0.992965, 381, 29, 412, 60
-0.992965, 337, 73, 400, 104
-0.992969, 241, 225, 304, 256
-0.992969, 341, 69, 372, 100
-0.992971, 345, 45, 376, 76
-0.992973, 469, 297, 500, 328
-0.992977, 377, 17, 408, 48
-0.992983, 309, 93, 340, 124
-0.992984, 169, 153, 200, 184
-0.992987, 161, 197, 192, 228
-0.992991, 321, 1, 384, 333
-0.992996, 89, 257, 120, 288
-0.993007, 161, 245, 224, 276
-0.99301, 161, 37, 224, 68
-0.993018, 181, 133, 212, 164
-0.993021, 185, 173, 216, 204
-0.993022, 245, 173, 276, 204
-0.993029, 197, 85, 228, 116
-0.99303, 209, 137, 240, 168
-0.993031, 177, 213, 240, 244
-0.99304, 257, 161, 288, 192
-0.99304, 313, 69, 344, 100
-0.993044, 273, 181, 304, 212
-0.993052, 257, 221, 288, 252
-0.993054, 209, 149, 240, 180
-0.993055, 289, 129, 320, 160
-0.99306, 221, 97, 252, 128
-0.993062, 197, 173, 228, 204
-0.993062, 157, 277, 188, 308
-0.993063, 161, 101, 224, 132
-0.993068, 289, 105, 320, 136
-0.993071, 393, 17, 424, 48
-0.993077, 145, 129, 208, 160
-0.993082, 165, 33, 196, 64
-0.993082, 365, 33, 396, 64
-0.993083, 97, 89, 224, 152
-0.993085, 257, 233, 288, 264
-0.993091, 137, 141, 200, 172
-0.993091, 225, 249, 288, 280
-0.993104, 405, 1, 436, 32
-0.993124, 65, 273, 96, 333
-0.993125, 217, 85, 248, 116
-0.993128, 249, 129, 280, 160
-0.993129, 417, 1, 448, 32
-0.993132, 197, 185, 228, 216
-0.993136, 345, 5, 408, 36
-0.993139, 193, 65, 320, 128
-0.99314, 169, 225, 232, 256
-0.993141, 201, 201, 232, 232
-0.993142, 153, 1, 184, 32
-0.993142, 265, 65, 328, 96
-0.993151, 285, 173, 316, 204
-0.993155, 101, 293, 132, 324
-0.993157, 313, 157, 344, 188
-0.993158, 189, 73, 220, 104
-0.993174, 325, 157, 356, 188
-0.993182, 245, 97, 276, 128
-0.993186, 77, 285, 108, 316
-0.993195, 73, 297, 104, 328
-0.993197, 197, 97, 228, 128
-0.993198, 201, 121, 232, 152
-0.993203, 153, 161, 184, 192
-0.993204, 321, 145, 384, 176
-0.993205, 273, 169, 304, 200
-0.99321, 89, 245, 152, 276
-0.993212, 161, 45, 192, 76
-0.993215, 193, 253, 224, 284
-0.993216, 409, 1, 440, 128
-0.993219, 77, 261, 108, 292
-0.993226, 221, 189, 252, 220
-0.993227, 265, 109, 296, 140
-0.993227, 117, 277, 148, 308
-0.993228, 213, 173, 244, 204
-0.993228, 289, 49, 352, 80
-0.993232, 101, 253, 132, 284
-0.993239, 157, 21, 188, 52
-0.993242, 193, 161, 224, 192
-0.993244, 321, 105, 352, 136
-0.993248, 97, 185, 160, 248
-0.993252, 201, 213, 232, 244
-0.993258, 401, 289, 464, 320
-0.993263, 245, 85, 276, 116
-0.993264, 145, 201, 176, 232
-0.993268, 229, 177, 260, 208
-0.99327, 201, 233, 232, 264
-0.993273, 345, 57, 376, 88
-0.993284, 241, 209, 272, 240
-0.993287, 225, 73, 288, 104
-0.993296, 173, 293, 204, 324
-0.993301, 185, 273, 216, 304
-0.993306, 169, 41, 232, 104
-0.993326, 189, 209, 220, 333
-0.993387, 193, 157, 320, 188
-0.993434, 361, 1, 424, 256
-0.993444, 321, 25, 448, 88
-0.99347, 341, 33, 372, 96
-0.993477, 257, 89, 288, 152
-0.993502, 141, 193, 172, 256
-0.993537, 337, 81, 368, 144
-0.993538, 161, 81, 416, 144
-0.993552, 97, 105, 352, 168
-0.993573, 321, 89, 384, 152
-0.99371, 401, 1, 464, 128
-0.993717, 245, 225, 276, 288
-0.993858, 49, 225, 176, 288
-0.993873, 1, 273, 256, 333
-0.99392, 139, 273, 154, 333
-0.993947, 273, 201, 336, 264
-0.993974, 193, 137, 320, 168
-0.994063, 223, 89, 238, 152
-0.994091, 281, 137, 296, 200
-0.994096, 65, 269, 192, 300
-0.994105, 193, 125, 320, 156
-0.99415, 369, 273, 496, 333
-0.99418, 189, 137, 220, 200
-0.994187, 129, 153, 384, 216
-0.994318, 65, 285, 192, 316
-0.994349, 145, 265, 160, 328
-0.994373, 233, 17, 296, 144
-0.994402, 145, 161, 272, 192
-0.994442, 313, 33, 344, 160
-0.994485, 377, 17, 408, 144
-0.994489, 145, 9, 272, 72
-0.994502, 369, 1, 432, 333
-0.994503, 177, 161, 192, 224
-0.994503, 453, 273, 484, 333
-0.994512, 133, 273, 148, 333
-0.994544, 247, 153, 262, 216
-0.994575, 321, 97, 384, 224
-0.99465, 313, 145, 376, 272
-0.994653, 179, 137, 194, 200
-0.994655, 193, 273, 256, 333
-0.994689, 257, 209, 384, 272
-0.994692, 245, 129, 260, 192
-0.994696, 251, 121, 266, 184
-0.994743, 177, 109, 304, 140
-0.994758, 145, 25, 176, 88
-0.99476, 265, 121, 280, 184
-0.994779, 317, 89, 332, 152
-0.994797, 257, 113, 272, 176
-0.994798, 295, 137, 310, 200
-0.994799, 433, 273, 496, 333
-0.9948, 121, 225, 152, 288
-0.994802, 409, 273, 472, 333
-0.99483, 97, 193, 352, 256
-0.994859, 229, 105, 244, 168
-0.994861, 65, 301, 192, 332
-0.994902, 313, 129, 344, 256
-0.994952, 177, 181, 304, 212
-0.99496, 145, 145, 272, 176
-0.994974, 97, 65, 224, 128
-0.994975, 171, 169, 186, 232
-0.995039, 277, 113, 292, 176
-0.995068, 213, 193, 244, 320
-0.995078, 257, 145, 272, 208
-0.995098, 161, 49, 192, 112
-0.995101, 235, 137, 250, 200
-0.995115, 127, 265, 142, 328
-0.995134, 223, 137, 238, 200
-0.995153, 225, 113, 480, 176
-0.995161, 155, 265, 170, 328
-0.995167, 221, 185, 252, 248
-0.995171, 301, 129, 316, 192
-0.995177, 253, 177, 268, 240
-0.995194, 173, 17, 204, 80
-0.995195, 163, 1, 178, 64
-0.995238, 271, 185, 286, 248
-0.995246, 257, 233, 384, 296
-0.995279, 211, 89, 226, 152
-0.995281, 89, 209, 120, 333
-0.995316, 257, 49, 320, 112
-0.995319, 353, 9, 384, 72
-0.995333, 97, 273, 352, 333
-0.995334, 109, 265, 124, 328
-0.995356, 115, 265, 130, 328
-0.995361, 257, 161, 384, 192
-0.99537, 271, 129, 286, 192
-0.995414, 241, 161, 256, 224
-0.995428, 33, 161, 160, 288
-0.995442, 65, 249, 320, 312
-0.995487, 265, 185, 280, 248
-0.995553, 241, 145, 368, 176
-0.995604, 217, 129, 232, 192
-0.995607, 95, 273, 110, 333
-0.995651, 1, 273, 64, 333
-0.99567, 297, 1, 360, 333
-0.995676, 289, 145, 304, 208
-0.995677, 193, 97, 320, 128
-0.995684, 145, 217, 208, 280
-0.995684, 1, 225, 128, 288
-0.995685, 289, 113, 304, 176
-0.995686, 279, 185, 294, 248
-0.995692, 113, 301, 240, 332
-0.995702, 201, 81, 216, 144
-0.995705, 247, 89, 262, 152
-0.995716, 333, 65, 348, 128
-0.995721, 323, 73, 338, 136
-0.995731, 229, 129, 244, 192
-0.995756, 385, 129, 448, 256
-0.995779, 171, 25, 186, 88
-0.99578, 81, 113, 208, 176
-0.995791, 121, 265, 136, 328
-0.995811, 235, 177, 250, 240
-0.995811, 241, 97, 256, 160
-0.995859, 177, 193, 304, 224
-0.995862, 277, 161, 292, 224
-0.995865, 311, 81, 326, 144
-0.995869, 101, 265, 116, 328
-0.995889, 217, 89, 232, 152
-0.995912, 113, 1, 176, 333
-0.995914, 177, 33, 192, 96
-0.995917, 145, 129, 272, 160
-0.995922, 259, 201, 274, 264
-0.995929, 205, 169, 220, 232
-0.995935, 165, 177, 180, 240
-0.995936, 307, 121, 322, 184
-0.995939, 337, 129, 400, 192
-0.995948, 185, 129, 200, 192
-0.995953, 317, 113, 348, 176
-0.995956, 245, 33, 276, 160
-0.995969, 73, 209, 104, 333
-0.99598, 305, 157, 432, 188
-0.995982, 313, 113, 328, 176
-0.996008, 383, 25, 398, 88
-0.996019, 145, 145, 176, 272
-0.99602, 17, 297, 144, 328
-0.996048, 217, 65, 248, 320
-0.996065, 169, 81, 200, 208
-0.996098, 211, 169, 226, 232
-0.996099, 157, 129, 188, 192
-0.996101, 193, 169, 320, 200
-0.996125, 225, 81, 352, 112
-0.996127, 209, 233, 240, 296
-0.996134, 269, 209, 284, 272
-0.996137, 113, 269, 240, 300
-0.996157, 365, 41, 380, 104
-0.996187, 323, 97, 338, 160
-0.996196, 89, 265, 104, 328
-0.996199, 161, 49, 416, 112
-0.996201, 177, 205, 304, 236
-0.996205, 373, 33, 388, 96
-0.996232, 205, 105, 220, 168
-0.996236, 165, 25, 180, 88
-0.996239, 285, 169, 300, 232
-0.996241, 283, 105, 298, 168
-0.996242, 347, 49, 362, 112
-0.996254, 97, 217, 352, 280
-0.996254, 403, 1, 418, 64
-0.996286, 247, 177, 262, 240
-0.996288, 235, 105, 250, 168
-0.996291, 171, 145, 186, 208
-0.996299, 157, 1, 172, 64
-0.996315, 269, 161, 284, 224
-0.996321, 353, 41, 368, 104
-0.996336, 359, 33, 374, 96
-0.99635, 213, 193, 228, 256
-0.99635, 345, 1, 408, 333
-0.996351, 161, 265, 176, 328
-0.996369, 199, 105, 214, 168
-0.996378, 281, 177, 312, 304
-0.996388, 65, 81, 192, 208
-0.996391, 197, 65, 228, 320
-0.996408, 329, 33, 360, 96
-0.996412, 329, 89, 344, 152
-0.996423, 113, 285, 240, 316
-0.99643, 341, 57, 356, 120
-0.996431, 241, 121, 368, 152
-0.99646, 389, 17, 404, 80
-0.996464, 225, 109, 352, 140
-0.996469, 253, 89, 268, 152
-0.996473, 229, 81, 244, 144
-0.996488, 235, 81, 250, 144
-0.9965, 223, 113, 238, 176
-0.996506, 129, 209, 256, 240
-0.996516, 305, 89, 320, 152
-0.996532, 191, 121, 206, 184
-0.996554, 205, 217, 220, 280
-0.99657, 181, 17, 212, 144
-0.996571, 285, 81, 316, 144
-0.996573, 187, 49, 202, 112
-0.996592, 269, 89, 300, 152
-0.996626, 1, 273, 500, 333
-0.996628, 157, 249, 188, 312
-0.996636, 241, 93, 368, 124
-0.996643, 397, 9, 412, 72
-0.996652, 141, 1, 172, 128
-0.996661, 197, 241, 212, 304
-0.996665, 95, 249, 110, 312
-0.996669, 271, 105, 286, 168
-0.996692, 169, 1, 184, 64
-0.996718, 65, 81, 320, 144
-0.996773, 193, 89, 208, 152
-0.996784, 225, 197, 352, 228
-0.996793, 33, 129, 288, 192
-0.996836, 177, 217, 304, 248
-0.996841, 353, 145, 480, 208
-0.996843, 249, 65, 280, 128
-0.996854, 207, 193, 222, 256
-0.996862, 129, 197, 256, 228
-0.996865, 263, 161, 278, 224
-0.996865, 137, 97, 200, 160
-0.996877, 33, 169, 288, 232
-0.99689, 261, 225, 276, 288
-0.996895, 187, 273, 202, 333
-0.996915, 199, 177, 214, 240
-0.99694, 219, 161, 234, 224
-0.996951, 365, 1, 396, 64
-0.996964, 167, 201, 182, 264
-0.99697, 193, 57, 208, 120
-0.996976, 193, 169, 208, 232
-0.997008, 107, 241, 122, 304
-0.997015, 225, 257, 352, 320
-0.997017, 211, 129, 226, 192
-0.997019, 265, 65, 296, 320
-0.997025, 263, 97, 278, 160
-0.997039, 225, 137, 480, 200
-0.997045, 339, 81, 354, 144
-0.997053, 1, 273, 128, 304
-0.997054, 1, 145, 500, 208
-0.997067, 225, 185, 352, 216
-0.997072, 159, 25, 174, 88
-0.997074, 183, 161, 198, 224
-0.997078, 275, 209, 290, 272
-0.997078, 297, 105, 312, 168
-0.997131, 177, 85, 304, 116
-0.997138, 273, 129, 288, 160
-0.997138, 161, 201, 176, 264
-0.99714, 253, 65, 284, 320
-0.99714, 79, 273, 94, 333
-0.997145, 117, 241, 132, 304
-0.997162, 177, 241, 304, 272
-0.997164, 257, 73, 500, 136
-0.997193, 129, 185, 256, 216
-0.997206, 181, 185, 196, 248
-0.997215, 245, 201, 260, 264
-0.997222, 175, 169, 190, 200
-0.997223, 269, 233, 284, 296
-0.997255, 347, 73, 362, 136
-0.997266, 113, 257, 240, 288
-0.997274, 233, 265, 296, 328
-0.997281, 369, 301, 496, 332
-0.997294, 365, 49, 396, 112
-0.997298, 105, 161, 168, 288
-0.997307, 227, 161, 242, 224
-0.997309, 173, 193, 188, 256
-0.997311, 237, 65, 268, 320
-0.997318, 333, 81, 348, 112
-0.997351, 139, 249, 154, 312
-0.997352, 417, 1, 432, 64
-0.997367, 141, 225, 172, 288
-0.997379, 97, 169, 224, 200
-0.997387, 141, 273, 156, 304
-0.997389, 81, 1, 144, 333
-0.997393, 201, 265, 232, 328
-0.997422, 169, 177, 184, 208
-0.997428, 245, 153, 260, 184
-0.997432, 221, 93, 236, 124
-0.99744, 177, 229, 304, 260
-0.997441, 425, 1, 440, 64
-0.99745, 185, 33, 216, 288
-0.997457, 251, 145, 266, 176
-0.997466, 279, 133, 294, 164
-0.997467, 257, 173, 384, 204
-0.997469, 17, 285, 144, 316
-0.997493, 193, 265, 208, 328
-0.997495, 353, 65, 368, 128
-0.997501, 359, 57, 374, 120
-0.997507, 383, 1, 398, 64
-0.997507, 345, 145, 376, 208
-0.997527, 189, 209, 220, 272
-0.997527, 69, 249, 100, 312
-0.997548, 151, 269, 166, 300
-0.997555, 379, 25, 394, 56
-0.997558, 167, 25, 182, 56
-0.997558, 161, 25, 416, 88
-0.997565, 281, 193, 312, 256
-0.997576, 305, 65, 432, 96
-0.997583, 323, 93, 338, 124
-0.997584, 17, 261, 144, 292
-0.997589, 385, 21, 400, 52
-0.997598, 325, 153, 356, 216
-0.9976, 241, 133, 256, 164
-0.997601, 341, 73, 356, 104
-0.997613, 129, 113, 256, 144
-0.997617, 145, 97, 272, 128
-0.997622, 275, 189, 290, 220
-0.997622, 161, 1, 416, 64
-0.997629, 373, 33, 388, 64
-0.997638, 289, 141, 304, 172
-0.997639, 327, 81, 342, 112
-0.99765, 241, 133, 368, 164
-0.997654, 65, 257, 192, 288
-0.997658, 81, 181, 208, 212
-0.997659, 193, 41, 256, 104
-0.997665, 289, 137, 416, 168
-0.997669, 173, 33, 188, 64
-0.997684, 181, 137, 196, 168
-0.997692, 157, 1, 188, 256
-0.997696, 257, 265, 288, 328
-0.9977, 305, 77, 432, 108
-0.997701, 265, 117, 280, 148
-0.997707, 225, 109, 240, 140
-0.997712, 251, 121, 266, 152
-0.997713, 129, 221, 256, 252
-0.997714, 135, 273, 150, 304
-0.997714, 473, 301, 488, 332
-0.997716, 391, 17, 406, 48
-0.99772, 243, 85, 258, 116
-0.997746, 177, 181, 192, 212
-0.997757, 213, 97, 228, 128
-0.997758, 317, 105, 332, 136
-0.997761, 283, 145, 298, 176
-0.997764, 105, 277, 120, 308
-0.997765, 207, 161, 222, 192
-0.997766, 53, 273, 84, 333
-0.997773, 333, 69, 348, 100
-0.997787, 127, 269, 142, 300
-0.997795, 251, 169, 266, 200
-0.997801, 141, 169, 172, 232
-0.997811, 235, 153, 250, 184
-0.997816, 143, 285, 158, 316
-0.997818, 95, 269, 110, 300
-0.997822, 111, 273, 126, 304
-0.997844, 151, 281, 166, 312
-0.997851, 353, 149, 480, 180
-0.997854, 277, 117, 292, 148
-0.997856, 163, 13, 178, 44
-0.997862, 447, 301, 462, 332
-0.997865, 267, 189, 282, 220
-0.997868, 175, 149, 190, 180
-0.997889, 169, 65, 200, 320
-0.997894, 249, 89, 264, 120
-0.997898, 361, 45, 376, 76
-0.9979, 257, 49, 384, 80
-0.997901, 225, 69, 352, 100
-0.997906, 189, 129, 204, 160
-0.997913, 183, 53, 198, 84
-0.997921, 299, 129, 314, 160
-0.997925, 133, 289, 148, 320
-0.997927, 257, 25, 500, 88
-0.997931, 233, 141, 248, 172
-0.997931, 203, 109, 218, 140
-0.997932, 269, 205, 284, 236
-0.997934, 367, 41, 382, 72
-0.997935, 257, 137, 272, 168
-0.997943, 263, 137, 278, 168
-0.997944, 193, 201, 448, 264
-0.99795, 457, 297, 472, 328
-0.99795, 257, 117, 272, 148
-0.997954, 225, 33, 352, 96
-0.997955, 225, 209, 352, 240
-0.997956, 105, 265, 120, 296
-0.99796, 17, 201, 144, 264
-0.997963, 97, 157, 224, 188
-0.997965, 307, 117, 322, 148
-0.997979, 233, 85, 248, 116
-0.997984, 347, 57, 362, 88
-0.997985, 157, 269, 172, 300
-0.997999, 273, 185, 400, 248
-0.998008, 369, 145, 496, 272
-0.998012, 397, 13, 412, 44
-0.998014, 469, 273, 500, 333
-0.998017, 157, 1, 172, 32
-0.998017, 241, 169, 256, 200
-0.998021, 95, 285, 110, 316
-0.998025, 273, 37, 400, 68
-0.998026, 347, 69, 362, 100
-0.998027, 1, 209, 256, 272
-0.998032, 119, 261, 134, 292
-0.998032, 195, 73, 210, 104
-0.998038, 295, 153, 310, 184
-0.998044, 177, 45, 192, 76
-0.998045, 253, 189, 268, 220
-0.998048, 217, 129, 232, 160
-0.998051, 227, 89, 242, 120
-0.998058, 277, 145, 292, 176
-0.998059, 329, 93, 344, 124
-0.998059, 229, 129, 244, 160
-0.998068, 281, 181, 296, 212
-0.998068, 159, 281, 174, 312
-0.998069, 81, 193, 208, 224
-0.998069, 255, 201, 270, 232
-0.99807, 215, 117, 230, 148
-0.998076, 341, 61, 356, 92
-0.998076, 197, 117, 212, 148
-0.998088, 141, 301, 156, 332
-0.998088, 413, 129, 444, 256
-0.998092, 317, 85, 332, 116
-0.998103, 411, 1, 426, 32
-0.998115, 313, 117, 328, 148
-0.998118, 161, 29, 176, 60
-0.998123, 169, 165, 184, 196
-0.998124, 87, 273, 102, 304
-0.99813, 295, 141, 310, 172
-0.998133, 353, 21, 480, 52
-0.998133, 321, 49, 448, 80
-0.998138, 289, 169, 304, 200
-0.998142, 275, 177, 290, 208
-0.998146, 223, 137, 238, 168
-0.998146, 271, 141, 286, 172
-0.99815, 233, 113, 248, 144
-0.998152, 193, 177, 448, 240
-0.998154, 245, 181, 260, 212
-0.998156, 231, 101, 246, 132
-0.998158, 297, 65, 360, 320
-0.998164, 167, 41, 182, 72
-0.998164, 321, 1, 448, 32
-0.998172, 321, 73, 336, 104
-0.998174, 247, 133, 262, 164
-0.998181, 269, 221, 284, 252
-0.998182, 111, 285, 126, 316
-0.998187, 223, 149, 238, 180
-0.998188, 257, 177, 272, 208
-0.998191, 467, 289, 482, 320
-0.998194, 167, 201, 182, 232
-0.998194, 87, 297, 102, 328
-0.998199, 1, 241, 500, 304
-0.9982, 327, 157, 342, 188
-0.998215, 223, 125, 238, 156
-0.998215, 201, 85, 216, 116
-0.998221, 181, 165, 196, 196
-0.998224, 163, 1, 178, 32
-0.998225, 189, 61, 204, 92
-0.998225, 97, 233, 224, 264
-0.998235, 81, 145, 208, 176
-0.998245, 243, 193, 258, 224
-0.998247, 197, 169, 212, 200
-0.99825, 369, 9, 496, 40
-0.998255, 125, 301, 140, 332
-0.998258, 271, 117, 286, 148
-0.998259, 285, 157, 300, 188
-0.998262, 311, 89, 326, 120
-0.998263, 289, 21, 416, 52
-0.998263, 183, 177, 198, 208
-0.998265, 191, 173, 206, 204
-0.998275, 157, 13, 172, 44
-0.998287, 305, 129, 320, 160
-0.998295, 105, 289, 120, 320
-0.998333, 61, 209, 92, 333
-0.998339, 177, 253, 304, 284
-0.998386, 245, 171, 276, 186
-0.998386, 309, 119, 340, 134
-0.998388, 257, 127, 288, 142
-0.998388, 173, 165, 204, 180
-0.998388, 333, 67, 364, 82
-0.998392, 185, 177, 216, 192
-0.998392, 209, 213, 240, 228
-0.998392, 289, 143, 320, 158
-0.998392, 461, 301, 492, 316
-0.998393, 77, 315, 108, 330
-0.998393, 149, 291, 180, 306
-0.998393, 177, 55, 208, 70
-0.998393, 213, 131, 244, 146
-0.998393, 349, 159, 380, 174
-0.998394, 197, 185, 228, 200
-0.998395, 297, 135, 328, 150
-0.998395, 189, 127, 220, 142
-0.998395, 241, 193, 272, 208
-0.998396, 225, 81, 240, 208
-0.998396, 97, 317, 128, 332
-0.998399, 269, 153, 300, 168
-0.9984, 337, 37, 464, 68
-0.998402, 109, 287, 140, 302
-0.998402, 165, 45, 196, 60
-0.998403, 389, 23, 420, 38
-0.998403, 173, 151, 204, 166
-0.998404, 105, 293, 136, 308
-0.998404, 209, 91, 240, 106
-0.998404, 405, 149, 436, 164
-0.998405, 249, 205, 280, 220
-0.998407, 341, 73, 372, 88
-0.998408, 253, 147, 284, 162
-0.998409, 337, 61, 368, 76
-0.998409, 329, 89, 360, 104
-0.99841, 149, 283, 180, 298
-0.99841, 125, 293, 156, 308
-0.998411, 209, 161, 240, 176
-0.998412, 285, 159, 316, 174
-0.998414, 229, 103, 260, 118
-0.998414, 317, 75, 348, 90
-0.998414, 337, 159, 368, 174
-0.998415, 349, 51, 380, 66
-0.998415, 273, 161, 304, 176
-0.998416, 253, 191, 284, 206
-0.998417, 305, 125, 336, 140
-0.998417, 325, 95, 356, 110
-0.998418, 257, 115, 288, 130
-0.998419, 289, 171, 320, 186
-0.998419, 277, 167, 308, 182
-0.998419, 229, 131, 260, 146
-0.99842, 169, 175, 200, 190
-0.99842, 309, 83, 340, 98
-0.998421, 233, 209, 264, 224
-0.998423, 141, 299, 172, 314
-0.998424, 397, 1, 428, 256
-0.998424, 217, 169, 248, 184
-0.998424, 265, 185, 296, 200
-0.998424, 89, 305, 120, 320
-0.998425, 105, 281, 136, 296
-0.998427, 369, 289, 496, 320
-0.998428, 301, 163, 332, 178
-0.998428, 289, 165, 320, 180
-0.998429, 253, 211, 284, 226
-0.998432, 221, 119, 252, 134
-0.998433, 397, 7, 428, 22
-0.998434, 89, 287, 120, 302
-0.998435, 233, 163, 264, 178
-0.998437, 197, 121, 228, 136
-0.998437, 249, 135, 280, 150
-0.998439, 369, 31, 400, 46
-0.998439, 265, 179, 296, 194
-0.998439, 361, 45, 392, 60
-0.998441, 393, 151, 424, 166
-0.998442, 113, 307, 144, 322
-0.998442, 197, 167, 228, 182
-0.998444, 249, 179, 280, 194
-0.998444, 221, 137, 252, 152
-0.998444, 97, 267, 128, 282
-0.998444, 309, 97, 340, 112
-0.998445, 169, 181, 200, 196
-0.998445, 81, 133, 208, 164
-0.998445, 405, 1, 436, 16
-0.998446, 217, 147, 248, 162
-0.998446, 329, 73, 360, 88
-0.998447, 237, 155, 268, 170
-0.998447, 121, 267, 152, 282
-0.998451, 389, 15, 420, 30
-0.998459, 381, 29, 412, 44
-0.998459, 233, 139, 296, 154
-0.99846, 241, 147, 304, 162
-0.99846, 469, 307, 500, 322
-0.99846, 285, 133, 316, 148
-0.998461, 121, 301, 152, 316
-0.998461, 237, 179, 268, 194
-0.998461, 317, 161, 348, 176
-0.998462, 81, 267, 144, 282
-0.998463, 145, 277, 176, 292
-0.998464, 209, 97, 240, 112
-0.998464, 377, 23, 408, 38
-0.998465, 105, 273, 168, 288
-0.998466, 133, 275, 164, 290
-0.998467, 185, 123, 248, 138
-0.998468, 221, 125, 252, 140
-0.998469, 233, 169, 264, 184
-0.99847, 373, 155, 404, 170
-0.998471, 181, 189, 212, 204
-0.998471, 97, 279, 160, 294
-0.998471, 369, 39, 400, 54
-0.998472, 241, 199, 272, 214
-0.998473, 433, 309, 496, 324
-0.998473, 161, 69, 288, 100
-0.998473, 313, 89, 344, 104
-0.998475, 261, 203, 292, 218
-0.998476, 273, 109, 400, 140
-0.998477, 361, 157, 392, 172
-0.998478, 113, 273, 144, 288
-0.998478, 273, 147, 304, 162
-0.998479, 457, 295, 488, 310
-0.998479, 233, 181, 296, 196
-0.998479, 73, 277, 104, 292
-0.998483, 201, 115, 232, 130
-0.998485, 81, 271, 112, 286
-0.998486, 449, 301, 480, 316
-0.998486, 233, 199, 296, 214
-0.998487, 233, 133, 296, 148
-0.998487, 265, 191, 296, 206
-0.998489, 217, 121, 280, 136
-0.99849, 137, 287, 168, 302
-0.998493, 209, 105, 240, 120
-0.998496, 233, 193, 296, 208
-0.998497, 241, 187, 272, 202
-0.998498, 333, 79, 364, 94
-0.9985, 273, 135, 304, 150
-0.998503, 217, 113, 248, 128
-0.998504, 257, 135, 320, 150
-0.998505, 321, 81, 352, 96
-0.998506, 65, 213, 192, 244
-0.998508, 237, 145, 268, 160
-0.998509, 193, 115, 256, 130
-0.998512, 225, 127, 288, 142
-0.998512, 105, 267, 168, 282
-0.998515, 105, 285, 168, 300
-0.998517, 305, 161, 368, 176
-0.998518, 281, 101, 344, 116
-0.998518, 97, 245, 224, 276
-0.998518, 337, 73, 464, 136
-0.99852, 369, 153, 432, 168
-0.998521, 265, 125, 328, 140
-0.998523, 209, 143, 272, 158
-0.998523, 261, 197, 292, 212
-0.998523, 81, 273, 144, 288
-0.998525, 233, 187, 296, 202
-0.998528, 137, 273, 200, 288
-0.998528, 265, 119, 328, 134
-0.998532, 325, 145, 356, 272
-0.998533, 209, 95, 272, 110
-0.998533, 277, 65, 308, 320
-0.998533, 241, 165, 304, 180
-0.998534, 281, 161, 344, 176
-0.998534, 193, 103, 256, 118
-0.998534, 201, 149, 264, 164
-0.998535, 229, 95, 260, 110
-0.998537, 445, 307, 476, 322
-0.998537, 133, 281, 164, 296
-0.998538, 237, 137, 268, 152
-0.998538, 89, 309, 152, 324
-0.998539, 233, 171, 296, 186
-0.99854, 93, 275, 124, 290
-0.998545, 209, 173, 272, 188
-0.998545, 241, 157, 304, 172
-0.998546, 145, 279, 208, 294
-0.998546, 281, 33, 312, 160
-0.998548, 425, 317, 488, 332
-0.998548, 65, 287, 128, 302
-0.998549, 97, 297, 160, 312
-0.998549, 257, 141, 288, 156
-0.99855, 225, 115, 288, 130
-0.998551, 65, 279, 128, 294
-0.998551, 277, 141, 308, 156
-0.998552, 169, 173, 232, 188
-0.998552, 109, 267, 140, 282
-0.998552, 265, 113, 328, 128
-0.998559, 433, 301, 496, 316
-0.998559, 261, 133, 292, 148
-0.99856, 193, 109, 256, 124
-0.99856, 393, 145, 424, 208
-0.99856, 289, 95, 352, 110
-0.998565, 225, 207, 288, 222
-0.998567, 249, 121, 280, 136
-0.998567, 161, 183, 224, 198
-0.998568, 257, 1, 384, 64
-0.998568, 257, 141, 320, 156
-0.998568, 345, 157, 408, 172
-0.998573, 209, 135, 272, 150
-0.998575, 177, 129, 240, 144
-0.998576, 129, 285, 192, 300
-0.998576, 201, 179, 264, 194
-0.998577, 273, 155, 336, 170
-0.99858, 185, 167, 248, 182
-0.998584, 1, 113, 500, 176
-0.998586, 241, 121, 304, 136
-0.998588, 73, 317, 136, 332
-0.998588, 225, 213, 288, 228
-0.99859, 1, 201, 500, 264
-0.99859, 209, 87, 272, 102
-0.998591, 177, 135, 240, 150
-0.998591, 161, 167, 224, 182
-0.998591, 89, 291, 152, 306
-0.998591, 113, 291, 176, 306
-0.998592, 145, 271, 176, 286
-0.998592, 281, 169, 344, 184
-0.998593, 169, 149, 232, 164
-0.998593, 137, 301, 200, 316
-0.998595, 169, 143, 232, 158
-0.998596, 209, 167, 272, 182
-0.998596, 201, 207, 264, 222
-0.998599, 17, 249, 144, 280
-0.998599, 121, 279, 184, 294
-0.998599, 185, 95, 248, 110
-0.998599, 225, 103, 288, 118
-0.998601, 121, 317, 184, 332
-0.998602, 281, 107, 344, 122
-0.998603, 217, 109, 280, 124
-0.998606, 129, 307, 192, 322
-0.998606, 297, 87, 360, 102
-0.998607, 201, 129, 264, 144
-0.998608, 137, 179, 200, 194
-0.998611, 161, 159, 224, 174
-0.998612, 169, 189, 232, 204
-0.998613, 201, 161, 264, 176
-0.998613, 89, 303, 152, 318
-0.998613, 209, 185, 272, 200
-0.998613, 153, 285, 216, 300
-0.998613, 209, 199, 272, 214
-0.998613, 305, 89, 432, 120
-0.998614, 137, 291, 200, 306
-0.998615, 229, 87, 260, 102
-0.998616, 393, 151, 456, 166
-0.998617, 377, 25, 440, 40
-0.99862, 305, 81, 368, 96
-0.998622, 161, 195, 224, 210
-0.998623, 361, 37, 424, 52
-0.998625, 257, 191, 320, 206
-0.998627, 209, 155, 272, 170
-0.998627, 153, 267, 216, 282
-0.99863, 161, 201, 224, 216
-0.998636, 369, 31, 432, 46
-0.998636, 249, 205, 312, 220
-0.998638, 305, 69, 368, 84
-0.998639, 313, 75, 376, 90
-0.99864, 73, 297, 136, 312
-0.998641, 289, 131, 352, 146
-0.998641, 257, 173, 320, 188
-0.998641, 41, 293, 104, 308
-0.998643, 393, 1, 456, 16
-0.998643, 353, 45, 416, 60
-0.998645, 201, 213, 264, 228
-0.998646, 377, 17, 440, 32
-0.998646, 217, 219, 280, 234
-0.998647, 409, 307, 472, 322
-0.998647, 169, 317, 232, 332
-0.998648, 57, 271, 120, 286
-0.99865, 201, 191, 264, 206
-0.998651, 65, 309, 128, 324
-0.998652, 337, 57, 400, 72
-0.998653, 161, 273, 224, 288
-0.998656, 321, 155, 384, 170
-0.998659, 233, 97, 296, 112
-0.998661, 129, 173, 192, 188
-0.998661, 297, 121, 360, 136
-0.998662, 169, 115, 232, 130
-0.998664, 433, 295, 496, 310
-0.998664, 241, 91, 304, 106
-0.998664, 329, 63, 392, 78
-0.998665, 209, 231, 272, 246
-0.998665, 153, 207, 216, 222
-0.998666, 185, 89, 248, 104
-0.998666, 97, 315, 160, 330
-0.998666, 281, 143, 344, 158
-0.998676, 129, 85, 256, 116
-0.998704, 215, 81, 230, 208
-0.998714, 161, 265, 288, 296
-0.998748, 17, 229, 144, 260
-0.998751, 177, 297, 304, 328
-0.998764, 49, 137, 176, 200
-0.998764, 231, 81, 246, 208
-0.998779, 237, 113, 252, 240
-0.998836, 177, 129, 192, 256
-0.998842, 265, 249, 328, 312
-0.998852, 243, 129, 258, 256
-0.998863, 277, 129, 292, 256
-0.998882, 221, 57, 252, 120
-0.998884, 269, 177, 284, 304
-0.998893, 177, 17, 240, 80
-0.998897, 243, 81, 258, 208
-0.998898, 267, 129, 282, 256
-0.998904, 187, 113, 202, 240
-0.998913, 65, 29, 192, 60
-0.998932, 261, 113, 276, 240
-0.998933, 225, 225, 352, 256
-0.998938, 221, 129, 236, 256
-0.998939, 97, 65, 224, 96
-0.99894, 225, 245, 352, 276
-0.998952, 249, 97, 264, 224
-0.998957, 81, 41, 208, 72
-0.998977, 227, 129, 242, 256
-0.998982, 165, 105, 196, 168
-0.998983, 1, 169, 500, 232
-0.998991, 1, 1, 64, 333
-0.998996, 255, 129, 270, 256
-0.999008, 237, 65, 252, 192
-0.999031, 197, 97, 212, 224
-0.999036, 259, 177, 274, 304
-0.999039, 301, 161, 332, 224
-0.999044, 249, 145, 264, 272
-0.999051, 33, 41, 288, 104
-0.999057, 145, 45, 272, 76
-0.999059, 203, 97, 218, 224
-0.999067, 169, 161, 184, 288
-0.999071, 145, 1, 176, 256
-0.999085, 211, 145, 226, 272
-0.999127, 209, 81, 224, 208
-0.999138, 205, 161, 220, 288
-0.999143, 283, 145, 298, 272
-0.999148, 193, 225, 448, 288
-0.99915, 321, 97, 336, 224
-0.999154, 177, 57, 304, 88
-0.999176, 97, 97, 224, 128
-0.999188, 385, 145, 448, 208
-0.999189, 1, 9, 256, 72
-0.999204, 257, 1, 500, 64
-0.999206, 275, 177, 290, 304
-0.999225, 149, 209, 164, 333
-0.999228, 163, 1, 178, 128
-0.99923, 357, 1, 388, 256
-0.999231, 145, 29, 272, 60
-0.999244, 203, 209, 218, 333
-0.99925, 257, 49, 500, 112
-0.999252, 291, 113, 306, 240
-0.999252, 81, 121, 208, 152
-0.999262, 135, 209, 150, 333
-0.999264, 185, 49, 200, 176
-0.999273, 289, 1, 320, 256
-0.999274, 169, 1, 184, 128
-0.999276, 183, 161, 198, 288
-0.999277, 197, 177, 212, 304
-0.999278, 321, 33, 352, 288
-0.999281, 137, 1, 168, 64
-0.999283, 235, 161, 250, 288
-0.999286, 271, 81, 286, 208
-0.999288, 161, 277, 288, 308
-0.999307, 255, 81, 270, 208
-0.999308, 163, 193, 178, 320
-0.99932, 273, 185, 400, 216
-0.999335, 327, 81, 342, 208
-0.999341, 171, 113, 186, 240
-0.999344, 279, 81, 294, 208
-0.999345, 211, 193, 226, 320
-0.99935, 191, 49, 206, 176
-0.999353, 315, 49, 330, 176
-0.999355, 321, 121, 448, 184
-0.999356, 157, 1, 172, 128
-0.99936, 155, 209, 170, 333
-0.999371, 141, 209, 156, 333
-0.999372, 337, 65, 352, 192
-0.999376, 225, 257, 352, 288
-0.999379, 369, 33, 496, 96
-0.999409, 285, 81, 300, 208
-0.999412, 197, 49, 212, 176
-0.999416, 225, 273, 480, 333
-0.99942, 177, 177, 192, 304
-0.999422, 175, 33, 190, 160
-0.99943, 315, 97, 330, 224
-0.999438, 57, 1, 120, 333
-0.999449, 305, 97, 320, 224
-0.999458, 241, 177, 256, 304
-0.999461, 353, 49, 368, 176
-0.999465, 327, 33, 342, 160
-0.999466, 225, 33, 240, 160
-0.99947, 269, 233, 300, 296
-0.999472, 343, 1, 358, 128
-0.999478, 347, 49, 362, 176
-0.999483, 81, 53, 208, 84
-0.999486, 397, 1, 412, 128
-0.999486, 125, 209, 140, 333
-0.999487, 281, 193, 296, 320
-0.999488, 251, 193, 266, 320
-0.99949, 191, 161, 206, 288
-0.99949, 261, 65, 276, 192
-0.999496, 249, 49, 264, 176
-0.999496, 57, 233, 88, 296
-0.999497, 297, 81, 312, 208
-0.99951, 211, 33, 226, 160
-0.999516, 203, 49, 218, 176
-0.999521, 419, 1, 434, 128
-0.999521, 111, 209, 126, 333
-0.999523, 405, 1, 420, 128
-0.999526, 1, 105, 256, 168
-0.999531, 117, 209, 132, 333
-0.999532, 231, 33, 246, 160
-0.999536, 163, 129, 178, 256
-0.999546, 291, 65, 306, 192
-0.999546, 129, 201, 160, 264
-0.999555, 219, 33, 234, 160
-0.999564, 355, 1, 370, 128
-0.999565, 177, 81, 192, 208
-0.999571, 337, 17, 352, 144
-0.999573, 129, 1, 256, 32
-0.999588, 209, 1, 336, 64
-0.999588, 181, 139, 196, 154
-0.999588, 385, 1, 448, 256
-0.999589, 315, 161, 330, 176
-0.999589, 275, 199, 290, 214
-0.99959, 387, 33, 402, 48
-0.99959, 163, 11, 178, 26
-0.99959, 303, 165, 318, 180
-0.99959, 265, 119, 280, 134
-0.999591, 245, 163, 260, 178
-0.999591, 235, 203, 250, 218
-0.999591, 241, 93, 256, 108
-0.999591, 101, 209, 116, 333
-0.999592, 93, 317, 108, 332
-0.999592, 385, 153, 400, 168
-0.999592, 375, 45, 390, 60
-0.999592, 275, 121, 290, 136
-0.999592, 245, 143, 260, 158
-0.999592, 353, 65, 368, 80
-0.999593, 395, 151, 410, 166
-0.999593, 135, 281, 150, 296
-0.999593, 163, 1, 178, 16
-0.999594, 179, 147, 194, 162
-0.999594, 229, 143, 244, 158
-0.999595, 197, 119, 212, 134
-0.999595, 105, 279, 120, 294
-0.999596, 167, 41, 182, 56
-0.999596, 247, 155, 262, 170
-0.999597, 223, 141, 238, 156
-0.999597, 141, 305, 156, 320
-0.999597, 361, 17, 376, 144
-0.999597, 227, 91, 242, 106
-0.999597, 251, 89, 266, 104
-0.999598, 175, 165, 190, 180
-0.999598, 159, 19, 174, 34
-0.999598, 297, 167, 312, 182
-0.9996, 261, 195, 276, 210
-0.9996, 269, 125, 284, 140
-0.9996, 87, 303, 102, 318
-0.9996, 483, 315, 498, 330
-0.9996, 269, 207, 284, 222
-0.9996, 309, 163, 324, 178
-0.999601, 285, 153, 300, 168
-0.999601, 157, 7, 172, 22
-0.999601, 169, 191, 184, 206
-0.999601, 167, 27, 182, 42
-0.999601, 283, 147, 298, 162
-0.999602, 101, 289, 116, 304
-0.999602, 391, 1, 406, 128
-0.999602, 307, 129, 322, 144
-0.999604, 381, 39, 396, 54
-0.999605, 375, 155, 390, 170
-0.999605, 255, 187, 270, 202
-0.999606, 193, 125, 208, 140
-0.999606, 227, 107, 242, 122
-0.999606, 241, 133, 256, 148
-0.999606, 279, 181, 294, 196
-0.999607, 269, 189, 284, 204
-0.999608, 243, 207, 258, 222
-0.999608, 151, 287, 166, 302
-0.999608, 281, 191, 296, 206
-0.999609, 117, 265, 132, 280
-0.999611, 157, 1, 172, 16
-0.999612, 161, 25, 176, 40
-0.999612, 151, 275, 166, 290
-0.999612, 181, 59, 196, 74
-0.999612, 133, 315, 148, 330
-0.999612, 325, 159, 340, 174
-0.999613, 129, 271, 144, 286
-0.999613, 293, 145, 324, 272
-0.999615, 253, 199, 268, 214
-0.999615, 147, 281, 162, 296
-0.999616, 335, 77, 350, 92
-0.999616, 173, 45, 188, 60
-0.999617, 267, 139, 282, 154
-0.999617, 277, 145, 292, 160
-0.999618, 261, 139, 276, 154
-0.999618, 135, 275, 150, 290
-0.999619, 453, 299, 468, 314
-0.999619, 329, 79, 344, 94
-0.99962, 419, 1, 434, 16
-0.999623, 167, 35, 182, 50
-0.999623, 233, 87, 248, 102
-0.999623, 173, 171, 188, 186
-0.999623, 167, 173, 182, 188
-0.999624, 85, 315, 100, 330
-0.999624, 251, 137, 266, 152
-0.999625, 153, 269, 168, 284
-0.999626, 297, 129, 312, 256
-0.999626, 365, 45, 380, 60
-0.999628, 93, 271, 108, 286
-0.999629, 299, 137, 314, 152
-0.999629, 251, 177, 266, 192
-0.99963, 249, 149, 264, 164
-0.99963, 397, 17, 412, 32
-0.999631, 411, 1, 426, 128
-0.999631, 81, 275, 96, 290
-0.999632, 445, 309, 460, 324
-0.999634, 471, 311, 486, 326
-0.999639, 249, 97, 264, 112
-0.999639, 323, 85, 338, 100
-0.999639, 231, 113, 246, 128
-0.999642, 207, 167, 222, 182
-0.999642, 123, 267, 138, 282
-0.999645, 275, 191, 290, 206
-0.999645, 255, 143, 270, 158
-0.999647, 241, 155, 256, 170
-0.99965, 223, 113, 238, 128
-0.999651, 391, 19, 406, 34
-0.999652, 203, 113, 218, 128
-0.999655, 169, 179, 184, 194
-0.999655, 293, 141, 308, 156
-0.999657, 377, 17, 392, 144
-0.999657, 217, 193, 232, 320
-0.999658, 105, 269, 120, 284
-0.999658, 25, 1, 88, 333
-0.999662, 175, 187, 190, 202
-0.999663, 245, 87, 260, 102
-0.999665, 247, 171, 262, 186
-0.999668, 369, 121, 496, 184
-0.999671, 313, 119, 328, 134
-0.999672, 307, 49, 322, 176
-0.999672, 307, 123, 322, 138
-0.999673, 157, 145, 172, 272
-0.999675, 141, 273, 156, 288
-0.999675, 385, 1, 400, 128
-0.999678, 91, 209, 106, 333
-0.999679, 183, 183, 198, 198
-0.99968, 301, 131, 316, 146
-0.99968, 283, 141, 298, 156
-0.99968, 339, 83, 354, 98
-0.999687, 289, 147, 304, 162
-0.999687, 321, 103, 336, 118
-0.999688, 271, 131, 286, 146
-0.999689, 315, 113, 330, 128
-0.999689, 371, 39, 386, 54
-0.99969, 331, 89, 346, 104
-0.999691, 221, 93, 236, 108
-0.999694, 169, 209, 184, 333
-0.999694, 371, 33, 386, 160
-0.999699, 329, 129, 344, 256
-0.999702, 321, 49, 336, 176
-0.999703, 349, 1, 364, 128
-0.999705, 389, 25, 404, 40
-0.999705, 325, 97, 340, 112
-0.999708, 289, 161, 304, 288
-0.99971, 377, 33, 392, 48
-0.999719, 347, 71, 362, 86
-0.999723, 65, 209, 80, 333
-0.999729, 77, 209, 92, 333
-0.999732, 383, 27, 398, 42
-0.999734, 175, 177, 190, 192
-0.999747, 313, 153, 344, 216
-0.99975, 187, 1, 202, 128
-0.999755, 345, 1, 376, 256
-0.999757, 341, 75, 356, 90
-0.999764, 419, 113, 434, 240
-0.999772, 277, 135, 292, 150
-0.999776, 223, 177, 238, 304
-0.999784, 301, 65, 332, 320
-0.999785, 181, 1, 196, 128
-0.999789, 289, 125, 416, 156
-0.999795, 301, 33, 316, 160
-0.999796, 169, 49, 184, 176
-0.999799, 241, 17, 256, 144
-0.9998, 273, 9, 400, 40
-0.999806, 335, 129, 350, 256
-0.999807, 229, 177, 244, 304
-0.999812, 425, 1, 440, 128
-0.999816, 17, 217, 144, 248
-0.999817, 81, 9, 208, 40
-0.999819, 81, 109, 208, 140
-0.999821, 323, 145, 338, 272
-0.999823, 413, 113, 428, 240
-0.999832, 369, 137, 496, 168
-0.999834, 191, 209, 206, 333
-0.999835, 85, 209, 100, 333
-0.999848, 273, 197, 400, 228
-0.999851, 151, 1, 166, 128
-0.999854, 267, 33, 282, 160
-0.999858, 71, 209, 86, 333
-0.999867, 283, 33, 298, 160
-0.999869, 303, 145, 318, 272
-0.999871, 315, 145, 330, 272
-0.99988, 49, 169, 176, 200
-0.999881, 359, 65, 374, 192
-0.999886, 321, 1, 336, 128
-0.999886, 425, 129, 440, 256
-0.999904, 313, 33, 344, 96
-0.999918, 293, 57, 324, 120
-0.999924, 255, 33, 270, 160
-0.999927, 57, 209, 72, 333
-0.999945, 129, 17, 256, 48
-0.999946, 149, 161, 164, 288
-0.999952, 321, 301, 448, 332
-0.999958, 161, 249, 416, 312
-0.999959, 97, 225, 128, 288
-0.999968, 141, 145, 156, 272
-0.999997, 333, 1, 364, 256
-1.00002, 217, 49, 280, 112
-1.00003, 409, 129, 472, 256
-1.00005, 393, 1, 456, 333
-1.00011, 385, 1, 416, 256
-1.00011, 97, 209, 160, 272
-1.00015, 257, 249, 500, 312
-1.00017, 49, 33, 176, 96
-1.00021, 321, 101, 448, 132
-1.00024, 209, 33, 336, 64
-1.00026, 69, 225, 100, 288
-1.00027, 225, 301, 352, 332
-1.00027, 33, 197, 160, 228
-1.00027, 49, 157, 176, 188
-1.00028, 209, 269, 336, 300
-1.0003, 33, 161, 160, 224
-1.0003, 353, 61, 480, 92
-1.00033, 273, 209, 400, 240
-1.00034, 257, 33, 288, 160
-1.00035, 193, 17, 224, 144
-1.00037, 273, 301, 400, 332
-1.00037, 193, 45, 320, 76
-1.0004, 369, 1, 400, 256
-1.00042, 273, 249, 400, 280
-1.00043, 121, 41, 184, 104
-1.00043, 333, 97, 364, 224
-1.00045, 77, 65, 108, 320
-1.00047, 225, 21, 352, 52
-1.00048, 81, 81, 208, 112
-1.00049, 1, 1, 500, 64
-1.00051, 321, 113, 448, 144
-1.00052, 353, 277, 480, 308
-1.00053, 369, 209, 496, 333
-1.00053, 409, 1, 440, 256
-1.00057, 273, 237, 400, 268
-1.00061, 17, 181, 144, 212
-1.00062, 225, 9, 352, 40
-1.00063, 1, 41, 128, 72
-1.00064, 1, 73, 500, 136
-1.00066, 369, 49, 496, 80
-1.00066, 353, 161, 480, 192
-1.00069, 1, 29, 128, 60
-1.0007, 109, 65, 140, 320
-1.00071, 1, 33, 128, 96
-1.00074, 97, 65, 128, 320
-1.00074, 65, 65, 96, 320
-1.00074, 241, 289, 368, 320
-1.00076, 257, 269, 384, 300
-1.00076, 353, 125, 480, 156
-1.00076, 305, 169, 432, 200
-1.00077, 121, 65, 152, 320
-1.00077, 13, 33, 44, 288
-1.00079, 1, 209, 64, 333
-1.00083, 45, 65, 76, 320
-1.00084, 25, 33, 56, 288
-1.0009, 157, 49, 188, 176
-1.00095, 133, 65, 164, 320
-1.00097, 297, 169, 360, 232
-1.00097, 425, 1, 456, 256
-1.001, 49, 209, 80, 333
-1.00109, 1, 33, 32, 288
-1.00109, 433, 1, 496, 333
-1.00112, 369, 41, 432, 104
-1.00113, 73, 65, 136, 320
-1.00118, 65, 161, 128, 288
-1.00124, 321, 161, 448, 288
-1.00124, 369, 177, 496, 240
-1.00136, 445, 33, 476, 288
-1.00145, 469, 1, 500, 256
-1.00153, 105, 1, 168, 64
-1.00154, 457, 1, 488, 256
-1.00156, 133, 161, 164, 288
-1.00158, 1, 33, 500, 96
-1.00159, 113, 145, 176, 208
-1.00177, 417, 1, 480, 64
-1.00187, 113, 97, 176, 224
-1.0019, 369, 217, 496, 280
-1.00194, 33, 113, 160, 176
-1.00198, 393, 121, 456, 184
-1.002, 321, 273, 448, 333
-1.00202, 1, 89, 128, 152
-1.00212, 401, 129, 432, 256
-1.00214, 33, 9, 160, 72
-1.00215, 417, 81, 480, 208
-1.00219, 369, 97, 496, 160
-1.0022, 281, 17, 344, 80
-1.00221, 369, 249, 496, 312
-1.00222, 137, 65, 200, 128
-1.00225, 33, 65, 160, 128
-1.00225, 97, 65, 160, 320
-1.00228, 297, 1, 328, 128
-1.00238, 1, 137, 128, 200
-1.00256, 49, 89, 176, 152
-1.00256, 321, 185, 448, 248
-1.00256, 321, 225, 448, 288
-1.00269, 353, 49, 416, 176
-1.0027, 217, 1, 248, 128
-1.0027, 25, 225, 88, 288
-1.00272, 305, 249, 432, 312
-1.00301, 273, 273, 400, 333
-1.00305, 113, 145, 144, 272
-1.00328, 145, 97, 176, 224
-1.00335, 17, 113, 144, 240
-1.00352, 33, 17, 160, 144
-1.00352, 361, 121, 424, 184
-1.0037, 49, 65, 112, 320
-1.00379, 17, 65, 80, 320
-1.00384, 25, 201, 88, 264
-1.00397, 273, 209, 400, 333
-1.0041, 421, 1, 452, 128
-1.00416, 101, 161, 132, 288
-1.00434, 17, 65, 144, 192
-1.00435, 401, 81, 432, 208
-1.00437, 37, 209, 68, 333
-1.0044, 421, 81, 452, 208
-1.00448, 309, 177, 340, 304
-1.00451, 461, 209, 492, 333
-1.00455, 265, 1, 328, 128
-1.00472, 73, 161, 104, 288
-1.00474, 73, 161, 136, 224
-1.00476, 417, 65, 480, 320
-1.00504, 241, 17, 304, 80
-1.00519, 13, 209, 44, 333
-1.00522, 25, 161, 88, 288
-1.00527, 85, 145, 116, 272
-1.00527, 337, 145, 368, 272
-1.00537, 45, 161, 76, 288
-1.00549, 133, 113, 164, 240
-1.00558, 369, 97, 496, 224
-1.00559, 49, 193, 112, 256
-1.00563, 1, 209, 32, 333
-1.00571, 1, 225, 64, 288
-1.00573, 25, 209, 56, 333
-1.00578, 269, 17, 300, 144
-1.00586, 49, 33, 80, 160
-1.00588, 65, 49, 96, 176
-1.00594, 425, 129, 456, 256
-1.00596, 5, 49, 36, 176
-1.00602, 349, 81, 380, 208
-1.00608, 257, 273, 320, 333
-1.0061, 61, 161, 92, 288
-1.00618, 125, 49, 156, 176
-1.0062, 377, 81, 440, 208
-1.00631, 393, 25, 456, 88
-1.00636, 37, 65, 68, 192
-1.00636, 17, 41, 80, 104
-1.00644, 89, 49, 120, 176
-1.00644, 433, 209, 464, 333
-1.0065, 77, 49, 108, 176
-1.00652, 17, 161, 48, 288
-1.00654, 89, 137, 152, 200
-1.00658, 389, 97, 420, 224
-1.00663, 17, 33, 48, 160
-1.00668, 49, 169, 112, 232
-1.00674, 425, 249, 488, 312
-1.00674, 17, 97, 48, 224
-1.00675, 65, 97, 96, 224
-1.00675, 49, 113, 80, 240
-1.00677, 49, 129, 112, 192
-1.00679, 1, 33, 64, 160
-1.00682, 101, 33, 132, 160
-1.00686, 113, 97, 144, 224
-1.00688, 5, 97, 36, 224
-1.00691, 49, 25, 112, 88
-1.00699, 97, 113, 128, 240
-1.00701, 29, 129, 60, 256
-1.00706, 137, 49, 168, 176
-1.00709, 1, 145, 32, 272
-1.00717, 37, 17, 68, 144
-1.00725, 425, 209, 488, 333
-1.00727, 113, 49, 144, 176
-1.00733, 49, 113, 112, 240
-1.00735, 121, 1, 152, 128
-1.00739, 85, 1, 116, 128
-1.00744, 81, 97, 112, 224
-1.00748, 217, 25, 280, 88
-1.00751, 353, 169, 416, 232
-1.00758, 329, 273, 392, 333
-1.0076, 73, 113, 136, 176
-1.0077, 433, 81, 464, 208
-1.00771, 61, 1, 92, 128
-1.00774, 1, 17, 64, 80
-1.00774, 81, 89, 144, 152
-1.00781, 97, 113, 160, 176
-1.00786, 1, 1, 32, 128
-1.00786, 41, 1, 104, 64
-1.00788, 81, 1, 144, 64
-1.00795, 305, 265, 368, 328
-1.00798, 385, 273, 448, 333
-1.00809, 445, 209, 476, 333
-1.00811, 1, 201, 64, 264
-1.00813, 377, 97, 440, 160
-1.00816, 73, 1, 104, 128
-1.00817, 73, 113, 136, 240
-1.00818, 41, 49, 104, 176
-1.00823, 41, 97, 104, 160
-1.00834, 17, 113, 80, 240
-1.00841, 345, 81, 408, 144
-1.00844, 17, 105, 80, 168
-1.00848, 25, 129, 88, 192
-1.00851, 461, 113, 492, 240
-1.00852, 281, 225, 344, 288
-1.00853, 469, 161, 500, 288
-1.0087, 89, 33, 152, 160
-1.00877, 441, 145, 472, 272
-1.00881, 349, 129, 380, 256
-1.00891, 393, 209, 424, 333
-1.00892, 373, 209, 404, 333
-1.00923, 401, 209, 464, 333
-1.0101, 33, 1, 96, 128
-1.01015, 1, 161, 64, 288
-1.01033, 353, 97, 416, 224
-1.0104, 321, 209, 448, 333
-1.01062, 65, 49, 128, 176
-1.0111, 433, 129, 496, 256
-1.01176, 361, 145, 424, 272
-1.01236, 369, 49, 496, 176
-1.01263, 57, 1, 120, 128
-1.01296, 369, 209, 432, 333
-1.01308, 337, 145, 400, 272
-1.01377, 321, 209, 384, 333
-1.01383, 345, 209, 408, 333
-1.01452, 433, 17, 496, 144
-1.01458, 297, 209, 360, 333
-1.01499, 113, 49, 176, 176
