1879
-0.364612, 1, 1, 500, 256
-0.365684, 1, 1, 500, 333
-0.387509, 257, 1, 500, 333
-0.390673, 33, 1, 288, 333
-0.401965, 129, 1, 384, 333
-0.475622, 129, 1, 384, 256
-0.519673, 257, 33, 500, 288
-0.578714, 33, 33, 288, 288
-0.841117, 273, 1, 400, 256
-0.844226, 241, 1, 368, 333
-0.846088, 1, 33, 128, 288
-0.846384, 49, 33, 176, 288
-0.848757, 145, 1, 272, 256
-0.848805, 97, 65, 224, 320
-0.853662, 369, 1, 496, 256
-0.860758, 289, 1, 416, 333
-0.862273, 193, 65, 320, 320
-0.864479, 1, 1, 128, 333
-0.86812, 353, 1, 480, 333
-0.869244, 49, 1, 176, 333
-0.87291, 145, 1, 272, 333
-0.875391, 321, 1, 448, 256
-0.883133, 1, 65, 500, 192
-0.884708, 1, 177, 500, 304
-0.887612, 193, 1, 320, 333
-0.891567, 97, 113, 352, 240
-0.895643, 1, 1, 500, 128
-0.896198, 1, 129, 500, 256
-0.900011, 97, 1, 224, 333
-0.906317, 65, 161, 320, 288
-0.90735, 225, 81, 480, 208
-0.912821, 1, 65, 256, 192
-0.913611, 1, 113, 256, 240
-0.918334, 257, 17, 500, 144
-0.922127, 9, 49, 72, 176
-0.922526, 65, 1, 320, 128
-0.923636, 97, 65, 352, 192
-0.926161, 257, 161, 500, 288
-0.926744, 113, 145, 240, 272
-0.927075, 49, 17, 112, 144
-0.928069, 129, 97, 192, 224
-0.928417, 361, 129, 424, 256
-0.930087, 1, 49, 128, 176
-0.933195, 225, 113, 352, 240
-0.933696, 257, 145, 320, 272
-0.933817, 161, 97, 288, 224
-0.934014, 321, 113, 448, 240
-0.934433, 401, 129, 464, 256
-0.934788, 65, 97, 192, 224
-0.934889, 273, 97, 400, 224
-0.935021, 9, 1, 72, 128
-0.935339, 161, 193, 416, 320
-0.936173, 153, 97, 216, 224
-0.936751, 321, 113, 384, 240
-0.93709, 41, 81, 104, 208
-0.937915, 241, 161, 368, 288
-0.938289, 105, 145, 168, 272
-0.938832, 273, 49, 400, 176
-0.939646, 353, 65, 480, 192
-0.939926, 9, 97, 72, 224
-0.940507, 361, 81, 424, 208
-0.941058, 81, 193, 144, 320
-0.941166, 49, 49, 176, 176
-0.94232, 281, 129, 344, 256
-0.94244, 305, 1, 432, 128
-0.942502, 161, 17, 416, 144
-0.943012, 57, 177, 120, 304
-0.943284, 353, 1, 480, 128
-0.943466, 9, 65, 72, 128
-0.94427, 433, 1, 496, 128
-0.944277, 297, 33, 360, 160
-0.944334, 65, 209, 320, 333
-0.944501, 425, 145, 488, 272
-0.944654, 113, 97, 240, 224
-0.944822, 129, 113, 192, 176
-0.944909, 129, 145, 192, 272
-0.945105, 57, 49, 120, 112
-0.945341, 409, 1, 472, 128
-0.945373, 321, 17, 384, 144
-0.945378, 9, 105, 72, 168
-0.946372, 265, 49, 328, 176
-0.946782, 33, 89, 96, 152
-0.948161, 369, 145, 496, 272
-0.948201, 297, 177, 360, 304
-0.948703, 177, 145, 304, 272
-0.949509, 337, 65, 400, 192
-0.949728, 33, 145, 96, 272
-0.950155, 1, 1, 128, 128
-0.950336, 225, 65, 352, 192
-0.951182, 33, 193, 160, 320
-0.951212, 401, 153, 464, 216
-0.951315, 217, 145, 280, 272
-0.951324, 385, 81, 448, 208
-0.951604, 65, 65, 128, 192
-0.951665, 425, 81, 488, 208
-0.951895, 321, 161, 448, 288
-0.95207, 17, 33, 80, 96
-0.952444, 161, 145, 224, 272
-0.952501, 281, 177, 344, 240
-0.952544, 89, 49, 152, 176
-0.952745, 81, 193, 144, 256
-0.952914, 145, 49, 272, 176
-0.953427, 161, 113, 224, 176
-0.9546, 425, 145, 488, 208
-0.955041, 81, 1, 208, 128
-0.955374, 1, 129, 128, 256
-0.9554, 65, 145, 192, 272
-0.955486, 225, 97, 288, 224
-0.955704, 57, 185, 120, 248
-0.955735, 321, 161, 384, 288
-0.955873, 361, 145, 424, 208
-0.955888, 193, 193, 320, 320
-0.955997, 433, 9, 496, 72
-0.956344, 361, 1, 424, 128
-0.956396, 129, 137, 192, 200
-0.956796, 193, 1, 320, 128
-0.956878, 385, 1, 448, 128
-0.957116, 361, 177, 424, 304
-0.957359, 217, 193, 280, 320
-0.957626, 33, 57, 96, 120
-0.958353, 265, 193, 328, 320
-0.958557, 321, 169, 384, 232
-0.958718, 385, 129, 448, 192
-0.96035, 49, 25, 112, 88
-0.960353, 329, 145, 392, 208
-0.960473, 145, 17, 208, 144
-0.960709, 193, 81, 256, 208
-0.961092, 393, 1, 456, 64
-0.961103, 257, 97, 320, 224
-0.961377, 361, 169, 424, 232
-0.961547, 297, 33, 360, 96
-0.961565, 129, 193, 256, 320
-0.961716, 121, 193, 184, 320
-0.961748, 9, 129, 72, 192
-0.96178, 297, 81, 360, 208
-0.961801, 21, 65, 52, 192
-0.961985, 249, 185, 312, 248
-0.962495, 89, 193, 120, 256
-0.96296, 73, 1, 136, 128
-0.963026, 81, 193, 208, 320
-0.9633, 73, 81, 136, 144
-0.963337, 185, 1, 248, 64
-0.96346, 289, 153, 352, 216
-0.963676, 97, 97, 160, 224
-0.963822, 33, 121, 96, 184
-0.96394, 21, 97, 52, 160
-0.963968, 17, 153, 80, 216
-0.964497, 33, 177, 96, 240
-0.964598, 353, 137, 480, 200
-0.964747, 145, 9, 208, 72
-0.964759, 105, 193, 168, 256
-0.964798, 185, 177, 248, 304
-0.964847, 297, 1, 360, 256
-0.964883, 41, 1, 104, 256
-0.96505, 185, 1, 248, 128
-0.965164, 241, 193, 304, 320
-0.965436, 201, 209, 264, 272
-0.965448, 345, 89, 408, 152
-0.965476, 161, 137, 224, 200
-0.965549, 425, 121, 488, 184
-0.966158, 81, 145, 144, 272
-0.966163, 97, 1, 160, 128
-0.966336, 361, 65, 424, 128
-0.966564, 17, 1, 80, 256
-0.966815, 201, 185, 264, 248
-0.966941, 361, 121, 424, 184
-0.966992, 297, 201, 360, 264
-0.96719, 321, 33, 384, 288
-0.967262, 353, 41, 416, 104
-0.967282, 121, 1, 184, 128
-0.967352, 241, 209, 368, 333
-0.967471, 29, 73, 60, 136
-0.967539, 153, 65, 216, 320
-0.96774, 217, 1, 280, 128
-0.967779, 321, 49, 384, 112
-0.967899, 17, 49, 144, 112
-0.96825, 9, 145, 72, 272
-0.968354, 129, 161, 192, 224
-0.968421, 65, 1, 128, 256
-0.96848, 105, 169, 168, 232
-0.968521, 121, 49, 184, 176
-0.968566, 149, 97, 180, 224
-0.968685, 385, 33, 448, 96
-0.968737, 193, 1, 256, 256
-0.968774, 133, 113, 164, 176
-0.968859, 401, 177, 464, 304
-0.968881, 425, 169, 488, 232
-0.968883, 265, 33, 328, 288
-0.968972, 305, 145, 336, 272
-0.968983, 241, 49, 304, 176
-0.96913, 89, 177, 120, 304
-0.969158, 57, 129, 120, 256
-0.96956, 17, 65, 48, 128
-0.969617, 41, 33, 72, 160
-0.969741, 321, 161, 448, 224
-0.969746, 17, 1, 48, 128
-0.969784, 9, 65, 40, 192
-0.969878, 257, 209, 500, 333
-0.969953, 321, 73, 384, 136
-0.970154, 273, 177, 400, 240
-0.970166, 89, 33, 152, 288
-0.970172, 53, 17, 84, 144
-0.970472, 145, 89, 208, 152
-0.970535, 97, 49, 224, 176
-0.970581, 409, 25, 472, 88
-0.970645, 321, 17, 384, 80
-0.970657, 437, 145, 468, 208
-0.97076, 425, 1, 488, 256
-0.970865, 241, 65, 304, 320
-0.970871, 321, 113, 384, 176
-0.97091, 257, 1, 384, 128
-0.970959, 161, 105, 192, 168
-0.971093, 297, 169, 328, 232
-0.971122, 185, 129, 248, 256
-0.971156, 241, 81, 304, 144
-0.971184, 73, 33, 104, 160
-0.971188, 433, 129, 464, 256
-0.971468, 409, 145, 440, 208
-0.97158, 81, 217, 144, 280
-0.971659, 225, 209, 288, 272
-0.971727, 241, 161, 304, 224
-0.971737, 457, 129, 488, 192
-0.971917, 373, 1, 404, 128
-0.971949, 437, 1, 468, 128
-0.972003, 437, 9, 468, 72
-0.972011, 265, 153, 328, 216
-0.97202, 33, 49, 64, 112
-0.972027, 161, 169, 224, 232
-0.972051, 193, 185, 320, 248
-0.972074, 185, 105, 248, 168
-0.972155, 361, 193, 424, 256
-0.972223, 169, 49, 232, 176
-0.972268, 89, 49, 120, 112
-0.972275, 137, 97, 168, 224
-0.972345, 217, 137, 280, 200
-0.972347, 177, 113, 208, 176
-0.972376, 57, 81, 88, 208
-0.972439, 113, 113, 240, 176
-0.972559, 81, 49, 144, 112
-0.972677, 21, 121, 52, 184
-0.972689, 113, 65, 176, 320
-0.972771, 149, 113, 180, 176
-0.972804, 393, 177, 456, 240
-0.972912, 105, 113, 168, 176
-0.972927, 273, 49, 336, 112
-0.973013, 65, 1, 128, 64
-0.973129, 337, 193, 400, 256
-0.973149, 97, 73, 160, 136
-0.973325, 385, 105, 448, 168
-0.973473, 133, 145, 164, 272
-0.973523, 353, 65, 416, 320
-0.973627, 393, 1, 456, 256
-0.973639, 25, 113, 56, 240
-0.973721, 49, 57, 80, 120
-0.973836, 161, 97, 192, 224
-0.973839, 29, 17, 60, 144
-0.973859, 85, 1, 116, 128
-0.973922, 145, 1, 272, 128
-0.974015, 273, 201, 336, 264
-0.974086, 453, 81, 484, 208
-0.974222, 101, 193, 132, 256
-0.974231, 189, 97, 220, 224
-0.974371, 145, 137, 176, 200
-0.97449, 409, 129, 440, 256
-0.974491, 193, 153, 256, 216
-0.974499, 65, 161, 128, 224
-0.974505, 265, 161, 296, 288
-0.974525, 53, 25, 84, 88
-0.974546, 161, 113, 288, 176
-0.974558, 309, 169, 340, 232
-0.974668, 329, 169, 360, 232
-0.974682, 289, 33, 416, 96
-0.974688, 369, 97, 400, 224
-0.974759, 41, 121, 72, 184
-0.97483, 49, 81, 176, 144
-0.97485, 409, 49, 472, 112
-0.974962, 349, 33, 380, 160
-0.97502, 65, 49, 96, 112
-0.975068, 305, 137, 432, 200
-0.975091, 105, 41, 168, 104
-0.975233, 45, 81, 76, 208
-0.975321, 321, 9, 448, 72
-0.975336, 57, 209, 120, 272
-0.975522, 9, 97, 40, 160
-0.975634, 41, 153, 104, 216
-0.975709, 85, 49, 116, 176
-0.975845, 45, 89, 76, 152
-0.975847, 97, 177, 224, 240
-0.97585, 249, 129, 280, 256
-0.976097, 449, 1, 480, 128
-0.976193, 33, 97, 64, 160
-0.976193, 325, 17, 356, 144
-0.976289, 101, 193, 132, 320
-0.976298, 17, 33, 48, 96
-0.976352, 1, 81, 128, 144
-0.976375, 201, 233, 264, 296
-0.976386, 449, 9, 480, 72
-0.97639, 21, 145, 52, 208
-0.97641, 285, 129, 316, 256
-0.976451, 409, 121, 440, 184
-0.976467, 425, 145, 456, 208
-0.976544, 193, 81, 256, 144
-0.976552, 425, 97, 488, 160
-0.976569, 353, 17, 416, 80
-0.976618, 281, 121, 344, 184
-0.976668, 161, 1, 288, 64
-0.976724, 409, 81, 440, 208
-0.97674, 189, 113, 220, 176
-0.976765, 421, 129, 452, 256
-0.976784, 425, 209, 488, 333
-0.976953, 389, 49, 420, 176
-0.976971, 49, 193, 176, 256
-0.977038, 29, 25, 60, 88
-0.97709, 289, 97, 416, 160
-0.977119, 241, 105, 304, 168
-0.977125, 69, 177, 100, 240
-0.977162, 209, 105, 272, 168
-0.977165, 369, 161, 496, 224
-0.977197, 365, 145, 396, 272
-0.977228, 249, 217, 312, 280
-0.977241, 41, 25, 72, 88
-0.977464, 313, 17, 344, 144
-0.977501, 77, 177, 108, 304
-0.977607, 461, 1, 492, 128
-0.977633, 253, 177, 284, 304
-0.977716, 389, 129, 420, 192
-0.97774, 89, 9, 152, 72
-0.977784, 165, 129, 196, 192
-0.977834, 49, 121, 176, 184
-0.977873, 177, 89, 304, 152
-0.977889, 177, 209, 240, 272
-0.977948, 373, 49, 404, 176
-0.977967, 177, 161, 304, 224
-0.97808, 369, 89, 400, 152
-0.978249, 1, 185, 128, 248
-0.978307, 325, 17, 356, 80
-0.978334, 57, 89, 88, 152
-0.978381, 129, 201, 192, 264
-0.978538, 177, 81, 208, 208
-0.97854, 321, 209, 384, 333
-0.97856, 209, 1, 272, 64
-0.978625, 265, 73, 328, 136
-0.978714, 369, 145, 400, 208
-0.978723, 449, 129, 480, 256
-0.978796, 33, 1, 160, 64
-0.978885, 37, 161, 68, 224
-0.978902, 273, 57, 400, 120
-0.978955, 5, 17, 36, 144
-0.978975, 469, 129, 500, 256
-0.979001, 225, 185, 288, 248
-0.979103, 369, 113, 496, 176
-0.979169, 273, 201, 400, 264
-0.9792, 225, 89, 352, 152
-0.979274, 1, 73, 32, 136
-0.979313, 113, 201, 240, 264
-0.979325, 357, 81, 388, 208
-0.979345, 353, 33, 480, 96
-0.979449, 1, 25, 128, 88
-0.979479, 41, 129, 72, 256
-0.979493, 289, 209, 416, 333
-0.979504, 77, 17, 108, 80
-0.97956, 317, 145, 348, 208
-0.979589, 9, 121, 40, 184
-0.979593, 89, 9, 120, 72
-0.979619, 9, 9, 72, 72
-0.979729, 225, 153, 352, 216
-0.979749, 361, 33, 392, 160
-0.97977, 65, 153, 192, 216
-0.979775, 145, 137, 272, 200
-0.979789, 349, 145, 380, 272
-0.979894, 353, 161, 384, 224
-0.979897, 353, 1, 416, 333
-0.979962, 77, 49, 108, 112
-0.980075, 425, 1, 456, 128
-0.980076, 293, 193, 324, 320
-0.980086, 425, 121, 456, 184
-0.980128, 205, 153, 236, 216
-0.980202, 133, 153, 164, 216
-0.980232, 217, 161, 280, 224
-0.980234, 229, 209, 260, 272
-0.980336, 85, 169, 116, 232
-0.98044, 297, 33, 328, 160
-0.980467, 145, 145, 176, 272
-0.980476, 285, 177, 316, 240
-0.980513, 217, 65, 280, 320
-0.980516, 13, 113, 44, 240
-0.980524, 81, 129, 112, 256
-0.980543, 161, 145, 192, 272
-0.980576, 101, 49, 132, 112
-0.980674, 317, 161, 348, 288
-0.98068, 249, 81, 280, 208
-0.980681, 389, 65, 420, 128
-0.980737, 361, 217, 424, 280
-0.980755, 225, 65, 352, 128
-0.980804, 257, 121, 384, 184
-0.980808, 225, 233, 288, 296
-0.980825, 201, 1, 232, 128
-0.980847, 209, 9, 336, 72
-0.980876, 281, 1, 344, 333
-0.980882, 317, 113, 348, 240
-0.980932, 421, 81, 452, 208
-0.980964, 241, 137, 304, 200
-0.981018, 321, 185, 448, 248
-0.981069, 197, 9, 228, 72
-0.981148, 421, 169, 452, 232
-0.98122, 161, 193, 224, 320
-0.981228, 257, 1, 320, 333
-0.981234, 41, 1, 104, 333
-0.981342, 329, 137, 360, 200
-0.981345, 433, 33, 496, 96
-0.98141, 121, 1, 184, 64
-0.981417, 177, 233, 240, 296
-0.981438, 329, 1, 392, 333
-0.981513, 169, 25, 232, 88
-0.981526, 393, 1, 424, 128
-0.981574, 285, 153, 316, 216
-0.981592, 297, 97, 360, 160
-0.981624, 185, 129, 248, 192
-0.98166, 153, 193, 216, 256
-0.981677, 145, 225, 208, 288
-0.981744, 369, 113, 400, 176
-0.981757, 309, 33, 340, 96
-0.981789, 177, 217, 304, 280
-0.981796, 369, 65, 400, 128
-0.981831, 417, 73, 480, 136
-0.981839, 385, 65, 448, 128
-0.981923, 77, 201, 108, 264
-0.981951, 265, 81, 296, 208
-0.981978, 369, 9, 496, 72
-0.982007, 121, 145, 152, 272
-0.982065, 177, 41, 304, 104
-0.982078, 277, 177, 308, 304
-0.982138, 389, 113, 420, 240
-0.98215, 245, 193, 276, 256
-0.982194, 269, 185, 300, 248
-0.982236, 65, 161, 96, 288
-0.982315, 233, 177, 264, 304
-0.982387, 209, 9, 240, 72
-0.982397, 321, 73, 448, 136
-0.982428, 349, 185, 380, 248
-0.982478, 97, 49, 128, 176
-0.982495, 409, 177, 440, 240
-0.982538, 101, 73, 132, 136
-0.98255, 405, 1, 436, 64
-0.982559, 241, 97, 272, 160
-0.982588, 297, 9, 360, 72
-0.982614, 449, 153, 480, 216
-0.98265, 417, 1, 480, 333
-0.98272, 205, 121, 236, 184
-0.98274, 105, 217, 168, 280
-0.982866, 209, 129, 336, 192
-0.982875, 461, 1, 492, 64
-0.982907, 213, 177, 244, 304
-0.982942, 157, 153, 188, 216
-0.982973, 437, 33, 468, 96
-0.983022, 433, 81, 464, 208
-0.983027, 409, 89, 440, 152
-0.983213, 181, 1, 212, 64
-0.983334, 193, 137, 224, 200
-0.983344, 437, 169, 468, 232
-0.983385, 49, 145, 80, 208
-0.983458, 329, 113, 360, 240
-0.98346, 113, 177, 144, 240
-0.983545, 461, 153, 492, 216
-0.983546, 369, 57, 496, 120
-0.983553, 1, 25, 32, 88
-0.983572, 209, 209, 240, 272
-0.983621, 353, 137, 384, 200
-0.983729, 285, 49, 316, 176
-0.983757, 201, 113, 232, 240
-0.983791, 125, 97, 156, 224
-0.9838, 225, 209, 352, 272
-0.983841, 425, 241, 488, 304
-0.983848, 305, 1, 368, 333
-0.98387, 409, 1, 440, 128
-0.983881, 469, 49, 500, 176
-0.983885, 49, 217, 176, 280
-0.983951, 17, 1, 80, 333
-0.984026, 81, 81, 112, 144
-0.984098, 389, 105, 420, 168
-0.984129, 253, 89, 284, 152
-0.984135, 301, 137, 332, 200
-0.984179, 365, 185, 396, 248
-0.984208, 357, 49, 388, 112
-0.984208, 209, 185, 240, 248
-0.98423, 81, 25, 208, 88
-0.984314, 369, 81, 496, 144
-0.984314, 1, 161, 128, 224
-0.98432, 297, 41, 328, 104
-0.98434, 273, 1, 336, 128
-0.984366, 133, 33, 164, 160
-0.984446, 305, 97, 336, 224
-0.984447, 97, 217, 128, 280
-0.98454, 137, 41, 200, 104
-0.984553, 97, 145, 160, 208
-0.984562, 221, 185, 252, 248
-0.984565, 97, 73, 224, 136
-0.984602, 285, 201, 316, 264
-0.984606, 65, 25, 96, 88
-0.984606, 397, 33, 428, 96
-0.984635, 329, 105, 360, 168
-0.984637, 33, 1, 64, 64
-0.984639, 417, 9, 448, 72
-0.984838, 81, 1, 144, 333
-0.984884, 437, 113, 468, 176
-0.984911, 413, 177, 444, 304
-0.984931, 121, 89, 184, 152
-0.984956, 341, 97, 372, 224
-0.98496, 341, 1, 372, 64
-0.984971, 337, 1, 368, 128
-0.984984, 377, 41, 408, 104
-0.985001, 49, 1, 80, 64
-0.985103, 149, 1, 180, 64
-0.985213, 369, 193, 496, 320
-0.985246, 225, 33, 352, 96
-0.985257, 197, 49, 228, 176
-0.985322, 193, 33, 256, 96
-0.985424, 469, 129, 500, 192
-0.985426, 169, 81, 232, 144
-0.985444, 113, 1, 240, 64
-0.985555, 241, 1, 304, 128
-0.985607, 5, 49, 36, 112
-0.98561, 225, 1, 288, 333
-0.985717, 273, 9, 400, 72
-0.985756, 401, 241, 432, 304
-0.985887, 217, 65, 280, 128
-0.985887, 425, 217, 488, 280
-0.985901, 113, 193, 144, 320
-0.985913, 461, 105, 492, 168
-0.985935, 33, 1, 96, 64
-0.985986, 169, 1, 200, 64
-0.985999, 177, 241, 304, 304
-0.986135, 349, 97, 380, 160
-0.98622, 333, 193, 364, 256
-0.986258, 257, 17, 320, 80
-0.986306, 93, 129, 124, 256
-0.98634, 113, 201, 144, 264
-0.986347, 213, 1, 244, 128
-0.986377, 469, 209, 500, 333
-0.986407, 169, 1, 232, 333
-0.986412, 417, 273, 480, 333
-0.986449, 69, 97, 100, 224
-0.986513, 173, 89, 204, 152
-0.986594, 81, 105, 144, 168
-0.986596, 309, 201, 340, 264
-0.986599, 321, 225, 384, 288
-0.986626, 305, 193, 336, 320
-0.986627, 161, 1, 192, 128
-0.986636, 113, 225, 240, 288
-0.98665, 145, 49, 176, 176
-0.986757, 413, 33, 444, 96
-0.986767, 121, 113, 152, 176
-0.986778, 225, 1, 256, 64
-0.98678, 409, 201, 440, 264
-0.98686, 225, 145, 256, 208
-0.986886, 401, 209, 464, 272
-0.986912, 141, 177, 172, 240
-0.986944, 145, 89, 176, 152
-0.986979, 297, 201, 328, 264
-0.986999, 341, 161, 372, 224
-0.987003, 425, 33, 456, 96
-0.987019, 57, 113, 120, 176
-0.987052, 121, 65, 184, 128
-0.987121, 97, 49, 224, 112
-0.987307, 89, 241, 152, 304
-0.987323, 129, 249, 256, 312
-0.987484, 73, 197, 136, 228
-0.987579, 1, 209, 128, 272
-0.987604, 425, 149, 488, 180
-0.987668, 9, 177, 72, 240
-0.987691, 393, 1, 456, 333
-0.987714, 317, 65, 348, 192
-0.987727, 129, 117, 192, 148
-0.987734, 105, 1, 136, 128
-0.98778, 9, 105, 72, 136
-0.987789, 33, 201, 96, 264
-0.987866, 233, 113, 264, 240
-0.988003, 189, 145, 220, 272
-0.988006, 169, 257, 232, 320
-0.988011, 233, 41, 296, 104
-0.988064, 393, 157, 456, 188
-0.988133, 121, 1, 184, 333
-0.988136, 9, 117, 72, 148
-0.988137, 109, 145, 140, 272
-0.988172, 129, 25, 256, 88
-0.988189, 189, 1, 220, 128
-0.988212, 1, 105, 128, 168
-0.988213, 125, 193, 156, 320
-0.988219, 361, 161, 424, 192
-0.988273, 9, 89, 72, 120
-0.98832, 297, 173, 360, 204
-0.988345, 161, 65, 288, 128
-0.988359, 33, 193, 96, 320
-0.988371, 201, 1, 264, 333
-0.988422, 389, 161, 420, 288
-0.988434, 177, 33, 208, 160
-0.988465, 173, 129, 204, 256
-0.988506, 333, 193, 364, 320
-0.988518, 9, 49, 72, 80
-0.988601, 41, 45, 104, 76
-0.988737, 9, 129, 72, 160
-0.988741, 401, 193, 432, 320
-0.988777, 129, 149, 192, 180
-0.988779, 129, 129, 192, 160
-0.988795, 201, 193, 232, 320
-0.988808, 329, 181, 392, 212
-0.988886, 433, 17, 496, 48
-0.988899, 9, 77, 72, 108
-0.988953, 401, 145, 464, 176
-0.988995, 273, 225, 336, 288
-0.989015, 153, 117, 216, 148
-0.989143, 201, 213, 264, 244
-0.989157, 329, 65, 360, 192
-0.989177, 33, 89, 96, 120
-0.989207, 297, 73, 360, 136
-0.98921, 213, 129, 244, 256
-0.989255, 65, 177, 320, 240
-0.989283, 9, 61, 72, 92
-0.989289, 249, 197, 312, 228
-0.989293, 33, 145, 288, 208
-0.989357, 425, 161, 488, 192
-0.989394, 49, 181, 112, 212
-0.989397, 273, 181, 336, 212
-0.989401, 1, 113, 256, 176
-0.98945, 409, 13, 472, 44
-0.989459, 129, 161, 192, 192
-0.989486, 225, 209, 288, 240
-0.989492, 337, 169, 400, 200
-0.989527, 97, 105, 352, 168
-0.989529, 393, 169, 456, 200
-0.989617, 297, 41, 360, 72
-0.989619, 145, 105, 208, 136
-0.989664, 33, 117, 96, 148
-0.989665, 161, 49, 192, 176
-0.989679, 353, 193, 384, 320
-0.989733, 361, 149, 424, 180
-0.989741, 53, 129, 84, 256
-0.98978, 113, 197, 176, 228
-0.989781, 281, 193, 344, 224
-0.989805, 361, 173, 424, 204
-0.989829, 81, 213, 144, 244
-0.989839, 33, 61, 96, 92
-0.989841, 1, 113, 32, 240
-0.989842, 65, 65, 128, 96
-0.989864, 1, 129, 128, 192
-0.989873, 49, 201, 112, 232
-0.989883, 361, 185, 424, 216
-0.989901, 353, 49, 416, 80
-0.989912, 73, 81, 136, 112
-0.989958, 169, 105, 232, 136
-0.98997, 353, 69, 416, 100
-0.989971, 377, 1, 440, 32
-0.990003, 329, 145, 392, 176
-0.99001, 369, 185, 496, 248
-0.990012, 369, 137, 432, 168
-0.990085, 49, 77, 112, 108
-0.990122, 17, 161, 80, 192
-0.99014, 169, 157, 232, 188
-0.99014, 313, 29, 376, 60
-0.990161, 9, 141, 72, 172
-0.990167, 201, 201, 264, 232
-0.990169, 33, 33, 96, 64
-0.990199, 33, 137, 96, 168
-0.990219, 249, 217, 312, 248
-0.99026, 89, 185, 152, 216
-0.990281, 33, 1, 288, 64
-0.990303, 33, 105, 96, 136
-0.990338, 385, 117, 448, 148
-0.990345, 9, 37, 72, 68
-0.990347, 65, 49, 128, 80
-0.990354, 297, 161, 360, 192
-0.990399, 425, 137, 488, 168
-0.9904, 345, 97, 408, 128
-0.990401, 353, 273, 480, 333
-0.990403, 457, 193, 488, 320
-0.990406, 33, 149, 96, 180
-0.99042, 185, 9, 248, 40
-0.990445, 193, 157, 256, 188
-0.990483, 305, 185, 368, 216
-0.990486, 321, 157, 384, 188
-0.990492, 201, 225, 264, 256
-0.990506, 281, 205, 344, 236
-0.990542, 249, 181, 312, 212
-0.990543, 153, 145, 216, 176
-0.99056, 321, 57, 384, 88
-0.990593, 361, 125, 424, 156
-0.990593, 225, 225, 288, 256
-0.990616, 257, 165, 320, 196
-0.99063, 89, 69, 152, 100
-0.990634, 169, 129, 232, 160
-0.990645, 201, 109, 264, 140
-0.990646, 353, 209, 480, 272
-0.990692, 401, 133, 464, 164
-0.990714, 385, 13, 448, 44
-0.990722, 201, 185, 264, 216
-0.990724, 281, 149, 344, 180
-0.990729, 409, 25, 472, 56
-0.990773, 433, 5, 496, 36
-0.990807, 409, 1, 472, 32
-0.990822, 321, 125, 384, 156
-0.990828, 33, 201, 288, 264
-0.990856, 105, 117, 168, 148
-0.990898, 145, 13, 208, 44
-0.990901, 353, 5, 416, 36
-0.990911, 425, 121, 488, 152
-0.990934, 209, 1, 272, 32
-0.990969, 217, 49, 280, 176
-0.990982, 377, 57, 440, 88
-0.991006, 417, 173, 480, 204
-0.991008, 129, 237, 192, 268
-0.99104, 201, 237, 264, 268
-0.99106, 377, 73, 440, 104
-0.991061, 105, 209, 168, 240
-0.99107, 321, 81, 384, 112
-0.991072, 145, 193, 176, 320
-0.99108, 177, 117, 240, 148
-0.9911, 425, 177, 456, 304
-0.991113, 321, 45, 384, 76
-0.991137, 393, 37, 456, 68
-0.991149, 201, 145, 264, 176
-0.991163, 145, 1, 208, 32
-0.991171, 241, 101, 304, 132
-0.991172, 433, 45, 496, 76
-0.991211, 145, 1, 208, 333
-0.991211, 337, 193, 400, 224
-0.991219, 377, 101, 440, 132
-0.991234, 153, 169, 216, 200
-0.991236, 385, 25, 448, 56
-0.991242, 321, 113, 384, 144
-0.991258, 225, 197, 288, 228
-0.991261, 57, 213, 120, 244
-0.991265, 65, 29, 128, 60
-0.991281, 377, 85, 440, 116
-0.991293, 241, 141, 304, 172
-0.991294, 305, 145, 368, 176
-0.991306, 305, 197, 368, 228
-0.991343, 329, 13, 392, 44
-0.991344, 361, 213, 424, 244
-0.991354, 361, 113, 424, 144
-0.991359, 145, 25, 208, 56
-0.991359, 233, 129, 296, 160
-0.991361, 257, 41, 500, 104
-0.991367, 169, 229, 232, 260
-0.99138, 121, 105, 184, 136
-0.991387, 273, 33, 304, 160
-0.991398, 289, 53, 352, 84
-0.991468, 225, 73, 480, 136
-0.991487, 89, 193, 120, 224
-0.991524, 369, 149, 496, 180
-0.991552, 209, 49, 240, 176
-0.991572, 257, 105, 500, 168
-0.991721, 101, 185, 116, 248
-0.991733, 1, 185, 500, 248
-0.991757, 273, 225, 400, 288
-0.991764, 193, 185, 448, 248
-0.991767, 257, 145, 500, 208
-0.991776, 1, 1, 500, 64
-0.991859, 65, 241, 192, 304
-0.992016, 65, 57, 320, 120
-0.992049, 25, 93, 56, 124
-0.992111, 409, 157, 440, 188
-0.992116, 433, 153, 464, 184
-0.992118, 133, 117, 164, 148
-0.992141, 17, 61, 48, 92
-0.992166, 161, 113, 192, 144
-0.992195, 453, 149, 484, 180
-0.992215, 37, 49, 68, 80
-0.992228, 241, 213, 272, 244
-0.992244, 353, 177, 384, 208
-0.992251, 13, 85, 44, 116
-0.992256, 29, 125, 60, 156
-0.992269, 193, 105, 224, 136
-0.992278, 129, 129, 384, 192
-0.992283, 49, 29, 80, 60
-0.992293, 37, 85, 68, 116
-0.992293, 433, 141, 464, 172
-0.992316, 93, 205, 124, 236
-0.99233, 181, 117, 212, 148
-0.992346, 369, 157, 400, 188
-0.992346, 437, 13, 468, 44
-0.99235, 305, 177, 336, 208
-0.99235, 469, 141, 500, 172
-0.992352, 17, 49, 48, 80
-0.992354, 325, 173, 356, 204
-0.992356, 321, 165, 448, 196
-0.992368, 21, 109, 52, 140
-0.992369, 21, 145, 52, 176
-0.992369, 77, 201, 108, 232
-0.99239, 1, 81, 256, 144
-0.992395, 421, 153, 452, 184
-0.992407, 153, 149, 184, 180
-0.992408, 289, 181, 320, 212
-0.992414, 441, 209, 472, 333
-0.992418, 37, 33, 68, 64
-0.992418, 225, 1, 256, 128
-0.99242, 53, 85, 84, 116
-0.992433, 69, 181, 100, 212
-0.992439, 229, 217, 260, 248
-0.99245, 25, 81, 56, 112
-0.992468, 93, 185, 108, 248
-0.992475, 113, 49, 144, 176
-0.9925, 409, 117, 440, 148
-0.992504, 49, 57, 80, 88
-0.992507, 41, 125, 72, 156
-0.992509, 409, 129, 440, 160
-0.992512, 37, 61, 68, 92
-0.992513, 365, 181, 396, 212
-0.992517, 137, 153, 168, 184
-0.992518, 145, 133, 176, 164
-0.992522, 37, 137, 68, 168
-0.992529, 145, 109, 176, 140
-0.992537, 457, 137, 488, 168
-0.992556, 205, 1, 236, 32
-0.992556, 449, 13, 480, 44
-0.992557, 109, 205, 140, 236
-0.992561, 37, 73, 68, 104
-0.992569, 161, 129, 192, 160
-0.992575, 57, 41, 88, 72
-0.992576, 145, 121, 176, 152
-0.992577, 293, 193, 324, 224
-0.992579, 89, 65, 120, 96
-0.992581, 9, 121, 40, 152
-0.992582, 353, 165, 384, 196
-0.992584, 361, 145, 392, 176
-0.992585, 5, 57, 36, 88
-0.9926, 389, 117, 420, 148
-0.992612, 321, 25, 352, 56
-0.99262, 253, 209, 284, 240
-0.992622, 425, 165, 456, 196
-0.992629, 333, 185, 364, 216
-0.992652, 193, 1, 224, 32
-0.992653, 365, 169, 396, 200
-0.992654, 197, 157, 228, 188
-0.99266, 277, 181, 308, 212
-0.99266, 65, 33, 320, 96
-0.992664, 365, 193, 396, 320
-0.992668, 9, 109, 40, 140
-0.992671, 437, 165, 468, 196
-0.992686, 273, 177, 400, 208
-0.992686, 409, 145, 440, 176
-0.992699, 361, 49, 392, 80
-0.992705, 369, 121, 400, 152
-0.992709, 41, 113, 72, 144
-0.992709, 1, 89, 32, 120
-0.992723, 13, 73, 44, 104
-0.992723, 101, 193, 132, 224
-0.992729, 153, 161, 184, 192
-0.992742, 89, 53, 120, 84
-0.992749, 41, 97, 72, 128
-0.992764, 305, 193, 336, 224
-0.992777, 393, 57, 424, 88
-0.992779, 133, 141, 164, 172
-0.992783, 457, 161, 488, 192
-0.992783, 37, 161, 68, 192
-0.992783, 461, 21, 492, 52
-0.992791, 193, 13, 224, 44
-0.992801, 381, 1, 412, 32
-0.992802, 281, 197, 312, 228
-0.992805, 133, 129, 164, 160
-0.992805, 237, 201, 268, 232
-0.992805, 107, 193, 122, 256
-0.992808, 181, 105, 212, 136
-0.99281, 25, 161, 56, 288
-0.99281, 305, 41, 336, 72
-0.99281, 61, 53, 92, 84
-0.992812, 461, 5, 492, 36
-0.992814, 285, 161, 316, 192
-0.992814, 389, 69, 420, 100
-0.992815, 257, 9, 500, 72
-0.992816, 469, 153, 500, 184
-0.992822, 369, 93, 400, 124
-0.992824, 21, 29, 52, 60
-0.992827, 89, 217, 120, 248
-0.992827, 209, 213, 240, 244
-0.992828, 301, 145, 332, 176
-0.992829, 409, 169, 440, 200
-0.992831, 73, 77, 104, 108
-0.992831, 133, 165, 164, 196
-0.992832, 349, 85, 380, 116
-0.992841, 13, 97, 44, 128
-0.992844, 77, 53, 108, 84
-0.992845, 421, 141, 452, 172
-0.992848, 257, 225, 288, 256
-0.992857, 113, 193, 144, 224
-0.992864, 317, 161, 348, 192
-0.992864, 421, 121, 452, 152
-0.992864, 221, 205, 252, 236
-0.992865, 233, 49, 264, 176
-0.99287, 93, 77, 124, 108
-0.99287, 169, 141, 200, 172
-0.99287, 249, 197, 280, 228
-0.992871, 421, 13, 452, 44
-0.992875, 317, 189, 348, 220
-0.992875, 37, 149, 68, 180
-0.992879, 21, 157, 52, 188
-0.992883, 405, 9, 436, 40
-0.992889, 413, 301, 444, 332
-0.99289, 433, 37, 464, 68
-0.992891, 449, 25, 480, 56
-0.992892, 389, 105, 420, 136
-0.992899, 1, 29, 32, 60
-0.9929, 345, 189, 376, 220
-0.992953, 129, 1, 384, 64
-0.992968, 9, 161, 40, 288
-0.99308, 161, 33, 416, 96
-0.993088, 129, 153, 384, 216
-0.993164, 197, 105, 212, 168
-0.993188, 431, 137, 446, 200
-0.99323, 369, 137, 496, 168
-0.99326, 33, 97, 48, 160
-0.993261, 113, 97, 144, 224
-0.993272, 149, 1, 180, 128
-0.993353, 455, 9, 470, 72
-0.993355, 105, 49, 120, 112
-0.993374, 163, 113, 178, 176
-0.993391, 445, 9, 460, 72
-0.993423, 97, 81, 352, 144
-0.993427, 17, 65, 144, 96
-0.993509, 425, 145, 440, 208
-0.993611, 51, 49, 66, 112
-0.993613, 113, 117, 240, 148
-0.993629, 451, 145, 466, 208
-0.993631, 1, 193, 64, 320
-0.993654, 61, 49, 76, 112
-0.993671, 15, 25, 30, 88
-0.993712, 97, 49, 112, 112
-0.993724, 137, 113, 152, 176
-0.993757, 65, 197, 192, 228
-0.993766, 37, 65, 52, 128
-0.993777, 439, 145, 454, 208
-0.993779, 161, 209, 416, 272
-0.993781, 47, 89, 62, 152
-0.993799, 25, 57, 40, 120
-0.993809, 21, 97, 36, 160
-0.993812, 163, 137, 178, 200
-0.99388, 321, 141, 448, 172
-0.993896, 313, 169, 328, 232
-0.993938, 33, 81, 160, 112
-0.993998, 53, 25, 68, 88
-0.994029, 321, 153, 448, 184
-0.994044, 169, 105, 184, 168
-0.994131, 67, 25, 82, 88
-0.994164, 445, 137, 460, 200
-0.994209, 43, 121, 58, 184
-0.994238, 161, 109, 288, 140
-0.994259, 191, 113, 206, 176
-0.994275, 43, 33, 58, 96
-0.994304, 261, 33, 292, 160
-0.994318, 129, 145, 256, 176
-0.994328, 225, 233, 352, 296
-0.994337, 225, 181, 352, 212
-0.994389, 193, 205, 320, 236
-0.9944, 161, 121, 288, 152
-0.994423, 1, 57, 500, 120
-0.994452, 425, 121, 440, 184
-0.994458, 149, 113, 164, 176
-0.994504, 1, 89, 500, 152
-0.994567, 413, 153, 428, 216
-0.994576, 457, 145, 472, 208
-0.994586, 177, 157, 304, 188
-0.994592, 67, 49, 82, 112
-0.994607, 169, 129, 184, 192
-0.994609, 99, 209, 114, 272
-0.994641, 175, 113, 190, 176
-0.994656, 481, 137, 496, 200
-0.994665, 47, 9, 62, 72
-0.994669, 289, 189, 416, 220
-0.994682, 339, 169, 354, 232
-0.994695, 1, 209, 500, 272
-0.994702, 17, 193, 144, 224
-0.994717, 375, 161, 390, 224
-0.994718, 199, 129, 214, 192
-0.994725, 303, 177, 318, 240
-0.994747, 11, 57, 26, 120
-0.99475, 377, 145, 408, 272
-0.994756, 369, 161, 496, 192
-0.994767, 463, 137, 478, 200
-0.994774, 143, 113, 158, 176
-0.99478, 87, 193, 102, 256
-0.994782, 321, 241, 448, 304
-0.994794, 33, 265, 160, 328
-0.994809, 289, 41, 416, 72
-0.99482, 289, 101, 416, 132
-0.994828, 157, 113, 172, 176
-0.994845, 225, 169, 352, 200
-0.994846, 265, 209, 296, 333
-0.994865, 193, 193, 320, 224
-0.994871, 363, 41, 378, 104
-0.994877, 319, 177, 334, 240
-0.994892, 89, 17, 104, 80
-0.994914, 253, 97, 268, 160
-0.994914, 369, 121, 496, 152
-0.994937, 273, 153, 400, 184
-0.99499, 193, 141, 320, 172
-0.995, 31, 41, 46, 104
-0.995015, 371, 129, 386, 192
-0.995021, 31, 73, 46, 136
-0.995022, 57, 73, 72, 136
-0.995032, 49, 129, 176, 160
-0.99506, 49, 113, 176, 144
-0.995085, 21, 121, 36, 184
-0.995087, 157, 137, 172, 200
-0.995101, 257, 209, 500, 272
-0.995109, 439, 9, 454, 72
-0.995114, 113, 105, 240, 136
-0.995118, 475, 129, 490, 192
-0.99512, 225, 97, 352, 128
-0.995143, 285, 1, 316, 128
-0.995144, 431, 161, 446, 224
-0.995156, 113, 193, 128, 256
-0.995167, 321, 121, 448, 152
-0.995175, 345, 177, 360, 240
-0.995176, 81, 49, 96, 112
-0.995186, 369, 173, 496, 204
-0.995204, 161, 13, 288, 44
-0.995212, 1, 53, 128, 84
-0.995213, 113, 205, 240, 236
-0.995237, 225, 153, 352, 184
-0.99524, 91, 49, 106, 112
-0.995246, 161, 233, 416, 296
-0.995252, 41, 161, 56, 224
-0.995255, 39, 89, 54, 152
-0.995255, 141, 153, 156, 216
-0.995258, 93, 65, 124, 320
-0.995267, 317, 1, 348, 256
-0.995283, 237, 1, 268, 128
-0.995284, 291, 185, 306, 248
-0.995285, 177, 217, 304, 248
-0.995334, 11, 97, 26, 160
-0.995344, 367, 161, 382, 224
-0.995358, 295, 161, 310, 224
-0.995362, 43, 57, 58, 120
-0.995363, 413, 113, 428, 176
-0.995374, 301, 153, 316, 216
-0.995384, 107, 73, 122, 136
-0.995399, 65, 209, 192, 240
-0.9954, 353, 13, 480, 44
-0.995411, 155, 1, 170, 64
-0.995415, 79, 177, 94, 240
-0.995429, 211, 153, 226, 216
-0.995431, 369, 109, 496, 140
-0.995434, 75, 49, 90, 112
-0.995436, 151, 153, 166, 216
-0.995464, 331, 161, 346, 224
-0.995465, 381, 121, 396, 184
-0.995472, 211, 9, 226, 72
-0.995477, 289, 29, 416, 60
-0.995481, 59, 25, 74, 88
-0.995485, 373, 89, 388, 152
-0.995486, 249, 33, 280, 160
-0.995502, 321, 177, 448, 208
-0.99551, 49, 1, 80, 256
-0.995527, 19, 73, 34, 136
-0.995536, 273, 205, 400, 236
-0.995564, 273, 165, 400, 196
-0.995583, 455, 169, 470, 232
-0.995598, 67, 89, 82, 152
-0.995637, 273, 141, 400, 172
-0.995658, 1, 33, 500, 96
-0.99567, 247, 97, 262, 160
-0.995672, 273, 57, 400, 88
-0.995673, 129, 217, 256, 248
-0.995681, 81, 145, 208, 176
-0.995686, 297, 185, 312, 248
-0.995689, 1, 93, 128, 124
-0.995703, 397, 33, 412, 96
-0.995707, 15, 121, 30, 184
-0.995713, 365, 137, 380, 200
-0.995723, 379, 89, 394, 152
-0.995734, 61, 1, 92, 256
-0.995748, 129, 229, 256, 260
-0.995749, 95, 1, 110, 64
-0.995754, 415, 89, 430, 152
-0.995765, 297, 1, 328, 256
-0.995789, 305, 17, 432, 48
-0.995793, 113, 133, 240, 164
-0.995795, 313, 33, 328, 96
-0.995805, 325, 169, 340, 232
-0.995808, 419, 129, 434, 192
-0.99583, 135, 153, 150, 216
-0.995838, 37, 1, 68, 256
-0.995839, 205, 153, 220, 216
-0.99584, 227, 1, 242, 64
-0.995841, 225, 117, 352, 148
-0.995845, 17, 205, 144, 236
-0.995853, 1, 161, 500, 224
-0.995857, 113, 193, 240, 224
-0.995858, 193, 1, 224, 256
-0.995858, 109, 65, 140, 320
-0.995863, 81, 69, 208, 100
-0.995872, 17, 181, 144, 212
-0.995884, 1, 249, 500, 312
-0.995885, 101, 81, 116, 144
-0.995891, 201, 1, 216, 64
-0.995897, 241, 193, 368, 224
-0.995909, 283, 177, 298, 240
-0.99591, 449, 33, 464, 96
-0.995911, 203, 105, 218, 168
-0.995911, 323, 25, 338, 88
-0.995912, 367, 185, 382, 248
-0.995926, 161, 1, 288, 32
-0.99593, 25, 1, 56, 256
-0.99593, 113, 241, 240, 272
-0.995932, 77, 89, 92, 152
-0.995943, 9, 25, 24, 88
-0.99595, 81, 65, 112, 320
-0.99595, 47, 161, 62, 224
-0.995953, 169, 153, 184, 216
-0.995954, 417, 1, 432, 64
-0.995959, 37, 25, 52, 88
-0.99596, 185, 105, 200, 168
-0.995963, 437, 33, 452, 96
-0.99597, 65, 165, 192, 196
-0.995979, 315, 145, 330, 208
-0.995991, 387, 97, 402, 160
-0.995992, 97, 181, 224, 212
-0.995995, 337, 9, 352, 72
-0.996002, 241, 85, 368, 116
-0.996027, 391, 49, 406, 112
-0.996033, 273, 125, 400, 156
-0.996038, 331, 17, 346, 80
-0.996041, 241, 217, 368, 248
-0.996044, 441, 169, 456, 232
-0.996054, 307, 41, 322, 104
-0.996057, 209, 33, 336, 64
-0.996066, 21, 33, 36, 96
-0.99607, 469, 121, 484, 184
-0.99607, 431, 113, 446, 176
-0.996074, 453, 1, 484, 256
-0.996085, 1, 225, 256, 288
-0.996108, 129, 157, 256, 188
-0.996124, 1, 129, 500, 192
-0.996127, 273, 257, 400, 320
-0.996147, 193, 237, 320, 268
-0.996171, 209, 21, 336, 52
-0.996172, 177, 97, 304, 128
-0.996211, 177, 173, 304, 204
-0.996231, 337, 97, 464, 128
-0.996234, 145, 1, 176, 256
-0.996273, 97, 13, 224, 44
-0.996287, 273, 113, 400, 144
-0.996377, 205, 1, 236, 256
-0.996444, 5, 33, 36, 288
-0.996449, 101, 193, 116, 224
-0.996449, 349, 33, 380, 288
-0.996461, 421, 1, 452, 256
-0.996479, 257, 69, 384, 100
-0.996483, 337, 41, 464, 72
-0.996495, 197, 105, 212, 136
-0.996504, 353, 189, 480, 220
-0.996518, 17, 41, 144, 72
-0.996523, 269, 33, 300, 288
-0.996535, 49, 25, 176, 56
-0.996543, 49, 93, 176, 124
-0.996552, 393, 1, 424, 256
-0.996585, 477, 141, 492, 172
-0.996591, 449, 153, 464, 184
-0.9966, 1, 241, 128, 304
-0.996672, 441, 1, 472, 256
-0.996677, 329, 1, 360, 256
-0.99671, 129, 29, 256, 60
-0.996732, 451, 13, 466, 44
-0.996739, 337, 1, 464, 32
-0.996745, 305, 69, 432, 100
-0.99676, 337, 29, 464, 60
-0.996793, 91, 193, 106, 224
-0.996808, 285, 33, 316, 288
-0.996831, 209, 49, 336, 80
-0.996853, 209, 129, 336, 160
-0.996855, 321, 81, 448, 112
-0.99686, 425, 121, 440, 152
-0.996861, 425, 161, 440, 192
-0.996867, 161, 65, 192, 320
-0.996882, 321, 301, 448, 332
-0.996908, 43, 41, 58, 72
-0.996913, 113, 169, 240, 200
-0.996922, 253, 65, 284, 320
-0.996952, 369, 241, 496, 304
-0.99696, 19, 97, 34, 128
-0.996974, 483, 141, 498, 172
-0.996974, 435, 153, 450, 184
-0.996981, 107, 201, 122, 232
-0.99699, 409, 1, 440, 256
-0.997016, 47, 85, 62, 116
-0.99704, 225, 5, 352, 36
-0.997043, 369, 65, 400, 320
-0.997055, 17, 13, 144, 44
-0.997057, 51, 33, 66, 64
-0.997068, 81, 273, 208, 333
-0.99707, 81, 57, 208, 88
-0.997113, 97, 1, 224, 32
-0.997116, 31, 65, 46, 96
-0.997123, 177, 265, 304, 328
-0.997129, 21, 57, 36, 88
-0.997133, 81, 81, 208, 112
-0.997143, 163, 113, 178, 144
-0.997146, 37, 89, 52, 120
-0.997171, 257, 233, 500, 296
-0.997178, 53, 49, 68, 80
-0.997182, 455, 157, 470, 188
-0.997188, 367, 177, 382, 208
-0.997207, 181, 1, 212, 256
-0.997209, 97, 209, 112, 240
-0.997226, 33, 221, 160, 252
-0.997229, 441, 149, 456, 180
-0.997243, 173, 113, 188, 144
-0.997246, 29, 89, 44, 120
-0.997251, 369, 85, 496, 116
-0.997254, 21, 109, 36, 140
-0.997255, 137, 117, 152, 148
-0.997278, 41, 53, 56, 84
-0.997304, 301, 181, 316, 212
-0.997304, 445, 13, 460, 44
-0.997311, 321, 53, 448, 84
-0.997314, 25, 77, 40, 108
-0.997317, 33, 149, 160, 180
-0.99732, 191, 121, 206, 152
-0.997325, 1, 109, 128, 140
-0.997334, 163, 129, 178, 160
-0.997334, 37, 77, 52, 108
-0.997335, 427, 141, 442, 172
-0.997341, 105, 213, 120, 244
-0.997358, 143, 113, 158, 144
-0.997377, 373, 181, 388, 212
-0.997391, 247, 213, 262, 244
-0.997401, 345, 181, 360, 212
-0.997404, 1, 25, 128, 56
-0.997404, 313, 173, 328, 204
-0.997446, 65, 249, 320, 312
-0.997453, 365, 49, 380, 80
-0.997454, 139, 153, 154, 184
-0.997455, 57, 29, 72, 60
-0.997458, 433, 165, 448, 196
-0.997458, 365, 161, 380, 192
-0.997465, 371, 137, 386, 168
-0.997467, 159, 145, 174, 176
-0.997473, 251, 101, 266, 132
-0.997489, 47, 97, 62, 128
-0.997489, 295, 181, 310, 212
-0.997497, 471, 141, 486, 172
-0.997506, 241, 217, 256, 248
-0.997507, 65, 37, 192, 68
-0.997518, 191, 109, 206, 140
-0.997521, 307, 177, 322, 208
-0.997524, 21, 121, 36, 152
-0.997528, 59, 41, 74, 72
-0.997541, 375, 157, 390, 188
-0.997542, 381, 33, 412, 288
-0.997544, 63, 25, 78, 56
-0.997547, 37, 33, 52, 64
-0.997547, 43, 121, 58, 152
-0.99755, 435, 141, 450, 172
-0.997559, 177, 65, 304, 96
-0.997562, 157, 117, 172, 148
-0.997563, 169, 149, 184, 180
-0.997564, 201, 1, 216, 32
-0.997566, 321, 201, 448, 232
-0.997568, 369, 57, 496, 88
-0.997571, 253, 213, 268, 244
-0.997575, 105, 69, 120, 100
-0.997576, 65, 241, 192, 272
-0.997582, 31, 49, 46, 80
-0.997589, 241, 229, 368, 260
-0.997592, 475, 153, 490, 184
-0.997597, 207, 157, 222, 188
-0.997618, 37, 101, 52, 132
-0.997618, 463, 149, 478, 180
-0.997624, 413, 117, 428, 148
-0.997624, 441, 161, 456, 192
-0.997632, 397, 45, 412, 76
-0.997632, 413, 161, 428, 192
-0.997635, 447, 141, 462, 172
-0.99764, 1, 161, 128, 192
-0.997654, 147, 157, 162, 188
-0.997657, 473, 129, 488, 160
-0.99766, 13, 65, 28, 96
-0.997661, 149, 125, 164, 156
-0.997668, 345, 169, 360, 200
-0.99767, 453, 141, 468, 172
-0.99768, 339, 173, 354, 204
-0.997683, 295, 197, 310, 228
-0.997697, 99, 181, 114, 212
-0.997702, 139, 141, 154, 172
-0.997709, 15, 85, 30, 116
-0.997711, 159, 1, 174, 32
-0.997715, 185, 113, 200, 144
-0.997721, 431, 129, 446, 160
-0.997724, 321, 173, 336, 204
-0.997726, 305, 193, 320, 224
-0.997728, 149, 109, 164, 140
-0.997734, 257, 17, 384, 48
-0.997747, 45, 109, 60, 140
-0.997747, 419, 129, 434, 160
-0.997749, 457, 13, 472, 44
-0.997752, 9, 93, 24, 124
-0.997755, 417, 9, 432, 40
-0.997757, 369, 125, 384, 156
-0.997759, 339, 185, 354, 216
-0.997762, 121, 65, 152, 320
-0.997764, 57, 89, 72, 120
-0.997775, 381, 125, 396, 156
-0.997777, 33, 1, 160, 32
-0.997778, 235, 217, 250, 248
-0.997779, 327, 173, 342, 204
-0.997782, 395, 57, 410, 88
-0.997787, 195, 9, 210, 40
-0.997789, 455, 25, 470, 56
-0.997798, 479, 25, 494, 56
-0.9978, 135, 165, 150, 196
-0.997806, 153, 13, 168, 44
-0.997808, 445, 25, 460, 56
-0.997811, 91, 205, 106, 236
-0.997817, 413, 149, 428, 180
-0.99782, 73, 49, 88, 80
-0.997827, 327, 25, 342, 56
-0.997829, 313, 145, 328, 176
-0.997831, 199, 117, 214, 148
-0.997834, 209, 1, 224, 32
-0.997837, 113, 201, 128, 232
-0.997837, 7, 53, 22, 84
-0.99784, 365, 149, 380, 180
-0.997843, 213, 153, 228, 184
-0.997848, 285, 181, 300, 212
-0.997851, 73, 173, 88, 204
-0.997854, 245, 201, 260, 232
-0.997857, 15, 25, 30, 56
-0.997866, 333, 17, 348, 48
-0.997866, 129, 41, 256, 72
-0.997867, 343, 9, 358, 40
-0.997891, 161, 85, 288, 116
-0.997897, 469, 65, 500, 320
-0.997922, 233, 33, 264, 288
-0.997924, 113, 253, 240, 284
-0.997994, 161, 249, 288, 280
-0.998, 369, 73, 496, 104
-0.998158, 217, 1, 248, 256
-0.998166, 1, 121, 128, 152
-0.9983, 73, 201, 136, 216
-0.998313, 353, 289, 480, 320
-0.998317, 145, 115, 208, 130
-0.998338, 321, 273, 448, 304
-0.99836, 401, 165, 464, 180
-0.998365, 9, 117, 72, 132
-0.998368, 1, 137, 128, 168
-0.99837, 9, 103, 72, 118
-0.998374, 129, 121, 192, 136
-0.998378, 73, 207, 136, 222
-0.998384, 9, 111, 72, 126
-0.998386, 9, 91, 72, 106
-0.99839, 9, 123, 72, 138
-0.998396, 329, 183, 392, 198
-0.998402, 417, 159, 480, 174
-0.998411, 129, 131, 192, 146
-0.998413, 89, 195, 152, 210
-0.998414, 361, 173, 424, 188
-0.998415, 433, 149, 496, 164
-0.998415, 57, 59, 120, 74
-0.998415, 321, 175, 384, 190
-0.998416, 361, 161, 424, 176
-0.998417, 161, 257, 416, 320
-0.998421, 417, 19, 480, 34
-0.998422, 9, 61, 72, 76
-0.998426, 65, 195, 128, 210
-0.998428, 297, 181, 360, 196
-0.998431, 101, 177, 116, 304
-0.998431, 361, 167, 424, 182
-0.998436, 233, 215, 296, 230
-0.998442, 201, 213, 264, 228
-0.998446, 133, 1, 164, 256
-0.998448, 9, 129, 72, 144
-0.998449, 33, 63, 96, 78
-0.99845, 9, 67, 72, 82
-0.998452, 169, 111, 232, 126
-0.998453, 81, 213, 144, 228
-0.998455, 393, 171, 456, 186
-0.998456, 433, 143, 496, 158
-0.998457, 169, 121, 232, 136
-0.998458, 297, 175, 360, 190
-0.99846, 49, 87, 112, 102
-0.998461, 393, 159, 456, 174
-0.998461, 9, 85, 72, 100
-0.998463, 289, 5, 416, 36
-0.998464, 129, 137, 192, 152
-0.998465, 281, 195, 344, 210
-0.998466, 1, 273, 500, 333
-0.998466, 95, 177, 110, 304
-0.998466, 257, 195, 320, 210
-0.998467, 9, 49, 24, 176
-0.998469, 9, 135, 72, 150
-0.998471, 361, 179, 424, 194
-0.998471, 401, 151, 464, 166
-0.998471, 129, 163, 192, 178
-0.998472, 361, 189, 424, 204
-0.998472, 169, 161, 232, 176
-0.998472, 73, 83, 136, 98
-0.998474, 45, 81, 60, 208
-0.998477, 33, 55, 96, 70
-0.998478, 425, 165, 488, 180
-0.998481, 201, 207, 264, 222
-0.998483, 37, 155, 68, 170
-0.998484, 9, 97, 72, 112
-0.998484, 169, 143, 200, 158
-0.998485, 321, 145, 352, 160
-0.998485, 57, 65, 120, 80
-0.998486, 113, 203, 144, 218
-0.998486, 409, 175, 440, 190
-0.998487, 225, 221, 288, 236
-0.998487, 153, 165, 184, 180
-0.998487, 321, 141, 384, 156
-0.998488, 97, 83, 128, 98
-0.998489, 37, 33, 68, 48
-0.99849, 1, 93, 32, 108
-0.99849, 33, 129, 96, 144
-0.998492, 153, 143, 184, 158
-0.998492, 41, 119, 72, 134
-0.998493, 337, 67, 400, 82
-0.998493, 49, 201, 112, 216
-0.998494, 13, 87, 44, 102
-0.998494, 269, 195, 300, 210
-0.998495, 301, 153, 332, 168
-0.998496, 361, 155, 392, 170
-0.998496, 433, 41, 464, 56
-0.998496, 297, 183, 328, 198
-0.998496, 121, 115, 184, 130
-0.998497, 201, 157, 264, 172
-0.998498, 433, 25, 496, 40
-0.998498, 25, 43, 88, 58
-0.998498, 41, 51, 72, 66
-0.998498, 321, 33, 352, 48
-0.998499, 45, 91, 76, 106
-0.9985, 321, 139, 352, 154
-0.998501, 129, 145, 192, 160
-0.998502, 37, 149, 68, 164
-0.998502, 81, 221, 208, 252
-0.998502, 9, 121, 40, 136
-0.998503, 309, 143, 340, 158
-0.998505, 65, 83, 96, 98
-0.998505, 189, 1, 220, 16
-0.998505, 185, 11, 248, 26
-0.998506, 25, 33, 88, 48
-0.998506, 49, 81, 112, 96
-0.998506, 129, 157, 192, 172
-0.998507, 285, 201, 316, 216
-0.998507, 233, 207, 264, 222
-0.998508, 377, 117, 440, 132
-0.998509, 177, 115, 208, 130
-0.998509, 353, 187, 384, 202
-0.998509, 353, 165, 384, 180
-0.998509, 21, 153, 52, 168
-0.99851, 29, 73, 60, 88
-0.99851, 21, 51, 52, 66
-0.99851, 21, 143, 52, 158
-0.99851, 133, 163, 164, 178
-0.998512, 201, 223, 264, 238
-0.998512, 329, 167, 392, 182
-0.998515, 25, 107, 56, 122
-0.998515, 249, 203, 312, 218
-0.998515, 429, 19, 460, 34
-0.998515, 273, 183, 336, 198
-0.998515, 77, 59, 108, 74
-0.998516, 361, 69, 424, 84
-0.998517, 137, 97, 152, 224
-0.998517, 41, 17, 56, 144
-0.998517, 57, 53, 120, 68
-0.998518, 9, 141, 72, 156
-0.998519, 105, 211, 168, 226
-0.998519, 409, 145, 440, 160
-0.998519, 33, 121, 96, 136
-0.998519, 37, 97, 68, 112
-0.998519, 145, 109, 208, 124
-0.99852, 273, 189, 336, 204
-0.99852, 201, 115, 264, 130
-0.998521, 413, 133, 444, 148
-0.998522, 161, 97, 176, 224
-0.998523, 233, 209, 296, 224
-0.998524, 369, 95, 400, 110
-0.998525, 133, 123, 164, 138
-0.998525, 393, 17, 456, 32
-0.998525, 21, 159, 52, 174
-0.998526, 297, 41, 360, 56
-0.998526, 369, 155, 432, 170
-0.998526, 437, 25, 468, 40
-0.998526, 49, 29, 112, 44
-0.998526, 229, 219, 260, 234
-0.998527, 321, 189, 384, 204
-0.998527, 9, 55, 72, 70
-0.998527, 185, 5, 248, 20
-0.998528, 49, 37, 112, 52
-0.998529, 297, 189, 360, 204
-0.998529, 17, 79, 48, 94
-0.998529, 33, 111, 96, 126
-0.998531, 33, 137, 96, 152
-0.998531, 129, 237, 192, 252
-0.998532, 113, 201, 176, 216
-0.998532, 297, 49, 360, 64
-0.998533, 33, 39, 64, 54
-0.998533, 37, 139, 68, 154
-0.998533, 209, 7, 240, 22
-0.998534, 309, 177, 340, 192
-0.998534, 1, 67, 32, 82
-0.998534, 417, 13, 480, 28
-0.998534, 65, 53, 96, 68
-0.998535, 325, 27, 356, 42
-0.998535, 31, 81, 46, 208
-0.998536, 409, 317, 472, 332
-0.998536, 9, 149, 72, 164
-0.998536, 81, 219, 144, 234
-0.998536, 353, 53, 416, 68
-0.998537, 65, 261, 192, 292
-0.998538, 369, 139, 432, 154
-0.998539, 309, 145, 324, 272
-0.998539, 153, 129, 184, 144
-0.998539, 49, 211, 112, 226
-0.99854, 313, 31, 376, 46
-0.99854, 273, 201, 336, 216
-0.99854, 417, 173, 480, 188
-0.998541, 145, 121, 176, 136
-0.998541, 57, 89, 88, 104
-0.998543, 401, 137, 464, 152
-0.998543, 37, 133, 68, 148
-0.998543, 89, 59, 120, 74
-0.998543, 449, 151, 480, 166
-0.998543, 361, 143, 392, 158
-0.998543, 257, 209, 320, 224
-0.998544, 137, 157, 168, 172
-0.998544, 33, 93, 96, 108
-0.998544, 281, 191, 312, 206
-0.998545, 9, 155, 72, 170
-0.998545, 153, 137, 184, 152
-0.998546, 89, 115, 152, 130
-0.998547, 433, 143, 464, 158
-0.998547, 53, 57, 84, 72
-0.998547, 97, 215, 128, 230
-0.998548, 377, 5, 440, 20
-0.998548, 49, 37, 80, 52
-0.998548, 345, 97, 408, 112
-0.998549, 169, 127, 232, 142
-0.998549, 153, 149, 184, 164
-0.99855, 149, 113, 180, 128
-0.99855, 41, 63, 72, 78
-0.998551, 337, 61, 400, 76
-0.998551, 385, 33, 448, 48
-0.998551, 453, 143, 484, 158
-0.998551, 33, 143, 96, 158
-0.998552, 309, 193, 340, 208
-0.998553, 45, 85, 76, 100
-0.998553, 197, 159, 228, 174
-0.998553, 169, 141, 232, 156
-0.998554, 353, 221, 480, 252
-0.998554, 361, 75, 424, 90
-0.998555, 225, 237, 288, 252
-0.998555, 33, 157, 96, 172
-0.998556, 421, 163, 452, 178
-0.998557, 393, 177, 456, 192
-0.998558, 241, 217, 272, 232
-0.998558, 21, 117, 52, 132
-0.998558, 393, 11, 456, 26
-0.998558, 341, 183, 372, 198
-0.998559, 129, 151, 192, 166
-0.998559, 337, 147, 400, 162
-0.99856, 297, 141, 360, 156
-0.998561, 97, 81, 160, 96
-0.998561, 109, 209, 140, 224
-0.998561, 145, 13, 208, 28
-0.998561, 333, 175, 364, 190
-0.998562, 21, 137, 52, 152
-0.998562, 181, 121, 212, 136
-0.998563, 409, 169, 440, 184
-0.998563, 377, 125, 440, 140
-0.998563, 33, 179, 96, 194
-0.998563, 409, 27, 472, 42
-0.998564, 453, 157, 484, 172
-0.998566, 23, 49, 38, 176
-0.998567, 37, 125, 68, 140
-0.99857, 25, 85, 56, 100
-0.998572, 85, 201, 116, 216
-0.998572, 221, 211, 252, 226
-0.998577, 209, 215, 240, 230
-0.998578, 197, 9, 228, 24
-0.998578, 161, 119, 192, 134
-0.99858, 353, 171, 384, 186
-0.99858, 421, 149, 452, 164
-0.998582, 469, 151, 500, 166
-0.998583, 49, 31, 80, 46
-0.998584, 409, 151, 440, 166
-0.998585, 35, 33, 50, 160
-0.998585, 41, 45, 72, 60
-0.998585, 365, 161, 396, 176
-0.998589, 79, 49, 94, 176
-0.998593, 421, 169, 452, 184
-0.998599, 297, 197, 328, 212
-0.998602, 189, 109, 220, 124
-0.998603, 37, 57, 68, 72
-0.998604, 1, 17, 16, 144
-0.998606, 189, 115, 220, 130
-0.998608, 89, 33, 104, 160
-0.998608, 17, 73, 48, 88
-0.998608, 441, 17, 472, 32
-0.998611, 17, 61, 48, 76
-0.998613, 21, 131, 52, 146
-0.998613, 21, 123, 52, 138
-0.998616, 353, 181, 384, 196
-0.998619, 469, 145, 500, 160
-0.998621, 29, 67, 60, 82
-0.998621, 321, 177, 352, 192
-0.998625, 133, 117, 164, 132
-0.99863, 257, 273, 500, 333
-0.998631, 161, 113, 192, 128
-0.998632, 365, 185, 396, 200
-0.998635, 89, 209, 120, 224
-0.998635, 453, 1, 468, 128
-0.998636, 437, 159, 468, 174
-0.998636, 409, 161, 440, 176
-0.998637, 421, 155, 452, 170
-0.998642, 289, 217, 416, 248
-0.998646, 367, 113, 382, 240
-0.998647, 433, 165, 464, 180
-0.998647, 433, 149, 464, 164
-0.998648, 13, 93, 44, 108
-0.998651, 143, 97, 158, 224
-0.998654, 437, 129, 452, 256
-0.998654, 425, 315, 456, 330
-0.998654, 15, 49, 30, 176
-0.99866, 451, 129, 466, 256
-0.998665, 97, 201, 128, 216
-0.99867, 171, 97, 186, 224
-0.998672, 25, 101, 56, 116
-0.998673, 379, 81, 394, 208
-0.998681, 33, 91, 64, 106
-0.998688, 25, 1, 40, 128
-0.998691, 17, 67, 48, 82
-0.998694, 373, 81, 388, 208
-0.998699, 445, 113, 460, 240
-0.99871, 431, 129, 446, 256
-0.998711, 47, 33, 62, 160
-0.998713, 363, 33, 378, 160
-0.998715, 107, 177, 122, 304
-0.998719, 337, 1, 352, 128
-0.998722, 425, 113, 440, 240
-0.998726, 195, 97, 210, 224
-0.998731, 303, 177, 318, 304
-0.998733, 441, 1, 456, 128
-0.998738, 89, 195, 120, 210
-0.998741, 315, 129, 330, 256
-0.998743, 57, 17, 72, 144
-0.998744, 373, 129, 388, 256
-0.998763, 149, 97, 164, 224
-0.998764, 1, 281, 128, 312
-0.998764, 261, 145, 276, 272
-0.998767, 97, 49, 112, 176
-0.998775, 69, 33, 84, 160
-0.998792, 19, 97, 34, 224
-0.998807, 447, 1, 462, 128
-0.998821, 63, 17, 78, 144
-0.998824, 273, 253, 400, 284
-0.998839, 267, 161, 282, 288
-0.99884, 415, 97, 430, 224
-0.998848, 89, 177, 104, 304
-0.998872, 95, 1, 110, 128
-0.99888, 479, 1, 494, 128
-0.998885, 201, 97, 216, 224
-0.998896, 137, 145, 152, 272
-0.9989, 321, 17, 336, 144
-0.998904, 303, 129, 318, 256
-0.99891, 205, 1, 220, 128
-0.998913, 413, 145, 428, 272
-0.998916, 49, 273, 176, 304
-0.998934, 367, 161, 382, 288
-0.99894, 379, 1, 394, 128
-0.998943, 391, 49, 406, 176
-0.998949, 83, 1, 98, 128
-0.99895, 369, 277, 496, 308
-0.998952, 309, 33, 324, 160
-0.998953, 89, 81, 104, 208
-0.998966, 387, 1, 402, 128
-0.998979, 369, 201, 496, 232
-0.99899, 463, 81, 478, 208
-0.998992, 255, 129, 270, 256
-0.998993, 161, 53, 288, 84
-0.998994, 473, 113, 488, 240
-0.998995, 265, 81, 280, 208
-0.998999, 405, 1, 420, 128
-0.999006, 7, 1, 22, 128
-0.999008, 385, 81, 400, 208
-0.999015, 155, 129, 170, 256
-0.999015, 373, 33, 388, 160
-0.999019, 257, 193, 272, 320
-0.999021, 435, 81, 450, 208
-0.999024, 273, 241, 400, 272
-0.999028, 327, 17, 342, 144
-0.999041, 273, 145, 288, 272
-0.999042, 13, 1, 28, 128
-0.999043, 485, 1, 500, 128
-0.999051, 143, 145, 158, 272
-0.999055, 303, 33, 318, 160
-0.999055, 41, 129, 56, 256
-0.999065, 197, 49, 212, 176
-0.999068, 103, 49, 118, 176
-0.999072, 165, 145, 180, 272
-0.999072, 321, 161, 336, 288
-0.999081, 459, 1, 474, 128
-0.999083, 321, 113, 336, 240
-0.999087, 415, 17, 430, 144
-0.999088, 297, 177, 312, 304
-0.999088, 397, 33, 412, 160
-0.999092, 425, 65, 440, 192
-0.999099, 255, 81, 270, 208
-0.999101, 19, 1, 34, 128
-0.999104, 97, 129, 112, 256
-0.999104, 353, 1, 368, 128
-0.999104, 65, 81, 80, 208
-0.999107, 39, 81, 54, 208
-0.999107, 297, 129, 312, 256
-0.999111, 113, 177, 128, 304
-0.999113, 279, 145, 294, 272
-0.999114, 83, 177, 98, 304
-0.999115, 315, 33, 330, 160
-0.999118, 149, 145, 164, 272
-0.999119, 295, 49, 310, 176
-0.999125, 25, 97, 40, 224
-0.999126, 247, 145, 262, 272
-0.999128, 329, 129, 344, 256
-0.999129, 207, 49, 222, 176
-0.999133, 75, 1, 90, 128
-0.999134, 199, 1, 214, 128
-0.999142, 463, 193, 478, 320
-0.999147, 457, 129, 472, 256
-0.999154, 315, 81, 330, 208
-0.999158, 73, 81, 88, 208
-0.999158, 177, 97, 192, 224
-0.999161, 55, 65, 70, 192
-0.999165, 473, 1, 488, 128
-0.999165, 423, 1, 438, 128
-0.999165, 485, 113, 500, 240
-0.999171, 357, 161, 372, 288
-0.999172, 79, 113, 94, 240
-0.999174, 185, 97, 200, 224
-0.999175, 223, 193, 238, 320
-0.999175, 3, 81, 18, 208
-0.999176, 219, 1, 234, 128
-0.999176, 155, 81, 170, 208
-0.999176, 213, 145, 228, 272
-0.99918, 289, 49, 304, 176
-0.999183, 87, 129, 102, 256
-0.999184, 141, 33, 156, 160
-0.999189, 103, 129, 118, 256
-0.99933, 1, 273, 256, 333
-0.99934, 129, 273, 256, 333
-0.999666, 315, 141, 330, 156
-0.999666, 23, 73, 38, 88
-0.999666, 57, 47, 72, 62
-0.999666, 71, 177, 86, 192
-0.999666, 167, 127, 182, 142
-0.999667, 107, 81, 122, 96
-0.999667, 57, 87, 72, 102
-0.999667, 427, 313, 442, 328
-0.999667, 43, 59, 58, 74
-0.999669, 465, 151, 480, 166
-0.999669, 439, 317, 454, 332
-0.99967, 167, 119, 182, 134
-0.99967, 103, 203, 118, 218
-0.999671, 415, 117, 430, 132
-0.999671, 385, 119, 400, 134
-0.999671, 209, 9, 224, 24
-0.999671, 297, 153, 312, 168
-0.999672, 335, 177, 350, 192
-0.999672, 21, 67, 36, 82
-0.999673, 449, 35, 464, 50
-0.999674, 43, 123, 58, 138
-0.999674, 163, 133, 178, 148
-0.999674, 245, 217, 260, 232
-0.999675, 425, 147, 440, 162
-0.999675, 97, 57, 112, 72
-0.999676, 99, 3, 114, 18
-0.999676, 249, 211, 264, 226
-0.999676, 11, 67, 26, 82
-0.999676, 313, 147, 328, 162
-0.999677, 167, 149, 182, 164
-0.999677, 371, 143, 386, 158
-0.999678, 323, 177, 338, 192
-0.999678, 35, 87, 50, 102
-0.999679, 453, 145, 468, 160
-0.999679, 33, 127, 48, 142
-0.999679, 445, 23, 460, 38
-0.99968, 65, 53, 80, 68
-0.999681, 415, 151, 430, 166
-0.999683, 53, 37, 68, 52
-0.999685, 239, 217, 254, 232
-0.999685, 91, 207, 106, 222
-0.999685, 31, 101, 46, 116
-0.999686, 157, 115, 172, 130
-0.999686, 109, 211, 124, 226
-0.999686, 25, 89, 40, 104
-0.999686, 445, 17, 460, 32
-0.999686, 453, 165, 468, 180
-0.999686, 425, 173, 440, 188
-0.999687, 343, 175, 358, 190
-0.999687, 185, 117, 200, 132
-0.999687, 41, 35, 56, 50
-0.999688, 33, 49, 48, 64
-0.999691, 425, 127, 440, 142
-0.999692, 37, 99, 52, 114
-0.999692, 425, 119, 440, 134
-0.999693, 299, 197, 314, 212
-0.999693, 381, 5, 396, 20
-0.999693, 201, 159, 216, 174
-0.999695, 9, 95, 24, 110
-0.999697, 21, 61, 36, 76
-0.999698, 307, 151, 322, 166
-0.9997, 43, 47, 58, 62
-0.999701, 199, 119, 214, 134
-0.999701, 103, 215, 118, 230
-0.999701, 305, 195, 320, 210
-0.999702, 159, 121, 174, 136
-0.999703, 97, 213, 112, 228
-0.999703, 55, 53, 70, 68
-0.999704, 15, 93, 30, 108
-0.999704, 445, 141, 460, 156
-0.999705, 137, 165, 152, 180
-0.999706, 423, 165, 438, 180
-0.999707, 473, 153, 488, 168
-0.999708, 17, 29, 32, 44
-0.999709, 31, 73, 46, 88
-0.99971, 365, 171, 380, 186
-0.99971, 61, 59, 76, 74
-0.999711, 479, 31, 494, 46
-0.999711, 203, 1, 218, 16
-0.999713, 23, 123, 38, 138
-0.999713, 367, 185, 382, 200
-0.999713, 105, 59, 120, 74
-0.999715, 51, 43, 66, 58
-0.999716, 211, 159, 226, 174
-0.999718, 139, 159, 154, 174
-0.999718, 173, 115, 188, 130
-0.999718, 161, 151, 176, 166
-0.999718, 55, 31, 70, 46
-0.999719, 163, 139, 178, 154
-0.999723, 429, 167, 444, 182
-0.999725, 437, 165, 452, 180
-0.999726, 45, 97, 60, 112
-0.999729, 443, 165, 458, 180
-0.999729, 381, 185, 396, 200
-0.999729, 425, 133, 440, 148
-0.999729, 197, 107, 212, 122
-0.999732, 365, 179, 380, 194
-0.999735, 375, 161, 390, 176
-0.999737, 19, 103, 34, 118
-0.999739, 347, 183, 362, 198
-0.99974, 437, 155, 452, 170
-0.99974, 27, 95, 42, 110
-0.999741, 63, 29, 78, 44
-0.999741, 137, 117, 152, 132
-0.999742, 451, 151, 466, 166
-0.999743, 45, 53, 60, 68
-0.999747, 89, 195, 104, 210
-0.999748, 471, 147, 486, 162
-0.999749, 31, 67, 46, 82
-0.999749, 431, 159, 446, 174
-0.999752, 375, 187, 390, 202
-0.999754, 55, 59, 70, 74
-0.999756, 89, 201, 104, 216
-0.999759, 479, 153, 494, 168
-0.999759, 441, 149, 456, 164
-0.999761, 425, 153, 440, 168
-0.999764, 41, 91, 56, 106
-0.999764, 47, 89, 62, 104
-0.999774, 431, 151, 446, 166
-0.999774, 453, 159, 468, 174
-0.999782, 367, 161, 382, 176
-0.999785, 485, 147, 500, 162
-0.999785, 445, 159, 460, 174
-0.99979, 433, 311, 448, 326
-0.999795, 163, 113, 178, 128
-0.999815, 99, 195, 114, 210
-0.999817, 477, 143, 492, 158
-0.99982, 425, 159, 440, 174
-0.999823, 35, 93, 50, 108
-0.999839, 451, 17, 466, 32
-0.999956, 225, 257, 352, 320
