1874
-0.469818, 1, 1, 301, 256
-0.572328, 1, 97, 301, 352
-0.585367, 1, 225, 301, 480
-0.591881, 1, 1, 301, 500
-0.646987, 1, 1, 256, 500
-0.760269, 1, 97, 256, 352
-0.765041, 1, 1, 256, 256
-0.818172, 33, 193, 288, 448
-0.894762, 1, 1, 128, 500
-0.906035, 17, 1, 144, 256
-0.909402, 1, 1, 301, 128
-0.913371, 161, 97, 288, 352
-0.917921, 49, 1, 176, 500
-0.917946, 65, 193, 192, 448
-0.91825, 33, 97, 160, 352
-0.920711, 81, 65, 208, 320
-0.92538, 161, 1, 288, 500
-0.928638, 17, 193, 144, 448
-0.92944, 1, 257, 301, 384
-0.933391, 113, 1, 240, 500
-0.934103, 145, 193, 272, 448
-0.935554, 1, 161, 301, 288
-0.941761, 1, 49, 301, 176
-0.942474, 1, 1, 256, 128
-0.946658, 1, 305, 301, 432
-0.946983, 1, 209, 301, 336
-0.949865, 161, 1, 288, 256
-0.951446, 1, 97, 301, 224
-0.95633, 1, 49, 256, 176
-0.958006, 1, 225, 256, 352
-0.959515, 1, 17, 128, 144
-0.960221, 81, 241, 208, 368
-0.960249, 33, 97, 288, 224
-0.96145, 9, 33, 72, 160
-0.961775, 1, 273, 256, 400
-0.964488, 1, 161, 128, 288
-0.965389, 1, 161, 256, 288
-0.965838, 137, 241, 200, 368
-0.966155, 65, 161, 192, 288
-0.967009, 1, 353, 301, 480
-0.967915, 113, 161, 240, 288
-0.968126, 129, 241, 256, 368
-0.968201, 137, 161, 200, 288
-0.968243, 129, 97, 256, 224
-0.969242, 33, 17, 96, 144
-0.969755, 169, 129, 232, 256
-0.970891, 113, 161, 176, 288
-0.971513, 81, 289, 208, 416
-0.972752, 81, 81, 208, 208
-0.972794, 1, 185, 64, 248
-0.97282, 113, 241, 176, 368
-0.972998, 1, 73, 64, 136
-0.973069, 9, 1, 72, 64
-0.973106, 1, 65, 128, 192
-0.973259, 1, 81, 64, 208
-0.97363, 161, 241, 224, 368
-0.973998, 121, 81, 184, 208
-0.974078, 25, 177, 88, 304
-0.97414, 105, 153, 168, 216
-0.974151, 65, 177, 128, 240
-0.974655, 17, 153, 80, 216
-0.974668, 33, 113, 160, 240
-0.974912, 25, 201, 88, 264
-0.975008, 145, 113, 208, 240
-0.975041, 33, 105, 96, 168
-0.975435, 89, 209, 152, 336
-0.975604, 57, 209, 120, 272
-0.975711, 73, 305, 136, 432
-0.975722, 169, 193, 232, 320
-0.975808, 89, 89, 152, 152
-0.975895, 145, 289, 272, 416
-0.976144, 49, 1, 176, 128
-0.976148, 1, 337, 128, 464
-0.976296, 33, 321, 288, 448
-0.976367, 161, 193, 288, 320
-0.976439, 81, 153, 144, 216
-0.976676, 49, 81, 112, 208
-0.976751, 65, 113, 128, 176
-0.976822, 25, 41, 88, 104
-0.977197, 121, 177, 184, 240
-0.977243, 105, 129, 168, 192
-0.977632, 41, 169, 104, 232
-0.977776, 1, 273, 128, 400
-0.978009, 17, 209, 144, 336
-0.978025, 1, 193, 64, 320
-0.978028, 137, 145, 200, 208
-0.978346, 65, 81, 128, 144
-0.978444, 209, 177, 272, 304
-0.978918, 153, 169, 216, 232
-0.97898, 17, 1, 80, 256
-0.97914, 89, 97, 152, 224
-0.979332, 49, 337, 176, 464
-0.979342, 145, 121, 208, 184
-0.979427, 57, 129, 120, 256
-0.979788, 49, 225, 112, 352
-0.980171, 193, 97, 256, 224
-0.980192, 41, 1, 104, 64
-0.980446, 161, 145, 288, 272
-0.980492, 1, 49, 64, 112
-0.980591, 1, 153, 128, 216
-0.980598, 89, 257, 152, 384
-0.980681, 89, 177, 152, 240
-0.980681, 153, 193, 216, 256
-0.980757, 33, 177, 160, 240
-0.980878, 25, 65, 88, 128
-0.98119, 25, 97, 88, 224
-0.981336, 1, 121, 64, 184
-0.981463, 97, 217, 160, 280
-0.981521, 89, 33, 152, 160
-0.981524, 1, 129, 64, 256
-0.981809, 41, 129, 104, 192
-0.981917, 81, 177, 208, 240
-0.981992, 121, 97, 184, 160
-0.982091, 89, 161, 152, 288
-0.982366, 49, 305, 112, 432
-0.982459, 177, 201, 240, 264
-0.982688, 9, 273, 72, 400
-0.982706, 9, 97, 72, 160
-0.982762, 137, 233, 200, 296
-0.982916, 161, 49, 288, 176
-0.98296, 65, 137, 192, 200
-0.982965, 57, 177, 120, 304
-0.983031, 57, 1, 120, 128
-0.98311, 137, 289, 200, 416
-0.98314, 193, 289, 256, 416
-0.983216, 1, 225, 64, 288
-0.98342, 177, 169, 240, 232
-0.98359, 177, 105, 240, 168
-0.983644, 145, 65, 208, 192
-0.984008, 37, 33, 68, 160
-0.984094, 25, 233, 88, 296
-0.984893, 177, 97, 301, 224
-0.9849, 9, 73, 40, 136
-0.984909, 1, 65, 32, 192
-0.984984, 1, 201, 128, 264
-0.98499, 21, 65, 52, 192
-0.985029, 177, 353, 301, 480
-0.985066, 17, 57, 144, 120
-0.985083, 201, 185, 264, 248
-0.985095, 97, 33, 224, 160
-0.985204, 141, 241, 172, 368
-0.985352, 225, 289, 288, 416
-0.985364, 73, 193, 136, 448
-0.98539, 33, 313, 96, 376
-0.985409, 81, 201, 208, 264
-0.985417, 161, 289, 224, 416
-0.985508, 185, 241, 248, 368
-0.985562, 169, 145, 232, 208
-0.985739, 113, 241, 176, 304
-0.985756, 177, 97, 240, 352
-0.985886, 9, 49, 40, 112
-0.985993, 1, 1, 64, 500
-0.986, 113, 289, 176, 416
-0.986029, 33, 41, 64, 104
-0.986144, 145, 97, 208, 160
-0.98619, 57, 241, 120, 304
-0.986224, 17, 33, 144, 96
-0.986248, 1, 105, 128, 168
-0.986334, 161, 1, 288, 128
-0.986504, 129, 169, 256, 232
-0.986718, 1, 1, 128, 64
-0.986749, 73, 353, 136, 480
-0.986765, 33, 97, 96, 352
-0.986784, 225, 33, 288, 160
-0.98695, 153, 225, 184, 352
-0.987211, 201, 97, 264, 160
-0.987218, 177, 241, 301, 368
-0.98728, 1, 25, 64, 88
-0.987304, 25, 1, 88, 500
-0.987312, 121, 201, 184, 264
-0.987327, 49, 225, 176, 288
-0.987418, 49, 409, 112, 472
-0.987467, 21, 65, 52, 128
-0.987482, 41, 1, 104, 256
-0.98749, 149, 161, 180, 288
-0.987622, 65, 97, 192, 160
-0.987656, 177, 225, 240, 288
-0.98766, 73, 361, 136, 424
-0.987702, 1, 161, 32, 224
-0.987777, 21, 17, 52, 144
-0.98781, 49, 369, 112, 496
-0.987838, 105, 153, 136, 216
-0.987872, 1, 249, 64, 312
-0.987966, 1, 369, 256, 496
-0.988003, 1, 81, 128, 144
-0.988023, 33, 1, 64, 64
-0.988065, 149, 241, 180, 304
-0.988066, 145, 217, 272, 280
-0.988104, 65, 65, 128, 320
-0.988132, 81, 305, 112, 432
-0.988178, 73, 305, 136, 368
-0.988233, 25, 225, 88, 352
-0.988314, 169, 81, 232, 208
-0.988377, 49, 121, 80, 184
-0.988467, 181, 145, 212, 272
-0.988601, 69, 329, 100, 392
-0.988647, 129, 241, 160, 368
-0.988699, 41, 257, 104, 500
-0.9887, 89, 177, 120, 240
-0.988741, 165, 241, 196, 368
-0.988771, 81, 249, 208, 312
-0.988781, 97, 105, 128, 168
-0.9888, 1, 289, 64, 352
-0.98881, 69, 337, 100, 464
-0.988962, 113, 97, 240, 160
-0.988976, 161, 145, 288, 208
-0.988985, 49, 25, 112, 88
-0.989102, 129, 97, 160, 224
-0.98916, 73, 169, 104, 232
-0.989185, 165, 161, 196, 288
-0.98922, 201, 209, 264, 272
-0.989232, 145, 97, 208, 352
-0.989363, 113, 145, 240, 208
-0.989378, 49, 385, 112, 448
-0.989462, 1, 97, 64, 352
-0.989477, 73, 337, 136, 400
-0.989482, 17, 129, 144, 192
-0.98961, 153, 193, 216, 448
-0.989679, 49, 313, 176, 376
-0.989696, 61, 161, 92, 288
-0.98971, 49, 1, 112, 500
-0.989726, 169, 193, 200, 256
-0.98973, 1, 321, 128, 384
-0.989764, 113, 121, 240, 184
-0.989863, 1, 377, 128, 440
-0.989865, 45, 33, 76, 96
-0.989879, 17, 177, 48, 240
-0.989892, 37, 113, 68, 176
-0.989899, 49, 97, 80, 224
-0.989927, 53, 1, 84, 64
-0.989947, 49, 353, 176, 416
-0.989956, 145, 145, 176, 208
-0.98998, 17, 145, 48, 272
-0.989984, 185, 297, 248, 360
-0.990007, 37, 113, 68, 240
-0.990034, 121, 33, 184, 160
-0.990048, 217, 129, 280, 256
-0.990125, 129, 177, 160, 304
-0.990164, 1, 233, 128, 296
-0.990182, 113, 97, 176, 352
-0.990203, 129, 193, 256, 256
-0.990223, 209, 241, 272, 368
-0.990228, 73, 281, 136, 344
-0.990245, 1, 17, 32, 144
-0.990281, 49, 345, 112, 408
-0.990298, 153, 217, 184, 280
-0.990305, 49, 385, 176, 448
-0.990317, 193, 137, 256, 200
-0.990322, 49, 9, 176, 72
-0.990322, 101, 185, 132, 248
-0.990339, 25, 321, 88, 448
-0.990354, 21, 145, 52, 208
-0.990377, 61, 137, 92, 200
-0.9904, 241, 337, 301, 464
-0.990413, 121, 113, 152, 176
-0.990432, 109, 113, 140, 176
-0.990513, 29, 185, 60, 248
-0.990528, 61, 201, 92, 264
-0.99059, 145, 121, 176, 184
-0.990611, 153, 273, 184, 400
-0.99064, 57, 321, 88, 384
-0.990662, 49, 153, 80, 216
-0.990714, 53, 97, 84, 160
-0.990743, 85, 145, 116, 208
-0.990801, 201, 33, 264, 160
-0.990896, 1, 329, 64, 392
-0.99091, 129, 241, 256, 304
-0.99095, 197, 113, 228, 240
-0.990954, 125, 145, 156, 208
-0.990957, 65, 57, 128, 120
-0.990966, 9, 1, 72, 32
-0.990967, 53, 1, 84, 128
-0.990985, 9, 137, 40, 200
-0.991031, 33, 153, 64, 216
-0.991056, 77, 361, 108, 424
-0.991129, 109, 89, 140, 152
-0.991134, 9, 225, 40, 352
-0.991149, 113, 65, 176, 128
-0.991162, 149, 177, 180, 240
-0.991188, 1, 369, 64, 496
-0.991211, 157, 113, 188, 240
-0.991221, 5, 113, 36, 240
-0.991296, 73, 113, 104, 176
-0.991346, 161, 73, 288, 136
-0.991387, 129, 117, 192, 148
-0.991409, 145, 297, 208, 360
-0.991521, 185, 193, 216, 256
-0.991564, 37, 73, 68, 136
-0.991588, 1, 193, 64, 448
-0.991604, 9, 77, 72, 108
-0.991608, 161, 105, 288, 168
-0.991666, 173, 97, 204, 224
-0.991666, 177, 209, 208, 336
-0.991667, 21, 33, 52, 96
-0.991702, 1, 321, 64, 448
-0.991727, 81, 241, 144, 304
-0.991734, 49, 193, 80, 256
-0.991754, 73, 1, 136, 500
-0.991777, 1, 393, 64, 456
-0.991781, 97, 165, 160, 196
-0.991792, 241, 353, 301, 416
-0.991815, 61, 177, 92, 240
-0.991821, 105, 113, 168, 144
-0.991831, 1, 425, 128, 488
-0.991841, 145, 133, 208, 164
-0.991854, 73, 309, 136, 340
-0.991869, 1, 89, 64, 120
-0.991877, 105, 133, 168, 164
-0.991904, 177, 185, 240, 216
-0.991911, 105, 177, 168, 208
-0.991924, 9, 37, 72, 68
-0.991934, 49, 289, 112, 352
-0.991952, 1, 97, 32, 160
-0.991956, 137, 245, 200, 276
-0.991977, 161, 197, 224, 228
-0.991983, 165, 217, 196, 280
-0.991986, 9, 25, 72, 56
-0.992048, 81, 189, 144, 220
-0.992048, 105, 189, 168, 220
-0.992062, 129, 145, 192, 176
-0.992074, 125, 169, 156, 232
-0.992077, 185, 197, 248, 228
-0.992085, 73, 209, 136, 240
-0.992088, 65, 177, 128, 208
-0.992128, 105, 101, 168, 132
-0.992129, 153, 117, 216, 148
-0.992139, 153, 185, 216, 216
-0.992145, 33, 41, 96, 72
-0.992151, 225, 201, 288, 264
-0.992165, 21, 97, 52, 160
-0.992173, 73, 117, 136, 148
-0.992196, 97, 145, 160, 176
-0.992213, 113, 273, 176, 336
-0.992221, 81, 233, 144, 264
-0.992244, 137, 157, 200, 188
-0.992256, 201, 161, 264, 224
-0.992259, 201, 181, 264, 212
-0.992267, 161, 209, 224, 240
-0.99227, 129, 197, 192, 228
-0.992275, 157, 153, 188, 216
-0.992279, 37, 209, 68, 272
-0.992284, 177, 225, 208, 288
-0.992299, 33, 217, 96, 248
-0.992302, 185, 217, 248, 248
-0.992309, 49, 129, 112, 160
-0.992316, 73, 89, 136, 120
-0.99232, 137, 169, 200, 200
-0.992322, 1, 209, 64, 240
-0.992325, 33, 5, 96, 36
-0.992329, 93, 49, 124, 176
-0.99233, 25, 93, 88, 124
-0.992341, 193, 161, 224, 288
-0.992347, 65, 81, 96, 144
-0.992349, 181, 169, 212, 232
-0.992351, 201, 113, 264, 144
-0.992356, 145, 81, 176, 208
-0.992356, 81, 353, 112, 480
-0.992361, 73, 145, 136, 176
-0.992363, 129, 105, 192, 136
-0.992369, 169, 173, 232, 204
-0.992371, 41, 113, 104, 144
-0.992373, 97, 305, 224, 368
-0.992388, 49, 241, 112, 272
-0.992395, 49, 197, 112, 228
-0.99241, 9, 65, 72, 96
-0.992411, 49, 157, 112, 188
-0.992426, 97, 245, 160, 276
-0.992445, 73, 157, 136, 188
-0.992445, 153, 229, 216, 260
-0.992455, 57, 229, 120, 260
-0.992457, 9, 13, 72, 44
-0.992466, 137, 233, 168, 296
-0.992479, 97, 305, 160, 336
-0.992481, 145, 297, 272, 360
-0.99249, 13, 9, 44, 72
-0.992497, 153, 105, 216, 136
-0.992504, 81, 133, 144, 164
-0.992528, 1, 353, 128, 416
-0.992531, 89, 49, 152, 112
-0.992532, 177, 113, 240, 144
-0.992533, 65, 105, 128, 136
-0.992545, 193, 169, 256, 200
-0.992546, 25, 53, 88, 84
-0.992549, 209, 201, 272, 232
-0.992557, 81, 221, 144, 252
-0.992585, 129, 337, 256, 464
-0.992585, 181, 273, 212, 400
-0.992586, 129, 185, 192, 216
-0.992595, 17, 237, 80, 268
-0.992598, 169, 129, 232, 160
-0.992623, 137, 309, 200, 340
-0.992627, 73, 209, 104, 272
-0.99263, 105, 233, 168, 264
-0.992633, 197, 193, 228, 256
-0.992661, 25, 157, 88, 188
-0.992669, 89, 225, 120, 288
-0.992679, 201, 133, 264, 164
-0.992679, 49, 193, 80, 320
-0.992683, 161, 309, 224, 340
-0.992685, 33, 325, 96, 356
-0.992693, 73, 321, 136, 352
-0.992697, 41, 169, 104, 200
-0.992709, 109, 161, 140, 288
-0.992714, 1, 113, 64, 144
-0.992718, 97, 205, 160, 236
-0.992718, 121, 209, 184, 240
-0.992723, 49, 89, 112, 120
-0.992744, 49, 17, 112, 48
-0.992745, 1, 101, 64, 132
-0.992749, 1, 125, 64, 156
-0.992751, 73, 393, 136, 456
-0.992765, 73, 249, 136, 280
-0.992769, 49, 281, 176, 344
-0.992801, 49, 145, 112, 176
-0.992804, 209, 97, 272, 128
-0.992813, 73, 357, 136, 388
-0.992818, 1, 225, 64, 256
-0.992832, 49, 309, 112, 340
-0.992849, 61, 377, 92, 440
-0.992858, 25, 181, 88, 212
-0.992859, 209, 213, 272, 244
-0.992862, 1, 401, 128, 464
-0.992877, 241, 409, 301, 472
-0.992878, 113, 193, 144, 256
-0.992884, 185, 153, 248, 184
-0.992884, 161, 161, 224, 192
-0.992886, 113, 73, 240, 136
-0.992887, 49, 29, 112, 60
-0.992887, 177, 229, 240, 260
-0.992892, 1, 25, 32, 88
-0.992895, 9, 145, 72, 176
-0.992895, 161, 149, 224, 180
-0.992901, 49, 397, 112, 428
-0.992901, 117, 241, 148, 368
-0.992913, 1, 249, 64, 280
-0.992929, 5, 161, 36, 288
-0.992941, 73, 373, 136, 404
-0.992942, 197, 105, 228, 168
-0.992963, 129, 233, 192, 264
-0.992971, 41, 257, 104, 288
-0.992981, 241, 1, 301, 32
-0.992985, 1, 49, 64, 80
-0.992985, 81, 329, 112, 392
-0.992992, 209, 157, 272, 188
-0.992992, 1, 177, 64, 208
-0.992993, 185, 309, 248, 340
-0.993, 49, 409, 112, 440
-0.993002, 125, 89, 156, 152
-0.993008, 73, 401, 136, 432
-0.993022, 1, 265, 64, 296
-0.993031, 217, 69, 280, 100
-0.993033, 1, 161, 64, 192
-0.993035, 1, 257, 128, 320
-0.993037, 209, 229, 272, 260
-0.99304, 177, 185, 301, 248
-0.993043, 241, 225, 301, 352
-0.993048, 37, 1, 68, 32
-0.993054, 105, 257, 168, 288
-0.993059, 49, 297, 112, 328
-0.993064, 25, 133, 88, 164
-0.993081, 113, 317, 176, 348
-0.993085, 105, 221, 168, 252
-0.993096, 25, 197, 88, 228
-0.993096, 33, 357, 96, 388
-0.993099, 33, 385, 96, 416
-0.993119, 209, 297, 272, 360
-0.993133, 137, 257, 200, 288
-0.993139, 1, 197, 64, 228
-0.993145, 217, 37, 280, 68
-0.993155, 217, 169, 280, 200
-0.993156, 5, 85, 36, 116
-0.993161, 17, 77, 48, 108
-0.99317, 173, 121, 204, 184
-0.993191, 1, 293, 64, 324
-0.993199, 53, 73, 84, 136
-0.993199, 149, 241, 180, 272
-0.993201, 73, 345, 136, 376
-0.993211, 33, 341, 96, 372
-0.993216, 217, 1, 280, 32
-0.993217, 105, 89, 168, 120
-0.993223, 77, 313, 108, 344
-0.993224, 49, 369, 112, 400
-0.993231, 17, 97, 48, 128
-0.993236, 185, 93, 248, 124
-0.993254, 85, 233, 116, 264
-0.993256, 61, 325, 92, 356
-0.993267, 213, 161, 244, 288
-0.993267, 29, 77, 60, 108
-0.99328, 17, 417, 80, 480
-0.99328, 69, 361, 100, 392
-0.99329, 65, 73, 192, 136
-0.99329, 169, 213, 200, 244
-0.993292, 129, 177, 160, 208
-0.993292, 33, 161, 64, 288
-0.993309, 157, 113, 188, 176
-0.993314, 201, 65, 264, 320
-0.993317, 9, 117, 40, 148
-0.993321, 177, 193, 240, 448
-0.993323, 117, 101, 148, 132
-0.993324, 181, 217, 212, 248
-0.993326, 9, 61, 40, 92
-0.993331, 1, 97, 32, 128
-0.993335, 145, 165, 176, 196
-0.993338, 97, 113, 128, 144
-0.993339, 221, 209, 252, 240
-0.993344, 133, 121, 164, 152
-0.993346, 73, 81, 104, 208
-0.993347, 29, 109, 60, 140
-0.993349, 41, 169, 72, 200
-0.993355, 193, 209, 224, 240
-0.993355, 225, 77, 256, 108
-0.993356, 77, 341, 108, 372
-0.993357, 25, 65, 56, 96
-0.993358, 77, 373, 108, 404
-0.993361, 69, 401, 100, 464
-0.993364, 181, 205, 212, 236
-0.993364, 45, 41, 76, 72
-0.993366, 153, 113, 184, 144
-0.993368, 113, 193, 144, 224
-0.993371, 221, 65, 252, 96
-0.993372, 169, 225, 200, 256
-0.993372, 137, 109, 168, 140
-0.993376, 121, 113, 152, 144
-0.993376, 145, 129, 176, 160
-0.993376, 97, 305, 128, 336
-0.993377, 129, 189, 160, 220
-0.993379, 169, 201, 200, 232
-0.993383, 93, 213, 124, 244
-0.993384, 117, 129, 148, 160
-0.993389, 97, 233, 128, 264
-0.993389, 69, 89, 100, 120
-0.993389, 53, 173, 84, 204
-0.99339, 225, 81, 288, 208
-0.993391, 165, 157, 196, 188
-0.993393, 113, 149, 144, 180
-0.993395, 225, 33, 256, 64
-0.993397, 149, 153, 180, 184
-0.993398, 73, 185, 104, 216
-0.993398, 157, 225, 188, 256
-0.993399, 33, 33, 64, 64
-0.993399, 213, 197, 244, 228
-0.993399, 105, 93, 136, 124
-0.993399, 49, 149, 80, 180
-0.993401, 53, 133, 84, 164
-0.993404, 33, 93, 64, 124
-0.993404, 77, 129, 108, 160
-0.993404, 225, 93, 256, 124
-0.993404, 69, 409, 100, 440
-0.993406, 145, 189, 176, 220
-0.993406, 69, 245, 100, 276
-0.993406, 109, 221, 140, 252
-0.993408, 69, 225, 100, 256
-0.99341, 97, 137, 128, 168
-0.993411, 113, 161, 144, 192
-0.993412, 77, 389, 108, 420
-0.993416, 77, 101, 108, 132
-0.993417, 181, 193, 212, 224
-0.99342, 149, 101, 180, 132
-0.99342, 125, 145, 156, 176
-0.993421, 169, 121, 200, 152
-0.993423, 1, 137, 32, 168
-0.993425, 201, 161, 232, 192
-0.993426, 165, 169, 196, 200
-0.993427, 81, 173, 112, 204
-0.993428, 185, 157, 216, 188
-0.99343, 209, 213, 240, 244
-0.993432, 73, 145, 104, 176
-0.993432, 229, 221, 260, 252
-0.993433, 105, 173, 136, 204
-0.993434, 225, 49, 256, 80
-0.993435, 97, 185, 128, 216
-0.99344, 17, 173, 48, 204
-0.993441, 33, 53, 64, 84
-0.993445, 25, 133, 56, 164
-0.993445, 169, 137, 200, 168
-0.993445, 13, 149, 44, 180
-0.993446, 157, 133, 188, 164
-0.99345, 73, 137, 104, 200
-0.99345, 1, 165, 32, 196
-0.993452, 5, 185, 36, 248
-0.993456, 61, 377, 92, 408
-0.993456, 41, 121, 72, 152
-0.993457, 101, 125, 132, 156
-0.993457, 81, 213, 112, 244
-0.993461, 1, 149, 32, 180
-0.993463, 197, 221, 228, 252
-0.993465, 145, 141, 176, 172
-0.993466, 65, 305, 96, 336
-0.993467, 201, 193, 232, 224
-0.993467, 117, 81, 148, 208
-0.993467, 61, 161, 92, 192
-0.993468, 125, 245, 156, 276
-0.993473, 53, 81, 84, 112
-0.993473, 113, 305, 144, 336
-0.993474, 89, 101, 120, 132
-0.993474, 193, 181, 224, 212
-0.993476, 189, 125, 220, 156
-0.993479, 213, 97, 244, 128
-0.993479, 89, 125, 120, 156
-0.99348, 13, 129, 44, 160
-0.993481, 45, 105, 76, 136
-0.993482, 29, 185, 60, 216
-0.993486, 129, 97, 160, 128
-0.993486, 125, 157, 156, 188
-0.993488, 9, 49, 40, 80
-0.993488, 197, 113, 228, 144
-0.993489, 21, 41, 52, 72
-0.993489, 25, 153, 56, 184
-0.993489, 37, 21, 68, 52
-0.993489, 181, 145, 212, 176
-0.993492, 117, 209, 148, 240
-0.993495, 49, 197, 80, 228
-0.993496, 129, 229, 160, 260
-0.993498, 185, 169, 216, 200
-0.993498, 97, 245, 128, 276
-0.993499, 145, 305, 176, 336
-0.993501, 85, 113, 116, 144
-0.993501, 61, 397, 92, 428
-0.993503, 61, 201, 92, 232
-0.993503, 133, 309, 164, 340
-0.993506, 69, 113, 100, 144
-0.993508, 233, 297, 296, 360
-0.993536, 169, 169, 200, 232
-0.993543, 177, 409, 301, 472
-0.99358, 121, 313, 184, 376
-0.993593, 225, 41, 256, 104
-0.993684, 125, 217, 156, 280
-0.993694, 169, 145, 200, 208
-0.993742, 153, 89, 184, 152
-0.993745, 161, 49, 288, 112
-0.993756, 81, 241, 112, 368
-0.993761, 177, 1, 301, 64
-0.993765, 193, 273, 224, 400
-0.993783, 89, 97, 152, 352
-0.99381, 69, 233, 100, 296
-0.993818, 65, 353, 96, 416
-0.993957, 85, 89, 116, 152
-0.993963, 61, 289, 92, 416
-0.994002, 165, 289, 196, 416
-0.994028, 209, 1, 272, 500
-0.994098, 1, 1, 32, 64
-0.994098, 205, 273, 236, 400
-0.994103, 89, 201, 120, 264
-0.99411, 21, 121, 52, 184
-0.994126, 137, 257, 200, 320
-0.994213, 177, 81, 240, 144
-0.99422, 105, 113, 136, 240
-0.994235, 85, 113, 116, 176
-0.994249, 101, 217, 132, 280
-0.994356, 49, 409, 176, 472
-0.99438, 209, 65, 272, 128
-0.994433, 241, 1, 301, 64
-0.994442, 189, 209, 220, 336
-0.994485, 97, 273, 224, 336
-0.994494, 49, 265, 112, 328
-0.994521, 225, 65, 256, 128
-0.994522, 177, 33, 240, 160
-0.994523, 73, 145, 104, 272
-0.994525, 97, 241, 128, 368
-0.994528, 177, 321, 301, 384
-0.994577, 209, 185, 240, 248
-0.994592, 21, 225, 52, 352
-0.994594, 201, 33, 264, 96
-0.994613, 1, 41, 256, 104
-0.994672, 129, 193, 192, 448
-0.994677, 1, 209, 256, 272
-0.994732, 193, 161, 224, 224
-0.994755, 105, 1, 168, 500
-0.994776, 97, 313, 160, 376
-0.994863, 269, 289, 300, 416
-0.994865, 161, 241, 192, 304
-0.994923, 93, 289, 124, 416
-0.99494, 225, 129, 256, 256
-0.99495, 69, 241, 100, 368
-0.995029, 129, 1, 192, 500
-0.995038, 1, 297, 128, 360
-0.995048, 21, 225, 52, 288
-0.995063, 177, 377, 301, 440
-0.995095, 177, 1, 240, 500
-0.995103, 185, 137, 216, 200
-0.995107, 161, 25, 288, 88
-0.995138, 1, 105, 256, 168
-0.995153, 137, 177, 168, 240
-0.995194, 97, 129, 128, 192
-0.995234, 65, 49, 192, 112
-0.995286, 201, 1, 264, 64
-0.995321, 77, 305, 108, 368
-0.99534, 1, 9, 256, 72
-0.995351, 73, 417, 136, 480
-0.995352, 81, 193, 112, 320
-0.99536, 97, 81, 128, 144
-0.995362, 241, 377, 301, 440
-0.995372, 105, 33, 136, 160
-0.995401, 33, 185, 288, 248
-0.995406, 13, 273, 44, 400
-0.995459, 1, 153, 256, 216
-0.995493, 133, 121, 164, 184
-0.99551, 61, 97, 92, 224
-0.995536, 41, 433, 104, 496
-0.995543, 53, 233, 84, 296
-0.995547, 217, 289, 248, 416
-0.995564, 113, 49, 240, 112
-0.995579, 241, 321, 301, 384
-0.995611, 153, 1, 216, 256
-0.995625, 1, 33, 301, 96
-0.995629, 1, 225, 32, 288
-0.995663, 81, 385, 112, 448
-0.995678, 49, 433, 176, 496
-0.995715, 229, 209, 260, 272
-0.995742, 225, 1, 256, 64
-0.995797, 185, 321, 248, 384
-0.995799, 177, 49, 208, 176
-0.995886, 81, 17, 144, 80
-0.995904, 217, 129, 280, 192
-0.995929, 141, 289, 172, 416
-0.996063, 225, 185, 256, 248
-0.996079, 17, 201, 48, 264
-0.996091, 1, 249, 256, 312
-0.996135, 201, 161, 264, 416
-0.996155, 1, 77, 128, 108
-0.996162, 49, 145, 80, 272
-0.996164, 33, 165, 160, 196
-0.996174, 49, 49, 80, 176
-0.996177, 185, 97, 216, 224
-0.996204, 25, 289, 88, 352
-0.996226, 105, 193, 168, 448
-0.996232, 113, 25, 240, 88
-0.996232, 241, 25, 301, 88
-0.996235, 125, 241, 156, 304
-0.996239, 185, 297, 216, 360
-0.996243, 117, 33, 148, 160
-0.996243, 149, 33, 180, 160
-0.996263, 177, 353, 301, 416
-0.996273, 209, 97, 240, 224
-0.996281, 49, 185, 176, 216
-0.996282, 233, 273, 264, 400
-0.996332, 209, 297, 240, 360
-0.996368, 17, 369, 80, 432
-0.996407, 1, 181, 128, 212
-0.996427, 51, 1, 66, 64
-0.996438, 185, 113, 216, 176
-0.996458, 1, 9, 301, 72
-0.996478, 5, 81, 20, 144
-0.996482, 241, 169, 301, 232
-0.996485, 93, 161, 124, 288
-0.996486, 161, 249, 224, 312
-0.996489, 1, 273, 32, 400
-0.996522, 105, 1, 168, 256
-0.996523, 1, 65, 256, 128
-0.996532, 161, 321, 224, 384
-0.996554, 29, 65, 44, 128
-0.996584, 141, 97, 172, 160
-0.996673, 201, 209, 232, 336
-0.996724, 81, 329, 96, 392
-0.996736, 105, 17, 168, 80
-0.996749, 197, 297, 228, 360
-0.996751, 153, 65, 216, 128
-0.996753, 129, 197, 256, 228
-0.996756, 145, 273, 272, 336
-0.996854, 213, 33, 244, 96
-0.996867, 209, 145, 240, 208
-0.996873, 241, 145, 301, 272
-0.996888, 65, 205, 192, 236
-0.996893, 61, 49, 92, 176
-0.996906, 103, 193, 118, 256
-0.996914, 213, 209, 244, 336
-0.996925, 113, 209, 240, 240
-0.996935, 17, 45, 144, 76
-0.996948, 173, 297, 204, 360
-0.996949, 21, 65, 36, 128
-0.996961, 73, 1, 104, 128
-0.99697, 93, 193, 108, 256
-0.99697, 129, 1, 256, 64
-0.996986, 177, 241, 301, 304
-0.997, 97, 185, 224, 216
-0.997015, 269, 353, 300, 480
-0.997035, 151, 233, 166, 296
-0.997055, 197, 217, 228, 280
-0.997063, 107, 169, 122, 232
-0.997074, 21, 249, 52, 312
-0.997092, 13, 89, 28, 152
-0.997092, 129, 289, 160, 416
-0.997113, 37, 233, 68, 296
-0.997135, 33, 313, 288, 376
-0.997144, 17, 153, 144, 184
-0.997158, 37, 225, 68, 352
-0.997165, 241, 257, 301, 500
-0.997169, 83, 185, 98, 248
-0.997177, 81, 353, 96, 416
-0.99718, 233, 1, 296, 500
-0.997184, 161, 229, 288, 260
-0.997198, 81, 249, 208, 280
-0.997199, 1, 129, 256, 192
-0.997204, 81, 169, 208, 200
-0.997215, 221, 81, 252, 208
-0.997218, 233, 57, 296, 120
-0.997231, 171, 177, 186, 240
-0.99724, 129, 173, 256, 204
-0.997247, 63, 177, 78, 240
-0.997254, 73, 217, 88, 280
-0.997261, 25, 393, 88, 456
-0.997265, 93, 97, 124, 224
-0.997271, 233, 225, 296, 288
-0.997278, 1, 209, 301, 272
-0.997285, 57, 281, 88, 344
-0.997311, 79, 217, 94, 280
-0.997325, 11, 153, 26, 216
-0.997327, 93, 1, 124, 128
-0.997329, 81, 65, 112, 128
-0.997333, 109, 193, 124, 256
-0.997347, 113, 149, 240, 180
-0.99735, 161, 217, 288, 248
-0.997358, 13, 49, 28, 112
-0.997363, 19, 161, 34, 224
-0.997386, 1, 57, 301, 120
-0.997395, 197, 137, 228, 200
-0.997398, 97, 169, 112, 232
-0.997403, 113, 221, 240, 252
-0.997404, 81, 101, 208, 132
-0.997411, 1, 5, 128, 36
-0.99742, 51, 33, 66, 96
-0.997424, 213, 65, 244, 128
-0.997429, 139, 137, 154, 200
-0.997437, 65, 153, 192, 184
-0.997441, 25, 177, 40, 240
-0.997448, 73, 145, 88, 208
-0.997457, 129, 161, 256, 192
-0.997458, 157, 169, 172, 232
-0.997461, 113, 153, 128, 216
-0.997472, 1, 65, 128, 96
-0.997478, 45, 209, 60, 272
-0.997497, 155, 105, 170, 168
-0.997498, 177, 433, 301, 496
-0.997499, 49, 89, 176, 120
-0.997501, 129, 113, 144, 176
-0.997501, 17, 213, 144, 244
-0.997502, 43, 185, 58, 248
-0.997503, 105, 257, 136, 320
-0.997503, 115, 185, 130, 248
-0.99751, 25, 33, 40, 96
-0.99753, 217, 97, 248, 160
-0.997532, 113, 65, 144, 128
-0.997533, 59, 129, 74, 192
-0.997552, 157, 241, 172, 304
-0.997568, 133, 1, 164, 128
-0.997571, 77, 177, 92, 240
-0.997573, 25, 369, 88, 496
-0.997574, 169, 153, 184, 216
-0.997587, 87, 217, 102, 280
-0.997589, 123, 153, 138, 216
-0.997589, 55, 193, 70, 256
-0.99759, 37, 49, 52, 112
-0.997593, 63, 217, 78, 280
-0.997596, 179, 177, 194, 240
-0.9976, 57, 1, 72, 64
-0.997602, 85, 153, 100, 216
-0.997603, 175, 201, 190, 264
-0.997615, 33, 245, 160, 276
-0.997615, 57, 241, 88, 368
-0.997616, 49, 233, 176, 264
-0.99762, 145, 121, 160, 184
-0.997621, 65, 309, 192, 340
-0.997624, 53, 129, 68, 192
-0.997627, 141, 161, 156, 224
-0.99763, 69, 193, 84, 256
-0.997635, 1, 193, 128, 224
-0.997639, 35, 121, 50, 184
-0.997644, 69, 425, 100, 488
-0.997654, 1, 129, 16, 192
-0.997654, 167, 217, 182, 280
-0.99766, 129, 309, 256, 340
-0.99767, 225, 1, 288, 256
-0.997684, 9, 321, 40, 448
-0.997684, 33, 201, 48, 264
-0.997687, 39, 209, 54, 272
-0.997688, 43, 129, 58, 192
-0.99769, 1, 313, 301, 376
-0.997695, 67, 129, 82, 192
-0.997697, 185, 57, 248, 120
-0.997697, 169, 97, 200, 160
-0.997699, 43, 41, 58, 104
-0.997705, 43, 105, 58, 168
-0.997707, 129, 25, 192, 88
-0.997708, 79, 153, 94, 216
-0.997717, 19, 41, 34, 104
-0.997729, 147, 97, 162, 160
-0.99773, 89, 305, 120, 368
-0.997732, 209, 321, 272, 384
-0.997736, 3, 161, 18, 224
-0.997737, 101, 225, 116, 288
-0.997741, 19, 89, 34, 152
-0.997744, 33, 17, 160, 48
-0.99775, 25, 257, 88, 320
-0.997752, 157, 297, 188, 360
-0.997753, 103, 145, 118, 208
-0.997756, 45, 1, 76, 256
-0.997757, 81, 113, 96, 176
-0.99776, 93, 137, 108, 200
-0.99776, 129, 153, 144, 216
-0.997763, 55, 169, 70, 232
-0.997765, 167, 241, 182, 304
-0.997766, 33, 161, 48, 224
-0.997768, 221, 297, 252, 360
-0.997793, 71, 313, 86, 376
-0.997797, 145, 297, 176, 360
-0.997803, 151, 145, 166, 208
-0.997803, 15, 185, 30, 248
-0.997805, 59, 81, 74, 144
-0.997811, 67, 89, 82, 152
-0.997813, 145, 185, 272, 216
-0.997824, 113, 237, 240, 268
-0.997827, 77, 89, 92, 152
-0.997833, 25, 153, 40, 216
-0.997835, 9, 113, 24, 176
-0.997836, 81, 385, 96, 448
-0.997836, 123, 193, 138, 256
-0.997838, 3, 57, 18, 120
-0.997842, 109, 289, 140, 416
-0.997842, 29, 1, 60, 256
-0.997843, 113, 233, 144, 296
-0.997859, 145, 105, 272, 136
-0.997863, 129, 249, 256, 280
-0.997867, 7, 1, 22, 64
-0.997868, 1, 229, 128, 260
-0.997889, 59, 105, 74, 168
-0.997896, 31, 97, 46, 160
-0.997897, 177, 205, 301, 236
-0.9979, 25, 113, 40, 176
-0.997901, 145, 89, 272, 120
-0.997923, 121, 121, 136, 184
-0.997928, 17, 241, 32, 304
-0.997934, 57, 337, 88, 464
-0.997934, 81, 409, 112, 472
-0.997935, 29, 225, 44, 288
-0.997935, 97, 401, 224, 464
-0.99794, 7, 249, 22, 312
-0.997943, 19, 121, 34, 184
-0.997947, 177, 1, 240, 256
-0.997952, 47, 161, 62, 224
-0.997966, 163, 161, 178, 224
-0.997975, 1, 93, 128, 124
-0.997975, 1, 137, 128, 168
-0.997976, 65, 217, 192, 248
-0.997978, 129, 329, 256, 392
-0.997989, 113, 137, 240, 168
-0.997994, 87, 81, 102, 144
-0.997995, 115, 225, 130, 288
-0.997998, 143, 241, 158, 304
-0.99801, 133, 177, 148, 240
-0.998012, 37, 73, 52, 136
-0.998017, 1, 113, 301, 176
-0.998018, 45, 1, 60, 64
-0.998025, 215, 193, 230, 256
-0.998037, 165, 185, 180, 248
-0.998037, 181, 201, 196, 264
-0.998039, 105, 113, 120, 176
-0.998042, 33, 29, 160, 60
-0.998043, 1, 105, 16, 168
-0.998045, 139, 113, 154, 176
-0.998045, 67, 153, 82, 216
-0.998045, 13, 33, 44, 288
-0.998068, 95, 217, 110, 280
-0.998069, 25, 273, 56, 400
-0.998071, 233, 105, 296, 168
-0.998075, 225, 137, 256, 200
-0.998075, 31, 41, 46, 104
-0.998075, 17, 105, 144, 136
-0.998075, 1, 369, 128, 400
-0.998086, 181, 321, 212, 448
-0.998088, 39, 153, 54, 216
-0.998089, 17, 309, 144, 340
-0.998091, 49, 97, 64, 160
-0.998095, 173, 225, 188, 288
-0.998097, 3, 225, 18, 288
-0.998098, 105, 89, 120, 152
-0.998099, 65, 141, 192, 172
-0.998121, 115, 113, 130, 176
-0.998141, 91, 169, 106, 232
-0.998146, 1, 161, 301, 224
-0.998151, 85, 257, 116, 320
-0.998152, 89, 113, 104, 176
-0.998161, 151, 169, 166, 232
-0.998164, 61, 153, 76, 216
-0.998167, 225, 161, 288, 416
-0.998173, 161, 137, 176, 200
-0.998176, 7, 25, 22, 88
-0.998178, 1, 273, 256, 336
-0.99818, 109, 217, 124, 280
-0.998188, 19, 1, 34, 64
-0.9982, 27, 201, 42, 264
-0.99821, 185, 161, 200, 224
-0.998212, 81, 113, 208, 144
-0.998214, 177, 337, 240, 464
-0.998216, 69, 241, 84, 304
-0.998225, 175, 153, 190, 216
-0.998237, 49, 125, 176, 156
-0.998243, 25, 89, 40, 152
-0.998246, 55, 233, 70, 296
-0.998248, 75, 113, 90, 176
-0.998253, 161, 145, 288, 176
-0.998286, 47, 1, 62, 32
-0.998301, 129, 121, 256, 152
-0.998306, 49, 397, 176, 428
-0.998314, 125, 207, 156, 222
-0.998314, 153, 193, 184, 208
-0.998314, 69, 133, 100, 148
-0.998315, 1, 145, 32, 160
-0.998315, 57, 125, 88, 140
-0.998315, 137, 155, 168, 170
-0.998316, 57, 323, 88, 338
-0.998316, 5, 11, 36, 26
-0.998316, 177, 135, 208, 150
-0.998316, 17, 175, 48, 190
-0.998316, 109, 111, 140, 126
-0.998316, 181, 211, 212, 226
-0.998317, 69, 393, 100, 408
-0.998317, 89, 231, 120, 246
-0.998318, 109, 229, 140, 244
-0.998318, 149, 169, 180, 184
-0.998318, 65, 205, 96, 220
-0.998318, 89, 127, 120, 142
-0.998318, 109, 245, 140, 260
-0.99832, 145, 247, 176, 262
-0.99832, 173, 149, 204, 164
-0.99832, 97, 137, 128, 152
-0.998321, 5, 21, 36, 36
-0.998321, 69, 223, 100, 238
-0.998322, 141, 117, 172, 132
-0.998322, 13, 33, 44, 48
-0.998322, 133, 127, 164, 142
-0.998323, 61, 161, 92, 176
-0.998324, 13, 169, 44, 184
-0.998324, 121, 183, 152, 198
-0.998324, 77, 231, 108, 246
-0.998325, 25, 39, 56, 54
-0.998325, 49, 353, 176, 384
-0.998325, 37, 113, 68, 128
-0.998325, 77, 177, 108, 192
-0.998326, 125, 201, 156, 216
-0.998326, 5, 155, 36, 170
-0.998326, 165, 121, 196, 136
-0.998326, 69, 411, 100, 426
-0.998327, 113, 101, 144, 116
-0.998327, 5, 183, 36, 198
-0.998327, 69, 363, 100, 378
-0.998328, 69, 383, 100, 398
-0.998328, 5, 191, 36, 206
-0.998329, 13, 47, 44, 62
-0.998329, 81, 237, 112, 252
-0.998329, 41, 129, 72, 144
-0.998329, 169, 227, 200, 242
-0.99833, 53, 107, 84, 122
-0.99833, 33, 121, 64, 136
-0.99833, 105, 157, 136, 172
-0.99833, 125, 159, 156, 174
-0.998331, 53, 147, 84, 162
-0.998331, 77, 141, 108, 156
-0.998332, 77, 115, 108, 130
-0.998332, 105, 193, 136, 208
-0.998332, 89, 243, 120, 258
-0.998332, 85, 187, 116, 202
-0.998333, 153, 131, 184, 146
-0.998333, 129, 239, 160, 254
-0.998333, 53, 173, 84, 188
-0.998333, 1, 51, 32, 66
-0.998333, 169, 221, 200, 236
-0.998335, 161, 147, 192, 162
-0.998335, 165, 133, 196, 148
-0.998335, 97, 107, 128, 122
-0.998336, 57, 191, 88, 206
-0.998338, 169, 205, 200, 220
-0.998338, 157, 187, 188, 202
-0.998338, 37, 99, 68, 114
-0.998339, 45, 187, 76, 202
-0.998339, 17, 153, 48, 168
-0.998339, 69, 199, 100, 214
-0.99834, 73, 243, 104, 258
-0.998341, 117, 127, 148, 142
-0.998341, 149, 157, 180, 172
-0.998341, 1, 117, 32, 132
-0.998341, 101, 123, 132, 138
-0.998342, 13, 57, 44, 72
-0.998342, 53, 101, 84, 116
-0.998342, 21, 117, 52, 132
-0.998342, 177, 305, 301, 336
-0.998343, 37, 39, 68, 54
-0.998343, 77, 375, 108, 390
-0.998344, 45, 153, 76, 168
-0.998344, 33, 155, 64, 170
-0.998344, 9, 125, 40, 140
-0.998345, 97, 199, 128, 214
-0.998345, 37, 105, 68, 120
-0.998345, 125, 193, 156, 208
-0.998346, 105, 117, 136, 132
-0.998347, 49, 163, 80, 178
-0.998347, 25, 127, 56, 142
-0.998347, 97, 225, 128, 240
-0.998347, 109, 239, 140, 254
-0.998347, 69, 185, 100, 200
-0.998349, 169, 215, 200, 230
-0.998349, 57, 185, 88, 200
-0.998351, 133, 175, 164, 190
-0.998351, 145, 123, 176, 138
-0.998352, 37, 179, 68, 194
-0.998352, 137, 167, 168, 182
-0.998353, 25, 93, 56, 108
-0.998354, 9, 111, 40, 126
-0.998354, 77, 193, 108, 208
-0.998356, 17, 187, 48, 202
-0.998356, 25, 107, 56, 122
-0.998357, 133, 185, 164, 200
-0.998358, 73, 105, 104, 120
-0.998358, 69, 369, 100, 384
-0.998359, 97, 433, 224, 496
-0.99836, 61, 167, 92, 182
-0.998361, 17, 99, 48, 114
-0.998361, 41, 169, 72, 184
-0.998361, 17, 181, 48, 196
-0.998362, 29, 171, 60, 186
-0.998363, 109, 203, 140, 218
-0.998364, 137, 191, 168, 206
-0.998364, 1, 171, 32, 186
-0.998367, 9, 63, 40, 78
-0.998367, 1, 97, 32, 112
-0.998368, 149, 241, 180, 256
-0.99837, 249, 289, 280, 416
-0.998371, 29, 77, 60, 92
-0.998372, 1, 103, 32, 118
-0.998373, 9, 83, 40, 98
-0.998374, 61, 243, 92, 258
-0.998375, 29, 185, 60, 200
-0.998375, 121, 119, 152, 134
-0.998378, 13, 71, 44, 86
-0.998378, 1, 381, 128, 412
-0.998382, 9, 77, 40, 92
-0.998385, 1, 405, 128, 436
-0.998387, 69, 237, 100, 252
-0.998392, 9, 91, 40, 106
-0.998396, 61, 257, 92, 500
-0.998424, 97, 261, 224, 292
-0.998437, 151, 237, 166, 268
-0.998438, 161, 133, 288, 164
-0.998443, 33, 1, 64, 16
-0.998459, 49, 377, 176, 408
-0.998463, 1, 125, 128, 156
-0.998469, 1, 33, 32, 288
-0.998483, 1, 185, 301, 248
-0.998508, 1, 393, 128, 424
-0.998516, 27, 65, 42, 96
-0.998551, 153, 65, 184, 320
-0.998558, 1, 369, 32, 496
-0.998559, 1, 465, 128, 496
-0.998563, 17, 453, 144, 484
-0.998571, 9, 3, 72, 18
-0.998586, 49, 409, 176, 440
-0.998587, 81, 297, 208, 328
-0.998588, 129, 45, 256, 76
-0.998595, 49, 321, 176, 352
-0.998597, 77, 317, 92, 348
-0.998606, 113, 187, 176, 202
-0.998611, 1, 93, 64, 108
-0.998616, 73, 183, 136, 198
-0.998618, 25, 345, 88, 408
-0.99862, 25, 103, 88, 118
-0.998621, 1, 99, 64, 114
-0.998621, 169, 273, 232, 336
-0.998626, 57, 105, 120, 120
-0.998628, 241, 129, 301, 192
-0.998631, 9, 181, 72, 196
-0.998631, 17, 189, 80, 204
-0.998632, 17, 79, 80, 94
-0.998635, 105, 193, 168, 208
-0.998635, 75, 165, 90, 196
-0.998636, 1, 341, 128, 372
-0.998636, 1, 357, 128, 388
-0.998636, 1, 417, 128, 448
-0.998638, 129, 201, 192, 216
-0.998638, 153, 1, 216, 500
-0.998638, 103, 233, 118, 264
-0.998638, 81, 203, 144, 218
-0.998639, 145, 193, 208, 208
-0.99864, 1, 63, 64, 78
-0.998641, 49, 195, 112, 210
-0.998641, 41, 201, 104, 216
-0.998642, 9, 43, 72, 58
-0.998643, 57, 175, 120, 190
-0.998643, 49, 181, 112, 196
-0.998643, 1, 107, 64, 122
-0.998643, 9, 23, 72, 38
-0.998644, 25, 97, 88, 112
-0.998644, 57, 189, 120, 204
-0.998644, 169, 199, 232, 214
-0.998644, 9, 37, 72, 52
-0.998644, 33, 111, 96, 126
-0.998644, 97, 119, 160, 134
-0.998645, 73, 111, 136, 126
-0.998645, 57, 1, 88, 256
-0.998647, 97, 133, 160, 148
-0.998649, 9, 29, 72, 44
-0.998649, 17, 237, 80, 252
-0.998649, 121, 127, 184, 142
-0.99865, 81, 125, 144, 140
-0.99865, 49, 219, 112, 234
-0.998652, 169, 211, 232, 226
-0.998652, 41, 227, 104, 242
-0.998653, 81, 239, 144, 254
-0.998653, 49, 209, 112, 224
-0.998653, 49, 117, 112, 132
-0.998653, 73, 229, 136, 244
-0.998653, 137, 187, 200, 202
-0.998654, 1, 51, 64, 66
-0.998654, 65, 149, 128, 164
-0.998655, 97, 165, 160, 180
-0.998655, 65, 143, 128, 158
-0.998655, 33, 149, 96, 164
-0.998656, 185, 227, 248, 242
-0.998656, 105, 181, 168, 196
-0.998657, 121, 121, 184, 136
-0.998657, 81, 177, 144, 192
-0.998658, 57, 125, 120, 140
-0.998658, 1, 145, 64, 160
-0.998658, 1, 155, 64, 170
-0.998659, 169, 205, 232, 220
-0.998659, 121, 207, 184, 222
-0.998659, 105, 139, 168, 154
-0.998659, 145, 161, 208, 176
-0.99866, 1, 125, 64, 140
-0.99866, 161, 131, 224, 146
-0.99866, 77, 225, 92, 256
-0.99866, 25, 175, 88, 190
-0.998661, 9, 17, 72, 32
-0.998661, 9, 9, 72, 24
-0.998662, 49, 247, 112, 262
-0.998662, 97, 251, 160, 266
-0.998662, 73, 163, 136, 178
-0.998662, 97, 245, 160, 260
-0.998663, 9, 87, 72, 102
-0.998663, 81, 197, 144, 212
-0.998663, 33, 125, 96, 140
-0.998663, 49, 167, 112, 182
-0.998663, 49, 131, 112, 146
-0.998663, 169, 219, 232, 234
-0.998665, 1, 217, 64, 232
-0.998665, 145, 125, 208, 140
-0.998665, 89, 101, 152, 116
-0.998666, 1, 113, 64, 128
-0.998666, 177, 193, 240, 208
-0.998666, 145, 137, 208, 152
-0.998667, 73, 117, 136, 132
-0.998667, 1, 73, 64, 88
-0.998667, 113, 171, 176, 186
-0.998667, 73, 131, 136, 146
-0.998667, 145, 209, 208, 224
-0.998667, 17, 203, 80, 218
-0.998668, 113, 239, 176, 254
-0.998668, 1, 227, 64, 242
-0.998668, 57, 241, 120, 256
-0.998669, 1, 195, 64, 210
-0.998669, 81, 157, 144, 172
-0.99867, 105, 113, 168, 128
-0.99867, 65, 97, 96, 352
-0.99867, 81, 223, 144, 238
-0.998671, 73, 217, 136, 232
-0.998672, 73, 137, 136, 152
-0.998673, 161, 187, 224, 202
-0.998673, 81, 211, 144, 226
-0.998674, 25, 155, 88, 170
-0.998674, 129, 155, 192, 170
-0.998674, 145, 149, 208, 164
-0.998674, 163, 181, 178, 212
-0.998674, 161, 57, 288, 88
-0.998676, 1, 209, 64, 224
-0.998676, 49, 97, 112, 112
-0.998676, 33, 45, 96, 60
-0.998676, 129, 77, 256, 108
-0.998676, 137, 249, 200, 264
-0.998677, 49, 235, 112, 250
-0.998677, 89, 149, 152, 164
-0.998677, 1, 245, 64, 260
-0.998678, 25, 165, 88, 180
-0.998678, 25, 211, 88, 226
-0.998679, 25, 131, 88, 146
-0.998679, 25, 217, 88, 232
-0.998679, 1, 173, 64, 188
-0.99868, 41, 143, 104, 158
-0.99868, 145, 181, 208, 196
-0.99868, 193, 201, 256, 216
-0.998681, 121, 133, 184, 148
-0.998682, 121, 165, 184, 180
-0.998682, 49, 161, 112, 176
-0.998683, 145, 173, 208, 188
-0.998684, 41, 9, 104, 24
-0.998684, 25, 117, 88, 132
-0.998685, 25, 63, 88, 78
-0.998685, 201, 191, 264, 206
-0.998686, 129, 143, 192, 158
-0.998686, 105, 157, 168, 172
-0.998686, 81, 191, 144, 206
-0.998688, 9, 139, 72, 154
-0.998688, 169, 141, 232, 156
-0.998688, 113, 105, 176, 120
-0.998688, 19, 77, 34, 108
-0.998688, 149, 113, 164, 144
-0.998689, 17, 255, 80, 270
-0.998689, 57, 311, 120, 326
-0.998692, 145, 173, 160, 204
-0.998699, 113, 233, 128, 264
-0.998709, 49, 365, 176, 396
-0.998715, 17, 257, 144, 288
-0.998717, 81, 365, 96, 396
-0.99872, 5, 85, 20, 116
-0.99872, 67, 97, 82, 128
-0.998721, 13, 85, 28, 116
-0.998721, 121, 137, 136, 168
-0.998723, 137, 193, 152, 224
-0.998724, 123, 221, 138, 252
-0.998724, 105, 97, 136, 352
-0.998728, 207, 201, 222, 232
-0.998732, 1, 249, 301, 312
-0.998734, 81, 213, 96, 244
-0.998735, 81, 401, 96, 432
-0.998735, 81, 337, 96, 368
-0.998737, 113, 217, 128, 248
-0.99874, 27, 77, 42, 108
-0.998741, 25, 97, 56, 352
-0.998744, 49, 57, 176, 88
-0.998746, 1, 441, 128, 472
-0.99876, 81, 469, 96, 500
-0.998762, 21, 61, 36, 92
-0.998766, 91, 213, 106, 244
-0.998772, 81, 413, 96, 444
-0.998775, 81, 185, 96, 216
-0.998782, 145, 125, 160, 156
-0.998784, 163, 193, 178, 224
-0.998784, 115, 153, 130, 184
-0.998784, 73, 85, 88, 116
-0.998787, 93, 65, 124, 320
-0.998788, 105, 181, 120, 212
-0.998789, 53, 97, 84, 352
-0.99879, 29, 249, 44, 280
-0.998799, 183, 189, 198, 220
-0.998799, 215, 193, 230, 224
-0.998801, 99, 217, 114, 248
-0.998804, 67, 321, 82, 352
-0.998806, 137, 161, 152, 192
-0.998807, 177, 165, 301, 196
-0.998808, 81, 389, 96, 420
-0.99881, 127, 205, 142, 236
-0.998813, 139, 109, 154, 140
-0.998817, 85, 225, 116, 480
-0.998821, 145, 137, 160, 168
-0.998821, 51, 237, 66, 268
-0.998822, 145, 149, 160, 180
-0.998822, 95, 193, 110, 224
-0.998826, 53, 1, 68, 32
-0.998828, 235, 89, 250, 120
-0.998829, 67, 185, 82, 216
-0.998831, 145, 185, 160, 216
-0.998831, 181, 201, 196, 232
-0.998834, 53, 149, 68, 180
-0.998834, 139, 121, 154, 152
-0.998835, 215, 213, 230, 244
-0.998837, 155, 173, 170, 204
-0.998842, 59, 137, 74, 168
-0.998842, 1, 297, 128, 328
-0.998844, 35, 61, 50, 92
-0.998845, 69, 305, 84, 336
-0.998845, 3, 97, 18, 128
-0.998847, 109, 201, 124, 232
-0.998848, 123, 125, 138, 156
-0.99885, 13, 65, 28, 96
-0.99885, 229, 77, 244, 108
-0.998852, 81, 377, 96, 408
-0.998853, 171, 193, 186, 224
-0.998853, 145, 161, 160, 192
-0.998854, 129, 321, 256, 352
-0.998855, 177, 97, 208, 352
-0.998856, 81, 349, 96, 380
-0.998856, 35, 249, 50, 280
-0.998861, 229, 93, 244, 124
-0.998861, 95, 305, 110, 336
-0.998864, 199, 197, 214, 228
-0.998865, 133, 113, 148, 144
-0.998869, 107, 169, 122, 200
-0.998872, 155, 121, 170, 152
-0.998874, 65, 125, 80, 156
-0.998877, 51, 169, 66, 200
-0.998878, 97, 89, 224, 120
-0.998878, 41, 145, 56, 176
-0.998879, 113, 117, 128, 148
-0.99888, 81, 457, 96, 488
-0.998886, 57, 117, 72, 148
-0.998886, 59, 233, 74, 264
-0.998887, 33, 73, 48, 104
-0.998887, 179, 177, 194, 208
-0.998891, 199, 185, 214, 216
-0.998891, 65, 237, 80, 268
-0.998891, 179, 213, 194, 244
-0.998892, 89, 233, 104, 264
-0.998893, 119, 209, 134, 240
-0.998895, 119, 237, 134, 268
-0.998896, 75, 113, 90, 144
-0.998898, 49, 341, 176, 372
-0.998899, 1, 377, 256, 440
-0.998902, 129, 169, 144, 200
-0.998904, 107, 305, 122, 336
-0.998905, 101, 305, 116, 336
-0.998907, 129, 129, 144, 160
-0.998909, 51, 129, 66, 160
-0.998909, 181, 225, 196, 256
-0.998911, 209, 221, 224, 252
-0.998911, 169, 173, 184, 204
-0.998914, 65, 157, 80, 188
-0.998915, 41, 257, 56, 288
-0.998915, 113, 377, 240, 440
-0.998915, 75, 153, 90, 184
-0.998917, 111, 181, 126, 212
-0.998917, 55, 37, 70, 68
-0.998919, 207, 189, 222, 220
-0.998919, 21, 145, 36, 176
-0.998921, 237, 57, 252, 88
-0.998923, 143, 257, 158, 288
-0.998924, 35, 237, 50, 268
-0.998925, 225, 17, 256, 144
-0.998926, 109, 137, 124, 168
-0.998926, 211, 165, 226, 196
-0.998926, 41, 245, 56, 276
-0.998928, 237, 201, 252, 232
-0.998929, 25, 229, 40, 260
-0.998933, 95, 233, 110, 264
-0.99894, 89, 113, 104, 144
-0.99894, 205, 49, 236, 176
-0.998941, 177, 189, 192, 220
-0.998941, 157, 189, 172, 220
-0.998941, 185, 213, 200, 244
-0.998941, 117, 305, 132, 336
-0.998942, 37, 157, 52, 188
-0.998943, 83, 229, 98, 260
-0.998943, 197, 309, 212, 340
-0.998944, 173, 225, 188, 256
-0.998944, 243, 213, 258, 244
-0.998945, 81, 201, 96, 232
-0.998948, 81, 153, 96, 184
-0.998949, 199, 129, 214, 160
-0.99895, 127, 189, 142, 220
-0.99895, 161, 65, 192, 192
-0.998957, 17, 429, 144, 460
-0.998991, 1, 137, 301, 200
-0.998999, 153, 33, 216, 96
-0.999005, 161, 161, 192, 416
-0.999011, 77, 97, 108, 352
-0.999026, 141, 97, 172, 352
-0.999047, 177, 121, 301, 152
-0.999066, 65, 273, 192, 304
-0.999078, 73, 193, 104, 448
-0.999092, 225, 65, 256, 320
-0.999105, 177, 321, 301, 352
-0.999128, 49, 5, 176, 36
-0.999152, 69, 1, 100, 256
-0.999154, 201, 321, 232, 448
-0.999166, 177, 393, 301, 424
-0.999181, 189, 97, 220, 352
-0.999183, 37, 97, 68, 352
-0.999191, 177, 421, 301, 452
-0.999217, 177, 433, 301, 464
-0.999222, 177, 245, 301, 276
-0.99925, 1, 269, 128, 300
-0.999253, 49, 69, 176, 100
-0.999255, 19, 65, 34, 192
-0.999269, 177, 73, 301, 104
-0.999288, 81, 321, 96, 448
-0.999291, 97, 193, 128, 448
-0.999292, 25, 1, 40, 128
-0.999301, 177, 45, 301, 76
-0.999303, 1, 417, 256, 480
-0.999306, 149, 241, 164, 368
-0.999319, 177, 405, 301, 436
-0.999319, 35, 17, 50, 144
-0.999323, 157, 225, 172, 352
-0.999325, 173, 193, 204, 448
-0.999341, 49, 257, 80, 500
-0.999345, 163, 225, 178, 352
-0.999345, 43, 33, 58, 160
-0.999349, 97, 353, 224, 416
-0.999352, 169, 241, 184, 368
-0.999358, 177, 29, 301, 60
-0.999359, 149, 193, 180, 448
-0.999362, 13, 65, 28, 192
-0.999366, 109, 193, 140, 448
-0.999371, 33, 285, 160, 316
-0.999387, 249, 225, 280, 352
-0.999389, 25, 49, 40, 176
-0.999389, 177, 365, 301, 396
-0.99939, 13, 1, 28, 128
-0.999392, 51, 33, 66, 160
-0.999397, 161, 1, 288, 32
-0.999413, 175, 241, 190, 368
-0.999414, 177, 381, 301, 412
-0.999415, 141, 241, 156, 368
-0.999423, 131, 81, 146, 208
-0.999425, 25, 193, 56, 448
-0.999427, 213, 65, 244, 320
-0.999428, 1, 329, 128, 360
-0.999436, 7, 273, 22, 400
-0.999442, 165, 65, 196, 320
-0.99945, 7, 65, 22, 192
-0.99945, 157, 161, 172, 288
-0.999454, 51, 193, 66, 320
-0.999455, 27, 225, 42, 352
-0.999461, 27, 177, 42, 304
-0.999462, 159, 273, 174, 400
-0.999463, 13, 257, 44, 500
-0.999463, 89, 289, 104, 416
-0.999465, 57, 1, 72, 128
-0.999473, 17, 225, 32, 352
-0.999474, 189, 145, 204, 272
-0.999476, 171, 193, 186, 320
-0.999476, 179, 193, 194, 320
-0.99948, 129, 97, 160, 352
-0.999482, 113, 57, 240, 88
-0.999485, 151, 161, 166, 288
-0.999486, 183, 273, 198, 400
-0.999489, 45, 145, 60, 272
-0.999495, 9, 193, 24, 320
-0.999505, 33, 225, 48, 352
-0.999505, 1, 193, 16, 320
-0.999507, 33, 177, 48, 304
-0.999508, 33, 65, 48, 192
-0.999511, 51, 145, 66, 272
-0.999512, 81, 421, 208, 452
-0.999513, 29, 249, 44, 264
-0.999514, 13, 19, 28, 34
-0.999514, 57, 175, 72, 190
-0.999514, 69, 197, 84, 212
-0.999514, 3, 241, 18, 256
-0.999514, 55, 249, 70, 264
-0.999514, 131, 129, 146, 144
-0.999515, 119, 213, 134, 228
-0.999515, 9, 177, 24, 192
-0.999515, 53, 101, 68, 116
-0.999515, 105, 219, 120, 234
-0.999516, 101, 173, 116, 188
-0.999516, 151, 197, 166, 212
-0.999516, 83, 191, 98, 206
-0.999516, 1, 49, 16, 176
-0.999516, 129, 297, 256, 328
-0.999516, 141, 139, 156, 154
-0.999516, 17, 261, 32, 276
-0.999516, 59, 147, 74, 162
-0.999517, 7, 233, 22, 248
-0.999517, 69, 217, 84, 232
-0.999517, 81, 407, 96, 422
-0.999517, 27, 261, 42, 276
-0.999517, 7, 227, 22, 242
-0.999517, 129, 121, 144, 136
-0.999517, 29, 165, 44, 180
-0.999517, 47, 187, 62, 202
-0.999518, 119, 251, 134, 266
-0.999518, 5, 85, 20, 100
-0.999518, 21, 55, 36, 70
-0.999518, 55, 229, 70, 244
-0.999518, 99, 211, 114, 226
-0.999519, 11, 93, 26, 108
-0.999519, 153, 173, 168, 188
-0.999519, 23, 241, 38, 256
-0.999519, 81, 393, 96, 408
-0.99952, 99, 225, 114, 240
-0.99952, 85, 237, 100, 252
-0.99952, 37, 159, 52, 174
-0.99952, 143, 133, 158, 148
-0.99952, 123, 207, 138, 222
-0.999521, 101, 245, 116, 260
-0.999521, 113, 251, 128, 266
-0.999521, 27, 235, 42, 250
-0.999521, 133, 161, 148, 176
-0.999522, 51, 181, 66, 196
-0.999522, 61, 183, 76, 198
-0.999522, 57, 161, 72, 176
-0.999522, 13, 81, 28, 96
-0.999522, 81, 373, 96, 388
-0.999522, 17, 75, 32, 90
-0.999522, 7, 219, 22, 234
-0.999522, 93, 185, 108, 200
-0.999523, 119, 121, 134, 136
-0.999523, 9, 191, 24, 206
-0.999523, 149, 131, 164, 146
-0.999523, 71, 163, 86, 178
-0.999523, 31, 255, 46, 270
-0.999523, 133, 183, 148, 198
-0.999523, 99, 205, 114, 220
-0.999524, 71, 203, 86, 218
-0.999524, 81, 413, 96, 428
-0.999524, 91, 211, 106, 226
-0.999524, 21, 67, 36, 82
-0.999524, 43, 95, 58, 110
-0.999525, 139, 183, 154, 198
-0.999525, 77, 189, 92, 204
-0.999525, 147, 123, 162, 138
-0.999525, 179, 179, 194, 194
-0.999526, 215, 215, 230, 230
-0.999526, 65, 203, 80, 218
-0.999526, 121, 163, 136, 178
-0.999527, 123, 227, 138, 242
-0.999527, 31, 181, 46, 196
-0.999527, 117, 207, 132, 222
-0.999527, 27, 79, 42, 94
-0.999527, 81, 471, 96, 486
-0.999527, 53, 243, 68, 258
-0.999528, 125, 201, 140, 216
-0.999528, 77, 217, 92, 232
-0.999528, 75, 237, 90, 252
-0.999529, 39, 173, 54, 188
-0.999529, 153, 191, 168, 206
-0.999529, 1, 99, 16, 114
-0.999529, 21, 95, 36, 110
-0.999529, 61, 249, 76, 264
-0.999529, 129, 33, 256, 64
-0.99953, 37, 215, 52, 230
-0.99953, 125, 245, 140, 260
-0.99953, 171, 199, 186, 214
-0.99953, 109, 213, 124, 228
-0.99953, 155, 123, 170, 138
-0.999531, 123, 233, 138, 248
-0.999531, 197, 97, 212, 224
-0.999531, 81, 367, 96, 382
-0.999532, 47, 167, 62, 182
-0.999532, 119, 245, 134, 260
-0.999532, 67, 183, 82, 198
-0.999532, 91, 231, 106, 246
-0.999533, 135, 129, 150, 256
-0.999534, 105, 251, 120, 266
-0.999534, 11, 87, 26, 102
-0.999534, 85, 211, 100, 226
-0.999535, 175, 193, 190, 208
-0.999536, 65, 237, 80, 252
-0.999536, 141, 125, 156, 140
-0.999536, 67, 99, 82, 114
-0.999536, 107, 193, 122, 208
-0.999537, 63, 189, 78, 204
-0.999537, 171, 205, 186, 220
-0.999537, 57, 193, 72, 320
-0.999538, 121, 97, 136, 224
-0.999539, 111, 245, 126, 260
-0.999539, 153, 117, 168, 132
-0.999539, 17, 89, 32, 104
-0.99954, 83, 231, 98, 246
-0.99954, 133, 189, 148, 204
-0.99954, 33, 235, 48, 250
-0.999541, 73, 183, 88, 198
-0.999541, 69, 323, 84, 338
-0.999542, 79, 197, 94, 212
-0.999543, 71, 243, 86, 258
-0.999543, 161, 97, 176, 224
-0.999543, 21, 255, 36, 270
-0.999544, 169, 145, 184, 272
-0.999544, 69, 223, 84, 238
-0.999545, 59, 243, 74, 258
-0.999546, 153, 337, 216, 464
-0.999547, 45, 249, 60, 264
-0.999547, 13, 369, 44, 496
-0.999548, 145, 161, 160, 288
-0.999548, 9, 113, 24, 240
-0.999549, 69, 189, 84, 204
-0.999549, 113, 239, 128, 254
-0.999549, 93, 205, 108, 220
-0.99955, 37, 255, 52, 270
-0.99955, 191, 273, 206, 400
-0.999554, 71, 321, 86, 448
-0.999554, 25, 73, 40, 88
-0.999555, 21, 81, 36, 96
-0.999555, 65, 243, 80, 258
-0.999556, 163, 161, 178, 288
-0.999558, 5, 93, 20, 108
-0.99956, 21, 177, 36, 304
-0.999562, 79, 257, 94, 384
-0.999564, 5, 1, 20, 128
-0.999565, 199, 273, 214, 400
-0.999566, 127, 241, 142, 368
-0.999568, 123, 239, 138, 254
-0.999569, 191, 97, 206, 224
-0.999571, 45, 1, 60, 16
-0.999572, 161, 13, 288, 44
-0.999575, 219, 161, 234, 288
-0.999575, 149, 241, 164, 256
-0.999577, 141, 97, 156, 224
-0.999579, 19, 1, 34, 128
-0.999585, 205, 273, 220, 400
-0.999585, 1, 353, 256, 416
-0.999588, 19, 273, 34, 400
-0.999592, 211, 161, 226, 288
-0.999593, 199, 145, 214, 272
-0.999595, 135, 193, 150, 320
-0.999595, 125, 145, 140, 272
-0.999595, 211, 273, 226, 400
-0.999596, 45, 81, 60, 208
-0.999597, 1, 273, 16, 400
-0.999597, 3, 113, 18, 240
-0.999598, 145, 265, 272, 296
-0.999605, 133, 241, 148, 368
-0.999607, 51, 97, 66, 224
-0.999607, 89, 241, 104, 368
-0.999608, 211, 209, 226, 336
-0.999608, 183, 145, 198, 272
-0.999609, 171, 97, 186, 224
-0.99961, 27, 129, 42, 256
-0.999613, 125, 193, 156, 448
-0.999615, 65, 161, 80, 288
-0.999617, 173, 289, 188, 416
-0.999618, 111, 145, 126, 272
-0.999619, 281, 289, 296, 416
-0.999622, 37, 225, 68, 480
-0.999623, 217, 273, 232, 400
-0.999627, 107, 241, 122, 368
-0.999627, 81, 369, 96, 496
-0.999627, 151, 113, 166, 240
-0.999628, 229, 177, 260, 304
-0.999632, 111, 81, 126, 208
-0.999634, 119, 241, 134, 368
-0.999635, 103, 33, 118, 160
-0.999637, 101, 97, 116, 224
-0.999638, 179, 81, 194, 208
-0.999638, 57, 145, 72, 272
-0.999638, 71, 161, 86, 288
-0.999638, 33, 129, 48, 256
-0.99964, 175, 145, 190, 272
-0.99964, 39, 193, 54, 320
-0.999644, 203, 97, 218, 224
-0.999645, 167, 289, 182, 416
-0.999648, 1, 369, 16, 496
-0.999655, 113, 225, 128, 352
-0.999659, 15, 145, 30, 272
-0.999662, 101, 145, 116, 272
-0.999662, 153, 289, 168, 416
-0.999664, 83, 209, 98, 336
-0.999664, 49, 469, 176, 500
-0.999671, 11, 321, 26, 448
-0.999671, 9, 129, 40, 384
-0.999671, 197, 209, 212, 336
-0.999672, 99, 241, 114, 368
-0.999673, 201, 97, 232, 352
-0.999677, 65, 453, 192, 484
-0.999678, 93, 81, 108, 208
-0.999679, 151, 65, 166, 192
-0.99968, 81, 81, 96, 208
-0.99968, 223, 273, 238, 400
-0.999689, 177, 1, 240, 64
-0.999689, 203, 225, 218, 352
-0.99969, 73, 273, 88, 400
-0.999694, 225, 161, 256, 416
-0.999696, 39, 81, 54, 208
-0.999697, 225, 161, 240, 288
-0.999699, 75, 81, 90, 208
-0.999703, 229, 273, 244, 400
-0.999705, 61, 241, 76, 368
-0.999706, 95, 289, 110, 416
-0.999706, 185, 225, 200, 352
-0.999707, 61, 81, 76, 208
-0.999707, 205, 145, 220, 272
-0.999709, 185, 97, 200, 224
-0.99971, 89, 337, 104, 464
-0.99971, 177, 33, 240, 96
-0.999711, 219, 97, 234, 224
-0.999712, 113, 273, 128, 400
-0.999719, 77, 161, 92, 288
-0.99972, 119, 145, 134, 272
-0.999721, 3, 321, 18, 448
-0.999722, 73, 369, 88, 496
-0.999722, 21, 129, 36, 256
-0.999722, 111, 33, 126, 160
-0.999726, 1, 81, 301, 144
-0.999734, 65, 441, 192, 472
-0.999739, 201, 1, 232, 256
-0.999741, 81, 1, 112, 256
-0.999772, 117, 65, 148, 320
-0.999791, 41, 273, 72, 400
-0.999808, 153, 321, 184, 448
-0.999809, 201, 233, 264, 296
-0.999824, 129, 49, 160, 176
-0.999833, 113, 9, 240, 40
-0.999845, 65, 45, 192, 76
-0.999851, 177, 445, 301, 476
-0.999893, 189, 193, 220, 448
-0.999895, 233, 225, 264, 352
-0.999933, 237, 193, 268, 448
-0.999939, 1, 361, 301, 424
-0.99996, 177, 337, 301, 368
-0.999971, 81, 285, 208, 316
-0.999978, 137, 193, 168, 448
-0.999988, 81, 29, 208, 60
-0.999998, 181, 1, 212, 256
-1.00002, 269, 257, 300, 500
-1.00002, 133, 1, 164, 256
-1.00005, 193, 49, 224, 176
-1.00008, 233, 81, 296, 144
-1.00009, 177, 353, 301, 384
-1.00011, 153, 17, 216, 144
-1.00012, 177, 293, 301, 324
-1.00016, 261, 241, 292, 368
-1.00024, 217, 257, 280, 500
-1.00026, 129, 361, 256, 392
-1.00027, 237, 97, 268, 352
-1.00027, 105, 1, 136, 256
-1.00027, 237, 1, 268, 256
-1.00027, 213, 161, 244, 416
-1.00028, 97, 333, 224, 364
-1.00028, 97, 465, 224, 496
-1.00029, 1, 257, 32, 500
-1.0003, 249, 257, 280, 500
-1.0003, 129, 405, 256, 436
-1.00035, 1, 289, 301, 352
-1.00036, 97, 345, 224, 376
-1.00037, 249, 129, 280, 384
-1.00038, 113, 337, 176, 400
-1.0004, 113, 381, 240, 412
-1.00047, 129, 417, 256, 448
-1.00049, 221, 257, 252, 500
-1.0005, 201, 193, 232, 448
-1.00053, 113, 433, 240, 464
-1.00056, 113, 445, 240, 476
-1.00056, 177, 469, 301, 500
-1.00056, 241, 433, 301, 496
-1.00058, 261, 161, 292, 416
-1.00063, 129, 277, 256, 308
-1.00064, 97, 393, 224, 424
-1.00066, 209, 1, 240, 128
-1.00067, 249, 161, 280, 288
-1.00076, 145, 457, 272, 488
-1.00081, 161, 257, 192, 500
-1.00091, 1, 393, 301, 456
-1.00091, 249, 1, 280, 256
-1.00098, 237, 17, 268, 144
-1.00104, 269, 65, 300, 320
-1.00104, 105, 337, 168, 464
-1.00104, 201, 273, 264, 336
-1.00115, 1, 417, 301, 480
-1.00127, 225, 273, 288, 336
-1.00134, 109, 337, 140, 464
-1.00135, 129, 1, 192, 64
-1.00144, 1, 337, 301, 400
-1.00144, 237, 113, 268, 240
-1.00144, 21, 321, 52, 448
-1.00158, 209, 385, 272, 448
-1.00167, 29, 369, 60, 496
-1.0017, 237, 321, 268, 448
-1.00181, 97, 393, 160, 456
-1.00198, 201, 337, 264, 464
-1.002, 161, 17, 192, 144
-1.00206, 217, 337, 248, 464
-1.00206, 233, 65, 264, 192
-1.00207, 129, 1, 192, 256
-1.00209, 145, 353, 208, 416
-1.00261, 97, 433, 160, 496
-1.00264, 129, 377, 192, 440
-1.00272, 197, 1, 228, 128
-1.00279, 129, 337, 192, 464
-1.00283, 193, 361, 256, 424
-1.00306, 97, 337, 128, 464
-1.00308, 217, 345, 280, 408
-1.0031, 153, 9, 216, 72
-1.0031, 209, 417, 272, 480
-1.0032, 37, 321, 68, 448
-1.00327, 261, 1, 292, 128
-1.00333, 169, 337, 200, 464
-1.00341, 249, 81, 280, 208
-1.00347, 129, 337, 160, 464
-1.00358, 269, 49, 300, 176
-1.00371, 249, 1, 280, 128
-1.0038, 265, 145, 296, 272
-1.00394, 173, 1, 204, 128
-1.00454, 41, 369, 72, 496
-1.00455, 269, 193, 300, 320
-1.00497, 253, 337, 284, 464
-1.00513, 233, 369, 264, 496
-1.00551, 269, 97, 300, 224
