1963
-0.124794, 1, 1, 500, 375
-0.270382, 1, 65, 500, 320
-0.294444, 97, 1, 352, 375
-0.423256, 193, 1, 448, 375
-0.48334, 193, 1, 448, 256
-0.518088, 97, 1, 352, 256
-0.53061, 161, 97, 416, 352
-0.559466, 1, 65, 256, 320
-0.597885, 1, 1, 256, 375
-0.695817, 257, 97, 500, 352
-0.825003, 257, 1, 384, 256
-0.829511, 161, 1, 288, 256
-0.839313, 257, 1, 384, 375
-0.845087, 209, 1, 336, 256
-0.847015, 177, 1, 304, 375
-0.847694, 225, 97, 352, 352
-0.849501, 1, 97, 500, 224
-0.851686, 65, 65, 192, 320
-0.852297, 129, 1, 256, 375
-0.856591, 353, 1, 480, 256
-0.858484, 177, 97, 304, 352
-0.862396, 305, 65, 432, 320
-0.869813, 81, 1, 208, 375
-0.872106, 1, 145, 500, 272
-0.872789, 129, 97, 256, 352
-0.87589, 113, 1, 240, 256
-0.877913, 321, 1, 448, 375
-0.880422, 1, 17, 500, 144
-0.88113, 353, 97, 480, 352
-0.892162, 129, 113, 384, 240
-0.89459, 1, 225, 500, 352
-0.89587, 369, 1, 496, 375
-0.897041, 17, 97, 144, 352
-0.904912, 33, 1, 160, 375
-0.910126, 257, 129, 500, 256
-0.910411, 17, 1, 144, 256
-0.910721, 129, 177, 384, 304
-0.914322, 65, 65, 320, 192
-0.915959, 33, 129, 288, 256
-0.918196, 33, 193, 288, 320
-0.918752, 273, 161, 400, 288
-0.919823, 97, 17, 352, 144
-0.92203, 257, 1, 500, 128
-0.925346, 257, 49, 500, 176
-0.926207, 129, 225, 384, 352
-0.928241, 177, 177, 304, 304
-0.929088, 225, 177, 480, 304
-0.929684, 193, 113, 320, 240
-0.929745, 257, 113, 384, 240
-0.930721, 161, 65, 416, 192
-0.932189, 321, 145, 384, 272
-0.932972, 289, 113, 352, 240
-0.933709, 97, 65, 224, 192
-0.93391, 265, 161, 328, 288
-0.934629, 1, 1, 256, 128
-0.934879, 305, 97, 432, 224
-0.935595, 145, 65, 272, 192
-0.936348, 129, 17, 256, 144
-0.93674, 153, 209, 216, 336
-0.937806, 185, 65, 248, 192
-0.939353, 225, 161, 352, 288
-0.939428, 225, 17, 352, 144
-0.939569, 169, 17, 232, 144
-0.940313, 193, 17, 256, 144
-0.940316, 329, 81, 392, 208
-0.940549, 273, 1, 400, 128
-0.940643, 225, 97, 288, 224
-0.941736, 321, 161, 448, 288
-0.941802, 241, 177, 304, 304
-0.942154, 289, 161, 352, 288
-0.942217, 129, 193, 256, 320
-0.942572, 281, 1, 344, 128
-0.942777, 177, 193, 240, 320
-0.94305, 225, 17, 288, 144
-0.943332, 249, 113, 312, 240
-0.943404, 105, 65, 168, 192
-0.94362, 129, 113, 256, 240
-0.94362, 225, 225, 480, 352
-0.943757, 145, 17, 208, 144
-0.945827, 369, 81, 496, 208
-0.945933, 177, 17, 304, 144
-0.947971, 273, 49, 400, 176
-0.948025, 81, 1, 208, 128
-0.948245, 273, 209, 400, 336
-0.949092, 321, 1, 384, 128
-0.949306, 201, 193, 264, 320
-0.949584, 145, 129, 208, 256
-0.949618, 241, 201, 304, 264
-0.94991, 433, 65, 496, 192
-0.951307, 265, 177, 328, 240
-0.95135, 329, 73, 392, 136
-0.951464, 289, 193, 352, 256
-0.951717, 329, 169, 392, 232
-0.952008, 65, 193, 192, 320
-0.952013, 81, 129, 208, 256
-0.95278, 161, 65, 224, 192
-0.952831, 249, 17, 312, 144
-0.952987, 369, 97, 432, 224
-0.953183, 177, 129, 240, 256
-0.953715, 81, 113, 144, 240
-0.953812, 321, 1, 448, 128
-0.954105, 329, 105, 392, 168
-0.95433, 369, 73, 432, 136
-0.954486, 273, 217, 336, 280
-0.954555, 121, 193, 184, 320
-0.954692, 145, 241, 272, 368
-0.955255, 321, 193, 384, 256
-0.95532, 281, 65, 344, 192
-0.955399, 201, 129, 264, 256
-0.955791, 105, 1, 168, 128
-0.955918, 137, 249, 200, 312
-0.956463, 321, 49, 448, 176
-0.956479, 393, 65, 456, 128
-0.957345, 225, 225, 352, 352
-0.957439, 369, 33, 496, 160
-0.957511, 361, 1, 424, 128
-0.957858, 313, 145, 376, 208
-0.957888, 361, 49, 424, 176
-0.957938, 225, 65, 352, 192
-0.95829, 345, 129, 408, 256
-0.958398, 17, 113, 144, 240
-0.958777, 417, 113, 480, 240
-0.959692, 297, 217, 360, 280
-0.959849, 193, 193, 256, 256
-0.959965, 113, 241, 176, 368
-0.960514, 49, 65, 176, 192
-0.960552, 425, 89, 488, 152
-0.960562, 105, 113, 168, 240
-0.961034, 329, 217, 392, 280
-0.961196, 369, 129, 496, 256
-0.961206, 297, 105, 360, 168
-0.961635, 281, 137, 344, 200
-0.961673, 81, 241, 208, 368
-0.961788, 241, 225, 304, 288
-0.961807, 393, 65, 456, 192
-0.961999, 225, 225, 288, 352
-0.962189, 337, 145, 400, 208
-0.962195, 273, 209, 336, 336
-0.962234, 249, 225, 312, 352
-0.962596, 241, 177, 304, 240
-0.962862, 1, 193, 64, 320
-0.96287, 353, 113, 416, 176
-0.963044, 201, 241, 264, 368
-0.96306, 305, 169, 368, 232
-0.963095, 33, 129, 96, 256
-0.963372, 105, 1, 168, 64
-0.963783, 209, 1, 272, 256
-0.964039, 265, 17, 328, 80
-0.96419, 145, 25, 208, 88
-0.964219, 361, 177, 424, 304
-0.964493, 361, 185, 424, 248
-0.964747, 265, 1, 328, 256
-0.964768, 249, 97, 312, 352
-0.964895, 233, 1, 296, 256
-0.965111, 297, 209, 360, 336
-0.965446, 321, 193, 384, 320
-0.965786, 185, 25, 248, 88
-0.965976, 161, 185, 224, 248
-0.966236, 137, 209, 200, 272
-0.966627, 1, 65, 128, 192
-0.96686, 89, 209, 152, 336
-0.966981, 277, 161, 308, 288
-0.967042, 185, 1, 248, 256
-0.967043, 425, 65, 488, 128
-0.967047, 289, 9, 352, 72
-0.96713, 289, 1, 352, 256
-0.967139, 177, 217, 240, 280
-0.967236, 241, 17, 304, 80
-0.967509, 65, 65, 128, 192
-0.967539, 329, 65, 392, 320
-0.967703, 161, 249, 224, 312
-0.967887, 273, 169, 400, 232
-0.967935, 225, 105, 288, 168
-0.968163, 337, 73, 464, 136
-0.968165, 113, 1, 176, 256
-0.968455, 309, 129, 340, 256
-0.968493, 217, 201, 280, 264
-0.968871, 353, 145, 384, 272
-0.968914, 361, 161, 424, 224
-0.96894, 33, 241, 288, 368
-0.968997, 1, 113, 64, 240
-0.969046, 273, 217, 400, 280
-0.96916, 289, 129, 320, 256
-0.969247, 321, 145, 352, 272
-0.969528, 153, 97, 216, 352
-0.969634, 25, 193, 88, 320
-0.96976, 129, 65, 192, 192
-0.969886, 393, 113, 456, 240
-0.969911, 97, 161, 160, 288
-0.969941, 113, 137, 176, 200
-0.970004, 349, 145, 380, 208
-0.970188, 217, 233, 280, 296
-0.97047, 105, 65, 168, 128
-0.970566, 225, 185, 352, 248
-0.970809, 321, 113, 448, 176
-0.970901, 321, 209, 448, 336
-0.970935, 277, 177, 308, 240
-0.971029, 305, 65, 368, 192
-0.971119, 221, 17, 252, 144
-0.971209, 65, 113, 128, 176
-0.971256, 341, 145, 372, 272
-0.971391, 209, 25, 272, 88
-0.971397, 361, 105, 392, 168
-0.971628, 433, 1, 496, 256
-0.971666, 249, 121, 312, 184
-0.971747, 265, 241, 328, 304
-0.971813, 249, 65, 312, 192
-0.971883, 333, 105, 364, 168
-0.972181, 369, 81, 400, 144
-0.972309, 193, 81, 256, 144
-0.972528, 193, 17, 224, 144
-0.972559, 273, 105, 336, 168
-0.972569, 393, 89, 456, 152
-0.972646, 17, 193, 144, 320
-0.97275, 205, 17, 236, 144
-0.972784, 433, 113, 496, 176
-0.972896, 145, 1, 208, 256
-0.97298, 257, 89, 384, 152
-0.973041, 377, 113, 440, 176
-0.973066, 217, 65, 248, 192
-0.973139, 361, 81, 392, 208
-0.973141, 265, 113, 296, 240
-0.973149, 249, 97, 312, 160
-0.973223, 281, 201, 312, 264
-0.973474, 305, 81, 368, 144
-0.973627, 273, 97, 336, 352
-0.973651, 121, 273, 184, 336
-0.973745, 233, 17, 264, 144
-0.97381, 173, 129, 204, 256
-0.973839, 225, 97, 288, 352
-0.973851, 81, 137, 144, 200
-0.973934, 337, 201, 368, 264
-0.973985, 305, 97, 368, 352
-0.974027, 113, 201, 176, 264
-0.974105, 65, 89, 128, 152
-0.974132, 369, 49, 432, 112
-0.974161, 129, 1, 192, 64
-0.974218, 73, 161, 136, 288
-0.974278, 337, 145, 368, 208
-0.974365, 65, 1, 128, 128
-0.974485, 357, 81, 388, 144
-0.974536, 297, 241, 360, 304
-0.974541, 121, 25, 184, 88
-0.974575, 261, 217, 292, 280
-0.974595, 329, 49, 392, 112
-0.974673, 65, 65, 128, 128
-0.974729, 197, 129, 228, 256
-0.974797, 241, 137, 368, 200
-0.974811, 361, 1, 424, 64
-0.97493, 273, 113, 400, 176
-0.974944, 245, 17, 276, 144
-0.975015, 341, 169, 372, 232
-0.975028, 289, 177, 320, 240
-0.975093, 325, 209, 356, 272
-0.975112, 177, 217, 304, 280
-0.975116, 369, 1, 432, 256
-0.975295, 321, 177, 352, 240
-0.975314, 301, 193, 332, 256
-0.975413, 257, 177, 288, 304
-0.975558, 169, 17, 200, 144
-0.975592, 369, 177, 496, 304
-0.975673, 361, 209, 392, 272
-0.975689, 297, 1, 328, 128
-0.975864, 137, 121, 200, 184
-0.975897, 349, 225, 380, 288
-0.976013, 237, 97, 268, 224
-0.976037, 285, 1, 316, 128
-0.97607, 329, 97, 360, 224
-0.97612, 189, 177, 220, 304
-0.976134, 89, 1, 152, 256
-0.976151, 389, 65, 420, 128
-0.976387, 157, 17, 188, 144
-0.976524, 345, 105, 376, 168
-0.976555, 425, 177, 488, 304
-0.976641, 1, 65, 64, 192
-0.976728, 321, 153, 448, 216
-0.976773, 217, 177, 248, 304
-0.976795, 97, 65, 224, 128
-0.97682, 401, 161, 464, 224
-0.976885, 133, 1, 164, 64
-0.976923, 257, 241, 384, 304
-0.976986, 89, 113, 152, 176
-0.977176, 177, 241, 240, 368
-0.977179, 337, 73, 368, 136
-0.977277, 201, 97, 264, 352
-0.977429, 409, 121, 472, 184
-0.977466, 177, 97, 304, 160
-0.977568, 1, 217, 64, 280
-0.977631, 201, 65, 232, 192
-0.977654, 129, 25, 256, 88
-0.977664, 357, 169, 388, 232
-0.977674, 265, 185, 296, 248
-0.977746, 145, 193, 176, 320
-0.977792, 273, 193, 400, 256
-0.977809, 313, 1, 344, 128
-0.977818, 369, 97, 496, 160
-0.977833, 273, 17, 304, 80
-0.977851, 281, 81, 344, 144
-0.97787, 297, 177, 328, 304
-0.977883, 137, 1, 168, 128
-0.977892, 113, 241, 176, 304
-0.9779, 181, 17, 212, 144
-0.97801, 337, 185, 464, 248
-0.978017, 249, 97, 280, 224
-0.978105, 325, 137, 356, 200
-0.978135, 273, 225, 304, 288
-0.978149, 209, 17, 336, 80
-0.97815, 305, 1, 432, 64
-0.978239, 241, 1, 304, 375
-0.97826, 145, 273, 208, 336
-0.978285, 325, 193, 356, 320
-0.978318, 145, 161, 208, 224
-0.978369, 153, 25, 184, 88
-0.978461, 161, 129, 224, 192
-0.978536, 225, 217, 352, 280
-0.978545, 253, 185, 284, 248
-0.978663, 161, 193, 288, 256
-0.978696, 313, 9, 376, 72
-0.978802, 241, 249, 304, 312
-0.978959, 81, 201, 208, 264
-0.978991, 33, 121, 160, 184
-0.978994, 409, 1, 472, 256
-0.979003, 1, 241, 128, 368
-0.979016, 169, 209, 200, 336
-0.979028, 453, 89, 484, 152
-0.979049, 57, 209, 120, 336
-0.979103, 269, 17, 300, 144
-0.979105, 129, 65, 192, 128
-0.979235, 277, 113, 308, 240
-0.979273, 217, 177, 280, 240
-0.979361, 417, 17, 480, 144
-0.979365, 177, 129, 240, 375
-0.979457, 17, 129, 80, 192
-0.979494, 49, 1, 176, 64
-0.97952, 361, 137, 424, 200
-0.979532, 241, 105, 272, 168
-0.979609, 129, 225, 256, 288
-0.979631, 229, 177, 260, 304
-0.979636, 97, 273, 160, 336
-0.979867, 161, 217, 192, 280
-0.979869, 33, 1, 160, 128
-0.979948, 309, 177, 340, 304
-0.98003, 353, 97, 416, 352
-0.98006, 25, 185, 88, 248
-0.980062, 257, 17, 288, 144
-0.98008, 33, 65, 96, 192
-0.980144, 97, 129, 224, 192
-0.980148, 401, 65, 432, 128
-0.980167, 141, 241, 172, 304
-0.980201, 129, 97, 192, 352
-0.98022, 373, 97, 404, 224
-0.98025, 385, 1, 448, 128
-0.980257, 257, 9, 384, 72
-0.980272, 321, 105, 352, 168
-0.980312, 233, 217, 264, 280
-0.980315, 293, 17, 324, 80
-0.980316, 441, 129, 472, 256
-0.980405, 205, 193, 236, 320
-0.980456, 337, 193, 368, 320
-0.98061, 25, 217, 88, 280
-0.98065, 145, 129, 176, 256
-0.980736, 161, 161, 192, 288
-0.980781, 17, 97, 80, 352
-0.980841, 293, 217, 324, 280
-0.980868, 289, 81, 320, 208
-0.980895, 201, 105, 264, 168
-0.980908, 381, 89, 412, 152
-0.980911, 313, 201, 344, 264
-0.980942, 417, 65, 448, 128
-0.980973, 329, 241, 392, 368
-0.980984, 121, 297, 184, 360
-0.98104, 433, 113, 464, 176
-0.981091, 381, 1, 412, 128
-0.981092, 177, 57, 240, 120
-0.981249, 313, 137, 344, 200
-0.981334, 329, 241, 392, 304
-0.981361, 225, 193, 256, 256
-0.981364, 393, 41, 456, 104
-0.981406, 217, 25, 248, 88
-0.981415, 113, 49, 144, 176
-0.981471, 173, 25, 204, 88
-0.981486, 185, 65, 216, 192
-0.981513, 41, 113, 104, 176
-0.981549, 353, 209, 416, 272
-0.981559, 349, 65, 380, 192
-0.981568, 261, 17, 292, 80
-0.981589, 417, 41, 480, 104
-0.981614, 241, 73, 304, 136
-0.981618, 321, 209, 448, 272
-0.981709, 241, 65, 368, 128
-0.981744, 329, 1, 392, 375
-0.981783, 461, 65, 492, 192
-0.981794, 185, 241, 248, 304
-0.981821, 145, 1, 208, 375
-0.981826, 365, 161, 396, 288
-0.981837, 97, 105, 128, 168
-0.981844, 213, 129, 244, 256
-0.981864, 349, 193, 380, 256
-0.981904, 149, 201, 180, 264
-0.981911, 449, 65, 480, 192
-0.981939, 289, 65, 416, 128
-0.981955, 65, 305, 128, 368
-0.98199, 97, 97, 160, 352
-0.981996, 81, 25, 208, 88
-0.982037, 253, 113, 284, 176
-0.982124, 317, 81, 348, 208
-0.982136, 193, 185, 224, 248
-0.982148, 181, 209, 212, 272
-0.982178, 377, 57, 408, 120
-0.982187, 33, 281, 96, 344
-0.982248, 1, 185, 64, 248
-0.982252, 193, 121, 320, 184
-0.98226, 185, 25, 216, 88
-0.98228, 309, 169, 340, 232
-0.982296, 369, 185, 400, 248
-0.982336, 369, 121, 496, 184
-0.982435, 369, 49, 496, 112
-0.982441, 425, 65, 456, 192
-0.982449, 369, 1, 400, 128
-0.982556, 145, 249, 272, 312
-0.982558, 161, 1, 224, 64
-0.982578, 401, 161, 464, 288
-0.982598, 169, 241, 200, 304
-0.982633, 309, 9, 340, 72
-0.982641, 81, 177, 144, 240
-0.982661, 145, 73, 272, 136
-0.982695, 57, 113, 120, 240
-0.982723, 345, 1, 376, 128
-0.982745, 1, 81, 128, 144
-0.982752, 185, 137, 248, 200
-0.982761, 225, 113, 256, 240
-0.982793, 169, 1, 232, 375
-0.98283, 229, 97, 260, 160
-0.982888, 293, 137, 324, 200
-0.982976, 201, 265, 264, 328
-0.983015, 217, 1, 280, 64
-0.983024, 281, 57, 344, 120
-0.983048, 157, 65, 188, 192
-0.983093, 469, 113, 500, 240
-0.9831, 281, 1, 344, 375
-0.983104, 241, 241, 272, 304
-0.983115, 385, 185, 448, 248
-0.983144, 129, 169, 256, 232
-0.983211, 249, 217, 280, 280
-0.983256, 49, 145, 176, 208
-0.983259, 97, 1, 224, 64
-0.983282, 109, 65, 140, 128
-0.983385, 233, 17, 264, 80
-0.983392, 457, 113, 488, 240
-0.983454, 353, 1, 416, 375
-0.983637, 153, 65, 216, 128
-0.98365, 105, 1, 136, 128
-0.983657, 245, 193, 276, 320
-0.983672, 325, 1, 356, 128
-0.983788, 121, 1, 184, 375
-0.983795, 201, 1, 264, 375
-0.983796, 169, 65, 200, 192
-0.98381, 17, 225, 144, 288
-0.983864, 137, 185, 200, 248
-0.983869, 57, 145, 120, 208
-0.983909, 109, 113, 140, 240
-0.983912, 337, 1, 400, 64
-0.983957, 325, 81, 356, 144
-0.984013, 185, 129, 216, 256
-0.98402, 65, 41, 128, 104
-0.984065, 193, 241, 320, 304
-0.98408, 101, 65, 132, 192
-0.984108, 197, 25, 228, 88
-0.984109, 121, 161, 184, 224
-0.984152, 97, 105, 224, 168
-0.98431, 217, 81, 280, 144
-0.984324, 57, 1, 120, 256
-0.984325, 193, 169, 256, 232
-0.984432, 49, 265, 176, 328
-0.984452, 265, 97, 296, 160
-0.984455, 465, 105, 496, 168
-0.984474, 113, 105, 176, 168
-0.98448, 409, 97, 472, 352
-0.984482, 157, 209, 188, 336
-0.984563, 17, 177, 144, 240
-0.984648, 413, 89, 444, 152
-0.984697, 169, 273, 232, 336
-0.984723, 429, 113, 460, 240
-0.98473, 141, 265, 172, 328
-0.984763, 465, 65, 496, 128
-0.984827, 97, 41, 160, 104
-0.984845, 277, 209, 308, 336
-0.984854, 441, 81, 472, 144
-0.984962, 213, 193, 244, 256
-0.984971, 309, 113, 340, 176
-0.985006, 253, 241, 284, 304
-0.985047, 193, 1, 256, 64
-0.985065, 73, 201, 136, 264
-0.98509, 97, 249, 224, 312
-0.985147, 393, 89, 424, 152
-0.985177, 369, 153, 496, 216
-0.985245, 93, 129, 124, 256
-0.985255, 357, 1, 388, 128
-0.985279, 433, 161, 496, 224
-0.98529, 417, 113, 448, 176
-0.985299, 1, 145, 128, 208
-0.985329, 305, 81, 336, 208
-0.98539, 49, 65, 176, 128
-0.985416, 145, 1, 176, 64
-0.985478, 277, 105, 308, 168
-0.985522, 161, 113, 192, 240
-0.985551, 433, 97, 496, 352
-0.985579, 245, 17, 276, 80
-0.985615, 213, 73, 244, 136
-0.98564, 145, 273, 272, 336
-0.985758, 217, 57, 280, 120
-0.985759, 305, 41, 432, 104
-0.985806, 89, 145, 120, 208
-0.985852, 141, 137, 172, 200
-0.985943, 425, 89, 456, 152
-0.985994, 253, 89, 284, 152
-0.986054, 9, 249, 72, 312
-0.986069, 373, 1, 404, 64
-0.986185, 361, 129, 392, 192
-0.986186, 333, 49, 364, 176
-0.986188, 193, 161, 320, 224
-0.986197, 89, 313, 152, 375
-0.986221, 169, 177, 200, 240
-0.98628, 337, 225, 368, 288
-0.986286, 129, 65, 160, 192
-0.986296, 437, 65, 468, 192
-0.98645, 321, 233, 448, 296
-0.986496, 117, 137, 148, 200
-0.986505, 145, 137, 272, 200
-0.986613, 141, 25, 172, 88
-0.986692, 153, 249, 184, 312
-0.986729, 377, 1, 440, 375
-0.986733, 373, 145, 404, 208
-0.986735, 305, 1, 368, 375
-0.986738, 433, 57, 464, 120
-0.986771, 93, 73, 124, 136
-0.986875, 141, 65, 172, 192
-0.986877, 137, 201, 168, 264
-0.9869, 65, 289, 192, 352
-0.986903, 125, 177, 156, 304
-0.986936, 409, 185, 472, 248
-0.987033, 113, 297, 240, 360
-0.987037, 133, 241, 164, 368
-0.987063, 377, 145, 408, 272
-0.987144, 265, 225, 296, 352
-0.987225, 21, 193, 52, 256
-0.987226, 241, 185, 272, 248
-0.98724, 373, 49, 404, 176
-0.98727, 405, 97, 436, 224
-0.987333, 161, 121, 192, 184
-0.987336, 145, 1, 272, 64
-0.987341, 73, 97, 136, 352
-0.987352, 361, 233, 392, 296
-0.987365, 89, 233, 152, 296
-0.987405, 33, 161, 96, 224
-0.987418, 81, 1, 144, 64
-0.98743, 81, 225, 208, 288
-0.987461, 25, 81, 88, 144
-0.987501, 289, 33, 352, 96
-0.987507, 69, 177, 100, 240
-0.98753, 1, 57, 128, 120
-0.987653, 1, 201, 128, 264
-0.987653, 209, 241, 240, 368
-0.987663, 193, 41, 320, 104
-0.987671, 177, 105, 240, 168
-0.98772, 325, 233, 356, 296
-0.987766, 49, 97, 176, 160
-0.987791, 145, 241, 176, 368
-0.987948, 193, 233, 224, 296
-0.987958, 453, 65, 484, 128
-0.988003, 193, 225, 224, 352
-0.988014, 353, 241, 416, 304
-0.988029, 173, 145, 204, 208
-0.988039, 273, 65, 304, 192
-0.988041, 89, 1, 152, 375
-0.988104, 321, 9, 352, 72
-0.988159, 269, 129, 300, 192
-0.988172, 129, 137, 160, 200
-0.988296, 369, 73, 432, 104
-0.988305, 77, 137, 108, 200
-0.98835, 365, 209, 396, 336
-0.988374, 329, 73, 392, 104
-0.988455, 349, 57, 380, 120
-0.988465, 353, 193, 384, 320
-0.988516, 245, 241, 276, 368
-0.988548, 305, 57, 368, 120
-0.988557, 281, 137, 312, 200
-0.988564, 433, 137, 496, 200
-0.988586, 145, 313, 208, 375
-0.988602, 29, 193, 60, 320
-0.988603, 249, 189, 312, 220
-0.988647, 13, 169, 44, 232
-0.988683, 97, 73, 160, 104
-0.988704, 289, 185, 352, 216
-0.988744, 313, 181, 376, 212
-0.988754, 173, 121, 204, 184
-0.98877, 289, 225, 352, 256
-0.988796, 385, 97, 416, 224
-0.988817, 25, 225, 56, 288
-0.988835, 293, 113, 324, 176
-0.988867, 229, 241, 260, 368
-0.988877, 25, 113, 56, 240
-0.988915, 373, 113, 404, 176
-0.988927, 281, 197, 344, 228
-0.988971, 193, 265, 320, 328
-0.988984, 393, 73, 456, 104
-0.988993, 345, 249, 376, 312
-0.989003, 117, 1, 148, 128
-0.989017, 17, 193, 48, 320
-0.989042, 417, 113, 448, 240
-0.989057, 161, 137, 416, 200
-0.98908, 133, 129, 164, 256
-0.989156, 129, 273, 160, 336
-0.989187, 141, 289, 172, 352
-0.98921, 249, 213, 312, 244
-0.989264, 125, 249, 156, 312
-0.989293, 105, 137, 136, 200
-0.989308, 257, 21, 320, 52
-0.989317, 329, 93, 392, 124
-0.989319, 241, 145, 272, 272
-0.989328, 329, 193, 392, 224
-0.989336, 125, 201, 156, 264
-0.989422, 385, 185, 416, 248
-0.989457, 209, 129, 272, 160
-0.989501, 241, 125, 304, 156
-0.989506, 193, 189, 256, 220
-0.989537, 153, 273, 184, 336
-0.989593, 109, 41, 140, 104
-0.989604, 405, 113, 436, 176
-0.989637, 201, 73, 232, 136
-0.989664, 329, 105, 392, 136
-0.989667, 329, 205, 392, 236
-0.989688, 169, 221, 232, 252
-0.989696, 369, 113, 432, 144
-0.989699, 305, 213, 368, 244
-0.989709, 65, 73, 128, 104
-0.989729, 65, 177, 192, 240
-0.989736, 321, 257, 448, 320
-0.989746, 393, 41, 424, 104
-0.989769, 257, 201, 320, 232
-0.989798, 417, 69, 480, 100
-0.989804, 121, 273, 184, 304
-0.989818, 137, 253, 200, 284
-0.989837, 169, 73, 232, 104
-0.989853, 329, 169, 392, 200
-0.989893, 409, 161, 440, 224
-0.989895, 153, 193, 216, 224
-0.989902, 337, 181, 400, 212
-0.989908, 453, 177, 484, 304
-0.98992, 313, 81, 344, 144
-0.989936, 65, 125, 128, 156
-0.989982, 225, 185, 288, 216
-0.990028, 329, 225, 392, 256
-0.990029, 433, 117, 496, 148
-0.990029, 145, 49, 272, 112
-0.990052, 257, 41, 384, 104
-0.99006, 417, 81, 480, 112
-0.990064, 109, 161, 140, 288
-0.990079, 1, 145, 500, 208
-0.990081, 153, 133, 216, 164
-0.990084, 185, 129, 248, 160
-0.990086, 289, 17, 352, 48
-0.990123, 321, 149, 384, 180
-0.990138, 41, 97, 104, 352
-0.990188, 137, 241, 200, 272
-0.990195, 121, 69, 184, 100
-0.990205, 305, 237, 368, 268
-0.99021, 193, 205, 256, 236
-0.990219, 353, 93, 416, 124
-0.990241, 281, 209, 344, 240
-0.990256, 153, 29, 216, 60
-0.99026, 305, 197, 368, 228
-0.990261, 289, 225, 320, 352
-0.990271, 121, 205, 184, 236
-0.99028, 113, 137, 176, 168
-0.990292, 233, 25, 296, 56
-0.990311, 393, 49, 424, 176
-0.990329, 217, 117, 280, 148
-0.990341, 105, 5, 168, 36
-0.990359, 241, 229, 304, 260
-0.99037, 265, 177, 328, 208
-0.990382, 1, 89, 500, 152
-0.990445, 233, 201, 296, 232
-0.990447, 361, 189, 424, 220
-0.990479, 161, 205, 224, 236
-0.990486, 129, 185, 384, 248
-0.990514, 413, 49, 444, 176
-0.990534, 209, 25, 272, 56
-0.990555, 69, 161, 100, 288
-0.990587, 145, 73, 208, 104
-0.99059, 153, 265, 216, 296
-0.990592, 1, 185, 500, 248
-0.99061, 89, 65, 120, 192
-0.990622, 209, 225, 272, 256
-0.990622, 281, 237, 344, 268
-0.990644, 129, 17, 192, 48
-0.990686, 97, 61, 160, 92
-0.990691, 265, 225, 328, 256
-0.990698, 265, 125, 328, 156
-0.990718, 353, 1, 480, 64
-0.990726, 37, 113, 68, 240
-0.99073, 161, 241, 416, 304
-0.99074, 33, 241, 96, 368
-0.990757, 1, 1, 64, 128
-0.990762, 13, 129, 44, 256
-0.990763, 1, 1, 128, 64
-0.990772, 193, 65, 320, 128
-0.990772, 193, 113, 448, 176
-0.990836, 65, 73, 320, 136
-0.990843, 217, 213, 280, 244
-0.990898, 329, 241, 392, 272
-0.990913, 193, 81, 256, 112
-0.990918, 97, 25, 352, 88
-0.990933, 225, 73, 480, 136
-0.990934, 145, 277, 208, 308
-0.990943, 425, 93, 488, 124
-0.990961, 313, 225, 344, 352
-0.990962, 281, 137, 344, 168
-0.991, 41, 125, 104, 156
-0.991002, 249, 245, 312, 276
-0.991051, 321, 133, 384, 164
-0.991078, 409, 117, 472, 148
-0.991079, 385, 97, 448, 352
-0.991079, 433, 1, 496, 375
-0.991084, 177, 29, 240, 60
-0.991093, 145, 61, 208, 92
-0.991098, 369, 61, 432, 92
-0.991101, 137, 221, 200, 252
-0.991105, 241, 93, 304, 124
-0.99112, 65, 97, 320, 160
-0.991122, 313, 9, 376, 40
-0.991161, 121, 285, 184, 316
-0.991195, 89, 133, 152, 164
-0.991198, 345, 157, 408, 188
-0.991208, 305, 169, 368, 200
-0.991218, 433, 105, 496, 136
-0.991221, 329, 61, 392, 92
-0.991222, 393, 61, 456, 92
-0.991225, 169, 237, 232, 268
-0.99123, 257, 137, 320, 168
-0.991282, 129, 29, 192, 60
-0.991292, 65, 85, 128, 116
-0.991301, 1, 121, 500, 184
-0.991314, 201, 93, 264, 124
-0.991332, 81, 113, 112, 240
-0.991337, 353, 25, 480, 88
-0.99136, 345, 257, 408, 288
-0.991382, 353, 209, 416, 240
-0.991394, 9, 241, 72, 368
-0.991394, 261, 65, 292, 192
-0.991408, 257, 161, 500, 224
-0.991428, 241, 257, 304, 288
-0.991438, 17, 137, 80, 168
-0.99146, 289, 77, 352, 108
-0.99146, 289, 101, 352, 132
-0.991502, 41, 65, 72, 192
-0.991568, 41, 81, 104, 112
-0.991574, 137, 145, 200, 176
-0.991574, 65, 137, 128, 168
-0.991585, 65, 113, 128, 144
-0.991603, 217, 249, 280, 280
-0.991606, 105, 261, 168, 292
-0.991607, 25, 217, 88, 248
-0.991666, 113, 245, 176, 276
-0.991673, 1, 229, 64, 260
-0.991683, 233, 137, 296, 168
-0.991686, 353, 5, 416, 36
-0.991702, 161, 253, 224, 284
-0.991724, 353, 169, 416, 200
-0.991739, 105, 17, 168, 48
-0.991743, 209, 105, 272, 136
-0.99175, 65, 61, 128, 92
-0.991759, 233, 81, 296, 112
-0.991847, 289, 125, 352, 156
-0.99189, 353, 141, 416, 172
-0.991894, 433, 57, 496, 88
-0.991896, 89, 145, 152, 176
-0.991904, 1, 65, 500, 128
-0.991906, 97, 85, 160, 116
-0.991914, 249, 109, 312, 140
-0.991935, 113, 125, 176, 156
-0.991949, 177, 141, 240, 172
-0.991968, 41, 181, 104, 212
-0.991976, 65, 97, 128, 128
-0.992001, 1, 273, 128, 336
-0.992003, 33, 293, 96, 324
-0.992008, 121, 57, 184, 88
-0.992012, 201, 141, 264, 172
-0.992126, 33, 33, 160, 96
-0.992136, 257, 121, 288, 152
-0.992164, 181, 241, 212, 368
-0.992205, 129, 217, 384, 280
-0.992337, 465, 161, 496, 288
-0.992338, 421, 69, 452, 100
-0.992339, 261, 185, 292, 216
-0.992343, 109, 73, 140, 104
-0.992353, 337, 221, 368, 252
-0.99237, 381, 73, 412, 104
-0.992391, 49, 193, 80, 320
-0.992393, 437, 73, 468, 104
-0.9924, 297, 225, 328, 256
-0.992402, 361, 197, 392, 228
-0.992403, 357, 97, 388, 128
-0.992408, 1, 1, 64, 256
-0.992423, 369, 73, 400, 104
-0.992424, 241, 25, 272, 56
-0.992428, 293, 181, 324, 212
-0.992441, 33, 17, 96, 144
-0.992443, 321, 177, 352, 208
-0.992448, 65, 113, 96, 240
-0.992462, 353, 165, 384, 196
-0.992469, 341, 237, 372, 268
-0.992472, 245, 121, 276, 152
-0.992478, 361, 181, 392, 212
-0.99248, 281, 21, 312, 52
-0.992483, 97, 73, 128, 104
-0.992497, 133, 5, 164, 36
-0.992518, 349, 177, 380, 208
-0.99252, 325, 225, 356, 256
-0.992521, 197, 189, 228, 220
-0.992523, 349, 149, 380, 180
-0.992534, 409, 73, 440, 104
-0.99255, 257, 1, 500, 64
-0.992551, 233, 129, 264, 160
-0.992554, 41, 1, 104, 375
-0.992557, 93, 1, 124, 128
-0.992566, 377, 93, 408, 124
-0.992575, 273, 189, 304, 220
-0.992577, 309, 185, 340, 216
-0.992592, 253, 201, 284, 232
-0.992594, 305, 17, 336, 48
-0.992595, 393, 73, 424, 104
-0.992598, 149, 277, 180, 308
-0.992603, 129, 69, 160, 100
-0.992608, 341, 189, 372, 220
-0.99261, 221, 129, 252, 160
-0.992623, 341, 209, 372, 240
-0.992626, 33, 313, 160, 375
-0.992643, 281, 213, 312, 244
-0.992648, 357, 73, 388, 104
-0.992651, 297, 201, 328, 232
-0.992651, 337, 93, 368, 124
-0.992652, 325, 197, 356, 228
-0.992655, 145, 17, 176, 48
-0.992656, 357, 213, 388, 244
-0.992658, 185, 73, 216, 104
-0.992671, 141, 241, 172, 272
-0.992682, 213, 25, 244, 56
-0.992687, 69, 125, 100, 156
-0.992697, 465, 117, 496, 148
-0.992697, 177, 133, 208, 164
-0.992705, 285, 197, 316, 228
-0.992709, 269, 121, 300, 152
-0.992725, 337, 173, 368, 204
-0.992733, 333, 77, 364, 108
-0.992736, 317, 209, 348, 240
-0.992744, 209, 129, 240, 160
-0.992745, 205, 77, 236, 108
-0.992746, 261, 25, 292, 56
-0.992747, 397, 113, 428, 144
-0.992747, 329, 209, 360, 240
-0.992762, 141, 69, 172, 100
-0.99277, 105, 61, 136, 92
-0.992771, 249, 109, 280, 140
-0.992776, 365, 85, 396, 116
-0.992779, 65, 1, 128, 375
-0.992785, 453, 69, 484, 100
-0.992786, 121, 225, 152, 352
-0.992789, 253, 249, 284, 280
-0.992799, 373, 185, 404, 216
-0.992802, 237, 193, 268, 224
-0.992802, 177, 25, 208, 56
-0.992802, 225, 89, 256, 120
-0.992802, 445, 85, 476, 116
-0.992803, 353, 249, 384, 280
-0.992805, 293, 17, 324, 48
-0.992809, 265, 205, 296, 236
-0.992813, 225, 185, 480, 248
-0.992814, 457, 101, 488, 132
-0.992816, 373, 109, 404, 140
-0.992819, 357, 109, 388, 140
-0.992821, 157, 29, 188, 60
-0.99283, 189, 133, 220, 164
-0.992835, 85, 73, 116, 104
-0.992838, 269, 217, 300, 248
-0.992842, 289, 237, 320, 268
-0.992843, 117, 61, 148, 92
-0.992848, 181, 221, 212, 252
-0.99285, 333, 109, 364, 140
-0.99286, 329, 237, 360, 268
-0.99286, 209, 189, 240, 220
-0.992861, 161, 225, 192, 256
-0.992864, 161, 69, 192, 100
-0.992865, 249, 185, 280, 216
-0.99287, 149, 209, 180, 240
-0.992871, 353, 225, 384, 256
-0.992872, 193, 221, 224, 252
-0.992873, 225, 189, 256, 220
-0.992874, 293, 213, 324, 244
-0.992875, 229, 21, 260, 52
-0.992875, 309, 225, 340, 256
-0.992879, 141, 261, 172, 292
-0.992892, 173, 69, 204, 100
-0.992905, 165, 133, 196, 164
-0.992908, 237, 109, 268, 140
-0.992923, 253, 213, 284, 244
-0.992923, 145, 289, 176, 320
-0.992928, 345, 73, 376, 104
-0.99293, 189, 29, 220, 60
-0.992938, 97, 73, 224, 104
-0.992946, 117, 137, 148, 168
-0.992947, 309, 129, 340, 160
-0.99295, 21, 213, 52, 244
-0.99295, 189, 205, 220, 236
-0.992952, 153, 133, 184, 164
-0.992954, 225, 209, 256, 240
-0.99296, 469, 105, 500, 136
-0.992965, 213, 225, 244, 256
-0.992965, 1, 209, 256, 272
-0.992968, 61, 209, 92, 336
-0.992968, 253, 97, 284, 128
-0.99297, 313, 197, 344, 228
-0.992972, 141, 137, 172, 168
-0.992975, 433, 61, 464, 92
-0.992976, 261, 233, 292, 264
-0.992977, 365, 165, 396, 196
-0.992984, 437, 117, 468, 148
-0.992987, 117, 1, 148, 32
-0.992992, 201, 201, 232, 232
-0.992994, 245, 133, 276, 164
-0.992995, 137, 273, 168, 304
-0.992996, 257, 133, 288, 164
-0.993005, 385, 109, 416, 140
-0.993014, 421, 113, 452, 144
-0.99302, 409, 113, 440, 144
-0.993021, 265, 109, 296, 140
-0.993031, 469, 17, 500, 144
-0.993042, 353, 145, 368, 208
-0.993051, 369, 93, 496, 124
-0.993111, 347, 145, 362, 208
-0.993112, 161, 49, 416, 112
-0.993117, 369, 257, 496, 320
-0.993195, 33, 233, 288, 296
-0.993209, 1, 169, 256, 232
-0.993263, 1, 121, 256, 184
-0.993265, 281, 177, 296, 240
-0.99328, 337, 73, 464, 104
-0.993369, 441, 17, 472, 144
-0.993466, 241, 217, 368, 248
-0.993467, 241, 189, 368, 220
-0.993474, 93, 209, 124, 336
-0.993515, 129, 189, 256, 220
-0.993574, 225, 125, 352, 156
-0.993577, 241, 265, 368, 328
-0.993578, 1, 1, 500, 64
-0.993594, 1, 145, 256, 208
-0.993622, 273, 233, 400, 264
-0.993627, 401, 1, 464, 375
-0.993633, 287, 177, 302, 240
-0.993635, 1, 1, 256, 64
-0.993658, 329, 241, 360, 368
-0.993699, 1, 33, 500, 96
-0.993742, 343, 169, 358, 232
-0.993771, 209, 201, 336, 232
-0.993782, 289, 181, 416, 212
-0.993782, 339, 73, 354, 136
-0.993805, 1, 113, 32, 240
-0.993822, 21, 65, 52, 192
-0.993829, 367, 73, 382, 136
-0.993829, 357, 105, 372, 168
-0.993875, 283, 217, 298, 280
-0.993917, 1, 241, 500, 304
-0.993933, 109, 225, 140, 352
-0.993936, 359, 209, 374, 272
-0.99394, 333, 177, 348, 240
-0.993942, 257, 225, 500, 288
-0.99395, 53, 129, 84, 256
-0.99396, 193, 25, 320, 56
-0.994011, 351, 105, 366, 168
-0.99408, 321, 113, 448, 144
-0.994096, 145, 1, 160, 64
-0.994132, 193, 189, 320, 220
-0.994142, 177, 129, 304, 160
-0.994143, 293, 177, 308, 240
-0.994147, 193, 225, 320, 256
-0.994174, 277, 201, 292, 264
-0.994193, 339, 145, 354, 208
-0.99422, 49, 5, 176, 36
-0.994255, 379, 73, 394, 136
-0.994335, 97, 133, 224, 164
-0.99434, 359, 129, 374, 192
-0.994349, 1, 249, 128, 312
-0.994364, 365, 161, 380, 224
-0.994387, 333, 81, 348, 144
-0.9944, 49, 73, 176, 104
-0.994404, 49, 125, 176, 156
-0.994408, 257, 137, 500, 200
-0.994434, 97, 161, 352, 224
-0.99446, 273, 201, 400, 232
-0.99453, 255, 201, 270, 264
-0.994551, 245, 209, 260, 272
-0.994553, 369, 117, 496, 148
-0.994582, 193, 213, 320, 244
-0.994586, 343, 209, 358, 272
-0.994588, 345, 105, 360, 168
-0.994672, 333, 105, 348, 168
-0.99468, 97, 1, 352, 64
-0.994714, 35, 185, 50, 248
-0.994737, 301, 209, 316, 272
-0.99474, 289, 201, 304, 264
-0.994751, 147, 257, 162, 320
-0.994767, 161, 25, 176, 88
-0.994772, 353, 217, 368, 280
-0.994783, 369, 185, 384, 248
-0.994811, 143, 233, 158, 296
-0.994832, 287, 17, 302, 80
-0.994839, 269, 185, 284, 248
-0.994856, 253, 241, 268, 304
-0.994867, 393, 65, 408, 128
-0.994894, 257, 1, 288, 256
-0.994897, 129, 29, 256, 60
-0.9949, 403, 65, 418, 128
-0.994937, 327, 177, 342, 240
-0.994952, 145, 225, 272, 256
-0.994966, 275, 17, 290, 80
-0.99497, 301, 185, 316, 248
-0.994986, 315, 193, 330, 256
-0.99499, 349, 177, 364, 240
-0.994995, 145, 205, 272, 236
-0.994998, 169, 25, 184, 88
-0.995016, 275, 177, 290, 240
-0.995018, 305, 97, 432, 128
-0.995019, 257, 249, 500, 312
-0.995098, 365, 217, 380, 280
-0.995101, 385, 65, 400, 128
-0.995133, 129, 13, 256, 44
-0.995144, 129, 265, 384, 328
-0.995165, 289, 73, 416, 104
-0.995168, 195, 185, 210, 248
-0.995176, 237, 1, 268, 256
-0.995201, 327, 137, 342, 200
-0.995214, 333, 145, 348, 208
-0.995227, 1, 265, 500, 328
-0.995246, 415, 73, 430, 136
-0.99525, 257, 249, 384, 280
-0.995254, 1, 217, 500, 280
-0.995275, 337, 209, 352, 272
-0.995278, 273, 225, 288, 288
-0.995303, 17, 1, 80, 375
-0.995309, 359, 153, 374, 216
-0.995309, 241, 17, 368, 48
-0.995313, 149, 233, 164, 296
-0.995315, 25, 1, 88, 256
-0.995316, 371, 113, 386, 176
-0.995327, 1, 81, 128, 112
-0.99533, 277, 1, 308, 256
-0.995331, 247, 105, 262, 168
-0.995335, 155, 25, 170, 88
-0.995336, 141, 273, 156, 336
-0.99535, 175, 25, 190, 88
-0.995354, 297, 17, 312, 80
-0.995368, 373, 81, 388, 144
-0.995385, 287, 137, 302, 200
-0.995386, 369, 241, 496, 368
-0.995395, 65, 17, 192, 48
-0.9954, 241, 97, 368, 128
-0.995404, 289, 169, 416, 200
-0.995413, 245, 17, 260, 80
-0.995434, 471, 97, 486, 160
-0.995445, 355, 185, 370, 248
-0.995448, 293, 1, 324, 256
-0.995456, 337, 157, 464, 188
-0.995489, 81, 61, 208, 92
-0.995491, 33, 145, 160, 176
-0.995491, 209, 1, 240, 256
-0.9955, 33, 49, 288, 112
-0.995503, 353, 189, 480, 220
-0.99552, 273, 97, 304, 352
-0.99553, 241, 97, 256, 160
-0.995533, 273, 145, 400, 176
-0.995534, 269, 17, 284, 80
-0.995535, 263, 185, 278, 248
-0.995538, 165, 257, 180, 320
-0.995541, 377, 177, 392, 240
-0.995562, 301, 137, 316, 200
-0.99557, 321, 9, 336, 72
-0.995577, 321, 105, 336, 168
-0.995611, 225, 1, 256, 256
-0.995612, 65, 205, 192, 236
-0.995619, 225, 137, 352, 168
-0.995623, 145, 77, 272, 108
-0.995632, 357, 65, 388, 320
-0.995636, 327, 105, 342, 168
-0.995641, 305, 5, 432, 36
-0.995646, 365, 105, 380, 168
-0.995648, 201, 25, 216, 88
-0.995657, 307, 193, 322, 256
-0.995662, 361, 185, 376, 248
-0.995666, 33, 273, 288, 336
-0.99568, 353, 81, 368, 144
-0.995689, 103, 65, 118, 128
-0.995701, 307, 17, 322, 80
-0.995701, 409, 65, 424, 128
-0.995707, 169, 65, 200, 320
-0.995707, 231, 185, 246, 248
-0.995709, 255, 113, 270, 176
-0.995709, 313, 1, 344, 256
-0.995709, 241, 113, 368, 144
-0.99573, 151, 1, 166, 64
-0.995745, 265, 225, 280, 288
-0.995753, 113, 65, 128, 128
-0.995762, 339, 105, 354, 168
-0.995767, 371, 217, 386, 280
-0.995798, 281, 17, 296, 80
-0.995801, 337, 1, 368, 256
-0.995802, 353, 225, 416, 352
-0.995812, 295, 201, 310, 264
-0.995825, 173, 225, 188, 288
-0.995855, 113, 237, 240, 268
-0.995869, 311, 169, 326, 232
-0.995899, 81, 145, 208, 176
-0.995914, 365, 129, 380, 192
-0.995915, 421, 57, 436, 120
-0.995921, 185, 25, 200, 88
-0.995923, 209, 177, 336, 208
-0.995932, 161, 237, 288, 268
-0.995934, 369, 105, 496, 136
-0.995937, 225, 193, 240, 256
-0.995942, 111, 105, 126, 168
-0.995943, 259, 225, 274, 288
-0.995956, 361, 81, 376, 144
-0.995957, 81, 217, 208, 248
-0.995959, 347, 233, 362, 296
-0.995967, 1, 25, 256, 88
-0.995977, 167, 281, 182, 344
-0.995979, 257, 25, 272, 88
-0.995979, 391, 89, 406, 152
-0.995988, 315, 9, 330, 72
-0.995991, 427, 65, 442, 128
-0.995994, 385, 89, 400, 152
-0.995994, 191, 25, 206, 88
-0.995995, 161, 209, 176, 272
-0.995996, 249, 185, 264, 248
-0.996016, 235, 89, 250, 152
-0.996031, 113, 177, 240, 208
-0.99606, 1, 133, 128, 164
-0.996068, 437, 113, 452, 176
-0.99607, 239, 209, 254, 272
-0.996081, 345, 73, 360, 136
-0.996082, 247, 233, 262, 296
-0.996084, 333, 97, 364, 352
-0.996103, 307, 137, 322, 200
-0.996104, 117, 1, 148, 256
-0.996123, 227, 25, 242, 88
-0.996129, 427, 89, 442, 152
-0.996131, 397, 89, 412, 152
-0.996131, 263, 17, 278, 80
-0.996147, 241, 81, 368, 112
-0.996153, 153, 65, 184, 320
-0.996154, 369, 61, 496, 92
-0.996164, 219, 17, 234, 80
-0.996184, 317, 97, 348, 352
-0.996188, 281, 241, 296, 304
-0.996197, 391, 1, 406, 64
-0.996198, 167, 209, 182, 272
-0.996207, 317, 137, 332, 200
-0.996209, 217, 73, 232, 136
-0.996213, 437, 89, 452, 152
-0.996227, 141, 1, 172, 256
-0.996232, 321, 129, 448, 160
-0.996237, 155, 265, 170, 328
-0.996245, 139, 1, 154, 64
-0.996254, 261, 97, 292, 352
-0.996268, 353, 141, 480, 172
-0.996269, 161, 297, 288, 360
-0.996304, 289, 221, 416, 252
-0.996305, 129, 273, 256, 304
-0.996325, 289, 17, 416, 48
-0.996335, 145, 141, 272, 172
-0.99634, 289, 281, 416, 344
-0.996361, 185, 65, 216, 320
-0.996362, 325, 1, 356, 256
-0.996365, 461, 1, 492, 256
-0.996427, 161, 93, 288, 124
-0.996434, 245, 97, 276, 352
-0.996442, 65, 273, 192, 304
-0.996459, 161, 113, 288, 144
-0.996464, 197, 1, 228, 256
-0.996476, 65, 289, 192, 320
-0.996495, 373, 1, 404, 256
-0.996512, 273, 125, 400, 156
-0.996518, 321, 209, 448, 240
-0.996531, 129, 257, 256, 288
-0.996599, 337, 261, 464, 292
-0.996615, 193, 25, 448, 88
-0.996623, 177, 249, 304, 280
-0.996642, 129, 1, 160, 256
-0.996683, 437, 1, 468, 256
-0.996744, 225, 237, 352, 268
-0.996776, 257, 49, 500, 112
-0.996789, 33, 225, 160, 256
-0.996812, 17, 213, 144, 244
-0.996836, 1, 201, 128, 232
-0.996843, 285, 97, 316, 352
-0.996849, 305, 97, 336, 352
-0.996849, 129, 61, 256, 92
-0.996878, 305, 61, 432, 92
-0.996879, 97, 121, 224, 152
-0.996881, 105, 33, 136, 288
-0.996928, 371, 73, 386, 104
-0.996947, 321, 85, 448, 116
-0.996953, 209, 69, 336, 100
-0.996998, 245, 21, 260, 52
-0.997, 81, 85, 208, 116
-0.997021, 17, 113, 144, 144
-0.99703, 321, 237, 448, 268
-0.997032, 17, 185, 144, 216
-0.997042, 161, 173, 288, 204
-0.997052, 65, 177, 192, 208
-0.997116, 345, 97, 376, 352
-0.997131, 341, 217, 356, 248
-0.997138, 383, 73, 398, 104
-0.997167, 195, 189, 210, 220
-0.997174, 337, 77, 352, 108
-0.997186, 257, 117, 272, 148
-0.997188, 335, 89, 350, 120
-0.997192, 417, 1, 448, 256
-0.997192, 33, 61, 160, 92
-0.997199, 129, 1, 256, 32
-0.997206, 111, 73, 126, 104
-0.997242, 441, 73, 456, 104
-0.997256, 451, 73, 466, 104
-0.997266, 97, 305, 352, 368
-0.997269, 233, 97, 264, 352
-0.997283, 369, 233, 496, 296
-0.997284, 289, 157, 416, 188
-0.997294, 345, 229, 360, 260
-0.997295, 357, 237, 372, 268
-0.997298, 337, 169, 464, 200
-0.997324, 17, 97, 144, 128
-0.997328, 449, 1, 480, 256
-0.99735, 353, 1, 480, 32
-0.997354, 65, 189, 192, 220
-0.997369, 65, 241, 192, 272
-0.997377, 413, 73, 428, 104
-0.997384, 81, 165, 208, 196
-0.997394, 123, 69, 138, 100
-0.997405, 145, 269, 160, 300
-0.997405, 423, 73, 438, 104
-0.997406, 351, 237, 366, 268
-0.997435, 249, 129, 264, 160
-0.997435, 365, 157, 380, 188
-0.997445, 353, 225, 368, 256
-0.99745, 265, 117, 280, 148
-0.997453, 389, 1, 420, 256
-0.997478, 137, 97, 168, 352
-0.997489, 147, 9, 162, 40
-0.997497, 131, 69, 146, 100
-0.997506, 81, 29, 208, 60
-0.99751, 435, 69, 450, 100
-0.99751, 201, 97, 232, 352
-0.997515, 81, 301, 208, 332
-0.997517, 243, 129, 258, 160
-0.997529, 367, 89, 382, 120
-0.997531, 389, 73, 404, 104
-0.997531, 367, 189, 382, 220
-0.997535, 377, 73, 392, 104
-0.997544, 129, 285, 256, 316
-0.997555, 1, 289, 500, 352
-0.997561, 255, 249, 270, 280
-0.997573, 117, 73, 132, 104
-0.997577, 99, 73, 114, 104
-0.997578, 335, 225, 350, 256
-0.997584, 141, 281, 156, 312
-0.997593, 225, 129, 240, 160
-0.997593, 97, 109, 224, 140
-0.997596, 89, 1, 120, 256
-0.997598, 1, 1, 128, 32
-0.997607, 213, 189, 228, 220
-0.99761, 485, 129, 500, 160
-0.997616, 355, 173, 370, 204
-0.997623, 1, 297, 256, 360
-0.997634, 365, 201, 380, 232
-0.997637, 369, 273, 496, 304
-0.997644, 235, 129, 250, 160
-0.997646, 347, 209, 362, 240
-0.997647, 65, 261, 192, 292
-0.997654, 261, 129, 276, 160
-0.997656, 251, 109, 266, 140
-0.99766, 429, 69, 444, 100
-0.997661, 139, 69, 154, 100
-0.997661, 177, 261, 304, 292
-0.997665, 309, 17, 324, 48
-0.997665, 289, 189, 304, 220
-0.997665, 139, 269, 154, 300
-0.997672, 105, 73, 120, 104
-0.997674, 229, 201, 244, 232
-0.997679, 177, 57, 304, 88
-0.997681, 147, 69, 162, 100
-0.997689, 271, 121, 286, 152
-0.99769, 177, 13, 304, 44
-0.997691, 191, 133, 206, 164
-0.997693, 273, 185, 288, 216
-0.997694, 405, 73, 420, 104
-0.997697, 377, 241, 440, 368
-0.997697, 299, 181, 314, 212
-0.9977, 391, 1, 406, 32
-0.997702, 395, 73, 410, 104
-0.997705, 287, 21, 302, 52
-0.997713, 379, 93, 394, 124
-0.997718, 33, 213, 48, 244
-0.997719, 373, 97, 404, 352
-0.997721, 331, 177, 346, 208
-0.997722, 201, 185, 216, 216
-0.997723, 477, 117, 492, 148
-0.997725, 227, 189, 242, 220
-0.997726, 241, 29, 368, 60
-0.997732, 367, 169, 382, 200
-0.997734, 305, 181, 320, 212
-0.997736, 141, 5, 156, 36
-0.997738, 159, 281, 174, 312
-0.99774, 433, 97, 464, 352
-0.997741, 199, 73, 214, 104
-0.997744, 263, 25, 278, 56
-0.997746, 193, 73, 208, 104
-0.997748, 153, 17, 168, 48
-0.997759, 185, 133, 200, 164
-0.997762, 1, 173, 128, 204
-0.997773, 359, 153, 374, 184
-0.997778, 295, 213, 310, 244
-0.99778, 311, 185, 326, 216
-0.997781, 207, 185, 222, 216
-0.997783, 177, 133, 192, 164
-0.997783, 219, 129, 234, 160
-0.997783, 469, 97, 500, 352
-0.997784, 263, 185, 278, 216
-0.997791, 255, 129, 270, 160
-0.997797, 143, 237, 158, 268
-0.997814, 401, 1, 432, 256
-0.997816, 237, 193, 252, 224
-0.997821, 257, 61, 384, 92
-0.99783, 457, 73, 472, 104
-0.99783, 241, 261, 368, 292
-0.997833, 97, 317, 224, 348
-0.997835, 343, 181, 358, 212
-0.997837, 217, 77, 232, 108
-0.99784, 335, 213, 350, 244
-0.997845, 185, 25, 200, 56
-0.997852, 371, 213, 386, 244
-0.997857, 167, 29, 182, 60
-0.997857, 201, 201, 216, 232
-0.99786, 359, 217, 374, 248
-0.997861, 303, 17, 318, 48
-0.997862, 283, 189, 298, 220
-0.997865, 357, 197, 372, 228
-0.997865, 243, 89, 258, 120
-0.997867, 349, 173, 364, 204
-0.997871, 235, 93, 250, 124
-0.997878, 227, 85, 242, 116
-0.997878, 33, 193, 48, 224
-0.997892, 323, 181, 338, 212
-0.997899, 271, 25, 286, 56
-0.997902, 281, 21, 296, 52
-0.997904, 115, 61, 130, 92
-0.997905, 343, 73, 358, 104
-0.997907, 155, 69, 170, 100
-0.997907, 85, 125, 100, 156
-0.997908, 485, 113, 500, 144
-0.997915, 341, 205, 356, 236
-0.997916, 375, 185, 390, 216
-0.997917, 303, 221, 318, 252
-0.997921, 261, 249, 276, 280
-0.997926, 275, 201, 290, 232
-0.997929, 195, 209, 210, 240
-0.99793, 369, 129, 496, 160
-0.997932, 377, 113, 392, 144
-0.997932, 221, 25, 236, 56
-0.997934, 351, 149, 366, 180
-0.997935, 469, 101, 484, 132
-0.997937, 297, 21, 312, 52
-0.997939, 41, 97, 72, 352
-0.99794, 187, 73, 202, 104
-0.997947, 359, 185, 374, 216
-0.99795, 193, 81, 320, 112
-0.997952, 373, 197, 388, 228
-0.997953, 219, 185, 234, 216
-0.997953, 317, 181, 332, 212
-0.997958, 197, 133, 212, 164
-0.997964, 265, 205, 280, 236
-0.997965, 305, 201, 320, 232
-0.997974, 297, 229, 312, 260
-0.997977, 225, 5, 352, 36
-0.998042, 221, 97, 252, 352
-0.998088, 1, 237, 128, 268
-0.998097, 353, 281, 480, 344
-0.998111, 193, 37, 320, 68
-0.998111, 321, 249, 448, 280
-0.998151, 97, 97, 224, 128
-0.998168, 113, 329, 240, 360
-0.998201, 41, 1, 72, 256
-0.998229, 129, 297, 256, 328
-0.998233, 369, 209, 496, 272
-0.998242, 257, 305, 384, 368
-0.998245, 1, 25, 128, 56
-0.99825, 453, 97, 484, 352
-0.998262, 49, 49, 176, 80
-0.998379, 265, 187, 328, 202
-0.998384, 281, 193, 344, 208
-0.998388, 17, 313, 144, 344
-0.998389, 289, 187, 352, 202
-0.998397, 321, 187, 384, 202
-0.998414, 241, 189, 304, 204
-0.998418, 265, 201, 328, 216
-0.998419, 33, 325, 160, 356
-0.99842, 289, 203, 352, 218
-0.998421, 33, 157, 160, 188
-0.998425, 313, 199, 376, 214
-0.998425, 329, 79, 392, 94
-0.998436, 329, 111, 392, 126
-0.998438, 193, 225, 224, 240
-0.998438, 349, 227, 380, 242
-0.99844, 273, 139, 304, 154
-0.998441, 193, 219, 224, 234
-0.998441, 357, 213, 388, 228
-0.998443, 309, 175, 340, 190
-0.998443, 65, 77, 128, 92
-0.998444, 317, 213, 348, 228
-0.998445, 73, 127, 104, 142
-0.998446, 49, 81, 80, 96
-0.998446, 437, 117, 468, 132
-0.998446, 313, 193, 376, 208
-0.998448, 265, 209, 328, 224
-0.998448, 141, 279, 172, 294
-0.998449, 97, 75, 160, 90
-0.998449, 353, 241, 384, 256
-0.99845, 369, 75, 432, 90
-0.99845, 329, 175, 360, 190
-0.998451, 137, 139, 168, 154
-0.998451, 349, 191, 380, 206
-0.998452, 289, 241, 320, 256
-0.998453, 469, 75, 500, 90
-0.998454, 333, 111, 364, 126
-0.998454, 185, 137, 216, 152
-0.998454, 249, 259, 280, 274
-0.998454, 253, 213, 284, 228
-0.998455, 357, 169, 388, 184
-0.998455, 225, 205, 288, 220
-0.998455, 289, 181, 352, 196
-0.998455, 141, 243, 172, 258
-0.998456, 409, 115, 440, 130
-0.998456, 61, 79, 92, 94
-0.998456, 205, 133, 236, 148
-0.998456, 205, 193, 236, 208
-0.998458, 345, 213, 376, 228
-0.998458, 237, 133, 268, 148
-0.998459, 265, 193, 296, 208
-0.998459, 233, 191, 264, 206
-0.99846, 137, 17, 168, 32
-0.998462, 229, 201, 260, 216
-0.998463, 361, 195, 392, 210
-0.998463, 281, 179, 312, 194
-0.998464, 161, 137, 192, 152
-0.998464, 169, 77, 232, 92
-0.998465, 177, 273, 304, 304
-0.998467, 317, 237, 348, 252
-0.99847, 253, 27, 284, 42
-0.99847, 173, 135, 204, 150
-0.99847, 321, 179, 384, 194
-0.99847, 305, 223, 368, 238
-0.998471, 265, 25, 296, 40
-0.998471, 337, 207, 368, 222
-0.998471, 301, 225, 332, 240
-0.998471, 349, 219, 380, 234
-0.998473, 189, 191, 220, 206
-0.998473, 241, 207, 272, 222
-0.998473, 153, 203, 216, 218
-0.998473, 153, 29, 216, 44
-0.998474, 413, 73, 444, 88
-0.998474, 281, 23, 312, 38
-0.998474, 377, 93, 408, 108
-0.998476, 393, 75, 424, 90
-0.998477, 449, 75, 480, 90
-0.998478, 233, 25, 296, 40
-0.998479, 357, 97, 388, 112
-0.998479, 249, 199, 280, 214
-0.998479, 313, 231, 376, 246
-0.998479, 369, 85, 400, 100
-0.998482, 145, 75, 176, 90
-0.998483, 29, 97, 60, 352
-0.998483, 345, 151, 376, 166
-0.998485, 241, 199, 304, 214
-0.998485, 305, 209, 368, 224
-0.998486, 209, 29, 272, 44
-0.998486, 217, 191, 280, 206
-0.998487, 249, 219, 312, 234
-0.998487, 253, 133, 284, 148
-0.998487, 169, 225, 232, 240
-0.998488, 269, 181, 300, 196
-0.998488, 141, 25, 172, 40
-0.998488, 293, 21, 324, 36
-0.998488, 343, 145, 358, 272
-0.998488, 305, 207, 336, 222
-0.998489, 257, 219, 288, 234
-0.998489, 345, 259, 408, 274
-0.998489, 149, 291, 180, 306
-0.998489, 305, 19, 336, 34
-0.99849, 297, 237, 360, 252
-0.99849, 129, 275, 192, 290
-0.99849, 361, 201, 392, 216
-0.998491, 281, 219, 344, 234
-0.998491, 305, 217, 336, 232
-0.998492, 329, 237, 360, 252
-0.998492, 145, 75, 208, 90
-0.998493, 257, 23, 320, 38
-0.998493, 177, 29, 208, 44
-0.998493, 365, 91, 396, 106
-0.998493, 181, 225, 212, 240
-0.998494, 281, 215, 312, 230
-0.998496, 353, 255, 384, 270
-0.998498, 229, 23, 260, 38
-0.998498, 189, 205, 220, 220
-0.998499, 393, 73, 456, 88
-0.998499, 129, 5, 160, 20
-0.9985, 149, 137, 180, 152
-0.9985, 377, 115, 408, 130
-0.9985, 49, 345, 176, 375
-0.9985, 181, 75, 212, 90
-0.998501, 205, 203, 236, 218
-0.998501, 345, 187, 408, 202
-0.998501, 209, 133, 272, 148
-0.998501, 133, 75, 164, 90
-0.998501, 241, 211, 304, 226
-0.998506, 121, 75, 184, 90
-0.998506, 129, 281, 192, 296
-0.998506, 145, 137, 208, 152
-0.998507, 357, 185, 388, 200
-0.998507, 317, 227, 348, 242
-0.998508, 157, 75, 188, 90
-0.998511, 105, 9, 168, 24
-0.998511, 77, 77, 108, 92
-0.998512, 369, 115, 432, 130
-0.998512, 113, 75, 144, 90
-0.998512, 273, 221, 304, 236
-0.998513, 193, 209, 256, 224
-0.998513, 353, 235, 384, 250
-0.998514, 349, 197, 380, 212
-0.998514, 341, 175, 372, 190
-0.998516, 289, 223, 320, 238
-0.998516, 329, 253, 392, 268
-0.998516, 321, 173, 384, 188
-0.998517, 425, 117, 456, 132
-0.998518, 193, 199, 256, 214
-0.998518, 169, 231, 232, 246
-0.998519, 161, 219, 224, 234
-0.99852, 193, 193, 256, 208
-0.998521, 137, 251, 200, 266
-0.998522, 329, 105, 392, 120
-0.998523, 245, 95, 276, 110
-0.998526, 105, 3, 168, 18
-0.998526, 273, 141, 336, 156
-0.998528, 121, 139, 184, 154
-0.998529, 169, 75, 200, 90
-0.99853, 169, 135, 232, 150
-0.998531, 293, 199, 324, 214
-0.998533, 161, 209, 224, 224
-0.998533, 369, 83, 432, 98
-0.998533, 265, 181, 328, 196
-0.998534, 341, 239, 372, 254
-0.998534, 409, 117, 472, 132
-0.998534, 201, 229, 264, 244
-0.998534, 305, 201, 336, 216
-0.998535, 341, 247, 372, 262
-0.998538, 241, 95, 304, 110
-0.998538, 329, 95, 392, 110
-0.998539, 141, 273, 172, 288
-0.998539, 433, 75, 496, 90
-0.99854, 333, 145, 348, 272
-0.99854, 357, 107, 388, 122
-0.99854, 133, 11, 164, 26
-0.998542, 269, 211, 300, 226
-0.998542, 129, 25, 192, 40
-0.998542, 253, 205, 284, 220
-0.998542, 329, 205, 392, 220
-0.998543, 329, 87, 392, 102
-0.998544, 329, 225, 392, 240
-0.998545, 105, 17, 168, 32
-0.998546, 233, 133, 296, 148
-0.998546, 337, 229, 368, 244
-0.998546, 285, 145, 300, 272
-0.998546, 257, 225, 320, 240
-0.998547, 289, 19, 352, 34
-0.998547, 231, 17, 246, 144
-0.998548, 101, 77, 132, 92
-0.998549, 301, 129, 316, 256
-0.99855, 301, 231, 332, 246
-0.99855, 333, 197, 364, 212
-0.99855, 313, 15, 376, 30
-0.99855, 17, 137, 80, 152
-0.998551, 273, 203, 304, 218
-0.998551, 289, 231, 352, 246
-0.998552, 353, 93, 416, 108
-0.998553, 201, 77, 232, 92
-0.998553, 337, 195, 400, 210
-0.998554, 137, 257, 200, 272
-0.998556, 201, 93, 264, 108
-0.998556, 321, 187, 352, 202
-0.998557, 337, 221, 368, 236
-0.998557, 241, 249, 304, 264
-0.998558, 353, 175, 384, 190
-0.998559, 93, 97, 124, 352
-0.998559, 217, 29, 248, 44
-0.99856, 121, 215, 184, 230
-0.99856, 249, 139, 312, 154
-0.99856, 121, 205, 184, 220
-0.998561, 261, 199, 292, 214
-0.998562, 65, 147, 128, 162
-0.998563, 57, 83, 120, 98
-0.998563, 305, 191, 336, 206
-0.998564, 433, 111, 496, 126
-0.998566, 321, 239, 384, 254
-0.998567, 241, 41, 368, 72
-0.998568, 89, 77, 120, 92
-0.998569, 293, 217, 324, 232
-0.998569, 417, 91, 480, 106
-0.998569, 209, 297, 336, 360
-0.998571, 185, 83, 248, 98
-0.998572, 373, 75, 404, 90
-0.998573, 369, 265, 432, 280
-0.998573, 321, 193, 352, 208
-0.998573, 137, 239, 200, 254
-0.998574, 105, 147, 168, 162
-0.998575, 281, 209, 312, 224
-0.998575, 129, 341, 256, 372
-0.998575, 277, 195, 308, 210
-0.998575, 361, 193, 424, 208
-0.998578, 145, 267, 208, 282
-0.998579, 193, 221, 256, 236
-0.998579, 217, 211, 280, 226
-0.998581, 289, 243, 352, 258
-0.998583, 241, 183, 304, 198
-0.998583, 329, 217, 392, 232
-0.998583, 305, 215, 368, 230
-0.998583, 293, 207, 324, 222
-0.998584, 313, 149, 376, 164
-0.998584, 345, 73, 408, 88
-0.998585, 321, 203, 352, 218
-0.998586, 89, 141, 152, 156
-0.998586, 241, 107, 304, 122
-0.998587, 333, 187, 364, 202
-0.998588, 317, 181, 348, 196
-0.998589, 65, 129, 128, 144
-0.99859, 361, 159, 424, 174
-0.998591, 169, 237, 232, 252
-0.998591, 293, 193, 324, 208
-0.998592, 241, 25, 272, 40
-0.998595, 185, 29, 248, 44
-0.998595, 265, 259, 328, 274
-0.998596, 219, 17, 234, 144
-0.998598, 145, 187, 208, 202
-0.998598, 393, 271, 456, 286
-0.998599, 97, 83, 160, 98
-0.998599, 161, 277, 224, 292
-0.998601, 337, 233, 400, 248
-0.998601, 421, 97, 452, 352
-0.998602, 65, 139, 128, 154
-0.998603, 217, 113, 280, 128
-0.998603, 289, 185, 320, 200
-0.998604, 233, 225, 296, 240
-0.998604, 329, 167, 392, 182
-0.998605, 153, 197, 216, 212
-0.998606, 301, 183, 332, 198
-0.998607, 409, 79, 472, 94
-0.998607, 361, 167, 424, 182
-0.998607, 433, 117, 496, 132
-0.998608, 129, 291, 192, 306
-0.998608, 241, 101, 304, 116
-0.998608, 345, 177, 408, 192
-0.998609, 257, 231, 320, 246
-0.99861, 225, 87, 288, 102
-0.99861, 329, 211, 392, 226
-0.998617, 329, 181, 360, 196
-0.998618, 291, 161, 306, 288
-0.998619, 253, 189, 284, 204
-0.998629, 269, 187, 300, 202
-0.998636, 17, 265, 144, 296
-0.998643, 17, 97, 48, 352
-0.998644, 225, 65, 240, 192
-0.998645, 117, 97, 148, 352
-0.998651, 333, 81, 348, 208
-0.998651, 353, 129, 368, 256
-0.998657, 307, 129, 322, 256
-0.998657, 321, 129, 336, 256
-0.998661, 321, 49, 448, 80
-0.998671, 363, 145, 378, 272
-0.998673, 237, 17, 252, 144
-0.998673, 225, 17, 240, 144
-0.998676, 207, 17, 222, 144
-0.998682, 265, 177, 280, 304
-0.9987, 327, 145, 342, 272
-0.998703, 279, 161, 294, 288
-0.998708, 373, 65, 388, 192
-0.998709, 1, 301, 128, 332
-0.99871, 147, 1, 162, 128
-0.998727, 327, 97, 342, 224
-0.998734, 279, 113, 294, 240
-0.998734, 201, 17, 216, 144
-0.998736, 213, 17, 228, 144
-0.998736, 337, 225, 464, 256
-0.998737, 273, 113, 288, 240
-0.998746, 239, 81, 254, 208
-0.998761, 313, 129, 328, 256
-0.99877, 367, 49, 382, 176
-0.998781, 289, 1, 304, 128
-0.998781, 197, 129, 212, 256
-0.998785, 69, 97, 100, 352
-0.998793, 245, 1, 260, 128
-0.998796, 195, 17, 210, 144
-0.998798, 171, 17, 186, 144
-0.998802, 233, 97, 248, 224
-0.998806, 373, 161, 388, 288
-0.998817, 363, 97, 378, 224
-0.998817, 157, 17, 172, 144
-0.998822, 289, 97, 304, 224
-0.998826, 225, 193, 240, 320
-0.998827, 195, 177, 210, 304
-0.998835, 163, 17, 178, 144
-0.998837, 179, 17, 194, 144
-0.998838, 251, 17, 266, 144
-0.99884, 261, 17, 276, 144
-0.998846, 385, 97, 416, 352
-0.99885, 271, 177, 286, 304
-0.998853, 325, 1, 340, 128
-0.998859, 299, 1, 314, 128
-0.998859, 337, 193, 352, 320
-0.99886, 189, 17, 204, 144
-0.998891, 77, 1, 108, 256
-0.998894, 215, 65, 230, 192
-0.998896, 231, 177, 246, 304
-0.998896, 315, 1, 330, 128
-0.998909, 267, 113, 282, 240
-0.998911, 259, 177, 274, 304
-0.998924, 305, 1, 320, 128
-0.998925, 189, 177, 204, 304
-0.998939, 375, 113, 390, 240
-0.99895, 295, 113, 310, 240
-0.998955, 53, 97, 84, 352
-0.998959, 203, 65, 218, 192
-0.998962, 167, 145, 182, 272
-0.998971, 221, 129, 236, 256
-0.998976, 209, 65, 224, 192
-0.998985, 343, 193, 358, 320
-0.998985, 259, 97, 274, 224
-0.999, 245, 97, 260, 224
-0.999, 211, 129, 226, 256
-0.999001, 141, 1, 156, 128
-0.999008, 109, 65, 124, 192
-0.999013, 297, 177, 312, 304
-0.999014, 453, 129, 468, 256
-0.99902, 211, 193, 226, 320
-0.999029, 253, 97, 268, 224
-0.999029, 349, 1, 364, 128
-0.99903, 219, 193, 234, 320
-0.99903, 191, 65, 206, 192
-0.999032, 311, 177, 326, 304
-0.999035, 205, 129, 220, 256
-0.999036, 157, 193, 172, 320
-0.999039, 445, 113, 460, 240
-0.999043, 269, 17, 284, 144
-0.999051, 337, 1, 352, 128
-0.999055, 161, 129, 176, 256
-0.999055, 349, 177, 364, 304
-0.999062, 391, 1, 406, 128
-0.999064, 341, 97, 356, 224
-0.999066, 283, 1, 298, 128
-0.999068, 163, 193, 178, 320
-0.999072, 201, 177, 216, 304
-0.999072, 225, 273, 480, 336
-0.999074, 275, 17, 290, 144
-0.999074, 53, 1, 84, 256
-0.99908, 357, 177, 372, 304
-0.999084, 171, 65, 186, 192
-0.999088, 185, 129, 200, 256
-0.999098, 251, 193, 266, 320
-0.9991, 161, 65, 176, 192
-0.999102, 485, 113, 500, 240
-0.999103, 363, 1, 378, 128
-0.999111, 117, 49, 132, 176
-0.999115, 239, 193, 254, 320
-0.999116, 303, 177, 318, 304
-0.999127, 155, 65, 170, 192
-0.999129, 321, 81, 336, 208
-0.999129, 343, 1, 358, 128
-0.99913, 113, 113, 128, 240
-0.999132, 459, 113, 474, 240
-0.999147, 9, 1, 40, 256
-0.999149, 485, 65, 500, 192
-0.999149, 177, 145, 192, 272
-0.999154, 173, 209, 188, 336
-0.999157, 191, 129, 206, 256
-0.999157, 369, 113, 384, 240
-0.999158, 465, 113, 480, 240
-0.999158, 369, 1, 384, 128
-0.999163, 273, 225, 288, 352
-0.999163, 153, 145, 168, 272
-0.999168, 105, 129, 136, 375
-0.999172, 197, 65, 212, 192
-0.999173, 145, 225, 160, 352
-0.999177, 315, 81, 330, 208
-0.99918, 141, 177, 156, 304
-0.999182, 463, 65, 478, 192
-0.999195, 453, 65, 468, 192
-0.999198, 185, 65, 200, 192
-0.9992, 177, 65, 192, 192
-0.9992, 29, 1, 60, 256
-0.999204, 331, 1, 346, 128
-0.999206, 435, 65, 450, 192
-0.999207, 479, 113, 494, 240
-0.99921, 381, 1, 396, 128
-0.999217, 355, 1, 370, 128
-0.999226, 29, 193, 44, 320
-0.999227, 5, 97, 36, 352
-0.99923, 163, 241, 178, 368
-0.999237, 475, 65, 490, 192
-0.999255, 409, 225, 472, 352
-0.999352, 397, 97, 428, 352
-0.999357, 409, 97, 440, 352
-0.999379, 305, 305, 432, 368
-0.999498, 81, 97, 112, 352
-0.999646, 227, 207, 242, 222
-0.999647, 293, 217, 308, 232
-0.999647, 321, 187, 336, 202
-0.999647, 131, 75, 146, 90
-0.999647, 85, 77, 100, 92
-0.999647, 251, 113, 266, 128
-0.999648, 241, 101, 256, 116
-0.999649, 449, 81, 464, 96
-0.999649, 371, 85, 386, 100
-0.999649, 267, 119, 282, 134
-0.999649, 363, 187, 378, 202
-0.999649, 273, 193, 288, 208
-0.999649, 367, 235, 382, 250
-0.99965, 77, 177, 92, 192
-0.99965, 159, 295, 174, 310
-0.99965, 273, 209, 288, 224
-0.99965, 317, 197, 332, 212
-0.99965, 151, 289, 166, 304
-0.99965, 381, 85, 396, 100
-0.999652, 281, 199, 296, 214
-0.999652, 223, 27, 238, 42
-0.999652, 261, 257, 276, 272
-0.999652, 459, 75, 474, 90
-0.999653, 195, 197, 210, 212
-0.999653, 139, 3, 154, 18
-0.999654, 245, 93, 260, 108
-0.999655, 261, 203, 276, 218
-0.999657, 247, 107, 262, 122
-0.999657, 153, 75, 168, 90
-0.999657, 295, 197, 310, 212
-0.999657, 205, 205, 220, 220
-0.999657, 361, 249, 376, 264
-0.999657, 301, 195, 316, 210
-0.999658, 193, 75, 208, 90
-0.999658, 357, 225, 372, 240
-0.999659, 167, 75, 182, 90
-0.999659, 145, 75, 160, 90
-0.999659, 453, 75, 468, 90
-0.999659, 239, 205, 254, 220
-0.99966, 339, 229, 354, 244
-0.99966, 123, 75, 138, 90
-0.99966, 387, 75, 402, 90
-0.99966, 161, 137, 176, 152
-0.999661, 285, 209, 300, 224
-0.999662, 433, 117, 448, 132
-0.999662, 203, 77, 218, 92
-0.999662, 347, 223, 362, 238
-0.999662, 145, 281, 160, 296
-0.999663, 333, 201, 348, 216
-0.999663, 217, 79, 232, 94
-0.999663, 423, 117, 438, 132
-0.999663, 323, 141, 338, 156
-0.999663, 173, 75, 188, 90
-0.999664, 325, 203, 340, 218
-0.999664, 159, 75, 174, 90
-0.999664, 155, 27, 170, 42
-0.999665, 281, 219, 296, 234
-0.999665, 347, 177, 362, 192
-0.999665, 321, 181, 336, 196
-0.999665, 359, 199, 374, 214
-0.999667, 303, 231, 318, 246
-0.999668, 229, 199, 244, 214
-0.999668, 377, 115, 392, 130
-0.999669, 371, 191, 386, 206
-0.999669, 137, 75, 152, 90
-0.99967, 349, 183, 364, 198
-0.999671, 285, 193, 300, 208
-0.999672, 279, 211, 294, 226
-0.999673, 273, 187, 288, 202
-0.999674, 309, 223, 324, 238
-0.999675, 179, 75, 194, 90
-0.999675, 301, 201, 316, 216
-0.999676, 335, 89, 350, 104
-0.999676, 297, 185, 312, 200
-0.999676, 291, 209, 306, 224
-0.999677, 209, 77, 224, 92
-0.999677, 313, 233, 328, 248
-0.999677, 311, 189, 326, 204
-0.999678, 309, 183, 324, 198
-0.999678, 199, 203, 214, 218
-0.99968, 339, 79, 354, 94
-0.999681, 185, 75, 200, 90
-0.999681, 287, 203, 302, 218
-0.999681, 311, 195, 326, 210
-0.999682, 203, 197, 218, 212
-0.999683, 279, 187, 294, 202
-0.999683, 91, 77, 106, 92
-0.999684, 369, 91, 384, 106
-0.999684, 367, 169, 382, 184
-0.999684, 143, 9, 158, 24
-0.999685, 361, 239, 376, 254
-0.999685, 273, 201, 288, 216
-0.999685, 365, 193, 380, 208
-0.999685, 99, 77, 114, 92
-0.999686, 333, 179, 348, 194
-0.999687, 347, 229, 362, 244
-0.999687, 195, 191, 210, 206
-0.999688, 353, 245, 368, 260
-0.999688, 323, 193, 338, 208
-0.999692, 111, 77, 126, 92
-0.999692, 377, 75, 392, 90
-0.999692, 357, 231, 372, 246
-0.999694, 147, 15, 162, 30
-0.999695, 313, 205, 328, 220
-0.999696, 303, 207, 318, 222
-0.999698, 355, 177, 370, 192
-0.999699, 341, 221, 356, 236
-0.9997, 153, 21, 168, 36
-0.999701, 343, 189, 358, 204
-0.999702, 105, 77, 120, 92
-0.999702, 367, 99, 382, 114
-0.999703, 333, 187, 348, 202
-0.999705, 295, 191, 310, 206
-0.999705, 279, 193, 294, 208
-0.999707, 287, 187, 302, 202
-0.999708, 267, 199, 282, 214
-0.99971, 261, 189, 276, 204
-0.999713, 315, 183, 330, 198
-0.999714, 367, 175, 382, 190
-0.999714, 255, 203, 270, 218
-0.999719, 327, 181, 342, 196
-0.999719, 303, 185, 318, 200
-0.999721, 305, 217, 320, 232
-0.999722, 349, 237, 364, 252
-0.999724, 141, 271, 156, 286
-0.999726, 253, 249, 268, 264
-0.999729, 341, 179, 356, 194
-0.999748, 355, 239, 370, 254
-0.99977, 391, 1, 406, 16
-0.999786, 245, 25, 260, 40
-0.999863, 65, 1, 96, 256
-0.999892, 193, 305, 448, 368
-1.00083, 1, 313, 500, 375
-1.00137, 353, 305, 480, 368
-1.00314, 433, 241, 496, 368
