2019
-0.274108, 1, 1, 500, 425
-0.350507, 1, 33, 500, 288
-0.406439, 225, 1, 480, 425
-0.429951, 65, 1, 320, 425
-0.43786, 1, 129, 500, 384
-0.510978, 193, 1, 448, 256
-0.62568, 65, 33, 320, 288
-0.668354, 225, 97, 480, 352
-0.675736, 65, 129, 320, 384
-0.840658, 241, 1, 368, 256
-0.850672, 193, 1, 320, 425
-0.854412, 193, 1, 320, 256
-0.861046, 1, 1, 128, 425
-0.870222, 1, 97, 128, 352
-0.871722, 241, 1, 368, 425
-0.877557, 209, 97, 336, 352
-0.87804, 305, 1, 432, 425
-0.88312, 289, 1, 416, 256
-0.885071, 145, 1, 272, 425
-0.889507, 145, 33, 272, 288
-0.892273, 305, 97, 432, 352
-0.892385, 1, 17, 500, 144
-0.89245, 81, 1, 208, 425
-0.893111, 1, 1, 128, 256
-0.893583, 49, 161, 176, 416
-0.89964, 1, 161, 500, 288
-0.900438, 337, 1, 464, 256
-0.902227, 1, 65, 500, 192
-0.907518, 193, 17, 448, 144
-0.908064, 1, 209, 500, 336
-0.908718, 257, 97, 384, 352
-0.911889, 353, 161, 480, 416
-0.912011, 257, 81, 500, 208
-0.914933, 81, 1, 208, 256
-0.919003, 353, 1, 480, 425
-0.921016, 97, 97, 224, 352
-0.922174, 161, 65, 416, 192
-0.922857, 209, 33, 336, 160
-0.923357, 225, 145, 480, 272
-0.926584, 65, 49, 320, 176
-0.929478, 217, 33, 280, 160
-0.930031, 289, 1, 416, 128
-0.930975, 1, 257, 500, 384
-0.931524, 1, 257, 256, 384
-0.933398, 161, 129, 288, 384
-0.933739, 1, 113, 500, 240
-0.934285, 33, 193, 288, 320
-0.935268, 297, 1, 360, 128
-0.937224, 33, 97, 288, 224
-0.938153, 257, 33, 320, 160
-0.939877, 321, 1, 384, 128
-0.941576, 129, 129, 384, 256
-0.94195, 1, 305, 500, 425
-0.94434, 257, 193, 500, 320
-0.945401, 305, 177, 368, 304
-0.94542, 193, 65, 256, 192
-0.946225, 97, 1, 352, 128
-0.946993, 161, 81, 288, 208
-0.94761, 1, 1, 256, 128
-0.948611, 257, 65, 384, 192
-0.949091, 129, 177, 384, 304
-0.949759, 209, 81, 336, 208
-0.95138, 161, 225, 416, 352
-0.95166, 305, 65, 368, 192
-0.951781, 225, 161, 352, 288
-0.952149, 305, 193, 432, 320
-0.952276, 321, 97, 448, 224
-0.952379, 321, 225, 384, 352
-0.953357, 209, 225, 336, 352
-0.953829, 1, 225, 128, 352
-0.954438, 1, 129, 128, 256
-0.954856, 233, 209, 296, 336
-0.954928, 297, 129, 360, 256
-0.95498, 369, 113, 496, 240
-0.955099, 249, 97, 312, 224
-0.955539, 249, 161, 312, 288
-0.955633, 209, 49, 272, 112
-0.955879, 257, 17, 320, 80
-0.956128, 265, 49, 328, 112
-0.956237, 1, 1, 128, 128
-0.956486, 257, 113, 384, 240
-0.956594, 417, 129, 480, 256
-0.957063, 305, 49, 432, 176
-0.957128, 225, 113, 288, 240
-0.957534, 17, 241, 80, 368
-0.957737, 345, 65, 408, 192
-0.957916, 57, 193, 120, 320
-0.958224, 361, 145, 424, 272
-0.958671, 161, 273, 416, 400
-0.958878, 297, 193, 360, 256
-0.958947, 281, 177, 344, 304
-0.959594, 33, 177, 160, 304
-0.959913, 49, 225, 176, 352
-0.960135, 329, 177, 392, 304
-0.960683, 273, 129, 336, 256
-0.960941, 233, 33, 296, 96
-0.961131, 33, 81, 160, 208
-0.961306, 305, 81, 368, 144
-0.961607, 1, 145, 256, 272
-0.961654, 321, 113, 384, 240
-0.961741, 249, 1, 312, 256
-0.961807, 257, 209, 320, 336
-0.962071, 161, 33, 288, 160
-0.962382, 1, 305, 256, 425
-0.962935, 353, 177, 480, 304
-0.963501, 225, 121, 288, 184
-0.963543, 281, 49, 344, 176
-0.963584, 297, 17, 360, 80
-0.963823, 201, 113, 264, 240
-0.963826, 249, 217, 312, 280
-0.963877, 401, 145, 464, 208
-0.964101, 49, 97, 112, 224
-0.964134, 217, 73, 280, 136
-0.96414, 393, 145, 456, 272
-0.964165, 369, 153, 432, 216
-0.964265, 1, 273, 128, 400
-0.964424, 305, 145, 432, 272
-0.964518, 257, 225, 384, 352
-0.965181, 17, 129, 80, 256
-0.965237, 225, 161, 288, 288
-0.965483, 345, 73, 408, 136
-0.965918, 185, 73, 248, 136
-0.965944, 353, 49, 480, 176
-0.966251, 81, 161, 144, 288
-0.966417, 209, 41, 336, 104
-0.96649, 321, 161, 384, 224
-0.966735, 297, 241, 360, 304
-0.966825, 193, 97, 256, 160
-0.966951, 321, 233, 384, 296
-0.967, 265, 105, 328, 168
-0.967096, 161, 129, 288, 256
-0.967257, 401, 81, 464, 208
-0.967322, 297, 129, 360, 192
-0.967532, 297, 241, 360, 368
-0.967692, 321, 257, 448, 384
-0.967946, 249, 161, 312, 224
-0.968185, 401, 193, 464, 320
-0.968602, 401, 193, 464, 256
-0.968975, 217, 1, 280, 256
-0.969496, 265, 129, 328, 192
-0.96995, 289, 161, 352, 224
-0.970225, 433, 137, 496, 200
-0.970413, 369, 1, 496, 128
-0.970442, 273, 233, 336, 296
-0.970632, 273, 185, 336, 248
-0.970638, 277, 17, 308, 80
-0.970656, 201, 209, 264, 336
-0.97072, 97, 209, 224, 336
-0.971061, 273, 17, 400, 80
-0.971098, 321, 257, 384, 320
-0.971124, 49, 273, 176, 400
-0.97141, 293, 1, 324, 128
-0.971479, 105, 145, 168, 272
-0.971526, 345, 1, 408, 128
-0.971893, 237, 33, 268, 160
-0.971934, 321, 17, 384, 80
-0.971991, 1, 145, 64, 208
-0.971999, 289, 41, 352, 104
-0.972021, 225, 97, 288, 160
-0.972219, 353, 233, 416, 296
-0.97234, 353, 193, 416, 320
-0.972644, 145, 289, 272, 416
-0.97265, 41, 1, 104, 128
-0.972867, 265, 17, 296, 144
-0.972916, 321, 305, 384, 425
-0.97296, 201, 257, 264, 384
-0.97298, 73, 193, 136, 256
-0.973012, 289, 1, 352, 256
-0.973089, 433, 81, 496, 208
-0.973491, 113, 49, 240, 176
-0.973601, 409, 169, 472, 232
-0.973627, 97, 161, 224, 288
-0.973708, 321, 1, 352, 128
-0.973899, 257, 257, 500, 384
-0.973942, 369, 49, 432, 176
-0.974019, 289, 17, 320, 80
-0.974171, 185, 17, 248, 144
-0.974185, 385, 121, 448, 184
-0.974265, 329, 1, 392, 256
-0.974422, 25, 97, 88, 352
-0.974562, 337, 49, 400, 112
-0.974609, 321, 209, 384, 272
-0.974667, 353, 185, 416, 248
-0.97468, 369, 57, 432, 120
-0.974758, 225, 17, 352, 80
-0.97487, 65, 33, 192, 160
-0.974991, 249, 33, 280, 160
-0.975102, 289, 305, 416, 425
-0.975198, 209, 65, 336, 128
-0.975223, 249, 81, 312, 144
-0.975508, 321, 185, 384, 248
-0.975587, 241, 97, 368, 160
-0.975617, 241, 121, 272, 184
-0.975712, 253, 97, 284, 224
-0.975714, 1, 129, 64, 384
-0.975985, 309, 1, 340, 128
-0.976067, 273, 137, 400, 200
-0.976119, 73, 65, 136, 192
-0.976446, 57, 65, 120, 320
-0.976529, 193, 33, 256, 288
-0.976534, 225, 33, 256, 160
-0.976536, 365, 57, 396, 120
-0.976606, 293, 49, 324, 112
-0.976653, 41, 1, 104, 64
-0.976761, 49, 209, 112, 272
-0.976767, 25, 129, 88, 192
-0.976972, 177, 177, 304, 304
-0.976984, 253, 121, 284, 184
-0.977082, 233, 193, 296, 256
-0.977129, 225, 1, 288, 64
-0.977172, 273, 209, 336, 272
-0.9772, 25, 249, 88, 312
-0.977221, 105, 161, 168, 224
-0.977319, 345, 209, 408, 272
-0.977495, 81, 241, 144, 368
-0.977564, 177, 41, 240, 104
-0.97757, 17, 1, 80, 128
-0.977575, 9, 1, 72, 256
-0.977614, 345, 321, 408, 384
-0.977734, 353, 145, 480, 208
-0.977854, 273, 201, 400, 264
-0.977992, 225, 145, 288, 208
-0.978076, 237, 113, 268, 240
-0.978143, 225, 97, 288, 352
-0.978195, 345, 257, 408, 384
-0.978217, 321, 337, 384, 400
-0.978246, 333, 1, 364, 128
-0.978343, 321, 113, 384, 176
-0.978351, 265, 97, 328, 352
-0.978392, 225, 161, 352, 224
-0.978466, 241, 233, 368, 296
-0.978488, 353, 1, 384, 128
-0.978493, 425, 161, 456, 224
-0.978635, 17, 273, 80, 336
-0.97864, 225, 57, 256, 120
-0.978667, 249, 97, 280, 160
-0.978676, 161, 89, 288, 152
-0.978714, 201, 121, 264, 184
-0.978771, 41, 105, 104, 168
-0.978773, 273, 49, 400, 112
-0.978831, 225, 121, 352, 184
-0.978911, 257, 161, 288, 288
-0.978959, 193, 273, 320, 400
-0.979142, 225, 225, 288, 288
-0.97924, 169, 65, 232, 192
-0.979357, 433, 1, 496, 128
-0.97938, 41, 289, 104, 416
-0.979473, 273, 137, 304, 200
-0.979521, 289, 73, 416, 136
-0.979607, 305, 225, 432, 288
-0.979669, 297, 105, 360, 168
-0.979733, 209, 25, 272, 88
-0.979777, 289, 113, 416, 176
-0.979832, 309, 17, 340, 80
-0.98001, 369, 97, 432, 224
-0.980043, 333, 161, 364, 288
-0.980066, 245, 41, 276, 104
-0.980128, 253, 145, 284, 208
-0.980181, 261, 33, 292, 96
-0.98022, 201, 249, 264, 312
-0.980417, 277, 17, 308, 144
-0.980425, 161, 225, 288, 352
-0.980456, 185, 273, 248, 336
-0.980464, 257, 305, 500, 425
-0.980575, 409, 105, 472, 168
-0.980586, 429, 137, 460, 200
-0.980644, 65, 89, 128, 152
-0.980647, 225, 257, 288, 384
-0.98065, 201, 225, 264, 288
-0.980725, 425, 145, 456, 272
-0.980748, 1, 265, 128, 328
-0.980795, 309, 49, 340, 176
-0.980955, 241, 1, 304, 425
-0.980961, 209, 209, 336, 272
-0.98102, 285, 161, 316, 288
-0.98104, 1, 33, 64, 96
-0.981052, 81, 169, 144, 232
-0.981072, 369, 225, 496, 352
-0.981079, 317, 177, 348, 304
-0.981134, 177, 257, 240, 384
-0.981191, 333, 113, 364, 240
-0.981223, 17, 137, 144, 200
-0.981352, 345, 257, 408, 320
-0.981402, 209, 49, 240, 176
-0.98143, 313, 241, 344, 304
-0.98151, 369, 33, 432, 288
-0.981571, 229, 105, 260, 168
-0.981608, 1, 289, 64, 416
-0.98172, 209, 201, 272, 264
-0.981734, 41, 241, 104, 368
-0.981747, 57, 161, 120, 416
-0.981765, 297, 201, 328, 264
-0.9818, 345, 177, 376, 304
-0.981843, 105, 209, 168, 336
-0.981874, 297, 217, 360, 280
-0.981914, 433, 113, 496, 176
-0.981988, 361, 33, 424, 96
-0.982008, 113, 1, 240, 128
-0.98201, 161, 9, 288, 72
-0.982109, 81, 113, 208, 240
-0.982114, 353, 129, 416, 384
-0.982123, 297, 97, 360, 352
-0.982213, 33, 225, 160, 288
-0.982353, 273, 145, 304, 272
-0.982387, 297, 305, 360, 425
-0.982403, 441, 137, 472, 200
-0.982447, 297, 233, 328, 296
-0.982499, 33, 201, 160, 264
-0.982636, 321, 177, 448, 240
-0.982738, 161, 65, 288, 128
-0.982753, 177, 113, 304, 176
-0.982755, 329, 161, 392, 416
-0.982813, 285, 193, 316, 256
-0.982851, 345, 1, 408, 64
-0.982876, 57, 289, 120, 352
-0.982942, 369, 273, 496, 400
-0.983009, 433, 161, 496, 224
-0.983035, 449, 113, 480, 240
-0.983073, 289, 65, 320, 192
-0.98308, 345, 97, 408, 160
-0.983108, 153, 97, 216, 160
-0.983132, 1, 33, 128, 96
-0.983206, 33, 113, 160, 176
-0.983244, 49, 233, 112, 296
-0.983265, 397, 153, 428, 216
-0.983309, 321, 241, 352, 368
-0.983315, 293, 161, 324, 224
-0.98362, 273, 161, 400, 224
-0.983657, 261, 209, 292, 272
-0.983721, 225, 185, 352, 248
-0.983741, 345, 297, 408, 360
-0.983822, 33, 313, 96, 376
-0.983827, 213, 89, 244, 152
-0.98383, 225, 97, 256, 224
-0.983866, 201, 57, 232, 120
-0.983868, 413, 177, 444, 240
-0.983877, 1, 161, 128, 224
-0.98391, 265, 65, 296, 192
-0.983918, 1, 169, 64, 232
-0.983953, 401, 129, 464, 384
-0.983962, 17, 9, 80, 72
-0.984091, 297, 313, 360, 376
-0.984098, 17, 1, 80, 425
-0.984123, 417, 137, 448, 200
-0.984178, 413, 161, 444, 288
-0.984189, 337, 137, 400, 200
-0.984215, 17, 337, 80, 400
-0.984299, 357, 177, 388, 240
-0.9843, 297, 161, 328, 288
-0.984323, 1, 9, 128, 72
-0.984567, 369, 49, 496, 112
-0.984579, 289, 305, 416, 368
-0.984583, 353, 257, 384, 320
-0.984593, 401, 113, 432, 240
-0.984635, 325, 65, 356, 192
-0.984636, 353, 345, 416, 408
-0.984654, 97, 65, 160, 192
-0.984676, 97, 177, 128, 304
-0.984768, 33, 177, 96, 240
-0.984802, 261, 89, 292, 152
-0.985019, 81, 57, 144, 120
-0.985025, 81, 17, 144, 144
-0.985033, 301, 113, 332, 240
-0.985037, 33, 193, 96, 320
-0.985072, 369, 1, 432, 128
-0.985087, 337, 73, 464, 136
-0.985097, 337, 105, 464, 168
-0.985146, 245, 161, 276, 288
-0.985156, 129, 113, 192, 240
-0.985266, 161, 73, 224, 136
-0.985287, 305, 73, 336, 136
-0.98529, 433, 41, 496, 104
-0.985292, 237, 17, 268, 80
-0.985305, 353, 225, 480, 288
-0.985318, 461, 81, 492, 208
-0.985345, 333, 209, 364, 336
-0.985347, 129, 129, 192, 192
-0.985354, 129, 41, 256, 104
-0.985356, 241, 201, 272, 264
-0.985362, 9, 209, 72, 272
-0.985406, 97, 177, 128, 240
-0.985424, 337, 225, 368, 288
-0.98545, 193, 1, 256, 425
-0.985483, 81, 161, 144, 416
-0.985501, 57, 153, 120, 216
-0.985503, 305, 49, 336, 112
-0.985532, 337, 153, 368, 216
-0.985565, 305, 289, 368, 352
-0.985596, 305, 169, 336, 232
-0.985623, 309, 129, 340, 192
-0.985638, 13, 153, 44, 216
-0.985709, 433, 65, 496, 320
-0.985724, 321, 201, 448, 264
-0.985777, 49, 113, 80, 176
-0.98579, 361, 177, 392, 304
-0.985832, 233, 249, 296, 312
-0.985862, 313, 57, 376, 120
-0.985888, 301, 225, 332, 352
-0.985933, 317, 169, 348, 232
-0.985936, 337, 113, 368, 176
-0.985956, 349, 113, 380, 240
-0.98596, 265, 113, 296, 176
-0.985965, 1, 361, 64, 424
-0.985967, 21, 273, 52, 400
-0.985972, 285, 225, 316, 288
-0.986019, 49, 89, 176, 152
-0.986058, 253, 1, 284, 64
-0.986119, 65, 65, 192, 128
-0.986137, 217, 1, 280, 425
-0.98614, 361, 121, 424, 184
-0.986236, 349, 225, 380, 352
-0.986248, 65, 1, 128, 425
-0.986304, 33, 129, 64, 192
-0.986315, 365, 1, 396, 128
-0.986318, 145, 33, 208, 160
-0.986358, 353, 1, 416, 425
-0.986392, 377, 193, 440, 320
-0.986392, 245, 73, 276, 136
-0.986394, 153, 257, 216, 320
-0.986456, 277, 169, 308, 232
-0.986461, 289, 249, 416, 312
-0.986487, 369, 185, 496, 248
-0.986493, 393, 217, 456, 280
-0.986495, 69, 209, 100, 336
-0.986497, 105, 225, 168, 288
-0.986544, 177, 137, 304, 200
-0.986556, 325, 201, 356, 264
-0.986613, 273, 81, 336, 144
-0.986649, 425, 177, 488, 304
-0.986732, 305, 273, 432, 336
-0.986765, 1, 177, 64, 304
-0.98682, 345, 161, 408, 224
-0.986821, 377, 329, 440, 392
-0.986827, 325, 145, 356, 208
-0.986841, 169, 33, 232, 288
-0.986876, 193, 233, 320, 296
-0.986905, 41, 241, 72, 368
-0.98691, 161, 113, 224, 240
-0.986966, 273, 289, 336, 416
-0.986968, 113, 217, 240, 280
-0.98698, 81, 169, 208, 232
-0.987018, 349, 17, 380, 80
-0.987051, 309, 209, 340, 272
-0.987055, 377, 57, 408, 120
-0.987059, 289, 129, 320, 192
-0.987165, 201, 273, 232, 336
-0.987176, 409, 81, 472, 144
-0.987179, 433, 65, 496, 128
-0.987196, 193, 257, 320, 320
-0.987219, 353, 73, 384, 136
-0.987268, 437, 113, 468, 240
-0.987269, 217, 33, 248, 96
-0.987314, 305, 105, 336, 168
-0.987323, 1, 169, 32, 232
-0.987354, 221, 225, 252, 352
-0.987394, 357, 65, 388, 192
-0.98742, 333, 177, 364, 240
-0.987465, 325, 121, 356, 184
-0.98748, 329, 81, 360, 144
-0.987486, 273, 209, 304, 272
-0.987504, 225, 169, 288, 232
-0.987514, 85, 193, 116, 320
-0.987561, 401, 177, 432, 304
-0.987588, 81, 193, 112, 256
-0.987596, 1, 289, 32, 416
-0.987601, 61, 105, 92, 168
-0.987632, 73, 89, 104, 152
-0.987657, 233, 193, 264, 320
-0.987658, 329, 249, 360, 312
-0.987734, 241, 289, 368, 416
-0.987756, 265, 209, 296, 336
-0.987766, 353, 201, 384, 264
-0.987789, 105, 305, 168, 368
-0.987791, 161, 193, 288, 256
-0.987851, 313, 129, 344, 256
-0.987855, 453, 121, 484, 184
-0.987858, 285, 209, 316, 336
-0.987894, 273, 329, 400, 392
-0.98791, 369, 33, 400, 96
-0.987934, 393, 121, 424, 184
-0.987946, 57, 225, 88, 352
-0.987993, 65, 265, 128, 328
-0.988015, 81, 33, 144, 288
-0.988026, 321, 313, 384, 376
-0.988178, 313, 361, 376, 424
-0.988203, 33, 129, 64, 256
-0.988218, 377, 177, 440, 240
-0.988284, 281, 41, 312, 104
-0.988307, 145, 289, 208, 416
-0.988317, 153, 49, 216, 112
-0.988326, 437, 161, 468, 224
-0.9885, 53, 225, 84, 288
-0.988544, 65, 273, 192, 336
-0.988548, 13, 273, 44, 336
-0.988566, 49, 113, 80, 240
-0.988592, 257, 169, 288, 232
-0.988718, 33, 249, 64, 312
-0.988735, 169, 297, 232, 360
-0.988791, 329, 1, 392, 425
-0.988852, 65, 97, 96, 224
-0.988864, 245, 233, 276, 296
-0.988871, 69, 209, 100, 272
-0.988889, 257, 229, 320, 260
-0.988892, 1, 297, 64, 360
-0.988898, 193, 161, 256, 288
-0.988903, 441, 161, 472, 288
-0.988924, 321, 17, 352, 80
-0.98896, 97, 241, 224, 304
-0.989012, 97, 1, 160, 425
-0.989013, 1, 345, 128, 408
-0.989016, 41, 1, 104, 425
-0.989051, 369, 241, 432, 368
-0.989076, 109, 161, 140, 288
-0.989164, 273, 313, 336, 376
-0.989185, 81, 41, 208, 104
-0.989233, 389, 41, 420, 104
-0.98925, 409, 33, 472, 160
-0.989297, 145, 257, 272, 320
-0.9893, 413, 81, 444, 208
-0.989338, 105, 97, 168, 352
-0.989352, 353, 249, 480, 312
-0.989381, 369, 81, 432, 144
-0.989452, 297, 337, 360, 400
-0.989456, 321, 329, 448, 392
-0.989473, 261, 65, 292, 128
-0.989491, 1, 289, 32, 352
-0.989522, 289, 1, 352, 425
-0.989635, 153, 241, 216, 368
-0.989646, 369, 257, 432, 320
-0.989656, 337, 1, 464, 64
-0.989666, 361, 233, 392, 296
-0.989686, 241, 241, 272, 368
-0.989695, 405, 201, 436, 264
-0.989735, 129, 193, 192, 320
-0.989747, 253, 209, 284, 336
-0.989787, 201, 129, 264, 384
-0.989817, 373, 49, 404, 176
-0.989823, 265, 1, 328, 425
-0.989831, 297, 85, 360, 116
-0.989858, 97, 145, 224, 208
-0.989874, 257, 29, 320, 60
-0.989874, 321, 49, 448, 112
-0.989877, 289, 97, 320, 160
-0.989877, 241, 41, 304, 72
-0.989935, 145, 281, 208, 344
-0.989961, 409, 145, 472, 176
-0.989978, 89, 249, 152, 312
-0.990016, 169, 1, 232, 425
-0.990054, 217, 73, 280, 104
-0.990054, 97, 257, 224, 384
-0.990062, 5, 41, 36, 104
-0.990064, 21, 129, 52, 256
-0.990135, 185, 289, 216, 352
-0.990167, 289, 185, 352, 216
-0.990178, 1, 49, 64, 176
-0.99018, 337, 61, 400, 92
-0.990218, 433, 17, 496, 80
-0.990255, 225, 225, 256, 288
-0.990271, 281, 281, 344, 344
-0.990273, 313, 193, 376, 224
-0.990302, 333, 17, 364, 80
-0.990305, 129, 297, 256, 360
-0.990324, 145, 161, 272, 224
-0.990324, 129, 201, 192, 264
-0.990331, 341, 89, 372, 152
-0.99035, 281, 21, 344, 52
-0.990352, 433, 1, 496, 425
-0.990389, 33, 297, 160, 360
-0.990401, 289, 137, 352, 168
-0.990448, 233, 213, 296, 244
-0.990461, 289, 245, 352, 276
-0.990461, 113, 65, 240, 128
-0.990506, 249, 133, 312, 164
-0.990513, 377, 145, 408, 208
-0.99055, 369, 161, 432, 192
-0.990552, 329, 181, 392, 212
-0.990559, 81, 65, 112, 192
-0.99056, 217, 45, 280, 76
-0.99056, 177, 89, 240, 120
-0.990586, 329, 161, 392, 192
-0.990604, 265, 193, 328, 224
-0.990638, 5, 145, 36, 272
-0.990644, 345, 77, 408, 108
-0.990646, 305, 233, 368, 264
-0.990649, 209, 273, 272, 336
-0.990688, 461, 97, 492, 160
-0.990691, 193, 49, 448, 112
-0.990691, 257, 145, 500, 208
-0.990695, 393, 265, 456, 328
-0.990701, 361, 65, 424, 96
-0.990714, 201, 113, 264, 144
-0.990731, 225, 113, 288, 144
-0.990745, 353, 305, 416, 425
-0.99075, 365, 1, 396, 64
-0.990764, 213, 97, 244, 224
-0.990765, 289, 169, 352, 200
-0.990773, 257, 145, 320, 176
-0.990786, 113, 89, 240, 152
-0.990813, 121, 361, 184, 424
-0.990814, 289, 353, 416, 416
-0.990824, 265, 49, 328, 80
-0.990852, 393, 241, 456, 304
-0.990858, 333, 313, 364, 376
-0.990859, 289, 45, 352, 76
-0.990864, 289, 113, 320, 240
-0.990864, 369, 81, 400, 144
-0.990885, 225, 129, 288, 160
-0.99094, 437, 113, 468, 176
-0.990945, 305, 97, 368, 128
-0.990946, 225, 101, 288, 132
-0.990973, 241, 173, 304, 204
-0.99099, 193, 25, 448, 88
-0.990998, 17, 321, 144, 384
-0.99101, 313, 245, 376, 276
-0.991023, 49, 49, 112, 176
-0.991029, 449, 65, 480, 192
-0.991039, 393, 1, 456, 425
-0.991048, 385, 33, 416, 160
-0.991063, 217, 85, 280, 116
-0.99109, 333, 289, 364, 416
-0.991103, 393, 157, 456, 188
-0.991104, 401, 197, 464, 228
-0.991109, 89, 73, 120, 136
-0.99112, 265, 101, 328, 132
-0.991188, 257, 121, 320, 152
-0.991192, 249, 157, 312, 188
-0.991196, 257, 217, 320, 248
-0.991216, 321, 265, 384, 296
-0.991234, 265, 61, 328, 92
-0.991248, 193, 101, 256, 132
-0.991257, 209, 57, 272, 88
-0.991271, 257, 77, 320, 108
-0.991272, 241, 185, 304, 216
-0.991294, 353, 153, 384, 216
-0.991346, 369, 169, 400, 232
-0.991352, 321, 17, 384, 48
-0.991367, 113, 161, 144, 224
-0.991379, 185, 77, 248, 108
-0.991393, 201, 257, 232, 384
-0.991395, 185, 65, 248, 96
-0.991408, 369, 321, 496, 384
-0.991437, 289, 197, 352, 228
-0.991451, 1, 169, 64, 200
-0.991475, 341, 289, 372, 352
-0.991482, 297, 221, 360, 252
-0.991483, 361, 193, 424, 224
-0.991506, 113, 193, 240, 256
-0.991508, 409, 181, 472, 212
-0.991522, 265, 89, 328, 120
-0.991525, 389, 145, 420, 272
-0.991525, 177, 53, 240, 84
-0.991532, 289, 149, 352, 180
-0.991539, 385, 145, 448, 176
-0.991541, 33, 137, 96, 168
-0.991595, 225, 81, 256, 144
-0.99162, 89, 189, 152, 220
-0.991636, 193, 73, 448, 136
-0.991641, 41, 9, 104, 40
-0.991674, 233, 225, 296, 256
-0.991695, 41, 125, 104, 156
-0.991697, 377, 345, 408, 408
-0.991712, 417, 165, 480, 196
-0.991719, 265, 241, 328, 272
-0.991722, 233, 17, 296, 48
-0.991747, 17, 33, 48, 96
-0.991763, 341, 201, 372, 264
-0.991776, 45, 1, 76, 64
-0.991779, 321, 77, 384, 108
-0.99178, 297, 109, 360, 140
-0.991786, 357, 329, 388, 392
-0.991787, 345, 149, 408, 180
-0.991801, 361, 53, 424, 84
-0.991817, 193, 37, 256, 68
-0.991825, 201, 125, 264, 156
-0.991825, 73, 205, 136, 236
-0.991836, 33, 97, 288, 160
-0.991841, 65, 289, 128, 416
-0.991848, 181, 81, 212, 144
-0.991848, 225, 97, 480, 160
-0.991849, 337, 65, 368, 192
-0.991858, 201, 257, 264, 288
-0.99186, 265, 205, 328, 236
-0.99187, 45, 1, 76, 128
-0.991873, 169, 301, 232, 332
-0.991875, 217, 249, 248, 312
-0.99189, 17, 153, 80, 184
-0.991893, 345, 333, 408, 364
-0.991895, 197, 49, 228, 176
-0.991916, 185, 305, 248, 425
-0.991919, 289, 9, 352, 40
-0.991937, 337, 297, 464, 360
-0.991939, 177, 281, 304, 344
-0.991939, 305, 121, 368, 152
-0.99194, 65, 217, 128, 248
-0.991942, 345, 205, 408, 236
-0.991952, 345, 109, 408, 140
-0.991964, 97, 305, 224, 425
-0.991969, 225, 141, 288, 172
-0.991974, 1, 293, 64, 324
-0.991989, 353, 241, 416, 272
-0.991989, 361, 257, 424, 288
-0.991991, 409, 33, 472, 288
-0.991993, 57, 113, 120, 144
-0.992007, 225, 201, 480, 264
-0.992009, 425, 97, 456, 224
-0.992014, 329, 233, 392, 264
-0.99203, 353, 229, 416, 260
-0.992031, 329, 93, 392, 124
-0.992045, 469, 65, 500, 128
-0.992053, 233, 29, 296, 60
-0.992055, 217, 241, 280, 272
-0.992065, 49, 233, 112, 264
-0.992115, 293, 45, 324, 76
-0.992121, 185, 289, 248, 320
-0.99213, 113, 157, 176, 188
-0.992134, 433, 145, 496, 176
-0.992135, 361, 217, 424, 248
-0.992135, 201, 229, 264, 260
-0.992151, 201, 269, 264, 300
-0.992167, 265, 173, 328, 204
-0.992177, 33, 1, 96, 256
-0.992185, 25, 265, 88, 296
-0.992195, 17, 277, 80, 308
-0.992195, 321, 213, 384, 244
-0.992207, 409, 109, 472, 140
-0.992209, 361, 181, 424, 212
-0.992215, 225, 281, 352, 344
-0.992234, 453, 65, 484, 128
-0.992234, 369, 77, 432, 108
-0.992243, 369, 61, 400, 92
-0.992252, 297, 73, 360, 104
-0.992263, 73, 93, 136, 124
-0.992265, 361, 269, 424, 300
-0.992279, 249, 5, 312, 36
-0.992288, 385, 129, 448, 160
-0.99231, 385, 117, 448, 148
-0.992318, 329, 133, 392, 164
-0.992326, 233, 201, 296, 232
-0.992338, 33, 253, 96, 284
-0.992343, 209, 25, 272, 56
-0.99235, 269, 217, 300, 248
-0.992353, 105, 169, 168, 200
-0.992357, 321, 277, 384, 308
-0.992361, 249, 121, 280, 152
-0.992369, 409, 133, 472, 164
-0.992371, 121, 145, 152, 272
-0.992377, 401, 209, 464, 240
-0.992384, 289, 57, 352, 88
-0.992393, 1, 89, 128, 152
-0.992409, 345, 9, 408, 40
-0.992411, 313, 353, 376, 384
-0.99242, 337, 193, 400, 224
-0.992435, 249, 109, 280, 140
-0.992435, 305, 321, 368, 352
-0.992452, 281, 125, 344, 156
-0.992455, 81, 81, 144, 112
-0.992464, 1, 49, 64, 80
-0.992464, 377, 289, 440, 416
-0.992506, 81, 1, 208, 64
-0.992524, 65, 65, 320, 128
-0.992544, 373, 129, 404, 256
-0.992564, 345, 177, 376, 240
-0.992568, 49, 305, 80, 425
-0.992574, 257, 137, 288, 168
-0.992578, 277, 25, 308, 56
-0.992596, 309, 289, 340, 416
-0.992596, 313, 245, 344, 276
-0.99261, 261, 125, 292, 156
-0.992622, 353, 49, 384, 112
-0.992638, 305, 85, 336, 116
-0.992646, 237, 117, 268, 148
-0.992649, 429, 161, 460, 192
-0.992649, 225, 177, 480, 240
-0.992689, 377, 121, 408, 184
-0.992698, 321, 25, 448, 88
-0.992705, 417, 149, 448, 180
-0.992715, 353, 265, 384, 296
-0.992715, 241, 45, 272, 76
-0.992717, 433, 145, 464, 176
-0.992719, 29, 17, 60, 80
-0.992739, 469, 33, 500, 160
-0.992743, 393, 273, 424, 400
-0.992752, 281, 229, 312, 260
-0.992761, 337, 181, 368, 212
-0.992777, 261, 33, 292, 64
-0.992795, 305, 189, 336, 220
-0.992817, 293, 237, 324, 268
-0.992823, 269, 137, 300, 168
-0.992828, 317, 73, 348, 136
-0.992838, 281, 181, 312, 212
-0.992849, 353, 273, 480, 336
-0.992871, 405, 157, 436, 188
-0.992878, 245, 133, 276, 164
-0.992878, 421, 177, 452, 208
-0.992887, 289, 193, 320, 224
-0.99289, 289, 165, 320, 196
-0.99289, 321, 193, 352, 224
-0.992901, 393, 121, 424, 152
-0.99291, 289, 21, 320, 52
-0.992911, 241, 305, 368, 368
-0.992912, 273, 153, 304, 184
-0.992932, 425, 193, 456, 256
-0.99294, 253, 209, 284, 240
-0.99294, 413, 193, 444, 224
-0.992953, 93, 185, 124, 216
-0.99296, 353, 173, 384, 204
-0.992966, 317, 81, 348, 112
-0.992966, 333, 169, 364, 200
-0.992967, 445, 141, 476, 172
-0.992973, 209, 53, 240, 84
-0.992979, 257, 153, 288, 184
-0.992997, 1, 249, 256, 312
-0.993008, 293, 61, 324, 92
-0.993009, 333, 85, 364, 116
-0.993014, 225, 109, 256, 140
-0.993017, 213, 101, 244, 132
-0.993019, 181, 301, 212, 332
-0.993029, 137, 97, 200, 352
-0.993031, 305, 49, 336, 80
-0.99304, 261, 97, 292, 128
-0.993062, 325, 17, 356, 48
-0.993068, 345, 161, 376, 192
-0.993068, 333, 193, 364, 224
-0.993069, 221, 37, 252, 68
-0.993069, 261, 85, 292, 116
-0.993073, 333, 157, 364, 188
-0.993073, 305, 133, 336, 164
-0.993074, 337, 245, 368, 276
-0.993074, 225, 73, 256, 104
-0.993083, 25, 149, 56, 180
-0.993086, 261, 113, 292, 144
-0.993089, 321, 177, 352, 208
-0.99309, 281, 45, 312, 76
-0.993097, 261, 229, 292, 260
-0.993098, 417, 161, 448, 192
-0.993099, 241, 97, 272, 128
-0.993103, 241, 353, 368, 416
-0.993104, 201, 65, 232, 96
-0.993108, 9, 161, 40, 192
-0.993111, 293, 177, 324, 208
-0.993117, 269, 165, 300, 196
-0.993118, 325, 249, 356, 280
-0.993119, 317, 233, 348, 264
-0.993125, 357, 61, 388, 92
-0.993131, 305, 233, 336, 264
-0.993137, 229, 57, 260, 88
-0.99314, 77, 89, 108, 120
-0.993144, 353, 77, 384, 108
-0.993146, 357, 161, 388, 192
-0.993147, 369, 81, 400, 112
-0.993151, 37, 133, 68, 164
-0.993157, 129, 113, 256, 176
-0.993167, 101, 173, 132, 204
-0.993171, 373, 145, 404, 176
-0.993173, 293, 221, 324, 252
-0.993182, 317, 97, 348, 160
-0.993188, 209, 49, 336, 80
-0.99319, 317, 141, 348, 172
-0.993196, 345, 21, 376, 52
-0.9932, 245, 145, 276, 176
-0.993206, 353, 209, 384, 240
-0.993208, 201, 273, 232, 304
-0.993208, 193, 285, 224, 316
-0.993208, 393, 241, 456, 368
-0.993209, 337, 97, 368, 128
-0.993213, 413, 205, 444, 236
-0.993215, 461, 41, 492, 104
-0.993218, 381, 65, 412, 96
-0.993221, 25, 265, 56, 296
-0.993222, 5, 289, 36, 320
-0.993222, 113, 169, 144, 200
-0.993222, 241, 205, 272, 236
-0.993224, 305, 177, 336, 208
-0.993224, 65, 217, 96, 248
-0.993224, 45, 241, 76, 272
-0.993228, 305, 97, 336, 128
-0.99323, 365, 177, 396, 208
-0.993235, 257, 165, 288, 196
-0.993241, 281, 217, 312, 248
-0.993241, 313, 165, 344, 196
-0.993249, 49, 121, 80, 152
-0.993252, 93, 65, 124, 192
-0.993252, 409, 181, 440, 212
-0.993256, 281, 57, 312, 88
-0.993258, 293, 137, 324, 168
-0.993264, 1, 173, 32, 204
-0.993265, 353, 197, 384, 228
-0.993268, 13, 37, 44, 68
-0.993268, 205, 85, 236, 116
-0.993271, 233, 29, 264, 60
-0.993272, 349, 185, 380, 216
-0.993273, 93, 69, 124, 100
-0.99328, 293, 33, 324, 64
-0.993284, 249, 81, 280, 112
-0.993286, 73, 273, 104, 400
-0.993288, 297, 9, 328, 40
-0.993288, 253, 45, 284, 76
-0.993293, 161, 329, 192, 360
-0.993295, 65, 41, 320, 104
-0.993295, 121, 157, 152, 188
-0.993301, 301, 21, 332, 52
-0.993302, 321, 97, 352, 128
-0.993307, 441, 157, 472, 188
-0.993309, 1, 53, 32, 84
-0.993309, 225, 85, 256, 116
-0.993313, 81, 197, 112, 228
-0.993314, 377, 157, 408, 188
-0.993317, 405, 217, 436, 248
-0.993319, 269, 177, 300, 208
-0.993325, 285, 153, 316, 184
-0.993326, 393, 141, 424, 172
-0.993369, 349, 225, 380, 288
-0.993373, 97, 201, 352, 264
-0.993393, 361, 289, 392, 416
-0.993471, 365, 353, 396, 416
-0.993481, 295, 17, 310, 80
-0.9935, 105, 17, 168, 144
-0.993517, 377, 161, 440, 416
-0.993625, 201, 1, 232, 128
-0.993653, 97, 225, 352, 288
-0.993655, 385, 233, 416, 296
-0.993698, 353, 97, 384, 160
-0.993732, 121, 1, 184, 425
-0.993743, 73, 17, 104, 144
-0.993745, 225, 121, 480, 184
-0.993763, 177, 129, 240, 384
-0.993775, 301, 17, 316, 80
-0.993793, 65, 177, 320, 240
-0.993815, 21, 353, 52, 416
-0.993878, 89, 257, 120, 384
-0.993899, 105, 1, 168, 256
-0.993904, 25, 81, 88, 208
-0.993929, 177, 209, 240, 336
-0.993945, 209, 101, 336, 132
-0.993982, 369, 25, 496, 88
-0.99402, 129, 97, 384, 160
-0.994063, 245, 177, 276, 240
-0.99407, 301, 41, 316, 104
-0.994072, 257, 1, 500, 64
-0.994076, 65, 1, 320, 64
-0.994105, 225, 329, 352, 392
-0.994137, 263, 113, 278, 176
-0.994154, 287, 17, 302, 80
-0.994172, 1, 137, 256, 200
-0.994179, 113, 273, 176, 400
-0.994179, 1, 105, 500, 168
-0.994181, 437, 65, 468, 192
-0.994199, 209, 229, 336, 260
-0.994208, 453, 145, 484, 208
-0.994265, 41, 145, 104, 272
-0.994268, 213, 65, 244, 128
-0.994288, 1, 225, 256, 288
-0.994291, 33, 1, 64, 128
-0.994309, 97, 121, 352, 184
-0.994342, 1, 201, 500, 264
-0.994345, 241, 121, 368, 152
-0.994382, 189, 273, 220, 400
-0.994415, 257, 21, 384, 52
-0.994428, 161, 145, 416, 208
-0.994441, 209, 37, 336, 68
-0.994464, 1, 25, 500, 88
-0.994486, 379, 57, 394, 120
-0.994496, 381, 305, 412, 425
-0.994502, 369, 345, 496, 408
-0.994527, 227, 65, 242, 128
-0.994579, 73, 145, 104, 272
-0.994596, 241, 197, 368, 228
-0.994611, 105, 241, 136, 368
-0.994656, 13, 33, 44, 160
-0.994686, 361, 113, 392, 240
-0.994697, 209, 89, 336, 120
-0.994751, 263, 89, 278, 152
-0.994764, 161, 249, 416, 312
-0.99477, 49, 249, 176, 312
-0.994773, 1, 129, 500, 192
-0.994857, 225, 225, 480, 288
-0.994865, 225, 273, 256, 400
-0.994867, 1, 177, 500, 240
-0.994908, 361, 225, 392, 352
-0.994909, 209, 69, 336, 100
-0.994911, 305, 185, 432, 216
-0.99493, 307, 17, 322, 80
-0.994987, 255, 97, 270, 160
-0.994996, 21, 209, 52, 336
-0.995009, 225, 185, 352, 216
-0.995033, 305, 229, 432, 260
-0.995034, 93, 1, 124, 128
-0.995046, 389, 97, 420, 224
-0.995065, 307, 49, 322, 112
-0.995065, 261, 1, 292, 256
-0.995065, 445, 137, 460, 200
-0.9951, 73, 113, 136, 240
-0.995109, 243, 113, 258, 176
-0.99512, 61, 289, 92, 416
-0.995123, 81, 121, 208, 184
-0.995139, 373, 57, 388, 120
-0.995178, 249, 121, 264, 184
-0.995178, 255, 121, 270, 184
-0.995179, 373, 177, 404, 304
-0.995217, 241, 137, 368, 168
-0.995224, 373, 241, 404, 368
-0.995234, 241, 217, 368, 248
-0.995267, 1, 81, 500, 144
-0.995295, 1, 33, 32, 160
-0.995299, 295, 41, 310, 104
-0.99531, 265, 33, 280, 96
-0.995326, 313, 17, 328, 80
-0.995339, 1, 321, 256, 384
-0.99534, 241, 1, 272, 256
-0.995352, 1, 49, 500, 112
-0.995353, 193, 217, 320, 248
-0.99539, 281, 17, 296, 80
-0.995408, 61, 161, 92, 288
-0.995419, 1, 201, 256, 264
-0.99542, 225, 241, 352, 272
-0.995433, 345, 273, 376, 400
-0.995457, 417, 177, 432, 240
-0.995469, 257, 101, 384, 132
-0.995516, 299, 201, 314, 264
-0.995532, 261, 137, 276, 200
-0.995538, 231, 105, 246, 168
-0.995541, 1, 57, 128, 120
-0.995616, 209, 305, 272, 425
-0.995625, 455, 137, 470, 200
-0.995661, 277, 97, 308, 224
-0.99568, 275, 25, 290, 88
-0.99569, 37, 305, 68, 425
-0.995694, 427, 137, 442, 200
-0.995709, 289, 45, 416, 76
-0.995709, 425, 193, 456, 320
-0.995712, 193, 113, 224, 240
-0.995724, 461, 129, 492, 256
-0.995739, 185, 65, 216, 192
-0.995761, 1, 161, 128, 192
-0.995769, 305, 173, 432, 204
-0.995772, 153, 161, 216, 288
-0.995803, 89, 129, 120, 256
-0.995805, 257, 89, 384, 120
-0.995807, 225, 173, 352, 204
-0.995837, 439, 137, 454, 200
-0.995875, 225, 97, 240, 160
-0.995905, 353, 153, 480, 184
-0.99592, 305, 245, 432, 276
-0.995945, 145, 1, 208, 425
-0.995954, 161, 97, 288, 128
-0.995955, 1, 273, 256, 336
-0.995956, 97, 321, 224, 384
-0.995958, 305, 141, 432, 172
-0.995993, 81, 297, 208, 360
-0.995998, 325, 241, 340, 304
-0.996005, 177, 305, 304, 368
-0.996007, 289, 117, 416, 148
-0.996019, 429, 161, 444, 224
-0.996034, 269, 121, 284, 184
-0.996045, 249, 41, 264, 104
-0.996046, 275, 209, 290, 272
-0.996049, 295, 161, 310, 224
-0.99605, 423, 161, 438, 224
-0.996061, 1, 285, 128, 316
-0.996063, 437, 161, 452, 224
-0.99607, 347, 81, 362, 144
-0.996086, 225, 273, 480, 336
-0.996099, 161, 129, 288, 160
-0.996101, 33, 229, 160, 260
-0.996109, 259, 41, 274, 104
-0.996111, 129, 77, 256, 108
-0.996112, 237, 113, 252, 176
-0.996141, 33, 193, 64, 320
-0.99615, 273, 61, 400, 92
-0.996164, 137, 129, 168, 256
-0.99618, 311, 233, 326, 296
-0.996182, 17, 253, 144, 284
-0.996199, 289, 193, 304, 256
-0.996217, 365, 169, 380, 232
-0.996235, 367, 57, 382, 120
-0.996235, 101, 113, 132, 240
-0.996235, 333, 1, 364, 256
-0.996241, 401, 65, 432, 192
-0.996275, 231, 33, 246, 96
-0.996278, 331, 169, 346, 232
-0.99628, 401, 225, 432, 352
-0.996287, 49, 213, 176, 244
-0.996298, 213, 1, 244, 128
-0.996307, 49, 161, 80, 288
-0.996317, 257, 345, 500, 408
-0.996324, 239, 25, 254, 88
-0.996324, 233, 57, 248, 120
-0.996331, 9, 225, 40, 352
-0.996332, 1, 41, 128, 72
-0.996334, 273, 153, 400, 184
-0.996345, 417, 145, 432, 208
-0.996362, 161, 313, 416, 376
-0.996374, 213, 273, 244, 400
-0.996382, 289, 217, 416, 248
-0.996385, 293, 225, 308, 288
-0.996391, 225, 161, 352, 192
-0.996394, 305, 209, 320, 272
-0.996403, 129, 1, 192, 256
-0.996404, 273, 1, 304, 256
-0.996424, 433, 137, 448, 200
-0.996427, 385, 57, 400, 120
-0.996431, 289, 153, 304, 216
-0.99645, 145, 109, 272, 140
-0.996464, 253, 97, 284, 352
-0.996489, 309, 1, 340, 256
-0.996494, 97, 361, 224, 424
-0.996496, 321, 77, 448, 108
-0.996507, 477, 73, 492, 136
-0.99651, 239, 49, 254, 112
-0.996512, 307, 81, 322, 144
-0.99652, 277, 137, 292, 200
-0.996522, 209, 25, 336, 56
-0.996534, 321, 305, 352, 425
-0.996544, 353, 1, 384, 256
-0.996555, 241, 257, 368, 320
-0.996557, 411, 153, 426, 216
-0.996578, 319, 17, 334, 80
-0.996579, 315, 209, 330, 272
-0.996579, 1, 289, 500, 352
-0.996583, 161, 45, 288, 76
-0.996589, 369, 117, 496, 148
-0.996602, 221, 177, 252, 304
-0.99661, 161, 1, 416, 64
-0.996615, 323, 161, 338, 224
-0.996615, 165, 97, 196, 224
-0.996626, 1, 257, 500, 320
-0.996639, 209, 265, 224, 328
-0.996643, 17, 265, 144, 296
-0.996656, 247, 17, 262, 80
-0.996659, 313, 41, 328, 104
-0.996664, 409, 209, 424, 272
-0.996666, 321, 137, 336, 200
-0.996671, 17, 145, 144, 176
-0.99668, 483, 57, 498, 120
-0.996685, 377, 33, 392, 96
-0.996689, 65, 193, 192, 224
-0.996693, 285, 1, 316, 256
-0.996694, 161, 65, 288, 96
-0.996703, 301, 161, 316, 224
-0.996708, 317, 169, 332, 232
-0.996713, 31, 145, 46, 208
-0.996718, 349, 113, 364, 176
-0.99672, 305, 257, 432, 288
-0.996731, 49, 353, 176, 416
-0.996732, 33, 125, 160, 156
-0.996734, 357, 257, 372, 320
-0.996734, 47, 129, 62, 192
-0.996737, 267, 217, 282, 280
-0.99674, 367, 1, 382, 64
-0.996741, 305, 197, 432, 228
-0.996742, 353, 165, 480, 196
-0.996747, 33, 297, 288, 360
-0.996753, 41, 137, 56, 200
-0.99676, 209, 149, 336, 180
-0.996763, 353, 141, 480, 172
-0.996773, 203, 273, 218, 336
-0.996773, 221, 73, 236, 136
-0.996785, 321, 101, 448, 132
-0.996789, 299, 233, 314, 296
-0.996803, 305, 233, 320, 296
-0.996816, 357, 193, 372, 256
-0.99682, 285, 129, 300, 192
-0.996831, 287, 217, 302, 280
-0.996833, 161, 21, 288, 52
-0.996835, 55, 121, 70, 184
-0.99684, 271, 145, 286, 208
-0.996848, 457, 17, 488, 144
-0.996849, 109, 169, 124, 232
-0.996855, 117, 225, 148, 352
-0.996862, 283, 193, 298, 256
-0.996876, 253, 9, 268, 72
-0.996876, 259, 201, 274, 264
-0.996881, 371, 33, 386, 96
-0.996884, 225, 1, 256, 256
-0.99689, 1, 1, 500, 64
-0.996901, 303, 45, 318, 76
-0.996903, 301, 137, 316, 200
-0.996903, 319, 241, 334, 304
-0.996904, 369, 57, 496, 88
-0.996904, 61, 113, 76, 176
-0.996911, 257, 229, 384, 260
-0.996912, 351, 209, 366, 272
-0.996915, 341, 81, 356, 144
-0.996925, 323, 217, 338, 280
-0.996925, 375, 169, 390, 232
-0.996934, 455, 113, 470, 176
-0.996934, 21, 1, 52, 256
-0.996936, 343, 113, 358, 176
-0.996943, 33, 241, 160, 272
-0.996946, 65, 93, 192, 124
-0.996951, 1, 29, 128, 60
-0.996953, 369, 69, 496, 100
-0.996959, 255, 233, 270, 296
-0.996961, 217, 49, 232, 112
-0.996962, 397, 121, 412, 184
-0.996963, 15, 161, 30, 224
-0.996965, 379, 61, 394, 92
-0.996975, 297, 1, 328, 256
-0.996976, 369, 145, 384, 208
-0.996985, 353, 129, 480, 160
-0.996986, 303, 105, 318, 168
-0.996999, 89, 305, 152, 425
-0.997009, 263, 1, 278, 64
-0.997009, 237, 89, 252, 152
-0.997011, 327, 137, 342, 200
-0.997016, 263, 121, 278, 152
-0.99702, 9, 169, 24, 232
-0.997023, 85, 89, 100, 152
-0.997023, 23, 153, 38, 216
-0.997024, 269, 81, 284, 144
-0.997029, 257, 249, 500, 312
-0.997031, 225, 41, 240, 104
-0.997039, 365, 225, 380, 288
-0.99705, 243, 249, 258, 312
-0.997057, 49, 113, 176, 144
-0.997064, 145, 33, 272, 64
-0.997086, 289, 41, 304, 104
-0.997089, 309, 105, 324, 168
-0.997099, 225, 9, 352, 40
-0.997105, 119, 161, 134, 224
-0.997105, 79, 97, 94, 160
-0.997114, 81, 173, 208, 204
-0.997115, 69, 105, 84, 168
-0.997146, 359, 17, 374, 80
-0.997148, 9, 129, 40, 384
-0.997159, 1, 233, 500, 296
-0.997163, 281, 217, 296, 280
-0.997173, 193, 201, 320, 232
-0.997182, 271, 169, 286, 232
-0.997189, 331, 241, 346, 304
-0.997191, 315, 137, 330, 200
-0.997193, 325, 17, 340, 80
-0.997194, 3, 177, 18, 240
-0.997202, 299, 65, 314, 128
-0.997208, 193, 113, 320, 144
-0.997235, 273, 9, 400, 40
-0.99726, 61, 97, 92, 352
-0.997265, 305, 273, 432, 304
-0.997271, 353, 193, 480, 224
-0.997286, 321, 65, 448, 96
-0.99734, 353, 217, 480, 248
-0.997343, 17, 17, 144, 48
-0.997351, 241, 97, 272, 352
-0.997355, 257, 33, 384, 64
-0.997363, 321, 1, 352, 256
-0.997369, 289, 305, 416, 336
-0.997371, 33, 97, 64, 352
-0.997428, 177, 9, 304, 40
-0.99743, 273, 217, 288, 248
-0.997433, 257, 129, 272, 160
-0.99748, 369, 105, 496, 136
-0.997481, 257, 253, 384, 284
-0.99749, 257, 77, 384, 108
-0.9975, 353, 257, 480, 288
-0.997501, 295, 45, 310, 76
-0.997503, 289, 337, 416, 368
-0.997559, 263, 137, 278, 168
-0.997579, 249, 125, 264, 156
-0.997585, 65, 81, 192, 112
-0.997595, 9, 1, 40, 256
-0.99761, 289, 129, 416, 160
-0.997618, 373, 61, 388, 92
-0.997633, 129, 213, 256, 244
-0.997647, 81, 161, 112, 416
-0.997653, 321, 89, 448, 120
-0.997654, 353, 161, 384, 416
-0.997658, 305, 289, 432, 320
-0.997665, 353, 181, 480, 212
-0.997668, 33, 1, 160, 32
-0.997671, 419, 185, 434, 216
-0.99768, 1, 173, 128, 204
-0.997684, 289, 225, 304, 256
-0.997707, 73, 65, 104, 320
-0.997712, 213, 1, 244, 256
-0.997713, 321, 129, 352, 384
-0.997716, 279, 217, 294, 248
-0.997722, 353, 245, 480, 276
-0.997725, 193, 353, 320, 416
-0.997733, 81, 65, 208, 96
-0.997742, 263, 97, 278, 128
-0.997743, 1, 345, 256, 408
-0.997764, 425, 161, 488, 416
-0.997768, 305, 237, 320, 268
-0.997773, 289, 317, 416, 348
-0.997779, 309, 45, 324, 76
-0.997779, 37, 1, 68, 256
-0.997784, 269, 129, 284, 160
-0.997792, 337, 5, 464, 36
-0.997796, 229, 97, 260, 352
-0.997808, 329, 185, 344, 216
-0.997814, 273, 33, 288, 64
-0.997823, 113, 97, 240, 128
-0.997825, 265, 85, 280, 116
-0.997834, 273, 361, 400, 392
-0.997834, 259, 109, 274, 140
-0.997847, 161, 241, 288, 272
-0.99785, 357, 261, 372, 292
-0.997856, 107, 177, 122, 208
-0.997856, 265, 225, 280, 256
-0.997862, 453, 141, 468, 172
-0.99787, 21, 129, 52, 384
-0.997878, 325, 245, 340, 276
-0.997881, 1, 189, 128, 220
-0.997887, 319, 245, 334, 276
-0.997888, 229, 105, 244, 136
-0.997888, 445, 145, 460, 176
-0.997894, 161, 153, 288, 184
-0.997894, 281, 25, 296, 56
-0.997895, 285, 97, 316, 352
-0.997901, 33, 301, 160, 332
-0.997904, 235, 113, 250, 144
-0.997909, 145, 185, 272, 216
-0.997913, 161, 229, 288, 260
-0.997914, 193, 257, 320, 288
-0.997928, 297, 233, 312, 264
-0.997935, 17, 333, 144, 364
-0.997935, 145, 329, 272, 392
-0.997939, 307, 85, 322, 116
-0.997942, 97, 157, 224, 188
-0.997954, 299, 193, 314, 224
-0.997975, 423, 149, 438, 180
-0.997987, 225, 293, 352, 324
-0.997989, 49, 97, 80, 352
-0.99799, 409, 129, 440, 384
-0.997993, 313, 241, 328, 272
-0.998, 349, 93, 364, 124
-0.998005, 425, 177, 440, 208
-0.998006, 289, 181, 304, 212
-0.998017, 287, 21, 302, 52
-0.998018, 1, 349, 128, 380
-0.998022, 161, 337, 416, 400
-0.998025, 117, 165, 132, 196
-0.998026, 295, 181, 310, 212
-0.998026, 385, 65, 400, 96
-0.998027, 81, 249, 208, 280
-0.998035, 263, 149, 278, 180
-0.998037, 353, 229, 480, 260
-0.998046, 161, 141, 288, 172
-0.998048, 231, 61, 246, 92
-0.998048, 145, 293, 272, 324
-0.998049, 331, 249, 346, 280
-0.998059, 257, 297, 500, 360
-0.998072, 33, 317, 160, 348
-0.998074, 405, 113, 420, 144
-0.998078, 97, 229, 224, 260
-0.998081, 269, 141, 284, 172
-0.998081, 1, 361, 128, 392
-0.998082, 193, 277, 320, 308
-0.998085, 239, 53, 254, 84
-0.998086, 369, 93, 496, 124
-0.998087, 89, 33, 120, 288
-0.99809, 307, 185, 322, 216
-0.998093, 223, 101, 238, 132
-0.998105, 241, 117, 256, 148
-0.998109, 225, 69, 240, 100
-0.99811, 65, 277, 192, 308
-0.998117, 435, 145, 450, 176
-0.998117, 335, 193, 350, 224
-0.998118, 315, 185, 330, 216
-0.99812, 273, 349, 400, 380
-0.99812, 113, 133, 240, 164
-0.998121, 43, 137, 58, 168
-0.998122, 307, 57, 322, 88
-0.998125, 247, 45, 262, 76
-0.99813, 15, 165, 30, 196
-0.998131, 271, 153, 286, 184
-0.998134, 33, 145, 48, 176
-0.998137, 257, 41, 272, 72
-0.998141, 49, 129, 64, 160
-0.998142, 161, 173, 288, 204
-0.998146, 373, 97, 404, 352
-0.998148, 267, 33, 282, 64
-0.998149, 367, 61, 382, 92
-0.998152, 293, 21, 308, 52
-0.998155, 259, 77, 274, 108
-0.99816, 321, 189, 336, 220
-0.998164, 431, 169, 446, 200
-0.998165, 101, 129, 132, 384
-0.998166, 1, 313, 500, 376
-0.998171, 3, 177, 18, 208
-0.998175, 367, 173, 382, 204
-0.998177, 23, 157, 38, 188
-0.998188, 369, 205, 496, 236
-0.998197, 337, 325, 464, 356
-0.998199, 87, 89, 102, 120
-0.998201, 275, 141, 290, 172
-0.998205, 265, 97, 296, 352
-0.998208, 81, 265, 208, 296
-0.998211, 253, 105, 268, 136
-0.998211, 1, 153, 500, 216
-0.998212, 365, 265, 380, 296
-0.998217, 81, 53, 208, 84
-0.998221, 79, 97, 94, 128
-0.998225, 419, 161, 434, 192
-0.998227, 429, 145, 444, 176
-0.998228, 265, 213, 280, 244
-0.998228, 63, 229, 78, 260
-0.998236, 287, 209, 302, 240
-0.998241, 87, 201, 102, 232
-0.998242, 217, 97, 248, 352
-0.998246, 293, 161, 308, 192
-0.998249, 255, 237, 270, 268
-0.99825, 399, 117, 414, 148
-0.998251, 53, 241, 68, 272
-0.998254, 97, 189, 112, 220
-0.998261, 9, 173, 24, 204
-0.998262, 73, 217, 88, 248
-0.998265, 339, 177, 354, 208
-0.99827, 285, 137, 300, 168
-0.998272, 145, 261, 272, 292
-0.998272, 1, 377, 128, 408
-0.998277, 265, 109, 280, 140
-0.998278, 97, 273, 352, 336
-0.998279, 43, 253, 58, 284
-0.998289, 33, 265, 48, 296
-0.99829, 461, 65, 492, 320
-0.99829, 329, 81, 344, 112
-0.998292, 341, 161, 372, 416
-0.998303, 127, 153, 142, 184
-0.998309, 291, 149, 306, 180
-0.998309, 375, 73, 390, 104
-0.998309, 409, 217, 424, 248
-0.998323, 417, 197, 432, 228
-0.998324, 145, 273, 272, 304
-0.998332, 27, 273, 42, 304
-0.998334, 287, 169, 302, 200
-0.998335, 437, 161, 452, 192
-0.998339, 273, 213, 304, 228
-0.998339, 345, 177, 376, 192
-0.99834, 381, 161, 412, 176
-0.99834, 261, 97, 292, 112
-0.99834, 369, 175, 400, 190
-0.998341, 337, 113, 368, 128
-0.998343, 221, 83, 252, 98
-0.998343, 105, 183, 136, 198
-0.998344, 373, 155, 404, 170
-0.998345, 413, 203, 444, 218
-0.998346, 1, 181, 32, 196
-0.998346, 241, 139, 272, 154
-0.998346, 225, 71, 256, 86
-0.998346, 245, 149, 276, 164
-0.998348, 361, 79, 392, 94
-0.998348, 257, 237, 288, 252
-0.998349, 177, 311, 208, 326
-0.998349, 313, 243, 344, 258
-0.998351, 249, 103, 280, 118
-0.998351, 145, 201, 272, 232
-0.998351, 17, 165, 48, 180
-0.998351, 41, 137, 72, 152
-0.998352, 329, 179, 360, 194
-0.998352, 55, 121, 70, 152
-0.998352, 409, 215, 440, 230
-0.998353, 93, 197, 124, 212
-0.998353, 257, 155, 288, 170
-0.998353, 353, 183, 384, 198
-0.998354, 97, 191, 128, 206
-0.998354, 297, 139, 328, 154
-0.998354, 237, 57, 268, 72
-0.998355, 317, 201, 348, 216
-0.998355, 221, 77, 252, 92
-0.998356, 273, 149, 304, 164
-0.998356, 265, 129, 296, 144
-0.998356, 365, 1, 396, 256
-0.998356, 3, 301, 18, 332
-0.998359, 229, 65, 260, 80
-0.99836, 81, 97, 112, 112
-0.998362, 309, 197, 324, 228
-0.998362, 209, 59, 240, 74
-0.998362, 369, 45, 496, 76
-0.998363, 349, 263, 380, 278
-0.998363, 237, 105, 268, 120
-0.998363, 217, 53, 248, 68
-0.998363, 293, 23, 324, 38
-0.998364, 261, 91, 292, 106
-0.998365, 277, 55, 308, 70
-0.998365, 337, 197, 368, 212
-0.998366, 337, 93, 368, 108
-0.998367, 81, 209, 96, 240
-0.998367, 261, 113, 292, 128
-0.998367, 293, 43, 324, 58
-0.998368, 353, 293, 480, 324
-0.998369, 129, 155, 160, 170
-0.998369, 333, 163, 364, 178
-0.99837, 321, 105, 352, 120
-0.998371, 429, 169, 460, 184
-0.998371, 433, 147, 464, 162
-0.998371, 325, 85, 356, 100
-0.998371, 337, 191, 368, 206
-0.998372, 261, 41, 292, 56
-0.998372, 13, 289, 28, 320
-0.998372, 29, 151, 60, 166
-0.998373, 205, 69, 236, 84
-0.998375, 417, 149, 432, 180
-0.998376, 365, 59, 396, 74
-0.998376, 241, 211, 272, 226
-0.998377, 293, 233, 324, 248
-0.998378, 373, 77, 404, 92
-0.998379, 261, 85, 292, 100
-0.99838, 421, 179, 452, 194
-0.998382, 225, 45, 256, 60
-0.998382, 19, 281, 34, 312
-0.998383, 293, 167, 324, 182
-0.998384, 417, 189, 448, 204
-0.998384, 257, 321, 500, 384
-0.998386, 269, 169, 300, 184
-0.998386, 329, 21, 360, 36
-0.998386, 213, 105, 244, 120
-0.998386, 295, 61, 310, 92
-0.998386, 37, 143, 68, 158
-0.998389, 273, 141, 304, 156
-0.99839, 257, 167, 288, 182
-0.99839, 337, 255, 368, 270
-0.99839, 317, 189, 348, 204
-0.998392, 289, 63, 320, 78
-0.998393, 299, 165, 314, 196
-0.998393, 281, 183, 312, 198
-0.998394, 9, 173, 40, 188
-0.998395, 241, 51, 272, 66
-0.998397, 229, 115, 260, 130
-0.998397, 277, 161, 308, 176
-0.998397, 459, 133, 474, 164
-0.998398, 301, 245, 332, 260
-0.998399, 265, 231, 296, 246
-0.998401, 313, 171, 344, 186
-0.998402, 443, 161, 458, 192
-0.998403, 217, 111, 248, 126
-0.998404, 247, 113, 262, 144
-0.998405, 289, 239, 320, 254
-0.998406, 305, 103, 336, 118
-0.998407, 445, 143, 476, 158
-0.998408, 305, 189, 336, 204
-0.998414, 297, 217, 312, 248
-0.998414, 369, 77, 384, 108
-0.998415, 71, 105, 86, 136
-0.998415, 273, 29, 304, 44
-0.998415, 257, 161, 288, 176
-0.998416, 301, 57, 332, 72
-0.998416, 357, 177, 388, 192
-0.998417, 261, 149, 292, 164
-0.998419, 413, 195, 444, 210
-0.998419, 397, 121, 428, 136
-0.99842, 341, 185, 372, 200
-0.998421, 349, 165, 364, 196
-0.998423, 285, 189, 316, 204
-0.998423, 319, 233, 334, 264
-0.998423, 333, 169, 348, 200
-0.998426, 65, 113, 80, 144
-0.998429, 305, 93, 336, 108
-0.998429, 317, 81, 332, 112
-0.998429, 353, 269, 384, 284
-0.99843, 265, 35, 296, 50
-0.998431, 273, 155, 304, 170
-0.998431, 341, 189, 356, 220
-0.998433, 449, 97, 480, 352
-0.998433, 339, 241, 354, 272
-0.998434, 359, 165, 374, 196
-0.998435, 293, 195, 324, 210
-0.998438, 301, 97, 332, 352
-0.998441, 219, 89, 234, 120
-0.998441, 253, 137, 284, 152
-0.998441, 417, 153, 448, 168
-0.998443, 265, 135, 296, 150
-0.998444, 237, 121, 268, 136
-0.998445, 281, 231, 312, 246
-0.998451, 253, 215, 284, 230
-0.998453, 313, 83, 344, 98
-0.998454, 325, 195, 356, 210
-0.998455, 249, 45, 280, 60
-0.998457, 337, 17, 352, 48
-0.998459, 281, 195, 344, 210
-0.998462, 241, 127, 272, 142
-0.998465, 397, 157, 428, 172
-0.998466, 249, 249, 264, 280
-0.998466, 317, 249, 348, 264
-0.998468, 417, 161, 448, 176
-0.99847, 269, 219, 300, 234
-0.998473, 249, 233, 312, 248
-0.998474, 433, 163, 464, 178
-0.998478, 245, 111, 276, 126
-0.998486, 289, 55, 320, 70
-0.998487, 261, 143, 292, 158
-0.99849, 249, 227, 312, 242
-0.998491, 301, 239, 332, 254
-0.998494, 281, 23, 312, 38
-0.998498, 241, 45, 304, 60
-0.998506, 309, 137, 340, 152
-0.998513, 253, 131, 284, 146
-0.998514, 393, 159, 456, 174
-0.998517, 273, 23, 336, 38
-0.998519, 305, 197, 336, 212
-0.998526, 289, 189, 352, 204
-0.998529, 313, 195, 376, 210
-0.998536, 209, 87, 272, 102
-0.998538, 361, 71, 424, 86
-0.99854, 289, 139, 352, 154
-0.998541, 297, 85, 360, 100
-0.998543, 233, 217, 296, 232
-0.998544, 265, 49, 328, 64
-0.998546, 257, 39, 320, 54
-0.998547, 369, 71, 400, 86
-0.99855, 369, 65, 400, 80
-0.99855, 225, 123, 288, 138
-0.99855, 253, 125, 284, 140
-0.998551, 233, 131, 296, 146
-0.998554, 409, 149, 472, 164
-0.998555, 361, 65, 424, 80
-0.998555, 313, 95, 376, 110
-0.998555, 209, 81, 272, 96
-0.998557, 177, 95, 240, 110
-0.998559, 225, 113, 288, 128
-0.99856, 337, 65, 400, 80
-0.99856, 177, 85, 240, 100
-0.99856, 269, 225, 300, 240
-0.998561, 329, 77, 392, 92
-0.998561, 313, 241, 376, 256
-0.998563, 177, 79, 240, 94
-0.998563, 321, 201, 384, 216
-0.998567, 289, 247, 352, 262
-0.998571, 225, 107, 288, 122
-0.998572, 249, 117, 280, 132
-0.998572, 313, 247, 376, 262
-0.998572, 217, 75, 280, 90
-0.998575, 201, 121, 264, 136
-0.998577, 257, 143, 320, 158
-0.998579, 225, 101, 288, 116
-0.998581, 265, 55, 328, 70
-0.998582, 305, 105, 368, 120
-0.998582, 257, 135, 320, 150
-0.998586, 201, 111, 264, 126
-0.998587, 329, 189, 392, 204
-0.998587, 233, 51, 296, 66
-0.998588, 297, 113, 360, 128
-0.998588, 261, 81, 276, 208
-0.998589, 429, 33, 460, 288
-0.998589, 321, 267, 384, 282
-0.99859, 329, 163, 392, 178
-0.998592, 257, 239, 320, 254
-0.998592, 217, 93, 280, 108
-0.998594, 421, 129, 452, 384
-0.998596, 265, 167, 328, 182
-0.998597, 289, 233, 352, 248
-0.998598, 265, 29, 328, 44
-0.998598, 265, 107, 328, 122
-0.998599, 225, 223, 288, 238
-0.9986, 313, 21, 376, 36
-0.9986, 225, 39, 288, 54
-0.9986, 289, 49, 352, 64
-0.998601, 185, 67, 248, 82
-0.998604, 185, 103, 248, 118
-0.998607, 289, 95, 352, 110
-0.998607, 241, 189, 304, 204
-0.998607, 289, 253, 352, 268
-0.998607, 249, 159, 312, 174
-0.998609, 369, 155, 432, 170
-0.99861, 369, 161, 432, 176
-0.998612, 225, 63, 288, 78
-0.998613, 233, 137, 296, 152
-0.998614, 265, 101, 328, 116
-0.998614, 265, 95, 328, 110
-0.998616, 289, 167, 352, 182
-0.998616, 337, 83, 400, 98
-0.998617, 313, 253, 376, 268
-0.998618, 249, 149, 312, 164
-0.998618, 265, 87, 328, 102
-0.998618, 209, 129, 272, 144
-0.998619, 233, 29, 296, 44
-0.998619, 209, 47, 272, 62
-0.998619, 337, 71, 400, 86
-0.998619, 265, 61, 328, 76
-0.99862, 217, 69, 280, 84
-0.99862, 185, 73, 248, 88
-0.998621, 297, 55, 360, 70
-0.998621, 265, 221, 328, 236
-0.998622, 401, 191, 464, 206
-0.998623, 293, 49, 324, 64
-0.998623, 225, 57, 288, 72
-0.998629, 1, 177, 64, 192
-0.998629, 329, 183, 392, 198
-0.99863, 289, 239, 352, 254
-0.99863, 265, 115, 328, 130
-0.99863, 401, 205, 464, 220
-0.998631, 201, 59, 264, 74
-0.998632, 417, 143, 480, 158
-0.998632, 265, 129, 328, 144
-0.998632, 233, 23, 296, 38
-0.998632, 265, 215, 328, 230
-0.998633, 401, 181, 464, 196
-0.998634, 401, 213, 464, 228
-0.998635, 201, 41, 264, 56
-0.998635, 361, 217, 424, 232
-0.998637, 329, 177, 392, 192
-0.998637, 361, 77, 424, 92
-0.998638, 289, 201, 352, 216
-0.998638, 289, 157, 352, 172
-0.998639, 345, 157, 408, 172
-0.998639, 265, 77, 328, 92
-0.99864, 1, 171, 64, 186
-0.99864, 73, 215, 136, 230
-0.998641, 289, 183, 352, 198
-0.998641, 17, 153, 80, 168
-0.998641, 361, 201, 424, 216
-0.998641, 25, 145, 88, 160
-0.998643, 305, 133, 368, 148
-0.998644, 361, 59, 424, 74
-0.998645, 401, 165, 464, 180
-0.998645, 353, 239, 416, 254
-0.998645, 241, 197, 304, 212
-0.998646, 321, 171, 384, 186
-0.998647, 313, 235, 376, 250
-0.998647, 241, 173, 304, 188
-0.998648, 321, 261, 384, 276
-0.998648, 361, 265, 424, 280
-0.998649, 361, 209, 424, 224
-0.99865, 73, 209, 136, 224
-0.99865, 297, 173, 360, 188
-0.998651, 217, 231, 280, 246
-0.998652, 265, 123, 328, 138
-0.998652, 249, 179, 312, 194
-0.998653, 201, 53, 264, 68
-0.998653, 281, 227, 344, 242
-0.998656, 9, 163, 72, 178
-0.998656, 273, 175, 336, 190
-0.998659, 361, 271, 424, 286
-0.998688, 201, 33, 232, 288
-0.998692, 255, 33, 270, 160
-0.99871, 231, 49, 246, 176
-0.99874, 303, 1, 318, 128
-0.998745, 321, 1, 336, 128
-0.998751, 239, 49, 254, 176
-0.998776, 269, 17, 284, 144
-0.998786, 297, 1, 312, 128
-0.998798, 263, 33, 278, 160
-0.998817, 365, 1, 380, 128
-0.998832, 389, 1, 420, 256
-0.998848, 327, 1, 342, 128
-0.998852, 377, 1, 408, 256
-0.998888, 251, 113, 266, 240
-0.998917, 313, 1, 328, 128
-0.998921, 339, 1, 354, 128
-0.998924, 247, 33, 262, 160
-0.998965, 333, 1, 348, 128
-0.998989, 291, 1, 306, 128
-0.999011, 125, 97, 156, 352
-0.999018, 345, 1, 360, 128
-0.999023, 113, 65, 144, 320
-0.999051, 301, 177, 316, 304
-0.999069, 225, 49, 240, 176
-0.999078, 257, 129, 272, 256
-0.999085, 303, 65, 318, 192
-0.999089, 283, 17, 298, 144
-0.9991, 263, 145, 278, 272
-0.999115, 347, 113, 362, 240
-0.999116, 137, 97, 168, 352
-0.999124, 289, 145, 304, 272
-0.999144, 359, 17, 374, 144
-0.999145, 49, 1, 80, 256
-0.999145, 449, 1, 480, 256
-0.999146, 331, 177, 346, 304
-0.999147, 219, 49, 234, 176
-0.999154, 273, 145, 288, 272
-0.999158, 189, 1, 220, 256
-0.999166, 325, 193, 340, 320
-0.999173, 351, 17, 366, 144
-0.999187, 275, 17, 290, 144
-0.999188, 417, 161, 432, 288
-0.999195, 347, 65, 362, 192
-0.999201, 407, 113, 422, 240
-0.999208, 333, 241, 348, 368
-0.999212, 233, 97, 248, 224
-0.999214, 245, 97, 260, 224
-0.999215, 251, 161, 266, 288
-0.999221, 401, 33, 432, 288
-0.999222, 439, 145, 454, 272
-0.999223, 427, 129, 442, 256
-0.999226, 295, 145, 310, 272
-0.999229, 313, 49, 328, 176
-0.99923, 355, 177, 370, 304
-0.999242, 111, 161, 126, 288
-0.999242, 307, 225, 322, 352
-0.999247, 371, 1, 386, 128
-0.999248, 353, 97, 368, 224
-0.999253, 341, 97, 356, 224
-0.999259, 347, 161, 362, 288
-0.999263, 99, 177, 114, 304
-0.999263, 245, 193, 260, 320
-0.999266, 369, 177, 384, 304
-0.99927, 283, 129, 298, 256
-0.999288, 239, 97, 254, 224
-0.999295, 449, 113, 464, 240
-0.999301, 307, 161, 322, 288
-0.999304, 377, 33, 392, 160
-0.999308, 267, 81, 282, 208
-0.99931, 327, 241, 342, 368
-0.999313, 227, 97, 242, 224
-0.999314, 433, 129, 448, 256
-0.999318, 87, 193, 102, 320
-0.999318, 305, 113, 320, 240
-0.999329, 329, 129, 344, 256
-0.999333, 273, 209, 288, 336
-0.999336, 341, 225, 356, 352
-0.999338, 203, 65, 218, 192
-0.999341, 433, 129, 464, 384
-0.999342, 35, 257, 50, 384
-0.999344, 75, 209, 90, 336
-0.999345, 59, 225, 74, 352
-0.999345, 235, 1, 250, 128
-0.99935, 235, 209, 250, 336
-0.999351, 145, 1, 176, 256
-0.999355, 315, 177, 330, 304
-0.999359, 339, 177, 354, 304
-0.999365, 361, 177, 376, 304
-0.999366, 101, 33, 132, 288
-0.999366, 45, 241, 60, 368
-0.999366, 321, 65, 336, 192
-0.999366, 229, 1, 244, 128
-0.999369, 455, 129, 470, 256
-0.99937, 25, 273, 40, 400
-0.99937, 329, 65, 344, 192
-0.999371, 411, 177, 426, 304
-0.999371, 279, 209, 294, 336
-0.999371, 19, 273, 34, 400
-0.999372, 87, 33, 102, 160
-0.999377, 83, 81, 98, 208
-0.999377, 481, 49, 496, 176
-0.99938, 365, 225, 380, 352
-0.999385, 53, 113, 68, 240
-0.999387, 323, 129, 338, 256
-0.99939, 349, 209, 364, 336
-0.999391, 33, 129, 48, 256
-0.999393, 295, 209, 310, 336
-0.999394, 243, 241, 258, 368
-0.999398, 13, 289, 28, 416
-0.999399, 297, 49, 312, 176
-0.999406, 9, 161, 24, 288
-0.999408, 457, 81, 472, 208
-0.999409, 39, 129, 54, 256
-0.99941, 93, 193, 108, 320
-0.999416, 417, 113, 432, 240
-0.999421, 375, 81, 390, 208
-0.999422, 335, 65, 350, 192
-0.999429, 3, 289, 18, 416
-0.999435, 69, 97, 84, 224
-0.999436, 65, 225, 80, 352
-0.999436, 51, 241, 66, 368
-0.999438, 105, 177, 120, 304
-0.999438, 311, 113, 326, 240
-0.999439, 81, 209, 96, 336
-0.999442, 121, 161, 136, 288
-0.99945, 267, 209, 282, 336
-0.99945, 273, 97, 288, 224
-0.999451, 321, 241, 336, 368
-0.999453, 241, 1, 256, 128
-0.999456, 3, 161, 18, 288
-0.999457, 423, 177, 438, 304
-0.999459, 315, 225, 330, 352
-0.99946, 47, 113, 62, 240
-0.99946, 335, 113, 350, 240
-0.999464, 289, 193, 304, 320
-0.999465, 463, 113, 478, 240
-0.999468, 25, 145, 40, 272
-0.99947, 103, 241, 118, 368
-0.99947, 471, 81, 486, 208
-0.999471, 205, 129, 236, 384
-0.999472, 445, 161, 460, 288
-0.999472, 251, 225, 266, 352
-0.999473, 77, 81, 92, 208
-0.999537, 145, 353, 272, 416
-0.999551, 385, 129, 416, 384
-0.999556, 219, 97, 234, 112
-0.999558, 429, 159, 444, 174
-0.999559, 283, 229, 298, 244
-0.99956, 407, 121, 422, 136
-0.99956, 351, 103, 366, 118
-0.999561, 301, 187, 316, 202
-0.999561, 417, 179, 432, 194
-0.999561, 273, 133, 288, 148
-0.999561, 297, 57, 312, 72
-0.999561, 269, 153, 284, 168
-0.999562, 333, 199, 348, 214
-0.999562, 251, 251, 266, 266
-0.999562, 375, 155, 390, 170
-0.999562, 447, 159, 462, 174
-0.999563, 41, 139, 56, 154
-0.999564, 301, 233, 316, 248
-0.999565, 23, 161, 38, 176
-0.999566, 269, 221, 284, 236
-0.999566, 55, 125, 70, 140
-0.999567, 17, 167, 32, 182
-0.999567, 5, 179, 20, 194
-0.999567, 289, 183, 304, 198
-0.999568, 349, 113, 364, 128
-0.999568, 93, 87, 108, 102
-0.999568, 37, 147, 52, 162
-0.999569, 231, 67, 246, 82
-0.99957, 283, 183, 298, 198
-0.99957, 29, 153, 44, 168
-0.999571, 423, 185, 438, 200
-0.999571, 317, 101, 332, 116
-0.999572, 143, 143, 158, 158
-0.999573, 423, 151, 438, 166
-0.999573, 293, 189, 308, 204
-0.999574, 87, 93, 102, 108
-0.999575, 227, 73, 242, 88
-0.999575, 113, 177, 128, 192
-0.999575, 257, 211, 272, 226
-0.999577, 373, 61, 388, 76
-0.999577, 269, 159, 284, 174
-0.999578, 397, 161, 428, 416
-0.999578, 305, 61, 320, 76
-0.999578, 273, 143, 288, 158
-0.999578, 335, 193, 350, 208
-0.999578, 313, 55, 328, 70
-0.999579, 259, 89, 274, 104
-0.99958, 295, 21, 310, 36
-0.99958, 413, 33, 444, 288
-0.999581, 371, 175, 386, 190
-0.999582, 419, 193, 434, 208
-0.999584, 449, 145, 464, 160
-0.999584, 299, 239, 314, 254
-0.999585, 311, 85, 326, 100
-0.999585, 121, 169, 136, 184
-0.999585, 369, 67, 384, 82
-0.999586, 279, 31, 294, 46
-0.999586, 115, 171, 130, 186
-0.999588, 135, 151, 150, 166
-0.999588, 265, 85, 280, 100
-0.99959, 401, 121, 416, 136
-0.999591, 417, 153, 432, 168
-0.999592, 287, 223, 302, 238
-0.999592, 291, 161, 306, 176
-0.999593, 255, 241, 270, 256
-0.999595, 455, 141, 470, 156
-0.999595, 343, 111, 358, 126
-0.999595, 261, 107, 276, 122
-0.999595, 409, 157, 424, 172
-0.999596, 129, 159, 144, 174
-0.999598, 281, 223, 296, 238
-0.999598, 233, 61, 248, 76
-0.999598, 241, 119, 256, 134
-0.999599, 367, 269, 382, 284
-0.999599, 239, 55, 254, 70
-0.9996, 311, 105, 326, 120
-0.9996, 259, 83, 274, 98
-0.9996, 307, 95, 322, 110
-0.9996, 107, 183, 122, 198
-0.999605, 309, 49, 324, 64
-0.999606, 289, 23, 304, 38
-0.999607, 173, 1, 204, 256
-0.999611, 223, 103, 238, 118
-0.999612, 273, 33, 288, 48
-0.999612, 263, 99, 278, 114
-0.999613, 297, 47, 312, 62
-0.999614, 263, 213, 278, 228
-0.999615, 261, 41, 276, 56
-0.999615, 319, 197, 334, 212
-0.999616, 433, 169, 448, 184
-0.999616, 321, 135, 336, 150
-0.999617, 255, 119, 270, 134
-0.999617, 275, 215, 290, 230
-0.999617, 263, 115, 278, 130
-0.999618, 311, 243, 326, 258
-0.999619, 295, 233, 310, 248
-0.99962, 249, 47, 264, 62
-0.999621, 309, 197, 324, 212
-0.999621, 267, 143, 282, 158
-0.999623, 247, 125, 262, 140
-0.999623, 231, 111, 246, 126
-0.999623, 373, 73, 388, 88
-0.999627, 261, 237, 276, 252
-0.999627, 265, 91, 280, 106
-0.999628, 255, 45, 270, 60
-0.999629, 263, 149, 278, 164
-0.999629, 271, 227, 286, 242
-0.999633, 437, 163, 452, 178
-0.999634, 427, 173, 442, 188
-0.999637, 283, 25, 298, 40
-0.999637, 303, 47, 318, 62
-0.999638, 417, 187, 432, 202
-0.99964, 261, 131, 276, 146
-0.999642, 267, 37, 282, 52
-0.999643, 325, 249, 340, 264
-0.999645, 357, 263, 372, 278
-0.999645, 259, 141, 274, 156
-0.999646, 405, 115, 420, 130
-0.999647, 251, 131, 266, 146
-0.999647, 423, 179, 438, 194
-0.999648, 189, 97, 220, 352
-0.999649, 301, 195, 316, 210
-0.999649, 303, 55, 318, 70
-0.999651, 329, 193, 344, 208
-0.999653, 265, 125, 280, 140
-0.999657, 269, 215, 284, 230
-0.999658, 267, 133, 282, 148
-0.999661, 317, 245, 332, 260
-0.999661, 161, 361, 416, 424
-0.999663, 315, 135, 330, 150
-0.999668, 379, 63, 394, 78
-0.999668, 265, 231, 280, 246
-0.999674, 331, 251, 346, 266
-0.999681, 161, 65, 192, 320
-0.999683, 305, 241, 320, 256
-0.999685, 259, 125, 274, 140
-0.999697, 289, 229, 304, 244
-0.999723, 125, 1, 156, 256
-0.999742, 275, 221, 290, 236
-0.999946, 149, 97, 180, 352
-0.999975, 113, 161, 144, 416
-1.00007, 161, 161, 192, 416
-1.00033, 177, 129, 208, 384
-1.00036, 469, 161, 500, 416
-1.0004, 61, 1, 92, 256
-1.00057, 121, 65, 184, 192
-1.00098, 1, 337, 500, 400
-1.00181, 249, 305, 312, 425
-1.00226, 1, 361, 500, 424
-1.00268, 433, 289, 496, 416
-1.00289, 433, 225, 496, 352
-1.00529, 409, 305, 472, 425
-1.01079, 249, 257, 312, 384
