1968
-0.602978, 1, 129, 500, 375
-0.615208, 1, 33, 500, 288
-0.626115, 129, 1, 384, 375
-0.671968, 1, 1, 500, 375
-0.731399, 1, 1, 256, 375
-0.827034, 225, 1, 480, 375
-0.828421, 97, 65, 352, 320
-0.870135, 1, 65, 256, 320
-0.879584, 177, 1, 304, 375
-0.905276, 225, 1, 352, 375
-0.909335, 193, 65, 448, 320
-0.916918, 257, 129, 384, 375
-0.917888, 161, 33, 288, 288
-0.920588, 193, 129, 320, 375
-0.928673, 129, 1, 256, 375
-0.929102, 1, 145, 500, 272
-0.931536, 113, 65, 240, 320
-0.931849, 305, 129, 432, 375
-0.932242, 289, 1, 416, 375
-0.932498, 65, 1, 192, 256
-0.935759, 49, 1, 176, 375
-0.939115, 241, 33, 368, 288
-0.9405, 65, 97, 192, 352
-0.944806, 1, 49, 500, 176
-0.946633, 97, 113, 352, 240
-0.946829, 217, 33, 280, 160
-0.949281, 193, 97, 448, 224
-0.950261, 17, 1, 144, 256
-0.952351, 97, 65, 352, 192
-0.952418, 353, 129, 480, 375
-0.952945, 153, 81, 216, 208
-0.953301, 225, 145, 480, 272
-0.953824, 1, 97, 500, 224
-0.955171, 1, 1, 128, 375
-0.956687, 257, 129, 320, 256
-0.957437, 369, 1, 496, 375
-0.958351, 289, 33, 416, 288
-0.958464, 1, 225, 500, 352
-0.959205, 193, 49, 320, 176
-0.959944, 241, 113, 368, 240
-0.96051, 345, 97, 408, 224
-0.960873, 161, 113, 224, 176
-0.961124, 353, 161, 416, 288
-0.96122, 233, 161, 296, 288
-0.961429, 289, 97, 416, 224
-0.961481, 313, 129, 376, 256
-0.961537, 257, 81, 320, 208
-0.961793, 185, 49, 248, 176
-0.962063, 129, 121, 192, 184
-0.962535, 129, 97, 192, 224
-0.962616, 225, 129, 288, 192
-0.962929, 225, 113, 288, 240
-0.96394, 281, 113, 344, 240
-0.964073, 305, 145, 368, 208
-0.964169, 257, 129, 320, 192
-0.964264, 65, 161, 320, 288
-0.964419, 217, 193, 280, 256
-0.964527, 161, 113, 288, 240
-0.965083, 193, 161, 320, 288
-0.965733, 257, 177, 320, 304
-0.965792, 145, 65, 272, 192
-0.966155, 17, 97, 144, 352
-0.966654, 217, 65, 280, 128
-0.967685, 353, 33, 480, 288
-0.967822, 241, 169, 304, 232
-0.967872, 265, 153, 328, 216
-0.968747, 65, 81, 192, 208
-0.969193, 289, 145, 416, 272
-0.969439, 289, 121, 352, 184
-0.969951, 241, 161, 368, 288
-0.969965, 153, 89, 216, 152
-0.970009, 57, 49, 120, 112
-0.970113, 193, 209, 320, 336
-0.970249, 265, 177, 328, 240
-0.970293, 169, 65, 232, 128
-0.970439, 89, 65, 152, 192
-0.970581, 225, 41, 288, 104
-0.970884, 345, 169, 408, 232
-0.971075, 241, 65, 368, 192
-0.971109, 257, 209, 320, 272
-0.971144, 193, 193, 448, 320
-0.971183, 241, 33, 304, 160
-0.972111, 281, 161, 344, 288
-0.972137, 257, 225, 320, 352
-0.972142, 217, 153, 280, 216
-0.972244, 153, 33, 216, 160
-0.972531, 185, 105, 248, 168
-0.972564, 129, 81, 192, 144
-0.972635, 265, 105, 328, 168
-0.973107, 185, 97, 248, 224
-0.973979, 201, 129, 264, 192
-0.97412, 329, 129, 392, 192
-0.974162, 241, 209, 368, 336
-0.974837, 241, 105, 304, 168
-0.974882, 209, 177, 272, 304
-0.975029, 173, 113, 204, 176
-0.975237, 89, 81, 152, 144
-0.975333, 1, 81, 256, 208
-0.975364, 121, 153, 184, 216
-0.975391, 321, 105, 384, 168
-0.975396, 113, 113, 240, 176
-0.975639, 257, 233, 320, 296
-0.975684, 97, 33, 224, 160
-0.975833, 161, 137, 224, 200
-0.975879, 161, 121, 288, 184
-0.97601, 97, 145, 224, 272
-0.976075, 289, 177, 352, 240
-0.976131, 129, 49, 192, 176
-0.976297, 193, 41, 256, 104
-0.976682, 1, 33, 256, 160
-0.976701, 133, 121, 164, 184
-0.976779, 249, 57, 312, 120
-0.977053, 209, 129, 336, 192
-0.977407, 185, 1, 248, 128
-0.977612, 161, 129, 224, 256
-0.977646, 241, 305, 304, 368
-0.977737, 145, 17, 272, 144
-0.977812, 249, 33, 280, 160
-0.977916, 1, 1, 500, 128
-0.978071, 105, 113, 168, 176
-0.978221, 321, 81, 384, 208
-0.9783, 257, 137, 384, 200
-0.97849, 193, 33, 448, 160
-0.978767, 297, 177, 328, 240
-0.978989, 337, 81, 464, 208
-0.979361, 181, 73, 212, 136
-0.979484, 17, 49, 144, 176
-0.979494, 261, 65, 292, 128
-0.979516, 297, 153, 328, 216
-0.979536, 209, 89, 272, 152
-0.979552, 161, 113, 192, 176
-0.979591, 145, 113, 176, 176
-0.979738, 241, 33, 272, 96
-0.979979, 189, 113, 220, 176
-0.980015, 225, 169, 352, 232
-0.980267, 289, 201, 352, 264
-0.980481, 233, 241, 296, 368
-0.980536, 169, 89, 200, 152
-0.980734, 161, 145, 288, 208
-0.980865, 265, 129, 296, 192
-0.980951, 193, 57, 320, 120
-0.980956, 185, 177, 248, 240
-0.981002, 253, 41, 284, 104
-0.981059, 181, 65, 212, 192
-0.981116, 277, 129, 308, 192
-0.981123, 165, 97, 196, 224
-0.981129, 257, 17, 384, 144
-0.981176, 313, 153, 344, 216
-0.981186, 65, 137, 192, 200
-0.981269, 113, 145, 176, 272
-0.981283, 289, 161, 416, 224
-0.981367, 145, 41, 208, 104
-0.9814, 265, 49, 296, 176
-0.981534, 321, 169, 384, 232
-0.981536, 193, 193, 320, 256
-0.981577, 377, 161, 440, 288
-0.981703, 217, 33, 280, 288
-0.981706, 261, 129, 292, 256
-0.982024, 269, 177, 300, 240
-0.982099, 81, 41, 144, 104
-0.982171, 257, 81, 320, 144
-0.982388, 233, 281, 296, 344
-0.98253, 361, 89, 424, 152
-0.982625, 177, 81, 304, 144
-0.982706, 273, 129, 304, 256
-0.982747, 277, 153, 308, 216
-0.982755, 149, 137, 180, 200
-0.982985, 289, 201, 320, 264
-0.982997, 201, 217, 264, 280
-0.983017, 105, 41, 168, 104
-0.98304, 273, 313, 336, 375
-0.983176, 97, 145, 160, 208
-0.983184, 265, 201, 296, 264
-0.983186, 277, 209, 308, 272
-0.983227, 281, 209, 344, 336
-0.983262, 185, 145, 248, 272
-0.983302, 369, 153, 432, 216
-0.983314, 193, 73, 224, 136
-0.983329, 33, 241, 288, 368
-0.983407, 289, 97, 352, 160
-0.983447, 253, 177, 284, 240
-0.983477, 225, 105, 352, 168
-0.983497, 49, 49, 112, 176
-0.983533, 377, 161, 408, 224
-0.983556, 321, 81, 384, 144
-0.983619, 237, 65, 268, 128
-0.983668, 329, 289, 392, 352
-0.983704, 265, 153, 296, 216
-0.983706, 253, 145, 284, 208
-0.983815, 229, 49, 260, 176
-0.983823, 253, 81, 284, 208
-0.983946, 145, 97, 176, 224
-0.984018, 265, 177, 296, 304
-0.984127, 193, 65, 256, 128
-0.984154, 305, 137, 432, 200
-0.98422, 217, 145, 248, 208
-0.984245, 253, 121, 284, 184
-0.984318, 329, 129, 360, 192
-0.984486, 105, 65, 136, 128
-0.984608, 233, 217, 296, 280
-0.985018, 317, 121, 348, 184
-0.985025, 297, 145, 328, 272
-0.98506, 49, 105, 176, 168
-0.98506, 377, 97, 440, 224
-0.985061, 253, 177, 284, 304
-0.985257, 225, 1, 288, 375
-0.985345, 261, 89, 292, 152
-0.985436, 257, 129, 320, 375
-0.985554, 369, 185, 432, 248
-0.98564, 265, 289, 328, 352
-0.985782, 341, 113, 372, 240
-0.98587, 97, 65, 224, 128
-0.985874, 389, 161, 420, 224
-0.985896, 133, 97, 164, 160
-0.98597, 377, 209, 440, 336
-0.985999, 193, 81, 224, 208
-0.986053, 269, 305, 300, 368
-0.986135, 353, 265, 416, 328
-0.986187, 241, 185, 272, 248
-0.986232, 229, 129, 260, 192
-0.986265, 305, 121, 336, 184
-0.986289, 273, 105, 400, 168
-0.986335, 281, 193, 312, 320
-0.986386, 113, 89, 144, 152
-0.986446, 293, 113, 324, 176
-0.986732, 49, 129, 176, 256
-0.986929, 185, 1, 248, 375
-0.986979, 213, 185, 244, 248
-0.986992, 301, 97, 332, 224
-0.98701, 193, 217, 320, 280
-0.987025, 193, 153, 256, 216
-0.987032, 161, 137, 192, 200
-0.987039, 309, 185, 340, 248
-0.987118, 113, 145, 240, 208
-0.987162, 129, 209, 256, 336
-0.987181, 97, 17, 352, 144
-0.98725, 281, 97, 344, 352
-0.987319, 385, 193, 416, 256
-0.987341, 129, 89, 256, 152
-0.987361, 161, 33, 288, 96
-0.987363, 285, 177, 316, 240
-0.987378, 33, 129, 96, 192
-0.987381, 325, 161, 356, 224
-0.98745, 145, 161, 272, 288
-0.987549, 381, 177, 412, 304
-0.987559, 185, 193, 248, 320
-0.987577, 289, 193, 416, 320
-0.987608, 201, 129, 232, 192
-0.987611, 213, 161, 244, 288
-0.987661, 289, 65, 352, 192
-0.987664, 209, 89, 240, 152
-0.987751, 273, 193, 400, 256
-0.98784, 353, 145, 480, 272
-0.987884, 153, 89, 184, 152
-0.987935, 361, 81, 392, 208
-0.98795, 169, 49, 200, 176
-0.987981, 305, 305, 368, 368
-0.987981, 85, 49, 116, 112
-0.98803, 257, 241, 500, 368
-0.988036, 81, 105, 144, 168
-0.988039, 49, 41, 176, 104
-0.988094, 213, 209, 244, 272
-0.988095, 269, 225, 300, 352
-0.988112, 241, 217, 368, 280
-0.988274, 241, 129, 272, 192
-0.988364, 217, 313, 280, 375
-0.988416, 285, 145, 316, 272
-0.988429, 341, 129, 372, 192
-0.988433, 373, 129, 404, 256
-0.988537, 357, 105, 388, 168
-0.988538, 177, 113, 208, 240
-0.988551, 137, 153, 168, 216
-0.988597, 313, 129, 376, 375
-0.988614, 281, 225, 344, 288
-0.988632, 97, 41, 224, 104
-0.988723, 117, 129, 148, 192
-0.988808, 285, 97, 316, 224
-0.98882, 305, 81, 432, 144
-0.988824, 113, 1, 176, 256
-0.988969, 193, 305, 320, 368
-0.988989, 161, 161, 192, 224
-0.989024, 385, 249, 416, 312
-0.989078, 33, 73, 96, 136
-0.989117, 241, 65, 368, 128
-0.989156, 225, 193, 256, 256
-0.989217, 137, 145, 200, 272
-0.989314, 397, 225, 428, 288
-0.989325, 169, 57, 200, 120
-0.989329, 273, 65, 304, 128
-0.989388, 233, 129, 296, 375
-0.989393, 193, 1, 320, 128
-0.989433, 133, 81, 164, 208
-0.989434, 121, 129, 184, 160
-0.989463, 369, 89, 400, 152
-0.989471, 233, 129, 296, 160
-0.989543, 129, 141, 192, 172
-0.989583, 249, 1, 312, 375
-0.989669, 1, 1, 128, 128
-0.989677, 241, 185, 304, 216
-0.989687, 225, 69, 288, 100
-0.989726, 209, 65, 240, 192
-0.989753, 225, 57, 288, 88
-0.989764, 265, 145, 328, 176
-0.989836, 201, 233, 232, 296
-0.98986, 249, 73, 280, 136
-0.989861, 185, 69, 248, 100
-0.989903, 321, 97, 352, 224
-0.989926, 321, 177, 384, 304
-0.989928, 57, 73, 120, 136
-0.989953, 81, 33, 144, 288
-0.990067, 305, 157, 368, 188
-0.990068, 273, 169, 336, 200
-0.990092, 17, 33, 80, 96
-0.990133, 225, 57, 256, 120
-0.990151, 161, 241, 416, 368
-0.990176, 341, 97, 372, 160
-0.990191, 145, 185, 272, 248
-0.990212, 145, 113, 208, 144
-0.990233, 193, 281, 320, 344
-0.990238, 401, 177, 432, 240
-0.990268, 145, 125, 208, 156
-0.990307, 305, 141, 368, 172
-0.990329, 193, 57, 256, 88
-0.990342, 265, 133, 328, 164
-0.990342, 353, 121, 416, 184
-0.990393, 361, 161, 392, 224
-0.990423, 241, 313, 368, 375
-0.990424, 249, 313, 312, 344
-0.990428, 273, 105, 304, 168
-0.99044, 241, 33, 304, 288
-0.990451, 321, 97, 352, 160
-0.990452, 193, 33, 224, 160
-0.990475, 337, 161, 464, 224
-0.990481, 257, 217, 320, 248
-0.990505, 289, 121, 352, 152
-0.990518, 261, 281, 292, 344
-0.990523, 353, 181, 416, 212
-0.990528, 161, 141, 224, 172
-0.990564, 369, 169, 432, 200
-0.990568, 373, 265, 404, 328
-0.990602, 217, 201, 280, 232
-0.990606, 377, 241, 440, 304
-0.990632, 241, 113, 272, 240
-0.990647, 225, 81, 288, 112
-0.990678, 145, 57, 272, 120
-0.990689, 157, 49, 188, 176
-0.990691, 205, 65, 236, 128
-0.9907, 357, 81, 388, 144
-0.990745, 241, 41, 368, 104
-0.990776, 97, 77, 160, 108
-0.990785, 257, 265, 320, 328
-0.990817, 357, 281, 388, 344
-0.990834, 233, 249, 296, 312
-0.990848, 257, 101, 320, 132
-0.990868, 41, 81, 72, 144
-0.990873, 161, 1, 224, 375
-0.990934, 265, 33, 328, 160
-0.990943, 225, 45, 288, 76
-0.990948, 217, 141, 280, 172
-0.990949, 225, 321, 288, 352
-0.990954, 225, 169, 256, 232
-0.990964, 281, 157, 344, 188
-0.990988, 249, 169, 312, 200
-0.991001, 205, 153, 236, 216
-0.991034, 49, 73, 176, 136
-0.99104, 137, 33, 200, 288
-0.991041, 353, 241, 416, 368
-0.991057, 169, 105, 232, 136
-0.991105, 313, 145, 344, 272
-0.991124, 281, 193, 344, 224
-0.99113, 329, 117, 392, 148
-0.991132, 257, 205, 320, 236
-0.991132, 273, 317, 336, 348
-0.991155, 233, 117, 296, 148
-0.99118, 9, 113, 72, 176
-0.991188, 97, 17, 160, 144
-0.991205, 329, 169, 392, 200
-0.991205, 345, 193, 408, 256
-0.991205, 185, 297, 248, 360
-0.991209, 153, 153, 216, 184
-0.991258, 89, 113, 152, 240
-0.991267, 229, 33, 260, 96
-0.991303, 117, 65, 148, 128
-0.991303, 1, 57, 128, 120
-0.991317, 153, 89, 216, 120
-0.991327, 113, 81, 144, 208
-0.991329, 161, 145, 192, 272
-0.991353, 345, 129, 408, 375
-0.991358, 17, 137, 144, 200
-0.991377, 217, 113, 248, 240
-0.991394, 49, 1, 176, 128
-0.991418, 209, 129, 272, 160
-0.991421, 249, 65, 312, 96
-0.991444, 265, 181, 328, 212
-0.991447, 137, 101, 200, 132
-0.991462, 121, 117, 184, 148
-0.991483, 241, 105, 272, 168
-0.991495, 105, 141, 168, 172
-0.991496, 169, 125, 232, 156
-0.991505, 281, 205, 344, 236
-0.991518, 257, 305, 288, 368
-0.991527, 217, 173, 280, 204
-0.991533, 313, 101, 376, 132
-0.991548, 57, 61, 120, 92
-0.991567, 241, 141, 304, 172
-0.991581, 265, 225, 296, 288
-0.991581, 397, 177, 428, 304
-0.991592, 305, 169, 368, 200
-0.991611, 217, 213, 280, 244
-0.991627, 177, 81, 240, 112
-0.991643, 73, 77, 136, 108
-0.991643, 185, 141, 248, 172
-0.991645, 345, 157, 408, 188
-0.991648, 97, 41, 128, 104
-0.991663, 241, 289, 368, 352
-0.991677, 393, 137, 424, 200
-0.991694, 145, 161, 208, 224
-0.991695, 353, 89, 416, 120
-0.991708, 257, 89, 320, 120
-0.991731, 217, 189, 280, 220
-0.991733, 297, 313, 360, 344
-0.991747, 257, 233, 320, 264
-0.991782, 97, 129, 160, 160
-0.991783, 89, 89, 152, 120
-0.991797, 73, 17, 136, 144
-0.991814, 189, 49, 220, 112
-0.991818, 281, 241, 312, 368
-0.991818, 353, 81, 480, 144
-0.991841, 177, 93, 240, 124
-0.991845, 313, 129, 376, 160
-0.99186, 201, 313, 264, 344
-0.991866, 393, 185, 456, 248
-0.991883, 225, 305, 288, 336
-0.991884, 161, 65, 224, 96
-0.991902, 305, 241, 432, 368
-0.991907, 229, 113, 260, 240
-0.991925, 129, 153, 192, 184
-0.991925, 329, 145, 392, 176
-0.991939, 265, 121, 328, 152
-0.991986, 97, 121, 352, 184
-0.991994, 313, 181, 376, 212
-0.991996, 201, 81, 264, 112
-0.992012, 161, 273, 224, 336
-0.992026, 81, 141, 144, 172
-0.992028, 209, 225, 272, 352
-0.99203, 41, 65, 72, 192
-0.992044, 353, 277, 416, 308
-0.992065, 193, 109, 256, 140
-0.992069, 233, 65, 264, 96
-0.992108, 133, 73, 164, 136
-0.992122, 41, 73, 104, 104
-0.992148, 57, 129, 120, 192
-0.992165, 329, 297, 392, 328
-0.992175, 129, 89, 192, 120
-0.992188, 273, 301, 336, 332
-0.992198, 217, 161, 280, 192
-0.992201, 353, 117, 416, 148
-0.992224, 321, 105, 448, 168
-0.992247, 73, 49, 136, 80
-0.992252, 369, 193, 496, 320
-0.992256, 145, 305, 272, 368
-0.992268, 137, 49, 200, 80
-0.992273, 377, 81, 408, 208
-0.992293, 337, 129, 400, 160
-0.992297, 357, 161, 388, 288
-0.99232, 265, 329, 328, 360
-0.992341, 249, 281, 280, 344
-0.992357, 97, 113, 160, 144
-0.992358, 93, 81, 124, 144
-0.992371, 193, 181, 256, 212
-0.992374, 281, 221, 344, 252
-0.992381, 121, 73, 184, 104
-0.992382, 277, 49, 308, 176
-0.992395, 353, 193, 416, 224
-0.992398, 289, 93, 352, 124
-0.992411, 97, 41, 160, 72
-0.992425, 173, 101, 204, 132
-0.99243, 141, 141, 172, 172
-0.992432, 305, 193, 368, 224
-0.992443, 177, 301, 240, 332
-0.992447, 65, 129, 128, 160
-0.992469, 281, 105, 344, 136
-0.992478, 249, 33, 312, 96
-0.99248, 193, 193, 256, 224
-0.992518, 133, 129, 164, 160
-0.992523, 377, 181, 440, 212
-0.992523, 249, 57, 280, 88
-0.992525, 193, 109, 224, 140
-0.992526, 369, 265, 432, 296
-0.992528, 177, 153, 240, 184
-0.992536, 217, 93, 280, 124
-0.992541, 209, 33, 272, 64
-0.992541, 257, 157, 320, 188
-0.992549, 369, 177, 400, 304
-0.992555, 101, 77, 132, 108
-0.992555, 233, 333, 296, 364
-0.992559, 73, 49, 104, 112
-0.992569, 121, 193, 184, 256
-0.992569, 309, 161, 340, 192
-0.992589, 369, 153, 432, 184
-0.992594, 97, 65, 160, 96
-0.992599, 289, 205, 320, 236
-0.99262, 373, 137, 404, 200
-0.992626, 377, 161, 408, 192
-0.992631, 325, 129, 356, 160
-0.992636, 33, 137, 96, 168
-0.992636, 225, 205, 256, 236
-0.992646, 173, 121, 204, 152
-0.992656, 113, 101, 176, 132
-0.992658, 297, 189, 328, 220
-0.992667, 385, 193, 448, 224
-0.992673, 257, 133, 288, 164
-0.992677, 213, 113, 244, 176
-0.992682, 121, 81, 152, 112
-0.992687, 377, 173, 408, 204
-0.992692, 217, 225, 280, 256
-0.992694, 185, 93, 216, 124
-0.992695, 241, 189, 272, 220
-0.992695, 193, 241, 320, 304
-0.9927, 289, 217, 320, 248
-0.992701, 161, 137, 192, 168
-0.992711, 117, 137, 148, 168
-0.99272, 285, 169, 316, 200
-0.992723, 289, 181, 352, 212
-0.99273, 157, 117, 188, 148
-0.99273, 153, 77, 216, 108
-0.992731, 305, 301, 368, 332
-0.992733, 181, 141, 212, 172
-0.992744, 309, 121, 340, 152
-0.992748, 205, 65, 236, 96
-0.99276, 153, 149, 184, 180
-0.992763, 369, 105, 432, 136
-0.992782, 253, 181, 284, 212
-0.992787, 173, 137, 204, 200
-0.992787, 201, 97, 232, 128
-0.99279, 137, 165, 200, 196
-0.992793, 29, 89, 60, 152
-0.992794, 389, 173, 420, 204
-0.9928, 201, 45, 264, 76
-0.992802, 361, 173, 392, 204
-0.992802, 145, 129, 176, 160
-0.992808, 305, 173, 336, 204
-0.992808, 261, 65, 292, 96
-0.992811, 229, 77, 260, 108
-0.992815, 241, 37, 272, 68
-0.992821, 257, 265, 320, 296
-0.992832, 161, 53, 224, 84
-0.992832, 141, 117, 172, 148
-0.992836, 257, 249, 320, 280
-0.992844, 261, 81, 292, 112
-0.992847, 249, 77, 312, 108
-0.992852, 57, 141, 120, 172
-0.992857, 353, 289, 416, 320
-0.992859, 245, 73, 276, 104
-0.992859, 245, 121, 276, 152
-0.992859, 193, 205, 256, 236
-0.992866, 325, 153, 356, 184
-0.992867, 121, 37, 184, 68
-0.992869, 213, 85, 244, 116
-0.992872, 265, 177, 296, 208
-0.992874, 305, 205, 368, 236
-0.992875, 33, 61, 96, 92
-0.992877, 329, 85, 392, 116
-0.992879, 265, 93, 296, 124
-0.99289, 337, 105, 400, 136
-0.992893, 305, 137, 336, 168
-0.992894, 281, 129, 312, 160
-0.992897, 77, 53, 108, 84
-0.992897, 269, 129, 300, 160
-0.9929, 309, 149, 340, 180
-0.992903, 265, 313, 296, 344
-0.992909, 161, 225, 224, 288
-0.992913, 229, 133, 260, 164
-0.992932, 277, 141, 308, 172
-0.992932, 361, 113, 392, 144
-0.992943, 289, 141, 320, 172
-0.992943, 285, 105, 316, 136
-0.992945, 165, 153, 196, 184
-0.992959, 297, 161, 328, 192
-0.992963, 349, 289, 380, 320
-0.992966, 269, 221, 300, 252
-0.992968, 193, 77, 224, 108
-0.992972, 277, 209, 308, 240
-0.992978, 65, 57, 96, 88
-0.992982, 169, 97, 232, 352
-0.992988, 369, 85, 400, 116
-0.99299, 113, 93, 144, 124
-0.992996, 281, 237, 312, 268
-0.992998, 121, 41, 152, 104
-0.993004, 245, 133, 276, 164
-0.993004, 221, 57, 252, 88
-0.993013, 193, 33, 256, 288
-0.993013, 313, 193, 344, 224
-0.993018, 337, 301, 368, 332
-0.99302, 229, 193, 260, 224
-0.993037, 361, 285, 392, 316
-0.993043, 377, 265, 408, 296
-0.993044, 293, 229, 324, 260
-0.99305, 265, 249, 296, 312
-0.99305, 269, 197, 300, 228
-0.993057, 161, 105, 192, 136
-0.993064, 125, 149, 156, 180
-0.993073, 305, 205, 336, 236
-0.993078, 285, 193, 316, 224
-0.993083, 273, 165, 304, 196
-0.993087, 265, 149, 296, 180
-0.99309, 365, 273, 396, 304
-0.993098, 321, 141, 352, 172
-0.993108, 345, 169, 376, 200
-0.993109, 389, 249, 420, 280
-0.99311, 277, 93, 308, 124
-0.993111, 217, 217, 248, 248
-0.993117, 349, 121, 380, 152
-0.993118, 293, 129, 324, 160
-0.99312, 181, 65, 212, 96
-0.99312, 133, 81, 164, 112
-0.993121, 381, 189, 412, 220
-0.993124, 297, 113, 328, 144
-0.993124, 217, 189, 248, 220
-0.99313, 141, 153, 172, 184
-0.993134, 249, 321, 280, 352
-0.993135, 113, 69, 144, 100
-0.993141, 213, 309, 244, 340
-0.993141, 337, 153, 368, 216
-0.993141, 261, 165, 292, 196
-0.993148, 17, 65, 80, 192
-0.993148, 193, 65, 224, 96
-0.993151, 277, 321, 308, 352
-0.993152, 161, 225, 224, 352
-0.993152, 169, 89, 200, 120
-0.993156, 321, 309, 352, 340
-0.99316, 353, 97, 384, 128
-0.993164, 341, 133, 372, 164
-0.993168, 121, 105, 152, 136
-0.993168, 53, 65, 84, 96
-0.99317, 37, 125, 68, 156
-0.993186, 389, 161, 420, 192
-0.993188, 201, 209, 232, 336
-0.993194, 301, 313, 332, 344
-0.993195, 337, 121, 368, 152
-0.993197, 397, 189, 428, 220
-0.99321, 121, 125, 152, 156
-0.993211, 213, 141, 244, 172
-0.993222, 193, 141, 224, 172
-0.993227, 401, 169, 432, 200
-0.99323, 253, 145, 284, 176
-0.993234, 189, 137, 220, 200
-0.993241, 201, 297, 232, 328
-0.993243, 49, 113, 112, 240
-0.993244, 261, 329, 292, 360
-0.993246, 165, 53, 196, 84
-0.993247, 257, 109, 288, 140
-0.993249, 57, 137, 88, 168
-0.993252, 209, 229, 240, 260
-0.993264, 385, 85, 416, 116
-0.993265, 325, 165, 356, 196
-0.993269, 265, 233, 296, 264
-0.993271, 149, 105, 180, 136
-0.993272, 229, 313, 260, 344
-0.993273, 337, 157, 368, 188
-0.993276, 257, 193, 288, 224
-0.993318, 193, 129, 448, 192
-0.993327, 129, 225, 256, 288
-0.993351, 313, 193, 376, 256
-0.993376, 113, 97, 176, 352
-0.993499, 241, 241, 368, 304
-0.993504, 129, 73, 384, 136
-0.993557, 201, 185, 232, 248
-0.99357, 25, 113, 88, 240
-0.993577, 329, 145, 360, 272
-0.993617, 249, 241, 280, 368
-0.993636, 221, 81, 252, 144
-0.993663, 201, 273, 264, 336
-0.993664, 241, 161, 272, 288
-0.993669, 53, 57, 84, 120
-0.99368, 241, 265, 368, 328
-0.993688, 349, 161, 380, 224
-0.9937, 273, 165, 400, 196
-0.993759, 57, 105, 120, 168
-0.993782, 385, 225, 416, 352
-0.993802, 289, 297, 416, 360
-0.993856, 281, 241, 312, 304
-0.993868, 201, 129, 264, 375
-0.993874, 133, 129, 164, 256
-0.993875, 189, 281, 220, 344
-0.993901, 385, 209, 448, 272
-0.993959, 49, 25, 112, 88
-0.993965, 393, 129, 424, 256
-0.993984, 193, 241, 256, 304
-0.994003, 357, 137, 388, 200
-0.994028, 369, 185, 400, 248
-0.994038, 253, 201, 284, 264
-0.994145, 393, 161, 456, 224
-0.994152, 57, 1, 120, 375
-0.994179, 289, 217, 416, 280
-0.994231, 97, 145, 352, 208
-0.994239, 293, 193, 324, 320
-0.994273, 73, 49, 104, 176
-0.994303, 369, 137, 496, 200
-0.994316, 49, 161, 176, 224
-0.994356, 237, 1, 268, 128
-0.994394, 113, 133, 240, 164
-0.994397, 213, 209, 244, 336
-0.994433, 1, 105, 256, 168
-0.994452, 191, 81, 206, 144
-0.994494, 187, 113, 202, 176
-0.994507, 281, 313, 312, 375
-0.994538, 201, 145, 232, 272
-0.994544, 353, 217, 416, 280
-0.994719, 229, 105, 260, 168
-0.994741, 345, 289, 376, 352
-0.994743, 181, 113, 196, 176
-0.994745, 241, 17, 368, 80
-0.994751, 405, 201, 436, 264
-0.994786, 65, 49, 320, 112
-0.99482, 267, 153, 282, 216
-0.994853, 147, 129, 162, 192
-0.994862, 353, 65, 416, 128
-0.994895, 321, 185, 448, 248
-0.994906, 221, 1, 252, 128
-0.994913, 97, 201, 224, 264
-0.994915, 161, 249, 224, 312
-0.994924, 315, 161, 330, 224
-0.994937, 185, 241, 248, 368
-0.994966, 1, 129, 128, 256
-0.994973, 225, 169, 480, 232
-0.994997, 225, 141, 352, 172
-0.995, 197, 105, 212, 168
-0.995014, 129, 97, 384, 160
-0.995036, 1, 33, 128, 96
-0.995053, 193, 17, 256, 80
-0.995089, 237, 153, 268, 216
-0.995105, 109, 41, 140, 104
-0.995136, 309, 169, 324, 232
-0.995139, 301, 209, 332, 272
-0.995168, 175, 113, 190, 176
-0.995168, 353, 241, 480, 368
-0.995169, 25, 273, 88, 336
-0.995179, 177, 69, 304, 100
-0.995198, 263, 49, 278, 112
-0.99525, 197, 73, 212, 136
-0.995272, 271, 129, 286, 192
-0.995285, 383, 145, 398, 208
-0.995291, 1, 113, 128, 176
-0.995298, 329, 265, 392, 328
-0.995311, 273, 1, 336, 375
-0.995323, 53, 129, 84, 192
-0.995331, 209, 205, 336, 236
-0.995355, 17, 1, 80, 128
-0.995355, 277, 129, 292, 192
-0.99536, 305, 1, 368, 375
-0.995366, 281, 65, 344, 128
-0.995383, 133, 41, 164, 104
-0.995394, 241, 181, 368, 212
-0.995408, 295, 201, 310, 264
-0.995412, 33, 297, 160, 360
-0.995457, 253, 41, 268, 104
-0.995464, 301, 185, 316, 248
-0.995474, 169, 41, 232, 104
-0.995474, 137, 113, 152, 176
-0.995496, 337, 1, 400, 375
-0.995501, 185, 89, 200, 152
-0.995519, 145, 145, 176, 272
-0.995563, 209, 169, 336, 200
-0.995594, 1, 81, 256, 144
-0.995613, 157, 113, 172, 176
-0.995619, 289, 281, 352, 344
-0.995625, 181, 17, 212, 144
-0.995628, 345, 161, 376, 288
-0.995642, 243, 33, 258, 96
-0.995661, 369, 193, 496, 256
-0.995664, 209, 217, 336, 248
-0.995668, 275, 65, 290, 128
-0.995668, 187, 57, 202, 120
-0.995679, 353, 257, 480, 320
-0.995679, 325, 153, 340, 216
-0.995694, 163, 121, 178, 184
-0.995697, 145, 145, 272, 176
-0.995723, 1, 153, 500, 216
-0.995724, 177, 129, 304, 160
-0.995738, 319, 129, 334, 192
-0.995739, 89, 17, 120, 144
-0.995754, 153, 41, 184, 104
-0.995768, 381, 97, 412, 160
-0.995768, 177, 201, 240, 264
-0.995769, 269, 57, 284, 120
-0.995772, 41, 313, 104, 375
-0.995774, 343, 137, 358, 200
-0.99578, 305, 145, 320, 208
-0.995803, 391, 161, 406, 224
-0.995819, 345, 49, 408, 176
-0.995841, 311, 201, 326, 264
-0.995857, 263, 129, 278, 192
-0.995872, 309, 97, 340, 160
-0.995882, 273, 153, 400, 184
-0.995885, 229, 177, 260, 304
-0.9959, 97, 121, 224, 152
-0.99591, 161, 57, 288, 88
-0.995924, 171, 89, 186, 152
-0.99594, 289, 209, 304, 272
-0.99599, 37, 113, 68, 176
-0.996005, 185, 257, 216, 320
-0.996012, 217, 129, 232, 192
-0.996015, 155, 153, 170, 216
-0.996035, 1, 169, 128, 232
-0.996043, 57, 289, 120, 352
-0.996069, 145, 129, 208, 375
-0.996088, 1, 265, 128, 328
-0.996091, 97, 81, 224, 112
-0.996102, 241, 57, 256, 120
-0.996109, 137, 1, 200, 375
-0.996111, 289, 189, 416, 220
-0.996112, 273, 153, 288, 216
-0.996116, 209, 193, 336, 224
-0.996142, 399, 233, 414, 296
-0.996148, 177, 89, 192, 152
-0.996158, 49, 145, 176, 176
-0.996162, 301, 209, 316, 272
-0.996164, 145, 109, 272, 140
-0.996167, 399, 193, 414, 256
-0.996196, 353, 185, 384, 248
-0.996203, 121, 129, 152, 256
-0.996209, 265, 81, 280, 144
-0.996214, 33, 1, 96, 375
-0.996232, 119, 65, 134, 128
-0.99625, 283, 129, 298, 192
-0.996256, 201, 289, 232, 352
-0.996276, 287, 169, 302, 232
-0.996278, 385, 225, 416, 288
-0.996278, 205, 257, 236, 320
-0.996279, 125, 89, 140, 152
-0.996279, 203, 113, 218, 176
-0.996282, 293, 153, 308, 216
-0.996296, 257, 177, 272, 240
-0.996302, 131, 105, 146, 168
-0.996303, 333, 121, 348, 184
-0.996306, 145, 193, 176, 256
-0.99635, 227, 129, 242, 192
-0.996352, 33, 233, 160, 296
-0.996366, 167, 145, 182, 208
-0.996371, 273, 137, 400, 168
-0.996373, 169, 113, 184, 176
-0.996373, 65, 129, 96, 192
-0.996377, 293, 129, 308, 192
-0.996385, 159, 177, 174, 240
-0.99639, 33, 97, 96, 160
-0.996396, 143, 105, 158, 168
-0.996397, 353, 33, 480, 160
-0.996405, 241, 313, 368, 344
-0.996413, 299, 153, 314, 216
-0.996454, 225, 125, 352, 156
-0.99648, 217, 33, 248, 96
-0.996485, 353, 217, 480, 280
-0.996491, 279, 169, 294, 232
-0.9965, 321, 169, 448, 200
-0.996502, 113, 69, 240, 100
-0.996515, 49, 133, 176, 164
-0.996537, 141, 137, 156, 200
-0.996547, 33, 97, 96, 352
-0.99655, 257, 105, 272, 168
-0.996561, 229, 185, 244, 248
-0.996562, 97, 101, 224, 132
-0.996567, 221, 185, 236, 248
-0.996567, 225, 105, 480, 168
-0.99657, 1, 89, 128, 152
-0.996571, 271, 89, 286, 152
-0.996571, 373, 241, 404, 368
-0.996573, 313, 137, 328, 200
-0.996576, 219, 153, 234, 216
-0.996579, 65, 45, 192, 76
-0.996608, 45, 81, 60, 144
-0.996612, 81, 17, 144, 80
-0.996614, 1, 129, 256, 192
-0.99662, 331, 145, 346, 208
-0.996648, 289, 49, 416, 112
-0.996652, 1, 1, 64, 375
-0.996655, 113, 1, 176, 375
-0.996657, 271, 177, 286, 240
-0.996678, 289, 241, 416, 304
-0.996684, 149, 153, 164, 216
-0.996693, 17, 297, 80, 360
-0.996699, 193, 49, 448, 112
-0.996699, 189, 225, 220, 352
-0.996701, 113, 73, 128, 136
-0.996703, 399, 169, 414, 232
-0.996704, 385, 169, 400, 232
-0.996704, 253, 65, 268, 128
-0.996715, 1, 9, 128, 72
-0.996715, 257, 101, 384, 132
-0.996725, 133, 33, 164, 160
-0.99673, 173, 137, 188, 200
-0.996738, 177, 81, 304, 112
-0.99675, 49, 121, 176, 152
-0.996762, 307, 113, 322, 176
-0.996784, 131, 81, 146, 144
-0.9968, 281, 201, 296, 264
-0.996802, 337, 281, 464, 344
-0.996804, 9, 81, 72, 144
-0.996807, 225, 113, 352, 144
-0.996826, 321, 185, 336, 248
-0.996828, 185, 101, 200, 132
-0.996834, 161, 45, 288, 76
-0.99684, 129, 129, 144, 192
-0.996844, 221, 209, 236, 272
-0.996849, 351, 121, 366, 184
-0.996857, 141, 81, 156, 144
-0.996864, 135, 133, 150, 164
-0.996866, 257, 145, 272, 208
-0.996869, 17, 77, 144, 108
-0.996871, 289, 121, 416, 152
-0.996875, 145, 185, 208, 248
-0.996904, 213, 73, 228, 136
-0.996907, 97, 169, 224, 232
-0.996911, 207, 65, 222, 128
-0.996921, 125, 65, 140, 128
-0.996922, 235, 193, 250, 256
-0.996936, 405, 185, 420, 248
-0.996947, 295, 177, 310, 240
-0.99695, 193, 129, 208, 192
-0.996952, 263, 177, 278, 240
-0.996967, 337, 145, 352, 208
-0.996973, 371, 161, 386, 224
-0.996976, 211, 97, 226, 160
-0.996976, 389, 81, 420, 208
-0.996986, 257, 213, 384, 244
-0.996997, 193, 321, 320, 352
-0.997012, 393, 249, 408, 312
-0.997012, 241, 1, 272, 256
-0.997012, 325, 129, 340, 192
-0.997017, 215, 217, 230, 280
-0.997021, 353, 57, 480, 120
-0.997022, 95, 49, 110, 112
-0.997028, 267, 201, 282, 264
-0.997032, 305, 193, 336, 320
-0.997055, 277, 305, 292, 368
-0.997056, 247, 129, 262, 192
-0.997091, 65, 257, 192, 320
-0.997092, 1, 65, 500, 128
-0.997099, 53, 113, 84, 240
-0.997108, 161, 145, 176, 208
-0.997114, 193, 309, 320, 340
-0.997123, 193, 97, 320, 128
-0.997129, 1, 57, 64, 120
-0.997129, 1, 273, 64, 336
-0.997132, 371, 105, 386, 168
-0.997132, 247, 185, 262, 248
-0.997132, 243, 61, 258, 92
-0.997141, 229, 73, 244, 136
-0.997144, 209, 129, 224, 192
-0.997154, 61, 49, 92, 176
-0.997157, 1, 153, 256, 216
-0.997163, 161, 313, 416, 375
-0.997166, 277, 97, 292, 160
-0.997169, 81, 305, 208, 368
-0.997181, 49, 177, 176, 304
-0.997183, 181, 65, 196, 128
-0.997183, 235, 49, 250, 112
-0.997187, 33, 65, 160, 96
-0.997189, 283, 225, 298, 288
-0.9972, 81, 305, 144, 368
-0.997206, 405, 161, 420, 224
-0.997207, 161, 213, 288, 244
-0.997211, 113, 273, 240, 336
-0.997213, 411, 185, 426, 248
-0.997218, 187, 137, 202, 200
-0.99722, 179, 109, 194, 140
-0.997224, 341, 105, 356, 168
-0.997226, 265, 105, 280, 168
-0.997226, 97, 145, 224, 176
-0.997231, 135, 137, 150, 200
-0.997235, 145, 129, 160, 160
-0.997236, 349, 97, 364, 160
-0.997238, 369, 81, 384, 144
-0.997238, 1, 121, 500, 184
-0.997265, 105, 33, 136, 160
-0.997273, 271, 305, 286, 368
-0.997276, 219, 57, 234, 120
-0.997276, 97, 185, 352, 248
-0.997291, 209, 233, 336, 264
-0.997293, 377, 145, 392, 208
-0.997297, 329, 153, 344, 184
-0.997304, 215, 185, 230, 248
-0.997318, 225, 61, 352, 92
-0.997332, 379, 169, 394, 232
-0.997334, 171, 141, 186, 172
-0.997343, 403, 173, 418, 204
-0.997347, 57, 1, 120, 256
-0.997348, 299, 129, 314, 192
-0.997348, 81, 157, 208, 188
-0.997349, 313, 113, 328, 176
-0.99736, 101, 73, 116, 136
-0.99736, 363, 161, 378, 224
-0.997365, 313, 241, 376, 368
-0.997368, 247, 57, 262, 120
-0.997371, 81, 1, 144, 375
-0.99738, 93, 65, 124, 192
-0.997385, 57, 153, 120, 216
-0.997397, 65, 305, 320, 368
-0.997416, 311, 177, 326, 208
-0.997441, 141, 117, 156, 148
-0.997457, 225, 193, 480, 256
-0.99747, 289, 201, 416, 232
-0.997485, 241, 301, 368, 332
-0.997494, 29, 81, 60, 208
-0.997494, 121, 81, 136, 112
-0.997499, 323, 161, 338, 192
-0.997501, 237, 65, 252, 96
-0.997503, 313, 201, 328, 232
-0.997512, 275, 173, 290, 204
-0.997526, 389, 161, 404, 192
-0.997533, 193, 153, 320, 184
-0.997546, 191, 97, 206, 128
-0.997548, 225, 17, 288, 80
-0.997548, 321, 157, 448, 188
-0.99755, 317, 169, 332, 200
-0.997555, 185, 121, 200, 152
-0.997559, 159, 125, 174, 156
-0.997565, 209, 49, 336, 80
-0.997565, 151, 133, 166, 164
-0.997571, 263, 181, 278, 212
-0.997576, 373, 113, 388, 144
-0.997584, 269, 169, 284, 200
-0.997588, 161, 193, 288, 224
-0.997596, 195, 113, 210, 144
-0.997596, 297, 49, 328, 176
-0.997607, 311, 161, 326, 192
-0.99761, 65, 241, 192, 368
-0.997611, 1, 133, 128, 164
-0.997619, 159, 153, 174, 184
-0.997624, 273, 225, 400, 256
-0.997633, 49, 201, 176, 264
-0.997633, 49, 101, 176, 132
-0.997634, 171, 117, 186, 148
-0.997636, 271, 133, 286, 164
-0.997647, 395, 169, 410, 200
-0.997659, 333, 137, 348, 168
-0.99766, 65, 209, 320, 272
-0.997662, 145, 9, 272, 72
-0.997671, 179, 133, 194, 164
-0.997673, 367, 173, 382, 204
-0.997679, 255, 185, 270, 216
-0.997701, 33, 89, 160, 120
-0.997713, 201, 109, 216, 140
-0.997716, 113, 77, 128, 108
-0.997717, 129, 157, 256, 188
-0.997723, 161, 141, 176, 172
-0.997736, 151, 145, 166, 176
-0.997741, 305, 97, 432, 128
-0.997744, 275, 145, 290, 176
-0.99775, 9, 249, 72, 312
-0.997756, 97, 57, 224, 88
-0.997762, 41, 241, 104, 368
-0.997763, 161, 33, 288, 64
-0.997764, 349, 65, 380, 192
-0.997778, 225, 81, 480, 144
-0.997779, 377, 173, 392, 204
-0.997783, 261, 133, 276, 164
-0.997785, 179, 121, 194, 152
-0.997789, 229, 81, 244, 112
-0.99779, 301, 193, 316, 224
-0.9978, 385, 81, 448, 144
-0.997805, 251, 73, 266, 104
-0.997813, 65, 17, 192, 80
-0.997818, 225, 209, 240, 240
-0.997821, 81, 217, 144, 280
-0.997821, 293, 217, 308, 248
-0.997825, 389, 177, 404, 208
-0.997844, 143, 141, 158, 172
-0.997844, 395, 181, 410, 212
-0.997852, 209, 101, 224, 132
-0.997857, 127, 81, 142, 112
-0.997863, 249, 61, 264, 92
-0.997869, 325, 121, 340, 152
-0.997869, 1, 97, 500, 160
-0.997873, 319, 189, 334, 220
-0.997885, 343, 133, 358, 164
-0.997891, 289, 305, 416, 336
-0.997891, 249, 189, 264, 220
-0.997909, 145, 97, 272, 128
-0.997914, 151, 117, 166, 148
-0.997915, 257, 69, 272, 100
-0.997919, 337, 33, 400, 288
-0.997923, 173, 153, 188, 184
-0.997926, 129, 101, 144, 132
-0.997927, 299, 217, 314, 248
-0.997932, 305, 109, 432, 140
-0.997935, 119, 69, 134, 100
-0.997946, 307, 209, 322, 240
-0.997947, 249, 9, 312, 72
-0.997964, 331, 125, 346, 156
-0.997967, 269, 85, 284, 116
-0.997973, 263, 81, 278, 112
-0.997973, 173, 101, 188, 132
-0.997976, 267, 153, 282, 184
-0.997978, 275, 89, 290, 120
-0.997987, 319, 141, 334, 172
-0.997993, 239, 197, 254, 228
-0.997994, 275, 321, 290, 352
-0.998, 293, 201, 308, 232
-0.998, 219, 85, 234, 116
-0.998008, 107, 77, 122, 108
-0.99801, 289, 273, 416, 336
-0.99801, 379, 273, 394, 304
-0.998012, 301, 165, 316, 196
-0.998013, 47, 81, 62, 112
-0.998028, 385, 265, 400, 296
-0.998029, 241, 325, 368, 356
-0.99803, 191, 85, 206, 116
-0.998033, 187, 133, 202, 164
-0.998034, 161, 233, 416, 296
-0.998038, 141, 153, 156, 184
-0.998045, 271, 61, 286, 92
-0.998061, 175, 89, 190, 120
-0.998065, 275, 161, 290, 192
-0.998077, 193, 297, 320, 328
-0.99808, 231, 197, 246, 228
-0.998081, 281, 141, 296, 172
-0.998081, 167, 129, 182, 160
-0.998084, 377, 129, 440, 375
-0.998085, 211, 65, 226, 96
-0.998087, 197, 73, 212, 104
-0.998089, 73, 57, 88, 88
-0.998091, 293, 229, 308, 260
-0.998091, 307, 189, 322, 220
-0.998094, 263, 169, 278, 200
-0.998101, 383, 173, 398, 204
-0.998103, 367, 113, 382, 144
-0.998105, 287, 221, 302, 252
-0.998105, 313, 189, 328, 220
-0.998107, 65, 61, 80, 92
-0.998107, 313, 149, 328, 180
-0.998116, 307, 137, 322, 168
-0.99813, 335, 153, 350, 184
-0.99813, 161, 113, 176, 144
-0.998132, 135, 109, 150, 140
-0.998138, 205, 65, 220, 96
-0.998138, 133, 149, 148, 180
-0.998139, 393, 253, 408, 284
-0.998139, 325, 185, 340, 216
-0.998141, 117, 33, 148, 160
-0.998142, 231, 209, 246, 240
-0.998143, 285, 169, 300, 200
-0.998145, 135, 121, 150, 152
-0.998151, 285, 129, 300, 160
-0.998155, 409, 169, 424, 200
-0.998157, 257, 81, 384, 112
-0.998161, 281, 249, 344, 312
-0.998161, 1, 241, 128, 368
-0.998163, 129, 137, 144, 168
-0.998166, 189, 69, 204, 100
-0.99817, 295, 129, 310, 160
-0.998173, 157, 189, 172, 220
-0.998177, 277, 129, 308, 375
-0.998178, 243, 133, 258, 164
-0.998179, 261, 97, 292, 352
-0.998182, 173, 129, 188, 160
-0.998183, 409, 189, 424, 220
-0.998183, 373, 277, 388, 308
-0.998184, 161, 1, 224, 256
-0.998187, 121, 1, 184, 128
-0.998194, 397, 241, 412, 272
-0.998196, 49, 1, 112, 128
-0.998201, 299, 229, 314, 260
-0.998202, 203, 97, 218, 128
-0.998208, 225, 197, 240, 228
-0.998211, 181, 149, 196, 180
-0.998219, 337, 85, 464, 116
-0.998223, 213, 229, 228, 260
-0.998235, 301, 205, 316, 236
-0.998238, 285, 197, 300, 228
-0.99824, 145, 305, 272, 336
-0.998282, 49, 225, 112, 288
-0.998333, 1, 305, 500, 368
-0.998336, 369, 173, 496, 204
-0.998338, 161, 181, 288, 212
-0.998342, 321, 145, 448, 176
-0.998373, 293, 97, 324, 352
-0.998377, 229, 1, 260, 256
-0.998389, 265, 1, 328, 256
-0.998394, 145, 317, 272, 348
-0.998397, 249, 129, 280, 144
-0.998397, 357, 113, 388, 128
-0.998398, 161, 141, 192, 156
-0.998398, 65, 139, 96, 154
-0.9984, 165, 101, 196, 116
-0.998401, 121, 81, 152, 96
-0.998401, 209, 145, 240, 160
-0.998401, 313, 149, 344, 164
-0.998402, 353, 125, 384, 140
-0.998403, 41, 133, 72, 148
-0.998404, 213, 63, 244, 78
-0.998404, 273, 273, 400, 304
-0.998405, 361, 287, 392, 302
-0.998407, 157, 121, 188, 136
-0.998408, 57, 65, 88, 80
-0.998408, 313, 33, 376, 160
-0.99841, 221, 79, 252, 94
-0.99841, 341, 299, 372, 314
-0.998411, 245, 197, 276, 212
-0.998412, 257, 137, 288, 152
-0.998412, 277, 209, 308, 224
-0.998412, 197, 109, 228, 124
-0.998414, 277, 105, 308, 120
-0.998414, 161, 127, 192, 142
-0.998414, 289, 141, 320, 156
-0.998415, 265, 317, 296, 332
-0.998417, 173, 153, 204, 168
-0.998417, 97, 77, 128, 92
-0.998418, 265, 221, 296, 236
-0.998421, 289, 209, 320, 224
-0.998422, 109, 93, 140, 108
-0.998422, 193, 97, 224, 112
-0.998425, 229, 209, 260, 224
-0.998425, 245, 63, 276, 78
-0.998427, 233, 199, 264, 214
-0.998428, 193, 145, 224, 160
-0.998429, 341, 169, 372, 184
-0.99843, 325, 143, 356, 158
-0.998432, 269, 145, 300, 160
-0.998433, 273, 253, 400, 284
-0.998433, 285, 175, 316, 190
-0.998433, 209, 79, 240, 94
-0.998434, 301, 319, 332, 334
-0.998434, 325, 307, 356, 322
-0.998434, 301, 143, 332, 158
-0.998435, 89, 51, 120, 66
-0.998435, 293, 227, 324, 242
-0.998435, 313, 313, 344, 328
-0.998437, 173, 141, 204, 156
-0.998437, 353, 293, 384, 308
-0.998438, 261, 75, 292, 90
-0.998439, 53, 137, 84, 152
-0.998439, 269, 333, 300, 348
-0.998439, 289, 215, 320, 230
-0.998439, 357, 187, 388, 202
-0.99844, 301, 189, 332, 204
-0.99844, 229, 193, 260, 208
-0.998442, 109, 73, 140, 88
-0.998442, 65, 59, 96, 74
-0.998442, 169, 107, 200, 122
-0.998443, 397, 173, 428, 188
-0.998443, 313, 157, 344, 172
-0.998444, 141, 133, 172, 148
-0.998445, 289, 109, 320, 124
-0.998446, 153, 133, 184, 148
-0.998447, 245, 145, 276, 160
-0.998448, 193, 115, 224, 130
-0.998449, 353, 165, 384, 180
-0.99845, 305, 181, 336, 196
-0.99845, 309, 175, 340, 190
-0.99845, 181, 119, 212, 134
-0.998451, 297, 115, 328, 130
-0.998456, 249, 185, 280, 200
-0.998456, 325, 155, 356, 170
-0.998457, 269, 171, 300, 186
-0.99846, 245, 81, 276, 96
-0.998462, 297, 195, 328, 210
-0.998463, 221, 145, 252, 160
-0.998464, 389, 185, 420, 200
-0.998464, 257, 305, 500, 368
-0.998465, 341, 163, 372, 178
-0.998465, 241, 191, 272, 206
-0.998467, 145, 1, 176, 256
-0.998467, 249, 71, 280, 86
-0.99847, 149, 149, 180, 164
-0.998471, 201, 69, 264, 84
-0.998472, 313, 169, 344, 184
-0.998473, 361, 171, 392, 186
-0.998473, 161, 115, 192, 130
-0.998473, 241, 289, 368, 320
-0.998473, 161, 153, 192, 168
-0.998473, 193, 69, 224, 84
-0.998475, 149, 139, 180, 154
-0.998476, 117, 139, 148, 154
-0.998476, 129, 151, 192, 166
-0.998476, 169, 91, 200, 106
-0.998477, 329, 133, 360, 148
-0.998477, 289, 165, 352, 180
-0.998477, 141, 121, 172, 136
-0.998478, 277, 219, 308, 234
-0.998481, 137, 149, 168, 164
-0.998481, 129, 143, 160, 158
-0.998483, 173, 129, 204, 144
-0.998489, 153, 117, 216, 132
-0.998491, 357, 119, 388, 134
-0.998492, 365, 181, 396, 196
-0.998493, 129, 127, 192, 142
-0.998494, 337, 127, 368, 142
-0.998496, 1, 225, 500, 288
-0.998496, 253, 191, 284, 206
-0.998496, 313, 125, 344, 140
-0.998498, 149, 155, 180, 170
-0.9985, 377, 189, 408, 204
-0.9985, 269, 177, 300, 192
-0.9985, 181, 147, 212, 162
-0.998502, 313, 165, 376, 180
-0.998502, 313, 163, 344, 178
-0.998503, 213, 69, 244, 84
-0.998503, 257, 145, 288, 160
-0.998504, 369, 89, 400, 104
-0.998505, 177, 69, 240, 84
-0.998506, 397, 179, 428, 194
-0.998507, 49, 257, 112, 320
-0.998509, 301, 165, 332, 180
-0.998509, 289, 141, 352, 156
-0.99851, 113, 45, 240, 76
-0.99851, 385, 173, 416, 188
-0.99851, 181, 105, 212, 120
-0.99851, 377, 181, 408, 196
-0.998511, 361, 173, 424, 188
-0.998512, 233, 67, 296, 82
-0.998513, 233, 145, 264, 160
-0.998515, 325, 165, 356, 180
-0.998515, 113, 225, 240, 256
-0.998515, 225, 145, 288, 160
-0.998515, 289, 221, 320, 236
-0.998516, 145, 49, 176, 176
-0.998521, 77, 55, 108, 70
-0.998522, 377, 167, 408, 182
-0.998523, 201, 145, 264, 160
-0.998523, 109, 79, 140, 94
-0.998523, 305, 213, 432, 244
-0.998524, 121, 133, 184, 148
-0.998525, 217, 79, 280, 94
-0.998529, 361, 185, 424, 200
-0.998529, 201, 63, 264, 78
-0.998534, 261, 183, 292, 198
-0.998535, 289, 169, 320, 184
-0.998535, 261, 91, 292, 106
-0.998536, 161, 147, 192, 162
-0.998536, 249, 185, 312, 200
-0.998537, 113, 213, 240, 244
-0.998539, 153, 125, 216, 140
-0.998539, 129, 119, 192, 134
-0.99854, 241, 73, 304, 88
-0.998542, 265, 143, 328, 158
-0.998542, 241, 317, 304, 332
-0.998546, 149, 127, 180, 142
-0.998547, 153, 111, 216, 126
-0.998549, 161, 153, 224, 168
-0.99855, 233, 135, 296, 150
-0.998551, 257, 221, 320, 236
-0.998554, 129, 113, 192, 128
-0.998556, 121, 139, 184, 154
-0.998558, 297, 127, 360, 142
-0.998558, 129, 131, 160, 146
-0.998563, 329, 121, 392, 136
-0.998565, 281, 171, 344, 186
-0.998566, 97, 79, 160, 94
-0.998566, 169, 145, 232, 160
-0.998567, 329, 171, 392, 186
-0.998567, 273, 317, 336, 332
-0.99857, 233, 67, 264, 82
-0.998571, 345, 191, 408, 206
-0.998572, 97, 143, 160, 158
-0.998572, 129, 145, 192, 160
-0.998573, 273, 99, 304, 114
-0.998573, 241, 191, 304, 206
-0.998576, 305, 159, 368, 174
-0.998576, 249, 105, 312, 120
-0.998578, 169, 105, 232, 120
-0.998578, 305, 135, 368, 150
-0.998585, 353, 167, 416, 182
-0.998585, 33, 185, 96, 248
-0.998586, 113, 157, 176, 172
-0.998586, 265, 165, 328, 180
-0.998587, 145, 135, 208, 150
-0.998588, 225, 61, 288, 76
-0.998588, 281, 193, 344, 208
-0.998588, 249, 211, 312, 226
-0.998589, 129, 137, 160, 152
-0.99859, 329, 127, 392, 142
-0.998591, 105, 45, 168, 60
-0.998592, 265, 203, 328, 218
-0.998594, 249, 99, 312, 114
-0.998594, 225, 201, 288, 216
-0.998598, 137, 157, 200, 172
-0.998599, 369, 179, 432, 194
-0.998599, 225, 311, 288, 326
-0.9986, 353, 241, 416, 304
-0.998602, 225, 185, 288, 200
-0.998605, 321, 115, 384, 130
-0.998606, 257, 173, 320, 188
-0.998606, 97, 85, 160, 100
-0.998606, 193, 75, 256, 90
-0.998608, 73, 141, 136, 156
-0.998608, 273, 311, 336, 326
-0.998608, 97, 73, 160, 88
-0.998609, 81, 95, 144, 110
-0.998612, 161, 159, 224, 174
-0.998612, 257, 131, 320, 146
-0.998612, 217, 191, 280, 206
-0.998612, 273, 121, 336, 136
-0.998612, 241, 325, 304, 340
-0.998612, 321, 133, 448, 164
-0.998613, 41, 139, 104, 154
-0.998613, 129, 107, 192, 122
-0.998613, 169, 121, 200, 136
-0.998614, 225, 55, 288, 70
-0.998614, 321, 185, 384, 200
-0.998615, 177, 113, 208, 128
-0.998615, 297, 315, 360, 330
-0.998616, 121, 85, 184, 100
-0.998616, 225, 85, 288, 100
-0.998617, 257, 239, 320, 254
-0.998618, 81, 49, 144, 64
-0.998619, 297, 147, 360, 162
-0.998619, 177, 63, 240, 78
-0.99862, 257, 137, 320, 152
-0.998621, 121, 17, 184, 80
-0.998622, 337, 159, 400, 174
-0.998622, 169, 75, 232, 90
-0.998623, 225, 211, 288, 226
-0.998623, 121, 163, 184, 178
-0.998625, 233, 125, 296, 140
-0.998625, 313, 309, 376, 324
-0.998626, 337, 177, 400, 192
-0.998626, 217, 317, 280, 332
-0.998627, 313, 141, 376, 156
-0.998628, 273, 149, 336, 164
-0.998631, 345, 97, 408, 112
-0.998632, 401, 193, 464, 320
-0.998633, 265, 323, 328, 338
-0.998634, 217, 217, 280, 232
-0.998635, 257, 229, 320, 244
-0.998635, 65, 57, 128, 72
-0.998636, 257, 111, 320, 126
-0.998638, 129, 47, 192, 62
-0.998638, 353, 123, 416, 138
-0.998639, 289, 101, 352, 116
-0.998641, 177, 83, 240, 98
-0.998641, 73, 89, 136, 104
-0.998642, 249, 97, 280, 352
-0.998643, 329, 241, 392, 304
-0.998644, 193, 315, 256, 330
-0.998647, 57, 63, 120, 78
-0.998648, 321, 97, 384, 112
-0.998648, 129, 99, 192, 114
-0.998648, 361, 91, 424, 106
-0.998649, 73, 79, 136, 94
-0.99865, 329, 135, 392, 150
-0.998651, 169, 139, 232, 154
-0.998652, 225, 47, 288, 62
-0.998652, 281, 219, 344, 234
-0.998652, 249, 149, 312, 164
-0.998653, 177, 91, 240, 106
-0.998653, 305, 171, 368, 186
-0.998655, 169, 99, 232, 114
-0.998656, 137, 79, 200, 94
-0.998656, 169, 131, 232, 146
-0.998657, 49, 71, 112, 86
-0.998657, 97, 137, 160, 152
-0.998657, 1, 53, 128, 84
-0.998658, 369, 191, 432, 206
-0.998658, 65, 135, 128, 150
-0.998658, 201, 139, 264, 154
-0.998658, 265, 179, 328, 194
-0.998659, 177, 119, 240, 134
-0.998662, 233, 75, 264, 90
-0.998662, 265, 333, 328, 348
-0.998662, 305, 121, 368, 136
-0.998684, 161, 225, 288, 256
-0.998685, 161, 169, 288, 200
-0.99869, 353, 265, 480, 296
-0.998734, 289, 1, 352, 256
-0.998738, 193, 249, 320, 280
-0.998746, 433, 209, 496, 272
-0.998751, 1, 33, 128, 64
-0.998754, 129, 249, 256, 312
-0.998779, 305, 257, 368, 320
-0.998787, 193, 269, 320, 300
-0.998787, 353, 97, 480, 128
-0.998816, 409, 161, 440, 288
-0.998819, 267, 81, 282, 208
-0.99882, 321, 293, 448, 324
-0.998835, 33, 281, 288, 344
-0.998854, 209, 37, 336, 68
-0.998857, 185, 65, 200, 192
-0.998859, 337, 121, 464, 152
-0.998859, 257, 237, 384, 268
-0.998865, 337, 185, 464, 216
-0.998871, 113, 1, 144, 256
-0.998872, 193, 333, 320, 364
-0.998882, 81, 193, 144, 256
-0.998908, 205, 17, 236, 144
-0.998917, 361, 1, 424, 375
-0.998935, 369, 209, 496, 240
-0.998938, 265, 1, 296, 128
-0.99896, 65, 113, 96, 240
-0.998962, 397, 225, 428, 352
-0.99897, 193, 265, 448, 328
-0.998977, 189, 65, 220, 320
-0.99898, 267, 145, 282, 272
-0.998981, 213, 129, 244, 375
-0.999007, 41, 113, 72, 240
-0.999011, 273, 41, 336, 104
-0.999036, 193, 285, 320, 316
-0.999049, 165, 65, 196, 320
-0.999067, 257, 217, 500, 280
-0.999072, 191, 65, 206, 192
-0.999073, 265, 33, 280, 160
-0.999082, 1, 241, 256, 304
-0.999093, 101, 33, 132, 288
-0.999093, 241, 17, 256, 144
-0.999097, 1, 209, 128, 272
-0.9991, 21, 17, 52, 144
-0.999102, 299, 145, 314, 272
-0.999115, 133, 33, 164, 288
-0.999116, 175, 81, 190, 208
-0.999119, 377, 129, 440, 192
-0.999119, 353, 109, 480, 140
-0.99912, 373, 129, 404, 375
-0.999125, 49, 33, 176, 64
-0.999138, 129, 217, 192, 280
-0.999146, 155, 97, 170, 224
-0.999161, 273, 129, 288, 256
-0.999165, 367, 97, 382, 224
-0.999166, 149, 97, 164, 224
-0.999169, 253, 1, 284, 256
-0.999174, 389, 129, 420, 375
-0.999181, 247, 17, 262, 144
-0.999181, 185, 113, 200, 240
-0.999184, 161, 97, 176, 224
-0.999202, 289, 317, 416, 348
-0.999205, 379, 129, 394, 256
-0.999205, 273, 65, 288, 192
-0.99922, 197, 65, 212, 192
-0.999224, 293, 97, 308, 224
-0.999224, 271, 193, 286, 320
-0.999226, 369, 161, 496, 192
-0.999231, 105, 225, 168, 288
-0.999231, 261, 97, 276, 224
-0.999231, 139, 97, 154, 224
-0.99924, 169, 81, 184, 208
-0.999245, 161, 237, 288, 268
-0.999258, 373, 97, 388, 224
-0.999261, 169, 17, 232, 80
-0.999278, 1, 25, 256, 88
-0.999284, 259, 145, 274, 272
-0.999285, 259, 33, 274, 160
-0.999286, 81, 341, 208, 372
-0.999292, 389, 177, 404, 304
-0.999295, 337, 277, 464, 308
-0.999298, 305, 129, 336, 375
-0.999299, 317, 145, 332, 272
-0.999303, 397, 177, 412, 304
-0.999311, 401, 145, 464, 272
-0.999312, 81, 233, 208, 296
-0.999316, 253, 33, 268, 160
-0.999316, 113, 193, 240, 224
-0.999316, 97, 25, 352, 88
-0.999316, 337, 129, 368, 375
-0.999321, 221, 129, 236, 256
-0.999323, 323, 97, 338, 224
-0.999327, 65, 329, 192, 360
-0.999331, 277, 33, 308, 288
-0.999333, 283, 161, 298, 288
-0.999342, 295, 193, 310, 320
-0.999351, 121, 193, 184, 320
-0.999356, 361, 129, 392, 375
-0.999356, 121, 97, 152, 352
-0.999357, 1, 177, 500, 240
-0.999358, 179, 33, 194, 160
-0.999366, 361, 113, 376, 240
-0.999367, 351, 97, 366, 224
-0.999375, 127, 81, 142, 208
-0.999376, 289, 145, 304, 272
-0.999381, 389, 97, 404, 224
-0.999393, 369, 253, 496, 284
-0.999399, 311, 129, 326, 256
-0.999407, 305, 145, 320, 272
-0.999409, 361, 161, 376, 288
-0.999417, 201, 65, 232, 320
-0.999419, 367, 161, 382, 288
-0.99942, 145, 97, 176, 352
-0.999422, 305, 241, 432, 272
-0.999423, 217, 33, 248, 288
-0.999425, 261, 193, 276, 320
-0.999431, 279, 113, 294, 240
-0.999437, 169, 129, 184, 256
-0.99944, 235, 33, 250, 160
-0.999443, 255, 97, 270, 224
-0.999445, 97, 173, 224, 204
-0.999446, 17, 241, 80, 368
-0.999447, 369, 197, 496, 228
-0.99945, 287, 209, 302, 336
-0.999451, 265, 1, 296, 256
-0.999458, 215, 145, 230, 272
-0.999462, 113, 33, 240, 64
-0.999465, 257, 49, 384, 80
-0.999468, 343, 113, 358, 240
-0.999476, 379, 81, 394, 208
-0.999477, 17, 257, 144, 288
-0.999482, 215, 65, 230, 192
-0.999483, 221, 81, 236, 208
-0.999485, 377, 265, 440, 328
-0.999486, 321, 97, 352, 352
-0.999487, 313, 33, 376, 288
-0.999489, 321, 225, 448, 256
-0.99949, 317, 97, 332, 224
-0.999493, 277, 225, 292, 352
-0.999495, 231, 129, 246, 256
-0.999498, 403, 193, 418, 320
-0.999503, 409, 161, 424, 288
-0.999508, 159, 145, 174, 272
-0.999509, 241, 337, 368, 368
-0.999512, 277, 177, 292, 304
-0.999513, 117, 65, 132, 192
-0.999515, 203, 33, 218, 160
-0.999517, 349, 209, 380, 336
-0.999518, 145, 329, 272, 360
-0.99952, 205, 225, 220, 352
-0.999522, 245, 65, 260, 192
-0.999525, 191, 113, 206, 240
-0.99953, 49, 173, 176, 204
-0.999531, 311, 177, 326, 304
-0.999533, 397, 129, 412, 256
-0.999535, 149, 49, 164, 176
-0.999538, 133, 81, 148, 208
-0.99954, 189, 17, 204, 144
-0.999541, 49, 229, 176, 260
-0.999541, 287, 97, 302, 224
-0.999544, 177, 129, 192, 256
-0.999545, 273, 69, 400, 100
-0.99955, 49, 245, 176, 276
-0.999551, 299, 97, 314, 224
-0.999552, 33, 157, 160, 188
-0.999557, 55, 65, 70, 192
-0.999558, 211, 209, 226, 336
-0.999562, 373, 145, 388, 272
-0.999567, 369, 149, 496, 180
-0.999569, 337, 129, 352, 256
-0.99957, 163, 49, 178, 176
-0.999579, 17, 341, 144, 372
-0.999585, 153, 145, 168, 272
-0.999585, 279, 65, 294, 192
-0.999591, 271, 241, 286, 368
-0.999593, 131, 129, 146, 256
-0.999596, 1, 9, 64, 72
-0.999604, 45, 65, 60, 192
-0.999612, 207, 97, 222, 224
-0.999616, 87, 33, 102, 160
-0.999616, 1, 289, 128, 320
-0.999616, 171, 33, 186, 160
-0.999617, 253, 145, 268, 272
-0.99962, 327, 145, 342, 272
-0.99962, 113, 265, 240, 296
-0.999621, 297, 167, 312, 182
-0.999622, 261, 85, 276, 100
-0.999622, 293, 221, 308, 236
-0.999622, 379, 189, 394, 204
-0.999623, 125, 87, 140, 102
-0.999624, 263, 179, 278, 194
-0.999624, 287, 221, 302, 236
-0.999624, 57, 71, 72, 86
-0.999624, 301, 225, 316, 352
-0.999624, 285, 97, 300, 112
-0.999625, 375, 171, 390, 186
-0.999625, 209, 49, 224, 176
-0.999625, 381, 89, 396, 104
-0.999625, 225, 217, 240, 232
-0.999626, 135, 151, 150, 166
-0.999626, 191, 69, 206, 84
-0.999627, 245, 199, 260, 214
-0.999627, 139, 49, 154, 176
-0.999627, 155, 49, 170, 176
-0.999627, 227, 85, 242, 100
-0.999628, 225, 205, 240, 220
-0.999628, 171, 157, 186, 172
-0.999628, 153, 121, 168, 136
-0.999629, 333, 133, 348, 148
-0.999629, 297, 105, 312, 120
-0.999631, 247, 189, 262, 204
-0.999631, 273, 167, 288, 182
-0.999631, 147, 143, 162, 158
-0.999632, 1, 101, 128, 132
-0.999632, 401, 179, 416, 194
-0.999633, 185, 151, 200, 166
-0.999633, 311, 179, 326, 194
-0.999634, 317, 199, 332, 214
-0.999634, 363, 185, 378, 200
-0.999634, 145, 131, 160, 146
-0.999634, 163, 159, 178, 174
-0.999635, 287, 169, 302, 184
-0.999635, 313, 163, 328, 178
-0.999637, 181, 111, 196, 126
-0.999637, 303, 141, 318, 156
-0.999637, 381, 173, 396, 188
-0.999637, 373, 179, 388, 194
-0.999638, 391, 173, 406, 188
-0.999638, 243, 73, 258, 88
-0.999639, 315, 173, 330, 188
-0.999639, 127, 103, 142, 118
-0.999639, 385, 159, 400, 174
-0.99964, 169, 143, 184, 158
-0.999641, 401, 171, 416, 186
-0.999641, 153, 141, 168, 156
-0.999641, 397, 225, 412, 352
-0.999641, 373, 49, 388, 176
-0.999641, 201, 111, 216, 126
-0.999642, 179, 129, 194, 144
-0.999642, 185, 145, 200, 160
-0.999642, 81, 57, 96, 72
-0.999642, 271, 17, 286, 144
-0.999644, 175, 145, 190, 160
-0.999644, 327, 153, 342, 168
-0.999644, 319, 119, 334, 134
-0.999644, 385, 189, 400, 204
-0.999645, 169, 119, 184, 134
-0.999645, 267, 137, 282, 152
-0.999646, 329, 165, 344, 180
-0.999646, 185, 129, 200, 144
-0.999646, 369, 169, 384, 184
-0.999646, 273, 179, 288, 194
-0.999647, 269, 145, 284, 160
-0.999647, 251, 145, 266, 160
-0.999648, 1, 301, 128, 332
-0.999649, 231, 211, 246, 226
-0.999649, 193, 117, 208, 132
-0.99965, 175, 107, 190, 122
-0.99965, 161, 127, 176, 142
-0.99965, 403, 145, 418, 272
-0.99965, 313, 205, 328, 220
-0.999652, 231, 203, 246, 218
-0.999652, 75, 57, 90, 72
-0.999652, 407, 177, 422, 192
-0.999652, 133, 109, 148, 124
-0.999653, 383, 177, 398, 304
-0.999653, 341, 133, 356, 148
-0.999654, 119, 91, 134, 106
-0.999654, 385, 181, 400, 196
-0.999654, 331, 127, 346, 142
-0.999656, 295, 215, 310, 230
-0.999656, 139, 141, 154, 156
-0.999657, 175, 135, 190, 150
-0.999657, 63, 67, 78, 82
-0.999659, 159, 151, 174, 166
-0.99966, 269, 87, 284, 102
-0.999661, 169, 131, 184, 146
-0.999661, 193, 111, 208, 126
-0.999662, 335, 161, 350, 176
-0.999663, 149, 153, 164, 168
-0.999664, 255, 77, 270, 92
-0.999664, 325, 123, 340, 138
-0.999665, 183, 105, 198, 120
-0.999665, 281, 171, 296, 186
-0.999665, 225, 79, 240, 94
-0.999665, 369, 123, 384, 138
-0.999667, 305, 97, 320, 224
-0.999669, 301, 221, 316, 236
-0.999671, 71, 63, 86, 78
-0.999671, 235, 145, 250, 160
-0.999673, 179, 153, 194, 168
-0.999673, 1, 113, 128, 144
-0.999673, 277, 95, 292, 110
-0.999673, 253, 193, 268, 208
-0.999673, 151, 131, 166, 146
-0.999673, 143, 123, 158, 138
-0.999675, 243, 145, 258, 160
-0.999677, 1, 189, 128, 220
-0.999678, 81, 33, 96, 160
-0.999679, 237, 75, 252, 90
-0.99968, 391, 167, 406, 182
-0.99968, 249, 73, 264, 88
-0.99968, 1, 173, 128, 204
-0.99968, 33, 209, 160, 240
-0.999681, 359, 121, 374, 136
-0.999681, 355, 145, 370, 272
-0.999685, 175, 113, 190, 128
-0.999685, 333, 81, 348, 208
-0.999686, 109, 79, 124, 94
-0.999687, 175, 121, 190, 136
-0.999687, 187, 117, 202, 132
-0.999688, 145, 137, 160, 152
-0.999688, 121, 79, 136, 94
-0.999689, 157, 157, 172, 172
-0.999692, 133, 143, 148, 158
-0.999696, 261, 241, 276, 368
-0.999697, 311, 81, 326, 208
-0.999697, 213, 65, 228, 80
-0.9997, 133, 135, 148, 150
-0.999701, 323, 165, 338, 180
-0.999701, 271, 173, 286, 188
-0.999704, 141, 149, 156, 164
-0.999706, 265, 185, 280, 200
-0.999706, 61, 65, 76, 192
-0.999707, 111, 65, 126, 192
-0.999711, 393, 1, 456, 375
-0.999712, 39, 65, 54, 192
-0.999712, 379, 181, 394, 196
-0.999712, 239, 81, 254, 208
-0.999712, 169, 125, 184, 140
-0.999712, 391, 183, 406, 198
-0.999714, 237, 67, 252, 82
-0.999714, 217, 193, 232, 320
-0.999714, 225, 193, 240, 320
-0.999717, 227, 81, 242, 208
-0.99972, 245, 113, 260, 240
-0.999723, 259, 185, 274, 200
-0.999723, 181, 123, 196, 138
-0.999725, 165, 153, 180, 168
-0.999727, 171, 151, 186, 166
-0.999728, 363, 49, 378, 176
-0.999728, 195, 17, 210, 144
-0.999732, 369, 115, 384, 130
-0.999732, 139, 129, 154, 144
-0.999734, 235, 177, 250, 304
-0.999735, 49, 17, 64, 144
-0.999735, 113, 237, 240, 268
-0.999737, 111, 1, 126, 128
-0.999738, 297, 1, 328, 256
-0.999741, 15, 1, 30, 128
-0.999743, 45, 1, 76, 256
-0.999746, 335, 155, 350, 170
-0.999746, 343, 65, 358, 192
-0.999751, 97, 17, 112, 144
-0.999752, 145, 145, 160, 272
-0.999752, 353, 73, 480, 104
-0.999753, 229, 33, 244, 160
-0.999754, 1, 177, 256, 240
-0.999756, 399, 81, 414, 208
-0.999756, 127, 33, 142, 160
-0.999764, 243, 67, 258, 82
-0.999764, 415, 161, 430, 288
-0.999764, 239, 129, 254, 256
-0.999766, 319, 193, 334, 320
-0.999767, 117, 17, 132, 144
-0.999772, 369, 221, 496, 252
-0.999774, 327, 159, 342, 174
-0.999775, 349, 145, 364, 272
-0.999781, 69, 33, 100, 288
-0.999805, 349, 97, 380, 352
-0.999819, 57, 1, 88, 256
-0.999897, 177, 65, 208, 320
-0.99991, 41, 17, 72, 144
-0.999923, 25, 1, 88, 256
-0.999926, 233, 97, 264, 352
-0.999938, 321, 49, 352, 176
-0.999945, 369, 49, 432, 176
-0.999951, 81, 33, 112, 288
-0.999959, 133, 129, 164, 375
-0.99999, 161, 177, 224, 304
-0.999997, 329, 57, 392, 120
-1.00002, 65, 129, 96, 375
-1.00002, 161, 289, 416, 352
-1.00004, 53, 129, 84, 375
-1.00014, 349, 1, 380, 256
-1.00014, 377, 33, 408, 288
-1.00019, 401, 129, 432, 375
-1.00026, 1, 281, 500, 344
-1.00034, 1, 41, 500, 104
-1.00035, 365, 33, 396, 288
-1.00035, 321, 1, 352, 256
-1.00037, 1, 1, 256, 64
-1.00038, 257, 25, 500, 88
-1.00042, 193, 9, 320, 72
-1.00046, 5, 1, 36, 128
-1.0005, 389, 33, 420, 288
-1.00051, 57, 97, 120, 352
-1.00054, 97, 257, 352, 320
-1.00055, 369, 105, 496, 168
-1.00059, 293, 241, 324, 368
-1.00059, 33, 33, 64, 288
-1.0006, 233, 225, 264, 352
-1.00071, 337, 33, 368, 288
-1.00071, 5, 129, 36, 375
-1.00072, 109, 129, 140, 375
-1.00074, 309, 33, 340, 288
-1.00076, 1, 201, 500, 264
-1.00076, 77, 129, 108, 375
-1.00078, 337, 305, 464, 368
-1.00082, 1, 1, 32, 256
-1.00083, 401, 33, 432, 288
-1.00084, 153, 193, 184, 320
-1.00084, 37, 129, 68, 375
-1.00091, 13, 1, 44, 256
-1.00097, 257, 241, 500, 304
-1.00097, 1, 257, 500, 320
-1.00099, 413, 97, 444, 352
-1.00099, 17, 97, 48, 352
-1.00105, 65, 1, 96, 128
-1.00109, 97, 1, 352, 64
-1.00112, 381, 33, 412, 160
-1.00115, 425, 129, 456, 375
-1.00116, 89, 129, 120, 375
-1.00118, 1, 17, 500, 80
-1.0013, 361, 225, 392, 352
-1.00133, 469, 129, 500, 375
-1.00135, 453, 129, 484, 375
-1.00143, 413, 1, 444, 256
-1.00146, 1, 177, 128, 304
-1.00148, 61, 241, 92, 368
-1.00148, 437, 97, 468, 352
-1.00153, 277, 1, 308, 128
-1.00154, 433, 1, 496, 375
-1.00155, 425, 1, 456, 256
-1.00157, 189, 129, 220, 256
-1.00157, 453, 1, 484, 256
-1.0016, 469, 1, 500, 256
-1.00164, 49, 241, 80, 368
-1.00165, 441, 1, 472, 256
-1.00167, 193, 1, 448, 64
-1.00168, 337, 1, 464, 64
-1.00175, 369, 33, 400, 160
-1.00177, 337, 65, 368, 192
-1.00182, 289, 25, 416, 88
-1.00189, 337, 25, 464, 88
-1.00194, 141, 193, 172, 320
-1.002, 305, 33, 432, 160
-1.00203, 33, 225, 64, 352
-1.00213, 77, 1, 108, 128
-1.00223, 329, 241, 360, 368
-1.00229, 77, 241, 108, 368
-1.00234, 17, 241, 48, 368
-1.00234, 289, 1, 416, 64
-1.00236, 69, 161, 100, 288
-1.00242, 89, 113, 120, 240
-1.00248, 1, 225, 32, 352
-1.00253, 49, 161, 112, 288
-1.00272, 425, 193, 488, 320
-1.00277, 89, 129, 152, 375
-1.00279, 73, 177, 136, 304
-1.00283, 53, 161, 84, 288
-1.00287, 169, 1, 200, 128
-1.00297, 361, 33, 424, 288
-1.00311, 401, 129, 464, 375
-1.00323, 109, 129, 140, 256
-1.00325, 9, 49, 40, 176
-1.00327, 1, 193, 64, 320
-1.00339, 85, 161, 116, 288
-1.00346, 457, 193, 488, 320
-1.00352, 177, 193, 208, 320
-1.00359, 405, 113, 436, 240
-1.00361, 357, 17, 388, 144
-1.00368, 317, 193, 348, 320
-1.00373, 97, 225, 160, 352
-1.00374, 1, 1, 64, 256
-1.00375, 393, 33, 456, 288
-1.00375, 13, 193, 44, 320
-1.00385, 53, 1, 84, 128
-1.00393, 305, 241, 336, 368
-1.00396, 73, 241, 136, 368
-1.00404, 189, 177, 220, 304
-1.00412, 9, 97, 72, 352
-1.00413, 101, 177, 132, 304
-1.00414, 125, 225, 156, 352
-1.00422, 17, 97, 48, 224
-1.00422, 317, 241, 348, 368
-1.00427, 77, 97, 108, 224
-1.0043, 469, 145, 500, 272
-1.00431, 129, 241, 192, 368
-1.00438, 37, 177, 68, 304
-1.00457, 1, 177, 32, 304
-1.00529, 25, 161, 88, 288
-1.00598, 425, 97, 488, 352
-1.0061, 401, 97, 464, 224
-1.0062, 1, 113, 64, 240
-1.0067, 289, 17, 352, 144
-1.00698, 425, 145, 488, 272
-1.00798, 393, 49, 456, 176
-1.00815, 417, 241, 480, 368
-1.00821, 425, 1, 488, 256
-1.00862, 337, 1, 400, 128
-1.00921, 377, 1, 440, 128
-1.00987, 433, 49, 496, 176
-1.0127, 425, 1, 488, 128
-1.0135, 433, 97, 496, 224
-1.01552, 401, 1, 464, 128
