1971
-0.354728, 1, 257, 375, 500
-0.360162, 1, 129, 375, 384
-0.478784, 1, 1, 375, 500
-0.487955, 1, 33, 375, 288
-0.50587, 97, 129, 352, 384
-0.530325, 1, 1, 256, 500
-0.590547, 97, 225, 352, 480
-0.59311, 1, 225, 256, 480
-0.59604, 1, 97, 256, 352
-0.609423, 97, 1, 352, 500
-0.765122, 1, 1, 256, 256
-0.774266, 97, 33, 352, 288
-0.835109, 177, 129, 304, 384
-0.835261, 1, 1, 128, 500
-0.840614, 1, 33, 128, 288
-0.842343, 49, 65, 176, 320
-0.844942, 65, 225, 192, 480
-0.858757, 1, 97, 375, 224
-0.860124, 129, 129, 256, 384
-0.861743, 1, 129, 128, 384
-0.865784, 113, 257, 240, 500
-0.866229, 17, 257, 144, 500
-0.869397, 161, 1, 288, 500
-0.86966, 49, 1, 176, 500
-0.880803, 1, 241, 375, 368
-0.880926, 241, 1, 368, 500
-0.881726, 161, 225, 288, 480
-0.889758, 1, 193, 375, 320
-0.890332, 1, 321, 375, 448
-0.892759, 97, 161, 352, 288
-0.895636, 113, 1, 240, 500
-0.899251, 1, 145, 375, 272
-0.903508, 241, 1, 368, 256
-0.907776, 97, 289, 352, 416
-0.9081, 241, 97, 368, 352
-0.90849, 1, 209, 256, 336
-0.909713, 1, 113, 256, 240
-0.911055, 225, 257, 352, 500
-0.911788, 129, 33, 256, 288
-0.912683, 177, 33, 304, 288
-0.914175, 1, 369, 375, 496
-0.917552, 97, 241, 352, 368
-0.918079, 97, 113, 352, 240
-0.918098, 33, 337, 288, 464
-0.918561, 1, 161, 256, 288
-0.919973, 1, 257, 256, 384
-0.921221, 1, 49, 375, 176
-0.922393, 49, 209, 176, 336
-0.932144, 177, 129, 304, 256
-0.933469, 1, 1, 375, 128
-0.934288, 57, 145, 120, 272
-0.934408, 81, 161, 208, 288
-0.934661, 97, 177, 160, 304
-0.935095, 81, 113, 208, 240
-0.935196, 65, 257, 192, 384
-0.935783, 1, 129, 128, 256
-0.936012, 217, 337, 280, 464
-0.938044, 97, 225, 160, 352
-0.938723, 153, 273, 216, 400
-0.93935, 17, 273, 144, 400
-0.939572, 137, 177, 200, 304
-0.941165, 89, 97, 152, 224
-0.941199, 129, 337, 375, 464
-0.941967, 57, 241, 120, 368
-0.942344, 177, 273, 304, 400
-0.942394, 225, 113, 288, 240
-0.94286, 113, 257, 240, 384
-0.943969, 121, 241, 184, 368
-0.944058, 177, 177, 304, 304
-0.944065, 49, 49, 112, 176
-0.944234, 129, 161, 256, 288
-0.945058, 1, 209, 128, 336
-0.94575, 33, 65, 288, 192
-0.946939, 57, 153, 120, 216
-0.94707, 177, 225, 304, 352
-0.947177, 241, 273, 304, 400
-0.947185, 113, 337, 240, 464
-0.947232, 1, 49, 128, 176
-0.947669, 137, 321, 200, 448
-0.947753, 97, 209, 224, 336
-0.947886, 65, 193, 128, 320
-0.94789, 185, 289, 248, 416
-0.948809, 129, 113, 256, 240
-0.949971, 241, 369, 304, 496
-0.950158, 113, 305, 176, 432
-0.950183, 161, 313, 224, 376
-0.950932, 177, 337, 240, 464
-0.950984, 161, 209, 224, 336
-0.951403, 153, 113, 216, 240
-0.951613, 33, 241, 96, 368
-0.951947, 273, 225, 336, 352
-0.952201, 249, 161, 312, 288
-0.95259, 177, 337, 304, 464
-0.953059, 225, 113, 288, 176
-0.953401, 57, 209, 120, 272
-0.953584, 241, 113, 368, 240
-0.954704, 241, 257, 368, 384
-0.954772, 177, 97, 240, 224
-0.955203, 201, 129, 264, 256
-0.955391, 49, 321, 176, 448
-0.956465, 25, 33, 88, 160
-0.956587, 185, 113, 248, 176
-0.956622, 89, 185, 152, 248
-0.956645, 121, 113, 184, 240
-0.95685, 137, 169, 200, 232
-0.956934, 57, 97, 120, 224
-0.957019, 241, 321, 368, 448
-0.957567, 17, 113, 80, 240
-0.957846, 249, 113, 312, 240
-0.957866, 153, 289, 216, 352
-0.958168, 265, 369, 328, 496
-0.958222, 33, 369, 160, 496
-0.958929, 1, 17, 64, 144
-0.959151, 241, 209, 368, 336
-0.9595, 161, 337, 224, 400
-0.959808, 33, 193, 96, 320
-0.959834, 225, 145, 288, 208
-0.960004, 273, 305, 336, 432
-0.960313, 225, 361, 288, 424
-0.960417, 193, 241, 256, 368
-0.960916, 89, 105, 152, 168
-0.960965, 121, 369, 184, 496
-0.961019, 177, 161, 240, 288
-0.96137, 225, 369, 352, 496
-0.961382, 89, 161, 152, 224
-0.961418, 89, 305, 152, 432
-0.961567, 241, 65, 368, 192
-0.961924, 97, 241, 160, 304
-0.962141, 225, 393, 288, 456
-0.962248, 113, 305, 176, 368
-0.962891, 73, 273, 136, 336
-0.964189, 217, 97, 280, 352
-0.964344, 9, 1, 72, 256
-0.964465, 89, 369, 152, 496
-0.96449, 145, 161, 208, 416
-0.964583, 49, 49, 112, 112
-0.964612, 57, 65, 120, 320
-0.964613, 65, 233, 128, 296
-0.964721, 57, 177, 120, 240
-0.96484, 17, 41, 80, 104
-0.964941, 177, 385, 240, 448
-0.965489, 209, 289, 272, 416
-0.965617, 241, 321, 304, 448
-0.965637, 265, 113, 328, 176
-0.965773, 9, 289, 72, 416
-0.965958, 137, 313, 200, 376
-0.965976, 241, 337, 304, 400
-0.965986, 217, 425, 280, 488
-0.966147, 17, 129, 80, 192
-0.966212, 113, 265, 176, 328
-0.966215, 97, 217, 160, 280
-0.966303, 273, 177, 336, 304
-0.966508, 313, 1, 375, 128
-0.967095, 201, 337, 264, 400
-0.96712, 161, 265, 224, 328
-0.967483, 193, 49, 256, 176
-0.967746, 241, 417, 304, 480
-0.968029, 65, 97, 128, 160
-0.968051, 241, 97, 272, 224
-0.968221, 273, 321, 336, 384
-0.968278, 113, 401, 176, 464
-0.968335, 229, 337, 260, 464
-0.968379, 265, 369, 328, 432
-0.968386, 49, 65, 176, 192
-0.968395, 249, 169, 312, 232
-0.968445, 97, 97, 160, 352
-0.968572, 105, 225, 168, 480
-0.96867, 65, 305, 128, 432
-0.96876, 137, 337, 200, 400
-0.968874, 25, 193, 88, 256
-0.968892, 145, 369, 208, 496
-0.968957, 49, 265, 112, 328
-0.969013, 177, 169, 240, 232
-0.969404, 193, 313, 256, 376
-0.969473, 65, 225, 128, 480
-0.969986, 273, 113, 336, 240
-0.970011, 137, 265, 200, 328
-0.970046, 137, 113, 200, 176
-0.970046, 273, 225, 336, 288
-0.970114, 233, 113, 264, 176
-0.97028, 33, 193, 160, 256
-0.970359, 33, 305, 96, 432
-0.970523, 49, 257, 176, 320
-0.970671, 1, 321, 128, 448
-0.970688, 169, 241, 232, 304
-0.970811, 49, 217, 176, 280
-0.970834, 97, 169, 128, 232
-0.970856, 201, 153, 264, 216
-0.970903, 73, 49, 136, 176
-0.971042, 185, 313, 216, 376
-0.971081, 89, 129, 152, 192
-0.971081, 257, 393, 320, 456
-0.971135, 81, 169, 208, 232
-0.971183, 313, 289, 375, 416
-0.97122, 273, 265, 336, 328
-0.971222, 297, 337, 360, 464
-0.971285, 177, 289, 240, 352
-0.971427, 241, 281, 304, 344
-0.971591, 241, 161, 368, 288
-0.971827, 153, 145, 216, 208
-0.971974, 193, 409, 256, 472
-0.972073, 161, 121, 288, 184
-0.972077, 177, 161, 304, 224
-0.97216, 73, 297, 136, 360
-0.972191, 129, 65, 256, 192
-0.97233, 169, 289, 200, 352
-0.972463, 89, 425, 152, 488
-0.972473, 57, 393, 120, 456
-0.972494, 129, 369, 192, 432
-0.972529, 93, 105, 124, 168
-0.972725, 33, 169, 160, 232
-0.972745, 153, 193, 216, 256
-0.972778, 85, 225, 116, 352
-0.972797, 241, 225, 304, 352
-0.973003, 193, 81, 320, 208
-0.973081, 265, 345, 328, 408
-0.973094, 169, 361, 232, 424
-0.973106, 113, 329, 176, 392
-0.973119, 33, 1, 96, 256
-0.97313, 81, 65, 112, 192
-0.973136, 193, 433, 256, 496
-0.973199, 25, 233, 88, 296
-0.973331, 97, 297, 224, 360
-0.973368, 313, 113, 375, 240
-0.973381, 185, 273, 216, 336
-0.973459, 57, 73, 120, 136
-0.973623, 129, 193, 192, 256
-0.973816, 313, 49, 375, 176
-0.973846, 1, 145, 128, 208
-0.973855, 1, 297, 64, 360
-0.973885, 65, 129, 128, 192
-0.973893, 341, 9, 372, 72
-0.973971, 81, 193, 208, 256
-0.974062, 1, 401, 64, 464
-0.974183, 161, 89, 224, 152
-0.97444, 1, 41, 128, 104
-0.974466, 281, 297, 344, 360
-0.974503, 145, 257, 208, 500
-0.974519, 241, 113, 368, 176
-0.974585, 241, 129, 304, 384
-0.974609, 65, 113, 192, 176
-0.974812, 185, 265, 248, 328
-0.974822, 169, 49, 232, 176
-0.974859, 25, 289, 88, 352
-0.974872, 101, 97, 132, 224
-0.974918, 313, 1, 375, 64
-0.974929, 245, 113, 276, 176
-0.974958, 177, 297, 304, 360
-0.975005, 161, 217, 224, 280
-0.975213, 1, 281, 128, 344
-0.975233, 17, 393, 144, 456
-0.975307, 161, 65, 224, 320
-0.975351, 49, 369, 112, 496
-0.975353, 241, 313, 304, 376
-0.975385, 177, 273, 304, 336
-0.975465, 137, 433, 200, 496
-0.975502, 33, 17, 288, 144
-0.975509, 69, 257, 100, 384
-0.975561, 1, 17, 64, 80
-0.975576, 41, 113, 104, 176
-0.975603, 229, 97, 260, 224
-0.975654, 85, 265, 116, 328
-0.975697, 201, 289, 264, 352
-0.975793, 1, 153, 64, 216
-0.975855, 201, 385, 264, 448
-0.975944, 25, 369, 88, 496
-0.975948, 77, 137, 108, 200
-0.976257, 49, 297, 112, 360
-0.976368, 177, 345, 304, 408
-0.976454, 49, 289, 176, 352
-0.976486, 153, 385, 216, 448
-0.976526, 201, 97, 232, 224
-0.976526, 241, 257, 304, 500
-0.976569, 161, 121, 224, 184
-0.976574, 25, 225, 88, 480
-0.97661, 169, 289, 200, 416
-0.976778, 169, 193, 232, 448
-0.976788, 205, 97, 236, 160
-0.976793, 113, 321, 240, 384
-0.976833, 193, 177, 224, 240
-0.976854, 65, 321, 128, 384
-0.976897, 313, 97, 375, 160
-0.976903, 193, 89, 256, 152
-0.976912, 17, 97, 144, 160
-0.976955, 181, 289, 212, 416
-0.977045, 241, 265, 368, 328
-0.977052, 121, 129, 184, 384
-0.977232, 201, 193, 264, 320
-0.977382, 265, 193, 328, 448
-0.977407, 89, 401, 152, 464
-0.977447, 241, 257, 304, 320
-0.977513, 145, 305, 176, 368
-0.977542, 241, 393, 272, 456
-0.977647, 129, 241, 192, 304
-0.977758, 161, 417, 224, 480
-0.9778, 141, 257, 172, 384
-0.977864, 69, 209, 100, 336
-0.977865, 1, 217, 128, 280
-0.977894, 225, 393, 256, 456
-0.977896, 25, 313, 88, 376
-0.977911, 281, 209, 312, 336
-0.977954, 89, 81, 152, 144
-0.978051, 141, 161, 172, 224
-0.978079, 97, 409, 224, 472
-0.978093, 201, 361, 264, 424
-0.978098, 193, 321, 320, 384
-0.978164, 193, 97, 256, 352
-0.978193, 133, 193, 164, 320
-0.978211, 113, 161, 176, 224
-0.978224, 185, 241, 216, 368
-0.978395, 81, 129, 112, 256
-0.978413, 177, 241, 304, 304
-0.978449, 113, 121, 240, 184
-0.978535, 1, 321, 64, 384
-0.978592, 61, 33, 92, 160
-0.978599, 61, 41, 92, 104
-0.978615, 281, 201, 344, 264
-0.978619, 113, 217, 240, 280
-0.978622, 105, 361, 168, 424
-0.978699, 297, 369, 360, 432
-0.978704, 97, 257, 224, 320
-0.978717, 129, 65, 192, 192
-0.978795, 113, 433, 176, 496
-0.978808, 57, 241, 88, 368
-0.978887, 345, 1, 375, 128
-0.978891, 241, 417, 272, 480
-0.978895, 101, 241, 132, 368
-0.978945, 161, 425, 288, 488
-0.978969, 273, 337, 304, 464
-0.979105, 153, 321, 184, 448
-0.979315, 225, 369, 352, 432
-0.979353, 13, 25, 44, 88
-0.97937, 49, 145, 176, 208
-0.979496, 289, 409, 352, 472
-0.979508, 253, 401, 284, 464
-0.979537, 125, 337, 156, 464
-0.979587, 129, 49, 375, 176
-0.979609, 145, 385, 272, 448
-0.979631, 69, 281, 100, 344
-0.979656, 81, 177, 112, 304
-0.979682, 57, 433, 120, 496
-0.97971, 37, 33, 68, 160
-0.979718, 201, 257, 264, 500
-0.97973, 185, 193, 216, 320
-0.979743, 129, 217, 192, 280
-0.979768, 17, 97, 80, 352
-0.979813, 61, 145, 92, 208
-0.979843, 113, 121, 176, 184
-0.979942, 113, 97, 176, 160
-0.979983, 57, 129, 88, 256
-0.980033, 277, 177, 308, 240
-0.980074, 245, 369, 276, 432
-0.980096, 145, 161, 176, 288
-0.980118, 25, 257, 88, 320
-0.980123, 253, 113, 284, 240
-0.980133, 17, 425, 144, 488
-0.980242, 161, 169, 192, 232
-0.980263, 257, 137, 320, 200
-0.980305, 1, 65, 128, 128
-0.980341, 281, 225, 312, 288
-0.98042, 173, 169, 204, 232
-0.980488, 265, 113, 296, 176
-0.980511, 177, 113, 208, 240
-0.980521, 137, 265, 168, 328
-0.980534, 65, 321, 192, 384
-0.980554, 193, 337, 224, 464
-0.980646, 157, 313, 188, 376
-0.980672, 197, 161, 228, 288
-0.980708, 77, 73, 108, 136
-0.98072, 69, 217, 100, 280
-0.980731, 121, 185, 152, 248
-0.980763, 77, 113, 108, 176
-0.980798, 165, 337, 196, 464
-0.980812, 45, 41, 76, 104
-0.980838, 69, 145, 100, 272
-0.980853, 97, 177, 128, 304
-0.980861, 113, 393, 144, 456
-0.980896, 217, 113, 248, 240
-0.9809, 1, 265, 64, 328
-0.980921, 49, 1, 112, 500
-0.980965, 85, 273, 116, 400
-0.981005, 49, 177, 80, 304
-0.98105, 169, 113, 200, 176
-0.981055, 205, 369, 236, 496
-0.981126, 265, 97, 296, 224
-0.981129, 229, 417, 260, 480
-0.981145, 25, 385, 88, 448
-0.981157, 273, 97, 336, 352
-0.981191, 125, 241, 156, 304
-0.98121, 177, 193, 240, 256
-0.981267, 345, 33, 375, 96
-0.981361, 129, 297, 160, 360
-0.981413, 273, 433, 336, 496
-0.981421, 65, 385, 192, 448
-0.98145, 113, 425, 144, 488
-0.981468, 313, 209, 375, 336
-0.981507, 161, 97, 192, 224
-0.981541, 101, 241, 132, 304
-0.981549, 313, 425, 375, 488
-0.981633, 257, 65, 320, 192
-0.981662, 229, 337, 260, 400
-0.981708, 1, 337, 64, 464
-0.981737, 189, 249, 220, 312
-0.981743, 297, 161, 360, 288
-0.981756, 173, 337, 204, 400
-0.981785, 121, 193, 152, 320
-0.981786, 97, 145, 224, 208
-0.981798, 177, 185, 304, 248
-0.981849, 313, 249, 375, 312
-0.981854, 241, 353, 272, 480
-0.981858, 241, 313, 368, 376
-0.981858, 129, 345, 256, 408
-0.981887, 161, 241, 192, 368
-0.981952, 273, 177, 336, 240
-0.981963, 185, 1, 248, 256
-0.981978, 157, 353, 188, 416
-0.981992, 273, 161, 304, 288
-0.981998, 313, 121, 375, 184
-0.98204, 105, 105, 136, 168
-0.982064, 169, 177, 200, 304
-0.9821, 277, 337, 308, 400
-0.982121, 313, 393, 375, 456
-0.982163, 89, 81, 120, 144
-0.982182, 209, 401, 336, 464
-0.982205, 53, 185, 84, 248
-0.982254, 233, 361, 264, 424
-0.982255, 89, 337, 152, 400
-0.982291, 241, 233, 304, 296
-0.982323, 41, 113, 72, 240
-0.982335, 281, 289, 312, 352
-0.982384, 201, 225, 264, 288
-0.982392, 93, 321, 124, 448
-0.982402, 113, 433, 240, 496
-0.982411, 133, 113, 164, 240
-0.982449, 297, 337, 360, 400
-0.982491, 161, 265, 192, 328
-0.98255, 281, 257, 312, 320
-0.982639, 225, 161, 288, 288
-0.982674, 269, 377, 300, 440
-0.982711, 225, 65, 288, 192
-0.982795, 313, 25, 375, 88
-0.982804, 129, 241, 160, 368
-0.982819, 49, 33, 80, 160
-0.982822, 1, 321, 128, 384
-0.982844, 185, 337, 216, 400
-0.982872, 1, 121, 128, 184
-0.982873, 17, 65, 80, 128
-0.982933, 57, 105, 88, 168
-0.982958, 81, 241, 112, 304
-0.982978, 29, 41, 60, 104
-0.983003, 161, 97, 288, 160
-0.983023, 81, 297, 112, 360
-0.983026, 1, 241, 64, 368
-0.983066, 277, 257, 308, 384
-0.983078, 25, 33, 56, 160
-0.983105, 305, 297, 368, 360
-0.983151, 213, 121, 244, 184
-0.983172, 241, 289, 368, 352
-0.983204, 129, 169, 256, 232
-0.983219, 241, 17, 368, 144
-0.983274, 313, 1, 375, 256
-0.98328, 181, 193, 212, 256
-0.983325, 121, 273, 152, 336
-0.983343, 5, 17, 36, 144
-0.983358, 225, 433, 352, 496
-0.983359, 73, 385, 104, 448
-0.983398, 305, 273, 368, 336
-0.983399, 9, 1, 72, 500
-0.983435, 97, 401, 128, 464
-0.983447, 193, 209, 224, 272
-0.983537, 1, 89, 64, 152
-0.98356, 73, 1, 136, 500
-0.983628, 209, 137, 336, 200
-0.983635, 261, 161, 292, 288
-0.983635, 261, 273, 292, 400
-0.983653, 209, 161, 240, 288
-0.983697, 253, 369, 284, 496
-0.98371, 81, 89, 208, 152
-0.983744, 1, 9, 32, 72
-0.983769, 225, 345, 352, 408
-0.983779, 265, 169, 296, 232
-0.98378, 1, 241, 128, 304
-0.983804, 213, 417, 244, 480
-0.983809, 121, 161, 152, 224
-0.98387, 137, 337, 168, 464
-0.983933, 261, 273, 292, 336
-0.984021, 249, 145, 280, 208
-0.984033, 113, 97, 144, 224
-0.984158, 53, 241, 84, 304
-0.984183, 173, 313, 204, 376
-0.984204, 113, 321, 144, 448
-0.984245, 85, 209, 116, 272
-0.984278, 181, 369, 212, 496
-0.984315, 193, 433, 224, 496
-0.984583, 25, 161, 88, 224
-0.984584, 113, 369, 144, 496
-0.984601, 129, 209, 160, 272
-0.984673, 57, 265, 88, 328
-0.984687, 145, 329, 176, 392
-0.984699, 197, 345, 228, 408
-0.984726, 69, 257, 100, 320
-0.984749, 81, 377, 144, 440
-0.984757, 65, 433, 192, 496
-0.984765, 193, 97, 224, 160
-0.984778, 241, 241, 368, 304
-0.984783, 137, 89, 200, 152
-0.984845, 149, 113, 180, 240
-0.984867, 73, 49, 104, 112
-0.984916, 17, 129, 48, 256
-0.984948, 49, 209, 80, 272
-0.984966, 313, 49, 375, 112
-0.984991, 265, 401, 296, 464
-0.985011, 9, 177, 72, 304
-0.985067, 161, 1, 224, 500
-0.985161, 97, 281, 128, 344
-0.985203, 49, 1, 112, 128
-0.985213, 109, 305, 140, 368
-0.98523, 241, 217, 368, 280
-0.985245, 61, 81, 92, 208
-0.985261, 225, 1, 288, 500
-0.985298, 69, 321, 100, 448
-0.985353, 93, 145, 124, 208
-0.985353, 205, 241, 236, 368
-0.985366, 97, 433, 128, 496
-0.9854, 193, 289, 224, 416
-0.98541, 149, 273, 180, 336
-0.985418, 117, 113, 148, 176
-0.985478, 265, 137, 296, 200
-0.985517, 133, 361, 164, 424
-0.985543, 137, 1, 200, 500
-0.985544, 157, 113, 188, 176
-0.985559, 97, 49, 160, 176
-0.985603, 345, 113, 375, 176
-0.985625, 197, 289, 228, 352
-0.985629, 109, 185, 140, 248
-0.985646, 65, 361, 192, 424
-0.985653, 241, 89, 368, 152
-0.985663, 61, 385, 92, 448
-0.985715, 333, 49, 364, 176
-0.985749, 181, 217, 212, 280
-0.985754, 209, 385, 240, 448
-0.985998, 173, 433, 204, 496
-0.986, 209, 217, 240, 280
-0.986046, 157, 377, 188, 440
-0.986119, 61, 305, 92, 368
-0.986123, 289, 369, 320, 432
-0.986178, 277, 313, 308, 376
-0.986214, 169, 409, 200, 472
-0.986225, 345, 97, 375, 224
-0.986336, 125, 289, 156, 416
-0.986341, 49, 289, 80, 416
-0.986394, 93, 377, 124, 440
-0.986531, 213, 161, 244, 224
-0.986543, 173, 89, 204, 152
-0.986571, 97, 369, 128, 496
-0.986676, 37, 297, 68, 360
-0.9867, 193, 217, 320, 280
-0.986726, 161, 89, 192, 152
-0.986747, 1, 65, 64, 192
-0.986773, 185, 121, 216, 184
-0.98678, 149, 369, 180, 496
-0.986862, 181, 409, 212, 472
-0.986904, 241, 169, 368, 232
-0.986941, 225, 145, 256, 208
-0.986974, 217, 81, 248, 144
-0.987007, 157, 161, 188, 288
-0.987022, 309, 305, 340, 368
-0.987113, 25, 297, 56, 360
-0.987176, 277, 113, 308, 240
-0.987225, 125, 329, 156, 392
-0.987305, 313, 97, 375, 352
-0.98731, 113, 249, 144, 312
-0.987331, 197, 313, 228, 376
-0.987357, 345, 305, 375, 432
-0.987422, 145, 393, 176, 456
-0.987424, 113, 273, 144, 400
-0.987426, 209, 49, 240, 176
-0.987451, 197, 73, 228, 136
-0.987573, 189, 377, 220, 440
-0.987606, 261, 225, 292, 352
-0.987627, 185, 1, 248, 500
-0.987702, 133, 401, 164, 464
-0.987726, 1, 401, 32, 464
-0.987817, 169, 377, 200, 440
-0.987855, 201, 241, 232, 304
-0.987875, 37, 257, 68, 384
-0.987886, 341, 289, 372, 352
-0.9879, 249, 289, 280, 416
-0.988033, 189, 113, 220, 240
-0.988225, 113, 1, 176, 500
-0.988245, 217, 337, 248, 464
-0.988262, 241, 193, 368, 256
-0.988329, 53, 337, 84, 464
-0.988396, 57, 161, 120, 192
-0.988438, 1, 1, 128, 128
-0.9885, 57, 221, 120, 252
-0.988507, 1, 257, 64, 500
-0.988527, 161, 341, 224, 372
-0.988668, 221, 273, 252, 400
-0.988749, 149, 209, 180, 336
-0.98876, 29, 129, 60, 256
-0.988762, 81, 17, 208, 144
-0.988773, 5, 145, 36, 272
-0.988795, 225, 121, 288, 152
-0.989024, 161, 321, 224, 352
-0.989052, 129, 193, 256, 256
-0.989106, 293, 193, 324, 320
-0.989145, 129, 33, 192, 288
-0.989204, 89, 197, 152, 228
-0.989264, 81, 321, 112, 448
-0.989269, 229, 145, 260, 272
-0.989304, 97, 169, 352, 232
-0.989354, 161, 301, 224, 332
-0.989368, 345, 49, 375, 176
-0.989376, 137, 293, 200, 324
-0.989432, 97, 321, 352, 384
-0.989432, 241, 33, 304, 288
-0.989482, 261, 321, 292, 448
-0.98954, 201, 345, 264, 376
-0.989556, 225, 157, 288, 188
-0.989603, 205, 305, 236, 432
-0.989614, 57, 285, 120, 316
-0.989638, 185, 389, 248, 420
-0.98964, 97, 49, 128, 176
-0.989655, 345, 369, 375, 496
-0.989671, 185, 121, 248, 152
-0.989719, 65, 65, 192, 128
-0.989737, 233, 349, 296, 380
-0.989757, 217, 417, 280, 448
-0.989774, 145, 121, 208, 152
-0.98978, 129, 185, 192, 216
-0.989815, 97, 257, 352, 320
-0.989836, 57, 237, 120, 268
-0.989845, 33, 293, 96, 324
-0.989882, 325, 321, 356, 448
-0.989924, 97, 225, 160, 256
-0.989965, 97, 209, 160, 240
-0.989974, 1, 217, 256, 280
-0.989983, 89, 297, 152, 328
-0.989983, 1, 321, 32, 448
-0.990036, 97, 297, 352, 360
-0.990097, 73, 269, 136, 300
-0.990108, 121, 309, 184, 340
-0.990108, 237, 273, 268, 400
-0.990119, 241, 433, 304, 464
-0.990124, 249, 1, 312, 500
-0.990133, 37, 305, 68, 432
-0.990145, 137, 173, 200, 204
-0.990153, 9, 293, 72, 324
-0.990186, 113, 281, 176, 312
-0.990193, 225, 405, 288, 436
-0.990217, 193, 49, 224, 176
-0.990228, 57, 209, 120, 240
-0.990234, 1, 9, 128, 72
-0.990243, 89, 177, 152, 208
-0.990251, 1, 113, 375, 176
-0.990256, 97, 245, 160, 276
-0.990263, 273, 341, 336, 372
-0.990296, 137, 349, 200, 380
-0.990296, 217, 429, 280, 460
-0.990336, 173, 241, 204, 368
-0.990394, 33, 393, 288, 456
-0.990394, 137, 197, 200, 228
-0.990419, 225, 393, 288, 424
-0.990426, 129, 333, 192, 364
-0.990427, 249, 421, 312, 452
-0.990429, 265, 121, 328, 152
-0.990435, 129, 265, 192, 296
-0.990481, 97, 193, 352, 256
-0.990492, 169, 253, 232, 284
-0.990499, 81, 109, 144, 140
-0.990516, 25, 45, 88, 76
-0.990522, 225, 145, 288, 176
-0.990529, 21, 369, 52, 496
-0.990535, 57, 149, 120, 180
-0.990541, 73, 369, 104, 496
-0.990555, 289, 113, 320, 240
-0.990574, 105, 261, 168, 292
-0.990575, 161, 177, 224, 208
-0.990578, 225, 133, 288, 164
-0.990578, 145, 389, 208, 420
-0.990585, 161, 457, 224, 488
-0.990592, 145, 281, 208, 312
-0.9906, 65, 249, 128, 280
-0.990603, 57, 193, 120, 224
-0.99063, 201, 445, 264, 476
-0.990636, 29, 81, 60, 208
-0.990647, 137, 321, 200, 352
-0.990654, 177, 289, 240, 320
-0.990659, 97, 121, 160, 152
-0.990664, 97, 165, 160, 196
-0.990668, 57, 97, 120, 128
-0.990764, 201, 357, 264, 388
-0.99077, 273, 233, 336, 264
-0.990773, 265, 385, 328, 416
-0.990779, 89, 285, 152, 316
-0.990782, 49, 177, 112, 208
-0.990794, 249, 173, 312, 204
-0.990846, 265, 361, 328, 392
-0.990877, 137, 401, 200, 432
-0.990881, 257, 405, 320, 436
-0.990885, 1, 29, 64, 60
-0.990887, 225, 377, 288, 408
-0.990901, 201, 469, 264, 500
-0.990907, 273, 329, 336, 360
-0.990911, 49, 69, 112, 100
-0.990913, 113, 293, 176, 324
-0.990916, 25, 237, 88, 268
-0.990919, 41, 137, 104, 168
-0.990927, 121, 121, 184, 152
-0.990989, 273, 257, 336, 288
-0.99101, 285, 305, 316, 432
-0.991023, 89, 405, 152, 436
-0.991028, 273, 313, 336, 344
-0.991033, 305, 365, 368, 396
-0.991046, 297, 353, 328, 480
-0.991049, 217, 1, 280, 256
-0.991051, 313, 117, 375, 148
-0.991098, 273, 281, 336, 312
-0.991101, 153, 269, 216, 300
-0.991124, 1, 305, 64, 336
-0.991129, 65, 33, 192, 96
-0.99113, 289, 437, 352, 468
-0.991146, 1, 297, 256, 360
-0.99115, 105, 325, 168, 356
-0.991151, 105, 365, 168, 396
-0.991158, 113, 405, 176, 436
-0.991161, 41, 57, 104, 88
-0.991176, 313, 1, 375, 500
-0.991182, 1, 273, 256, 336
-0.99119, 273, 301, 336, 332
-0.991197, 97, 369, 352, 432
-0.991204, 33, 369, 64, 496
-0.991209, 65, 301, 128, 332
-0.991212, 97, 233, 352, 296
-0.991224, 113, 105, 176, 136
-0.991226, 193, 333, 256, 364
-0.991228, 49, 273, 112, 304
-0.991228, 185, 301, 248, 332
-0.991234, 1, 193, 256, 256
-0.991263, 1, 41, 64, 72
-0.991269, 105, 469, 168, 500
-0.991278, 185, 133, 248, 164
-0.991294, 161, 437, 224, 468
-0.991304, 105, 341, 168, 372
-0.99131, 241, 293, 304, 324
-0.991316, 121, 389, 184, 420
-0.991316, 17, 369, 144, 432
-0.991317, 49, 397, 112, 428
-0.99134, 9, 157, 72, 188
-0.991352, 297, 305, 328, 432
-0.991372, 233, 365, 296, 396
-0.991379, 73, 137, 136, 168
-0.991384, 5, 273, 36, 400
-0.991385, 169, 353, 232, 384
-0.991397, 233, 337, 296, 368
-0.991408, 129, 345, 375, 408
-0.991414, 1, 97, 32, 224
-0.991426, 193, 429, 256, 460
-0.99144, 113, 353, 176, 384
-0.991444, 21, 257, 52, 384
-0.99145, 129, 209, 192, 240
-0.991458, 289, 465, 352, 496
-0.991462, 49, 125, 112, 156
-0.991467, 177, 401, 240, 432
-0.991471, 17, 401, 80, 432
-0.991484, 201, 165, 264, 196
-0.991489, 257, 445, 320, 476
-0.991501, 89, 1, 152, 256
-0.991507, 225, 449, 288, 480
-0.991509, 305, 337, 368, 368
-0.99151, 25, 209, 88, 240
-0.991538, 97, 309, 160, 340
-0.991545, 89, 389, 152, 420
-0.991556, 1, 169, 64, 200
-0.991559, 41, 253, 104, 284
-0.991569, 137, 449, 200, 480
-0.991577, 305, 349, 368, 380
-0.99158, 25, 225, 88, 256
-0.991595, 33, 305, 96, 336
-0.991675, 65, 121, 320, 184
-0.991809, 285, 353, 316, 480
-0.991947, 109, 161, 140, 288
-0.992055, 333, 113, 364, 240
-0.992071, 97, 181, 128, 212
-0.992086, 281, 1, 344, 500
-0.992119, 321, 113, 352, 240
-0.992221, 289, 193, 352, 448
-0.992255, 81, 265, 112, 296
-0.992278, 185, 301, 216, 332
-0.992283, 169, 321, 200, 352
-0.992394, 245, 413, 276, 444
-0.992394, 185, 289, 216, 320
-0.992425, 1, 137, 375, 200
-0.992466, 165, 305, 196, 336
-0.99247, 233, 401, 264, 432
-0.992472, 225, 421, 256, 452
-0.992487, 185, 333, 216, 364
-0.992506, 73, 289, 104, 320
-0.992507, 93, 109, 124, 140
-0.992511, 77, 141, 108, 172
-0.992513, 165, 113, 196, 144
-0.992518, 69, 153, 100, 184
-0.992552, 169, 293, 200, 324
-0.992555, 77, 277, 108, 308
-0.992581, 61, 45, 92, 76
-0.992591, 205, 109, 236, 140
-0.992594, 89, 281, 120, 312
-0.992595, 265, 121, 296, 152
-0.992601, 341, 17, 372, 48
-0.992605, 113, 105, 144, 136
-0.992608, 237, 117, 268, 148
-0.992609, 157, 349, 188, 380
-0.992612, 273, 177, 304, 208
-0.992612, 129, 185, 160, 216
-0.992613, 185, 321, 216, 352
-0.992631, 85, 161, 116, 192
-0.992646, 153, 121, 184, 152
-0.992676, 229, 345, 260, 376
-0.992682, 241, 9, 368, 72
-0.992686, 1, 21, 32, 52
-0.992687, 93, 257, 124, 288
-0.992688, 341, 5, 372, 36
-0.992695, 1, 241, 256, 304
-0.992695, 141, 293, 172, 324
-0.992704, 37, 293, 68, 324
-0.992708, 193, 221, 224, 252
-0.992714, 97, 169, 128, 200
-0.992716, 241, 425, 272, 456
-0.992719, 65, 277, 96, 308
-0.992723, 141, 349, 172, 380
-0.992739, 73, 253, 104, 284
-0.99275, 133, 265, 164, 296
-0.99275, 177, 113, 208, 144
-0.992754, 53, 297, 84, 328
-0.99276, 109, 185, 140, 216
-0.992764, 345, 37, 375, 68
-0.992766, 237, 437, 268, 468
-0.992768, 133, 305, 164, 336
-0.99277, 113, 117, 144, 148
-0.992778, 145, 309, 176, 340
-0.992778, 277, 229, 308, 260
-0.992781, 145, 169, 176, 200
-0.992784, 97, 421, 128, 452
-0.992791, 1, 313, 375, 376
-0.992799, 281, 305, 312, 336
-0.992801, 129, 201, 160, 232
-0.992801, 21, 297, 52, 328
-0.992804, 29, 41, 60, 72
-0.992808, 213, 121, 244, 152
-0.992818, 93, 389, 124, 420
-0.992846, 109, 405, 140, 436
-0.992847, 233, 469, 264, 500
-0.992851, 173, 181, 204, 212
-0.992852, 197, 453, 228, 484
-0.992855, 233, 389, 264, 420
-0.992858, 141, 197, 172, 228
-0.992861, 85, 121, 116, 152
-0.992866, 189, 277, 220, 308
-0.992867, 161, 181, 192, 212
-0.992869, 157, 293, 188, 324
-0.99287, 273, 385, 304, 416
-0.992872, 149, 329, 180, 360
-0.992875, 245, 401, 276, 432
-0.992876, 249, 117, 280, 148
-0.992877, 273, 349, 304, 380
-0.99288, 101, 293, 132, 324
-0.99288, 81, 217, 112, 248
-0.992883, 197, 313, 228, 344
-0.992886, 125, 249, 156, 280
-0.992894, 49, 189, 80, 220
-0.992898, 161, 389, 192, 420
-0.992904, 161, 333, 192, 364
-0.992909, 177, 201, 208, 232
-0.992909, 297, 121, 328, 152
-0.992912, 45, 45, 76, 76
-0.992918, 129, 333, 160, 364
-0.992918, 69, 221, 100, 252
-0.992923, 261, 169, 292, 200
-0.992925, 193, 109, 224, 140
-0.992927, 281, 321, 312, 352
-0.99293, 101, 241, 132, 272
-0.99293, 261, 289, 292, 320
-0.992932, 121, 305, 152, 336
-0.992934, 1, 161, 32, 192
-0.992938, 69, 121, 100, 152
-0.992946, 97, 121, 128, 152
-0.992954, 109, 325, 140, 356
-0.992956, 173, 465, 204, 496
-0.992956, 129, 173, 160, 204
-0.992957, 205, 169, 236, 200
-0.992957, 209, 433, 240, 464
-0.99296, 145, 393, 176, 424
-0.992961, 213, 421, 244, 452
-0.992964, 249, 377, 280, 408
-0.992966, 81, 85, 112, 116
-0.992966, 277, 333, 308, 364
-0.992967, 117, 345, 148, 376
-0.992969, 189, 121, 220, 152
-0.992969, 49, 213, 80, 244
-0.992971, 77, 69, 108, 100
-0.992972, 133, 121, 164, 152
-0.992974, 1, 433, 256, 496
-0.992975, 185, 345, 216, 376
-0.992975, 85, 293, 116, 324
-0.992981, 13, 33, 44, 64
-0.992983, 205, 469, 236, 500
-0.992984, 337, 121, 368, 152
-0.992985, 173, 341, 204, 372
-0.992986, 89, 245, 120, 276
-0.992987, 277, 121, 308, 152
-0.992989, 17, 345, 144, 408
-0.992991, 245, 389, 276, 420
-0.992999, 177, 169, 208, 200
-0.993003, 245, 153, 276, 184
-0.993003, 69, 265, 100, 296
-0.993006, 93, 269, 124, 300
-0.99301, 137, 361, 168, 392
-0.993011, 137, 281, 168, 312
-0.993019, 69, 57, 100, 88
-0.99302, 149, 185, 180, 216
-0.99302, 213, 397, 244, 428
-0.99302, 9, 305, 40, 336
-0.993042, 49, 281, 176, 312
-0.993144, 33, 221, 160, 252
-0.993161, 1, 385, 375, 448
-0.993175, 81, 173, 208, 204
-0.993228, 1, 161, 375, 224
-0.993311, 97, 417, 352, 480
-0.993311, 241, 145, 272, 272
-0.993333, 33, 193, 160, 224
-0.993443, 209, 121, 336, 152
-0.993465, 241, 49, 368, 112
-0.993474, 49, 261, 176, 292
-0.993475, 9, 369, 40, 496
-0.993487, 1, 169, 256, 232
-0.993491, 237, 113, 252, 176
-0.993497, 33, 293, 160, 324
-0.993551, 177, 169, 304, 200
-0.993554, 77, 17, 108, 144
-0.993582, 199, 313, 214, 376
-0.99361, 241, 337, 256, 400
-0.993624, 1, 185, 375, 248
-0.993647, 187, 289, 202, 352
-0.99366, 65, 145, 320, 208
-0.993815, 33, 181, 160, 212
-0.993846, 49, 241, 176, 272
-0.993864, 217, 241, 280, 368
-0.993865, 37, 209, 68, 336
-0.993889, 309, 113, 340, 240
-0.993895, 129, 393, 375, 456
-0.993952, 101, 161, 116, 224
-0.994001, 359, 33, 374, 96
-0.994026, 135, 201, 150, 264
-0.994074, 121, 145, 152, 272
-0.994078, 245, 417, 260, 480
-0.994079, 17, 81, 48, 208
-0.994084, 209, 89, 224, 152
-0.994171, 161, 121, 288, 152
-0.994205, 337, 257, 368, 384
-0.994252, 259, 121, 274, 184
-0.994255, 165, 161, 180, 224
-0.994269, 309, 337, 340, 464
-0.994277, 33, 165, 160, 196
-0.994278, 113, 297, 240, 328
-0.994303, 1, 329, 256, 392
-0.994322, 97, 121, 224, 152
-0.994323, 91, 73, 106, 136
-0.994332, 1, 369, 256, 432
-0.994341, 33, 209, 160, 240
-0.994363, 1, 209, 375, 272
-0.994373, 325, 369, 356, 496
-0.99438, 305, 257, 336, 384
-0.994394, 1, 265, 375, 328
-0.994431, 177, 97, 192, 160
-0.994432, 81, 185, 208, 216
-0.994504, 1, 337, 375, 400
-0.994582, 133, 225, 148, 288
-0.994602, 101, 97, 116, 160
-0.994649, 161, 133, 288, 164
-0.994651, 141, 177, 156, 240
-0.994663, 349, 1, 364, 64
-0.994692, 73, 41, 88, 104
-0.994697, 81, 197, 208, 228
-0.994701, 1, 153, 128, 184
-0.994705, 177, 349, 304, 380
-0.994707, 253, 113, 268, 176
-0.994709, 59, 169, 74, 232
-0.994719, 265, 1, 328, 256
-0.99473, 17, 105, 144, 136
-0.994735, 207, 49, 222, 112
-0.994741, 113, 285, 240, 316
-0.994754, 155, 305, 170, 368
-0.994827, 97, 341, 224, 372
-0.994884, 1, 289, 375, 352
-0.994887, 25, 33, 40, 96
-0.994888, 181, 305, 196, 368
-0.994904, 177, 313, 304, 344
-0.994927, 245, 385, 260, 448
-0.994953, 171, 161, 186, 224
-0.994988, 81, 209, 208, 240
-0.994998, 203, 225, 218, 288
-0.995012, 133, 177, 148, 240
-0.995019, 165, 321, 180, 384
-0.995019, 15, 17, 30, 80
-0.995024, 283, 225, 298, 288
-0.995032, 193, 297, 208, 360
-0.995051, 65, 393, 192, 424
-0.995084, 177, 333, 304, 364
-0.99509, 177, 293, 304, 324
-0.995096, 95, 105, 110, 168
-0.995098, 181, 281, 196, 344
-0.995104, 33, 97, 288, 160
-0.995111, 93, 257, 108, 320
-0.995112, 129, 461, 256, 492
-0.995114, 95, 209, 110, 272
-0.995114, 177, 417, 192, 480
-0.995151, 247, 113, 262, 176
-0.995178, 81, 469, 208, 500
-0.995206, 1, 1, 16, 64
-0.995217, 49, 125, 176, 156
-0.995257, 177, 265, 304, 296
-0.995258, 361, 57, 375, 120
-0.995262, 73, 265, 88, 328
-0.995284, 1, 425, 375, 488
-0.995289, 93, 145, 108, 208
-0.995297, 161, 345, 176, 408
-0.995303, 151, 161, 166, 224
-0.995312, 41, 41, 56, 104
-0.995325, 281, 321, 296, 384
-0.995357, 81, 229, 208, 260
-0.995358, 275, 361, 290, 424
-0.995362, 81, 1, 144, 128
-0.995367, 199, 281, 214, 344
-0.995375, 33, 41, 288, 104
-0.99539, 223, 385, 238, 448
-0.995391, 193, 273, 208, 336
-0.995392, 33, 305, 160, 336
-0.99541, 245, 361, 260, 424
-0.995414, 269, 113, 284, 176
-0.995424, 271, 385, 286, 448
-0.995428, 1, 277, 128, 308
-0.995443, 1, 69, 128, 100
-0.995444, 83, 281, 98, 344
-0.995454, 189, 321, 204, 384
-0.995459, 253, 433, 268, 496
-0.995467, 113, 425, 128, 488
-0.995473, 251, 409, 266, 472
-0.995487, 209, 133, 336, 164
-0.995488, 129, 173, 256, 204
-0.995507, 25, 1, 56, 256
-0.995521, 177, 281, 304, 312
-0.995522, 49, 41, 64, 104
-0.995525, 83, 57, 98, 120
-0.995527, 97, 261, 224, 292
-0.995532, 289, 177, 304, 240
-0.995537, 313, 225, 375, 480
-0.995547, 83, 249, 98, 312
-0.995557, 355, 9, 370, 72
-0.995565, 169, 385, 184, 448
-0.995571, 97, 241, 224, 272
-0.995581, 163, 297, 178, 360
-0.9956, 113, 329, 240, 360
-0.995631, 35, 41, 50, 104
-0.995636, 193, 469, 320, 500
-0.995637, 123, 97, 138, 160
-0.995645, 185, 193, 200, 256
-0.995651, 63, 41, 78, 104
-0.995659, 199, 337, 214, 400
-0.995663, 1, 85, 128, 116
-0.995665, 17, 397, 144, 428
-0.995666, 171, 89, 186, 152
-0.99567, 29, 401, 44, 464
-0.995672, 123, 425, 138, 488
-0.995708, 69, 257, 100, 500
-0.99571, 97, 273, 224, 304
-0.995717, 9, 17, 24, 80
-0.995721, 261, 145, 276, 208
-0.995721, 195, 177, 210, 240
-0.995724, 275, 265, 290, 328
-0.995727, 17, 333, 144, 364
-0.995736, 17, 433, 144, 464
-0.995745, 149, 321, 164, 384
-0.995745, 1, 57, 128, 88
-0.995763, 1, 249, 128, 280
-0.995769, 143, 249, 158, 312
-0.995792, 161, 441, 288, 472
-0.995795, 83, 129, 98, 192
-0.995803, 281, 249, 296, 312
-0.995803, 1, 241, 375, 304
-0.995809, 129, 397, 256, 428
-0.995817, 199, 257, 214, 320
-0.995818, 3, 297, 18, 360
-0.995829, 37, 1, 68, 256
-0.995831, 59, 193, 74, 256
-0.995837, 283, 169, 298, 232
-0.995863, 289, 385, 304, 448
-0.995867, 269, 137, 284, 200
-0.995871, 107, 105, 122, 168
-0.995875, 205, 345, 220, 408
-0.995881, 5, 1, 36, 256
-0.995887, 173, 281, 188, 344
-0.995906, 123, 273, 138, 336
-0.995923, 129, 353, 256, 384
-0.995924, 145, 429, 272, 460
-0.995933, 65, 153, 80, 216
-0.995938, 33, 73, 288, 136
-0.99594, 175, 185, 190, 248
-0.995941, 127, 193, 142, 256
-0.995948, 85, 225, 116, 480
-0.995949, 175, 305, 190, 368
-0.995965, 209, 217, 224, 280
-0.995993, 123, 401, 138, 464
-0.995997, 155, 361, 170, 424
-0.996002, 55, 41, 70, 104
-0.996005, 197, 65, 228, 320
-0.996006, 297, 433, 312, 496
-0.996014, 1, 237, 128, 268
-0.996016, 129, 433, 144, 496
-0.996025, 141, 201, 156, 264
-0.996026, 177, 393, 192, 456
-0.996031, 177, 253, 304, 284
-0.996031, 177, 181, 304, 212
-0.996034, 241, 273, 368, 304
-0.996034, 1, 361, 375, 424
-0.996036, 263, 401, 278, 464
-0.996058, 235, 377, 250, 440
-0.996059, 185, 113, 200, 176
-0.99606, 151, 265, 166, 328
-0.996063, 65, 325, 192, 356
-0.996069, 171, 113, 186, 176
-0.996075, 167, 345, 182, 408
-0.996084, 81, 161, 208, 192
-0.99609, 133, 401, 148, 464
-0.996092, 147, 297, 162, 360
-0.996098, 209, 429, 336, 460
-0.996098, 53, 177, 68, 240
-0.99611, 229, 401, 244, 464
-0.996112, 177, 157, 304, 188
-0.996115, 129, 145, 256, 176
-0.996116, 241, 321, 368, 352
-0.996122, 105, 225, 120, 288
-0.996122, 163, 385, 178, 448
-0.996126, 115, 105, 130, 168
-0.996137, 209, 441, 336, 472
-0.996139, 115, 393, 130, 456
-0.99614, 227, 121, 242, 184
-0.99614, 45, 393, 60, 456
-0.996144, 113, 313, 240, 344
-0.996154, 9, 401, 24, 464
-0.996158, 301, 361, 316, 424
-0.996158, 201, 113, 216, 176
-0.99616, 95, 233, 110, 296
-0.99617, 241, 297, 368, 328
-0.996171, 175, 329, 190, 392
-0.99618, 275, 289, 290, 352
-0.996189, 225, 345, 352, 376
-0.996197, 91, 297, 106, 360
-0.996198, 101, 433, 116, 496
-0.996206, 185, 433, 200, 496
-0.996217, 1, 141, 128, 172
-0.996238, 1, 89, 375, 152
-0.996238, 291, 217, 306, 280
-0.996241, 129, 185, 256, 216
-0.996243, 61, 33, 92, 288
-0.996243, 127, 233, 142, 296
-0.996245, 73, 33, 104, 288
-0.99625, 177, 241, 304, 272
-0.996282, 241, 261, 368, 292
-0.996287, 225, 361, 352, 392
-0.996287, 209, 409, 336, 440
-0.99629, 97, 421, 224, 452
-0.996301, 1, 261, 128, 292
-0.996302, 97, 97, 128, 352
-0.996305, 245, 97, 276, 352
-0.996319, 65, 405, 192, 436
-0.996342, 177, 361, 304, 392
-0.996346, 1, 129, 128, 160
-0.996372, 129, 385, 256, 416
-0.996372, 17, 421, 144, 452
-0.996388, 129, 1, 375, 128
-0.996396, 145, 417, 272, 448
-0.996417, 1, 17, 375, 80
-0.996424, 177, 453, 304, 484
-0.996445, 129, 97, 375, 160
-0.996446, 97, 441, 224, 472
-0.996446, 1, 9, 256, 72
-0.996447, 185, 193, 216, 448
-0.996486, 177, 33, 304, 160
-0.996545, 241, 109, 368, 140
-0.996556, 133, 193, 164, 448
-0.996561, 209, 145, 336, 176
-0.996565, 65, 109, 192, 140
-0.996572, 241, 233, 368, 264
-0.996595, 193, 381, 320, 412
-0.996598, 81, 137, 208, 168
-0.996618, 53, 161, 84, 416
-0.996644, 153, 97, 184, 352
-0.996683, 241, 397, 368, 428
-0.996716, 233, 97, 264, 352
-0.996773, 345, 1, 375, 256
-0.996779, 249, 257, 280, 500
-0.996794, 257, 129, 288, 384
-0.996801, 177, 229, 304, 260
-0.99681, 169, 97, 200, 352
-0.996816, 69, 129, 100, 384
-0.996816, 165, 193, 196, 448
-0.996833, 193, 201, 320, 232
-0.996847, 49, 33, 80, 288
-0.996854, 1, 117, 128, 148
-0.996872, 241, 333, 368, 364
-0.996894, 145, 257, 176, 500
-0.996912, 185, 289, 200, 320
-0.996925, 177, 109, 304, 140
-0.996973, 85, 65, 116, 320
-0.99698, 129, 109, 256, 140
-0.99698, 217, 97, 248, 352
-0.997002, 1, 45, 128, 76
-0.99704, 129, 365, 256, 396
-0.997061, 49, 349, 176, 380
-0.997064, 49, 381, 176, 412
-0.997065, 241, 309, 368, 340
-0.997103, 281, 225, 312, 480
-0.997103, 1, 409, 128, 440
-0.997106, 241, 285, 368, 316
-0.997123, 113, 225, 144, 480
-0.997146, 101, 105, 116, 136
-0.997165, 73, 45, 88, 76
-0.99717, 81, 149, 208, 180
-0.997183, 349, 5, 364, 36
-0.997189, 241, 249, 368, 280
-0.99719, 105, 169, 120, 200
-0.997198, 189, 301, 204, 332
-0.997202, 177, 213, 304, 244
-0.99721, 1, 41, 375, 104
-0.997211, 241, 345, 256, 376
-0.997227, 129, 161, 256, 192
-0.997231, 65, 65, 192, 96
-0.997232, 195, 325, 210, 356
-0.997234, 57, 257, 88, 500
-0.99725, 177, 113, 192, 144
-0.997314, 91, 261, 106, 292
-0.997321, 241, 221, 368, 252
-0.997336, 1, 317, 128, 348
-0.997354, 133, 201, 148, 232
-0.997359, 241, 157, 368, 188
-0.997365, 177, 397, 304, 428
-0.997413, 95, 161, 110, 192
-0.997424, 181, 313, 196, 344
-0.997428, 273, 97, 304, 352
-0.997431, 1, 9, 16, 40
-0.997436, 17, 461, 144, 492
-0.997439, 97, 257, 128, 500
-0.997439, 241, 197, 368, 228
-0.997452, 129, 197, 256, 228
-0.997461, 131, 225, 146, 256
-0.997466, 245, 425, 260, 456
-0.997494, 13, 129, 44, 384
-0.997497, 1, 21, 128, 52
-0.997516, 197, 161, 228, 416
-0.997523, 241, 461, 368, 492
-0.997528, 59, 189, 74, 220
-0.997529, 91, 273, 106, 304
-0.997532, 81, 77, 208, 108
-0.997541, 191, 313, 206, 344
-0.997557, 139, 185, 154, 216
-0.99756, 97, 261, 112, 292
-0.997567, 293, 445, 308, 476
-0.997575, 209, 61, 224, 92
-0.99758, 99, 177, 114, 208
-0.99758, 81, 277, 96, 308
-0.997591, 241, 385, 368, 416
-0.997605, 129, 97, 160, 352
-0.997608, 209, 105, 224, 136
-0.997637, 153, 349, 168, 380
-0.997646, 247, 389, 262, 420
-0.997648, 271, 121, 286, 152
-0.997652, 199, 289, 214, 320
-0.997666, 283, 233, 298, 264
-0.997668, 261, 257, 292, 500
-0.997672, 163, 341, 178, 372
-0.997675, 81, 97, 208, 128
-0.997682, 191, 281, 206, 312
-0.997686, 159, 293, 174, 324
-0.997697, 203, 241, 218, 272
-0.997698, 133, 237, 148, 268
-0.997699, 57, 177, 72, 208
-0.997718, 107, 109, 122, 140
-0.997726, 127, 301, 142, 332
-0.997733, 81, 137, 96, 168
-0.997736, 201, 313, 216, 344
-0.997739, 13, 21, 28, 52
-0.997748, 59, 45, 74, 76
-0.997751, 185, 201, 200, 232
-0.997753, 237, 117, 252, 148
-0.997757, 203, 253, 218, 284
-0.99776, 173, 313, 188, 344
-0.997762, 169, 389, 184, 420
-0.997762, 241, 373, 368, 404
-0.997771, 359, 41, 374, 72
-0.997774, 183, 437, 198, 468
-0.997777, 163, 305, 178, 336
-0.997778, 209, 241, 224, 272
-0.997781, 81, 365, 208, 396
-0.997783, 109, 97, 140, 352
-0.997784, 83, 265, 98, 296
-0.997791, 113, 185, 128, 216
-0.997792, 199, 301, 214, 332
-0.997796, 97, 273, 112, 304
-0.997798, 87, 285, 102, 316
-0.997799, 175, 301, 190, 332
-0.997805, 361, 57, 375, 88
-0.997809, 75, 153, 90, 184
-0.997833, 189, 441, 204, 472
-0.997833, 275, 385, 290, 416
-0.997845, 7, 17, 22, 48
-0.99785, 71, 269, 86, 300
-0.997854, 209, 81, 224, 112
-0.997857, 207, 117, 222, 148
-0.99786, 287, 397, 302, 428
-0.997863, 201, 41, 216, 72
-0.997863, 77, 289, 92, 320
-0.997864, 267, 409, 282, 440
-0.997867, 95, 149, 110, 180
-0.99787, 65, 453, 192, 484
-0.997874, 171, 169, 186, 200
-0.997875, 355, 25, 370, 56
-0.997877, 89, 141, 104, 172
-0.997877, 225, 397, 240, 428
-0.997878, 49, 9, 176, 72
-0.997884, 351, 121, 366, 152
-0.99789, 179, 289, 194, 320
-0.997894, 1, 169, 16, 200
-0.997896, 283, 173, 298, 204
-0.997898, 299, 441, 314, 472
-0.997901, 97, 285, 112, 316
-0.997909, 287, 445, 302, 476
-0.99791, 167, 121, 182, 152
-0.99791, 141, 201, 156, 232
-0.997911, 173, 289, 188, 320
-0.997918, 119, 105, 134, 136
-0.997919, 103, 261, 118, 292
-0.997919, 247, 413, 262, 444
-0.997924, 183, 301, 198, 332
-0.997924, 279, 345, 294, 376
-0.997925, 187, 401, 202, 432
-0.997927, 129, 225, 256, 256
-0.997928, 65, 53, 192, 84
-0.997936, 79, 57, 94, 88
-0.997938, 149, 361, 164, 392
-0.997941, 185, 277, 200, 308
-0.997942, 33, 297, 48, 328
-0.997944, 95, 249, 110, 280
-0.997944, 59, 201, 74, 232
-0.997944, 159, 353, 174, 384
-0.997947, 247, 441, 262, 472
-0.997947, 171, 185, 186, 216
-0.997953, 53, 41, 68, 72
-0.997954, 17, 445, 144, 476
-0.997956, 125, 105, 140, 136
-0.997957, 199, 341, 214, 372
-0.99796, 149, 301, 164, 332
-0.99796, 159, 393, 174, 424
-0.99796, 293, 433, 308, 464
-0.997962, 209, 93, 224, 124
-0.997962, 181, 325, 196, 356
-0.997968, 207, 225, 222, 256
-0.997968, 233, 413, 248, 444
-0.997969, 255, 437, 270, 468
-0.997975, 45, 401, 60, 432
-0.997976, 253, 117, 268, 148
-0.997982, 89, 69, 104, 100
-0.997983, 147, 121, 162, 152
-0.997987, 49, 293, 64, 324
-0.99799, 169, 349, 184, 380
-0.997991, 287, 121, 302, 152
-0.997993, 173, 333, 188, 364
-0.997995, 133, 185, 148, 216
-0.997996, 189, 325, 204, 356
-0.997999, 225, 173, 352, 204
-0.998, 133, 305, 148, 336
-0.998001, 119, 117, 134, 148
-0.998004, 147, 349, 162, 380
-0.998009, 179, 397, 194, 428
-0.998012, 113, 113, 128, 144
-0.998014, 141, 97, 172, 352
-0.998016, 19, 25, 34, 56
-0.998016, 185, 97, 216, 352
-0.998019, 213, 1, 244, 256
-0.998024, 225, 117, 240, 148
-0.998027, 87, 297, 102, 328
-0.998031, 309, 457, 324, 488
-0.998082, 225, 185, 352, 216
-0.998105, 1, 129, 32, 384
-0.99812, 37, 97, 68, 352
-0.998122, 1, 9, 128, 40
-0.998148, 41, 225, 72, 480
-0.998152, 129, 33, 375, 96
-0.998153, 209, 257, 240, 500
-0.998224, 25, 97, 56, 352
-0.998307, 225, 257, 256, 500
-0.998343, 333, 1, 364, 256
-0.998351, 1, 65, 375, 128
-0.99838, 161, 345, 224, 360
-0.998415, 285, 229, 316, 244
-0.998416, 281, 311, 312, 326
-0.998416, 205, 477, 236, 492
-0.998416, 141, 339, 172, 354
-0.998417, 177, 179, 208, 194
-0.998418, 101, 245, 132, 260
-0.998418, 345, 43, 375, 58
-0.998419, 297, 123, 328, 138
-0.998419, 225, 437, 256, 452
-0.99842, 17, 41, 48, 56
-0.99842, 137, 277, 168, 292
-0.99842, 29, 45, 60, 60
-0.99842, 57, 289, 88, 304
-0.99842, 81, 85, 112, 100
-0.998421, 257, 171, 288, 186
-0.998421, 65, 283, 96, 298
-0.998422, 1, 225, 32, 480
-0.998424, 49, 193, 80, 208
-0.998424, 245, 397, 276, 412
-0.998428, 109, 405, 140, 420
-0.998429, 37, 293, 68, 308
-0.998429, 117, 345, 148, 360
-0.998429, 345, 31, 375, 46
-0.99843, 197, 257, 228, 500
-0.998431, 229, 469, 260, 484
-0.998432, 273, 123, 304, 138
-0.998432, 73, 139, 104, 154
-0.998433, 141, 125, 172, 140
-0.998433, 161, 293, 192, 308
-0.998435, 117, 359, 148, 374
-0.998435, 61, 43, 92, 58
-0.998435, 177, 117, 208, 132
-0.998436, 57, 221, 120, 236
-0.998437, 73, 279, 136, 294
-0.998437, 245, 409, 276, 424
-0.998438, 165, 125, 196, 140
-0.998438, 225, 121, 288, 136
-0.99844, 101, 251, 132, 266
-0.99844, 113, 107, 144, 122
-0.998441, 277, 331, 308, 346
-0.998444, 341, 125, 372, 140
-0.998445, 129, 339, 160, 354
-0.998445, 281, 317, 312, 332
-0.998445, 341, 5, 372, 20
-0.998446, 161, 389, 192, 404
-0.998447, 137, 333, 168, 348
-0.998449, 149, 195, 180, 210
-0.99845, 69, 131, 100, 146
-0.998451, 105, 305, 136, 320
-0.998451, 205, 113, 236, 128
-0.998452, 169, 327, 200, 342
-0.998452, 233, 347, 296, 362
-0.998453, 113, 117, 144, 132
-0.998454, 57, 161, 120, 176
-0.998454, 97, 427, 128, 442
-0.998454, 145, 297, 176, 312
-0.998455, 89, 285, 120, 300
-0.998455, 157, 313, 188, 328
-0.998455, 153, 305, 184, 320
-0.998456, 157, 343, 188, 358
-0.998458, 1, 167, 32, 182
-0.998458, 201, 357, 264, 372
-0.998459, 161, 307, 224, 322
-0.998459, 145, 361, 176, 376
-0.998459, 229, 355, 260, 370
-0.99846, 125, 199, 156, 214
-0.998461, 93, 107, 124, 122
-0.998461, 85, 163, 116, 178
-0.998462, 161, 325, 224, 340
-0.998463, 97, 193, 128, 208
-0.998465, 273, 351, 304, 366
-0.998466, 73, 285, 136, 300
-0.998467, 173, 199, 204, 214
-0.998468, 57, 167, 120, 182
-0.998468, 201, 347, 264, 362
-0.998469, 341, 25, 372, 40
-0.99847, 113, 123, 144, 138
-0.99847, 133, 261, 164, 276
-0.998471, 169, 313, 200, 328
-0.998471, 181, 327, 212, 342
-0.998472, 225, 421, 256, 436
-0.998473, 109, 187, 140, 202
-0.998475, 57, 241, 120, 256
-0.998475, 77, 285, 108, 300
-0.998477, 281, 305, 312, 320
-0.998477, 9, 35, 40, 50
-0.998477, 281, 337, 312, 352
-0.998477, 137, 173, 200, 188
-0.998478, 277, 345, 308, 360
-0.998478, 161, 333, 224, 348
-0.99848, 237, 341, 268, 356
-0.998481, 93, 275, 124, 290
-0.998482, 233, 359, 296, 374
-0.998483, 269, 175, 300, 190
-0.998484, 341, 11, 372, 26
-0.998485, 229, 395, 260, 410
-0.998487, 225, 161, 288, 176
-0.998487, 25, 257, 56, 500
-0.998488, 201, 119, 232, 134
-0.998488, 341, 17, 372, 32
-0.998489, 161, 317, 224, 332
-0.998489, 225, 427, 256, 442
-0.998489, 89, 191, 152, 206
-0.99849, 93, 259, 124, 274
-0.998491, 1, 25, 32, 40
-0.998491, 125, 253, 156, 268
-0.998495, 97, 187, 128, 202
-0.998495, 185, 343, 216, 358
-0.998495, 185, 337, 216, 352
-0.998496, 161, 339, 224, 354
-0.998497, 85, 123, 116, 138
-0.998497, 97, 235, 160, 250
-0.998497, 57, 247, 120, 262
-0.998497, 97, 179, 160, 194
-0.998497, 237, 477, 268, 492
-0.998498, 41, 45, 72, 60
-0.998499, 217, 427, 280, 442
-0.998499, 137, 309, 168, 324
-0.9985, 261, 121, 292, 136
-0.9985, 277, 235, 308, 250
-0.998502, 161, 349, 192, 364
-0.998502, 241, 431, 272, 446
-0.998505, 73, 257, 104, 272
-0.998505, 185, 123, 248, 138
-0.998505, 217, 421, 280, 436
-0.998505, 17, 45, 80, 60
-0.998507, 57, 233, 120, 248
-0.998507, 229, 349, 260, 364
-0.998508, 137, 297, 200, 312
-0.998508, 49, 291, 112, 306
-0.998509, 129, 125, 192, 140
-0.998509, 57, 155, 120, 170
-0.99851, 165, 307, 196, 322
-0.99851, 97, 227, 160, 242
-0.998511, 153, 125, 184, 140
-0.998511, 161, 351, 224, 366
-0.998511, 185, 123, 216, 138
-0.998512, 245, 403, 276, 418
-0.998513, 61, 49, 92, 64
-0.998513, 257, 419, 320, 434
-0.998514, 57, 227, 120, 242
-0.998514, 233, 353, 296, 368
-0.998515, 245, 421, 276, 436
-0.998515, 77, 273, 108, 288
-0.998515, 209, 433, 272, 448
-0.998516, 245, 415, 276, 430
-0.998517, 77, 145, 108, 160
-0.998517, 133, 191, 164, 206
-0.99852, 169, 291, 232, 306
-0.99852, 165, 119, 196, 134
-0.998521, 313, 125, 375, 140
-0.998521, 225, 137, 288, 152
-0.998521, 201, 477, 264, 492
-0.998522, 69, 291, 100, 306
-0.998523, 213, 123, 244, 138
-0.998524, 225, 403, 288, 418
-0.998524, 89, 207, 152, 222
-0.998525, 121, 189, 184, 204
-0.998525, 105, 359, 168, 374
-0.998526, 185, 289, 216, 304
-0.998526, 233, 365, 296, 380
-0.998527, 189, 321, 220, 336
-0.998527, 113, 309, 176, 324
-0.998527, 189, 483, 220, 498
-0.998528, 65, 253, 128, 268
-0.998528, 89, 305, 152, 320
-0.998529, 97, 221, 160, 236
-0.998532, 129, 355, 192, 370
-0.998533, 97, 251, 160, 266
-0.998535, 65, 267, 128, 282
-0.998536, 273, 345, 336, 360
-0.998536, 149, 353, 180, 368
-0.998536, 133, 359, 164, 374
-0.998536, 129, 341, 192, 356
-0.998537, 137, 309, 200, 324
-0.998537, 89, 197, 152, 212
-0.998538, 97, 215, 160, 230
-0.998538, 77, 267, 108, 282
-0.998539, 225, 395, 288, 410
-0.99854, 185, 307, 216, 322
-0.99854, 73, 273, 136, 288
-0.99854, 97, 245, 160, 260
-0.998541, 281, 335, 344, 350
-0.998541, 177, 391, 240, 406
-0.998542, 97, 167, 160, 182
-0.998543, 57, 215, 120, 230
-0.998544, 233, 403, 264, 418
-0.998544, 173, 299, 204, 314
-0.998544, 169, 299, 232, 314
-0.998544, 241, 435, 304, 450
-0.998545, 93, 113, 124, 128
-0.998546, 273, 259, 336, 274
-0.998546, 225, 409, 288, 424
-0.998548, 233, 409, 264, 424
-0.998549, 113, 301, 176, 316
-0.998551, 57, 205, 120, 220
-0.998551, 153, 187, 216, 202
-0.998552, 125, 303, 156, 318
-0.998553, 265, 123, 328, 138
-0.998553, 137, 303, 200, 318
-0.998555, 285, 129, 316, 384
-0.998556, 273, 313, 336, 328
-0.998556, 177, 485, 240, 500
-0.998557, 57, 103, 120, 118
-0.998557, 97, 173, 160, 188
-0.998558, 25, 295, 88, 310
-0.998558, 153, 273, 216, 288
-0.998558, 169, 321, 200, 336
-0.998558, 33, 285, 96, 300
-0.998559, 97, 123, 160, 138
-0.99856, 225, 131, 288, 146
-0.998561, 169, 177, 232, 192
-0.998563, 49, 145, 112, 160
-0.998564, 137, 349, 200, 364
-0.998567, 185, 141, 248, 156
-0.998568, 241, 341, 304, 356
-0.998568, 145, 291, 208, 306
-0.998568, 113, 287, 176, 302
-0.998569, 241, 119, 272, 134
-0.99857, 225, 143, 288, 158
-0.99857, 57, 199, 120, 214
-0.99857, 121, 119, 184, 134
-0.998572, 77, 279, 108, 294
-0.998572, 145, 197, 208, 212
-0.998572, 81, 115, 144, 130
-0.998572, 161, 357, 224, 372
-0.998572, 129, 269, 192, 284
-0.998572, 153, 125, 216, 140
-0.998572, 273, 325, 336, 340
-0.998573, 265, 393, 328, 408
-0.998574, 89, 185, 152, 200
-0.998574, 41, 55, 104, 70
-0.998575, 81, 109, 144, 124
-0.998575, 49, 183, 112, 198
-0.998575, 1, 39, 64, 54
-0.998575, 97, 279, 160, 294
-0.998575, 129, 183, 192, 198
-0.998576, 65, 259, 128, 274
-0.998576, 313, 119, 375, 134
-0.998577, 265, 357, 328, 372
-0.998579, 137, 333, 200, 348
-0.998579, 113, 323, 176, 338
-0.998581, 193, 339, 256, 354
-0.998582, 145, 279, 208, 294
-0.998582, 121, 471, 184, 486
-0.998582, 97, 257, 160, 272
-0.998582, 9, 307, 72, 322
-0.998583, 113, 407, 176, 422
-0.998584, 361, 33, 375, 160
-0.998584, 181, 315, 212, 330
-0.998584, 201, 453, 264, 468
-0.998585, 185, 299, 216, 314
-0.998585, 153, 401, 216, 416
-0.998586, 97, 329, 160, 344
-0.998586, 49, 177, 112, 192
-0.998587, 241, 441, 304, 456
-0.998587, 265, 369, 328, 384
-0.998588, 225, 149, 288, 164
-0.998588, 49, 277, 112, 292
-0.998589, 17, 409, 80, 424
-0.998591, 281, 319, 344, 334
-0.998591, 201, 363, 264, 378
-0.998593, 73, 155, 104, 170
-0.998605, 97, 181, 128, 196
-0.998605, 185, 1, 216, 256
-0.998618, 89, 241, 104, 368
-0.998662, 209, 81, 224, 208
-0.998663, 93, 193, 108, 320
-0.998674, 13, 257, 44, 500
-0.998674, 121, 17, 184, 144
-0.998717, 243, 97, 258, 224
-0.998721, 185, 273, 200, 400
-0.998737, 135, 193, 150, 320
-0.998745, 257, 97, 272, 224
-0.99877, 241, 321, 256, 448
-0.998785, 355, 1, 370, 128
-0.998796, 103, 97, 118, 224
-0.998808, 251, 97, 266, 224
-0.998814, 59, 145, 74, 272
-0.998825, 231, 113, 246, 240
-0.998827, 73, 257, 88, 384
-0.998834, 177, 97, 192, 224
-0.998836, 95, 81, 110, 208
-0.998841, 237, 1, 268, 256
-0.998842, 179, 305, 194, 432
-0.998871, 53, 33, 68, 160
-0.998873, 5, 1, 20, 128
-0.998873, 159, 305, 174, 432
-0.998882, 283, 225, 298, 352
-0.998884, 237, 257, 268, 500
-0.998886, 237, 113, 252, 240
-0.998894, 129, 73, 256, 136
-0.9989, 129, 9, 375, 72
-0.998924, 87, 49, 102, 176
-0.998926, 201, 161, 216, 288
-0.998933, 143, 177, 158, 304
-0.998937, 71, 33, 86, 160
-0.998943, 99, 225, 114, 352
-0.998944, 263, 113, 278, 240
-0.998953, 165, 289, 180, 416
-0.998959, 275, 337, 290, 464
-0.99897, 345, 97, 375, 352
-0.998972, 209, 161, 224, 288
-0.998977, 39, 33, 54, 160
-0.998978, 289, 177, 304, 304
-0.998982, 93, 129, 108, 256
-0.998989, 283, 161, 298, 288
-0.998991, 179, 193, 194, 320
-0.998997, 81, 273, 96, 400
-0.999002, 235, 337, 250, 464
-0.999011, 269, 369, 284, 496
-0.999012, 269, 113, 284, 240
-0.999013, 201, 241, 216, 368
-0.999014, 137, 337, 152, 464
-0.999018, 63, 33, 78, 160
-0.99902, 297, 97, 328, 352
-0.999022, 11, 1, 26, 128
-0.999022, 109, 97, 124, 224
-0.999024, 45, 33, 60, 160
-0.999029, 149, 257, 164, 384
-0.999049, 129, 225, 144, 352
-0.99905, 203, 337, 218, 464
-0.999054, 69, 129, 84, 256
-0.999056, 185, 337, 200, 464
-0.999057, 215, 113, 230, 240
-0.999058, 101, 145, 116, 272
-0.999067, 123, 225, 138, 352
-0.999067, 261, 33, 292, 288
-0.999072, 157, 1, 188, 256
-0.999079, 31, 33, 46, 160
-0.999079, 221, 369, 236, 496
-0.99908, 149, 337, 164, 464
-0.999083, 125, 369, 140, 496
-0.999093, 225, 1, 256, 256
-0.999103, 207, 241, 222, 368
-0.999107, 171, 113, 186, 240
-0.99911, 173, 241, 188, 368
-0.999111, 63, 193, 78, 320
-0.999115, 59, 97, 74, 224
-0.999115, 215, 161, 230, 288
-0.999117, 79, 209, 94, 336
-0.999117, 201, 289, 216, 416
-0.999119, 19, 17, 34, 144
-0.999125, 115, 369, 130, 496
-0.999125, 211, 369, 226, 496
-0.999127, 81, 49, 96, 176
-0.99913, 277, 161, 292, 288
-0.999131, 225, 113, 240, 240
-0.999134, 143, 337, 158, 464
-0.999137, 197, 337, 212, 464
-0.999139, 67, 241, 82, 368
-0.99914, 249, 1, 280, 256
-0.99914, 189, 193, 204, 320
-0.999144, 127, 305, 142, 432
-0.999146, 195, 161, 210, 288
-0.999151, 153, 161, 168, 288
-0.999152, 133, 289, 148, 416
-0.999162, 273, 241, 288, 368
-0.999164, 143, 241, 158, 368
-0.999166, 203, 97, 218, 224
-0.999167, 135, 241, 150, 368
-0.999168, 195, 273, 210, 400
-0.999169, 53, 113, 68, 240
-0.999172, 205, 33, 220, 160
-0.999173, 97, 273, 112, 400
-0.999174, 173, 305, 188, 432
-0.999176, 281, 321, 296, 448
-0.999178, 161, 241, 176, 368
-0.999185, 145, 113, 160, 240
-0.999189, 115, 97, 130, 224
-0.99919, 183, 113, 198, 240
-0.99919, 211, 33, 226, 160
-0.999195, 157, 369, 172, 496
-0.999197, 281, 273, 296, 400
-0.999201, 155, 257, 170, 384
-0.999204, 131, 353, 146, 480
-0.999206, 299, 337, 314, 464
-0.999214, 157, 113, 172, 240
-0.999217, 179, 257, 194, 384
-0.999217, 347, 49, 362, 176
-0.999217, 275, 289, 290, 416
-0.999221, 247, 353, 262, 480
-0.999222, 209, 289, 224, 416
-0.999231, 35, 369, 50, 496
-0.999239, 79, 321, 94, 448
-0.999242, 35, 257, 50, 384
-0.999242, 165, 113, 180, 240
-0.999245, 193, 73, 320, 136
-0.999246, 47, 129, 62, 256
-0.999249, 121, 305, 136, 432
-0.999251, 257, 353, 272, 480
-0.999252, 87, 129, 102, 256
-0.999254, 165, 161, 180, 288
-0.999261, 73, 193, 88, 320
-0.999262, 25, 17, 40, 144
-0.999263, 289, 305, 304, 432
-0.999265, 137, 113, 152, 240
-0.999271, 195, 209, 210, 336
-0.999273, 43, 257, 58, 384
-0.999274, 267, 161, 282, 288
-0.999277, 173, 161, 188, 288
-0.999278, 151, 113, 166, 240
-0.999282, 241, 273, 256, 400
-0.999282, 251, 273, 266, 400
-0.999284, 121, 97, 136, 224
-0.999284, 49, 289, 64, 416
-0.99929, 291, 369, 306, 496
-0.999311, 309, 97, 340, 352
-0.99938, 97, 1, 128, 256
-0.999391, 325, 97, 356, 352
-0.999441, 345, 225, 375, 480
-0.999556, 305, 225, 336, 480
-0.999624, 153, 365, 168, 380
-0.999624, 25, 39, 40, 54
-0.999625, 279, 173, 294, 188
-0.999625, 171, 187, 186, 202
-0.999626, 345, 353, 360, 368
-0.999626, 335, 351, 350, 366
-0.999626, 77, 287, 92, 302
-0.999626, 273, 413, 288, 428
-0.999626, 285, 225, 300, 240
-0.999627, 303, 435, 318, 450
-0.999627, 247, 419, 262, 434
-0.999628, 201, 317, 216, 332
-0.999629, 9, 21, 24, 36
-0.999629, 281, 409, 296, 424
-0.999629, 165, 341, 180, 356
-0.999629, 173, 307, 188, 322
-0.99963, 61, 47, 76, 62
-0.99963, 143, 193, 158, 208
-0.99963, 337, 445, 352, 460
-0.99963, 101, 181, 116, 196
-0.999631, 255, 119, 270, 134
-0.999631, 245, 391, 260, 406
-0.999632, 281, 121, 296, 136
-0.999632, 361, 59, 375, 74
-0.999633, 281, 233, 296, 248
-0.999633, 249, 479, 264, 494
-0.999633, 213, 121, 228, 136
-0.999633, 295, 457, 310, 472
-0.999634, 83, 291, 98, 306
-0.999634, 351, 15, 366, 30
-0.999634, 57, 191, 72, 206
-0.999635, 283, 323, 298, 338
-0.999635, 309, 461, 324, 476
-0.999636, 143, 125, 158, 140
-0.999637, 83, 61, 98, 76
-0.999637, 183, 203, 198, 218
-0.999637, 125, 193, 140, 208
-0.999638, 159, 389, 174, 404
-0.999638, 95, 255, 110, 270
-0.999638, 131, 227, 146, 242
-0.999638, 347, 3, 362, 18
-0.999638, 351, 127, 366, 142
-0.999639, 129, 199, 144, 214
-0.999639, 73, 53, 88, 68
-0.999639, 205, 253, 220, 268
-0.99964, 247, 403, 262, 418
-0.99964, 83, 273, 98, 288
-0.99964, 71, 289, 86, 304
-0.999641, 133, 243, 148, 258
-0.999643, 237, 121, 252, 136
-0.999643, 175, 299, 190, 314
-0.999643, 185, 327, 200, 342
-0.999643, 105, 111, 120, 126
-0.999643, 117, 117, 132, 132
-0.999643, 135, 205, 150, 220
-0.999644, 359, 45, 374, 60
-0.999644, 209, 113, 224, 128
-0.999645, 181, 309, 196, 324
-0.999645, 183, 437, 198, 452
-0.999647, 189, 311, 204, 326
-0.999647, 285, 449, 300, 464
-0.999647, 347, 363, 362, 378
-0.999649, 303, 461, 318, 476
-0.999649, 165, 307, 180, 322
-0.999649, 207, 59, 222, 74
-0.999649, 165, 389, 180, 404
-0.999649, 165, 121, 180, 136
-0.999649, 209, 97, 224, 112
-0.99965, 181, 315, 196, 330
-0.999651, 173, 1, 204, 256
-0.999652, 131, 191, 146, 206
-0.999652, 53, 45, 68, 60
-0.999654, 199, 305, 214, 320
-0.999654, 149, 125, 164, 140
-0.999655, 133, 217, 148, 232
-0.999655, 241, 359, 256, 374
-0.999656, 173, 351, 188, 366
-0.999657, 201, 121, 216, 136
-0.999658, 203, 267, 218, 282
-0.999659, 107, 183, 122, 198
-0.999659, 59, 203, 74, 218
-0.99966, 221, 393, 236, 408
-0.999661, 139, 363, 154, 378
-0.999661, 145, 359, 160, 374
-0.999661, 95, 163, 110, 178
-0.999662, 299, 441, 314, 456
-0.999662, 267, 413, 282, 428
-0.999662, 195, 299, 210, 314
-0.999663, 209, 71, 224, 86
-0.999664, 349, 9, 364, 24
-0.999667, 119, 187, 134, 202
-0.999668, 83, 283, 98, 298
-0.999668, 173, 321, 188, 336
-0.999668, 189, 287, 204, 302
-0.999669, 207, 65, 222, 80
-0.999671, 191, 319, 206, 334
-0.999671, 325, 225, 356, 480
-0.999671, 91, 283, 106, 298
-0.999673, 267, 121, 282, 136
-0.999674, 243, 431, 258, 446
-0.999676, 245, 397, 260, 412
-0.999677, 177, 121, 192, 136
-0.999678, 249, 117, 264, 132
-0.99968, 175, 315, 190, 330
-0.999681, 283, 329, 298, 344
-0.999682, 105, 175, 120, 190
-0.999683, 293, 439, 308, 454
-0.999683, 99, 111, 114, 126
-0.999684, 191, 327, 206, 342
-0.999687, 241, 347, 256, 362
-0.999687, 91, 265, 106, 280
-0.999688, 127, 303, 142, 318
-0.999691, 181, 321, 196, 336
-0.999692, 95, 153, 110, 168
-0.999693, 187, 305, 202, 320
-0.999694, 95, 273, 110, 288
-0.999701, 15, 25, 30, 40
-0.999702, 99, 105, 114, 120
-0.999703, 113, 187, 128, 202
-0.999704, 131, 237, 146, 252
-0.999706, 199, 43, 214, 58
-0.999709, 293, 447, 308, 462
-0.999709, 163, 347, 178, 362
-0.999711, 183, 291, 198, 306
-0.999711, 129, 73, 375, 136
-0.999711, 197, 323, 212, 338
-0.999713, 241, 353, 256, 368
-0.999719, 71, 47, 86, 62
-0.999731, 207, 119, 222, 134
-0.999731, 139, 199, 154, 214
-0.99974, 1, 11, 16, 26
-0.999754, 185, 299, 200, 314
-0.999765, 241, 341, 256, 356
-0.999847, 293, 225, 324, 480
-0.999847, 145, 1, 176, 256
-1.00001, 273, 1, 304, 256
-1.0002, 285, 33, 316, 288
-1.0003, 133, 1, 164, 256
-1.00032, 109, 1, 140, 256
-1.00036, 121, 1, 152, 256
-1.00044, 321, 1, 352, 256
-1.00044, 281, 65, 344, 192
-1.0006, 161, 33, 288, 96
-1.00065, 309, 1, 340, 256
-1.00085, 297, 1, 328, 256
-1.00119, 177, 9, 304, 72
-1.00141, 113, 33, 240, 96
-1.00177, 161, 1, 224, 128
-1.00178, 113, 9, 240, 72
-1.00397, 289, 1, 352, 256
-1.00498, 129, 17, 256, 144
-1.00566, 209, 1, 272, 128
-1.0065, 249, 17, 312, 144
-1.01302, 289, 17, 352, 144
-1.01837, 185, 1, 248, 128
