1946
-0.235905, 1, 1, 500, 375
-0.308796, 33, 1, 288, 375
-0.340461, 1, 1, 500, 256
-0.388033, 193, 1, 448, 375
-0.391082, 1, 129, 500, 375
-0.425757, 129, 65, 384, 320
-0.482813, 33, 33, 288, 288
-0.56419, 225, 1, 480, 256
-0.564815, 225, 97, 480, 352
-0.567233, 33, 129, 288, 375
-0.837641, 193, 33, 320, 288
-0.839824, 17, 65, 144, 320
-0.841231, 209, 1, 336, 375
-0.843371, 97, 1, 224, 256
-0.846247, 1, 17, 500, 144
-0.848822, 33, 1, 160, 375
-0.853795, 97, 1, 224, 375
-0.855034, 225, 129, 352, 375
-0.866486, 145, 1, 272, 375
-0.86705, 81, 97, 208, 352
-0.869538, 273, 1, 400, 256
-0.872873, 145, 1, 272, 256
-0.873627, 289, 1, 416, 375
-0.876899, 369, 1, 496, 375
-0.877782, 177, 129, 304, 375
-0.880442, 1, 177, 500, 304
-0.882603, 1, 65, 500, 192
-0.884351, 1, 241, 500, 368
-0.890089, 129, 97, 256, 352
-0.890338, 33, 241, 288, 368
-0.89316, 289, 97, 416, 352
-0.901119, 33, 33, 288, 160
-0.902759, 1, 193, 256, 320
-0.904421, 1, 129, 500, 256
-0.907849, 129, 177, 384, 304
-0.909039, 321, 1, 448, 256
-0.911483, 369, 1, 496, 256
-0.912158, 337, 129, 464, 375
-0.913994, 1, 81, 256, 208
-0.919587, 129, 1, 384, 128
-0.920246, 193, 65, 448, 192
-0.922437, 257, 1, 500, 128
-0.924325, 49, 177, 112, 304
-0.925689, 33, 145, 288, 272
-0.927384, 225, 161, 480, 288
-0.927439, 193, 225, 448, 352
-0.928217, 129, 113, 384, 240
-0.929707, 225, 113, 480, 240
-0.930157, 33, 81, 96, 208
-0.930744, 33, 177, 160, 304
-0.930936, 49, 1, 176, 128
-0.931466, 193, 1, 320, 128
-0.931584, 89, 145, 152, 272
-0.931794, 49, 241, 112, 368
-0.93214, 1, 97, 128, 224
-0.934018, 49, 129, 112, 256
-0.934941, 209, 177, 336, 304
-0.935219, 73, 97, 136, 224
-0.935328, 89, 193, 152, 320
-0.935806, 81, 225, 208, 352
-0.9366, 129, 177, 192, 304
-0.938261, 201, 241, 264, 368
-0.938718, 249, 1, 312, 128
-0.939124, 9, 113, 72, 240
-0.939341, 273, 17, 336, 144
-0.939672, 25, 161, 88, 288
-0.940281, 49, 1, 112, 128
-0.940807, 129, 177, 256, 304
-0.941839, 145, 241, 272, 368
-0.942191, 33, 49, 160, 176
-0.942874, 321, 1, 448, 128
-0.943031, 305, 145, 432, 272
-0.943188, 289, 193, 416, 320
-0.943495, 273, 1, 400, 128
-0.944151, 185, 177, 248, 304
-0.944443, 33, 225, 160, 352
-0.944596, 321, 1, 384, 128
-0.944987, 209, 129, 336, 256
-0.945914, 81, 161, 208, 288
-0.946141, 321, 209, 384, 336
-0.946276, 57, 297, 120, 360
-0.946287, 241, 65, 368, 192
-0.947202, 81, 241, 144, 368
-0.947347, 113, 17, 240, 144
-0.947559, 25, 209, 88, 336
-0.947594, 105, 241, 168, 368
-0.947925, 305, 161, 368, 288
-0.947979, 425, 1, 488, 128
-0.948448, 241, 65, 304, 192
-0.94877, 273, 65, 336, 192
-0.949178, 145, 225, 208, 352
-0.949432, 249, 193, 312, 320
-0.949479, 209, 1, 272, 128
-0.950158, 297, 1, 360, 128
-0.950463, 137, 225, 200, 288
-0.950611, 33, 97, 96, 160
-0.95062, 81, 97, 208, 224
-0.950624, 97, 201, 160, 264
-0.950642, 9, 137, 72, 200
-0.950664, 369, 33, 496, 160
-0.95083, 105, 33, 168, 160
-0.951051, 225, 177, 288, 304
-0.951098, 257, 145, 384, 272
-0.951532, 193, 81, 320, 208
-0.951595, 9, 161, 72, 224
-0.952889, 113, 313, 176, 375
-0.952904, 105, 97, 168, 224
-0.95301, 49, 177, 112, 240
-0.953174, 81, 33, 144, 160
-0.953273, 225, 225, 352, 352
-0.953302, 145, 17, 208, 144
-0.953536, 185, 1, 248, 128
-0.954259, 433, 49, 496, 176
-0.954266, 273, 81, 336, 144
-0.954459, 345, 241, 408, 368
-0.954532, 57, 49, 120, 176
-0.95469, 409, 49, 472, 112
-0.95473, 185, 201, 248, 264
-0.954786, 265, 129, 328, 256
-0.954961, 345, 1, 408, 128
-0.955001, 121, 201, 184, 264
-0.955252, 65, 201, 128, 264
-0.955465, 361, 129, 424, 256
-0.955704, 89, 225, 152, 288
-0.956022, 49, 145, 112, 208
-0.95624, 289, 97, 416, 224
-0.956351, 169, 241, 232, 368
-0.95673, 289, 241, 416, 368
-0.957198, 281, 193, 344, 320
-0.957301, 89, 177, 152, 240
-0.957653, 1, 161, 64, 288
-0.957805, 137, 313, 200, 375
-0.957922, 177, 225, 240, 288
-0.958014, 289, 113, 352, 240
-0.958035, 57, 225, 120, 288
-0.959456, 129, 81, 192, 208
-0.959491, 321, 49, 384, 176
-0.959551, 1, 113, 64, 176
-0.95998, 345, 265, 408, 328
-0.960224, 49, 9, 112, 72
-0.960301, 153, 177, 216, 304
-0.96037, 401, 33, 464, 160
-0.960645, 289, 105, 352, 168
-0.961389, 209, 185, 272, 248
-0.961609, 153, 201, 216, 264
-0.961748, 249, 81, 312, 144
-0.961809, 209, 225, 272, 288
-0.962116, 345, 137, 408, 200
-0.962131, 73, 129, 136, 192
-0.962137, 49, 41, 112, 104
-0.962367, 25, 33, 88, 160
-0.962381, 209, 65, 272, 192
-0.962482, 89, 153, 152, 216
-0.962749, 49, 129, 112, 375
-0.963027, 241, 201, 304, 264
-0.963092, 81, 105, 144, 168
-0.963116, 49, 201, 176, 264
-0.963173, 105, 17, 168, 80
-0.963448, 377, 25, 440, 88
-0.963466, 81, 305, 144, 368
-0.963577, 49, 121, 112, 184
-0.963804, 297, 49, 360, 176
-0.963835, 369, 81, 496, 208
-0.963972, 25, 65, 88, 320
-0.964074, 89, 65, 152, 320
-0.964278, 241, 113, 304, 240
-0.964352, 337, 241, 464, 368
-0.964447, 113, 225, 176, 288
-0.964644, 321, 241, 384, 304
-0.964707, 129, 25, 192, 88
-0.964793, 289, 49, 416, 176
-0.96482, 41, 201, 104, 264
-0.965307, 329, 161, 392, 288
-0.965529, 25, 225, 88, 288
-0.965822, 297, 1, 360, 64
-0.965885, 185, 97, 248, 224
-0.965924, 49, 1, 112, 256
-0.965981, 209, 129, 272, 256
-0.966048, 433, 57, 496, 120
-0.966087, 281, 33, 344, 288
-0.966114, 33, 305, 160, 368
-0.96612, 241, 1, 304, 256
-0.966123, 53, 305, 84, 368
-0.966144, 17, 201, 80, 264
-0.966193, 289, 193, 352, 256
-0.966447, 385, 113, 448, 240
-0.966608, 57, 249, 120, 312
-0.966651, 33, 313, 96, 375
-0.966733, 129, 97, 256, 224
-0.966769, 69, 297, 100, 360
-0.966899, 161, 1, 224, 64
-0.966951, 377, 129, 440, 192
-0.967252, 369, 1, 432, 128
-0.96733, 129, 177, 192, 240
-0.967454, 281, 57, 344, 120
-0.967456, 249, 97, 312, 352
-0.96748, 81, 161, 112, 288
-0.967492, 129, 89, 192, 152
-0.967521, 369, 145, 496, 272
-0.967882, 257, 25, 320, 88
-0.968089, 201, 265, 264, 328
-0.96823, 113, 225, 240, 288
-0.968238, 53, 193, 84, 256
-0.968274, 313, 113, 376, 240
-0.968311, 129, 129, 192, 256
-0.968389, 249, 137, 312, 200
-0.968699, 73, 17, 136, 80
-0.968713, 145, 249, 208, 312
-0.96884, 129, 201, 256, 264
-0.968889, 133, 201, 164, 264
-0.969133, 233, 177, 296, 240
-0.96925, 305, 217, 368, 280
-0.969974, 105, 89, 168, 152
-0.969989, 417, 17, 480, 80
-0.970064, 5, 153, 36, 216
-0.97027, 337, 193, 464, 320
-0.970363, 1, 225, 128, 288
-0.970451, 41, 81, 72, 208
-0.970529, 285, 89, 316, 152
-0.97064, 129, 1, 192, 256
-0.970692, 129, 177, 160, 304
-0.970726, 1, 209, 64, 336
-0.970735, 249, 105, 312, 168
-0.970942, 353, 177, 416, 304
-0.970945, 321, 265, 384, 328
-0.970979, 65, 225, 96, 352
-0.970993, 33, 97, 160, 160
-0.971049, 109, 145, 140, 272
-0.971167, 265, 169, 328, 232
-0.971354, 57, 145, 88, 272
-0.971366, 217, 1, 280, 256
-0.971427, 345, 241, 408, 304
-0.971456, 265, 201, 328, 264
-0.971555, 93, 145, 124, 272
-0.971659, 49, 73, 112, 136
-0.971749, 77, 97, 108, 224
-0.971792, 329, 313, 392, 375
-0.971906, 41, 97, 72, 160
-0.971959, 225, 81, 288, 144
-0.972, 81, 313, 208, 375
-0.972078, 1, 161, 128, 224
-0.972102, 345, 289, 408, 352
-0.972198, 57, 49, 88, 176
-0.972499, 225, 201, 352, 264
-0.972517, 37, 129, 68, 256
-0.972617, 49, 273, 112, 336
-0.972636, 337, 113, 400, 240
-0.97288, 193, 81, 256, 144
-0.972887, 137, 1, 200, 64
-0.972902, 281, 33, 344, 96
-0.97291, 185, 313, 248, 375
-0.972987, 93, 193, 124, 320
-0.9731, 225, 241, 288, 368
-0.973106, 97, 129, 160, 192
-0.97314, 153, 113, 216, 240
-0.973156, 345, 161, 408, 224
-0.973224, 57, 217, 88, 280
-0.973253, 17, 169, 48, 232
-0.973259, 17, 145, 48, 272
-0.973289, 45, 177, 76, 304
-0.973377, 1, 137, 128, 200
-0.973523, 77, 241, 108, 368
-0.973611, 129, 65, 192, 128
-0.973648, 345, 17, 408, 80
-0.973648, 1, 1, 128, 128
-0.973679, 441, 49, 472, 112
-0.973716, 101, 201, 132, 264
-0.973723, 181, 201, 212, 264
-0.973726, 177, 81, 304, 144
-0.973819, 297, 241, 360, 368
-0.973868, 313, 193, 344, 320
-0.97387, 1, 97, 64, 352
-0.973918, 57, 1, 88, 128
-0.974029, 65, 225, 192, 288
-0.974135, 153, 1, 216, 256
-0.974186, 161, 313, 224, 375
-0.974202, 229, 177, 260, 304
-0.974324, 25, 137, 56, 200
-0.974335, 97, 241, 128, 368
-0.97441, 57, 97, 120, 160
-0.974427, 161, 217, 192, 280
-0.974476, 105, 41, 168, 104
-0.974622, 117, 193, 148, 320
-0.974687, 421, 41, 452, 104
-0.974724, 161, 225, 288, 288
-0.974756, 385, 225, 448, 352
-0.974804, 329, 1, 360, 128
-0.974826, 401, 129, 464, 192
-0.974884, 193, 1, 256, 256
-0.974894, 161, 89, 224, 152
-0.974989, 117, 1, 148, 128
-0.974995, 209, 161, 272, 224
-0.975113, 29, 81, 60, 208
-0.975139, 281, 17, 312, 144
-0.975145, 69, 161, 100, 288
-0.975152, 145, 313, 176, 375
-0.97518, 257, 49, 320, 112
-0.97529, 321, 1, 384, 64
-0.97531, 149, 161, 180, 288
-0.975387, 153, 177, 216, 240
-0.975487, 313, 185, 376, 248
-0.975498, 265, 1, 296, 128
-0.975583, 193, 129, 256, 375
-0.975642, 225, 137, 352, 200
-0.975658, 305, 265, 432, 328
-0.975673, 361, 129, 424, 375
-0.975689, 145, 201, 176, 264
-0.975728, 65, 193, 96, 256
-0.975742, 185, 177, 248, 240
-0.975792, 385, 161, 448, 288
-0.975799, 145, 225, 176, 288
-0.975832, 345, 65, 408, 192
-0.97588, 217, 201, 248, 264
-0.975887, 285, 65, 316, 192
-0.975926, 321, 33, 384, 96
-0.976083, 113, 89, 240, 152
-0.976343, 81, 249, 144, 312
-0.976387, 37, 129, 68, 192
-0.976388, 73, 217, 104, 280
-0.976408, 89, 193, 120, 256
-0.976423, 305, 161, 368, 224
-0.976462, 129, 49, 160, 176
-0.97652, 305, 73, 336, 136
-0.97664, 181, 225, 212, 288
-0.976861, 33, 41, 160, 104
-0.976887, 233, 233, 296, 296
-0.976907, 417, 97, 480, 224
-0.976912, 241, 177, 368, 240
-0.976942, 105, 289, 168, 352
-0.976978, 57, 1, 88, 64
-0.976979, 273, 1, 400, 64
-0.976983, 273, 129, 336, 192
-0.976999, 225, 97, 288, 352
-0.977011, 77, 185, 108, 248
-0.977048, 25, 281, 88, 344
-0.977125, 105, 65, 168, 128
-0.977186, 377, 1, 440, 256
-0.977188, 305, 17, 336, 144
-0.9772, 305, 57, 368, 120
-0.977202, 265, 81, 296, 144
-0.977203, 57, 281, 88, 344
-0.977221, 465, 65, 496, 128
-0.977237, 121, 225, 152, 288
-0.977268, 57, 169, 88, 232
-0.977272, 213, 177, 244, 304
-0.977294, 321, 1, 384, 256
-0.977401, 9, 105, 40, 168
-0.97741, 185, 1, 248, 64
-0.977416, 129, 97, 192, 352
-0.977474, 53, 225, 84, 352
-0.977502, 241, 313, 304, 375
-0.977512, 305, 129, 368, 375
-0.977546, 377, 153, 440, 216
-0.977546, 281, 249, 344, 312
-0.977566, 33, 169, 64, 232
-0.977578, 157, 313, 188, 375
-0.977584, 1, 129, 32, 192
-0.977649, 29, 97, 60, 160
-0.977674, 121, 201, 152, 264
-0.977684, 41, 33, 72, 160
-0.977747, 133, 225, 164, 288
-0.977771, 105, 193, 136, 320
-0.977775, 153, 25, 216, 88
-0.977827, 193, 241, 224, 368
-0.977851, 33, 249, 160, 312
-0.977884, 133, 241, 164, 368
-0.977909, 377, 1, 440, 64
-0.977934, 285, 113, 316, 176
-0.977982, 209, 297, 272, 360
-0.978007, 241, 1, 304, 64
-0.978038, 33, 9, 160, 72
-0.97804, 25, 73, 88, 136
-0.978047, 305, 137, 368, 200
-0.978093, 77, 145, 108, 208
-0.978097, 41, 193, 72, 256
-0.978121, 169, 257, 232, 320
-0.978173, 113, 153, 176, 216
-0.978176, 101, 129, 132, 192
-0.978298, 1, 193, 128, 256
-0.978319, 85, 297, 116, 360
-0.978337, 221, 225, 252, 288
-0.978348, 453, 57, 484, 120
-0.978376, 169, 225, 200, 352
-0.978378, 177, 185, 304, 248
-0.978422, 89, 217, 120, 280
-0.978447, 49, 177, 176, 240
-0.978568, 145, 1, 272, 64
-0.978593, 121, 121, 184, 184
-0.978604, 201, 225, 232, 288
-0.978607, 145, 265, 272, 328
-0.978608, 341, 161, 372, 288
-0.97862, 105, 81, 136, 208
-0.978622, 93, 97, 124, 224
-0.978646, 1, 225, 64, 288
-0.978669, 313, 225, 344, 288
-0.978678, 193, 201, 224, 264
-0.978693, 133, 313, 164, 375
-0.978696, 313, 105, 376, 168
-0.978731, 65, 241, 96, 304
-0.978758, 61, 97, 92, 224
-0.978791, 257, 57, 384, 120
-0.978814, 249, 281, 312, 344
-0.978821, 277, 129, 308, 256
-0.978847, 233, 241, 264, 368
-0.978889, 413, 129, 444, 192
-0.978996, 321, 289, 384, 352
-0.979007, 97, 169, 128, 232
-0.979009, 273, 65, 304, 192
-0.979042, 273, 1, 336, 64
-0.979051, 253, 1, 284, 128
-0.979064, 181, 241, 212, 368
-0.979088, 97, 1, 160, 375
-0.97917, 113, 257, 176, 320
-0.979272, 57, 97, 88, 160
-0.979284, 45, 169, 76, 232
-0.979286, 193, 137, 256, 200
-0.97937, 217, 1, 280, 64
-0.979391, 225, 265, 352, 328
-0.979425, 305, 153, 432, 216
-0.979478, 305, 225, 432, 288
-0.979493, 329, 209, 392, 272
-0.979552, 361, 137, 392, 200
-0.979565, 285, 193, 316, 320
-0.979566, 233, 201, 264, 264
-0.97963, 409, 1, 472, 256
-0.979653, 189, 313, 220, 375
-0.979737, 329, 81, 360, 208
-0.979738, 369, 49, 496, 112
-0.979757, 109, 225, 140, 288
-0.979818, 225, 289, 352, 352
-0.979873, 41, 1, 104, 375
-0.980023, 97, 177, 224, 240
-0.980161, 293, 145, 324, 272
-0.980273, 65, 153, 192, 216
-0.980333, 221, 241, 252, 368
-0.980372, 193, 17, 320, 80
-0.980478, 337, 145, 368, 208
-0.980497, 321, 185, 352, 248
-0.98052, 17, 25, 80, 88
-0.980532, 225, 81, 352, 144
-0.9806, 233, 17, 264, 144
-0.980614, 185, 49, 248, 176
-0.980646, 305, 289, 432, 352
-0.980652, 293, 17, 324, 144
-0.980669, 209, 233, 336, 296
-0.980688, 297, 201, 328, 264
-0.980702, 33, 73, 160, 136
-0.980716, 169, 313, 200, 375
-0.980716, 173, 177, 204, 304
-0.980721, 373, 1, 404, 128
-0.980748, 161, 313, 288, 375
-0.980784, 57, 33, 88, 96
-0.980791, 205, 201, 236, 264
-0.980814, 289, 185, 416, 248
-0.980817, 257, 1, 320, 375
-0.980821, 69, 17, 100, 144
-0.980894, 425, 17, 456, 80
-0.980919, 5, 145, 36, 272
-0.980951, 213, 1, 244, 128
-0.981002, 9, 249, 72, 312
-0.981072, 113, 177, 144, 240
-0.981116, 45, 217, 76, 280
-0.981152, 81, 257, 208, 320
-0.981153, 153, 65, 216, 192
-0.981203, 369, 241, 432, 304
-0.981237, 281, 129, 344, 375
-0.981256, 265, 225, 328, 288
-0.981266, 405, 129, 436, 256
-0.981269, 1, 89, 64, 152
-0.981299, 109, 97, 140, 160
-0.981309, 1, 49, 64, 176
-0.981324, 233, 57, 296, 120
-0.981336, 81, 17, 208, 80
-0.981392, 129, 17, 160, 80
-0.981394, 193, 113, 320, 176
-0.981395, 145, 289, 272, 352
-0.981471, 113, 305, 144, 368
-0.981516, 377, 17, 408, 80
-0.981528, 469, 49, 500, 176
-0.981559, 273, 241, 336, 368
-0.98157, 341, 1, 372, 128
-0.981577, 353, 313, 416, 375
-0.981603, 201, 177, 232, 304
-0.981669, 429, 33, 460, 160
-0.981678, 253, 193, 284, 320
-0.981698, 325, 105, 356, 168
-0.981706, 141, 177, 172, 240
-0.98179, 193, 161, 320, 224
-0.981794, 41, 305, 72, 368
-0.981812, 329, 145, 360, 272
-0.981815, 369, 49, 432, 176
-0.981857, 353, 217, 416, 280
-0.981881, 161, 177, 192, 304
-0.98189, 233, 177, 264, 240
-0.981891, 145, 209, 176, 336
-0.981907, 97, 289, 224, 352
-0.981972, 337, 129, 400, 375
-0.981988, 101, 305, 132, 368
-0.982005, 33, 177, 64, 304
-0.982013, 133, 1, 164, 128
-0.982101, 109, 241, 140, 368
-0.982126, 313, 145, 344, 272
-0.982131, 285, 169, 316, 232
-0.982207, 305, 49, 432, 112
-0.982266, 1, 97, 32, 224
-0.982333, 105, 1, 136, 128
-0.98234, 273, 121, 400, 184
-0.982395, 81, 121, 208, 184
-0.982435, 201, 81, 232, 144
-0.982455, 225, 313, 352, 375
-0.982478, 173, 89, 204, 152
-0.982494, 89, 97, 120, 160
-0.982518, 149, 17, 180, 144
-0.982528, 261, 49, 292, 176
-0.982529, 309, 193, 340, 256
-0.98255, 361, 129, 392, 256
-0.982556, 57, 129, 88, 192
-0.982558, 285, 65, 316, 128
-0.982659, 233, 241, 264, 304
-0.982703, 289, 33, 320, 96
-0.982712, 169, 97, 232, 352
-0.982737, 205, 241, 236, 368
-0.982809, 457, 49, 488, 176
-0.982834, 253, 185, 284, 248
-0.982852, 57, 57, 88, 120
-0.982948, 77, 105, 108, 168
-0.982956, 129, 1, 192, 375
-0.982962, 321, 1, 384, 375
-0.982987, 161, 185, 192, 248
-0.983037, 369, 241, 400, 368
-0.983098, 281, 1, 344, 375
-0.983103, 17, 1, 80, 375
-0.983124, 149, 25, 180, 88
-0.983215, 329, 81, 360, 144
-0.983246, 329, 1, 360, 64
-0.983248, 313, 81, 344, 208
-0.983273, 333, 313, 364, 375
-0.983327, 317, 1, 348, 128
-0.983407, 145, 25, 272, 88
-0.983483, 369, 265, 400, 328
-0.983497, 241, 193, 272, 320
-0.983535, 225, 1, 288, 375
-0.983543, 409, 33, 440, 96
-0.983546, 337, 25, 464, 88
-0.983576, 169, 241, 200, 304
-0.983638, 357, 1, 388, 128
-0.983749, 333, 241, 364, 368
-0.983762, 289, 313, 416, 375
-0.983776, 81, 65, 208, 128
-0.983778, 305, 49, 336, 112
-0.983884, 409, 161, 472, 288
-0.98394, 277, 137, 308, 200
-0.984, 465, 41, 496, 104
-0.984007, 341, 177, 372, 240
-0.984019, 129, 81, 160, 144
-0.984154, 185, 1, 248, 375
-0.98419, 297, 193, 328, 320
-0.984218, 89, 33, 120, 160
-0.984243, 33, 281, 160, 344
-0.984264, 305, 1, 336, 64
-0.984271, 329, 57, 360, 120
-0.984282, 273, 177, 304, 240
-0.984285, 273, 25, 400, 88
-0.984322, 333, 217, 364, 280
-0.984371, 33, 217, 64, 280
-0.984521, 73, 1, 136, 375
-0.984591, 385, 129, 448, 375
-0.984608, 297, 169, 328, 232
-0.984614, 189, 193, 220, 320
-0.984641, 237, 265, 268, 328
-0.984693, 253, 209, 284, 272
-0.984732, 425, 121, 456, 184
-0.984813, 117, 33, 148, 96
-0.984823, 41, 73, 72, 136
-0.984833, 321, 129, 448, 192
-0.984852, 265, 129, 296, 256
-0.984904, 117, 97, 148, 224
-0.984955, 313, 97, 344, 160
-0.984974, 193, 1, 224, 128
-0.984983, 345, 33, 408, 288
-0.98505, 149, 89, 180, 152
-0.985196, 381, 137, 412, 200
-0.985279, 441, 25, 472, 88
-0.985301, 13, 193, 44, 320
-0.985311, 17, 209, 48, 272
-0.985395, 181, 257, 212, 320
-0.985468, 193, 1, 224, 64
-0.985527, 305, 25, 336, 88
-0.985534, 157, 225, 188, 352
-0.985541, 257, 289, 288, 352
-0.985593, 417, 49, 448, 176
-0.985612, 441, 1, 472, 128
-0.985629, 401, 137, 432, 200
-0.985648, 17, 97, 48, 224
-0.985661, 85, 249, 116, 312
-0.985663, 333, 289, 364, 352
-0.985669, 41, 225, 72, 352
-0.985692, 321, 1, 448, 64
-0.985754, 1, 177, 32, 240
-0.985838, 121, 241, 152, 368
-0.985881, 153, 1, 216, 375
-0.985911, 177, 17, 208, 144
-0.985963, 29, 193, 60, 256
-0.986025, 301, 97, 332, 160
-0.986036, 253, 81, 284, 144
-0.986174, 257, 233, 384, 296
-0.986295, 369, 217, 496, 280
-0.986334, 361, 1, 424, 375
-0.986512, 209, 57, 336, 120
-0.986614, 173, 81, 204, 208
-0.986678, 237, 129, 268, 256
-0.986809, 185, 97, 216, 224
-0.986813, 349, 209, 380, 336
-0.987054, 113, 145, 240, 208
-0.98706, 369, 249, 496, 312
-0.987131, 33, 201, 288, 264
-0.987133, 341, 113, 372, 240
-0.987159, 417, 113, 448, 240
-0.987172, 273, 177, 304, 304
-0.987249, 177, 137, 304, 200
-0.987367, 241, 65, 272, 192
-0.987407, 369, 145, 496, 208
-0.987444, 145, 57, 272, 120
-0.9876, 145, 113, 272, 176
-0.98763, 121, 333, 184, 364
-0.987631, 301, 65, 332, 192
-0.987777, 97, 317, 160, 348
-0.987858, 417, 1, 480, 375
-0.987985, 129, 129, 160, 256
-0.988021, 305, 73, 432, 136
-0.988077, 153, 221, 216, 252
-0.988114, 229, 65, 260, 192
-0.988114, 357, 81, 388, 208
-0.988117, 57, 305, 120, 336
-0.988129, 329, 193, 360, 320
-0.988142, 353, 297, 480, 360
-0.988145, 65, 325, 128, 356
-0.988212, 153, 341, 216, 372
-0.988253, 145, 329, 208, 360
-0.988319, 433, 145, 496, 272
-0.988369, 161, 97, 192, 224
-0.988435, 385, 1, 416, 128
-0.988512, 381, 113, 412, 240
-0.988561, 337, 193, 464, 256
-0.988567, 9, 173, 72, 204
-0.988597, 113, 345, 176, 375
-0.988685, 121, 321, 184, 352
-0.988697, 49, 153, 112, 184
-0.988733, 433, 65, 496, 320
-0.988845, 185, 221, 248, 252
-0.988881, 49, 49, 112, 80
-0.988906, 273, 93, 336, 124
-0.988907, 149, 81, 180, 208
-0.988925, 153, 209, 216, 240
-0.988994, 113, 209, 176, 240
-0.989053, 185, 209, 248, 240
-0.98906, 41, 317, 104, 348
-0.989188, 57, 201, 120, 232
-0.989197, 121, 221, 184, 252
-0.989232, 393, 81, 424, 208
-0.989301, 1, 33, 500, 96
-0.989305, 417, 61, 480, 92
-0.989308, 9, 133, 72, 164
-0.989312, 25, 105, 88, 136
-0.989336, 233, 85, 296, 116
-0.989347, 105, 21, 168, 52
-0.989361, 49, 225, 112, 256
-0.989367, 33, 169, 96, 200
-0.989374, 1, 161, 64, 192
-0.989444, 137, 237, 200, 268
-0.989445, 253, 113, 284, 240
-0.989475, 89, 329, 152, 360
-0.989544, 49, 181, 112, 212
-0.9896, 441, 49, 472, 176
-0.989603, 97, 225, 160, 256
-0.989637, 185, 333, 248, 364
-0.989685, 33, 257, 288, 320
-0.989689, 97, 193, 160, 224
-0.98971, 273, 105, 336, 136
-0.989731, 41, 213, 104, 244
-0.989738, 117, 49, 148, 176
-0.989745, 345, 265, 408, 296
-0.989788, 233, 189, 296, 220
-0.989788, 289, 97, 416, 160
-0.98979, 49, 29, 112, 60
-0.989795, 281, 201, 344, 232
-0.989797, 225, 201, 288, 232
-0.989843, 161, 9, 224, 40
-0.989889, 41, 129, 104, 160
-0.989891, 57, 249, 120, 280
-0.989891, 49, 17, 112, 48
-0.989932, 321, 261, 384, 292
-0.989942, 89, 37, 152, 68
-0.989951, 209, 225, 272, 256
-0.989965, 1, 145, 64, 176
-0.98997, 25, 185, 88, 216
-0.989991, 369, 121, 496, 184
-0.990006, 393, 45, 456, 76
-0.990008, 177, 89, 240, 120
-0.99001, 213, 97, 244, 224
-0.990015, 249, 241, 312, 368
-0.99004, 145, 29, 208, 60
-0.990069, 409, 97, 472, 352
-0.990071, 1, 121, 64, 152
-0.99008, 257, 189, 320, 220
-0.990086, 197, 97, 228, 224
-0.990093, 129, 13, 192, 44
-0.990104, 361, 141, 424, 172
-0.990142, 345, 277, 408, 308
-0.990146, 81, 41, 208, 104
-0.990148, 73, 221, 136, 252
-0.990153, 281, 81, 344, 112
-0.990179, 177, 237, 240, 268
-0.990183, 1, 177, 256, 240
-0.990207, 129, 201, 384, 264
-0.990214, 81, 109, 144, 140
-0.99023, 49, 97, 112, 128
-0.990245, 65, 133, 128, 164
-0.990246, 369, 33, 432, 64
-0.990249, 81, 209, 144, 240
-0.990254, 369, 273, 496, 336
-0.990273, 17, 213, 80, 244
-0.990295, 401, 133, 464, 164
-0.990301, 97, 241, 160, 272
-0.990311, 1, 97, 256, 160
-0.990316, 297, 1, 360, 32
-0.99032, 73, 185, 136, 216
-0.990336, 305, 245, 368, 276
-0.990349, 57, 165, 120, 196
-0.990379, 17, 229, 80, 260
-0.990381, 469, 1, 500, 128
-0.990386, 25, 117, 88, 148
-0.990404, 385, 149, 448, 180
-0.990404, 305, 233, 368, 264
-0.990405, 1, 225, 256, 288
-0.990406, 249, 209, 312, 240
-0.990418, 73, 149, 136, 180
-0.990427, 137, 257, 200, 288
-0.990433, 273, 125, 336, 156
-0.990469, 89, 97, 152, 128
-0.990488, 249, 125, 312, 156
-0.990494, 25, 197, 88, 228
-0.990503, 417, 49, 480, 80
-0.990534, 25, 157, 88, 188
-0.990553, 145, 317, 208, 348
-0.990554, 129, 89, 192, 120
-0.990594, 249, 97, 312, 128
-0.990595, 305, 241, 336, 368
-0.990595, 105, 253, 168, 284
-0.990604, 185, 13, 248, 44
-0.990604, 65, 337, 128, 368
-0.990606, 209, 189, 272, 220
-0.990616, 241, 21, 304, 52
-0.990618, 73, 25, 136, 56
-0.990621, 337, 141, 400, 172
-0.990645, 177, 345, 240, 375
-0.990649, 89, 137, 152, 168
-0.990654, 209, 85, 272, 116
-0.990654, 129, 225, 384, 288
-0.990666, 65, 1, 128, 32
-0.990668, 321, 9, 384, 40
-0.990677, 121, 197, 184, 228
-0.990685, 25, 241, 88, 272
-0.990706, 369, 169, 496, 232
-0.990739, 1, 185, 64, 216
-0.990763, 145, 189, 208, 220
-0.99078, 433, 73, 496, 104
-0.990783, 385, 1, 448, 375
-0.990799, 41, 329, 104, 360
-0.990807, 321, 277, 384, 308
-0.990836, 161, 253, 224, 284
-0.990842, 33, 141, 96, 172
-0.990842, 345, 253, 408, 284
-0.990843, 49, 293, 112, 324
-0.990855, 369, 21, 432, 52
-0.990862, 257, 41, 500, 104
-0.99087, 393, 1, 456, 32
-0.990886, 209, 213, 272, 244
-0.990887, 281, 17, 344, 48
-0.990914, 345, 153, 408, 184
-0.990925, 201, 273, 264, 304
-0.990928, 185, 189, 248, 220
-0.990941, 113, 173, 176, 204
-0.990947, 337, 21, 400, 52
-0.990952, 405, 1, 436, 128
-0.990982, 65, 121, 128, 152
-0.99099, 113, 33, 176, 64
-0.990997, 161, 17, 192, 144
-0.991007, 89, 125, 152, 156
-0.99104, 161, 81, 416, 144
-0.991049, 249, 141, 312, 172
-0.99105, 345, 289, 408, 320
-0.99106, 417, 37, 480, 68
-0.991061, 305, 193, 368, 224
-0.991083, 249, 109, 312, 140
-0.991087, 1, 197, 64, 228
-0.991114, 97, 177, 352, 240
-0.991258, 433, 209, 496, 336
-0.991324, 97, 25, 352, 88
-0.991328, 33, 313, 288, 375
-0.991386, 469, 145, 500, 272
-0.991397, 161, 129, 416, 192
-0.991516, 193, 313, 448, 375
-0.991523, 225, 129, 256, 256
-0.991677, 369, 81, 400, 208
-0.99171, 345, 49, 376, 176
-0.991723, 193, 9, 448, 72
-0.991837, 1, 153, 256, 216
-0.991863, 393, 145, 424, 272
-0.991864, 173, 129, 204, 256
-0.991885, 53, 317, 84, 348
-0.99189, 381, 177, 412, 304
-0.991936, 225, 185, 480, 248
-0.991949, 157, 333, 188, 364
-0.992004, 5, 165, 36, 196
-0.99201, 97, 325, 224, 356
-0.992052, 169, 337, 200, 368
-0.992052, 69, 321, 100, 352
-0.992077, 49, 313, 176, 344
-0.992108, 1, 209, 500, 272
-0.992129, 213, 221, 244, 252
-0.992156, 369, 89, 496, 152
-0.992166, 285, 89, 316, 120
-0.992185, 421, 41, 452, 72
-0.992204, 33, 289, 288, 352
-0.992217, 149, 321, 180, 352
-0.992218, 233, 221, 264, 252
-0.992256, 121, 333, 152, 364
-0.992264, 37, 169, 68, 200
-0.992267, 1, 73, 256, 136
-0.992272, 105, 317, 136, 348
-0.992278, 53, 305, 84, 336
-0.992281, 137, 325, 168, 356
-0.992293, 161, 217, 192, 248
-0.992297, 129, 105, 384, 168
-0.992301, 25, 169, 56, 200
-0.992304, 53, 329, 84, 360
-0.992319, 173, 209, 204, 240
-0.992326, 169, 325, 200, 356
-0.992326, 145, 337, 176, 368
-0.992334, 89, 317, 120, 348
-0.99234, 225, 161, 480, 224
-0.992344, 417, 133, 448, 164
-0.992349, 81, 305, 112, 336
-0.992357, 49, 209, 80, 240
-0.992368, 101, 221, 132, 252
-0.992382, 189, 341, 220, 372
-0.992386, 173, 221, 204, 252
-0.992388, 233, 201, 264, 232
-0.992402, 197, 221, 228, 252
-0.992421, 33, 1, 288, 64
-0.992436, 185, 221, 216, 252
-0.992436, 181, 329, 212, 360
-0.992444, 59, 305, 74, 368
-0.992447, 65, 301, 96, 332
-0.992452, 445, 61, 476, 92
-0.99247, 433, 49, 464, 80
-0.992482, 381, 21, 412, 52
-0.992483, 73, 201, 104, 232
-0.992487, 161, 229, 192, 260
-0.992495, 109, 329, 140, 360
-0.992495, 1, 177, 32, 208
-0.992499, 49, 333, 176, 364
-0.992502, 213, 209, 244, 240
-0.992504, 57, 49, 88, 80
-0.992514, 85, 201, 116, 232
-0.992518, 125, 201, 156, 232
-0.992518, 89, 217, 120, 248
-0.992519, 461, 73, 492, 104
-0.99252, 141, 221, 172, 252
-0.99252, 65, 213, 96, 244
-0.992523, 129, 221, 160, 252
-0.992527, 177, 89, 208, 120
-0.992528, 125, 317, 156, 348
-0.992532, 285, 121, 316, 152
-0.992543, 133, 337, 164, 368
-0.992556, 137, 205, 168, 236
-0.992559, 53, 341, 84, 372
-0.992566, 245, 201, 276, 232
-0.992568, 253, 189, 284, 220
-0.992569, 37, 121, 68, 152
-0.992571, 109, 209, 140, 240
-0.992574, 37, 105, 68, 136
-0.992578, 37, 157, 68, 188
-0.992587, 185, 209, 216, 240
-0.992591, 197, 89, 228, 120
-0.992591, 197, 209, 228, 240
-0.992592, 261, 85, 292, 116
-0.992601, 113, 345, 240, 375
-0.992602, 57, 229, 88, 260
-0.992614, 93, 145, 124, 176
-0.992621, 421, 53, 452, 84
-0.992621, 433, 61, 464, 92
-0.992629, 213, 85, 244, 116
-0.99263, 45, 181, 76, 212
-0.992631, 357, 345, 388, 375
-0.992633, 333, 5, 364, 36
-0.99264, 29, 213, 60, 244
-0.992649, 49, 197, 80, 228
-0.99265, 117, 225, 148, 256
-0.992655, 57, 181, 88, 212
-0.992659, 77, 149, 108, 180
-0.992661, 369, 21, 400, 52
-0.992662, 41, 137, 72, 168
-0.992663, 333, 137, 364, 168
-0.992664, 1, 153, 32, 184
-0.992664, 149, 205, 180, 236
-0.992665, 381, 33, 412, 64
-0.992666, 457, 61, 488, 92
-0.992674, 97, 329, 128, 360
-0.992676, 157, 345, 188, 375
-0.992677, 77, 221, 108, 252
-0.992679, 93, 29, 124, 60
-0.992685, 121, 345, 152, 375
-0.992691, 65, 249, 96, 280
-0.992695, 57, 9, 88, 40
-0.992696, 233, 85, 264, 116
-0.992699, 81, 33, 112, 64
-0.9927, 397, 29, 428, 60
-0.992704, 93, 181, 124, 212
-0.99271, 181, 233, 212, 264
-0.992711, 57, 153, 88, 184
-0.992719, 285, 189, 316, 220
-0.992727, 1, 41, 256, 104
-0.99273, 113, 25, 144, 56
-0.992732, 125, 21, 156, 52
-0.992742, 273, 189, 304, 220
-0.992742, 305, 81, 336, 112
-0.992742, 17, 181, 48, 212
-0.992743, 37, 229, 68, 260
-0.992754, 193, 9, 224, 40
-0.992757, 49, 165, 80, 196
-0.99276, 21, 129, 52, 160
-0.992765, 329, 97, 360, 128
-0.99277, 125, 241, 156, 272
-0.992775, 55, 193, 70, 256
-0.992775, 85, 161, 116, 192
-0.992779, 413, 153, 444, 184
-0.992779, 121, 189, 152, 220
-0.992786, 149, 13, 180, 44
-0.992789, 73, 181, 104, 212
-0.992795, 149, 25, 180, 56
-0.992796, 445, 49, 476, 80
-0.992797, 89, 97, 120, 128
-0.992798, 57, 101, 88, 132
-0.9928, 345, 141, 376, 172
-0.992802, 241, 189, 272, 220
-0.992808, 273, 85, 304, 116
-0.992809, 409, 37, 440, 68
-0.992817, 405, 141, 436, 172
-0.992822, 381, 149, 412, 180
-0.992824, 229, 189, 260, 220
-0.992825, 113, 237, 144, 268
-0.992829, 137, 189, 168, 220
-0.992836, 261, 17, 292, 48
-0.99285, 41, 85, 72, 116
-0.992993, 257, 65, 500, 128
-0.993003, 49, 221, 176, 252
-0.993053, 1, 73, 500, 136
-0.993081, 1, 185, 500, 248
-0.993132, 225, 105, 480, 168
-0.99315, 1, 305, 500, 368
-0.993222, 33, 197, 160, 228
-0.993235, 1, 173, 128, 204
-0.993243, 257, 137, 500, 200
-0.993275, 1, 129, 256, 192
-0.99331, 193, 249, 448, 312
-0.993431, 43, 97, 58, 160
-0.993467, 129, 57, 384, 120
-0.993502, 1, 101, 128, 132
-0.993562, 17, 161, 144, 192
-0.993587, 81, 237, 208, 268
-0.993628, 65, 289, 80, 352
-0.993657, 147, 201, 162, 264
-0.993699, 129, 289, 384, 352
-0.99376, 285, 81, 300, 144
-0.993791, 19, 153, 34, 216
-0.993804, 179, 225, 194, 288
-0.993823, 33, 25, 160, 56
-0.993828, 3, 153, 18, 216
-0.993829, 137, 217, 152, 280
-0.993854, 113, 209, 240, 240
-0.993881, 233, 201, 248, 264
-0.993885, 233, 225, 248, 288
-0.993898, 1, 257, 500, 320
-0.993947, 457, 49, 472, 112
-0.993951, 63, 201, 78, 264
-0.993952, 65, 345, 192, 375
-0.993972, 97, 209, 112, 272
-0.993997, 141, 193, 156, 256
-0.994016, 209, 85, 336, 116
-0.994024, 131, 201, 146, 264
-0.994032, 145, 221, 272, 252
-0.994044, 81, 21, 208, 52
-0.99405, 1, 185, 128, 216
-0.994058, 153, 313, 168, 375
-0.994114, 45, 137, 60, 200
-0.994115, 9, 145, 24, 208
-0.994116, 57, 217, 72, 280
-0.994128, 1, 233, 500, 296
-0.994146, 299, 97, 314, 160
-0.994153, 145, 329, 272, 360
-0.994158, 225, 289, 480, 352
-0.994159, 209, 189, 336, 220
-0.994226, 425, 33, 440, 96
-0.994235, 225, 205, 352, 236
-0.994294, 3, 121, 18, 184
-0.9943, 33, 249, 160, 280
-0.994343, 1, 113, 128, 144
-0.994344, 91, 217, 106, 280
-0.994345, 125, 225, 140, 288
-0.99435, 243, 201, 258, 264
-0.994369, 177, 201, 192, 264
-0.994392, 33, 149, 160, 180
-0.994392, 315, 233, 330, 296
-0.99441, 33, 301, 160, 332
-0.994415, 65, 313, 80, 375
-0.994418, 273, 17, 400, 48
-0.994439, 97, 225, 224, 256
-0.99445, 129, 153, 384, 216
-0.994457, 147, 225, 162, 288
-0.994483, 125, 201, 140, 264
-0.994496, 1, 233, 128, 264
-0.994503, 1, 9, 500, 72
-0.994528, 71, 297, 86, 360
-0.994535, 369, 49, 496, 80
-0.994545, 451, 49, 466, 112
-0.994548, 185, 201, 200, 264
-0.994565, 327, 97, 342, 160
-0.994568, 103, 209, 118, 272
-0.994586, 193, 21, 320, 52
-0.994605, 129, 13, 256, 44
-0.994606, 55, 17, 70, 80
-0.994657, 161, 89, 288, 120
-0.994667, 33, 41, 160, 72
-0.994672, 81, 97, 208, 128
-0.994679, 85, 217, 100, 280
-0.994709, 441, 41, 456, 104
-0.994731, 463, 57, 478, 120
-0.99474, 53, 305, 68, 368
-0.994751, 67, 225, 82, 288
-0.994764, 95, 297, 110, 360
-0.994783, 65, 209, 192, 240
-0.994808, 431, 25, 446, 88
-0.994822, 195, 313, 210, 375
-0.994829, 91, 185, 106, 248
-0.994835, 257, 81, 272, 144
-0.994858, 145, 25, 272, 56
-0.994862, 215, 225, 230, 288
-0.994869, 141, 25, 156, 88
-0.994887, 225, 209, 480, 272
-0.99489, 97, 185, 112, 248
-0.994896, 53, 121, 68, 184
-0.994896, 103, 185, 118, 248
-0.994896, 85, 297, 100, 360
-0.994902, 145, 233, 272, 264
-0.994906, 81, 33, 208, 64
-0.994929, 187, 225, 202, 288
-0.99496, 103, 129, 118, 192
-0.994961, 1, 217, 128, 248
-0.994994, 115, 201, 130, 264
-0.995012, 47, 169, 62, 232
-0.995037, 35, 161, 50, 224
-0.995038, 215, 201, 230, 264
-0.995047, 63, 177, 78, 240
-0.995052, 157, 201, 172, 264
-0.995054, 69, 193, 84, 256
-0.995055, 305, 261, 432, 292
-0.995056, 31, 137, 46, 200
-0.995062, 35, 105, 50, 168
-0.995073, 37, 97, 68, 352
-0.995078, 417, 137, 432, 200
-0.99508, 159, 313, 174, 375
-0.995087, 203, 201, 218, 264
-0.995109, 109, 201, 124, 264
-0.995119, 177, 205, 304, 236
-0.995126, 291, 89, 306, 152
-0.995128, 169, 313, 184, 375
-0.99513, 209, 201, 224, 264
-0.995175, 101, 97, 116, 160
-0.995187, 17, 129, 144, 160
-0.99519, 469, 57, 484, 120
-0.995204, 279, 81, 294, 144
-0.995205, 99, 153, 114, 216
-0.995208, 305, 285, 432, 316
-0.995226, 227, 225, 242, 288
-0.995235, 59, 281, 74, 344
-0.995236, 55, 97, 70, 160
-0.995239, 39, 137, 54, 200
-0.995247, 369, 69, 496, 100
-0.995256, 57, 169, 72, 232
-0.995257, 73, 217, 88, 280
-0.99527, 61, 49, 76, 112
-0.995284, 221, 201, 236, 264
-0.995289, 227, 201, 242, 264
-0.995289, 131, 225, 146, 288
-0.995294, 25, 161, 40, 224
-0.995313, 437, 17, 452, 80
-0.995321, 195, 201, 210, 264
-0.995324, 161, 189, 288, 220
-0.99533, 289, 245, 416, 276
-0.995336, 81, 257, 208, 288
-0.995346, 389, 9, 404, 72
-0.995357, 305, 297, 432, 328
-0.99536, 181, 313, 196, 375
-0.995364, 285, 65, 316, 320
-0.995369, 273, 5, 400, 36
-0.995371, 285, 137, 300, 200
-0.995383, 81, 181, 208, 212
-0.995405, 1, 317, 128, 348
-0.995418, 161, 269, 288, 300
-0.99542, 347, 1, 362, 64
-0.995426, 197, 81, 212, 144
-0.995427, 77, 177, 92, 240
-0.995428, 77, 297, 92, 360
-0.99543, 225, 277, 352, 308
-0.995431, 225, 321, 352, 352
-0.995434, 147, 313, 162, 375
-0.995437, 81, 145, 208, 176
-0.995443, 187, 313, 202, 375
-0.995443, 225, 225, 352, 256
-0.995446, 249, 233, 264, 296
-0.995451, 13, 169, 28, 232
-0.995467, 305, 149, 432, 180
-0.995485, 243, 233, 258, 296
-0.995494, 221, 225, 236, 288
-0.995501, 145, 317, 272, 348
-0.995512, 385, 137, 400, 200
-0.995513, 81, 165, 208, 196
-0.995514, 287, 113, 302, 176
-0.995538, 261, 1, 292, 256
-0.995542, 305, 273, 432, 304
-0.995551, 97, 313, 224, 344
-0.995551, 225, 145, 352, 176
-0.995555, 197, 265, 212, 328
-0.995563, 225, 265, 352, 296
-0.995566, 337, 209, 352, 272
-0.995575, 1, 121, 500, 184
-0.995585, 1, 153, 500, 216
-0.995587, 163, 217, 178, 280
-0.99559, 273, 81, 288, 144
-0.995599, 323, 185, 338, 248
-0.995606, 345, 145, 360, 208
-0.995608, 191, 81, 206, 144
-0.995618, 411, 137, 426, 200
-0.995621, 429, 1, 444, 64
-0.995627, 9, 121, 24, 184
-0.995628, 97, 233, 112, 296
-0.995645, 169, 217, 184, 280
-0.995648, 331, 153, 346, 216
-0.99565, 301, 1, 332, 256
-0.995651, 205, 233, 220, 296
-0.995664, 153, 225, 168, 288
-0.995664, 115, 305, 130, 368
-0.995679, 49, 65, 80, 320
-0.995682, 241, 169, 368, 200
-0.995687, 273, 65, 304, 320
-0.995688, 79, 209, 94, 272
-0.995693, 33, 85, 160, 116
-0.995704, 477, 73, 492, 136
-0.995708, 81, 193, 208, 224
-0.995712, 41, 161, 56, 224
-0.995713, 369, 1, 496, 64
-0.995719, 249, 273, 264, 336
-0.995743, 1, 281, 500, 344
-0.99575, 251, 209, 266, 272
-0.995751, 255, 185, 270, 248
-0.995757, 297, 73, 312, 136
-0.995764, 289, 189, 416, 220
-0.995773, 203, 81, 218, 144
-0.995788, 193, 225, 208, 288
-0.995795, 483, 57, 498, 120
-0.995903, 305, 309, 432, 340
-0.995926, 305, 221, 432, 252
-0.995934, 33, 13, 160, 44
-0.995948, 225, 289, 352, 320
-0.995955, 77, 129, 108, 375
-0.995975, 337, 37, 464, 68
-0.995977, 61, 1, 92, 256
-0.996006, 241, 1, 272, 256
-0.996029, 225, 157, 352, 188
-0.996052, 421, 1, 452, 256
-0.996068, 317, 65, 348, 320
-0.996077, 25, 65, 56, 320
-0.996095, 305, 233, 432, 264
-0.996104, 49, 1, 176, 32
-0.996113, 113, 85, 240, 116
-0.996147, 101, 129, 132, 375
-0.996174, 225, 301, 352, 332
-0.996208, 257, 125, 384, 156
-0.996211, 1, 97, 500, 160
-0.996217, 161, 341, 288, 372
-0.996223, 61, 97, 92, 352
-0.996243, 193, 125, 320, 156
-0.996262, 33, 53, 160, 84
-0.996328, 305, 161, 432, 192
-0.996341, 177, 9, 304, 40
-0.99635, 145, 245, 272, 276
-0.996355, 289, 137, 416, 168
-0.996372, 305, 177, 432, 208
-0.996396, 113, 97, 144, 352
-0.996397, 273, 53, 400, 84
-0.996407, 81, 109, 208, 140
-0.996407, 273, 41, 400, 72
-0.996417, 177, 101, 304, 132
-0.99643, 321, 1, 448, 32
-0.996454, 113, 133, 240, 164
-0.996541, 321, 209, 448, 240
-0.996549, 63, 313, 78, 344
-0.996561, 177, 137, 304, 168
-0.996562, 33, 73, 160, 104
-0.996564, 289, 29, 416, 60
-0.996576, 145, 153, 272, 184
-0.996583, 13, 97, 44, 352
-0.996594, 181, 129, 212, 375
-0.996607, 225, 9, 352, 40
-0.996607, 469, 33, 500, 288
-0.996607, 89, 97, 120, 352
-0.996618, 209, 345, 336, 375
-0.996622, 329, 65, 360, 320
-0.996626, 257, 73, 384, 104
-0.996626, 163, 333, 178, 364
-0.996628, 43, 169, 58, 200
-0.996633, 89, 1, 120, 256
-0.996678, 289, 345, 416, 375
-0.99668, 173, 1, 204, 256
-0.996697, 369, 149, 496, 180
-0.996701, 191, 341, 206, 372
-0.996712, 57, 309, 72, 340
-0.996718, 101, 317, 116, 348
-0.996728, 337, 25, 464, 56
-0.99673, 229, 1, 260, 256
-0.996733, 153, 321, 168, 352
-0.996735, 177, 113, 304, 144
-0.996741, 153, 1, 184, 256
-0.996742, 305, 321, 432, 352
-0.996747, 321, 57, 448, 88
-0.996782, 129, 257, 256, 288
-0.996801, 101, 1, 132, 256
-0.996809, 197, 1, 228, 256
-0.99682, 387, 21, 402, 52
-0.996832, 273, 201, 400, 232
-0.996857, 71, 317, 86, 348
-0.996887, 65, 129, 192, 160
-0.99691, 217, 65, 248, 320
-0.996919, 237, 129, 268, 375
-0.996935, 193, 173, 320, 204
-0.996937, 435, 41, 450, 72
-0.996938, 53, 161, 68, 192
-0.996944, 345, 1, 360, 32
-0.996963, 183, 337, 198, 368
-0.996964, 173, 213, 188, 244
-0.996964, 157, 225, 172, 256
-0.996966, 193, 97, 224, 352
-0.996976, 145, 305, 272, 336
-0.996978, 369, 253, 496, 284
-0.996986, 113, 1, 144, 256
-0.996995, 1, 329, 128, 360
-0.996996, 197, 89, 212, 120
-0.997, 241, 113, 368, 144
-0.997008, 297, 97, 328, 352
-0.997026, 185, 209, 200, 240
-0.997039, 195, 329, 210, 360
-0.997043, 185, 1, 216, 256
-0.997048, 65, 333, 80, 364
-0.99705, 257, 85, 384, 116
-0.997058, 253, 97, 284, 352
-0.997059, 369, 97, 496, 128
-0.997067, 163, 225, 178, 256
-0.997072, 97, 301, 224, 332
-0.997093, 179, 225, 194, 256
-0.997104, 321, 13, 448, 44
-0.997108, 469, 69, 484, 100
-0.99711, 157, 341, 172, 372
-0.997115, 161, 281, 288, 312
-0.99712, 199, 341, 214, 372
-0.997122, 145, 165, 272, 196
-0.997124, 177, 325, 192, 356
-0.997127, 427, 41, 442, 72
-0.997158, 225, 221, 240, 252
-0.997162, 121, 221, 136, 252
-0.997162, 163, 321, 178, 352
-0.997163, 187, 225, 202, 256
-0.997165, 213, 221, 228, 252
-0.99717, 145, 129, 176, 375
-0.99717, 129, 1, 256, 32
-0.997173, 21, 169, 36, 200
-0.997174, 9, 165, 24, 196
-0.997175, 339, 1, 354, 32
-0.997182, 171, 333, 186, 364
-0.997187, 477, 73, 492, 104
-0.997195, 409, 225, 472, 352
-0.997202, 125, 65, 156, 320
-0.997208, 177, 337, 192, 368
-0.997208, 33, 125, 48, 156
-0.997213, 189, 329, 204, 360
-0.997229, 457, 57, 472, 88
-0.997232, 183, 325, 198, 356
-0.997246, 225, 89, 240, 120
-0.997254, 127, 333, 142, 364
-0.997272, 249, 201, 264, 232
-0.997273, 199, 221, 214, 252
-0.997276, 451, 53, 466, 84
-0.99728, 225, 253, 352, 284
-0.997282, 237, 225, 252, 256
-0.997282, 145, 333, 160, 364
-0.997289, 1, 165, 16, 196
-0.997295, 327, 97, 342, 128
-0.997296, 243, 221, 258, 252
-0.997321, 43, 141, 58, 172
-0.997325, 113, 269, 240, 300
-0.997327, 237, 209, 252, 240
-0.997331, 49, 289, 176, 320
-0.997332, 93, 217, 108, 248
-0.997336, 57, 197, 72, 228
-0.997338, 243, 201, 258, 232
-0.99734, 49, 177, 64, 208
-0.997341, 299, 113, 314, 144
-0.997342, 445, 53, 460, 84
-0.997356, 337, 345, 464, 375
-0.99736, 139, 197, 154, 228
-0.997372, 225, 237, 352, 268
-0.997375, 415, 137, 430, 168
-0.99738, 57, 321, 72, 352
-0.997384, 113, 121, 240, 152
-0.997394, 1, 153, 16, 184
-0.9974, 141, 33, 156, 64
-0.997404, 191, 89, 206, 120
-0.997406, 405, 97, 436, 352
-0.997408, 77, 1, 108, 256
-0.99742, 285, 85, 300, 116
-0.997423, 147, 221, 162, 252
-0.997429, 231, 85, 246, 116
-0.997437, 121, 209, 136, 240
-0.997437, 17, 345, 144, 375
-0.997438, 463, 65, 478, 96
-0.997443, 87, 217, 102, 248
-0.997445, 109, 213, 124, 244
-0.997454, 77, 321, 92, 352
-0.997459, 93, 181, 108, 212
-0.997465, 47, 157, 62, 188
-0.997472, 219, 225, 234, 256
-0.99749, 41, 101, 56, 132
-0.997497, 145, 177, 272, 208
-0.997505, 59, 53, 74, 84
-0.997515, 351, 1, 366, 32
-0.997516, 69, 213, 84, 244
-0.99752, 109, 317, 124, 348
-0.997521, 349, 1, 380, 256
-0.997524, 369, 241, 496, 272
-0.997524, 435, 53, 450, 84
-0.997525, 43, 213, 58, 244
-0.997535, 9, 177, 24, 208
-0.997538, 95, 317, 110, 348
-0.997539, 341, 129, 372, 375
-0.997541, 67, 197, 82, 228
-0.997542, 457, 1, 488, 256
-0.997542, 369, 85, 496, 116
-0.997547, 179, 209, 194, 240
-0.997551, 221, 209, 236, 240
-0.997557, 69, 297, 84, 328
-0.997558, 59, 341, 74, 372
-0.997569, 283, 109, 298, 140
-0.997572, 483, 73, 498, 104
-0.997573, 231, 221, 246, 252
-0.997574, 299, 85, 314, 116
-0.997578, 195, 209, 210, 240
-0.997578, 345, 141, 360, 172
-0.997582, 67, 345, 82, 375
-0.997584, 55, 173, 70, 204
-0.997594, 299, 97, 314, 128
-0.997596, 171, 321, 186, 352
-0.997598, 173, 225, 188, 256
-0.9976, 13, 145, 28, 176
-0.9976, 227, 209, 242, 240
-0.997601, 201, 329, 216, 360
-0.997611, 245, 189, 260, 220
-0.997616, 205, 225, 220, 256
-0.997621, 103, 153, 118, 184
-0.997629, 379, 21, 394, 52
-0.997631, 327, 113, 342, 144
-0.997631, 93, 305, 108, 336
-0.997636, 255, 189, 270, 220
-0.997637, 87, 321, 102, 352
-0.997637, 343, 13, 358, 44
-0.997655, 113, 329, 128, 360
-0.997655, 261, 189, 276, 220
-0.997658, 37, 169, 52, 200
-0.997658, 119, 329, 134, 360
-0.997658, 15, 177, 30, 208
-0.997662, 203, 89, 218, 120
-0.997663, 99, 305, 114, 336
-0.99767, 299, 125, 314, 156
-0.997673, 99, 217, 114, 248
-0.997676, 287, 121, 302, 152
-0.997681, 395, 17, 410, 48
-0.997681, 115, 221, 130, 252
-0.997685, 151, 205, 166, 236
-0.997685, 145, 205, 160, 236
-0.997688, 105, 141, 120, 172
-0.99769, 219, 89, 234, 120
-0.997692, 383, 153, 398, 184
-0.997777, 141, 1, 172, 256
-0.997783, 365, 1, 396, 256
-0.997798, 1, 129, 32, 375
-0.997945, 205, 129, 236, 375
-0.997962, 409, 1, 440, 256
-0.998057, 37, 1, 68, 256
-0.998057, 369, 129, 400, 375
-0.998153, 385, 97, 416, 352
-0.998277, 417, 97, 448, 352
-0.9983, 169, 97, 200, 352
-0.998336, 385, 1, 416, 256
-0.998337, 137, 339, 200, 354
-0.998344, 113, 333, 176, 348
-0.998357, 153, 223, 216, 238
-0.998365, 65, 331, 128, 346
-0.998379, 41, 325, 104, 340
-0.998379, 121, 345, 184, 360
-0.99838, 1, 175, 64, 190
-0.99838, 121, 231, 184, 246
-0.998385, 105, 321, 168, 336
-0.998385, 161, 355, 224, 370
-0.998386, 81, 223, 144, 238
-0.998389, 153, 233, 216, 248
-0.998392, 113, 225, 176, 240
-0.998403, 185, 225, 248, 240
-0.998411, 145, 345, 208, 360
-0.998416, 65, 325, 128, 340
-0.998417, 89, 229, 152, 244
-0.998431, 289, 101, 352, 116
-0.99844, 121, 351, 184, 366
-0.998442, 137, 207, 200, 222
-0.998443, 209, 225, 272, 240
-0.998446, 177, 231, 240, 246
-0.998447, 33, 171, 96, 186
-0.99845, 145, 327, 208, 342
-0.998452, 49, 155, 112, 170
-0.998452, 113, 339, 176, 354
-0.998453, 1, 181, 64, 196
-0.998456, 397, 1, 428, 256
-0.998458, 57, 305, 120, 320
-0.99846, 57, 201, 120, 216
-0.998461, 41, 215, 104, 230
-0.998462, 209, 233, 272, 248
-0.998466, 9, 143, 72, 158
-0.998467, 273, 95, 336, 110
-0.998468, 57, 319, 120, 334
-0.99847, 113, 361, 176, 375
-0.998474, 169, 331, 232, 346
-0.998474, 89, 329, 152, 344
-0.998476, 153, 13, 216, 28
-0.998477, 233, 87, 296, 102
-0.998478, 73, 337, 136, 352
-0.998478, 41, 223, 104, 238
-0.998483, 25, 129, 88, 144
-0.998484, 97, 315, 160, 330
-0.998484, 77, 227, 108, 242
-0.998485, 361, 349, 392, 364
-0.998485, 129, 237, 192, 252
-0.998485, 353, 129, 384, 375
-0.998485, 49, 197, 80, 212
-0.998485, 305, 361, 368, 375
-0.998486, 57, 251, 120, 266
-0.998487, 305, 7, 368, 22
-0.998487, 17, 161, 80, 176
-0.998487, 169, 261, 200, 276
-0.998488, 1, 137, 64, 152
-0.998489, 41, 101, 72, 116
-0.998489, 357, 355, 388, 370
-0.998489, 33, 129, 64, 144
-0.998491, 53, 333, 84, 348
-0.998491, 49, 207, 80, 222
-0.998491, 417, 39, 448, 54
-0.998492, 33, 103, 96, 118
-0.998492, 169, 209, 232, 224
-0.998492, 433, 61, 464, 76
-0.998492, 465, 81, 496, 96
-0.998493, 37, 161, 68, 176
-0.998493, 185, 359, 248, 374
-0.998493, 21, 139, 52, 154
-0.998493, 285, 97, 316, 112
-0.998494, 369, 37, 432, 52
-0.998495, 169, 207, 200, 222
-0.998497, 289, 107, 352, 122
-0.998498, 65, 147, 128, 162
-0.998499, 97, 203, 160, 218
-0.998499, 13, 179, 44, 194
-0.998499, 93, 29, 124, 44
-0.9985, 153, 351, 184, 366
-0.998501, 117, 361, 148, 375
-0.998501, 189, 91, 220, 106
-0.998502, 209, 361, 272, 375
-0.998503, 189, 347, 220, 362
-0.998503, 181, 237, 212, 252
-0.998503, 65, 311, 128, 326
-0.998503, 33, 137, 96, 152
-0.998504, 309, 361, 340, 375
-0.998504, 49, 51, 112, 66
-0.998504, 129, 17, 192, 32
-0.998505, 129, 35, 160, 50
-0.998506, 117, 23, 148, 38
-0.998507, 1, 167, 64, 182
-0.998507, 125, 349, 156, 364
-0.998508, 77, 151, 108, 166
-0.998508, 113, 205, 144, 220
-0.998509, 201, 89, 232, 104
-0.998509, 149, 225, 180, 240
-0.998509, 321, 265, 384, 280
-0.998509, 105, 337, 136, 352
-0.998509, 377, 155, 408, 170
-0.99851, 161, 339, 224, 354
-0.99851, 349, 361, 380, 375
-0.99851, 409, 57, 472, 72
-0.99851, 341, 5, 372, 20
-0.99851, 281, 131, 312, 146
-0.998512, 105, 21, 168, 36
-0.998512, 425, 69, 488, 84
-0.998513, 45, 219, 76, 234
-0.998515, 89, 43, 152, 58
-0.998515, 365, 25, 396, 40
-0.998516, 345, 27, 408, 42
-0.998516, 233, 231, 264, 246
-0.998516, 445, 69, 476, 84
-0.998516, 345, 267, 408, 282
-0.998516, 49, 165, 112, 180
-0.998517, 213, 235, 244, 250
-0.998517, 41, 213, 72, 228
-0.998517, 345, 143, 408, 158
-0.998517, 409, 43, 472, 58
-0.998518, 97, 253, 160, 268
-0.998519, 89, 235, 152, 250
-0.99852, 57, 55, 88, 70
-0.99852, 25, 177, 56, 192
-0.99852, 337, 143, 368, 158
-0.99852, 425, 63, 488, 78
-0.998521, 137, 259, 200, 274
-0.998521, 49, 229, 112, 244
-0.998523, 125, 253, 156, 268
-0.998523, 137, 333, 200, 348
-0.998525, 145, 33, 208, 48
-0.998525, 53, 351, 84, 366
-0.998526, 53, 327, 84, 342
-0.998527, 33, 319, 96, 334
-0.998527, 1, 163, 32, 178
-0.998527, 145, 259, 176, 274
-0.998528, 209, 205, 272, 220
-0.998528, 177, 91, 208, 106
-0.998528, 409, 153, 440, 168
-0.998529, 285, 123, 316, 138
-0.998529, 169, 347, 232, 362
-0.99853, 73, 153, 136, 168
-0.99853, 89, 147, 152, 162
-0.998531, 121, 201, 184, 216
-0.998531, 381, 23, 412, 38
-0.998531, 173, 329, 204, 344
-0.998532, 49, 321, 80, 336
-0.998532, 281, 25, 344, 40
-0.998533, 153, 217, 216, 232
-0.998533, 249, 93, 312, 108
-0.998533, 145, 25, 208, 40
-0.998534, 385, 31, 448, 46
-0.998534, 241, 203, 304, 218
-0.998535, 153, 325, 184, 340
-0.998535, 1, 125, 64, 140
-0.998535, 105, 25, 136, 40
-0.998535, 53, 225, 84, 240
-0.998535, 305, 245, 368, 260
-0.998535, 185, 331, 216, 346
-0.998536, 145, 237, 176, 252
-0.998536, 33, 181, 96, 196
-0.998536, 97, 27, 160, 42
-0.998536, 9, 239, 72, 254
-0.998537, 377, 143, 440, 158
-0.998537, 113, 211, 176, 226
-0.998538, 85, 321, 116, 336
-0.998538, 41, 181, 72, 196
-0.998538, 57, 215, 88, 230
-0.998539, 105, 33, 168, 48
-0.998539, 17, 195, 80, 210
-0.998539, 161, 203, 224, 218
-0.99854, 385, 47, 448, 62
-0.998541, 61, 299, 92, 314
-0.998541, 129, 93, 192, 108
-0.998542, 165, 355, 196, 370
-0.998542, 177, 95, 240, 110
-0.998542, 89, 197, 152, 212
-0.998542, 9, 149, 72, 164
-0.998542, 97, 325, 128, 340
-0.998543, 41, 137, 72, 152
-0.998543, 41, 81, 56, 208
-0.998543, 249, 125, 312, 140
-0.998544, 265, 101, 328, 116
-0.998544, 25, 245, 88, 260
-0.998546, 25, 113, 88, 128
-0.998546, 49, 43, 112, 58
-0.998546, 81, 217, 144, 232
-0.998548, 121, 219, 184, 234
-0.998548, 53, 309, 84, 324
-0.998548, 105, 259, 168, 274
-0.998548, 181, 353, 212, 368
-0.998549, 9, 119, 72, 134
-0.998549, 457, 65, 488, 80
-0.998549, 209, 187, 272, 202
-0.99855, 57, 187, 120, 202
-0.998551, 101, 221, 132, 236
-0.998552, 169, 239, 232, 254
-0.998552, 377, 151, 440, 166
-0.998555, 289, 119, 352, 134
-0.998555, 377, 135, 440, 150
-0.998556, 193, 233, 224, 248
-0.998556, 273, 113, 336, 128
-0.998556, 265, 361, 328, 375
-0.998558, 89, 113, 152, 128
-0.998558, 345, 275, 408, 290
-0.998558, 89, 141, 152, 156
-0.998559, 445, 59, 476, 74
-0.998559, 433, 75, 496, 90
-0.998559, 417, 133, 448, 148
-0.998559, 185, 89, 248, 104
-0.998559, 345, 261, 408, 276
-0.998559, 265, 87, 296, 102
-0.998562, 169, 213, 200, 228
-0.998563, 205, 357, 236, 372
-0.998564, 37, 173, 68, 188
-0.998564, 161, 221, 192, 236
-0.998565, 165, 343, 196, 358
-0.998565, 153, 339, 184, 354
-0.998565, 169, 227, 200, 242
-0.998567, 193, 355, 224, 370
-0.998569, 93, 161, 108, 288
-0.998571, 85, 327, 116, 342
-0.998574, 465, 71, 496, 86
-0.998577, 101, 151, 132, 166
-0.998577, 133, 235, 164, 250
-0.998581, 181, 231, 212, 246
-0.998584, 373, 31, 404, 46
-0.998585, 177, 347, 208, 362
-0.998586, 229, 361, 260, 375
-0.998589, 233, 225, 264, 240
-0.998592, 281, 91, 312, 106
-0.998593, 129, 203, 160, 218
-0.998594, 153, 207, 184, 222
-0.998595, 141, 343, 172, 358
-0.998596, 433, 51, 464, 66
-0.998597, 137, 177, 152, 304
-0.998599, 177, 339, 208, 354
-0.9986, 117, 229, 148, 244
-0.9986, 53, 345, 84, 360
-0.998601, 213, 223, 244, 238
-0.998604, 149, 333, 180, 348
-0.998604, 57, 177, 72, 304
-0.998605, 105, 315, 136, 330
-0.998605, 5, 169, 36, 184
-0.998607, 53, 339, 84, 354
-0.998608, 125, 343, 156, 358
-0.998609, 217, 359, 248, 374
-0.998611, 101, 331, 132, 346
-0.998611, 69, 221, 100, 236
-0.998612, 53, 315, 84, 330
-0.998615, 165, 349, 196, 364
-0.998617, 117, 333, 148, 348
-0.998617, 133, 337, 164, 352
-0.998622, 133, 221, 164, 236
-0.998623, 101, 227, 132, 242
-0.998624, 165, 233, 196, 248
-0.998627, 181, 223, 212, 238
-0.998629, 153, 231, 184, 246
-0.99863, 21, 171, 52, 186
-0.998631, 201, 225, 232, 240
-0.998631, 93, 241, 108, 368
-0.998635, 1, 177, 32, 192
-0.998644, 89, 221, 120, 236
-0.998647, 153, 345, 184, 360
-0.998649, 421, 45, 452, 60
-0.998656, 61, 321, 92, 336
-0.998656, 113, 223, 144, 238
-0.998656, 129, 229, 160, 244
-0.998664, 69, 327, 100, 342
-0.998686, 1, 1, 64, 128
-0.998693, 103, 113, 118, 240
-0.9987, 109, 145, 124, 272
-0.9987, 59, 1, 74, 128
-0.998703, 145, 177, 160, 304
-0.998706, 197, 241, 212, 368
-0.998707, 55, 49, 70, 176
-0.998708, 103, 177, 118, 304
-0.998709, 165, 337, 196, 352
-0.998713, 157, 129, 188, 375
-0.998731, 53, 113, 68, 240
-0.998733, 101, 241, 116, 368
-0.998743, 445, 1, 476, 256
-0.998762, 233, 177, 248, 304
-0.998769, 67, 209, 82, 336
-0.998783, 131, 193, 146, 320
-0.998807, 81, 161, 96, 288
-0.998823, 43, 129, 58, 256
-0.998826, 285, 1, 300, 128
-0.99883, 227, 177, 242, 304
-0.998839, 81, 97, 96, 224
-0.998845, 287, 65, 302, 192
-0.998848, 59, 225, 74, 352
-0.99885, 275, 1, 290, 128
-0.998855, 221, 177, 236, 304
-0.998856, 35, 113, 50, 240
-0.998857, 433, 17, 448, 144
-0.99886, 315, 193, 330, 320
-0.998875, 73, 225, 88, 352
-0.998878, 141, 1, 156, 128
-0.998881, 87, 161, 102, 288
-0.998886, 61, 49, 76, 176
-0.998886, 23, 145, 38, 272
-0.998895, 327, 81, 342, 208
-0.998896, 257, 1, 272, 128
-0.998904, 433, 1, 464, 256
-0.998907, 297, 17, 312, 144
-0.99891, 247, 1, 262, 128
-0.998913, 297, 129, 312, 256
-0.998914, 347, 1, 362, 128
-0.998914, 71, 145, 86, 272
-0.998918, 415, 129, 430, 256
-0.998919, 341, 1, 356, 128
-0.998923, 53, 1, 68, 128
-0.998923, 125, 225, 140, 352
-0.998925, 189, 241, 204, 368
-0.998927, 239, 177, 254, 304
-0.998928, 123, 145, 138, 272
-0.998931, 87, 225, 102, 352
-0.998932, 265, 17, 280, 144
-0.998933, 121, 97, 136, 224
-0.998934, 127, 1, 142, 128
-0.998936, 117, 145, 132, 272
-0.99894, 73, 1, 88, 128
-0.998942, 291, 1, 306, 128
-0.998945, 29, 161, 44, 288
-0.998946, 305, 177, 320, 304
-0.998955, 485, 49, 500, 176
-0.998958, 283, 129, 298, 256
-0.998958, 457, 97, 488, 352
-0.998968, 87, 113, 102, 240
-0.998984, 373, 1, 388, 128
-0.998988, 351, 145, 366, 272
-0.998989, 119, 1, 134, 128
-0.998994, 1, 33, 32, 288
-0.998998, 81, 33, 96, 160
-0.999, 205, 241, 220, 368
-0.999002, 333, 1, 348, 128
-0.999002, 97, 97, 112, 224
-0.999002, 327, 177, 342, 304
-0.999003, 215, 177, 230, 304
-0.999005, 213, 241, 228, 368
-0.999005, 189, 177, 204, 304
-0.999009, 47, 81, 62, 208
-0.999011, 9, 177, 24, 304
-0.999017, 177, 225, 192, 352
-0.999024, 203, 193, 218, 320
-0.999026, 129, 49, 144, 176
-0.999029, 297, 65, 312, 192
-0.99903, 51, 177, 66, 304
-0.99903, 119, 225, 134, 352
-0.999034, 281, 65, 296, 192
-0.999038, 37, 161, 52, 288
-0.999039, 79, 225, 94, 352
-0.999041, 109, 241, 124, 368
-0.999042, 229, 241, 244, 368
-0.999043, 111, 97, 126, 224
-0.999053, 239, 1, 254, 128
-0.999055, 343, 81, 358, 208
-0.999058, 289, 145, 304, 272
-0.999059, 299, 193, 314, 320
-0.999062, 213, 1, 228, 128
-0.999063, 409, 129, 424, 256
-0.999068, 167, 161, 182, 288
-0.999068, 17, 145, 32, 272
-0.999069, 233, 1, 248, 128
-0.99907, 469, 49, 484, 176
-0.99907, 337, 161, 352, 288
-0.99907, 143, 225, 158, 352
-0.999073, 59, 129, 74, 256
-0.999073, 345, 129, 360, 256
-0.999087, 221, 241, 236, 368
-0.999096, 251, 193, 266, 320
-0.999097, 313, 1, 328, 128
-0.999104, 151, 177, 166, 304
-0.999105, 157, 225, 172, 352
-0.999106, 157, 161, 172, 288
-0.999106, 245, 193, 260, 320
-0.999107, 337, 49, 352, 176
-0.999109, 65, 161, 80, 288
-0.99911, 225, 1, 240, 128
-0.999111, 135, 241, 150, 368
-0.999114, 443, 17, 458, 144
-0.99912, 151, 17, 166, 144
-0.999128, 249, 241, 264, 368
-0.999129, 109, 193, 124, 320
-0.999129, 183, 225, 198, 352
-0.999135, 331, 129, 346, 256
-0.999135, 383, 97, 398, 224
-0.999137, 255, 65, 270, 192
-0.999141, 479, 33, 494, 160
-0.999148, 303, 65, 318, 192
-0.999148, 321, 177, 336, 304
-0.999151, 69, 49, 84, 176
-0.999152, 7, 113, 22, 240
-0.999159, 463, 33, 478, 160
-0.99916, 167, 209, 182, 336
-0.999161, 235, 241, 250, 368
-0.999171, 303, 129, 318, 256
-0.999179, 273, 65, 288, 192
-0.99918, 173, 177, 188, 304
-0.99918, 323, 33, 338, 160
-0.999298, 429, 97, 460, 352
-0.999346, 469, 129, 500, 375
-0.999687, 425, 49, 440, 64
-0.999688, 327, 101, 342, 116
-0.999688, 355, 357, 370, 372
-0.999689, 171, 347, 186, 362
-0.999691, 465, 65, 480, 80
-0.999693, 99, 321, 114, 336
-0.999693, 117, 337, 132, 352
-0.999693, 383, 157, 398, 172
-0.999693, 193, 355, 208, 370
-0.999693, 221, 357, 236, 372
-0.999694, 457, 61, 472, 76
-0.999694, 93, 187, 108, 202
-0.999694, 169, 207, 184, 222
-0.999694, 279, 277, 294, 292
-0.999694, 35, 137, 50, 152
-0.999695, 451, 55, 466, 70
-0.999696, 103, 155, 118, 170
-0.999696, 113, 229, 128, 244
-0.999698, 245, 225, 260, 240
-0.999699, 43, 143, 58, 158
-0.9997, 441, 51, 456, 66
-0.9997, 225, 227, 240, 242
-0.9997, 299, 93, 314, 108
-0.999701, 117, 221, 132, 236
-0.999701, 67, 355, 82, 370
-0.999702, 417, 143, 432, 158
-0.999703, 65, 335, 80, 350
-0.999704, 285, 91, 300, 106
-0.999704, 321, 357, 336, 372
-0.999704, 419, 135, 434, 150
-0.999705, 31, 129, 46, 144
-0.999706, 101, 327, 116, 342
-0.999707, 191, 347, 206, 362
-0.999708, 187, 353, 202, 368
-0.999708, 11, 165, 26, 180
-0.999709, 121, 361, 136, 375
-0.999709, 449, 61, 464, 76
-0.99971, 145, 235, 160, 250
-0.999711, 215, 357, 230, 372
-0.999711, 157, 223, 172, 238
-0.999711, 433, 47, 448, 62
-0.999711, 167, 233, 182, 248
-0.999711, 103, 311, 118, 326
-0.999712, 39, 165, 54, 180
-0.999712, 345, 141, 360, 156
-0.999713, 31, 175, 46, 190
-0.999714, 75, 321, 90, 336
-0.999716, 297, 117, 312, 132
-0.999717, 475, 73, 490, 88
-0.999717, 147, 221, 162, 236
-0.999717, 129, 203, 144, 218
-0.999717, 53, 171, 68, 186
-0.999718, 191, 223, 206, 238
-0.999718, 145, 205, 160, 220
-0.999718, 175, 211, 190, 226
-0.99972, 9, 179, 24, 194
-0.999721, 237, 361, 252, 375
-0.999722, 245, 237, 260, 252
-0.999722, 165, 349, 180, 364
-0.999723, 139, 197, 154, 212
-0.999723, 93, 221, 108, 236
-0.999725, 177, 347, 192, 362
-0.999725, 63, 315, 78, 330
-0.999726, 299, 99, 314, 114
-0.999727, 57, 327, 72, 342
-0.999727, 57, 199, 72, 214
-0.999728, 205, 355, 220, 370
-0.999728, 151, 345, 166, 360
-0.99973, 181, 211, 196, 226
-0.999731, 59, 345, 74, 360
-0.999731, 185, 223, 200, 238
-0.999731, 125, 229, 140, 244
-0.999732, 137, 233, 152, 248
-0.999733, 107, 329, 122, 344
-0.999733, 235, 225, 250, 240
-0.999735, 63, 323, 78, 338
-0.999735, 73, 327, 88, 342
-0.999736, 227, 359, 242, 374
-0.999737, 19, 177, 34, 192
-0.999739, 173, 337, 188, 352
-0.999739, 143, 339, 158, 354
-0.999739, 91, 327, 106, 342
-0.999739, 135, 223, 150, 238
-0.99974, 115, 331, 130, 346
-0.99974, 141, 225, 156, 240
-0.999741, 87, 219, 102, 234
-0.999741, 81, 323, 96, 338
-0.999742, 191, 341, 206, 356
-0.999742, 103, 221, 118, 236
-0.999743, 207, 231, 222, 246
-0.999745, 427, 43, 442, 58
-0.999746, 161, 343, 176, 358
-0.999746, 233, 235, 248, 250
-0.999747, 163, 335, 178, 350
-0.999747, 127, 339, 142, 354
-0.999748, 165, 221, 180, 236
-0.999748, 215, 225, 230, 240
-0.999748, 65, 341, 80, 356
-0.999748, 185, 347, 200, 362
-0.999752, 69, 319, 84, 334
-0.999753, 43, 173, 58, 188
-0.999754, 65, 347, 80, 362
-0.999757, 135, 337, 150, 352
-0.999757, 199, 353, 214, 368
-0.999757, 55, 309, 70, 324
-0.999757, 195, 91, 210, 106
-0.999758, 123, 333, 138, 348
-0.999758, 199, 229, 214, 244
-0.999761, 147, 229, 162, 244
-0.999762, 435, 53, 450, 68
-0.999763, 385, 23, 400, 38
-0.999763, 119, 227, 134, 242
-0.999768, 157, 229, 172, 244
-0.99977, 173, 227, 188, 242
-0.999773, 131, 229, 146, 244
-0.999773, 209, 223, 224, 238
-0.999775, 197, 223, 212, 238
-0.999778, 173, 235, 188, 250
-0.99978, 183, 339, 198, 354
-0.999782, 111, 223, 126, 238
-0.999785, 1, 1, 64, 256
-0.999788, 179, 233, 194, 248
-0.999789, 171, 217, 186, 232
-0.999792, 3, 177, 18, 192
-0.999794, 125, 223, 140, 238
-0.999797, 13, 1, 44, 256
-0.999797, 165, 227, 180, 242
-0.999804, 21, 169, 36, 184
-0.999804, 57, 319, 72, 334
-0.999811, 189, 229, 204, 244
-0.999815, 345, 5, 360, 20
-0.999854, 179, 227, 194, 242
-1.00033, 441, 97, 472, 352
