1960
-0.531213, 1, 65, 500, 320
-0.59716, 1, 1, 500, 375
-0.617899, 33, 1, 288, 375
-0.65501, 129, 1, 384, 375
-0.713464, 257, 129, 500, 375
-0.729722, 257, 1, 500, 375
-0.786322, 129, 65, 384, 320
-0.795194, 33, 33, 288, 288
-0.87417, 33, 129, 288, 375
-0.889687, 145, 1, 272, 375
-0.905828, 337, 129, 464, 375
-0.908166, 193, 1, 320, 375
-0.915105, 209, 129, 336, 375
-0.919666, 129, 33, 256, 288
-0.920907, 1, 129, 500, 256
-0.921303, 33, 1, 160, 375
-0.922308, 97, 1, 224, 375
-0.927659, 145, 129, 272, 375
-0.928246, 225, 1, 480, 256
-0.928775, 289, 129, 416, 375
-0.931915, 1, 65, 128, 320
-0.932679, 65, 1, 192, 256
-0.935131, 209, 33, 336, 288
-0.935586, 65, 97, 192, 352
-0.938073, 1, 81, 500, 208
-0.939517, 257, 225, 500, 352
-0.941772, 337, 1, 464, 375
-0.942043, 257, 1, 384, 375
-0.952519, 1, 225, 500, 352
-0.95351, 257, 161, 500, 288
-0.954284, 257, 33, 384, 288
-0.956023, 65, 49, 320, 176
-0.959259, 33, 161, 288, 288
-0.95955, 225, 113, 480, 240
-0.960283, 129, 113, 384, 240
-0.961506, 1, 177, 500, 304
-0.961968, 193, 193, 256, 320
-0.962045, 129, 225, 384, 352
-0.96237, 129, 177, 384, 304
-0.96595, 393, 305, 456, 368
-0.966031, 305, 33, 432, 288
-0.966751, 97, 177, 224, 304
-0.966887, 353, 145, 480, 272
-0.967596, 193, 225, 320, 352
-0.96855, 353, 33, 480, 288
-0.969368, 161, 177, 224, 304
-0.969456, 241, 81, 368, 208
-0.969679, 33, 209, 288, 336
-0.970445, 409, 281, 472, 344
-0.970534, 425, 241, 488, 368
-0.970559, 193, 201, 256, 264
-0.970936, 193, 65, 448, 192
-0.971213, 217, 145, 280, 272
-0.971469, 1, 81, 128, 208
-0.972498, 145, 209, 272, 336
-0.972545, 217, 209, 280, 336
-0.97261, 425, 161, 488, 288
-0.97297, 145, 161, 272, 288
-0.973484, 177, 49, 304, 176
-0.97366, 265, 241, 328, 368
-0.973729, 281, 81, 344, 144
-0.974511, 193, 161, 320, 288
-0.974539, 241, 241, 304, 368
-0.974551, 297, 313, 360, 375
-0.975062, 337, 241, 464, 368
-0.975493, 1, 33, 500, 160
-0.975561, 433, 265, 496, 328
-0.976014, 33, 97, 288, 224
-0.976018, 177, 129, 240, 256
-0.976355, 305, 129, 432, 256
-0.976381, 49, 145, 176, 272
-0.976568, 257, 241, 384, 368
-0.97666, 369, 193, 496, 320
-0.977889, 393, 241, 456, 368
-0.977964, 193, 113, 320, 240
-0.978353, 361, 129, 424, 256
-0.979085, 177, 177, 240, 240
-0.979184, 241, 97, 304, 224
-0.979281, 297, 201, 360, 264
-0.979369, 257, 193, 384, 320
-0.979557, 97, 129, 224, 256
-0.979577, 257, 97, 320, 160
-0.979636, 369, 313, 432, 375
-0.979688, 289, 193, 352, 320
-0.979814, 297, 241, 360, 368
-0.980242, 33, 33, 160, 160
-0.98043, 17, 161, 80, 288
-0.980514, 273, 289, 336, 352
-0.980524, 361, 129, 424, 192
-0.98088, 289, 81, 416, 208
-0.981034, 217, 49, 280, 176
-0.981398, 153, 177, 216, 240
-0.981451, 401, 153, 464, 216
-0.981624, 213, 201, 244, 264
-0.98163, 337, 313, 464, 375
-0.981695, 257, 73, 320, 136
-0.982552, 97, 145, 160, 272
-0.982748, 137, 161, 200, 288
-0.98283, 417, 305, 480, 368
-0.982929, 17, 185, 80, 248
-0.983276, 273, 65, 336, 192
-0.983348, 305, 289, 432, 352
-0.98339, 421, 305, 452, 368
-0.983451, 193, 233, 256, 296
-0.983511, 393, 145, 456, 272
-0.983557, 409, 313, 440, 375
-0.983566, 225, 217, 256, 280
-0.98378, 17, 65, 80, 192
-0.983863, 73, 161, 136, 288
-0.983865, 217, 209, 280, 272
-0.983927, 185, 145, 248, 208
-0.983986, 425, 201, 488, 264
-0.984011, 241, 121, 304, 184
-0.984155, 369, 289, 496, 352
-0.984416, 309, 201, 340, 264
-0.984452, 1, 161, 128, 288
-0.984497, 209, 193, 240, 320
-0.984712, 369, 289, 432, 352
-0.984737, 425, 241, 488, 304
-0.984994, 169, 225, 232, 288
-0.985, 273, 241, 336, 304
-0.985004, 249, 281, 312, 344
-0.985062, 217, 169, 280, 232
-0.985072, 445, 265, 476, 328
-0.98522, 225, 129, 288, 375
-0.985322, 233, 73, 296, 136
-0.98534, 433, 289, 464, 352
-0.985393, 129, 33, 256, 160
-0.985411, 313, 177, 376, 240
-0.985433, 113, 161, 176, 224
-0.98545, 161, 241, 288, 304
-0.985487, 337, 113, 400, 240
-0.985528, 293, 81, 324, 144
-0.985544, 329, 313, 392, 375
-0.98569, 417, 177, 480, 240
-0.985861, 337, 145, 464, 208
-0.985869, 273, 201, 336, 264
-0.986123, 209, 273, 336, 336
-0.986135, 193, 217, 320, 280
-0.986164, 257, 97, 384, 160
-0.986238, 265, 177, 328, 304
-0.986319, 129, 185, 256, 248
-0.986367, 409, 129, 472, 375
-0.986425, 225, 233, 288, 296
-0.986509, 257, 313, 384, 375
-0.986562, 65, 41, 192, 104
-0.98671, 41, 201, 104, 264
-0.986712, 401, 257, 464, 320
-0.986886, 57, 161, 120, 224
-0.986893, 317, 313, 348, 375
-0.987055, 169, 225, 232, 352
-0.987262, 241, 49, 304, 176
-0.987292, 193, 289, 256, 352
-0.987318, 233, 257, 296, 320
-0.987352, 225, 161, 256, 288
-0.987435, 193, 177, 224, 304
-0.987496, 337, 129, 400, 192
-0.987579, 97, 161, 224, 224
-0.987637, 209, 185, 336, 248
-0.987657, 81, 225, 208, 352
-0.987673, 49, 97, 176, 224
-0.987706, 269, 105, 300, 168
-0.987771, 457, 193, 488, 320
-0.987918, 353, 241, 416, 368
-0.987925, 273, 313, 336, 375
-0.987933, 129, 217, 256, 280
-0.987981, 313, 161, 376, 288
-0.987981, 329, 313, 360, 375
-0.987993, 145, 209, 208, 272
-0.988034, 225, 33, 288, 288
-0.988099, 369, 257, 496, 320
-0.98814, 33, 161, 160, 224
-0.988261, 321, 289, 384, 352
-0.988368, 105, 97, 168, 224
-0.988457, 105, 33, 168, 96
-0.988478, 193, 241, 256, 368
-0.988497, 305, 305, 336, 368
-0.988568, 225, 145, 288, 208
-0.988778, 81, 177, 144, 240
-0.988781, 81, 201, 208, 264
-0.988874, 9, 97, 72, 160
-0.988992, 193, 65, 320, 128
-0.98905, 153, 153, 216, 216
-0.98906, 105, 185, 168, 248
-0.989173, 321, 193, 352, 256
-0.989267, 265, 81, 296, 208
-0.98936, 49, 65, 112, 128
-0.989395, 217, 1, 280, 375
-0.989428, 353, 169, 480, 232
-0.989434, 121, 249, 184, 312
-0.989442, 273, 177, 336, 240
-0.989454, 33, 65, 160, 128
-0.989465, 257, 289, 384, 352
-0.989498, 145, 97, 272, 224
-0.989538, 145, 49, 272, 112
-0.989539, 193, 1, 256, 375
-0.989551, 445, 241, 476, 368
-0.989573, 161, 273, 224, 336
-0.989633, 1, 137, 128, 200
-0.989709, 169, 33, 232, 160
-0.989814, 209, 305, 336, 368
-0.989823, 209, 161, 336, 224
-0.989928, 205, 145, 236, 272
-0.989966, 153, 49, 216, 112
-0.989987, 457, 241, 488, 304
-0.989992, 73, 33, 136, 160
-0.990095, 73, 121, 136, 184
-0.990098, 285, 241, 316, 368
-0.990111, 245, 225, 276, 288
-0.990113, 241, 241, 368, 304
-0.99016, 1, 113, 128, 176
-0.990238, 81, 153, 144, 216
-0.990256, 209, 265, 272, 328
-0.990273, 253, 225, 284, 352
-0.990362, 41, 193, 104, 320
-0.99037, 33, 185, 160, 248
-0.990509, 241, 129, 368, 256
-0.990528, 249, 97, 312, 352
-0.990566, 177, 49, 240, 112
-0.990664, 33, 209, 160, 336
-0.990689, 401, 309, 464, 340
-0.990698, 249, 305, 312, 368
-0.990708, 213, 177, 244, 240
-0.990776, 225, 305, 288, 368
-0.990846, 297, 281, 360, 344
-0.990862, 313, 113, 376, 240
-0.990865, 201, 225, 264, 256
-0.990871, 49, 49, 112, 176
-0.990949, 265, 73, 296, 136
-0.991011, 281, 321, 344, 352
-0.991019, 221, 209, 252, 336
-0.99106, 397, 313, 428, 375
-0.991138, 425, 241, 456, 368
-0.991142, 305, 209, 336, 336
-0.991176, 281, 93, 344, 124
-0.991176, 281, 73, 312, 136
-0.991195, 289, 289, 320, 352
-0.991195, 169, 201, 232, 264
-0.991214, 161, 1, 224, 375
-0.99129, 441, 161, 472, 288
-0.991305, 289, 129, 416, 192
-0.991373, 97, 241, 160, 304
-0.991384, 201, 33, 264, 288
-0.991394, 97, 1, 160, 256
-0.99142, 369, 201, 496, 264
-0.991424, 417, 297, 480, 328
-0.991437, 81, 33, 144, 96
-0.991489, 393, 321, 456, 352
-0.991492, 201, 129, 264, 375
-0.991524, 201, 193, 232, 256
-0.991592, 161, 145, 288, 208
-0.99162, 377, 153, 440, 216
-0.991645, 185, 209, 248, 240
-0.991656, 1, 121, 64, 184
-0.9917, 241, 209, 272, 336
-0.991717, 33, 1, 288, 128
-0.991774, 97, 81, 224, 208
-0.991791, 209, 237, 272, 268
-0.991827, 433, 281, 496, 312
-0.991845, 169, 249, 232, 312
-0.991848, 313, 113, 376, 176
-0.991859, 257, 77, 320, 108
-0.99191, 269, 241, 300, 368
-0.991959, 409, 285, 472, 316
-0.991968, 177, 197, 240, 228
-0.991999, 189, 185, 220, 248
-0.99204, 209, 57, 272, 120
-0.99206, 185, 237, 248, 268
-0.992101, 413, 153, 444, 216
-0.992102, 297, 205, 360, 236
-0.992109, 241, 209, 368, 272
-0.992114, 281, 309, 344, 340
-0.992117, 425, 265, 488, 296
-0.992125, 353, 137, 416, 168
-0.992138, 249, 217, 312, 280
-0.992148, 369, 329, 432, 360
-0.992192, 305, 313, 368, 344
-0.992213, 265, 113, 328, 144
-0.992222, 313, 325, 376, 356
-0.992224, 33, 113, 96, 240
-0.992231, 17, 73, 80, 136
-0.992234, 261, 249, 292, 312
-0.992268, 345, 333, 408, 364
-0.992295, 377, 129, 440, 375
-0.992296, 449, 177, 480, 240
-0.992305, 1, 89, 128, 152
-0.992315, 297, 337, 360, 368
-0.992324, 181, 161, 212, 288
-0.992344, 241, 73, 368, 136
-0.992382, 177, 185, 240, 216
-0.992391, 253, 121, 284, 184
-0.9924, 353, 313, 416, 344
-0.992409, 405, 289, 436, 352
-0.992409, 393, 161, 456, 192
-0.992415, 217, 189, 280, 220
-0.992419, 225, 249, 288, 280
-0.992432, 425, 209, 488, 240
-0.992435, 17, 185, 80, 216
-0.992456, 345, 289, 408, 352
-0.99251, 257, 253, 320, 284
-0.992522, 185, 173, 248, 204
-0.992545, 353, 97, 480, 224
-0.992548, 225, 137, 352, 200
-0.99255, 97, 41, 160, 72
-0.992556, 33, 153, 96, 216
-0.99257, 161, 221, 224, 252
-0.992573, 313, 121, 376, 152
-0.992592, 121, 45, 184, 76
-0.992596, 25, 197, 88, 228
-0.992597, 313, 193, 376, 224
-0.992608, 421, 281, 452, 344
-0.992608, 257, 309, 320, 340
-0.992609, 409, 341, 472, 372
-0.992611, 273, 297, 336, 328
-0.992613, 249, 49, 280, 176
-0.992626, 365, 129, 396, 192
-0.99263, 249, 133, 312, 164
-0.992637, 257, 97, 320, 128
-0.992643, 385, 149, 448, 180
-0.992658, 297, 225, 360, 288
-0.992661, 401, 273, 464, 304
-0.992684, 369, 301, 432, 332
-0.992686, 9, 65, 72, 320
-0.992739, 337, 125, 400, 156
-0.99275, 81, 137, 208, 200
-0.992759, 393, 297, 456, 328
-0.992772, 361, 345, 424, 375
-0.992779, 417, 313, 448, 344
-0.992789, 41, 213, 104, 244
-0.992799, 137, 1, 200, 375
-0.992803, 293, 85, 324, 116
-0.992805, 409, 173, 472, 204
-0.992805, 297, 109, 360, 140
-0.992812, 225, 205, 288, 236
-0.992844, 9, 105, 72, 136
-0.992859, 273, 197, 336, 228
-0.992869, 1, 173, 64, 204
-0.992884, 317, 201, 348, 232
-0.992894, 341, 313, 372, 375
-0.992908, 225, 221, 288, 252
-0.99291, 169, 53, 232, 84
-0.992929, 97, 157, 160, 188
-0.992935, 241, 109, 304, 140
-0.99294, 225, 221, 256, 252
-0.992959, 105, 249, 168, 280
-0.992969, 65, 45, 128, 76
-0.992971, 217, 177, 280, 208
-0.992973, 201, 121, 264, 184
-0.992979, 249, 277, 312, 308
-0.992981, 241, 1, 304, 375
-0.992987, 201, 297, 264, 328
-0.992992, 405, 309, 436, 340
-0.993002, 329, 345, 392, 375
-0.993014, 217, 61, 280, 92
-0.993014, 273, 113, 304, 144
-0.993025, 41, 181, 104, 212
-0.993026, 65, 209, 128, 336
-0.993035, 305, 177, 432, 240
-0.993041, 225, 169, 256, 232
-0.993044, 161, 233, 224, 264
-0.993046, 233, 233, 296, 264
-0.993053, 257, 233, 320, 264
-0.99307, 153, 185, 216, 216
-0.99307, 441, 297, 472, 328
-0.993075, 233, 261, 296, 292
-0.993077, 257, 265, 384, 328
-0.99308, 273, 333, 336, 364
-0.993088, 361, 149, 424, 180
-0.993092, 257, 33, 384, 160
-0.993093, 445, 285, 476, 316
-0.993093, 273, 209, 336, 240
-0.993096, 89, 181, 152, 212
-0.993103, 213, 209, 244, 240
-0.993105, 233, 313, 296, 344
-0.993105, 369, 233, 496, 296
-0.993113, 205, 197, 236, 228
-0.993116, 241, 237, 272, 268
-0.993117, 417, 185, 480, 216
-0.993121, 213, 221, 244, 252
-0.99313, 241, 121, 304, 152
-0.993148, 313, 321, 344, 352
-0.993159, 261, 121, 292, 152
-0.993165, 393, 325, 424, 356
-0.993166, 177, 285, 240, 316
-0.993167, 425, 253, 488, 284
-0.993175, 433, 309, 464, 340
-0.993175, 13, 97, 44, 224
-0.993178, 297, 297, 360, 328
-0.993185, 153, 173, 216, 204
-0.993191, 217, 197, 248, 228
-0.993195, 73, 113, 136, 240
-0.993203, 313, 97, 376, 352
-0.993205, 285, 325, 316, 356
-0.993205, 425, 197, 488, 228
-0.993206, 305, 85, 368, 116
-0.993206, 301, 317, 332, 348
-0.993208, 425, 321, 488, 352
-0.993209, 145, 49, 208, 80
-0.993209, 289, 209, 416, 272
-0.993214, 241, 145, 304, 176
-0.993214, 33, 185, 64, 216
-0.993221, 425, 309, 488, 340
-0.993232, 105, 193, 168, 224
-0.993234, 197, 233, 228, 264
-0.993241, 453, 273, 484, 304
-0.993241, 297, 281, 360, 312
-0.993243, 329, 313, 392, 344
-0.993249, 425, 233, 488, 264
-0.993257, 25, 169, 88, 200
-0.993273, 405, 321, 436, 352
-0.993276, 81, 233, 144, 264
-0.993276, 209, 105, 336, 168
-0.993282, 225, 209, 256, 240
-0.993282, 421, 325, 452, 356
-0.993283, 273, 101, 304, 132
-0.993285, 413, 241, 444, 368
-0.993287, 193, 57, 256, 88
-0.993298, 49, 57, 112, 88
-0.993302, 425, 221, 488, 252
-0.993303, 237, 221, 268, 252
-0.993303, 49, 193, 80, 224
-0.993307, 49, 69, 112, 100
-0.993312, 65, 165, 128, 196
-0.99332, 417, 157, 448, 188
-0.993324, 429, 297, 460, 328
-0.993327, 65, 209, 96, 240
-0.993334, 209, 233, 240, 264
-0.993335, 441, 173, 472, 204
-0.993343, 233, 289, 296, 320
-0.993343, 289, 97, 320, 128
-0.993344, 1, 161, 64, 224
-0.993352, 321, 333, 352, 364
-0.993353, 401, 261, 464, 292
-0.993354, 129, 201, 192, 232
-0.993357, 305, 337, 336, 368
-0.993357, 457, 257, 488, 288
-0.993359, 105, 57, 168, 88
-0.993361, 305, 209, 336, 240
-0.993361, 17, 93, 80, 124
-0.993361, 201, 177, 232, 208
-0.993363, 333, 313, 364, 344
-0.993363, 305, 93, 336, 124
-0.993366, 285, 313, 316, 344
-0.993369, 249, 253, 280, 284
-0.993369, 305, 217, 368, 248
-0.993369, 137, 49, 200, 176
-0.993372, 1, 125, 64, 156
-0.993373, 185, 161, 248, 192
-0.993383, 333, 337, 364, 368
-0.993386, 185, 225, 216, 256
-0.993387, 257, 265, 320, 296
-0.993388, 417, 301, 448, 332
-0.993393, 217, 129, 280, 160
-0.993396, 233, 157, 296, 188
-0.993396, 385, 285, 448, 316
-0.993403, 65, 193, 128, 224
-0.993404, 261, 257, 292, 288
-0.993409, 289, 109, 320, 140
-0.99341, 261, 133, 292, 164
-0.993413, 17, 173, 48, 204
-0.993414, 113, 193, 176, 320
-0.993418, 301, 197, 332, 228
-0.993421, 321, 205, 384, 236
-0.993421, 73, 145, 136, 176
-0.993422, 49, 205, 80, 236
-0.993427, 429, 161, 460, 224
-0.99343, 457, 213, 488, 244
-0.99343, 33, 81, 96, 112
-0.993434, 317, 305, 348, 336
-0.993438, 129, 261, 192, 292
-0.993438, 225, 193, 256, 256
-0.99344, 197, 225, 228, 288
-0.993443, 437, 329, 468, 360
-0.993445, 249, 137, 280, 168
-0.993447, 401, 149, 432, 180
-0.993447, 385, 345, 448, 375
-0.99345, 273, 77, 304, 108
-0.993453, 141, 45, 172, 76
-0.993455, 205, 289, 236, 320
-0.993455, 305, 301, 336, 332
-0.993457, 125, 41, 156, 72
-0.993461, 345, 321, 376, 352
-0.993463, 33, 205, 64, 236
-0.99347, 129, 165, 192, 196
-0.993471, 225, 181, 256, 212
-0.993478, 365, 129, 396, 160
-0.993478, 281, 81, 344, 112
-0.993479, 1, 113, 64, 240
-0.99348, 273, 309, 304, 340
-0.99348, 125, 249, 156, 280
-0.993482, 221, 297, 252, 328
-0.993483, 293, 73, 324, 104
-0.993485, 253, 241, 284, 272
-0.993488, 321, 265, 448, 328
-0.993491, 261, 109, 292, 140
-0.993492, 429, 165, 460, 196
-0.993496, 229, 233, 260, 264
-0.993508, 293, 297, 324, 328
-0.993521, 401, 297, 432, 328
-0.993521, 1, 201, 64, 232
-0.993524, 49, 225, 112, 256
-0.99353, 325, 189, 356, 220
-0.993531, 461, 245, 492, 276
-0.993533, 417, 161, 480, 192
-0.993541, 413, 337, 444, 368
-0.993541, 297, 229, 360, 260
-0.993543, 217, 113, 280, 144
-0.993547, 393, 309, 424, 340
-0.993547, 357, 333, 388, 364
-0.99355, 305, 81, 336, 112
-0.993553, 185, 185, 216, 216
-0.993555, 161, 273, 224, 304
-0.993558, 377, 137, 408, 168
-0.993559, 425, 337, 456, 368
-0.993561, 209, 277, 272, 308
-0.993563, 193, 285, 224, 316
-0.993564, 33, 1, 96, 375
-0.993565, 41, 117, 104, 148
-0.993567, 1, 161, 64, 192
-0.993569, 49, 217, 80, 248
-0.99357, 213, 181, 244, 212
-0.99357, 261, 269, 292, 300
-0.993572, 237, 145, 268, 272
-0.993573, 381, 329, 412, 360
-0.993575, 33, 173, 64, 204
-0.993577, 273, 277, 304, 308
-0.993578, 293, 345, 324, 375
-0.99358, 389, 141, 420, 172
-0.99358, 401, 345, 432, 375
-0.993587, 61, 61, 92, 92
-0.993589, 237, 157, 268, 188
-0.993589, 449, 193, 480, 224
-0.993589, 317, 105, 348, 136
-0.993594, 433, 273, 464, 304
-0.993599, 353, 129, 384, 160
-0.993601, 137, 253, 168, 284
-0.993602, 417, 289, 448, 320
-0.993603, 457, 217, 488, 280
-0.993607, 401, 129, 432, 256
-0.993614, 49, 65, 80, 96
-0.993621, 461, 233, 492, 264
-0.993621, 317, 345, 348, 375
-0.993622, 149, 261, 180, 292
-0.993627, 17, 193, 48, 224
-0.993634, 285, 285, 316, 316
-0.993636, 73, 49, 104, 80
-0.993637, 369, 333, 400, 364
-0.993638, 101, 41, 132, 72
-0.993641, 117, 189, 148, 220
-0.993644, 309, 185, 340, 216
-0.993644, 137, 201, 168, 232
-0.993646, 225, 245, 256, 276
-0.993647, 181, 277, 212, 308
-0.993647, 237, 249, 268, 280
-0.993649, 149, 205, 180, 236
-0.993652, 173, 177, 204, 208
-0.993652, 197, 221, 228, 252
-0.993654, 233, 305, 264, 336
-0.993659, 41, 77, 72, 108
-0.993659, 273, 257, 304, 288
-0.99366, 105, 181, 136, 212
-0.993661, 449, 317, 480, 348
-0.993661, 165, 269, 196, 300
-0.993663, 249, 149, 280, 180
-0.993665, 177, 165, 208, 196
-0.993666, 377, 317, 408, 348
-0.993753, 273, 97, 336, 352
-0.993753, 81, 33, 208, 160
-0.993805, 97, 121, 160, 184
-0.993827, 293, 313, 324, 375
-0.993848, 49, 41, 112, 104
-0.993962, 265, 49, 328, 112
-0.993982, 225, 17, 480, 144
-0.994023, 193, 49, 256, 176
-0.994121, 305, 81, 336, 144
-0.994139, 241, 193, 304, 320
-0.99415, 257, 281, 500, 344
-0.994179, 65, 217, 128, 280
-0.994182, 365, 113, 396, 240
-0.994191, 145, 65, 208, 320
-0.994193, 161, 265, 288, 328
-0.994206, 277, 265, 308, 328
-0.994231, 265, 1, 328, 375
-0.994261, 321, 241, 384, 368
-0.994289, 281, 97, 312, 160
-0.994297, 89, 57, 152, 120
-0.994312, 197, 225, 228, 352
-0.994355, 273, 265, 336, 328
-0.994385, 241, 137, 272, 200
-0.994385, 297, 209, 328, 272
-0.994387, 401, 145, 432, 208
-0.994466, 153, 113, 216, 240
-0.994469, 217, 97, 280, 160
-0.994483, 445, 289, 476, 352
-0.99451, 361, 81, 424, 208
-0.994521, 353, 129, 416, 375
-0.994528, 49, 193, 80, 256
-0.994553, 33, 177, 288, 240
-0.994557, 289, 73, 416, 136
-0.994569, 121, 209, 184, 272
-0.994578, 201, 97, 264, 224
-0.994612, 129, 41, 192, 104
-0.994628, 209, 1, 336, 128
-0.99464, 281, 105, 344, 168
-0.994696, 129, 145, 160, 272
-0.994712, 385, 137, 416, 200
-0.994739, 33, 185, 64, 248
-0.994752, 429, 145, 460, 272
-0.994841, 137, 209, 200, 336
-0.994898, 49, 89, 176, 152
-0.994933, 321, 201, 384, 264
-0.99495, 257, 185, 384, 248
-0.994967, 97, 97, 160, 352
-0.995066, 257, 305, 500, 368
-0.995088, 305, 65, 336, 192
-0.995105, 257, 257, 500, 320
-0.995128, 313, 1, 376, 375
-0.995143, 257, 161, 500, 224
-0.995164, 33, 217, 160, 280
-0.995183, 177, 129, 240, 375
-0.995233, 49, 121, 112, 184
-0.99528, 393, 129, 456, 192
-0.99529, 277, 65, 308, 192
-0.995306, 457, 265, 488, 328
-0.99534, 117, 161, 148, 288
-0.995403, 113, 273, 240, 336
-0.995407, 305, 177, 432, 304
-0.995408, 145, 121, 272, 184
-0.995459, 225, 129, 480, 192
-0.995488, 49, 113, 176, 176
-0.995493, 129, 1, 384, 128
-0.995535, 41, 65, 104, 320
-0.995545, 209, 233, 240, 296
-0.995549, 293, 65, 324, 192
-0.995559, 169, 161, 200, 288
-0.995566, 129, 249, 160, 312
-0.995581, 409, 97, 472, 224
-0.995602, 33, 49, 288, 112
-0.995622, 161, 193, 416, 256
-0.995634, 65, 201, 96, 264
-0.995641, 377, 265, 440, 328
-0.995661, 317, 201, 332, 264
-0.995669, 305, 73, 368, 136
-0.995673, 33, 201, 288, 264
-0.995685, 57, 1, 120, 375
-0.995687, 309, 281, 340, 344
-0.995687, 329, 289, 360, 352
-0.995707, 297, 65, 360, 192
-0.995714, 385, 129, 416, 256
-0.995758, 9, 105, 40, 168
-0.995786, 161, 289, 288, 352
-0.995808, 417, 1, 480, 375
-0.995826, 49, 241, 176, 304
-0.995907, 237, 201, 268, 264
-0.995919, 305, 73, 320, 136
-0.995928, 113, 1, 176, 375
-0.995967, 177, 33, 240, 288
-0.996065, 253, 65, 284, 128
-0.996068, 145, 161, 176, 288
-0.996076, 113, 81, 240, 144
-0.996091, 129, 233, 384, 296
-0.996103, 445, 313, 476, 375
-0.996105, 253, 113, 284, 240
-0.996111, 97, 209, 160, 272
-0.996125, 229, 201, 244, 264
-0.996129, 413, 145, 444, 272
-0.996169, 157, 161, 188, 288
-0.996174, 321, 241, 352, 368
-0.996186, 121, 97, 152, 224
-0.99619, 265, 17, 328, 144
-0.99621, 129, 169, 384, 232
-0.996226, 369, 105, 496, 168
-0.996232, 389, 289, 420, 352
-0.99625, 457, 241, 488, 368
-0.996255, 97, 113, 224, 176
-0.996261, 423, 305, 438, 368
-0.996274, 201, 169, 232, 232
-0.996297, 257, 161, 384, 224
-0.996315, 145, 233, 208, 296
-0.996316, 353, 121, 384, 184
-0.996322, 353, 105, 416, 168
-0.996417, 437, 297, 452, 360
-0.996425, 1, 153, 256, 216
-0.99643, 209, 241, 240, 368
-0.996432, 129, 281, 384, 344
-0.996433, 285, 241, 316, 304
-0.99646, 45, 161, 76, 288
-0.996481, 129, 113, 192, 240
-0.996481, 273, 113, 336, 240
-0.996482, 321, 193, 352, 320
-0.996483, 113, 153, 144, 216
-0.996487, 323, 193, 338, 256
-0.996492, 181, 209, 212, 336
-0.996502, 101, 129, 132, 256
-0.99651, 177, 177, 208, 240
-0.996514, 417, 313, 432, 375
-0.996533, 21, 177, 52, 240
-0.996575, 97, 249, 224, 312
-0.996575, 257, 185, 500, 248
-0.996592, 429, 313, 444, 375
-0.996602, 235, 209, 250, 272
-0.996603, 301, 177, 332, 240
-0.996618, 443, 289, 458, 352
-0.996629, 113, 17, 240, 80
-0.99663, 353, 313, 384, 375
-0.996661, 321, 169, 352, 232
-0.996711, 97, 73, 352, 136
-0.996719, 161, 89, 288, 152
-0.99672, 223, 201, 238, 264
-0.996731, 29, 161, 60, 288
-0.996736, 121, 137, 184, 200
-0.996741, 325, 313, 340, 375
-0.996742, 185, 225, 216, 288
-0.996767, 273, 193, 304, 320
-0.99678, 321, 329, 448, 360
-0.996786, 49, 89, 112, 152
-0.996818, 369, 273, 496, 304
-0.996827, 289, 1, 352, 375
-0.996831, 121, 1, 184, 256
-0.996847, 353, 305, 480, 336
-0.996851, 257, 113, 384, 144
-0.996882, 65, 45, 192, 76
-0.996891, 215, 201, 230, 264
-0.996902, 237, 49, 268, 176
-0.996903, 121, 73, 184, 136
-0.996913, 65, 17, 192, 80
-0.996914, 25, 81, 56, 208
-0.996943, 341, 289, 372, 352
-0.996996, 193, 129, 224, 256
-0.997001, 453, 273, 468, 336
-0.99701, 301, 161, 332, 288
-0.997022, 309, 313, 324, 375
-0.997032, 17, 41, 144, 104
-0.997034, 225, 177, 240, 240
-0.997037, 241, 217, 256, 280
-0.997055, 133, 161, 164, 224
-0.997057, 281, 73, 296, 136
-0.99706, 353, 165, 480, 196
-0.997089, 241, 41, 368, 104
-0.99709, 311, 81, 326, 144
-0.997091, 37, 73, 68, 136
-0.997092, 339, 313, 354, 375
-0.997094, 81, 1, 144, 375
-0.99711, 209, 289, 240, 352
-0.997124, 129, 185, 256, 216
-0.997149, 221, 241, 252, 304
-0.997165, 209, 285, 336, 316
-0.99718, 73, 41, 104, 104
-0.997183, 113, 241, 176, 368
-0.997193, 275, 105, 290, 168
-0.997209, 337, 289, 464, 320
-0.997212, 169, 209, 200, 336
-0.997214, 33, 241, 288, 304
-0.997216, 97, 145, 352, 208
-0.997227, 93, 129, 124, 192
-0.997233, 311, 209, 326, 272
-0.997236, 393, 1, 456, 375
-0.99725, 17, 209, 80, 272
-0.997254, 473, 217, 488, 280
-0.997277, 273, 321, 400, 352
-0.997306, 265, 249, 280, 312
-0.99732, 283, 97, 298, 160
-0.997329, 161, 305, 416, 368
-0.997331, 333, 313, 348, 375
-0.997339, 411, 313, 426, 375
-0.997342, 305, 305, 432, 336
-0.997349, 321, 317, 448, 348
-0.99735, 433, 313, 464, 375
-0.997358, 121, 129, 184, 375
-0.997359, 97, 173, 224, 204
-0.997383, 101, 153, 132, 216
-0.997384, 299, 73, 314, 136
-0.997395, 165, 177, 196, 240
-0.997406, 209, 221, 336, 252
-0.997406, 315, 305, 330, 368
-0.997417, 65, 49, 96, 176
-0.997423, 249, 225, 264, 288
-0.997427, 405, 313, 420, 375
-0.997443, 129, 33, 160, 96
-0.997457, 461, 257, 476, 320
-0.997457, 413, 289, 428, 352
-0.99746, 129, 257, 384, 320
-0.997475, 89, 225, 152, 352
-0.997476, 65, 105, 320, 168
-0.997497, 161, 225, 288, 256
-0.997499, 17, 173, 144, 204
-0.997515, 33, 161, 64, 224
-0.997515, 269, 121, 284, 184
-0.997546, 337, 169, 400, 232
-0.997553, 145, 41, 176, 104
-0.997554, 273, 241, 304, 304
-0.997555, 231, 169, 246, 232
-0.99757, 1, 289, 500, 352
-0.997573, 225, 313, 352, 344
-0.997576, 49, 197, 176, 228
-0.997588, 97, 161, 224, 192
-0.997591, 145, 157, 272, 188
-0.997601, 17, 185, 144, 216
-0.997602, 145, 57, 272, 88
-0.997611, 467, 193, 482, 256
-0.997619, 1, 137, 500, 200
-0.997625, 55, 193, 70, 256
-0.997646, 41, 225, 104, 288
-0.997651, 225, 297, 256, 360
-0.997655, 271, 257, 286, 320
-0.997657, 97, 33, 160, 160
-0.997661, 341, 121, 372, 184
-0.997669, 321, 145, 352, 272
-0.997679, 37, 177, 52, 240
-0.997681, 49, 61, 176, 92
-0.997688, 129, 201, 256, 232
-0.997691, 229, 225, 244, 288
-0.997691, 345, 313, 360, 375
-0.997692, 145, 169, 176, 232
-0.997692, 469, 217, 500, 280
-0.997703, 225, 205, 352, 236
-0.99771, 337, 149, 464, 180
-0.997719, 313, 153, 376, 216
-0.997719, 459, 185, 474, 248
-0.997725, 193, 273, 320, 304
-0.997727, 205, 193, 220, 256
-0.997738, 257, 233, 500, 296
-0.997739, 287, 73, 302, 136
-0.997764, 177, 173, 304, 204
-0.997766, 293, 57, 324, 120
-0.997781, 307, 81, 322, 112
-0.997785, 321, 205, 336, 236
-0.997788, 289, 233, 416, 296
-0.997803, 295, 289, 310, 352
-0.997807, 265, 273, 296, 336
-0.997816, 269, 305, 300, 368
-0.997824, 209, 193, 336, 224
-0.997825, 401, 193, 464, 320
-0.99783, 89, 41, 120, 104
-0.997833, 353, 241, 384, 368
-0.997833, 273, 93, 400, 124
-0.997851, 369, 325, 496, 356
-0.997856, 259, 241, 274, 304
-0.997859, 209, 301, 336, 332
-0.997859, 37, 65, 68, 192
-0.997862, 353, 177, 480, 208
-0.997866, 433, 273, 448, 336
-0.997867, 421, 309, 436, 340
-0.997868, 225, 105, 480, 168
-0.997892, 207, 225, 222, 288
-0.997898, 61, 193, 92, 320
-0.997903, 275, 81, 290, 144
-0.997905, 461, 193, 492, 256
-0.997913, 145, 213, 272, 244
-0.997922, 177, 261, 304, 292
-0.997929, 397, 241, 428, 368
-0.997932, 113, 233, 240, 264
-0.997936, 423, 281, 438, 344
-0.99794, 109, 177, 140, 240
-0.997941, 1, 161, 128, 192
-0.997942, 469, 281, 484, 344
-0.997942, 261, 33, 292, 160
-0.997953, 173, 217, 204, 280
-0.997956, 1, 161, 500, 224
-0.99797, 49, 185, 64, 248
-0.997974, 213, 225, 228, 288
-0.997974, 259, 129, 274, 192
-0.997977, 105, 177, 136, 304
-0.99799, 287, 113, 302, 144
-0.997992, 293, 89, 308, 152
-0.998007, 73, 33, 136, 288
-0.998022, 337, 345, 464, 375
-0.998025, 301, 305, 316, 368
-0.998027, 317, 177, 332, 240
-0.99805, 97, 221, 224, 252
-0.998061, 297, 257, 360, 320
-0.998063, 53, 57, 84, 120
-0.998063, 113, 45, 240, 76
-0.998064, 201, 217, 216, 280
-0.998065, 109, 33, 140, 96
-0.998072, 215, 177, 230, 240
-0.998075, 413, 145, 428, 208
-0.998075, 145, 249, 272, 280
-0.99808, 427, 153, 442, 216
-0.998087, 441, 161, 456, 224
-0.998089, 141, 201, 172, 264
-0.998091, 231, 205, 246, 236
-0.998095, 209, 81, 336, 112
-0.998099, 65, 201, 80, 264
-0.998103, 199, 185, 214, 248
-0.998121, 285, 101, 300, 132
-0.998126, 193, 237, 320, 268
-0.998131, 277, 105, 292, 136
-0.998132, 443, 265, 458, 328
-0.998143, 281, 249, 296, 312
-0.998145, 385, 97, 448, 224
-0.998148, 367, 129, 382, 192
-0.998151, 297, 241, 328, 304
-0.998151, 249, 249, 280, 312
-0.998163, 9, 1, 72, 375
-0.998167, 25, 121, 88, 184
-0.99817, 463, 297, 478, 360
-0.998179, 225, 205, 240, 236
-0.998182, 407, 321, 422, 352
-0.998185, 289, 293, 416, 324
-0.998185, 335, 289, 350, 352
-0.998194, 415, 313, 430, 344
-0.998206, 405, 289, 420, 352
-0.998207, 329, 193, 344, 256
-0.998226, 249, 193, 312, 256
-0.998226, 237, 213, 252, 244
-0.99823, 449, 169, 464, 232
-0.998231, 1, 113, 32, 240
-0.998243, 315, 213, 330, 244
-0.998245, 273, 337, 400, 368
-0.998245, 419, 153, 434, 216
-0.998247, 25, 169, 40, 232
-0.998256, 69, 213, 100, 228
-0.998257, 261, 109, 292, 124
-0.998257, 397, 147, 428, 162
-0.998258, 285, 107, 316, 122
-0.998258, 441, 177, 472, 192
-0.998259, 325, 115, 356, 130
-0.998259, 229, 303, 260, 318
-0.998259, 277, 101, 308, 116
-0.99826, 305, 95, 336, 110
-0.99826, 173, 275, 204, 290
-0.99826, 13, 191, 44, 206
-0.99826, 457, 221, 488, 236
-0.998261, 213, 183, 244, 198
-0.998261, 421, 297, 452, 312
-0.998261, 337, 121, 368, 136
-0.998263, 301, 301, 332, 316
-0.998263, 157, 51, 188, 66
-0.998263, 225, 245, 256, 260
-0.998263, 189, 179, 220, 194
-0.998264, 213, 219, 244, 234
-0.998264, 201, 197, 232, 212
-0.998264, 433, 289, 464, 304
-0.998265, 461, 249, 492, 264
-0.998266, 305, 333, 336, 348
-0.998266, 301, 215, 332, 230
-0.998266, 181, 53, 212, 68
-0.998267, 381, 333, 412, 348
-0.99827, 221, 231, 252, 246
-0.99827, 337, 327, 368, 342
-0.99827, 213, 213, 244, 228
-0.99827, 311, 177, 326, 240
-0.99827, 289, 99, 320, 114
-0.99827, 329, 341, 360, 356
-0.99827, 277, 281, 308, 296
-0.998271, 149, 263, 180, 278
-0.998272, 249, 145, 280, 160
-0.998273, 161, 269, 192, 284
-0.998273, 433, 171, 464, 186
-0.998275, 433, 315, 464, 330
-0.998279, 137, 45, 168, 60
-0.998281, 283, 281, 298, 344
-0.998282, 133, 255, 164, 270
-0.998283, 433, 297, 464, 312
-0.998283, 413, 157, 444, 172
-0.998285, 285, 343, 316, 358
-0.998286, 437, 309, 468, 324
-0.998286, 253, 139, 284, 154
-0.998288, 305, 199, 336, 214
-0.998289, 421, 337, 452, 352
-0.998289, 317, 327, 348, 342
-0.99829, 281, 119, 312, 134
-0.99829, 305, 101, 336, 116
-0.998291, 81, 145, 112, 272
-0.998291, 293, 315, 324, 330
-0.998292, 293, 337, 324, 352
-0.998292, 313, 107, 344, 122
-0.998293, 401, 319, 432, 334
-0.998293, 361, 131, 392, 146
-0.998294, 281, 83, 312, 98
-0.998296, 129, 285, 256, 316
-0.998297, 313, 217, 344, 232
-0.998299, 263, 97, 278, 160
-0.998299, 305, 137, 432, 168
-0.998299, 57, 211, 88, 226
-0.998299, 261, 257, 292, 272
-0.998303, 261, 133, 292, 148
-0.998303, 193, 229, 224, 244
-0.998304, 297, 345, 328, 360
-0.998304, 249, 251, 280, 266
-0.998304, 393, 331, 424, 346
-0.998305, 425, 163, 456, 178
-0.998305, 265, 115, 296, 130
-0.998305, 413, 343, 444, 358
-0.998306, 325, 319, 356, 334
-0.998306, 337, 347, 368, 362
-0.998308, 457, 265, 488, 280
-0.998309, 297, 327, 328, 342
-0.998312, 285, 323, 316, 338
-0.998312, 201, 185, 232, 200
-0.998313, 233, 225, 264, 240
-0.998313, 49, 203, 80, 218
-0.998313, 305, 89, 336, 104
-0.998314, 453, 285, 484, 300
-0.998314, 345, 127, 376, 142
-0.998315, 309, 345, 340, 360
-0.998316, 193, 285, 224, 300
-0.998316, 449, 291, 480, 306
-0.998317, 33, 197, 64, 212
-0.998318, 253, 137, 268, 200
-0.998319, 401, 309, 432, 324
-0.99832, 453, 279, 484, 294
-0.998322, 461, 259, 492, 274
-0.998323, 217, 297, 248, 312
-0.998325, 325, 199, 356, 214
-0.998325, 213, 201, 244, 216
-0.998325, 221, 189, 236, 220
-0.998326, 353, 313, 368, 375
-0.998326, 121, 249, 152, 264
-0.998327, 309, 307, 340, 322
-0.998329, 325, 335, 356, 350
-0.998329, 233, 235, 264, 250
-0.998329, 193, 235, 224, 250
-0.998331, 245, 245, 276, 260
-0.998331, 413, 321, 444, 336
-0.998332, 265, 127, 296, 142
-0.998334, 433, 129, 496, 375
-0.998335, 457, 273, 488, 288
-0.998335, 213, 225, 244, 240
-0.998336, 297, 209, 328, 224
-0.998337, 45, 211, 76, 226
-0.998338, 289, 113, 320, 128
-0.998339, 217, 207, 248, 222
-0.99834, 61, 219, 92, 234
-0.99834, 457, 289, 488, 352
-0.99834, 467, 249, 482, 312
-0.998342, 205, 191, 236, 206
-0.998342, 397, 137, 412, 200
-0.998343, 161, 25, 288, 88
-0.998343, 309, 205, 340, 220
-0.998343, 421, 303, 452, 318
-0.998344, 305, 339, 336, 354
-0.998345, 445, 297, 476, 312
-0.998345, 421, 309, 452, 324
-0.998347, 273, 107, 304, 122
-0.998348, 49, 217, 80, 232
-0.99835, 397, 325, 428, 340
-0.998351, 369, 261, 496, 292
-0.998355, 17, 181, 48, 196
-0.998356, 205, 291, 236, 306
-0.998356, 225, 217, 256, 232
-0.99836, 285, 329, 316, 344
-0.99836, 205, 235, 236, 250
-0.998361, 211, 233, 226, 264
-0.998362, 1, 73, 256, 136
-0.998363, 209, 113, 336, 144
-0.998363, 243, 221, 258, 252
-0.998365, 441, 303, 472, 318
-0.998365, 369, 1, 432, 375
-0.998367, 443, 289, 458, 320
-0.99837, 317, 313, 348, 328
-0.998373, 273, 205, 400, 236
-0.998373, 1, 17, 128, 80
-0.998373, 33, 189, 64, 204
-0.998376, 293, 81, 324, 96
-0.998376, 317, 353, 348, 368
-0.998378, 305, 321, 336, 336
-0.99838, 277, 113, 308, 128
-0.99838, 287, 249, 302, 312
-0.998381, 41, 185, 56, 216
-0.998383, 289, 281, 304, 344
-0.998387, 269, 121, 300, 136
-0.998388, 273, 125, 400, 156
-0.998394, 417, 315, 448, 330
-0.998401, 433, 129, 464, 375
-0.998409, 313, 211, 344, 226
-0.998411, 293, 109, 308, 140
-0.998418, 307, 93, 322, 124
-0.998419, 403, 145, 418, 208
-0.998419, 327, 201, 342, 232
-0.99842, 49, 157, 176, 188
-0.998421, 225, 33, 288, 96
-0.998423, 261, 249, 276, 280
-0.998424, 437, 301, 452, 332
-0.998425, 297, 325, 312, 356
-0.998433, 321, 205, 352, 220
-0.998442, 115, 153, 130, 216
-0.998442, 271, 117, 286, 148
-0.998449, 321, 289, 336, 352
-0.99845, 1, 121, 128, 152
-0.998455, 435, 161, 450, 224
-0.998457, 241, 145, 304, 272
-0.998458, 305, 273, 320, 336
-0.998465, 293, 87, 324, 102
-0.998466, 369, 201, 496, 232
-0.998468, 329, 289, 344, 352
-0.998469, 293, 93, 324, 108
-0.99847, 475, 265, 490, 328
-0.998475, 1, 129, 256, 192
-0.998476, 145, 145, 272, 176
-0.998477, 1, 113, 500, 176
-0.998479, 253, 241, 268, 272
-0.998479, 323, 169, 338, 232
-0.998483, 281, 121, 296, 152
-0.998484, 431, 297, 446, 328
-0.998489, 433, 137, 496, 200
-0.998491, 449, 277, 464, 308
-0.998491, 105, 113, 136, 176
-0.998493, 223, 225, 238, 288
-0.998495, 265, 125, 280, 156
-0.9985, 31, 193, 46, 224
-0.99851, 313, 89, 328, 120
-0.998511, 357, 121, 372, 184
-0.998514, 33, 73, 160, 104
-0.998515, 65, 209, 192, 240
-0.998515, 201, 229, 216, 260
-0.998518, 257, 33, 288, 288
-0.998524, 265, 1, 328, 256
-0.998531, 381, 129, 396, 192
-0.998535, 193, 101, 320, 132
-0.998536, 257, 105, 272, 168
-0.998539, 193, 185, 208, 248
-0.998541, 269, 97, 284, 160
-0.998552, 427, 313, 442, 344
-0.998555, 269, 65, 284, 128
-0.998556, 239, 161, 254, 224
-0.998559, 33, 181, 48, 212
-0.998567, 303, 329, 318, 360
-0.998568, 49, 169, 80, 232
-0.998572, 65, 177, 80, 240
-0.998585, 317, 89, 332, 152
-0.998585, 259, 133, 274, 164
-0.998587, 449, 297, 464, 360
-0.998594, 301, 81, 316, 112
-0.998595, 225, 217, 240, 248
-0.998595, 281, 323, 344, 338
-0.998597, 409, 309, 472, 324
-0.998599, 209, 231, 272, 246
-0.998605, 469, 209, 484, 240
-0.998609, 233, 225, 248, 256
-0.998614, 353, 113, 384, 240
-0.998614, 133, 193, 164, 320
-0.998614, 193, 237, 256, 252
-0.99862, 453, 265, 468, 296
-0.99862, 401, 319, 464, 334
-0.998621, 121, 153, 136, 216
-0.998623, 401, 325, 464, 340
-0.998623, 209, 161, 336, 192
-0.998629, 197, 33, 228, 160
-0.99864, 97, 273, 224, 304
-0.99864, 249, 229, 264, 260
-0.998641, 305, 209, 320, 272
-0.998646, 325, 309, 340, 340
-0.998646, 247, 145, 262, 208
-0.998648, 369, 233, 496, 264
-0.998653, 351, 289, 366, 352
-0.998653, 305, 207, 368, 222
-0.998655, 273, 99, 336, 114
-0.998655, 425, 301, 488, 316
-0.998656, 113, 97, 176, 160
-0.998657, 51, 205, 66, 236
-0.998657, 297, 339, 360, 354
-0.998659, 225, 253, 352, 284
-0.998659, 393, 303, 456, 318
-0.998659, 401, 329, 416, 360
-0.998661, 45, 201, 60, 232
-0.998662, 401, 289, 464, 304
-0.998663, 43, 185, 58, 248
-0.998664, 283, 121, 298, 184
-0.998665, 185, 177, 248, 192
-0.998666, 319, 193, 334, 224
-0.998666, 101, 129, 116, 192
-0.998667, 289, 333, 352, 348
-0.998668, 197, 281, 228, 344
-0.998668, 273, 205, 336, 220
-0.998669, 433, 295, 496, 310
-0.998669, 201, 225, 264, 240
-0.99867, 109, 153, 124, 216
-0.99867, 401, 295, 464, 310
-0.99867, 313, 351, 376, 366
-0.998671, 265, 113, 328, 128
-0.998671, 185, 215, 248, 230
-0.998675, 289, 317, 352, 332
-0.998675, 329, 331, 392, 346
-0.998678, 125, 193, 156, 256
-0.998681, 305, 201, 368, 216
-0.998682, 313, 315, 376, 330
-0.998682, 25, 191, 88, 206
-0.998683, 281, 93, 344, 108
-0.998683, 97, 43, 160, 58
-0.998684, 257, 209, 500, 272
-0.998684, 289, 307, 352, 322
-0.998684, 265, 313, 328, 328
-0.998685, 169, 235, 232, 250
-0.998685, 305, 97, 320, 160
-0.998685, 353, 143, 416, 158
-0.998687, 385, 331, 448, 346
-0.998687, 325, 321, 340, 352
-0.998688, 15, 105, 30, 168
-0.998689, 433, 289, 496, 304
-0.99869, 385, 311, 448, 326
-0.998692, 449, 289, 464, 320
-0.998694, 281, 105, 344, 120
-0.998695, 265, 83, 328, 98
-0.998695, 169, 53, 232, 68
-0.998695, 433, 269, 496, 284
-0.998696, 129, 49, 192, 64
-0.998697, 425, 283, 488, 298
-0.998699, 281, 211, 344, 226
-0.998699, 129, 49, 384, 112
-0.998699, 401, 279, 464, 294
-0.9987, 289, 345, 352, 360
-0.9987, 331, 313, 346, 344
-0.9987, 361, 327, 424, 342
-0.9987, 7, 121, 22, 184
-0.998701, 345, 337, 408, 352
-0.998701, 241, 109, 304, 124
-0.998701, 177, 291, 240, 306
-0.998701, 313, 201, 328, 232
-0.998702, 459, 265, 474, 296
-0.998703, 353, 359, 416, 374
-0.998703, 225, 325, 352, 356
-0.998704, 177, 191, 240, 206
-0.998705, 273, 233, 288, 296
-0.998706, 195, 161, 210, 224
-0.998706, 53, 193, 68, 224
-0.998707, 241, 119, 304, 134
-0.998707, 11, 145, 26, 208
-0.998707, 457, 305, 472, 368
-0.998708, 145, 209, 176, 336
-0.998708, 201, 243, 264, 258
-0.998708, 271, 257, 286, 288
-0.998708, 225, 251, 288, 266
-0.998709, 215, 221, 230, 252
-0.998711, 193, 205, 256, 220
-0.998712, 177, 183, 240, 198
-0.998712, 425, 213, 488, 228
-0.998712, 201, 187, 264, 202
-0.998713, 217, 213, 280, 228
-0.998713, 249, 129, 312, 144
-0.998713, 337, 133, 400, 148
-0.998713, 389, 137, 404, 200
-0.998714, 409, 273, 472, 288
-0.998715, 313, 357, 376, 372
-0.998716, 139, 249, 154, 312
-0.998717, 353, 321, 416, 336
-0.998717, 1, 183, 64, 198
-0.998717, 185, 199, 248, 214
-0.998717, 321, 325, 384, 340
-0.998718, 369, 305, 432, 320
-0.998718, 361, 149, 424, 164
-0.998718, 257, 327, 320, 342
-0.998718, 41, 221, 104, 236
-0.998719, 169, 229, 232, 244
-0.998719, 97, 249, 160, 264
-0.998719, 401, 169, 464, 184
-0.998719, 265, 119, 328, 134
-0.99872, 409, 177, 472, 192
-0.998721, 33, 209, 96, 224
-0.998721, 127, 153, 142, 216
-0.998722, 329, 345, 392, 360
-0.998722, 289, 351, 352, 366
-0.998722, 385, 361, 448, 375
-0.998723, 385, 159, 448, 174
-0.998723, 67, 205, 82, 236
-0.998724, 161, 283, 224, 298
-0.998724, 25, 199, 88, 214
-0.998726, 377, 317, 440, 332
-0.998727, 293, 89, 308, 120
-0.998727, 417, 193, 480, 208
-0.998727, 225, 221, 288, 236
-0.998728, 433, 307, 496, 322
-0.998728, 33, 185, 96, 200
-0.99873, 417, 187, 480, 202
-0.99873, 9, 113, 72, 128
-0.998731, 277, 281, 292, 344
-0.998731, 233, 241, 296, 256
-0.998731, 433, 263, 496, 278
-0.998732, 393, 343, 456, 358
-0.998732, 425, 319, 488, 334
-0.998732, 257, 279, 320, 294
-0.998733, 425, 207, 488, 222
-0.998733, 1, 105, 128, 136
-0.998734, 321, 195, 384, 210
-0.998734, 273, 339, 336, 354
-0.998734, 409, 309, 424, 340
-0.998734, 1, 193, 64, 208
-0.998734, 185, 297, 248, 312
-0.998734, 305, 87, 368, 102
-0.998734, 321, 337, 384, 352
-0.998735, 409, 265, 472, 280
-0.998737, 73, 155, 136, 170
-0.998738, 185, 169, 248, 184
-0.998738, 49, 67, 112, 82
-0.998738, 249, 251, 312, 266
-0.998739, 203, 153, 218, 216
-0.998739, 433, 275, 496, 290
-0.998739, 321, 127, 384, 142
-0.998739, 47, 189, 62, 220
-0.998739, 249, 135, 312, 150
-0.99874, 257, 287, 320, 302
-0.99874, 385, 349, 448, 364
-0.99874, 257, 257, 320, 272
-0.998741, 305, 213, 368, 228
-0.998741, 229, 129, 260, 375
-0.998742, 241, 77, 304, 92
-0.998742, 281, 199, 344, 214
-0.998742, 385, 337, 448, 352
-0.998742, 41, 215, 104, 230
-0.998743, 193, 57, 256, 72
-0.998743, 161, 167, 224, 182
-0.998743, 385, 241, 416, 368
-0.998743, 241, 145, 304, 160
-0.998744, 49, 227, 112, 242
-0.998745, 165, 169, 180, 232
-0.998745, 281, 301, 344, 316
-0.998745, 225, 265, 288, 280
-0.998746, 81, 243, 144, 258
-0.998746, 33, 77, 96, 92
-0.998746, 73, 51, 136, 66
-0.998746, 105, 199, 168, 214
-0.998747, 217, 257, 280, 272
-0.998748, 453, 249, 468, 312
-0.998748, 425, 219, 488, 234
-0.998748, 217, 289, 280, 304
-0.998754, 109, 129, 124, 192
-0.998756, 369, 249, 496, 280
-0.998758, 1, 209, 500, 272
-0.99876, 257, 97, 288, 160
-0.998761, 181, 177, 196, 240
-0.998764, 229, 181, 244, 212
-0.998764, 87, 41, 102, 104
-0.998765, 23, 177, 38, 208
-0.998769, 335, 333, 350, 364
-0.99877, 209, 185, 224, 216
-0.998775, 399, 313, 414, 375
-0.998777, 323, 337, 338, 368
-0.998779, 195, 225, 210, 288
-0.998781, 1, 149, 128, 180
-0.998784, 29, 193, 44, 256
-0.998785, 329, 89, 392, 152
-0.998794, 273, 277, 400, 308
-0.998796, 305, 193, 432, 224
-0.998796, 357, 125, 372, 156
-0.998799, 225, 149, 352, 180
-0.998802, 437, 285, 452, 316
-0.998803, 453, 145, 484, 272
-0.998807, 9, 169, 40, 232
-0.998808, 311, 317, 326, 348
-0.998813, 213, 201, 228, 232
-0.998815, 291, 321, 306, 352
-0.998817, 469, 257, 500, 320
-0.998821, 455, 277, 470, 308
-0.998821, 253, 141, 268, 172
-0.998828, 241, 129, 272, 375
-0.998835, 417, 325, 432, 356
-0.998837, 299, 313, 314, 344
-0.998838, 425, 157, 440, 188
-0.998847, 471, 281, 486, 312
-0.998847, 457, 181, 472, 212
-0.998848, 473, 221, 488, 252
-0.998849, 315, 301, 330, 332
-0.998851, 37, 197, 52, 228
-0.998852, 337, 313, 352, 344
-0.998852, 17, 85, 144, 116
-0.998854, 367, 129, 382, 160
-0.998854, 145, 297, 272, 328
-0.998856, 425, 337, 440, 368
-0.998861, 215, 189, 230, 220
-0.998863, 33, 265, 288, 328
-0.998863, 415, 153, 430, 184
-0.998864, 417, 341, 432, 372
-0.998865, 209, 69, 336, 100
-0.998866, 317, 337, 332, 368
-0.998868, 291, 309, 306, 340
-0.998869, 61, 217, 76, 248
-0.998873, 431, 333, 446, 364
-0.998875, 65, 257, 192, 288
-0.998876, 463, 297, 478, 328
-0.998879, 341, 337, 356, 368
-0.998881, 65, 145, 192, 176
-0.998881, 245, 153, 260, 184
-0.998883, 307, 341, 322, 372
-0.998887, 431, 161, 446, 192
-0.998887, 443, 169, 458, 200
-0.998891, 137, 41, 152, 72
-0.998892, 243, 233, 258, 264
-0.998892, 305, 313, 320, 344
-0.998893, 253, 273, 284, 336
-0.998894, 241, 265, 368, 296
-0.998895, 219, 201, 234, 232
-0.998897, 433, 265, 464, 328
-0.998898, 453, 317, 468, 348
-0.998899, 437, 165, 452, 196
-0.9989, 469, 209, 500, 336
-0.998902, 161, 265, 192, 328
-0.998902, 205, 217, 220, 248
-0.99891, 237, 165, 252, 196
-0.99891, 177, 25, 240, 88
-0.998911, 245, 33, 276, 288
-0.998919, 59, 197, 74, 228
-0.99892, 443, 333, 458, 364
-0.998926, 451, 173, 466, 204
-0.998929, 225, 137, 352, 168
-0.998929, 225, 265, 256, 328
-0.998929, 285, 81, 300, 112
-0.998933, 409, 149, 424, 180
-0.998934, 227, 193, 242, 224
-0.998939, 319, 317, 334, 348
-0.998941, 273, 81, 400, 112
-0.998941, 137, 245, 152, 276
-0.998943, 193, 249, 224, 312
-0.998968, 73, 209, 88, 240
-0.998971, 413, 129, 444, 375
-0.998973, 203, 181, 218, 212
-0.998975, 467, 197, 482, 228
-0.998977, 143, 41, 158, 72
-0.998979, 403, 145, 418, 176
-0.998985, 441, 273, 456, 304
-0.998986, 463, 277, 478, 308
-0.998988, 253, 129, 284, 375
-0.998992, 45, 113, 76, 240
-0.998994, 437, 325, 452, 356
-0.998996, 459, 309, 474, 340
-0.998998, 369, 189, 496, 220
-0.999001, 443, 301, 458, 332
-0.999003, 217, 177, 232, 208
-0.999007, 225, 81, 480, 144
-0.999008, 393, 141, 408, 172
-0.999013, 259, 237, 274, 268
-0.999013, 421, 297, 436, 328
-0.999015, 395, 329, 410, 360
-0.999021, 1, 313, 500, 375
-0.999029, 289, 193, 320, 320
-0.999036, 271, 245, 286, 276
-0.999039, 131, 41, 146, 72
-0.99904, 197, 173, 212, 204
-0.999042, 469, 257, 484, 288
-0.999068, 209, 257, 240, 320
-0.999078, 61, 177, 92, 240
-0.999089, 225, 341, 352, 372
-0.999092, 137, 17, 200, 80
-0.999093, 385, 313, 416, 375
-0.999096, 185, 153, 216, 216
-0.999101, 1, 197, 128, 228
-0.999106, 453, 129, 484, 375
-0.999117, 49, 245, 176, 276
-0.999123, 225, 125, 352, 156
-0.999128, 241, 273, 272, 336
-0.99913, 229, 33, 260, 288
-0.999133, 17, 233, 144, 264
-0.999136, 289, 181, 416, 212
-0.999145, 257, 241, 384, 272
-0.999146, 21, 89, 52, 152
-0.99915, 129, 185, 192, 248
-0.999166, 297, 265, 328, 328
-0.999177, 33, 65, 64, 320
-0.999181, 1, 221, 128, 252
-0.999196, 237, 305, 268, 368
-0.999197, 141, 65, 172, 192
-0.999222, 129, 1, 160, 256
-0.999226, 285, 17, 316, 144
-0.999227, 141, 257, 172, 320
-0.999239, 321, 277, 448, 308
-0.999241, 257, 193, 384, 224
-0.99925, 89, 153, 120, 216
-0.999254, 97, 57, 224, 88
-0.999255, 321, 1, 384, 256
-0.999268, 153, 129, 216, 192
-0.999273, 215, 193, 230, 320
-0.999277, 203, 177, 218, 304
-0.999285, 353, 137, 480, 168
-0.999296, 1, 73, 500, 136
-0.999301, 1, 49, 128, 80
-0.999308, 231, 161, 246, 288
-0.999311, 221, 193, 236, 320
-0.999321, 81, 225, 112, 288
-0.999322, 437, 241, 468, 304
-0.99933, 177, 129, 304, 160
-0.999331, 161, 49, 192, 112
-0.999336, 257, 169, 384, 200
-0.999351, 217, 129, 248, 375
-0.999352, 273, 149, 400, 180
-0.999359, 289, 49, 416, 112
-0.99936, 369, 221, 496, 252
-0.999362, 49, 105, 176, 136
-0.999364, 1, 137, 128, 168
-0.999373, 337, 241, 368, 368
-0.999373, 467, 193, 482, 320
-0.999376, 161, 209, 192, 272
-0.999378, 275, 65, 290, 192
-0.999383, 301, 129, 332, 375
-0.999393, 313, 225, 344, 288
-0.999393, 401, 129, 432, 375
-0.999404, 217, 33, 248, 288
-0.999406, 453, 241, 468, 368
-0.999409, 461, 177, 476, 304
-0.999409, 389, 129, 420, 375
-0.999413, 89, 97, 152, 160
-0.99942, 209, 209, 224, 336
-0.999426, 441, 241, 456, 368
-0.999442, 129, 261, 256, 292
-0.999443, 277, 113, 308, 240
-0.999447, 65, 185, 192, 216
-0.999457, 189, 161, 204, 288
-0.999459, 369, 125, 496, 156
-0.999461, 263, 49, 278, 176
-0.999463, 297, 241, 312, 368
-0.999473, 53, 65, 84, 192
-0.999478, 149, 33, 180, 288
-0.99948, 17, 209, 144, 240
-0.999487, 325, 327, 340, 342
-0.999488, 233, 175, 248, 190
-0.999488, 299, 291, 314, 306
-0.999488, 299, 337, 314, 352
-0.999489, 59, 213, 74, 228
-0.999489, 219, 189, 234, 204
-0.999489, 245, 157, 260, 172
-0.999489, 315, 89, 330, 104
-0.999489, 249, 239, 264, 254
-0.999489, 455, 181, 470, 196
-0.99949, 225, 181, 352, 212
-0.99949, 471, 221, 486, 236
-0.99949, 331, 111, 346, 126
-0.99949, 319, 323, 334, 338
-0.99949, 333, 343, 348, 358
-0.999491, 307, 347, 322, 362
-0.999491, 33, 183, 48, 198
-0.999492, 461, 259, 476, 274
-0.999492, 197, 179, 212, 194
-0.999492, 467, 209, 482, 224
-0.999493, 287, 83, 302, 98
-0.999493, 251, 233, 266, 248
-0.999494, 333, 333, 348, 348
-0.999496, 325, 107, 340, 122
-0.999496, 203, 183, 218, 198
-0.999496, 447, 293, 462, 308
-0.999497, 241, 163, 256, 178
-0.999497, 449, 275, 464, 290
-0.999497, 255, 245, 270, 260
-0.999497, 327, 333, 342, 348
-0.999497, 213, 145, 228, 272
-0.999498, 455, 277, 470, 292
-0.999498, 417, 307, 432, 322
-0.999498, 433, 163, 448, 178
-0.999499, 65, 207, 80, 222
-0.999499, 305, 225, 432, 256
-0.9995, 269, 259, 284, 274
-0.9995, 349, 123, 364, 138
-0.9995, 323, 309, 338, 324
-0.9995, 223, 297, 238, 312
-0.9995, 447, 173, 462, 188
-0.999501, 441, 325, 456, 340
-0.999502, 435, 335, 450, 350
-0.999502, 209, 17, 336, 80
-0.999503, 321, 197, 336, 212
-0.999504, 367, 131, 382, 146
-0.999504, 319, 103, 334, 118
-0.999505, 425, 159, 440, 174
-0.999505, 413, 325, 428, 340
-0.999505, 461, 225, 476, 352
-0.999506, 269, 33, 300, 288
-0.999506, 443, 299, 458, 314
-0.999506, 53, 209, 68, 224
-0.999508, 149, 47, 164, 62
-0.999508, 209, 289, 224, 304
-0.999509, 291, 241, 306, 368
-0.99951, 455, 265, 470, 280
-0.99951, 205, 229, 220, 244
-0.99951, 455, 271, 470, 286
-0.999511, 309, 57, 340, 120
-0.999511, 257, 141, 272, 156
-0.999513, 439, 167, 454, 182
-0.999513, 449, 281, 464, 296
-0.999514, 311, 209, 326, 224
-0.999514, 217, 195, 232, 210
-0.999515, 223, 219, 238, 234
-0.999515, 329, 311, 344, 326
-0.999515, 101, 33, 132, 160
-0.999515, 261, 135, 276, 150
-0.999516, 433, 313, 448, 328
-0.999517, 305, 319, 320, 334
-0.999517, 423, 317, 438, 332
-0.999519, 67, 219, 82, 234
-0.999519, 217, 293, 232, 308
-0.999519, 177, 49, 208, 112
-0.99952, 343, 119, 358, 134
-0.99952, 245, 231, 260, 246
-0.99952, 309, 97, 324, 112
-0.999521, 469, 215, 484, 230
-0.999522, 297, 345, 312, 360
-0.999523, 139, 249, 154, 264
-0.999523, 323, 177, 338, 304
-0.999523, 291, 325, 306, 340
-0.999524, 41, 215, 56, 230
-0.999524, 355, 125, 370, 140
-0.999524, 321, 349, 336, 364
-0.999524, 303, 331, 318, 346
-0.999525, 205, 235, 220, 250
-0.999525, 267, 127, 282, 142
-0.999526, 335, 353, 350, 368
-0.999526, 431, 241, 446, 368
-0.999527, 473, 193, 488, 320
-0.999527, 269, 65, 284, 192
-0.99953, 53, 199, 68, 214
-0.99953, 315, 339, 330, 354
-0.999532, 411, 309, 426, 324
-0.999532, 325, 129, 356, 375
-0.999532, 321, 339, 336, 354
-0.999534, 261, 249, 276, 264
-0.999534, 279, 125, 294, 140
-0.999537, 435, 305, 450, 320
-0.999537, 43, 193, 58, 208
-0.999537, 401, 329, 416, 344
-0.999538, 287, 103, 302, 118
-0.999538, 69, 213, 84, 228
-0.999543, 9, 65, 40, 320
-0.999544, 47, 211, 62, 226
-0.999545, 327, 201, 342, 216
-0.999546, 53, 215, 68, 230
-0.999555, 445, 287, 460, 302
-0.999556, 417, 313, 432, 328
-0.999558, 265, 225, 280, 352
-0.999558, 145, 129, 176, 375
-0.999559, 317, 203, 332, 218
-0.999561, 239, 223, 254, 238
-0.999562, 197, 177, 212, 304
-0.999562, 429, 307, 444, 322
-0.999563, 39, 187, 54, 202
-0.999563, 113, 85, 240, 116
-0.999565, 225, 49, 352, 80
-0.999566, 49, 117, 176, 148
-0.999566, 133, 249, 148, 264
-0.999569, 161, 69, 288, 100
-0.999569, 221, 201, 236, 216
-0.99957, 231, 211, 246, 226
-0.999575, 317, 211, 332, 226
-0.999575, 281, 113, 296, 128
-0.999577, 37, 199, 52, 214
-0.999577, 271, 121, 286, 136
-0.999577, 309, 91, 324, 106
-0.999578, 303, 225, 318, 352
-0.99958, 47, 205, 62, 220
-0.999583, 305, 341, 320, 356
-0.999584, 97, 25, 352, 88
-0.999585, 285, 241, 300, 368
-0.999586, 257, 57, 500, 120
-0.999587, 415, 319, 430, 334
-0.999588, 243, 145, 258, 272
-0.99959, 299, 89, 314, 104
-0.999591, 441, 293, 456, 308
-0.999592, 263, 255, 278, 270
-0.999593, 279, 225, 294, 352
-0.999597, 281, 65, 296, 192
-0.999599, 455, 161, 470, 288
-0.999599, 211, 235, 226, 250
-0.999599, 275, 115, 290, 130
-0.9996, 437, 299, 452, 314
-0.9996, 257, 49, 272, 176
-0.9996, 373, 97, 404, 352
-0.9996, 293, 109, 308, 124
-0.999601, 327, 351, 342, 366
-0.999601, 257, 61, 384, 92
-0.999601, 389, 81, 420, 208
-0.999601, 17, 161, 48, 288
-0.999602, 297, 327, 312, 342
-0.999606, 233, 217, 248, 232
-0.999607, 337, 65, 400, 192
-0.999608, 281, 313, 312, 375
-0.999608, 225, 207, 240, 222
-0.99961, 271, 241, 286, 368
-0.99961, 423, 311, 438, 326
-0.999612, 61, 219, 76, 234
-0.999614, 285, 121, 300, 136
-0.999614, 31, 195, 46, 210
-0.999616, 15, 97, 30, 224
-0.999617, 281, 107, 296, 122
-0.999617, 235, 209, 250, 336
-0.999618, 205, 129, 220, 256
-0.999624, 411, 129, 426, 256
-0.999624, 407, 325, 422, 340
-0.999625, 117, 241, 148, 304
-0.999626, 183, 161, 198, 288
-0.999634, 219, 145, 234, 272
-0.999635, 127, 161, 142, 288
-0.999635, 317, 209, 332, 336
-0.999637, 201, 225, 216, 352
-0.999639, 323, 207, 338, 222
-0.999641, 227, 209, 242, 336
-0.999642, 447, 241, 462, 368
-0.999642, 135, 161, 150, 288
-0.999643, 145, 177, 160, 304
-0.999643, 199, 129, 214, 256
-0.999644, 177, 273, 208, 336
-0.999646, 287, 65, 302, 192
-0.999648, 197, 33, 228, 288
-0.999652, 237, 145, 252, 272
-0.999653, 417, 145, 432, 272
-0.999654, 289, 115, 304, 130
-0.999656, 21, 97, 36, 224
-0.999657, 379, 113, 394, 240
-0.999658, 259, 225, 274, 352
-0.999659, 425, 241, 440, 368
-0.999662, 305, 83, 320, 98
-0.999662, 1, 61, 128, 92
-0.999664, 29, 81, 44, 208
-0.999664, 145, 273, 272, 304
-0.999668, 309, 225, 324, 352
-0.999669, 55, 177, 70, 304
-0.999671, 439, 145, 454, 272
-0.999672, 151, 145, 166, 272
-0.999673, 405, 129, 420, 256
-0.999674, 193, 129, 224, 375
-0.999675, 225, 49, 256, 176
-0.999677, 121, 97, 152, 352
-0.999678, 225, 145, 240, 272
-0.999679, 317, 161, 332, 288
-0.999682, 307, 65, 322, 192
-0.999683, 121, 97, 136, 224
-0.999687, 265, 113, 280, 240
-0.999693, 345, 1, 408, 375
-0.999693, 251, 49, 266, 176
-0.999695, 413, 241, 428, 368
-0.999697, 243, 209, 258, 336
-0.999699, 257, 221, 384, 252
-0.999702, 385, 129, 400, 256
-0.999703, 97, 245, 224, 276
-0.999704, 167, 177, 182, 304
-0.999705, 53, 33, 84, 288
-0.999705, 281, 113, 296, 240
-0.999708, 445, 161, 460, 288
-0.999708, 473, 241, 488, 368
-0.999713, 249, 209, 264, 336
-0.999714, 295, 193, 310, 320
-0.999719, 397, 129, 412, 256
-0.999719, 253, 129, 268, 256
-0.999719, 269, 129, 300, 375
-0.999722, 419, 241, 434, 368
-0.999726, 367, 113, 382, 240
-0.999729, 323, 225, 338, 352
-0.999733, 175, 161, 190, 288
-0.999735, 157, 145, 172, 272
-0.999736, 21, 65, 52, 320
-0.999736, 129, 33, 256, 64
-0.999742, 259, 113, 274, 240
-0.999742, 121, 161, 136, 288
-0.999745, 127, 97, 142, 224
-0.99975, 115, 97, 130, 224
-0.99975, 337, 241, 352, 368
-0.999751, 9, 97, 24, 224
-0.999754, 65, 129, 80, 256
-0.999756, 191, 209, 206, 336
-0.999757, 327, 129, 342, 256
-0.999762, 423, 145, 438, 272
-0.999763, 109, 1, 140, 256
-0.999764, 373, 113, 388, 240
-0.999766, 59, 49, 74, 176
-0.999768, 343, 113, 358, 240
-0.99977, 429, 145, 444, 272
-0.999773, 109, 129, 124, 256
-0.999775, 37, 161, 52, 288
-0.999776, 181, 33, 212, 160
-0.999777, 95, 145, 110, 272
-0.999777, 391, 129, 406, 256
-0.999779, 97, 109, 224, 140
-0.999781, 115, 161, 130, 288
-0.999782, 151, 193, 166, 320
-0.999784, 65, 129, 96, 256
-0.999785, 21, 145, 36, 272
-0.999787, 145, 65, 160, 192
-0.999788, 467, 241, 482, 368
-0.999788, 329, 241, 344, 368
-0.999789, 103, 129, 118, 256
-0.999791, 81, 33, 208, 64
-0.999794, 307, 161, 322, 288
-0.999797, 179, 209, 194, 336
-0.999797, 27, 145, 42, 272
-0.999798, 349, 113, 364, 240
-0.999801, 161, 193, 176, 320
-0.999805, 349, 241, 364, 368
-0.999806, 421, 97, 452, 224
-0.999808, 75, 193, 90, 320
-0.999808, 121, 225, 152, 352
-0.999809, 221, 241, 236, 368
-0.999812, 271, 113, 286, 240
-0.999812, 133, 81, 148, 208
-0.999813, 245, 49, 260, 176
-0.999814, 65, 193, 80, 320
-0.999816, 293, 65, 308, 192
-0.999817, 359, 241, 374, 368
-0.99982, 49, 177, 64, 304
-0.999825, 105, 177, 120, 304
-0.999828, 133, 241, 164, 368
-0.999828, 185, 209, 200, 336
-0.999833, 343, 241, 358, 368
-0.999834, 323, 81, 338, 208
-0.999835, 281, 17, 296, 144
-0.999835, 39, 65, 54, 192
-0.999835, 217, 49, 232, 176
-0.999835, 87, 161, 102, 288
-0.999837, 271, 17, 286, 144
-0.999837, 69, 49, 84, 176
-0.999838, 141, 129, 156, 256
-0.999847, 65, 33, 96, 288
-0.999849, 113, 97, 240, 128
-0.999849, 97, 1, 128, 256
-0.999851, 65, 129, 128, 375
-0.999855, 321, 109, 448, 140
-0.999857, 133, 97, 164, 352
-0.999861, 321, 97, 352, 224
-0.999902, 33, 33, 160, 64
-0.999906, 113, 73, 240, 104
-0.999906, 205, 129, 236, 375
-0.99991, 313, 129, 344, 375
-0.999923, 177, 129, 208, 375
-0.999934, 65, 233, 192, 264
-0.999937, 161, 113, 288, 144
-0.999946, 169, 33, 200, 288
-0.999946, 321, 125, 448, 156
-0.999954, 305, 169, 432, 200
-0.99996, 305, 49, 368, 112
-0.999981, 77, 65, 108, 320
-0.999983, 97, 121, 224, 152
-0.999984, 161, 45, 288, 76
-0.999988, 273, 253, 400, 284
-1.00003, 321, 105, 448, 168
-1.00003, 357, 97, 388, 352
-1.00003, 157, 129, 188, 375
-1.00005, 225, 33, 480, 96
-1.00005, 65, 85, 192, 116
-1.00006, 181, 33, 212, 288
-1.00008, 161, 309, 288, 340
-1.00008, 49, 221, 176, 252
-1.00009, 49, 129, 176, 160
-1.0001, 1, 41, 500, 104
-1.00011, 161, 313, 288, 375
-1.00012, 53, 129, 84, 375
-1.00013, 101, 129, 132, 375
-1.00015, 289, 129, 320, 375
-1.00018, 89, 97, 120, 352
-1.00019, 1, 185, 500, 248
-1.00021, 33, 297, 288, 360
-1.00025, 1, 265, 500, 328
-1.00027, 401, 233, 464, 296
-1.0003, 81, 33, 112, 160
-1.0003, 169, 33, 200, 160
-1.00032, 393, 33, 424, 288
-1.00034, 329, 33, 360, 288
-1.00035, 273, 17, 304, 144
-1.00037, 337, 129, 368, 375
-1.00042, 309, 33, 340, 288
-1.00043, 341, 113, 372, 240
-1.00043, 1, 233, 500, 296
-1.00047, 337, 81, 464, 144
-1.00048, 1, 25, 256, 88
-1.00052, 149, 113, 180, 240
-1.00052, 201, 25, 264, 88
-1.00053, 281, 33, 312, 288
-1.00054, 65, 129, 96, 375
-1.00055, 425, 33, 456, 288
-1.00056, 405, 33, 436, 288
-1.00059, 289, 113, 320, 240
-1.00059, 449, 33, 480, 288
-1.00061, 369, 1, 400, 256
-1.00064, 145, 73, 208, 136
-1.00066, 241, 97, 272, 224
-1.00068, 381, 1, 412, 256
-1.00069, 469, 129, 500, 375
-1.00075, 341, 33, 372, 288
-1.00078, 157, 209, 188, 336
-1.00079, 345, 33, 408, 288
-1.00083, 73, 193, 104, 320
-1.00083, 357, 1, 388, 256
-1.00084, 297, 33, 328, 288
-1.00087, 385, 33, 448, 288
-1.00097, 85, 193, 116, 320
-1.001, 165, 113, 196, 240
-1.001, 437, 33, 468, 288
-1.00103, 305, 113, 336, 240
-1.00103, 213, 49, 244, 176
-1.00107, 305, 17, 432, 144
-1.00109, 261, 177, 292, 304
-1.0011, 429, 193, 460, 320
-1.00114, 201, 1, 264, 128
-1.00118, 469, 33, 500, 288
-1.0012, 217, 113, 248, 240
-1.00122, 273, 153, 336, 216
-1.00125, 113, 297, 240, 360
-1.00142, 433, 113, 496, 240
-1.00145, 137, 273, 200, 336
-1.00145, 97, 1, 352, 64
-1.00159, 321, 265, 384, 328
-1.00159, 377, 81, 408, 208
-1.00165, 441, 113, 472, 240
-1.00166, 109, 81, 140, 208
-1.0017, 401, 81, 432, 208
-1.00178, 157, 33, 188, 160
-1.00178, 345, 265, 408, 328
-1.00186, 193, 9, 448, 72
-1.0019, 81, 9, 144, 72
-1.00194, 65, 273, 192, 336
-1.00201, 5, 161, 36, 288
-1.00203, 373, 241, 404, 368
-1.00207, 73, 241, 136, 304
-1.00211, 25, 49, 88, 112
-1.00214, 1, 241, 128, 304
-1.00218, 337, 161, 400, 288
-1.0022, 25, 1, 88, 128
-1.00223, 409, 33, 472, 288
-1.00227, 113, 9, 176, 72
-1.00234, 177, 113, 208, 240
-1.00234, 321, 225, 384, 288
-1.00236, 1, 1, 256, 64
-1.00238, 333, 177, 364, 304
-1.00242, 117, 33, 148, 160
-1.00243, 393, 105, 456, 168
-1.00245, 161, 1, 288, 64
-1.00247, 33, 17, 64, 144
-1.00256, 17, 265, 144, 328
-1.00266, 145, 1, 208, 128
-1.00272, 417, 193, 448, 320
-1.00273, 377, 241, 440, 304
-1.00274, 57, 1, 88, 128
-1.00276, 97, 225, 128, 352
-1.00276, 249, 161, 280, 288
-1.00276, 1, 17, 500, 80
-1.0028, 289, 17, 416, 80
-1.00281, 97, 81, 128, 208
-1.00282, 365, 65, 396, 192
-1.00285, 217, 1, 248, 128
-1.00288, 369, 9, 496, 72
-1.00288, 65, 313, 192, 375
-1.00291, 369, 33, 496, 96
-1.00291, 369, 57, 496, 120
-1.00291, 17, 289, 144, 352
-1.00291, 17, 313, 144, 375
-1.00291, 81, 97, 112, 224
-1.00317, 281, 129, 344, 192
-1.00323, 469, 129, 500, 256
-1.00327, 137, 17, 168, 144
-1.00333, 309, 17, 340, 144
-1.00349, 233, 1, 296, 128
-1.0035, 345, 161, 376, 288
-1.00352, 289, 1, 352, 256
-1.00357, 205, 97, 236, 224
-1.00367, 109, 225, 140, 352
-1.00371, 353, 49, 480, 176
-1.00383, 49, 209, 80, 336
-1.00396, 229, 97, 260, 224
-1.00406, 121, 1, 184, 128
-1.00408, 341, 65, 372, 192
-1.00408, 229, 1, 260, 128
-1.00411, 241, 1, 272, 128
-1.0047, 297, 17, 360, 144
-1.00487, 433, 33, 496, 288
-1.00555, 1, 17, 64, 144
-1.00561, 49, 1, 112, 128
-1.00576, 377, 193, 440, 320
-1.00907, 433, 65, 496, 192
-1.00952, 17, 209, 80, 336
-1.01071, 353, 1, 480, 128
-1.01151, 409, 49, 472, 176
-1.01267, 385, 49, 448, 176
-1.01293, 41, 241, 104, 368
-1.01355, 361, 33, 424, 160
-1.01434, 337, 17, 400, 144
-1.01442, 433, 17, 496, 144
-1.01471, 409, 1, 472, 128
-1.01507, 385, 1, 448, 128
