1917
-0.370096, 1, 1, 332, 500
-0.399671, 1, 1, 332, 256
-0.483965, 65, 1, 320, 500
-0.526992, 1, 225, 332, 480
-0.53685, 1, 97, 332, 352
-0.66307, 33, 1, 288, 256
-0.665312, 1, 193, 256, 448
-0.695241, 1, 97, 256, 352
-0.840658, 129, 1, 256, 256
-0.855457, 81, 129, 208, 384
-0.859001, 193, 1, 320, 500
-0.864326, 97, 1, 224, 500
-0.864946, 33, 97, 160, 352
-0.880164, 129, 193, 256, 448
-0.88046, 81, 33, 208, 288
-0.884557, 145, 1, 272, 500
-0.888026, 1, 33, 332, 160
-0.892662, 49, 1, 176, 500
-0.900049, 1, 1, 128, 500
-0.90503, 177, 33, 304, 288
-0.912302, 1, 241, 332, 368
-0.913724, 49, 225, 176, 480
-0.915021, 17, 1, 144, 256
-0.915773, 1, 97, 332, 224
-0.917328, 1, 193, 128, 448
-0.91804, 1, 225, 256, 352
-0.924886, 33, 49, 288, 176
-0.924968, 193, 257, 320, 500
-0.930142, 177, 129, 304, 384
-0.931344, 129, 17, 256, 144
-0.932794, 1, 177, 332, 304
-0.934064, 1, 369, 332, 496
-0.934801, 129, 97, 256, 352
-0.935691, 1, 289, 332, 416
-0.936484, 113, 209, 240, 336
-0.94009, 1, 97, 256, 224
-0.940473, 1, 1, 256, 128
-0.94061, 161, 193, 224, 320
-0.941767, 49, 129, 176, 256
-0.941855, 1, 177, 256, 304
-0.945889, 129, 177, 192, 304
-0.946959, 9, 65, 72, 192
-0.947455, 1, 97, 128, 224
-0.949428, 33, 81, 96, 208
-0.949507, 145, 17, 208, 144
-0.949688, 1, 49, 128, 176
-0.950494, 73, 113, 136, 240
-0.950988, 49, 33, 176, 160
-0.952423, 177, 257, 240, 384
-0.954062, 25, 97, 88, 160
-0.954599, 169, 1, 232, 128
-0.954837, 177, 33, 304, 160
-0.955199, 97, 113, 160, 240
-0.955309, 1, 273, 256, 400
-0.955514, 201, 17, 264, 144
-0.956015, 49, 241, 176, 368
-0.956693, 161, 17, 224, 80
-0.957002, 225, 33, 288, 160
-0.957129, 33, 177, 160, 304
-0.957296, 113, 161, 240, 288
-0.957455, 81, 177, 144, 304
-0.958433, 81, 81, 208, 208
-0.959117, 193, 17, 256, 80
-0.959283, 65, 257, 128, 384
-0.959761, 145, 257, 272, 384
-0.960403, 153, 201, 216, 264
-0.960467, 1, 73, 64, 136
-0.960623, 113, 425, 176, 488
-0.960671, 89, 113, 152, 176
-0.961063, 201, 257, 264, 384
-0.96149, 97, 241, 160, 368
-0.962205, 233, 49, 296, 112
-0.962555, 145, 433, 208, 496
-0.962731, 25, 273, 88, 400
-0.963151, 65, 121, 128, 184
-0.963205, 249, 49, 312, 176
-0.963534, 121, 97, 184, 224
-0.96495, 209, 305, 272, 432
-0.965019, 81, 425, 144, 488
-0.965603, 105, 177, 168, 304
-0.965708, 9, 209, 72, 336
-0.966191, 121, 225, 184, 352
-0.96628, 169, 225, 232, 288
-0.966282, 97, 369, 160, 496
-0.966317, 113, 369, 240, 496
-0.966418, 161, 193, 288, 320
-0.96704, 1, 129, 64, 256
-0.967332, 137, 25, 200, 88
-0.96753, 129, 97, 256, 224
-0.968015, 273, 49, 332, 176
-0.968252, 129, 25, 256, 88
-0.969124, 97, 145, 160, 208
-0.969317, 33, 321, 288, 448
-0.969342, 145, 1, 208, 256
-0.969361, 273, 65, 332, 128
-0.969406, 129, 97, 192, 160
-0.969407, 49, 129, 112, 256
-0.969709, 193, 241, 320, 368
-0.969935, 121, 169, 184, 232
-0.970168, 105, 49, 168, 176
-0.970235, 145, 305, 272, 432
-0.970364, 185, 209, 248, 336
-0.970732, 49, 97, 112, 160
-0.970791, 65, 369, 192, 496
-0.970795, 169, 369, 232, 496
-0.970903, 49, 113, 176, 176
-0.971048, 201, 49, 264, 112
-0.971325, 1, 369, 256, 496
-0.971366, 33, 417, 96, 480
-0.971589, 1, 257, 64, 384
-0.971623, 129, 233, 192, 296
-0.971625, 65, 97, 128, 352
-0.971691, 81, 65, 144, 192
-0.971942, 193, 305, 320, 432
-0.972006, 217, 433, 280, 496
-0.972342, 129, 193, 192, 256
-0.972538, 177, 249, 240, 312
-0.972548, 145, 17, 176, 144
-0.97278, 113, 225, 240, 288
-0.972819, 57, 417, 120, 480
-0.972895, 161, 193, 224, 448
-0.973037, 185, 305, 248, 432
-0.973287, 1, 273, 128, 400
-0.973436, 73, 369, 136, 496
-0.973466, 97, 113, 128, 240
-0.973585, 121, 369, 184, 496
-0.973606, 1, 225, 128, 352
-0.973617, 213, 17, 244, 80
-0.97385, 193, 369, 320, 496
-0.974011, 253, 49, 284, 112
-0.974213, 41, 225, 104, 352
-0.974342, 105, 97, 168, 352
-0.974404, 225, 257, 288, 384
-0.974955, 25, 265, 88, 328
-0.975265, 193, 297, 256, 360
-0.975323, 265, 1, 328, 128
-0.975356, 177, 193, 208, 320
-0.975414, 101, 129, 132, 192
-0.975526, 41, 177, 104, 304
-0.975686, 173, 17, 204, 80
-0.975687, 65, 97, 96, 224
-0.975805, 113, 121, 176, 184
-0.975908, 169, 417, 232, 480
-0.975927, 153, 241, 216, 368
-0.975939, 1, 113, 128, 176
-0.976163, 145, 409, 208, 472
-0.97627, 161, 145, 224, 272
-0.976289, 25, 65, 56, 192
-0.976656, 89, 169, 152, 232
-0.976672, 41, 97, 104, 352
-0.976692, 145, 33, 176, 96
-0.97674, 65, 289, 192, 416
-0.976864, 77, 113, 108, 240
-0.976903, 217, 25, 280, 88
-0.97693, 209, 1, 240, 128
-0.976971, 65, 265, 128, 328
-0.977125, 177, 273, 240, 336
-0.97715, 1, 65, 64, 320
-0.977351, 177, 201, 240, 264
-0.977385, 201, 241, 264, 304
-0.977501, 165, 193, 196, 256
-0.977567, 145, 369, 208, 496
-0.977663, 165, 1, 196, 128
-0.977734, 177, 41, 304, 104
-0.977775, 257, 41, 320, 104
-0.97779, 129, 97, 192, 352
-0.977901, 185, 225, 248, 480
-0.977921, 97, 201, 224, 264
-0.97795, 201, 17, 232, 80
-0.977971, 169, 1, 232, 256
-0.977999, 209, 193, 332, 320
-0.978084, 193, 241, 224, 368
-0.978085, 101, 425, 132, 488
-0.978174, 105, 241, 168, 304
-0.978189, 73, 145, 136, 208
-0.97827, 193, 369, 256, 496
-0.978274, 201, 433, 232, 496
-0.978325, 25, 121, 88, 184
-0.978415, 65, 105, 96, 168
-0.978435, 117, 113, 148, 176
-0.978472, 9, 73, 40, 136
-0.978477, 181, 1, 212, 128
-0.978537, 49, 73, 176, 136
-0.978665, 113, 65, 176, 128
-0.978697, 61, 241, 92, 368
-0.978721, 257, 425, 320, 488
-0.978807, 1, 121, 64, 184
-0.97887, 129, 97, 160, 224
-0.978931, 177, 145, 304, 272
-0.978934, 181, 201, 212, 264
-0.978979, 165, 177, 196, 304
-0.979042, 137, 425, 168, 488
-0.97914, 201, 1, 264, 256
-0.979142, 53, 97, 84, 160
-0.979213, 121, 1, 184, 256
-0.979233, 185, 17, 216, 80
-0.979465, 253, 33, 284, 160
-0.979544, 81, 121, 112, 184
-0.979655, 41, 81, 72, 208
-0.979728, 37, 89, 68, 152
-0.979735, 193, 433, 256, 496
-0.97975, 17, 161, 80, 416
-0.979825, 113, 129, 144, 256
-0.979951, 49, 137, 176, 200
-0.980101, 33, 33, 96, 160
-0.980111, 129, 97, 160, 160
-0.980155, 125, 137, 156, 200
-0.980191, 53, 81, 84, 208
-0.98031, 105, 193, 168, 256
-0.980496, 205, 241, 236, 368
-0.980676, 81, 89, 144, 152
-0.980678, 1, 161, 64, 224
-0.980727, 217, 265, 280, 328
-0.980854, 49, 369, 112, 496
-0.980875, 209, 193, 272, 320
-0.980893, 97, 97, 224, 160
-0.98095, 161, 305, 224, 432
-0.981009, 153, 177, 184, 304
-0.981092, 145, 73, 208, 136
-0.981398, 25, 81, 56, 144
-0.981428, 57, 65, 120, 192
-0.981527, 65, 169, 192, 232
-0.981756, 137, 193, 200, 448
-0.981779, 197, 241, 228, 304
-0.981896, 125, 161, 156, 224
-0.981914, 65, 425, 192, 488
-0.98193, 177, 329, 240, 392
-0.98196, 297, 57, 328, 120
-0.981995, 157, 25, 188, 88
-0.982038, 217, 321, 280, 384
-0.982078, 281, 65, 312, 128
-0.982135, 73, 225, 104, 352
-0.982459, 65, 257, 128, 500
-0.982465, 41, 297, 104, 360
-0.982485, 217, 409, 280, 472
-0.982511, 153, 425, 184, 488
-0.982514, 225, 33, 256, 160
-0.982553, 81, 401, 144, 464
-0.982562, 189, 193, 220, 320
-0.982573, 169, 369, 232, 432
-0.982587, 25, 73, 88, 136
-0.982638, 137, 49, 200, 112
-0.982673, 89, 433, 120, 496
-0.982747, 117, 177, 148, 304
-0.982911, 113, 153, 144, 216
-0.983145, 241, 57, 272, 120
-0.983161, 1, 1, 64, 500
-0.983162, 225, 41, 256, 104
-0.983194, 153, 257, 216, 320
-0.983228, 105, 401, 168, 464
-0.983231, 57, 385, 120, 448
-0.983287, 49, 145, 112, 208
-0.983295, 81, 249, 208, 312
-0.983307, 297, 49, 328, 176
-0.983319, 241, 73, 304, 136
-0.983371, 153, 201, 184, 264
-0.983576, 13, 81, 44, 208
-0.983693, 145, 433, 272, 496
-0.983711, 269, 57, 300, 120
-0.983737, 177, 49, 240, 176
-0.983773, 105, 41, 168, 104
-0.983801, 201, 1, 264, 500
-0.983985, 49, 305, 112, 432
-0.984066, 217, 353, 280, 480
-0.984086, 97, 129, 224, 192
-0.9841, 129, 49, 256, 112
-0.984152, 121, 145, 184, 208
-0.984156, 145, 57, 176, 120
-0.984188, 257, 33, 320, 288
-0.984196, 1, 65, 32, 192
-0.984215, 249, 369, 312, 432
-0.984258, 1, 17, 64, 144
-0.984273, 217, 297, 280, 360
-0.984323, 41, 169, 104, 232
-0.98442, 225, 1, 288, 500
-0.984452, 193, 1, 224, 128
-0.984454, 25, 129, 88, 256
-0.984502, 9, 113, 40, 176
-0.984509, 1, 353, 128, 480
-0.984509, 33, 257, 160, 320
-0.984545, 105, 377, 168, 440
-0.984613, 209, 257, 272, 500
-0.984644, 1, 161, 128, 224
-0.984694, 145, 361, 208, 424
-0.984715, 201, 361, 264, 424
-0.984734, 133, 49, 164, 176
-0.984805, 269, 49, 300, 176
-0.984825, 249, 257, 312, 384
-0.984833, 105, 217, 168, 280
-0.984878, 249, 1, 312, 500
-0.984896, 37, 257, 68, 384
-0.98499, 1, 185, 64, 248
-0.98512, 25, 385, 88, 448
-0.985145, 145, 201, 272, 264
-0.985211, 141, 81, 172, 144
-0.985225, 129, 249, 256, 312
-0.985236, 33, 401, 160, 464
-0.985242, 273, 1, 332, 500
-0.985251, 1, 265, 64, 328
-0.985321, 141, 161, 172, 288
-0.98542, 137, 1, 200, 500
-0.98543, 161, 41, 224, 104
-0.985524, 213, 433, 244, 496
-0.985534, 185, 177, 248, 240
-0.985634, 241, 337, 304, 464
-0.985643, 89, 265, 152, 328
-0.985667, 189, 433, 220, 496
-0.985691, 145, 169, 208, 232
-0.98586, 177, 17, 304, 80
-0.985887, 25, 241, 88, 304
-0.985909, 1, 89, 128, 152
-0.985965, 281, 49, 312, 176
-0.986064, 49, 217, 176, 280
-0.986089, 121, 425, 152, 488
-0.986108, 129, 65, 160, 128
-0.98611, 125, 225, 156, 352
-0.986168, 137, 129, 168, 192
-0.986295, 145, 297, 272, 360
-0.986338, 137, 169, 168, 232
-0.986375, 49, 49, 176, 112
-0.986379, 49, 273, 80, 400
-0.986418, 21, 209, 52, 336
-0.98648, 93, 105, 124, 168
-0.986493, 1, 57, 128, 120
-0.986498, 201, 217, 264, 280
-0.986523, 81, 377, 144, 440
-0.986591, 105, 89, 168, 152
-0.986647, 129, 73, 256, 136
-0.986764, 1, 233, 128, 296
-0.986764, 193, 217, 224, 280
-0.986778, 81, 145, 112, 208
-0.986785, 177, 337, 304, 400
-0.986826, 137, 305, 200, 432
-0.986827, 113, 409, 240, 472
-0.986846, 65, 297, 128, 360
-0.986885, 133, 225, 164, 288
-0.98693, 133, 369, 164, 496
-0.986974, 61, 265, 92, 328
-0.986981, 237, 49, 268, 176
-0.987036, 205, 289, 236, 416
-0.987077, 113, 1, 176, 500
-0.987109, 65, 1, 128, 256
-0.987111, 241, 345, 304, 408
-0.987138, 169, 393, 232, 456
-0.987146, 137, 305, 200, 368
-0.987172, 225, 33, 288, 288
-0.98718, 161, 225, 288, 288
-0.987317, 161, 97, 224, 352
-0.987367, 105, 177, 136, 304
-0.987388, 101, 153, 132, 216
-0.987393, 1, 433, 128, 496
-0.98751, 121, 369, 152, 496
-0.987561, 49, 193, 176, 256
-0.987606, 209, 249, 240, 312
-0.987628, 177, 433, 208, 496
-0.987683, 225, 433, 256, 496
-0.987817, 1, 137, 128, 200
-0.987843, 193, 361, 320, 424
-0.987869, 129, 273, 256, 336
-0.987899, 41, 257, 104, 500
-0.9879, 77, 425, 108, 488
-0.987921, 113, 241, 144, 304
-0.987947, 177, 249, 304, 312
-0.987984, 9, 145, 40, 272
-0.988023, 185, 161, 248, 288
-0.988038, 25, 1, 88, 256
-0.988064, 9, 209, 72, 272
-0.988081, 113, 161, 240, 224
-0.988107, 17, 289, 80, 352
-0.988196, 161, 1, 224, 500
-0.988232, 157, 225, 188, 352
-0.988241, 81, 25, 208, 88
-0.988321, 197, 265, 228, 328
-0.988331, 9, 145, 40, 208
-0.988338, 209, 297, 240, 360
-0.988387, 193, 409, 256, 472
-0.988388, 129, 177, 160, 304
-0.988435, 65, 169, 128, 232
-0.988501, 193, 305, 320, 368
-0.988561, 241, 393, 304, 456
-0.988569, 157, 369, 188, 496
-0.98863, 241, 433, 272, 496
-0.988642, 229, 257, 260, 384
-0.98865, 81, 177, 112, 304
-0.988855, 193, 433, 320, 496
-0.988856, 105, 241, 136, 368
-0.988893, 1, 77, 64, 108
-0.988948, 9, 257, 40, 320
-0.988976, 89, 193, 152, 448
-0.988978, 217, 305, 248, 432
-0.988987, 137, 1, 200, 64
-0.989006, 177, 17, 240, 48
-0.989025, 161, 177, 288, 240
-0.989029, 37, 425, 68, 488
-0.989156, 201, 65, 264, 192
-0.98919, 101, 249, 132, 312
-0.989208, 25, 369, 88, 496
-0.989248, 33, 25, 160, 88
-0.989286, 25, 1, 88, 500
-0.989295, 89, 129, 152, 160
-0.989333, 89, 265, 120, 328
-0.989333, 1, 241, 32, 368
-0.989383, 233, 53, 296, 84
-0.989398, 237, 25, 268, 88
-0.989429, 97, 1, 160, 128
-0.989437, 57, 161, 88, 288
-0.989451, 201, 49, 264, 80
-0.98948, 185, 257, 216, 320
-0.989515, 49, 73, 112, 136
-0.989521, 193, 33, 256, 64
-0.989538, 61, 289, 92, 416
-0.989539, 81, 1, 144, 500
-0.989545, 33, 101, 96, 132
-0.989562, 1, 97, 64, 160
-0.989573, 161, 225, 192, 288
-0.989585, 33, 281, 160, 344
-0.989592, 65, 377, 192, 440
-0.989641, 77, 257, 108, 320
-0.989645, 69, 129, 100, 192
-0.989674, 109, 81, 140, 208
-0.989697, 209, 65, 332, 128
-0.989727, 33, 193, 96, 256
-0.989733, 25, 145, 88, 208
-0.989767, 49, 241, 112, 304
-0.989774, 173, 233, 204, 296
-0.989864, 41, 209, 72, 336
-0.989878, 73, 437, 136, 468
-0.989908, 129, 233, 192, 264
-0.989922, 97, 433, 160, 464
-0.989934, 161, 221, 224, 252
-0.989943, 201, 369, 232, 496
-0.989958, 57, 1, 120, 500
-0.989966, 81, 97, 112, 160
-0.990037, 177, 145, 208, 272
-0.99006, 193, 273, 320, 336
-0.990061, 177, 257, 208, 384
-0.990113, 145, 65, 208, 192
-0.990126, 53, 409, 84, 472
-0.990161, 149, 225, 180, 288
-0.990168, 153, 201, 216, 232
-0.99019, 89, 113, 152, 144
-0.990198, 257, 57, 320, 88
-0.990277, 77, 369, 108, 496
-0.990288, 197, 41, 228, 104
-0.990336, 65, 425, 128, 456
-0.990385, 193, 385, 256, 448
-0.990398, 145, 21, 208, 52
-0.990468, 65, 125, 128, 156
-0.990471, 41, 113, 104, 144
-0.990475, 121, 441, 184, 472
-0.990486, 177, 369, 208, 496
-0.990519, 73, 457, 136, 488
-0.990521, 129, 101, 192, 132
-0.990532, 209, 409, 332, 472
-0.99054, 113, 133, 176, 164
-0.990602, 9, 285, 72, 316
-0.990604, 233, 65, 296, 96
-0.990616, 257, 73, 288, 136
-0.990619, 161, 33, 224, 64
-0.990657, 185, 369, 216, 432
-0.990668, 169, 233, 232, 264
-0.990706, 1, 185, 128, 248
-0.990715, 241, 17, 304, 80
-0.990744, 201, 409, 232, 472
-0.99075, 97, 445, 160, 476
-0.990764, 21, 257, 52, 320
-0.990766, 153, 1, 184, 64
-0.990781, 241, 305, 304, 368
-0.990785, 129, 197, 192, 228
-0.990798, 137, 221, 200, 252
-0.990862, 253, 433, 284, 496
-0.990885, 105, 421, 168, 452
-0.990887, 97, 149, 160, 180
-0.990934, 137, 33, 200, 64
-0.990958, 137, 57, 200, 88
-0.990974, 113, 245, 176, 276
-0.990984, 9, 193, 40, 320
-0.990992, 169, 245, 232, 276
-0.991013, 9, 417, 72, 480
-0.991021, 265, 69, 328, 100
-0.991059, 137, 45, 200, 76
-0.991064, 113, 193, 176, 448
-0.991104, 49, 169, 80, 232
-0.991107, 73, 141, 136, 172
-0.991132, 1, 89, 64, 120
-0.991138, 97, 1, 224, 64
-0.991146, 129, 361, 256, 424
-0.991174, 109, 369, 140, 496
-0.991183, 193, 457, 256, 488
-0.991201, 137, 429, 200, 460
-0.991225, 41, 429, 104, 460
-0.991236, 133, 193, 164, 256
-0.991257, 105, 173, 168, 204
-0.99126, 277, 1, 308, 128
-0.991292, 25, 257, 56, 384
-0.991307, 209, 81, 332, 208
-0.991322, 221, 313, 252, 376
-0.991322, 121, 185, 184, 216
-0.991323, 105, 401, 136, 464
-0.991332, 81, 297, 208, 360
-0.991338, 17, 273, 80, 304
-0.991355, 17, 113, 80, 144
-0.991376, 113, 121, 176, 152
-0.991388, 177, 257, 240, 288
-0.991391, 249, 81, 312, 112
-0.991417, 41, 293, 104, 324
-0.991417, 201, 21, 264, 52
-0.991456, 81, 353, 144, 416
-0.991456, 121, 353, 184, 416
-0.991459, 33, 441, 96, 472
-0.991463, 49, 33, 80, 160
-0.991478, 225, 41, 288, 72
-0.991499, 161, 305, 224, 368
-0.991502, 93, 257, 124, 384
-0.991517, 81, 193, 144, 256
-0.991518, 1, 185, 32, 248
-0.991532, 1, 233, 64, 296
-0.991533, 65, 113, 128, 144
-0.991548, 165, 129, 196, 256
-0.991562, 177, 177, 208, 240
-0.991571, 201, 257, 264, 288
-0.991578, 137, 121, 200, 184
-0.991578, 57, 289, 88, 352
-0.991584, 169, 453, 232, 484
-0.991604, 217, 257, 248, 384
-0.991607, 105, 257, 168, 288
-0.99162, 169, 45, 232, 76
-0.991621, 45, 145, 76, 272
-0.99163, 17, 137, 80, 168
-0.991632, 113, 329, 240, 392
-0.991652, 25, 89, 88, 120
-0.991659, 81, 257, 144, 288
-0.991671, 41, 269, 104, 300
-0.991681, 273, 369, 304, 432
-0.991699, 57, 281, 120, 312
-0.991707, 25, 125, 88, 156
-0.991726, 73, 281, 104, 344
-0.991752, 185, 305, 216, 432
-0.991757, 65, 245, 128, 276
-0.991776, 209, 161, 272, 416
-0.991786, 37, 265, 68, 328
-0.991817, 265, 45, 328, 76
-0.99182, 1, 189, 64, 220
-0.991823, 165, 433, 196, 496
-0.991851, 113, 85, 176, 116
-0.99188, 81, 161, 144, 192
-0.991886, 97, 457, 160, 488
-0.991892, 129, 209, 192, 240
-0.991899, 165, 169, 196, 232
-0.991913, 145, 281, 208, 344
-0.991914, 133, 401, 164, 464
-0.991919, 65, 413, 128, 444
-0.991921, 1, 125, 64, 156
-0.991927, 145, 369, 176, 496
-0.991944, 249, 377, 312, 408
-0.991976, 185, 297, 248, 328
-0.99198, 129, 41, 160, 104
-0.991993, 229, 321, 260, 448
-0.991994, 137, 69, 200, 100
-0.992027, 89, 1, 152, 256
-0.992028, 41, 417, 104, 448
-0.992044, 209, 445, 272, 476
-0.992046, 1, 1, 128, 128
-0.992076, 81, 65, 112, 192
-0.992077, 201, 381, 264, 412
-0.992079, 81, 101, 144, 132
-0.992081, 49, 457, 112, 488
-0.992083, 9, 17, 40, 144
-0.992103, 193, 201, 320, 264
-0.992109, 209, 65, 272, 96
-0.992124, 157, 65, 188, 128
-0.992132, 1, 49, 64, 112
-0.992159, 253, 57, 284, 88
-0.992175, 177, 269, 240, 300
-0.992185, 81, 241, 144, 304
-0.992185, 145, 97, 272, 160
-0.992192, 153, 85, 216, 116
-0.992193, 153, 441, 216, 472
-0.99221, 65, 269, 128, 300
-0.992211, 145, 65, 176, 192
-0.992213, 105, 53, 168, 84
-0.992244, 121, 145, 184, 176
-0.992249, 89, 245, 152, 276
-0.992252, 169, 385, 232, 416
-0.992256, 65, 81, 96, 144
-0.992256, 49, 385, 80, 448
-0.992256, 137, 457, 200, 488
-0.992256, 33, 65, 288, 128
-0.992258, 177, 441, 240, 472
-0.99226, 113, 193, 144, 256
-0.992277, 153, 337, 216, 400
-0.992286, 217, 345, 280, 376
-0.992295, 201, 233, 264, 264
-0.992299, 177, 205, 240, 236
-0.992306, 13, 77, 44, 108
-0.99231, 201, 269, 264, 300
-0.992325, 29, 161, 60, 224
-0.992337, 161, 409, 288, 472
-0.99235, 105, 233, 168, 264
-0.99235, 57, 257, 120, 288
-0.992361, 21, 57, 52, 120
-0.992366, 117, 133, 148, 164
-0.992375, 125, 441, 156, 472
-0.992382, 9, 149, 72, 180
-0.992387, 81, 233, 144, 264
-0.99239, 41, 173, 104, 204
-0.99239, 77, 401, 108, 464
-0.992416, 201, 329, 232, 392
-0.99242, 201, 245, 264, 276
-0.992423, 9, 101, 72, 132
-0.992426, 217, 301, 280, 332
-0.992431, 185, 309, 248, 340
-0.992432, 53, 101, 84, 132
-0.992433, 137, 433, 168, 464
-0.992438, 173, 21, 204, 52
-0.992438, 129, 385, 256, 448
-0.99245, 25, 113, 56, 240
-0.992468, 145, 245, 208, 276
-0.99247, 217, 333, 280, 364
-0.992475, 57, 157, 120, 188
-0.992476, 105, 197, 168, 228
-0.992482, 273, 69, 304, 100
-0.992485, 33, 49, 96, 112
-0.992487, 177, 337, 240, 368
-0.992487, 217, 393, 280, 424
-0.992504, 209, 25, 240, 56
-0.992517, 161, 369, 224, 400
-0.992519, 17, 257, 80, 288
-0.992522, 129, 169, 192, 200
-0.992536, 105, 69, 168, 100
-0.992537, 177, 57, 240, 88
-0.992546, 73, 305, 136, 432
-0.992548, 113, 221, 176, 252
-0.992554, 177, 285, 240, 316
-0.992563, 249, 225, 312, 480
-0.992567, 165, 201, 196, 232
-0.992584, 253, 69, 284, 100
-0.992594, 137, 305, 200, 336
-0.992597, 221, 49, 252, 80
-0.992597, 25, 85, 56, 116
-0.992601, 105, 33, 168, 64
-0.992602, 217, 385, 280, 448
-0.992602, 29, 129, 60, 192
-0.992621, 113, 113, 144, 144
-0.99263, 201, 221, 264, 252
-0.99263, 9, 201, 72, 232
-0.992631, 185, 21, 216, 52
-0.992637, 193, 325, 256, 356
-0.992638, 81, 381, 144, 412
-0.992644, 25, 69, 88, 100
-0.992653, 97, 125, 128, 156
-0.992654, 153, 189, 216, 220
-0.992656, 101, 441, 132, 472
-0.992659, 41, 305, 104, 336
-0.992661, 241, 393, 304, 424
-0.992673, 197, 253, 228, 284
-0.992684, 153, 417, 216, 448
-0.992688, 73, 189, 136, 220
-0.992693, 177, 205, 208, 236
-0.992695, 241, 53, 272, 84
-0.992711, 81, 441, 112, 472
-0.99274, 297, 65, 328, 96
-0.992746, 161, 21, 192, 52
-0.992752, 69, 113, 100, 144
-0.992759, 121, 453, 152, 484
-0.992765, 177, 453, 208, 484
-0.992767, 133, 105, 164, 136
-0.992771, 141, 49, 172, 80
-0.992775, 89, 429, 120, 460
-0.992775, 41, 101, 72, 132
-0.992788, 153, 229, 184, 260
-0.992805, 233, 65, 264, 96
-0.992812, 141, 421, 172, 452
-0.992822, 221, 37, 252, 68
-0.992823, 193, 385, 320, 448
-0.992827, 153, 441, 184, 472
-0.992835, 109, 425, 140, 456
-0.992845, 1, 81, 32, 112
-0.992853, 25, 269, 56, 300
-0.992855, 9, 265, 40, 296
-0.992858, 129, 169, 160, 200
-0.992861, 85, 125, 116, 156
-0.992867, 69, 441, 100, 472
-0.992869, 73, 453, 104, 484
-0.99287, 57, 293, 88, 324
-0.992872, 37, 89, 68, 120
-0.992874, 81, 273, 208, 336
-0.992879, 149, 177, 180, 240
-0.992891, 201, 37, 232, 68
-0.992893, 141, 445, 172, 476
-0.992903, 141, 85, 172, 116
-0.992905, 145, 33, 176, 64
-0.992908, 197, 25, 228, 56
-0.992908, 117, 153, 148, 184
-0.992919, 129, 137, 160, 168
-0.992948, 241, 1, 272, 128
-0.992964, 129, 121, 160, 152
-0.992966, 189, 41, 220, 72
-0.992967, 205, 193, 236, 320
-0.992971, 285, 65, 316, 96
-0.992972, 105, 253, 136, 284
-0.992972, 101, 145, 132, 176
-0.992974, 85, 453, 116, 484
-0.99298, 145, 69, 176, 100
-0.992994, 161, 217, 192, 248
-0.993004, 205, 453, 236, 484
-0.99301, 189, 241, 220, 272
-0.99301, 77, 425, 108, 456
-0.993012, 133, 233, 164, 264
-0.993014, 125, 429, 156, 460
-0.993015, 149, 217, 180, 248
-0.993018, 65, 41, 320, 104
-0.993021, 253, 345, 284, 408
-0.99303, 181, 221, 212, 252
-0.993032, 121, 241, 152, 272
-0.993034, 217, 449, 248, 480
-0.993035, 261, 369, 292, 432
-0.993035, 25, 409, 56, 472
-0.993039, 101, 457, 132, 488
-0.99306, 49, 425, 80, 456
-0.993064, 157, 33, 188, 64
-0.993074, 145, 385, 208, 448
-0.993088, 41, 281, 72, 312
-0.993091, 237, 453, 268, 484
-0.993096, 157, 453, 188, 484
-0.993102, 153, 197, 184, 228
-0.993108, 149, 97, 180, 128
-0.993119, 181, 9, 212, 40
-0.993128, 193, 453, 224, 484
-0.993129, 21, 281, 52, 312
-0.993131, 145, 145, 208, 208
-0.993144, 265, 57, 296, 88
-0.993146, 1, 209, 128, 272
-0.993152, 65, 429, 96, 460
-0.993157, 197, 265, 228, 296
-0.993159, 77, 261, 108, 292
-0.993159, 257, 81, 288, 112
-0.993162, 173, 33, 204, 64
-0.993164, 201, 13, 232, 44
-0.993175, 89, 269, 120, 300
-0.993177, 301, 1, 332, 128
-0.993183, 205, 53, 236, 84
-0.993187, 13, 129, 44, 160
-0.993187, 169, 229, 200, 260
-0.993187, 65, 265, 96, 296
-0.993188, 17, 65, 48, 96
-0.993189, 241, 41, 272, 72
-0.993195, 137, 221, 168, 252
-0.993196, 157, 85, 188, 116
-0.993196, 49, 89, 80, 120
-0.993199, 117, 177, 148, 208
-0.993206, 101, 265, 132, 296
-0.993208, 153, 97, 216, 160
-0.993218, 185, 261, 216, 292
-0.99322, 57, 129, 88, 192
-0.993221, 105, 105, 136, 168
-0.993227, 137, 457, 168, 488
-0.99323, 249, 457, 280, 488
-0.993234, 201, 441, 232, 472
-0.993242, 45, 269, 76, 300
-0.993244, 205, 297, 236, 328
-0.993246, 181, 441, 212, 472
-0.993248, 9, 117, 40, 148
-0.993249, 57, 281, 88, 312
-0.993253, 217, 1, 280, 64
-0.993255, 141, 185, 172, 216
-0.993255, 129, 73, 160, 104
-0.993259, 49, 305, 80, 336
-0.99326, 65, 101, 96, 132
-0.99327, 201, 277, 232, 308
-0.993273, 273, 361, 332, 424
-0.993276, 269, 369, 300, 400
-0.993284, 265, 369, 296, 496
-0.993288, 225, 297, 256, 328
-0.993294, 237, 441, 268, 472
-0.993295, 25, 101, 56, 132
-0.993296, 53, 73, 84, 136
-0.993298, 165, 189, 196, 220
-0.993303, 185, 41, 216, 104
-0.993304, 49, 121, 176, 152
-0.993306, 117, 197, 148, 228
-0.993307, 65, 417, 96, 448
-0.993309, 221, 289, 252, 352
-0.99331, 133, 149, 164, 180
-0.993312, 189, 381, 220, 412
-0.993313, 157, 429, 188, 460
-0.993315, 117, 253, 148, 284
-0.993321, 57, 441, 88, 472
-0.993323, 9, 193, 40, 224
-0.993327, 57, 125, 88, 156
-0.993329, 117, 89, 148, 152
-0.99334, 25, 105, 56, 168
-0.993341, 69, 281, 100, 312
-0.993342, 185, 273, 216, 304
-0.993348, 33, 437, 64, 468
-0.993387, 205, 49, 236, 176
-0.993404, 185, 321, 216, 384
-0.993416, 113, 297, 176, 360
-0.993417, 289, 1, 320, 128
-0.993427, 105, 17, 168, 80
-0.993437, 17, 185, 48, 248
-0.99347, 1, 201, 256, 264
-0.993495, 265, 369, 328, 496
-0.993502, 265, 417, 296, 480
-0.993529, 129, 33, 256, 64
-0.993533, 145, 105, 176, 168
-0.993544, 37, 33, 68, 160
-0.993546, 1, 41, 332, 104
-0.993553, 153, 425, 168, 488
-0.993572, 5, 225, 36, 288
-0.993584, 89, 409, 120, 472
-0.993613, 241, 257, 272, 384
-0.993625, 21, 17, 52, 144
-0.993643, 33, 241, 288, 304
-0.993661, 9, 321, 72, 448
-0.993664, 265, 1, 296, 128
-0.993681, 81, 217, 144, 280
-0.993694, 57, 361, 120, 424
-0.993707, 273, 17, 332, 80
-0.993713, 17, 377, 144, 440
-0.993733, 13, 257, 44, 384
-0.993737, 41, 321, 104, 384
-0.993739, 185, 129, 248, 384
-0.993794, 69, 177, 100, 304
-0.993796, 189, 369, 220, 496
-0.993837, 73, 273, 104, 400
-0.993852, 169, 361, 200, 424
-0.993879, 97, 65, 128, 192
-0.993916, 241, 337, 272, 464
-0.993937, 121, 49, 152, 176
-0.993962, 195, 9, 210, 72
-0.994007, 285, 41, 316, 104
-0.994008, 157, 401, 188, 464
-0.994044, 169, 409, 200, 472
-0.99405, 1, 257, 64, 500
-0.994072, 65, 49, 96, 176
-0.994083, 273, 145, 332, 208
-0.994108, 257, 265, 320, 328
-0.994117, 121, 217, 152, 280
-0.994126, 93, 193, 124, 320
-0.994157, 1, 97, 256, 160
-0.994189, 215, 17, 230, 80
-0.994189, 209, 225, 332, 288
-0.994205, 113, 305, 176, 432
-0.994246, 145, 137, 272, 200
-0.994274, 123, 425, 138, 488
-0.994289, 77, 177, 108, 240
-0.994294, 217, 73, 280, 136
-0.994314, 49, 265, 80, 328
-0.994351, 29, 185, 60, 248
-0.994368, 65, 177, 96, 240
-0.99438, 89, 289, 152, 352
-0.994391, 113, 233, 240, 264
-0.994434, 49, 353, 176, 416
-0.994445, 273, 257, 332, 384
-0.994466, 129, 45, 256, 76
-0.994476, 65, 369, 96, 496
-0.994528, 33, 329, 160, 392
-0.994563, 125, 1, 156, 128
-0.994617, 1, 177, 256, 240
-0.994647, 141, 209, 172, 336
-0.99466, 89, 169, 120, 232
-0.99468, 129, 257, 192, 320
-0.994714, 89, 425, 104, 488
-0.994714, 33, 305, 160, 368
-0.99472, 109, 425, 124, 488
-0.99473, 185, 345, 216, 408
-0.994738, 229, 409, 260, 472
-0.994773, 181, 409, 212, 472
-0.994778, 137, 97, 152, 160
-0.994794, 129, 129, 144, 192
-0.994823, 33, 409, 288, 472
-0.994847, 255, 49, 270, 112
-0.994888, 175, 17, 190, 80
-0.994928, 49, 109, 176, 140
-0.994949, 145, 21, 272, 52
-0.994961, 113, 245, 240, 276
-0.994989, 193, 53, 320, 84
-0.995005, 77, 113, 92, 176
-0.995071, 139, 425, 154, 488
-0.9951, 173, 305, 204, 432
-0.995102, 1, 73, 332, 136
-0.995121, 49, 133, 176, 164
-0.995142, 81, 441, 208, 472
-0.995174, 181, 193, 196, 256
-0.995182, 37, 81, 52, 144
-0.995187, 69, 97, 84, 160
-0.995205, 221, 17, 236, 80
-0.995211, 129, 425, 144, 488
-0.995219, 175, 193, 190, 256
-0.995224, 145, 425, 160, 488
-0.995241, 207, 241, 222, 304
-0.995242, 83, 425, 98, 488
-0.995264, 185, 17, 200, 80
-0.995265, 33, 265, 288, 328
-0.995271, 1, 97, 332, 160
-0.9953, 261, 49, 276, 112
-0.995305, 111, 121, 126, 184
-0.995308, 209, 25, 224, 88
-0.995319, 95, 121, 110, 184
-0.995334, 49, 89, 64, 152
-0.995351, 283, 57, 298, 120
-0.995354, 257, 241, 320, 304
-0.995356, 113, 457, 240, 488
-0.995417, 165, 193, 180, 256
-0.995441, 253, 433, 268, 496
-0.995446, 275, 65, 290, 128
-0.995475, 113, 213, 240, 244
-0.995484, 147, 33, 162, 96
-0.995492, 19, 65, 34, 128
-0.995495, 253, 353, 284, 480
-0.995499, 83, 113, 98, 176
-0.995527, 209, 129, 332, 192
-0.995546, 9, 73, 24, 136
-0.995558, 61, 97, 76, 160
-0.995576, 121, 153, 136, 216
-0.995581, 97, 417, 112, 480
-0.995611, 29, 73, 44, 136
-0.995617, 201, 233, 216, 296
-0.995619, 159, 425, 174, 488
-0.995626, 217, 433, 232, 496
-0.995646, 81, 201, 208, 232
-0.995652, 299, 57, 314, 120
-0.995677, 193, 433, 208, 496
-0.995683, 127, 153, 142, 216
-0.995729, 73, 417, 88, 480
-0.995758, 1, 17, 256, 80
-0.99576, 103, 121, 118, 184
-0.995762, 141, 129, 156, 192
-0.995793, 103, 425, 118, 488
-0.995793, 129, 105, 144, 168
-0.995816, 145, 289, 176, 416
-0.995821, 1, 353, 128, 416
-0.995827, 1, 117, 128, 148
-0.995831, 221, 369, 252, 496
-0.995832, 149, 1, 180, 256
-0.995836, 45, 425, 60, 488
-0.99584, 147, 81, 162, 144
-0.99584, 55, 97, 70, 160
-0.995855, 33, 121, 288, 184
-0.995857, 203, 433, 218, 496
-0.995861, 33, 161, 64, 288
-0.995916, 213, 257, 228, 320
-0.995919, 161, 457, 288, 488
-0.995925, 49, 93, 176, 124
-0.995951, 141, 65, 156, 128
-0.99598, 175, 433, 190, 496
-0.995983, 189, 49, 220, 176
-0.995984, 153, 113, 184, 240
-0.995989, 253, 257, 284, 384
-0.995998, 187, 201, 202, 264
-0.996009, 183, 433, 198, 496
-0.996013, 269, 49, 284, 112
-0.996051, 113, 105, 240, 136
-0.996067, 135, 129, 150, 192
-0.996071, 185, 113, 248, 240
-0.996088, 1, 241, 332, 304
-0.996092, 169, 17, 184, 80
-0.9961, 97, 137, 224, 168
-0.996104, 157, 25, 172, 88
-0.996143, 3, 81, 18, 144
-0.996146, 197, 209, 212, 272
-0.996147, 165, 425, 180, 488
-0.996165, 89, 121, 104, 184
-0.996166, 65, 429, 192, 460
-0.996174, 163, 33, 178, 96
-0.996176, 237, 49, 252, 112
-0.996196, 139, 161, 154, 224
-0.996224, 121, 105, 136, 168
-0.996243, 245, 65, 260, 128
-0.996249, 1, 105, 128, 136
-0.996257, 309, 57, 324, 120
-0.996287, 227, 25, 242, 88
-0.99632, 201, 17, 216, 80
-0.996356, 209, 433, 224, 496
-0.996357, 53, 369, 84, 496
-0.996372, 81, 173, 208, 204
-0.99639, 117, 129, 132, 192
-0.996398, 65, 453, 192, 484
-0.99641, 277, 369, 308, 496
-0.996411, 65, 433, 320, 496
-0.996446, 97, 369, 128, 496
-0.996446, 117, 241, 132, 304
-0.996459, 49, 153, 176, 184
-0.996479, 63, 273, 78, 336
-0.996483, 1, 69, 128, 100
-0.996501, 23, 257, 38, 320
-0.996521, 1, 273, 128, 304
-0.996538, 315, 57, 330, 120
-0.996545, 49, 1, 176, 64
-0.996557, 1, 17, 332, 80
-0.996559, 33, 257, 160, 288
-0.996561, 123, 241, 138, 304
-0.996565, 227, 433, 242, 496
-0.996569, 79, 265, 94, 328
-0.996587, 153, 65, 168, 128
-0.996607, 141, 41, 156, 104
-0.996632, 97, 117, 224, 148
-0.996635, 65, 409, 192, 440
-0.996639, 69, 265, 84, 328
-0.996645, 89, 145, 104, 208
-0.996662, 133, 153, 148, 216
-0.996665, 293, 73, 308, 136
-0.996682, 129, 257, 256, 288
-0.996688, 105, 97, 136, 352
-0.996704, 43, 81, 58, 144
-0.996706, 13, 65, 44, 320
-0.996715, 145, 73, 272, 104
-0.996717, 65, 425, 80, 488
-0.99673, 201, 257, 216, 320
-0.996738, 219, 289, 234, 352
-0.996745, 17, 429, 144, 460
-0.996745, 159, 193, 174, 256
-0.996746, 73, 97, 104, 352
-0.996769, 253, 305, 284, 432
-0.996773, 1, 297, 256, 360
-0.996785, 117, 425, 132, 488
-0.996813, 33, 385, 288, 448
-0.996817, 107, 257, 122, 320
-0.996817, 161, 213, 288, 244
-0.996836, 1, 133, 128, 164
-0.996837, 177, 41, 304, 72
-0.996841, 217, 209, 248, 336
-0.996865, 1, 409, 332, 472
-0.996866, 65, 65, 192, 96
-0.99687, 145, 61, 272, 92
-0.996872, 147, 129, 162, 192
-0.996886, 1, 57, 128, 88
-0.996897, 115, 153, 130, 216
-0.996901, 161, 217, 176, 280
-0.996912, 161, 193, 192, 448
-0.996924, 33, 441, 160, 472
-0.996926, 147, 57, 162, 120
-0.996939, 97, 21, 224, 52
-0.996958, 177, 445, 304, 476
-0.996973, 33, 245, 160, 276
-0.996978, 1, 181, 128, 212
-0.996982, 129, 401, 144, 464
-0.996983, 113, 93, 240, 124
-0.996997, 21, 113, 36, 176
-0.996997, 263, 433, 278, 496
-0.997013, 85, 97, 116, 352
-0.997015, 49, 225, 176, 256
-0.997025, 1, 201, 332, 264
-0.997031, 145, 301, 272, 332
-0.997056, 129, 441, 256, 472
-0.997062, 197, 225, 228, 480
-0.997066, 217, 1, 248, 256
-0.997104, 65, 77, 192, 108
-0.997108, 161, 225, 288, 256
-0.99711, 13, 113, 28, 176
-0.997119, 1, 153, 256, 216
-0.997123, 193, 77, 320, 108
-0.997127, 169, 41, 184, 104
-0.99713, 193, 13, 208, 44
-0.997132, 53, 65, 84, 320
-0.997133, 241, 433, 256, 496
-0.997138, 195, 257, 210, 320
-0.997144, 165, 1, 196, 256
-0.997146, 83, 137, 98, 200
-0.997161, 129, 65, 160, 320
-0.997165, 269, 73, 284, 136
-0.997172, 1, 265, 332, 328
-0.997192, 147, 225, 162, 288
-0.997204, 67, 121, 82, 184
-0.997211, 101, 161, 116, 224
-0.997212, 225, 305, 240, 368
-0.997218, 33, 45, 160, 76
-0.997222, 35, 49, 50, 112
-0.997222, 177, 217, 192, 280
-0.997231, 177, 1, 208, 256
-0.997239, 83, 401, 98, 464
-0.997249, 189, 145, 220, 272
-0.99725, 129, 225, 144, 288
-0.997255, 177, 21, 192, 52
-0.997276, 145, 201, 272, 232
-0.997276, 153, 89, 168, 152
-0.99728, 161, 245, 288, 276
-0.99728, 135, 217, 150, 280
-0.997281, 53, 161, 84, 416
-0.997286, 177, 257, 304, 288
-0.99729, 1, 33, 32, 288
-0.997291, 203, 41, 218, 104
-0.997293, 153, 217, 168, 280
-0.997311, 95, 153, 110, 216
-0.997326, 209, 153, 332, 216
-0.99733, 33, 165, 160, 196
-0.99733, 273, 129, 332, 256
-0.99733, 29, 265, 44, 328
-0.997332, 247, 33, 262, 96
-0.997334, 275, 41, 290, 104
-0.997338, 177, 269, 304, 300
-0.99734, 15, 73, 30, 104
-0.99734, 97, 149, 224, 180
-0.997349, 81, 261, 208, 292
-0.997353, 135, 441, 150, 472
-0.997356, 209, 257, 224, 288
-0.997356, 283, 65, 298, 96
-0.99736, 1, 285, 128, 316
-0.997361, 257, 209, 320, 336
-0.997367, 25, 65, 56, 320
-0.99738, 219, 265, 234, 328
-0.997386, 147, 169, 162, 232
-0.997393, 29, 49, 44, 112
-0.997398, 93, 97, 108, 160
-0.9974, 177, 193, 208, 448
-0.997418, 257, 53, 272, 84
-0.997422, 149, 437, 164, 468
-0.997425, 155, 441, 170, 472
-0.997443, 33, 297, 160, 328
-0.997453, 81, 189, 208, 220
-0.997468, 79, 441, 94, 472
-0.997471, 67, 101, 82, 132
-0.997474, 1, 213, 128, 244
-0.997508, 139, 429, 154, 460
-0.997512, 21, 161, 52, 288
-0.997513, 155, 429, 170, 460
-0.997552, 167, 197, 182, 228
-0.997553, 49, 285, 176, 316
-0.997557, 197, 1, 228, 256
-0.997576, 109, 429, 124, 460
-0.997594, 79, 117, 94, 148
-0.997602, 209, 105, 332, 168
-0.997608, 47, 93, 62, 124
-0.997611, 1, 145, 128, 176
-0.99762, 49, 213, 176, 244
-0.997627, 297, 33, 328, 288
-0.997633, 215, 17, 230, 48
-0.997636, 145, 321, 272, 352
-0.997643, 93, 425, 108, 456
-0.997652, 247, 65, 262, 96
-0.997658, 85, 429, 100, 460
-0.99766, 1, 121, 332, 184
-0.997661, 37, 85, 52, 116
-0.99767, 197, 25, 212, 56
-0.997677, 193, 65, 320, 96
-0.99768, 149, 449, 164, 480
-0.997692, 129, 289, 256, 320
-0.997697, 207, 41, 222, 72
-0.997697, 109, 441, 124, 472
-0.997698, 89, 441, 104, 472
-0.997698, 183, 21, 198, 52
-0.997704, 129, 437, 144, 468
-0.997719, 17, 413, 144, 444
-0.997724, 261, 65, 276, 96
-0.997727, 225, 29, 240, 60
-0.997728, 269, 65, 284, 96
-0.997741, 81, 33, 208, 64
-0.997743, 153, 93, 168, 124
-0.997744, 113, 425, 240, 456
-0.997748, 193, 389, 320, 420
-0.997755, 1, 169, 332, 232
-0.997757, 193, 369, 320, 400
-0.99777, 5, 81, 20, 112
-0.997772, 25, 77, 40, 108
-0.997773, 149, 425, 164, 456
-0.997776, 87, 125, 102, 156
-0.997778, 29, 269, 44, 300
-0.997781, 103, 429, 118, 460
-0.997823, 181, 201, 196, 232
-0.997824, 161, 353, 288, 384
-0.997824, 143, 441, 158, 472
-0.997852, 205, 453, 220, 484
-0.997855, 273, 257, 332, 500
-0.997855, 301, 65, 316, 96
-0.99786, 117, 97, 148, 352
-0.997869, 263, 49, 278, 80
-0.997875, 131, 105, 146, 136
-0.997884, 45, 429, 60, 460
-0.997898, 111, 125, 126, 156
-0.997898, 253, 77, 268, 108
-0.997903, 273, 33, 304, 288
-0.997914, 277, 73, 292, 104
-0.997915, 69, 225, 100, 480
-0.997917, 65, 329, 320, 392
-0.997919, 123, 449, 138, 480
-0.99792, 129, 117, 144, 148
-0.997921, 137, 105, 152, 136
-0.997928, 31, 81, 46, 112
-0.99793, 57, 101, 72, 132
-0.997931, 81, 457, 96, 488
-0.997932, 117, 253, 132, 284
-0.997936, 91, 453, 106, 484
-0.997938, 41, 65, 72, 320
-0.997952, 71, 293, 86, 324
-0.997953, 143, 457, 158, 488
-0.997954, 153, 81, 168, 112
-0.99796, 119, 429, 134, 460
-0.997965, 171, 21, 186, 52
-0.997967, 65, 353, 320, 416
-0.997967, 107, 257, 122, 288
-0.997974, 233, 209, 296, 336
-0.997977, 97, 453, 112, 484
-0.997978, 13, 161, 44, 416
-0.99798, 95, 441, 110, 472
-0.997989, 163, 217, 178, 248
-0.997991, 143, 49, 158, 80
-0.998001, 237, 53, 252, 84
-0.998002, 261, 33, 292, 288
-0.998012, 231, 41, 246, 72
-0.998015, 229, 1, 260, 256
-0.99802, 177, 9, 304, 40
-0.998022, 221, 17, 236, 48
-0.998028, 161, 337, 288, 368
-0.998028, 215, 449, 230, 480
-0.998029, 135, 125, 150, 156
-0.998033, 199, 453, 214, 484
-0.998036, 251, 449, 266, 480
-0.998036, 113, 273, 240, 304
-0.998041, 129, 421, 144, 452
-0.998045, 73, 421, 88, 452
-0.998045, 35, 69, 50, 100
-0.998046, 103, 441, 118, 472
-0.998049, 41, 161, 72, 416
-0.998059, 209, 257, 240, 500
-0.998061, 147, 85, 162, 116
-0.998061, 123, 245, 138, 276
-0.998064, 23, 269, 38, 300
-0.998069, 113, 397, 240, 428
-0.998079, 129, 137, 144, 168
-0.998084, 59, 289, 74, 320
-0.998087, 17, 197, 144, 228
-0.998088, 75, 457, 90, 488
-0.998089, 207, 245, 222, 276
-0.998094, 179, 449, 194, 480
-0.998099, 221, 453, 236, 484
-0.998108, 73, 441, 88, 472
-0.998109, 121, 133, 136, 164
-0.998113, 109, 453, 124, 484
-0.998116, 191, 209, 206, 240
-0.998119, 121, 157, 136, 188
-0.99812, 209, 305, 332, 336
-0.998128, 173, 97, 204, 352
-0.998132, 311, 61, 326, 92
-0.998132, 127, 153, 142, 184
-0.998132, 129, 161, 256, 192
-0.998133, 161, 441, 176, 472
-0.998136, 317, 57, 332, 88
-0.998138, 209, 25, 224, 56
-0.998143, 203, 269, 218, 300
-0.998143, 209, 53, 224, 84
-0.998157, 295, 65, 310, 96
-0.998157, 175, 201, 190, 232
-0.998167, 79, 429, 94, 460
-0.998171, 197, 37, 212, 68
-0.998182, 97, 125, 112, 156
-0.998189, 193, 25, 320, 56
-0.998192, 29, 65, 44, 96
-0.998192, 49, 273, 176, 304
-0.998195, 203, 25, 218, 56
-0.9982, 1, 297, 332, 360
-0.998214, 71, 113, 86, 144
-0.998214, 173, 213, 188, 244
-0.998214, 189, 453, 204, 484
-0.998216, 203, 13, 218, 44
-0.998219, 15, 261, 30, 292
-0.998228, 209, 281, 224, 312
-0.998228, 133, 149, 148, 180
-0.998234, 17, 453, 144, 484
-0.998241, 269, 53, 284, 84
-0.998246, 101, 265, 116, 296
-0.998246, 81, 53, 208, 84
-0.998248, 133, 453, 148, 484
-0.99825, 129, 241, 144, 272
-0.998252, 147, 33, 162, 64
-0.998256, 57, 257, 88, 500
-0.998257, 81, 305, 208, 336
-0.998261, 165, 453, 180, 484
-0.998262, 139, 137, 154, 168
-0.998264, 249, 33, 280, 288
-0.99828, 169, 229, 184, 260
-0.998281, 1, 93, 128, 124
-0.998284, 133, 289, 164, 416
-0.998293, 141, 169, 156, 200
-0.998303, 145, 181, 272, 212
-0.998304, 65, 389, 192, 420
-0.998307, 35, 269, 50, 300
-0.998307, 285, 33, 316, 288
-0.99831, 157, 25, 172, 56
-0.99831, 249, 97, 312, 224
-0.998312, 275, 57, 290, 88
-0.998321, 271, 77, 286, 108
-0.99833, 251, 53, 266, 84
-0.998331, 65, 293, 80, 324
-0.998347, 105, 125, 120, 156
-0.998347, 65, 281, 80, 312
-0.998364, 85, 451, 116, 466
-0.998365, 233, 59, 264, 74
-0.998367, 129, 133, 160, 148
-0.998367, 153, 199, 184, 214
-0.998367, 261, 61, 292, 76
-0.998368, 85, 257, 116, 272
-0.998368, 193, 273, 224, 288
-0.998368, 161, 215, 192, 230
-0.998369, 241, 77, 272, 92
-0.998369, 25, 71, 56, 86
-0.998369, 145, 459, 176, 474
-0.998369, 141, 53, 172, 68
-0.998372, 77, 275, 108, 290
-0.998372, 173, 15, 204, 30
-0.998372, 173, 449, 204, 464
-0.998373, 37, 281, 68, 296
-0.998375, 181, 223, 212, 238
-0.998377, 121, 435, 152, 450
-0.998377, 169, 233, 200, 248
-0.998377, 25, 275, 56, 290
-0.998377, 85, 427, 116, 442
-0.998378, 233, 461, 264, 476
-0.99838, 101, 151, 132, 166
-0.998381, 9, 197, 40, 212
-0.998382, 217, 451, 248, 466
-0.998382, 185, 461, 216, 476
-0.998382, 121, 249, 152, 264
-0.998385, 165, 29, 196, 44
-0.998387, 145, 77, 176, 92
-0.998388, 205, 41, 236, 56
-0.998388, 161, 221, 192, 236
-0.998388, 133, 455, 164, 470
-0.99839, 153, 237, 184, 252
-0.99839, 105, 263, 136, 278
-0.99839, 69, 285, 100, 300
-0.998391, 221, 47, 252, 62
-0.998391, 169, 37, 200, 52
-0.998393, 185, 229, 216, 244
-0.998393, 1, 229, 128, 260
-0.998398, 189, 45, 220, 60
-0.998399, 197, 255, 228, 270
-0.998399, 49, 97, 80, 112
-0.998399, 73, 125, 104, 140
-0.9984, 141, 67, 172, 82
-0.998403, 181, 217, 212, 232
-0.998403, 85, 269, 116, 284
-0.998403, 141, 103, 172, 118
-0.998404, 205, 49, 236, 64
-0.998404, 145, 433, 176, 448
-0.998406, 21, 81, 52, 96
-0.998406, 237, 47, 268, 62
-0.998409, 125, 241, 156, 256
-0.998412, 65, 431, 96, 446
-0.998413, 173, 461, 204, 476
-0.998414, 141, 427, 172, 442
-0.998414, 85, 439, 116, 454
-0.998418, 157, 35, 188, 50
-0.998419, 189, 29, 220, 44
-0.99842, 205, 55, 236, 70
-0.99842, 205, 459, 236, 474
-0.99842, 109, 257, 140, 272
-0.998421, 101, 461, 132, 476
-0.998421, 141, 97, 172, 112
-0.998421, 253, 81, 284, 96
-0.998424, 249, 455, 280, 470
-0.998429, 41, 431, 72, 446
-0.998429, 1, 89, 32, 104
-0.998429, 121, 151, 152, 166
-0.998429, 197, 267, 228, 282
-0.99843, 233, 55, 296, 70
-0.998431, 25, 283, 56, 298
-0.998434, 201, 31, 232, 46
-0.998437, 129, 139, 160, 154
-0.998437, 101, 433, 132, 448
-0.998438, 113, 119, 144, 134
-0.998438, 201, 55, 264, 70
-0.998439, 117, 127, 148, 142
-0.998439, 169, 23, 232, 38
-0.99844, 1, 265, 32, 280
-0.998441, 241, 65, 272, 80
-0.998441, 297, 67, 328, 82
-0.998442, 57, 111, 88, 126
-0.998442, 69, 119, 100, 134
-0.998442, 213, 35, 244, 50
-0.998442, 73, 455, 136, 470
-0.998443, 129, 107, 160, 122
-0.998443, 149, 83, 180, 98
-0.998444, 141, 59, 172, 74
-0.998445, 1, 83, 64, 98
-0.998445, 217, 41, 248, 56
-0.998448, 97, 129, 128, 144
-0.998448, 153, 29, 184, 44
-0.998452, 241, 53, 272, 68
-0.998452, 197, 261, 228, 276
-0.998453, 149, 129, 180, 384
-0.998455, 177, 209, 208, 224
-0.998456, 237, 455, 268, 470
-0.998456, 193, 201, 320, 232
-0.998457, 37, 95, 68, 110
-0.998458, 113, 453, 176, 468
-0.99846, 145, 35, 176, 50
-0.998461, 153, 231, 184, 246
-0.998462, 117, 143, 148, 158
-0.998463, 189, 35, 220, 50
-0.998466, 25, 87, 56, 102
-0.998467, 217, 457, 248, 472
-0.998468, 201, 19, 232, 34
-0.99847, 193, 325, 320, 356
-0.998471, 169, 453, 232, 468
-0.998473, 137, 239, 168, 254
-0.998476, 269, 67, 300, 82
-0.998479, 193, 35, 256, 50
-0.99848, 13, 267, 44, 282
-0.998483, 57, 297, 88, 312
-0.998483, 145, 453, 176, 468
-0.998484, 241, 61, 304, 76
-0.998487, 129, 173, 160, 188
-0.99849, 253, 53, 284, 68
-0.998493, 25, 161, 56, 416
-0.998493, 117, 133, 148, 148
-0.998495, 105, 455, 136, 470
-0.998495, 129, 239, 192, 254
-0.998499, 73, 127, 136, 142
-0.9985, 1, 81, 128, 112
-0.998501, 221, 53, 252, 68
-0.998508, 85, 457, 116, 472
-0.998508, 89, 145, 152, 160
-0.998509, 205, 453, 236, 468
-0.99851, 273, 75, 304, 90
-0.99851, 153, 203, 216, 218
-0.998513, 121, 453, 152, 468
-0.998514, 201, 25, 232, 40
-0.998514, 89, 117, 152, 132
-0.998516, 189, 19, 220, 34
-0.998516, 153, 211, 216, 226
-0.998518, 57, 431, 120, 446
-0.998518, 253, 75, 284, 90
-0.998521, 169, 231, 232, 246
-0.998522, 145, 453, 208, 468
-0.998524, 217, 49, 280, 64
-0.998525, 157, 455, 188, 470
-0.998527, 193, 29, 256, 44
-0.998533, 173, 455, 204, 470
-0.998533, 53, 103, 84, 118
-0.998533, 193, 455, 256, 470
-0.998534, 121, 197, 184, 212
-0.998534, 281, 69, 312, 84
-0.998536, 133, 433, 164, 448
-0.998537, 165, 201, 196, 216
-0.998538, 13, 75, 44, 90
-0.998538, 193, 455, 224, 470
-0.99854, 169, 17, 232, 32
-0.998541, 41, 119, 104, 134
-0.998542, 105, 433, 168, 448
-0.998546, 81, 433, 112, 448
-0.998546, 253, 67, 284, 82
-0.998549, 213, 25, 244, 40
-0.99855, 193, 41, 256, 56
-0.998551, 1, 89, 64, 104
-0.998553, 169, 241, 232, 256
-0.998554, 97, 9, 224, 40
-0.99856, 265, 59, 328, 74
-0.998561, 97, 459, 160, 474
-0.998562, 145, 409, 272, 440
-0.998562, 161, 223, 224, 238
-0.998564, 161, 33, 224, 48
-0.998565, 145, 41, 208, 56
-0.998569, 33, 281, 96, 296
-0.998569, 129, 107, 192, 122
-0.998572, 173, 21, 204, 36
-0.998573, 265, 65, 328, 80
-0.998573, 89, 153, 152, 168
-0.998575, 9, 291, 72, 306
-0.998575, 33, 103, 96, 118
-0.998576, 113, 139, 176, 154
-0.998578, 89, 133, 152, 148
-0.998578, 129, 233, 192, 248
-0.998579, 1, 77, 64, 92
-0.99858, 217, 457, 280, 472
-0.998581, 129, 459, 192, 474
-0.998581, 241, 257, 272, 500
-0.998582, 113, 333, 240, 364
-0.998583, 137, 35, 200, 50
-0.998583, 245, 59, 276, 74
-0.998584, 41, 113, 104, 128
-0.998585, 105, 259, 168, 274
-0.998585, 73, 461, 136, 476
-0.998585, 169, 247, 232, 262
-0.998586, 73, 455, 104, 470
-0.998586, 209, 245, 332, 276
-0.998588, 1, 135, 64, 150
-0.998588, 81, 433, 144, 448
-0.998589, 161, 217, 224, 232
-0.998591, 209, 345, 332, 376
-0.998591, 161, 421, 288, 452
-0.998593, 49, 297, 112, 312
-0.998595, 257, 71, 320, 86
-0.998595, 193, 49, 256, 64
-0.998596, 9, 95, 72, 110
-0.998597, 169, 253, 232, 268
-0.998598, 9, 285, 72, 300
-0.9986, 89, 139, 152, 154
-0.998601, 153, 459, 216, 474
-0.998602, 217, 61, 280, 76
-0.998602, 113, 145, 176, 160
-0.998606, 9, 81, 40, 96
-0.998607, 17, 127, 80, 142
-0.998608, 105, 173, 168, 188
-0.998608, 49, 125, 112, 140
-0.99861, 137, 59, 200, 74
-0.99861, 113, 251, 176, 266
-0.998611, 145, 27, 208, 42
-0.998614, 41, 287, 104, 302
-0.998614, 49, 455, 112, 470
-0.998618, 113, 133, 176, 148
-0.998618, 33, 431, 96, 446
-0.998618, 121, 245, 184, 260
-0.998619, 233, 67, 296, 82
-0.99862, 193, 23, 256, 38
-0.998621, 249, 83, 312, 98
-0.998624, 97, 427, 160, 442
-0.998625, 17, 143, 80, 158
-0.998626, 97, 123, 160, 138
-0.998626, 57, 165, 120, 180
-0.998626, 81, 443, 144, 458
-0.998628, 73, 425, 136, 440
-0.998629, 129, 173, 192, 188
-0.998629, 73, 109, 136, 124
-0.99863, 209, 357, 332, 388
-0.99863, 177, 269, 240, 284
-0.998633, 17, 119, 80, 134
-0.998636, 177, 259, 240, 274
-0.998636, 129, 123, 192, 138
-0.998636, 137, 67, 200, 82
-0.998637, 157, 305, 188, 432
-0.998638, 57, 437, 120, 452
-0.998638, 41, 275, 104, 290
-0.998639, 113, 377, 240, 408
-0.99864, 65, 265, 128, 280
-0.99864, 33, 97, 96, 112
-0.99864, 129, 219, 192, 234
-0.998641, 73, 259, 136, 274
-0.998641, 129, 101, 192, 116
-0.998642, 41, 135, 104, 150
-0.998642, 201, 265, 264, 280
-0.998643, 137, 225, 200, 240
-0.998644, 169, 45, 232, 60
-0.998645, 1, 269, 64, 284
-0.998647, 89, 449, 152, 464
-0.998648, 65, 137, 128, 152
-0.998648, 209, 449, 272, 464
-0.998648, 113, 191, 176, 206
-0.99865, 177, 463, 240, 478
-0.998651, 129, 445, 192, 460
-0.998651, 145, 81, 208, 96
-0.998653, 153, 197, 216, 212
-0.998653, 145, 73, 208, 88
-0.998654, 137, 47, 200, 62
-0.998654, 169, 447, 232, 462
-0.998657, 89, 167, 152, 182
-0.998658, 113, 151, 176, 166
-0.998659, 265, 77, 328, 92
-0.998659, 129, 433, 192, 448
-0.99866, 209, 463, 272, 478
-0.99866, 65, 149, 128, 164
-0.99866, 241, 455, 304, 470
-0.998661, 273, 53, 332, 68
-0.998661, 137, 53, 200, 68
-0.998661, 65, 119, 128, 134
-0.998662, 217, 309, 280, 324
-0.998664, 169, 383, 232, 398
-0.998664, 145, 21, 208, 36
-0.998664, 1, 393, 128, 424
-0.998666, 113, 91, 176, 106
-0.998666, 233, 43, 296, 58
-0.998666, 97, 265, 160, 280
-0.998667, 209, 289, 332, 320
-0.998668, 1, 191, 64, 206
-0.998673, 45, 321, 76, 448
-0.998689, 97, 317, 224, 348
-0.998747, 1, 129, 32, 384
-0.998751, 1, 433, 332, 496
-0.998752, 215, 1, 230, 128
-0.998766, 149, 17, 164, 144
-0.998772, 77, 1, 108, 256
-0.998781, 1, 369, 332, 432
-0.998782, 65, 1, 96, 256
-0.998807, 203, 225, 218, 352
-0.998816, 195, 1, 210, 128
-0.998819, 197, 129, 228, 384
-0.998823, 71, 81, 86, 208
-0.998827, 157, 65, 188, 192
-0.998851, 221, 257, 252, 500
-0.998856, 1, 337, 128, 368
-0.998874, 201, 145, 232, 272
-0.998907, 113, 349, 240, 380
-0.998911, 169, 177, 184, 304
-0.998912, 109, 113, 124, 240
-0.998917, 31, 49, 46, 176
-0.99893, 91, 113, 106, 240
-0.998932, 159, 17, 174, 144
-0.998935, 177, 1, 192, 128
-0.998955, 197, 209, 212, 336
-0.998963, 77, 97, 92, 224
-0.998966, 117, 1, 148, 256
-0.998971, 119, 145, 134, 272
-0.998972, 261, 33, 276, 160
-0.998975, 99, 113, 114, 240
-0.998979, 49, 21, 176, 52
-0.998984, 161, 97, 192, 352
-0.998986, 191, 193, 206, 320
-0.998998, 69, 257, 84, 384
-0.99901, 171, 1, 186, 128
-0.999013, 79, 209, 94, 336
-0.999017, 211, 241, 226, 368
-0.999023, 105, 257, 136, 500
-0.999034, 135, 97, 150, 224
-0.999036, 55, 81, 70, 208
-0.999036, 83, 113, 98, 240
-0.999045, 65, 81, 80, 208
-0.999048, 145, 133, 272, 164
-0.999068, 265, 305, 296, 432
-0.999084, 209, 1, 224, 128
-0.999087, 283, 49, 298, 176
-0.999094, 209, 141, 332, 172
-0.999096, 81, 193, 112, 448
-0.999099, 41, 65, 56, 192
-0.999114, 297, 49, 312, 176
-0.999118, 1, 225, 32, 480
-0.999122, 209, 457, 332, 488
-0.999123, 223, 17, 238, 144
-0.999124, 143, 33, 158, 160
-0.999125, 255, 33, 270, 160
-0.99913, 203, 17, 218, 144
-0.999132, 113, 361, 240, 392
-0.999141, 175, 193, 190, 320
-0.999149, 63, 257, 78, 384
-0.999149, 185, 193, 200, 320
-0.999152, 129, 177, 144, 304
-0.999153, 183, 1, 198, 128
-0.999154, 161, 89, 288, 120
-0.999155, 47, 81, 62, 208
-0.999161, 267, 33, 282, 160
-0.99917, 185, 97, 216, 352
-0.999171, 33, 309, 160, 340
-0.999173, 65, 377, 192, 408
-0.999174, 7, 65, 22, 192
-0.999176, 93, 257, 124, 500
-0.999181, 25, 65, 40, 192
-0.999187, 189, 1, 204, 128
-0.999188, 127, 129, 142, 256
-0.99919, 57, 257, 72, 384
-0.999201, 13, 65, 28, 192
-0.999203, 209, 233, 332, 264
-0.999204, 93, 1, 124, 256
-0.999207, 311, 49, 326, 176
-0.999211, 141, 97, 156, 224
-0.999216, 253, 257, 284, 500
-0.99922, 133, 369, 148, 496
-0.999224, 19, 65, 34, 192
-0.999224, 235, 33, 250, 160
-0.999225, 209, 89, 332, 120
-0.999237, 165, 17, 180, 144
-0.99924, 209, 161, 332, 192
-0.99924, 113, 193, 128, 320
-0.999249, 219, 257, 234, 384
-0.999258, 305, 49, 320, 176
-0.99926, 137, 49, 152, 176
-0.999266, 317, 49, 332, 176
-0.999277, 243, 49, 258, 176
-0.99928, 159, 177, 174, 304
-0.999284, 273, 49, 288, 176
-0.999288, 139, 369, 154, 496
-0.999297, 11, 241, 26, 368
-0.999302, 141, 177, 156, 304
-0.999306, 249, 49, 264, 176
-0.999315, 119, 193, 134, 320
-0.999315, 197, 257, 212, 384
-0.999326, 33, 33, 160, 64
-0.999342, 119, 97, 134, 224
-0.999348, 45, 257, 76, 500
-0.999349, 65, 333, 192, 364
-0.999351, 149, 225, 180, 480
-0.999353, 79, 257, 94, 384
-0.999353, 229, 33, 244, 160
-0.999354, 33, 209, 48, 336
-0.999354, 205, 273, 220, 400
-0.999355, 167, 225, 182, 352
-0.999355, 191, 241, 206, 368
-0.999359, 131, 225, 146, 352
-0.999371, 147, 81, 162, 208
-0.999372, 123, 369, 138, 496
-0.999372, 43, 257, 58, 384
-0.999374, 17, 381, 144, 412
-0.999381, 17, 209, 32, 336
-0.999384, 67, 209, 82, 336
-0.99939, 33, 469, 160, 500
-0.999391, 129, 161, 160, 416
-0.999394, 149, 369, 164, 496
-0.999402, 289, 65, 304, 192
-0.999403, 1, 81, 16, 208
-0.999407, 225, 289, 240, 416
-0.999409, 61, 129, 76, 256
-0.999414, 209, 49, 224, 176
-0.999417, 71, 161, 86, 288
-0.999423, 1, 349, 128, 380
-0.999438, 209, 129, 332, 160
-0.999438, 65, 365, 192, 396
-0.99944, 105, 241, 120, 368
-0.99944, 205, 369, 220, 496
-0.999442, 7, 193, 22, 320
-0.999447, 111, 241, 126, 368
-0.999457, 233, 257, 248, 384
-0.999458, 73, 209, 88, 336
-0.999459, 125, 257, 156, 500
-0.99946, 89, 257, 104, 384
-0.999461, 37, 257, 52, 384
-0.999461, 121, 321, 152, 448
-0.999462, 23, 209, 38, 336
-0.999467, 25, 129, 40, 256
-0.999467, 177, 145, 192, 272
-0.999469, 55, 145, 70, 272
-0.99947, 213, 289, 228, 416
-0.99947, 193, 401, 320, 432
-0.999473, 81, 161, 96, 288
-0.999476, 31, 129, 46, 256
-0.999478, 125, 225, 140, 352
-0.999482, 137, 225, 152, 352
-0.999484, 79, 369, 94, 496
-0.999486, 185, 369, 200, 496
-0.999487, 275, 1, 290, 128
-0.999491, 245, 1, 260, 128
-0.999492, 13, 113, 28, 240
-0.999495, 39, 193, 54, 320
-0.999498, 149, 161, 164, 288
-0.999498, 195, 321, 210, 448
-0.999499, 49, 273, 64, 400
-0.999499, 305, 1, 320, 128
-0.999501, 83, 65, 98, 192
-0.999506, 135, 161, 150, 288
-0.999508, 87, 177, 102, 304
-0.99951, 43, 145, 58, 272
-0.999512, 33, 321, 160, 352
-0.999512, 37, 17, 52, 144
-0.999513, 221, 161, 252, 416
-0.999513, 247, 321, 262, 448
-0.999514, 205, 177, 220, 304
-0.999518, 225, 241, 240, 368
-0.999522, 247, 257, 262, 384
-0.999526, 49, 129, 64, 256
-0.999526, 47, 33, 62, 160
-0.999528, 155, 369, 170, 496
-0.999531, 257, 353, 272, 480
-0.999532, 145, 225, 160, 352
-0.999532, 33, 305, 64, 432
-0.999537, 99, 257, 114, 384
-0.999537, 63, 305, 78, 432
-0.99954, 251, 369, 266, 496
-0.999575, 65, 17, 128, 144
-0.999584, 211, 461, 226, 476
-0.999584, 85, 439, 100, 454
-0.999584, 231, 43, 246, 58
-0.999584, 105, 267, 120, 282
-0.999584, 291, 75, 306, 90
-0.999585, 133, 141, 148, 156
-0.999585, 141, 59, 156, 74
-0.999585, 45, 439, 60, 454
-0.999585, 249, 453, 264, 468
-0.999586, 211, 269, 226, 284
-0.999587, 121, 133, 136, 148
-0.999587, 79, 121, 94, 136
-0.999589, 39, 281, 54, 296
-0.99959, 271, 79, 286, 94
-0.99959, 131, 437, 146, 452
-0.999591, 267, 63, 282, 78
-0.999591, 71, 429, 86, 444
-0.999591, 187, 17, 202, 32
-0.999592, 177, 233, 192, 248
-0.999592, 75, 461, 90, 476
-0.999592, 129, 455, 144, 470
-0.999592, 253, 459, 268, 474
-0.999593, 121, 157, 136, 172
-0.999593, 137, 459, 152, 474
-0.999593, 173, 201, 188, 216
-0.999594, 207, 25, 222, 40
-0.999594, 3, 91, 18, 106
-0.999595, 261, 455, 276, 470
-0.999597, 141, 103, 156, 118
-0.999597, 135, 241, 150, 256
-0.999598, 7, 263, 22, 278
-0.999598, 39, 433, 54, 448
-0.999599, 197, 29, 212, 44
-0.9996, 261, 79, 276, 94
-0.999601, 147, 49, 162, 64
-0.999602, 247, 67, 262, 82
-0.999602, 91, 461, 106, 476
-0.999602, 163, 221, 178, 236
-0.999604, 51, 433, 66, 448
-0.999604, 185, 205, 200, 220
-0.999605, 191, 461, 206, 476
-0.999606, 253, 81, 268, 96
-0.999606, 7, 81, 22, 96
-0.999606, 167, 25, 182, 40
-0.999607, 81, 461, 96, 476
-0.999608, 123, 449, 138, 464
-0.999609, 307, 65, 322, 80
-0.99961, 217, 459, 232, 474
-0.999611, 145, 139, 160, 154
-0.999611, 187, 35, 202, 50
-0.999612, 93, 127, 108, 142
-0.999615, 105, 1, 136, 256
-0.999619, 31, 83, 46, 98
-0.999621, 209, 261, 224, 276
-0.999621, 225, 35, 240, 50
-0.999621, 255, 61, 270, 76
-0.999622, 207, 39, 222, 54
-0.999622, 81, 279, 96, 294
-0.999622, 145, 461, 160, 476
-0.999623, 131, 109, 146, 124
-0.999623, 179, 203, 194, 218
-0.999624, 117, 455, 132, 470
-0.999625, 31, 271, 46, 286
-0.999625, 203, 31, 218, 46
-0.999625, 101, 461, 116, 476
-0.999626, 53, 99, 68, 114
-0.999626, 45, 93, 60, 108
-0.999627, 175, 455, 190, 470
-0.999628, 123, 249, 138, 264
-0.999632, 159, 455, 174, 470
-0.999635, 127, 431, 142, 446
-0.999635, 99, 433, 114, 448
-0.999636, 235, 55, 250, 70
-0.999636, 25, 79, 40, 94
-0.999639, 151, 459, 166, 474
-0.999639, 25, 269, 40, 284
-0.999642, 265, 53, 280, 68
-0.999642, 247, 59, 262, 74
-0.999642, 121, 431, 136, 446
-0.999643, 317, 61, 332, 76
-0.999643, 109, 261, 124, 276
-0.999644, 293, 69, 308, 84
-0.999645, 117, 253, 132, 268
-0.999647, 145, 145, 272, 176
-0.99965, 229, 455, 244, 470
-0.999651, 271, 71, 286, 86
-0.999652, 155, 433, 170, 448
-0.999652, 89, 431, 104, 446
-0.999654, 153, 95, 168, 110
-0.999654, 19, 267, 34, 282
-0.999655, 103, 455, 118, 470
-0.999657, 209, 53, 224, 68
-0.999658, 301, 193, 332, 320
-0.999659, 167, 199, 182, 214
-0.999661, 129, 119, 144, 134
-0.999661, 265, 225, 296, 480
-0.999662, 211, 455, 226, 470
-0.999662, 223, 29, 238, 44
-0.999663, 73, 455, 88, 470
-0.999664, 75, 435, 90, 450
-0.999666, 129, 243, 144, 258
-0.999667, 111, 455, 126, 470
-0.999668, 145, 121, 272, 152
-0.999672, 177, 21, 192, 36
-0.999673, 13, 265, 28, 280
-0.999673, 65, 345, 192, 376
-0.999676, 167, 453, 182, 468
-0.999677, 301, 65, 316, 80
-0.999678, 243, 455, 258, 470
-0.999681, 197, 37, 212, 52
-0.999681, 217, 453, 232, 468
-0.999682, 109, 433, 124, 448
-0.999683, 255, 453, 270, 468
-0.999683, 189, 455, 204, 470
-0.999683, 149, 433, 164, 448
-0.999684, 67, 101, 82, 116
-0.999686, 259, 53, 274, 68
-0.999694, 37, 85, 52, 100
-0.999695, 123, 455, 138, 470
-0.999697, 143, 455, 158, 470
-0.999699, 217, 21, 232, 36
-0.9997, 83, 433, 98, 448
-0.999701, 135, 453, 150, 468
-0.999707, 199, 455, 214, 470
-0.999707, 209, 433, 332, 464
-0.999708, 17, 75, 32, 90
-0.999711, 205, 455, 220, 470
-0.999712, 283, 69, 298, 84
-0.999725, 277, 257, 308, 500
-0.999734, 79, 455, 94, 470
-0.999742, 139, 433, 154, 448
-0.999746, 193, 17, 208, 32
-0.999746, 153, 453, 168, 468
-0.999749, 209, 161, 240, 416
-0.999754, 97, 455, 112, 470
-0.999756, 181, 453, 196, 468
-0.999777, 91, 455, 106, 470
-0.999778, 45, 431, 60, 446
-0.999781, 13, 257, 44, 500
-0.999785, 209, 173, 332, 204
-0.999791, 85, 455, 100, 470
-0.999796, 289, 257, 320, 500
-0.999803, 33, 257, 64, 500
-0.99986, 257, 129, 320, 384
-0.99987, 1, 145, 332, 208
-0.999923, 229, 209, 260, 336
-0.99993, 265, 257, 296, 384
-0.999941, 121, 1, 184, 128
-1.00002, 253, 161, 284, 416
-1.00002, 137, 257, 168, 500
-1.00005, 1, 345, 332, 408
-1.00011, 241, 161, 272, 416
-1.00014, 1, 321, 332, 384
-1.00022, 301, 129, 332, 384
-1.00025, 301, 129, 332, 256
-1.00028, 297, 257, 328, 384
-1.00029, 301, 257, 332, 500
-1.00032, 257, 81, 288, 208
-1.00036, 273, 129, 304, 384
-1.00039, 233, 129, 296, 384
-1.00048, 289, 161, 320, 416
-1.00051, 1, 1, 128, 64
-1.00057, 73, 321, 104, 448
-1.0006, 277, 257, 308, 384
-1.00066, 253, 209, 284, 336
-1.00089, 209, 177, 332, 240
-1.0009, 289, 369, 320, 496
-1.00118, 141, 113, 172, 240
-1.00127, 225, 113, 288, 240
-1.00146, 265, 305, 328, 432
-1.00294, 249, 161, 312, 288
-1.00334, 1, 369, 64, 496
