1433
-0.527978, 1, 1, 320, 218
-0.675033, 1, 1, 256, 218
-0.86788, 65, 1, 192, 218
-0.883001, 113, 1, 240, 218
-0.889316, 1, 97, 320, 218
-0.906452, 33, 81, 288, 208
-0.915004, 1, 1, 128, 218
-0.917196, 1, 49, 320, 176
-0.920271, 161, 1, 288, 218
-0.926679, 57, 97, 120, 218
-0.928473, 33, 97, 96, 218
-0.928624, 121, 33, 184, 160
-0.930242, 81, 49, 208, 176
-0.932039, 17, 97, 144, 218
-0.935805, 65, 33, 320, 160
-0.937281, 1, 97, 64, 218
-0.937882, 97, 97, 224, 218
-0.938724, 1, 1, 320, 128
-0.941513, 153, 97, 216, 218
-0.941598, 177, 97, 304, 218
-0.942286, 113, 41, 176, 104
-0.942763, 145, 49, 208, 176
-0.943337, 185, 97, 248, 218
-0.944807, 81, 97, 144, 218
-0.950228, 121, 81, 184, 208
-0.9505, 73, 129, 136, 192
-0.951017, 49, 105, 112, 168
-0.951446, 89, 49, 152, 176
-0.9519, 225, 97, 288, 218
-0.952454, 33, 49, 160, 176
-0.95374, 33, 145, 96, 208
-0.954566, 73, 153, 136, 216
-0.957125, 105, 137, 168, 200
-0.957511, 9, 137, 72, 200
-0.958887, 9, 105, 72, 168
-0.960244, 129, 33, 256, 160
-0.96193, 161, 105, 224, 168
-0.962193, 33, 1, 160, 128
-0.962517, 153, 153, 216, 216
-0.962706, 257, 145, 320, 208
-0.963046, 185, 49, 248, 176
-0.963166, 185, 97, 248, 160
-0.963677, 97, 65, 160, 128
-0.963725, 113, 17, 176, 80
-0.963798, 185, 137, 248, 200
-0.964651, 137, 65, 200, 128
-0.964787, 225, 129, 288, 192
-0.965374, 57, 49, 120, 176
-0.966031, 1, 105, 32, 168
-0.966217, 73, 97, 136, 160
-0.966795, 97, 1, 160, 128
-0.967251, 153, 129, 216, 192
-0.968137, 129, 153, 192, 216
-0.968245, 125, 33, 156, 96
-0.968314, 41, 97, 72, 218
-0.968647, 61, 97, 92, 218
-0.969153, 225, 153, 288, 216
-0.9693, 93, 97, 124, 218
-0.969305, 25, 49, 88, 176
-0.969359, 125, 1, 156, 128
-0.969392, 89, 113, 120, 176
-0.969418, 161, 65, 224, 128
-0.969454, 241, 49, 304, 176
-0.969612, 97, 113, 160, 176
-0.969719, 117, 129, 148, 192
-0.969978, 81, 97, 112, 218
-0.97001, 1, 49, 64, 176
-0.970205, 49, 129, 176, 192
-0.970389, 137, 41, 200, 104
-0.970467, 121, 1, 184, 218
-0.970722, 145, 33, 176, 160
-0.970753, 101, 129, 132, 192
-0.970828, 73, 73, 136, 136
-0.970907, 129, 129, 192, 192
-0.970933, 185, 97, 216, 218
-0.971222, 1, 129, 32, 192
-0.971414, 137, 105, 200, 168
-0.97155, 49, 81, 112, 144
-0.971998, 77, 145, 108, 208
-0.9721, 9, 81, 72, 144
-0.972251, 157, 49, 188, 112
-0.972349, 141, 33, 172, 96
-0.973175, 225, 89, 288, 152
-0.97346, 193, 153, 320, 216
-0.973529, 17, 153, 144, 216
-0.973714, 193, 49, 320, 176
-0.973781, 241, 1, 304, 128
-0.973933, 65, 153, 192, 216
-0.973954, 249, 97, 312, 218
-0.97411, 33, 137, 64, 200
-0.97417, 29, 97, 60, 218
-0.974183, 13, 129, 44, 192
-0.974285, 161, 1, 224, 128
-0.974578, 117, 49, 148, 176
-0.974593, 81, 1, 208, 128
-0.974682, 177, 1, 304, 128
-0.974813, 33, 105, 160, 168
-0.974881, 81, 57, 208, 120
-0.975089, 49, 145, 80, 208
-0.975256, 1, 97, 32, 218
-0.975638, 185, 65, 248, 128
-0.975731, 49, 121, 80, 184
-0.975882, 233, 97, 264, 218
-0.975954, 81, 41, 144, 104
-0.976015, 41, 97, 72, 160
-0.976081, 173, 97, 204, 218
-0.976331, 65, 105, 96, 168
-0.97651, 181, 105, 212, 168
-0.97658, 169, 89, 200, 152
-0.976645, 121, 153, 152, 216
-0.976702, 97, 129, 224, 192
-0.976751, 49, 1, 112, 218
-0.977019, 41, 1, 104, 128
-0.977032, 157, 33, 188, 160
-0.977316, 65, 33, 192, 96
-0.977657, 77, 113, 108, 176
-0.978045, 129, 9, 160, 72
-0.978287, 29, 113, 60, 176
-0.978397, 61, 129, 92, 192
-0.978688, 89, 153, 120, 216
-0.978772, 113, 153, 240, 216
-0.978782, 105, 81, 136, 208
-0.978898, 225, 89, 256, 152
-0.978899, 53, 97, 84, 160
-0.979299, 193, 113, 320, 176
-0.979309, 225, 1, 288, 64
-0.979449, 1, 129, 128, 192
-0.979626, 177, 153, 208, 216
-0.979632, 161, 41, 224, 104
-0.979659, 137, 129, 168, 192
-0.979743, 97, 105, 224, 168
-0.979856, 201, 153, 232, 216
-0.980025, 81, 17, 144, 80
-0.98005, 97, 89, 160, 152
-0.980435, 141, 57, 172, 120
-0.980449, 97, 1, 160, 218
-0.980505, 49, 1, 112, 64
-0.980528, 105, 57, 136, 120
-0.980609, 73, 1, 136, 128
-0.980934, 161, 81, 192, 208
-0.980959, 13, 97, 44, 218
-0.981352, 61, 153, 92, 216
-0.981435, 13, 105, 44, 168
-0.981437, 233, 121, 264, 184
-0.981473, 13, 153, 44, 216
-0.981525, 9, 1, 72, 218
-0.98153, 81, 81, 208, 144
-0.981541, 129, 65, 160, 192
-0.981547, 273, 145, 304, 208
-0.981569, 145, 129, 272, 192
-0.981593, 109, 153, 140, 216
-0.981621, 261, 1, 292, 128
-0.981641, 121, 57, 152, 120
-0.982044, 29, 89, 60, 152
-0.982114, 49, 49, 80, 176
-0.982163, 81, 89, 112, 152
-0.982639, 157, 153, 188, 216
-0.982811, 177, 129, 208, 192
-0.982903, 249, 121, 312, 184
-0.983027, 105, 33, 136, 160
-0.983223, 97, 81, 128, 144
-0.983408, 145, 49, 272, 112
-0.983477, 73, 1, 136, 218
-0.983567, 33, 9, 160, 72
-0.983842, 161, 1, 224, 218
-0.983903, 133, 153, 164, 216
-0.98391, 77, 49, 108, 176
-0.983953, 237, 89, 268, 152
-0.984047, 17, 33, 144, 96
-0.984058, 249, 1, 312, 64
-0.984191, 1, 153, 32, 216
-0.984301, 197, 97, 228, 218
-0.984481, 113, 33, 144, 96
-0.984508, 221, 97, 252, 218
-0.984644, 161, 89, 288, 152
-0.984669, 225, 65, 288, 128
-0.984686, 17, 81, 144, 144
-0.984781, 141, 81, 172, 208
-0.984814, 189, 153, 220, 216
-0.984903, 93, 49, 124, 176
-0.984946, 137, 17, 200, 80
-0.985113, 225, 145, 256, 208
-0.985364, 177, 49, 208, 176
-0.985451, 117, 97, 148, 218
-0.985863, 169, 65, 200, 128
-0.985937, 105, 105, 136, 168
-0.986144, 113, 25, 240, 88
-0.986263, 1, 81, 32, 144
-0.986339, 117, 105, 148, 168
-0.986415, 241, 1, 304, 218
-0.986417, 185, 1, 248, 218
-0.986527, 261, 145, 292, 208
-0.986628, 49, 57, 112, 120
-0.98698, 117, 9, 148, 72
-0.98709, 157, 73, 188, 136
-0.987188, 249, 97, 312, 160
-0.987211, 25, 1, 88, 64
-0.987282, 153, 25, 184, 88
-0.987291, 193, 89, 224, 152
-0.987295, 217, 113, 248, 176
-0.987401, 33, 57, 160, 120
-0.987535, 21, 49, 52, 176
-0.987599, 1, 49, 32, 176
-0.987664, 289, 121, 320, 184
-0.987702, 289, 153, 320, 216
-0.98771, 65, 153, 128, 184
-0.987805, 157, 97, 188, 160
-0.987888, 245, 65, 276, 192
-0.98793, 61, 49, 92, 176
-0.987971, 1, 9, 64, 72
-0.987996, 25, 157, 88, 188
-0.988036, 253, 1, 284, 64
-0.988041, 89, 153, 152, 184
-0.988108, 49, 165, 112, 196
-0.98818, 161, 17, 224, 80
-0.988303, 121, 41, 184, 72
-0.988399, 197, 129, 228, 192
-0.988471, 73, 165, 136, 196
-0.988552, 141, 1, 172, 64
-0.988673, 261, 121, 292, 184
-0.988692, 57, 109, 120, 140
-0.988827, 245, 65, 276, 128
-0.988837, 113, 153, 176, 184
-0.9889, 49, 141, 112, 172
-0.988929, 89, 137, 152, 168
-0.988939, 41, 25, 104, 88
-0.988982, 105, 61, 168, 92
-0.989023, 33, 113, 96, 144
-0.989158, 105, 165, 168, 196
-0.989238, 185, 169, 248, 200
-0.989279, 245, 121, 276, 184
-0.989285, 57, 185, 120, 216
-0.989334, 65, 125, 128, 156
-0.989366, 33, 49, 64, 176
-0.98939, 137, 65, 200, 96
-0.989411, 157, 121, 188, 184
-0.989417, 65, 1, 96, 64
-0.989471, 33, 177, 96, 208
-0.989513, 185, 113, 248, 144
-0.98953, 33, 145, 288, 208
-0.989549, 1, 153, 64, 184
-0.989554, 25, 129, 88, 160
-0.989611, 1, 113, 64, 144
-0.989629, 161, 169, 224, 200
-0.989629, 89, 125, 152, 156
-0.989683, 33, 1, 64, 64
-0.98971, 33, 101, 96, 132
-0.989838, 113, 1, 240, 64
-0.989854, 213, 153, 244, 216
-0.989941, 129, 53, 192, 84
-0.989948, 17, 141, 80, 172
-0.990014, 261, 97, 292, 218
-0.990015, 161, 105, 224, 136
-0.990049, 201, 97, 264, 128
-0.990125, 161, 25, 288, 88
-0.990174, 113, 141, 176, 172
-0.990218, 217, 1, 280, 128
-0.990364, 49, 73, 80, 136
-0.990393, 225, 157, 288, 188
-0.990402, 9, 169, 72, 200
-0.990406, 249, 145, 280, 208
-0.99046, 225, 89, 288, 120
-0.990501, 153, 157, 216, 188
-0.990538, 185, 157, 248, 188
-0.99054, 213, 89, 244, 152
-0.990582, 241, 145, 304, 176
-0.990586, 237, 145, 268, 208
-0.990591, 113, 73, 176, 104
-0.990608, 185, 181, 248, 212
-0.990652, 9, 101, 72, 132
-0.990656, 145, 153, 176, 216
-0.990657, 81, 177, 144, 208
-0.990664, 113, 29, 176, 60
-0.990682, 69, 81, 100, 144
-0.990724, 129, 169, 192, 200
-0.990768, 145, 185, 208, 216
-0.990799, 225, 133, 288, 164
-0.99083, 105, 185, 168, 216
-0.99083, 193, 1, 320, 64
-0.990856, 185, 125, 248, 156
-0.990887, 1, 125, 64, 156
-0.99089, 153, 117, 216, 148
-0.990893, 65, 113, 320, 176
-0.990909, 161, 57, 224, 88
-0.990926, 137, 129, 200, 160
-0.991048, 225, 109, 288, 140
-0.991065, 289, 97, 320, 218
-0.991139, 173, 41, 204, 104
-0.991161, 81, 65, 144, 96
-0.991209, 81, 53, 144, 84
-0.991249, 181, 73, 212, 136
-0.991323, 93, 57, 124, 120
-0.99134, 113, 125, 176, 156
-0.991356, 249, 65, 312, 128
-0.991365, 33, 89, 96, 120
-0.991383, 65, 89, 320, 152
-0.991437, 273, 121, 304, 184
-0.991439, 185, 41, 248, 104
-0.991488, 277, 65, 308, 192
-0.991505, 153, 93, 216, 124
-0.991525, 1, 57, 64, 120
-0.991547, 225, 121, 288, 152
-0.991606, 201, 85, 264, 116
-0.991608, 249, 1, 280, 128
-0.991633, 17, 13, 80, 44
-0.991671, 161, 77, 224, 108
-0.991677, 249, 157, 312, 188
-0.991692, 89, 21, 152, 52
-0.991702, 217, 169, 280, 200
-0.991723, 101, 25, 132, 88
-0.991726, 233, 1, 296, 32
-0.991739, 57, 97, 120, 128
-0.991748, 97, 105, 160, 136
-0.99178, 33, 165, 160, 196
-0.991784, 137, 105, 200, 136
-0.991786, 9, 181, 72, 212
-0.991794, 137, 145, 200, 176
-0.99183, 17, 33, 80, 96
-0.991835, 1, 1, 64, 128
-0.991847, 89, 41, 152, 72
-0.991852, 217, 145, 280, 176
-0.991922, 109, 153, 140, 184
-0.991946, 65, 57, 320, 120
-0.991962, 89, 153, 120, 184
-0.991963, 185, 137, 248, 168
-0.991966, 117, 137, 148, 168
-0.991971, 161, 129, 224, 160
-0.991972, 161, 37, 224, 68
-0.992012, 49, 13, 112, 44
-0.992026, 121, 85, 184, 116
-0.992047, 145, 25, 208, 56
-0.992056, 81, 93, 144, 124
-0.992068, 241, 181, 304, 212
-0.99213, 241, 77, 304, 108
-0.992146, 209, 181, 272, 212
-0.992162, 69, 141, 100, 172
-0.992178, 13, 81, 44, 144
-0.992182, 249, 133, 312, 164
-0.992194, 257, 169, 320, 200
-0.992196, 173, 105, 204, 136
-0.99222, 121, 17, 184, 48
-0.992229, 53, 125, 84, 156
-0.992235, 33, 113, 64, 144
-0.992252, 177, 169, 208, 200
-0.99227, 257, 1, 320, 32
-0.992273, 121, 153, 152, 184
-0.992275, 57, 73, 120, 104
-0.992284, 89, 125, 120, 156
-0.99229, 89, 77, 152, 108
-0.992312, 49, 145, 80, 176
-0.992314, 69, 109, 100, 140
-0.99232, 49, 157, 80, 188
-0.992322, 1, 153, 320, 216
-0.992327, 17, 157, 48, 188
-0.992333, 73, 169, 104, 200
-0.992336, 73, 153, 104, 184
-0.99234, 101, 165, 132, 196
-0.992342, 29, 153, 60, 184
-0.992346, 101, 129, 132, 160
-0.992363, 57, 61, 120, 92
-0.992377, 113, 165, 144, 196
-0.992378, 217, 21, 280, 52
-0.992383, 69, 129, 100, 160
-0.992394, 85, 165, 116, 196
-0.992405, 1, 113, 32, 144
-0.992417, 33, 133, 64, 164
-0.992425, 81, 65, 112, 128
-0.992432, 41, 101, 72, 132
-0.992433, 113, 61, 144, 92
-0.992436, 85, 185, 116, 216
-0.992454, 233, 89, 264, 120
-0.992458, 5, 157, 36, 188
-0.992463, 185, 109, 216, 140
-0.992465, 61, 169, 92, 200
-0.992466, 25, 1, 88, 32
-0.992469, 21, 113, 52, 144
-0.992476, 125, 21, 156, 52
-0.992481, 81, 109, 112, 140
-0.992482, 153, 65, 184, 96
-0.992485, 9, 85, 72, 116
-0.992485, 105, 141, 136, 172
-0.992496, 49, 169, 80, 200
-0.992504, 53, 109, 84, 140
-0.992518, 161, 145, 224, 176
-0.992521, 1, 125, 32, 156
-0.992528, 97, 185, 128, 216
-0.992555, 129, 33, 160, 64
-0.992563, 73, 181, 104, 212
-0.992568, 41, 29, 104, 60
-0.992578, 193, 169, 224, 200
-0.992578, 1, 137, 32, 168
-0.992585, 209, 1, 272, 32
-0.992588, 1, 25, 64, 56
-0.99259, 177, 89, 240, 120
-0.992591, 193, 49, 224, 176
-0.992595, 113, 125, 144, 156
-0.992617, 209, 97, 240, 218
-0.992618, 149, 45, 180, 76
-0.992622, 201, 33, 264, 64
-0.992655, 137, 145, 168, 176
-0.992663, 37, 165, 68, 196
-0.992663, 33, 153, 160, 184
-0.99267, 1, 61, 64, 92
-0.992671, 61, 157, 92, 188
-0.992673, 81, 9, 144, 40
-0.992686, 129, 61, 160, 92
-0.992686, 273, 145, 304, 176
-0.992694, 157, 165, 188, 196
-0.992699, 201, 73, 264, 104
-0.99272, 249, 101, 312, 132
-0.992726, 121, 45, 152, 76
-0.992727, 205, 165, 236, 196
-0.992727, 1, 169, 32, 200
-0.99273, 217, 169, 248, 200
-0.992743, 17, 125, 48, 156
-0.992756, 33, 77, 96, 108
-0.992761, 21, 137, 52, 168
-0.992765, 101, 117, 132, 148
-0.992778, 233, 121, 264, 152
-0.992782, 109, 185, 140, 216
-0.992794, 165, 89, 196, 120
-0.992799, 125, 165, 156, 196
-0.992807, 57, 9, 88, 40
-0.992809, 173, 181, 204, 212
-0.992828, 13, 169, 44, 200
-0.992832, 225, 109, 256, 140
-0.992832, 177, 157, 208, 188
-0.99284, 1, 73, 64, 104
-0.992846, 81, 97, 112, 128
-0.99287, 185, 97, 216, 128
-0.992876, 181, 129, 212, 160
-0.992877, 213, 105, 244, 136
-0.992888, 29, 101, 60, 132
-0.992895, 257, 29, 320, 60
-0.992896, 61, 181, 92, 212
-0.99293, 101, 65, 132, 96
-0.992932, 241, 13, 304, 44
-0.992933, 53, 97, 84, 128
-0.992939, 49, 181, 80, 212
-0.992941, 137, 133, 168, 164
-0.992945, 197, 113, 228, 144
-0.992947, 29, 177, 60, 208
-0.992949, 93, 141, 124, 172
-0.992961, 109, 49, 140, 80
-0.992964, 81, 169, 208, 200
-0.992968, 1, 101, 32, 132
-0.99298, 261, 149, 292, 180
-0.993007, 137, 157, 168, 188
-0.99302, 193, 157, 224, 188
-0.993024, 97, 105, 128, 136
-0.99303, 141, 69, 172, 100
-0.993031, 141, 57, 172, 88
-0.993042, 113, 21, 144, 52
-0.993048, 81, 141, 112, 172
-0.993055, 161, 53, 192, 84
-0.993059, 157, 177, 188, 208
-0.993059, 161, 153, 192, 184
-0.993066, 261, 1, 292, 32
-0.993067, 157, 41, 172, 104
-0.993073, 221, 89, 252, 120
-0.993076, 141, 33, 172, 64
-0.993078, 245, 101, 276, 132
-0.993079, 161, 77, 192, 108
-0.99308, 197, 101, 228, 132
-0.993085, 173, 117, 204, 148
-0.993092, 145, 169, 176, 200
-0.993093, 69, 97, 100, 128
-0.9931, 193, 181, 224, 212
-0.993104, 33, 81, 64, 112
-0.993112, 233, 137, 264, 168
-0.993118, 129, 185, 160, 216
-0.993123, 285, 145, 316, 176
-0.993129, 5, 105, 20, 168
-0.993129, 245, 121, 276, 152
-0.993131, 213, 149, 244, 180
-0.993133, 233, 157, 264, 188
-0.993141, 101, 77, 132, 108
-0.993144, 257, 113, 320, 144
-0.993145, 13, 101, 44, 132
-0.99315, 121, 73, 152, 104
-0.993155, 69, 1, 100, 128
-0.993169, 245, 81, 276, 112
-0.993173, 217, 181, 248, 212
-0.99318, 137, 105, 168, 168
-0.993184, 41, 17, 72, 48
-0.993195, 233, 53, 296, 84
-0.993201, 205, 177, 236, 208
-0.993204, 93, 93, 124, 124
-0.993208, 249, 41, 312, 72
-0.99321, 61, 21, 92, 52
-0.99321, 173, 73, 204, 104
-0.993212, 217, 129, 248, 160
-0.993223, 289, 177, 320, 208
-0.993227, 249, 89, 312, 120
-0.993246, 261, 137, 292, 168
-0.993246, 137, 45, 168, 76
-0.993248, 241, 65, 304, 96
-0.993253, 149, 153, 180, 184
-0.993267, 45, 81, 76, 112
-0.993269, 49, 33, 80, 64
-0.993283, 117, 33, 148, 64
-0.993286, 77, 1, 108, 32
-0.993402, 49, 129, 176, 160
-0.993427, 65, 41, 128, 72
-0.993454, 147, 33, 162, 96
-0.993455, 57, 85, 120, 116
-0.993463, 17, 37, 80, 68
-0.99347, 237, 81, 252, 144
-0.993481, 201, 61, 264, 92
-0.9935, 17, 113, 144, 144
-0.993551, 217, 65, 248, 128
-0.993582, 33, 57, 96, 88
-0.993585, 57, 1, 120, 32
-0.993616, 233, 25, 296, 88
-0.993629, 177, 9, 240, 40
-0.993685, 131, 129, 146, 192
-0.993694, 121, 1, 184, 32
-0.993695, 225, 41, 288, 72
-0.993709, 1, 49, 64, 80
-0.993714, 165, 49, 180, 112
-0.993718, 177, 21, 240, 52
-0.993728, 257, 53, 320, 84
-0.993759, 65, 45, 192, 76
-0.99377, 1, 113, 320, 176
-0.993788, 201, 45, 264, 76
-0.993791, 1, 1, 64, 32
-0.993792, 265, 1, 296, 64
-0.993846, 133, 9, 148, 72
-0.993897, 217, 49, 248, 176
-0.993905, 41, 41, 104, 72
-0.993908, 141, 33, 156, 96
-0.993922, 145, 13, 208, 44
-0.993947, 125, 33, 140, 96
-0.994, 65, 25, 128, 56
-0.99408, 125, 129, 140, 192
-0.994136, 129, 173, 256, 204
-0.994155, 93, 105, 108, 168
-0.994155, 193, 65, 320, 128
-0.994172, 97, 117, 224, 148
-0.994173, 257, 25, 320, 88
-0.994212, 1, 89, 320, 152
-0.994223, 185, 1, 248, 64
-0.994229, 187, 97, 202, 160
-0.99427, 71, 105, 86, 168
-0.994282, 193, 161, 320, 192
-0.994287, 257, 73, 288, 136
-0.99434, 145, 1, 208, 32
-0.99441, 117, 129, 132, 192
-0.994439, 81, 149, 208, 180
-0.994448, 65, 145, 80, 208
-0.994532, 209, 1, 272, 218
-0.994612, 261, 25, 292, 88
-0.994644, 81, 61, 208, 92
-0.99468, 73, 129, 88, 192
-0.994687, 63, 121, 78, 184
-0.994729, 53, 97, 68, 160
-0.994736, 181, 97, 196, 160
-0.994766, 177, 173, 304, 204
-0.994802, 83, 121, 98, 184
-0.994812, 53, 121, 68, 184
-0.994815, 241, 1, 272, 64
-0.994829, 289, 97, 320, 160
-0.994832, 15, 129, 30, 192
-0.994863, 5, 129, 20, 192
-0.994878, 51, 145, 66, 208
-0.994906, 131, 33, 146, 96
-0.994942, 79, 153, 94, 216
-0.994955, 33, 185, 160, 216
-0.994964, 87, 145, 102, 208
-0.994994, 185, 153, 200, 216
-0.995045, 161, 109, 288, 140
-0.995078, 103, 129, 118, 192
-0.995102, 111, 137, 126, 200
-0.995114, 13, 105, 28, 168
-0.995122, 43, 81, 58, 144
-0.995126, 173, 81, 188, 144
-0.995161, 1, 65, 320, 128
-0.995172, 81, 97, 96, 160
-0.995184, 61, 97, 76, 160
-0.995217, 121, 153, 136, 216
-0.995224, 123, 57, 138, 120
-0.995227, 113, 129, 240, 160
-0.995255, 49, 21, 176, 52
-0.995265, 97, 105, 224, 136
-0.995274, 137, 137, 152, 200
-0.995288, 111, 113, 126, 176
-0.995292, 65, 17, 320, 80
-0.995358, 81, 185, 208, 216
-0.995397, 113, 45, 240, 76
-0.995411, 179, 153, 194, 216
-0.995438, 17, 101, 144, 132
-0.995464, 93, 145, 108, 208
-0.995483, 193, 153, 208, 216
-0.995485, 283, 137, 298, 200
-0.995495, 25, 129, 40, 192
-0.995498, 127, 9, 142, 72
-0.995512, 117, 57, 132, 120
-0.995526, 9, 1, 40, 64
-0.995528, 43, 137, 58, 200
-0.995578, 57, 153, 72, 216
-0.995593, 209, 49, 272, 176
-0.995619, 157, 65, 172, 128
-0.995631, 47, 105, 62, 168
-0.995635, 21, 105, 36, 168
-0.995654, 237, 113, 252, 176
-0.995658, 137, 1, 168, 218
-0.995666, 193, 97, 208, 160
-0.995682, 77, 1, 108, 64
-0.995699, 145, 161, 272, 192
-0.995729, 17, 141, 144, 172
-0.995737, 209, 25, 272, 88
-0.995789, 171, 57, 186, 120
-0.995796, 35, 105, 50, 168
-0.995798, 199, 153, 214, 216
-0.995813, 71, 153, 86, 216
-0.995866, 31, 129, 46, 192
-0.995928, 193, 97, 320, 128
-0.995965, 151, 65, 166, 128
-0.995986, 81, 41, 112, 104
-0.996026, 273, 1, 304, 128
-0.996027, 13, 153, 28, 216
-0.99603, 103, 153, 118, 216
-0.996049, 97, 93, 224, 124
-0.996073, 143, 129, 158, 192
-0.996079, 127, 153, 142, 216
-0.996111, 41, 105, 56, 168
-0.996123, 145, 185, 272, 216
-0.996197, 105, 81, 120, 144
-0.9962, 119, 33, 134, 96
-0.996203, 177, 121, 304, 152
-0.996211, 193, 145, 320, 176
-0.996222, 97, 33, 224, 64
-0.996279, 27, 89, 42, 152
-0.996309, 21, 153, 36, 216
-0.996311, 237, 145, 252, 208
-0.99632, 277, 137, 292, 200
-0.996336, 99, 105, 114, 168
-0.996352, 29, 1, 60, 128
-0.996383, 145, 81, 176, 144
-0.996406, 179, 73, 194, 136
-0.996411, 65, 73, 192, 104
-0.996416, 119, 105, 134, 168
-0.996439, 129, 145, 256, 176
-0.996453, 139, 9, 154, 72
-0.996458, 115, 125, 130, 156
-0.996465, 103, 57, 118, 120
-0.996471, 21, 17, 52, 80
-0.996473, 165, 25, 180, 88
-0.996475, 7, 153, 22, 216
-0.996489, 145, 57, 272, 88
-0.99649, 113, 153, 128, 184
-0.996492, 73, 1, 104, 218
-0.996494, 189, 121, 204, 184
-0.996511, 49, 33, 176, 64
-0.996529, 45, 1, 76, 64
-0.99653, 27, 153, 42, 216
-0.99654, 93, 81, 108, 144
-0.996553, 33, 57, 160, 88
-0.996559, 111, 57, 126, 120
-0.996563, 259, 1, 274, 64
-0.996563, 125, 1, 156, 218
-0.996569, 245, 89, 260, 152
-0.996599, 35, 153, 50, 216
-0.996603, 141, 57, 156, 120
-0.996619, 5, 81, 20, 144
-0.996653, 101, 153, 116, 184
-0.996659, 207, 153, 222, 216
-0.996669, 133, 57, 148, 120
-0.996693, 257, 49, 288, 176
-0.996698, 199, 89, 214, 152
-0.996699, 261, 49, 292, 112
-0.996713, 41, 1, 72, 128
-0.996713, 173, 153, 188, 216
-0.996714, 37, 129, 52, 192
-0.996721, 271, 1, 286, 64
-0.996729, 33, 65, 64, 128
-0.996766, 119, 153, 134, 184
-0.996767, 173, 17, 204, 80
-0.996774, 133, 17, 148, 48
-0.996791, 107, 157, 122, 188
-0.996811, 93, 153, 108, 184
-0.996812, 233, 65, 264, 128
-0.996824, 279, 113, 294, 176
-0.996826, 181, 121, 196, 184
-0.996866, 217, 153, 232, 216
-0.996886, 245, 121, 260, 184
-0.996906, 265, 1, 280, 64
-0.996924, 93, 105, 108, 136
-0.996939, 175, 121, 190, 184
-0.99696, 127, 153, 142, 184
-0.996974, 75, 169, 90, 200
-0.996989, 145, 33, 272, 64
-0.996989, 131, 137, 146, 168
-0.997001, 237, 89, 252, 120
-0.997036, 177, 133, 304, 164
-0.997037, 129, 69, 256, 100
-0.997045, 161, 153, 176, 216
-0.997047, 265, 145, 280, 208
-0.997047, 271, 145, 286, 208
-0.997056, 189, 105, 204, 136
-0.997061, 99, 81, 114, 144
-0.997072, 73, 81, 88, 144
-0.997099, 201, 129, 216, 192
-0.997106, 161, 85, 288, 116
-0.997111, 227, 153, 242, 216
-0.997113, 153, 17, 168, 80
-0.997129, 3, 109, 18, 140
-0.997131, 161, 49, 176, 80
-0.997131, 289, 137, 304, 200
-0.99714, 155, 153, 170, 216
-0.997147, 145, 97, 272, 128
-0.997159, 1, 125, 128, 156
-0.997162, 69, 125, 84, 156
-0.997162, 125, 137, 140, 168
-0.997171, 105, 105, 120, 168
-0.997185, 101, 169, 116, 200
-0.997196, 113, 165, 128, 196
-0.997209, 187, 73, 202, 136
-0.997222, 119, 137, 134, 168
-0.997223, 125, 41, 140, 72
-0.997244, 229, 89, 244, 152
-0.997249, 169, 1, 200, 128
-0.99725, 35, 81, 50, 144
-0.997254, 259, 145, 274, 208
-0.997258, 145, 9, 160, 72
-0.99726, 97, 57, 112, 120
-0.997265, 83, 113, 98, 144
-0.997279, 95, 185, 110, 216
-0.997281, 181, 169, 196, 200
-0.997283, 277, 89, 308, 152
-0.997285, 75, 149, 90, 180
-0.997306, 119, 165, 134, 196
-0.997312, 85, 153, 100, 184
-0.997314, 113, 21, 240, 52
-0.997322, 169, 113, 184, 176
-0.997325, 43, 101, 58, 132
-0.997325, 87, 81, 102, 144
-0.997325, 27, 157, 42, 188
-0.997335, 53, 161, 68, 192
-0.997337, 59, 161, 74, 192
-0.997337, 107, 169, 122, 200
-0.99734, 83, 169, 98, 200
-0.99735, 305, 153, 320, 216
-0.99735, 73, 105, 88, 136
-0.997357, 55, 73, 70, 136
-0.997369, 37, 113, 52, 144
-0.99738, 113, 81, 144, 144
-0.997388, 1, 153, 16, 216
-0.99739, 59, 145, 74, 176
-0.997391, 167, 57, 182, 88
-0.99741, 149, 129, 164, 192
-0.997415, 113, 81, 128, 144
-0.99742, 167, 81, 182, 144
-0.997428, 33, 157, 48, 188
-0.99743, 181, 105, 196, 136
-0.997438, 193, 1, 256, 128
-0.997451, 83, 181, 98, 212
-0.99746, 67, 81, 82, 144
-0.997468, 63, 125, 78, 156
-0.997469, 187, 169, 202, 200
-0.99748, 43, 169, 58, 200
-0.997481, 79, 1, 94, 64
-0.997494, 149, 1, 180, 218
-0.997507, 135, 153, 150, 184
-0.99751, 285, 113, 300, 176
-0.997516, 11, 81, 26, 144
-0.997518, 29, 1, 60, 218
-0.99752, 125, 105, 140, 168
-0.997521, 25, 113, 40, 144
-0.997532, 273, 113, 288, 176
-0.997538, 17, 69, 144, 100
-0.997547, 15, 113, 30, 144
-0.997553, 111, 141, 126, 172
-0.99756, 83, 101, 98, 132
-0.99756, 177, 1, 304, 32
-0.997565, 267, 113, 282, 176
-0.997567, 117, 61, 132, 92
-0.997568, 65, 153, 80, 184
-0.997575, 69, 169, 84, 200
-0.997579, 5, 125, 20, 156
-0.997582, 237, 105, 252, 136
-0.997587, 93, 117, 108, 148
-0.997587, 75, 181, 90, 212
-0.99759, 53, 125, 68, 156
-0.997592, 21, 153, 36, 184
-0.9976, 95, 173, 110, 204
-0.9976, 195, 169, 210, 200
-0.997611, 67, 113, 82, 144
-0.997612, 107, 185, 122, 216
-0.997623, 101, 1, 132, 218
-0.997624, 101, 185, 116, 216
-0.997639, 131, 29, 146, 60
-0.997656, 73, 137, 88, 168
-0.997661, 161, 45, 288, 76
-0.997667, 133, 61, 148, 92
-0.997672, 125, 21, 140, 52
-0.997675, 57, 113, 72, 144
-0.997682, 53, 145, 68, 176
-0.997692, 285, 141, 300, 172
-0.997696, 197, 109, 212, 140
-0.997697, 83, 133, 98, 164
-0.9977, 289, 49, 320, 176
-0.997713, 31, 113, 46, 144
-0.997715, 149, 37, 164, 68
-0.997722, 193, 65, 224, 128
-0.997727, 113, 177, 128, 208
-0.997729, 17, 89, 144, 120
-0.997736, 35, 125, 50, 156
-0.997746, 285, 1, 316, 128
-0.997753, 89, 169, 104, 200
-0.997763, 121, 121, 136, 152
-0.997766, 13, 157, 28, 188
-0.997766, 43, 157, 58, 188
-0.99777, 27, 145, 42, 176
-0.997775, 189, 117, 204, 148
-0.997776, 155, 45, 170, 76
-0.997782, 125, 165, 140, 196
-0.997787, 107, 65, 122, 96
-0.997791, 139, 21, 154, 52
-0.997803, 1, 41, 320, 104
-0.997814, 5, 157, 20, 188
-0.997822, 43, 133, 58, 164
-0.997824, 89, 185, 104, 216
-0.997824, 43, 113, 58, 144
-0.997828, 45, 33, 76, 96
-0.997838, 57, 1, 88, 128
-0.997842, 193, 185, 320, 216
-0.997853, 131, 165, 146, 196
-0.997857, 1, 9, 320, 72
-0.99786, 127, 61, 142, 92
-0.997868, 51, 173, 66, 204
-0.997889, 209, 169, 224, 200
-0.997889, 33, 145, 48, 176
-0.997895, 237, 1, 268, 128
-0.997901, 175, 93, 190, 124
-0.997916, 137, 141, 152, 172
-0.997916, 109, 129, 124, 160
-0.997924, 147, 61, 162, 92
-0.997929, 17, 5, 144, 36
-0.997943, 113, 1, 144, 218
-0.997949, 43, 81, 58, 112
-0.997953, 175, 169, 190, 200
-0.997955, 21, 165, 36, 196
-0.997957, 49, 1, 80, 218
-0.997959, 65, 141, 80, 172
-0.997962, 187, 93, 202, 124
-0.997966, 143, 33, 158, 64
-0.99797, 163, 69, 178, 100
-0.997981, 237, 125, 252, 156
-0.997986, 201, 169, 216, 200
-0.997994, 17, 45, 144, 76
-0.997998, 1, 1, 32, 218
-0.998001, 33, 169, 48, 200
-0.998019, 221, 165, 236, 196
-0.998035, 27, 133, 42, 164
-0.998036, 107, 117, 122, 148
-0.998044, 215, 169, 230, 200
-0.998053, 233, 49, 264, 176
-0.998059, 169, 177, 184, 208
-0.998062, 113, 9, 240, 40
-0.99807, 55, 29, 70, 60
-0.998078, 199, 157, 214, 188
-0.998089, 227, 169, 242, 200
-0.998093, 257, 97, 288, 160
-0.998096, 35, 101, 50, 132
-0.998107, 157, 65, 172, 96
-0.998107, 269, 5, 284, 36
-0.998116, 161, 165, 176, 196
-0.998133, 99, 73, 114, 104
-0.998134, 55, 17, 70, 48
-0.998137, 185, 181, 200, 212
-0.998141, 169, 165, 184, 196
-0.998141, 161, 1, 192, 218
-0.998152, 143, 133, 158, 164
-0.99816, 179, 157, 194, 188
-0.998162, 193, 157, 208, 188
-0.998167, 53, 101, 68, 132
-0.998167, 19, 125, 34, 156
-0.998179, 1, 29, 128, 60
-0.99818, 13, 125, 28, 156
-0.998234, 125, 81, 156, 144
-0.998237, 61, 1, 92, 218
-0.998254, 193, 21, 320, 52
-0.998285, 237, 1, 268, 218
-0.998363, 153, 171, 216, 186
-0.998366, 65, 167, 128, 182
-0.998383, 25, 163, 88, 178
-0.998393, 113, 43, 176, 58
-0.998405, 81, 159, 144, 174
-0.998412, 61, 189, 92, 204
-0.998417, 141, 155, 172, 170
-0.99842, 161, 65, 192, 80
-0.99842, 105, 203, 168, 218
-0.998421, 233, 125, 264, 140
-0.998422, 113, 171, 176, 186
-0.998424, 105, 175, 136, 190
-0.998424, 129, 155, 160, 170
-0.998425, 149, 51, 180, 66
-0.998426, 193, 199, 224, 214
-0.998426, 177, 181, 208, 196
-0.998426, 233, 95, 264, 110
-0.998427, 165, 99, 196, 114
-0.998428, 1, 153, 32, 168
-0.998428, 129, 197, 160, 212
-0.998431, 121, 37, 152, 52
-0.998432, 213, 173, 244, 188
-0.998434, 173, 191, 204, 206
-0.998434, 29, 111, 60, 126
-0.998435, 129, 149, 160, 164
-0.998436, 177, 173, 240, 188
-0.998437, 105, 65, 168, 80
-0.998437, 13, 171, 44, 186
-0.998438, 249, 1, 280, 16
-0.998438, 233, 107, 264, 122
-0.998439, 233, 119, 264, 134
-0.998439, 49, 139, 80, 154
-0.998439, 121, 59, 152, 74
-0.998439, 121, 73, 152, 88
-0.99844, 49, 161, 80, 176
-0.998441, 137, 43, 168, 58
-0.998442, 149, 201, 180, 216
-0.998442, 29, 149, 60, 164
-0.998442, 133, 173, 164, 188
-0.998444, 69, 113, 100, 128
-0.998444, 49, 185, 80, 200
-0.998444, 273, 149, 304, 164
-0.998445, 93, 111, 124, 126
-0.998446, 109, 141, 140, 156
-0.998446, 185, 127, 216, 142
-0.998446, 29, 155, 60, 170
-0.998447, 145, 201, 208, 216
-0.998449, 101, 117, 132, 132
-0.998449, 9, 157, 72, 172
-0.99845, 21, 125, 52, 140
-0.99845, 33, 111, 96, 126
-0.998452, 65, 173, 128, 188
-0.998453, 153, 57, 184, 72
-0.998454, 89, 169, 152, 184
-0.998455, 37, 179, 68, 194
-0.998455, 113, 129, 144, 144
-0.998455, 49, 161, 112, 176
-0.998455, 93, 77, 124, 92
-0.998455, 33, 183, 96, 198
-0.998457, 61, 177, 92, 192
-0.998458, 225, 113, 256, 128
-0.998458, 233, 89, 264, 104
-0.99846, 73, 193, 104, 208
-0.99846, 101, 71, 132, 86
-0.99846, 1, 169, 64, 184
-0.99846, 185, 111, 248, 126
-0.998461, 81, 197, 144, 212
-0.998462, 33, 143, 64, 158
-0.998463, 105, 149, 168, 164
-0.998467, 93, 199, 124, 214
-0.998469, 9, 127, 72, 142
-0.998469, 17, 157, 48, 172
-0.99847, 105, 203, 136, 218
-0.998471, 41, 123, 72, 138
-0.998472, 161, 113, 224, 128
-0.998472, 149, 69, 180, 84
-0.998472, 89, 141, 152, 156
-0.998474, 213, 1, 244, 218
-0.998474, 49, 189, 112, 204
-0.998474, 177, 117, 208, 132
-0.998475, 73, 189, 136, 204
-0.998475, 77, 105, 108, 120
-0.998476, 89, 133, 120, 148
-0.998479, 33, 177, 96, 192
-0.998479, 113, 165, 176, 180
-0.998479, 21, 117, 52, 132
-0.99848, 109, 65, 140, 80
-0.998482, 189, 171, 220, 186
-0.998483, 37, 161, 68, 176
-0.998484, 1, 171, 32, 186
-0.998484, 69, 119, 100, 134
-0.998484, 93, 97, 108, 218
-0.998487, 41, 169, 104, 184
-0.998487, 41, 115, 72, 130
-0.998488, 113, 49, 176, 64
-0.998489, 29, 173, 60, 188
-0.998491, 233, 101, 264, 116
-0.998492, 141, 149, 172, 164
-0.998492, 125, 19, 156, 34
-0.998494, 1, 117, 64, 132
-0.998495, 49, 135, 112, 150
-0.998495, 73, 125, 136, 140
-0.998495, 189, 117, 220, 132
-0.998496, 33, 105, 96, 120
-0.998496, 53, 113, 84, 128
-0.998496, 153, 171, 184, 186
-0.998496, 165, 171, 196, 186
-0.998497, 101, 159, 132, 174
-0.998498, 57, 111, 120, 126
-0.998499, 105, 189, 136, 204
-0.9985, 125, 43, 156, 58
-0.998501, 41, 107, 72, 122
-0.998501, 1, 115, 32, 130
-0.998502, 49, 153, 112, 168
-0.998502, 185, 105, 248, 120
-0.998502, 33, 137, 64, 152
-0.998502, 57, 105, 120, 120
-0.998503, 61, 183, 92, 198
-0.998504, 169, 105, 200, 120
-0.998506, 5, 159, 36, 174
-0.998507, 113, 37, 176, 52
-0.998507, 129, 167, 160, 182
-0.998508, 193, 191, 224, 206
-0.998512, 69, 129, 100, 144
-0.998514, 69, 145, 100, 160
-0.998514, 129, 59, 192, 74
-0.998515, 17, 137, 48, 152
-0.998515, 73, 131, 136, 146
-0.998516, 117, 199, 148, 214
-0.998516, 1, 141, 32, 156
-0.998518, 33, 125, 96, 140
-0.998518, 1, 127, 32, 142
-0.998519, 53, 125, 84, 140
-0.99852, 161, 107, 224, 122
-0.998522, 185, 179, 248, 194
-0.998522, 133, 203, 164, 218
-0.998522, 17, 137, 80, 152
-0.998523, 61, 159, 92, 174
-0.998523, 101, 131, 132, 146
-0.998526, 81, 117, 112, 132
-0.998526, 185, 121, 248, 136
-0.998528, 121, 73, 184, 88
-0.998529, 113, 155, 176, 170
-0.99853, 49, 133, 80, 148
-0.99853, 201, 173, 264, 188
-0.998531, 97, 73, 160, 88
-0.998531, 113, 135, 144, 150
-0.998534, 173, 111, 204, 126
-0.998535, 129, 65, 192, 80
-0.998535, 69, 139, 100, 154
-0.998535, 49, 145, 80, 160
-0.998537, 49, 155, 80, 170
-0.998538, 105, 195, 168, 210
-0.998538, 185, 127, 248, 142
-0.998539, 9, 107, 72, 122
-0.99854, 117, 157, 148, 172
-0.99854, 25, 149, 88, 164
-0.99854, 121, 65, 152, 80
-0.998541, 89, 127, 120, 142
-0.998542, 81, 151, 144, 166
-0.998542, 93, 189, 124, 204
-0.998543, 71, 97, 86, 218
-0.998546, 113, 169, 144, 184
-0.99855, 9, 175, 72, 190
-0.998551, 1, 143, 64, 158
-0.998552, 97, 127, 160, 142
-0.998553, 1, 165, 32, 180
-0.998553, 105, 195, 136, 210
-0.998554, 33, 129, 64, 144
-0.998554, 185, 199, 248, 214
-0.998554, 105, 149, 136, 164
-0.998554, 101, 123, 132, 138
-0.998556, 57, 119, 120, 134
-0.998556, 1, 163, 64, 178
-0.998557, 49, 147, 112, 162
-0.998557, 133, 67, 164, 82
-0.998558, 69, 151, 100, 166
-0.998558, 81, 157, 112, 172
-0.998559, 257, 155, 320, 170
-0.998563, 69, 171, 100, 186
-0.998563, 185, 111, 216, 126
-0.998565, 1, 133, 32, 148
-0.998566, 65, 141, 128, 156
-0.998567, 1, 151, 64, 166
-0.998568, 13, 131, 44, 146
-0.99857, 9, 181, 72, 196
-0.99857, 185, 167, 248, 182
-0.99857, 169, 193, 232, 208
-0.99857, 77, 187, 108, 202
-0.998571, 225, 101, 288, 116
-0.998572, 129, 149, 192, 164
-0.998572, 249, 1, 280, 218
-0.998574, 81, 203, 144, 218
-0.998576, 69, 165, 100, 180
-0.998578, 25, 143, 88, 158
-0.998578, 225, 127, 288, 142
-0.998579, 153, 131, 216, 146
-0.998579, 121, 143, 184, 158
-0.998579, 73, 183, 136, 198
-0.998579, 201, 173, 232, 188
-0.998583, 81, 111, 112, 126
-0.998583, 161, 65, 224, 80
-0.998584, 161, 179, 224, 194
-0.998586, 225, 1, 288, 16
-0.998586, 173, 1, 204, 218
-0.998588, 49, 203, 112, 218
-0.998588, 33, 119, 96, 134
-0.998589, 133, 37, 164, 52
-0.998589, 193, 191, 256, 206
-0.998589, 57, 195, 120, 210
-0.998591, 225, 149, 288, 164
-0.998595, 225, 89, 288, 104
-0.998596, 137, 165, 200, 180
-0.998597, 225, 119, 288, 134
-0.998597, 49, 177, 80, 192
-0.998597, 129, 195, 192, 210
-0.998599, 225, 107, 288, 122
-0.998599, 97, 133, 160, 148
-0.9986, 145, 71, 208, 86
-0.998602, 81, 67, 144, 82
-0.998604, 161, 55, 224, 70
-0.998604, 117, 151, 148, 166
-0.998604, 225, 143, 288, 158
-0.998605, 161, 119, 224, 134
-0.998609, 97, 113, 160, 128
-0.99861, 33, 99, 96, 114
-0.998611, 49, 167, 80, 182
-0.998613, 249, 149, 312, 164
-0.998614, 201, 87, 264, 102
-0.998615, 137, 103, 200, 118
-0.998615, 89, 59, 152, 74
-0.998616, 185, 133, 248, 148
-0.998616, 189, 97, 204, 218
-0.998616, 193, 185, 256, 200
-0.998618, 97, 189, 160, 204
-0.998619, 225, 133, 288, 148
-0.998619, 201, 99, 264, 114
-0.99862, 121, 19, 184, 34
-0.99862, 17, 1, 48, 218
-0.998622, 137, 111, 200, 126
-0.998625, 73, 47, 136, 62
-0.998626, 225, 171, 288, 186
-0.998626, 89, 79, 152, 94
-0.998626, 153, 125, 216, 140
-0.998628, 181, 105, 212, 120
-0.998629, 113, 177, 176, 192
-0.998632, 137, 79, 200, 94
-0.998632, 61, 25, 92, 88
-0.998633, 177, 171, 208, 186
-0.998634, 89, 175, 152, 190
-0.998634, 225, 95, 288, 110
-0.998636, 145, 39, 208, 54
-0.998636, 225, 113, 288, 128
-0.998637, 169, 187, 232, 202
-0.998639, 135, 1, 150, 128
-0.99864, 201, 141, 264, 156
-0.99864, 145, 189, 208, 204
-0.998641, 249, 161, 312, 176
-0.998641, 161, 79, 224, 94
-0.998642, 101, 169, 132, 184
-0.998643, 201, 93, 264, 108
-0.998645, 249, 1, 312, 16
-0.998648, 225, 159, 288, 174
-0.998649, 121, 131, 184, 146
-0.99865, 177, 99, 240, 114
-0.998651, 185, 161, 248, 176
-0.998651, 97, 121, 160, 136
-0.998669, 43, 97, 58, 218
-0.998669, 161, 33, 176, 160
-0.998673, 81, 167, 112, 182
-0.998675, 55, 97, 70, 218
-0.998677, 121, 143, 152, 158
-0.998684, 1, 17, 128, 48
-0.998717, 237, 81, 252, 208
-0.998719, 5, 81, 20, 208
-0.998724, 195, 97, 210, 218
-0.998763, 101, 97, 116, 218
-0.998767, 129, 1, 144, 128
-0.998786, 63, 97, 78, 218
-0.998796, 153, 17, 168, 144
-0.998828, 143, 17, 158, 144
-0.998854, 65, 1, 192, 32
-0.998873, 107, 65, 122, 192
-0.998876, 117, 81, 132, 208
-0.998901, 113, 81, 240, 112
-0.998908, 289, 25, 320, 88
-0.998909, 83, 81, 98, 208
-0.998916, 89, 1, 120, 128
-0.998939, 269, 1, 284, 128
-0.998942, 123, 49, 138, 176
-0.998955, 33, 33, 64, 96
-0.998995, 175, 65, 190, 192
-0.998999, 49, 97, 64, 218
-0.999009, 169, 49, 184, 176
-0.999031, 201, 97, 216, 218
-0.999037, 181, 81, 196, 208
-0.999041, 265, 1, 296, 218
-0.999045, 27, 97, 42, 218
-0.999048, 77, 97, 92, 218
-0.999056, 133, 49, 148, 176
-0.999062, 33, 97, 48, 218
-0.999087, 123, 1, 138, 128
-0.999099, 141, 65, 156, 192
-0.999106, 155, 65, 170, 192
-0.999117, 13, 97, 28, 218
-0.999124, 263, 1, 278, 128
-0.999127, 89, 1, 120, 218
-0.999128, 193, 1, 224, 64
-0.999143, 55, 49, 70, 176
-0.999148, 105, 1, 136, 64
-0.999152, 25, 57, 88, 120
-0.999174, 21, 97, 36, 218
-0.999185, 189, 1, 220, 218
-0.999191, 147, 65, 162, 192
-0.999211, 117, 33, 132, 160
-0.999218, 275, 1, 290, 128
-0.999226, 95, 49, 110, 176
-0.99928, 45, 49, 60, 176
-0.999282, 225, 1, 256, 218
-0.999288, 217, 1, 248, 128
-0.999295, 61, 49, 76, 176
-0.999305, 71, 49, 86, 176
-0.999313, 125, 97, 140, 218
-0.999313, 9, 1, 40, 128
-0.999322, 169, 97, 184, 218
-0.999325, 207, 97, 222, 218
-0.99934, 33, 49, 48, 176
-0.999343, 195, 49, 210, 176
-0.99936, 163, 81, 178, 208
-0.999362, 245, 97, 260, 218
-0.99937, 101, 49, 116, 176
-0.999381, 281, 65, 296, 192
-0.999392, 1, 33, 16, 160
-0.999396, 11, 49, 26, 176
-0.999397, 167, 1, 182, 128
-0.999431, 89, 49, 104, 176
-0.999442, 269, 81, 284, 208
-0.999448, 133, 97, 148, 218
-0.999469, 245, 49, 260, 176
-0.999474, 261, 65, 276, 192
-0.999496, 83, 33, 98, 160
-0.999498, 217, 1, 248, 64
-0.9995, 257, 1, 272, 128
-0.999507, 27, 49, 42, 176
-0.99951, 17, 49, 32, 176
-0.999512, 193, 33, 320, 64
-0.999513, 45, 1, 60, 128
-0.999519, 251, 97, 266, 218
-0.999538, 177, 69, 304, 100
-0.999543, 201, 1, 232, 218
-0.999546, 189, 49, 204, 176
-0.999549, 275, 97, 290, 218
-0.99956, 305, 97, 320, 218
-0.99956, 181, 33, 196, 160
-0.999568, 231, 81, 246, 208
-0.999568, 71, 1, 86, 128
-0.999574, 281, 1, 312, 218
-0.999591, 287, 97, 302, 218
-0.999608, 289, 1, 304, 128
-0.999616, 77, 17, 92, 144
-0.999624, 237, 33, 252, 160
-0.999625, 43, 133, 58, 148
-0.999626, 183, 201, 198, 216
-0.999626, 135, 203, 150, 218
-0.999626, 65, 145, 80, 160
-0.999626, 61, 133, 76, 148
-0.999626, 197, 177, 212, 192
-0.999626, 191, 119, 206, 134
-0.999626, 113, 123, 128, 138
-0.999627, 103, 193, 118, 208
-0.999627, 59, 115, 74, 130
-0.999627, 43, 111, 58, 126
-0.999628, 57, 177, 72, 192
-0.999628, 165, 67, 180, 82
-0.999628, 73, 111, 88, 126
-0.999629, 109, 129, 124, 144
-0.999629, 159, 49, 174, 64
-0.999631, 33, 165, 48, 180
-0.999632, 43, 161, 58, 176
-0.999632, 61, 169, 76, 184
-0.999633, 45, 85, 60, 100
-0.999633, 43, 171, 58, 186
-0.999633, 181, 103, 196, 118
-0.999633, 287, 49, 302, 176
-0.999635, 83, 119, 98, 134
-0.999635, 143, 147, 158, 162
-0.999636, 3, 115, 18, 130
-0.999636, 5, 159, 20, 174
-0.999636, 43, 105, 58, 120
-0.999637, 73, 137, 88, 152
-0.999638, 135, 69, 150, 84
-0.999639, 177, 171, 192, 186
-0.999639, 99, 199, 114, 214
-0.999639, 3, 123, 18, 138
-0.99964, 221, 173, 236, 188
-0.99964, 53, 127, 68, 142
-0.99964, 63, 157, 78, 172
-0.999641, 121, 155, 136, 170
-0.999642, 237, 99, 252, 114
-0.999642, 189, 127, 204, 142
-0.999643, 45, 127, 60, 142
-0.999643, 55, 135, 70, 150
-0.999644, 99, 157, 114, 172
-0.999644, 215, 97, 230, 218
-0.999644, 53, 171, 68, 186
-0.999644, 27, 125, 42, 140
-0.999644, 285, 147, 300, 162
-0.999645, 145, 203, 160, 218
-0.999645, 141, 31, 156, 46
-0.999645, 117, 191, 132, 206
-0.999646, 171, 63, 186, 78
-0.999648, 51, 163, 66, 178
-0.999648, 17, 133, 32, 148
-0.999649, 157, 171, 172, 186
-0.99965, 35, 117, 50, 132
-0.99965, 53, 115, 68, 130
-0.999651, 53, 147, 68, 162
-0.999651, 105, 159, 120, 174
-0.999651, 147, 67, 162, 82
-0.999652, 85, 157, 100, 172
-0.999652, 93, 117, 108, 132
-0.999655, 133, 141, 148, 156
-0.999655, 109, 189, 124, 204
-0.999658, 83, 113, 98, 128
-0.999658, 51, 177, 66, 192
-0.999658, 237, 93, 252, 108
-0.99966, 197, 171, 212, 186
-0.99966, 133, 155, 148, 170
-0.99966, 165, 53, 180, 68
-0.99966, 31, 131, 46, 146
-0.999661, 223, 97, 238, 218
-0.999661, 237, 117, 252, 132
-0.999663, 59, 125, 74, 140
-0.999663, 203, 173, 218, 188
-0.999663, 119, 143, 134, 158
-0.999664, 189, 111, 204, 126
-0.999666, 117, 67, 132, 82
-0.999667, 77, 167, 92, 182
-0.999667, 149, 41, 164, 56
-0.999668, 83, 105, 98, 120
-0.999668, 51, 1, 66, 128
-0.999668, 27, 159, 42, 174
-0.99967, 51, 157, 66, 172
-0.99967, 93, 123, 108, 138
-0.99967, 43, 177, 58, 192
-0.999671, 13, 125, 28, 140
-0.999671, 111, 1, 126, 128
-0.999671, 201, 49, 216, 176
-0.999672, 111, 159, 126, 174
-0.999672, 67, 121, 82, 136
-0.999672, 111, 151, 126, 166
-0.999673, 141, 37, 156, 52
-0.999675, 83, 151, 98, 166
-0.999675, 63, 177, 78, 192
-0.999675, 293, 97, 308, 218
-0.999676, 219, 1, 234, 128
-0.999676, 5, 129, 20, 144
-0.999677, 129, 201, 144, 216
-0.999678, 107, 73, 122, 88
-0.999678, 73, 127, 88, 142
-0.999678, 197, 111, 212, 126
-0.999679, 59, 149, 74, 164
-0.999679, 99, 1, 114, 128
-0.99968, 65, 1, 80, 128
-0.999682, 111, 195, 126, 210
-0.999682, 99, 77, 114, 92
-0.999684, 133, 33, 148, 48
-0.999687, 69, 175, 84, 190
-0.999688, 71, 167, 86, 182
-0.999689, 183, 171, 198, 186
-0.999689, 33, 159, 48, 174
-0.999691, 237, 109, 252, 124
-0.999691, 127, 41, 142, 56
-0.999692, 131, 63, 146, 78
-0.999695, 39, 49, 54, 176
-0.999695, 67, 127, 82, 142
-0.999696, 299, 97, 314, 218
-0.999699, 125, 141, 140, 156
-0.999699, 229, 33, 244, 160
-0.999701, 85, 187, 100, 202
-0.999701, 19, 159, 34, 174
-0.999702, 71, 183, 86, 198
-0.999702, 97, 191, 112, 206
-0.999703, 63, 163, 78, 178
-0.999706, 175, 17, 190, 144
-0.999707, 27, 151, 42, 166
-0.999713, 93, 157, 108, 172
-0.999715, 91, 189, 106, 204
-0.99972, 105, 167, 120, 182
-0.99972, 191, 171, 206, 186
-0.999722, 125, 169, 140, 184
-0.999725, 115, 129, 130, 144
-0.99973, 121, 149, 136, 164
-0.999731, 91, 167, 106, 182
-0.999733, 97, 167, 112, 182
-0.999735, 117, 197, 132, 212
-0.999736, 93, 109, 108, 124
-0.999739, 115, 135, 130, 150
-0.99974, 277, 65, 308, 128
-0.999743, 1, 25, 32, 88
-0.999744, 89, 1, 104, 128
-0.999746, 305, 33, 320, 160
-0.999752, 123, 199, 138, 214
-0.999757, 297, 1, 312, 128
-0.999758, 237, 87, 252, 102
-0.999761, 133, 19, 148, 34
-0.999762, 79, 185, 94, 200
-0.999766, 57, 1, 72, 128
-0.999767, 243, 1, 258, 128
-0.999767, 115, 169, 130, 184
-0.99978, 83, 165, 98, 180
-0.999788, 187, 105, 202, 120
-0.999791, 29, 1, 44, 128
-0.999794, 297, 49, 312, 176
-0.999795, 39, 1, 54, 128
-0.999795, 275, 49, 290, 176
-0.999797, 253, 49, 268, 176
-0.999811, 23, 1, 38, 128
-0.999813, 281, 1, 296, 128
-0.999814, 249, 1, 264, 128
-0.999825, 21, 57, 52, 120
-0.999841, 207, 49, 222, 176
-0.999854, 7, 1, 22, 128
-0.99986, 193, 1, 208, 128
-0.999899, 203, 1, 218, 128
-0.999906, 193, 57, 320, 88
-0.999913, 277, 9, 308, 72
-0.999928, 213, 33, 228, 160
-0.999968, 187, 1, 202, 128
-1.00001, 17, 1, 32, 128
-1.00005, 105, 1, 120, 128
-1.00006, 241, 41, 272, 104
-1.00015, 219, 49, 234, 176
-1.00033, 69, 57, 100, 120
-1.0004, 181, 1, 212, 128
-1.0004, 205, 49, 236, 176
-1.00042, 1, 49, 32, 112
-1.00054, 205, 65, 236, 128
-1.00072, 153, 1, 184, 64
-1.00088, 185, 41, 216, 104
-1.00091, 289, 73, 320, 136
-1.00157, 205, 41, 236, 104
-1.00168, 89, 17, 120, 80
-1.00174, 205, 1, 236, 64
-1.00192, 205, 1, 236, 128
-1.00226, 289, 49, 320, 112
-1.00237, 229, 33, 260, 96
-1.00245, 229, 1, 260, 64
-1.00362, 193, 1, 224, 128
