1968
-0.201161, 1, 1, 500, 375
-0.412725, 1, 1, 500, 256
-0.469282, 129, 1, 384, 375
-0.505711, 33, 1, 288, 375
-0.509948, 1, 97, 500, 352
-0.63074, 193, 1, 448, 256
-0.643911, 225, 1, 480, 375
-0.739949, 97, 1, 352, 256
-0.761246, 33, 129, 288, 375
-0.764385, 193, 97, 448, 352
-0.8363, 1, 33, 256, 288
-0.865939, 65, 1, 192, 375
-0.875625, 1, 209, 500, 336
-0.880913, 129, 1, 256, 375
-0.881057, 353, 1, 480, 375
-0.881799, 273, 1, 400, 375
-0.888563, 241, 1, 368, 256
-0.891482, 193, 1, 320, 375
-0.895188, 129, 1, 256, 256
-0.89615, 193, 1, 320, 256
-0.898576, 1, 33, 500, 160
-0.905449, 65, 97, 192, 352
-0.907135, 1, 1, 128, 375
-0.912224, 305, 1, 432, 256
-0.9129, 65, 225, 320, 352
-0.923081, 1, 81, 500, 208
-0.923203, 193, 225, 448, 352
-0.92342, 353, 1, 480, 256
-0.923462, 1, 161, 500, 288
-0.926111, 177, 97, 304, 352
-0.928405, 113, 129, 240, 375
-0.928479, 65, 1, 192, 256
-0.931179, 1, 129, 128, 375
-0.932264, 289, 129, 416, 375
-0.934616, 33, 177, 288, 304
-0.934959, 225, 97, 352, 352
-0.935105, 369, 129, 496, 375
-0.940341, 1, 1, 128, 256
-0.941601, 193, 17, 448, 144
-0.941626, 1, 225, 128, 352
-0.942115, 97, 17, 352, 144
-0.944521, 225, 177, 480, 304
-0.94522, 209, 225, 336, 352
-0.945982, 273, 225, 400, 352
-0.950041, 1, 33, 256, 160
-0.951614, 161, 209, 288, 336
-0.951984, 57, 225, 120, 352
-0.952757, 65, 193, 192, 320
-0.953776, 185, 209, 248, 336
-0.954043, 129, 177, 384, 304
-0.954176, 321, 1, 448, 128
-0.955971, 329, 1, 392, 128
-0.956018, 289, 225, 352, 352
-0.959481, 57, 233, 120, 296
-0.95964, 33, 209, 96, 336
-0.959682, 161, 65, 416, 192
-0.959822, 225, 209, 288, 336
-0.960074, 313, 225, 376, 352
-0.960767, 33, 129, 288, 256
-0.960938, 177, 1, 304, 128
-0.961227, 113, 225, 240, 352
-0.961788, 273, 1, 400, 128
-0.961873, 209, 1, 272, 128
-0.961902, 177, 225, 240, 288
-0.963021, 337, 241, 400, 368
-0.963112, 193, 129, 448, 256
-0.963291, 217, 1, 280, 64
-0.963341, 321, 241, 448, 368
-0.963446, 1, 81, 256, 208
-0.963583, 265, 225, 328, 352
-0.963784, 97, 33, 224, 160
-0.963817, 49, 145, 176, 272
-0.963888, 153, 241, 216, 368
-0.963928, 57, 257, 120, 320
-0.96442, 433, 17, 496, 144
-0.965006, 257, 65, 500, 192
-0.965383, 297, 297, 360, 360
-0.965447, 369, 17, 496, 144
-0.966014, 401, 25, 464, 88
-0.966338, 321, 193, 448, 320
-0.967331, 225, 177, 352, 304
-0.967415, 145, 161, 272, 288
-0.968279, 145, 129, 208, 256
-0.96844, 49, 33, 176, 160
-0.969137, 1, 1, 128, 128
-0.969428, 225, 225, 288, 288
-0.969816, 401, 1, 464, 128
-0.969862, 137, 137, 200, 200
-0.970019, 369, 225, 496, 352
-0.970086, 113, 33, 176, 160
-0.970133, 337, 193, 400, 320
-0.971232, 65, 217, 96, 280
-0.971427, 249, 225, 312, 288
-0.971456, 321, 305, 384, 368
-0.97148, 281, 225, 344, 288
-0.971675, 369, 1, 432, 128
-0.971988, 161, 193, 224, 320
-0.972246, 249, 17, 312, 144
-0.972291, 193, 249, 256, 312
-0.972293, 161, 33, 224, 160
-0.972801, 49, 81, 176, 208
-0.97293, 273, 177, 400, 304
-0.973245, 433, 17, 496, 80
-0.973335, 33, 233, 96, 296
-0.973341, 305, 217, 368, 280
-0.973364, 185, 1, 248, 128
-0.973402, 57, 209, 120, 272
-0.973529, 305, 1, 368, 128
-0.973765, 9, 1, 72, 128
-0.974063, 1, 177, 128, 304
-0.974157, 65, 49, 128, 176
-0.974232, 97, 145, 224, 272
-0.974711, 153, 209, 216, 272
-0.974964, 73, 177, 136, 304
-0.975343, 185, 25, 248, 88
-0.97564, 161, 225, 288, 288
-0.97568, 369, 113, 432, 240
-0.975682, 153, 249, 216, 312
-0.975722, 257, 25, 320, 88
-0.975741, 89, 33, 152, 160
-0.975977, 65, 209, 96, 336
-0.976209, 225, 233, 352, 296
-0.976295, 65, 225, 192, 288
-0.976512, 225, 17, 352, 144
-0.97661, 265, 313, 328, 375
-0.976698, 337, 281, 400, 344
-0.976777, 137, 193, 200, 320
-0.976786, 217, 249, 280, 312
-0.976788, 249, 177, 312, 304
-0.976857, 289, 33, 352, 96
-0.97735, 137, 33, 200, 160
-0.977386, 1, 241, 128, 304
-0.977417, 73, 289, 136, 352
-0.97763, 41, 49, 104, 176
-0.977663, 185, 1, 248, 256
-0.977983, 1, 265, 128, 328
-0.978102, 273, 225, 400, 288
-0.978328, 65, 241, 192, 368
-0.978459, 369, 137, 432, 200
-0.978466, 249, 1, 312, 256
-0.978467, 313, 25, 376, 88
-0.978936, 329, 257, 392, 320
-0.979031, 241, 313, 304, 375
-0.979185, 161, 41, 224, 104
-0.979218, 289, 273, 352, 336
-0.979317, 201, 313, 264, 375
-0.979441, 329, 65, 392, 192
-0.97951, 377, 17, 440, 80
-0.97958, 321, 65, 448, 192
-0.979703, 25, 209, 88, 272
-0.979705, 177, 249, 304, 312
-0.979768, 281, 249, 344, 312
-0.979781, 77, 225, 108, 352
-0.979844, 337, 129, 400, 256
-0.979863, 273, 249, 400, 312
-0.980017, 249, 249, 312, 312
-0.98004, 5, 313, 36, 375
-0.980122, 297, 177, 360, 304
-0.980126, 433, 1, 496, 256
-0.980227, 129, 225, 192, 288
-0.980256, 325, 297, 356, 360
-0.980257, 1, 313, 64, 375
-0.980353, 177, 25, 304, 88
-0.98049, 273, 49, 400, 176
-0.980637, 369, 65, 432, 192
-0.980695, 129, 249, 256, 312
-0.980793, 1, 1, 32, 64
-0.980799, 409, 1, 472, 64
-0.980849, 145, 65, 272, 192
-0.980929, 1, 49, 128, 176
-0.980953, 337, 233, 400, 296
-0.981029, 433, 241, 496, 368
-0.981132, 201, 209, 264, 272
-0.981192, 273, 1, 336, 256
-0.981346, 325, 241, 356, 368
-0.98137, 353, 145, 480, 272
-0.981383, 345, 145, 408, 208
-0.981416, 129, 137, 256, 200
-0.98143, 89, 49, 152, 112
-0.981507, 273, 1, 336, 128
-0.981659, 9, 193, 72, 320
-0.98175, 177, 145, 240, 272
-0.981801, 177, 281, 240, 344
-0.981832, 145, 113, 272, 240
-0.981899, 25, 257, 88, 320
-0.981906, 81, 249, 208, 312
-0.981974, 377, 225, 440, 352
-0.982066, 217, 25, 280, 88
-0.982079, 49, 201, 176, 264
-0.982217, 65, 241, 96, 304
-0.982255, 313, 1, 376, 64
-0.982264, 201, 209, 232, 336
-0.982288, 305, 249, 368, 312
-0.982303, 241, 305, 368, 368
-0.982326, 81, 225, 144, 352
-0.98237, 17, 49, 80, 176
-0.982494, 121, 49, 184, 112
-0.9827, 53, 209, 84, 336
-0.982712, 97, 281, 160, 344
-0.982787, 337, 17, 400, 80
-0.982845, 177, 273, 304, 336
-0.982948, 65, 49, 128, 112
-0.98301, 121, 145, 184, 272
-0.9831, 413, 17, 444, 80
-0.983308, 273, 129, 400, 256
-0.983329, 209, 1, 336, 64
-0.983344, 161, 137, 224, 200
-0.983376, 289, 305, 416, 368
-0.98357, 217, 161, 280, 288
-0.983615, 113, 41, 240, 104
-0.983663, 321, 17, 448, 80
-0.983672, 361, 1, 392, 128
-0.983708, 1, 25, 64, 88
-0.98372, 313, 209, 344, 336
-0.983804, 113, 137, 176, 200
-0.983815, 209, 209, 336, 272
-0.983906, 33, 161, 96, 288
-0.984107, 273, 1, 336, 64
-0.984118, 193, 313, 320, 375
-0.984249, 129, 273, 256, 336
-0.984298, 369, 1, 432, 256
-0.984337, 65, 1, 128, 128
-0.984409, 257, 33, 384, 96
-0.984412, 81, 233, 144, 296
-0.98443, 9, 241, 72, 368
-0.984439, 81, 137, 208, 200
-0.984477, 209, 273, 272, 336
-0.984492, 233, 1, 264, 64
-0.984545, 9, 289, 72, 352
-0.984559, 217, 241, 248, 368
-0.984653, 145, 201, 272, 264
-0.984706, 337, 241, 368, 368
-0.98479, 377, 249, 440, 312
-0.984794, 161, 129, 192, 192
-0.98481, 1, 217, 128, 280
-0.98488, 321, 225, 448, 288
-0.984901, 153, 129, 216, 375
-0.98498, 337, 1, 368, 128
-0.98498, 349, 1, 380, 128
-0.985217, 369, 161, 432, 224
-0.985222, 345, 313, 408, 375
-0.985328, 225, 1, 288, 256
-0.985357, 1, 241, 32, 368
-0.985367, 1, 289, 32, 352
-0.985547, 177, 313, 240, 375
-0.985648, 69, 265, 100, 328
-0.98574, 177, 193, 208, 320
-0.985835, 433, 193, 496, 320
-0.985839, 253, 209, 284, 336
-0.985852, 33, 49, 160, 112
-0.985915, 369, 113, 432, 176
-0.986047, 161, 33, 224, 288
-0.986061, 377, 313, 440, 375
-0.986063, 337, 305, 368, 368
-0.986158, 169, 1, 232, 375
-0.986185, 145, 1, 208, 375
-0.986196, 353, 41, 480, 104
-0.9862, 293, 209, 324, 336
-0.986246, 1, 313, 128, 375
-0.986282, 253, 225, 284, 288
-0.986341, 57, 1, 120, 375
-0.986379, 177, 241, 208, 368
-0.986419, 193, 1, 256, 64
-0.986424, 305, 281, 432, 344
-0.986488, 113, 81, 176, 208
-0.986541, 113, 225, 240, 288
-0.986542, 1, 17, 128, 80
-0.986644, 265, 289, 328, 352
-0.986654, 433, 257, 496, 320
-0.986663, 81, 257, 112, 320
-0.986673, 469, 17, 500, 144
-0.986695, 65, 289, 192, 352
-0.986701, 173, 249, 204, 312
-0.98673, 161, 113, 192, 240
-0.986747, 289, 225, 320, 288
-0.98676, 89, 1, 152, 375
-0.986765, 65, 161, 96, 288
-0.986848, 249, 201, 312, 264
-0.986965, 225, 65, 352, 192
-0.987165, 257, 25, 288, 88
-0.987176, 233, 209, 264, 336
-0.987179, 433, 1, 496, 375
-0.98718, 161, 1, 288, 64
-0.98721, 1, 289, 128, 352
-0.987217, 137, 161, 200, 224
-0.987302, 273, 201, 400, 264
-0.987312, 405, 1, 436, 128
-0.987338, 273, 1, 400, 64
-0.98741, 329, 1, 392, 375
-0.987436, 233, 225, 264, 288
-0.987505, 189, 193, 220, 320
-0.987507, 9, 25, 40, 88
-0.987507, 53, 249, 84, 312
-0.987518, 313, 297, 344, 360
-0.987522, 321, 249, 448, 312
-0.987522, 337, 209, 400, 272
-0.987614, 409, 1, 472, 256
-0.987619, 377, 177, 440, 304
-0.987622, 241, 281, 368, 344
-0.987658, 369, 249, 496, 312
-0.987714, 233, 281, 296, 344
-0.987731, 121, 1, 184, 256
-0.987755, 345, 1, 408, 256
-0.987762, 457, 1, 488, 128
-0.987789, 337, 193, 368, 320
-0.987807, 249, 1, 312, 64
-0.98782, 245, 1, 276, 128
-0.98791, 1, 1, 64, 375
-0.988151, 165, 217, 196, 280
-0.988195, 181, 217, 212, 280
-0.9882, 81, 257, 144, 320
-0.988207, 33, 1, 96, 128
-0.988243, 433, 233, 496, 296
-0.988334, 305, 217, 336, 280
-0.988338, 305, 33, 336, 96
-0.988343, 325, 1, 356, 128
-0.988345, 273, 177, 336, 304
-0.988392, 325, 193, 356, 320
-0.988407, 329, 121, 392, 184
-0.988475, 221, 249, 252, 312
-0.98848, 221, 193, 252, 320
-0.988489, 1, 1, 32, 128
-0.988512, 153, 33, 184, 160
-0.988516, 145, 313, 272, 375
-0.988573, 297, 1, 360, 256
-0.988608, 265, 209, 296, 336
-0.98863, 225, 257, 352, 320
-0.988685, 281, 209, 312, 336
-0.988707, 153, 273, 216, 336
-0.988737, 9, 233, 72, 296
-0.988769, 293, 25, 324, 88
-0.988812, 105, 281, 136, 344
-0.988828, 185, 137, 248, 200
-0.988849, 401, 49, 464, 112
-0.988862, 121, 1, 184, 375
-0.988896, 369, 41, 432, 104
-0.988914, 213, 1, 244, 64
-0.988946, 369, 305, 496, 368
-0.98895, 173, 137, 204, 200
-0.98896, 41, 49, 104, 112
-0.988983, 97, 161, 224, 224
-0.989008, 213, 25, 244, 88
-0.989023, 369, 17, 496, 80
-0.989084, 401, 17, 432, 80
-0.989114, 197, 241, 228, 304
-0.989126, 177, 81, 240, 208
-0.989164, 433, 313, 496, 375
-0.989177, 369, 281, 496, 344
-0.989203, 249, 1, 312, 375
-0.989216, 373, 289, 404, 352
-0.989247, 221, 225, 252, 288
-0.989248, 289, 1, 352, 375
-0.989285, 97, 81, 224, 208
-0.989294, 169, 33, 200, 160
-0.989294, 165, 161, 196, 288
-0.989313, 329, 65, 392, 128
-0.989318, 193, 97, 256, 352
-0.989356, 193, 1, 256, 375
-0.989372, 469, 25, 500, 88
-0.989407, 349, 241, 380, 368
-0.98943, 285, 305, 316, 368
-0.98945, 353, 1, 416, 375
-0.989463, 57, 49, 88, 176
-0.989479, 57, 33, 120, 288
-0.989486, 433, 289, 496, 352
-0.989587, 149, 129, 180, 192
-0.989647, 49, 217, 80, 280
-0.989678, 317, 25, 348, 88
-0.9897, 137, 81, 200, 208
-0.989772, 409, 1, 472, 375
-0.989795, 377, 1, 440, 375
-0.989807, 429, 25, 460, 88
-0.989826, 93, 289, 124, 352
-0.989835, 129, 97, 192, 352
-0.989837, 353, 201, 480, 264
-0.989859, 57, 245, 120, 276
-0.989927, 57, 233, 120, 264
-0.989939, 193, 217, 224, 280
-0.989948, 369, 257, 400, 320
-0.989967, 213, 1, 244, 128
-0.989976, 73, 129, 136, 375
-0.989976, 257, 17, 288, 144
-0.989987, 453, 17, 484, 80
-0.990024, 377, 217, 440, 280
-0.990036, 81, 209, 144, 272
-0.990038, 97, 49, 128, 176
-0.990052, 225, 17, 288, 48
-0.990085, 201, 25, 232, 88
-0.990087, 317, 225, 348, 288
-0.990092, 361, 65, 424, 128
-0.990098, 185, 33, 216, 160
-0.990117, 377, 273, 440, 336
-0.990124, 301, 305, 332, 368
-0.990147, 117, 33, 148, 160
-0.990157, 321, 145, 384, 208
-0.990287, 225, 1, 288, 375
-0.990288, 133, 33, 164, 160
-0.990327, 1, 265, 32, 328
-0.990331, 181, 41, 212, 104
-0.990346, 277, 225, 308, 288
-0.99035, 149, 113, 180, 240
-0.99035, 329, 225, 360, 288
-0.990375, 1, 225, 256, 288
-0.990383, 57, 257, 120, 288
-0.990387, 369, 81, 496, 208
-0.99048, 85, 233, 116, 296
-0.990483, 45, 49, 76, 176
-0.990499, 305, 41, 432, 104
-0.990512, 305, 65, 432, 128
-0.990527, 433, 25, 496, 56
-0.990546, 393, 21, 456, 52
-0.990561, 65, 249, 320, 312
-0.9906, 353, 13, 416, 44
-0.990617, 329, 21, 392, 52
-0.990632, 177, 241, 240, 272
-0.990651, 373, 241, 404, 368
-0.990683, 269, 25, 300, 88
-0.990688, 33, 1, 96, 375
-0.990692, 145, 141, 208, 172
-0.990713, 97, 285, 160, 316
-0.990721, 225, 233, 288, 264
-0.990779, 265, 225, 296, 288
-0.990786, 201, 17, 232, 144
-0.99082, 57, 269, 120, 300
-0.990876, 273, 313, 304, 375
-0.990877, 129, 225, 384, 288
-0.990897, 57, 221, 120, 252
-0.990932, 269, 17, 300, 144
-0.990957, 225, 201, 288, 264
-0.990961, 377, 97, 440, 352
-0.991063, 89, 225, 120, 352
-0.991098, 289, 153, 416, 216
-0.991144, 241, 29, 304, 60
-0.99115, 209, 225, 240, 288
-0.991165, 337, 321, 400, 352
-0.991184, 145, 17, 208, 80
-0.991198, 165, 241, 196, 368
-0.991209, 97, 17, 224, 80
-0.991219, 193, 29, 256, 60
-0.991233, 401, 65, 464, 192
-0.991233, 273, 233, 336, 264
-0.991243, 1, 345, 64, 375
-0.991248, 73, 49, 104, 176
-0.99126, 297, 305, 360, 336
-0.991262, 153, 221, 216, 252
-0.991262, 337, 97, 400, 352
-0.99127, 205, 281, 236, 344
-0.99128, 185, 253, 248, 284
-0.991284, 217, 97, 280, 352
-0.991295, 353, 129, 480, 192
-0.991315, 177, 201, 240, 264
-0.99132, 305, 25, 368, 56
-0.991341, 121, 297, 184, 360
-0.991346, 445, 17, 476, 144
-0.991353, 245, 17, 276, 80
-0.991359, 325, 257, 356, 320
-0.991366, 73, 289, 136, 320
-0.991394, 249, 229, 312, 260
-0.991398, 201, 1, 264, 32
-0.991412, 329, 149, 392, 180
-0.991432, 337, 1, 368, 64
-0.991432, 273, 201, 336, 264
-0.99144, 185, 269, 248, 300
-0.991451, 265, 245, 328, 276
-0.991456, 369, 145, 432, 176
-0.991495, 25, 237, 88, 268
-0.991508, 189, 281, 220, 344
-0.991514, 57, 185, 120, 248
-0.991521, 153, 209, 184, 272
-0.991522, 33, 261, 96, 292
-0.991534, 393, 33, 456, 64
-0.991534, 225, 57, 352, 120
-0.991542, 361, 25, 424, 56
-0.991544, 121, 49, 152, 112
-0.991552, 401, 81, 464, 144
-0.991566, 373, 313, 404, 375
-0.99157, 369, 193, 400, 320
-0.99158, 289, 49, 352, 176
-0.991587, 89, 49, 120, 112
-0.991589, 369, 145, 400, 272
-0.991597, 17, 129, 80, 375
-0.991611, 297, 225, 360, 256
-0.991621, 33, 225, 96, 256
-0.991631, 349, 17, 380, 80
-0.991695, 433, 249, 496, 280
-0.991717, 329, 65, 392, 96
-0.991726, 1, 13, 64, 44
-0.991734, 25, 249, 88, 280
-0.991735, 289, 341, 352, 372
-0.991736, 201, 233, 264, 264
-0.991748, 265, 33, 328, 64
-0.991753, 153, 281, 216, 312
-0.991763, 369, 225, 496, 288
-0.991803, 369, 145, 400, 208
-0.99182, 201, 317, 264, 348
-0.991827, 369, 157, 432, 188
-0.991832, 341, 225, 372, 288
-0.991832, 225, 241, 480, 304
-0.991839, 49, 113, 176, 176
-0.991855, 9, 57, 72, 120
-0.991896, 253, 313, 284, 375
-0.99192, 129, 293, 192, 324
-0.991938, 105, 209, 168, 272
-0.991941, 225, 5, 288, 36
-0.991953, 1, 201, 64, 264
-0.991958, 57, 129, 120, 256
-0.991971, 105, 257, 168, 320
-0.991973, 337, 293, 400, 324
-0.991977, 289, 249, 352, 280
-0.992007, 65, 193, 96, 256
-0.992023, 241, 249, 304, 280
-0.992025, 1, 321, 64, 352
-0.992038, 1, 29, 64, 60
-0.992038, 209, 221, 272, 252
-0.992038, 209, 313, 240, 375
-0.992045, 289, 293, 352, 324
-0.992081, 49, 281, 112, 312
-0.992102, 121, 25, 184, 88
-0.992108, 1, 333, 64, 364
-0.992109, 217, 269, 280, 300
-0.992118, 217, 245, 280, 276
-0.992133, 417, 37, 480, 68
-0.992141, 177, 153, 240, 184
-0.992152, 65, 273, 320, 336
-0.992158, 9, 285, 72, 316
-0.992175, 145, 253, 208, 284
-0.992178, 169, 49, 200, 112
-0.992216, 369, 185, 432, 248
-0.992221, 313, 341, 376, 372
-0.992226, 337, 333, 400, 364
-0.992234, 305, 1, 336, 64
-0.992235, 161, 41, 224, 72
-0.992237, 13, 1, 44, 128
-0.992253, 177, 229, 240, 260
-0.99228, 9, 297, 72, 328
-0.99228, 193, 129, 320, 256
-0.992323, 265, 341, 328, 372
-0.992339, 97, 201, 224, 264
-0.992344, 153, 161, 184, 288
-0.992345, 177, 113, 240, 176
-0.992351, 129, 237, 192, 268
-0.992352, 241, 341, 304, 372
-0.992356, 305, 321, 368, 352
-0.992359, 433, 261, 496, 292
-0.992363, 345, 161, 408, 192
-0.992364, 217, 29, 280, 60
-0.992381, 1, 129, 128, 256
-0.992396, 73, 301, 136, 332
-0.992399, 113, 157, 176, 188
-0.9924, 337, 305, 400, 336
-0.992402, 113, 161, 176, 224
-0.992402, 9, 265, 72, 296
-0.992416, 321, 245, 384, 276
-0.992418, 65, 221, 96, 252
-0.992421, 1, 225, 500, 288
-0.992423, 233, 1, 264, 128
-0.992425, 217, 337, 280, 368
-0.992426, 297, 237, 360, 268
-0.99243, 305, 57, 368, 120
-0.992441, 149, 49, 180, 112
-0.992446, 161, 25, 416, 88
-0.992488, 273, 21, 336, 52
-0.992503, 5, 345, 36, 375
-0.992514, 185, 289, 248, 320
-0.992516, 101, 49, 132, 112
-0.992518, 401, 49, 464, 80
-0.992519, 337, 345, 400, 375
-0.992521, 105, 297, 168, 328
-0.992522, 201, 17, 264, 48
-0.992526, 273, 57, 336, 120
-0.992528, 1, 1, 64, 64
-0.992528, 153, 233, 184, 296
-0.992533, 321, 229, 384, 260
-0.992541, 369, 133, 432, 164
-0.992541, 177, 317, 240, 348
-0.992543, 9, 309, 72, 340
-0.992543, 217, 257, 280, 288
-0.992568, 377, 277, 440, 308
-0.992595, 1, 41, 64, 72
-0.992599, 1, 257, 64, 320
-0.992602, 333, 301, 364, 332
-0.992604, 433, 13, 496, 44
-0.992611, 153, 233, 216, 264
-0.992615, 145, 153, 208, 184
-0.992617, 273, 69, 336, 100
-0.992618, 33, 213, 96, 244
-0.99262, 85, 49, 116, 176
-0.992627, 361, 65, 424, 96
-0.992638, 145, 161, 272, 224
-0.992653, 353, 65, 480, 128
-0.992659, 361, 37, 424, 68
-0.992672, 257, 217, 320, 248
-0.992675, 305, 65, 368, 96
-0.992678, 337, 281, 400, 312
-0.992689, 133, 41, 164, 104
-0.992697, 113, 225, 176, 256
-0.992706, 1, 297, 256, 360
-0.992709, 377, 333, 440, 364
-0.992714, 33, 153, 160, 216
-0.992721, 321, 9, 384, 40
-0.992723, 117, 289, 148, 320
-0.992724, 305, 149, 368, 180
-0.992735, 1, 1, 64, 32
-0.992739, 81, 257, 144, 288
-0.992741, 57, 209, 120, 240
-0.992752, 105, 285, 136, 316
-0.992757, 69, 245, 100, 276
-0.992765, 337, 257, 400, 288
-0.992769, 49, 281, 112, 344
-0.992794, 353, 229, 416, 260
-0.992799, 249, 321, 312, 352
-0.9928, 145, 209, 208, 240
-0.992802, 185, 41, 248, 72
-0.992803, 145, 113, 208, 176
-0.992808, 233, 5, 264, 36
-0.992815, 1, 313, 32, 344
-0.99283, 337, 33, 400, 64
-0.992834, 369, 169, 432, 200
-0.992836, 249, 69, 312, 100
-0.992841, 5, 333, 36, 364
-0.992844, 89, 25, 152, 88
-0.992844, 65, 233, 96, 264
-0.992867, 45, 161, 76, 288
-0.992877, 85, 177, 116, 304
-0.99288, 81, 237, 144, 268
-0.992892, 113, 145, 176, 176
-0.992892, 345, 241, 408, 272
-0.992893, 377, 261, 440, 292
-0.992893, 397, 17, 428, 48
-0.992899, 89, 53, 152, 84
-0.992917, 257, 25, 288, 56
-0.992925, 69, 257, 100, 288
-0.992932, 137, 289, 168, 320
-0.992938, 401, 9, 464, 40
-0.99294, 137, 49, 200, 80
-0.992948, 409, 21, 440, 52
-0.992957, 281, 321, 344, 352
-0.992957, 161, 49, 288, 112
-0.992964, 209, 281, 272, 312
-0.992968, 433, 49, 496, 80
-0.992985, 145, 185, 208, 248
-0.992986, 177, 145, 208, 272
-0.992997, 69, 269, 100, 300
-0.993002, 385, 21, 416, 52
-0.993005, 1, 5, 32, 36
-0.99304, 225, 217, 480, 280
-0.993044, 1, 17, 32, 48
-0.993046, 357, 21, 388, 52
-0.993052, 317, 293, 348, 324
-0.993068, 201, 33, 232, 64
-0.993074, 321, 309, 352, 340
-0.993075, 257, 233, 288, 264
-0.993076, 429, 33, 460, 64
-0.993091, 145, 113, 272, 176
-0.993093, 337, 257, 368, 320
-0.993102, 57, 273, 88, 336
-0.993104, 241, 57, 304, 120
-0.993106, 309, 1, 340, 128
-0.993107, 233, 17, 264, 48
-0.993114, 285, 229, 316, 260
-0.993116, 341, 17, 372, 48
-0.993118, 269, 29, 300, 60
-0.99312, 213, 29, 244, 60
-0.993126, 325, 1, 356, 64
-0.99313, 325, 25, 356, 56
-0.993149, 57, 265, 88, 296
-0.993153, 361, 65, 392, 96
-0.993159, 1, 289, 32, 320
-0.99316, 449, 29, 480, 60
-0.993187, 61, 209, 92, 240
-0.993195, 369, 17, 400, 48
-0.993197, 49, 253, 80, 284
-0.993198, 81, 269, 112, 300
-0.993201, 445, 253, 476, 284
-0.993202, 5, 29, 36, 60
-0.993205, 373, 321, 404, 352
-0.993208, 93, 289, 124, 320
-0.993213, 173, 257, 204, 288
-0.993217, 49, 237, 80, 268
-0.993221, 149, 293, 180, 324
-0.993228, 433, 249, 464, 280
-0.993232, 209, 317, 240, 348
-0.993234, 49, 25, 176, 88
-0.993235, 361, 149, 392, 180
-0.993235, 177, 137, 304, 200
-0.993237, 41, 25, 104, 88
-0.993249, 469, 25, 500, 56
-0.993267, 317, 341, 348, 372
-0.993268, 1, 277, 32, 308
-0.993271, 213, 5, 244, 36
-0.993274, 233, 233, 264, 264
-0.993277, 45, 225, 76, 256
-0.993284, 217, 233, 248, 264
-0.993287, 1, 301, 32, 332
-0.99329, 305, 225, 336, 256
-0.993293, 333, 313, 364, 344
-0.993302, 193, 269, 224, 300
-0.993306, 273, 245, 304, 276
-0.993315, 77, 49, 108, 112
-0.993323, 421, 21, 452, 52
-0.993324, 105, 297, 136, 328
-0.993325, 305, 341, 336, 372
-0.993325, 245, 229, 276, 260
-0.993332, 329, 341, 360, 372
-0.993335, 245, 21, 276, 52
-0.993336, 381, 9, 412, 40
-0.993337, 281, 33, 312, 64
-0.993358, 149, 233, 180, 264
-0.993364, 397, 29, 428, 60
-0.993379, 449, 17, 480, 48
-0.993384, 165, 137, 196, 168
-0.993386, 369, 281, 400, 312
-0.993387, 313, 25, 344, 56
-0.993391, 341, 29, 372, 60
-0.993393, 157, 221, 188, 252
-0.993402, 13, 265, 44, 296
-0.99341, 353, 9, 384, 40
-0.993412, 373, 341, 404, 372
-0.993412, 293, 341, 324, 372
-0.993417, 17, 297, 48, 328
-0.993418, 189, 41, 220, 72
-0.993419, 17, 277, 48, 308
-0.99342, 385, 209, 416, 336
-0.993424, 385, 33, 416, 64
-0.993424, 389, 273, 420, 304
-0.993425, 21, 329, 52, 360
-0.993426, 257, 97, 320, 352
-0.993427, 65, 281, 96, 312
-0.99343, 301, 29, 332, 60
-0.99343, 277, 341, 308, 372
-0.993431, 225, 257, 256, 288
-0.993432, 269, 233, 300, 264
-0.993432, 161, 245, 192, 276
-0.993434, 45, 213, 76, 244
-0.993438, 261, 341, 292, 372
-0.993444, 169, 229, 200, 260
-0.993444, 365, 225, 396, 256
-0.993445, 329, 325, 360, 356
-0.993448, 197, 229, 228, 260
-0.993449, 381, 149, 412, 180
-0.99345, 21, 309, 52, 340
-0.993456, 181, 241, 212, 272
-0.99346, 121, 277, 152, 308
-0.993468, 469, 313, 500, 375
-0.99347, 341, 65, 372, 96
-0.993479, 297, 237, 328, 268
-0.99348, 241, 337, 272, 368
-0.993481, 209, 249, 240, 312
-0.993485, 341, 229, 372, 260
-0.993486, 153, 133, 184, 164
-0.993487, 353, 153, 480, 216
-0.99349, 461, 249, 492, 280
-0.99349, 137, 277, 168, 308
-0.993491, 217, 17, 248, 48
-0.993492, 9, 41, 40, 72
-0.993493, 385, 221, 416, 252
-0.993494, 305, 293, 336, 324
-0.993499, 301, 69, 332, 100
-0.993501, 437, 21, 468, 52
-0.993501, 369, 269, 400, 300
-0.993504, 317, 321, 348, 352
-0.993508, 373, 29, 404, 60
-0.99351, 329, 13, 360, 44
-0.993512, 49, 145, 112, 208
-0.993512, 329, 65, 360, 96
-0.993515, 97, 305, 160, 368
-0.993524, 17, 17, 48, 48
-0.993524, 77, 229, 108, 260
-0.993527, 373, 293, 404, 324
-0.99353, 177, 145, 208, 176
-0.993531, 341, 341, 372, 372
-0.993533, 1, 265, 32, 296
-0.993533, 237, 217, 268, 248
-0.993533, 341, 289, 372, 320
-0.993535, 313, 69, 344, 100
-0.993553, 33, 177, 160, 240
-0.993591, 1, 281, 500, 344
-0.993657, 389, 257, 420, 320
-0.993659, 193, 313, 448, 375
-0.993692, 313, 249, 344, 312
-0.993718, 433, 17, 464, 144
-0.993737, 433, 49, 496, 112
-0.993763, 257, 17, 500, 80
-0.993813, 89, 33, 152, 288
-0.993864, 349, 305, 380, 368
-0.993865, 233, 161, 264, 288
-0.993891, 381, 129, 412, 192
-0.993901, 65, 41, 320, 104
-0.993921, 381, 113, 412, 240
-0.99397, 137, 137, 168, 200
-0.99405, 281, 25, 312, 88
-0.99408, 33, 201, 288, 264
-0.994084, 189, 241, 220, 368
-0.994113, 301, 241, 332, 304
-0.994146, 277, 249, 308, 312
-0.99417, 297, 97, 360, 352
-0.994194, 17, 265, 48, 328
-0.994209, 353, 105, 480, 168
-0.99422, 365, 217, 396, 280
-0.994229, 441, 25, 472, 88
-0.994254, 297, 1, 328, 128
-0.994264, 313, 273, 344, 336
-0.994267, 365, 65, 396, 192
-0.994319, 89, 81, 152, 208
-0.994322, 249, 249, 280, 312
-0.99436, 49, 313, 176, 375
-0.99437, 281, 17, 312, 144
-0.99439, 209, 145, 272, 208
-0.99439, 469, 1, 500, 64
-0.994438, 185, 241, 216, 304
-0.994461, 241, 313, 272, 375
-0.994469, 345, 185, 408, 248
-0.994527, 273, 229, 400, 260
-0.994542, 1, 1, 64, 256
-0.994548, 65, 49, 96, 112
-0.994567, 225, 121, 352, 184
-0.994577, 25, 185, 88, 248
-0.994621, 1, 33, 500, 96
-0.994634, 145, 73, 272, 136
-0.994637, 353, 257, 416, 320
-0.994679, 129, 201, 384, 264
-0.994697, 129, 241, 192, 368
-0.994698, 389, 1, 420, 128
-0.994716, 209, 233, 336, 264
-0.99472, 433, 1, 464, 64
-0.994753, 1, 145, 64, 272
-0.994758, 41, 305, 104, 368
-0.994765, 21, 297, 52, 360
-0.994784, 385, 217, 416, 280
-0.994796, 1, 249, 500, 312
-0.994799, 261, 249, 292, 312
-0.994809, 285, 273, 316, 336
-0.994826, 469, 241, 500, 368
-0.994839, 65, 229, 192, 260
-0.994867, 1, 241, 128, 272
-0.994905, 257, 265, 500, 328
-0.994923, 113, 193, 176, 320
-0.994935, 257, 1, 288, 64
-0.994946, 193, 25, 320, 56
-0.994948, 305, 129, 432, 192
-0.995007, 353, 25, 480, 56
-0.995105, 233, 249, 264, 312
-0.995138, 225, 289, 480, 352
-0.995147, 101, 1, 132, 128
-0.995155, 349, 193, 380, 320
-0.995169, 29, 49, 60, 176
-0.995175, 17, 225, 48, 352
-0.99519, 161, 161, 224, 224
-0.995204, 305, 21, 432, 52
-0.99525, 97, 313, 352, 375
-0.995308, 401, 137, 464, 200
-0.995309, 161, 237, 288, 268
-0.995322, 81, 81, 208, 144
-0.995372, 153, 225, 184, 352
-0.995397, 45, 193, 76, 256
-0.995413, 69, 217, 84, 280
-0.995415, 25, 33, 88, 288
-0.99543, 337, 297, 352, 360
-0.995437, 41, 129, 104, 375
-0.995488, 129, 145, 256, 176
-0.995499, 161, 1, 416, 64
-0.995526, 117, 273, 148, 336
-0.995546, 337, 281, 368, 344
-0.995554, 331, 305, 346, 368
-0.995565, 297, 145, 360, 208
-0.995582, 329, 25, 360, 88
-0.995586, 273, 241, 400, 272
-0.995635, 1, 9, 256, 72
-0.995663, 257, 41, 500, 104
-0.995679, 389, 305, 420, 368
-0.99568, 225, 65, 480, 128
-0.995693, 33, 137, 288, 200
-0.995694, 1, 253, 128, 284
-0.995697, 61, 233, 76, 296
-0.995701, 161, 145, 416, 208
-0.995702, 1, 305, 500, 368
-0.995747, 49, 289, 176, 320
-0.995747, 301, 281, 332, 344
-0.99577, 225, 249, 352, 280
-0.995783, 81, 241, 208, 272
-0.995784, 225, 145, 352, 208
-0.995785, 177, 273, 304, 304
-0.995786, 49, 1, 80, 128
-0.995792, 141, 209, 172, 272
-0.995809, 217, 201, 248, 264
-0.995825, 145, 221, 272, 252
-0.995843, 129, 285, 256, 316
-0.995844, 343, 297, 358, 360
-0.995847, 265, 281, 296, 344
-0.99588, 77, 1, 108, 128
-0.995936, 161, 265, 416, 328
-0.995938, 289, 249, 320, 312
-0.995961, 217, 57, 280, 120
-0.995976, 1, 273, 128, 304
-0.995983, 3, 1, 18, 64
-0.99599, 149, 161, 180, 224
-0.996019, 133, 17, 164, 80
-0.996034, 465, 265, 496, 328
-0.996034, 49, 217, 176, 248
-0.996037, 369, 89, 432, 152
-0.99606, 37, 1, 68, 128
-0.996062, 1, 49, 32, 176
-0.996069, 1, 225, 128, 256
-0.996072, 1, 289, 128, 320
-0.996078, 97, 273, 224, 304
-0.996084, 423, 17, 438, 80
-0.996098, 217, 145, 248, 272
-0.99611, 13, 1, 44, 64
-0.996134, 13, 1, 28, 64
-0.996145, 161, 253, 288, 284
-0.996185, 13, 241, 44, 304
-0.996189, 185, 49, 248, 112
-0.996194, 385, 193, 416, 256
-0.996196, 225, 137, 256, 200
-0.996197, 221, 313, 252, 375
-0.996201, 389, 281, 420, 344
-0.996294, 1, 145, 500, 208
-0.996307, 81, 201, 112, 264
-0.996312, 381, 65, 412, 192
-0.996318, 45, 57, 76, 120
-0.996346, 77, 265, 92, 328
-0.996355, 71, 273, 86, 336
-0.996359, 73, 241, 88, 304
-0.996366, 415, 17, 430, 80
-0.996375, 97, 313, 224, 375
-0.996379, 229, 201, 260, 264
-0.99638, 1, 201, 500, 264
-0.996391, 385, 161, 416, 288
-0.996411, 353, 237, 480, 268
-0.996414, 353, 177, 480, 240
-0.996415, 9, 265, 24, 328
-0.996421, 65, 257, 80, 320
-0.996439, 81, 253, 208, 284
-0.996455, 417, 1, 448, 128
-0.996469, 257, 153, 500, 216
-0.996503, 13, 25, 28, 88
-0.996503, 289, 325, 416, 356
-0.99651, 361, 313, 392, 375
-0.996526, 353, 37, 480, 68
-0.996538, 129, 121, 384, 184
-0.996545, 481, 257, 496, 320
-0.996579, 305, 161, 336, 288
-0.996598, 89, 1, 120, 128
-0.996614, 325, 305, 340, 368
-0.996626, 225, 1, 240, 64
-0.996627, 241, 25, 368, 56
-0.996655, 249, 1, 264, 64
-0.996657, 385, 297, 400, 360
-0.996671, 429, 17, 444, 80
-0.996682, 49, 153, 176, 184
-0.996732, 105, 129, 168, 375
-0.996747, 81, 233, 96, 296
-0.996753, 241, 341, 368, 372
-0.996773, 241, 321, 368, 352
-0.9968, 383, 257, 398, 320
-0.996804, 1, 81, 500, 144
-0.996812, 165, 129, 180, 192
-0.996812, 171, 129, 186, 192
-0.996818, 305, 33, 432, 64
-0.996828, 305, 69, 432, 100
-0.996837, 273, 25, 288, 88
-0.996844, 153, 297, 216, 360
-0.996876, 179, 137, 194, 200
-0.996892, 381, 145, 396, 208
-0.996919, 33, 81, 160, 144
-0.996921, 187, 249, 202, 312
-0.996927, 59, 209, 74, 272
-0.996931, 303, 25, 318, 88
-0.996936, 349, 305, 364, 368
-0.99694, 273, 253, 400, 284
-0.996948, 353, 249, 480, 280
-0.996953, 353, 57, 480, 88
-0.996956, 297, 225, 312, 288
-0.996969, 1, 301, 128, 332
-0.996991, 177, 217, 192, 280
-0.996994, 159, 129, 174, 192
-0.997013, 65, 1, 96, 128
-0.997037, 1, 217, 16, 280
-0.997038, 189, 145, 220, 272
-0.997041, 255, 17, 270, 80
-0.997048, 7, 241, 22, 304
-0.99705, 267, 25, 282, 88
-0.997079, 241, 9, 368, 40
-0.997106, 1, 317, 128, 348
-0.997116, 15, 305, 30, 368
-0.99712, 33, 161, 288, 224
-0.997121, 183, 217, 198, 280
-0.997128, 369, 13, 496, 44
-0.997145, 145, 37, 272, 68
-0.997146, 17, 49, 48, 176
-0.997146, 311, 305, 326, 368
-0.997167, 83, 265, 98, 328
-0.997168, 233, 225, 248, 288
-0.997172, 481, 313, 496, 375
-0.997177, 319, 313, 334, 375
-0.997179, 113, 157, 240, 188
-0.997184, 225, 185, 352, 248
-0.997195, 289, 305, 304, 368
-0.997209, 353, 225, 480, 256
-0.997218, 253, 1, 284, 256
-0.997229, 253, 225, 268, 288
-0.99723, 265, 1, 296, 256
-0.997234, 81, 141, 208, 172
-0.997239, 289, 341, 416, 372
-0.997239, 137, 145, 168, 272
-0.997243, 273, 217, 400, 248
-0.997252, 305, 305, 320, 368
-0.99726, 171, 217, 186, 280
-0.997261, 209, 221, 336, 252
-0.997272, 107, 273, 122, 336
-0.997274, 257, 69, 384, 100
-0.997275, 205, 161, 236, 288
-0.997279, 189, 217, 204, 280
-0.997284, 259, 225, 274, 288
-0.997291, 1, 313, 16, 375
-0.997293, 225, 193, 480, 256
-0.997299, 215, 289, 230, 352
-0.997312, 75, 217, 90, 280
-0.997326, 309, 33, 324, 96
-0.997329, 1, 81, 256, 144
-0.99733, 409, 129, 472, 256
-0.997332, 225, 249, 240, 312
-0.997338, 305, 281, 432, 312
-0.997348, 303, 225, 318, 288
-0.997353, 97, 297, 224, 328
-0.997363, 227, 225, 242, 288
-0.997363, 269, 225, 284, 288
-0.997372, 385, 217, 400, 280
-0.997374, 195, 217, 210, 280
-0.997381, 177, 321, 304, 352
-0.997386, 193, 37, 320, 68
-0.997386, 87, 233, 102, 296
-0.99739, 351, 1, 366, 64
-0.997392, 201, 1, 232, 256
-0.997402, 319, 25, 334, 88
-0.997413, 321, 217, 336, 280
-0.997424, 333, 257, 348, 320
-0.997425, 153, 137, 168, 200
-0.997427, 369, 261, 496, 292
-0.997429, 193, 41, 208, 104
-0.997433, 283, 225, 298, 288
-0.997435, 19, 17, 34, 80
-0.997436, 331, 281, 346, 344
-0.997443, 193, 337, 320, 368
-0.997446, 369, 281, 496, 312
-0.99745, 339, 301, 354, 332
-0.997455, 67, 193, 82, 256
-0.997456, 177, 285, 304, 316
-0.997457, 381, 121, 396, 184
-0.997459, 17, 337, 144, 368
-0.997462, 247, 225, 262, 288
-0.997469, 165, 209, 180, 272
-0.997471, 483, 17, 498, 80
-0.997476, 185, 137, 200, 200
-0.997481, 257, 129, 500, 192
-0.997482, 291, 225, 306, 288
-0.997484, 97, 113, 224, 176
-0.997487, 309, 217, 324, 280
-0.997487, 221, 225, 236, 288
-0.997508, 185, 41, 200, 104
-0.997513, 321, 293, 448, 324
-0.997513, 209, 281, 224, 344
-0.997523, 201, 33, 216, 96
-0.997526, 241, 225, 256, 288
-0.997536, 213, 1, 244, 256
-0.997539, 473, 17, 488, 80
-0.997548, 113, 273, 128, 336
-0.997553, 281, 1, 312, 256
-0.997561, 133, 49, 148, 112
-0.997564, 387, 137, 402, 200
-0.997565, 305, 89, 432, 152
-0.997568, 283, 305, 298, 368
-0.997571, 305, 9, 432, 40
-0.997573, 231, 9, 246, 72
-0.997575, 113, 285, 128, 316
-0.997579, 261, 25, 276, 88
-0.997585, 193, 81, 320, 144
-0.99759, 297, 25, 312, 88
-0.997607, 329, 217, 344, 280
-0.997609, 201, 281, 216, 344
-0.997609, 391, 217, 406, 280
-0.997613, 225, 25, 240, 88
-0.99762, 197, 249, 212, 312
-0.997626, 289, 269, 416, 300
-0.997631, 215, 25, 230, 88
-0.997638, 391, 257, 406, 320
-0.99764, 169, 49, 184, 112
-0.99764, 177, 49, 192, 112
-0.997642, 327, 17, 342, 80
-0.997646, 265, 313, 280, 375
-0.997647, 353, 69, 480, 100
-0.997653, 153, 49, 168, 112
-0.997666, 379, 313, 394, 375
-0.997672, 409, 9, 424, 72
-0.997677, 159, 209, 174, 272
-0.997677, 339, 217, 354, 280
-0.997677, 333, 297, 348, 328
-0.99768, 159, 49, 174, 112
-0.997692, 127, 49, 142, 112
-0.997702, 449, 249, 464, 280
-0.997703, 25, 1, 56, 128
-0.997711, 1, 333, 16, 364
-0.997714, 1, 57, 500, 120
-0.997715, 467, 17, 482, 80
-0.997718, 433, 129, 496, 375
-0.997718, 315, 217, 330, 280
-0.997722, 107, 49, 122, 112
-0.997726, 469, 1, 500, 256
-0.997735, 297, 305, 312, 368
-0.997737, 271, 313, 286, 375
-0.997743, 49, 277, 176, 308
-0.997744, 453, 1, 484, 256
-0.997751, 107, 285, 122, 316
-0.997755, 279, 33, 294, 96
-0.997756, 1, 121, 500, 184
-0.997758, 97, 49, 224, 80
-0.997763, 389, 193, 404, 256
-0.997771, 117, 49, 132, 112
-0.997772, 127, 285, 142, 316
-0.997773, 241, 293, 368, 324
-0.997774, 341, 257, 356, 320
-0.997778, 133, 289, 148, 320
-0.997783, 101, 289, 116, 352
-0.997792, 139, 49, 154, 112
-0.997795, 289, 305, 416, 336
-0.997804, 1, 41, 128, 72
-0.997811, 129, 65, 384, 128
-0.997815, 305, 149, 432, 180
-0.997815, 159, 289, 174, 352
-0.997818, 341, 145, 372, 272
-0.997822, 93, 49, 108, 112
-0.99783, 181, 241, 196, 304
-0.997833, 161, 9, 288, 40
-0.997836, 219, 249, 234, 312
-0.99784, 455, 25, 470, 88
-0.997843, 241, 309, 368, 340
-0.997843, 277, 313, 292, 375
-0.997844, 257, 37, 384, 68
-0.997844, 173, 81, 204, 208
-0.997845, 129, 317, 256, 348
-0.997846, 257, 313, 272, 375
-0.997858, 119, 285, 134, 316
-0.997868, 241, 265, 368, 296
-0.99788, 161, 157, 288, 188
-0.997886, 313, 129, 376, 256
-0.997914, 369, 313, 496, 344
-0.997918, 9, 21, 24, 52
-0.997929, 293, 1, 324, 256
-0.997933, 399, 21, 414, 52
-0.997954, 273, 57, 400, 88
-0.997963, 145, 289, 160, 320
-0.997964, 321, 1, 384, 256
-0.997978, 67, 221, 82, 252
-0.997994, 49, 53, 176, 84
-0.998009, 257, 89, 500, 152
-0.99802, 385, 1, 416, 256
-0.998029, 49, 265, 176, 296
-0.998038, 209, 69, 336, 100
-0.998044, 73, 261, 88, 292
-0.998053, 409, 225, 472, 352
-0.998077, 129, 133, 256, 164
-0.998088, 145, 337, 272, 368
-0.998092, 9, 1, 24, 32
-0.998101, 61, 249, 76, 280
-0.998102, 333, 309, 348, 340
-0.99812, 49, 205, 176, 236
-0.998121, 189, 1, 220, 256
-0.998122, 129, 209, 256, 240
-0.998124, 405, 21, 420, 52
-0.998129, 63, 261, 78, 292
-0.998145, 59, 233, 74, 264
-0.998151, 193, 309, 320, 340
-0.998187, 151, 289, 166, 320
-0.998188, 3, 345, 18, 375
-0.998193, 275, 29, 290, 60
-0.998204, 1, 213, 128, 244
-0.998209, 337, 65, 368, 192
-0.998209, 349, 65, 380, 192
-0.998222, 9, 273, 24, 304
-0.998223, 393, 17, 408, 48
-0.998228, 1, 21, 128, 52
-0.998232, 49, 165, 176, 196
-0.998233, 1, 17, 16, 48
-0.998235, 177, 145, 304, 176
-0.998266, 241, 281, 368, 312
-0.998266, 345, 305, 360, 336
-0.998269, 377, 149, 392, 180
-0.998269, 3, 5, 18, 36
-0.998274, 369, 325, 496, 356
-0.998279, 139, 289, 154, 320
-0.998288, 327, 301, 342, 332
-0.998299, 441, 37, 472, 52
-0.998299, 15, 17, 30, 48
-0.998299, 21, 323, 52, 338
-0.9983, 213, 13, 244, 28
-0.9983, 325, 69, 356, 84
-0.998301, 1, 275, 32, 290
-0.998301, 393, 81, 424, 208
-0.998301, 297, 29, 328, 44
-0.998301, 249, 27, 280, 42
-0.998302, 17, 287, 48, 302
-0.998304, 17, 305, 48, 320
-0.998304, 59, 221, 74, 252
-0.998304, 361, 35, 392, 50
-0.998305, 13, 277, 44, 292
-0.998305, 341, 303, 372, 318
-0.998305, 265, 35, 296, 50
-0.998306, 81, 271, 112, 286
-0.998307, 233, 23, 264, 38
-0.998307, 217, 235, 248, 250
-0.998309, 325, 145, 356, 272
-0.99831, 353, 213, 480, 244
-0.99831, 349, 69, 380, 84
-0.998311, 361, 151, 392, 166
-0.998311, 337, 321, 368, 336
-0.998311, 161, 137, 192, 152
-0.998311, 25, 357, 56, 372
-0.998312, 161, 77, 288, 108
-0.998312, 13, 271, 44, 286
-0.998313, 383, 277, 398, 308
-0.998313, 57, 279, 88, 294
-0.998316, 141, 299, 172, 314
-0.998318, 385, 37, 416, 52
-0.998318, 93, 299, 124, 314
-0.998318, 365, 23, 396, 38
-0.998319, 177, 263, 208, 278
-0.998319, 281, 27, 312, 42
-0.998321, 53, 267, 84, 282
-0.998322, 277, 249, 308, 264
-0.998322, 373, 33, 404, 48
-0.998325, 373, 285, 404, 300
-0.998325, 411, 17, 426, 48
-0.998326, 13, 35, 44, 50
-0.998328, 61, 215, 92, 230
-0.998329, 373, 325, 404, 340
-0.998331, 45, 221, 76, 236
-0.998331, 393, 23, 424, 38
-0.998331, 145, 49, 272, 80
-0.998331, 353, 145, 480, 176
-0.998332, 49, 261, 80, 276
-0.998332, 1, 301, 32, 316
-0.998333, 1, 289, 32, 304
-0.998334, 433, 29, 464, 44
-0.998335, 49, 237, 80, 252
-0.998335, 337, 69, 368, 84
-0.998336, 365, 11, 396, 26
-0.998337, 441, 29, 456, 60
-0.998338, 117, 303, 148, 318
-0.998338, 305, 315, 336, 330
-0.998339, 45, 227, 76, 242
-0.998339, 289, 313, 320, 328
-0.99834, 437, 261, 468, 276
-0.99834, 469, 25, 500, 40
-0.998343, 1, 37, 32, 52
-0.998343, 1, 307, 32, 322
-0.998343, 1, 9, 32, 24
-0.998344, 249, 233, 280, 248
-0.998346, 49, 129, 176, 160
-0.998347, 259, 25, 274, 56
-0.998349, 329, 19, 360, 34
-0.998349, 49, 255, 80, 270
-0.99835, 213, 31, 244, 46
-0.99835, 257, 81, 384, 144
-0.998352, 1, 313, 32, 328
-0.998352, 433, 253, 464, 268
-0.998353, 153, 293, 184, 308
-0.998354, 405, 35, 436, 50
-0.998354, 1, 25, 32, 40
-0.998355, 413, 21, 444, 36
-0.998356, 201, 39, 232, 54
-0.998357, 49, 243, 80, 258
-0.998358, 49, 305, 176, 336
-0.998358, 1, 295, 32, 310
-0.998358, 21, 345, 36, 375
-0.998362, 113, 21, 240, 52
-0.998366, 1, 17, 32, 32
-0.998366, 93, 291, 124, 306
-0.998368, 421, 27, 452, 42
-0.998372, 449, 31, 480, 46
-0.998372, 67, 273, 82, 304
-0.998373, 305, 1, 336, 256
-0.998376, 49, 249, 80, 264
-0.998376, 53, 273, 84, 288
-0.998376, 393, 31, 424, 46
-0.99838, 69, 277, 100, 292
-0.99838, 97, 37, 224, 68
-0.998383, 361, 69, 392, 84
-0.998384, 409, 27, 440, 42
-0.998385, 389, 15, 420, 30
-0.998386, 1, 319, 32, 334
-0.998387, 281, 35, 312, 50
-0.998387, 349, 15, 380, 30
-0.998387, 1, 3, 32, 18
-0.998388, 261, 29, 292, 44
-0.998388, 129, 297, 160, 312
-0.998392, 449, 25, 464, 56
-0.998398, 9, 361, 40, 375
-0.998402, 401, 17, 432, 32
-0.998404, 233, 17, 264, 32
-0.998404, 417, 35, 448, 50
-0.998407, 353, 25, 384, 40
-0.998407, 321, 309, 352, 324
-0.998408, 293, 35, 324, 50
-0.998408, 429, 35, 460, 50
-0.998409, 1, 113, 256, 176
-0.99841, 265, 25, 280, 56
-0.998415, 1, 31, 32, 46
-0.998419, 5, 331, 36, 346
-0.998419, 321, 315, 352, 330
-0.998424, 1, 129, 128, 192
-0.998427, 129, 291, 160, 306
-0.998431, 97, 145, 160, 272
-0.998432, 5, 343, 36, 358
-0.998433, 325, 31, 356, 46
-0.998433, 341, 29, 372, 44
-0.998435, 5, 337, 36, 352
-0.998435, 83, 269, 98, 300
-0.998436, 145, 1, 176, 256
-0.99844, 65, 239, 96, 254
-0.998442, 253, 161, 284, 288
-0.998443, 3, 29, 18, 60
-0.998445, 333, 315, 364, 330
-0.998448, 369, 337, 496, 368
-0.998451, 117, 297, 148, 312
-0.998451, 75, 277, 90, 308
-0.998452, 69, 253, 100, 268
-0.998452, 225, 153, 352, 184
-0.998453, 233, 9, 264, 24
-0.998454, 65, 129, 96, 375
-0.998455, 1, 325, 32, 340
-0.998455, 205, 317, 236, 332
-0.998456, 65, 233, 96, 248
-0.998457, 69, 259, 100, 274
-0.998459, 317, 25, 348, 40
-0.99846, 61, 221, 92, 236
-0.998461, 187, 261, 202, 292
-0.998461, 69, 265, 100, 280
-0.998463, 229, 1, 260, 16
-0.998465, 445, 255, 476, 270
-0.998465, 65, 245, 96, 260
-0.998466, 361, 17, 392, 32
-0.998466, 441, 1, 472, 256
-0.998467, 157, 289, 172, 320
-0.998469, 329, 299, 360, 314
-0.998472, 309, 31, 340, 46
-0.998474, 117, 291, 148, 306
-0.998475, 141, 293, 172, 308
-0.998476, 7, 261, 22, 292
-0.998476, 9, 349, 40, 364
-0.998477, 369, 1, 400, 256
-0.998481, 377, 13, 408, 28
-0.998485, 333, 309, 364, 324
-0.998486, 161, 33, 192, 288
-0.998487, 69, 271, 100, 286
-0.998487, 105, 297, 136, 312
-0.99849, 119, 297, 134, 328
-0.998493, 247, 5, 262, 36
-0.998497, 11, 289, 26, 320
-0.998499, 105, 291, 168, 306
-0.998501, 341, 21, 372, 36
-0.998505, 361, 15, 424, 30
-0.998506, 351, 25, 366, 56
-0.998507, 483, 25, 498, 56
-0.998507, 1, 53, 128, 84
-0.998512, 225, 9, 240, 40
-0.998512, 69, 237, 84, 268
-0.998512, 9, 355, 40, 370
-0.998514, 371, 13, 386, 44
-0.998514, 203, 37, 218, 68
-0.998518, 225, 25, 288, 40
-0.99852, 57, 245, 120, 260
-0.99852, 215, 313, 230, 344
-0.998521, 57, 259, 120, 274
-0.998522, 105, 289, 136, 304
-0.998524, 65, 227, 96, 242
-0.998524, 387, 21, 402, 52
-0.998524, 227, 25, 242, 56
-0.998528, 13, 301, 28, 332
-0.998529, 353, 21, 416, 36
-0.998532, 57, 239, 120, 254
-0.998533, 57, 253, 120, 268
-0.998537, 325, 341, 340, 372
-0.998537, 329, 25, 360, 40
-0.998537, 57, 229, 120, 244
-0.998539, 409, 37, 472, 52
-0.99854, 67, 209, 82, 240
-0.99854, 57, 267, 120, 282
-0.998544, 329, 21, 392, 36
-0.998546, 305, 31, 368, 46
-0.998547, 11, 37, 26, 68
-0.998547, 485, 249, 500, 280
-0.998548, 113, 81, 240, 112
-0.998554, 433, 31, 496, 46
-0.998557, 17, 333, 32, 364
-0.998557, 401, 27, 464, 42
-0.998562, 273, 177, 400, 240
-0.998575, 393, 29, 408, 60
-0.998579, 385, 321, 400, 352
-0.99859, 273, 35, 336, 50
-0.998591, 331, 341, 346, 372
-0.998592, 377, 31, 440, 46
-0.998593, 1, 357, 64, 372
-0.998593, 201, 319, 264, 334
-0.998596, 57, 273, 120, 288
-0.998597, 417, 21, 432, 52
-0.998597, 305, 25, 368, 40
-0.9986, 105, 297, 168, 312
-0.998602, 337, 15, 400, 30
-0.998604, 129, 297, 192, 312
-0.998605, 253, 17, 268, 48
-0.998606, 327, 313, 342, 344
-0.998606, 1, 169, 500, 232
-0.998608, 433, 253, 496, 268
-0.998609, 353, 37, 416, 52
-0.998609, 433, 25, 496, 40
-0.99861, 1, 351, 64, 366
-0.99861, 369, 157, 432, 172
-0.998611, 77, 221, 92, 252
-0.998614, 71, 249, 86, 280
-0.998618, 265, 247, 328, 262
-0.998618, 433, 261, 496, 276
-0.998618, 201, 33, 264, 48
-0.998618, 125, 297, 140, 328
-0.998619, 57, 223, 120, 238
-0.99862, 177, 253, 240, 268
-0.99862, 145, 143, 208, 158
-0.998621, 341, 21, 356, 52
-0.998622, 329, 69, 392, 84
-0.998623, 25, 245, 88, 260
-0.998623, 105, 241, 168, 368
-0.998623, 73, 289, 136, 304
-0.998623, 25, 253, 88, 268
-0.998624, 455, 253, 470, 284
-0.998625, 17, 29, 32, 60
-0.998627, 329, 27, 392, 42
-0.998627, 225, 233, 288, 248
-0.998628, 201, 1, 264, 16
-0.998628, 369, 151, 432, 166
-0.998628, 319, 341, 334, 372
-0.998628, 305, 317, 368, 332
-0.998629, 435, 29, 450, 60
-0.998629, 15, 317, 30, 348
-0.99863, 153, 289, 216, 304
-0.998632, 225, 19, 288, 34
-0.998632, 25, 239, 88, 254
-0.998633, 185, 259, 248, 274
-0.998634, 329, 35, 392, 50
-0.998634, 305, 309, 368, 324
-0.998637, 321, 161, 448, 192
-0.998637, 73, 295, 136, 310
-0.998637, 25, 259, 88, 274
-0.998638, 225, 9, 288, 24
-0.998638, 403, 9, 418, 40
-0.998638, 377, 25, 440, 40
-0.998639, 273, 27, 336, 42
-0.998643, 369, 293, 496, 324
-0.998644, 33, 271, 96, 286
-0.998644, 185, 279, 248, 294
-0.998644, 297, 299, 360, 314
-0.998644, 249, 35, 312, 50
-0.998644, 385, 37, 448, 52
-0.998645, 211, 33, 226, 64
-0.998645, 337, 325, 400, 340
-0.998646, 49, 41, 176, 72
-0.998646, 57, 279, 120, 294
-0.998647, 185, 269, 248, 284
-0.998647, 193, 39, 256, 54
-0.998648, 209, 313, 224, 344
-0.998648, 25, 233, 88, 248
-0.998648, 329, 153, 392, 168
-0.998648, 169, 243, 232, 258
-0.998649, 25, 265, 88, 280
-0.998649, 265, 233, 328, 248
-0.998649, 201, 7, 264, 22
-0.998649, 201, 97, 232, 352
-0.998651, 265, 241, 328, 256
-0.998651, 197, 273, 212, 304
-0.998655, 433, 37, 496, 52
-0.998655, 145, 149, 208, 164
-0.998655, 33, 227, 96, 242
-0.998656, 209, 239, 272, 254
-0.998656, 369, 163, 432, 178
-0.998656, 329, 317, 392, 332
-0.998658, 61, 33, 92, 288
-0.998659, 153, 233, 216, 248
-0.998659, 177, 319, 240, 334
-0.998661, 369, 145, 432, 160
-0.998661, 297, 37, 360, 52
-0.998662, 1, 337, 64, 352
-0.998664, 9, 271, 72, 286
-0.998664, 249, 29, 312, 44
-0.998665, 1, 1, 32, 256
-0.998665, 473, 25, 488, 56
-0.998666, 241, 245, 304, 260
-0.998668, 337, 337, 400, 352
-0.998668, 273, 315, 336, 330
-0.998668, 219, 29, 234, 60
-0.998668, 1, 345, 64, 360
-0.998669, 387, 149, 402, 180
-0.99867, 73, 301, 136, 316
-0.99867, 317, 1, 348, 256
-0.998673, 9, 287, 72, 302
-0.998674, 409, 21, 472, 36
-0.998674, 201, 233, 264, 248
-0.998674, 1, 323, 64, 338
-0.998675, 9, 297, 72, 312
-0.998676, 385, 17, 448, 32
-0.998677, 225, 3, 288, 18
-0.998677, 305, 69, 368, 84
-0.998677, 297, 229, 360, 244
-0.998678, 209, 247, 272, 262
-0.998678, 393, 273, 408, 304
-0.998679, 33, 277, 96, 292
-0.998679, 257, 227, 320, 242
-0.998679, 337, 293, 400, 308
-0.99868, 201, 15, 264, 30
-0.99868, 241, 1, 272, 256
-0.998681, 137, 137, 200, 152
-0.998681, 97, 285, 160, 300
-0.998681, 9, 307, 72, 322
-0.998682, 177, 159, 240, 174
-0.998682, 337, 341, 352, 372
-0.998682, 1, 21, 64, 36
-0.998683, 1, 29, 64, 44
-0.998684, 33, 221, 96, 236
-0.998684, 97, 341, 224, 372
-0.998684, 345, 161, 408, 176
-0.998685, 273, 71, 336, 86
-0.998686, 145, 225, 208, 240
-0.998686, 271, 233, 286, 264
-0.998686, 401, 53, 464, 68
-0.998686, 9, 315, 72, 330
-0.998687, 321, 301, 384, 316
-0.998687, 1, 331, 64, 346
-0.998687, 373, 65, 388, 96
-0.998688, 241, 239, 304, 254
-0.998688, 265, 253, 328, 268
-0.998688, 289, 247, 352, 262
-0.998688, 297, 345, 360, 360
-0.998689, 225, 253, 288, 268
-0.998692, 273, 343, 336, 358
-0.998692, 361, 69, 424, 84
-0.998693, 169, 43, 232, 58
-0.998693, 409, 43, 472, 58
-0.998694, 281, 293, 344, 308
-0.998694, 145, 155, 208, 170
-0.998694, 409, 255, 472, 270
-0.998695, 15, 5, 30, 36
-0.998695, 297, 235, 360, 250
-0.998698, 273, 161, 304, 288
-0.998699, 389, 217, 404, 248
-0.9987, 173, 97, 204, 352
-0.998702, 423, 21, 438, 52
-0.998702, 281, 33, 296, 64
-0.998708, 77, 209, 92, 336
-0.998719, 101, 289, 116, 320
-0.998719, 383, 261, 398, 292
-0.99872, 455, 25, 470, 56
-0.99872, 1, 9, 128, 40
-0.998727, 335, 21, 350, 52
-0.998728, 409, 177, 472, 304
-0.99873, 261, 233, 276, 264
-0.998732, 33, 141, 160, 172
-0.998734, 313, 341, 328, 372
-0.998736, 347, 13, 362, 44
-0.998737, 381, 21, 396, 52
-0.99874, 295, 229, 310, 260
-0.998741, 9, 177, 40, 304
-0.998743, 479, 317, 494, 348
-0.998745, 387, 341, 402, 372
-0.998747, 381, 161, 396, 192
-0.99875, 457, 209, 488, 336
-0.998753, 139, 277, 154, 308
-0.998755, 365, 21, 380, 52
-0.998764, 49, 85, 176, 116
-0.998765, 391, 229, 406, 260
-0.998768, 221, 317, 236, 348
-0.998769, 113, 297, 128, 328
-0.998773, 353, 81, 480, 112
-0.998774, 381, 221, 396, 252
-0.998775, 359, 13, 374, 44
-0.998777, 385, 289, 400, 320
-0.998783, 281, 241, 296, 272
-0.998785, 405, 33, 420, 64
-0.998786, 335, 285, 350, 316
-0.998791, 305, 229, 320, 260
-0.998802, 413, 49, 444, 176
-0.998808, 57, 209, 72, 240
-0.998817, 485, 345, 500, 375
-0.998817, 393, 285, 408, 316
-0.998819, 173, 1, 204, 256
-0.998822, 305, 341, 320, 372
-0.998826, 483, 261, 498, 292
-0.998827, 343, 33, 358, 64
-0.998827, 429, 25, 444, 56
-0.998827, 251, 229, 266, 260
-0.99883, 281, 229, 296, 260
-0.99883, 339, 313, 354, 344
-0.998831, 107, 297, 122, 328
-0.998859, 369, 129, 400, 375
-0.998866, 49, 1, 176, 64
-0.998878, 71, 193, 86, 320
-0.998881, 373, 17, 404, 144
-0.99892, 9, 241, 24, 368
-0.998928, 321, 65, 352, 192
-0.998934, 1, 9, 500, 72
-0.998948, 353, 93, 480, 124
-0.998952, 133, 1, 164, 256
-0.998968, 273, 161, 400, 192
-0.998982, 161, 65, 288, 96
-0.998985, 77, 129, 108, 375
-0.998988, 413, 1, 444, 256
-0.998992, 63, 209, 78, 336
-0.998994, 225, 57, 352, 88
-0.999, 161, 97, 416, 160
-0.999002, 353, 133, 480, 164
-0.999004, 293, 161, 324, 288
-0.999036, 225, 141, 352, 172
-0.999039, 83, 225, 98, 352
-0.999047, 339, 241, 354, 368
-0.999064, 389, 97, 420, 352
-0.999078, 365, 1, 380, 128
-0.999082, 333, 241, 348, 368
-0.999095, 81, 33, 112, 288
-0.999101, 485, 241, 500, 368
-0.99913, 321, 109, 448, 140
-0.999135, 49, 129, 80, 375
-0.99916, 341, 1, 356, 128
-0.999173, 69, 241, 84, 368
-0.999176, 225, 97, 256, 352
-0.999181, 345, 241, 360, 368
-0.999187, 161, 129, 192, 375
-0.999197, 177, 209, 304, 240
-0.999201, 1, 1, 16, 128
-0.999206, 325, 209, 340, 336
-0.999213, 305, 45, 432, 76
-0.999215, 385, 241, 400, 368
-0.99922, 209, 81, 336, 112
-0.999226, 149, 97, 180, 352
-0.999235, 381, 113, 396, 240
-0.999237, 361, 241, 392, 368
-0.999237, 359, 1, 374, 128
-0.999241, 1, 165, 128, 196
-0.999243, 185, 193, 200, 320
-0.999256, 113, 69, 240, 100
-0.999262, 225, 241, 240, 368
-0.999264, 251, 1, 266, 128
-0.999268, 97, 169, 224, 200
-0.999281, 15, 1, 30, 128
-0.999286, 267, 209, 282, 336
-0.999295, 261, 209, 276, 336
-0.999303, 169, 113, 184, 240
-0.999307, 195, 193, 210, 320
-0.999313, 223, 193, 238, 320
-0.999314, 45, 33, 76, 288
-0.999315, 405, 1, 420, 128
-0.999316, 167, 33, 182, 160
-0.999319, 297, 209, 312, 336
-0.999334, 253, 209, 268, 336
-0.999335, 307, 209, 322, 336
-0.999335, 225, 1, 256, 256
-0.999336, 397, 1, 428, 256
-0.99934, 477, 17, 492, 144
-0.999343, 189, 241, 204, 368
-0.999345, 177, 133, 304, 164
-0.999346, 319, 241, 334, 368
-0.999347, 335, 193, 350, 320
-0.999348, 185, 97, 216, 352
-0.999353, 341, 193, 356, 320
-0.999353, 163, 113, 178, 240
-0.999354, 179, 193, 194, 320
-0.999354, 175, 113, 190, 240
-0.999359, 217, 193, 232, 320
-0.999362, 351, 241, 366, 368
-0.999363, 231, 241, 246, 368
-0.999363, 175, 33, 190, 160
-0.999368, 185, 33, 200, 160
-0.99937, 383, 193, 398, 320
-0.99937, 357, 113, 388, 240
-0.999372, 225, 209, 352, 240
-0.999374, 117, 1, 148, 256
-0.999377, 161, 33, 176, 160
-0.999382, 173, 193, 188, 320
-0.999384, 305, 97, 336, 352
-0.999386, 227, 1, 242, 128
-0.999386, 201, 193, 216, 320
-0.999389, 411, 1, 426, 128
-0.999394, 49, 49, 64, 176
-0.999398, 153, 33, 168, 160
-0.999407, 353, 197, 480, 228
-0.999407, 471, 1, 486, 128
-0.999408, 347, 1, 362, 128
-0.999411, 89, 225, 104, 352
-0.999415, 107, 49, 122, 176
-0.999417, 207, 17, 222, 144
-0.999422, 371, 1, 386, 128
-0.999423, 465, 1, 480, 128
-0.999423, 3, 209, 18, 336
-0.999425, 229, 193, 244, 320
-0.999425, 183, 241, 198, 368
-0.999426, 335, 1, 350, 128
-0.999426, 219, 241, 234, 368
-0.999426, 313, 225, 328, 352
-0.999428, 391, 209, 406, 336
-0.99943, 21, 1, 52, 256
-0.999431, 485, 1, 500, 128
-0.999433, 247, 209, 262, 336
-0.999442, 59, 49, 74, 176
-0.999446, 265, 17, 280, 144
-0.999447, 291, 209, 306, 336
-0.999447, 329, 1, 360, 256
-0.999451, 369, 1, 496, 32
-0.999451, 191, 33, 206, 160
-0.999453, 105, 33, 136, 288
-0.999454, 347, 193, 362, 320
-0.999457, 49, 321, 176, 352
-0.999457, 83, 177, 98, 304
-0.99946, 59, 161, 74, 288
-0.99946, 237, 209, 252, 336
-0.999461, 131, 33, 146, 160
-0.999462, 97, 49, 112, 176
-0.999462, 147, 33, 162, 160
-0.999465, 167, 161, 182, 288
-0.999466, 377, 65, 392, 192
-0.999468, 479, 241, 494, 368
-0.999472, 157, 113, 172, 240
-0.999473, 419, 1, 434, 128
-0.999475, 73, 49, 88, 176
-0.999477, 21, 1, 36, 128
-0.999477, 453, 17, 468, 144
-0.999477, 67, 49, 82, 176
-0.999479, 211, 193, 226, 320
-0.99948, 257, 17, 272, 144
-0.999481, 273, 205, 400, 236
-0.999484, 459, 1, 474, 128
-0.999488, 177, 241, 192, 368
-0.999489, 273, 209, 288, 336
-0.99949, 353, 1, 368, 128
-0.999493, 181, 113, 196, 240
-0.999495, 117, 33, 132, 160
-0.999501, 271, 17, 286, 144
-0.999503, 201, 17, 216, 144
-0.999506, 213, 97, 244, 352
-0.999509, 93, 33, 124, 288
-0.999509, 123, 33, 138, 160
-0.999511, 387, 145, 402, 272
-0.999512, 353, 181, 480, 212
-0.999515, 139, 33, 154, 160
-0.99952, 33, 193, 160, 224
-0.999525, 319, 193, 334, 320
-0.999525, 9, 33, 24, 160
-0.999526, 15, 319, 30, 334
-0.999526, 1, 331, 16, 346
-0.999527, 351, 69, 366, 84
-0.999527, 9, 37, 24, 52
-0.999528, 389, 223, 404, 238
-0.999528, 435, 29, 450, 44
-0.999528, 13, 303, 28, 318
-0.999529, 323, 35, 338, 50
-0.99953, 441, 255, 456, 270
-0.999531, 325, 319, 340, 334
-0.999532, 205, 317, 220, 332
-0.999532, 213, 17, 228, 144
-0.999533, 333, 319, 348, 334
-0.999533, 107, 301, 122, 316
-0.999533, 195, 241, 210, 368
-0.999534, 225, 29, 240, 44
-0.999534, 297, 35, 312, 50
-0.999534, 319, 315, 334, 330
-0.999535, 449, 31, 464, 46
-0.999537, 211, 35, 226, 50
-0.999537, 13, 311, 28, 326
-0.999537, 453, 261, 468, 276
-0.999537, 293, 313, 308, 328
-0.999538, 431, 35, 446, 50
-0.999538, 351, 315, 366, 330
-0.999538, 387, 157, 402, 172
-0.999538, 15, 27, 30, 42
-0.999539, 81, 33, 96, 160
-0.999539, 7, 15, 22, 30
-0.999539, 311, 315, 326, 330
-0.99954, 441, 29, 456, 44
-0.99954, 327, 33, 342, 160
-0.99954, 1, 23, 16, 38
-0.999541, 131, 303, 146, 318
-0.999541, 217, 317, 232, 332
-0.999541, 455, 255, 470, 270
-0.999541, 409, 27, 424, 42
-0.999542, 91, 49, 106, 176
-0.999543, 71, 255, 86, 270
-0.999544, 377, 151, 392, 166
-0.999544, 1, 13, 16, 28
-0.999544, 1, 39, 16, 54
-0.999545, 303, 313, 318, 328
-0.999546, 317, 1, 332, 128
-0.999547, 221, 17, 236, 144
-0.999547, 15, 35, 30, 50
-0.99955, 1, 3, 16, 18
-0.99955, 421, 23, 436, 38
-0.99955, 17, 19, 32, 34
-0.99955, 363, 23, 378, 38
-0.999551, 411, 37, 426, 52
-0.999551, 13, 11, 28, 26
-0.999551, 279, 17, 294, 144
-0.999552, 357, 1, 388, 256
-0.999552, 357, 25, 372, 40
-0.999552, 325, 313, 340, 328
-0.999553, 67, 235, 82, 250
-0.999553, 331, 307, 346, 322
-0.999553, 57, 223, 72, 238
-0.999553, 423, 35, 438, 50
-0.999554, 383, 285, 398, 300
-0.999554, 353, 193, 368, 320
-0.999556, 67, 219, 82, 234
-0.999556, 161, 161, 176, 288
-0.999556, 89, 177, 104, 304
-0.999556, 405, 33, 420, 48
-0.999557, 285, 209, 300, 336
-0.999558, 331, 33, 346, 48
-0.99956, 429, 27, 444, 42
-0.99956, 437, 35, 452, 50
-0.99956, 275, 31, 290, 46
-0.999561, 417, 35, 432, 50
-0.999562, 141, 299, 156, 314
-0.999563, 73, 265, 88, 280
-0.999564, 69, 245, 84, 260
-0.999564, 1, 345, 16, 360
-0.999565, 1, 239, 16, 254
-0.999567, 75, 281, 90, 296
-0.999567, 385, 13, 400, 28
-0.999567, 77, 161, 92, 288
-0.999568, 57, 229, 72, 244
-0.999569, 9, 3, 24, 18
-0.99957, 343, 29, 358, 44
-0.999571, 305, 33, 320, 48
-0.999572, 411, 19, 426, 34
-0.999572, 447, 17, 462, 144
-0.999573, 483, 25, 498, 40
-0.999574, 3, 351, 18, 366
-0.999574, 33, 1, 64, 256
-0.999575, 61, 247, 76, 262
-0.999575, 405, 17, 420, 32
-0.999576, 415, 29, 430, 44
-0.999576, 399, 15, 414, 30
-0.999577, 447, 259, 462, 274
-0.999579, 349, 27, 364, 42
-0.999579, 9, 29, 24, 44
-0.99958, 61, 259, 76, 274
-0.999581, 339, 315, 354, 330
-0.999584, 21, 353, 36, 368
-0.999584, 203, 39, 218, 54
-0.999585, 311, 33, 326, 160
-0.999585, 211, 317, 226, 332
-0.999586, 63, 267, 78, 282
-0.999588, 337, 31, 352, 46
-0.999588, 389, 97, 404, 224
-0.999588, 9, 275, 24, 290
-0.999588, 303, 1, 318, 128
-0.99959, 391, 13, 406, 28
-0.99959, 59, 241, 74, 256
-0.99959, 67, 225, 82, 240
-0.999591, 375, 113, 390, 240
-0.999592, 345, 309, 360, 324
-0.999592, 319, 29, 334, 44
-0.999592, 279, 209, 294, 336
-0.999593, 65, 275, 80, 290
-0.999593, 61, 253, 76, 268
-0.999594, 377, 13, 392, 28
-0.999595, 443, 35, 458, 50
-0.999596, 59, 235, 74, 250
-0.999597, 135, 297, 150, 312
-0.999598, 311, 31, 326, 46
-0.999598, 201, 241, 216, 368
-0.999599, 341, 303, 356, 318
-0.9996, 425, 1, 456, 256
-0.999601, 345, 315, 360, 330
-0.999602, 1, 33, 16, 48
-0.999603, 43, 49, 58, 176
-0.999606, 325, 27, 340, 42
-0.999608, 351, 19, 366, 34
-0.999609, 321, 97, 352, 352
-0.99961, 141, 293, 156, 308
-0.999612, 151, 113, 166, 240
-0.999613, 285, 17, 300, 144
-0.999614, 213, 241, 228, 368
-0.999615, 357, 241, 372, 368
-0.999621, 371, 15, 386, 30
-0.999622, 383, 65, 398, 192
-0.999624, 73, 271, 88, 286
-0.999626, 1, 337, 16, 352
-0.999627, 107, 295, 122, 310
-0.99963, 361, 17, 376, 32
-0.999631, 345, 21, 360, 36
-0.999632, 119, 297, 134, 312
-0.999633, 187, 145, 202, 272
-0.999633, 149, 293, 164, 308
-0.999633, 111, 289, 126, 304
-0.999633, 331, 313, 346, 328
-0.999633, 135, 291, 150, 306
-0.999647, 113, 297, 128, 312
-0.999648, 337, 23, 352, 38
-0.999649, 237, 97, 268, 352
-0.999651, 3, 361, 18, 375
-0.999652, 331, 25, 346, 40
-0.999658, 123, 291, 138, 306
-0.999659, 157, 293, 172, 308
-0.999659, 129, 297, 144, 312
-0.999661, 339, 309, 354, 324
-0.999667, 249, 97, 280, 352
-0.999677, 105, 287, 120, 302
-0.999679, 335, 299, 350, 314
-0.999684, 117, 289, 132, 304
-0.999687, 129, 289, 144, 304
-0.999709, 293, 97, 324, 352
-0.99971, 137, 81, 168, 208
-0.999745, 449, 253, 464, 268
-0.999793, 265, 97, 296, 352
-0.999803, 161, 169, 416, 232
-0.999808, 281, 97, 312, 352
-0.999825, 437, 225, 468, 352
-0.999863, 333, 97, 364, 352
-0.999886, 89, 129, 120, 375
-0.999895, 469, 193, 500, 320
-0.999934, 401, 97, 464, 352
-1.00003, 265, 65, 328, 192
-1.00009, 37, 129, 68, 375
-1.00009, 105, 241, 136, 368
-1.00013, 137, 129, 168, 375
-1.00015, 309, 49, 340, 176
-1.00025, 141, 193, 172, 320
-1.00028, 17, 129, 48, 375
-1.00032, 465, 129, 496, 375
-1.00033, 345, 1, 376, 256
-1.00039, 345, 97, 376, 352
-1.00047, 1, 129, 32, 375
-1.00053, 117, 129, 148, 375
-1.00055, 1, 105, 128, 168
-1.00057, 37, 113, 68, 240
-1.00058, 401, 97, 432, 352
-1.0006, 357, 97, 388, 352
-1.00069, 433, 129, 464, 375
-1.00071, 33, 97, 96, 224
-1.0008, 125, 81, 156, 208
-1.0008, 413, 129, 444, 375
-1.00087, 57, 97, 88, 224
-1.0009, 101, 129, 132, 375
-1.00097, 425, 65, 488, 192
-1.00105, 453, 97, 484, 352
-1.00122, 397, 145, 428, 272
-1.00133, 241, 65, 304, 192
-1.00156, 185, 81, 216, 208
-1.00172, 217, 65, 280, 192
-1.00179, 1, 129, 32, 256
-1.00181, 297, 49, 328, 176
-1.00183, 109, 81, 140, 208
-1.00185, 229, 113, 260, 240
-1.00188, 469, 145, 500, 272
-1.00198, 81, 129, 112, 256
-1.00199, 41, 209, 72, 336
-1.00211, 117, 241, 148, 368
-1.00221, 221, 65, 252, 192
-1.00224, 197, 65, 228, 192
-1.00273, 125, 145, 156, 272
-1.00376, 281, 129, 344, 256
-1.00429, 433, 145, 496, 272
-1.00453, 1, 97, 64, 224
-1.00465, 241, 129, 304, 256
-1.00523, 201, 113, 264, 240
