1999
-0.460514, 1, 97, 500, 352
-0.605316, 1, 1, 500, 400
-0.649675, 1, 1, 500, 256
-0.69976, 193, 1, 448, 400
-0.710132, 257, 97, 500, 352
-0.719688, 97, 1, 352, 400
-0.736032, 1, 1, 256, 400
-0.746225, 161, 65, 416, 320
-0.761982, 33, 129, 288, 384
-0.877919, 273, 65, 400, 320
-0.890416, 1, 177, 500, 304
-0.900499, 321, 129, 448, 384
-0.906028, 273, 1, 400, 400
-0.908647, 49, 129, 176, 384
-0.908779, 177, 129, 304, 384
-0.909611, 1, 113, 500, 240
-0.916071, 113, 129, 240, 384
-0.916357, 225, 97, 352, 352
-0.919039, 33, 33, 288, 288
-0.92031, 369, 129, 496, 384
-0.925813, 129, 1, 256, 400
-0.925846, 321, 33, 448, 288
-0.926372, 129, 177, 384, 304
-0.927635, 257, 161, 500, 288
-0.927848, 1, 97, 128, 352
-0.927888, 193, 1, 320, 400
-0.928228, 49, 1, 176, 400
-0.929178, 353, 1, 480, 400
-0.932987, 1, 225, 500, 352
-0.933525, 193, 113, 448, 240
-0.940817, 1, 1, 128, 400
-0.94248, 97, 33, 224, 288
-0.943124, 369, 33, 496, 288
-0.944795, 273, 113, 400, 240
-0.945836, 209, 177, 336, 304
-0.947483, 289, 177, 416, 304
-0.94884, 257, 177, 320, 304
-0.950112, 145, 33, 272, 288
-0.95062, 281, 145, 344, 272
-0.951046, 65, 129, 320, 256
-0.952696, 313, 97, 376, 224
-0.952787, 1, 193, 256, 320
-0.954204, 145, 193, 272, 320
-0.954227, 337, 145, 464, 272
-0.956259, 225, 225, 480, 352
-0.956309, 49, 33, 176, 288
-0.956792, 193, 177, 256, 304
-0.957042, 233, 193, 296, 320
-0.957046, 289, 193, 352, 320
-0.957394, 153, 177, 216, 304
-0.958515, 225, 1, 352, 256
-0.958809, 129, 225, 384, 352
-0.959787, 329, 145, 392, 272
-0.960613, 209, 129, 336, 256
-0.960718, 113, 161, 176, 288
-0.964007, 97, 177, 224, 304
-0.965267, 321, 97, 384, 160
-0.965761, 145, 145, 272, 272
-0.967166, 369, 161, 432, 288
-0.967294, 313, 185, 376, 248
-0.967317, 185, 129, 248, 256
-0.968153, 1, 241, 256, 368
-0.968764, 313, 193, 376, 320
-0.968898, 321, 97, 448, 224
-0.969217, 289, 225, 416, 352
-0.969439, 225, 225, 352, 352
-0.970091, 153, 129, 216, 256
-0.970163, 257, 129, 320, 256
-0.970273, 305, 145, 368, 272
-0.970302, 265, 193, 328, 256
-0.970352, 337, 193, 400, 320
-0.970576, 289, 97, 352, 224
-0.97063, 241, 233, 304, 296
-0.970969, 257, 1, 500, 256
-0.971359, 193, 201, 256, 264
-0.971412, 353, 185, 416, 248
-0.971495, 337, 97, 400, 224
-0.972007, 1, 65, 500, 192
-0.972047, 193, 177, 256, 240
-0.972402, 353, 193, 480, 320
-0.972526, 185, 233, 248, 296
-0.972662, 233, 129, 296, 256
-0.97276, 425, 113, 488, 240
-0.97339, 129, 113, 192, 240
-0.97356, 89, 177, 152, 304
-0.973923, 417, 121, 480, 184
-0.973972, 89, 193, 152, 256
-0.974157, 49, 161, 176, 288
-0.974162, 265, 241, 328, 368
-0.974369, 409, 161, 472, 288
-0.974705, 241, 193, 304, 256
-0.974734, 321, 65, 384, 320
-0.975374, 1, 193, 128, 320
-0.975626, 289, 177, 352, 240
-0.975753, 289, 233, 352, 296
-0.975919, 329, 153, 392, 216
-0.975954, 161, 201, 224, 264
-0.975973, 97, 129, 224, 256
-0.976198, 273, 153, 336, 216
-0.976204, 353, 161, 416, 224
-0.976328, 217, 233, 280, 296
-0.976396, 105, 169, 168, 232
-0.976662, 209, 129, 272, 256
-0.977168, 217, 193, 280, 256
-0.977687, 265, 193, 296, 320
-0.977689, 289, 113, 352, 176
-0.977738, 265, 249, 328, 312
-0.978278, 289, 177, 320, 304
-0.978334, 257, 65, 500, 192
-0.978474, 121, 225, 184, 288
-0.978628, 137, 193, 200, 256
-0.978662, 225, 193, 352, 256
-0.978781, 201, 257, 264, 320
-0.978857, 433, 193, 496, 320
-0.978981, 65, 209, 128, 272
-0.979417, 361, 217, 424, 280
-0.979438, 417, 201, 480, 264
-0.979632, 153, 169, 216, 232
-0.979821, 277, 177, 308, 304
-0.979877, 105, 241, 168, 368
-0.979883, 65, 225, 192, 352
-0.979972, 369, 225, 432, 352
-0.980189, 41, 193, 104, 320
-0.980409, 217, 169, 280, 232
-0.980566, 1, 1, 128, 256
-0.980873, 65, 193, 128, 320
-0.980911, 305, 177, 336, 304
-0.980953, 113, 193, 176, 256
-0.981166, 385, 161, 448, 224
-0.981176, 97, 241, 160, 304
-0.981319, 129, 129, 192, 384
-0.981417, 97, 185, 224, 248
-0.981458, 273, 113, 400, 176
-0.981521, 137, 225, 200, 352
-0.981554, 177, 201, 304, 264
-0.981567, 249, 153, 312, 216
-0.981614, 325, 185, 356, 248
-0.981657, 177, 225, 240, 352
-0.981717, 177, 241, 304, 368
-0.981749, 289, 185, 416, 248
-0.981843, 217, 193, 248, 320
-0.98202, 129, 169, 192, 232
-0.982175, 233, 241, 296, 368
-0.982179, 253, 193, 284, 320
-0.98218, 257, 129, 320, 192
-0.982183, 97, 81, 352, 208
-0.982199, 189, 177, 220, 304
-0.982209, 145, 233, 208, 296
-0.982218, 297, 97, 360, 352
-0.982245, 49, 113, 176, 240
-0.982252, 81, 129, 144, 256
-0.982486, 345, 81, 376, 208
-0.98252, 301, 113, 332, 240
-0.98259, 369, 97, 496, 224
-0.98264, 289, 225, 416, 288
-0.982667, 409, 225, 472, 352
-0.982735, 257, 153, 384, 216
-0.983148, 393, 201, 456, 264
-0.983161, 361, 113, 424, 240
-0.983201, 265, 225, 328, 288
-0.983283, 313, 113, 344, 240
-0.983306, 209, 225, 272, 352
-0.983311, 129, 233, 256, 296
-0.983377, 313, 217, 376, 280
-0.983437, 345, 89, 376, 152
-0.98356, 145, 169, 272, 232
-0.983696, 89, 129, 152, 384
-0.98373, 173, 193, 204, 320
-0.983768, 237, 193, 268, 320
-0.98389, 41, 209, 104, 272
-0.983978, 201, 201, 232, 264
-0.984072, 353, 121, 480, 184
-0.984115, 393, 113, 456, 240
-0.98423, 325, 145, 356, 272
-0.984252, 97, 161, 224, 224
-0.984292, 193, 241, 320, 304
-0.984446, 305, 161, 432, 224
-0.984624, 113, 241, 240, 368
-0.984734, 297, 193, 328, 256
-0.984787, 353, 129, 416, 192
-0.984792, 201, 193, 232, 320
-0.984832, 193, 169, 320, 232
-0.984844, 353, 161, 480, 224
-0.984855, 353, 129, 416, 384
-0.984989, 313, 185, 344, 248
-0.985022, 337, 225, 400, 288
-0.985032, 377, 129, 440, 384
-0.985076, 113, 177, 144, 240
-0.985096, 321, 193, 352, 320
-0.985136, 1, 233, 64, 296
-0.985178, 233, 201, 264, 264
-0.985184, 49, 193, 176, 256
-0.985195, 81, 241, 144, 368
-0.985256, 289, 241, 352, 368
-0.985292, 221, 233, 252, 296
-0.985301, 373, 177, 404, 304
-0.985347, 17, 193, 80, 320
-0.985474, 305, 153, 368, 216
-0.985483, 289, 257, 352, 320
-0.985489, 121, 249, 184, 312
-0.985642, 337, 49, 464, 176
-0.985644, 129, 161, 160, 288
-0.985874, 249, 193, 280, 256
-0.985886, 161, 129, 224, 384
-0.9859, 1, 145, 128, 272
-0.985986, 41, 145, 104, 272
-0.986037, 285, 129, 316, 256
-0.986187, 209, 137, 336, 200
-0.98626, 1, 273, 500, 400
-0.986311, 369, 161, 400, 224
-0.986347, 57, 161, 120, 224
-0.986467, 129, 33, 384, 160
-0.98651, 449, 121, 480, 184
-0.986543, 209, 137, 272, 200
-0.986544, 385, 177, 416, 304
-0.986558, 289, 225, 320, 288
-0.986581, 241, 225, 368, 288
-0.986598, 233, 241, 264, 304
-0.98661, 353, 241, 480, 368
-0.986613, 289, 209, 352, 272
-0.986614, 361, 145, 392, 272
-0.98674, 393, 121, 456, 184
-0.986748, 321, 97, 448, 160
-0.986772, 189, 129, 220, 256
-0.98679, 433, 161, 496, 224
-0.9868, 393, 225, 456, 288
-0.986879, 213, 201, 244, 264
-0.986896, 325, 97, 356, 224
-0.986904, 1, 209, 128, 272
-0.986931, 189, 201, 220, 264
-0.987033, 337, 145, 368, 272
-0.987155, 265, 145, 296, 272
-0.987256, 301, 169, 332, 232
-0.987353, 105, 113, 168, 240
-0.987453, 261, 193, 292, 256
-0.987486, 305, 225, 336, 288
-0.98755, 97, 217, 160, 280
-0.987677, 273, 241, 304, 304
-0.987873, 209, 129, 240, 256
-0.987873, 109, 161, 140, 288
-0.987963, 333, 193, 364, 320
-0.987978, 225, 129, 288, 384
-0.987997, 209, 65, 336, 192
-0.988034, 157, 193, 188, 320
-0.988073, 273, 97, 336, 352
-0.988089, 453, 177, 484, 304
-0.988094, 81, 169, 144, 232
-0.988192, 437, 121, 468, 184
-0.988255, 201, 169, 232, 232
-0.988328, 221, 177, 252, 240
-0.98837, 65, 225, 192, 288
-0.9884, 197, 233, 228, 296
-0.988465, 233, 129, 296, 192
-0.988487, 353, 217, 480, 280
-0.988521, 409, 161, 472, 224
-0.988525, 185, 129, 248, 384
-0.988527, 441, 145, 472, 272
-0.988614, 9, 209, 72, 272
-0.988833, 17, 169, 144, 232
-0.988874, 185, 137, 248, 200
-0.988949, 353, 185, 384, 248
-0.988955, 101, 193, 132, 256
-0.988982, 133, 161, 164, 224
-0.989017, 353, 193, 480, 256
-0.98907, 249, 97, 312, 352
-0.9891, 73, 233, 136, 296
-0.989144, 401, 97, 464, 352
-0.989192, 345, 193, 376, 320
-0.989279, 285, 249, 316, 312
-0.989351, 277, 193, 308, 256
-0.989355, 313, 49, 376, 176
-0.989405, 173, 129, 204, 256
-0.98942, 297, 249, 328, 312
-0.989423, 313, 161, 344, 224
-0.989432, 301, 121, 332, 184
-0.989434, 65, 129, 128, 384
-0.989479, 113, 181, 176, 212
-0.989566, 145, 97, 272, 224
-0.989588, 417, 233, 480, 296
-0.98962, 145, 193, 208, 224
-0.989668, 245, 233, 276, 296
-0.989698, 277, 225, 308, 352
-0.989795, 225, 257, 288, 320
-0.98982, 349, 145, 380, 272
-0.989834, 169, 193, 200, 256
-0.990019, 33, 97, 96, 352
-0.990035, 381, 185, 412, 248
-0.990064, 469, 121, 500, 184
-0.990126, 289, 129, 320, 192
-0.990161, 361, 217, 392, 280
-0.9902, 325, 161, 356, 224
-0.990202, 225, 129, 256, 256
-0.990274, 189, 177, 220, 240
-0.990352, 273, 189, 336, 220
-0.99043, 1, 145, 64, 272
-0.99047, 337, 161, 368, 224
-0.990495, 273, 65, 400, 192
-0.990511, 425, 121, 456, 184
-0.990542, 361, 193, 392, 320
-0.990571, 433, 97, 496, 352
-0.990605, 337, 177, 400, 208
-0.990644, 313, 189, 376, 220
-0.990649, 273, 169, 304, 232
-0.990662, 321, 105, 384, 136
-0.990663, 325, 105, 356, 168
-0.990668, 465, 145, 496, 272
-0.990736, 169, 197, 232, 228
-0.990739, 1, 81, 256, 208
-0.99074, 285, 169, 316, 232
-0.990795, 337, 193, 368, 256
-0.990839, 145, 161, 176, 288
-0.990972, 129, 209, 256, 272
-0.990988, 113, 257, 240, 320
-0.990995, 33, 233, 96, 296
-0.991011, 317, 209, 348, 272
-0.991013, 217, 257, 248, 320
-0.991024, 253, 145, 284, 272
-0.991041, 257, 249, 384, 312
-0.991058, 417, 125, 480, 156
-0.991073, 129, 225, 160, 288
-0.991076, 145, 137, 272, 200
-0.991083, 401, 161, 432, 288
-0.99111, 169, 185, 232, 216
-0.991129, 233, 169, 264, 232
-0.991159, 89, 193, 152, 224
-0.991165, 265, 253, 328, 284
-0.991216, 321, 1, 384, 400
-0.99123, 137, 177, 200, 208
-0.991253, 245, 161, 276, 224
-0.991281, 233, 241, 296, 272
-0.991288, 153, 137, 216, 200
-0.991307, 369, 241, 496, 304
-0.991354, 129, 205, 192, 236
-0.991372, 49, 249, 176, 312
-0.991373, 321, 117, 384, 148
-0.991397, 237, 129, 268, 256
-0.991398, 313, 177, 376, 208
-0.991416, 157, 113, 188, 240
-0.991442, 289, 253, 352, 284
-0.991516, 357, 153, 388, 216
-0.991527, 289, 177, 352, 208
-0.991533, 193, 193, 448, 256
-0.991535, 209, 233, 240, 296
-0.991559, 113, 169, 176, 200
-0.99157, 177, 257, 240, 320
-0.991621, 261, 169, 292, 232
-0.991636, 217, 257, 280, 288
-0.991642, 241, 181, 304, 212
-0.991651, 305, 137, 432, 200
-0.991695, 289, 121, 352, 152
-0.991729, 153, 165, 216, 196
-0.991751, 241, 201, 304, 232
-0.991764, 193, 205, 256, 236
-0.991765, 121, 193, 184, 224
-0.99177, 353, 89, 416, 152
-0.991775, 297, 225, 360, 256
-0.991799, 73, 205, 136, 236
-0.991882, 265, 241, 328, 272
-0.991915, 393, 213, 456, 244
-0.99192, 273, 229, 336, 260
-0.991925, 281, 265, 344, 296
-0.991937, 369, 217, 432, 248
-0.991942, 69, 209, 100, 272
-0.99195, 97, 249, 160, 280
-0.991952, 241, 253, 304, 284
-0.991953, 97, 273, 352, 400
-0.991956, 193, 253, 256, 284
-0.991961, 337, 93, 400, 124
-0.991994, 17, 241, 144, 368
-0.991999, 149, 225, 180, 288
-0.992007, 425, 197, 488, 228
-0.992026, 161, 209, 224, 240
-0.992027, 273, 89, 400, 152
-0.992036, 185, 237, 248, 268
-0.992037, 225, 169, 288, 200
-0.992045, 105, 265, 168, 296
-0.992054, 249, 137, 312, 168
-0.992068, 265, 169, 328, 200
-0.992075, 345, 33, 408, 288
-0.992076, 193, 185, 256, 216
-0.992088, 121, 233, 184, 264
-0.992088, 369, 185, 400, 248
-0.992091, 329, 225, 392, 256
-0.992132, 129, 113, 160, 240
-0.992147, 289, 241, 352, 272
-0.992149, 361, 65, 424, 192
-0.992179, 137, 253, 200, 284
-0.992182, 209, 265, 336, 328
-0.992188, 25, 185, 88, 248
-0.992224, 9, 233, 72, 264
-0.992264, 337, 165, 400, 196
-0.992269, 217, 201, 280, 232
-0.992274, 321, 121, 384, 184
-0.992291, 389, 161, 420, 224
-0.992295, 81, 237, 144, 268
-0.99231, 129, 265, 192, 296
-0.992328, 425, 217, 488, 248
-0.992331, 209, 241, 272, 272
-0.992344, 377, 169, 440, 200
-0.992361, 57, 217, 120, 248
-0.99237, 361, 233, 424, 264
-0.992376, 109, 209, 140, 336
-0.992397, 313, 93, 376, 124
-0.992401, 313, 113, 344, 176
-0.992402, 217, 181, 280, 212
-0.992428, 193, 265, 256, 296
-0.992432, 401, 225, 464, 256
-0.992435, 353, 189, 416, 220
-0.992457, 233, 157, 296, 188
-0.99247, 417, 161, 448, 288
-0.992512, 289, 249, 320, 280
-0.992536, 453, 113, 484, 240
-0.992557, 209, 97, 336, 160
-0.99256, 177, 197, 208, 228
-0.99257, 201, 169, 264, 200
-0.992573, 373, 217, 404, 280
-0.992588, 361, 137, 424, 168
-0.992596, 125, 201, 156, 264
-0.992596, 33, 225, 96, 256
-0.9926, 465, 193, 496, 320
-0.992618, 289, 165, 352, 196
-0.992621, 129, 249, 160, 312
-0.992647, 17, 145, 144, 208
-0.992659, 177, 173, 240, 204
-0.99266, 289, 225, 320, 352
-0.992662, 145, 225, 208, 256
-0.992673, 393, 133, 456, 164
-0.992681, 1, 129, 64, 384
-0.992688, 161, 193, 192, 224
-0.992694, 49, 205, 112, 236
-0.992697, 257, 149, 320, 180
-0.992701, 349, 97, 380, 128
-0.992718, 257, 265, 320, 296
-0.992727, 289, 133, 352, 164
-0.992731, 65, 201, 320, 264
-0.992739, 325, 185, 356, 216
-0.99275, 193, 201, 224, 232
-0.992777, 121, 217, 184, 248
-0.992789, 221, 137, 252, 200
-0.992805, 257, 273, 500, 400
-0.99282, 153, 193, 184, 256
-0.992834, 221, 249, 252, 280
-0.992853, 169, 249, 232, 280
-0.992859, 105, 205, 168, 236
-0.992865, 181, 185, 212, 216
-0.992874, 265, 201, 328, 232
-0.992876, 161, 177, 192, 208
-0.992877, 25, 201, 88, 232
-0.992891, 113, 185, 144, 216
-0.992904, 321, 133, 384, 164
-0.992912, 73, 181, 136, 212
-0.992924, 313, 165, 376, 196
-0.992927, 129, 257, 160, 288
-0.992936, 77, 193, 108, 320
-0.992939, 225, 137, 288, 168
-0.99294, 437, 193, 468, 256
-0.992944, 365, 177, 396, 208
-0.992946, 453, 197, 484, 228
-0.992952, 313, 185, 344, 216
-0.992986, 109, 113, 140, 240
-0.992999, 313, 253, 376, 284
-0.993005, 97, 121, 224, 184
-0.993007, 353, 117, 416, 148
-0.99301, 353, 105, 416, 136
-0.993027, 293, 189, 324, 220
-0.99303, 249, 229, 312, 260
-0.993032, 305, 225, 336, 352
-0.993047, 321, 113, 352, 144
-0.99305, 385, 237, 448, 268
-0.993056, 73, 169, 136, 200
-0.993056, 49, 189, 112, 220
-0.993059, 69, 209, 100, 240
-0.993065, 161, 237, 224, 268
-0.993065, 161, 169, 416, 232
-0.993072, 329, 213, 392, 244
-0.993098, 85, 201, 116, 264
-0.993101, 341, 177, 372, 208
-0.993103, 385, 201, 448, 232
-0.993114, 433, 229, 496, 260
-0.993122, 149, 181, 180, 212
-0.993122, 297, 125, 328, 156
-0.993124, 289, 205, 352, 236
-0.993129, 101, 189, 132, 220
-0.993135, 401, 213, 432, 244
-0.993139, 1, 221, 64, 252
-0.993145, 41, 237, 104, 268
-0.993149, 269, 181, 300, 212
-0.99315, 113, 241, 144, 304
-0.993155, 209, 225, 272, 256
-0.993162, 193, 189, 224, 220
-0.993163, 257, 121, 500, 184
-0.993165, 361, 157, 424, 188
-0.993171, 317, 225, 348, 256
-0.993175, 293, 261, 324, 292
-0.993176, 261, 233, 292, 296
-0.993183, 149, 193, 180, 224
-0.993207, 177, 209, 208, 240
-0.993212, 17, 229, 48, 260
-0.993216, 1, 233, 128, 296
-0.993217, 361, 205, 424, 236
-0.993218, 241, 201, 272, 232
-0.993227, 49, 185, 112, 248
-0.993228, 273, 241, 304, 272
-0.993231, 81, 209, 112, 240
-0.993237, 449, 125, 480, 156
-0.993239, 205, 205, 236, 236
-0.99324, 133, 165, 164, 196
-0.993245, 433, 125, 464, 156
-0.993251, 305, 265, 336, 296
-0.993253, 193, 157, 256, 188
-0.99326, 357, 97, 388, 224
-0.993263, 257, 181, 288, 212
-0.993265, 89, 197, 120, 228
-0.993266, 293, 177, 324, 208
-0.993268, 377, 253, 440, 284
-0.993271, 221, 237, 252, 268
-0.993275, 169, 221, 232, 252
-0.993281, 225, 1, 288, 400
-0.993292, 353, 177, 384, 208
-0.993293, 153, 165, 184, 196
-0.993293, 289, 237, 320, 268
-0.993295, 29, 229, 60, 260
-0.993295, 417, 165, 480, 196
-0.993299, 465, 197, 496, 228
-0.993303, 373, 165, 404, 196
-0.993306, 305, 229, 336, 260
-0.993307, 329, 225, 360, 256
-0.993307, 305, 253, 336, 284
-0.993308, 65, 177, 320, 240
-0.993313, 381, 221, 412, 252
-0.993314, 297, 109, 360, 140
-0.993317, 281, 181, 312, 212
-0.993318, 201, 237, 232, 268
-0.993319, 249, 121, 312, 152
-0.99332, 257, 169, 288, 200
-0.993323, 273, 197, 304, 228
-0.993331, 125, 181, 156, 212
-0.993333, 221, 261, 252, 292
-0.993335, 425, 213, 456, 244
-0.993336, 105, 1, 168, 400
-0.99334, 449, 201, 480, 264
-0.993342, 133, 269, 164, 300
-0.993344, 113, 197, 144, 228
-0.993346, 377, 185, 440, 216
-0.993348, 105, 233, 136, 264
-0.99335, 413, 221, 444, 252
-0.993352, 469, 129, 500, 160
-0.993358, 221, 205, 252, 236
-0.99336, 285, 137, 316, 168
-0.993361, 353, 165, 384, 196
-0.993362, 245, 169, 276, 200
-0.993363, 337, 101, 368, 132
-0.993364, 309, 201, 340, 232
-0.993365, 289, 1, 352, 400
-0.993372, 61, 221, 92, 252
-0.993372, 353, 265, 416, 296
-0.993378, 113, 253, 144, 284
-0.99338, 305, 265, 368, 296
-0.993383, 353, 221, 384, 252
-0.993385, 325, 173, 356, 204
-0.993385, 273, 257, 304, 288
-0.993386, 165, 217, 196, 248
-0.993388, 369, 189, 400, 220
-0.993391, 241, 241, 272, 272
-0.993391, 101, 201, 132, 232
-0.993396, 269, 169, 300, 200
-0.993398, 253, 201, 284, 232
-0.993401, 409, 241, 472, 272
-0.993404, 233, 169, 264, 200
-0.993411, 149, 253, 180, 284
-0.993412, 341, 225, 372, 256
-0.993417, 125, 233, 156, 264
-0.99342, 121, 121, 184, 152
-0.99342, 261, 237, 292, 268
-0.993421, 1, 237, 32, 268
-0.993422, 305, 241, 336, 272
-0.993427, 145, 205, 176, 236
-0.993428, 129, 205, 160, 236
-0.993431, 281, 149, 344, 180
-0.993431, 369, 137, 400, 168
-0.993439, 233, 253, 264, 284
-0.993442, 365, 225, 396, 256
-0.993442, 133, 245, 164, 276
-0.993443, 417, 133, 448, 164
-0.993446, 81, 225, 144, 256
-0.993451, 349, 117, 380, 148
-0.993456, 245, 181, 276, 212
-0.993456, 385, 169, 416, 200
-0.99346, 49, 205, 80, 236
-0.993467, 281, 149, 312, 180
-0.993472, 165, 165, 196, 196
-0.993478, 201, 137, 264, 168
-0.993479, 305, 173, 336, 204
-0.993479, 217, 269, 280, 300
-0.993481, 277, 229, 308, 260
-0.993484, 437, 205, 468, 236
-0.993484, 321, 237, 384, 268
-0.993489, 309, 121, 340, 152
-0.993491, 257, 217, 320, 248
-0.993497, 393, 233, 424, 264
-0.9935, 49, 221, 80, 252
-0.9935, 381, 185, 412, 216
-0.993502, 205, 193, 236, 224
-0.993503, 257, 161, 500, 224
-0.993504, 321, 149, 384, 180
-0.993507, 461, 213, 492, 244
-0.993513, 121, 269, 152, 300
-0.993517, 221, 193, 252, 224
-0.99352, 281, 169, 312, 200
-0.993529, 289, 273, 320, 304
-0.993536, 337, 165, 368, 196
-0.993537, 165, 205, 196, 236
-0.99354, 349, 189, 380, 220
-0.993541, 273, 137, 304, 168
-0.993543, 221, 169, 252, 200
-0.993546, 369, 117, 400, 148
-0.993548, 293, 225, 324, 256
-0.993548, 1, 185, 500, 248
-0.993552, 189, 213, 220, 244
-0.993554, 441, 217, 472, 248
-0.993555, 9, 217, 40, 248
-0.993557, 189, 237, 220, 268
-0.993558, 137, 177, 168, 208
-0.993559, 145, 233, 176, 264
-0.99356, 177, 173, 208, 204
-0.993563, 69, 197, 100, 228
-0.993568, 249, 157, 280, 188
-0.993575, 193, 173, 224, 204
-0.9936, 289, 93, 352, 124
-0.993617, 401, 253, 464, 284
-0.993632, 81, 261, 144, 292
-0.993634, 73, 249, 136, 280
-0.993634, 25, 213, 88, 244
-0.993635, 417, 185, 480, 216
-0.993653, 273, 105, 336, 136
-0.993667, 169, 137, 232, 168
-0.993668, 353, 245, 416, 276
-0.993671, 377, 121, 440, 152
-0.993684, 257, 105, 320, 168
-0.993736, 429, 145, 460, 272
-0.993771, 57, 241, 120, 368
-0.993782, 229, 241, 260, 368
-0.993792, 161, 161, 192, 224
-0.993796, 249, 1, 312, 400
-0.993805, 85, 145, 116, 272
-0.993834, 185, 1, 248, 400
-0.993874, 121, 209, 152, 336
-0.993893, 1, 225, 32, 352
-0.994007, 417, 225, 448, 352
-0.994013, 361, 1, 424, 400
-0.994023, 373, 129, 404, 256
-0.994041, 445, 225, 476, 352
-0.9941, 385, 217, 416, 280
-0.994103, 401, 209, 432, 272
-0.994109, 265, 65, 328, 192
-0.994124, 97, 189, 224, 220
-0.994134, 345, 217, 376, 280
-0.994208, 449, 161, 480, 224
-0.994237, 369, 137, 400, 200
-0.994241, 113, 201, 144, 264
-0.994266, 121, 121, 184, 184
-0.994273, 57, 1, 120, 400
-0.994277, 385, 129, 416, 256
-0.994292, 153, 1, 216, 400
-0.994342, 97, 161, 128, 224
-0.994394, 137, 33, 200, 288
-0.99443, 313, 241, 376, 304
-0.99451, 429, 209, 460, 336
-0.99453, 93, 193, 124, 320
-0.994543, 129, 233, 384, 296
-0.994681, 433, 97, 464, 224
-0.994723, 73, 137, 136, 200
-0.994739, 129, 1, 192, 400
-0.994772, 381, 225, 412, 352
-0.994802, 433, 241, 496, 368
-0.994828, 1, 225, 32, 288
-0.994859, 53, 145, 84, 272
-0.994895, 141, 225, 172, 352
-0.994906, 185, 233, 216, 296
-0.994915, 89, 33, 152, 288
-0.994927, 417, 113, 448, 240
-0.995055, 433, 1, 496, 400
-0.995062, 145, 169, 176, 232
-0.995094, 385, 1, 448, 400
-0.995103, 409, 1, 472, 400
-0.995111, 273, 177, 400, 208
-0.995149, 105, 145, 168, 208
-0.995184, 13, 225, 44, 288
-0.995186, 113, 33, 176, 288
-0.995208, 161, 137, 416, 200
-0.995211, 277, 129, 308, 192
-0.995214, 65, 193, 96, 320
-0.995261, 33, 153, 96, 216
-0.995278, 257, 217, 500, 280
-0.995292, 421, 161, 452, 224
-0.99531, 141, 113, 172, 240
-0.995311, 205, 257, 236, 320
-0.995311, 369, 241, 432, 304
-0.995333, 113, 153, 144, 216
-0.995335, 241, 137, 272, 200
-0.995371, 141, 249, 172, 312
-0.995376, 401, 225, 432, 352
-0.995389, 273, 117, 400, 148
-0.995401, 321, 257, 448, 320
-0.995437, 81, 1, 144, 400
-0.995466, 57, 217, 88, 280
-0.995467, 177, 181, 304, 212
-0.995534, 1, 97, 128, 224
-0.995555, 1, 241, 64, 368
-0.995584, 45, 201, 76, 264
-0.995619, 65, 205, 192, 236
-0.995625, 177, 169, 208, 232
-0.995661, 461, 201, 492, 264
-0.995708, 141, 193, 172, 256
-0.995744, 241, 241, 272, 368
-0.995757, 301, 145, 332, 208
-0.995759, 1, 225, 256, 288
-0.995773, 413, 129, 444, 192
-0.995831, 73, 145, 104, 272
-0.995878, 349, 121, 380, 184
-0.995933, 465, 97, 496, 224
-0.995943, 433, 161, 464, 224
-0.995966, 13, 225, 44, 352
-0.995998, 189, 225, 220, 352
-0.99603, 273, 129, 400, 160
-0.996046, 369, 113, 400, 176
-0.996059, 327, 185, 342, 248
-0.996072, 193, 33, 256, 288
-0.996075, 377, 33, 440, 288
-0.996087, 203, 201, 218, 264
-0.996098, 25, 233, 56, 296
-0.99611, 145, 201, 272, 232
-0.996141, 329, 217, 360, 280
-0.996175, 25, 1, 88, 400
-0.996179, 273, 273, 400, 400
-0.996204, 433, 97, 496, 160
-0.996216, 265, 129, 296, 192
-0.996218, 45, 193, 76, 320
-0.996255, 311, 225, 326, 288
-0.996313, 239, 201, 254, 264
-0.996324, 65, 33, 128, 288
-0.99634, 421, 201, 452, 264
-0.996365, 317, 169, 332, 232
-0.996406, 273, 189, 400, 220
-0.996424, 237, 249, 252, 312
-0.996438, 301, 233, 316, 296
-0.996465, 97, 177, 224, 208
-0.996484, 271, 193, 286, 256
-0.996503, 223, 233, 238, 296
-0.99651, 251, 193, 266, 256
-0.996528, 361, 89, 376, 152
-0.99653, 213, 201, 228, 264
-0.99653, 209, 249, 336, 280
-0.996543, 401, 161, 432, 224
-0.996569, 321, 193, 336, 256
-0.996574, 465, 161, 496, 224
-0.996585, 229, 233, 244, 296
-0.996587, 369, 81, 400, 208
-0.996593, 1, 225, 500, 288
-0.996603, 97, 265, 160, 328
-0.996605, 1, 1, 64, 400
-0.996632, 197, 193, 212, 256
-0.996647, 295, 241, 310, 304
-0.996652, 193, 197, 320, 228
-0.996666, 389, 129, 420, 192
-0.996667, 1, 121, 128, 184
-0.996672, 309, 193, 324, 256
-0.996682, 209, 241, 240, 368
-0.996697, 257, 193, 272, 256
-0.996697, 369, 213, 496, 244
-0.996728, 245, 233, 260, 296
-0.996773, 129, 257, 384, 320
-0.996785, 219, 201, 234, 264
-0.996809, 455, 121, 470, 184
-0.996813, 257, 97, 500, 160
-0.996817, 333, 177, 348, 240
-0.996822, 113, 237, 240, 268
-0.996832, 273, 165, 400, 196
-0.996833, 463, 121, 478, 184
-0.996847, 127, 177, 142, 240
-0.996847, 245, 193, 260, 256
-0.996849, 145, 169, 272, 200
-0.99687, 113, 185, 128, 248
-0.996875, 337, 249, 400, 312
-0.996878, 209, 237, 336, 268
-0.996883, 233, 201, 248, 264
-0.996885, 283, 193, 298, 256
-0.996888, 161, 233, 192, 296
-0.996888, 289, 225, 416, 256
-0.996895, 263, 193, 278, 256
-0.996896, 161, 265, 288, 328
-0.996903, 359, 185, 374, 248
-0.996913, 337, 181, 464, 212
-0.996921, 17, 221, 144, 252
-0.996933, 437, 233, 468, 296
-0.996933, 49, 189, 176, 220
-0.996938, 237, 177, 252, 240
-0.996942, 443, 121, 458, 184
-0.996944, 225, 181, 352, 212
-0.996948, 401, 129, 432, 192
-0.996958, 253, 129, 284, 192
-0.996976, 227, 201, 242, 264
-0.996985, 437, 121, 452, 184
-0.996996, 209, 169, 336, 200
-0.997021, 353, 169, 480, 200
-0.997021, 161, 113, 288, 176
-0.997026, 213, 233, 228, 296
-0.997027, 129, 253, 256, 284
-0.997049, 219, 169, 234, 232
-0.997054, 65, 129, 320, 192
-0.997055, 449, 121, 464, 184
-0.997057, 379, 153, 394, 216
-0.99706, 209, 177, 224, 240
-0.997078, 231, 177, 246, 240
-0.997078, 33, 241, 96, 368
-0.997095, 311, 121, 326, 184
-0.997102, 283, 241, 298, 304
-0.99711, 225, 241, 480, 304
-0.997128, 369, 153, 384, 216
-0.997136, 257, 253, 384, 284
-0.997146, 369, 265, 496, 328
-0.99715, 303, 257, 318, 320
-0.997153, 433, 257, 496, 320
-0.99716, 337, 133, 464, 164
-0.997162, 373, 217, 388, 280
-0.997172, 65, 273, 192, 336
-0.997178, 113, 265, 240, 296
-0.997193, 49, 121, 176, 184
-0.997194, 189, 137, 220, 200
-0.997215, 137, 249, 152, 312
-0.997224, 235, 225, 250, 288
-0.997232, 373, 193, 388, 256
-0.997244, 485, 121, 500, 184
-0.99725, 209, 129, 240, 192
-0.997252, 21, 177, 52, 304
-0.99727, 379, 193, 394, 256
-0.99727, 329, 65, 360, 320
-0.99728, 303, 193, 318, 256
-0.997287, 449, 233, 480, 296
-0.997292, 337, 117, 464, 148
-0.997293, 119, 185, 134, 248
-0.9973, 61, 177, 92, 240
-0.997319, 327, 161, 342, 224
-0.99732, 305, 121, 320, 184
-0.997325, 65, 153, 320, 216
-0.997332, 321, 73, 384, 136
-0.997338, 289, 225, 304, 288
-0.997359, 349, 65, 380, 320
-0.997364, 267, 153, 282, 216
-0.997371, 229, 265, 260, 328
-0.997383, 385, 185, 400, 248
-0.997386, 431, 121, 446, 184
-0.99739, 143, 249, 158, 312
-0.997396, 297, 193, 312, 256
-0.997404, 353, 65, 416, 128
-0.997416, 303, 169, 318, 232
-0.997426, 469, 121, 484, 184
-0.997434, 279, 169, 294, 232
-0.997449, 193, 313, 320, 376
-0.997453, 337, 73, 464, 136
-0.997458, 289, 169, 304, 232
-0.99746, 387, 161, 402, 224
-0.997471, 243, 169, 258, 232
-0.997472, 1, 161, 500, 224
-0.997477, 105, 193, 120, 256
-0.997487, 277, 193, 292, 256
-0.997529, 173, 193, 188, 256
-0.997536, 165, 201, 180, 264
-0.997536, 231, 257, 246, 320
-0.997542, 209, 137, 336, 168
-0.99755, 341, 185, 356, 248
-0.997551, 17, 233, 144, 264
-0.997551, 193, 261, 320, 292
-0.997552, 261, 169, 276, 232
-0.99756, 289, 237, 416, 268
-0.997563, 185, 201, 200, 264
-0.997574, 273, 169, 288, 232
-0.997575, 265, 241, 296, 368
-0.997582, 349, 201, 364, 264
-0.997594, 85, 169, 116, 232
-0.997596, 417, 225, 448, 288
-0.997604, 127, 249, 142, 312
-0.997605, 311, 169, 326, 232
-0.997608, 199, 169, 214, 232
-0.997608, 357, 89, 388, 152
-0.997611, 363, 153, 378, 216
-0.997611, 367, 185, 382, 248
-0.997614, 129, 209, 144, 272
-0.99762, 33, 209, 64, 336
-0.997623, 145, 225, 160, 288
-0.997624, 315, 201, 330, 264
-0.997625, 317, 97, 348, 352
-0.997633, 241, 225, 368, 256
-0.997649, 277, 233, 292, 296
-0.99765, 289, 265, 416, 296
-0.997657, 297, 73, 360, 136
-0.997662, 277, 217, 308, 280
-0.997671, 1, 249, 256, 312
-0.997673, 367, 217, 382, 280
-0.997677, 297, 169, 312, 232
-0.997684, 273, 105, 400, 136
-0.997687, 309, 249, 340, 312
-0.997688, 1, 129, 500, 192
-0.997697, 129, 97, 384, 160
-0.9977, 289, 193, 304, 256
-0.997701, 191, 209, 206, 272
-0.997704, 209, 113, 272, 176
-0.997704, 173, 233, 204, 296
-0.997707, 17, 129, 80, 192
-0.997707, 145, 265, 208, 328
-0.997716, 241, 201, 368, 232
-0.997721, 203, 233, 218, 296
-0.997727, 317, 121, 332, 184
-0.997728, 353, 89, 368, 152
-0.99773, 329, 185, 344, 216
-0.997757, 345, 241, 408, 368
-0.99776, 193, 169, 208, 232
-0.997763, 295, 129, 310, 192
-0.997765, 347, 89, 362, 152
-0.997783, 195, 197, 210, 228
-0.997785, 289, 249, 304, 312
-0.997791, 393, 161, 408, 224
-0.997795, 179, 193, 194, 224
-0.997803, 65, 269, 192, 300
-0.997806, 137, 161, 152, 224
-0.997808, 225, 169, 240, 232
-0.997812, 101, 225, 132, 288
-0.997812, 379, 217, 394, 280
-0.99783, 253, 161, 268, 224
-0.997837, 217, 33, 280, 288
-0.997843, 409, 97, 472, 160
-0.997843, 185, 113, 248, 176
-0.997846, 153, 177, 168, 240
-0.997858, 129, 289, 256, 352
-0.997867, 321, 217, 336, 280
-0.997872, 447, 193, 462, 256
-0.997874, 241, 329, 368, 392
-0.997876, 467, 197, 482, 228
-0.997883, 133, 97, 164, 352
-0.997884, 479, 121, 494, 184
-0.997885, 251, 233, 266, 296
-0.997885, 219, 257, 234, 320
-0.997891, 117, 185, 132, 216
-0.997892, 235, 137, 250, 200
-0.997898, 273, 273, 400, 336
-0.997913, 125, 177, 140, 208
-0.997916, 309, 257, 324, 320
-0.997918, 117, 161, 132, 224
-0.99792, 189, 185, 204, 216
-0.997922, 465, 233, 496, 296
-0.99793, 185, 197, 200, 228
-0.997932, 321, 193, 448, 224
-0.997933, 109, 161, 124, 224
-0.997936, 391, 185, 406, 248
-0.997939, 125, 153, 140, 216
-0.997955, 49, 253, 176, 284
-0.997956, 65, 233, 192, 264
-0.997957, 97, 217, 224, 248
-0.997961, 3, 225, 18, 288
-0.997967, 17, 205, 144, 236
-0.99799, 1, 273, 128, 336
-0.998001, 327, 105, 342, 168
-0.998005, 17, 313, 144, 376
-0.998007, 273, 149, 400, 180
-0.99802, 97, 81, 224, 208
-0.998023, 341, 225, 356, 288
-0.998035, 321, 97, 448, 128
-0.998043, 163, 161, 178, 224
-0.998048, 369, 97, 496, 160
-0.998067, 357, 161, 372, 224
-0.998071, 301, 249, 316, 280
-0.998075, 165, 181, 180, 212
-0.998077, 209, 157, 336, 188
-0.998079, 49, 169, 176, 200
-0.99808, 441, 161, 456, 224
-0.99808, 143, 261, 158, 292
-0.998085, 371, 129, 386, 192
-0.998097, 321, 189, 336, 220
-0.998101, 359, 217, 374, 280
-0.998105, 63, 217, 78, 280
-0.998113, 405, 209, 420, 272
-0.998119, 397, 209, 412, 272
-0.998123, 45, 233, 76, 296
-0.998125, 155, 181, 170, 212
-0.998125, 447, 161, 462, 224
-0.99813, 315, 193, 330, 224
-0.998131, 459, 193, 474, 256
-0.998136, 97, 145, 128, 272
-0.99814, 455, 161, 470, 224
-0.998144, 265, 233, 280, 296
-0.998146, 345, 161, 360, 224
-0.998157, 135, 209, 150, 272
-0.998164, 321, 213, 448, 244
-0.998172, 353, 241, 384, 304
-0.998183, 309, 189, 324, 220
-0.998186, 223, 249, 238, 280
-0.998193, 353, 145, 480, 176
-0.998199, 389, 129, 420, 384
-0.998207, 137, 253, 152, 284
-0.998221, 111, 189, 126, 220
-0.99823, 203, 201, 218, 232
-0.998242, 301, 97, 332, 160
-0.998248, 353, 225, 480, 256
-0.998284, 417, 213, 448, 228
-0.998284, 41, 229, 72, 244
-0.998285, 233, 243, 264, 258
-0.998285, 125, 237, 156, 252
-0.998285, 233, 249, 264, 264
-0.998286, 365, 115, 396, 130
-0.998287, 221, 241, 252, 256
-0.998288, 385, 185, 416, 200
-0.998288, 1, 239, 32, 254
-0.998289, 433, 217, 464, 232
-0.998289, 281, 173, 312, 188
-0.99829, 289, 273, 320, 288
-0.99829, 413, 135, 444, 150
-0.998291, 241, 65, 368, 128
-0.998291, 441, 195, 472, 210
-0.998292, 105, 237, 136, 252
-0.998293, 277, 141, 308, 156
-0.998293, 121, 129, 152, 384
-0.998293, 305, 247, 336, 262
-0.998293, 453, 265, 484, 280
-0.998295, 81, 297, 208, 360
-0.998296, 273, 257, 304, 272
-0.998297, 321, 267, 352, 282
-0.998297, 277, 191, 308, 206
-0.998297, 53, 225, 84, 240
-0.998297, 233, 267, 264, 282
-0.998298, 369, 129, 400, 384
-0.998299, 349, 117, 380, 132
-0.9983, 149, 267, 180, 282
-0.9983, 433, 127, 464, 142
-0.998301, 193, 211, 224, 226
-0.998301, 129, 273, 160, 288
-0.998302, 85, 201, 116, 216
-0.998302, 121, 231, 152, 246
-0.998303, 249, 195, 280, 210
-0.998304, 309, 253, 340, 268
-0.998304, 221, 205, 252, 220
-0.998305, 457, 205, 488, 220
-0.998306, 189, 183, 220, 198
-0.998306, 153, 171, 184, 186
-0.998306, 353, 227, 384, 242
-0.998307, 129, 201, 160, 216
-0.998308, 273, 267, 304, 282
-0.998308, 301, 229, 332, 244
-0.998308, 409, 223, 440, 238
-0.998309, 305, 263, 336, 278
-0.998311, 145, 233, 176, 248
-0.998312, 13, 239, 44, 254
-0.998312, 293, 97, 324, 352
-0.998314, 369, 267, 400, 282
-0.998314, 445, 127, 476, 142
-0.998315, 97, 189, 128, 204
-0.998315, 265, 239, 296, 254
-0.998316, 289, 245, 320, 260
-0.998316, 289, 147, 320, 162
-0.998316, 293, 193, 324, 208
-0.998316, 125, 243, 156, 258
-0.99832, 293, 137, 324, 152
-0.998322, 125, 209, 156, 224
-0.998323, 337, 229, 368, 244
-0.998323, 321, 179, 352, 194
-0.998325, 161, 185, 192, 200
-0.998326, 237, 261, 268, 276
-0.998327, 177, 225, 304, 256
-0.998327, 441, 201, 472, 216
-0.998327, 313, 233, 344, 248
-0.998329, 173, 191, 204, 206
-0.998329, 229, 249, 244, 280
-0.998331, 97, 197, 128, 212
-0.998332, 305, 181, 336, 196
-0.998333, 161, 193, 176, 224
-0.998334, 237, 203, 268, 218
-0.998336, 145, 129, 176, 384
-0.998336, 9, 227, 40, 242
-0.99834, 241, 173, 272, 188
-0.99834, 221, 247, 252, 262
-0.99834, 401, 217, 432, 232
-0.998341, 149, 181, 180, 196
-0.998341, 145, 199, 176, 214
-0.998342, 221, 265, 252, 280
-0.998345, 101, 203, 132, 218
-0.998348, 305, 127, 336, 142
-0.998349, 205, 205, 236, 220
-0.998349, 253, 173, 284, 188
-0.998352, 117, 203, 148, 218
-0.998352, 277, 245, 308, 260
-0.998353, 81, 207, 112, 222
-0.998354, 65, 219, 96, 234
-0.998354, 29, 231, 60, 246
-0.998356, 129, 259, 160, 274
-0.998356, 121, 273, 184, 336
-0.998357, 319, 177, 334, 208
-0.998358, 265, 193, 296, 208
-0.998359, 325, 115, 356, 130
-0.99836, 361, 97, 376, 128
-0.99836, 345, 103, 376, 118
-0.998361, 349, 111, 380, 126
-0.998361, 353, 179, 384, 194
-0.998362, 379, 177, 394, 208
-0.998363, 195, 185, 210, 216
-0.998363, 337, 157, 464, 188
-0.998367, 173, 179, 204, 194
-0.998367, 33, 201, 64, 264
-0.998369, 189, 129, 220, 384
-0.998372, 461, 197, 476, 228
-0.998376, 305, 193, 336, 208
-0.998376, 193, 177, 224, 192
-0.998377, 117, 183, 148, 198
-0.998377, 325, 195, 356, 210
-0.998377, 133, 175, 164, 190
-0.998379, 369, 193, 496, 224
-0.99838, 337, 185, 352, 216
-0.998381, 313, 227, 344, 242
-0.998382, 249, 201, 280, 216
-0.998382, 265, 201, 296, 216
-0.998388, 73, 213, 104, 228
-0.998389, 313, 187, 344, 202
-0.998394, 313, 199, 344, 214
-0.998396, 333, 179, 364, 194
-0.998398, 181, 213, 212, 228
-0.998398, 295, 185, 310, 216
-0.998399, 247, 201, 262, 232
-0.9984, 171, 185, 186, 216
-0.998401, 173, 197, 188, 228
-0.998401, 177, 185, 208, 200
-0.998401, 269, 173, 300, 188
-0.998405, 465, 197, 496, 212
-0.998406, 305, 269, 336, 284
-0.998407, 341, 185, 372, 200
-0.998407, 369, 181, 400, 196
-0.998411, 313, 253, 328, 284
-0.998412, 325, 227, 356, 242
-0.998414, 41, 145, 72, 272
-0.998415, 161, 177, 192, 192
-0.99842, 73, 213, 88, 244
-0.998422, 217, 259, 248, 274
-0.998422, 293, 265, 324, 280
-0.998429, 301, 199, 332, 214
-0.998434, 285, 199, 316, 214
-0.998436, 271, 169, 286, 200
-0.998436, 325, 113, 340, 144
-0.998438, 325, 187, 356, 202
-0.99844, 137, 209, 168, 224
-0.998444, 209, 201, 224, 232
-0.998446, 113, 189, 144, 204
-0.998447, 265, 181, 280, 212
-0.998454, 17, 233, 48, 248
-0.998454, 373, 177, 388, 208
-0.998457, 97, 97, 128, 352
-0.998457, 275, 181, 290, 212
-0.998458, 295, 249, 310, 280
-0.998458, 161, 237, 288, 268
-0.998461, 153, 207, 184, 222
-0.998467, 157, 199, 188, 214
-0.998467, 77, 97, 108, 352
-0.998468, 109, 195, 140, 210
-0.998468, 289, 259, 320, 274
-0.99847, 307, 257, 322, 288
-0.99847, 173, 205, 204, 220
-0.998474, 145, 207, 208, 222
-0.998474, 285, 185, 300, 216
-0.998477, 193, 205, 224, 220
-0.998485, 221, 253, 252, 268
-0.998487, 331, 173, 346, 204
-0.998488, 349, 97, 380, 112
-0.998489, 153, 199, 216, 214
-0.998491, 161, 191, 192, 206
-0.998492, 245, 241, 260, 272
-0.998496, 241, 265, 368, 296
-0.998497, 289, 251, 320, 266
-0.9985, 351, 93, 366, 124
-0.9985, 343, 101, 358, 132
-0.998501, 173, 197, 204, 212
-0.998503, 453, 199, 484, 214
-0.998503, 303, 189, 318, 220
-0.998503, 269, 97, 300, 352
-0.998503, 133, 265, 164, 280
-0.998518, 153, 177, 216, 192
-0.998519, 161, 169, 176, 200
-0.99852, 65, 153, 96, 216
-0.99852, 127, 253, 142, 284
-0.998524, 331, 225, 346, 256
-0.998528, 209, 125, 336, 156
-0.998529, 113, 97, 240, 160
-0.998532, 265, 197, 328, 212
-0.998532, 237, 257, 252, 288
-0.998539, 337, 181, 400, 196
-0.99854, 89, 203, 152, 218
-0.99854, 67, 217, 82, 248
-0.998541, 465, 129, 480, 160
-0.998542, 167, 197, 182, 228
-0.998543, 177, 203, 240, 218
-0.998547, 405, 213, 420, 244
-0.998547, 343, 177, 358, 208
-0.998547, 121, 179, 184, 194
-0.998548, 97, 165, 224, 196
-0.998549, 313, 115, 376, 130
-0.998554, 121, 193, 184, 208
-0.998556, 105, 193, 120, 224
-0.998558, 183, 177, 198, 208
-0.998559, 155, 169, 170, 200
-0.99856, 5, 229, 20, 260
-0.99856, 409, 257, 472, 320
-0.99856, 281, 241, 296, 272
-0.998562, 113, 187, 176, 202
-0.998565, 81, 209, 96, 240
-0.998567, 239, 245, 254, 276
-0.998571, 281, 263, 344, 278
-0.998571, 241, 201, 304, 216
-0.998571, 305, 187, 368, 202
-0.998573, 273, 297, 400, 360
-0.998581, 305, 193, 368, 208
-0.998584, 153, 187, 216, 202
-0.998585, 185, 199, 216, 214
-0.998585, 387, 185, 402, 216
-0.99859, 129, 199, 192, 214
-0.998592, 307, 177, 322, 208
-0.998594, 367, 177, 382, 208
-0.998594, 241, 201, 256, 232
-0.998601, 311, 125, 326, 156
-0.998601, 121, 207, 184, 222
-0.998603, 301, 125, 316, 156
-0.998603, 385, 169, 400, 200
-0.998607, 265, 257, 328, 272
-0.998608, 193, 253, 256, 268
-0.998609, 305, 227, 368, 242
-0.998609, 321, 109, 384, 124
-0.99861, 425, 127, 488, 142
-0.998611, 125, 189, 140, 220
-0.998618, 185, 177, 248, 192
-0.998618, 153, 193, 216, 208
-0.998618, 425, 203, 488, 218
-0.998619, 435, 125, 450, 156
-0.998622, 361, 109, 376, 140
-0.998623, 313, 121, 376, 136
-0.998623, 241, 257, 304, 272
-0.998624, 287, 197, 302, 228
-0.998625, 305, 199, 368, 214
-0.998627, 291, 137, 306, 168
-0.998627, 341, 221, 356, 252
-0.998628, 313, 179, 376, 194
-0.998628, 1, 161, 64, 224
-0.998628, 281, 191, 344, 206
-0.998629, 217, 259, 280, 274
-0.998629, 201, 205, 264, 220
-0.99863, 337, 187, 400, 202
-0.998631, 401, 129, 432, 384
-0.998631, 257, 263, 320, 278
-0.998634, 73, 209, 136, 224
-0.998635, 233, 173, 296, 188
-0.998637, 121, 265, 184, 280
-0.998641, 265, 169, 280, 200
-0.998643, 337, 103, 400, 118
-0.998644, 259, 181, 274, 212
-0.998644, 193, 197, 256, 212
-0.998644, 337, 97, 400, 112
-0.998646, 171, 217, 186, 248
-0.998648, 193, 261, 256, 276
-0.998648, 161, 213, 224, 228
-0.998649, 281, 251, 344, 266
-0.99865, 453, 125, 468, 156
-0.998651, 273, 181, 336, 196
-0.998652, 329, 227, 392, 242
-0.998652, 161, 137, 288, 168
-0.998653, 217, 265, 280, 280
-0.998653, 65, 217, 128, 232
-0.998657, 485, 129, 500, 160
-0.998658, 385, 223, 448, 238
-0.998658, 281, 269, 344, 284
-0.998659, 137, 235, 200, 250
-0.998661, 273, 233, 336, 248
-0.998662, 9, 231, 72, 246
-0.998663, 289, 321, 416, 384
-0.998664, 105, 271, 168, 286
-0.998665, 417, 219, 480, 234
-0.998665, 319, 205, 334, 236
-0.998666, 97, 265, 160, 280
-0.998666, 425, 197, 488, 212
-0.998667, 257, 173, 320, 188
-0.998668, 31, 229, 46, 260
-0.998669, 261, 201, 276, 232
-0.99867, 241, 195, 304, 210
-0.998671, 241, 239, 304, 254
-0.998672, 185, 239, 248, 254
-0.998673, 305, 267, 368, 282
-0.998673, 233, 249, 296, 264
-0.998673, 361, 181, 376, 212
-0.998674, 193, 267, 256, 282
-0.998675, 257, 251, 320, 266
-0.998677, 225, 179, 288, 194
-0.998677, 177, 183, 240, 198
-0.998677, 385, 217, 448, 232
-0.998678, 289, 237, 304, 268
-0.998678, 205, 189, 220, 220
-0.998678, 41, 209, 104, 224
-0.998679, 97, 209, 160, 224
-0.998679, 97, 195, 160, 210
-0.99868, 305, 65, 336, 320
-0.998681, 297, 233, 360, 248
-0.998681, 281, 135, 344, 150
-0.998682, 113, 235, 176, 250
-0.998683, 97, 247, 160, 262
-0.998684, 249, 141, 312, 156
-0.998684, 1, 193, 128, 224
-0.998685, 297, 257, 360, 272
-0.998688, 265, 243, 328, 258
-0.998688, 445, 97, 476, 352
-0.998689, 177, 177, 192, 208
-0.998692, 249, 269, 312, 284
-0.998692, 361, 219, 424, 234
-0.998692, 385, 137, 448, 152
-0.998692, 9, 237, 72, 252
-0.998692, 113, 173, 176, 188
-0.998693, 273, 1, 336, 256
-0.998693, 153, 171, 216, 186
-0.998694, 313, 97, 376, 112
-0.998694, 353, 227, 416, 242
-0.998695, 353, 267, 416, 282
-0.998696, 177, 189, 240, 204
-0.998696, 247, 169, 262, 200
-0.998697, 129, 271, 192, 286
-0.998697, 321, 241, 384, 368
-0.998698, 433, 213, 448, 244
-0.998698, 417, 133, 480, 148
-0.998698, 233, 167, 296, 182
-0.998699, 289, 125, 352, 140
-0.9987, 233, 237, 248, 268
-0.9987, 89, 189, 152, 204
-0.9987, 313, 103, 376, 118
-0.9987, 97, 241, 160, 256
-0.998701, 227, 205, 242, 236
-0.998701, 353, 169, 416, 184
-0.998702, 33, 225, 96, 240
-0.998702, 281, 227, 344, 242
-0.998703, 73, 243, 136, 258
-0.998703, 209, 173, 272, 188
-0.998704, 121, 247, 184, 262
-0.998704, 307, 237, 322, 268
-0.998705, 1, 243, 64, 258
-0.998705, 97, 253, 160, 268
-0.998706, 345, 193, 408, 208
-0.998707, 353, 139, 416, 154
-0.998707, 193, 247, 256, 262
-0.998707, 297, 205, 360, 220
-0.998709, 177, 129, 208, 384
-0.998709, 41, 215, 104, 230
-0.99871, 321, 127, 384, 142
-0.998711, 121, 241, 184, 256
-0.998713, 121, 253, 184, 268
-0.998714, 433, 65, 496, 192
-0.998714, 253, 181, 268, 212
-0.998714, 337, 175, 400, 190
-0.998715, 393, 233, 456, 248
-0.998716, 185, 211, 248, 226
-0.998716, 393, 211, 456, 226
-0.998716, 329, 267, 392, 282
-0.998716, 281, 117, 344, 132
-0.998717, 305, 249, 432, 280
-0.998717, 209, 241, 272, 256
-0.998717, 337, 173, 352, 204
-0.998717, 353, 113, 416, 128
-0.998717, 131, 177, 146, 208
-0.998718, 305, 251, 368, 266
-0.998719, 281, 147, 344, 162
-0.998719, 265, 203, 328, 218
-0.99872, 121, 259, 184, 274
-0.99872, 369, 233, 432, 248
-0.99872, 425, 267, 488, 282
-0.99872, 57, 223, 120, 238
-0.998721, 255, 201, 270, 232
-0.998722, 289, 241, 352, 256
-0.998724, 73, 237, 136, 252
-0.998725, 57, 201, 120, 216
-0.998725, 73, 195, 136, 210
-0.998728, 333, 113, 348, 144
-0.99873, 299, 237, 314, 268
-0.998731, 371, 117, 386, 148
-0.998734, 223, 237, 238, 268
-0.998735, 297, 137, 312, 168
-0.998741, 145, 157, 272, 188
-0.998743, 445, 125, 460, 156
-0.998744, 135, 265, 150, 296
-0.998747, 421, 97, 452, 352
-0.998747, 259, 169, 274, 200
-0.998748, 225, 265, 480, 328
-0.998751, 321, 225, 336, 256
-0.998753, 219, 205, 234, 236
-0.998759, 285, 257, 300, 288
-0.998761, 57, 97, 88, 352
-0.998764, 301, 177, 316, 208
-0.998769, 355, 177, 370, 208
-0.998771, 477, 129, 492, 160
-0.998771, 371, 165, 386, 196
-0.998773, 155, 193, 170, 224
-0.998776, 459, 125, 474, 156
-0.998779, 235, 205, 250, 236
-0.99878, 119, 233, 134, 264
-0.99878, 471, 129, 486, 160
-0.998785, 143, 201, 158, 232
-0.998787, 109, 129, 140, 384
-0.998794, 237, 129, 268, 384
-0.998797, 313, 177, 328, 208
-0.998799, 349, 173, 364, 204
-0.998799, 369, 253, 496, 284
-0.9988, 213, 97, 244, 352
-0.9988, 309, 269, 324, 300
-0.998801, 125, 165, 140, 196
-0.998803, 253, 169, 268, 200
-0.998807, 149, 265, 164, 296
-0.998809, 177, 289, 304, 352
-0.998809, 439, 213, 454, 244
-0.998809, 213, 237, 228, 268
-0.998812, 369, 89, 400, 152
-0.998814, 397, 221, 412, 252
-0.998815, 433, 97, 464, 352
-0.998817, 379, 165, 394, 196
-0.998818, 425, 133, 440, 164
-0.998818, 277, 169, 292, 200
-0.998819, 397, 233, 428, 296
-0.998846, 249, 97, 280, 352
-0.998859, 457, 97, 488, 352
-0.99886, 385, 97, 448, 160
-0.998875, 81, 125, 208, 156
-0.998878, 273, 93, 400, 124
-0.998879, 49, 97, 112, 224
-0.998888, 225, 273, 352, 400
-0.99889, 281, 193, 296, 320
-0.998895, 353, 265, 480, 296
-0.998917, 161, 213, 288, 244
-0.998928, 249, 321, 312, 384
-0.998954, 369, 321, 496, 384
-0.998985, 275, 193, 290, 320
-0.998987, 287, 177, 302, 304
-0.998988, 311, 177, 326, 304
-0.998989, 233, 105, 296, 168
-0.998993, 165, 65, 196, 320
-0.998999, 265, 273, 328, 336
-0.999018, 369, 33, 400, 288
-0.99902, 261, 193, 276, 320
-0.999021, 325, 33, 356, 160
-0.99903, 49, 177, 80, 240
-0.999037, 353, 237, 480, 268
-0.999038, 301, 177, 316, 304
-0.999039, 381, 241, 412, 304
-0.999043, 281, 65, 312, 320
-0.99905, 201, 129, 232, 384
-0.999064, 469, 97, 500, 352
-0.999065, 267, 193, 282, 320
-0.999068, 1, 177, 32, 304
-0.999075, 225, 97, 256, 352
-0.999079, 195, 161, 210, 288
-0.999081, 315, 113, 330, 240
-0.999087, 273, 213, 400, 244
-0.999113, 341, 241, 372, 304
-0.999115, 401, 113, 432, 240
-0.999119, 321, 145, 336, 272
-0.99912, 293, 193, 308, 320
-0.999137, 245, 193, 260, 320
-0.99914, 331, 145, 346, 272
-0.999153, 203, 193, 218, 320
-0.999157, 231, 193, 246, 320
-0.99916, 49, 121, 112, 184
-0.999165, 1, 105, 500, 168
-0.999166, 255, 193, 270, 320
-0.999179, 383, 177, 398, 304
-0.999181, 321, 297, 448, 360
-0.999188, 373, 177, 388, 304
-0.999198, 127, 177, 142, 304
-0.999204, 209, 193, 224, 320
-0.999209, 301, 65, 332, 192
-0.999211, 389, 161, 404, 288
-0.999217, 187, 193, 202, 320
-0.999222, 223, 193, 238, 320
-0.999224, 337, 145, 352, 272
-0.999231, 369, 265, 432, 328
-0.999235, 359, 81, 374, 208
-0.999243, 237, 193, 252, 320
-0.999244, 335, 193, 350, 320
-0.999249, 1, 181, 128, 212
-0.99925, 209, 105, 336, 136
-0.999255, 277, 145, 292, 272
-0.999268, 49, 157, 176, 188
-0.999275, 309, 113, 324, 240
-0.999277, 325, 193, 340, 320
-0.999283, 65, 97, 192, 160
-0.999285, 129, 257, 160, 384
-0.999288, 293, 145, 308, 272
-0.999289, 301, 113, 316, 240
-0.999293, 343, 145, 358, 272
-0.999297, 325, 97, 340, 224
-0.999299, 97, 329, 224, 392
-0.999318, 225, 129, 240, 256
-0.999322, 367, 145, 382, 272
-0.999323, 135, 161, 150, 288
-0.999333, 269, 145, 284, 272
-0.99934, 193, 337, 320, 400
-0.999351, 215, 193, 230, 320
-0.999351, 343, 193, 358, 320
-0.999362, 319, 193, 334, 320
-0.999374, 189, 145, 204, 272
-0.999382, 341, 97, 356, 224
-0.999384, 179, 177, 194, 304
-0.999386, 467, 145, 482, 272
-0.999388, 349, 81, 364, 208
-0.999388, 257, 313, 500, 376
-0.999398, 333, 97, 348, 224
-0.999406, 287, 129, 302, 256
-0.999408, 349, 193, 364, 320
-0.999408, 45, 129, 76, 384
-0.99941, 169, 193, 184, 320
-0.999415, 251, 145, 266, 272
-0.999417, 205, 145, 220, 272
-0.999417, 211, 129, 226, 256
-0.999419, 263, 145, 278, 272
-0.999423, 395, 161, 410, 288
-0.999425, 349, 145, 364, 272
-0.999426, 217, 129, 232, 256
-0.999434, 355, 193, 370, 320
-0.999435, 163, 193, 178, 320
-0.999441, 363, 193, 378, 320
-0.99945, 119, 161, 134, 288
-0.999457, 145, 313, 272, 376
-0.999457, 183, 129, 198, 256
-0.999463, 457, 145, 472, 272
-0.999467, 231, 129, 246, 256
-0.999474, 465, 193, 480, 320
-0.999475, 237, 129, 252, 256
-0.999478, 107, 193, 122, 320
-0.999478, 287, 241, 302, 368
-0.999484, 379, 129, 394, 256
-0.999485, 225, 213, 352, 244
-0.999489, 161, 121, 288, 152
-0.999498, 151, 161, 166, 288
-0.999498, 33, 273, 288, 336
-0.999502, 431, 145, 446, 272
-0.999502, 355, 145, 370, 272
-0.999512, 33, 121, 160, 152
-0.999513, 361, 129, 376, 256
-0.999515, 293, 251, 308, 266
-0.999515, 37, 231, 52, 246
-0.999515, 125, 129, 140, 256
-0.999516, 217, 203, 232, 218
-0.999516, 315, 227, 330, 242
-0.999516, 1, 97, 32, 352
-0.999517, 253, 201, 268, 216
-0.999517, 305, 265, 320, 280
-0.999517, 63, 221, 78, 236
-0.999518, 289, 191, 304, 206
-0.999518, 291, 141, 306, 156
-0.999519, 249, 173, 264, 188
-0.999519, 451, 201, 466, 216
-0.999519, 169, 185, 184, 200
-0.999519, 299, 225, 314, 352
-0.999519, 443, 145, 458, 272
-0.999519, 261, 201, 276, 216
-0.99952, 243, 245, 258, 260
-0.99952, 349, 229, 364, 244
-0.99952, 401, 161, 416, 288
-0.999521, 257, 145, 272, 272
-0.999521, 263, 195, 278, 210
-0.999521, 255, 173, 270, 188
-0.999521, 279, 243, 294, 258
-0.999521, 311, 251, 326, 266
-0.999521, 243, 173, 258, 188
-0.999522, 155, 199, 170, 214
-0.999522, 5, 233, 20, 248
-0.999523, 231, 257, 246, 272
-0.999523, 317, 269, 332, 284
-0.999523, 299, 191, 314, 206
-0.999523, 91, 205, 106, 220
-0.999524, 173, 209, 188, 224
-0.999525, 457, 193, 472, 320
-0.999525, 241, 255, 256, 270
-0.999526, 309, 191, 324, 206
-0.999526, 13, 97, 44, 352
-0.999527, 329, 227, 344, 242
-0.999527, 173, 217, 188, 232
-0.999528, 445, 201, 460, 216
-0.999528, 317, 119, 332, 134
-0.999528, 211, 203, 226, 218
-0.999529, 99, 201, 114, 216
-0.999529, 291, 245, 306, 260
-0.999529, 325, 201, 340, 216
-0.999529, 241, 205, 256, 220
-0.999529, 471, 197, 486, 212
-0.999533, 291, 199, 306, 214
-0.999533, 171, 191, 186, 206
-0.999534, 127, 203, 142, 218
-0.999534, 177, 201, 192, 216
-0.999535, 423, 161, 438, 288
-0.999535, 125, 225, 140, 352
-0.999535, 349, 185, 364, 200
-0.999537, 311, 125, 326, 140
-0.999537, 473, 113, 488, 240
-0.999537, 403, 217, 418, 232
-0.999538, 319, 205, 334, 220
-0.999538, 327, 115, 342, 130
-0.999539, 289, 173, 304, 188
-0.999539, 437, 193, 452, 320
-0.999539, 193, 205, 208, 220
-0.999539, 143, 259, 158, 274
-0.999539, 353, 95, 368, 110
-0.999539, 353, 179, 368, 194
-0.999541, 193, 273, 320, 304
-0.999541, 131, 179, 146, 194
-0.999542, 233, 245, 248, 260
-0.999542, 135, 113, 150, 240
-0.999542, 243, 129, 258, 256
-0.999543, 343, 179, 358, 194
-0.999543, 247, 201, 262, 216
-0.999543, 389, 185, 404, 200
-0.999544, 269, 173, 284, 188
-0.999544, 223, 253, 238, 268
-0.999545, 151, 177, 166, 192
-0.999545, 23, 233, 38, 248
-0.999546, 321, 181, 336, 196
-0.999546, 275, 201, 290, 216
-0.999547, 159, 183, 174, 198
-0.999548, 283, 173, 298, 188
-0.999549, 167, 207, 182, 222
-0.99955, 199, 205, 214, 220
-0.999551, 239, 261, 254, 276
-0.999551, 327, 195, 342, 210
-0.999552, 253, 241, 284, 368
-0.999552, 463, 97, 478, 224
-0.999552, 407, 161, 422, 288
-0.999552, 267, 201, 282, 216
-0.999554, 107, 197, 122, 212
-0.999555, 159, 205, 174, 220
-0.999556, 271, 195, 286, 210
-0.999557, 299, 199, 314, 214
-0.99956, 111, 189, 126, 204
-0.99956, 277, 195, 292, 210
-0.99956, 197, 113, 212, 240
-0.999561, 321, 227, 336, 242
-0.999561, 235, 251, 250, 266
-0.999561, 179, 189, 194, 204
-0.999562, 119, 225, 134, 352
-0.999562, 157, 161, 172, 288
-0.999563, 157, 175, 172, 190
-0.999565, 185, 185, 200, 200
-0.999566, 123, 193, 138, 208
-0.999566, 153, 205, 168, 220
-0.999566, 301, 251, 316, 266
-0.999567, 195, 177, 210, 192
-0.999567, 189, 211, 204, 226
-0.999568, 339, 227, 354, 242
-0.999568, 285, 199, 300, 214
-0.999569, 141, 207, 156, 222
-0.99957, 197, 209, 212, 336
-0.999572, 79, 193, 94, 320
-0.999572, 85, 209, 100, 224
-0.999574, 359, 95, 374, 110
-0.999576, 123, 187, 138, 202
-0.999577, 345, 33, 376, 160
-0.999577, 147, 207, 162, 222
-0.999578, 361, 111, 376, 126
-0.999579, 31, 233, 46, 248
-0.99958, 163, 177, 178, 192
-0.999582, 135, 265, 150, 280
-0.999582, 275, 173, 290, 188
-0.999582, 311, 267, 326, 282
-0.999582, 459, 197, 474, 212
-0.999582, 113, 161, 128, 288
-0.999583, 447, 225, 462, 352
-0.999584, 185, 177, 200, 192
-0.999584, 381, 183, 396, 198
-0.999586, 465, 203, 480, 218
-0.999586, 137, 257, 152, 272
-0.999586, 437, 145, 452, 272
-0.999586, 417, 161, 432, 288
-0.999589, 415, 225, 430, 352
-0.999591, 319, 193, 334, 208
-0.999592, 343, 185, 358, 200
-0.999592, 335, 179, 350, 194
-0.999592, 307, 197, 322, 212
-0.999593, 85, 161, 100, 288
-0.999594, 373, 129, 388, 256
-0.999594, 337, 187, 352, 202
-0.999595, 193, 183, 208, 198
-0.999595, 195, 211, 210, 226
-0.999597, 79, 211, 94, 226
-0.999598, 9, 97, 72, 224
-0.9996, 473, 161, 488, 288
-0.999601, 161, 199, 176, 214
-0.999603, 69, 217, 84, 232
-0.999605, 431, 225, 446, 352
-0.999606, 113, 195, 128, 210
-0.999606, 185, 199, 200, 214
-0.999606, 145, 225, 160, 352
-0.999607, 313, 225, 328, 352
-0.999609, 171, 199, 186, 214
-0.99961, 165, 191, 180, 206
-0.999612, 449, 161, 464, 288
-0.999614, 319, 199, 334, 214
-0.999615, 307, 241, 322, 368
-0.999616, 17, 337, 144, 400
-0.999617, 205, 205, 220, 220
-0.999617, 381, 225, 396, 352
-0.999617, 439, 97, 454, 224
-0.999618, 185, 205, 200, 220
-0.999621, 143, 161, 158, 288
-0.999622, 281, 241, 296, 368
-0.999622, 169, 113, 184, 240
-0.999623, 139, 241, 154, 368
-0.999625, 389, 209, 404, 336
-0.999625, 177, 113, 192, 240
-0.999626, 7, 209, 22, 336
-0.999628, 289, 49, 352, 176
-0.999629, 421, 225, 436, 352
-0.99963, 79, 145, 94, 272
-0.999631, 453, 97, 468, 224
-0.999635, 233, 257, 248, 384
-0.999635, 239, 241, 254, 368
-0.999636, 143, 265, 158, 280
-0.999642, 117, 189, 132, 204
-0.999646, 163, 113, 178, 240
-0.999649, 195, 199, 210, 214
-0.999651, 313, 65, 344, 192
-0.999656, 179, 195, 194, 210
-0.999657, 125, 181, 140, 196
-0.99966, 1, 165, 128, 196
-0.999661, 313, 199, 328, 214
-0.999663, 149, 113, 164, 240
-0.999664, 73, 145, 88, 272
-0.999672, 395, 209, 410, 336
-0.999674, 409, 225, 424, 352
-0.999677, 101, 161, 116, 288
-0.999677, 329, 185, 344, 200
-0.999678, 1, 209, 16, 336
-0.999681, 131, 225, 146, 352
-0.999682, 121, 33, 152, 288
-0.999684, 433, 97, 448, 224
-0.999686, 73, 193, 88, 320
-0.999686, 13, 225, 28, 352
-0.999693, 465, 197, 480, 212
-0.999709, 25, 97, 56, 352
-0.999724, 241, 81, 304, 208
-0.999755, 97, 321, 352, 384
-0.999773, 113, 289, 240, 320
-0.999781, 193, 33, 224, 288
-0.999785, 401, 33, 432, 288
-0.999789, 1, 149, 128, 180
-0.9998, 297, 1, 360, 256
-0.999813, 1, 245, 128, 276
-0.999824, 369, 321, 496, 352
-0.99983, 113, 137, 240, 168
-0.999833, 1, 321, 128, 352
-0.999836, 389, 33, 420, 288
-0.999837, 241, 277, 368, 308
-0.99988, 369, 297, 496, 360
-0.999889, 225, 93, 352, 124
-0.999896, 109, 33, 140, 288
-0.9999, 225, 321, 352, 352
-0.999903, 129, 277, 256, 308
-0.999904, 157, 241, 188, 368
-0.999929, 161, 33, 224, 288
-0.999931, 17, 97, 144, 160
-0.999933, 65, 297, 320, 360
-0.999948, 289, 321, 416, 352
-0.999961, 17, 337, 144, 368
-0.999985, 225, 289, 352, 352
-0.999992, 225, 357, 352, 388
-0.999995, 17, 305, 144, 336
-0.999998, 153, 33, 184, 288
-1, 289, 337, 416, 368
-1.00001, 65, 297, 192, 328
-1.00001, 33, 285, 160, 316
-1.00002, 49, 145, 176, 176
-1.00002, 237, 33, 268, 288
-1.00002, 353, 85, 480, 116
-1.00003, 81, 313, 208, 344
-1.00006, 209, 333, 336, 364
-1.00007, 161, 293, 288, 324
-1.00008, 185, 81, 248, 208
-1.00009, 1, 257, 128, 288
-1.00009, 225, 309, 352, 340
-1.00009, 321, 277, 448, 308
-1.00012, 65, 329, 192, 360
-1.00012, 289, 349, 416, 380
-1.00013, 161, 321, 288, 352
-1.00014, 369, 337, 496, 368
-1.00014, 33, 105, 288, 168
-1.00015, 177, 345, 304, 376
-1.00017, 81, 113, 208, 144
-1.00018, 133, 1, 164, 256
-1.00018, 209, 289, 336, 320
-1.0002, 17, 269, 144, 300
-1.00021, 241, 81, 368, 112
-1.00023, 177, 33, 208, 288
-1.00024, 257, 289, 500, 352
-1.00026, 113, 325, 240, 356
-1.00026, 73, 113, 136, 176
-1.00026, 273, 309, 400, 340
-1.00026, 81, 341, 208, 372
-1.00027, 17, 357, 144, 388
-1.00028, 369, 309, 496, 340
-1.00029, 161, 333, 288, 364
-1.0003, 193, 337, 448, 400
-1.00032, 289, 293, 416, 324
-1.00032, 305, 361, 432, 392
-1.00032, 1, 185, 64, 248
-1.00033, 161, 309, 288, 340
-1.00033, 353, 353, 480, 384
-1.00033, 369, 277, 496, 308
-1.00034, 161, 365, 288, 396
-1.00034, 145, 337, 272, 400
-1.00035, 317, 1, 348, 256
-1.00036, 129, 73, 384, 136
-1.00036, 337, 289, 464, 320
-1.00037, 273, 97, 304, 224
-1.00037, 161, 289, 416, 352
-1.00038, 113, 301, 240, 332
-1.00038, 97, 153, 224, 184
-1.00038, 241, 345, 368, 376
-1.0004, 321, 309, 448, 340
-1.00043, 33, 109, 160, 140
-1.00045, 1, 133, 128, 164
-1.00045, 81, 365, 208, 396
-1.00045, 1, 249, 500, 312
-1.00046, 369, 365, 496, 396
-1.00048, 41, 33, 72, 288
-1.00049, 169, 241, 200, 368
-1.00051, 97, 241, 128, 368
-1.00051, 145, 113, 208, 176
-1.00051, 97, 121, 160, 184
-1.00053, 445, 1, 476, 256
-1.00055, 77, 1, 108, 256
-1.00055, 97, 1, 128, 256
-1.00056, 129, 273, 192, 400
-1.00059, 269, 1, 300, 256
-1.00063, 429, 1, 460, 256
-1.00065, 465, 1, 496, 256
-1.00066, 249, 1, 280, 256
-1.00068, 413, 1, 444, 256
-1.00071, 221, 1, 252, 256
-1.00074, 317, 241, 348, 368
-1.00075, 1, 321, 256, 384
-1.00077, 293, 273, 324, 400
-1.00077, 205, 1, 236, 256
-1.00085, 293, 1, 324, 256
-1.00089, 85, 241, 116, 368
-1.0009, 65, 1, 96, 256
-1.00091, 9, 33, 72, 288
-1.00094, 273, 297, 336, 360
-1.00095, 9, 1, 40, 256
-1.00098, 29, 1, 60, 256
-1.00099, 53, 1, 84, 256
-1.001, 365, 33, 396, 160
-1.00104, 273, 81, 336, 144
-1.00112, 33, 273, 96, 336
-1.00114, 161, 89, 288, 152
-1.00116, 117, 257, 148, 384
-1.00118, 69, 241, 100, 368
-1.00121, 369, 241, 400, 368
-1.00124, 409, 273, 472, 400
-1.00124, 433, 257, 464, 384
-1.00125, 73, 97, 104, 224
-1.00128, 9, 129, 40, 256
-1.00137, 57, 241, 88, 368
-1.00138, 361, 313, 424, 376
-1.0014, 461, 241, 492, 368
-1.0014, 333, 241, 364, 368
-1.00144, 281, 329, 344, 392
-1.00146, 25, 113, 56, 240
-1.00147, 177, 289, 240, 352
-1.00147, 233, 297, 296, 360
-1.00151, 37, 257, 68, 384
-1.00157, 61, 97, 92, 224
-1.00168, 1, 273, 500, 336
-1.00172, 137, 313, 200, 376
-1.00172, 385, 313, 448, 376
-1.00176, 321, 49, 448, 112
-1.00177, 225, 57, 480, 120
-1.00178, 129, 49, 384, 112
-1.00185, 1, 313, 500, 376
-1.00188, 357, 241, 388, 368
-1.00188, 433, 297, 496, 360
-1.00189, 345, 241, 376, 368
-1.00195, 89, 297, 152, 360
-1.00196, 65, 313, 128, 376
-1.002, 105, 97, 168, 160
-1.002, 409, 313, 472, 376
-1.00202, 57, 257, 120, 320
-1.00203, 257, 33, 500, 96
-1.00204, 57, 289, 120, 352
-1.00204, 289, 65, 320, 192
-1.00207, 337, 273, 400, 336
-1.00208, 449, 65, 480, 192
-1.0021, 33, 57, 288, 120
-1.00212, 161, 1, 416, 64
-1.00212, 65, 9, 320, 72
-1.00212, 257, 9, 500, 72
-1.00212, 161, 25, 416, 88
-1.00212, 33, 33, 288, 96
-1.00212, 89, 97, 120, 224
-1.00213, 113, 73, 240, 136
-1.00214, 113, 313, 176, 376
-1.00216, 33, 81, 288, 144
-1.00218, 209, 297, 272, 360
-1.00221, 225, 329, 288, 392
-1.00223, 241, 1, 304, 256
-1.00228, 377, 273, 440, 400
-1.0023, 1, 337, 500, 400
-1.00231, 153, 81, 216, 208
-1.00232, 41, 97, 72, 224
-1.00241, 25, 257, 56, 384
-1.00246, 9, 257, 72, 320
-1.00246, 173, 81, 204, 208
-1.00247, 129, 145, 192, 208
-1.00248, 273, 41, 400, 104
-1.0025, 49, 65, 176, 192
-1.00253, 409, 1, 472, 256
-1.00255, 145, 289, 208, 352
-1.00255, 297, 297, 360, 360
-1.00264, 433, 1, 496, 256
-1.00264, 409, 289, 472, 352
-1.00265, 33, 73, 160, 136
-1.00267, 25, 297, 88, 360
-1.00269, 445, 273, 476, 400
-1.00276, 305, 321, 368, 384
-1.00278, 377, 337, 440, 400
-1.00288, 169, 337, 232, 400
-1.00291, 33, 1, 160, 64
-1.00291, 81, 1, 208, 64
-1.00291, 129, 1, 256, 64
-1.00291, 177, 1, 304, 64
-1.00291, 321, 1, 448, 64
-1.00291, 369, 9, 496, 72
-1.00291, 225, 17, 352, 80
-1.00291, 273, 17, 400, 80
-1.00291, 17, 25, 144, 88
-1.00291, 65, 25, 192, 88
-1.00291, 113, 25, 240, 88
-1.00291, 161, 25, 288, 88
-1.00291, 321, 25, 448, 88
-1.00291, 369, 33, 496, 96
-1.00291, 209, 41, 336, 104
-1.00291, 33, 49, 160, 112
-1.00291, 81, 49, 208, 112
-1.00291, 129, 49, 256, 112
-1.00291, 177, 65, 304, 128
-1.00296, 281, 273, 312, 400
-1.00299, 201, 81, 232, 208
-1.00303, 81, 81, 144, 208
-1.00306, 65, 273, 192, 400
-1.00308, 1, 81, 500, 144
-1.00317, 389, 273, 420, 400
-1.00333, 345, 17, 408, 144
-1.00342, 229, 81, 260, 208
-1.00344, 161, 49, 288, 176
-1.0035, 185, 81, 216, 208
-1.00354, 261, 97, 292, 224
-1.00356, 1, 81, 32, 208
-1.00361, 213, 81, 244, 208
-1.00375, 1, 57, 500, 120
-1.00387, 1, 9, 500, 72
-1.00387, 1, 33, 500, 96
-1.0039, 401, 273, 432, 400
-1.00401, 209, 81, 272, 208
-1.00435, 185, 273, 248, 400
-1.00439, 33, 1, 96, 256
-1.00469, 113, 65, 176, 192
-1.00477, 209, 273, 272, 400
-1.0048, 1, 17, 500, 144
-1.00513, 257, 17, 384, 144
-1.00583, 1, 49, 128, 176
-1.00612, 385, 65, 448, 192
-1.00677, 409, 65, 472, 192
-1.00711, 161, 273, 224, 400
-1.00832, 33, 33, 288, 160
-1.00929, 209, 17, 336, 144
-1.01035, 57, 49, 120, 176
-1.01035, 257, 17, 500, 144
-1.01038, 1, 49, 64, 176
-1.01063, 113, 33, 240, 160
-1.01086, 137, 33, 200, 160
-1.01112, 337, 1, 464, 128
-1.0112, 65, 1, 192, 128
-1.01126, 33, 49, 96, 176
-1.01145, 81, 33, 144, 160
-1.01156, 17, 1, 144, 128
-1.01157, 297, 1, 360, 128
-1.01175, 161, 1, 288, 128
-1.01294, 161, 33, 224, 160
-1.01427, 265, 17, 328, 144
-1.01466, 201, 33, 264, 160
-1.01476, 401, 17, 464, 144
-1.01478, 233, 1, 296, 128
-1.01484, 321, 1, 384, 128
-1.01509, 105, 17, 168, 144
-1.01594, 33, 1, 96, 128
-1.01594, 57, 1, 120, 128
-1.01606, 425, 17, 488, 144
-1.01623, 9, 1, 72, 128
-1.01728, 377, 1, 440, 128
