1941
-0.408072, 1, 1, 480, 256
-0.462969, 1, 1, 480, 360
-0.494716, 193, 1, 448, 360
-0.528191, 33, 1, 288, 360
-0.535744, 1, 97, 480, 352
-0.67532, 1, 1, 256, 256
-0.680541, 225, 1, 480, 256
-0.710245, 65, 97, 320, 352
-0.710389, 225, 97, 480, 352
-0.734024, 97, 1, 352, 256
-0.857597, 225, 1, 352, 360
-0.861318, 113, 1, 240, 360
-0.862039, 161, 1, 288, 360
-0.868281, 113, 1, 240, 256
-0.869704, 1, 1, 480, 128
-0.877145, 353, 1, 480, 360
-0.880773, 161, 1, 288, 256
-0.883728, 257, 65, 384, 320
-0.884869, 1, 193, 480, 320
-0.890706, 273, 1, 400, 360
-0.893519, 17, 1, 144, 360
-0.896124, 129, 97, 256, 352
-0.897326, 1, 145, 480, 272
-0.897376, 337, 97, 464, 352
-0.900222, 337, 1, 464, 256
-0.900725, 177, 97, 304, 352
-0.903936, 33, 1, 160, 256
-0.911784, 193, 209, 448, 336
-0.911998, 65, 1, 192, 360
-0.921757, 81, 97, 208, 352
-0.921824, 97, 209, 352, 336
-0.923322, 1, 65, 480, 192
-0.928452, 321, 209, 448, 336
-0.929194, 209, 1, 336, 256
-0.931539, 129, 161, 384, 288
-0.932514, 33, 1, 288, 128
-0.933458, 257, 193, 384, 320
-0.934564, 225, 161, 480, 288
-0.936521, 225, 209, 288, 336
-0.937957, 97, 113, 352, 240
-0.938658, 209, 209, 336, 336
-0.939695, 385, 193, 448, 320
-0.94144, 337, 209, 400, 336
-0.941475, 225, 1, 480, 128
-0.942616, 305, 193, 368, 320
-0.942994, 249, 177, 312, 304
-0.943296, 33, 97, 160, 352
-0.943642, 97, 1, 160, 128
-0.943999, 193, 225, 256, 352
-0.94497, 281, 193, 344, 320
-0.947338, 177, 129, 304, 256
-0.949348, 1, 49, 256, 176
-0.950181, 105, 113, 168, 240
-0.950281, 329, 233, 392, 296
-0.950801, 129, 1, 384, 128
-0.950942, 257, 129, 320, 256
-0.951171, 257, 145, 384, 272
-0.952083, 33, 1, 160, 128
-0.952393, 113, 49, 240, 176
-0.952555, 129, 225, 256, 352
-0.95406, 361, 209, 424, 336
-0.95411, 337, 1, 464, 128
-0.954209, 161, 49, 416, 176
-0.955042, 145, 209, 208, 336
-0.956379, 121, 49, 184, 176
-0.95677, 129, 113, 256, 240
-0.956824, 225, 1, 352, 128
-0.957028, 97, 1, 224, 128
-0.957129, 225, 225, 288, 288
-0.958297, 33, 161, 288, 288
-0.958964, 121, 1, 184, 128
-0.959781, 249, 193, 312, 256
-0.959927, 25, 1, 88, 128
-0.960032, 185, 233, 248, 296
-0.960256, 249, 225, 312, 352
-0.960587, 185, 161, 248, 288
-0.960731, 353, 233, 416, 296
-0.960802, 89, 65, 152, 192
-0.961, 209, 145, 272, 272
-0.961288, 1, 225, 256, 352
-0.961413, 233, 129, 296, 256
-0.961713, 17, 49, 144, 176
-0.961726, 289, 257, 352, 320
-0.961768, 185, 1, 248, 128
-0.962276, 305, 161, 432, 288
-0.962294, 193, 81, 320, 208
-0.962409, 81, 97, 208, 224
-0.962547, 281, 1, 344, 128
-0.962638, 73, 17, 136, 144
-0.962647, 153, 1, 216, 128
-0.962675, 281, 145, 344, 272
-0.962678, 289, 217, 352, 280
-0.962878, 241, 1, 304, 128
-0.96327, 401, 33, 464, 160
-0.963527, 121, 177, 184, 304
-0.963614, 225, 113, 480, 240
-0.963817, 129, 161, 256, 288
-0.963901, 273, 1, 400, 128
-0.964038, 385, 225, 448, 288
-0.964058, 177, 1, 304, 128
-0.964108, 169, 225, 232, 352
-0.96415, 329, 257, 392, 320
-0.964604, 129, 97, 192, 224
-0.965476, 273, 169, 336, 232
-0.96583, 1, 113, 256, 240
-0.966256, 65, 161, 192, 288
-0.966391, 1, 49, 64, 176
-0.967093, 265, 257, 328, 320
-0.967278, 1, 1, 64, 128
-0.967397, 337, 1, 400, 128
-0.96764, 105, 121, 168, 184
-0.967901, 257, 65, 320, 192
-0.96801, 377, 17, 440, 144
-0.968041, 257, 65, 384, 192
-0.968069, 225, 217, 352, 280
-0.96811, 273, 233, 400, 296
-0.96815, 249, 145, 312, 208
-0.968224, 193, 241, 320, 304
-0.9686, 281, 97, 344, 224
-0.968601, 337, 225, 464, 288
-0.968684, 305, 1, 368, 128
-0.968977, 105, 153, 168, 216
-0.969006, 161, 113, 224, 240
-0.969053, 329, 161, 392, 288
-0.969848, 185, 121, 248, 184
-0.9704, 161, 217, 224, 280
-0.970913, 65, 49, 192, 176
-0.971004, 137, 1, 200, 256
-0.971078, 233, 249, 296, 312
-0.971307, 129, 105, 192, 168
-0.971381, 121, 177, 184, 240
-0.971852, 417, 225, 480, 352
-0.97187, 257, 1, 320, 64
-0.972087, 353, 257, 416, 320
-0.972275, 353, 49, 480, 176
-0.972315, 217, 121, 280, 184
-0.972564, 313, 209, 376, 272
-0.972794, 265, 225, 328, 288
-0.972832, 201, 97, 264, 224
-0.973084, 385, 201, 448, 264
-0.973181, 305, 49, 432, 176
-0.973195, 289, 145, 352, 208
-0.973233, 89, 89, 152, 152
-0.973293, 217, 201, 280, 264
-0.973313, 113, 57, 176, 120
-0.973371, 353, 161, 480, 288
-0.973521, 217, 225, 248, 352
-0.973535, 145, 129, 208, 192
-0.973758, 225, 81, 288, 208
-0.97383, 73, 1, 136, 64
-0.974151, 137, 209, 200, 272
-0.974252, 249, 169, 312, 232
-0.974294, 169, 1, 232, 64
-0.974357, 117, 65, 148, 192
-0.974457, 241, 217, 272, 280
-0.9746, 193, 145, 256, 208
-0.97464, 113, 81, 176, 144
-0.974841, 97, 17, 160, 80
-0.974844, 81, 209, 208, 336
-0.974891, 333, 225, 364, 288
-0.974989, 305, 257, 432, 320
-0.974997, 353, 49, 416, 176
-0.975139, 329, 49, 392, 176
-0.975187, 201, 1, 264, 64
-0.975299, 129, 129, 160, 256
-0.975305, 97, 161, 160, 288
-0.975366, 1, 41, 64, 104
-0.97547, 81, 113, 144, 240
-0.975599, 177, 217, 304, 280
-0.975687, 209, 1, 272, 128
-0.975769, 161, 161, 224, 288
-0.975932, 145, 249, 208, 312
-0.976247, 241, 297, 304, 360
-0.976284, 233, 209, 264, 336
-0.976285, 193, 129, 320, 192
-0.976307, 121, 17, 152, 144
-0.976329, 261, 177, 292, 304
-0.97659, 49, 49, 112, 176
-0.976668, 281, 281, 344, 344
-0.976819, 73, 49, 136, 112
-0.976875, 209, 249, 272, 312
-0.976884, 245, 193, 276, 320
-0.977016, 193, 209, 256, 272
-0.977044, 225, 193, 352, 256
-0.977135, 185, 257, 248, 320
-0.977281, 209, 233, 240, 296
-0.977416, 281, 1, 344, 256
-0.97742, 257, 201, 288, 264
-0.977444, 417, 233, 480, 296
-0.977454, 257, 65, 320, 320
-0.977466, 285, 225, 316, 352
-0.977493, 113, 1, 176, 256
-0.977603, 161, 1, 224, 256
-0.977651, 321, 225, 352, 352
-0.97766, 221, 225, 252, 288
-0.97783, 257, 257, 384, 320
-0.977921, 325, 257, 356, 320
-0.978075, 273, 121, 336, 184
-0.978134, 305, 281, 368, 344
-0.978226, 361, 209, 424, 272
-0.978346, 305, 1, 368, 256
-0.978421, 121, 225, 184, 352
-0.978424, 309, 193, 340, 320
-0.978439, 385, 57, 448, 120
-0.978532, 153, 97, 216, 352
-0.978728, 393, 33, 456, 96
-0.978747, 113, 97, 176, 352
-0.978812, 265, 177, 296, 240
-0.978908, 401, 1, 464, 256
-0.979021, 337, 57, 400, 120
-0.979065, 273, 209, 400, 272
-0.979139, 333, 193, 364, 320
-0.979144, 281, 97, 344, 352
-0.979282, 33, 113, 160, 240
-0.979331, 393, 249, 456, 312
-0.97943, 357, 209, 388, 336
-0.979453, 145, 1, 208, 64
-0.979457, 161, 153, 224, 216
-0.97947, 113, 137, 240, 200
-0.979478, 417, 41, 480, 104
-0.979483, 353, 161, 416, 288
-0.979591, 337, 201, 464, 264
-0.979819, 373, 233, 404, 296
-0.979831, 297, 57, 360, 120
-0.98, 1, 1, 64, 64
-0.980105, 277, 161, 308, 288
-0.980248, 289, 49, 352, 176
-0.980317, 145, 177, 176, 304
-0.980339, 357, 225, 388, 288
-0.980385, 129, 65, 160, 192
-0.980395, 117, 65, 148, 128
-0.980456, 377, 209, 408, 336
-0.980513, 129, 257, 256, 320
-0.980556, 261, 129, 292, 256
-0.980642, 49, 1, 112, 128
-0.980672, 109, 1, 140, 128
-0.980686, 285, 257, 316, 320
-0.980746, 241, 273, 304, 336
-0.980903, 41, 25, 104, 88
-0.980955, 357, 249, 388, 312
-0.981089, 241, 121, 304, 184
-0.981107, 417, 209, 480, 272
-0.981128, 273, 1, 336, 360
-0.981133, 117, 113, 148, 176
-0.98116, 129, 225, 256, 288
-0.981162, 125, 137, 156, 200
-0.981238, 281, 1, 344, 64
-0.981312, 1, 81, 64, 144
-0.981325, 313, 249, 344, 312
-0.981375, 17, 49, 144, 112
-0.981377, 361, 65, 424, 128
-0.981407, 389, 193, 420, 320
-0.981448, 25, 65, 88, 128
-0.981489, 417, 177, 480, 304
-0.981503, 217, 161, 280, 224
-0.981549, 161, 193, 288, 256
-0.981577, 209, 281, 272, 344
-0.981631, 89, 65, 152, 320
-0.981659, 221, 249, 252, 312
-0.981673, 33, 1, 96, 64
-0.981685, 161, 193, 224, 256
-0.981731, 305, 113, 432, 240
-0.981745, 129, 153, 192, 216
-0.981792, 113, 105, 240, 168
-0.98187, 209, 113, 240, 176
-0.981877, 81, 113, 144, 176
-0.981929, 429, 249, 460, 312
-0.981942, 121, 1, 184, 64
-0.981985, 385, 97, 448, 352
-0.98201, 289, 193, 352, 256
-0.982079, 197, 225, 228, 288
-0.982108, 309, 1, 340, 128
-0.982138, 141, 129, 172, 256
-0.982196, 97, 209, 160, 336
-0.982248, 289, 25, 352, 88
-0.982303, 217, 97, 280, 160
-0.982387, 169, 225, 200, 352
-0.982394, 225, 1, 288, 256
-0.982414, 189, 1, 220, 128
-0.98255, 337, 209, 400, 272
-0.982562, 185, 1, 248, 256
-0.982702, 257, 97, 320, 160
-0.982707, 413, 209, 444, 336
-0.982724, 281, 161, 312, 224
-0.982749, 97, 1, 224, 64
-0.982826, 297, 209, 328, 336
-0.982893, 105, 65, 136, 192
-0.982944, 25, 49, 88, 176
-0.982961, 145, 49, 208, 176
-0.983009, 145, 185, 176, 248
-0.983056, 185, 225, 216, 352
-0.983056, 185, 49, 248, 176
-0.983149, 257, 153, 384, 216
-0.983201, 177, 105, 304, 168
-0.98324, 337, 17, 464, 80
-0.983256, 121, 25, 184, 88
-0.983309, 137, 281, 200, 344
-0.983323, 173, 217, 204, 280
-0.98333, 449, 233, 480, 296
-0.983387, 417, 65, 480, 128
-0.983398, 117, 113, 148, 240
-0.983448, 401, 193, 432, 320
-0.983455, 169, 25, 232, 88
-0.983538, 345, 225, 376, 288
-0.983576, 225, 1, 352, 64
-0.983628, 233, 1, 296, 360
-0.983708, 117, 89, 148, 152
-0.983837, 113, 25, 240, 88
-0.983877, 381, 1, 412, 128
-0.98388, 269, 145, 300, 208
-0.983919, 385, 1, 448, 360
-0.983929, 65, 49, 192, 112
-0.98405, 377, 65, 440, 192
-0.984114, 345, 209, 376, 336
-0.984125, 209, 289, 336, 352
-0.984175, 337, 97, 400, 352
-0.984197, 197, 225, 228, 352
-0.984215, 49, 57, 112, 120
-0.984254, 281, 233, 312, 296
-0.984262, 113, 201, 240, 264
-0.984298, 33, 225, 160, 352
-0.984343, 377, 273, 440, 336
-0.984381, 425, 225, 456, 352
-0.984391, 225, 1, 288, 64
-0.984392, 137, 153, 168, 216
-0.984462, 161, 177, 192, 304
-0.984485, 129, 97, 160, 160
-0.984513, 193, 185, 256, 248
-0.984573, 113, 201, 176, 264
-0.984644, 445, 33, 476, 160
-0.984713, 269, 201, 300, 264
-0.984738, 225, 25, 352, 88
-0.984747, 129, 57, 160, 120
-0.984761, 17, 73, 144, 136
-0.984831, 245, 193, 276, 256
-0.984839, 353, 249, 480, 312
-0.984851, 337, 33, 400, 96
-0.984867, 145, 1, 272, 64
-0.984962, 321, 177, 352, 304
-0.984976, 313, 145, 376, 208
-0.984992, 225, 97, 288, 352
-0.985, 345, 249, 376, 312
-0.98504, 321, 1, 384, 64
-0.985127, 141, 81, 172, 208
-0.985147, 353, 57, 480, 120
-0.985172, 257, 281, 384, 344
-0.985202, 433, 33, 464, 160
-0.98523, 109, 1, 140, 64
-0.98528, 305, 145, 368, 272
-0.985292, 269, 1, 300, 64
-0.985297, 417, 1, 480, 360
-0.985316, 185, 225, 216, 288
-0.985317, 273, 1, 400, 64
-0.985337, 377, 1, 440, 256
-0.98534, 257, 57, 320, 120
-0.985352, 157, 217, 188, 280
-0.985426, 301, 257, 332, 320
-0.985449, 401, 273, 464, 336
-0.985454, 369, 33, 432, 96
-0.985486, 165, 193, 196, 256
-0.985646, 417, 97, 480, 352
-0.985713, 265, 273, 296, 336
-0.985755, 241, 129, 368, 192
-0.985818, 209, 1, 272, 360
-0.985855, 297, 1, 360, 360
-0.98587, 133, 17, 164, 144
-0.985897, 97, 241, 160, 304
-0.986017, 209, 153, 336, 216
-0.98606, 145, 161, 272, 224
-0.986116, 149, 225, 180, 352
-0.986121, 361, 97, 424, 352
-0.986129, 313, 97, 376, 352
-0.986137, 65, 1, 96, 64
-0.986149, 309, 217, 340, 280
-0.986155, 5, 1, 36, 128
-0.986187, 221, 121, 252, 184
-0.986193, 297, 81, 360, 144
-0.986218, 209, 25, 272, 88
-0.986319, 289, 49, 416, 112
-0.986321, 65, 169, 192, 232
-0.986336, 393, 81, 456, 144
-0.986354, 369, 97, 432, 160
-0.986407, 173, 177, 204, 304
-0.986439, 97, 1, 128, 128
-0.986471, 289, 1, 320, 64
-0.986494, 113, 81, 240, 144
-0.986504, 33, 1, 160, 64
-0.986608, 185, 9, 216, 72
-0.98662, 229, 129, 260, 256
-0.986629, 241, 33, 304, 96
-0.986726, 209, 137, 240, 200
-0.986753, 241, 145, 272, 272
-0.986858, 201, 1, 232, 128
-0.986925, 65, 25, 192, 88
-0.986936, 337, 81, 400, 144
-0.986937, 417, 225, 448, 288
-0.986986, 421, 33, 452, 160
-0.987084, 293, 129, 324, 256
-0.987085, 13, 49, 44, 176
-0.987123, 193, 265, 320, 328
-0.987176, 273, 1, 304, 128
-0.987197, 273, 81, 304, 208
-0.987211, 121, 233, 184, 296
-0.987336, 137, 121, 168, 184
-0.987369, 289, 17, 320, 144
-0.987444, 177, 97, 240, 160
-0.987504, 65, 1, 128, 256
-0.987537, 353, 1, 416, 360
-0.987548, 393, 209, 424, 272
-0.987589, 185, 113, 216, 240
-0.987598, 221, 1, 252, 64
-0.987615, 73, 25, 136, 88
-0.987637, 145, 281, 272, 344
-0.987637, 261, 249, 292, 312
-0.987671, 169, 241, 200, 304
-0.987678, 409, 1, 440, 128
-0.987708, 357, 57, 388, 120
-0.987716, 293, 153, 324, 216
-0.987762, 185, 121, 216, 184
-0.987781, 337, 1, 368, 128
-0.9878, 161, 49, 288, 112
-0.987817, 229, 201, 260, 264
-0.987823, 257, 105, 384, 168
-0.987878, 329, 121, 392, 184
-0.987899, 237, 1, 268, 128
-0.987903, 113, 1, 176, 360
-0.98795, 145, 41, 208, 104
-0.98801, 105, 105, 136, 168
-0.988026, 221, 177, 252, 304
-0.988029, 57, 33, 88, 96
-0.988068, 217, 281, 248, 344
-0.988081, 169, 1, 232, 360
-0.988102, 353, 97, 480, 224
-0.988132, 177, 1, 208, 128
-0.98817, 233, 17, 264, 80
-0.988221, 201, 161, 232, 288
-0.988221, 65, 121, 192, 184
-0.988255, 137, 81, 200, 144
-0.988311, 37, 57, 68, 120
-0.988403, 401, 81, 464, 208
-0.988437, 289, 185, 416, 248
-0.988485, 273, 25, 400, 88
-0.988497, 353, 273, 480, 336
-0.988508, 385, 241, 416, 304
-0.988514, 145, 1, 208, 360
-0.988516, 293, 217, 324, 280
-0.988524, 81, 225, 208, 288
-0.988563, 233, 241, 264, 304
-0.988578, 65, 1, 96, 128
-0.988589, 417, 9, 480, 72
-0.988596, 105, 297, 168, 360
-0.988598, 177, 97, 240, 352
-0.98861, 321, 1, 384, 360
-0.988673, 329, 1, 392, 256
-0.988762, 417, 185, 480, 248
-0.988781, 49, 297, 176, 360
-0.988819, 201, 9, 232, 72
-0.988821, 113, 273, 176, 336
-0.988864, 297, 121, 360, 184
-0.988891, 197, 121, 228, 184
-0.988905, 321, 245, 384, 276
-0.988927, 121, 1, 152, 64
-0.988929, 357, 1, 388, 128
-0.988941, 209, 257, 240, 320
-0.988967, 49, 97, 176, 160
-0.988968, 33, 1, 64, 128
-0.989028, 197, 249, 228, 312
-0.989043, 241, 65, 368, 128
-0.98905, 225, 225, 480, 288
-0.98907, 153, 1, 184, 128
-0.989115, 201, 97, 264, 352
-0.989121, 281, 185, 312, 248
-0.989124, 265, 25, 328, 88
-0.989143, 105, 65, 136, 128
-0.989164, 185, 297, 248, 360
-0.989203, 313, 97, 376, 224
-0.989247, 397, 17, 428, 144
-0.989251, 217, 201, 248, 264
-0.989264, 161, 25, 288, 88
-0.9893, 405, 201, 436, 264
-0.98931, 329, 257, 392, 288
-0.989317, 261, 225, 292, 352
-0.989386, 77, 1, 108, 64
-0.989388, 113, 137, 144, 200
-0.989439, 369, 9, 432, 72
-0.989501, 225, 229, 288, 260
-0.989527, 321, 233, 384, 264
-0.989529, 145, 257, 176, 320
-0.989535, 317, 193, 348, 256
-0.989536, 381, 49, 412, 176
-0.989578, 321, 1, 352, 128
-0.989585, 209, 81, 240, 208
-0.989627, 225, 241, 288, 272
-0.989644, 217, 1, 248, 128
-0.989717, 157, 129, 188, 256
-0.989756, 77, 1, 108, 128
-0.989764, 313, 33, 376, 96
-0.989777, 305, 81, 336, 208
-0.989807, 353, 185, 416, 248
-0.989821, 65, 273, 192, 336
-0.989831, 353, 233, 416, 264
-0.98984, 241, 213, 304, 244
-0.989857, 81, 137, 144, 200
-0.989858, 117, 25, 148, 88
-0.989944, 17, 25, 144, 88
-0.989955, 385, 225, 448, 256
-0.989978, 81, 169, 144, 232
-0.989982, 297, 265, 360, 296
-0.989991, 113, 57, 240, 120
-0.989999, 145, 217, 176, 280
-0.990009, 193, 249, 448, 312
-0.990072, 185, 233, 248, 264
-0.99008, 401, 113, 464, 176
-0.990115, 281, 137, 312, 200
-0.990123, 193, 249, 256, 280
-0.990138, 49, 145, 176, 208
-0.990145, 197, 81, 228, 208
-0.990184, 89, 1, 152, 360
-0.990207, 133, 1, 164, 64
-0.990278, 393, 1, 456, 64
-0.990289, 321, 225, 352, 288
-0.990304, 9, 33, 72, 288
-0.990315, 329, 269, 392, 300
-0.99034, 305, 81, 432, 144
-0.990343, 129, 209, 384, 272
-0.990365, 353, 49, 384, 176
-0.990372, 321, 185, 384, 248
-0.990386, 417, 129, 480, 256
-0.990461, 201, 217, 264, 248
-0.990468, 353, 257, 416, 288
-0.990478, 45, 1, 76, 128
-0.990536, 241, 5, 304, 36
-0.990555, 253, 1, 284, 128
-0.990563, 425, 57, 456, 120
-0.990563, 253, 225, 284, 288
-0.990593, 193, 133, 256, 164
-0.990601, 289, 221, 352, 252
-0.99062, 81, 289, 144, 352
-0.990626, 185, 257, 216, 320
-0.990641, 65, 201, 192, 264
-0.990664, 369, 49, 400, 176
-0.990717, 41, 49, 72, 176
-0.990767, 25, 65, 56, 128
-0.99079, 369, 209, 400, 272
-0.990795, 425, 33, 456, 96
-0.990798, 69, 33, 100, 96
-0.990818, 1, 17, 32, 80
-0.990821, 321, 221, 384, 252
-0.990822, 133, 177, 164, 304
-0.990824, 289, 249, 352, 280
-0.990831, 273, 177, 336, 208
-0.990863, 257, 137, 288, 200
-0.99087, 169, 137, 232, 168
-0.990898, 189, 177, 220, 304
-0.99093, 257, 197, 320, 228
-0.990955, 129, 297, 160, 360
-0.99096, 193, 9, 256, 40
-0.990963, 449, 33, 480, 96
-0.990964, 249, 169, 280, 232
-0.990981, 265, 257, 328, 288
-0.990984, 257, 281, 320, 312
-0.99099, 309, 145, 340, 272
-0.990992, 97, 9, 160, 40
-0.991006, 289, 281, 320, 344
-0.991013, 161, 225, 224, 256
-0.991019, 149, 161, 180, 224
-0.991044, 105, 89, 168, 120
-0.991044, 221, 145, 252, 208
-0.991071, 33, 1, 96, 256
-0.991078, 113, 161, 176, 192
-0.991091, 273, 269, 336, 300
-0.991092, 289, 289, 352, 320
-0.991094, 193, 149, 256, 180
-0.99113, 145, 257, 208, 288
-0.99113, 361, 113, 424, 240
-0.991131, 305, 145, 432, 208
-0.991184, 225, 133, 288, 164
-0.991184, 345, 245, 408, 276
-0.991201, 97, 121, 160, 152
-0.991217, 217, 121, 280, 152
-0.991227, 369, 121, 432, 184
-0.991231, 281, 237, 344, 268
-0.991234, 105, 141, 168, 172
-0.99124, 353, 1, 416, 256
-0.991252, 105, 69, 168, 100
-0.991258, 313, 281, 376, 312
-0.991266, 121, 177, 184, 208
-0.991282, 401, 261, 464, 292
-0.991286, 265, 1, 328, 32
-0.991302, 193, 261, 256, 292
-0.991307, 73, 9, 136, 40
-0.991313, 25, 41, 56, 104
-0.99134, 193, 121, 256, 152
-0.991341, 417, 89, 480, 152
-0.991342, 225, 253, 288, 284
-0.991343, 169, 245, 232, 276
-0.991372, 9, 73, 72, 104
-0.991381, 161, 281, 224, 344
-0.991392, 369, 161, 400, 288
-0.991396, 313, 273, 344, 336
-0.991427, 417, 233, 480, 264
-0.991446, 249, 225, 312, 256
-0.991458, 253, 1, 284, 64
-0.99148, 225, 193, 288, 224
-0.991527, 445, 193, 476, 320
-0.991545, 121, 5, 184, 36
-0.991548, 121, 129, 184, 160
-0.991574, 1, 41, 32, 104
-0.991584, 1, 57, 64, 88
-0.991584, 417, 213, 480, 244
-0.991586, 89, 101, 152, 132
-0.991595, 145, 129, 208, 160
-0.991597, 273, 225, 304, 352
-0.991599, 345, 161, 376, 288
-0.991615, 129, 141, 192, 172
-0.991621, 393, 245, 456, 276
-0.991624, 265, 209, 328, 240
-0.99163, 73, 57, 136, 88
-0.991631, 161, 213, 224, 244
-0.991641, 225, 17, 288, 48
-0.991643, 249, 297, 280, 360
-0.991654, 1, 93, 64, 124
-0.991663, 113, 101, 176, 132
-0.991664, 209, 325, 272, 356
-0.991674, 329, 57, 360, 120
-0.991722, 157, 1, 188, 64
-0.991736, 289, 157, 352, 188
-0.991747, 121, 117, 184, 148
-0.991773, 73, 49, 104, 176
-0.99178, 137, 213, 200, 244
-0.991789, 249, 185, 312, 216
-0.991794, 265, 13, 328, 44
-0.991799, 257, 69, 320, 100
-0.991801, 377, 213, 440, 244
-0.991801, 57, 1, 120, 360
-0.991814, 393, 145, 456, 272
-0.991815, 65, 73, 192, 136
-0.991822, 321, 129, 352, 256
-0.991823, 193, 81, 320, 144
-0.991843, 281, 145, 344, 176
-0.991844, 277, 281, 308, 344
-0.991849, 169, 257, 232, 288
-0.991851, 417, 245, 480, 276
-0.991863, 281, 193, 344, 224
-0.991874, 281, 57, 344, 88
-0.991876, 249, 149, 312, 180
-0.991886, 249, 245, 312, 276
-0.991897, 1, 37, 64, 68
-0.991906, 197, 145, 228, 208
-0.99193, 329, 201, 360, 264
-0.991932, 169, 9, 232, 40
-0.991932, 337, 97, 400, 224
-0.991935, 49, 249, 176, 312
-0.991974, 345, 9, 408, 72
-0.991981, 129, 193, 192, 224
-0.991982, 217, 129, 248, 256
-0.991983, 405, 25, 436, 88
-0.991994, 297, 69, 360, 100
-0.992002, 145, 1, 208, 32
-0.992024, 161, 145, 192, 208
-0.992038, 265, 293, 328, 324
-0.992045, 353, 221, 416, 252
-0.992048, 265, 125, 328, 156
-0.992052, 201, 21, 264, 52
-0.992053, 145, 245, 208, 276
-0.99207, 353, 81, 480, 144
-0.992071, 297, 209, 360, 240
-0.992079, 89, 45, 152, 76
-0.992082, 233, 265, 296, 296
-0.992096, 169, 317, 232, 348
-0.992098, 225, 109, 288, 140
-0.992105, 217, 1, 280, 32
-0.992117, 229, 281, 260, 344
-0.992119, 97, 1, 128, 64
-0.992121, 1, 1, 64, 32
-0.992127, 353, 269, 416, 300
-0.992127, 321, 49, 384, 80
-0.992135, 129, 81, 192, 112
-0.992157, 217, 205, 280, 236
-0.992161, 41, 1, 104, 32
-0.992179, 257, 57, 320, 88
-0.992184, 345, 57, 376, 120
-0.992186, 369, 65, 400, 128
-0.992192, 161, 149, 224, 180
-0.992217, 289, 1, 352, 32
-0.992217, 377, 257, 440, 288
-0.992221, 121, 17, 184, 48
-0.992228, 369, 1, 400, 128
-0.992229, 113, 309, 176, 340
-0.992229, 137, 25, 168, 88
-0.992251, 169, 269, 232, 300
-0.992256, 409, 273, 472, 304
-0.992265, 73, 21, 136, 52
-0.992277, 281, 25, 312, 88
-0.992281, 265, 25, 328, 56
-0.992293, 249, 169, 312, 200
-0.992299, 25, 65, 56, 192
-0.992307, 153, 105, 216, 168
-0.992315, 49, 57, 112, 88
-0.992317, 285, 81, 316, 208
-0.992333, 417, 65, 480, 96
-0.99234, 213, 233, 244, 264
-0.992343, 225, 297, 288, 328
-0.992345, 81, 81, 144, 112
-0.992347, 121, 57, 184, 88
-0.992356, 229, 65, 260, 192
-0.992366, 33, 69, 96, 100
-0.992376, 25, 53, 88, 84
-0.992382, 257, 113, 320, 144
-0.992387, 137, 225, 200, 256
-0.992395, 57, 33, 120, 64
-0.992403, 97, 33, 160, 64
-0.992408, 321, 137, 384, 168
-0.992421, 329, 85, 392, 116
-0.992429, 97, 233, 352, 296
-0.992432, 33, 25, 96, 56
-0.992476, 137, 153, 200, 184
-0.99248, 173, 17, 204, 80
-0.992481, 65, 81, 128, 144
-0.992527, 257, 65, 288, 192
-0.992571, 437, 57, 468, 120
-0.992588, 317, 1, 348, 64
-0.992597, 225, 225, 256, 256
-0.9926, 9, 65, 40, 128
-0.992602, 357, 257, 388, 288
-0.992609, 413, 273, 444, 336
-0.992621, 305, 1, 336, 64
-0.992634, 217, 5, 248, 36
-0.992653, 341, 201, 372, 264
-0.992661, 1, 97, 128, 160
-0.992678, 249, 201, 280, 232
-0.992709, 257, 237, 384, 268
-0.992712, 357, 161, 388, 288
-0.992714, 205, 129, 236, 160
-0.992726, 233, 213, 264, 244
-0.992752, 341, 225, 372, 256
-0.992772, 209, 245, 240, 276
-0.99278, 329, 233, 360, 264
-0.992789, 197, 241, 228, 272
-0.992815, 269, 181, 300, 212
-0.992818, 329, 261, 360, 292
-0.992824, 281, 169, 312, 200
-0.992831, 321, 273, 352, 304
-0.992847, 185, 229, 216, 260
-0.992852, 377, 257, 408, 288
-0.992865, 81, 33, 112, 96
-0.992876, 317, 253, 348, 284
-0.992878, 333, 245, 364, 276
-0.99288, 89, 193, 152, 256
-0.992883, 361, 229, 392, 260
-0.992888, 1, 17, 480, 80
-0.992889, 169, 213, 200, 244
-0.992899, 1, 225, 480, 288
-0.992901, 409, 49, 440, 176
-0.992903, 225, 201, 480, 264
-0.992905, 221, 245, 252, 276
-0.992914, 429, 265, 460, 296
-0.992919, 17, 77, 48, 108
-0.992919, 241, 233, 272, 264
-0.992936, 257, 189, 288, 220
-0.992947, 269, 1, 300, 32
-0.99296, 17, 57, 48, 88
-0.992965, 201, 149, 232, 180
-0.99297, 113, 105, 144, 136
-0.992974, 109, 93, 140, 124
-0.992976, 117, 77, 148, 108
-0.992984, 213, 257, 244, 288
-0.992988, 281, 261, 312, 292
-0.992988, 309, 273, 340, 304
-0.992989, 345, 245, 376, 276
-0.993002, 197, 229, 228, 260
-0.993002, 45, 25, 76, 88
-0.993004, 189, 137, 220, 168
-0.993005, 445, 253, 476, 284
-0.993009, 253, 221, 284, 252
-0.993017, 209, 117, 240, 148
-0.993021, 205, 1, 236, 32
-0.993023, 325, 65, 356, 192
-0.993026, 125, 117, 156, 148
-0.993026, 281, 113, 312, 176
-0.993034, 237, 17, 268, 48
-0.993039, 189, 13, 220, 44
-0.993046, 201, 13, 232, 44
-0.993053, 333, 273, 364, 304
-0.993061, 37, 61, 68, 92
-0.993064, 289, 81, 320, 144
-0.993066, 369, 257, 400, 320
-0.993069, 129, 129, 160, 160
-0.993087, 289, 289, 320, 320
-0.99309, 101, 1, 132, 32
-0.993094, 113, 9, 144, 40
-0.993094, 401, 205, 432, 236
-0.993097, 425, 253, 456, 284
-0.9931, 117, 141, 148, 172
-0.9931, 213, 329, 244, 360
-0.993103, 233, 245, 264, 276
-0.99311, 1, 1, 32, 32
-0.993113, 185, 257, 216, 288
-0.993113, 301, 285, 332, 316
-0.993118, 185, 201, 216, 264
-0.993121, 277, 13, 308, 44
-0.993122, 157, 201, 188, 232
-0.993123, 109, 121, 140, 152
-0.993126, 121, 93, 152, 124
-0.993127, 217, 129, 248, 160
-0.993129, 137, 225, 168, 352
-0.993133, 133, 145, 164, 176
-0.993138, 233, 325, 264, 356
-0.993141, 373, 229, 404, 260
-0.993143, 145, 181, 176, 212
-0.993144, 117, 65, 148, 96
-0.993148, 273, 241, 304, 272
-0.993149, 265, 209, 296, 240
-0.993151, 441, 241, 472, 272
-0.993152, 373, 245, 404, 276
-0.993157, 269, 193, 300, 224
-0.99316, 285, 57, 316, 120
-0.993163, 137, 157, 168, 188
-0.993165, 337, 233, 464, 264
-0.993166, 417, 229, 448, 260
-0.993166, 125, 105, 156, 136
-0.99317, 389, 221, 420, 252
-0.993171, 325, 285, 356, 316
-0.993175, 281, 181, 312, 212
-0.993179, 221, 145, 252, 176
-0.993184, 1, 65, 32, 96
-0.993184, 125, 1, 156, 32
-0.993185, 165, 253, 196, 284
-0.993187, 289, 9, 320, 40
-0.99319, 341, 81, 372, 208
-0.993192, 129, 73, 160, 104
-0.993193, 29, 73, 60, 104
-0.993201, 1, 77, 32, 108
-0.993203, 437, 33, 468, 96
-0.993208, 181, 217, 212, 248
-0.993213, 197, 253, 228, 284
-0.993216, 289, 77, 320, 108
-0.993216, 121, 153, 152, 184
-0.993216, 357, 245, 388, 276
-0.993218, 5, 53, 36, 84
-0.993221, 221, 277, 252, 308
-0.993225, 293, 181, 324, 212
-0.993229, 145, 169, 176, 200
-0.993229, 289, 273, 320, 304
-0.993235, 177, 245, 208, 276
-0.993244, 181, 125, 212, 156
-0.993248, 69, 37, 100, 68
-0.993252, 229, 1, 260, 32
-0.993254, 249, 1, 280, 32
-0.993255, 225, 257, 256, 288
-0.993258, 261, 137, 292, 168
-0.993258, 77, 53, 108, 84
-0.993265, 25, 45, 56, 76
-0.993268, 269, 153, 300, 184
-0.993272, 197, 317, 228, 348
-0.993276, 365, 89, 396, 120
-0.993277, 169, 225, 200, 256
-0.993278, 313, 217, 344, 248
-0.993282, 193, 117, 224, 148
-0.993283, 17, 273, 144, 336
-0.993289, 285, 157, 316, 188
-0.993289, 249, 13, 280, 44
-0.993289, 101, 105, 132, 136
-0.99329, 269, 253, 300, 284
-0.993293, 177, 1, 208, 32
-0.993294, 217, 17, 248, 48
-0.993294, 133, 89, 164, 120
-0.993295, 265, 273, 296, 304
-0.993296, 197, 265, 228, 296
-0.993299, 445, 229, 476, 260
-0.993299, 277, 65, 308, 96
-0.993302, 321, 81, 352, 112
-0.993306, 105, 81, 136, 112
-0.993309, 429, 241, 460, 272
-0.993311, 1, 37, 32, 68
-0.993313, 441, 65, 472, 96
-0.993394, 193, 241, 320, 272
-0.9934, 61, 49, 92, 176
-0.9934, 97, 297, 224, 360
-0.99344, 1, 49, 32, 176
-0.993504, 97, 113, 352, 176
-0.993551, 105, 113, 136, 240
-0.993573, 305, 121, 432, 184
-0.993573, 97, 257, 352, 320
-0.993645, 93, 49, 124, 176
-0.993654, 257, 253, 384, 284
-0.99366, 181, 65, 212, 192
-0.993681, 337, 253, 464, 284
-0.993692, 17, 1, 80, 360
-0.993726, 433, 177, 464, 304
-0.993863, 33, 17, 288, 80
-0.993918, 21, 1, 52, 128
-0.993922, 1, 249, 480, 312
-0.99397, 305, 281, 432, 344
-0.994049, 225, 221, 352, 252
-0.99405, 333, 145, 364, 272
-0.994097, 153, 65, 184, 192
-0.994191, 17, 121, 144, 184
-0.994224, 393, 65, 424, 192
-0.994468, 65, 137, 320, 200
-0.99448, 1, 97, 64, 224
-0.994518, 245, 81, 276, 208
-0.994523, 193, 253, 320, 284
-0.994531, 169, 129, 200, 256
-0.994532, 1, 177, 128, 304
-0.994594, 353, 113, 480, 176
-0.994598, 1, 81, 256, 144
-0.994612, 161, 9, 416, 72
-0.994644, 145, 237, 272, 268
-0.994686, 331, 257, 346, 320
-0.994764, 121, 65, 136, 128
-0.994772, 321, 221, 448, 252
-0.99483, 337, 233, 352, 296
-0.994849, 219, 233, 234, 296
-0.994862, 57, 97, 120, 224
-0.994875, 1, 217, 256, 280
-0.994911, 1, 153, 480, 216
-0.994911, 231, 249, 246, 312
-0.994946, 289, 265, 416, 296
-0.994954, 177, 129, 304, 160
-0.994972, 165, 17, 196, 144
-0.994983, 97, 185, 352, 248
-0.995011, 241, 209, 256, 272
-0.995016, 225, 49, 480, 112
-0.995084, 65, 225, 128, 352
-0.995101, 33, 41, 288, 104
-0.995154, 73, 161, 136, 288
-0.995202, 113, 137, 240, 168
-0.995216, 233, 217, 248, 280
-0.995218, 437, 249, 452, 312
-0.99531, 273, 225, 400, 256
-0.995406, 1, 297, 128, 360
-0.99543, 271, 185, 286, 248
-0.995445, 155, 161, 170, 224
-0.995468, 363, 225, 378, 288
-0.995472, 249, 209, 264, 272
-0.995474, 65, 281, 320, 344
-0.995475, 73, 1, 88, 64
-0.995481, 225, 89, 480, 152
-0.995488, 177, 225, 304, 256
-0.995492, 17, 201, 144, 264
-0.995537, 1, 97, 32, 224
-0.995571, 225, 225, 240, 288
-0.995581, 1, 201, 480, 264
-0.995598, 1, 41, 480, 104
-0.995613, 261, 201, 276, 264
-0.995636, 193, 141, 320, 172
-0.995685, 387, 233, 402, 296
-0.995692, 279, 273, 294, 336
-0.995696, 225, 273, 480, 336
-0.9957, 281, 169, 296, 232
-0.995725, 357, 233, 372, 296
-0.99573, 329, 233, 344, 296
-0.995743, 369, 225, 384, 288
-0.995796, 97, 1, 224, 32
-0.99582, 97, 161, 352, 224
-0.995823, 291, 1, 306, 64
-0.995829, 165, 65, 196, 192
-0.995833, 255, 201, 270, 264
-0.995848, 221, 113, 236, 176
-0.995848, 281, 145, 296, 208
-0.995849, 155, 193, 170, 256
-0.995855, 139, 121, 154, 184
-0.995863, 287, 153, 302, 216
-0.995863, 127, 81, 142, 144
-0.995871, 225, 257, 240, 320
-0.995876, 241, 205, 368, 236
-0.995897, 113, 149, 240, 180
-0.995925, 133, 105, 148, 168
-0.995949, 1, 105, 480, 168
-0.995973, 337, 265, 464, 296
-0.995979, 109, 161, 140, 288
-0.995988, 129, 117, 256, 148
-0.996019, 237, 241, 252, 304
-0.996044, 115, 1, 130, 64
-0.996054, 33, 225, 160, 288
-0.996061, 171, 209, 186, 272
-0.996067, 379, 225, 394, 288
-0.996094, 351, 217, 366, 280
-0.996124, 193, 137, 448, 200
-0.996137, 121, 225, 152, 352
-0.996145, 193, 113, 448, 176
-0.996147, 211, 121, 226, 184
-0.996157, 125, 121, 140, 184
-0.996165, 213, 249, 228, 312
-0.996166, 353, 137, 480, 200
-0.996171, 267, 209, 282, 272
-0.996178, 265, 177, 280, 240
-0.996184, 225, 273, 352, 304
-0.996209, 161, 185, 176, 248
-0.996242, 145, 249, 272, 280
-0.996245, 37, 65, 52, 128
-0.996259, 1, 129, 480, 192
-0.996279, 213, 225, 228, 288
-0.996279, 241, 289, 368, 320
-0.996298, 413, 161, 444, 288
-0.996319, 129, 41, 384, 104
-0.996319, 465, 217, 480, 280
-0.996332, 305, 277, 432, 308
-0.996361, 297, 257, 312, 320
-0.996364, 431, 233, 446, 296
-0.996386, 183, 225, 198, 288
-0.996387, 177, 205, 304, 236
-0.996387, 1, 249, 128, 312
-0.99641, 275, 145, 290, 208
-0.996423, 145, 137, 160, 200
-0.996432, 3, 1, 18, 64
-0.996441, 309, 257, 324, 320
-0.996445, 441, 81, 472, 208
-0.996448, 319, 265, 334, 328
-0.99645, 161, 217, 176, 280
-0.996456, 205, 241, 220, 304
-0.996495, 97, 73, 352, 136
-0.996506, 129, 269, 256, 300
-0.996508, 205, 113, 220, 176
-0.996521, 197, 233, 212, 296
-0.996524, 177, 117, 304, 148
-0.996524, 229, 121, 244, 184
-0.996528, 17, 73, 144, 104
-0.99653, 215, 1, 230, 64
-0.996536, 335, 209, 350, 272
-0.996554, 125, 1, 156, 256
-0.99657, 117, 97, 132, 160
-0.996571, 79, 1, 94, 64
-0.996575, 221, 289, 236, 352
-0.996582, 193, 5, 320, 36
-0.996587, 293, 153, 308, 216
-0.996598, 177, 209, 192, 272
-0.996602, 243, 233, 258, 296
-0.996614, 193, 153, 320, 184
-0.996617, 241, 189, 368, 220
-0.996656, 133, 57, 148, 120
-0.996656, 257, 157, 384, 188
-0.996665, 129, 317, 256, 348
-0.996685, 337, 29, 464, 60
-0.996697, 23, 57, 38, 120
-0.996704, 443, 257, 458, 320
-0.996705, 129, 225, 256, 256
-0.996706, 1, 145, 128, 208
-0.996713, 257, 133, 384, 164
-0.996714, 359, 57, 374, 120
-0.996714, 1, 281, 480, 344
-0.996725, 189, 217, 204, 280
-0.996756, 225, 177, 480, 240
-0.996768, 205, 137, 220, 200
-0.996773, 305, 209, 432, 240
-0.996774, 193, 17, 320, 48
-0.996787, 167, 185, 182, 248
-0.996796, 1, 241, 256, 304
-0.996802, 257, 5, 384, 36
-0.996803, 425, 1, 456, 256
-0.996817, 145, 9, 272, 40
-0.996829, 381, 249, 396, 312
-0.996831, 221, 145, 236, 208
-0.99684, 47, 57, 62, 120
-0.996853, 285, 281, 300, 344
-0.996868, 199, 9, 214, 72
-0.996879, 185, 1, 200, 64
-0.996882, 65, 57, 192, 88
-0.996884, 287, 249, 302, 312
-0.996885, 373, 57, 388, 120
-0.996888, 199, 113, 214, 176
-0.996896, 161, 193, 288, 224
-0.996907, 401, 113, 432, 240
-0.99691, 73, 33, 88, 96
-0.996913, 323, 1, 338, 64
-0.996915, 367, 57, 382, 120
-0.996921, 113, 65, 128, 128
-0.996932, 33, 1, 160, 32
-0.996939, 9, 209, 72, 336
-0.996942, 381, 129, 412, 256
-0.996943, 395, 217, 410, 280
-0.996948, 369, 257, 384, 320
-0.996952, 209, 173, 336, 204
-0.996966, 193, 297, 448, 360
-0.99697, 17, 169, 144, 232
-0.996973, 161, 1, 192, 256
-0.996975, 1, 57, 128, 88
-0.996976, 393, 241, 408, 304
-0.996976, 303, 257, 318, 320
-0.996989, 121, 1, 136, 64
-0.99702, 97, 105, 224, 136
-0.997022, 17, 89, 144, 120
-0.997026, 343, 249, 358, 312
-0.997034, 1, 113, 256, 176
-0.997041, 167, 233, 182, 296
-0.997044, 285, 1, 300, 64
-0.997058, 177, 1, 208, 256
-0.997059, 29, 57, 44, 120
-0.997077, 293, 225, 308, 288
-0.997088, 337, 177, 464, 240
-0.9971, 137, 1, 168, 256
-0.997107, 129, 33, 144, 96
-0.997113, 149, 185, 164, 248
-0.997125, 81, 21, 208, 52
-0.997131, 325, 209, 340, 272
-0.997132, 435, 33, 450, 96
-0.997145, 37, 41, 52, 104
-0.997147, 437, 57, 452, 120
-0.997153, 149, 1, 180, 256
-0.99716, 133, 297, 148, 360
-0.997162, 325, 265, 340, 328
-0.997169, 129, 1, 144, 64
-0.997171, 1, 49, 16, 112
-0.997175, 427, 57, 442, 120
-0.997196, 273, 1, 288, 64
-0.997208, 113, 213, 240, 244
-0.997208, 131, 137, 146, 200
-0.997211, 257, 173, 384, 204
-0.997212, 349, 265, 364, 328
-0.997215, 425, 225, 440, 288
-0.997218, 291, 129, 306, 192
-0.997225, 67, 25, 82, 88
-0.997234, 1, 41, 128, 72
-0.997235, 237, 17, 252, 80
-0.997237, 213, 273, 228, 336
-0.997283, 193, 113, 208, 176
-0.997284, 301, 153, 316, 216
-0.997284, 337, 257, 352, 320
-0.997284, 375, 249, 390, 312
-0.997284, 273, 97, 304, 352
-0.997286, 193, 329, 320, 360
-0.997286, 191, 1, 206, 64
-0.997299, 255, 225, 270, 288
-0.997302, 109, 1, 124, 64
-0.997307, 439, 257, 454, 288
-0.997317, 65, 1, 80, 64
-0.997328, 449, 1, 480, 256
-0.997334, 143, 89, 158, 152
-0.997342, 101, 1, 132, 256
-0.997345, 285, 1, 316, 256
-0.997348, 199, 137, 214, 200
-0.997356, 149, 161, 164, 224
-0.997364, 141, 17, 156, 80
-0.99737, 203, 217, 218, 280
-0.997371, 241, 21, 368, 52
-0.997373, 49, 105, 176, 136
-0.997381, 215, 145, 230, 208
-0.997382, 323, 233, 338, 296
-0.997384, 301, 1, 332, 256
-0.997396, 189, 1, 220, 256
-0.997397, 113, 65, 144, 320
-0.997401, 129, 281, 256, 312
-0.997415, 405, 1, 436, 256
-0.997426, 231, 229, 246, 260
-0.997429, 133, 97, 164, 352
-0.997446, 81, 197, 208, 228
-0.997486, 289, 57, 416, 88
-0.997532, 65, 325, 192, 356
-0.997532, 113, 161, 240, 192
-0.997536, 93, 113, 124, 240
-0.997562, 285, 97, 316, 352
-0.997576, 65, 69, 192, 100
-0.997611, 257, 41, 384, 72
-0.997618, 225, 237, 240, 268
-0.997619, 237, 221, 252, 252
-0.99762, 353, 61, 480, 92
-0.997629, 33, 13, 160, 44
-0.997658, 193, 285, 320, 316
-0.997661, 177, 265, 304, 296
-0.997665, 49, 313, 176, 344
-0.997671, 241, 121, 368, 152
-0.997687, 41, 193, 104, 320
-0.997692, 353, 277, 480, 308
-0.997693, 241, 81, 368, 112
-0.997702, 335, 233, 350, 264
-0.997734, 353, 209, 480, 240
-0.99775, 145, 53, 272, 84
-0.997752, 289, 77, 416, 108
-0.997762, 215, 233, 230, 264
-0.997763, 113, 301, 240, 332
-0.997763, 321, 65, 352, 320
-0.997763, 49, 277, 176, 308
-0.997782, 429, 81, 460, 208
-0.997789, 337, 45, 464, 76
-0.997792, 437, 1, 468, 256
-0.997794, 231, 249, 246, 280
-0.997823, 331, 261, 346, 292
-0.997827, 49, 117, 176, 148
-0.997834, 1, 185, 256, 248
-0.99785, 289, 17, 416, 48
-0.997861, 305, 5, 432, 36
-0.997878, 243, 217, 258, 248
-0.997879, 97, 237, 224, 268
-0.997881, 97, 93, 224, 124
-0.997885, 393, 1, 424, 256
-0.997894, 65, 173, 192, 204
-0.997907, 241, 237, 256, 268
-0.997919, 289, 145, 416, 176
-0.997926, 81, 45, 208, 76
-0.997927, 257, 97, 288, 352
-0.997933, 271, 209, 286, 240
-0.997952, 263, 197, 278, 228
-0.997961, 255, 205, 270, 236
-0.997971, 113, 65, 240, 96
-0.997977, 49, 289, 176, 320
-0.99798, 205, 133, 220, 164
-0.997985, 283, 173, 298, 204
-0.997993, 1, 73, 480, 136
-0.997995, 121, 73, 136, 104
-0.997996, 241, 109, 368, 140
-0.997999, 417, 97, 448, 352
-0.998001, 133, 117, 148, 148
-0.998001, 273, 1, 288, 32
-0.998001, 113, 33, 240, 64
-0.998005, 179, 209, 194, 240
-0.99801, 247, 229, 262, 260
-0.998019, 33, 153, 160, 184
-0.99802, 437, 245, 452, 276
-0.998021, 129, 21, 256, 52
-0.998022, 337, 269, 352, 300
-0.998024, 433, 257, 448, 288
-0.998028, 225, 69, 352, 100
-0.998033, 265, 217, 280, 248
-0.998045, 331, 273, 346, 304
-0.998047, 123, 85, 138, 116
-0.99805, 199, 145, 214, 176
-0.998051, 117, 9, 132, 40
-0.998052, 215, 9, 230, 40
-0.998066, 33, 137, 160, 168
-0.998075, 163, 201, 178, 232
-0.998078, 259, 217, 274, 248
-0.998082, 129, 105, 144, 136
-0.998088, 273, 185, 288, 216
-0.998092, 219, 253, 234, 284
-0.998094, 39, 61, 54, 92
-0.998094, 81, 249, 208, 280
-0.9981, 225, 117, 240, 148
-0.998123, 237, 17, 252, 48
-0.998127, 209, 305, 336, 336
-0.99813, 145, 181, 272, 212
-0.998131, 221, 265, 236, 296
-0.998136, 139, 133, 154, 164
-0.998138, 359, 249, 374, 280
-0.998145, 159, 181, 174, 212
-0.998147, 321, 197, 448, 228
-0.998148, 223, 1, 238, 32
-0.998148, 209, 245, 224, 276
-0.99815, 353, 225, 368, 256
-0.99815, 249, 213, 264, 244
-0.998157, 7, 65, 22, 96
-0.99816, 1, 57, 16, 88
-0.998161, 233, 1, 264, 256
-0.998161, 353, 77, 480, 108
-0.998165, 171, 213, 186, 244
-0.998169, 381, 97, 412, 352
-0.998177, 37, 73, 52, 104
-0.998184, 363, 229, 378, 260
-0.998191, 405, 97, 436, 352
-0.998192, 395, 221, 410, 252
-0.998193, 17, 57, 32, 88
-0.998197, 219, 129, 234, 160
-0.998198, 1, 29, 128, 60
-0.998202, 49, 33, 176, 64
-0.998209, 207, 149, 222, 180
-0.998221, 217, 97, 248, 352
-0.998227, 189, 97, 220, 352
-0.998235, 65, 217, 192, 248
-0.998236, 253, 225, 268, 256
-0.998238, 241, 93, 368, 124
-0.998242, 341, 257, 356, 288
-0.998247, 1, 1, 16, 32
-0.998253, 241, 145, 368, 176
-0.998263, 169, 193, 184, 224
-0.998266, 309, 97, 340, 352
-0.998267, 109, 1, 124, 32
-0.998271, 201, 1, 232, 256
-0.998271, 153, 165, 168, 196
-0.998272, 65, 185, 192, 216
-0.998282, 97, 81, 224, 112
-0.998288, 31, 73, 46, 104
-0.99829, 279, 9, 294, 40
-0.9983, 15, 73, 30, 104
-0.998301, 465, 237, 480, 268
-0.998302, 193, 29, 320, 60
-0.998302, 9, 77, 24, 108
-0.998317, 217, 321, 232, 352
-0.998319, 1, 105, 128, 136
-0.998323, 143, 145, 158, 176
-0.99833, 209, 317, 224, 348
-0.998332, 47, 57, 62, 88
-0.998334, 47, 69, 62, 100
-0.998337, 225, 129, 240, 160
-0.998339, 209, 229, 224, 260
-0.99834, 187, 253, 202, 284
-0.998342, 289, 1, 304, 32
-0.998342, 109, 125, 140, 140
-0.998343, 281, 81, 312, 96
-0.998344, 209, 131, 240, 146
-0.998344, 273, 205, 304, 220
-0.998344, 153, 201, 184, 216
-0.998345, 241, 211, 272, 226
-0.998345, 149, 191, 180, 206
-0.998345, 405, 205, 436, 220
-0.998346, 1, 95, 32, 110
-0.998346, 193, 227, 224, 242
-0.998347, 429, 233, 444, 264
-0.998347, 25, 53, 56, 68
-0.998347, 277, 255, 308, 270
-0.998347, 205, 9, 236, 24
-0.998348, 413, 97, 444, 224
-0.998349, 121, 161, 152, 176
-0.998349, 373, 231, 404, 246
-0.99835, 213, 225, 244, 240
-0.998351, 225, 325, 256, 340
-0.998351, 137, 149, 168, 164
-0.998352, 181, 225, 212, 240
-0.998352, 205, 255, 236, 270
-0.998353, 269, 63, 300, 78
-0.998353, 313, 283, 344, 298
-0.998354, 281, 267, 312, 282
-0.998354, 113, 73, 144, 88
-0.998354, 17, 79, 48, 94
-0.998354, 113, 1, 144, 16
-0.998355, 173, 255, 204, 270
-0.998355, 241, 329, 368, 360
-0.998356, 109, 81, 140, 96
-0.998357, 357, 255, 388, 270
-0.998357, 369, 257, 384, 288
-0.998357, 129, 89, 160, 104
-0.998357, 9, 57, 40, 72
-0.998359, 145, 77, 272, 108
-0.998359, 185, 237, 216, 252
-0.99836, 237, 11, 268, 26
-0.99836, 313, 255, 344, 270
-0.99836, 449, 241, 480, 256
-0.99836, 101, 3, 132, 18
-0.998361, 389, 257, 404, 288
-0.998361, 181, 139, 212, 154
-0.998361, 321, 289, 352, 304
-0.998361, 137, 161, 168, 176
-0.998361, 341, 241, 372, 256
-0.998362, 289, 7, 320, 22
-0.998365, 373, 257, 404, 272
-0.998365, 9, 71, 40, 86
-0.998366, 441, 271, 472, 286
-0.998366, 117, 145, 148, 160
-0.998367, 165, 197, 196, 212
-0.998367, 209, 261, 240, 276
-0.998368, 117, 105, 148, 120
-0.998368, 129, 1, 144, 32
-0.998369, 185, 267, 216, 282
-0.998369, 121, 155, 152, 170
-0.99837, 185, 17, 216, 32
-0.99837, 129, 127, 160, 142
-0.99837, 253, 225, 284, 240
-0.998372, 293, 293, 324, 308
-0.998372, 37, 67, 68, 82
-0.998373, 29, 61, 60, 76
-0.998374, 357, 267, 388, 282
-0.998374, 73, 51, 104, 66
-0.998375, 129, 133, 160, 148
-0.998376, 229, 253, 260, 268
-0.998376, 429, 259, 460, 274
-0.998376, 117, 99, 148, 114
-0.998377, 169, 223, 200, 238
-0.998378, 217, 147, 248, 162
-0.998378, 273, 261, 304, 276
-0.998379, 309, 293, 340, 308
-0.998379, 117, 87, 148, 102
-0.99838, 133, 143, 164, 158
-0.998382, 217, 19, 248, 34
-0.998383, 233, 245, 264, 260
-0.998383, 213, 125, 244, 140
-0.998385, 117, 11, 148, 26
-0.998387, 325, 273, 356, 288
-0.998388, 25, 73, 56, 88
-0.998388, 223, 145, 238, 176
-0.998388, 165, 213, 196, 228
-0.998388, 443, 269, 458, 300
-0.998389, 281, 173, 312, 188
-0.99839, 121, 111, 152, 126
-0.998391, 429, 253, 460, 268
-0.998391, 137, 155, 168, 170
-0.998391, 329, 251, 360, 266
-0.998391, 25, 67, 56, 82
-0.998391, 161, 41, 288, 72
-0.998391, 113, 93, 144, 108
-0.998392, 379, 257, 394, 288
-0.998392, 177, 317, 304, 348
-0.998392, 105, 13, 136, 28
-0.998393, 277, 197, 292, 228
-0.998394, 201, 139, 232, 154
-0.998396, 185, 145, 216, 160
-0.998396, 181, 231, 212, 246
-0.998396, 197, 15, 228, 30
-0.998397, 199, 229, 214, 260
-0.998397, 443, 245, 458, 276
-0.998398, 361, 231, 392, 246
-0.998398, 185, 261, 216, 276
-0.998398, 249, 231, 280, 246
-0.998399, 187, 221, 202, 252
-0.998399, 269, 185, 300, 200
-0.9984, 337, 17, 464, 48
-0.998401, 341, 235, 372, 250
-0.998401, 333, 265, 364, 280
-0.998402, 261, 219, 292, 234
-0.998403, 229, 237, 260, 252
-0.998404, 217, 149, 232, 180
-0.998405, 265, 195, 296, 210
-0.998408, 221, 5, 252, 20
-0.998408, 217, 331, 248, 346
-0.998409, 281, 179, 312, 194
-0.998409, 345, 251, 376, 266
-0.998409, 193, 105, 320, 136
-0.998409, 269, 11, 300, 26
-0.99841, 125, 121, 156, 136
-0.99841, 329, 245, 360, 260
-0.998411, 25, 57, 40, 88
-0.998412, 301, 287, 332, 302
-0.998414, 293, 289, 308, 320
-0.998415, 289, 287, 320, 302
-0.998415, 49, 301, 176, 332
-0.998418, 303, 281, 318, 312
-0.998418, 269, 211, 300, 226
-0.998418, 445, 257, 476, 272
-0.998419, 37, 73, 68, 88
-0.99842, 75, 9, 90, 40
-0.99842, 257, 203, 288, 218
-0.998423, 437, 247, 468, 262
-0.998423, 329, 237, 360, 252
-0.998424, 219, 113, 234, 144
-0.998424, 241, 239, 272, 254
-0.998424, 205, 151, 236, 166
-0.998429, 291, 169, 306, 200
-0.998433, 317, 265, 348, 280
-0.998433, 197, 245, 228, 260
-0.998436, 237, 17, 268, 32
-0.998436, 337, 271, 368, 286
-0.998438, 429, 269, 460, 284
-0.998438, 205, 233, 236, 248
-0.998439, 357, 261, 388, 276
-0.99844, 203, 241, 218, 272
-0.998441, 209, 5, 224, 36
-0.998441, 73, 53, 88, 84
-0.998442, 217, 255, 248, 270
-0.998442, 323, 273, 338, 304
-0.998442, 115, 101, 130, 132
-0.998444, 325, 253, 340, 284
-0.998446, 277, 273, 292, 304
-0.998446, 13, 1, 44, 256
-0.998449, 293, 13, 308, 44
-0.998457, 13, 45, 28, 76
-0.998457, 353, 297, 480, 360
-0.998459, 245, 217, 276, 232
-0.99846, 333, 257, 364, 272
-0.998463, 237, 1, 252, 32
-0.998466, 329, 263, 392, 278
-0.998466, 1, 77, 16, 108
-0.998467, 113, 329, 240, 360
-0.998468, 341, 229, 372, 244
-0.998468, 237, 225, 268, 240
-0.998469, 329, 257, 392, 272
-0.998469, 127, 13, 142, 44
-0.998471, 217, 247, 248, 262
-0.998475, 243, 21, 258, 52
-0.998476, 267, 1, 282, 32
-0.998476, 161, 65, 288, 96
-0.998477, 321, 235, 384, 250
-0.998479, 197, 13, 212, 44
-0.998479, 321, 249, 384, 264
-0.99848, 225, 247, 288, 262
-0.998481, 225, 231, 256, 246
-0.998481, 321, 241, 384, 256
-0.998486, 217, 13, 248, 28
-0.998486, 341, 229, 356, 260
-0.998489, 217, 239, 248, 254
-0.99849, 253, 209, 284, 224
-0.998493, 79, 49, 94, 80
-0.998494, 231, 1, 246, 32
-0.998496, 227, 321, 242, 352
-0.998501, 201, 233, 264, 248
-0.998503, 329, 269, 392, 284
-0.998506, 293, 181, 308, 212
-0.998508, 155, 197, 170, 228
-0.998509, 381, 1, 412, 256
-0.998514, 127, 129, 142, 160
-0.998515, 185, 251, 248, 266
-0.998515, 269, 197, 284, 228
-0.998516, 185, 1, 200, 32
-0.998517, 219, 309, 234, 340
-0.998518, 211, 137, 226, 168
-0.998519, 275, 61, 290, 92
-0.99852, 385, 233, 400, 264
-0.998521, 461, 221, 476, 252
-0.998522, 227, 261, 242, 292
-0.998523, 299, 173, 314, 204
-0.998525, 123, 1, 138, 32
-0.998529, 193, 225, 208, 256
-0.998529, 13, 93, 28, 124
-0.99853, 181, 237, 196, 268
-0.99853, 337, 89, 464, 120
-0.998532, 93, 49, 108, 80
-0.998532, 283, 281, 298, 312
-0.998533, 305, 265, 368, 280
-0.998533, 353, 245, 416, 260
-0.998534, 207, 17, 222, 48
-0.998537, 193, 53, 320, 84
-0.998543, 225, 229, 288, 244
-0.998545, 365, 97, 396, 224
-0.998546, 225, 253, 288, 268
-0.998555, 209, 239, 272, 254
-0.998567, 281, 287, 344, 302
-0.998569, 177, 97, 208, 352
-0.99857, 385, 227, 448, 242
-0.99857, 289, 293, 352, 308
-0.998572, 193, 227, 256, 242
-0.998573, 241, 235, 304, 250
-0.998573, 233, 241, 296, 256
-0.998574, 321, 229, 384, 244
-0.998576, 1, 1, 32, 256
-0.998576, 353, 233, 416, 248
-0.998579, 305, 271, 368, 286
-0.99858, 241, 13, 304, 28
-0.998581, 305, 259, 368, 274
-0.998581, 113, 5, 176, 20
-0.998582, 225, 223, 288, 238
-0.998583, 353, 239, 416, 254
-0.998584, 185, 245, 248, 260
-0.998588, 169, 145, 232, 160
-0.99859, 241, 215, 304, 230
-0.998591, 105, 89, 168, 104
-0.998592, 193, 149, 256, 164
-0.998595, 281, 7, 344, 22
-0.998597, 193, 139, 256, 154
-0.9986, 385, 233, 448, 248
-0.998601, 121, 179, 184, 194
-0.998602, 185, 257, 248, 272
-0.998602, 265, 213, 328, 228
-0.998602, 265, 263, 328, 278
-0.998603, 129, 143, 192, 158
-0.998604, 269, 1, 300, 256
-0.998605, 201, 11, 264, 26
-0.998607, 401, 267, 464, 282
-0.998608, 105, 95, 168, 110
-0.998609, 345, 275, 408, 290
-0.99861, 305, 287, 368, 302
-0.99861, 105, 147, 168, 162
-0.99861, 273, 183, 336, 198
-0.99861, 161, 231, 224, 246
-0.998611, 393, 249, 456, 264
-0.998613, 193, 17, 256, 32
-0.998613, 265, 257, 328, 272
-0.998613, 289, 229, 352, 244
-0.998616, 209, 331, 272, 346
-0.998617, 289, 281, 352, 296
-0.998617, 417, 217, 480, 232
-0.998618, 105, 81, 168, 96
-0.998618, 209, 127, 272, 142
-0.998618, 1, 77, 64, 92
-0.998619, 89, 7, 152, 22
-0.998619, 1, 1, 64, 16
-0.998619, 113, 165, 176, 180
-0.998621, 225, 19, 288, 34
-0.998621, 105, 75, 168, 90
-0.998621, 65, 1, 128, 16
-0.998623, 249, 205, 312, 220
-0.998623, 289, 235, 352, 250
-0.998624, 161, 225, 224, 240
-0.998624, 121, 187, 184, 202
-0.998624, 233, 3, 296, 18
-0.998625, 281, 151, 344, 166
-0.998626, 105, 141, 168, 156
-0.998627, 353, 251, 416, 266
-0.998627, 297, 221, 360, 236
-0.998628, 193, 263, 256, 278
-0.998628, 169, 237, 232, 252
-0.998629, 49, 265, 176, 296
-0.998629, 97, 27, 160, 42
-0.99863, 1, 71, 64, 86
-0.99863, 289, 249, 352, 264
-0.99863, 233, 141, 296, 156
-0.998631, 225, 209, 288, 224
-0.998632, 113, 159, 176, 174
-0.998632, 281, 59, 344, 74
-0.998632, 113, 117, 176, 132
-0.998633, 289, 289, 416, 320
-0.998633, 281, 241, 344, 256
-0.998633, 273, 269, 336, 284
-0.998633, 169, 139, 232, 154
-0.998634, 249, 229, 312, 244
-0.998637, 177, 269, 240, 284
-0.998637, 97, 123, 160, 138
-0.998637, 25, 73, 88, 88
-0.998637, 249, 221, 312, 236
-0.998638, 225, 121, 288, 136
-0.998638, 385, 221, 448, 236
-0.998638, 393, 97, 424, 352
-0.998638, 185, 123, 248, 138
-0.998641, 257, 197, 320, 212
-0.998641, 273, 177, 336, 192
-0.998642, 353, 257, 416, 272
-0.998642, 417, 249, 480, 264
-0.998642, 121, 173, 184, 188
-0.998643, 169, 13, 232, 28
-0.998643, 281, 1, 344, 16
-0.998643, 225, 259, 288, 274
-0.998644, 393, 243, 456, 258
-0.998644, 145, 151, 208, 166
-0.998645, 265, 189, 328, 204
-0.998646, 249, 289, 312, 304
-0.998646, 121, 193, 184, 208
-0.998647, 113, 105, 176, 120
-0.998647, 241, 281, 304, 296
-0.998648, 145, 259, 208, 274
-0.998648, 145, 265, 208, 280
-0.998649, 137, 213, 200, 228
-0.998649, 89, 101, 152, 116
-0.99865, 417, 225, 480, 240
-0.998651, 105, 153, 168, 168
-0.998651, 353, 269, 416, 284
-0.998651, 201, 221, 264, 236
-0.998652, 193, 5, 256, 20
-0.998652, 89, 13, 152, 28
-0.998653, 281, 13, 344, 28
-0.998653, 185, 133, 248, 148
-0.998655, 121, 135, 184, 150
-0.998655, 145, 137, 208, 152
-0.998657, 349, 97, 380, 352
-0.998657, 137, 5, 200, 20
-0.998657, 25, 67, 88, 82
-0.998659, 265, 143, 328, 158
-0.99866, 225, 135, 288, 150
-0.99866, 113, 111, 176, 126
-0.99866, 217, 215, 280, 230
-0.998689, 161, 301, 288, 332
-0.998704, 245, 97, 276, 352
-0.998718, 429, 97, 460, 352
-0.998727, 1, 325, 128, 356
-0.998737, 241, 57, 368, 88
-0.998739, 161, 165, 288, 196
-0.998739, 333, 65, 364, 320
-0.998763, 289, 89, 416, 120
-0.998768, 241, 317, 368, 348
-0.998785, 245, 1, 276, 256
-0.998811, 229, 225, 244, 352
-0.998823, 353, 101, 480, 132
-0.998827, 123, 1, 138, 128
-0.998829, 161, 97, 192, 352
-0.998838, 223, 225, 238, 352
-0.998849, 129, 17, 144, 144
-0.998851, 257, 1, 288, 256
-0.99886, 123, 49, 138, 176
-0.998864, 145, 97, 176, 352
-0.998864, 229, 97, 260, 352
-0.998896, 129, 65, 144, 192
-0.99893, 117, 1, 132, 128
-0.998932, 337, 145, 464, 176
-0.998937, 177, 93, 304, 124
-0.998945, 305, 121, 432, 152
-0.998947, 209, 41, 336, 72
-0.998971, 335, 225, 350, 352
-0.998972, 153, 177, 168, 304
-0.998993, 383, 209, 398, 336
-0.998999, 145, 129, 160, 256
-0.999002, 305, 109, 432, 140
-0.999007, 137, 49, 152, 176
-0.999009, 361, 97, 392, 352
-0.999018, 29, 1, 60, 256
-0.999021, 89, 1, 120, 256
-0.99903, 137, 1, 152, 128
-0.999031, 243, 209, 258, 336
-0.999032, 317, 1, 332, 128
-0.999033, 1, 161, 256, 224
-0.999045, 359, 209, 374, 336
-0.999071, 217, 209, 232, 336
-0.999074, 41, 1, 72, 256
-0.999079, 371, 209, 386, 336
-0.999087, 425, 209, 440, 336
-0.999089, 343, 209, 358, 336
-0.999092, 159, 177, 174, 304
-0.999101, 369, 1, 400, 256
-0.999103, 211, 225, 226, 352
-0.999103, 271, 129, 286, 256
-0.999105, 321, 193, 336, 320
-0.999109, 377, 209, 392, 336
-0.999109, 281, 129, 296, 256
-0.999114, 137, 113, 152, 240
-0.999117, 277, 177, 292, 304
-0.999121, 389, 209, 404, 336
-0.999121, 297, 97, 328, 352
-0.999122, 235, 225, 250, 352
-0.99913, 73, 1, 88, 128
-0.999131, 289, 17, 304, 144
-0.999135, 117, 65, 132, 192
-0.999142, 293, 225, 308, 352
-0.999151, 287, 177, 302, 304
-0.999157, 265, 161, 280, 288
-0.999158, 357, 1, 388, 256
-0.999158, 313, 193, 328, 320
-0.999159, 303, 209, 318, 336
-0.999167, 93, 161, 124, 288
-0.999167, 199, 1, 214, 128
-0.99917, 401, 193, 416, 320
-0.999172, 363, 1, 378, 128
-0.999176, 329, 209, 344, 336
-0.999185, 437, 33, 452, 160
-0.999193, 181, 225, 196, 352
-0.999195, 259, 193, 274, 320
-0.999203, 265, 209, 280, 336
-0.999216, 165, 177, 180, 304
-0.999216, 287, 225, 302, 352
-0.999222, 125, 113, 140, 240
-0.999225, 447, 33, 462, 160
-0.999228, 365, 209, 380, 336
-0.999236, 179, 177, 194, 304
-0.999237, 1, 33, 16, 160
-0.99924, 1, 177, 480, 240
-0.999247, 197, 225, 212, 352
-0.999248, 217, 1, 232, 128
-0.999252, 155, 129, 170, 256
-0.999254, 441, 97, 472, 352
-0.999259, 283, 1, 298, 128
-0.99926, 459, 33, 474, 160
-0.999262, 297, 161, 312, 288
-0.999262, 187, 225, 202, 352
-0.999263, 147, 177, 162, 304
-0.999264, 143, 65, 158, 192
-0.999266, 249, 193, 264, 320
-0.999266, 191, 1, 206, 128
-0.99927, 271, 177, 286, 304
-0.999271, 13, 1, 28, 128
-0.999271, 353, 209, 368, 336
-0.999273, 149, 81, 164, 208
-0.999276, 311, 1, 326, 128
-0.99928, 343, 1, 358, 128
-0.999288, 151, 1, 166, 128
-0.99929, 465, 17, 480, 144
-0.999292, 277, 1, 292, 128
-0.999294, 395, 193, 410, 320
-0.999296, 167, 225, 182, 352
-0.999299, 145, 1, 160, 128
-0.999301, 205, 1, 220, 128
-0.999303, 251, 145, 266, 272
-0.999306, 453, 33, 468, 160
-0.999311, 435, 225, 450, 352
-0.999313, 241, 145, 256, 272
-0.999317, 131, 129, 146, 256
-0.999317, 387, 1, 402, 128
-0.999324, 111, 1, 126, 128
-0.999334, 171, 177, 186, 304
-0.999334, 157, 1, 172, 128
-0.999339, 203, 209, 218, 336
-0.999339, 287, 129, 302, 256
-0.999341, 7, 33, 22, 160
-0.999342, 67, 1, 82, 128
-0.999344, 239, 1, 254, 128
-0.999347, 281, 65, 296, 192
-0.999348, 409, 17, 424, 144
-0.999351, 375, 33, 390, 160
-0.999352, 47, 1, 62, 128
-0.999357, 419, 193, 434, 320
-0.999357, 21, 49, 36, 176
-0.999363, 235, 177, 250, 304
-0.99937, 413, 177, 428, 304
-0.999377, 325, 1, 340, 128
-0.999377, 303, 17, 318, 144
-0.999377, 407, 193, 422, 320
-0.999379, 431, 33, 446, 160
-0.999379, 297, 1, 312, 128
-0.999384, 223, 145, 238, 272
-0.999386, 403, 49, 418, 176
-0.999392, 233, 129, 248, 256
-0.999393, 353, 1, 368, 128
-0.999394, 293, 97, 308, 224
-0.999398, 37, 1, 52, 128
-0.999398, 273, 81, 288, 208
-0.999399, 43, 49, 58, 176
-0.999402, 229, 177, 244, 304
-0.999403, 279, 225, 294, 352
-0.999403, 363, 161, 378, 288
-0.999406, 211, 1, 226, 128
-0.99941, 353, 113, 384, 240
-0.999412, 173, 225, 188, 352
-0.999418, 381, 1, 396, 128
-0.999418, 425, 17, 440, 144
-0.999424, 305, 161, 320, 288
-0.999426, 145, 225, 160, 352
-0.999431, 329, 161, 344, 288
-0.999432, 191, 177, 206, 304
-0.999436, 363, 49, 378, 176
-0.999437, 201, 97, 232, 352
-0.999438, 21, 1, 36, 128
-0.999439, 151, 225, 166, 352
-0.99944, 419, 17, 434, 144
-0.999441, 223, 81, 238, 208
-0.999449, 37, 225, 68, 352
-0.999449, 27, 1, 42, 128
-0.99945, 335, 177, 350, 304
-0.999473, 53, 1, 84, 256
-0.999541, 77, 1, 108, 256
-0.999545, 437, 275, 452, 290
-0.999545, 389, 247, 404, 262
-0.999545, 159, 189, 174, 204
-0.999545, 335, 239, 350, 254
-0.999546, 215, 3, 230, 18
-0.999546, 155, 179, 170, 194
-0.999546, 465, 221, 480, 236
-0.999546, 79, 3, 94, 18
-0.999546, 269, 1, 284, 16
-0.999546, 283, 11, 298, 26
-0.999547, 397, 273, 412, 288
-0.999547, 355, 237, 370, 252
-0.999547, 109, 5, 124, 20
-0.999548, 167, 217, 182, 232
-0.999548, 353, 231, 368, 246
-0.999548, 79, 55, 94, 70
-0.99955, 65, 1, 80, 16
-0.99955, 229, 261, 244, 276
-0.999551, 263, 53, 278, 68
-0.999551, 271, 195, 286, 210
-0.999551, 225, 3, 240, 18
-0.999551, 123, 95, 138, 110
-0.999552, 287, 75, 302, 90
-0.999553, 215, 151, 230, 166
-0.999553, 223, 229, 238, 244
-0.999553, 15, 77, 30, 92
-0.999553, 155, 197, 170, 212
-0.999553, 127, 111, 142, 126
-0.999553, 285, 175, 300, 190
-0.999553, 31, 73, 46, 88
-0.999554, 295, 183, 310, 198
-0.999554, 307, 293, 322, 308
-0.999555, 127, 5, 142, 20
-0.999555, 135, 133, 150, 148
-0.999555, 257, 211, 272, 226
-0.999555, 47, 73, 62, 88
-0.999556, 139, 141, 154, 156
-0.999557, 37, 61, 52, 76
-0.999557, 285, 181, 300, 196
-0.999557, 47, 67, 62, 82
-0.999558, 289, 1, 304, 16
-0.999558, 133, 125, 148, 140
-0.999558, 3, 49, 18, 64
-0.999558, 241, 21, 256, 36
-0.999558, 131, 119, 146, 134
-0.999558, 215, 13, 230, 28
-0.999559, 293, 81, 308, 96
-0.99956, 127, 15, 142, 30
-0.99956, 345, 265, 360, 280
-0.99956, 225, 145, 240, 160
-0.999561, 25, 73, 40, 88
-0.999561, 211, 335, 226, 350
-0.999561, 197, 139, 212, 154
-0.999561, 369, 261, 384, 276
-0.999561, 319, 287, 334, 302
-0.999561, 209, 19, 224, 34
-0.999561, 21, 89, 36, 104
-0.999562, 181, 255, 196, 270
-0.999562, 13, 55, 28, 70
-0.999563, 209, 11, 224, 26
-0.999564, 337, 257, 352, 272
-0.999565, 221, 327, 236, 342
-0.999566, 155, 1, 170, 16
-0.999568, 291, 189, 306, 204
-0.999568, 377, 257, 392, 272
-0.999568, 441, 259, 456, 274
-0.999569, 241, 227, 256, 242
-0.999569, 187, 255, 202, 270
-0.99957, 39, 67, 54, 82
-0.99957, 341, 271, 356, 286
-0.999571, 215, 235, 230, 250
-0.999572, 3, 1, 18, 16
-0.999572, 395, 223, 410, 238
-0.999573, 245, 233, 260, 248
-0.999573, 363, 233, 378, 248
-0.999574, 11, 95, 26, 110
-0.999574, 199, 15, 214, 30
-0.999575, 233, 245, 248, 260
-0.999575, 179, 211, 194, 226
-0.999575, 179, 219, 194, 234
-0.999576, 223, 121, 238, 136
-0.999576, 465, 241, 480, 256
-0.999576, 31, 57, 46, 72
-0.999577, 23, 53, 38, 68
-0.999577, 305, 287, 320, 302
-0.999581, 203, 137, 218, 152
-0.999581, 221, 239, 236, 254
-0.999582, 187, 265, 202, 280
-0.999585, 359, 255, 374, 270
-0.999585, 225, 249, 240, 264
-0.999586, 3, 55, 18, 70
-0.999586, 85, 53, 100, 68
-0.999587, 257, 227, 272, 242
-0.999591, 289, 287, 304, 302
-0.999591, 119, 73, 134, 88
-0.999591, 443, 271, 458, 286
-0.999591, 231, 237, 246, 252
-0.999592, 221, 255, 236, 270
-0.999592, 239, 245, 254, 260
-0.999595, 235, 229, 250, 244
-0.999598, 173, 213, 188, 228
-0.999598, 231, 255, 246, 270
-0.999598, 337, 233, 352, 248
-0.9996, 289, 7, 304, 22
-0.9996, 17, 95, 32, 110
-0.999603, 275, 65, 290, 80
-0.999604, 159, 203, 174, 218
-0.999606, 37, 73, 52, 88
-0.999606, 71, 1, 86, 16
-0.999607, 197, 145, 212, 160
-0.999608, 207, 151, 222, 166
-0.999608, 119, 11, 134, 26
-0.999608, 243, 239, 258, 254
-0.99961, 161, 195, 176, 210
-0.999614, 275, 207, 290, 222
-0.999616, 267, 219, 282, 234
-0.999621, 437, 269, 452, 284
-0.999624, 251, 231, 266, 246
-0.999627, 221, 1, 252, 256
-0.999627, 211, 245, 226, 260
-0.999628, 7, 73, 22, 88
-0.999628, 435, 253, 450, 268
-0.99963, 239, 15, 254, 30
-0.999633, 331, 265, 346, 280
-0.999637, 439, 247, 454, 262
-0.999646, 167, 197, 182, 212
-0.999647, 443, 265, 458, 280
-0.999655, 217, 333, 232, 348
-0.999672, 261, 221, 276, 236
-0.999677, 435, 259, 450, 274
-0.999679, 269, 213, 284, 228
-0.999712, 9, 97, 40, 352
-0.999752, 101, 97, 132, 352
-0.999753, 345, 1, 376, 256
-0.999777, 425, 129, 456, 256
-0.999844, 65, 1, 96, 256
-0.999989, 121, 177, 152, 304
-1, 109, 225, 140, 352
-1.00013, 13, 97, 44, 224
-1.00023, 21, 97, 52, 352
-1.0003, 85, 97, 116, 352
-1.00043, 37, 97, 68, 352
-1.00051, 61, 97, 92, 352
-1.00058, 73, 97, 104, 352
-1.00088, 33, 97, 96, 352
-1.00102, 49, 97, 80, 352
-1.00171, 25, 113, 88, 240
-1.00186, 65, 97, 128, 352
-1.00256, 49, 145, 112, 272
-1.00356, 1, 161, 64, 288
