1973
-0.473845, 225, 1, 480, 375
-0.477874, 1, 1, 500, 375
-0.501547, 1, 129, 500, 375
-0.518808, 1, 33, 500, 288
-0.585551, 257, 129, 500, 375
-0.618394, 129, 129, 384, 375
-0.665392, 225, 33, 480, 288
-0.693485, 129, 1, 384, 375
-0.805307, 33, 1, 288, 375
-0.809862, 33, 129, 288, 375
-0.838159, 369, 1, 496, 375
-0.842894, 321, 1, 448, 375
-0.851593, 145, 129, 272, 375
-0.855608, 337, 1, 464, 256
-0.859957, 353, 97, 480, 352
-0.860411, 305, 129, 432, 375
-0.865052, 193, 129, 320, 375
-0.872163, 273, 1, 400, 375
-0.877626, 1, 177, 500, 304
-0.879644, 289, 33, 416, 288
-0.897318, 1, 225, 500, 352
-0.899317, 129, 209, 384, 336
-0.900773, 257, 129, 384, 375
-0.902269, 225, 193, 480, 320
-0.908828, 209, 1, 336, 375
-0.9118, 129, 161, 384, 288
-0.91663, 257, 145, 500, 272
-0.920509, 193, 161, 320, 288
-0.920594, 145, 1, 272, 375
-0.921787, 225, 161, 288, 288
-0.924267, 257, 81, 500, 208
-0.924483, 1, 81, 500, 208
-0.925012, 129, 33, 384, 288
-0.925515, 1, 129, 500, 256
-0.926786, 225, 241, 480, 368
-0.926828, 185, 225, 248, 352
-0.928522, 377, 113, 440, 240
-0.928569, 353, 65, 480, 192
-0.929062, 273, 193, 400, 320
-0.929571, 161, 225, 288, 352
-0.931673, 97, 129, 224, 375
-0.934804, 193, 161, 256, 288
-0.93517, 209, 225, 336, 352
-0.936597, 129, 177, 256, 304
-0.936609, 417, 81, 480, 208
-0.937977, 241, 33, 368, 288
-0.938167, 145, 209, 208, 336
-0.938987, 353, 113, 480, 240
-0.93906, 97, 1, 224, 375
-0.94194, 169, 161, 232, 288
-0.943337, 281, 161, 344, 288
-0.943547, 321, 1, 448, 128
-0.943632, 129, 33, 256, 288
-0.944006, 393, 65, 456, 192
-0.944037, 1, 161, 256, 288
-0.945784, 225, 209, 288, 336
-0.945828, 257, 209, 320, 336
-0.946554, 305, 49, 432, 176
-0.947088, 345, 193, 408, 320
-0.947889, 273, 129, 400, 256
-0.947905, 161, 113, 416, 240
-0.948079, 209, 161, 272, 224
-0.948765, 353, 81, 416, 208
-0.948898, 321, 193, 384, 320
-0.948982, 249, 161, 312, 288
-0.949369, 1, 17, 500, 144
-0.949567, 401, 97, 464, 160
-0.950623, 257, 33, 500, 160
-0.950893, 33, 225, 288, 352
-0.951307, 49, 97, 176, 352
-0.951673, 377, 129, 440, 192
-0.951675, 321, 161, 448, 288
-0.951721, 193, 233, 256, 296
-0.952196, 145, 161, 208, 288
-0.9525, 409, 17, 472, 144
-0.952766, 369, 1, 432, 128
-0.953159, 161, 193, 224, 256
-0.953981, 281, 225, 344, 352
-0.954387, 225, 257, 288, 320
-0.954912, 337, 33, 400, 160
-0.955333, 377, 105, 440, 168
-0.955742, 369, 177, 432, 304
-0.956279, 425, 97, 488, 160
-0.957497, 113, 225, 240, 352
-0.957557, 433, 1, 496, 128
-0.957646, 161, 217, 224, 280
-0.958532, 185, 177, 248, 240
-0.959294, 145, 129, 272, 256
-0.959405, 417, 129, 480, 256
-0.959506, 337, 97, 400, 160
-0.959818, 185, 257, 248, 320
-0.959934, 377, 249, 440, 312
-0.95996, 369, 1, 496, 128
-0.960263, 49, 1, 176, 375
-0.960782, 209, 201, 272, 264
-0.960964, 185, 201, 248, 264
-0.961195, 345, 249, 408, 312
-0.962137, 265, 225, 328, 288
-0.962351, 361, 73, 424, 136
-0.962535, 209, 137, 272, 200
-0.962777, 257, 241, 384, 368
-0.962827, 329, 65, 392, 128
-0.96359, 201, 113, 264, 240
-0.963925, 265, 257, 328, 320
-0.963955, 369, 225, 496, 352
-0.964061, 337, 129, 400, 256
-0.964923, 353, 121, 416, 184
-0.964933, 81, 161, 208, 288
-0.964989, 289, 241, 352, 304
-0.96522, 425, 193, 488, 320
-0.965222, 209, 113, 336, 240
-0.965229, 193, 33, 320, 288
-0.965393, 329, 81, 392, 208
-0.965466, 297, 209, 360, 272
-0.9659, 177, 281, 240, 344
-0.966024, 401, 249, 464, 312
-0.966069, 1, 113, 256, 240
-0.966089, 241, 185, 304, 248
-0.966114, 225, 281, 288, 344
-0.966158, 369, 161, 496, 288
-0.966283, 205, 161, 236, 288
-0.966675, 385, 33, 448, 288
-0.966702, 241, 161, 272, 288
-0.966893, 405, 97, 436, 160
-0.966913, 241, 217, 304, 280
-0.967034, 385, 65, 448, 128
-0.967406, 385, 225, 448, 352
-0.967495, 241, 113, 304, 240
-0.967856, 313, 145, 376, 272
-0.968024, 361, 97, 424, 352
-0.968119, 345, 1, 408, 256
-0.968276, 137, 201, 200, 264
-0.968457, 409, 1, 472, 64
-0.968657, 225, 177, 256, 304
-0.968721, 385, 113, 416, 176
-0.96877, 353, 185, 416, 248
-0.968933, 385, 49, 416, 176
-0.96901, 145, 281, 208, 344
-0.969046, 121, 161, 184, 288
-0.969075, 145, 241, 208, 304
-0.969078, 377, 161, 440, 224
-0.969297, 233, 153, 296, 216
-0.969392, 209, 217, 336, 280
-0.969451, 129, 209, 256, 272
-0.969804, 185, 153, 248, 216
-0.969814, 313, 249, 376, 312
-0.969854, 449, 65, 480, 192
-0.969894, 225, 177, 256, 240
-0.969941, 185, 129, 248, 375
-0.969983, 353, 97, 480, 160
-0.970043, 205, 177, 236, 240
-0.970064, 193, 209, 224, 336
-0.970241, 425, 129, 488, 192
-0.970331, 369, 1, 432, 64
-0.97038, 161, 177, 288, 240
-0.97061, 189, 193, 220, 256
-0.97063, 185, 305, 248, 368
-0.970776, 233, 153, 264, 216
-0.970794, 433, 249, 496, 312
-0.970803, 449, 97, 480, 160
-0.970894, 177, 113, 240, 240
-0.970971, 169, 209, 200, 272
-0.970988, 289, 185, 352, 248
-0.97106, 409, 33, 472, 288
-0.971161, 209, 129, 272, 375
-0.971295, 385, 113, 416, 240
-0.971736, 161, 49, 416, 176
-0.972025, 405, 49, 436, 176
-0.972069, 245, 249, 276, 312
-0.972236, 321, 225, 448, 352
-0.972321, 301, 177, 332, 304
-0.972413, 321, 209, 384, 272
-0.972487, 185, 161, 216, 288
-0.972608, 217, 153, 248, 216
-0.97266, 217, 225, 280, 288
-0.97271, 337, 153, 400, 216
-0.972711, 425, 73, 488, 136
-0.972766, 353, 33, 416, 96
-0.97282, 257, 81, 384, 208
-0.97287, 429, 81, 460, 208
-0.973, 237, 177, 268, 240
-0.973008, 213, 209, 244, 336
-0.973226, 425, 129, 488, 375
-0.973616, 361, 225, 424, 288
-0.973675, 1, 1, 128, 375
-0.973738, 289, 209, 416, 272
-0.97375, 469, 49, 500, 176
-0.973809, 385, 129, 448, 375
-0.973818, 365, 97, 396, 160
-0.973818, 157, 193, 188, 256
-0.973843, 205, 201, 236, 264
-0.973902, 289, 177, 320, 304
-0.97416, 161, 233, 288, 296
-0.97418, 281, 113, 344, 240
-0.974475, 233, 241, 264, 368
-0.97452, 169, 209, 200, 336
-0.974619, 161, 273, 288, 336
-0.974675, 253, 161, 284, 288
-0.974731, 233, 129, 296, 375
-0.974927, 353, 249, 480, 312
-0.97494, 401, 129, 464, 192
-0.974994, 209, 185, 336, 248
-0.975032, 217, 201, 248, 264
-0.975318, 377, 185, 440, 248
-0.975445, 361, 241, 424, 368
-0.975491, 205, 233, 236, 296
-0.975683, 241, 241, 368, 304
-0.975697, 401, 41, 464, 104
-0.975773, 281, 225, 312, 288
-0.975811, 321, 177, 384, 240
-0.975832, 353, 129, 480, 192
-0.975854, 369, 193, 400, 320
-0.976004, 293, 217, 324, 280
-0.976031, 385, 73, 416, 136
-0.976248, 165, 161, 196, 288
-0.97628, 161, 153, 224, 216
-0.976284, 249, 225, 280, 352
-0.976375, 417, 81, 448, 208
-0.976403, 305, 241, 368, 368
-0.976506, 225, 241, 256, 304
-0.976541, 277, 177, 308, 304
-0.976575, 425, 33, 488, 96
-0.976712, 373, 1, 404, 128
-0.976716, 405, 249, 436, 312
-0.976733, 1, 129, 128, 375
-0.976739, 321, 73, 448, 136
-0.976956, 289, 241, 416, 304
-0.977192, 393, 249, 424, 312
-0.977211, 97, 113, 224, 240
-0.97724, 377, 249, 408, 312
-0.977329, 409, 241, 472, 368
-0.97749, 305, 49, 368, 176
-0.977524, 457, 1, 488, 128
-0.977628, 393, 177, 456, 304
-0.977633, 229, 265, 260, 328
-0.977665, 321, 193, 352, 320
-0.977881, 369, 113, 400, 240
-0.977883, 401, 97, 432, 224
-0.978003, 217, 129, 248, 256
-0.978176, 385, 137, 416, 200
-0.978224, 265, 177, 296, 304
-0.978264, 305, 241, 336, 304
-0.978302, 65, 241, 192, 368
-0.978337, 145, 113, 208, 240
-0.978546, 357, 193, 388, 320
-0.97859, 49, 113, 176, 240
-0.978692, 433, 241, 496, 368
-0.978741, 337, 57, 368, 120
-0.978777, 233, 217, 264, 280
-0.97886, 361, 249, 392, 312
-0.978867, 313, 97, 376, 160
-0.978874, 445, 1, 476, 128
-0.978997, 245, 153, 276, 216
-0.979324, 265, 185, 328, 248
-0.979404, 337, 97, 400, 352
-0.979465, 329, 41, 392, 104
-0.979473, 321, 49, 448, 112
-0.979557, 385, 1, 448, 375
-0.979571, 153, 193, 184, 320
-0.979577, 433, 1, 496, 64
-0.979633, 357, 17, 388, 144
-0.979709, 349, 249, 380, 312
-0.979832, 305, 97, 432, 160
-0.979931, 297, 129, 360, 375
-0.979964, 153, 129, 216, 375
-0.980016, 193, 281, 224, 344
-0.980098, 193, 233, 224, 296
-0.980159, 273, 225, 304, 352
-0.980293, 257, 145, 320, 208
-0.980312, 421, 65, 452, 128
-0.980356, 273, 153, 400, 216
-0.980368, 185, 129, 248, 192
-0.98038, 261, 241, 292, 368
-0.980381, 169, 185, 200, 248
-0.980399, 273, 185, 400, 248
-0.98044, 353, 169, 480, 232
-0.980497, 153, 217, 184, 280
-0.980546, 345, 33, 376, 160
-0.980557, 385, 225, 448, 288
-0.980607, 121, 209, 184, 336
-0.980744, 353, 9, 480, 72
-0.980772, 193, 153, 320, 216
-0.980803, 381, 161, 412, 288
-0.98102, 273, 257, 304, 320
-0.98109, 249, 185, 280, 248
-0.981105, 1, 33, 256, 288
-0.981129, 337, 241, 400, 368
-0.9812, 345, 1, 408, 375
-0.981322, 453, 129, 484, 192
-0.981333, 229, 129, 260, 256
-0.981408, 385, 1, 416, 128
-0.981432, 417, 249, 448, 312
-0.981458, 441, 65, 472, 128
-0.981496, 181, 209, 212, 336
-0.981603, 81, 1, 208, 256
-0.981695, 417, 153, 480, 216
-0.981695, 305, 121, 432, 184
-0.981868, 129, 153, 256, 216
-0.981879, 257, 257, 288, 320
-0.981905, 257, 281, 320, 344
-0.981916, 369, 161, 400, 224
-0.981935, 453, 113, 484, 240
-0.981959, 245, 217, 276, 280
-0.98197, 377, 33, 440, 96
-0.982029, 285, 225, 316, 352
-0.982193, 433, 1, 496, 256
-0.982287, 433, 97, 464, 160
-0.982391, 321, 1, 384, 256
-0.982416, 385, 169, 416, 232
-0.982471, 401, 65, 432, 128
-0.982492, 113, 185, 240, 248
-0.982508, 209, 305, 272, 368
-0.98252, 301, 225, 332, 352
-0.982557, 233, 129, 296, 192
-0.982578, 417, 225, 480, 288
-0.982584, 161, 1, 416, 128
-0.982606, 313, 209, 344, 272
-0.982679, 241, 265, 368, 328
-0.982784, 469, 33, 500, 96
-0.982861, 181, 225, 212, 288
-0.982979, 457, 33, 488, 96
-0.983002, 145, 193, 176, 256
-0.983045, 257, 153, 288, 216
-0.983054, 469, 249, 500, 312
-0.983088, 397, 1, 428, 128
-0.983091, 121, 113, 184, 240
-0.983105, 145, 305, 208, 368
-0.983165, 333, 209, 364, 272
-0.983203, 121, 177, 184, 240
-0.983308, 305, 265, 432, 328
-0.983322, 205, 153, 236, 216
-0.983322, 121, 225, 184, 288
-0.983343, 345, 193, 376, 320
-0.983426, 469, 105, 500, 168
-0.983457, 365, 65, 396, 192
-0.983507, 421, 97, 452, 160
-0.983617, 433, 1, 464, 128
-0.983742, 337, 249, 368, 312
-0.983782, 161, 297, 288, 360
-0.983829, 457, 249, 488, 312
-0.983834, 417, 1, 480, 375
-0.98387, 369, 185, 400, 248
-0.983879, 337, 193, 464, 256
-0.983911, 333, 49, 364, 176
-0.983972, 453, 65, 484, 128
-0.984079, 305, 65, 368, 128
-0.984213, 113, 233, 240, 296
-0.984256, 81, 209, 208, 272
-0.984268, 369, 137, 400, 200
-0.984313, 333, 193, 364, 320
-0.984326, 213, 257, 244, 320
-0.984423, 417, 17, 448, 144
-0.984521, 213, 297, 244, 360
-0.984538, 113, 289, 240, 352
-0.984674, 405, 121, 436, 184
-0.984818, 257, 33, 384, 160
-0.984914, 469, 73, 500, 136
-0.985049, 357, 201, 388, 264
-0.985086, 153, 241, 184, 304
-0.985093, 325, 241, 356, 304
-0.985144, 389, 225, 420, 288
-0.985168, 141, 193, 172, 320
-0.985259, 345, 9, 408, 72
-0.985267, 369, 73, 496, 136
-0.985312, 469, 1, 500, 128
-0.985398, 321, 145, 352, 272
-0.985555, 33, 161, 160, 288
-0.985572, 1, 33, 128, 288
-0.985743, 121, 249, 184, 312
-0.985749, 305, 185, 336, 248
-0.985775, 429, 249, 460, 312
-0.985834, 257, 129, 320, 375
-0.985853, 1, 113, 128, 240
-0.985909, 253, 113, 284, 240
-0.985959, 465, 225, 496, 352
-0.985964, 333, 185, 364, 248
-0.985979, 241, 113, 272, 240
-0.986031, 153, 241, 184, 368
-0.986063, 293, 241, 324, 304
-0.986086, 233, 129, 264, 192
-0.986139, 365, 73, 396, 136
-0.986188, 205, 113, 236, 240
-0.986255, 433, 25, 464, 88
-0.986259, 209, 129, 336, 192
-0.986338, 457, 1, 488, 64
-0.986356, 385, 225, 416, 352
-0.986358, 193, 169, 224, 232
-0.98641, 337, 225, 464, 288
-0.986467, 433, 273, 496, 336
-0.986572, 241, 273, 272, 336
-0.986579, 257, 281, 288, 344
-0.986628, 169, 233, 200, 296
-0.986668, 429, 129, 460, 192
-0.98667, 273, 73, 400, 136
-0.986702, 345, 209, 376, 272
-0.986758, 201, 281, 264, 344
-0.986764, 193, 257, 224, 320
-0.986773, 305, 97, 368, 224
-0.986808, 289, 193, 320, 256
-0.986824, 353, 81, 384, 208
-0.986836, 321, 1, 384, 375
-0.986892, 453, 193, 484, 320
-0.987052, 113, 201, 176, 264
-0.987061, 377, 225, 408, 288
-0.987089, 397, 225, 428, 352
-0.987114, 257, 209, 288, 272
-0.987122, 445, 249, 476, 312
-0.987191, 413, 129, 444, 256
-0.987194, 353, 97, 384, 160
-0.987207, 49, 185, 176, 248
-0.987293, 365, 225, 396, 288
-0.9874, 153, 145, 184, 272
-0.987428, 441, 113, 472, 240
-0.987451, 401, 33, 432, 96
-0.987472, 361, 25, 392, 88
-0.987472, 417, 225, 448, 352
-0.98759, 289, 145, 352, 208
-0.987658, 373, 9, 404, 72
-0.987679, 113, 129, 240, 192
-0.987739, 233, 305, 296, 368
-0.987741, 401, 225, 432, 288
-0.987743, 193, 305, 224, 368
-0.987751, 145, 81, 272, 208
-0.987838, 265, 233, 296, 296
-0.987856, 213, 129, 244, 192
-0.987886, 261, 185, 292, 248
-0.987928, 33, 137, 96, 200
-0.987979, 441, 1, 472, 64
-0.987986, 209, 165, 272, 196
-0.988019, 353, 73, 384, 136
-0.988022, 281, 129, 312, 256
-0.988174, 469, 1, 500, 64
-0.988252, 201, 177, 264, 208
-0.988264, 345, 185, 376, 248
-0.988292, 333, 97, 364, 160
-0.988328, 201, 193, 264, 224
-0.98834, 113, 257, 240, 320
-0.988396, 385, 1, 416, 64
-0.988551, 349, 33, 380, 96
-0.988592, 277, 185, 308, 248
-0.988616, 397, 145, 428, 208
-0.988631, 309, 129, 340, 256
-0.988647, 413, 33, 444, 96
-0.988664, 1, 137, 64, 200
-0.988681, 433, 225, 464, 352
-0.988685, 89, 137, 152, 200
-0.988689, 57, 137, 120, 200
-0.98883, 161, 197, 224, 228
-0.988942, 97, 145, 160, 272
-0.989025, 145, 209, 208, 240
-0.989027, 377, 137, 440, 168
-0.989058, 225, 249, 288, 280
-0.989087, 333, 145, 364, 272
-0.989096, 161, 225, 224, 256
-0.989116, 401, 145, 432, 272
-0.989211, 313, 137, 376, 200
-0.989211, 369, 41, 496, 104
-0.989221, 137, 217, 168, 280
-0.989248, 377, 149, 440, 180
-0.989255, 425, 101, 488, 132
-0.98926, 345, 145, 376, 272
-0.989261, 81, 153, 208, 216
-0.989306, 401, 101, 464, 132
-0.989319, 193, 209, 448, 272
-0.989329, 241, 201, 304, 232
-0.989402, 181, 169, 212, 232
-0.98943, 169, 257, 200, 320
-0.989435, 137, 145, 168, 272
-0.989471, 425, 129, 456, 256
-0.989474, 289, 265, 352, 328
-0.989486, 321, 185, 352, 248
-0.989493, 353, 253, 416, 284
-0.989538, 201, 253, 264, 284
-0.989545, 225, 261, 288, 292
-0.989572, 177, 185, 240, 216
-0.989574, 225, 249, 480, 312
-0.989583, 129, 241, 384, 304
-0.989586, 157, 169, 188, 232
-0.989635, 9, 129, 72, 256
-0.989639, 377, 105, 440, 136
-0.98964, 137, 153, 200, 216
-0.989733, 185, 241, 248, 272
-0.989753, 281, 213, 344, 244
-0.98976, 201, 213, 264, 244
-0.989771, 273, 49, 400, 112
-0.989776, 377, 125, 440, 156
-0.989778, 185, 113, 216, 240
-0.98978, 329, 253, 392, 284
-0.989781, 433, 261, 496, 292
-0.989789, 377, 257, 440, 288
-0.989835, 161, 129, 288, 192
-0.989843, 401, 257, 464, 288
-0.989911, 265, 201, 328, 232
-0.989996, 325, 65, 356, 128
-0.990007, 177, 285, 240, 316
-0.99002, 357, 177, 388, 240
-0.99003, 225, 189, 288, 220
-0.990035, 161, 241, 224, 272
-0.990114, 417, 129, 448, 192
-0.990135, 313, 241, 344, 368
-0.990136, 401, 137, 464, 168
-0.990138, 337, 101, 400, 132
-0.990153, 177, 213, 240, 244
-0.990162, 33, 113, 96, 240
-0.990166, 173, 289, 204, 352
-0.990193, 297, 249, 360, 280
-0.990216, 209, 153, 272, 184
-0.990219, 249, 261, 312, 292
-0.990237, 233, 161, 296, 192
-0.990246, 185, 305, 248, 336
-0.99027, 293, 129, 324, 256
-0.990378, 185, 273, 248, 304
-0.990382, 353, 137, 416, 168
-0.990383, 257, 97, 500, 160
-0.990471, 357, 145, 388, 272
-0.990561, 161, 129, 224, 192
-0.990561, 377, 197, 440, 228
-0.990629, 97, 201, 352, 264
-0.99066, 321, 85, 384, 116
-0.990663, 377, 185, 440, 216
-0.990706, 425, 137, 488, 168
-0.990738, 353, 125, 416, 156
-0.99076, 137, 129, 200, 192
-0.990763, 17, 137, 144, 200
-0.990804, 265, 229, 328, 260
-0.990858, 345, 189, 408, 220
-0.990876, 73, 113, 136, 240
-0.990877, 417, 177, 480, 240
-0.990916, 273, 245, 336, 276
-0.990932, 469, 129, 500, 192
-0.990942, 305, 25, 432, 88
-0.990969, 217, 1, 280, 375
-0.99097, 241, 213, 304, 244
-0.99098, 229, 289, 260, 352
-0.991013, 145, 293, 208, 324
-0.991021, 425, 149, 488, 180
-0.991035, 113, 137, 176, 200
-0.991035, 137, 197, 200, 228
-0.99108, 209, 273, 272, 304
-0.991093, 185, 225, 248, 256
-0.991097, 417, 49, 480, 80
-0.991117, 185, 317, 248, 348
-0.991119, 377, 173, 440, 204
-0.991131, 377, 161, 440, 192
-0.991131, 225, 289, 352, 352
-0.991136, 257, 97, 384, 160
-0.991138, 145, 253, 208, 284
-0.991158, 413, 225, 444, 288
-0.991158, 265, 129, 296, 256
-0.991178, 233, 177, 296, 208
-0.991187, 353, 113, 416, 144
-0.991196, 345, 205, 408, 236
-0.991199, 185, 1, 248, 375
-0.991209, 401, 61, 464, 92
-0.991225, 469, 273, 500, 336
-0.991242, 377, 9, 440, 40
-0.99125, 193, 169, 448, 232
-0.991273, 225, 297, 288, 328
-0.99129, 369, 241, 400, 368
-0.991311, 377, 93, 440, 124
-0.991347, 469, 97, 500, 224
-0.99135, 193, 145, 224, 208
-0.991369, 409, 37, 472, 68
-0.991392, 145, 281, 208, 312
-0.991396, 177, 261, 240, 292
-0.991427, 249, 189, 312, 220
-0.991443, 321, 209, 384, 240
-0.991469, 361, 273, 424, 336
-0.991502, 145, 265, 208, 296
-0.991512, 97, 313, 224, 375
-0.991526, 245, 129, 276, 192
-0.991546, 297, 1, 360, 375
-0.991557, 337, 157, 400, 188
-0.991559, 329, 65, 392, 96
-0.991563, 329, 265, 392, 296
-0.991575, 249, 245, 312, 276
-0.991603, 361, 21, 424, 52
-0.99163, 241, 1, 304, 375
-0.991641, 1, 161, 64, 224
-0.99166, 289, 197, 352, 228
-0.991665, 185, 157, 248, 188
-0.991666, 121, 209, 184, 240
-0.991687, 145, 305, 208, 336
-0.991697, 417, 1, 480, 32
-0.991721, 137, 221, 200, 252
-0.991782, 449, 153, 480, 216
-0.991817, 441, 129, 472, 192
-0.991822, 49, 233, 176, 296
-0.991832, 165, 113, 196, 240
-0.991839, 393, 269, 456, 300
-0.99184, 345, 177, 408, 208
-0.991852, 185, 329, 248, 360
-0.991865, 177, 173, 240, 204
-0.991874, 425, 125, 488, 156
-0.991879, 369, 273, 496, 336
-0.991905, 401, 149, 464, 180
-0.991905, 377, 61, 440, 92
-0.991917, 433, 249, 496, 280
-0.991918, 337, 45, 400, 76
-0.991919, 273, 261, 336, 292
-0.99192, 209, 309, 272, 340
-0.991947, 225, 285, 288, 316
-0.991952, 353, 33, 416, 64
-0.991957, 257, 129, 288, 192
-0.991964, 65, 129, 192, 192
-0.99198, 409, 1, 440, 64
-0.992003, 401, 117, 464, 148
-0.992004, 361, 269, 424, 300
-0.992009, 353, 89, 416, 120
-0.992019, 241, 225, 304, 256
-0.992029, 313, 97, 376, 128
-0.99203, 409, 25, 472, 56
-0.992035, 129, 289, 384, 352
-0.992038, 209, 141, 272, 172
-0.992057, 397, 1, 428, 64
-0.992061, 305, 265, 368, 296
-0.992065, 337, 273, 400, 336
-0.992072, 209, 237, 272, 268
-0.992075, 425, 113, 488, 144
-0.992078, 213, 169, 244, 200
-0.992089, 121, 241, 184, 272
-0.992093, 225, 181, 256, 212
-0.992098, 321, 193, 384, 224
-0.992131, 217, 225, 280, 256
-0.992142, 369, 45, 432, 76
-0.992171, 385, 125, 416, 156
-0.992199, 385, 25, 448, 56
-0.992222, 433, 21, 496, 52
-0.992244, 145, 317, 208, 348
-0.992251, 209, 113, 272, 176
-0.992257, 405, 101, 436, 132
-0.992277, 237, 161, 268, 192
-0.992281, 205, 189, 236, 220
-0.992285, 197, 213, 228, 244
-0.992288, 417, 89, 480, 120
-0.9923, 313, 233, 376, 264
-0.992304, 401, 13, 464, 44
-0.99231, 237, 189, 268, 220
-0.992311, 205, 201, 236, 232
-0.992316, 237, 177, 268, 208
-0.992329, 217, 193, 248, 224
-0.992331, 289, 89, 352, 120
-0.992334, 385, 109, 416, 140
-0.99234, 377, 81, 440, 112
-0.99234, 249, 149, 312, 180
-0.992344, 425, 65, 488, 96
-0.992353, 157, 197, 188, 228
-0.992368, 417, 273, 480, 304
-0.992373, 145, 333, 208, 364
-0.992374, 221, 157, 252, 188
-0.992379, 233, 253, 264, 284
-0.992382, 249, 249, 280, 280
-0.9924, 393, 49, 456, 80
-0.992426, 105, 197, 168, 228
-0.992434, 265, 205, 296, 236
-0.992436, 161, 157, 224, 188
-0.99244, 153, 185, 216, 216
-0.992441, 249, 189, 280, 220
-0.992443, 209, 321, 272, 352
-0.992451, 197, 225, 228, 256
-0.992456, 121, 253, 184, 284
-0.99246, 245, 201, 276, 232
-0.99247, 365, 253, 396, 284
-0.992481, 185, 225, 216, 256
-0.992487, 385, 137, 416, 168
-0.992537, 177, 201, 208, 232
-0.992543, 229, 201, 260, 232
-0.992553, 193, 201, 224, 232
-0.992554, 409, 273, 472, 336
-0.992563, 449, 101, 480, 132
-0.992565, 177, 145, 240, 176
-0.992567, 185, 213, 216, 244
-0.992569, 233, 273, 296, 304
-0.992578, 437, 257, 468, 288
-0.992584, 317, 253, 348, 284
-0.99259, 433, 37, 496, 68
-0.992602, 289, 205, 320, 236
-0.992622, 385, 149, 416, 180
-0.992623, 365, 101, 396, 132
-0.992628, 377, 253, 408, 284
-0.992643, 397, 257, 428, 288
-0.992645, 225, 169, 256, 200
-0.992647, 353, 253, 384, 284
-0.992658, 249, 261, 280, 292
-0.992659, 165, 209, 196, 240
-0.992663, 341, 253, 372, 284
-0.99267, 417, 257, 448, 288
-0.992674, 305, 249, 336, 280
-0.992679, 209, 213, 240, 244
-0.99268, 205, 237, 236, 268
-0.992681, 385, 97, 416, 128
-0.992682, 277, 197, 308, 228
-0.992682, 225, 269, 256, 300
-0.992683, 329, 253, 360, 284
-0.992686, 193, 145, 448, 208
-0.992699, 217, 241, 248, 272
-0.992701, 469, 261, 500, 292
-0.992725, 193, 285, 224, 316
-0.992728, 217, 257, 248, 288
-0.992738, 385, 189, 416, 220
-0.992749, 333, 81, 364, 112
-0.992755, 153, 237, 184, 268
-0.992762, 193, 189, 224, 220
-0.992773, 41, 161, 104, 224
-0.992773, 153, 209, 184, 240
-0.992797, 189, 237, 220, 268
-0.992798, 449, 261, 480, 292
-0.992807, 281, 225, 312, 256
-0.992807, 385, 273, 448, 336
-0.992817, 237, 241, 268, 272
-0.992826, 221, 213, 252, 244
-0.992835, 193, 205, 320, 236
-0.992839, 165, 221, 196, 252
-0.992842, 301, 213, 332, 244
-0.992844, 405, 61, 436, 92
-0.992872, 153, 225, 184, 256
-0.992873, 453, 133, 484, 164
-0.992874, 405, 137, 436, 168
-0.992898, 213, 305, 244, 336
-0.992899, 237, 269, 268, 300
-0.992902, 453, 145, 484, 176
-0.992908, 381, 9, 412, 40
-0.99291, 293, 233, 324, 264
-0.992918, 469, 125, 500, 156
-0.992926, 405, 41, 436, 72
-0.992927, 277, 209, 308, 240
-0.992928, 209, 225, 240, 256
-0.99293, 369, 189, 400, 220
-0.992951, 345, 49, 376, 80
-0.992951, 193, 305, 224, 336
-0.992959, 469, 113, 500, 144
-0.992966, 369, 137, 400, 168
-0.992972, 201, 177, 232, 208
-0.992974, 129, 129, 192, 375
-0.992975, 365, 21, 396, 52
-0.992982, 333, 97, 364, 224
-0.992993, 189, 273, 220, 304
-0.992994, 373, 201, 404, 232
-0.992997, 213, 285, 244, 316
-0.993006, 385, 177, 416, 208
-0.993016, 465, 177, 496, 304
-0.993019, 369, 157, 400, 188
-0.993034, 157, 249, 188, 280
-0.993034, 385, 161, 416, 192
-0.993044, 129, 201, 256, 232
-0.993054, 421, 101, 452, 132
-0.993058, 417, 61, 448, 92
-0.993062, 437, 97, 468, 128
-0.993063, 209, 157, 240, 188
-0.993088, 257, 157, 288, 188
-0.99309, 333, 209, 364, 240
-0.993094, 145, 249, 176, 280
-0.993095, 341, 61, 372, 92
-0.993101, 225, 281, 256, 312
-0.993106, 265, 261, 296, 292
-0.993115, 469, 97, 500, 128
-0.993115, 225, 145, 256, 176
-0.99312, 357, 37, 388, 68
-0.99313, 161, 189, 288, 220
-0.993131, 169, 241, 200, 272
-0.993133, 321, 209, 352, 240
-0.993145, 241, 281, 272, 312
-0.993152, 433, 137, 464, 168
-0.993156, 357, 209, 388, 240
-0.993158, 393, 57, 424, 88
-0.993158, 361, 265, 392, 296
-0.993159, 129, 237, 256, 268
-0.993163, 269, 221, 300, 252
-0.99317, 193, 249, 224, 280
-0.993174, 137, 217, 168, 248
-0.993175, 437, 5, 468, 36
-0.993177, 237, 213, 268, 244
-0.993178, 265, 189, 296, 220
-0.993184, 369, 177, 400, 208
-0.993188, 393, 5, 424, 36
-0.99319, 301, 197, 332, 228
-0.993192, 281, 261, 312, 292
-0.993192, 385, 25, 416, 56
-0.993196, 145, 197, 176, 228
-0.993196, 369, 121, 400, 152
-0.993199, 173, 289, 204, 320
-0.9932, 173, 189, 204, 220
-0.993206, 407, 97, 422, 160
-0.993207, 197, 157, 228, 188
-0.993209, 193, 317, 224, 348
-0.99321, 237, 149, 268, 180
-0.993212, 229, 301, 260, 332
-0.993313, 265, 121, 328, 184
-0.993348, 41, 161, 104, 288
-0.993444, 159, 193, 174, 256
-0.99346, 1, 177, 500, 240
-0.993474, 445, 241, 476, 368
-0.993481, 129, 265, 384, 328
-0.993622, 353, 257, 480, 288
-0.993654, 229, 177, 244, 240
-0.993663, 289, 253, 416, 284
-0.993674, 247, 153, 262, 216
-0.993691, 297, 1, 360, 128
-0.993697, 237, 177, 252, 240
-0.993706, 463, 97, 478, 160
-0.993726, 129, 213, 256, 244
-0.993732, 257, 129, 384, 192
-0.99379, 209, 313, 336, 375
-0.99379, 1, 209, 500, 272
-0.993879, 161, 1, 224, 375
-0.993933, 209, 233, 336, 264
-0.993941, 197, 193, 212, 256
-0.993946, 369, 101, 496, 132
-0.993955, 353, 137, 480, 168
-0.994008, 221, 153, 236, 216
-0.994095, 187, 193, 202, 256
-0.994103, 209, 177, 224, 240
-0.994115, 1, 201, 256, 264
-0.994164, 241, 261, 368, 292
-0.994174, 379, 97, 394, 160
-0.994228, 273, 209, 400, 240
-0.994241, 141, 241, 172, 368
-0.994271, 295, 217, 310, 280
-0.994294, 257, 305, 320, 368
-0.994316, 231, 153, 246, 216
-0.994318, 211, 209, 226, 272
-0.99432, 353, 153, 480, 184
-0.994351, 215, 169, 230, 232
-0.994363, 321, 81, 352, 208
-0.994366, 159, 217, 174, 280
-0.994371, 425, 177, 456, 304
-0.994377, 251, 177, 266, 240
-0.994404, 325, 241, 356, 368
-0.994423, 289, 121, 352, 184
-0.994476, 297, 25, 360, 88
-0.99448, 209, 245, 336, 276
-0.994484, 247, 249, 262, 312
-0.994489, 313, 241, 328, 304
-0.994535, 305, 233, 320, 296
-0.994552, 401, 201, 464, 264
-0.994552, 129, 313, 384, 375
-0.994566, 129, 225, 256, 256
-0.994579, 337, 65, 352, 128
-0.994585, 203, 201, 218, 264
-0.994593, 437, 177, 468, 304
-0.994596, 169, 193, 184, 256
-0.99461, 241, 241, 256, 304
-0.994623, 273, 189, 400, 220
-0.994659, 1, 153, 500, 216
-0.994667, 161, 281, 288, 312
-0.994668, 287, 225, 302, 288
-0.994675, 181, 193, 196, 256
-0.994684, 321, 57, 448, 88
-0.994702, 177, 217, 304, 248
-0.994719, 393, 249, 408, 312
-0.994753, 17, 161, 144, 224
-0.99477, 97, 161, 352, 224
-0.99478, 265, 1, 328, 375
-0.994783, 17, 185, 80, 248
-0.994792, 1, 249, 500, 312
-0.994797, 223, 177, 238, 240
-0.994809, 425, 201, 488, 264
-0.994837, 289, 89, 352, 152
-0.994854, 161, 249, 288, 280
-0.994856, 219, 201, 234, 264
-0.994877, 407, 249, 422, 312
-0.994886, 253, 249, 268, 312
-0.994886, 399, 249, 414, 312
-0.994886, 1, 185, 128, 248
-0.994895, 367, 249, 382, 312
-0.994915, 73, 185, 136, 248
-0.994929, 265, 257, 280, 320
-0.994973, 235, 257, 250, 320
-0.994996, 387, 249, 402, 312
-0.995005, 313, 273, 376, 336
-0.995019, 361, 249, 376, 312
-0.995022, 175, 193, 190, 256
-0.995043, 247, 209, 262, 272
-0.995052, 65, 257, 192, 320
-0.995065, 381, 249, 396, 312
-0.995074, 355, 249, 370, 312
-0.995121, 225, 65, 352, 128
-0.995126, 301, 209, 316, 272
-0.995154, 413, 249, 428, 312
-0.995167, 225, 273, 480, 336
-0.995172, 235, 201, 250, 264
-0.995206, 243, 177, 258, 240
-0.995217, 257, 33, 500, 96
-0.995218, 177, 177, 304, 208
-0.995222, 305, 89, 432, 120
-0.995236, 353, 197, 480, 228
-0.995242, 419, 249, 434, 312
-0.99525, 373, 249, 388, 312
-0.995252, 257, 9, 384, 72
-0.995259, 199, 241, 214, 304
-0.995286, 277, 257, 292, 320
-0.995334, 259, 249, 274, 312
-0.995344, 17, 113, 144, 176
-0.995345, 241, 153, 256, 216
-0.99536, 203, 177, 218, 240
-0.995375, 349, 249, 364, 312
-0.995383, 429, 97, 444, 160
-0.995404, 381, 161, 396, 224
-0.995422, 257, 121, 500, 184
-0.995437, 413, 177, 444, 304
-0.995452, 479, 249, 494, 312
-0.995454, 305, 101, 432, 132
-0.995456, 225, 209, 240, 272
-0.995464, 197, 217, 212, 280
-0.99548, 65, 137, 320, 200
-0.995516, 321, 69, 448, 100
-0.99553, 413, 73, 428, 136
-0.995533, 457, 65, 472, 128
-0.995533, 485, 249, 500, 312
-0.995534, 159, 249, 174, 312
-0.99554, 425, 249, 440, 312
-0.995549, 257, 73, 500, 136
-0.995554, 451, 65, 466, 128
-0.995557, 415, 97, 430, 160
-0.995557, 369, 13, 496, 44
-0.995579, 357, 241, 388, 368
-0.99561, 307, 209, 322, 272
-0.995645, 389, 161, 404, 224
-0.99565, 423, 97, 438, 160
-0.99566, 441, 97, 456, 160
-0.995678, 353, 125, 480, 156
-0.995681, 213, 129, 244, 375
-0.995687, 419, 65, 434, 128
-0.995687, 259, 153, 274, 216
-0.995689, 229, 81, 260, 208
-0.995689, 343, 57, 358, 120
-0.9957, 65, 161, 128, 224
-0.995711, 161, 165, 288, 196
-0.995722, 217, 233, 232, 296
-0.995736, 435, 97, 450, 160
-0.99575, 241, 273, 256, 336
-0.995777, 191, 225, 206, 288
-0.995778, 207, 233, 222, 296
-0.995782, 313, 217, 328, 280
-0.995802, 209, 157, 336, 188
-0.995811, 365, 1, 396, 256
-0.995812, 457, 97, 472, 160
-0.995815, 257, 185, 272, 248
-0.995817, 341, 209, 356, 272
-0.995819, 237, 129, 268, 375
-0.995823, 389, 65, 420, 320
-0.995825, 33, 241, 288, 304
-0.995847, 305, 137, 432, 168
-0.995853, 451, 1, 466, 64
-0.995868, 81, 197, 208, 228
-0.995878, 255, 217, 270, 280
-0.995885, 33, 281, 288, 344
-0.995892, 465, 57, 480, 120
-0.995898, 281, 57, 344, 120
-0.995903, 447, 97, 462, 160
-0.995909, 343, 249, 358, 312
-0.995917, 209, 193, 336, 224
-0.995931, 235, 233, 250, 296
-0.995939, 473, 249, 488, 312
-0.995948, 407, 57, 422, 120
-0.995957, 161, 261, 288, 292
-0.995962, 281, 217, 296, 280
-0.995964, 161, 57, 416, 120
-0.995967, 225, 233, 240, 296
-0.995971, 319, 241, 334, 304
-0.995981, 353, 169, 480, 200
-0.995982, 327, 209, 342, 272
-0.995984, 401, 57, 416, 120
-0.996011, 271, 257, 286, 320
-0.996022, 381, 129, 396, 192
-0.996038, 383, 185, 398, 248
-0.996047, 253, 153, 268, 216
-0.996069, 161, 297, 288, 328
-0.996094, 295, 193, 310, 256
-0.996108, 321, 209, 336, 272
-0.996135, 353, 185, 480, 216
-0.996154, 351, 209, 366, 272
-0.996162, 193, 273, 208, 336
-0.99619, 353, 25, 480, 56
-0.996191, 389, 121, 404, 184
-0.996206, 389, 185, 404, 248
-0.996222, 441, 73, 456, 136
-0.996229, 353, 113, 480, 144
-0.996243, 425, 65, 440, 128
-0.996256, 207, 273, 222, 336
-0.996264, 335, 209, 350, 272
-0.996267, 467, 249, 482, 312
-0.996277, 471, 33, 486, 96
-0.996287, 389, 73, 404, 136
-0.996294, 321, 45, 448, 76
-0.996296, 379, 73, 394, 136
-0.996301, 431, 65, 446, 128
-0.996332, 453, 97, 484, 352
-0.996332, 167, 217, 182, 280
-0.996343, 193, 129, 224, 375
-0.996347, 411, 1, 426, 64
-0.996352, 305, 1, 432, 64
-0.996358, 399, 225, 414, 288
-0.996361, 365, 201, 380, 264
-0.996365, 405, 1, 436, 256
-0.996381, 267, 281, 282, 344
-0.996384, 333, 1, 364, 128
-0.996386, 257, 241, 384, 272
-0.996408, 465, 121, 480, 184
-0.996408, 369, 129, 400, 375
-0.996413, 337, 241, 368, 368
-0.996415, 241, 217, 256, 280
-0.996425, 459, 249, 474, 312
-0.99643, 407, 129, 422, 192
-0.996457, 209, 145, 224, 208
-0.99646, 367, 97, 382, 160
-0.996466, 1, 161, 256, 224
-0.996474, 353, 1, 384, 256
-0.996476, 225, 129, 256, 375
-0.99648, 373, 73, 388, 136
-0.996484, 481, 33, 496, 96
-0.996488, 65, 281, 192, 344
-0.996492, 335, 185, 350, 248
-0.996492, 345, 185, 360, 248
-0.9965, 431, 249, 446, 312
-0.996503, 161, 309, 288, 340
-0.996527, 229, 257, 244, 320
-0.996532, 113, 289, 240, 320
-0.996575, 369, 1, 496, 32
-0.996603, 121, 273, 184, 336
-0.996604, 337, 269, 464, 300
-0.996632, 289, 265, 416, 296
-0.99666, 305, 157, 432, 188
-0.996674, 81, 209, 208, 240
-0.996677, 21, 129, 52, 256
-0.996694, 353, 89, 480, 120
-0.996724, 129, 153, 256, 184
-0.996775, 231, 181, 246, 212
-0.996802, 169, 129, 200, 375
-0.996819, 401, 129, 432, 375
-0.996824, 425, 33, 456, 288
-0.996829, 33, 65, 288, 192
-0.996832, 41, 185, 104, 248
-0.996839, 1, 313, 256, 375
-0.996841, 305, 121, 432, 152
-0.99686, 113, 181, 240, 212
-0.996872, 113, 113, 176, 176
-0.996872, 369, 69, 496, 100
-0.996892, 121, 1, 184, 375
-0.996893, 249, 189, 264, 220
-0.996899, 469, 1, 500, 256
-0.99694, 369, 53, 496, 84
-0.996943, 209, 193, 224, 224
-0.996943, 223, 193, 238, 224
-0.996952, 65, 161, 128, 288
-0.996966, 33, 209, 160, 272
-0.996998, 453, 1, 484, 256
-0.997004, 407, 101, 422, 132
-0.997006, 249, 157, 264, 188
-0.997047, 33, 113, 64, 240
-0.997064, 237, 193, 252, 224
-0.997065, 441, 129, 472, 375
-0.997109, 199, 221, 214, 252
-0.997124, 413, 97, 444, 352
-0.997126, 237, 181, 252, 212
-0.997133, 1, 129, 500, 192
-0.997169, 221, 161, 236, 192
-0.997174, 215, 193, 230, 224
-0.997183, 249, 129, 280, 375
-0.997183, 207, 181, 222, 212
-0.997188, 231, 193, 246, 224
-0.997202, 161, 325, 288, 356
-0.997222, 49, 113, 80, 240
-0.997227, 297, 33, 360, 288
-0.997237, 81, 225, 208, 256
-0.99724, 65, 113, 128, 176
-0.997245, 241, 253, 256, 284
-0.99725, 441, 33, 472, 288
-0.997265, 225, 9, 480, 72
-0.99727, 337, 245, 464, 276
-0.997312, 159, 197, 174, 228
-0.997335, 375, 253, 390, 284
-0.997351, 113, 113, 144, 240
-0.997352, 157, 129, 188, 375
-0.997354, 41, 113, 104, 176
-0.997357, 231, 261, 246, 292
-0.997357, 203, 193, 218, 224
-0.997361, 89, 161, 152, 224
-0.997361, 265, 201, 280, 232
-0.997363, 255, 189, 270, 220
-0.997379, 225, 221, 352, 252
-0.997379, 253, 249, 268, 280
-0.997381, 245, 201, 260, 232
-0.997405, 425, 129, 456, 375
-0.997408, 159, 225, 174, 256
-0.997414, 159, 237, 174, 268
-0.997416, 291, 213, 306, 244
-0.997422, 213, 173, 228, 204
-0.997454, 251, 201, 266, 232
-0.997455, 321, 209, 448, 240
-0.997461, 243, 189, 258, 220
-0.997465, 225, 181, 240, 212
-0.997465, 305, 289, 432, 352
-0.997482, 305, 305, 368, 368
-0.99749, 113, 301, 240, 332
-0.997493, 105, 97, 168, 352
-0.997495, 233, 157, 248, 188
-0.997506, 225, 41, 352, 104
-0.997511, 257, 201, 272, 232
-0.997513, 289, 177, 416, 208
-0.997523, 191, 229, 206, 260
-0.997543, 343, 253, 358, 284
-0.997545, 193, 201, 208, 232
-0.997562, 159, 213, 174, 244
-0.997567, 443, 257, 458, 288
-0.997572, 465, 101, 480, 132
-0.997576, 369, 253, 384, 284
-0.997578, 379, 101, 394, 132
-0.997586, 89, 113, 152, 176
-0.997588, 211, 217, 226, 248
-0.997592, 407, 257, 422, 288
-0.997595, 313, 245, 328, 276
-0.997612, 113, 249, 240, 280
-0.997614, 381, 253, 396, 284
-0.997615, 329, 253, 344, 284
-0.997622, 89, 113, 120, 240
-0.997634, 229, 169, 244, 200
-0.997641, 335, 253, 350, 284
-0.997643, 97, 345, 224, 375
-0.997647, 181, 129, 212, 375
-0.997649, 215, 205, 230, 236
-0.997659, 205, 213, 220, 244
-0.997668, 413, 257, 428, 288
-0.997671, 481, 261, 496, 292
-0.997672, 273, 69, 400, 100
-0.997676, 227, 241, 242, 272
-0.997679, 321, 1, 384, 64
-0.997681, 297, 213, 312, 244
-0.997683, 277, 205, 292, 236
-0.997686, 179, 197, 194, 228
-0.997692, 369, 37, 496, 68
-0.997701, 1, 113, 32, 240
-0.997709, 235, 273, 250, 304
-0.997712, 435, 257, 450, 288
-0.997713, 377, 1, 408, 256
-0.997717, 241, 81, 368, 112
-0.997717, 419, 257, 434, 288
-0.997728, 341, 129, 372, 375
-0.997732, 427, 257, 442, 288
-0.997735, 449, 257, 464, 288
-0.997735, 363, 253, 378, 284
-0.997737, 415, 53, 430, 84
-0.99774, 169, 197, 184, 228
-0.997743, 349, 253, 364, 284
-0.997747, 335, 77, 350, 108
-0.997756, 293, 197, 308, 228
-0.997756, 319, 249, 334, 280
-0.997757, 239, 169, 254, 200
-0.997764, 225, 181, 352, 212
-0.997776, 227, 205, 242, 236
-0.99778, 69, 113, 100, 240
-0.997785, 273, 221, 400, 252
-0.99779, 221, 205, 236, 236
-0.997797, 287, 197, 302, 228
-0.997804, 207, 233, 222, 264
-0.997808, 393, 253, 408, 284
-0.997811, 225, 169, 352, 200
-0.997816, 337, 33, 368, 288
-0.997821, 391, 185, 406, 216
-0.997827, 97, 325, 224, 356
-0.997828, 245, 269, 260, 300
-0.997834, 475, 261, 490, 292
-0.997837, 161, 337, 288, 368
-0.997846, 113, 313, 176, 375
-0.99785, 401, 257, 416, 288
-0.997865, 357, 253, 372, 284
-0.997866, 293, 229, 308, 260
-0.997881, 465, 129, 496, 375
-0.997891, 161, 81, 416, 144
-0.997893, 1, 25, 500, 88
-0.997898, 353, 129, 384, 375
-0.997908, 209, 273, 336, 304
-0.997909, 387, 253, 402, 284
-0.997915, 185, 197, 200, 228
-0.997917, 239, 205, 254, 236
-0.997926, 189, 213, 204, 244
-0.997934, 169, 209, 184, 240
-0.997939, 285, 209, 300, 240
-0.997945, 465, 133, 480, 164
-0.997947, 387, 13, 402, 44
-0.997948, 49, 313, 176, 375
-0.997951, 159, 253, 174, 284
-0.997952, 303, 233, 318, 264
-0.997961, 271, 201, 286, 232
-0.997965, 309, 129, 340, 375
-0.997966, 467, 261, 482, 292
-0.997968, 407, 137, 422, 168
-0.997968, 49, 245, 176, 276
-0.997971, 193, 281, 208, 312
-0.997971, 455, 257, 470, 288
-0.997975, 329, 129, 360, 375
-0.997975, 193, 141, 320, 172
-0.997982, 241, 241, 256, 272
-0.997987, 125, 113, 156, 240
-0.997995, 235, 249, 250, 280
-0.997996, 461, 261, 476, 292
-0.998, 199, 241, 214, 272
-0.998004, 113, 261, 240, 292
-0.998005, 207, 281, 222, 312
-0.998011, 301, 201, 316, 232
-0.998038, 381, 189, 396, 220
-0.99804, 113, 313, 240, 344
-0.998049, 409, 61, 424, 92
-0.998053, 89, 209, 152, 272
-0.998059, 257, 93, 384, 124
-0.998063, 417, 65, 432, 96
-0.998075, 161, 121, 416, 184
-0.998076, 243, 157, 258, 188
-0.998077, 287, 225, 302, 256
-0.998078, 251, 265, 266, 296
-0.998094, 227, 157, 242, 188
-0.998101, 17, 141, 144, 172
-0.998128, 439, 97, 454, 128
-0.998129, 113, 277, 240, 308
-0.99813, 219, 173, 234, 204
-0.998131, 217, 237, 232, 268
-0.998135, 281, 129, 312, 375
-0.998136, 267, 189, 282, 220
-0.998136, 429, 101, 444, 132
-0.998138, 129, 141, 256, 172
-0.998143, 381, 137, 396, 168
-0.998146, 465, 145, 480, 176
-0.99815, 259, 157, 274, 188
-0.998155, 65, 185, 192, 216
-0.998167, 281, 305, 344, 368
-0.998178, 191, 241, 206, 272
-0.998184, 411, 41, 426, 72
-0.998185, 343, 57, 358, 88
-0.998189, 199, 209, 214, 240
-0.998193, 453, 1, 468, 32
-0.998196, 389, 157, 404, 188
-0.998197, 381, 157, 396, 188
-0.9982, 275, 261, 290, 292
-0.998215, 209, 297, 336, 328
-0.998225, 305, 233, 432, 264
-0.998227, 421, 101, 436, 132
-0.998232, 321, 13, 448, 44
-0.998235, 217, 217, 232, 248
-0.998244, 101, 113, 132, 240
-0.998244, 447, 97, 462, 128
-0.998245, 447, 1, 462, 32
-0.998247, 391, 173, 406, 204
-0.998248, 201, 181, 216, 212
-0.998249, 381, 205, 396, 236
-0.998254, 303, 213, 318, 244
-0.998327, 261, 129, 292, 375
-0.998348, 209, 285, 336, 316
-0.998355, 201, 181, 264, 196
-0.998364, 225, 297, 480, 360
-0.998378, 209, 167, 272, 182
-0.998386, 177, 213, 208, 228
-0.998386, 157, 253, 188, 268
-0.998387, 469, 131, 500, 146
-0.998388, 329, 91, 360, 106
-0.998389, 205, 223, 236, 238
-0.99839, 377, 19, 408, 34
-0.99839, 349, 101, 380, 116
-0.998393, 145, 253, 176, 268
-0.998394, 453, 135, 484, 150
-0.998394, 177, 229, 208, 244
-0.998395, 369, 159, 400, 174
-0.998395, 465, 1, 496, 16
-0.998395, 369, 139, 400, 154
-0.998395, 193, 301, 224, 316
-0.998398, 249, 161, 280, 176
-0.9984, 241, 241, 272, 256
-0.998402, 213, 313, 244, 328
-0.998402, 341, 255, 372, 270
-0.998403, 205, 299, 236, 314
-0.998403, 217, 267, 248, 282
-0.998404, 321, 213, 352, 228
-0.998404, 269, 221, 300, 236
-0.998406, 469, 117, 500, 132
-0.998407, 217, 229, 248, 244
-0.998408, 193, 323, 224, 338
-0.998408, 357, 255, 388, 270
-0.998409, 385, 165, 416, 180
-0.998409, 421, 151, 452, 166
-0.99841, 193, 313, 224, 328
-0.998411, 385, 185, 416, 200
-0.998411, 469, 111, 500, 126
-0.998413, 413, 63, 444, 78
-0.998413, 205, 285, 236, 300
-0.998414, 457, 9, 488, 24
-0.998415, 345, 211, 376, 226
-0.998417, 365, 209, 396, 224
-0.998417, 469, 105, 500, 120
-0.998417, 177, 201, 208, 216
-0.998417, 469, 125, 500, 140
-0.998418, 213, 215, 244, 230
-0.998419, 425, 101, 456, 116
-0.998419, 181, 195, 212, 210
-0.998419, 305, 249, 336, 264
-0.99842, 209, 163, 240, 178
-0.99842, 209, 173, 272, 188
-0.998422, 209, 161, 272, 176
-0.998422, 213, 305, 244, 320
-0.998423, 385, 159, 416, 174
-0.998426, 221, 203, 252, 218
-0.998426, 81, 141, 208, 172
-0.998428, 153, 233, 184, 248
-0.998429, 193, 307, 224, 322
-0.998431, 189, 241, 220, 256
-0.998431, 201, 213, 232, 228
-0.998431, 153, 225, 184, 240
-0.998432, 217, 243, 248, 258
-0.998432, 153, 247, 184, 262
-0.998432, 225, 259, 288, 274
-0.998433, 425, 101, 488, 116
-0.998434, 369, 193, 400, 208
-0.998435, 189, 289, 220, 304
-0.998435, 217, 255, 248, 270
-0.998436, 241, 269, 272, 284
-0.998437, 249, 251, 280, 266
-0.998438, 193, 193, 256, 208
-0.998439, 293, 207, 324, 222
-0.998441, 153, 219, 184, 234
-0.998442, 437, 101, 468, 116
-0.998445, 233, 203, 264, 218
-0.998446, 205, 241, 236, 256
-0.998447, 293, 239, 324, 254
-0.998448, 233, 277, 264, 292
-0.998452, 249, 211, 280, 226
-0.998454, 161, 229, 224, 244
-0.998457, 249, 263, 280, 278
-0.998459, 285, 233, 316, 248
-0.998461, 165, 229, 196, 244
-0.998462, 225, 179, 256, 194
-0.998462, 205, 229, 236, 244
-0.998462, 229, 161, 244, 288
-0.998464, 161, 213, 224, 228
-0.998465, 241, 195, 272, 210
-0.998465, 153, 241, 184, 256
-0.998467, 209, 161, 224, 288
-0.998469, 377, 199, 440, 214
-0.99847, 377, 151, 440, 166
-0.998471, 385, 191, 416, 206
-0.998472, 193, 191, 224, 206
-0.998473, 225, 253, 288, 268
-0.998474, 433, 151, 464, 166
-0.998476, 145, 223, 208, 238
-0.998476, 269, 209, 300, 224
-0.998476, 113, 169, 240, 200
-0.998476, 273, 41, 400, 72
-0.998477, 189, 213, 220, 228
-0.998478, 217, 261, 248, 276
-0.998479, 201, 261, 264, 276
-0.998481, 377, 105, 440, 120
-0.998483, 189, 283, 220, 298
-0.998485, 377, 133, 440, 148
-0.998487, 165, 219, 196, 234
-0.998491, 369, 101, 400, 116
-0.998491, 225, 159, 256, 174
-0.998492, 145, 199, 208, 214
-0.998493, 197, 197, 228, 212
-0.998494, 385, 101, 416, 116
-0.998495, 385, 145, 416, 160
-0.998496, 385, 153, 416, 168
-0.998497, 229, 173, 260, 188
-0.998497, 233, 247, 264, 262
-0.998497, 269, 203, 300, 218
-0.998497, 229, 213, 260, 228
-0.998497, 193, 243, 256, 258
-0.998498, 229, 265, 260, 280
-0.998499, 185, 223, 216, 238
-0.9985, 277, 227, 308, 242
-0.998503, 157, 199, 188, 214
-0.998503, 241, 209, 304, 224
-0.998504, 273, 205, 336, 220
-0.998506, 385, 197, 416, 212
-0.998506, 305, 25, 432, 56
-0.998507, 9, 113, 72, 176
-0.998507, 205, 187, 236, 202
-0.998509, 185, 235, 216, 250
-0.998512, 401, 103, 464, 118
-0.998512, 449, 151, 480, 166
-0.998512, 185, 255, 248, 270
-0.998514, 285, 215, 316, 230
-0.998517, 281, 205, 312, 220
-0.998517, 217, 189, 280, 204
-0.99852, 241, 203, 304, 218
-0.99852, 425, 151, 488, 166
-0.998522, 229, 259, 260, 274
-0.998524, 153, 213, 184, 228
-0.998528, 281, 215, 344, 230
-0.998528, 161, 237, 224, 252
-0.998528, 209, 317, 336, 348
-0.998529, 165, 213, 196, 228
-0.998529, 377, 111, 440, 126
-0.998529, 241, 169, 272, 184
-0.998531, 217, 203, 280, 218
-0.998533, 377, 117, 440, 132
-0.998533, 377, 127, 440, 142
-0.998534, 449, 101, 480, 116
-0.998535, 45, 161, 76, 288
-0.998535, 377, 145, 440, 160
-0.998536, 237, 185, 268, 200
-0.998537, 385, 139, 416, 154
-0.998537, 185, 215, 248, 230
-0.998539, 337, 101, 400, 116
-0.99854, 377, 139, 440, 154
-0.998541, 249, 257, 280, 272
-0.998541, 223, 145, 238, 272
-0.998542, 229, 271, 260, 286
-0.998544, 245, 203, 276, 218
-0.998546, 177, 305, 240, 320
-0.998546, 225, 265, 288, 280
-0.998546, 273, 57, 400, 88
-0.998548, 161, 247, 224, 262
-0.998551, 193, 187, 256, 202
-0.998551, 185, 315, 248, 330
-0.998552, 257, 203, 288, 218
-0.998553, 257, 289, 384, 320
-0.998553, 233, 161, 296, 176
-0.998556, 199, 209, 214, 336
-0.998557, 217, 171, 248, 186
-0.998559, 209, 213, 272, 228
-0.99856, 345, 193, 408, 208
-0.99856, 217, 197, 280, 212
-0.998562, 377, 193, 440, 208
-0.998563, 249, 263, 312, 278
-0.998563, 353, 133, 416, 148
-0.998565, 185, 227, 248, 242
-0.998566, 169, 193, 232, 208
-0.998567, 177, 289, 240, 304
-0.998572, 241, 223, 304, 238
-0.998573, 201, 267, 264, 282
-0.998577, 345, 209, 408, 224
-0.998577, 237, 161, 268, 176
-0.998578, 185, 273, 248, 288
-0.998579, 353, 139, 416, 154
-0.998582, 185, 321, 248, 336
-0.998583, 177, 299, 240, 314
-0.998584, 257, 233, 320, 248
-0.998584, 353, 107, 416, 122
-0.998584, 377, 99, 440, 114
-0.998584, 385, 127, 416, 142
-0.998585, 185, 163, 248, 178
-0.998585, 321, 91, 384, 106
-0.998586, 321, 255, 384, 270
-0.998587, 405, 103, 436, 118
-0.998588, 145, 207, 208, 222
-0.99859, 401, 67, 464, 82
-0.99859, 145, 257, 208, 272
-0.99859, 369, 19, 432, 34
-0.99859, 209, 179, 240, 194
-0.998591, 193, 203, 256, 218
-0.998591, 377, 205, 440, 220
-0.998592, 205, 235, 236, 250
-0.998592, 377, 187, 440, 202
-0.998592, 185, 237, 248, 252
-0.998592, 313, 211, 376, 226
-0.998592, 159, 161, 174, 288
-0.998592, 353, 117, 416, 132
-0.998593, 297, 129, 328, 375
-0.998593, 177, 283, 240, 298
-0.998594, 193, 249, 256, 264
-0.998594, 233, 167, 296, 182
-0.998594, 425, 135, 488, 150
-0.998594, 361, 257, 424, 272
-0.998595, 237, 179, 268, 194
-0.998595, 169, 199, 232, 214
-0.998597, 369, 209, 496, 240
-0.998597, 353, 127, 416, 142
-0.998598, 385, 121, 416, 136
-0.998598, 225, 271, 288, 286
-0.998598, 385, 107, 416, 122
-0.998599, 377, 165, 440, 180
-0.998599, 233, 253, 264, 268
-0.998601, 209, 235, 272, 250
-0.998601, 265, 241, 328, 256
-0.998601, 377, 175, 440, 190
-0.998604, 377, 159, 440, 174
-0.998605, 401, 151, 464, 166
-0.998605, 393, 259, 456, 274
-0.998606, 233, 183, 296, 198
-0.998606, 225, 185, 256, 200
-0.998607, 241, 197, 304, 212
-0.998607, 417, 261, 480, 276
-0.998607, 233, 175, 296, 190
-0.998607, 1, 89, 500, 152
-0.998607, 209, 279, 272, 294
-0.998608, 385, 113, 416, 128
-0.998608, 235, 177, 250, 304
-0.998609, 463, 81, 478, 208
-0.99861, 229, 193, 260, 208
-0.99861, 145, 293, 208, 308
-0.998612, 145, 193, 208, 208
-0.998613, 377, 271, 440, 286
-0.998615, 353, 145, 416, 160
-0.998616, 401, 61, 464, 76
-0.998617, 193, 229, 224, 244
-0.998617, 145, 281, 208, 296
-0.998618, 225, 299, 288, 314
-0.998618, 137, 213, 200, 228
-0.998618, 249, 257, 312, 272
-0.998619, 217, 247, 280, 262
-0.998619, 209, 193, 240, 208
-0.998622, 273, 247, 336, 262
-0.998622, 221, 165, 252, 180
-0.998623, 417, 11, 480, 26
-0.998623, 377, 181, 440, 196
-0.998623, 293, 177, 308, 304
-0.998624, 337, 269, 400, 284
-0.998625, 145, 299, 208, 314
-0.998626, 169, 187, 232, 202
-0.998626, 345, 203, 408, 218
-0.998627, 273, 265, 336, 280
-0.998627, 153, 287, 216, 302
-0.998627, 177, 221, 240, 236
-0.998628, 385, 133, 416, 148
-0.998628, 401, 37, 464, 52
-0.998629, 305, 267, 368, 282
-0.998629, 329, 71, 392, 86
-0.998629, 433, 1, 496, 16
-0.998629, 177, 175, 240, 190
-0.998631, 417, 157, 480, 172
-0.998632, 401, 47, 464, 62
-0.998632, 281, 221, 344, 236
-0.998634, 321, 85, 384, 100
-0.998634, 145, 307, 208, 322
-0.998636, 121, 251, 184, 266
-0.998637, 425, 55, 488, 70
-0.998637, 209, 155, 272, 170
-0.998638, 345, 187, 408, 202
-0.998639, 121, 219, 184, 234
-0.99864, 321, 79, 384, 94
-0.99864, 377, 13, 440, 28
-0.998649, 241, 193, 256, 320
-0.998667, 247, 145, 262, 272
-0.99867, 217, 145, 232, 272
-0.998682, 409, 81, 424, 208
-0.998701, 191, 161, 206, 288
-0.998709, 435, 81, 450, 208
-0.998717, 199, 161, 214, 288
-0.998729, 253, 161, 268, 288
-0.998731, 381, 193, 396, 320
-0.99874, 231, 225, 246, 352
-0.998743, 287, 177, 302, 304
-0.998749, 161, 33, 416, 96
-0.998751, 299, 177, 314, 304
-0.998766, 445, 81, 460, 208
-0.998776, 457, 65, 472, 192
-0.998779, 217, 193, 232, 320
-0.998783, 241, 145, 256, 272
-0.998788, 429, 81, 444, 208
-0.998791, 193, 225, 208, 352
-0.998799, 415, 81, 430, 208
-0.998803, 1, 289, 500, 352
-0.99881, 421, 81, 436, 208
-0.998816, 311, 177, 326, 304
-0.998823, 257, 313, 384, 375
-0.998823, 65, 113, 320, 176
-0.998826, 209, 33, 272, 288
-0.998828, 375, 193, 390, 320
-0.998828, 305, 177, 320, 304
-0.998878, 381, 97, 396, 224
-0.998884, 257, 157, 384, 188
-0.998886, 451, 81, 466, 208
-0.998894, 277, 177, 292, 304
-0.998901, 247, 193, 262, 320
-0.998909, 205, 209, 220, 336
-0.998923, 167, 161, 182, 288
-0.998925, 363, 17, 378, 144
-0.998928, 223, 209, 238, 336
-0.998929, 385, 1, 400, 128
-0.998938, 257, 137, 384, 168
-0.998944, 369, 193, 384, 320
-0.99895, 341, 49, 356, 176
-0.998951, 463, 33, 478, 160
-0.998955, 351, 33, 366, 160
-0.998955, 265, 161, 280, 288
-0.998959, 325, 193, 340, 320
-0.998969, 257, 225, 272, 352
-0.998969, 243, 241, 258, 368
-0.998971, 275, 241, 290, 368
-0.998976, 259, 161, 274, 288
-0.99898, 271, 161, 286, 288
-0.998985, 145, 129, 176, 375
-0.999002, 325, 33, 356, 288
-0.999015, 391, 65, 406, 192
-0.999021, 317, 193, 332, 320
-0.999022, 65, 157, 192, 188
-0.999033, 263, 241, 278, 368
-0.999036, 145, 105, 272, 168
-0.999037, 289, 1, 416, 32
-0.999043, 397, 49, 412, 176
-0.999053, 401, 1, 416, 128
-0.999055, 387, 177, 402, 304
-0.999057, 445, 1, 460, 128
-0.999065, 363, 193, 378, 320
-0.999065, 159, 241, 174, 368
-0.999066, 473, 49, 488, 176
-0.999067, 237, 241, 252, 368
-0.999068, 369, 17, 384, 144
-0.999069, 183, 209, 198, 336
-0.999081, 403, 97, 418, 224
-0.999084, 299, 225, 314, 352
-0.999092, 249, 241, 264, 368
-0.999094, 379, 1, 394, 128
-0.999095, 403, 49, 418, 176
-0.999098, 269, 241, 284, 368
-0.999106, 65, 277, 192, 308
-0.999109, 285, 225, 300, 352
-0.99911, 33, 161, 64, 288
-0.999115, 9, 81, 72, 208
-0.999117, 457, 1, 472, 128
-0.999117, 357, 33, 372, 160
-0.99912, 389, 113, 404, 240
-0.99912, 485, 49, 500, 176
-0.999124, 333, 161, 348, 288
-0.99913, 379, 49, 394, 176
-0.999134, 381, 145, 396, 272
-0.999137, 425, 33, 440, 160
-0.999139, 235, 129, 250, 256
-0.999144, 167, 209, 182, 336
-0.999146, 357, 193, 372, 320
-0.999147, 341, 193, 356, 320
-0.999162, 257, 301, 384, 332
-0.999169, 293, 225, 308, 352
-0.99917, 179, 161, 194, 288
-0.999171, 451, 17, 466, 144
-0.999174, 439, 33, 454, 160
-0.999175, 229, 113, 244, 240
-0.999179, 351, 193, 366, 320
-0.999185, 391, 1, 406, 128
-0.99919, 153, 193, 168, 320
-0.999192, 211, 225, 226, 352
-0.999195, 1, 65, 500, 128
-0.999197, 431, 33, 446, 160
-0.999214, 33, 197, 160, 228
-0.999219, 409, 33, 424, 160
-0.999226, 185, 161, 200, 288
-0.999229, 479, 225, 494, 352
-0.999231, 173, 161, 188, 288
-0.999233, 317, 145, 332, 272
-0.999234, 469, 97, 484, 224
-0.999238, 17, 157, 144, 188
-0.999253, 419, 1, 434, 128
-0.999255, 469, 1, 484, 128
-0.999255, 473, 225, 488, 352
-0.999256, 305, 225, 320, 352
-0.999256, 355, 81, 370, 208
-0.999256, 65, 257, 192, 288
-0.999257, 177, 33, 240, 288
-0.999257, 319, 241, 334, 368
-0.999261, 225, 33, 256, 288
-0.999262, 395, 225, 410, 352
-0.999262, 485, 225, 500, 352
-0.999264, 335, 49, 350, 176
-0.999276, 257, 29, 384, 60
-0.999283, 323, 145, 338, 272
-0.999283, 371, 81, 386, 208
-0.99929, 257, 113, 272, 240
-0.999309, 65, 305, 192, 336
-0.999319, 425, 225, 440, 352
-0.99932, 457, 113, 472, 240
-0.999321, 467, 193, 482, 320
-0.999326, 401, 225, 416, 352
-0.999327, 289, 129, 304, 256
-0.999328, 389, 225, 404, 352
-0.999328, 431, 225, 446, 352
-0.999336, 427, 129, 442, 256
-0.999337, 419, 225, 434, 352
-0.999343, 369, 221, 496, 252
-0.999343, 257, 313, 384, 344
-0.999343, 217, 241, 232, 368
-0.999347, 373, 145, 388, 272
-0.999352, 209, 113, 224, 240
-0.999356, 411, 225, 426, 352
-0.999358, 461, 225, 476, 352
-0.999358, 311, 225, 326, 352
-0.999364, 479, 1, 494, 128
-0.999366, 193, 105, 320, 168
-0.999366, 361, 81, 376, 208
-0.999369, 463, 129, 478, 256
-0.99937, 345, 145, 360, 272
-0.999379, 225, 57, 352, 88
-0.999381, 217, 81, 248, 208
-0.999384, 1, 185, 128, 216
-0.999478, 33, 209, 160, 240
-0.9995, 225, 69, 352, 100
-0.999504, 273, 13, 400, 44
-0.999506, 65, 293, 192, 324
-0.999537, 353, 233, 480, 264
-0.999541, 81, 105, 208, 168
-0.999554, 1, 161, 32, 288
-0.999584, 287, 209, 302, 224
-0.999584, 359, 211, 374, 226
-0.999584, 465, 11, 480, 26
-0.999585, 255, 185, 270, 200
-0.999585, 413, 103, 428, 118
-0.999587, 225, 157, 240, 172
-0.999588, 313, 249, 328, 264
-0.999588, 183, 195, 198, 210
-0.999588, 381, 193, 396, 208
-0.999589, 157, 207, 172, 222
-0.99959, 265, 253, 280, 268
-0.99959, 239, 197, 254, 212
-0.99959, 193, 197, 208, 212
-0.999591, 411, 45, 426, 60
-0.999592, 241, 187, 256, 202
-0.999592, 449, 101, 464, 116
-0.999593, 213, 181, 228, 196
-0.999594, 261, 211, 276, 226
-0.999596, 333, 91, 348, 106
-0.999597, 225, 181, 240, 196
-0.999597, 209, 283, 224, 298
-0.999598, 391, 199, 406, 214
-0.999598, 191, 283, 206, 298
-0.999598, 235, 279, 250, 294
-0.999599, 175, 201, 190, 216
-0.999599, 215, 215, 230, 230
-0.9996, 233, 199, 248, 214
-0.999601, 269, 209, 284, 224
-0.999601, 417, 55, 432, 70
-0.999601, 389, 157, 404, 172
-0.999601, 281, 209, 296, 224
-0.999601, 209, 237, 224, 252
-0.999602, 299, 207, 314, 222
-0.999602, 203, 213, 218, 228
-0.999602, 257, 277, 384, 308
-0.999605, 207, 197, 222, 212
-0.999607, 227, 215, 242, 230
-0.999607, 283, 217, 298, 232
-0.999608, 465, 151, 480, 166
-0.999608, 237, 273, 252, 288
-0.999609, 375, 209, 390, 224
-0.99961, 249, 269, 264, 284
-0.99961, 201, 241, 216, 256
-0.999611, 439, 101, 454, 116
-0.999612, 221, 215, 236, 230
-0.999612, 319, 251, 334, 266
-0.999612, 303, 239, 318, 254
-0.999612, 429, 103, 444, 118
-0.999612, 451, 1, 466, 16
-0.999612, 257, 251, 272, 266
-0.999613, 199, 223, 214, 238
-0.999613, 469, 1, 484, 16
-0.999614, 237, 213, 252, 228
-0.999616, 243, 251, 258, 266
-0.999618, 437, 151, 452, 166
-0.999619, 221, 169, 236, 184
-0.999621, 231, 259, 246, 274
-0.999622, 227, 199, 242, 214
-0.999622, 299, 201, 314, 216
-0.999622, 241, 259, 256, 274
-0.999623, 243, 213, 258, 228
-0.999623, 187, 213, 202, 228
-0.999624, 199, 235, 214, 250
-0.999625, 245, 277, 260, 292
-0.999626, 253, 211, 268, 226
-0.999628, 309, 243, 324, 258
-0.999628, 157, 199, 172, 214
-0.999628, 391, 187, 406, 202
-0.999632, 455, 9, 470, 24
-0.999636, 243, 271, 258, 286
-0.999636, 189, 231, 204, 246
-0.999637, 289, 217, 304, 232
-0.999638, 413, 61, 428, 76
-0.999638, 249, 187, 264, 202
-0.999638, 233, 247, 248, 262
-0.999639, 299, 233, 314, 248
-0.99964, 243, 245, 258, 260
-0.99964, 231, 271, 246, 286
-0.999641, 231, 173, 246, 188
-0.999642, 291, 229, 306, 244
-0.999642, 457, 151, 472, 166
-0.999643, 159, 253, 174, 268
-0.999647, 235, 163, 250, 178
-0.999649, 241, 265, 256, 280
-0.999649, 159, 247, 174, 262
-0.99965, 253, 195, 268, 210
-0.999651, 283, 223, 298, 238
-0.999652, 191, 239, 206, 254
-0.999654, 199, 195, 214, 210
-0.999654, 223, 187, 238, 202
-0.999657, 169, 211, 184, 226
-0.999657, 241, 203, 256, 218
-0.999659, 369, 297, 496, 360
-0.999661, 213, 197, 228, 212
-0.999662, 195, 213, 210, 228
-0.999662, 391, 193, 406, 208
-0.999665, 237, 181, 252, 196
-0.999665, 109, 161, 140, 288
-0.999667, 447, 151, 462, 166
-0.999669, 187, 223, 202, 238
-0.999673, 159, 219, 174, 234
-0.999676, 209, 225, 224, 240
-0.999679, 231, 265, 246, 280
-0.99968, 159, 225, 174, 240
-0.999684, 293, 205, 308, 220
-0.999687, 463, 101, 478, 116
-0.999687, 253, 203, 268, 218
-0.999688, 251, 253, 266, 268
-0.999689, 379, 101, 394, 116
-0.999691, 207, 185, 222, 200
-0.999692, 159, 213, 174, 228
-0.999693, 245, 193, 260, 208
-0.999694, 237, 253, 252, 268
-0.999695, 211, 191, 226, 206
-0.999696, 159, 231, 174, 246
-0.999697, 231, 181, 246, 196
-0.999699, 247, 203, 262, 218
-0.9997, 159, 239, 174, 254
-0.999702, 269, 203, 284, 218
-0.999703, 209, 231, 224, 246
-0.999706, 153, 97, 184, 224
-0.99971, 277, 203, 292, 218
-0.999714, 263, 203, 278, 218
-0.999719, 209, 337, 336, 368
-0.999721, 235, 187, 250, 202
-0.999722, 287, 203, 302, 218
-0.999725, 49, 325, 176, 356
-0.999725, 233, 193, 248, 208
-0.999745, 407, 103, 422, 118
-0.999749, 1, 233, 128, 296
-0.999751, 199, 229, 214, 244
-0.999752, 223, 163, 238, 178
-0.99976, 217, 191, 232, 206
-0.999763, 1, 209, 64, 272
-0.999767, 229, 187, 244, 202
-0.999773, 1, 313, 500, 375
-0.999776, 89, 161, 120, 288
-0.999777, 205, 191, 220, 206
-0.999785, 305, 293, 432, 324
-0.999789, 249, 161, 264, 176
-0.999825, 73, 161, 104, 288
-0.999835, 223, 193, 238, 208
-0.999864, 189, 33, 220, 288
-0.999877, 41, 209, 104, 272
-0.999878, 1, 1, 500, 64
-0.99992, 241, 125, 368, 156
-0.999951, 205, 33, 236, 288
-0.999977, 193, 125, 320, 156
-0.999994, 153, 33, 216, 288
-0.999999, 353, 297, 480, 328
-1.00004, 65, 129, 192, 160
-1.00005, 133, 97, 164, 352
-1.0001, 321, 221, 448, 252
-1.0001, 321, 281, 448, 312
-1.00011, 129, 125, 256, 156
-1.00011, 17, 129, 144, 160
-1.00018, 369, 281, 496, 312
-1.00019, 125, 161, 156, 288
-1.00023, 305, 305, 432, 336
-1.00023, 1, 245, 128, 276
-1.00025, 253, 33, 284, 288
-1.00025, 49, 337, 176, 368
-1.00026, 1, 305, 128, 368
-1.00029, 157, 33, 188, 288
-1.00031, 1, 233, 128, 264
-1.00032, 1, 345, 128, 375
-1.00035, 1, 209, 128, 336
-1.00039, 309, 33, 340, 288
-1.00042, 57, 161, 88, 288
-1.00049, 321, 1, 352, 128
-1.00055, 169, 33, 200, 288
-1.00055, 137, 97, 168, 224
-1.00069, 297, 33, 328, 288
-1.00079, 241, 33, 272, 288
-1.00081, 249, 33, 312, 288
-1.00082, 17, 257, 144, 320
-1.00083, 281, 33, 312, 288
-1.00085, 97, 1, 160, 375
-1.00088, 145, 33, 176, 288
-1.00089, 109, 129, 140, 375
-1.00089, 97, 129, 128, 375
-1.00093, 121, 129, 152, 375
-1.00096, 33, 129, 64, 375
-1.00097, 269, 33, 300, 288
-1.00105, 21, 129, 52, 375
-1.00108, 57, 129, 88, 375
-1.00108, 1, 97, 32, 352
-1.00109, 69, 129, 100, 375
-1.00112, 73, 1, 136, 375
-1.00115, 45, 97, 76, 352
-1.00117, 129, 9, 384, 72
-1.00119, 17, 281, 144, 344
-1.00127, 81, 97, 112, 352
-1.00127, 61, 33, 92, 288
-1.00133, 49, 1, 112, 375
-1.00136, 21, 33, 52, 288
-1.00137, 97, 33, 128, 288
-1.00137, 117, 33, 148, 288
-1.0014, 45, 1, 76, 256
-1.00143, 1, 177, 64, 304
-1.00143, 85, 1, 116, 256
-1.00145, 33, 33, 64, 288
-1.00147, 5, 1, 36, 256
-1.00156, 73, 1, 104, 256
-1.00157, 305, 313, 432, 375
-1.00159, 1, 1, 64, 375
-1.00165, 65, 209, 128, 272
-1.00167, 1, 25, 256, 88
-1.00169, 25, 1, 88, 375
-1.0017, 21, 81, 52, 208
-1.00172, 177, 65, 304, 128
-1.00175, 133, 1, 164, 256
-1.0018, 129, 57, 256, 120
-1.00181, 1, 65, 256, 128
-1.00183, 97, 289, 160, 352
-1.00186, 65, 89, 320, 152
-1.00196, 33, 1, 288, 64
-1.00212, 97, 193, 160, 320
-1.00215, 281, 81, 312, 208
-1.00215, 49, 65, 176, 128
-1.00239, 113, 25, 240, 88
-1.00245, 273, 33, 336, 288
-1.00247, 65, 25, 192, 88
-1.00258, 329, 297, 392, 360
-1.00258, 185, 105, 248, 168
-1.00259, 17, 9, 144, 72
-1.00264, 309, 81, 340, 208
-1.00269, 269, 81, 300, 208
-1.00271, 129, 1, 256, 64
-1.00272, 17, 65, 144, 192
-1.00275, 153, 105, 216, 168
-1.00275, 209, 65, 336, 192
-1.00283, 193, 9, 320, 72
-1.00283, 177, 41, 304, 104
-1.00285, 1, 65, 128, 128
-1.00291, 1, 41, 128, 104
-1.00293, 81, 1, 208, 64
-1.003, 129, 81, 256, 144
-1.00301, 97, 81, 160, 208
-1.00304, 17, 89, 144, 152
-1.00328, 249, 65, 280, 192
-1.00372, 129, 209, 160, 336
-1.00401, 21, 177, 52, 304
-1.00405, 293, 81, 324, 208
-1.00425, 205, 65, 236, 192
-1.00453, 309, 33, 340, 160
-1.00454, 81, 129, 144, 375
-1.00465, 9, 129, 72, 375
-1.00481, 33, 209, 64, 336
-1.00486, 85, 209, 116, 336
-1.00503, 1, 209, 32, 336
-1.00511, 41, 129, 104, 375
-1.00515, 217, 65, 280, 192
-1.00538, 73, 241, 104, 368
-1.00558, 73, 241, 136, 368
-1.00565, 97, 65, 224, 192
-1.00571, 241, 65, 304, 192
-1.00585, 281, 49, 344, 176
-1.00608, 129, 33, 192, 288
-1.00671, 97, 241, 160, 368
-1.00693, 1, 33, 64, 288
-1.00708, 41, 209, 104, 336
-1.00709, 41, 33, 104, 288
-1.00731, 81, 33, 144, 288
-1.00787, 33, 65, 96, 192
-1.00789, 177, 65, 240, 192
-1.00795, 1, 1, 256, 128
-1.008, 65, 65, 128, 192
-1.00817, 1, 241, 64, 368
-1.00872, 105, 1, 168, 256
-1.00894, 209, 17, 336, 144
-1.00906, 137, 65, 200, 192
-1.00923, 145, 33, 272, 160
-1.00931, 17, 1, 144, 128
-1.00966, 81, 1, 208, 128
-1.01324, 273, 1, 336, 128
-1.01392, 113, 33, 176, 160
-1.01398, 89, 33, 152, 160
-1.01405, 9, 33, 72, 160
-1.01435, 169, 1, 232, 128
-1.01442, 65, 1, 128, 128
-1.01442, 137, 1, 200, 128
-1.01465, 217, 1, 280, 128
-1.01465, 241, 1, 304, 128
-1.01478, 33, 1, 96, 128
-1.01513, 193, 1, 256, 128
