1871
-0.14937, 1, 1, 500, 329
-0.345774, 1, 1, 500, 256
-0.394273, 225, 1, 480, 329
-0.484997, 129, 1, 384, 329
-0.59217, 33, 1, 288, 329
-0.623149, 225, 33, 480, 288
-0.633094, 65, 65, 320, 320
-0.850553, 321, 1, 448, 329
-0.859268, 257, 1, 384, 329
-0.873161, 161, 1, 288, 329
-0.875885, 289, 33, 416, 288
-0.877015, 177, 65, 304, 320
-0.877841, 209, 1, 336, 329
-0.88563, 129, 65, 256, 320
-0.887637, 81, 65, 208, 320
-0.889823, 369, 1, 496, 329
-0.894037, 337, 33, 464, 288
-0.894584, 33, 65, 160, 320
-0.894847, 17, 1, 144, 329
-0.897482, 97, 1, 224, 329
-0.899013, 225, 33, 352, 288
-0.90338, 1, 113, 500, 240
-0.905565, 1, 193, 500, 320
-0.911664, 1, 33, 500, 160
-0.918582, 225, 49, 480, 176
-0.920252, 33, 177, 288, 304
-0.920424, 97, 113, 352, 240
-0.928257, 225, 97, 480, 224
-0.932679, 129, 177, 384, 304
-0.933703, 97, 65, 352, 192
-0.935424, 81, 161, 208, 288
-0.937643, 81, 113, 208, 240
-0.939701, 1, 129, 256, 256
-0.945688, 385, 49, 448, 176
-0.945889, 105, 113, 168, 240
-0.946083, 337, 49, 464, 176
-0.946432, 145, 161, 272, 288
-0.946973, 345, 49, 408, 176
-0.949131, 249, 129, 312, 256
-0.949313, 33, 193, 160, 320
-0.949358, 201, 145, 264, 272
-0.949691, 1, 33, 256, 160
-0.950328, 145, 161, 208, 288
-0.95107, 225, 145, 480, 272
-0.951141, 225, 193, 480, 320
-0.951382, 105, 209, 168, 329
-0.952105, 177, 193, 240, 320
-0.952118, 129, 209, 256, 329
-0.953958, 81, 161, 144, 288
-0.954031, 1, 81, 256, 208
-0.954394, 129, 65, 256, 192
-0.955229, 177, 129, 240, 256
-0.955273, 137, 209, 200, 329
-0.955452, 161, 113, 288, 240
-0.955717, 81, 113, 144, 240
-0.955761, 217, 81, 280, 208
-0.955775, 161, 1, 416, 128
-0.958548, 17, 145, 144, 272
-0.958931, 217, 209, 280, 329
-0.959393, 273, 49, 400, 176
-0.960378, 209, 97, 336, 224
-0.960442, 145, 185, 208, 248
-0.960443, 105, 161, 168, 288
-0.960819, 17, 97, 144, 224
-0.961187, 81, 209, 208, 329
-0.961497, 105, 65, 168, 192
-0.96152, 73, 209, 136, 329
-0.961776, 249, 129, 312, 192
-0.964068, 225, 145, 352, 272
-0.964134, 217, 105, 280, 168
-0.964351, 81, 153, 144, 216
-0.964453, 129, 65, 192, 192
-0.964532, 225, 193, 352, 320
-0.964561, 105, 233, 168, 296
-0.965719, 385, 97, 448, 224
-0.965738, 49, 209, 112, 329
-0.965887, 97, 257, 160, 320
-0.96623, 273, 145, 400, 272
-0.966293, 177, 193, 240, 256
-0.966351, 113, 121, 176, 184
-0.966394, 105, 185, 168, 248
-0.966428, 337, 113, 464, 240
-0.966472, 129, 249, 192, 312
-0.966725, 273, 193, 400, 320
-0.966841, 81, 65, 208, 192
-0.966864, 233, 201, 296, 264
-0.966937, 129, 113, 192, 240
-0.967, 129, 161, 192, 224
-0.967021, 225, 161, 288, 288
-0.967049, 281, 193, 344, 320
-0.967113, 81, 17, 208, 144
-0.967238, 57, 161, 120, 288
-0.967315, 153, 161, 216, 224
-0.967335, 145, 225, 208, 288
-0.967656, 161, 81, 224, 208
-0.967791, 105, 17, 168, 144
-0.968133, 273, 1, 400, 128
-0.968563, 249, 193, 312, 320
-0.96875, 361, 113, 424, 240
-0.968764, 1, 33, 128, 160
-0.968768, 329, 161, 392, 288
-0.968825, 401, 73, 464, 136
-0.969242, 409, 65, 472, 192
-0.969284, 241, 81, 304, 208
-0.969795, 273, 145, 336, 272
-0.969925, 121, 17, 184, 80
-0.969989, 121, 209, 184, 272
-0.970268, 369, 41, 432, 104
-0.970344, 217, 225, 280, 288
-0.970369, 337, 1, 400, 128
-0.970534, 257, 1, 500, 128
-0.970637, 193, 217, 256, 280
-0.970945, 393, 105, 456, 168
-0.971274, 369, 1, 432, 128
-0.97133, 353, 177, 480, 304
-0.971434, 329, 201, 392, 264
-0.971702, 105, 161, 168, 224
-0.971752, 209, 137, 272, 200
-0.972032, 17, 1, 80, 128
-0.972238, 65, 177, 128, 240
-0.972545, 177, 33, 304, 160
-0.972642, 321, 1, 448, 128
-0.972701, 57, 97, 120, 224
-0.972988, 129, 17, 192, 144
-0.973026, 97, 25, 160, 88
-0.973137, 353, 161, 416, 288
-0.973227, 165, 161, 196, 288
-0.973291, 73, 217, 136, 280
-0.973306, 353, 33, 416, 288
-0.973433, 377, 33, 440, 288
-0.973542, 129, 65, 192, 320
-0.973576, 209, 17, 272, 144
-0.973576, 265, 17, 328, 144
-0.973979, 81, 193, 208, 256
-0.974047, 225, 49, 352, 176
-0.974047, 289, 201, 352, 264
-0.974169, 177, 33, 240, 160
-0.974238, 209, 1, 272, 256
-0.974255, 81, 33, 144, 160
-0.97434, 345, 73, 408, 136
-0.974361, 241, 65, 304, 320
-0.974494, 177, 105, 240, 168
-0.974505, 193, 105, 320, 168
-0.97459, 137, 49, 200, 112
-0.97463, 209, 161, 272, 224
-0.974683, 345, 41, 408, 104
-0.974841, 209, 193, 272, 256
-0.975038, 377, 73, 440, 136
-0.975053, 313, 33, 376, 160
-0.975354, 329, 209, 392, 329
-0.97544, 249, 89, 312, 152
-0.975833, 177, 81, 240, 144
-0.975855, 49, 209, 112, 272
-0.975937, 65, 257, 192, 320
-0.976029, 369, 113, 432, 176
-0.976102, 105, 65, 168, 320
-0.976275, 57, 49, 120, 176
-0.97629, 349, 201, 380, 264
-0.976343, 169, 217, 232, 280
-0.97639, 89, 113, 152, 176
-0.976526, 185, 129, 248, 192
-0.976786, 289, 97, 416, 224
-0.976809, 177, 169, 240, 232
-0.976872, 393, 49, 456, 112
-0.976974, 113, 145, 240, 208
-0.977314, 17, 1, 80, 64
-0.977334, 165, 185, 196, 248
-0.977408, 193, 129, 320, 192
-0.97749, 233, 153, 296, 216
-0.977572, 233, 17, 296, 144
-0.977577, 49, 1, 112, 128
-0.977616, 273, 81, 336, 208
-0.977725, 177, 209, 304, 329
-0.977783, 129, 105, 256, 168
-0.977815, 337, 49, 464, 112
-0.977859, 125, 257, 156, 320
-0.97792, 153, 193, 184, 320
-0.978004, 137, 89, 200, 152
-0.978005, 133, 209, 164, 329
-0.978012, 145, 185, 272, 248
-0.97805, 145, 25, 208, 88
-0.978131, 109, 177, 140, 304
-0.97819, 289, 17, 352, 144
-0.9782, 305, 161, 368, 288
-0.978205, 133, 225, 164, 288
-0.978216, 385, 33, 416, 160
-0.978308, 169, 33, 232, 288
-0.97837, 17, 49, 80, 176
-0.978431, 313, 81, 376, 208
-0.978531, 25, 193, 88, 320
-0.978582, 345, 97, 408, 160
-0.978603, 97, 1, 160, 64
-0.978713, 153, 17, 216, 144
-0.978716, 65, 153, 192, 216
-0.978851, 313, 33, 376, 288
-0.978943, 129, 217, 256, 280
-0.978971, 225, 1, 288, 64
-0.979042, 145, 249, 176, 312
-0.979224, 393, 145, 456, 272
-0.979228, 145, 1, 208, 64
-0.979334, 329, 233, 392, 296
-0.979342, 273, 105, 336, 168
-0.979351, 241, 209, 272, 272
-0.97936, 129, 17, 256, 144
-0.979448, 265, 1, 328, 256
-0.979602, 433, 81, 496, 208
-0.979627, 33, 225, 160, 288
-0.979655, 241, 193, 272, 320
-0.979736, 81, 217, 208, 280
-0.979952, 41, 65, 104, 128
-0.979992, 201, 33, 264, 96
-0.980086, 117, 113, 148, 240
-0.980233, 121, 209, 152, 329
-0.980291, 113, 233, 144, 296
-0.980292, 113, 1, 176, 329
-0.980383, 193, 81, 256, 208
-0.980403, 337, 73, 464, 136
-0.980416, 265, 217, 328, 280
-0.980488, 33, 145, 96, 272
-0.980524, 97, 97, 128, 224
-0.980556, 353, 1, 416, 329
-0.980625, 9, 25, 72, 88
-0.980634, 65, 113, 192, 176
-0.980797, 97, 209, 160, 272
-0.980802, 141, 129, 172, 256
-0.98087, 249, 121, 280, 184
-0.980903, 153, 113, 216, 176
-0.981024, 225, 145, 256, 272
-0.981089, 217, 1, 280, 329
-0.981162, 213, 105, 244, 168
-0.981332, 217, 81, 280, 144
-0.981349, 73, 249, 136, 312
-0.981352, 257, 193, 320, 256
-0.981471, 149, 193, 180, 256
-0.981518, 113, 241, 240, 304
-0.981524, 113, 65, 176, 128
-0.981555, 165, 161, 196, 224
-0.981595, 129, 113, 160, 240
-0.981607, 289, 1, 352, 256
-0.981609, 353, 201, 416, 264
-0.981695, 433, 81, 496, 144
-0.981707, 81, 65, 144, 320
-0.981784, 41, 33, 104, 96
-0.981926, 245, 145, 276, 272
-0.981967, 65, 25, 128, 88
-0.981977, 65, 65, 128, 128
-0.982024, 97, 177, 128, 304
-0.982047, 425, 73, 456, 136
-0.982332, 85, 209, 116, 329
-0.98234, 409, 33, 440, 160
-0.982366, 393, 129, 456, 192
-0.982492, 177, 153, 304, 216
-0.982573, 49, 1, 112, 64
-0.982607, 377, 1, 440, 329
-0.982656, 177, 185, 208, 248
-0.982674, 433, 17, 496, 144
-0.982706, 145, 137, 208, 200
-0.982844, 329, 1, 392, 329
-0.982852, 261, 81, 292, 144
-0.982979, 265, 65, 296, 192
-0.983021, 265, 1, 328, 329
-0.983035, 349, 193, 380, 320
-0.983045, 321, 57, 384, 120
-0.98312, 73, 161, 104, 288
-0.983129, 113, 257, 144, 320
-0.983173, 281, 177, 344, 240
-0.983188, 73, 1, 136, 64
-0.983224, 401, 33, 464, 288
-0.983254, 33, 185, 160, 248
-0.983277, 225, 1, 352, 128
-0.983312, 305, 81, 368, 144
-0.983323, 257, 89, 384, 152
-0.98339, 241, 193, 368, 256
-0.983418, 133, 121, 164, 184
-0.983421, 73, 193, 104, 256
-0.983445, 81, 89, 144, 152
-0.983453, 369, 1, 496, 128
-0.983559, 49, 153, 112, 216
-0.98363, 169, 25, 232, 88
-0.983649, 113, 81, 240, 144
-0.983819, 249, 17, 312, 80
-0.983827, 233, 177, 296, 240
-0.983907, 245, 97, 276, 224
-0.983915, 313, 177, 376, 240
-0.984001, 193, 1, 256, 64
-0.984031, 217, 217, 248, 280
-0.984068, 241, 1, 304, 329
-0.984069, 93, 169, 124, 232
-0.984146, 177, 81, 304, 144
-0.984157, 337, 97, 464, 160
-0.984173, 265, 113, 296, 176
-0.984233, 177, 209, 304, 272
-0.984276, 289, 1, 352, 329
-0.984294, 185, 161, 216, 288
-0.984332, 285, 113, 316, 176
-0.984333, 25, 225, 88, 288
-0.984362, 225, 169, 352, 232
-0.984369, 393, 41, 424, 104
-0.984505, 261, 129, 292, 256
-0.984537, 129, 169, 160, 232
-0.984548, 101, 249, 132, 312
-0.984614, 153, 225, 184, 288
-0.984656, 365, 41, 396, 104
-0.984702, 177, 57, 240, 120
-0.984704, 397, 33, 428, 160
-0.984713, 81, 161, 112, 224
-0.984765, 9, 65, 72, 128
-0.984797, 401, 97, 432, 160
-0.984798, 17, 153, 144, 216
-0.984855, 25, 185, 88, 248
-0.984935, 113, 25, 144, 88
-0.985011, 393, 1, 456, 128
-0.985041, 225, 121, 256, 184
-0.985089, 145, 25, 176, 88
-0.985093, 133, 65, 164, 192
-0.98516, 305, 209, 368, 329
-0.985196, 409, 49, 440, 112
-0.985235, 153, 145, 184, 272
-0.98529, 417, 49, 480, 112
-0.985354, 377, 41, 408, 104
-0.985378, 233, 249, 296, 312
-0.98541, 349, 57, 380, 120
-0.985414, 17, 1, 80, 256
-0.985503, 369, 1, 400, 128
-0.985554, 41, 249, 104, 312
-0.985556, 221, 65, 252, 192
-0.985584, 105, 89, 168, 152
-0.985777, 229, 193, 260, 320
-0.985804, 289, 177, 416, 240
-0.985807, 273, 89, 304, 152
-0.985813, 421, 49, 452, 176
-0.985855, 153, 1, 216, 329
-0.985938, 233, 145, 264, 208
-0.985984, 353, 49, 384, 176
-0.985989, 269, 209, 300, 329
-0.986017, 81, 233, 112, 296
-0.986022, 289, 201, 416, 264
-0.986044, 109, 105, 140, 168
-0.986094, 393, 121, 424, 184
-0.986127, 165, 217, 196, 280
-0.986158, 213, 129, 244, 192
-0.986183, 201, 105, 232, 168
-0.986212, 233, 81, 264, 208
-0.986215, 85, 129, 116, 256
-0.98625, 141, 169, 172, 232
-0.986289, 257, 65, 384, 128
-0.986304, 169, 1, 232, 64
-0.986318, 273, 41, 400, 104
-0.986334, 413, 73, 444, 136
-0.986376, 249, 49, 312, 112
-0.986394, 385, 113, 416, 240
-0.986404, 273, 57, 336, 120
-0.986473, 229, 225, 260, 288
-0.986493, 145, 137, 176, 200
-0.986518, 241, 97, 272, 160
-0.986546, 1, 225, 64, 288
-0.986562, 193, 201, 224, 264
-0.986597, 237, 121, 268, 184
-0.986601, 241, 129, 368, 192
-0.986612, 17, 249, 144, 312
-0.986632, 105, 185, 136, 248
-0.986649, 417, 129, 480, 256
-0.986678, 105, 153, 136, 216
-0.986689, 113, 17, 144, 144
-0.986693, 377, 193, 440, 320
-0.986694, 89, 49, 152, 112
-0.986704, 433, 105, 496, 168
-0.986715, 41, 1, 104, 256
-0.986753, 425, 1, 488, 256
-0.986755, 321, 33, 384, 96
-0.986833, 245, 145, 276, 208
-0.986847, 81, 1, 144, 329
-0.986875, 21, 1, 52, 128
-0.986969, 225, 57, 288, 120
-0.986982, 345, 121, 408, 184
-0.987014, 397, 97, 428, 224
-0.98702, 129, 161, 160, 288
-0.987046, 93, 217, 124, 280
-0.98708, 121, 113, 152, 176
-0.987115, 345, 17, 408, 80
-0.987117, 337, 121, 464, 184
-0.987174, 61, 177, 92, 304
-0.987237, 385, 97, 416, 160
-0.987238, 217, 193, 248, 320
-0.987243, 121, 65, 152, 192
-0.987268, 373, 49, 404, 176
-0.987276, 273, 113, 304, 240
-0.987314, 153, 161, 184, 224
-0.987324, 65, 17, 192, 80
-0.987335, 225, 1, 256, 64
-0.987347, 281, 1, 344, 64
-0.987355, 265, 201, 296, 264
-0.987444, 337, 97, 400, 224
-0.987488, 401, 1, 464, 329
-0.987494, 93, 145, 124, 208
-0.987529, 225, 25, 288, 88
-0.987579, 117, 161, 148, 224
-0.987652, 329, 201, 360, 264
-0.987668, 209, 113, 240, 240
-0.987729, 177, 57, 304, 120
-0.987785, 177, 1, 240, 329
-0.987832, 305, 9, 368, 72
-0.987929, 17, 89, 144, 152
-0.987985, 1, 193, 64, 320
-0.988037, 1, 65, 128, 128
-0.988072, 353, 209, 416, 329
-0.988112, 101, 33, 132, 160
-0.988215, 437, 81, 468, 208
-0.988218, 65, 129, 128, 192
-0.988261, 437, 81, 468, 144
-0.988317, 337, 145, 464, 208
-0.988361, 417, 129, 480, 192
-0.988465, 369, 201, 400, 264
-0.988484, 149, 1, 180, 128
-0.988524, 273, 153, 400, 216
-0.988546, 273, 129, 336, 192
-0.988592, 253, 201, 284, 264
-0.988606, 81, 41, 208, 104
-0.988632, 129, 25, 256, 88
-0.988638, 241, 169, 272, 232
-0.988647, 281, 81, 344, 144
-0.98868, 65, 169, 96, 232
-0.988685, 345, 169, 408, 232
-0.988808, 257, 169, 320, 232
-0.9889, 153, 97, 184, 224
-0.988907, 157, 49, 188, 176
-0.98894, 185, 161, 216, 224
-0.98898, 337, 185, 464, 248
-0.988982, 121, 193, 152, 256
-0.989013, 333, 65, 364, 128
-0.989018, 285, 113, 316, 240
-0.989167, 153, 249, 216, 312
-0.989171, 385, 153, 448, 216
-0.989181, 281, 49, 312, 176
-0.989193, 221, 17, 252, 144
-0.989215, 417, 97, 448, 224
-0.989252, 1, 9, 128, 72
-0.989262, 65, 217, 96, 280
-0.989262, 253, 193, 284, 320
-0.989277, 133, 201, 164, 264
-0.989284, 165, 209, 196, 329
-0.989294, 165, 1, 196, 128
-0.989307, 177, 209, 208, 272
-0.989369, 153, 201, 216, 232
-0.989384, 17, 249, 80, 312
-0.989408, 421, 49, 452, 112
-0.98941, 177, 33, 304, 96
-0.989425, 33, 97, 96, 224
-0.989428, 273, 225, 304, 288
-0.989431, 321, 25, 448, 88
-0.989508, 201, 129, 232, 192
-0.989548, 85, 17, 116, 144
-0.989576, 253, 49, 284, 176
-0.989578, 1, 201, 64, 264
-0.989609, 249, 73, 280, 136
-0.989616, 53, 1, 84, 64
-0.98962, 397, 73, 428, 136
-0.989631, 221, 193, 252, 256
-0.989631, 25, 145, 88, 208
-0.989687, 185, 113, 216, 240
-0.989699, 297, 145, 360, 208
-0.989802, 241, 17, 272, 144
-0.989805, 349, 225, 380, 288
-0.989828, 113, 245, 176, 276
-0.989887, 177, 213, 240, 244
-0.989888, 1, 129, 128, 192
-0.989897, 257, 17, 384, 80
-0.989915, 165, 49, 196, 112
-0.989932, 305, 185, 336, 248
-0.989948, 33, 185, 288, 248
-0.989973, 129, 185, 192, 216
-0.989975, 225, 25, 256, 88
-0.990046, 369, 177, 432, 240
-0.990082, 153, 189, 216, 220
-0.990101, 17, 41, 144, 104
-0.990118, 345, 97, 376, 160
-0.990133, 69, 33, 100, 96
-0.990202, 373, 177, 404, 304
-0.990286, 145, 213, 208, 244
-0.990288, 205, 209, 236, 329
-0.990289, 169, 113, 200, 240
-0.99032, 89, 25, 120, 88
-0.990331, 21, 1, 52, 64
-0.990372, 57, 1, 120, 329
-0.990379, 377, 45, 440, 76
-0.990389, 57, 33, 88, 96
-0.990399, 85, 193, 116, 256
-0.990401, 53, 17, 84, 144
-0.990409, 209, 33, 240, 160
-0.990424, 81, 161, 144, 192
-0.990434, 113, 265, 240, 328
-0.990456, 233, 221, 296, 252
-0.990488, 241, 225, 304, 288
-0.990495, 333, 33, 364, 160
-0.990557, 281, 177, 312, 304
-0.990583, 385, 73, 416, 136
-0.990627, 213, 81, 244, 144
-0.990676, 257, 97, 500, 160
-0.990693, 357, 1, 388, 128
-0.990719, 77, 65, 108, 128
-0.99072, 145, 1, 272, 64
-0.990775, 33, 217, 288, 280
-0.990779, 25, 1, 88, 329
-0.990779, 9, 1, 40, 128
-0.990799, 105, 209, 136, 272
-0.990801, 229, 97, 260, 160
-0.990809, 121, 225, 184, 256
-0.990813, 89, 221, 152, 252
-0.990832, 201, 145, 264, 176
-0.990839, 145, 249, 208, 280
-0.990841, 97, 261, 160, 292
-0.990877, 241, 129, 304, 160
-0.990884, 21, 209, 52, 272
-0.990905, 217, 121, 280, 152
-0.990918, 89, 241, 152, 272
-0.990926, 393, 113, 456, 144
-0.990926, 345, 93, 408, 124
-0.990926, 65, 197, 128, 228
-0.990941, 229, 249, 260, 312
-0.990959, 225, 209, 288, 240
-0.990968, 185, 113, 248, 144
-0.99097, 329, 225, 392, 256
-0.99098, 105, 161, 168, 192
-0.990989, 361, 161, 392, 288
-0.990993, 209, 105, 272, 136
-0.990998, 177, 225, 240, 256
-0.991003, 401, 25, 464, 88
-0.991023, 129, 25, 192, 56
-0.991025, 97, 113, 352, 176
-0.991028, 129, 169, 192, 200
-0.991032, 121, 13, 184, 44
-0.991041, 313, 105, 376, 168
-0.991056, 289, 33, 352, 96
-0.991064, 89, 173, 152, 204
-0.991071, 361, 73, 392, 136
-0.991072, 177, 185, 240, 216
-0.991092, 153, 169, 216, 200
-0.991112, 217, 241, 280, 272
-0.991132, 197, 145, 228, 272
-0.991149, 321, 193, 352, 320
-0.99115, 145, 229, 208, 260
-0.991157, 121, 261, 184, 292
-0.991187, 257, 149, 320, 180
-0.991203, 433, 49, 464, 112
-0.991203, 289, 121, 416, 184
-0.991228, 209, 221, 272, 252
-0.991258, 329, 205, 392, 236
-0.991267, 49, 209, 112, 240
-0.991271, 401, 61, 464, 92
-0.991273, 97, 289, 160, 320
-0.991274, 133, 9, 164, 72
-0.991282, 305, 193, 336, 320
-0.991309, 369, 61, 432, 92
-0.991318, 201, 57, 264, 120
-0.99132, 97, 17, 160, 48
-0.991322, 381, 121, 412, 184
-0.991349, 173, 25, 204, 88
-0.991382, 197, 65, 228, 192
-0.991403, 177, 1, 208, 128
-0.991406, 385, 73, 448, 104
-0.991412, 233, 153, 296, 184
-0.991425, 117, 81, 148, 144
-0.991427, 201, 157, 264, 188
-0.991441, 253, 1, 284, 128
-0.99147, 353, 49, 416, 80
-0.991484, 177, 197, 240, 228
-0.991507, 73, 209, 136, 240
-0.991512, 401, 101, 464, 132
-0.991512, 89, 189, 152, 220
-0.991517, 57, 89, 120, 152
-0.991521, 105, 29, 168, 60
-0.991533, 105, 121, 168, 152
-0.991543, 105, 1, 168, 32
-0.991556, 113, 149, 176, 180
-0.991564, 297, 201, 360, 232
-0.991574, 169, 101, 232, 132
-0.991575, 393, 85, 456, 116
-0.991588, 97, 209, 160, 240
-0.991589, 73, 209, 104, 329
-0.991591, 257, 201, 320, 232
-0.991643, 57, 221, 120, 252
-0.991649, 337, 73, 400, 104
-0.991674, 273, 117, 336, 148
-0.991677, 305, 145, 336, 272
-0.991697, 129, 1, 192, 32
-0.991707, 129, 37, 192, 68
-0.991727, 65, 185, 128, 216
-0.991737, 337, 105, 400, 136
-0.991742, 9, 9, 72, 40
-0.991742, 233, 13, 296, 44
-0.991744, 89, 109, 152, 140
-0.991744, 197, 177, 228, 240
-0.99176, 241, 89, 304, 120
-0.991765, 425, 1, 488, 329
-0.991777, 241, 117, 304, 148
-0.991788, 265, 129, 328, 160
-0.991796, 129, 1, 160, 128
-0.991805, 225, 165, 288, 196
-0.99181, 425, 81, 488, 112
-0.991811, 65, 173, 128, 204
-0.991812, 145, 57, 208, 88
-0.991817, 9, 73, 72, 104
-0.991841, 361, 113, 424, 144
-0.991844, 161, 17, 192, 80
-0.991855, 121, 209, 184, 240
-0.991856, 81, 1, 144, 32
-0.991857, 105, 61, 168, 92
-0.991872, 313, 89, 376, 120
-0.991872, 73, 253, 136, 284
-0.991879, 169, 129, 232, 160
-0.991909, 329, 237, 392, 268
-0.991913, 241, 105, 304, 136
-0.991918, 237, 25, 268, 88
-0.991921, 393, 125, 456, 156
-0.991925, 225, 217, 352, 280
-0.991946, 29, 209, 60, 329
-0.991947, 225, 253, 288, 284
-0.991947, 113, 133, 176, 164
-0.991952, 177, 81, 240, 112
-0.991979, 121, 197, 184, 228
-0.991979, 209, 133, 272, 164
-0.991989, 201, 201, 264, 232
-0.991997, 265, 57, 296, 120
-0.992002, 145, 117, 208, 148
-0.992004, 369, 93, 432, 124
-0.992005, 233, 141, 296, 172
-0.992011, 217, 93, 280, 124
-0.992011, 57, 161, 120, 192
-0.992025, 345, 61, 408, 92
-0.992033, 41, 69, 104, 100
-0.992043, 273, 189, 336, 220
-0.992054, 425, 97, 488, 128
-0.992054, 1, 33, 64, 64
-0.992056, 65, 233, 128, 264
-0.992064, 369, 125, 432, 156
-0.992065, 257, 213, 320, 244
-0.992075, 257, 161, 320, 192
-0.992085, 65, 13, 128, 44
-0.992098, 145, 153, 208, 184
-0.992103, 25, 21, 88, 52
-0.992134, 145, 13, 208, 44
-0.992134, 425, 69, 488, 100
-0.992135, 161, 45, 224, 76
-0.992152, 25, 205, 88, 236
-0.992155, 25, 41, 56, 104
-0.992167, 97, 277, 160, 308
-0.992178, 201, 21, 264, 52
-0.992181, 273, 93, 336, 124
-0.992202, 185, 65, 216, 128
-0.992207, 333, 225, 364, 288
-0.99221, 161, 189, 192, 220
-0.992234, 133, 249, 164, 280
-0.99224, 65, 65, 192, 128
-0.992256, 145, 1, 176, 64
-0.992256, 265, 105, 328, 136
-0.99226, 169, 29, 232, 60
-0.992262, 145, 137, 208, 168
-0.992272, 117, 1, 148, 64
-0.992277, 313, 189, 376, 220
-0.992311, 41, 189, 104, 220
-0.992323, 73, 65, 136, 96
-0.992335, 233, 1, 296, 32
-0.992339, 333, 89, 364, 152
-0.992342, 345, 37, 408, 68
-0.992353, 81, 257, 112, 320
-0.992354, 289, 213, 352, 244
-0.992356, 101, 25, 132, 88
-0.992362, 73, 113, 104, 240
-0.992369, 425, 109, 488, 140
-0.992374, 137, 69, 200, 100
-0.992374, 313, 101, 376, 132
-0.992386, 185, 49, 216, 176
-0.9924, 125, 261, 156, 292
-0.992412, 177, 209, 208, 329
-0.992425, 253, 241, 284, 304
-0.992446, 281, 1, 312, 128
-0.992457, 413, 97, 444, 160
-0.992499, 225, 73, 480, 136
-0.992504, 393, 113, 424, 144
-0.992578, 285, 193, 316, 256
-0.99258, 169, 213, 200, 244
-0.992581, 349, 33, 380, 96
-0.992607, 189, 213, 220, 244
-0.992615, 65, 89, 192, 152
-0.99267, 377, 17, 440, 80
-0.992673, 181, 193, 212, 224
-0.992677, 97, 97, 128, 160
-0.992682, 333, 161, 364, 288
-0.992698, 169, 201, 200, 232
-0.992707, 137, 261, 168, 292
-0.992726, 425, 81, 456, 112
-0.992728, 117, 249, 148, 280
-0.992737, 1, 1, 64, 329
-0.99275, 129, 201, 384, 264
-0.992759, 269, 105, 300, 136
-0.992762, 149, 177, 180, 208
-0.992768, 9, 113, 72, 240
-0.992769, 145, 245, 176, 276
-0.992776, 245, 157, 276, 188
-0.992782, 353, 225, 384, 256
-0.992813, 73, 197, 104, 228
-0.992819, 409, 169, 472, 232
-0.992823, 257, 121, 500, 184
-0.992835, 345, 1, 376, 128
-0.992837, 209, 109, 240, 140
-0.992841, 349, 209, 380, 240
-0.992849, 261, 137, 292, 200
-0.99285, 233, 153, 264, 184
-0.992851, 77, 209, 108, 240
-0.992852, 97, 157, 128, 188
-0.992852, 133, 277, 164, 308
-0.992853, 221, 125, 252, 156
-0.992859, 233, 65, 264, 128
-0.992872, 153, 229, 184, 260
-0.992872, 241, 217, 272, 248
-0.992874, 93, 185, 124, 216
-0.992876, 265, 121, 296, 152
-0.992877, 393, 45, 424, 76
-0.992894, 101, 1, 132, 64
-0.992903, 149, 213, 180, 244
-0.992909, 133, 65, 164, 128
-0.99291, 389, 101, 420, 132
-0.992914, 129, 161, 384, 224
-0.992921, 261, 89, 292, 120
-0.992926, 121, 165, 152, 196
-0.992928, 437, 77, 468, 108
-0.992939, 405, 113, 436, 144
-0.992949, 221, 217, 252, 248
-0.992961, 41, 1, 72, 128
-0.992964, 97, 89, 352, 152
-0.992965, 129, 225, 160, 256
-0.992966, 161, 177, 192, 208
-0.992966, 253, 245, 284, 276
-0.992971, 265, 209, 296, 240
-0.992985, 393, 125, 424, 156
-0.992988, 245, 145, 276, 176
-0.992994, 285, 121, 316, 152
-0.992997, 213, 97, 244, 128
-0.993004, 165, 233, 196, 264
-0.993006, 137, 177, 168, 208
-0.993012, 377, 113, 408, 144
-0.993013, 241, 205, 272, 236
-0.993021, 373, 97, 404, 160
-0.993027, 109, 161, 140, 192
-0.993037, 133, 289, 164, 320
-0.993049, 121, 237, 152, 268
-0.99305, 265, 17, 296, 144
-0.993058, 277, 93, 308, 124
-0.993059, 101, 221, 132, 252
-0.993066, 121, 177, 152, 208
-0.993067, 373, 49, 404, 80
-0.99307, 225, 41, 352, 104
-0.993071, 177, 181, 208, 212
-0.993075, 417, 69, 448, 100
-0.993078, 273, 133, 304, 164
-0.993084, 225, 25, 256, 56
-0.993087, 261, 221, 292, 252
-0.99309, 229, 253, 260, 284
-0.993097, 257, 149, 288, 180
-0.9931, 37, 65, 68, 128
-0.993102, 133, 129, 164, 160
-0.993106, 245, 113, 276, 144
-0.99311, 105, 245, 136, 276
-0.993124, 193, 201, 224, 232
-0.993129, 125, 33, 156, 96
-0.993134, 125, 117, 156, 148
-0.993136, 81, 161, 112, 192
-0.993137, 353, 225, 416, 288
-0.993137, 433, 65, 464, 96
-0.99314, 101, 201, 132, 232
-0.993141, 197, 105, 228, 136
-0.993144, 133, 237, 164, 268
-0.99315, 117, 189, 148, 220
-0.993152, 377, 101, 408, 132
-0.993154, 229, 229, 260, 260
-0.993155, 197, 125, 228, 156
-0.993156, 113, 109, 144, 140
-0.993156, 129, 13, 160, 44
-0.993156, 245, 129, 276, 160
-0.993163, 221, 109, 252, 140
-0.993168, 141, 165, 172, 196
-0.993168, 101, 261, 132, 292
-0.993169, 117, 29, 148, 60
-0.993174, 105, 189, 136, 220
-0.99318, 97, 233, 128, 264
-0.993183, 405, 101, 436, 132
-0.993186, 205, 217, 236, 280
-0.993187, 361, 69, 392, 100
-0.993191, 157, 245, 188, 276
-0.993192, 209, 221, 240, 252
-0.993195, 217, 241, 248, 304
-0.993198, 145, 25, 176, 56
-0.993198, 405, 89, 436, 120
-0.993199, 369, 25, 496, 88
-0.993203, 205, 137, 236, 168
-0.993205, 205, 205, 236, 236
-0.993206, 349, 237, 380, 268
-0.993207, 221, 137, 252, 168
-0.993207, 265, 241, 296, 272
-0.993209, 141, 189, 172, 220
-0.993217, 113, 265, 144, 296
-0.993226, 233, 105, 264, 136
-0.993228, 369, 113, 400, 240
-0.99323, 81, 285, 112, 316
-0.993237, 81, 185, 112, 216
-0.993237, 405, 125, 436, 156
-0.993241, 153, 257, 184, 288
-0.993243, 245, 169, 276, 200
-0.993243, 149, 201, 180, 232
-0.993248, 61, 209, 92, 240
-0.993249, 349, 69, 380, 100
-0.993252, 157, 165, 188, 196
-0.993256, 165, 57, 196, 88
-0.993256, 437, 97, 468, 128
-0.993262, 233, 141, 264, 172
-0.993264, 217, 253, 248, 284
-0.993266, 253, 205, 284, 236
-0.993266, 221, 205, 252, 236
-0.993267, 333, 225, 364, 256
-0.993269, 117, 17, 148, 48
-0.99327, 173, 45, 204, 76
-0.993271, 209, 121, 240, 152
-0.993273, 261, 133, 292, 164
-0.993273, 69, 221, 100, 252
-0.993274, 117, 221, 148, 252
-0.993275, 133, 61, 164, 92
-0.993276, 233, 117, 264, 148
-0.993278, 93, 293, 124, 324
-0.993279, 285, 109, 316, 140
-0.993279, 129, 1, 160, 32
-0.99328, 137, 153, 168, 184
-0.99328, 81, 173, 112, 204
-0.99328, 273, 221, 304, 252
-0.99328, 341, 89, 372, 120
-0.993342, 105, 65, 136, 128
-0.993343, 33, 137, 288, 200
-0.993371, 421, 121, 452, 184
-0.99338, 1, 121, 500, 184
-0.993387, 353, 145, 416, 208
-0.993499, 337, 209, 464, 272
-0.993504, 297, 17, 328, 144
-0.993526, 409, 145, 440, 272
-0.993585, 341, 81, 372, 208
-0.993654, 9, 49, 40, 176
-0.993669, 377, 201, 440, 264
-0.993763, 1, 49, 500, 112
-0.99377, 129, 49, 256, 112
-0.993775, 69, 1, 100, 128
-0.993852, 425, 1, 456, 128
-0.993905, 209, 1, 336, 64
-0.993962, 1, 145, 64, 208
-0.993997, 193, 241, 256, 304
-0.994031, 139, 257, 154, 320
-0.994075, 161, 241, 288, 304
-0.99417, 57, 129, 88, 256
-0.994219, 257, 49, 500, 112
-0.99436, 81, 201, 208, 232
-0.994393, 437, 33, 468, 160
-0.994466, 397, 145, 428, 272
-0.994483, 65, 241, 320, 304
-0.994501, 1, 113, 256, 176
-0.994536, 77, 65, 108, 192
-0.994617, 81, 189, 208, 220
-0.994623, 33, 161, 288, 224
-0.994628, 81, 213, 208, 244
-0.994632, 169, 65, 200, 192
-0.994652, 321, 1, 448, 64
-0.994704, 289, 233, 416, 296
-0.99476, 263, 121, 278, 184
-0.994772, 1, 97, 500, 160
-0.994784, 25, 49, 56, 176
-0.994807, 145, 201, 272, 232
-0.994831, 293, 161, 324, 288
-0.994833, 41, 49, 72, 176
-0.994864, 145, 49, 176, 176
-0.994865, 161, 49, 416, 112
-0.994898, 193, 121, 320, 152
-0.994906, 145, 257, 160, 320
-0.994931, 249, 137, 264, 200
-0.99494, 337, 85, 464, 116
-0.995052, 179, 177, 194, 240
-0.995087, 1, 73, 500, 136
-0.995152, 129, 257, 144, 320
-0.99521, 125, 225, 140, 288
-0.995241, 159, 217, 174, 280
-0.995257, 1, 89, 256, 152
-0.995273, 177, 101, 304, 132
-0.995285, 161, 265, 288, 328
-0.995306, 1, 193, 500, 256
-0.995386, 145, 153, 272, 184
-0.995395, 179, 201, 194, 264
-0.995401, 97, 245, 224, 276
-0.995439, 149, 185, 164, 248
-0.995441, 151, 249, 166, 312
-0.995445, 129, 117, 256, 148
-0.995453, 1, 41, 256, 104
-0.995458, 257, 169, 500, 232
-0.995466, 313, 1, 344, 128
-0.995473, 233, 233, 248, 296
-0.995476, 257, 145, 500, 208
-0.995481, 421, 49, 436, 112
-0.995488, 129, 137, 384, 200
-0.995502, 337, 209, 368, 329
-0.995549, 421, 145, 452, 272
-0.995554, 185, 185, 200, 248
-0.995565, 81, 169, 208, 200
-0.995572, 129, 137, 256, 168
-0.995593, 161, 213, 288, 244
-0.995605, 239, 145, 254, 208
-0.995681, 33, 249, 160, 280
-0.995688, 321, 145, 352, 272
-0.995688, 81, 229, 208, 260
-0.99569, 385, 161, 416, 288
-0.995707, 65, 149, 192, 180
-0.995709, 215, 105, 230, 168
-0.995711, 193, 157, 320, 188
-0.995723, 249, 161, 264, 224
-0.995731, 177, 89, 304, 120
-0.995732, 193, 133, 320, 164
-0.995741, 145, 233, 160, 296
-0.995805, 261, 89, 276, 152
-0.995821, 193, 209, 224, 329
-0.995827, 135, 233, 150, 296
-0.995839, 159, 185, 174, 248
-0.995844, 119, 233, 134, 296
-0.995874, 345, 209, 360, 272
-0.995892, 337, 57, 464, 88
-0.995896, 165, 177, 180, 240
-0.9959, 145, 189, 272, 220
-0.99591, 287, 97, 302, 160
-0.995913, 255, 145, 270, 208
-0.995919, 225, 201, 480, 264
-0.995923, 1, 25, 500, 88
-0.99595, 347, 65, 362, 128
-0.995952, 403, 97, 418, 160
-0.995976, 271, 97, 286, 160
-0.995979, 413, 73, 428, 136
-0.995993, 223, 217, 238, 280
-0.996012, 127, 169, 142, 232
-0.99603, 371, 217, 386, 280
-0.996042, 145, 249, 272, 280
-0.996048, 257, 121, 272, 184
-0.996095, 257, 101, 384, 132
-0.996117, 449, 49, 480, 176
-0.996129, 257, 209, 272, 272
-0.996139, 105, 257, 120, 320
-0.996142, 1, 169, 500, 232
-0.99615, 337, 117, 464, 148
-0.996152, 337, 97, 464, 128
-0.996167, 209, 105, 224, 168
-0.996192, 397, 113, 412, 176
-0.996192, 443, 65, 458, 128
-0.996195, 249, 65, 280, 320
-0.996213, 411, 49, 426, 112
-0.996222, 113, 105, 240, 136
-0.996231, 149, 129, 164, 192
-0.996241, 231, 209, 246, 272
-0.996248, 293, 65, 324, 192
-0.996259, 75, 169, 90, 232
-0.996278, 385, 33, 416, 288
-0.996299, 209, 249, 336, 312
-0.99631, 173, 177, 188, 240
-0.99631, 189, 1, 220, 128
-0.996331, 267, 233, 282, 296
-0.996334, 117, 185, 132, 248
-0.996341, 97, 169, 112, 232
-0.99636, 59, 1, 74, 64
-0.99636, 157, 249, 172, 312
-0.996362, 119, 161, 134, 224
-0.996372, 397, 41, 412, 104
-0.996373, 1, 213, 128, 244
-0.996381, 49, 209, 80, 329
-0.996389, 281, 89, 296, 152
-0.996389, 65, 261, 192, 292
-0.996395, 85, 193, 100, 256
-0.996399, 133, 65, 164, 320
-0.996403, 129, 169, 256, 200
-0.996406, 337, 73, 464, 104
-0.996409, 65, 137, 192, 168
-0.996422, 85, 161, 100, 224
-0.996456, 241, 209, 256, 272
-0.996469, 225, 25, 480, 88
-0.996472, 5, 193, 36, 320
-0.996473, 435, 81, 450, 144
-0.996482, 355, 201, 370, 264
-0.9965, 351, 89, 366, 152
-0.996515, 193, 201, 320, 232
-0.996522, 1, 145, 500, 208
-0.996528, 371, 193, 386, 256
-0.996539, 373, 41, 388, 104
-0.996544, 113, 153, 128, 216
-0.996549, 145, 237, 272, 268
-0.996574, 243, 169, 258, 232
-0.996574, 267, 201, 282, 264
-0.996602, 337, 129, 464, 160
-0.996615, 379, 41, 394, 104
-0.996634, 193, 145, 320, 176
-0.996637, 151, 225, 166, 288
-0.996638, 115, 105, 130, 168
-0.996645, 189, 209, 204, 272
-0.996666, 139, 169, 154, 232
-0.996681, 257, 113, 384, 144
-0.996682, 165, 217, 180, 280
-0.99669, 193, 169, 320, 200
-0.996694, 33, 229, 160, 260
-0.996695, 243, 121, 258, 184
-0.996698, 101, 145, 116, 208
-0.9967, 137, 121, 152, 184
-0.996704, 289, 121, 304, 184
-0.996727, 391, 41, 406, 104
-0.996729, 435, 57, 450, 120
-0.99673, 217, 129, 232, 192
-0.996745, 261, 145, 276, 208
-0.996745, 113, 225, 128, 288
-0.996747, 1, 157, 128, 188
-0.996749, 95, 265, 110, 328
-0.996752, 295, 113, 310, 176
-0.996761, 235, 121, 250, 184
-0.996766, 131, 113, 146, 176
-0.996783, 369, 33, 400, 288
-0.996794, 251, 113, 266, 176
-0.996799, 161, 225, 288, 256
-0.996803, 75, 193, 90, 256
-0.996804, 275, 217, 290, 280
-0.996806, 409, 33, 440, 288
-0.996808, 65, 65, 320, 128
-0.99681, 391, 121, 406, 184
-0.996812, 17, 197, 144, 228
-0.996819, 27, 1, 42, 64
-0.996823, 317, 65, 348, 192
-0.996826, 269, 65, 300, 320
-0.996837, 361, 201, 376, 264
-0.996839, 223, 105, 238, 168
-0.996839, 97, 217, 112, 280
-0.99684, 117, 65, 148, 320
-0.996845, 357, 57, 372, 120
-0.996859, 97, 93, 224, 124
-0.996859, 65, 125, 192, 156
-0.996874, 419, 73, 434, 136
-0.996878, 123, 193, 138, 256
-0.996879, 241, 201, 368, 232
-0.996886, 405, 121, 420, 184
-0.996888, 81, 41, 96, 104
-0.996896, 65, 265, 320, 328
-0.996897, 415, 97, 430, 160
-0.996902, 229, 1, 244, 64
-0.996909, 65, 289, 192, 320
-0.996923, 129, 17, 384, 80
-0.996931, 159, 137, 174, 200
-0.996935, 257, 89, 384, 120
-0.99694, 149, 161, 164, 224
-0.996955, 335, 201, 350, 264
-0.99696, 159, 161, 174, 224
-0.996993, 91, 153, 106, 216
-0.997015, 389, 89, 404, 152
-0.997015, 427, 49, 442, 112
-0.997025, 255, 65, 270, 128
-0.997031, 49, 41, 64, 104
-0.997031, 195, 201, 210, 264
-0.99704, 337, 45, 464, 76
-0.99705, 141, 33, 156, 96
-0.997055, 143, 121, 158, 184
-0.997055, 65, 65, 96, 192
-0.997057, 229, 65, 260, 320
-0.997057, 107, 145, 122, 208
-0.99706, 395, 89, 410, 152
-0.997061, 209, 217, 336, 248
-0.997073, 385, 49, 400, 112
-0.99708, 113, 33, 128, 96
-0.997083, 427, 73, 442, 136
-0.99709, 17, 181, 144, 212
-0.997094, 361, 209, 392, 329
-0.997097, 193, 185, 320, 216
-0.997099, 337, 149, 464, 180
-0.997101, 397, 1, 428, 256
-0.997126, 89, 233, 104, 296
-0.997135, 235, 1, 250, 64
-0.997136, 273, 189, 400, 220
-0.997138, 165, 153, 180, 216
-0.997146, 173, 201, 188, 264
-0.997169, 279, 113, 294, 176
-0.997171, 139, 257, 154, 288
-0.997175, 345, 233, 360, 296
-0.997187, 139, 277, 154, 308
-0.997205, 367, 49, 382, 112
-0.997234, 177, 77, 304, 108
-0.997238, 149, 65, 180, 320
-0.997248, 231, 257, 246, 320
-0.997253, 405, 49, 420, 112
-0.997263, 113, 249, 128, 312
-0.997272, 257, 77, 384, 108
-0.997283, 191, 177, 206, 240
-0.997289, 257, 125, 384, 156
-0.997298, 133, 169, 148, 232
-0.997299, 241, 233, 256, 296
-0.997302, 273, 153, 400, 184
-0.997302, 345, 97, 360, 160
-0.997305, 49, 113, 176, 144
-0.997306, 233, 185, 248, 248
-0.99732, 125, 89, 140, 152
-0.997338, 399, 113, 414, 144
-0.99735, 349, 145, 380, 272
-0.997373, 101, 65, 132, 320
-0.997407, 161, 225, 416, 288
-0.997412, 357, 33, 388, 288
-0.997416, 273, 137, 400, 168
-0.997419, 293, 209, 324, 329
-0.997456, 1, 217, 500, 280
-0.997461, 217, 65, 248, 320
-0.997468, 131, 265, 146, 296
-0.997484, 257, 45, 384, 76
-0.997487, 113, 261, 240, 292
-0.997492, 243, 153, 258, 184
-0.997499, 193, 205, 208, 236
-0.997507, 33, 17, 288, 80
-0.997518, 175, 189, 190, 220
-0.997545, 369, 1, 496, 64
-0.997551, 145, 265, 160, 296
-0.997551, 289, 213, 416, 244
-0.997552, 345, 225, 360, 256
-0.997558, 251, 157, 266, 188
-0.997581, 145, 253, 160, 284
-0.997591, 371, 225, 386, 256
-0.99762, 231, 249, 246, 280
-0.997624, 265, 241, 280, 272
-0.997644, 17, 169, 144, 200
-0.997686, 183, 193, 198, 224
-0.997686, 81, 33, 208, 64
-0.997694, 187, 213, 202, 244
-0.997745, 167, 189, 182, 220
-0.99776, 161, 65, 192, 320
-0.997765, 433, 129, 464, 256
-0.997766, 233, 217, 248, 248
-0.997774, 337, 161, 464, 192
-0.997776, 129, 45, 256, 76
-0.997791, 107, 157, 122, 188
-0.997793, 285, 121, 300, 152
-0.997808, 353, 233, 480, 296
-0.997812, 193, 37, 320, 68
-0.997819, 413, 49, 428, 80
-0.997822, 135, 241, 150, 272
-0.997832, 159, 209, 174, 240
-0.997852, 273, 57, 400, 88
-0.997853, 273, 169, 400, 200
-0.997872, 205, 33, 236, 288
-0.997872, 389, 117, 404, 148
-0.997878, 257, 157, 272, 188
-0.997881, 213, 109, 228, 140
-0.997886, 153, 249, 168, 280
-0.997887, 277, 89, 292, 120
-0.997893, 133, 253, 148, 284
-0.997901, 151, 261, 166, 292
-0.997904, 421, 65, 452, 320
-0.997915, 117, 189, 132, 220
-0.997934, 395, 45, 410, 76
-0.997948, 257, 145, 272, 176
-0.997948, 25, 161, 56, 288
-0.99795, 405, 113, 420, 144
-0.997953, 85, 65, 116, 320
-0.997972, 437, 77, 452, 108
-0.997977, 281, 101, 296, 132
-0.997981, 267, 213, 282, 244
-0.997986, 143, 289, 158, 320
-0.997996, 293, 1, 324, 256
-0.998, 181, 213, 196, 244
-0.998006, 17, 41, 144, 72
-0.998006, 341, 33, 372, 288
-0.998023, 271, 105, 286, 136
-0.998038, 225, 57, 352, 88
-0.998039, 165, 173, 180, 204
-0.998039, 95, 285, 110, 316
-0.99805, 125, 245, 140, 276
-0.998065, 413, 89, 428, 120
-0.998075, 75, 201, 90, 232
-0.998075, 421, 49, 436, 80
-0.998084, 109, 169, 124, 200
-0.99809, 351, 93, 366, 124
-0.998091, 401, 49, 416, 80
-0.998092, 353, 97, 384, 224
-0.998092, 213, 97, 228, 128
-0.998096, 387, 85, 402, 116
-0.998101, 135, 121, 150, 152
-0.998103, 147, 241, 162, 272
-0.998106, 263, 121, 278, 152
-0.998108, 305, 201, 432, 232
-0.998125, 199, 201, 214, 232
-0.998125, 423, 77, 438, 108
-0.998131, 157, 193, 172, 224
-0.998132, 159, 229, 174, 260
-0.998133, 245, 141, 260, 172
-0.998136, 101, 157, 116, 188
-0.998138, 69, 205, 84, 236
-0.998143, 407, 49, 422, 80
-0.998143, 213, 125, 228, 156
-0.998148, 151, 173, 166, 204
-0.998152, 223, 221, 238, 252
-0.998155, 1, 69, 128, 100
-0.998158, 117, 169, 132, 200
-0.998158, 251, 145, 266, 176
-0.99816, 389, 45, 404, 76
-0.998165, 65, 53, 192, 84
-0.998183, 399, 125, 414, 156
-0.998183, 33, 101, 160, 132
-0.998187, 193, 217, 208, 248
-0.998189, 1, 17, 128, 48
-0.998197, 417, 65, 432, 96
-0.998197, 111, 189, 126, 220
-0.998201, 159, 245, 174, 276
-0.998201, 361, 205, 376, 236
-0.99821, 133, 169, 148, 200
-0.99821, 141, 177, 156, 208
-0.998216, 345, 213, 360, 244
-0.998218, 85, 189, 100, 220
-0.99822, 223, 101, 238, 132
-0.998222, 123, 233, 138, 264
-0.998229, 281, 65, 312, 320
-0.998232, 177, 177, 192, 208
-0.998235, 145, 25, 272, 56
-0.998249, 261, 109, 276, 140
-0.998249, 235, 149, 250, 180
-0.998249, 203, 213, 218, 244
-0.99825, 231, 109, 246, 140
-0.998256, 177, 65, 304, 96
-0.99826, 243, 213, 258, 244
-0.998263, 93, 185, 108, 216
-0.998263, 295, 121, 310, 152
-0.998266, 411, 113, 426, 144
-0.998268, 407, 125, 422, 156
-0.998268, 321, 1, 352, 256
-0.998271, 381, 85, 396, 116
-0.998272, 123, 189, 138, 220
-0.998273, 187, 225, 202, 256
-0.998275, 91, 161, 106, 192
-0.998281, 17, 145, 144, 176
-0.998283, 17, 285, 144, 316
-0.998284, 267, 225, 282, 256
-0.998286, 177, 33, 208, 288
-0.998286, 65, 1, 96, 256
-0.998296, 263, 153, 278, 184
-0.998303, 225, 121, 240, 152
-0.998304, 127, 169, 142, 200
-0.998321, 129, 81, 256, 112
-0.998322, 113, 157, 128, 188
-0.998325, 117, 249, 132, 280
-0.998332, 235, 229, 250, 260
-0.998335, 125, 257, 140, 288
-0.998339, 165, 229, 180, 260
-0.998353, 337, 173, 464, 204
-0.998355, 241, 223, 272, 238
-0.998355, 245, 165, 260, 196
-0.998355, 101, 227, 132, 242
-0.998356, 341, 97, 372, 112
-0.998356, 333, 237, 364, 252
-0.998357, 149, 193, 180, 208
-0.998357, 369, 237, 400, 252
-0.998357, 265, 257, 296, 272
-0.998357, 73, 183, 104, 198
-0.998357, 245, 115, 276, 130
-0.998358, 431, 77, 446, 108
-0.998359, 257, 103, 288, 118
-0.998359, 109, 169, 140, 184
-0.998359, 113, 35, 144, 50
-0.998361, 145, 203, 176, 218
-0.998361, 221, 131, 252, 146
-0.998362, 97, 297, 112, 328
-0.998364, 45, 73, 76, 88
-0.998364, 253, 153, 284, 168
-0.998364, 197, 107, 228, 122
-0.998366, 349, 223, 380, 238
-0.998368, 357, 207, 388, 222
-0.998369, 121, 181, 152, 196
-0.998369, 117, 237, 132, 268
-0.99837, 231, 121, 246, 152
-0.99837, 177, 201, 192, 232
-0.99837, 181, 221, 212, 236
-0.99837, 405, 121, 436, 136
-0.998371, 209, 121, 240, 136
-0.998371, 217, 263, 248, 278
-0.998371, 217, 137, 248, 152
-0.998372, 261, 247, 292, 262
-0.998372, 285, 121, 316, 136
-0.998372, 229, 263, 260, 278
-0.998372, 73, 203, 104, 218
-0.998373, 109, 191, 140, 206
-0.998373, 165, 177, 196, 192
-0.998374, 193, 207, 224, 222
-0.998374, 177, 49, 304, 80
-0.998375, 447, 73, 462, 104
-0.998375, 157, 257, 188, 272
-0.998375, 201, 213, 232, 228
-0.998376, 81, 189, 112, 204
-0.998376, 161, 235, 192, 250
-0.998377, 185, 189, 216, 204
-0.998377, 249, 123, 280, 138
-0.998377, 233, 159, 264, 174
-0.998377, 391, 105, 406, 136
-0.998379, 81, 163, 112, 178
-0.99838, 381, 119, 412, 134
-0.99838, 261, 121, 292, 136
-0.99838, 405, 113, 436, 128
-0.998383, 207, 109, 222, 140
-0.998383, 377, 49, 408, 64
-0.998384, 289, 105, 304, 136
-0.998387, 225, 257, 256, 272
-0.998387, 157, 169, 188, 184
-0.998387, 371, 213, 386, 244
-0.998388, 377, 113, 408, 128
-0.998389, 401, 49, 432, 64
-0.998389, 129, 225, 160, 240
-0.99839, 237, 171, 268, 186
-0.99839, 201, 115, 232, 130
-0.99839, 117, 247, 148, 262
-0.998394, 257, 89, 288, 104
-0.998395, 113, 293, 240, 324
-0.998398, 433, 87, 464, 102
-0.998398, 417, 89, 448, 104
-0.998398, 133, 279, 164, 294
-0.998399, 245, 147, 276, 162
-0.998399, 201, 133, 232, 148
-0.9984, 141, 125, 156, 156
-0.9984, 153, 183, 184, 198
-0.9984, 281, 105, 312, 120
-0.998401, 73, 211, 104, 226
-0.998402, 209, 221, 240, 236
-0.998403, 273, 205, 288, 236
-0.998404, 253, 253, 284, 268
-0.998404, 153, 233, 168, 264
-0.998404, 261, 133, 292, 148
-0.998404, 83, 165, 98, 196
-0.998404, 137, 171, 168, 186
-0.998405, 273, 135, 304, 150
-0.998405, 137, 179, 168, 194
-0.998405, 157, 169, 172, 200
-0.998406, 149, 211, 180, 226
-0.998407, 141, 187, 172, 202
-0.998408, 265, 113, 296, 128
-0.99841, 173, 191, 204, 206
-0.99841, 149, 227, 180, 242
-0.99841, 125, 253, 156, 268
-0.998411, 241, 153, 272, 168
-0.998411, 133, 285, 164, 300
-0.998414, 217, 137, 232, 168
-0.998414, 405, 101, 420, 132
-0.998414, 233, 121, 264, 136
-0.998414, 221, 219, 252, 234
-0.998415, 285, 129, 316, 144
-0.998415, 93, 185, 124, 200
-0.998416, 117, 239, 148, 254
-0.998416, 165, 185, 196, 200
-0.998416, 169, 221, 200, 236
-0.998417, 153, 243, 184, 258
-0.998417, 81, 221, 112, 236
-0.998418, 149, 235, 180, 250
-0.998419, 173, 207, 204, 222
-0.998421, 353, 229, 384, 244
-0.998423, 161, 213, 192, 228
-0.998423, 389, 51, 420, 66
-0.998423, 237, 161, 252, 192
-0.998424, 169, 229, 200, 244
-0.998424, 133, 245, 164, 260
-0.998427, 153, 249, 184, 264
-0.998428, 171, 177, 186, 208
-0.998429, 137, 267, 168, 282
-0.998431, 267, 93, 282, 124
-0.998432, 137, 297, 168, 312
-0.998433, 391, 129, 406, 160
-0.998434, 357, 237, 388, 252
-0.998435, 321, 185, 448, 216
-0.998436, 117, 259, 148, 274
-0.998436, 109, 163, 140, 178
-0.998437, 169, 213, 184, 244
-0.99844, 273, 123, 304, 138
-0.998441, 221, 225, 252, 240
-0.998442, 221, 125, 252, 140
-0.998443, 433, 75, 464, 90
-0.998447, 261, 127, 292, 142
-0.998449, 213, 107, 244, 122
-0.998451, 207, 121, 222, 152
-0.998453, 393, 115, 424, 130
-0.998454, 249, 167, 280, 182
-0.998454, 417, 77, 448, 92
-0.998455, 121, 173, 152, 188
-0.998458, 133, 291, 164, 306
-0.998458, 345, 237, 376, 252
-0.998459, 241, 217, 272, 232
-0.998461, 177, 197, 208, 212
-0.998461, 265, 219, 296, 234
-0.998464, 143, 165, 158, 196
-0.998464, 287, 93, 302, 124
-0.998467, 193, 219, 224, 234
-0.998468, 119, 157, 134, 188
-0.998469, 233, 165, 264, 180
-0.998471, 149, 177, 180, 192
-0.998472, 421, 83, 452, 98
-0.998472, 145, 261, 176, 276
-0.998484, 137, 253, 168, 268
-0.998486, 161, 201, 192, 216
-0.998488, 433, 81, 464, 96
-0.998488, 213, 115, 244, 130
-0.998488, 189, 213, 220, 228
-0.998496, 393, 123, 424, 138
-0.998502, 129, 191, 192, 206
-0.998502, 161, 207, 192, 222
-0.998502, 433, 1, 464, 256
-0.998509, 185, 221, 248, 236
-0.998512, 245, 159, 276, 174
-0.998514, 173, 215, 204, 230
-0.998515, 369, 185, 496, 216
-0.998518, 125, 265, 156, 280
-0.99852, 113, 249, 176, 264
-0.99852, 97, 161, 128, 176
-0.998528, 81, 163, 144, 178
-0.99853, 161, 199, 224, 214
-0.998533, 113, 243, 176, 258
-0.998534, 145, 213, 208, 228
-0.998537, 329, 235, 392, 250
-0.998538, 233, 221, 296, 236
-0.99854, 393, 123, 456, 138
-0.99854, 37, 161, 68, 288
-0.998541, 209, 215, 272, 230
-0.998545, 153, 205, 216, 220
-0.998548, 113, 255, 176, 270
-0.998548, 257, 33, 384, 64
-0.998551, 185, 213, 248, 228
-0.998554, 105, 261, 168, 276
-0.998555, 369, 49, 432, 64
-0.998556, 161, 193, 224, 208
-0.99856, 161, 191, 192, 206
-0.998562, 233, 125, 296, 140
-0.998565, 121, 167, 184, 182
-0.998568, 53, 81, 84, 208
-0.998569, 129, 175, 192, 190
-0.99857, 209, 165, 272, 180
-0.998578, 113, 19, 176, 34
-0.998583, 265, 125, 328, 140
-0.998585, 1, 241, 500, 304
-0.998586, 89, 247, 152, 262
-0.998586, 185, 115, 248, 130
-0.998586, 209, 125, 272, 140
-0.998587, 329, 241, 392, 256
-0.998587, 153, 223, 216, 238
-0.998588, 257, 21, 384, 52
-0.998588, 97, 1, 224, 32
-0.998589, 145, 251, 208, 266
-0.99859, 81, 185, 144, 200
-0.99859, 393, 75, 456, 90
-0.998591, 353, 197, 480, 228
-0.998592, 217, 255, 280, 270
-0.998593, 1, 29, 128, 60
-0.998594, 385, 115, 448, 130
-0.998595, 249, 163, 312, 178
-0.998596, 153, 187, 216, 202
-0.998597, 265, 133, 328, 148
-0.998598, 97, 223, 160, 238
-0.9986, 177, 109, 240, 124
-0.998602, 121, 13, 184, 28
-0.998603, 133, 259, 164, 274
-0.998604, 145, 181, 208, 196
-0.998604, 97, 25, 160, 40
-0.998605, 105, 179, 168, 194
-0.998606, 193, 207, 256, 222
-0.998608, 129, 261, 192, 276
-0.998609, 329, 97, 392, 112
-0.99861, 233, 131, 296, 146
-0.99861, 153, 171, 216, 186
-0.99861, 137, 243, 200, 258
-0.998611, 297, 207, 360, 222
-0.998612, 113, 31, 176, 46
-0.998613, 121, 7, 184, 22
-0.998614, 369, 65, 432, 80
-0.998614, 393, 109, 456, 124
-0.998614, 121, 185, 184, 200
-0.998616, 129, 25, 192, 40
-0.998616, 97, 297, 160, 312
-0.998616, 209, 223, 272, 238
-0.998618, 65, 205, 128, 220
-0.998619, 273, 205, 336, 220
-0.99862, 329, 229, 392, 244
-0.99862, 185, 121, 248, 136
-0.998621, 177, 135, 240, 150
-0.998621, 193, 159, 256, 174
-0.998622, 129, 237, 192, 252
-0.998622, 353, 55, 416, 70
-0.998622, 129, 201, 192, 216
-0.998622, 393, 129, 456, 144
-0.998622, 65, 213, 128, 228
-0.998623, 209, 131, 272, 146
-0.998624, 329, 209, 392, 224
-0.998624, 233, 119, 296, 134
-0.998625, 89, 169, 152, 184
-0.998627, 177, 187, 240, 202
-0.99863, 353, 95, 416, 110
-0.99863, 209, 105, 272, 120
-0.998631, 97, 125, 160, 140
-0.998631, 217, 155, 280, 170
-0.998631, 113, 267, 176, 282
-0.998632, 393, 99, 456, 114
-0.998633, 57, 227, 120, 242
-0.998633, 265, 119, 328, 134
-0.998633, 377, 55, 440, 70
-0.998634, 385, 91, 448, 106
-0.998634, 121, 161, 184, 176
-0.998635, 57, 219, 120, 234
-0.998635, 233, 215, 296, 230
-0.998636, 257, 219, 320, 234
-0.998636, 177, 103, 240, 118
-0.998636, 121, 231, 184, 246
-0.998636, 177, 227, 240, 242
-0.998637, 361, 119, 424, 134
-0.998637, 345, 61, 408, 76
-0.998638, 49, 163, 112, 178
-0.998638, 257, 157, 320, 172
-0.998639, 401, 65, 464, 80
-0.998639, 353, 101, 416, 116
-0.998639, 9, 77, 72, 92
-0.99864, 209, 111, 272, 126
-0.99864, 89, 241, 152, 256
-0.998641, 65, 199, 128, 214
-0.998642, 161, 163, 224, 178
-0.998642, 129, 1, 192, 16
-0.998643, 97, 291, 160, 306
-0.998643, 361, 127, 424, 142
-0.998643, 89, 213, 152, 228
-0.998643, 105, 63, 168, 78
-0.998644, 241, 113, 304, 128
-0.998645, 289, 213, 352, 228
-0.998645, 97, 13, 160, 28
-0.998645, 129, 207, 192, 222
-0.998646, 201, 147, 264, 162
-0.998646, 425, 81, 488, 96
-0.998646, 105, 1, 168, 16
-0.998648, 121, 223, 184, 238
-0.998649, 329, 87, 392, 102
-0.99865, 105, 191, 168, 206
-0.99865, 57, 233, 120, 248
-0.99865, 113, 135, 176, 150
-0.99865, 329, 223, 392, 238
-0.99865, 177, 129, 240, 144
-0.998651, 209, 229, 272, 244
-0.998651, 409, 87, 472, 102
-0.998653, 233, 89, 296, 104
-0.998653, 385, 81, 448, 96
-0.998653, 233, 169, 296, 184
-0.998654, 233, 227, 296, 242
-0.998654, 89, 229, 152, 244
-0.998655, 25, 27, 88, 42
-0.998655, 305, 33, 336, 288
-0.998656, 217, 139, 280, 154
-0.998656, 169, 91, 232, 106
-0.998662, 65, 277, 192, 308
-0.998675, 53, 65, 84, 320
-0.998679, 193, 33, 224, 288
-0.998683, 17, 261, 144, 292
-0.998683, 113, 57, 240, 88
-0.998691, 65, 65, 192, 96
-0.998701, 17, 1, 48, 256
-0.998718, 17, 1, 144, 32
-0.998724, 337, 33, 464, 64
-0.998741, 177, 1, 304, 32
-0.998843, 97, 21, 224, 52
-0.998854, 1, 89, 128, 120
-0.998858, 17, 133, 144, 164
-0.99886, 109, 177, 124, 304
-0.998881, 37, 1, 68, 256
-0.998899, 397, 33, 412, 160
-0.998906, 109, 97, 124, 224
-0.998908, 155, 193, 170, 320
-0.998909, 115, 193, 130, 320
-0.99891, 305, 65, 336, 192
-0.99891, 17, 209, 48, 329
-0.998919, 123, 177, 138, 304
-0.998938, 209, 25, 336, 56
-0.998941, 177, 161, 192, 288
-0.998941, 17, 53, 144, 84
-0.998943, 169, 161, 184, 288
-0.998944, 49, 21, 176, 52
-0.998958, 245, 145, 260, 272
-0.998974, 137, 209, 152, 329
-0.998989, 119, 97, 134, 224
-0.99899, 369, 225, 496, 256
-0.998997, 411, 49, 426, 176
-0.998997, 389, 33, 404, 160
-0.999017, 149, 177, 164, 304
-0.999024, 145, 13, 272, 44
-0.999025, 417, 33, 432, 160
-0.999027, 141, 113, 156, 240
-0.999037, 129, 113, 144, 240
-0.999039, 251, 145, 266, 272
-0.999047, 289, 225, 416, 256
-0.999049, 103, 97, 118, 224
-0.999057, 239, 145, 254, 272
-0.999073, 337, 213, 464, 244
-0.999084, 209, 253, 336, 284
-0.999091, 77, 177, 92, 304
-0.999092, 405, 33, 420, 160
-0.9991, 113, 281, 240, 312
-0.999101, 163, 161, 178, 288
-0.999108, 143, 209, 158, 329
-0.999115, 383, 33, 398, 160
-0.999117, 147, 129, 162, 256
-0.999127, 183, 177, 198, 304
-0.999129, 285, 145, 300, 272
-0.999136, 257, 97, 272, 224
-0.999138, 153, 129, 168, 256
-0.99914, 275, 193, 290, 320
-0.999168, 129, 209, 144, 329
-0.999193, 429, 65, 444, 192
-0.999196, 243, 193, 258, 320
-0.999201, 103, 177, 118, 304
-0.999204, 243, 97, 258, 224
-0.999206, 387, 81, 402, 208
-0.999217, 407, 113, 422, 240
-0.999224, 259, 145, 274, 272
-0.999225, 97, 145, 112, 272
-0.999229, 231, 193, 246, 320
-0.999245, 259, 193, 274, 320
-0.999247, 397, 113, 412, 240
-0.999248, 265, 161, 280, 288
-0.999249, 161, 209, 176, 329
-0.999253, 363, 177, 378, 304
-0.999255, 23, 1, 38, 128
-0.99926, 233, 81, 248, 208
-0.999267, 263, 65, 278, 192
-0.999267, 135, 113, 150, 240
-0.999268, 93, 209, 108, 329
-0.999276, 221, 209, 236, 329
-0.999288, 71, 193, 86, 320
-0.999292, 233, 145, 248, 272
-0.999292, 273, 81, 288, 208
-0.999296, 131, 161, 146, 288
-0.999296, 265, 113, 280, 240
-0.999297, 85, 161, 100, 288
-0.999305, 359, 49, 374, 176
-0.999314, 115, 145, 130, 272
-0.999316, 113, 69, 240, 100
-0.999317, 439, 49, 454, 176
-0.999317, 225, 65, 240, 192
-0.999319, 371, 177, 386, 304
-0.999325, 219, 81, 234, 208
-0.999339, 251, 65, 266, 192
-0.999343, 135, 65, 150, 192
-0.999344, 305, 237, 432, 268
-0.999345, 17, 273, 144, 304
-0.999346, 423, 49, 438, 176
-0.999348, 81, 81, 208, 112
-0.99935, 97, 97, 112, 224
-0.999352, 377, 1, 392, 128
-0.999356, 145, 49, 160, 176
-0.999357, 279, 129, 294, 256
-0.999359, 159, 113, 174, 240
-0.999362, 115, 33, 130, 160
-0.999367, 285, 97, 300, 224
-0.999375, 125, 65, 140, 192
-0.99938, 269, 209, 284, 329
-0.999384, 167, 209, 182, 329
-0.999389, 357, 193, 372, 320
-0.999389, 377, 49, 392, 176
-0.999389, 289, 193, 304, 320
-0.999391, 237, 209, 252, 329
-0.999393, 273, 9, 400, 40
-0.999394, 401, 193, 432, 320
-0.999399, 31, 1, 46, 128
-0.9994, 445, 33, 476, 288
-0.999404, 217, 129, 232, 256
-0.999409, 279, 65, 294, 192
-0.999413, 347, 33, 362, 160
-0.999414, 253, 193, 268, 320
-0.999415, 211, 145, 226, 272
-0.999416, 189, 161, 204, 288
-0.99942, 447, 65, 462, 192
-0.999431, 61, 1, 76, 128
-0.999431, 387, 129, 402, 256
-0.999433, 177, 265, 304, 296
-0.99944, 213, 49, 228, 176
-0.999441, 193, 13, 320, 44
-0.999442, 227, 17, 242, 144
-0.999444, 241, 17, 256, 144
-0.999445, 177, 113, 192, 240
-0.999451, 17, 297, 144, 328
-0.999454, 17, 1, 32, 128
-0.99946, 285, 33, 300, 160
-0.999461, 361, 1, 376, 128
-0.99947, 37, 17, 52, 144
-0.999473, 335, 193, 350, 320
-0.999474, 79, 129, 94, 256
-0.999477, 419, 129, 434, 256
-0.999477, 377, 193, 392, 320
-0.999477, 345, 161, 360, 288
-0.999479, 151, 65, 166, 192
-0.999479, 281, 193, 296, 320
-0.999483, 125, 17, 140, 144
-0.999483, 67, 17, 82, 144
-0.999492, 291, 129, 306, 256
-0.999496, 413, 113, 428, 240
-0.999498, 173, 33, 188, 160
-0.999501, 157, 1, 172, 128
-0.999502, 225, 241, 352, 272
-0.999505, 207, 81, 222, 208
-0.999509, 87, 209, 102, 329
-0.999513, 91, 129, 106, 256
-0.999514, 219, 33, 234, 160
-0.999515, 337, 17, 352, 144
-0.999516, 137, 161, 152, 288
-0.999516, 1, 121, 128, 152
-0.999517, 371, 1, 386, 128
-0.999518, 353, 33, 368, 160
-0.999519, 85, 113, 100, 240
-0.999519, 103, 49, 118, 176
-0.99952, 365, 49, 380, 176
-0.999524, 203, 161, 218, 288
-0.999526, 15, 49, 30, 176
-0.999526, 173, 209, 188, 329
-0.999527, 189, 113, 204, 240
-0.999528, 295, 177, 310, 304
-0.999532, 73, 129, 88, 256
-0.999533, 379, 145, 394, 272
-0.999561, 225, 1, 352, 32
-0.999566, 369, 237, 496, 268
-0.999569, 85, 183, 100, 198
-0.999569, 281, 109, 296, 124
-0.999569, 115, 201, 130, 216
-0.999569, 157, 243, 172, 258
-0.999571, 155, 213, 170, 228
-0.999571, 385, 81, 400, 96
-0.999571, 187, 225, 202, 240
-0.999571, 95, 285, 110, 300
-0.999572, 385, 51, 400, 66
-0.999572, 181, 219, 196, 234
-0.999572, 295, 127, 310, 142
-0.999573, 415, 83, 430, 98
-0.999574, 157, 249, 172, 264
-0.999574, 287, 99, 302, 114
-0.999575, 145, 297, 160, 312
-0.999576, 371, 223, 386, 238
-0.999576, 161, 225, 176, 240
-0.999577, 259, 165, 274, 180
-0.999578, 377, 85, 392, 100
-0.999578, 75, 203, 90, 218
-0.999578, 399, 111, 414, 126
-0.999578, 273, 215, 288, 230
-0.99958, 233, 217, 248, 232
-0.999581, 95, 187, 110, 202
-0.999581, 243, 215, 258, 230
-0.999583, 147, 177, 162, 192
-0.999585, 257, 149, 272, 164
-0.999586, 283, 137, 298, 152
-0.999586, 247, 149, 262, 164
-0.999586, 145, 187, 160, 202
-0.999588, 135, 175, 150, 190
-0.999588, 395, 131, 410, 146
-0.999589, 389, 117, 404, 132
-0.999592, 407, 127, 422, 142
-0.999592, 117, 163, 132, 178
-0.999592, 123, 193, 138, 208
-0.999592, 427, 75, 442, 90
-0.999593, 261, 123, 276, 138
-0.999593, 99, 159, 114, 174
-0.999593, 211, 107, 226, 122
-0.999594, 155, 225, 170, 240
-0.999594, 279, 103, 294, 118
-0.999594, 91, 161, 106, 176
-0.999594, 419, 57, 434, 72
-0.999594, 217, 107, 232, 122
-0.999595, 113, 191, 128, 206
-0.999596, 267, 241, 282, 256
-0.999596, 169, 199, 184, 214
-0.999598, 167, 207, 182, 222
-0.999598, 401, 129, 416, 144
-0.999598, 391, 123, 406, 138
-0.999598, 109, 161, 124, 176
-0.999598, 169, 225, 184, 240
-0.999599, 259, 159, 274, 174
-0.999601, 129, 259, 144, 274
-0.999602, 259, 115, 274, 130
-0.999602, 85, 165, 100, 180
-0.999603, 157, 257, 172, 272
-0.999604, 411, 119, 426, 134
-0.999604, 233, 229, 248, 244
-0.999605, 139, 271, 154, 286
-0.999605, 133, 249, 148, 264
-0.999606, 239, 159, 254, 174
-0.999606, 119, 239, 134, 254
-0.999608, 231, 247, 246, 262
-0.999608, 225, 119, 240, 134
-0.999609, 161, 171, 176, 186
-0.999609, 73, 209, 88, 224
-0.999611, 129, 173, 144, 188
-0.999611, 369, 229, 384, 244
-0.999611, 423, 87, 438, 102
-0.999612, 419, 65, 434, 80
-0.999612, 287, 121, 302, 136
-0.999612, 223, 223, 238, 238
-0.999613, 215, 133, 230, 148
-0.999614, 345, 229, 360, 244
-0.999617, 233, 119, 248, 134
-0.999618, 195, 221, 210, 236
-0.999619, 151, 249, 166, 264
-0.999619, 437, 85, 452, 100
-0.99962, 171, 191, 186, 206
-0.999621, 283, 129, 298, 144
-0.999622, 165, 193, 180, 208
-0.999623, 247, 169, 262, 184
-0.999627, 125, 167, 140, 182
-0.999628, 151, 261, 166, 276
-0.999629, 321, 9, 448, 40
-0.99963, 201, 215, 216, 230
-0.999631, 417, 89, 432, 104
-0.999633, 383, 87, 398, 102
-0.999633, 141, 181, 156, 196
-0.999634, 395, 49, 410, 64
-0.999635, 233, 125, 248, 140
-0.999635, 175, 199, 190, 214
-0.999635, 213, 115, 228, 130
-0.999636, 145, 269, 160, 284
-0.999637, 231, 253, 246, 268
-0.999637, 163, 231, 178, 246
-0.999637, 153, 175, 168, 190
-0.99964, 233, 223, 248, 238
-0.999641, 265, 253, 280, 268
-0.999642, 139, 285, 154, 300
-0.999642, 141, 253, 156, 268
-0.999642, 161, 249, 416, 312
-0.999645, 417, 51, 432, 66
-0.999646, 145, 261, 160, 276
-0.999646, 131, 265, 146, 280
-0.999649, 267, 219, 282, 234
-0.99965, 405, 121, 420, 136
-0.999652, 95, 291, 110, 306
-0.999656, 135, 255, 150, 270
-0.999658, 193, 211, 208, 226
-0.99966, 253, 169, 268, 184
-0.999661, 265, 247, 280, 262
-0.999662, 241, 165, 256, 180
-0.999664, 231, 261, 246, 276
-0.999665, 187, 215, 202, 230
-0.999666, 253, 163, 268, 178
-0.999668, 405, 115, 420, 130
-0.999673, 345, 237, 360, 252
-0.999673, 433, 79, 448, 94
-0.999675, 253, 155, 268, 170
-0.999678, 395, 117, 410, 132
-0.999686, 149, 255, 164, 270
-0.99969, 183, 195, 198, 210
-0.999692, 5, 1, 36, 256
-0.999695, 371, 237, 386, 252
-0.999703, 461, 1, 492, 256
-0.999705, 139, 279, 154, 294
-0.999708, 245, 157, 260, 172
-0.99971, 177, 191, 192, 206
-0.999713, 399, 123, 414, 138
-0.999722, 139, 261, 154, 276
-0.999724, 247, 163, 262, 178
-0.999734, 209, 229, 336, 260
-0.999756, 305, 21, 432, 52
-0.999765, 449, 1, 480, 128
-0.999865, 225, 265, 352, 296
-0.999872, 257, 1, 500, 64
-0.999951, 161, 285, 288, 316
-1.00012, 273, 249, 400, 280
-1.00017, 353, 21, 480, 52
-1.00018, 369, 9, 496, 40
-1.00039, 321, 249, 448, 280
-1.0006, 1, 265, 500, 328
-1.00062, 449, 97, 480, 224
-1.00078, 1, 1, 500, 64
-1.00087, 257, 233, 500, 296
-1.00131, 321, 257, 448, 320
-1.00157, 369, 257, 496, 320
-1.00167, 257, 257, 500, 320
-1.00175, 417, 177, 480, 304
-1.00199, 273, 265, 400, 328
