1644
-0.320947, 1, 1, 265, 400
-0.404971, 1, 129, 265, 384
-0.414006, 1, 1, 265, 256
-0.475297, 1, 1, 256, 400
-0.648563, 1, 129, 256, 384
-0.659292, 1, 1, 256, 256
-0.822909, 81, 1, 208, 400
-0.839666, 145, 129, 265, 384
-0.845729, 1, 225, 265, 352
-0.85008, 145, 1, 265, 256
-0.85473, 65, 65, 192, 320
-0.863465, 1, 273, 265, 400
-0.880047, 145, 1, 265, 400
-0.88205, 1, 1, 128, 400
-0.88662, 1, 1, 265, 128
-0.889083, 1, 177, 265, 304
-0.892928, 1, 225, 256, 352
-0.893711, 1, 81, 265, 208
-0.89443, 17, 97, 144, 352
-0.906458, 1, 273, 256, 400
-0.910013, 1, 129, 265, 256
-0.913974, 145, 193, 265, 320
-0.918011, 97, 257, 224, 384
-0.924123, 1, 1, 256, 128
-0.926002, 1, 177, 256, 304
-0.927003, 97, 49, 160, 176
-0.927915, 193, 145, 256, 272
-0.929079, 73, 81, 136, 208
-0.929532, 1, 81, 256, 208
-0.931067, 177, 209, 240, 336
-0.931088, 153, 193, 216, 320
-0.9319, 145, 241, 265, 368
-0.932655, 81, 241, 144, 368
-0.933099, 97, 209, 224, 336
-0.934421, 1, 1, 128, 256
-0.935433, 49, 257, 112, 384
-0.935466, 145, 145, 265, 272
-0.935723, 161, 273, 224, 400
-0.936404, 17, 241, 144, 368
-0.936571, 65, 65, 192, 192
-0.936966, 113, 241, 176, 368
-0.937988, 201, 193, 264, 320
-0.940296, 113, 1, 240, 128
-0.941149, 121, 33, 184, 160
-0.941969, 1, 129, 256, 256
-0.942644, 129, 193, 192, 320
-0.942959, 137, 241, 200, 368
-0.943024, 201, 241, 264, 368
-0.944295, 145, 81, 265, 208
-0.944755, 89, 193, 152, 320
-0.945705, 73, 81, 136, 144
-0.946142, 49, 177, 176, 304
-0.947246, 145, 1, 208, 128
-0.947586, 33, 1, 160, 128
-0.948072, 65, 129, 192, 256
-0.948891, 97, 1, 160, 128
-0.951013, 185, 177, 248, 240
-0.951263, 153, 201, 216, 264
-0.951968, 49, 209, 112, 336
-0.952539, 201, 1, 264, 128
-0.953827, 1, 257, 64, 384
-0.954403, 49, 97, 112, 224
-0.954769, 97, 57, 160, 120
-0.9549, 169, 145, 232, 272
-0.955841, 49, 217, 112, 280
-0.955901, 137, 257, 200, 320
-0.955913, 113, 129, 176, 256
-0.956004, 89, 273, 152, 336
-0.95616, 97, 225, 160, 288
-0.956284, 49, 105, 112, 168
-0.956594, 73, 249, 136, 312
-0.956792, 113, 265, 176, 328
-0.956794, 49, 257, 112, 320
-0.957604, 145, 233, 208, 296
-0.958161, 121, 41, 184, 104
-0.958362, 177, 241, 240, 304
-0.958494, 73, 209, 136, 272
-0.959617, 177, 1, 240, 128
-0.959868, 121, 81, 184, 144
-0.959992, 161, 1, 224, 64
-0.960618, 65, 337, 128, 400
-0.960723, 49, 145, 112, 272
-0.960723, 17, 65, 144, 192
-0.961089, 49, 305, 112, 368
-0.961327, 137, 145, 200, 272
-0.961732, 129, 209, 192, 272
-0.961915, 57, 129, 120, 192
-0.962225, 97, 201, 160, 264
-0.962563, 25, 241, 88, 368
-0.962576, 145, 289, 208, 352
-0.963177, 177, 97, 240, 224
-0.963374, 1, 193, 128, 320
-0.963458, 193, 289, 256, 352
-0.963862, 201, 201, 264, 264
-0.963877, 81, 121, 144, 184
-0.964063, 201, 241, 264, 304
-0.964679, 201, 81, 264, 208
-0.964785, 169, 265, 232, 328
-0.964984, 1, 273, 64, 336
-0.965244, 185, 1, 248, 64
-0.965478, 177, 217, 240, 280
-0.965488, 121, 233, 184, 296
-0.965778, 9, 49, 72, 176
-0.965855, 129, 1, 192, 64
-0.965946, 169, 337, 232, 400
-0.966153, 49, 1, 112, 128
-0.96658, 73, 129, 136, 256
-0.966629, 129, 81, 192, 208
-0.966713, 169, 177, 200, 304
-0.96673, 25, 97, 88, 224
-0.966793, 201, 313, 264, 376
-0.966901, 97, 89, 160, 152
-0.966965, 61, 113, 92, 176
-0.967026, 153, 81, 216, 208
-0.967585, 153, 241, 184, 304
-0.967602, 153, 241, 184, 368
-0.96763, 145, 201, 176, 264
-0.967763, 177, 153, 240, 216
-0.968109, 165, 225, 196, 288
-0.968125, 201, 265, 264, 328
-0.968367, 25, 121, 88, 184
-0.968369, 65, 81, 192, 144
-0.968573, 49, 81, 112, 144
-0.968586, 181, 193, 212, 256
-0.969083, 25, 265, 88, 328
-0.969219, 17, 113, 144, 240
-0.969245, 97, 265, 224, 328
-0.969294, 65, 241, 192, 304
-0.969299, 145, 249, 265, 312
-0.969435, 157, 193, 188, 320
-0.969461, 65, 217, 192, 280
-0.969518, 185, 193, 216, 320
-0.969532, 145, 25, 208, 88
-0.969557, 25, 321, 88, 384
-0.969604, 221, 145, 252, 272
-0.969629, 9, 1, 72, 128
-0.96973, 145, 177, 265, 240
-0.969971, 57, 153, 120, 216
-0.97011, 169, 305, 232, 368
-0.970135, 97, 33, 160, 288
-0.970254, 77, 257, 108, 384
-0.970262, 129, 225, 256, 288
-0.97039, 205, 161, 236, 288
-0.970453, 145, 73, 208, 136
-0.970549, 113, 113, 176, 176
-0.970599, 25, 233, 88, 296
-0.97072, 229, 257, 260, 320
-0.970774, 201, 161, 232, 224
-0.970778, 137, 97, 200, 352
-0.970944, 61, 81, 92, 208
-0.970988, 161, 33, 224, 288
-0.971112, 85, 241, 116, 304
-0.971303, 129, 201, 256, 264
-0.971371, 201, 153, 264, 216
-0.971376, 73, 33, 136, 160
-0.971423, 157, 265, 188, 328
-0.971493, 157, 201, 188, 264
-0.971525, 89, 177, 152, 240
-0.971674, 113, 177, 176, 240
-0.971837, 141, 241, 172, 304
-0.971971, 201, 129, 264, 384
-0.972002, 17, 337, 144, 400
-0.97215, 201, 129, 264, 192
-0.972253, 97, 273, 128, 400
-0.972298, 177, 129, 240, 384
-0.972413, 1, 313, 64, 376
-0.972418, 49, 281, 112, 344
-0.972445, 9, 1, 72, 64
-0.972534, 1, 265, 128, 328
-0.972632, 161, 177, 224, 240
-0.972717, 137, 1, 200, 256
-0.972812, 129, 1, 256, 64
-0.972976, 145, 177, 176, 304
-0.973037, 113, 57, 144, 120
-0.973091, 193, 25, 256, 88
-0.973109, 185, 257, 216, 384
-0.973115, 93, 265, 124, 328
-0.973232, 209, 249, 240, 312
-0.973287, 93, 217, 124, 280
-0.973336, 65, 193, 192, 256
-0.973349, 137, 169, 200, 232
-0.973385, 173, 1, 204, 64
-0.973457, 121, 33, 152, 160
-0.973517, 85, 73, 116, 136
-0.973551, 217, 177, 248, 240
-0.973608, 9, 33, 72, 96
-0.97363, 145, 273, 265, 336
-0.973658, 81, 217, 112, 280
-0.973737, 25, 193, 88, 320
-0.973909, 81, 305, 112, 368
-0.973924, 17, 297, 144, 360
-0.973982, 189, 161, 220, 224
-0.974059, 173, 225, 204, 352
-0.974098, 81, 297, 144, 360
-0.974106, 65, 217, 96, 280
-0.97434, 109, 241, 140, 368
-0.974386, 41, 49, 104, 176
-0.974442, 233, 113, 264, 240
-0.974491, 97, 65, 128, 128
-0.97451, 201, 241, 232, 368
-0.974589, 69, 89, 100, 152
-0.974651, 89, 225, 120, 352
-0.974725, 217, 241, 248, 368
-0.974813, 137, 265, 168, 328
-0.974935, 229, 193, 260, 320
-0.974945, 89, 337, 120, 400
-0.974963, 65, 185, 128, 248
-0.975113, 173, 273, 204, 400
-0.975156, 73, 81, 104, 208
-0.975227, 65, 137, 96, 200
-0.975476, 189, 145, 220, 272
-0.975548, 185, 265, 216, 328
-0.975556, 197, 225, 228, 288
-0.975677, 93, 65, 124, 192
-0.975746, 97, 129, 160, 384
-0.975779, 157, 145, 188, 272
-0.975787, 233, 1, 264, 64
-0.975799, 145, 81, 176, 144
-0.975806, 129, 209, 160, 336
-0.975829, 193, 1, 256, 256
-0.9761, 81, 289, 208, 352
-0.97612, 113, 41, 240, 104
-0.976124, 137, 33, 168, 160
-0.976279, 157, 177, 188, 240
-0.976288, 197, 337, 228, 400
-0.976301, 1, 41, 128, 104
-0.976307, 161, 97, 224, 160
-0.976311, 85, 129, 116, 192
-0.976338, 205, 185, 236, 248
-0.976511, 129, 233, 160, 296
-0.976561, 49, 265, 176, 328
-0.976877, 169, 201, 200, 264
-0.977001, 177, 241, 208, 304
-0.977021, 113, 337, 240, 400
-0.977062, 217, 193, 248, 320
-0.977197, 141, 241, 172, 368
-0.977286, 109, 17, 140, 144
-0.977396, 49, 65, 112, 320
-0.977409, 213, 153, 244, 216
-0.977486, 173, 1, 204, 128
-0.977489, 65, 105, 192, 168
-0.977511, 57, 241, 88, 368
-0.97753, 221, 1, 252, 64
-0.97754, 25, 73, 88, 136
-0.977662, 101, 241, 132, 304
-0.977663, 17, 241, 144, 304
-0.977727, 97, 33, 160, 96
-0.977785, 49, 121, 80, 184
-0.977798, 125, 49, 156, 112
-0.977868, 153, 137, 216, 200
-0.9779, 157, 17, 188, 80
-0.97799, 201, 105, 264, 168
-0.978065, 25, 297, 88, 360
-0.978235, 33, 145, 96, 208
-0.978267, 209, 113, 240, 240
-0.978269, 73, 65, 136, 320
-0.978277, 105, 1, 168, 400
-0.978368, 105, 337, 168, 400
-0.978425, 125, 161, 156, 288
-0.978468, 133, 113, 164, 240
-0.9785, 161, 1, 192, 128
-0.97851, 137, 105, 200, 168
-0.97852, 229, 1, 260, 128
-0.978563, 121, 289, 184, 352
-0.978625, 105, 1, 168, 64
-0.978657, 217, 273, 248, 336
-0.978847, 193, 1, 256, 400
-0.978847, 49, 1, 176, 64
-0.978858, 229, 281, 260, 344
-0.978918, 153, 49, 216, 112
-0.978943, 41, 49, 104, 112
-0.978994, 1, 209, 128, 272
-0.979028, 217, 1, 248, 128
-0.979067, 49, 129, 176, 192
-0.979274, 209, 9, 240, 72
-0.979303, 73, 209, 104, 336
-0.979371, 77, 329, 108, 392
-0.979483, 73, 257, 104, 320
-0.979501, 137, 1, 200, 400
-0.979518, 69, 305, 100, 368
-0.979674, 185, 305, 216, 368
-0.979697, 81, 153, 144, 216
-0.9797, 201, 49, 264, 112
-0.979753, 173, 281, 204, 344
-0.979765, 221, 201, 252, 264
-0.979767, 229, 49, 260, 176
-0.979851, 105, 177, 136, 304
-0.98003, 185, 217, 216, 280
-0.98049, 233, 121, 264, 184
-0.980559, 65, 57, 192, 120
-0.980641, 25, 97, 88, 352
-0.980842, 117, 97, 148, 160
-0.980855, 73, 57, 136, 120
-0.98089, 129, 105, 256, 168
-0.980945, 233, 257, 264, 384
-0.980994, 1, 49, 32, 112
-0.980997, 49, 25, 176, 88
-0.98104, 125, 257, 156, 320
-0.981255, 29, 1, 60, 64
-0.981329, 1, 337, 64, 400
-0.981423, 133, 81, 164, 144
-0.981514, 13, 265, 44, 328
-0.981516, 25, 273, 56, 336
-0.981597, 105, 129, 136, 192
-0.981603, 149, 1, 180, 128
-0.981633, 113, 153, 240, 216
-0.981642, 37, 257, 68, 384
-0.98175, 9, 257, 40, 384
-0.981755, 145, 65, 265, 128
-0.981799, 193, 337, 256, 400
-0.981844, 121, 97, 152, 224
-0.981856, 37, 49, 68, 176
-0.98187, 125, 177, 156, 240
-0.981907, 113, 153, 176, 216
-0.98191, 1, 145, 128, 208
-0.981943, 141, 33, 172, 96
-0.981953, 77, 281, 108, 344
-0.98198, 201, 289, 232, 352
-0.982164, 65, 329, 192, 392
-0.982192, 145, 313, 208, 376
-0.982229, 49, 113, 80, 240
-0.98225, 93, 177, 124, 304
-0.982254, 33, 305, 64, 368
-0.982272, 149, 289, 180, 352
-0.982301, 229, 25, 260, 88
-0.982308, 197, 25, 228, 88
-0.982356, 105, 273, 136, 336
-0.982459, 161, 81, 192, 144
-0.982536, 145, 129, 176, 256
-0.982627, 197, 249, 228, 312
-0.982728, 1, 97, 128, 160
-0.982755, 129, 273, 160, 400
-0.982774, 105, 65, 136, 192
-0.982816, 129, 297, 256, 360
-0.98297, 17, 1, 80, 256
-0.983128, 221, 97, 252, 224
-0.98316, 113, 249, 144, 312
-0.983216, 149, 65, 180, 192
-0.983238, 185, 1, 216, 64
-0.9833, 205, 1, 236, 128
-0.983306, 129, 17, 160, 80
-0.983327, 145, 337, 208, 400
-0.983575, 133, 209, 164, 272
-0.983666, 57, 89, 88, 152
-0.983694, 169, 177, 200, 240
-0.9837, 73, 193, 104, 256
-0.983742, 57, 193, 88, 320
-0.983745, 1, 65, 128, 128
-0.983767, 69, 161, 100, 288
-0.983774, 1, 249, 64, 312
-0.983831, 57, 329, 88, 392
-0.983998, 233, 97, 264, 160
-0.984011, 105, 105, 136, 168
-0.984068, 161, 1, 224, 400
-0.984101, 141, 177, 172, 240
-0.984152, 105, 129, 136, 256
-0.984162, 169, 25, 232, 88
-0.984174, 41, 185, 104, 248
-0.984237, 41, 281, 72, 344
-0.984261, 229, 169, 260, 232
-0.984311, 53, 217, 84, 280
-0.984434, 177, 73, 240, 136
-0.984483, 93, 289, 124, 352
-0.984491, 57, 297, 88, 360
-0.984676, 1, 65, 64, 128
-0.984677, 13, 41, 44, 104
-0.984783, 185, 1, 216, 128
-0.984792, 25, 97, 88, 160
-0.984883, 201, 137, 232, 200
-0.984891, 209, 65, 240, 192
-0.984913, 81, 1, 144, 400
-0.985102, 177, 49, 240, 176
-0.985106, 65, 169, 192, 232
-0.985109, 189, 97, 220, 224
-0.985119, 105, 217, 136, 280
-0.985121, 221, 233, 252, 296
-0.985148, 177, 49, 240, 112
-0.9852, 73, 113, 104, 176
-0.985256, 13, 305, 44, 368
-0.985275, 25, 1, 88, 400
-0.985336, 93, 1, 124, 128
-0.985347, 169, 329, 200, 392
-0.985371, 25, 257, 56, 384
-0.985458, 177, 129, 208, 256
-0.985469, 201, 81, 264, 144
-0.985475, 213, 129, 244, 192
-0.985478, 25, 1, 56, 128
-0.985537, 105, 313, 168, 376
-0.985575, 109, 193, 140, 256
-0.985673, 45, 321, 76, 384
-0.985718, 1, 281, 32, 344
-0.985724, 209, 225, 240, 288
-0.985776, 61, 257, 92, 320
-0.985812, 193, 185, 224, 248
-0.985848, 113, 33, 144, 96
-0.985921, 17, 185, 144, 248
-0.985927, 145, 129, 265, 192
-0.985934, 233, 201, 264, 264
-0.98595, 105, 153, 136, 216
-0.985986, 165, 49, 196, 176
-0.986006, 25, 25, 56, 88
-0.986018, 121, 209, 152, 272
-0.986023, 33, 329, 64, 392
-0.986059, 25, 209, 88, 272
-0.98607, 117, 129, 148, 192
-0.986135, 93, 105, 124, 168
-0.986285, 1, 17, 128, 80
-0.98634, 137, 105, 168, 168
-0.986425, 197, 1, 228, 64
-0.986433, 213, 313, 244, 376
-0.986441, 17, 337, 48, 400
-0.986663, 157, 105, 188, 168
-0.986708, 45, 209, 76, 336
-0.986747, 217, 49, 248, 112
-0.986952, 25, 145, 88, 272
-0.987041, 229, 49, 260, 112
-0.987169, 229, 145, 260, 208
-0.987173, 169, 57, 200, 120
-0.987223, 1, 121, 128, 184
-0.987249, 85, 193, 116, 256
-0.987279, 41, 1, 104, 64
-0.98738, 145, 57, 176, 120
-0.987423, 81, 9, 144, 72
-0.987655, 93, 313, 124, 376
-0.987657, 1, 193, 64, 320
-0.987801, 137, 153, 168, 216
-0.987807, 49, 257, 80, 320
-0.987836, 189, 49, 220, 176
-0.987873, 45, 1, 76, 128
-0.988014, 101, 337, 132, 400
-0.988128, 89, 153, 120, 216
-0.988128, 1, 321, 32, 384
-0.988167, 185, 137, 216, 200
-0.98827, 77, 33, 108, 160
-0.988304, 97, 69, 160, 100
-0.988383, 49, 113, 112, 144
-0.988525, 73, 93, 136, 124
-0.98859, 49, 261, 112, 292
-0.98859, 49, 1, 112, 400
-0.988761, 193, 193, 256, 224
-0.988822, 137, 269, 200, 300
-0.988831, 1, 241, 256, 304
-0.988979, 137, 205, 200, 236
-0.98903, 193, 165, 256, 196
-0.98907, 177, 81, 208, 208
-0.989091, 57, 225, 120, 256
-0.989111, 17, 185, 80, 248
-0.989112, 89, 229, 152, 260
-0.989126, 73, 361, 136, 392
-0.989126, 177, 129, 240, 192
-0.98914, 89, 249, 152, 280
-0.989218, 161, 225, 224, 256
-0.989226, 121, 49, 184, 80
-0.98929, 73, 33, 136, 96
-0.989326, 57, 213, 120, 244
-0.989339, 89, 81, 152, 112
-0.989341, 57, 149, 120, 180
-0.989353, 129, 237, 192, 268
-0.989361, 113, 221, 176, 252
-0.989382, 105, 261, 168, 292
-0.989431, 121, 97, 184, 128
-0.989456, 121, 113, 184, 144
-0.98954, 129, 257, 192, 288
-0.989565, 97, 205, 160, 236
-0.989584, 49, 321, 112, 352
-0.989623, 41, 297, 104, 328
-0.989626, 193, 205, 256, 236
-0.989639, 49, 285, 112, 316
-0.989679, 1, 1, 64, 400
-0.98969, 9, 281, 72, 312
-0.98971, 73, 273, 136, 304
-0.989728, 1, 281, 256, 344
-0.989729, 85, 129, 116, 256
-0.989742, 105, 277, 168, 308
-0.98979, 97, 105, 160, 136
-0.989799, 105, 365, 168, 396
-0.989861, 201, 269, 264, 300
-0.989883, 185, 181, 248, 212
-0.989884, 161, 205, 224, 236
-0.98989, 57, 33, 88, 160
-0.989926, 73, 137, 136, 168
-0.989975, 177, 1, 240, 32
-0.989992, 1, 241, 265, 304
-0.990005, 193, 313, 256, 344
-0.990009, 137, 225, 200, 256
-0.990014, 153, 21, 216, 52
-0.990017, 73, 109, 136, 140
-0.99002, 129, 1, 192, 32
-0.990023, 169, 245, 232, 276
-0.990052, 49, 101, 112, 132
-0.990159, 193, 257, 256, 288
-0.99017, 145, 113, 208, 144
-0.99018, 49, 365, 112, 396
-0.990278, 185, 365, 248, 396
-0.990313, 121, 37, 184, 68
-0.990322, 41, 309, 104, 340
-0.990329, 25, 369, 88, 400
-0.990337, 49, 337, 112, 368
-0.990346, 81, 217, 144, 248
-0.990387, 201, 217, 264, 248
-0.990387, 49, 249, 112, 280
-0.990404, 49, 237, 112, 268
-0.99047, 73, 349, 136, 380
-0.990475, 169, 169, 232, 200
-0.990495, 177, 269, 240, 300
-0.990503, 97, 57, 160, 88
-0.990532, 89, 121, 152, 152
-0.990552, 73, 261, 136, 292
-0.990555, 121, 13, 184, 44
-0.990561, 33, 273, 96, 304
-0.990583, 137, 85, 200, 116
-0.990592, 137, 193, 200, 224
-0.990602, 65, 161, 128, 192
-0.990619, 177, 281, 240, 312
-0.99065, 9, 309, 72, 340
-0.990652, 185, 21, 248, 52
-0.990656, 13, 1, 44, 128
-0.990664, 121, 25, 184, 56
-0.990673, 145, 33, 208, 64
-0.990695, 33, 125, 96, 156
-0.990726, 65, 301, 128, 332
-0.990805, 169, 353, 232, 384
-0.990824, 145, 293, 208, 324
-0.990841, 49, 353, 112, 384
-0.990873, 153, 9, 216, 40
-0.99089, 145, 281, 208, 312
-0.990929, 1, 281, 265, 344
-0.990943, 105, 353, 168, 384
-0.990945, 9, 321, 72, 352
-0.990953, 89, 165, 152, 196
-0.990953, 161, 333, 224, 364
-0.990972, 1, 305, 256, 368
-0.990998, 153, 257, 216, 288
-0.991045, 25, 261, 88, 292
-0.991103, 33, 209, 64, 336
-0.991107, 113, 193, 176, 224
-0.991109, 153, 305, 216, 336
-0.991122, 9, 333, 72, 364
-0.991127, 185, 233, 248, 264
-0.99118, 25, 345, 88, 376
-0.991185, 201, 281, 264, 312
-0.991202, 185, 33, 248, 64
-0.991219, 1, 265, 64, 296
-0.991227, 1, 361, 64, 392
-0.99123, 169, 193, 232, 224
-0.991233, 193, 153, 256, 184
-0.991234, 73, 313, 136, 344
-0.991248, 121, 61, 184, 92
-0.991252, 193, 245, 256, 276
-0.991266, 1, 209, 256, 272
-0.991277, 129, 173, 192, 204
-0.991326, 65, 81, 128, 112
-0.99133, 153, 317, 216, 348
-0.991359, 97, 129, 224, 192
-0.991384, 81, 289, 144, 320
-0.991392, 153, 369, 216, 400
-0.991397, 73, 337, 136, 368
-0.991435, 113, 125, 176, 156
-0.991456, 97, 153, 160, 184
-0.991496, 97, 33, 160, 64
-0.991525, 161, 181, 224, 212
-0.991557, 41, 25, 104, 88
-0.991562, 113, 85, 176, 116
-0.991567, 137, 73, 200, 104
-0.991578, 161, 101, 224, 132
-0.99158, 97, 181, 160, 212
-0.991583, 17, 5, 80, 36
-0.99161, 97, 45, 160, 76
-0.991629, 33, 141, 96, 172
-0.991635, 113, 289, 176, 320
-0.991654, 1, 53, 64, 84
-0.991703, 73, 325, 136, 356
-0.991705, 65, 125, 128, 156
-0.991713, 1, 293, 64, 324
-0.991731, 201, 9, 264, 40
-0.991755, 73, 69, 136, 100
-0.991775, 17, 109, 80, 140
-0.991797, 89, 193, 152, 224
-0.991816, 73, 57, 136, 88
-0.991863, 201, 133, 264, 164
-0.991883, 9, 37, 72, 68
-0.991902, 25, 357, 88, 388
-0.992097, 157, 205, 188, 236
-0.992104, 89, 81, 120, 112
-0.992126, 77, 257, 108, 288
-0.992129, 65, 149, 96, 180
-0.992182, 65, 101, 96, 132
-0.99219, 113, 57, 144, 88
-0.9922, 149, 229, 180, 260
-0.9922, 201, 165, 232, 196
-0.992203, 101, 69, 132, 100
-0.992229, 1, 305, 265, 368
-0.992244, 213, 177, 244, 208
-0.992255, 149, 245, 180, 276
-0.992257, 177, 201, 208, 232
-0.992278, 229, 273, 260, 304
-0.992283, 153, 261, 184, 292
-0.992309, 137, 257, 168, 288
-0.992309, 125, 49, 156, 80
-0.992316, 165, 233, 196, 264
-0.992327, 1, 337, 256, 400
-0.992331, 85, 241, 116, 272
-0.992359, 221, 261, 252, 292
-0.992375, 53, 109, 84, 140
-0.992379, 73, 245, 104, 276
-0.992382, 177, 1, 208, 32
-0.992392, 77, 225, 108, 256
-0.992396, 121, 105, 152, 136
-0.992399, 89, 345, 120, 376
-0.992417, 141, 217, 172, 248
-0.992427, 77, 89, 108, 120
-0.992442, 65, 229, 96, 260
-0.99245, 133, 245, 164, 276
-0.992451, 73, 321, 104, 352
-0.992455, 161, 17, 192, 48
-0.992457, 161, 217, 192, 248
-0.992481, 213, 249, 244, 280
-0.992491, 141, 289, 172, 320
-0.992494, 145, 113, 176, 144
-0.992503, 85, 213, 116, 244
-0.992514, 137, 273, 168, 304
-0.992521, 53, 333, 84, 364
-0.992524, 233, 129, 264, 160
-0.992527, 81, 137, 112, 168
-0.992529, 73, 333, 104, 364
-0.992536, 1, 209, 265, 272
-0.992547, 149, 29, 180, 60
-0.992556, 161, 97, 192, 224
-0.992557, 177, 261, 208, 292
-0.992567, 97, 273, 128, 304
-0.99257, 213, 165, 244, 196
-0.99257, 25, 365, 56, 396
-0.99257, 97, 233, 128, 264
-0.992576, 145, 205, 176, 236
-0.992581, 85, 333, 116, 364
-0.992582, 81, 297, 112, 328
-0.992588, 93, 361, 124, 392
-0.992589, 137, 37, 168, 68
-0.992603, 169, 245, 200, 276
-0.992609, 77, 345, 108, 376
-0.992621, 61, 317, 92, 348
-0.992624, 125, 257, 156, 288
-0.992628, 213, 197, 244, 228
-0.992644, 133, 117, 164, 148
-0.992652, 97, 245, 128, 276
-0.992657, 185, 273, 216, 304
-0.992657, 157, 109, 188, 140
-0.99266, 213, 13, 244, 44
-0.992662, 73, 213, 104, 244
-0.992665, 129, 229, 256, 260
-0.992666, 225, 189, 256, 220
-0.992674, 157, 273, 188, 304
-0.992674, 17, 269, 48, 300
-0.992677, 77, 309, 108, 340
-0.99268, 129, 233, 160, 264
-0.992686, 229, 285, 260, 316
-0.992686, 77, 285, 108, 316
-0.992687, 233, 145, 264, 176
-0.992692, 65, 113, 96, 144
-0.992697, 53, 261, 84, 292
-0.992701, 201, 153, 232, 184
-0.992705, 153, 193, 184, 224
-0.992717, 37, 113, 68, 240
-0.992727, 181, 213, 212, 244
-0.992732, 197, 9, 228, 40
-0.992734, 37, 321, 68, 352
-0.992739, 37, 269, 68, 300
-0.992748, 69, 297, 100, 328
-0.99275, 209, 269, 240, 300
-0.992752, 65, 369, 96, 400
-0.992753, 197, 309, 228, 340
-0.992754, 113, 361, 144, 392
-0.992762, 145, 85, 176, 116
-0.992762, 77, 153, 108, 184
-0.992774, 217, 25, 248, 56
-0.992775, 53, 365, 84, 396
-0.992775, 205, 369, 236, 400
-0.992778, 189, 333, 220, 364
-0.992781, 49, 321, 80, 352
-0.992784, 221, 141, 252, 172
-0.992792, 93, 293, 124, 324
-0.992802, 85, 321, 116, 352
-0.99281, 201, 189, 232, 220
-0.992812, 181, 13, 212, 44
-0.992814, 185, 229, 216, 260
-0.992817, 121, 125, 152, 156
-0.99282, 81, 361, 112, 392
-0.992825, 181, 317, 212, 348
-0.992828, 69, 137, 100, 168
-0.992836, 65, 349, 96, 380
-0.992838, 137, 101, 168, 132
-0.992839, 105, 109, 136, 140
-0.99284, 1, 53, 32, 84
-0.992841, 101, 81, 132, 112
-0.992844, 129, 217, 160, 248
-0.992847, 133, 205, 164, 236
-0.992847, 57, 241, 88, 272
-0.992848, 65, 213, 192, 244
-0.992854, 1, 129, 64, 384
-0.992855, 121, 181, 152, 212
-0.992859, 161, 285, 192, 316
-0.99286, 221, 1, 252, 32
-0.992863, 97, 217, 128, 248
-0.992864, 201, 357, 232, 388
-0.992872, 41, 361, 72, 392
-0.992875, 25, 1, 56, 32
-0.992875, 85, 269, 116, 300
-0.992882, 37, 309, 68, 340
-0.992884, 189, 165, 220, 196
-0.992885, 61, 213, 92, 244
-0.992894, 109, 177, 140, 208
-0.992895, 101, 349, 132, 380
-0.992897, 233, 25, 264, 56
-0.992901, 89, 157, 120, 188
-0.992904, 13, 361, 44, 392
-0.992908, 125, 273, 156, 304
-0.992908, 233, 9, 264, 40
-0.992914, 101, 121, 132, 152
-0.992916, 113, 69, 144, 100
-0.992918, 141, 193, 172, 224
-0.992985, 49, 101, 176, 132
-0.993056, 1, 153, 256, 216
-0.993119, 1, 1, 256, 64
-0.993177, 145, 261, 265, 292
-0.993181, 97, 273, 224, 304
-0.993191, 129, 241, 256, 272
-0.993316, 25, 49, 56, 176
-0.993321, 81, 229, 208, 260
-0.993335, 1, 105, 256, 168
-0.993342, 89, 241, 104, 304
-0.993394, 157, 225, 172, 288
-0.993412, 1, 57, 256, 120
-0.993442, 1, 217, 64, 280
-0.993483, 81, 261, 208, 292
-0.993583, 65, 241, 192, 272
-0.993644, 1, 337, 265, 400
-0.993647, 1, 33, 256, 96
-0.993655, 65, 105, 80, 168
-0.99368, 85, 289, 100, 352
-0.993748, 1, 265, 128, 296
-0.993766, 97, 369, 224, 400
-0.993807, 155, 265, 170, 328
-0.993882, 161, 201, 176, 264
-0.993891, 227, 249, 242, 312
-0.993964, 65, 85, 192, 116
-0.993978, 57, 113, 72, 176
-0.993999, 73, 97, 88, 160
-0.994009, 91, 289, 106, 352
-0.994019, 99, 73, 114, 136
-0.994046, 205, 161, 220, 224
-0.994059, 113, 205, 240, 236
-0.994062, 1, 89, 64, 152
-0.9941, 175, 201, 190, 264
-0.994109, 79, 137, 94, 200
-0.994134, 89, 265, 104, 328
-0.994137, 1, 129, 256, 192
-0.994145, 145, 193, 265, 224
-0.994166, 1, 185, 256, 248
-0.994188, 223, 153, 238, 216
-0.994258, 107, 65, 122, 128
-0.994284, 95, 209, 110, 272
-0.994296, 81, 73, 208, 104
-0.994304, 129, 173, 256, 204
-0.994329, 117, 57, 132, 120
-0.994406, 1, 153, 265, 216
-0.994406, 67, 217, 82, 280
-0.99441, 81, 89, 96, 152
-0.994416, 149, 249, 164, 312
-0.994424, 65, 289, 192, 320
-0.994428, 153, 201, 168, 264
-0.994439, 101, 265, 116, 328
-0.994442, 165, 249, 180, 312
-0.994451, 33, 357, 160, 388
-0.994452, 89, 217, 104, 280
-0.994471, 1, 1, 265, 64
-0.994491, 211, 161, 226, 224
-0.99454, 1, 1, 32, 128
-0.994566, 241, 273, 256, 336
-0.994572, 125, 49, 140, 112
-0.994584, 163, 225, 178, 288
-0.994612, 1, 229, 128, 260
-0.994618, 229, 169, 244, 232
-0.99463, 247, 281, 262, 344
-0.994636, 13, 49, 44, 176
-0.994668, 221, 241, 236, 304
-0.994695, 113, 45, 240, 76
-0.994698, 1, 105, 265, 168
-0.994705, 217, 161, 232, 224
-0.994708, 175, 225, 190, 288
-0.994709, 129, 5, 256, 36
-0.994714, 89, 81, 104, 144
-0.994737, 33, 113, 160, 144
-0.994741, 9, 209, 40, 336
-0.994752, 95, 265, 110, 328
-0.994763, 167, 201, 182, 264
-0.994778, 1, 57, 265, 120
-0.994819, 113, 17, 240, 48
-0.994827, 81, 265, 96, 328
-0.994836, 77, 225, 92, 288
-0.994837, 183, 201, 198, 264
-0.994841, 143, 201, 158, 264
-0.994846, 233, 257, 248, 320
-0.994854, 83, 217, 98, 280
-0.994869, 83, 329, 98, 392
-0.994891, 189, 1, 204, 64
-0.994911, 235, 1, 250, 64
-0.994927, 99, 233, 114, 296
-0.994931, 129, 217, 256, 248
-0.994994, 1, 333, 128, 364
-0.995016, 141, 241, 156, 304
-0.995023, 1, 33, 265, 96
-0.995071, 97, 289, 112, 352
-0.995073, 33, 57, 160, 88
-0.995123, 61, 153, 76, 216
-0.995137, 113, 33, 240, 64
-0.995151, 193, 201, 208, 264
-0.995167, 71, 121, 86, 184
-0.995171, 147, 225, 162, 288
-0.995174, 1, 81, 256, 144
-0.995179, 79, 113, 94, 176
-0.995181, 93, 337, 108, 400
-0.995188, 103, 337, 118, 400
-0.99519, 161, 81, 176, 144
-0.995202, 145, 285, 265, 316
-0.995203, 65, 133, 192, 164
-0.99523, 49, 273, 176, 304
-0.995237, 1, 313, 128, 344
-0.995265, 5, 281, 20, 344
-0.995271, 173, 1, 188, 64
-0.995272, 89, 313, 104, 376
-0.995288, 185, 241, 200, 304
-0.995342, 13, 49, 28, 112
-0.995363, 1, 293, 128, 324
-0.995371, 135, 233, 150, 296
-0.995383, 97, 61, 224, 92
-0.995392, 169, 225, 184, 288
-0.995412, 21, 193, 52, 320
-0.995429, 209, 1, 240, 256
-0.995439, 199, 161, 214, 224
-0.995455, 129, 357, 256, 388
-0.995497, 77, 201, 92, 264
-0.995501, 33, 369, 160, 400
-0.995508, 65, 129, 80, 192
-0.995508, 17, 273, 32, 336
-0.995535, 1, 129, 265, 192
-0.995549, 211, 25, 226, 88
-0.995557, 45, 281, 60, 344
-0.995557, 17, 213, 144, 244
-0.995566, 1, 185, 265, 248
-0.995568, 61, 225, 76, 288
-0.995602, 201, 329, 216, 392
-0.995604, 195, 265, 210, 328
-0.995604, 97, 301, 224, 332
-0.995622, 135, 41, 150, 104
-0.995626, 157, 289, 172, 352
-0.995631, 141, 89, 156, 152
-0.995631, 83, 241, 98, 304
-0.995638, 1, 277, 128, 308
-0.99564, 207, 185, 222, 248
-0.995664, 125, 33, 156, 288
-0.995681, 73, 145, 88, 208
-0.995686, 119, 249, 134, 312
-0.99569, 129, 345, 256, 376
-0.995694, 45, 161, 76, 288
-0.995717, 137, 65, 168, 320
-0.995733, 117, 105, 132, 168
-0.995738, 145, 273, 265, 304
-0.99575, 149, 65, 180, 320
-0.995753, 95, 313, 110, 376
-0.995783, 129, 241, 144, 304
-0.995784, 45, 1, 60, 64
-0.995804, 1, 149, 128, 180
-0.99583, 65, 257, 80, 320
-0.99583, 79, 297, 94, 360
-0.995836, 129, 161, 256, 192
-0.995843, 89, 129, 104, 192
-0.995854, 215, 225, 230, 288
-0.995863, 113, 129, 128, 192
-0.995871, 153, 177, 168, 240
-0.995895, 113, 117, 240, 148
-0.995896, 223, 185, 238, 248
-0.995896, 59, 321, 74, 384
-0.995898, 233, 25, 248, 88
-0.995905, 27, 337, 42, 400
-0.99591, 245, 1, 260, 64
-0.995916, 205, 281, 220, 344
-0.995951, 195, 321, 210, 384
-0.995955, 3, 49, 18, 112
-0.995956, 25, 305, 40, 368
-0.995958, 17, 69, 144, 100
-0.995961, 205, 305, 220, 368
-0.995968, 33, 265, 48, 328
-0.995985, 55, 257, 70, 320
-0.996006, 73, 257, 88, 320
-0.996006, 175, 265, 190, 328
-0.996024, 49, 145, 176, 176
-0.996048, 17, 345, 144, 376
-0.996052, 161, 17, 176, 80
-0.996055, 161, 129, 192, 384
-0.996058, 49, 197, 176, 228
-0.996062, 49, 21, 176, 52
-0.996062, 167, 1, 182, 64
-0.996067, 141, 49, 156, 112
-0.996067, 225, 273, 240, 336
-0.996079, 39, 273, 54, 336
-0.996082, 131, 17, 146, 80
-0.996092, 161, 1, 192, 256
-0.996098, 183, 1, 198, 64
-0.996103, 159, 177, 174, 240
-0.996111, 125, 265, 140, 328
-0.996116, 113, 81, 128, 144
-0.996117, 207, 337, 222, 400
-0.996119, 149, 273, 164, 336
-0.996128, 149, 81, 164, 144
-0.996132, 103, 201, 118, 264
-0.996141, 33, 41, 160, 72
-0.996146, 109, 105, 124, 168
-0.996151, 85, 185, 100, 248
-0.996174, 219, 265, 234, 328
-0.996176, 213, 249, 228, 312
-0.996178, 247, 129, 262, 192
-0.996182, 151, 25, 166, 88
-0.996184, 55, 281, 70, 344
-0.996211, 223, 9, 238, 72
-0.996211, 207, 241, 222, 304
-0.99623, 173, 177, 188, 240
-0.996233, 17, 245, 144, 276
-0.996256, 135, 89, 150, 152
-0.996312, 33, 9, 160, 40
-0.996323, 173, 97, 204, 352
-0.996326, 189, 1, 220, 256
-0.996392, 209, 129, 240, 384
-0.996404, 145, 313, 265, 344
-0.996414, 61, 65, 92, 320
-0.996416, 193, 129, 224, 384
-0.996434, 225, 97, 256, 352
-0.996508, 113, 329, 240, 360
-0.996519, 81, 1, 208, 32
-0.996524, 125, 129, 156, 384
-0.99655, 221, 1, 252, 256
-0.996557, 81, 357, 208, 388
-0.996581, 65, 185, 192, 216
-0.996619, 1, 81, 265, 144
-0.996637, 145, 369, 265, 400
-0.996661, 97, 33, 128, 288
-0.996664, 49, 301, 176, 332
-0.996679, 145, 93, 265, 124
-0.996684, 109, 129, 140, 384
-0.996755, 145, 149, 265, 180
-0.996797, 49, 317, 176, 348
-0.996831, 145, 65, 265, 96
-0.996837, 233, 1, 264, 256
-0.996871, 49, 157, 176, 188
-0.996888, 85, 65, 116, 320
-0.996899, 1, 81, 128, 112
-0.996933, 81, 341, 208, 372
-0.996948, 113, 105, 240, 136
-0.997028, 57, 113, 72, 144
-0.99704, 1, 93, 128, 124
-0.997044, 145, 133, 265, 164
-0.99707, 67, 225, 82, 256
-0.997072, 87, 241, 102, 272
-0.997085, 61, 153, 76, 184
-0.997097, 9, 145, 72, 208
-0.997121, 89, 285, 104, 316
-0.997121, 95, 237, 110, 268
-0.997124, 97, 313, 224, 344
-0.997138, 113, 33, 144, 288
-0.997147, 163, 229, 178, 260
-0.997148, 49, 329, 176, 360
-0.9972, 75, 97, 90, 128
-0.997202, 77, 141, 92, 172
-0.997231, 227, 161, 242, 192
-0.997235, 225, 257, 240, 288
-0.997258, 107, 69, 122, 100
-0.997269, 145, 81, 265, 112
-0.997277, 71, 145, 86, 176
-0.997285, 177, 1, 208, 256
-0.997285, 63, 113, 78, 144
-0.997285, 147, 241, 162, 272
-0.997287, 77, 233, 92, 264
-0.997287, 99, 269, 114, 300
-0.99729, 49, 97, 80, 352
-0.997295, 151, 257, 166, 288
-0.997297, 153, 217, 168, 248
-0.99731, 155, 285, 170, 316
-0.997318, 97, 129, 128, 384
-0.997332, 197, 201, 212, 232
-0.997332, 143, 213, 158, 244
-0.997333, 65, 173, 192, 204
-0.997347, 119, 53, 134, 84
-0.997347, 101, 77, 116, 108
-0.99735, 1, 201, 128, 232
-0.997352, 81, 89, 96, 120
-0.997354, 221, 245, 236, 276
-0.997355, 69, 105, 84, 136
-0.997361, 129, 265, 144, 296
-0.997367, 93, 81, 108, 112
-0.997383, 157, 245, 172, 276
-0.997393, 125, 57, 140, 88
-0.997393, 1, 49, 32, 176
-0.997395, 129, 45, 144, 76
-0.997428, 93, 345, 108, 376
-0.997449, 151, 205, 166, 236
-0.997452, 221, 177, 236, 208
-0.997458, 87, 253, 102, 284
-0.99746, 87, 325, 102, 356
-0.997471, 231, 201, 246, 232
-0.997472, 87, 85, 102, 116
-0.997475, 93, 261, 108, 292
-0.997476, 113, 65, 128, 96
-0.997479, 243, 277, 258, 308
-0.997494, 153, 233, 168, 264
-0.997509, 215, 169, 230, 200
-0.997515, 205, 165, 220, 196
-0.997523, 83, 137, 98, 168
-0.99753, 29, 361, 44, 392
-0.997531, 157, 265, 172, 296
-0.997538, 61, 325, 76, 356
-0.99754, 147, 225, 162, 256
-0.997543, 245, 133, 260, 164
-0.997548, 71, 253, 86, 284
-0.997555, 163, 205, 178, 236
-0.997562, 93, 297, 108, 328
-0.997572, 137, 245, 152, 276
-0.997595, 233, 261, 248, 292
-0.997612, 97, 249, 112, 280
-0.997612, 81, 301, 96, 332
-0.997639, 191, 1, 206, 32
-0.997641, 103, 349, 118, 380
-0.997642, 143, 257, 158, 288
-0.997652, 85, 313, 100, 344
-0.997658, 233, 273, 248, 304
-0.997661, 115, 109, 130, 140
-0.997663, 181, 201, 196, 232
-0.997668, 141, 273, 156, 304
-0.99767, 231, 189, 246, 220
-0.997678, 43, 265, 58, 296
-0.997685, 73, 97, 104, 352
-0.997686, 91, 225, 106, 256
-0.997695, 239, 133, 254, 164
-0.997698, 215, 237, 230, 268
-0.997702, 97, 325, 112, 356
-0.997707, 83, 285, 98, 316
-0.997709, 171, 233, 186, 264
-0.997713, 171, 217, 186, 248
-0.997715, 135, 105, 150, 136
-0.997718, 89, 361, 104, 392
-0.99772, 51, 317, 66, 348
-0.997726, 101, 233, 116, 264
-0.997726, 123, 257, 138, 288
-0.997731, 183, 5, 198, 36
-0.997734, 51, 261, 66, 292
-0.997737, 51, 329, 66, 360
-0.99774, 83, 149, 98, 180
-0.997741, 81, 245, 96, 276
-0.997746, 137, 45, 152, 76
-0.997746, 159, 113, 174, 144
-0.997763, 59, 369, 74, 400
-0.997765, 149, 269, 164, 300
-0.997772, 117, 121, 132, 152
-0.997773, 157, 301, 172, 332
-0.997773, 141, 117, 156, 148
-0.997787, 165, 257, 180, 288
-0.997801, 177, 1, 192, 32
-0.997803, 69, 317, 84, 348
-0.997804, 229, 177, 244, 208
-0.997807, 175, 13, 190, 44
-0.997812, 97, 149, 224, 180
-0.997812, 81, 261, 96, 292
-0.997816, 215, 1, 230, 32
-0.997821, 75, 213, 90, 244
-0.997825, 203, 209, 218, 240
-0.997826, 149, 113, 164, 144
-0.99783, 141, 101, 156, 132
-0.997837, 39, 1, 54, 32
-0.997838, 185, 269, 200, 300
-0.997842, 165, 21, 180, 52
-0.997843, 75, 317, 90, 348
-0.997852, 81, 365, 96, 396
-0.997853, 65, 365, 80, 396
-0.997858, 57, 261, 72, 292
-0.997863, 173, 201, 188, 232
-0.997867, 249, 285, 264, 316
-0.997874, 85, 213, 100, 244
-0.997877, 239, 265, 254, 296
-0.997879, 23, 361, 38, 392
-0.997882, 177, 221, 192, 252
-0.997884, 109, 113, 124, 144
-0.997898, 237, 145, 252, 176
-0.9979, 95, 209, 110, 240
-0.997906, 157, 29, 172, 60
-0.997913, 65, 261, 80, 292
-0.997915, 87, 297, 102, 328
-0.997916, 87, 273, 102, 304
-0.997918, 159, 193, 174, 224
-0.997923, 33, 269, 48, 300
-0.997923, 237, 201, 252, 232
-0.997926, 41, 305, 56, 336
-0.997926, 149, 37, 164, 68
-0.997927, 169, 109, 184, 140
-0.997937, 97, 221, 112, 252
-0.997943, 1, 137, 128, 168
-0.998033, 1, 125, 128, 156
-0.998098, 1, 165, 128, 196
-0.998148, 145, 301, 265, 332
-0.998339, 41, 1, 72, 256
-0.998356, 1, 21, 128, 52
-0.998398, 193, 167, 256, 182
-0.998415, 57, 227, 120, 242
-0.998425, 137, 273, 200, 288
-0.998426, 97, 233, 160, 248
-0.998439, 73, 375, 136, 390
-0.998444, 49, 155, 112, 170
-0.998448, 137, 207, 200, 222
-0.998455, 209, 247, 240, 262
-0.998455, 129, 109, 160, 124
-0.998455, 65, 381, 128, 396
-0.998456, 13, 361, 44, 376
-0.998456, 141, 221, 172, 236
-0.998457, 33, 381, 64, 396
-0.998457, 233, 147, 264, 162
-0.998458, 49, 263, 112, 278
-0.998459, 65, 371, 96, 386
-0.99846, 153, 241, 184, 256
-0.99846, 61, 319, 92, 334
-0.99846, 49, 385, 80, 400
-0.998461, 73, 97, 136, 112
-0.998461, 69, 231, 100, 246
-0.998461, 93, 353, 124, 368
-0.998463, 41, 325, 72, 340
-0.998463, 21, 275, 52, 290
-0.998464, 13, 281, 44, 296
-0.998464, 105, 277, 136, 292
-0.998465, 201, 9, 232, 24
-0.998465, 141, 273, 172, 288
-0.998465, 213, 197, 244, 212
-0.998467, 133, 179, 164, 194
-0.998467, 29, 365, 60, 380
-0.998469, 233, 29, 264, 44
-0.998469, 213, 187, 244, 202
-0.99847, 117, 121, 148, 136
-0.998471, 81, 319, 112, 334
-0.998472, 177, 13, 208, 28
-0.998473, 93, 365, 124, 380
-0.998473, 73, 325, 104, 340
-0.998473, 85, 335, 116, 350
-0.998476, 137, 117, 200, 132
-0.998476, 221, 145, 252, 160
-0.998477, 49, 303, 112, 318
-0.998478, 109, 231, 140, 246
-0.998478, 177, 211, 208, 226
-0.998478, 141, 241, 172, 256
-0.998478, 69, 343, 100, 358
-0.998479, 165, 229, 196, 244
-0.998479, 85, 327, 116, 342
-0.998479, 61, 351, 92, 366
-0.998479, 57, 263, 88, 278
-0.998479, 97, 247, 128, 262
-0.99848, 225, 203, 256, 218
-0.99848, 81, 365, 112, 380
-0.99848, 193, 1, 224, 16
-0.998482, 169, 241, 200, 256
-0.998482, 65, 361, 128, 376
-0.998482, 109, 53, 140, 68
-0.998482, 193, 311, 224, 326
-0.998483, 129, 267, 192, 282
-0.998483, 189, 207, 220, 222
-0.998483, 77, 291, 108, 306
-0.998483, 113, 121, 176, 136
-0.998483, 73, 249, 136, 264
-0.998484, 157, 213, 188, 228
-0.998484, 201, 207, 264, 222
-0.998485, 141, 291, 172, 306
-0.998485, 89, 299, 120, 314
-0.998486, 77, 309, 108, 324
-0.998486, 145, 297, 176, 312
-0.998486, 105, 367, 168, 382
-0.998486, 137, 231, 200, 246
-0.998487, 25, 377, 88, 392
-0.998488, 81, 353, 112, 368
-0.998488, 73, 247, 104, 262
-0.998489, 137, 215, 168, 230
-0.998489, 129, 235, 160, 250
-0.99849, 181, 273, 212, 288
-0.998492, 17, 279, 80, 294
-0.998493, 113, 365, 144, 380
-0.998495, 81, 89, 144, 104
-0.998495, 193, 15, 224, 30
-0.998496, 233, 279, 264, 294
-0.998496, 77, 265, 108, 280
-0.998497, 49, 119, 112, 134
-0.998497, 65, 103, 128, 118
-0.998498, 161, 229, 224, 244
-0.998498, 49, 331, 80, 346
-0.998499, 97, 75, 160, 90
-0.998499, 97, 275, 160, 290
-0.998499, 121, 57, 152, 72
-0.9985, 153, 213, 216, 228
-0.998501, 57, 231, 88, 246
-0.998501, 233, 291, 264, 306
-0.998502, 213, 253, 244, 268
-0.998502, 165, 261, 196, 276
-0.998502, 97, 213, 160, 228
-0.998502, 65, 237, 96, 252
-0.998504, 125, 275, 156, 290
-0.998504, 209, 181, 240, 196
-0.998504, 137, 241, 200, 256
-0.998505, 65, 161, 128, 176
-0.998506, 89, 161, 120, 176
-0.998507, 229, 285, 260, 300
-0.998508, 105, 69, 168, 84
-0.998509, 65, 369, 128, 384
-0.998509, 97, 219, 160, 234
-0.998509, 193, 173, 256, 188
-0.99851, 57, 221, 120, 236
-0.99851, 93, 237, 124, 252
-0.99851, 89, 341, 120, 356
-0.998511, 61, 325, 92, 340
-0.998511, 89, 83, 152, 98
-0.998511, 133, 267, 164, 282
-0.998512, 225, 273, 256, 288
-0.998513, 97, 375, 128, 390
-0.998514, 161, 221, 192, 236
-0.998514, 81, 241, 144, 256
-0.998516, 157, 197, 188, 212
-0.998517, 69, 217, 100, 232
-0.998519, 81, 93, 112, 108
-0.998519, 129, 259, 192, 274
-0.998519, 193, 317, 256, 332
-0.99852, 57, 273, 120, 288
-0.99852, 89, 127, 152, 142
-0.99852, 169, 235, 200, 250
-0.998521, 217, 261, 248, 276
-0.998522, 145, 207, 176, 222
-0.998523, 93, 215, 124, 230
-0.998523, 65, 353, 128, 368
-0.998524, 49, 113, 112, 128
-0.998524, 49, 329, 112, 344
-0.998524, 49, 257, 112, 272
-0.998525, 161, 205, 224, 220
-0.998526, 49, 297, 112, 312
-0.998526, 121, 49, 184, 64
-0.998526, 105, 269, 168, 284
-0.998527, 65, 215, 128, 230
-0.998528, 153, 247, 184, 262
-0.998528, 177, 369, 240, 384
-0.998528, 193, 385, 256, 400
-0.998529, 221, 267, 252, 282
-0.998531, 89, 255, 152, 270
-0.998531, 113, 249, 176, 264
-0.998531, 105, 113, 168, 128
-0.998532, 41, 319, 104, 334
-0.998532, 53, 377, 84, 392
-0.998532, 101, 73, 132, 88
-0.998532, 33, 383, 96, 398
-0.998533, 57, 155, 88, 170
-0.998533, 77, 297, 108, 312
-0.998533, 137, 279, 200, 294
-0.998535, 57, 235, 120, 250
-0.998535, 97, 227, 160, 242
-0.998535, 201, 273, 264, 288
-0.998537, 105, 63, 168, 78
-0.998537, 153, 253, 184, 268
-0.998537, 85, 227, 116, 242
-0.998537, 153, 267, 184, 282
-0.998537, 185, 181, 248, 196
-0.998538, 57, 289, 120, 304
-0.998538, 193, 213, 256, 228
-0.998539, 193, 261, 256, 276
-0.998539, 113, 55, 176, 70
-0.998539, 117, 127, 148, 142
-0.998541, 185, 189, 248, 204
-0.998541, 177, 271, 240, 286
-0.998542, 177, 1, 240, 16
-0.998545, 145, 293, 208, 308
-0.998546, 105, 263, 168, 278
-0.998546, 81, 215, 112, 230
-0.998546, 169, 235, 232, 250
-0.998546, 61, 225, 92, 240
-0.998548, 85, 347, 116, 362
-0.998548, 149, 235, 180, 250
-0.998549, 49, 149, 112, 164
-0.998549, 129, 259, 160, 274
-0.99855, 81, 261, 144, 276
-0.99855, 205, 173, 236, 188
-0.99855, 177, 199, 240, 214
-0.998552, 113, 63, 144, 78
-0.998552, 93, 359, 124, 374
-0.998552, 49, 309, 112, 324
-0.998553, 1, 319, 64, 334
-0.998553, 25, 309, 88, 324
-0.998553, 169, 255, 232, 270
-0.998554, 9, 285, 72, 300
-0.998554, 125, 51, 156, 66
-0.998555, 161, 337, 224, 352
-0.998555, 85, 87, 116, 102
-0.998556, 65, 339, 128, 354
-0.998557, 89, 359, 152, 374
-0.998557, 129, 7, 192, 22
-0.998558, 161, 25, 224, 40
-0.998558, 233, 137, 264, 152
-0.998558, 137, 219, 200, 234
-0.998559, 97, 373, 160, 388
-0.99856, 25, 363, 88, 378
-0.99856, 57, 125, 120, 140
-0.99856, 105, 239, 168, 254
-0.998561, 113, 107, 176, 122
-0.998561, 141, 257, 172, 272
-0.998562, 73, 99, 104, 114
-0.998563, 153, 267, 216, 282
-0.998564, 77, 303, 108, 318
-0.998564, 61, 111, 92, 126
-0.998565, 41, 283, 104, 298
-0.998565, 185, 375, 248, 390
-0.998566, 73, 143, 136, 158
-0.998566, 85, 243, 116, 258
-0.998567, 177, 249, 240, 264
-0.998568, 73, 223, 104, 238
-0.998569, 93, 79, 124, 94
-0.998572, 81, 133, 144, 148
-0.998572, 145, 33, 208, 48
-0.998573, 73, 109, 136, 124
-0.998573, 185, 243, 248, 258
-0.998573, 177, 203, 208, 218
-0.998573, 89, 121, 152, 136
-0.998573, 161, 19, 224, 34
-0.998573, 145, 111, 208, 126
-0.998574, 157, 113, 188, 128
-0.998574, 161, 223, 224, 238
-0.998574, 153, 261, 216, 276
-0.998574, 121, 225, 184, 240
-0.998575, 65, 105, 96, 120
-0.998575, 161, 169, 224, 184
-0.998576, 85, 249, 116, 264
-0.998576, 193, 219, 256, 234
-0.998577, 121, 1, 184, 16
-0.998577, 57, 241, 120, 256
-0.998578, 49, 247, 112, 262
-0.998578, 159, 177, 174, 304
-0.998579, 121, 35, 184, 50
-0.99858, 137, 199, 200, 214
-0.99858, 113, 127, 176, 142
-0.99858, 145, 251, 208, 266
-0.998581, 113, 207, 176, 222
-0.998581, 17, 273, 80, 288
-0.998581, 9, 383, 72, 398
-0.998581, 129, 25, 192, 40
-0.998581, 177, 287, 240, 302
-0.998581, 73, 259, 104, 274
-0.998581, 201, 281, 264, 296
-0.998582, 81, 267, 144, 282
-0.998583, 73, 155, 136, 170
-0.998585, 217, 165, 248, 180
-0.998585, 89, 103, 152, 118
-0.998585, 121, 41, 184, 56
-0.998586, 49, 345, 112, 360
-0.998586, 25, 265, 88, 280
-0.998587, 153, 261, 184, 276
-0.998587, 97, 383, 160, 398
-0.998587, 129, 121, 160, 136
-0.998588, 145, 229, 176, 244
-0.998597, 53, 117, 84, 132
-0.998597, 89, 225, 104, 352
-0.998601, 141, 115, 172, 130
-0.998601, 73, 155, 104, 170
-0.998602, 157, 207, 188, 222
-0.998603, 73, 253, 104, 268
-0.998605, 33, 129, 64, 384
-0.998636, 211, 145, 226, 272
-0.99866, 187, 193, 202, 320
-0.998662, 165, 193, 180, 320
-0.998677, 65, 149, 96, 164
-0.998684, 201, 167, 232, 182
-0.998699, 1, 177, 128, 208
-0.998709, 157, 241, 172, 368
-0.998726, 165, 241, 180, 368
-0.998735, 181, 193, 196, 320
-0.998753, 231, 145, 246, 272
-0.998757, 229, 241, 244, 368
-0.99876, 171, 177, 186, 304
-0.998766, 223, 177, 238, 304
-0.998786, 235, 193, 250, 320
-0.998787, 177, 273, 192, 400
-0.998788, 205, 177, 220, 304
-0.998792, 93, 273, 108, 400
-0.998798, 103, 273, 118, 400
-0.9988, 199, 193, 214, 320
-0.998809, 21, 129, 52, 384
-0.99881, 77, 81, 92, 208
-0.998828, 115, 225, 130, 352
-0.998831, 79, 257, 94, 384
-0.998835, 225, 129, 240, 256
-0.998835, 171, 241, 186, 368
-0.998836, 193, 209, 208, 336
-0.998846, 111, 49, 126, 176
-0.998869, 61, 81, 76, 208
-0.998881, 219, 225, 234, 352
-0.998886, 135, 49, 150, 176
-0.998887, 199, 257, 214, 384
-0.998893, 67, 241, 82, 368
-0.998907, 205, 273, 220, 400
-0.998924, 147, 193, 162, 320
-0.998925, 237, 129, 252, 256
-0.998926, 1, 189, 128, 220
-0.99893, 69, 81, 84, 208
-0.99893, 217, 161, 232, 288
-0.998931, 61, 209, 76, 336
-0.998931, 121, 241, 136, 368
-0.998939, 51, 241, 66, 368
-0.998947, 131, 1, 146, 128
-0.99895, 175, 1, 190, 128
-0.998953, 239, 17, 254, 144
-0.998954, 137, 241, 152, 368
-0.99898, 149, 33, 164, 160
-0.998981, 213, 241, 228, 368
-0.998985, 229, 193, 244, 320
-0.998993, 59, 129, 74, 256
-0.998996, 141, 193, 156, 320
-0.999002, 121, 193, 136, 320
-0.999004, 61, 257, 76, 384
-0.999011, 95, 225, 110, 352
-0.999013, 93, 65, 108, 192
-0.999018, 109, 257, 124, 384
-0.99902, 183, 273, 198, 400
-0.999022, 153, 193, 168, 320
-0.999025, 105, 65, 120, 192
-0.999032, 101, 193, 116, 320
-0.999035, 73, 241, 88, 368
-0.999039, 129, 241, 144, 368
-0.999045, 243, 193, 258, 320
-0.999046, 205, 225, 220, 352
-0.999052, 83, 209, 98, 336
-0.999054, 147, 273, 162, 400
-0.999055, 111, 145, 126, 272
-0.999065, 109, 209, 124, 336
-0.999067, 185, 1, 200, 128
-0.999073, 115, 273, 130, 400
-0.999074, 27, 257, 42, 384
-0.999076, 125, 17, 140, 144
-0.999077, 243, 129, 258, 256
-0.999078, 141, 33, 156, 160
-0.999084, 239, 257, 254, 384
-0.999086, 247, 81, 262, 208
-0.9991, 141, 113, 156, 240
-0.999101, 231, 1, 246, 128
-0.999106, 129, 177, 144, 304
-0.999113, 135, 161, 150, 288
-0.999115, 211, 193, 226, 320
-0.999122, 67, 145, 82, 272
-0.999124, 209, 1, 224, 128
-0.999127, 7, 273, 22, 400
-0.999128, 77, 193, 92, 320
-0.999133, 53, 113, 68, 240
-0.999134, 203, 129, 218, 256
-0.999141, 85, 65, 100, 192
-0.999146, 149, 113, 164, 240
-0.999152, 245, 241, 260, 368
-0.999155, 161, 65, 176, 192
-0.999163, 221, 1, 236, 128
-0.999167, 85, 273, 100, 400
-0.999168, 41, 257, 56, 384
-0.999169, 249, 129, 264, 256
-0.999187, 1, 257, 16, 384
-0.999192, 193, 257, 208, 384
-0.999192, 213, 97, 228, 224
-0.999194, 99, 65, 114, 192
-0.999202, 117, 81, 132, 208
-0.999203, 21, 257, 36, 384
-0.999207, 185, 145, 200, 272
-0.99921, 117, 1, 132, 128
-0.999211, 35, 257, 50, 384
-0.999212, 249, 193, 264, 320
-0.99922, 193, 145, 208, 272
-0.999232, 127, 65, 142, 192
-0.999233, 117, 129, 132, 256
-0.999235, 235, 65, 250, 192
-0.999244, 127, 113, 142, 240
-0.999258, 163, 1, 178, 128
-0.99926, 135, 113, 150, 240
-0.999261, 169, 17, 184, 144
-0.999263, 161, 113, 176, 240
-0.999269, 157, 1, 172, 128
-0.999276, 103, 17, 118, 144
-0.999277, 13, 257, 28, 384
-0.999279, 67, 193, 82, 320
-0.999289, 83, 161, 98, 288
-0.999289, 177, 145, 192, 272
-0.99929, 55, 193, 70, 320
-0.999293, 49, 1, 64, 128
-0.999293, 219, 113, 234, 240
-0.999297, 49, 49, 64, 176
-0.999313, 111, 97, 126, 224
-0.99932, 241, 65, 256, 192
-0.999323, 73, 1, 104, 256
-0.999323, 229, 81, 244, 208
-0.999336, 23, 1, 38, 128
-0.999337, 199, 1, 214, 128
-0.999343, 111, 1, 126, 128
-0.99935, 171, 129, 186, 256
-0.999355, 245, 1, 260, 128
-0.999368, 43, 1, 58, 128
-0.999372, 219, 273, 234, 400
-0.999407, 1, 121, 64, 184
-0.999507, 9, 129, 40, 384
-0.999521, 21, 1, 52, 256
-0.999638, 81, 215, 96, 230
-0.999638, 135, 181, 150, 196
-0.999638, 239, 147, 254, 162
-0.999638, 133, 45, 148, 60
-0.999639, 45, 269, 60, 284
-0.999639, 75, 153, 90, 168
-0.999639, 85, 319, 100, 334
-0.999639, 19, 275, 34, 290
-0.99964, 179, 231, 194, 246
-0.99964, 147, 203, 162, 218
-0.999641, 139, 267, 154, 282
-0.999642, 81, 249, 96, 264
-0.999642, 97, 271, 112, 286
-0.999643, 243, 283, 258, 298
-0.999643, 79, 263, 94, 278
-0.999644, 175, 197, 190, 212
-0.999644, 201, 217, 216, 232
-0.999644, 87, 219, 102, 234
-0.999646, 97, 329, 112, 344
-0.999646, 231, 193, 246, 208
-0.999647, 137, 247, 152, 262
-0.999647, 61, 327, 76, 342
-0.999647, 103, 353, 118, 368
-0.999648, 215, 243, 230, 258
-0.999649, 129, 275, 144, 290
-0.999649, 95, 253, 110, 268
-0.999649, 101, 237, 116, 252
-0.99965, 223, 201, 238, 216
-0.99965, 65, 219, 80, 234
-0.99965, 103, 161, 118, 176
-0.99965, 83, 345, 98, 360
-0.999651, 149, 269, 164, 284
-0.999652, 57, 373, 72, 388
-0.999653, 235, 27, 250, 42
-0.999653, 91, 303, 106, 318
-0.999654, 97, 299, 112, 314
-0.999655, 215, 5, 230, 20
-0.999655, 105, 359, 120, 374
-0.999657, 219, 167, 234, 182
-0.999657, 51, 263, 66, 278
-0.999658, 99, 213, 114, 228
-0.999658, 141, 233, 156, 248
-0.999658, 145, 175, 160, 190
-0.999658, 75, 351, 90, 366
-0.999659, 103, 273, 118, 288
-0.99966, 157, 301, 172, 316
-0.99966, 65, 319, 80, 334
-0.99966, 71, 323, 86, 338
-0.999661, 93, 219, 108, 234
-0.999661, 87, 261, 102, 276
-0.999662, 151, 263, 166, 278
-0.999662, 35, 277, 50, 292
-0.999662, 63, 333, 78, 348
-0.999663, 233, 207, 248, 222
-0.999663, 89, 363, 104, 378
-0.999665, 93, 291, 108, 306
-0.999665, 149, 211, 164, 226
-0.999666, 83, 297, 98, 312
-0.999668, 171, 205, 186, 220
-0.999669, 229, 201, 244, 216
-0.99967, 127, 125, 142, 140
-0.99967, 69, 341, 84, 356
-0.99967, 223, 173, 238, 188
-0.999671, 87, 325, 102, 340
-0.999671, 83, 89, 98, 104
-0.999672, 77, 95, 92, 110
-0.999673, 157, 251, 172, 266
-0.999673, 79, 223, 94, 238
-0.999673, 221, 255, 236, 270
-0.999674, 57, 231, 72, 246
-0.999675, 23, 359, 38, 374
-0.999675, 83, 353, 98, 368
-0.999675, 71, 231, 86, 246
-0.999675, 127, 49, 142, 64
-0.999676, 155, 225, 170, 240
-0.999676, 109, 67, 124, 82
-0.999678, 163, 111, 178, 126
-0.999678, 141, 273, 156, 288
-0.999678, 55, 115, 70, 130
-0.999681, 61, 109, 76, 124
-0.999682, 71, 259, 86, 274
-0.999683, 101, 73, 116, 88
-0.999683, 61, 225, 76, 240
-0.999685, 169, 111, 184, 126
-0.999685, 57, 121, 72, 136
-0.999686, 77, 257, 92, 272
-0.999686, 245, 147, 260, 162
-0.999687, 71, 101, 86, 116
-0.999687, 151, 235, 166, 250
-0.999688, 87, 155, 102, 170
-0.999689, 197, 211, 212, 226
-0.999689, 147, 229, 162, 244
-0.99969, 153, 219, 168, 234
-0.999692, 169, 199, 184, 214
-0.999695, 87, 251, 102, 266
-0.999697, 89, 85, 104, 100
-0.999697, 167, 261, 182, 276
-0.999697, 95, 361, 110, 376
-0.999697, 217, 249, 232, 264
-0.999698, 73, 147, 88, 162
-0.999699, 85, 305, 100, 320
-0.999699, 135, 121, 150, 136
-0.999702, 71, 217, 86, 232
-0.999703, 9, 1, 40, 256
-0.999706, 29, 361, 44, 376
-0.999708, 121, 125, 136, 140
-0.999708, 61, 155, 76, 170
-0.999711, 121, 55, 136, 70
-0.999712, 95, 79, 110, 94
-0.999713, 159, 207, 174, 222
-0.999714, 149, 117, 164, 132
-0.999715, 91, 347, 106, 362
-0.999716, 89, 297, 104, 312
-0.999717, 161, 229, 176, 244
-0.999718, 115, 61, 130, 76
-0.999718, 227, 165, 242, 180
-0.999722, 141, 119, 156, 134
-0.999724, 93, 353, 108, 368
-0.999724, 171, 235, 186, 250
-0.999726, 81, 153, 96, 168
-0.999727, 131, 269, 146, 284
-0.999731, 195, 205, 210, 220
-0.999732, 157, 113, 172, 128
-0.999735, 89, 241, 104, 256
-0.999737, 147, 255, 162, 270
-0.999738, 73, 225, 88, 240
-0.99974, 155, 289, 170, 304
-0.999745, 65, 231, 80, 246
-0.999754, 205, 167, 220, 182
-0.999757, 67, 225, 82, 240
-0.999778, 67, 149, 82, 164
-1.00057, 33, 161, 64, 288
-1.00176, 21, 145, 52, 272
-1.00206, 9, 145, 40, 272
-1.00221, 1, 145, 64, 272
-1.00326, 21, 97, 52, 224
-1.00379, 1, 97, 32, 224
-1.00514, 1, 97, 64, 224
