1938
-0.0318577, 1, 1, 500, 357
-0.176152, 1, 1, 500, 256
-0.242666, 65, 1, 320, 357
-0.29974, 161, 1, 416, 357
-0.343657, 1, 97, 500, 352
-0.352193, 65, 1, 320, 256
-0.401563, 257, 1, 500, 357
-0.461275, 161, 1, 416, 256
-0.515013, 257, 97, 500, 352
-0.59138, 257, 1, 500, 256
-0.646721, 161, 97, 416, 352
-0.649668, 1, 97, 256, 352
-0.804134, 81, 1, 208, 256
-0.81727, 81, 1, 208, 357
-0.826571, 145, 1, 272, 357
-0.828761, 193, 1, 320, 256
-0.830349, 1, 1, 128, 256
-0.831222, 273, 1, 400, 357
-0.834818, 145, 1, 272, 256
-0.834838, 1, 17, 500, 144
-0.837013, 33, 1, 160, 357
-0.837015, 257, 1, 384, 256
-0.842491, 193, 1, 320, 357
-0.855129, 1, 65, 500, 192
-0.85519, 1, 145, 500, 272
-0.858276, 321, 1, 448, 357
-0.860605, 17, 97, 144, 352
-0.862008, 273, 97, 400, 352
-0.866706, 337, 65, 464, 320
-0.874442, 161, 1, 416, 128
-0.890067, 209, 97, 336, 352
-0.892741, 33, 17, 288, 144
-0.904849, 161, 97, 288, 352
-0.908398, 257, 129, 500, 256
-0.909045, 1, 161, 256, 288
-0.910113, 1, 193, 500, 320
-0.910169, 145, 1, 272, 128
-0.91121, 65, 97, 192, 352
-0.912143, 193, 81, 448, 208
-0.913351, 369, 1, 496, 357
-0.913476, 1, 113, 256, 240
-0.917955, 81, 17, 208, 144
-0.919442, 193, 1, 256, 128
-0.92027, 257, 1, 384, 128
-0.920749, 65, 65, 320, 192
-0.921087, 161, 1, 224, 128
-0.923354, 161, 161, 416, 288
-0.926816, 113, 97, 240, 352
-0.928888, 273, 81, 400, 208
-0.9292, 321, 1, 384, 128
-0.931222, 209, 1, 336, 128
-0.931834, 81, 17, 144, 144
-0.931907, 257, 1, 500, 128
-0.932732, 217, 1, 280, 128
-0.933143, 33, 129, 160, 256
-0.934351, 105, 17, 168, 144
-0.934507, 41, 145, 104, 272
-0.936151, 321, 129, 448, 256
-0.936679, 1, 1, 128, 128
-0.937572, 1, 81, 128, 208
-0.938043, 153, 17, 216, 80
-0.938832, 105, 25, 168, 88
-0.941086, 97, 113, 352, 240
-0.941102, 241, 1, 304, 128
-0.942385, 321, 97, 384, 224
-0.943484, 33, 177, 160, 304
-0.944004, 129, 161, 256, 288
-0.944396, 257, 177, 500, 304
-0.944456, 137, 1, 200, 128
-0.944586, 273, 161, 400, 288
-0.946685, 313, 1, 376, 64
-0.947774, 65, 65, 192, 192
-0.948138, 337, 33, 464, 160
-0.948273, 41, 97, 104, 224
-0.948432, 193, 17, 256, 80
-0.948861, 81, 25, 144, 88
-0.949346, 337, 81, 464, 208
-0.949462, 41, 153, 104, 216
-0.950101, 193, 161, 320, 288
-0.950764, 353, 129, 416, 256
-0.950969, 129, 161, 192, 288
-0.951712, 193, 41, 256, 104
-0.95186, 81, 113, 208, 240
-0.952714, 313, 161, 376, 288
-0.952845, 265, 1, 328, 128
-0.953062, 297, 1, 360, 128
-0.953296, 81, 161, 208, 288
-0.95417, 129, 17, 192, 80
-0.954373, 249, 161, 312, 288
-0.954739, 153, 161, 216, 288
-0.954886, 273, 161, 336, 288
-0.955691, 209, 113, 336, 240
-0.956026, 81, 1, 144, 256
-0.956344, 297, 97, 360, 224
-0.956689, 185, 161, 248, 288
-0.957088, 1, 1, 64, 128
-0.957632, 25, 297, 88, 357
-0.957916, 225, 161, 288, 288
-0.958773, 73, 65, 136, 192
-0.958843, 73, 161, 136, 288
-0.958923, 73, 57, 136, 120
-0.959078, 401, 129, 464, 256
-0.959193, 1, 297, 64, 357
-0.9594, 289, 249, 352, 312
-0.959624, 153, 41, 216, 104
-0.95971, 273, 113, 336, 240
-0.959787, 105, 161, 168, 288
-0.960326, 353, 209, 480, 336
-0.960352, 1, 65, 64, 192
-0.960431, 321, 49, 384, 176
-0.960466, 73, 113, 136, 240
-0.960487, 353, 33, 416, 160
-0.960749, 177, 65, 304, 192
-0.961301, 353, 81, 416, 208
-0.962269, 1, 145, 64, 272
-0.96267, 257, 225, 500, 352
-0.963275, 129, 17, 256, 80
-0.963643, 41, 17, 104, 144
-0.963673, 149, 25, 180, 88
-0.963706, 1, 225, 256, 352
-0.964018, 321, 177, 384, 240
-0.964091, 233, 1, 296, 256
-0.964227, 85, 33, 116, 96
-0.964393, 65, 33, 192, 96
-0.964411, 217, 57, 280, 120
-0.964573, 225, 1, 288, 64
-0.964642, 249, 113, 312, 240
-0.964688, 105, 1, 168, 256
-0.96477, 321, 1, 384, 256
-0.964873, 89, 17, 120, 144
-0.964886, 281, 1, 344, 64
-0.965447, 161, 113, 288, 240
-0.965486, 361, 137, 424, 200
-0.965532, 193, 1, 256, 256
-0.965635, 145, 1, 208, 256
-0.96606, 401, 49, 464, 176
-0.966182, 265, 177, 328, 240
-0.966201, 201, 1, 232, 128
-0.966269, 225, 1, 256, 128
-0.966314, 213, 1, 244, 128
-0.966371, 137, 177, 200, 240
-0.966473, 9, 225, 72, 352
-0.966584, 73, 185, 136, 248
-0.966589, 57, 33, 120, 96
-0.966608, 113, 177, 176, 240
-0.967275, 1, 121, 64, 184
-0.967314, 129, 41, 256, 104
-0.967449, 329, 281, 392, 344
-0.967588, 401, 177, 464, 304
-0.967686, 169, 1, 232, 256
-0.96769, 249, 1, 312, 64
-0.967797, 41, 121, 104, 184
-0.967809, 1, 1, 64, 256
-0.968124, 241, 177, 304, 240
-0.968334, 161, 177, 224, 240
-0.968448, 129, 41, 192, 104
-0.968495, 209, 177, 272, 240
-0.96851, 105, 49, 168, 112
-0.968597, 257, 1, 320, 256
-0.968628, 377, 129, 440, 256
-0.968859, 173, 1, 204, 128
-0.968975, 97, 25, 128, 88
-0.968991, 273, 1, 400, 64
-0.969027, 129, 49, 256, 176
-0.969119, 185, 177, 248, 240
-0.969159, 297, 177, 360, 240
-0.969167, 321, 145, 384, 208
-0.969314, 33, 209, 96, 336
-0.969563, 321, 97, 384, 160
-0.96978, 369, 129, 496, 256
-0.969809, 341, 1, 372, 128
-0.969832, 169, 17, 200, 80
-0.970131, 237, 1, 268, 128
-0.97024, 73, 145, 136, 208
-0.970497, 289, 65, 352, 320
-0.970648, 161, 113, 224, 240
-0.970705, 1, 113, 128, 176
-0.970712, 197, 17, 228, 80
-0.971031, 305, 273, 368, 336
-0.971066, 225, 113, 288, 240
-0.971381, 17, 153, 144, 216
-0.971431, 41, 89, 104, 152
-0.971595, 1, 41, 128, 104
-0.971717, 337, 137, 464, 200
-0.971793, 189, 1, 220, 128
-0.971902, 213, 17, 244, 80
-0.972006, 321, 65, 384, 128
-0.972157, 249, 1, 280, 128
-0.972287, 353, 41, 416, 104
-0.97241, 209, 49, 272, 176
-0.972414, 65, 57, 192, 120
-0.972434, 1, 17, 128, 80
-0.972493, 41, 65, 104, 320
-0.972794, 321, 25, 384, 88
-0.972842, 85, 57, 116, 120
-0.973016, 193, 113, 256, 240
-0.973095, 345, 1, 376, 64
-0.973227, 353, 113, 416, 176
-0.973338, 273, 273, 336, 336
-0.973366, 41, 177, 104, 240
-0.973394, 393, 1, 456, 128
-0.973488, 137, 25, 168, 88
-0.97351, 9, 273, 72, 336
-0.973635, 149, 17, 180, 144
-0.973773, 29, 297, 60, 357
-0.97381, 17, 225, 144, 352
-0.973821, 121, 25, 152, 88
-0.973977, 349, 97, 380, 224
-0.974102, 41, 57, 104, 120
-0.974123, 1, 73, 128, 136
-0.974151, 17, 177, 144, 240
-0.974151, 353, 65, 416, 128
-0.974233, 257, 257, 384, 320
-0.974248, 137, 113, 200, 240
-0.974822, 385, 209, 448, 272
-0.974832, 1, 153, 64, 216
-0.97485, 321, 97, 384, 352
-0.974902, 181, 17, 212, 80
-0.974922, 9, 17, 72, 80
-0.97518, 101, 17, 132, 144
-0.975244, 113, 113, 176, 240
-0.975315, 273, 105, 400, 168
-0.975319, 209, 1, 336, 64
-0.975358, 129, 49, 192, 176
-0.975373, 41, 145, 72, 272
-0.975596, 109, 25, 140, 88
-0.975613, 81, 1, 144, 357
-0.975792, 185, 49, 248, 176
-0.975848, 265, 249, 328, 312
-0.975853, 425, 49, 488, 176
-0.975869, 161, 17, 192, 144
-0.976018, 353, 1, 384, 128
-0.976118, 393, 33, 456, 96
-0.976254, 337, 281, 368, 344
-0.976298, 13, 297, 44, 357
-0.976394, 137, 17, 168, 144
-0.976693, 225, 65, 352, 192
-0.976781, 1, 297, 32, 357
-0.976812, 361, 193, 424, 320
-0.976817, 69, 129, 100, 256
-0.976842, 201, 41, 232, 104
-0.976934, 113, 177, 240, 240
-0.976952, 113, 17, 144, 144
-0.976999, 193, 65, 256, 128
-0.977021, 401, 129, 464, 192
-0.9772, 249, 281, 312, 344
-0.977213, 401, 33, 464, 288
-0.977251, 153, 1, 216, 357
-0.977289, 65, 145, 192, 208
-0.977319, 113, 1, 176, 357
-0.977518, 353, 17, 416, 80
-0.977553, 241, 177, 368, 240
-0.977579, 353, 89, 416, 152
-0.977686, 81, 97, 112, 224
-0.977744, 233, 57, 264, 120
-0.977746, 257, 281, 384, 344
-0.97775, 345, 161, 408, 224
-0.977764, 125, 17, 156, 144
-0.977873, 337, 177, 400, 304
-0.977909, 177, 1, 240, 357
-0.977938, 401, 225, 464, 352
-0.978071, 313, 249, 376, 312
-0.978124, 41, 297, 72, 357
-0.978135, 329, 1, 360, 128
-0.978167, 345, 1, 408, 256
-0.978329, 225, 17, 256, 80
-0.978423, 345, 97, 408, 352
-0.978517, 377, 65, 440, 192
-0.978519, 201, 1, 264, 357
-0.978556, 277, 265, 308, 328
-0.978584, 105, 1, 168, 64
-0.978623, 253, 1, 284, 64
-0.978676, 177, 49, 304, 112
-0.978747, 105, 185, 136, 248
-0.978784, 193, 177, 320, 240
-0.978795, 289, 177, 416, 240
-0.978966, 305, 1, 368, 357
-0.97897, 337, 73, 464, 136
-0.979119, 261, 1, 292, 128
-0.979195, 289, 209, 416, 336
-0.979196, 337, 41, 464, 104
-0.9792, 305, 225, 368, 352
-0.979219, 273, 137, 400, 200
-0.979236, 217, 25, 280, 88
-0.979243, 329, 121, 392, 184
-0.97943, 289, 1, 320, 64
-0.979491, 273, 49, 400, 112
-0.979535, 329, 1, 392, 357
-0.979581, 401, 185, 464, 248
-0.979667, 417, 1, 480, 128
-0.979691, 161, 209, 416, 336
-0.979698, 257, 153, 320, 216
-0.979749, 133, 161, 164, 288
-0.97978, 125, 185, 156, 248
-0.979857, 325, 1, 356, 64
-0.979859, 417, 49, 480, 112
-0.979953, 81, 9, 208, 72
-0.980025, 153, 161, 184, 288
-0.980041, 73, 81, 136, 144
-0.980082, 285, 161, 316, 288
-0.980212, 273, 161, 304, 288
-0.980223, 317, 1, 348, 128
-0.980242, 69, 153, 100, 216
-0.980304, 321, 161, 352, 288
-0.980396, 241, 257, 304, 320
-0.980398, 429, 97, 460, 224
-0.980479, 301, 161, 332, 288
-0.980495, 361, 25, 392, 88
-0.980563, 233, 49, 296, 176
-0.980601, 65, 177, 192, 240
-0.980634, 337, 17, 464, 80
-0.980635, 49, 297, 112, 357
-0.980678, 241, 209, 368, 336
-0.980693, 257, 161, 288, 288
-0.980711, 213, 161, 244, 288
-0.980749, 337, 257, 400, 320
-0.980819, 341, 161, 372, 288
-0.980837, 345, 185, 408, 248
-0.980914, 249, 97, 312, 352
-0.98098, 273, 1, 304, 128
-0.980982, 241, 161, 272, 288
-0.981025, 337, 97, 464, 160
-0.981105, 297, 153, 360, 216
-0.98111, 165, 161, 196, 288
-0.981144, 349, 49, 380, 176
-0.98117, 241, 65, 304, 128
-0.981195, 365, 17, 396, 144
-0.981204, 229, 161, 260, 288
-0.981286, 181, 161, 212, 288
-0.981387, 301, 1, 332, 128
-0.981402, 33, 209, 96, 272
-0.981404, 213, 41, 244, 104
-0.981413, 1, 297, 128, 357
-0.981443, 1, 89, 64, 152
-0.981485, 337, 161, 464, 224
-0.981578, 105, 161, 136, 288
-0.981581, 349, 97, 380, 160
-0.981593, 309, 249, 340, 312
-0.981624, 73, 113, 136, 176
-0.981636, 5, 81, 36, 208
-0.981648, 353, 209, 480, 272
-0.981714, 425, 49, 456, 176
-0.981757, 285, 1, 316, 128
-0.981766, 401, 97, 464, 160
-0.981809, 93, 185, 124, 248
-0.981819, 269, 177, 300, 240
-0.982023, 221, 177, 252, 240
-0.982033, 177, 25, 304, 88
-0.98205, 193, 161, 224, 288
-0.982238, 153, 177, 184, 240
-0.982266, 333, 97, 364, 224
-0.982297, 233, 1, 296, 357
-0.982326, 93, 177, 124, 304
-0.982344, 361, 209, 424, 272
-0.982373, 233, 153, 296, 216
-0.98239, 425, 1, 456, 128
-0.982397, 161, 153, 224, 216
-0.982425, 249, 177, 280, 240
-0.98246, 365, 129, 396, 256
-0.98247, 193, 73, 320, 136
-0.982513, 281, 177, 312, 240
-0.982518, 177, 177, 208, 240
-0.982537, 185, 153, 248, 216
-0.982552, 273, 25, 400, 88
-0.982579, 273, 81, 400, 144
-0.982623, 409, 289, 472, 352
-0.982637, 241, 9, 272, 72
-0.982657, 237, 177, 268, 240
-0.982682, 273, 1, 336, 357
-0.982729, 141, 177, 172, 240
-0.982772, 321, 257, 352, 320
-0.982779, 205, 177, 236, 240
-0.982787, 313, 1, 344, 64
-0.982839, 153, 49, 216, 176
-0.982853, 297, 177, 328, 240
-0.982858, 401, 73, 464, 136
-0.982867, 121, 177, 152, 304
-0.982889, 349, 177, 380, 240
-0.982906, 273, 225, 336, 288
-0.98298, 333, 177, 364, 240
-0.98302, 217, 97, 280, 352
-0.983042, 193, 177, 224, 240
-0.983047, 81, 177, 112, 304
-0.983165, 41, 225, 72, 352
-0.983199, 41, 9, 104, 72
-0.98321, 309, 177, 340, 240
-0.983215, 301, 1, 332, 64
-0.983274, 165, 177, 196, 240
-0.983305, 413, 129, 444, 256
-0.983356, 365, 137, 396, 200
-0.983468, 209, 281, 336, 344
-0.983475, 77, 17, 108, 144
-0.983591, 293, 257, 324, 320
-0.983634, 429, 113, 460, 176
-0.983673, 81, 145, 112, 208
-0.983798, 189, 41, 220, 104
-0.983819, 113, 153, 176, 216
-0.983841, 353, 145, 384, 272
-0.98389, 417, 25, 480, 88
-0.98392, 321, 177, 352, 240
-0.983939, 321, 97, 352, 224
-0.983959, 333, 257, 364, 320
-0.98401, 81, 1, 144, 64
-0.98401, 329, 225, 392, 352
-0.98404, 21, 145, 52, 272
-0.984107, 361, 81, 392, 208
-0.984146, 1, 65, 64, 128
-0.98419, 401, 249, 464, 312
-0.984213, 1, 41, 64, 104
-0.984223, 289, 97, 320, 224
-0.984265, 209, 153, 272, 216
-0.984416, 425, 73, 488, 136
-0.98445, 265, 1, 296, 64
-0.984494, 305, 97, 336, 224
-0.984544, 193, 153, 320, 216
-0.984553, 129, 65, 192, 128
-0.984554, 245, 57, 276, 120
-0.984608, 9, 1, 40, 128
-0.984623, 33, 273, 96, 336
-0.98466, 73, 33, 104, 96
-0.984668, 361, 49, 392, 112
-0.984703, 37, 137, 68, 200
-0.984765, 425, 97, 488, 160
-0.984812, 33, 233, 96, 296
-0.984883, 345, 73, 376, 136
-0.984887, 145, 1, 176, 64
-0.984914, 129, 65, 256, 128
-0.984931, 5, 113, 36, 176
-0.984964, 69, 113, 100, 176
-0.984973, 69, 81, 100, 208
-0.985044, 33, 1, 64, 128
-0.985087, 393, 9, 456, 72
-0.985106, 433, 177, 464, 304
-0.985161, 137, 153, 200, 216
-0.985298, 1, 97, 64, 352
-0.985354, 65, 81, 192, 144
-0.98538, 273, 297, 336, 357
-0.985406, 161, 41, 192, 104
-0.985418, 1, 185, 64, 248
-0.985519, 241, 41, 304, 104
-0.985547, 65, 113, 192, 176
-0.985567, 57, 1, 120, 357
-0.985696, 273, 289, 304, 352
-0.985711, 297, 97, 360, 160
-0.985816, 17, 153, 48, 216
-0.985818, 425, 33, 456, 96
-0.985861, 277, 113, 308, 240
-0.985865, 377, 105, 440, 168
-0.985953, 365, 73, 396, 136
-0.986005, 433, 225, 464, 352
-0.986058, 53, 145, 84, 272
-0.986073, 73, 97, 136, 352
-0.986082, 209, 249, 336, 312
-0.986126, 281, 209, 344, 336
-0.986136, 277, 9, 308, 72
-0.986168, 37, 97, 68, 224
-0.986168, 161, 1, 416, 64
-0.986183, 349, 145, 380, 208
-0.986186, 81, 185, 112, 248
-0.986469, 69, 73, 100, 136
-0.9865, 81, 81, 112, 144
-0.986515, 1, 1, 64, 357
-0.986579, 425, 97, 488, 224
-0.986658, 149, 57, 180, 120
-0.9867, 321, 249, 448, 312
-0.986726, 345, 41, 376, 104
-0.986821, 21, 81, 52, 208
-0.986878, 97, 57, 128, 120
-0.986892, 401, 1, 464, 357
-0.986929, 433, 289, 496, 352
-0.987, 33, 41, 288, 104
-0.987036, 33, 9, 64, 72
-0.987038, 353, 1, 416, 357
-0.987134, 289, 209, 416, 272
-0.987221, 361, 161, 392, 224
-0.987245, 265, 113, 296, 240
-0.987253, 157, 1, 188, 64
-0.987258, 17, 201, 144, 264
-0.987297, 61, 297, 92, 357
-0.987307, 225, 49, 352, 112
-0.987318, 425, 225, 488, 352
-0.987318, 417, 1, 480, 64
-0.987329, 365, 113, 396, 176
-0.987329, 145, 153, 272, 216
-0.987357, 433, 289, 464, 352
-0.98738, 1, 249, 64, 312
-0.987391, 425, 57, 456, 120
-0.987391, 425, 137, 456, 200
-0.98746, 193, 97, 256, 352
-0.987522, 105, 25, 168, 56
-0.987525, 361, 1, 392, 64
-0.987741, 33, 33, 96, 96
-0.987834, 229, 81, 260, 208
-0.987865, 353, 273, 480, 336
-0.987882, 1, 225, 64, 288
-0.98789, 329, 225, 392, 288
-0.987917, 81, 121, 112, 184
-0.987928, 409, 217, 472, 280
-0.988003, 161, 65, 224, 128
-0.988022, 1, 17, 500, 80
-0.988029, 145, 97, 208, 352
-0.988157, 41, 153, 104, 184
-0.988165, 81, 29, 144, 60
-0.988197, 425, 9, 456, 72
-0.988213, 17, 225, 144, 288
-0.988228, 1, 273, 128, 336
-0.988264, 433, 193, 464, 256
-0.988283, 377, 1, 440, 256
-0.988391, 1, 41, 500, 104
-0.988492, 313, 1, 376, 32
-0.988558, 413, 137, 444, 200
-0.988585, 173, 113, 204, 240
-0.988598, 385, 129, 416, 256
-0.988647, 377, 97, 440, 352
-0.988679, 253, 113, 284, 240
-0.98874, 433, 217, 464, 280
-0.98876, 189, 113, 220, 240
-0.988764, 1, 273, 32, 336
-0.988771, 117, 129, 148, 256
-0.988903, 161, 113, 192, 240
-0.98897, 273, 273, 336, 304
-0.988976, 21, 1, 52, 128
-0.988982, 241, 113, 272, 240
-0.989016, 153, 21, 216, 52
-0.989186, 305, 217, 368, 280
-0.989192, 425, 121, 488, 184
-0.989197, 325, 281, 356, 344
-0.989205, 129, 25, 192, 56
-0.989231, 429, 81, 460, 144
-0.989261, 73, 41, 136, 72
-0.989317, 133, 1, 164, 64
-0.989326, 5, 17, 36, 80
-0.989347, 105, 97, 168, 352
-0.989366, 1, 177, 500, 240
-0.989375, 21, 273, 52, 336
-0.989393, 305, 297, 368, 357
-0.989397, 217, 113, 248, 240
-0.989412, 145, 113, 176, 240
-0.989444, 433, 265, 464, 328
-0.98946, 105, 45, 168, 76
-0.989475, 21, 121, 52, 184
-0.989487, 33, 113, 64, 176
-0.989505, 1, 65, 500, 128
-0.989563, 401, 129, 432, 256
-0.989572, 9, 297, 72, 328
-0.989572, 205, 113, 236, 240
-0.989616, 1, 177, 256, 240
-0.98965, 9, 313, 72, 344
-0.989666, 137, 49, 168, 112
-0.989674, 33, 273, 64, 336
-0.989679, 193, 49, 256, 80
-0.989703, 33, 1, 96, 357
-0.989706, 21, 193, 52, 320
-0.989725, 305, 273, 368, 304
-0.989743, 73, 57, 136, 88
-0.989756, 137, 41, 200, 72
-0.98978, 217, 81, 280, 144
-0.989793, 41, 165, 104, 196
-0.989836, 25, 325, 88, 356
-0.989885, 169, 97, 232, 352
-0.989895, 33, 17, 288, 80
-0.989913, 305, 281, 432, 344
-0.989915, 121, 297, 184, 357
-0.989917, 433, 161, 496, 288
-0.989917, 225, 65, 288, 96
-0.989946, 1, 65, 256, 128
-0.990038, 225, 25, 352, 88
-0.990038, 161, 49, 224, 80
-0.990067, 433, 217, 496, 280
-0.990089, 193, 49, 448, 112
-0.990101, 273, 65, 336, 192
-0.990108, 133, 113, 164, 240
-0.990132, 289, 1, 352, 32
-0.990133, 425, 33, 488, 288
-0.990135, 425, 265, 488, 328
-0.990147, 265, 9, 328, 40
-0.99019, 177, 209, 304, 336
-0.990219, 161, 9, 224, 40
-0.99027, 353, 185, 480, 248
-0.990271, 41, 177, 104, 208
-0.990272, 49, 297, 176, 357
-0.990294, 289, 281, 320, 344
-0.990307, 49, 45, 112, 76
-0.99035, 273, 261, 336, 292
-0.990361, 321, 177, 384, 208
-0.990377, 41, 141, 104, 172
-0.990429, 405, 209, 436, 272
-0.99043, 193, 225, 320, 288
-0.990468, 433, 241, 464, 304
-0.990539, 161, 37, 224, 68
-0.990539, 257, 161, 500, 224
-0.990544, 257, 137, 500, 200
-0.990579, 273, 177, 336, 208
-0.990584, 137, 181, 200, 212
-0.990599, 361, 137, 424, 168
-0.990642, 401, 161, 464, 224
-0.990658, 297, 261, 360, 292
-0.990659, 369, 213, 432, 244
-0.990674, 273, 233, 400, 296
-0.990691, 393, 209, 456, 240
-0.990704, 393, 201, 424, 264
-0.990724, 349, 121, 380, 184
-0.990754, 9, 281, 72, 312
-0.990764, 49, 33, 112, 64
-0.990776, 201, 17, 264, 48
-0.990786, 41, 81, 104, 112
-0.990826, 105, 57, 168, 88
-0.990833, 33, 293, 96, 324
-0.990847, 73, 165, 136, 196
-0.990851, 193, 25, 448, 88
-0.990883, 1, 133, 64, 164
-0.990908, 269, 153, 300, 216
-0.990917, 241, 225, 304, 288
-0.990918, 297, 177, 360, 208
-0.990926, 161, 181, 224, 212
-0.990937, 193, 61, 256, 92
-0.990942, 201, 181, 264, 212
-0.990945, 177, 21, 240, 52
-0.990959, 241, 5, 304, 36
-0.990963, 41, 117, 104, 148
-0.990974, 185, 5, 248, 36
-0.990984, 113, 181, 176, 212
-0.990984, 281, 153, 312, 216
-0.990989, 321, 97, 384, 128
-0.990997, 81, 185, 144, 216
-0.991046, 1, 325, 64, 356
-0.991049, 41, 93, 104, 124
-0.991056, 5, 89, 36, 152
-0.991062, 313, 13, 376, 44
-0.991068, 85, 9, 116, 72
-0.991083, 41, 69, 104, 100
-0.991083, 1, 153, 256, 216
-0.991084, 49, 325, 112, 356
-0.991101, 277, 241, 308, 304
-0.991103, 161, 265, 288, 328
-0.991106, 433, 145, 496, 208
-0.991117, 249, 177, 312, 208
-0.99112, 353, 57, 416, 88
-0.991126, 129, 177, 384, 240
-0.991142, 41, 57, 104, 88
-0.991149, 329, 165, 392, 196
-0.991161, 329, 273, 392, 304
-0.991183, 413, 113, 444, 176
-0.991188, 1, 153, 64, 184
-0.991228, 225, 181, 288, 212
-0.99126, 241, 273, 304, 304
-0.991281, 321, 113, 384, 144
-0.991289, 401, 197, 464, 228
-0.991292, 313, 285, 376, 316
-0.991295, 273, 221, 336, 252
-0.991296, 137, 53, 200, 84
-0.991302, 353, 45, 416, 76
-0.991303, 221, 65, 252, 128
-0.991314, 41, 105, 104, 136
-0.991326, 353, 297, 480, 357
-0.991326, 1, 137, 500, 200
-0.991337, 129, 13, 192, 44
-0.991351, 41, 209, 72, 272
-0.991353, 33, 309, 96, 340
-0.991356, 353, 125, 416, 156
-0.99138, 425, 169, 456, 232
-0.991383, 33, 217, 96, 248
-0.991401, 353, 33, 416, 64
-0.991431, 217, 265, 280, 328
-0.991442, 37, 161, 68, 224
-0.991464, 377, 1, 440, 357
-0.991487, 41, 129, 104, 160
-0.9915, 393, 137, 456, 168
-0.9915, 73, 297, 136, 357
-0.991504, 397, 193, 428, 320
-0.991508, 353, 69, 416, 100
-0.991518, 309, 225, 340, 288
-0.991526, 97, 1, 128, 64
-0.991545, 349, 273, 380, 336
-0.991546, 321, 85, 384, 116
-0.991549, 321, 25, 384, 56
-0.991555, 73, 69, 136, 100
-0.991564, 353, 101, 416, 132
-0.991568, 449, 289, 480, 352
-0.991576, 353, 165, 416, 196
-0.991578, 353, 81, 416, 112
-0.991582, 225, 17, 288, 48
-0.991594, 93, 129, 124, 256
-0.991598, 321, 45, 384, 76
-0.991609, 73, 145, 136, 176
-0.991631, 249, 285, 312, 316
-0.991657, 33, 249, 160, 312
-0.99168, 161, 61, 224, 92
-0.991684, 297, 225, 328, 288
-0.991698, 321, 69, 384, 100
-0.991722, 9, 17, 72, 48
-0.991759, 81, 217, 144, 280
-0.991768, 321, 57, 384, 88
-0.991769, 109, 161, 140, 224
-0.991772, 381, 209, 412, 272
-0.991793, 297, 49, 360, 176
-0.991812, 1, 121, 64, 152
-0.991812, 1, 105, 500, 168
-0.991826, 337, 145, 400, 176
-0.991827, 125, 161, 156, 224
-0.991829, 401, 125, 464, 156
-0.991835, 353, 21, 416, 52
-0.991874, 1, 109, 64, 140
-0.99189, 337, 1, 400, 32
-0.991893, 329, 261, 392, 292
-0.991925, 109, 49, 140, 112
-0.991935, 185, 37, 248, 68
-0.991938, 433, 193, 496, 256
-0.991941, 105, 217, 168, 280
-0.991956, 89, 37, 120, 68
-0.991983, 297, 165, 360, 196
-0.991989, 217, 53, 280, 84
-0.992011, 1, 81, 64, 112
-0.992021, 273, 165, 336, 196
-0.992023, 329, 133, 392, 164
-0.992029, 161, 73, 416, 136
-0.992033, 233, 209, 296, 336
-0.992069, 121, 1, 152, 64
-0.99208, 53, 65, 84, 192
-0.992081, 73, 85, 136, 116
-0.992083, 1, 61, 64, 92
-0.992106, 345, 201, 408, 232
-0.992111, 345, 1, 376, 32
-0.992112, 249, 165, 312, 196
-0.992117, 393, 37, 456, 68
-0.992129, 1, 97, 64, 128
-0.992137, 417, 41, 480, 72
-0.992138, 49, 21, 112, 52
-0.992154, 201, 73, 264, 104
-0.99216, 265, 201, 328, 264
-0.992166, 297, 325, 360, 356
-0.992166, 65, 273, 128, 336
-0.992204, 297, 221, 360, 252
-0.992209, 145, 25, 176, 56
-0.99223, 353, 113, 416, 144
-0.992245, 413, 177, 444, 304
-0.992253, 377, 57, 440, 120
-0.992273, 73, 121, 136, 152
-0.992279, 425, 325, 488, 356
-0.992289, 393, 49, 456, 80
-0.992297, 417, 73, 480, 104
-0.992299, 409, 305, 472, 336
-0.992303, 417, 53, 480, 84
-0.99231, 313, 241, 376, 272
-0.992318, 73, 105, 136, 136
-0.992323, 65, 41, 192, 72
-0.992332, 73, 133, 136, 164
-0.992334, 9, 293, 40, 324
-0.992346, 9, 205, 72, 236
-0.992358, 277, 269, 308, 300
-0.99236, 65, 33, 96, 160
-0.992365, 225, 113, 480, 176
-0.992374, 177, 9, 208, 40
-0.992378, 85, 57, 116, 88
-0.992383, 101, 29, 132, 60
-0.992384, 129, 25, 160, 56
-0.992416, 409, 49, 440, 176
-0.992423, 397, 209, 428, 240
-0.992428, 157, 21, 188, 52
-0.992452, 21, 297, 52, 328
-0.992471, 333, 273, 364, 304
-0.992478, 113, 29, 144, 60
-0.992486, 81, 29, 208, 60
-0.992547, 45, 325, 76, 356
-0.992548, 149, 41, 180, 72
-0.992584, 89, 25, 120, 56
-0.992596, 21, 309, 52, 340
-0.992603, 257, 1, 384, 32
-0.992633, 161, 145, 416, 208
-0.992659, 169, 21, 200, 52
-0.992672, 89, 33, 104, 96
-0.992679, 193, 21, 224, 52
-0.992683, 105, 113, 136, 240
-0.992685, 65, 153, 96, 184
-0.992698, 305, 261, 336, 292
-0.992717, 373, 65, 404, 192
-0.992741, 229, 61, 260, 92
-0.992748, 333, 5, 364, 36
-0.99275, 293, 277, 324, 308
-0.992752, 293, 1, 324, 32
-0.992753, 33, 325, 64, 356
-0.992767, 361, 33, 392, 64
-0.992771, 153, 25, 168, 88
-0.992819, 265, 5, 296, 36
-0.992821, 41, 213, 72, 244
-0.992829, 197, 45, 228, 76
-0.992837, 1, 309, 32, 340
-0.992838, 277, 1, 308, 32
-0.99284, 321, 1, 352, 32
-0.992847, 33, 293, 64, 324
-0.99285, 361, 21, 392, 52
-0.992854, 181, 21, 212, 52
-0.992858, 149, 181, 180, 212
-0.99288, 169, 181, 200, 212
-0.992885, 289, 177, 320, 208
-0.992887, 385, 209, 416, 240
-0.992893, 189, 5, 220, 36
-0.992902, 309, 277, 340, 308
-0.992904, 181, 181, 212, 212
-0.992907, 85, 165, 116, 196
-0.99291, 221, 17, 252, 48
-0.992911, 69, 141, 100, 172
-0.992911, 317, 177, 348, 208
-0.992913, 333, 261, 364, 292
-0.992914, 305, 177, 336, 208
-0.992917, 77, 45, 108, 76
-0.992918, 41, 153, 72, 184
-0.99292, 309, 9, 340, 40
-0.992923, 321, 277, 352, 308
-0.992927, 257, 277, 384, 308
-0.992935, 277, 177, 308, 208
-0.992943, 365, 157, 396, 188
-0.992952, 217, 181, 248, 212
-0.992954, 349, 177, 380, 208
-0.992957, 233, 17, 264, 48
-0.992959, 137, 181, 168, 212
-0.992961, 205, 21, 236, 52
-0.992964, 361, 45, 392, 76
-0.992964, 277, 285, 308, 316
-0.99297, 45, 313, 76, 344
-0.992971, 233, 181, 264, 212
-0.992977, 81, 69, 112, 100
-0.992979, 361, 65, 392, 96
-0.992987, 5, 133, 36, 164
-0.992987, 85, 185, 116, 216
-0.992989, 113, 185, 144, 216
-0.992993, 329, 177, 360, 208
-0.992996, 77, 33, 108, 64
-0.992997, 201, 181, 232, 212
-0.993006, 317, 261, 348, 292
-0.993008, 245, 65, 276, 96
-0.99301, 21, 153, 52, 184
-0.99301, 245, 181, 276, 212
-0.993013, 69, 89, 100, 120
-0.993015, 365, 145, 396, 176
-0.993028, 17, 321, 48, 352
-0.99303, 69, 77, 100, 108
-0.993043, 349, 101, 380, 132
-0.993049, 253, 13, 284, 44
-0.99305, 365, 129, 396, 160
-0.99305, 57, 325, 88, 356
-0.993051, 81, 145, 112, 176
-0.993052, 21, 285, 52, 316
-0.993059, 425, 129, 456, 160
-0.993067, 125, 181, 156, 212
-0.993069, 265, 177, 296, 208
-0.993071, 349, 161, 380, 192
-0.993072, 69, 65, 100, 96
-0.993077, 345, 13, 376, 44
-0.993079, 413, 137, 444, 168
-0.993082, 97, 185, 128, 216
-0.993086, 293, 257, 324, 288
-0.993089, 361, 5, 392, 36
-0.993089, 81, 81, 112, 112
-0.99309, 165, 9, 196, 40
-0.993095, 203, 17, 218, 80
-0.993096, 429, 105, 460, 136
-0.993096, 69, 101, 100, 132
-0.9931, 81, 93, 112, 124
-0.993105, 129, 45, 256, 76
-0.993105, 265, 277, 296, 308
-0.993109, 209, 53, 240, 84
-0.993109, 413, 205, 444, 236
-0.993113, 345, 49, 376, 80
-0.99312, 33, 313, 64, 344
-0.99312, 97, 53, 128, 84
-0.993126, 425, 141, 456, 172
-0.993134, 5, 121, 36, 152
-0.993134, 349, 113, 380, 144
-0.993135, 277, 13, 308, 44
-0.993138, 149, 61, 180, 92
-0.99314, 41, 141, 72, 172
-0.993142, 101, 41, 132, 72
-0.993144, 425, 37, 456, 68
-0.993145, 37, 201, 68, 232
-0.993148, 345, 25, 376, 56
-0.993157, 69, 113, 100, 144
-0.993158, 365, 169, 396, 200
-0.99316, 349, 89, 380, 120
-0.99316, 429, 117, 460, 148
-0.993167, 65, 53, 192, 84
-0.993171, 345, 37, 376, 68
-0.993174, 69, 169, 100, 200
-0.993177, 365, 81, 396, 112
-0.993177, 425, 57, 456, 88
-0.993181, 99, 33, 114, 96
-0.993183, 53, 193, 84, 320
-0.993184, 253, 1, 284, 32
-0.993187, 109, 17, 140, 48
-0.99319, 425, 17, 456, 48
-0.993191, 433, 293, 464, 324
-0.993234, 1, 137, 128, 168
-0.993282, 445, 49, 476, 176
-0.993303, 1, 289, 500, 352
-0.993306, 159, 25, 174, 88
-0.993322, 433, 1, 496, 357
-0.993342, 129, 21, 256, 52
-0.993436, 1, 145, 32, 272
-0.993488, 1, 41, 128, 72
-0.9935, 209, 17, 224, 80
-0.993574, 105, 25, 120, 88
-0.993574, 147, 25, 162, 88
-0.993657, 369, 233, 496, 296
-0.993694, 17, 173, 144, 204
-0.993704, 213, 49, 244, 176
-0.993719, 33, 49, 64, 176
-0.993726, 169, 17, 184, 80
-0.993751, 85, 1, 116, 256
-0.993751, 9, 225, 40, 352
-0.99376, 257, 273, 500, 336
-0.993844, 241, 209, 368, 272
-0.993846, 197, 17, 212, 80
-0.993879, 111, 25, 126, 88
-0.993941, 345, 273, 360, 336
-0.993944, 355, 1, 370, 64
-0.993965, 1, 117, 128, 148
-0.993992, 141, 25, 156, 88
-0.993997, 33, 129, 288, 192
-0.994037, 161, 273, 416, 336
-0.994125, 1, 69, 128, 100
-0.994131, 11, 297, 26, 357
-0.994137, 89, 57, 104, 120
-0.994138, 241, 49, 272, 176
-0.994153, 215, 17, 230, 80
-0.994159, 257, 185, 500, 248
-0.994182, 129, 57, 256, 88
-0.994237, 1, 53, 128, 84
-0.994296, 1, 85, 128, 116
-0.994307, 367, 25, 382, 88
-0.994322, 33, 89, 288, 152
-0.994331, 1, 105, 128, 136
-0.994357, 1, 149, 128, 180
-0.994367, 353, 141, 480, 172
-0.994408, 29, 297, 44, 357
-0.994408, 225, 105, 352, 168
-0.994417, 449, 129, 480, 256
-0.994421, 97, 297, 224, 357
-0.99447, 365, 1, 380, 64
-0.994522, 19, 297, 34, 357
-0.994612, 149, 65, 180, 192
-0.994675, 205, 41, 220, 104
-0.994688, 221, 17, 236, 80
-0.994721, 177, 5, 304, 36
-0.994734, 257, 1, 500, 64
-0.99476, 191, 1, 206, 64
-0.994762, 257, 209, 320, 336
-0.994763, 257, 297, 500, 357
-0.994777, 257, 249, 500, 312
-0.994784, 115, 185, 130, 248
-0.994786, 175, 17, 190, 80
-0.994789, 33, 185, 160, 216
-0.994791, 235, 49, 250, 112
-0.994809, 229, 17, 244, 80
-0.994818, 257, 13, 384, 44
-0.994824, 333, 225, 364, 352
-0.994843, 257, 177, 384, 208
-0.994849, 117, 25, 132, 88
-0.994891, 235, 17, 250, 80
-0.994896, 65, 65, 192, 96
-0.994907, 1, 29, 128, 60
-0.994945, 257, 89, 500, 152
-0.99496, 177, 65, 304, 96
-0.994965, 279, 273, 294, 336
-0.994974, 193, 201, 320, 264
-0.995001, 351, 273, 366, 336
-0.995052, 265, 1, 280, 64
-0.995082, 129, 185, 144, 248
-0.995125, 353, 157, 480, 188
-0.995129, 353, 213, 480, 244
-0.995147, 321, 209, 352, 336
-0.995156, 1, 201, 500, 264
-0.995178, 135, 25, 150, 88
-0.995185, 79, 145, 94, 208
-0.9952, 193, 65, 224, 192
-0.99521, 273, 161, 400, 192
-0.99521, 265, 1, 296, 256
-0.995234, 37, 297, 52, 357
-0.995241, 113, 181, 240, 212
-0.995246, 123, 185, 138, 248
-0.995247, 101, 1, 132, 256
-0.995253, 65, 169, 192, 200
-0.995254, 337, 41, 464, 72
-0.995267, 257, 265, 384, 296
-0.995301, 367, 49, 382, 112
-0.995315, 245, 1, 276, 256
-0.995315, 327, 1, 342, 64
-0.995322, 273, 105, 400, 136
-0.995322, 241, 57, 256, 120
-0.995327, 5, 297, 20, 357
-0.995347, 241, 17, 256, 80
-0.995349, 17, 161, 144, 192
-0.995363, 93, 65, 124, 192
-0.995374, 297, 1, 312, 64
-0.995391, 177, 53, 304, 84
-0.995399, 353, 225, 384, 352
-0.9954, 149, 1, 180, 256
-0.995406, 381, 209, 412, 336
-0.995424, 209, 1, 240, 256
-0.995425, 345, 33, 376, 288
-0.995437, 161, 297, 288, 357
-0.995439, 337, 69, 464, 100
-0.995444, 161, 249, 416, 312
-0.995444, 161, 1, 192, 256
-0.99546, 1, 17, 128, 48
-0.995475, 1, 297, 256, 357
-0.99548, 441, 1, 472, 128
-0.995486, 353, 57, 480, 88
-0.995489, 57, 297, 72, 357
-0.995498, 183, 17, 198, 80
-0.995564, 233, 1, 264, 256
-0.995569, 291, 1, 306, 64
-0.995583, 273, 129, 400, 160
-0.995591, 197, 1, 228, 256
-0.995592, 341, 249, 356, 312
-0.995594, 409, 1, 440, 128
-0.995622, 113, 1, 144, 256
-0.995623, 333, 1, 348, 64
-0.995636, 353, 129, 480, 160
-0.995639, 1, 321, 128, 352
-0.995641, 137, 1, 168, 256
-0.995648, 221, 1, 252, 256
-0.995665, 283, 177, 298, 240
-0.995665, 199, 41, 214, 104
-0.995671, 219, 177, 234, 240
-0.995676, 257, 217, 500, 280
-0.995681, 359, 73, 374, 136
-0.995684, 339, 281, 354, 344
-0.99569, 225, 177, 240, 240
-0.99569, 231, 177, 246, 240
-0.99569, 315, 249, 330, 312
-0.995701, 361, 177, 376, 240
-0.995708, 237, 177, 252, 240
-0.995713, 273, 61, 400, 92
-0.995716, 297, 177, 312, 240
-0.995717, 277, 177, 292, 240
-0.995726, 85, 145, 100, 208
-0.995732, 211, 177, 226, 240
-0.995735, 255, 177, 270, 240
-0.995739, 303, 1, 318, 64
-0.995748, 105, 185, 120, 248
-0.995751, 273, 117, 400, 148
-0.995762, 309, 177, 324, 240
-0.995769, 243, 177, 258, 240
-0.99577, 321, 1, 336, 64
-0.995779, 337, 81, 464, 112
-0.995781, 211, 41, 226, 104
-0.995781, 269, 177, 284, 240
-0.995784, 259, 1, 274, 64
-0.995784, 169, 177, 184, 240
-0.995789, 337, 97, 464, 128
-0.995793, 337, 169, 464, 200
-0.995795, 289, 177, 304, 240
-0.995796, 183, 177, 198, 240
-0.995796, 205, 177, 220, 240
-0.995802, 249, 177, 264, 240
-0.995808, 161, 181, 288, 212
-0.99581, 173, 1, 204, 256
-0.995818, 367, 81, 382, 144
-0.99582, 177, 177, 192, 240
-0.995825, 125, 1, 156, 256
-0.995832, 163, 177, 178, 240
-0.995835, 123, 25, 138, 88
-0.995835, 185, 1, 216, 256
-0.995835, 45, 17, 76, 144
-0.995841, 157, 177, 172, 240
-0.995865, 317, 177, 332, 240
-0.995866, 273, 145, 400, 176
-0.995878, 263, 177, 278, 240
-0.995879, 129, 9, 256, 40
-0.995883, 85, 81, 100, 144
-0.995886, 151, 177, 166, 240
-0.995891, 353, 29, 480, 60
-0.995893, 339, 1, 354, 64
-0.995893, 191, 177, 206, 240
-0.995898, 209, 177, 336, 208
-0.9959, 337, 1, 464, 32
-0.995902, 193, 17, 320, 48
-0.995908, 327, 177, 342, 240
-0.995919, 57, 209, 120, 336
-0.995924, 165, 41, 180, 104
-0.995925, 143, 177, 158, 240
-0.995938, 337, 17, 464, 48
-0.995939, 333, 249, 348, 312
-0.995942, 43, 297, 58, 357
-0.995944, 449, 177, 480, 304
-0.995965, 229, 49, 244, 112
-0.995966, 337, 109, 464, 140
-0.99597, 309, 249, 324, 312
-0.995975, 199, 177, 214, 240
-0.99599, 1, 225, 500, 288
-0.995999, 303, 177, 318, 240
-0.996, 79, 113, 94, 176
-0.996014, 253, 1, 268, 64
-0.996014, 129, 25, 144, 88
-0.996033, 351, 177, 366, 240
-0.996044, 303, 257, 318, 320
-0.996051, 345, 1, 360, 64
-0.996063, 309, 225, 340, 352
-0.996064, 271, 1, 286, 64
-0.996082, 339, 177, 354, 240
-0.996082, 81, 17, 208, 48
-0.996088, 135, 177, 150, 240
-0.996091, 333, 177, 348, 240
-0.996099, 85, 113, 100, 176
-0.996101, 285, 265, 300, 328
-0.996104, 81, 57, 96, 120
-0.996104, 369, 145, 384, 208
-0.996106, 309, 1, 324, 64
-0.996114, 247, 9, 262, 72
-0.996133, 345, 177, 360, 240
-0.996163, 347, 249, 362, 312
-0.996174, 83, 33, 98, 96
-0.996176, 247, 57, 262, 120
-0.996183, 1, 201, 256, 264
-0.996198, 129, 33, 256, 64
-0.996225, 315, 1, 330, 64
-0.996247, 361, 97, 376, 160
-0.99625, 291, 273, 306, 336
-0.99625, 69, 177, 100, 304
-0.996254, 277, 1, 308, 256
-0.996274, 95, 185, 110, 248
-0.996292, 1, 249, 500, 312
-0.996322, 357, 25, 372, 88
-0.996323, 33, 153, 48, 216
-0.996324, 273, 93, 400, 124
-0.996326, 209, 273, 336, 304
-0.996331, 97, 57, 112, 120
-0.996335, 87, 185, 102, 248
-0.996339, 191, 25, 206, 88
-0.996342, 363, 153, 378, 216
-0.996348, 193, 129, 320, 192
-0.996382, 79, 81, 94, 144
-0.996395, 285, 9, 300, 72
-0.996434, 113, 201, 240, 264
-0.996438, 193, 325, 320, 356
-0.996443, 273, 29, 400, 60
-0.996444, 7, 113, 22, 176
-0.996449, 365, 1, 396, 256
-0.996467, 305, 209, 432, 240
-0.996525, 297, 65, 328, 320
-0.996528, 273, 73, 400, 104
-0.99653, 33, 1, 64, 256
-0.996532, 33, 221, 160, 252
-0.996533, 97, 297, 352, 357
-0.996578, 49, 145, 176, 176
-0.996579, 313, 65, 344, 320
-0.996612, 177, 97, 304, 160
-0.996652, 321, 269, 448, 300
-0.996693, 325, 65, 356, 320
-0.996708, 1, 225, 256, 288
-0.996737, 425, 33, 456, 288
-0.996744, 273, 49, 400, 80
-0.996803, 241, 221, 368, 252
-0.996867, 289, 209, 320, 336
-0.996873, 129, 69, 256, 100
-0.996878, 449, 225, 480, 352
-0.996888, 65, 77, 192, 108
-0.996905, 91, 29, 106, 60
-0.996912, 73, 33, 104, 288
-0.996971, 193, 165, 320, 196
-0.996972, 1, 289, 128, 320
-0.997023, 193, 77, 320, 108
-0.997027, 65, 201, 192, 264
-0.997046, 273, 253, 400, 284
-0.997075, 113, 273, 240, 336
-0.997096, 65, 133, 192, 164
-0.997112, 355, 1, 370, 32
-0.997113, 65, 157, 192, 188
-0.99712, 65, 101, 192, 132
-0.997161, 157, 25, 172, 56
-0.997162, 5, 1, 36, 256
-0.997165, 33, 201, 160, 232
-0.99717, 65, 121, 192, 152
-0.997211, 401, 209, 416, 240
-0.997217, 1, 249, 256, 312
-0.99723, 17, 1, 48, 256
-0.997238, 145, 25, 160, 56
-0.997243, 337, 49, 368, 176
-0.99725, 87, 45, 102, 76
-0.997253, 49, 273, 176, 336
-0.997271, 353, 225, 480, 256
-0.997274, 11, 293, 26, 324
-0.997285, 151, 25, 166, 56
-0.997293, 165, 25, 180, 56
-0.997301, 209, 285, 336, 316
-0.997305, 177, 41, 304, 72
-0.997327, 407, 209, 422, 240
-0.997353, 365, 17, 380, 48
-0.997358, 179, 13, 194, 44
-0.997368, 1, 273, 256, 336
-0.997375, 91, 57, 106, 88
-0.997381, 17, 277, 144, 308
-0.997386, 31, 305, 46, 336
-0.997393, 225, 65, 352, 96
-0.997409, 65, 89, 192, 120
-0.99741, 51, 321, 66, 352
-0.997412, 107, 29, 122, 60
-0.997414, 145, 169, 272, 200
-0.997423, 361, 1, 376, 32
-0.997448, 289, 325, 416, 356
-0.997452, 23, 293, 38, 324
-0.997452, 277, 225, 308, 352
-0.997454, 57, 325, 72, 356
-0.997455, 17, 237, 144, 268
-0.997461, 257, 289, 384, 320
-0.997472, 361, 97, 392, 352
-0.997479, 209, 261, 336, 292
-0.997479, 279, 273, 294, 304
-0.997483, 277, 97, 308, 352
-0.997483, 367, 61, 382, 92
-0.997489, 113, 29, 128, 60
-0.997493, 367, 29, 382, 60
-0.997506, 189, 9, 204, 40
-0.99751, 321, 257, 448, 288
-0.997521, 5, 293, 20, 324
-0.997521, 33, 309, 160, 340
-0.997527, 41, 97, 72, 352
-0.997537, 145, 325, 272, 356
-0.997544, 97, 33, 112, 64
-0.99755, 161, 277, 288, 308
-0.997553, 349, 273, 364, 304
-0.997591, 353, 293, 480, 324
-0.99761, 17, 297, 32, 328
-0.997613, 139, 25, 154, 56
-0.997628, 37, 297, 52, 328
-0.997643, 277, 1, 292, 32
-0.997645, 171, 21, 186, 52
-0.997671, 395, 209, 410, 240
-0.997682, 197, 21, 212, 52
-0.997688, 353, 245, 480, 276
-0.997689, 37, 313, 52, 344
-0.997694, 301, 277, 316, 308
-0.997702, 289, 197, 416, 228
-0.997722, 321, 281, 448, 312
-0.997729, 291, 269, 306, 300
-0.997738, 225, 313, 352, 344
-0.997768, 343, 273, 358, 304
-0.997776, 367, 49, 382, 80
-0.997778, 367, 73, 382, 104
-0.997779, 303, 1, 318, 32
-0.997783, 353, 305, 480, 336
-0.997787, 349, 1, 364, 32
-0.9978, 317, 261, 332, 292
-0.997814, 203, 21, 218, 52
-0.997814, 79, 153, 94, 184
-0.997817, 273, 233, 400, 264
-0.997818, 119, 29, 134, 60
-0.997824, 271, 5, 286, 36
-0.997847, 309, 261, 324, 292
-0.997855, 85, 57, 100, 88
-0.997861, 63, 325, 78, 356
-0.997861, 365, 177, 396, 304
-0.997862, 209, 21, 224, 52
-0.997879, 85, 33, 100, 64
-0.997888, 191, 21, 206, 52
-0.997891, 133, 25, 148, 56
-0.997891, 17, 253, 144, 284
-0.997907, 285, 273, 300, 304
-0.997908, 125, 29, 140, 60
-0.997909, 331, 273, 346, 304
-0.997918, 289, 221, 416, 252
-0.997925, 65, 225, 192, 288
-0.99793, 367, 85, 382, 116
-0.997936, 225, 53, 352, 84
-0.997936, 295, 1, 310, 32
-0.997938, 353, 201, 480, 232
-0.997943, 337, 325, 464, 356
-0.997954, 81, 85, 96, 116
-0.997959, 331, 1, 346, 32
-0.997959, 9, 309, 24, 340
-0.997976, 163, 181, 178, 212
-0.997981, 253, 97, 284, 352
-0.997981, 309, 1, 324, 32
-0.997989, 157, 181, 172, 212
-0.997992, 79, 141, 94, 172
-0.997999, 315, 9, 330, 40
-0.998001, 181, 181, 196, 212
-0.998004, 171, 181, 186, 212
-0.998008, 343, 5, 358, 36
-0.998009, 337, 269, 352, 300
-0.99801, 25, 309, 40, 340
-0.998011, 307, 277, 322, 308
-0.998019, 195, 9, 210, 40
-0.998024, 59, 305, 74, 336
-0.998028, 49, 325, 176, 356
-0.998029, 319, 177, 334, 208
-0.99803, 327, 261, 342, 292
-0.998031, 17, 265, 144, 296
-0.998032, 151, 181, 166, 212
-0.998037, 191, 181, 206, 212
-0.998041, 313, 177, 328, 208
-0.998042, 31, 293, 46, 324
-0.998045, 321, 9, 336, 40
-0.998047, 337, 5, 352, 36
-0.998049, 81, 97, 96, 128
-0.998051, 369, 157, 384, 188
-0.998056, 323, 277, 338, 308
-0.998062, 289, 313, 416, 344
-0.998063, 287, 177, 302, 208
-0.998067, 89, 185, 104, 216
-0.998067, 229, 97, 260, 352
-0.998068, 81, 69, 96, 100
-0.998069, 143, 181, 158, 212
-0.998074, 413, 97, 444, 352
-0.99808, 177, 25, 192, 56
-0.998083, 219, 181, 234, 212
-0.998083, 185, 21, 200, 52
-0.99809, 289, 5, 304, 36
-0.998091, 215, 21, 230, 52
-0.998092, 241, 301, 368, 332
-0.998093, 235, 17, 250, 48
-0.998097, 293, 177, 308, 208
-0.998097, 353, 189, 480, 220
-0.998098, 161, 225, 416, 288
-0.998105, 87, 169, 102, 200
-0.998106, 301, 177, 316, 208
-0.998107, 367, 97, 382, 128
-0.998115, 193, 221, 320, 252
-0.99812, 307, 177, 322, 208
-0.99812, 197, 181, 212, 212
-0.998124, 361, 177, 376, 208
-0.998124, 327, 177, 342, 208
-0.998125, 225, 17, 240, 48
-0.998125, 81, 109, 96, 140
-0.998127, 95, 185, 110, 216
-0.998138, 203, 181, 218, 212
-0.998146, 241, 17, 256, 48
-0.998151, 253, 181, 268, 212
-0.998156, 17, 309, 32, 340
-0.998156, 211, 181, 226, 212
-0.998156, 233, 181, 248, 212
-0.998158, 87, 77, 102, 108
-0.99816, 283, 1, 298, 32
-0.99816, 313, 277, 328, 308
-0.998162, 225, 181, 240, 212
-0.998163, 245, 181, 260, 212
-0.998164, 369, 145, 384, 176
-0.998165, 87, 89, 102, 120
-0.998166, 137, 181, 152, 212
-0.998171, 265, 13, 280, 44
-0.998172, 205, 45, 220, 76
-0.998179, 303, 261, 318, 292
-0.998181, 333, 177, 348, 208
-0.998185, 107, 185, 122, 216
-0.99819, 101, 21, 116, 52
-0.99819, 39, 325, 54, 356
-0.998191, 413, 209, 428, 240
-0.998195, 281, 177, 296, 208
-0.9982, 241, 325, 368, 356
-0.998212, 265, 97, 296, 352
-0.998238, 97, 325, 224, 356
-0.998246, 225, 233, 352, 264
-0.998253, 217, 97, 248, 352
-0.998267, 97, 249, 224, 312
-0.998286, 241, 97, 272, 352
-0.99829, 89, 17, 104, 144
-0.998293, 17, 97, 48, 352
-0.998319, 161, 265, 288, 296
-0.99833, 65, 5, 192, 36
-0.998359, 239, 1, 254, 128
-0.998373, 233, 1, 248, 128
-0.998378, 41, 157, 104, 172
-0.998389, 361, 73, 392, 88
-0.99839, 361, 59, 392, 74
-0.99839, 89, 27, 120, 42
-0.99839, 69, 113, 100, 128
-0.998392, 69, 53, 100, 68
-0.998393, 277, 267, 308, 282
-0.998393, 81, 153, 112, 168
-0.998393, 29, 341, 60, 356
-0.998395, 365, 137, 396, 152
-0.998395, 261, 277, 292, 292
-0.998395, 365, 145, 396, 160
-0.998396, 229, 181, 260, 196
-0.998396, 125, 23, 156, 38
-0.998396, 105, 29, 168, 44
-0.998396, 69, 81, 100, 96
-0.998396, 365, 153, 396, 168
-0.998396, 349, 171, 380, 186
-0.998397, 69, 63, 100, 78
-0.998397, 149, 185, 180, 200
-0.998398, 69, 71, 100, 86
-0.998399, 69, 101, 100, 116
-0.998399, 229, 65, 260, 80
-0.998399, 261, 15, 292, 30
-0.998403, 365, 159, 396, 174
-0.998404, 361, 67, 392, 82
-0.998405, 361, 15, 392, 30
-0.998407, 69, 87, 100, 102
-0.998408, 69, 95, 100, 110
-0.998409, 293, 3, 324, 18
-0.998411, 329, 9, 360, 24
-0.998412, 241, 181, 272, 196
-0.998412, 81, 185, 112, 200
-0.998412, 101, 185, 132, 200
-0.998413, 33, 331, 64, 346
-0.998414, 261, 9, 292, 24
-0.998415, 313, 179, 344, 194
-0.998415, 289, 181, 320, 196
-0.998417, 209, 183, 240, 198
-0.998418, 365, 173, 396, 188
-0.998418, 329, 269, 360, 284
-0.998419, 305, 275, 368, 290
-0.998419, 69, 145, 100, 160
-0.99842, 325, 179, 356, 194
-0.998422, 197, 51, 228, 66
-0.998423, 361, 53, 392, 68
-0.998424, 317, 9, 348, 24
-0.998424, 173, 183, 204, 198
-0.998426, 81, 33, 144, 48
-0.998426, 277, 181, 308, 196
-0.998426, 41, 211, 72, 226
-0.998427, 361, 21, 392, 36
-0.998428, 149, 43, 180, 58
-0.998429, 21, 153, 52, 168
-0.998429, 137, 185, 168, 200
-0.99843, 229, 19, 260, 34
-0.99843, 313, 7, 376, 22
-0.99843, 361, 45, 392, 60
-0.998431, 297, 255, 328, 270
-0.998432, 81, 65, 112, 80
-0.998433, 249, 17, 280, 32
-0.998433, 337, 179, 368, 194
-0.998433, 273, 275, 336, 290
-0.998434, 189, 23, 220, 38
-0.998434, 297, 11, 328, 26
-0.998435, 209, 21, 240, 36
-0.998436, 197, 183, 228, 198
-0.998437, 289, 289, 320, 304
-0.998437, 253, 181, 284, 196
-0.998438, 125, 185, 156, 200
-0.998441, 361, 39, 392, 54
-0.998444, 113, 185, 144, 200
-0.998444, 85, 179, 116, 194
-0.998444, 185, 183, 216, 198
-0.998445, 173, 23, 204, 38
-0.998445, 317, 269, 348, 284
-0.998446, 77, 35, 108, 50
-0.998447, 57, 335, 88, 350
-0.998449, 349, 179, 380, 194
-0.998449, 265, 181, 296, 196
-0.99845, 33, 325, 64, 340
-0.998451, 361, 27, 392, 42
-0.998453, 21, 289, 52, 304
-0.998455, 297, 269, 328, 284
-0.998456, 89, 45, 120, 60
-0.998458, 41, 337, 72, 352
-0.998459, 305, 283, 336, 298
-0.998461, 73, 41, 136, 56
-0.998461, 227, 1, 242, 128
-0.998462, 273, 283, 336, 298
-0.998462, 413, 213, 444, 228
-0.998463, 361, 33, 392, 48
-0.998464, 321, 287, 352, 302
-0.998464, 9, 313, 40, 328
-0.998464, 173, 17, 204, 32
-0.998465, 41, 309, 72, 324
-0.998468, 85, 53, 116, 68
-0.998468, 129, 27, 192, 42
-0.99847, 257, 209, 384, 240
-0.99847, 69, 151, 100, 166
-0.998472, 385, 213, 416, 228
-0.998472, 277, 291, 308, 306
-0.998473, 45, 325, 76, 340
-0.998476, 45, 153, 76, 168
-0.998477, 21, 307, 52, 322
-0.998478, 309, 275, 340, 290
-0.998481, 9, 295, 72, 310
-0.998482, 205, 1, 220, 128
-0.998484, 305, 5, 336, 20
-0.998484, 45, 319, 76, 334
-0.998485, 221, 1, 236, 128
-0.998485, 285, 9, 316, 24
-0.998485, 273, 11, 304, 26
-0.998486, 337, 287, 368, 302
-0.998487, 25, 335, 88, 350
-0.998489, 309, 255, 340, 270
-0.998496, 9, 305, 40, 320
-0.998498, 305, 285, 368, 300
-0.998498, 41, 293, 72, 308
-0.998499, 65, 157, 96, 172
-0.9985, 41, 177, 104, 192
-0.9985, 293, 283, 324, 298
-0.998501, 245, 1, 260, 128
-0.998501, 41, 169, 104, 184
-0.998502, 73, 47, 136, 62
-0.998503, 41, 151, 104, 166
-0.998505, 9, 289, 72, 304
-0.998507, 45, 331, 76, 346
-0.998507, 41, 163, 104, 178
-0.998508, 9, 327, 72, 342
-0.998509, 161, 23, 192, 38
-0.998509, 89, 39, 120, 54
-0.998511, 161, 23, 224, 38
-0.998512, 25, 309, 88, 324
-0.998513, 325, 3, 356, 18
-0.998514, 289, 5, 352, 20
-0.998515, 281, 11, 344, 26
-0.998515, 25, 317, 88, 332
-0.998518, 405, 1, 436, 256
-0.99852, 21, 315, 52, 330
-0.998521, 85, 59, 116, 74
-0.998521, 321, 179, 384, 194
-0.998523, 393, 213, 456, 228
-0.998523, 105, 53, 168, 68
-0.998523, 89, 97, 120, 352
-0.998525, 21, 301, 52, 316
-0.998527, 293, 275, 324, 290
-0.998527, 21, 295, 52, 310
-0.998528, 73, 55, 136, 70
-0.99853, 249, 277, 312, 292
-0.998532, 321, 275, 352, 290
-0.998532, 257, 11, 320, 26
-0.998533, 25, 301, 88, 316
-0.998537, 49, 33, 112, 48
-0.998537, 345, 3, 376, 18
-0.998542, 105, 45, 168, 60
-0.998543, 277, 279, 308, 294
-0.998543, 33, 291, 96, 306
-0.998544, 337, 281, 368, 296
-0.998545, 41, 183, 104, 198
-0.998545, 257, 209, 288, 336
-0.998546, 105, 39, 168, 54
-0.998546, 137, 45, 200, 60
-0.998546, 149, 25, 180, 40
-0.998546, 117, 29, 148, 44
-0.998546, 361, 139, 424, 154
-0.998546, 145, 55, 208, 70
-0.998548, 105, 185, 168, 200
-0.998549, 137, 21, 200, 36
-0.998549, 249, 181, 312, 196
-0.99855, 273, 269, 336, 284
-0.99855, 169, 183, 232, 198
-0.998551, 369, 213, 432, 228
-0.998551, 45, 217, 76, 232
-0.998551, 265, 1, 328, 16
-0.998552, 329, 281, 392, 296
-0.998553, 49, 45, 112, 60
-0.998554, 33, 219, 96, 234
-0.998554, 49, 39, 112, 54
-0.998554, 217, 67, 280, 82
-0.998555, 1, 295, 32, 310
-0.998556, 1, 147, 64, 162
-0.998557, 289, 301, 416, 332
-0.998557, 225, 41, 352, 72
-0.998558, 49, 51, 112, 66
-0.998558, 33, 325, 96, 340
-0.998558, 161, 47, 224, 62
-0.998559, 137, 27, 168, 42
-0.99856, 329, 287, 392, 302
-0.998561, 73, 177, 136, 192
-0.998564, 73, 61, 136, 76
-0.998568, 211, 1, 226, 128
-0.998568, 185, 21, 248, 36
-0.99857, 249, 287, 312, 302
-0.998572, 81, 27, 144, 42
-0.998573, 209, 19, 272, 34
-0.998573, 161, 17, 224, 32
-0.998574, 341, 9, 372, 24
-0.998576, 185, 55, 248, 70
-0.998576, 41, 79, 104, 94
-0.998577, 313, 1, 376, 16
-0.998578, 49, 331, 112, 346
-0.998578, 277, 273, 308, 288
-0.998578, 41, 87, 104, 102
-0.99858, 225, 73, 288, 88
-0.99858, 101, 31, 132, 46
-0.998581, 297, 179, 360, 194
-0.998582, 49, 57, 112, 72
-0.998582, 225, 181, 288, 196
-0.998584, 161, 41, 224, 56
-0.998584, 297, 269, 360, 284
-0.998584, 233, 17, 296, 32
-0.998585, 41, 143, 104, 158
-0.998585, 277, 285, 308, 300
-0.998586, 81, 185, 144, 200
-0.998587, 41, 115, 104, 130
-0.998587, 153, 61, 216, 76
-0.998588, 41, 107, 104, 122
-0.998588, 105, 59, 168, 74
-0.998588, 41, 93, 104, 108
-0.998589, 41, 71, 104, 86
-0.998589, 289, 255, 352, 270
-0.998591, 1, 309, 64, 324
-0.998592, 193, 183, 256, 198
-0.998592, 305, 291, 368, 306
-0.998592, 329, 275, 392, 290
-0.998593, 361, 131, 424, 146
-0.998594, 353, 51, 416, 66
-0.998594, 353, 61, 416, 76
-0.998594, 41, 125, 104, 140
-0.998595, 145, 183, 208, 198
-0.998595, 1, 315, 64, 330
-0.998595, 281, 289, 344, 304
-0.998596, 273, 181, 336, 196
-0.998597, 17, 155, 80, 170
-0.998598, 1, 321, 64, 336
-0.998599, 185, 49, 248, 64
-0.998599, 41, 133, 104, 148
-0.9986, 397, 211, 428, 226
-0.9986, 337, 173, 400, 188
-0.998602, 251, 1, 266, 128
-0.998602, 199, 1, 214, 128
-0.998602, 393, 139, 456, 154
-0.998606, 41, 99, 104, 114
-0.998609, 353, 69, 416, 84
-0.998609, 1, 97, 32, 352
-0.998609, 193, 61, 256, 76
-0.99861, 137, 39, 200, 54
-0.998611, 1, 333, 64, 348
-0.998613, 49, 339, 112, 354
-0.998613, 41, 63, 104, 78
-0.998615, 401, 133, 464, 148
-0.998617, 321, 99, 384, 114
-0.998618, 353, 45, 416, 60
-0.998618, 1, 115, 64, 130
-0.998618, 333, 275, 364, 290
-0.998619, 337, 5, 400, 20
-0.99862, 161, 201, 416, 264
-0.998621, 73, 153, 136, 168
-0.998622, 353, 39, 416, 54
-0.998622, 321, 105, 384, 120
-0.998622, 1, 137, 64, 152
-0.998624, 321, 111, 384, 126
-0.998625, 105, 23, 168, 38
-0.998626, 177, 97, 208, 352
-0.998626, 129, 61, 192, 76
-0.998628, 73, 67, 136, 82
-0.99863, 353, 75, 416, 90
-0.99863, 49, 315, 112, 330
-0.99863, 305, 331, 368, 346
-0.998632, 353, 105, 416, 120
-0.998632, 89, 33, 120, 48
-0.998632, 353, 91, 416, 106
-0.998633, 9, 19, 72, 34
-0.998634, 353, 31, 416, 46
-0.998634, 73, 163, 136, 178
-0.998683, 355, 1, 370, 128
-0.998688, 99, 17, 114, 144
-0.998689, 193, 1, 208, 128
-0.998718, 209, 209, 336, 240
-0.998728, 153, 17, 168, 144
-0.99873, 173, 1, 188, 128
-0.998732, 53, 33, 84, 288
-0.998739, 105, 17, 120, 144
-0.998743, 359, 81, 374, 208
-0.998748, 85, 97, 100, 224
-0.998753, 161, 97, 192, 352
-0.998754, 193, 297, 320, 328
-0.998757, 97, 233, 224, 264
-0.99876, 257, 1, 272, 128
-0.998762, 159, 17, 174, 144
-0.998765, 167, 17, 182, 144
-0.998767, 111, 17, 126, 144
-0.998773, 209, 249, 336, 280
-0.998778, 121, 97, 152, 352
-0.99878, 367, 1, 382, 128
-0.998798, 179, 1, 194, 128
-0.9988, 147, 17, 162, 144
-0.998804, 189, 97, 220, 352
-0.998804, 187, 1, 202, 128
-0.998818, 113, 221, 240, 252
-0.998824, 321, 49, 352, 176
-0.998837, 137, 97, 168, 352
-0.998842, 149, 97, 180, 352
-0.998851, 113, 313, 240, 344
-0.998859, 305, 181, 432, 212
-0.998859, 369, 277, 496, 308
-0.99886, 205, 97, 236, 352
-0.998862, 263, 1, 278, 128
-0.998868, 129, 105, 384, 168
-0.998894, 177, 237, 304, 268
-0.998903, 141, 17, 156, 144
-0.99893, 335, 1, 350, 128
-0.998933, 137, 65, 168, 192
-0.998936, 117, 17, 132, 144
-0.998938, 327, 1, 342, 128
-0.998965, 79, 145, 94, 272
-0.998965, 269, 1, 284, 128
-0.998966, 341, 1, 356, 128
-0.998979, 365, 97, 380, 224
-0.998998, 79, 97, 94, 224
-0.999001, 109, 97, 140, 352
-0.999001, 321, 1, 336, 128
-0.999003, 289, 161, 304, 288
-0.99901, 347, 1, 362, 128
-0.999013, 271, 161, 286, 288
-0.999021, 233, 161, 248, 288
-0.999022, 313, 161, 328, 288
-0.999022, 155, 161, 170, 288
-0.999023, 281, 161, 296, 288
-0.999025, 175, 161, 190, 288
-0.99903, 225, 161, 240, 288
-0.99903, 295, 161, 310, 288
-0.999033, 319, 161, 334, 288
-0.999036, 255, 161, 270, 288
-0.999036, 297, 1, 312, 128
-0.999038, 239, 161, 254, 288
-0.999039, 165, 161, 180, 288
-0.999039, 307, 161, 322, 288
-0.999044, 369, 261, 496, 292
-0.999046, 45, 1, 60, 128
-0.999048, 249, 161, 264, 288
-0.999048, 361, 17, 376, 144
-0.999051, 211, 161, 226, 288
-0.999052, 219, 161, 234, 288
-0.999054, 291, 1, 306, 128
-0.999056, 189, 161, 204, 288
-0.999058, 261, 161, 276, 288
-0.999058, 301, 161, 316, 288
-0.999058, 149, 161, 164, 288
-0.99906, 275, 1, 290, 128
-0.999061, 181, 161, 196, 288
-0.999061, 303, 1, 318, 128
-0.999061, 127, 177, 142, 304
-0.999064, 325, 161, 340, 288
-0.999069, 139, 161, 154, 288
-0.99907, 203, 161, 218, 288
-0.999073, 315, 1, 330, 128
-0.999076, 331, 161, 346, 288
-0.999076, 349, 161, 364, 288
-0.999078, 359, 161, 374, 288
-0.999079, 55, 145, 70, 272
-0.99908, 135, 17, 150, 144
-0.999081, 145, 241, 272, 304
-0.999083, 195, 161, 210, 288
-0.999085, 123, 17, 138, 144
-0.999087, 365, 145, 380, 272
-0.999087, 285, 1, 300, 128
-0.999095, 103, 177, 118, 304
-0.999098, 343, 161, 358, 288
-0.999099, 117, 161, 132, 288
-0.999106, 309, 1, 324, 128
-0.999111, 337, 161, 352, 288
-0.999112, 89, 177, 104, 304
-0.999114, 133, 161, 148, 288
-0.99912, 97, 177, 112, 304
-0.999134, 45, 145, 60, 272
-0.999141, 129, 17, 144, 144
-0.999141, 385, 97, 416, 352
-0.999143, 111, 177, 126, 304
-0.999147, 9, 65, 24, 192
-0.99915, 333, 97, 348, 224
-0.999159, 341, 97, 356, 224
-0.99916, 351, 97, 366, 224
-0.999197, 401, 97, 432, 352
-0.999203, 321, 97, 336, 224
-0.999204, 81, 49, 96, 176
-0.999209, 327, 97, 342, 224
-0.999214, 367, 49, 382, 176
-0.999215, 299, 97, 314, 224
-0.999215, 313, 97, 328, 224
-0.99923, 11, 1, 26, 128
-0.999245, 437, 97, 468, 352
-0.999251, 307, 97, 322, 224
-0.999253, 33, 129, 48, 256
-0.999254, 441, 97, 456, 224
-0.999262, 425, 129, 440, 256
-0.99927, 21, 65, 36, 192
-0.999279, 61, 145, 76, 272
-0.99928, 419, 129, 434, 256
-0.999284, 293, 97, 308, 224
-0.99929, 67, 145, 82, 272
-0.999291, 285, 113, 300, 240
-0.99932, 43, 209, 58, 336
-0.999326, 277, 113, 292, 240
-0.99933, 91, 65, 106, 192
-0.999335, 373, 97, 404, 352
-0.99934, 123, 129, 138, 256
-0.999343, 45, 97, 60, 224
-0.999345, 19, 1, 34, 128
-0.999346, 29, 1, 44, 128
-0.99935, 439, 49, 454, 176
-0.999353, 173, 113, 188, 240
-0.999359, 443, 145, 458, 272
-0.999363, 239, 81, 254, 208
-0.999372, 233, 81, 248, 208
-0.999372, 35, 209, 50, 336
-0.999373, 15, 97, 30, 224
-0.999374, 183, 113, 198, 240
-0.999376, 423, 65, 438, 192
-0.999379, 199, 113, 214, 240
-0.999382, 157, 113, 172, 240
-0.999409, 445, 1, 476, 256
-0.999428, 29, 97, 60, 352
-0.999446, 253, 49, 284, 176
-0.999541, 277, 65, 308, 192
-0.999607, 325, 9, 340, 24
-0.999608, 81, 105, 96, 120
-0.999608, 135, 185, 150, 200
-0.999609, 351, 179, 366, 194
-0.999609, 271, 181, 286, 196
-0.99961, 369, 171, 384, 186
-0.99961, 341, 179, 356, 194
-0.99961, 339, 269, 354, 284
-0.99961, 369, 155, 384, 170
-0.99961, 191, 183, 206, 198
-0.99961, 315, 7, 330, 22
-0.99961, 123, 185, 138, 200
-0.999611, 289, 181, 304, 196
-0.999611, 181, 25, 196, 40
-0.999612, 117, 185, 132, 200
-0.999614, 419, 213, 434, 228
-0.999614, 81, 65, 96, 80
-0.999615, 203, 183, 218, 198
-0.999616, 29, 299, 44, 314
-0.999616, 277, 181, 292, 196
-0.999617, 301, 269, 316, 284
-0.999617, 331, 269, 346, 284
-0.999617, 269, 7, 284, 22
-0.999617, 81, 97, 96, 112
-0.999617, 367, 91, 382, 106
-0.999617, 283, 181, 298, 196
-0.999617, 367, 97, 382, 112
-0.999618, 81, 85, 96, 100
-0.999618, 87, 179, 102, 194
-0.999618, 309, 269, 324, 284
-0.999619, 31, 315, 46, 330
-0.999619, 87, 65, 102, 80
-0.99962, 303, 3, 318, 18
-0.99962, 81, 71, 96, 86
-0.99962, 301, 289, 316, 304
-0.999622, 363, 177, 378, 192
-0.999622, 37, 299, 52, 314
-0.999623, 53, 337, 68, 352
-0.999623, 367, 53, 382, 68
-0.999623, 81, 91, 96, 106
-0.999625, 321, 283, 336, 298
-0.999625, 309, 5, 324, 20
-0.999626, 45, 319, 60, 334
-0.999626, 349, 291, 364, 306
-0.999628, 367, 85, 382, 100
-0.999629, 367, 45, 382, 60
-0.999633, 53, 217, 68, 232
-0.999634, 341, 281, 356, 296
-0.999634, 309, 283, 324, 298
-0.999635, 45, 217, 60, 232
-0.999635, 365, 13, 380, 28
-0.999636, 87, 47, 102, 62
-0.999636, 303, 9, 318, 24
-0.999636, 345, 269, 360, 284
-0.999636, 367, 37, 382, 52
-0.99964, 289, 9, 304, 24
-0.999641, 349, 5, 364, 20
-0.999641, 45, 155, 60, 170
-0.999641, 23, 305, 38, 320
-0.999643, 37, 315, 52, 330
-0.999643, 173, 23, 188, 38
-0.999644, 79, 151, 94, 166
-0.999644, 79, 157, 94, 172
-0.999645, 367, 59, 382, 74
-0.999645, 289, 281, 304, 296
-0.999645, 337, 5, 352, 20
-0.999646, 329, 283, 344, 298
-0.999649, 317, 255, 332, 270
-0.999649, 283, 283, 298, 298
-0.999649, 319, 275, 334, 290
-0.999649, 295, 9, 310, 24
-0.99965, 331, 3, 346, 18
-0.99965, 305, 275, 320, 290
-0.999653, 301, 283, 316, 298
-0.999653, 343, 5, 358, 20
-0.999654, 349, 285, 364, 300
-0.999654, 281, 11, 296, 26
-0.999654, 55, 299, 70, 314
-0.999654, 133, 27, 148, 42
-0.999655, 9, 295, 24, 310
-0.999655, 291, 287, 306, 302
-0.999656, 61, 333, 76, 348
-0.999657, 155, 25, 170, 40
-0.999657, 17, 295, 32, 310
-0.999661, 325, 275, 340, 290
-0.999664, 87, 59, 102, 74
-0.999666, 313, 275, 328, 290
-0.999667, 161, 25, 176, 40
-0.999667, 365, 19, 380, 34
-0.999667, 127, 27, 142, 42
-0.999667, 367, 75, 382, 90
-0.999668, 177, 17, 192, 32
-0.99967, 287, 275, 302, 290
-0.999673, 367, 65, 382, 80
-0.999674, 9, 307, 24, 322
-0.999674, 275, 11, 290, 26
-0.999675, 115, 29, 130, 44
-0.999675, 311, 255, 326, 270
-0.999675, 293, 273, 308, 288
-0.999675, 279, 291, 294, 306
-0.999676, 87, 53, 102, 68
-0.999677, 121, 27, 136, 42
-0.999677, 365, 31, 380, 46
-0.999677, 59, 217, 74, 232
-0.999678, 141, 25, 156, 40
-0.999679, 15, 305, 30, 320
-0.999683, 149, 27, 164, 42
-0.999688, 299, 275, 314, 290
-0.999688, 87, 39, 102, 54
-0.999689, 55, 309, 70, 324
-0.99969, 361, 3, 376, 18
-0.999696, 167, 23, 182, 38
-0.999697, 331, 275, 346, 290
-0.999698, 57, 319, 72, 334
-0.999701, 403, 211, 418, 226
-0.999702, 365, 25, 380, 40
-0.999702, 277, 285, 292, 300
-0.999703, 355, 5, 370, 20
-0.999709, 57, 327, 72, 342
-0.999718, 413, 213, 428, 228
-0.999718, 337, 275, 352, 290
-0.99972, 109, 31, 124, 46
-0.99972, 101, 33, 116, 48
-0.999726, 277, 275, 292, 290
-0.99973, 343, 275, 358, 290
-0.999734, 51, 327, 66, 342
-0.999749, 393, 213, 408, 228
-0.999771, 31, 309, 46, 324
-0.999783, 91, 33, 106, 48
-0.999785, 349, 275, 364, 290
-0.9998, 129, 113, 256, 176
-0.999801, 65, 225, 192, 352
-0.99984, 449, 97, 480, 352
-0.999879, 265, 65, 296, 192
-1.00002, 309, 49, 340, 176
-1.00005, 181, 49, 212, 176
-1.00019, 381, 1, 412, 256
-1.0002, 129, 89, 256, 152
-1.00029, 97, 209, 160, 336
-1.00031, 113, 209, 240, 336
-1.00037, 393, 1, 424, 256
-1.00058, 161, 65, 192, 192
-1.00062, 385, 65, 416, 192
-1.00082, 469, 1, 500, 256
-1.00123, 457, 1, 488, 256
-1.00132, 209, 209, 272, 336
-1.00139, 469, 97, 500, 352
-1.00453, 185, 209, 248, 336
-1.00522, 121, 209, 184, 336
-1.00588, 97, 65, 160, 192
-1.00745, 145, 209, 208, 336
