1976
-0.30149, 1, 129, 500, 375
-0.409275, 1, 1, 500, 375
-0.517689, 1, 33, 500, 288
-0.524066, 129, 1, 384, 375
-0.5272, 257, 129, 500, 375
-0.543549, 161, 97, 416, 352
-0.582223, 33, 1, 288, 375
-0.586227, 257, 1, 500, 375
-0.6268, 1, 97, 256, 352
-0.761984, 257, 33, 500, 288
-0.779741, 97, 1, 352, 256
-0.833997, 353, 129, 480, 375
-0.846256, 257, 97, 384, 352
-0.848625, 209, 97, 336, 352
-0.855916, 305, 97, 432, 352
-0.857789, 1, 1, 256, 256
-0.866104, 1, 113, 500, 240
-0.868536, 97, 97, 224, 352
-0.868858, 49, 97, 176, 352
-0.871463, 225, 1, 352, 375
-0.872559, 161, 97, 288, 352
-0.878889, 1, 65, 128, 320
-0.880421, 161, 1, 288, 375
-0.882041, 1, 193, 500, 320
-0.887269, 49, 1, 176, 375
-0.888843, 321, 1, 448, 375
-0.893902, 225, 113, 480, 240
-0.905565, 1, 1, 128, 375
-0.908832, 1, 241, 500, 368
-0.908866, 273, 1, 400, 375
-0.911226, 113, 1, 240, 375
-0.912272, 1, 97, 256, 224
-0.914373, 161, 1, 288, 256
-0.915153, 257, 1, 384, 256
-0.91874, 369, 1, 496, 375
-0.923004, 129, 145, 384, 272
-0.925268, 305, 1, 432, 256
-0.927161, 353, 33, 480, 288
-0.928422, 209, 1, 336, 256
-0.928726, 337, 193, 464, 320
-0.929057, 49, 1, 176, 256
-0.930031, 241, 97, 304, 224
-0.930122, 337, 113, 464, 240
-0.930276, 1, 65, 500, 192
-0.931111, 425, 193, 488, 320
-0.93156, 289, 209, 416, 336
-0.931633, 113, 1, 240, 256
-0.932355, 209, 97, 336, 224
-0.934062, 393, 113, 456, 240
-0.934549, 345, 177, 408, 304
-0.935374, 241, 145, 368, 272
-0.936621, 417, 145, 480, 272
-0.936706, 1, 193, 256, 320
-0.93731, 161, 193, 416, 320
-0.938501, 217, 97, 280, 224
-0.939371, 265, 129, 328, 256
-0.94013, 65, 241, 320, 368
-0.940528, 257, 193, 500, 320
-0.941335, 377, 177, 440, 304
-0.942011, 97, 97, 352, 224
-0.942027, 289, 97, 416, 224
-0.944009, 305, 209, 368, 336
-0.944013, 233, 161, 296, 288
-0.944227, 1, 81, 128, 208
-0.945827, 257, 241, 500, 368
-0.945951, 177, 145, 304, 272
-0.946193, 241, 121, 304, 184
-0.946458, 305, 113, 368, 240
-0.947697, 257, 225, 320, 352
-0.948178, 161, 97, 288, 224
-0.948656, 113, 193, 240, 320
-0.948786, 329, 113, 392, 240
-0.949379, 369, 113, 432, 240
-0.949502, 201, 145, 264, 272
-0.949951, 209, 193, 336, 320
-0.950667, 361, 193, 424, 256
-0.951724, 409, 193, 472, 256
-0.952516, 17, 81, 80, 208
-0.952763, 121, 209, 184, 336
-0.952852, 273, 113, 336, 176
-0.953001, 353, 225, 416, 352
-0.953584, 225, 65, 480, 192
-0.953639, 161, 241, 416, 368
-0.954683, 433, 225, 496, 288
-0.955243, 289, 145, 416, 272
-0.955536, 329, 201, 392, 264
-0.955597, 113, 97, 240, 224
-0.955679, 393, 129, 456, 192
-0.956214, 177, 97, 240, 224
-0.956386, 273, 81, 336, 208
-0.956606, 353, 241, 480, 368
-0.956619, 289, 161, 352, 288
-0.956855, 329, 225, 392, 352
-0.957172, 385, 225, 448, 352
-0.957415, 433, 169, 496, 232
-0.957585, 257, 177, 320, 304
-0.958189, 265, 137, 328, 200
-0.95889, 217, 105, 280, 168
-0.958896, 41, 81, 104, 208
-0.959213, 97, 49, 352, 176
-0.959624, 297, 121, 360, 184
-0.959636, 233, 225, 296, 352
-0.959651, 161, 193, 288, 320
-0.960586, 233, 225, 296, 288
-0.961702, 305, 217, 368, 280
-0.962171, 433, 193, 496, 256
-0.96254, 257, 217, 320, 280
-0.96292, 385, 97, 448, 352
-0.963011, 409, 169, 472, 232
-0.963158, 177, 241, 304, 368
-0.963448, 353, 121, 416, 184
-0.963568, 65, 193, 192, 320
-0.96428, 329, 97, 392, 352
-0.964341, 201, 209, 264, 272
-0.964688, 81, 193, 144, 320
-0.964754, 81, 241, 144, 368
-0.965143, 353, 97, 416, 352
-0.965271, 249, 97, 312, 160
-0.965368, 329, 225, 392, 288
-0.965377, 65, 97, 192, 224
-0.966156, 97, 97, 160, 224
-0.96629, 353, 265, 416, 328
-0.966447, 161, 193, 224, 320
-0.966526, 1, 49, 256, 176
-0.966582, 417, 241, 480, 368
-0.966608, 385, 201, 448, 264
-0.966657, 121, 209, 184, 272
-0.966729, 281, 217, 344, 280
-0.966821, 281, 209, 344, 336
-0.967263, 129, 145, 256, 272
-0.967443, 241, 241, 368, 368
-0.967497, 193, 105, 256, 168
-0.967626, 1, 209, 128, 336
-0.967663, 265, 97, 328, 352
-0.967905, 129, 241, 256, 368
-0.967906, 277, 113, 308, 176
-0.968014, 81, 225, 144, 288
-0.968153, 425, 249, 488, 312
-0.968432, 257, 193, 320, 256
-0.968437, 409, 129, 472, 375
-0.968593, 201, 193, 264, 320
-0.968695, 169, 113, 232, 176
-0.969014, 33, 145, 288, 272
-0.969028, 217, 129, 280, 192
-0.9691, 209, 161, 272, 224
-0.969359, 57, 241, 120, 368
-0.969517, 209, 129, 336, 192
-0.969659, 121, 97, 184, 224
-0.969734, 305, 97, 368, 352
-0.969804, 97, 201, 160, 264
-0.969875, 233, 177, 296, 240
-0.969918, 177, 49, 304, 176
-0.969918, 321, 161, 384, 288
-0.969948, 337, 193, 464, 256
-0.970188, 289, 145, 352, 208
-0.970312, 385, 145, 416, 272
-0.970375, 233, 97, 296, 352
-0.970403, 249, 97, 280, 224
-0.970574, 353, 241, 416, 304
-0.970613, 429, 129, 460, 256
-0.970695, 329, 121, 392, 184
-0.970852, 385, 233, 448, 296
-0.971108, 329, 265, 392, 328
-0.971113, 261, 97, 292, 224
-0.971236, 49, 241, 176, 368
-0.971281, 257, 217, 384, 280
-0.971474, 409, 177, 440, 304
-0.971495, 177, 105, 304, 168
-0.971628, 277, 97, 308, 224
-0.971656, 1, 81, 64, 144
-0.971862, 153, 97, 216, 224
-0.971902, 1, 17, 500, 144
-0.971924, 413, 185, 444, 248
-0.971948, 233, 49, 296, 176
-0.971951, 257, 113, 288, 176
-0.972002, 369, 169, 432, 232
-0.972044, 121, 97, 184, 352
-0.972064, 441, 145, 472, 272
-0.972218, 65, 81, 128, 208
-0.972248, 409, 113, 440, 240
-0.972256, 241, 145, 304, 208
-0.972334, 105, 241, 168, 304
-0.972527, 241, 49, 368, 176
-0.972677, 161, 201, 224, 264
-0.972696, 257, 113, 384, 176
-0.972846, 373, 177, 404, 304
-0.972953, 353, 193, 384, 320
-0.973023, 401, 257, 464, 320
-0.973201, 353, 209, 384, 272
-0.973246, 233, 113, 264, 240
-0.97329, 153, 97, 216, 352
-0.973294, 465, 217, 496, 280
-0.97352, 309, 113, 340, 176
-0.973627, 49, 65, 112, 320
-0.973815, 25, 89, 88, 152
-0.973842, 225, 201, 288, 264
-0.97385, 177, 201, 304, 264
-0.973891, 33, 209, 96, 336
-0.973913, 57, 217, 120, 280
-0.973998, 441, 169, 472, 232
-0.974261, 81, 97, 144, 352
-0.97435, 373, 113, 404, 240
-0.974427, 289, 105, 320, 168
-0.974493, 337, 137, 464, 200
-0.974678, 309, 97, 340, 224
-0.974681, 81, 105, 144, 168
-0.974684, 373, 193, 404, 256
-0.974707, 245, 161, 276, 288
-0.974724, 209, 97, 272, 352
-0.974768, 237, 137, 268, 200
-0.975028, 113, 113, 176, 176
-0.975095, 209, 49, 272, 176
-0.975272, 17, 65, 80, 320
-0.975283, 81, 249, 144, 312
-0.975352, 113, 209, 240, 272
-0.975386, 129, 49, 256, 176
-0.975789, 397, 113, 428, 240
-0.975792, 161, 241, 224, 368
-0.975921, 177, 225, 304, 288
-0.976034, 25, 209, 88, 272
-0.976082, 429, 177, 460, 304
-0.976135, 453, 193, 484, 256
-0.976209, 297, 185, 360, 248
-0.976289, 177, 145, 240, 272
-0.97631, 1, 129, 64, 256
-0.976383, 297, 241, 360, 304
-0.976385, 49, 97, 112, 160
-0.976406, 385, 281, 448, 344
-0.976508, 305, 217, 432, 280
-0.976537, 425, 145, 488, 208
-0.976557, 265, 161, 328, 224
-0.976571, 337, 113, 368, 240
-0.976661, 265, 225, 296, 352
-0.976859, 457, 161, 488, 288
-0.976862, 1, 65, 32, 192
-0.977063, 389, 193, 420, 256
-0.977178, 409, 225, 472, 288
-0.977268, 345, 289, 408, 352
-0.977418, 265, 225, 296, 288
-0.977457, 89, 273, 152, 336
-0.977502, 433, 129, 496, 375
-0.977509, 341, 193, 372, 320
-0.977521, 273, 241, 336, 304
-0.977693, 297, 65, 360, 192
-0.97776, 425, 281, 488, 344
-0.977924, 385, 169, 416, 232
-0.977965, 361, 217, 424, 280
-0.978043, 369, 169, 496, 232
-0.978061, 341, 217, 372, 280
-0.978075, 33, 233, 96, 296
-0.978144, 405, 225, 436, 352
-0.978235, 1, 185, 64, 248
-0.978256, 265, 145, 296, 272
-0.978267, 1, 33, 128, 160
-0.978267, 137, 113, 200, 176
-0.978298, 17, 65, 48, 192
-0.978346, 345, 169, 408, 232
-0.978348, 277, 137, 308, 200
-0.978382, 129, 113, 256, 176
-0.978557, 257, 193, 384, 256
-0.978613, 1, 217, 64, 280
-0.978648, 1, 89, 128, 152
-0.978702, 381, 121, 412, 184
-0.978715, 65, 49, 192, 176
-0.978821, 393, 129, 424, 192
-0.978834, 425, 185, 456, 248
-0.979026, 317, 217, 348, 280
-0.979372, 369, 121, 400, 184
-0.979396, 465, 185, 496, 248
-0.979462, 25, 161, 88, 288
-0.979515, 357, 113, 388, 240
-0.979531, 1, 161, 64, 224
-0.979568, 177, 97, 240, 352
-0.979574, 305, 281, 368, 344
-0.979579, 469, 177, 500, 304
-0.979616, 233, 193, 264, 256
-0.979728, 289, 137, 320, 200
-0.979748, 273, 89, 336, 152
-0.979983, 433, 217, 464, 280
-0.97999, 241, 153, 368, 216
-0.980049, 365, 225, 396, 288
-0.980056, 353, 265, 384, 328
-0.980056, 305, 97, 368, 160
-0.980084, 221, 145, 252, 272
-0.980107, 209, 177, 336, 240
-0.980122, 337, 65, 464, 192
-0.980232, 321, 169, 384, 232
-0.980249, 185, 241, 248, 304
-0.980292, 57, 241, 120, 304
-0.980438, 221, 97, 252, 224
-0.980537, 17, 33, 80, 160
-0.980551, 1, 193, 64, 320
-0.980568, 17, 161, 144, 288
-0.980693, 25, 185, 88, 248
-0.980705, 161, 145, 288, 208
-0.980719, 309, 209, 340, 336
-0.980733, 225, 161, 256, 224
-0.980798, 305, 217, 336, 280
-0.980985, 453, 169, 484, 232
-0.981004, 109, 225, 140, 288
-0.981022, 33, 225, 160, 288
-0.98104, 365, 265, 396, 328
-0.9812, 65, 193, 128, 256
-0.981236, 253, 185, 284, 248
-0.981239, 65, 105, 192, 168
-0.981264, 233, 161, 264, 288
-0.981339, 233, 225, 264, 288
-0.98146, 69, 217, 100, 280
-0.981477, 369, 217, 496, 280
-0.9815, 305, 113, 432, 176
-0.981537, 297, 145, 328, 272
-0.981583, 85, 241, 116, 304
-0.981638, 153, 145, 216, 272
-0.981712, 249, 225, 280, 288
-0.981752, 245, 97, 276, 160
-0.981758, 433, 145, 464, 208
-0.981763, 333, 121, 364, 184
-0.981793, 285, 145, 316, 272
-0.981893, 349, 185, 380, 248
-0.981899, 285, 209, 316, 272
-0.981962, 213, 209, 244, 272
-0.98202, 113, 265, 176, 328
-0.982057, 401, 193, 432, 256
-0.982059, 201, 97, 232, 224
-0.982104, 337, 241, 464, 304
-0.982109, 145, 49, 208, 176
-0.982113, 65, 313, 128, 375
-0.982138, 397, 177, 428, 304
-0.982177, 441, 193, 472, 256
-0.982197, 309, 145, 340, 272
-0.98226, 37, 81, 68, 208
-0.982347, 185, 241, 248, 368
-0.982523, 337, 273, 464, 336
-0.982542, 225, 137, 256, 200
-0.98256, 353, 145, 416, 208
-0.982569, 113, 241, 240, 304
-0.982599, 297, 97, 328, 224
-0.982645, 353, 241, 384, 368
-0.982681, 433, 97, 496, 224
-0.982703, 129, 201, 160, 264
-0.982716, 225, 241, 352, 304
-0.982811, 233, 105, 264, 168
-0.982849, 385, 193, 416, 320
-0.982868, 49, 201, 176, 264
-0.982874, 185, 49, 248, 176
-0.9829, 57, 177, 120, 304
-0.982921, 353, 233, 384, 296
-0.982933, 297, 225, 328, 352
-0.983052, 185, 185, 248, 248
-0.983077, 1, 137, 64, 200
-0.98309, 325, 129, 356, 256
-0.983196, 177, 249, 304, 312
-0.983294, 5, 185, 36, 248
-0.983346, 289, 161, 416, 224
-0.983355, 89, 49, 152, 176
-0.983394, 405, 129, 436, 192
-0.983404, 289, 49, 416, 176
-0.983427, 321, 65, 384, 192
-0.983516, 209, 233, 272, 296
-0.983711, 65, 81, 96, 208
-0.983798, 121, 49, 184, 176
-0.983897, 369, 225, 400, 352
-0.983899, 453, 217, 484, 280
-0.983929, 385, 97, 416, 224
-0.983939, 329, 209, 360, 336
-0.983948, 257, 289, 384, 352
-0.983963, 221, 105, 252, 168
-0.983973, 209, 81, 272, 144
-0.983975, 129, 161, 192, 288
-0.984015, 281, 289, 344, 352
-0.984059, 185, 153, 248, 216
-0.984151, 33, 273, 160, 336
-0.984206, 353, 65, 416, 192
-0.984237, 193, 201, 224, 264
-0.98426, 125, 209, 156, 336
-0.984311, 241, 161, 272, 224
-0.984352, 265, 89, 296, 152
-0.984447, 161, 225, 224, 288
-0.984504, 361, 185, 392, 248
-0.98457, 409, 217, 440, 280
-0.984634, 193, 193, 224, 320
-0.984636, 49, 81, 80, 208
-0.984708, 21, 81, 52, 144
-0.984721, 445, 193, 476, 320
-0.98485, 113, 289, 176, 352
-0.984923, 257, 1, 320, 256
-0.984976, 153, 89, 216, 152
-0.985009, 329, 145, 392, 208
-0.98501, 193, 105, 224, 168
-0.985269, 469, 225, 500, 352
-0.985302, 253, 209, 284, 336
-0.985375, 257, 297, 320, 360
-0.985409, 181, 193, 212, 320
-0.985439, 209, 145, 240, 272
-0.985495, 317, 137, 348, 200
-0.985501, 65, 273, 128, 336
-0.985505, 113, 265, 240, 328
-0.985548, 41, 33, 104, 160
-0.985685, 281, 1, 344, 375
-0.985708, 421, 209, 452, 272
-0.985759, 285, 193, 316, 320
-0.985798, 101, 105, 132, 168
-0.985816, 329, 225, 360, 288
-0.985891, 393, 65, 456, 192
-0.985937, 125, 97, 156, 224
-0.985965, 65, 33, 128, 160
-0.985968, 161, 177, 288, 240
-0.985971, 225, 1, 288, 375
-0.985993, 77, 97, 108, 160
-0.986034, 377, 257, 440, 320
-0.986078, 49, 1, 112, 375
-0.986097, 137, 185, 200, 248
-0.986113, 189, 97, 220, 224
-0.986127, 425, 273, 456, 336
-0.986251, 117, 273, 148, 336
-0.986312, 329, 1, 392, 256
-0.986329, 377, 105, 440, 168
-0.986345, 113, 241, 144, 368
-0.986359, 73, 241, 104, 304
-0.986365, 77, 81, 108, 208
-0.986404, 381, 145, 412, 208
-0.98645, 249, 249, 312, 312
-0.986462, 453, 241, 484, 304
-0.986471, 141, 113, 172, 176
-0.986529, 397, 169, 428, 232
-0.986556, 257, 153, 288, 216
-0.986577, 353, 121, 384, 184
-0.986579, 165, 113, 196, 176
-0.986659, 1, 73, 32, 136
-0.986672, 49, 89, 80, 152
-0.986803, 113, 89, 176, 152
-0.986835, 177, 1, 240, 375
-0.986848, 85, 209, 116, 272
-0.986928, 129, 113, 160, 176
-0.986951, 289, 241, 416, 304
-0.986991, 89, 97, 120, 224
-0.987058, 357, 289, 388, 352
-0.98707, 1, 193, 128, 256
-0.987083, 417, 225, 448, 352
-0.987113, 9, 33, 40, 96
-0.987237, 353, 297, 480, 360
-0.987265, 337, 193, 368, 256
-0.987267, 233, 65, 264, 192
-0.987288, 5, 145, 36, 272
-0.987303, 9, 57, 72, 120
-0.987313, 33, 249, 160, 312
-0.987333, 17, 161, 48, 224
-0.987335, 393, 305, 456, 368
-0.987428, 113, 105, 144, 168
-0.987496, 73, 81, 136, 144
-0.987542, 1, 17, 32, 144
-0.987562, 193, 129, 256, 192
-0.987574, 105, 281, 136, 344
-0.987592, 289, 137, 416, 200
-0.98761, 161, 249, 224, 312
-0.987642, 13, 209, 44, 272
-0.987704, 393, 241, 424, 368
-0.987791, 417, 129, 448, 192
-0.987792, 137, 265, 200, 328
-0.987793, 25, 209, 56, 272
-0.987812, 129, 249, 160, 312
-0.987817, 89, 1, 152, 375
-0.987838, 201, 1, 264, 256
-0.987932, 469, 241, 500, 304
-0.987996, 41, 65, 104, 128
-0.988006, 225, 313, 288, 375
-0.988087, 141, 209, 172, 272
-0.988089, 49, 217, 80, 280
-0.988094, 421, 233, 452, 296
-0.988163, 225, 89, 352, 152
-0.988174, 261, 49, 292, 176
-0.988217, 113, 97, 144, 224
-0.98828, 405, 281, 436, 344
-0.988283, 25, 153, 88, 216
-0.988291, 249, 1, 312, 375
-0.988305, 257, 129, 500, 192
-0.988346, 117, 249, 148, 312
-0.988371, 225, 1, 288, 256
-0.988395, 65, 97, 96, 160
-0.988396, 81, 225, 112, 352
-0.988412, 205, 113, 236, 176
-0.988431, 321, 1, 384, 375
-0.988448, 101, 209, 132, 336
-0.98845, 129, 241, 192, 304
-0.988462, 289, 265, 416, 328
-0.988463, 33, 257, 96, 320
-0.988511, 265, 109, 328, 140
-0.988543, 1, 113, 64, 176
-0.988573, 433, 189, 496, 220
-0.988593, 361, 197, 424, 228
-0.988593, 281, 1, 344, 256
-0.988593, 369, 1, 432, 256
-0.988634, 49, 313, 176, 375
-0.988792, 101, 97, 132, 224
-0.988807, 193, 225, 224, 288
-0.988817, 401, 205, 464, 236
-0.988827, 165, 209, 196, 336
-0.98883, 257, 229, 320, 260
-0.988892, 393, 193, 456, 224
-0.988898, 269, 161, 300, 224
-0.988934, 321, 81, 352, 208
-0.988947, 97, 201, 128, 264
-0.988955, 209, 305, 336, 368
-0.988986, 153, 113, 184, 176
-0.988989, 209, 241, 240, 304
-0.988989, 425, 1, 488, 375
-0.989002, 409, 33, 472, 288
-0.98904, 301, 145, 332, 208
-0.989041, 113, 81, 240, 144
-0.989055, 37, 89, 68, 152
-0.989081, 17, 193, 48, 320
-0.98915, 409, 241, 440, 304
-0.989158, 265, 185, 296, 248
-0.989161, 249, 121, 312, 152
-0.989163, 137, 193, 168, 320
-0.989228, 457, 209, 488, 336
-0.989245, 177, 81, 304, 144
-0.989294, 237, 225, 268, 352
-0.989299, 465, 161, 496, 224
-0.989312, 337, 265, 368, 328
-0.989313, 393, 133, 456, 164
-0.989314, 433, 201, 496, 232
-0.989419, 305, 297, 432, 360
-0.989473, 353, 113, 480, 176
-0.989481, 153, 209, 184, 336
-0.989489, 225, 141, 288, 172
-0.989508, 5, 161, 36, 224
-0.989514, 173, 97, 204, 224
-0.989541, 329, 213, 392, 244
-0.989614, 297, 221, 360, 252
-0.989625, 141, 97, 172, 224
-0.989641, 277, 241, 308, 368
-0.989656, 329, 229, 392, 260
-0.989659, 265, 153, 328, 184
-0.989664, 113, 185, 240, 248
-0.989669, 425, 177, 488, 208
-0.98967, 425, 225, 488, 256
-0.989671, 177, 113, 208, 176
-0.989697, 213, 137, 244, 200
-0.989704, 97, 177, 160, 240
-0.989709, 97, 241, 128, 304
-0.98974, 397, 225, 428, 288
-0.989765, 361, 129, 424, 160
-0.989794, 425, 249, 488, 280
-0.989822, 117, 201, 148, 264
-0.989835, 161, 113, 416, 176
-0.989839, 429, 225, 460, 352
-0.989864, 265, 137, 328, 168
-0.989879, 245, 49, 276, 176
-0.9899, 345, 289, 376, 352
-0.989909, 137, 1, 200, 256
-0.98991, 113, 213, 176, 244
-0.989911, 153, 97, 184, 224
-0.989931, 21, 129, 52, 256
-0.989955, 361, 209, 424, 240
-0.989956, 329, 145, 360, 208
-0.990028, 25, 185, 56, 248
-0.990051, 9, 1, 72, 375
-0.990057, 81, 241, 144, 272
-0.990067, 89, 105, 120, 168
-0.990079, 353, 97, 416, 160
-0.990088, 377, 1, 440, 375
-0.990182, 273, 125, 336, 156
-0.990202, 257, 241, 320, 272
-0.990222, 209, 113, 272, 144
-0.990222, 233, 109, 296, 140
-0.990228, 81, 225, 144, 256
-0.990233, 433, 33, 496, 288
-0.990235, 97, 289, 224, 352
-0.990238, 177, 81, 240, 144
-0.990284, 1, 121, 500, 184
-0.99029, 129, 273, 160, 336
-0.990296, 17, 137, 48, 200
-0.990302, 289, 149, 352, 180
-0.990321, 209, 81, 240, 144
-0.990325, 433, 249, 464, 312
-0.990325, 161, 209, 224, 240
-0.990347, 425, 237, 488, 268
-0.990354, 209, 229, 272, 260
-0.990367, 153, 217, 184, 280
-0.990377, 265, 33, 328, 160
-0.990399, 337, 197, 400, 228
-0.990399, 321, 113, 352, 176
-0.990413, 281, 185, 312, 248
-0.990414, 121, 265, 184, 296
-0.99044, 401, 181, 464, 212
-0.990466, 129, 225, 160, 288
-0.99047, 329, 241, 392, 272
-0.990483, 297, 121, 360, 152
-0.990499, 57, 241, 88, 304
-0.9905, 1, 189, 64, 220
-0.990538, 1, 121, 32, 184
-0.990541, 233, 225, 296, 256
-0.990571, 213, 185, 244, 248
-0.990577, 205, 193, 236, 320
-0.990617, 9, 313, 72, 375
-0.990641, 57, 237, 120, 268
-0.990664, 373, 169, 404, 232
-0.990674, 401, 145, 464, 176
-0.99068, 353, 141, 416, 172
-0.990696, 433, 213, 496, 244
-0.990697, 289, 89, 416, 152
-0.990726, 201, 209, 264, 240
-0.990728, 33, 217, 288, 280
-0.99076, 385, 237, 448, 268
-0.990777, 369, 185, 432, 216
-0.99078, 417, 285, 480, 316
-0.990805, 153, 113, 216, 144
-0.990874, 353, 229, 416, 260
-0.990876, 225, 129, 288, 160
-0.990881, 129, 253, 192, 284
-0.990905, 329, 125, 392, 156
-0.990931, 33, 93, 96, 124
-0.990933, 81, 177, 112, 304
-0.990941, 81, 261, 144, 292
-0.990951, 273, 217, 336, 248
-0.990964, 113, 1, 176, 256
-0.99097, 305, 1, 368, 256
-0.990977, 161, 201, 416, 264
-0.990994, 297, 233, 360, 264
-0.990996, 425, 265, 488, 296
-0.991004, 385, 269, 448, 300
-0.991122, 353, 245, 416, 276
-0.991138, 201, 1, 264, 375
-0.991141, 1, 85, 64, 116
-0.991171, 241, 157, 304, 188
-0.991176, 97, 113, 160, 144
-0.991179, 361, 153, 424, 184
-0.991183, 1, 161, 128, 224
-0.99119, 305, 209, 368, 240
-0.991231, 353, 261, 416, 292
-0.991256, 401, 1, 464, 375
-0.991273, 57, 249, 120, 280
-0.991274, 113, 1, 176, 375
-0.991282, 433, 165, 496, 196
-0.991291, 225, 209, 288, 240
-0.991298, 73, 105, 136, 136
-0.991302, 289, 109, 352, 140
-0.991326, 89, 201, 152, 232
-0.991358, 1, 217, 64, 248
-0.991397, 33, 217, 96, 248
-0.991401, 353, 273, 416, 304
-0.991411, 81, 213, 144, 244
-0.991411, 329, 145, 392, 176
-0.991427, 401, 225, 464, 256
-0.991442, 385, 257, 448, 288
-0.991461, 273, 165, 336, 196
-0.991463, 201, 241, 232, 368
-0.99148, 185, 153, 248, 184
-0.991486, 385, 281, 448, 312
-0.991508, 329, 289, 392, 320
-0.99155, 233, 241, 296, 272
-0.991555, 249, 209, 312, 240
-0.991561, 1, 313, 128, 375
-0.991568, 161, 221, 224, 252
-0.991573, 445, 97, 476, 224
-0.991584, 209, 161, 272, 192
-0.991589, 177, 113, 240, 144
-0.991591, 329, 97, 392, 160
-0.991592, 97, 281, 160, 312
-0.991595, 297, 297, 360, 328
-0.991607, 121, 201, 184, 232
-0.991638, 289, 137, 352, 168
-0.991643, 297, 245, 360, 276
-0.99168, 409, 165, 472, 196
-0.991695, 345, 1, 408, 375
-0.991699, 121, 117, 184, 148
-0.991712, 105, 245, 168, 276
-0.991724, 185, 253, 248, 284
-0.991745, 161, 225, 416, 288
-0.991759, 369, 305, 432, 368
-0.991772, 241, 185, 304, 216
-0.991784, 33, 113, 288, 176
-0.991791, 193, 161, 448, 224
-0.991829, 377, 301, 440, 332
-0.991838, 121, 225, 184, 256
-0.991846, 153, 257, 216, 288
-0.991853, 209, 149, 336, 180
-0.991878, 201, 197, 264, 228
-0.991886, 161, 1, 224, 256
-0.991915, 417, 297, 480, 328
-0.99194, 137, 213, 200, 244
-0.991967, 49, 177, 176, 240
-0.99197, 185, 221, 248, 252
-0.991978, 65, 209, 96, 336
-0.991986, 353, 289, 416, 320
-0.991993, 17, 65, 144, 128
-0.992001, 57, 261, 120, 292
-0.992009, 257, 273, 320, 336
-0.992011, 273, 205, 336, 236
-0.992013, 65, 81, 192, 144
-0.992022, 417, 189, 448, 220
-0.99203, 329, 277, 392, 308
-0.992034, 329, 253, 392, 284
-0.992035, 81, 1, 144, 256
-0.992042, 345, 185, 408, 216
-0.992051, 313, 197, 376, 228
-0.99206, 41, 313, 104, 375
-0.992074, 89, 305, 152, 368
-0.992074, 265, 117, 296, 148
-0.992087, 33, 193, 96, 224
-0.992095, 57, 221, 120, 252
-0.992111, 1, 145, 64, 176
-0.992116, 73, 281, 136, 312
-0.99212, 1, 341, 64, 372
-0.992147, 25, 205, 88, 236
-0.992155, 289, 109, 320, 140
-0.992159, 249, 197, 312, 228
-0.992166, 209, 241, 272, 272
-0.992167, 25, 257, 88, 288
-0.992189, 241, 253, 304, 284
-0.992207, 25, 333, 88, 364
-0.992228, 349, 213, 380, 244
-0.992231, 81, 145, 144, 272
-0.992263, 233, 169, 296, 200
-0.992263, 17, 241, 80, 272
-0.992269, 277, 129, 308, 160
-0.992301, 177, 141, 240, 172
-0.992301, 169, 241, 232, 272
-0.992316, 313, 161, 376, 192
-0.99233, 409, 201, 440, 232
-0.992334, 145, 197, 208, 228
-0.992336, 265, 301, 328, 332
-0.992349, 13, 17, 44, 144
-0.992381, 145, 273, 208, 304
-0.992381, 353, 301, 416, 332
-0.992386, 457, 189, 488, 220
-0.992386, 465, 221, 496, 252
-0.992423, 289, 149, 320, 180
-0.992451, 1, 217, 500, 280
-0.992457, 429, 189, 460, 220
-0.992468, 397, 193, 428, 224
-0.992474, 341, 225, 372, 256
-0.992474, 1, 1, 256, 128
-0.992474, 461, 209, 492, 240
-0.992494, 445, 169, 476, 200
-0.992503, 461, 177, 492, 208
-0.992507, 441, 201, 472, 232
-0.992507, 369, 201, 496, 232
-0.99251, 381, 129, 412, 160
-0.99251, 265, 229, 296, 260
-0.992536, 369, 201, 400, 232
-0.992546, 221, 193, 252, 320
-0.992562, 277, 117, 308, 148
-0.992571, 441, 221, 472, 252
-0.992584, 273, 105, 304, 136
-0.992626, 405, 133, 436, 164
-0.992628, 233, 201, 264, 232
-0.992653, 385, 193, 416, 224
-0.992659, 361, 225, 392, 256
-0.992662, 445, 189, 476, 220
-0.992671, 285, 229, 316, 260
-0.992673, 221, 149, 252, 180
-0.992678, 277, 141, 308, 172
-0.992679, 305, 113, 336, 144
-0.992681, 245, 109, 276, 140
-0.992687, 233, 141, 264, 172
-0.992701, 421, 201, 452, 232
-0.992707, 449, 233, 480, 264
-0.992707, 429, 177, 460, 208
-0.99271, 381, 141, 412, 172
-0.992712, 329, 217, 360, 248
-0.992717, 189, 241, 220, 368
-0.992741, 373, 189, 404, 220
-0.992744, 353, 197, 384, 228
-0.992745, 301, 153, 332, 184
-0.992746, 253, 125, 284, 156
-0.992755, 317, 217, 348, 248
-0.992773, 469, 189, 500, 220
-0.992773, 229, 165, 260, 196
-0.992777, 305, 225, 336, 256
-0.992803, 289, 137, 320, 168
-0.99281, 81, 261, 112, 292
-0.992814, 365, 241, 396, 272
-0.992842, 469, 241, 500, 272
-0.992852, 453, 221, 484, 252
-0.992862, 89, 241, 120, 272
-0.992865, 429, 229, 460, 260
-0.992877, 345, 277, 376, 308
-0.99288, 341, 237, 372, 268
-0.992884, 261, 105, 292, 136
-0.992887, 317, 141, 348, 172
-0.992901, 129, 261, 160, 292
-0.992903, 429, 141, 460, 172
-0.992905, 17, 185, 48, 216
-0.992909, 73, 241, 104, 272
-0.992913, 353, 293, 384, 324
-0.992915, 17, 113, 144, 176
-0.992917, 189, 209, 220, 240
-0.992926, 241, 221, 272, 252
-0.99293, 29, 89, 60, 120
-0.992934, 13, 85, 44, 116
-0.992937, 369, 125, 400, 156
-0.992943, 429, 217, 460, 248
-0.992948, 133, 209, 164, 240
-0.992951, 209, 225, 240, 256
-0.992955, 281, 113, 296, 176
-0.992956, 365, 289, 396, 320
-0.992956, 105, 229, 136, 260
-0.992956, 285, 217, 316, 248
-0.992963, 209, 209, 240, 240
-0.992964, 1, 137, 128, 200
-0.992967, 393, 129, 424, 160
-0.992971, 289, 121, 320, 152
-0.992974, 121, 205, 152, 236
-0.992974, 313, 153, 344, 184
-0.992975, 429, 273, 460, 304
-0.992976, 365, 145, 396, 176
-0.992977, 277, 153, 308, 184
-0.992982, 17, 217, 48, 248
-0.992987, 265, 241, 296, 272
-0.992992, 401, 105, 464, 168
-0.992992, 29, 189, 60, 220
-0.993001, 305, 237, 336, 268
-0.993003, 197, 113, 228, 144
-0.993004, 317, 121, 348, 152
-0.993008, 93, 265, 124, 296
-0.993009, 345, 249, 376, 280
-0.993014, 177, 209, 208, 240
-0.993016, 289, 49, 320, 176
-0.993017, 121, 217, 152, 248
-0.99302, 45, 93, 76, 124
-0.993026, 317, 229, 348, 260
-0.993031, 429, 81, 460, 208
-0.993035, 285, 241, 316, 272
-0.993036, 329, 125, 360, 156
-0.993042, 357, 269, 388, 300
-0.993047, 161, 113, 192, 144
-0.993047, 417, 237, 448, 268
-0.993051, 425, 305, 488, 368
-0.993054, 361, 213, 392, 244
-0.993056, 5, 185, 36, 216
-0.993059, 257, 161, 288, 192
-0.99306, 129, 249, 160, 280
-0.993064, 305, 125, 336, 156
-0.993066, 1, 81, 32, 112
-0.993069, 141, 117, 172, 148
-0.993078, 377, 153, 408, 184
-0.993079, 353, 237, 384, 268
-0.993079, 157, 253, 188, 284
-0.993086, 357, 125, 388, 156
-0.993088, 81, 225, 112, 256
-0.993089, 57, 97, 88, 128
-0.993091, 305, 213, 336, 244
-0.993094, 33, 33, 64, 160
-0.993096, 117, 113, 148, 144
-0.9931, 109, 241, 140, 272
-0.993101, 5, 133, 36, 164
-0.993107, 69, 101, 100, 132
-0.99311, 365, 253, 396, 284
-0.993115, 117, 265, 148, 296
-0.993117, 145, 261, 176, 292
-0.993126, 417, 133, 448, 164
-0.993134, 409, 269, 440, 300
-0.993135, 85, 105, 116, 136
-0.993143, 105, 109, 136, 140
-0.993149, 341, 289, 372, 320
-0.993154, 425, 289, 456, 320
-0.993154, 5, 25, 36, 56
-0.993161, 353, 185, 384, 216
-0.993162, 225, 289, 288, 352
-0.993167, 469, 253, 500, 284
-0.993167, 389, 265, 420, 296
-0.993167, 305, 101, 336, 132
-0.993251, 153, 1, 216, 375
-0.993276, 257, 225, 500, 288
-0.99329, 113, 193, 144, 320
-0.993293, 177, 113, 304, 144
-0.993313, 433, 113, 496, 176
-0.993326, 333, 65, 364, 192
-0.993341, 29, 177, 60, 304
-0.993371, 65, 145, 192, 272
-0.993403, 113, 137, 240, 200
-0.993415, 257, 201, 500, 264
-0.993433, 221, 49, 252, 176
-0.993536, 273, 49, 304, 176
-0.993567, 1, 1, 128, 64
-0.993593, 193, 273, 320, 336
-0.993639, 369, 189, 496, 220
-0.99368, 257, 229, 384, 260
-0.993739, 397, 65, 428, 192
-0.993802, 353, 141, 480, 172
-0.993812, 189, 49, 220, 176
-0.993851, 97, 49, 128, 176
-0.993859, 161, 249, 416, 312
-0.993905, 145, 289, 272, 352
-0.993907, 241, 109, 368, 140
-0.99393, 257, 297, 500, 360
-0.993944, 1, 241, 256, 304
-0.993959, 161, 177, 224, 240
-0.993961, 457, 113, 488, 240
-0.994033, 273, 125, 400, 156
-0.9941, 145, 49, 176, 176
-0.994159, 1, 241, 500, 304
-0.994168, 97, 313, 224, 375
-0.99419, 97, 137, 352, 200
-0.994195, 461, 209, 476, 272
-0.99423, 105, 161, 168, 288
-0.994231, 209, 137, 336, 168
-0.994235, 113, 209, 240, 240
-0.994267, 369, 65, 400, 192
-0.994273, 309, 113, 324, 176
-0.994276, 153, 137, 216, 200
-0.994298, 367, 201, 382, 264
-0.994314, 425, 185, 440, 248
-0.994328, 181, 145, 212, 272
-0.994337, 9, 241, 72, 304
-0.994345, 409, 193, 424, 256
-0.994372, 97, 89, 352, 152
-0.994373, 65, 193, 320, 256
-0.994401, 243, 137, 258, 200
-0.994406, 337, 241, 464, 272
-0.994423, 121, 49, 152, 176
-0.994431, 341, 241, 372, 368
-0.994438, 57, 33, 88, 160
-0.994444, 209, 49, 240, 176
-0.994445, 289, 213, 416, 244
-0.994453, 177, 213, 304, 244
-0.994492, 469, 193, 484, 256
-0.994497, 353, 209, 368, 272
-0.994506, 359, 265, 374, 328
-0.994564, 463, 177, 478, 240
-0.99459, 287, 105, 302, 168
-0.994595, 369, 221, 496, 252
-0.994607, 269, 105, 284, 168
-0.994647, 257, 105, 500, 168
-0.994648, 373, 193, 388, 256
-0.994719, 65, 281, 320, 344
-0.994726, 281, 265, 344, 328
-0.994748, 209, 165, 336, 196
-0.994757, 321, 201, 448, 232
-0.994759, 109, 49, 140, 176
-0.994762, 257, 273, 500, 336
-0.994769, 1, 193, 500, 256
-0.994794, 367, 265, 382, 328
-0.994795, 333, 137, 348, 200
-0.994814, 305, 229, 432, 260
-0.994821, 415, 193, 430, 256
-0.994856, 393, 129, 408, 192
-0.994873, 303, 121, 318, 184
-0.9949, 403, 193, 418, 256
-0.994942, 241, 265, 368, 328
-0.994953, 253, 209, 268, 272
-0.994964, 379, 193, 394, 256
-0.994964, 467, 217, 482, 280
-0.994972, 451, 185, 466, 248
-0.994997, 273, 153, 400, 184
-0.995003, 237, 137, 252, 200
-0.995028, 265, 225, 280, 288
-0.995037, 471, 169, 486, 232
-0.995039, 113, 221, 240, 252
-0.99507, 5, 193, 36, 320
-0.995096, 233, 73, 296, 136
-0.995099, 327, 121, 342, 184
-0.995117, 81, 33, 112, 160
-0.995124, 133, 49, 164, 176
-0.995148, 249, 137, 264, 200
-0.995159, 177, 233, 304, 264
-0.995159, 399, 129, 414, 192
-0.995169, 45, 33, 76, 160
-0.995169, 69, 33, 100, 160
-0.995179, 65, 261, 192, 292
-0.995185, 331, 217, 346, 280
-0.995187, 385, 193, 400, 256
-0.995187, 337, 129, 464, 160
-0.995199, 251, 105, 266, 168
-0.995209, 381, 241, 412, 368
-0.995211, 261, 97, 292, 352
-0.995212, 359, 193, 374, 256
-0.995215, 201, 297, 264, 360
-0.995218, 431, 185, 446, 248
-0.995229, 295, 113, 310, 176
-0.99524, 443, 145, 458, 208
-0.99524, 259, 97, 274, 160
-0.995241, 425, 129, 456, 375
-0.995243, 443, 169, 458, 232
-0.995261, 367, 225, 382, 288
-0.995268, 455, 209, 470, 272
-0.995288, 321, 113, 336, 176
-0.995289, 385, 121, 400, 184
-0.995297, 405, 97, 436, 352
-0.995316, 457, 169, 472, 232
-0.995329, 435, 209, 450, 272
-0.995353, 321, 189, 448, 220
-0.995357, 53, 209, 84, 336
-0.995372, 239, 161, 254, 224
-0.99538, 359, 233, 374, 296
-0.995385, 373, 129, 404, 375
-0.995389, 477, 193, 492, 256
-0.995428, 309, 217, 324, 280
-0.995434, 295, 137, 310, 200
-0.995468, 349, 65, 380, 192
-0.995487, 1, 169, 500, 232
-0.995495, 353, 153, 480, 184
-0.99551, 241, 217, 368, 248
-0.995516, 257, 201, 384, 232
-0.995526, 305, 49, 336, 176
-0.995535, 177, 245, 304, 276
-0.995539, 357, 97, 388, 352
-0.995543, 405, 129, 420, 192
-0.995558, 273, 297, 400, 328
-0.995566, 255, 129, 270, 192
-0.995566, 95, 209, 110, 272
-0.995569, 177, 201, 304, 232
-0.995573, 319, 217, 334, 280
-0.995579, 165, 49, 196, 176
-0.995581, 279, 225, 294, 288
-0.995587, 161, 313, 288, 375
-0.995599, 337, 289, 464, 320
-0.995612, 77, 233, 92, 296
-0.995613, 449, 153, 464, 216
-0.995625, 205, 105, 220, 168
-0.995633, 245, 105, 260, 168
-0.995638, 289, 141, 416, 172
-0.995648, 33, 305, 288, 368
-0.995681, 393, 161, 408, 224
-0.995696, 275, 113, 290, 176
-0.995711, 325, 217, 340, 280
-0.995721, 385, 97, 416, 352
-0.995722, 353, 169, 480, 200
-0.995751, 247, 201, 262, 264
-0.995831, 161, 149, 288, 180
-0.995837, 247, 169, 262, 232
-0.995839, 315, 113, 330, 176
-0.995846, 225, 125, 352, 156
-0.99585, 177, 49, 208, 176
-0.995862, 339, 121, 354, 184
-0.995871, 113, 249, 240, 280
-0.995874, 257, 241, 384, 272
-0.995886, 387, 153, 402, 216
-0.995893, 1, 241, 64, 368
-0.995894, 469, 129, 500, 256
-0.995909, 97, 233, 112, 296
-0.995941, 227, 137, 242, 200
-0.995952, 289, 97, 320, 352
-0.995958, 369, 273, 496, 304
-0.995958, 373, 121, 388, 184
-0.995966, 237, 225, 252, 288
-0.99597, 435, 137, 450, 200
-0.995971, 447, 225, 462, 288
-0.995975, 259, 225, 274, 288
-0.995979, 9, 9, 72, 72
-0.995985, 1, 97, 128, 128
-0.995996, 337, 97, 368, 352
-0.995996, 441, 201, 456, 264
-0.99601, 247, 225, 262, 288
-0.996023, 437, 177, 452, 240
-0.996024, 273, 225, 288, 288
-0.996027, 177, 125, 304, 156
-0.996049, 49, 277, 176, 308
-0.99605, 233, 161, 248, 224
-0.996053, 217, 241, 248, 368
-0.996067, 363, 289, 378, 352
-0.996072, 399, 169, 414, 232
-0.99608, 3, 73, 18, 136
-0.996088, 379, 121, 394, 184
-0.996095, 481, 225, 496, 288
-0.996098, 317, 97, 348, 352
-0.996103, 277, 97, 308, 352
-0.996113, 113, 265, 240, 296
-0.996117, 257, 249, 500, 312
-0.996118, 473, 217, 488, 280
-0.996124, 33, 233, 160, 264
-0.99616, 69, 161, 100, 288
-0.996166, 169, 145, 200, 272
-0.996183, 65, 205, 192, 236
-0.996183, 85, 217, 100, 280
-0.996194, 373, 273, 388, 336
-0.996203, 481, 169, 496, 232
-0.996203, 241, 193, 256, 256
-0.996212, 245, 97, 276, 352
-0.996223, 29, 209, 44, 272
-0.996235, 369, 257, 496, 288
-0.996262, 85, 241, 100, 304
-0.996268, 289, 129, 304, 192
-0.996279, 169, 313, 232, 375
-0.996281, 117, 273, 132, 336
-0.996281, 1, 297, 500, 360
-0.996283, 353, 265, 368, 328
-0.996284, 425, 189, 440, 220
-0.9963, 259, 185, 274, 248
-0.996332, 215, 113, 230, 176
-0.996353, 483, 193, 498, 256
-0.996356, 349, 233, 364, 296
-0.996359, 17, 185, 32, 248
-0.996362, 49, 249, 176, 280
-0.996369, 203, 201, 218, 264
-0.996372, 161, 113, 176, 176
-0.996379, 113, 237, 240, 268
-0.996387, 125, 97, 156, 352
-0.996402, 97, 169, 352, 232
-0.996403, 3, 161, 18, 224
-0.996403, 437, 129, 468, 375
-0.996405, 11, 161, 26, 224
-0.996418, 105, 97, 136, 352
-0.996423, 33, 217, 160, 248
-0.996444, 1, 145, 500, 208
-0.996447, 131, 201, 146, 264
-0.996451, 233, 201, 248, 264
-0.996461, 89, 97, 104, 160
-0.996462, 215, 81, 230, 144
-0.996462, 143, 113, 158, 176
-0.996463, 225, 217, 240, 280
-0.996466, 149, 97, 180, 352
-0.996475, 461, 233, 476, 296
-0.996483, 11, 185, 26, 248
-0.996488, 353, 185, 368, 248
-0.99649, 145, 201, 160, 264
-0.996507, 1, 121, 16, 184
-0.996517, 341, 201, 356, 264
-0.99652, 391, 193, 406, 256
-0.996524, 125, 105, 140, 168
-0.996542, 425, 209, 440, 272
-0.996543, 17, 81, 32, 144
-0.996547, 33, 129, 64, 256
-0.99655, 411, 129, 426, 192
-0.996555, 333, 113, 348, 176
-0.996556, 113, 105, 128, 168
-0.996556, 123, 265, 138, 328
-0.996557, 235, 105, 250, 168
-0.996565, 81, 113, 208, 144
-0.996569, 17, 33, 32, 96
-0.996572, 379, 169, 394, 232
-0.996579, 193, 145, 224, 272
-0.996603, 429, 233, 444, 296
-0.99661, 397, 193, 412, 256
-0.996618, 409, 217, 424, 280
-0.996623, 57, 65, 88, 320
-0.996632, 83, 97, 98, 160
-0.996634, 137, 97, 168, 352
-0.996649, 177, 241, 208, 368
-0.996657, 65, 129, 192, 192
-0.996678, 81, 65, 112, 320
-0.996726, 305, 97, 336, 352
-0.996772, 193, 101, 320, 132
-0.996793, 209, 189, 336, 220
-0.996801, 57, 161, 88, 288
-0.996811, 29, 65, 60, 320
-0.996825, 161, 161, 288, 192
-0.996866, 475, 197, 490, 228
-0.996869, 129, 117, 256, 148
-0.996882, 161, 273, 416, 336
-0.996904, 283, 113, 298, 144
-0.996916, 257, 189, 384, 220
-0.996918, 45, 65, 76, 320
-0.996921, 113, 197, 240, 228
-0.996931, 189, 97, 220, 352
-0.996935, 431, 189, 446, 220
-0.996961, 161, 97, 192, 352
-0.996969, 69, 65, 100, 320
-0.997024, 1, 189, 128, 220
-0.997036, 161, 137, 288, 168
-0.997049, 1, 265, 500, 328
-0.997098, 305, 149, 320, 180
-0.997119, 161, 305, 416, 368
-0.997121, 173, 97, 204, 352
-0.997131, 17, 65, 48, 320
-0.997172, 1, 73, 500, 136
-0.997194, 369, 301, 496, 332
-0.997209, 355, 209, 370, 240
-0.997213, 275, 109, 290, 140
-0.997238, 413, 201, 428, 232
-0.99724, 467, 217, 482, 248
-0.997241, 419, 193, 434, 224
-0.99728, 1, 41, 128, 104
-0.997286, 209, 241, 272, 368
-0.997294, 269, 117, 284, 148
-0.997301, 257, 173, 384, 204
-0.997338, 33, 109, 160, 140
-0.997347, 177, 177, 304, 208
-0.997372, 473, 209, 488, 240
-0.997376, 461, 129, 492, 375
-0.997376, 233, 97, 264, 352
-0.997392, 463, 205, 478, 236
-0.997403, 369, 221, 384, 252
-0.997406, 463, 233, 478, 264
-0.997419, 299, 145, 314, 176
-0.997424, 361, 213, 376, 244
-0.99744, 33, 65, 288, 128
-0.997446, 481, 209, 496, 240
-0.997451, 289, 113, 416, 144
-0.997453, 307, 113, 322, 144
-0.997465, 371, 209, 386, 240
-0.997468, 231, 149, 246, 180
-0.997492, 379, 189, 394, 220
-0.997524, 311, 221, 326, 252
-0.997525, 113, 101, 240, 132
-0.997534, 279, 133, 294, 164
-0.99754, 1, 89, 256, 152
-0.997552, 321, 277, 448, 308
-0.997561, 1, 137, 256, 200
-0.997568, 95, 237, 110, 268
-0.997569, 367, 233, 382, 264
-0.997584, 451, 201, 466, 232
-0.997588, 293, 109, 308, 140
-0.997601, 93, 97, 124, 352
-0.997616, 205, 97, 236, 352
-0.997627, 333, 141, 348, 172
-0.997631, 373, 193, 388, 224
-0.997631, 17, 261, 144, 292
-0.997648, 469, 197, 484, 228
-0.99765, 289, 129, 304, 160
-0.997654, 481, 189, 496, 220
-0.997656, 437, 205, 452, 236
-0.997658, 467, 181, 482, 212
-0.997658, 295, 133, 310, 164
-0.997674, 457, 213, 472, 244
-0.997678, 449, 129, 480, 375
-0.997704, 453, 225, 468, 256
-0.997707, 321, 301, 448, 332
-0.99771, 399, 129, 414, 160
-0.997723, 457, 169, 472, 200
-0.997737, 369, 269, 384, 300
-0.99774, 365, 201, 380, 232
-0.997745, 87, 241, 102, 272
-0.997752, 237, 145, 252, 176
-0.997755, 403, 197, 418, 228
-0.997758, 443, 145, 458, 176
-0.997759, 225, 149, 240, 180
-0.997763, 457, 189, 472, 220
-0.997767, 1, 33, 32, 288
-0.997771, 261, 101, 276, 132
-0.997775, 383, 129, 398, 160
-0.997805, 231, 161, 246, 192
-0.997805, 327, 121, 342, 152
-0.997809, 451, 189, 466, 220
-0.997817, 101, 241, 116, 272
-0.997822, 289, 253, 416, 284
-0.997823, 269, 105, 284, 136
-0.997828, 331, 217, 346, 248
-0.997828, 391, 129, 406, 160
-0.997831, 443, 189, 458, 220
-0.997837, 277, 121, 292, 152
-0.997843, 443, 217, 458, 248
-0.997849, 387, 197, 402, 228
-0.997849, 451, 169, 466, 200
-0.997857, 377, 129, 392, 160
-0.997867, 413, 189, 428, 220
-0.997872, 29, 185, 44, 216
-0.997885, 409, 129, 424, 160
-0.997894, 337, 125, 352, 156
-0.997894, 379, 201, 394, 232
-0.997895, 27, 217, 42, 248
-0.997896, 213, 225, 228, 256
-0.997898, 299, 157, 314, 188
-0.997909, 15, 25, 30, 56
-0.997914, 457, 201, 472, 232
-0.997914, 359, 269, 374, 300
-0.997926, 343, 229, 358, 260
-0.997934, 441, 177, 456, 208
-0.997937, 1, 97, 500, 160
-0.997941, 433, 229, 448, 260
-0.997941, 357, 193, 372, 224
-0.997943, 443, 205, 458, 236
-0.997976, 263, 229, 278, 260
-0.997976, 399, 153, 414, 184
-0.997983, 311, 153, 326, 184
-0.997986, 257, 237, 272, 268
-0.997993, 483, 177, 498, 208
-0.997998, 473, 177, 488, 208
-0.998004, 217, 97, 248, 352
-0.998008, 353, 221, 368, 252
-0.998021, 353, 233, 368, 264
-0.998021, 277, 1, 308, 256
-0.998026, 481, 229, 496, 260
-0.998028, 21, 185, 36, 216
-0.998028, 39, 89, 54, 120
-0.998035, 409, 213, 424, 244
-0.998039, 263, 113, 278, 144
-0.99804, 417, 33, 448, 288
-0.998045, 367, 257, 382, 288
-0.998047, 327, 141, 342, 172
-0.99805, 359, 225, 374, 256
-0.998052, 373, 33, 404, 288
-0.998058, 179, 209, 194, 240
-0.99806, 391, 141, 406, 172
-0.998061, 93, 249, 108, 280
-0.998064, 25, 85, 40, 116
-0.998064, 365, 293, 380, 324
-0.998067, 131, 261, 146, 292
-0.998068, 319, 109, 334, 140
-0.998068, 327, 153, 342, 184
-0.998071, 293, 145, 308, 176
-0.998075, 1, 337, 128, 368
-0.998079, 289, 101, 416, 132
-0.998084, 257, 129, 272, 160
-0.998089, 305, 265, 432, 296
-0.998094, 299, 109, 314, 140
-0.998094, 303, 133, 318, 164
-0.998096, 373, 141, 388, 172
-0.998096, 131, 205, 146, 236
-0.998107, 359, 257, 374, 288
-0.998111, 147, 209, 162, 240
-0.998113, 473, 221, 488, 252
-0.998114, 113, 141, 240, 172
-0.998115, 383, 141, 398, 172
-0.99812, 83, 261, 98, 292
-0.998122, 445, 165, 460, 196
-0.998127, 397, 193, 412, 224
-0.998128, 17, 205, 144, 236
-0.998135, 359, 289, 374, 320
-0.998138, 1, 169, 256, 232
-0.998152, 451, 213, 466, 244
-0.998156, 253, 1, 284, 256
-0.998161, 301, 221, 316, 252
-0.998168, 425, 205, 440, 236
-0.998178, 443, 229, 458, 260
-0.998178, 255, 109, 270, 140
-0.998181, 241, 253, 368, 284
-0.998181, 53, 93, 68, 124
-0.998182, 17, 81, 32, 112
-0.998183, 397, 141, 412, 172
-0.998184, 283, 101, 298, 132
-0.998199, 1, 249, 128, 280
-0.9982, 1, 273, 128, 304
-0.998201, 453, 157, 468, 188
-0.998208, 213, 213, 228, 244
-0.99821, 17, 73, 144, 104
-0.998211, 251, 137, 266, 168
-0.998212, 227, 213, 242, 244
-0.998327, 161, 257, 288, 288
-0.998327, 1, 133, 128, 164
-0.998371, 113, 285, 240, 316
-0.998378, 249, 129, 312, 144
-0.998404, 425, 203, 488, 218
-0.99841, 409, 241, 440, 256
-0.998412, 73, 255, 104, 270
-0.998412, 449, 211, 480, 226
-0.998413, 153, 117, 184, 132
-0.998413, 385, 303, 416, 318
-0.998413, 297, 1, 328, 256
-0.998413, 129, 117, 160, 132
-0.998414, 389, 1, 420, 256
-0.998414, 389, 281, 420, 296
-0.998414, 209, 251, 240, 266
-0.998415, 369, 143, 400, 158
-0.998415, 333, 215, 364, 230
-0.998415, 373, 265, 404, 280
-0.998416, 297, 159, 328, 174
-0.998418, 425, 203, 456, 218
-0.998419, 233, 223, 264, 238
-0.998419, 433, 249, 464, 264
-0.99842, 469, 189, 500, 204
-0.99842, 385, 143, 416, 158
-0.998422, 137, 205, 168, 220
-0.998422, 449, 255, 480, 270
-0.998423, 285, 231, 316, 246
-0.998424, 77, 267, 108, 282
-0.998425, 401, 205, 432, 220
-0.998425, 197, 115, 228, 130
-0.998426, 93, 109, 124, 124
-0.998427, 81, 105, 112, 120
-0.998428, 5, 27, 36, 42
-0.998429, 317, 149, 348, 164
-0.998429, 225, 313, 352, 344
-0.998429, 261, 109, 292, 124
-0.998429, 449, 167, 480, 182
-0.99843, 285, 247, 316, 262
-0.998431, 257, 123, 320, 138
-0.998431, 197, 251, 228, 266
-0.998432, 245, 113, 276, 128
-0.998432, 213, 223, 244, 238
-0.998433, 241, 97, 368, 128
-0.998433, 405, 301, 436, 316
-0.998433, 245, 227, 276, 242
-0.998434, 213, 217, 244, 232
-0.998434, 25, 89, 56, 104
-0.998434, 429, 263, 460, 278
-0.998435, 65, 101, 96, 116
-0.998435, 345, 241, 376, 256
-0.998435, 13, 215, 44, 230
-0.998436, 53, 97, 84, 112
-0.998436, 25, 215, 56, 230
-0.998436, 301, 111, 332, 126
-0.998437, 369, 205, 432, 220
-0.998438, 1, 121, 128, 152
-0.998438, 289, 133, 320, 148
-0.998438, 213, 159, 244, 174
-0.998439, 5, 83, 36, 98
-0.998439, 469, 197, 500, 212
-0.998439, 85, 243, 116, 258
-0.998441, 73, 261, 104, 276
-0.998442, 385, 199, 448, 214
-0.998442, 89, 251, 120, 266
-0.998442, 357, 275, 388, 290
-0.998443, 129, 263, 160, 278
-0.998443, 445, 183, 476, 198
-0.998443, 285, 225, 316, 240
-0.998443, 233, 205, 264, 220
-0.998444, 345, 299, 376, 314
-0.998445, 273, 113, 336, 128
-0.998446, 429, 283, 460, 298
-0.998446, 469, 241, 500, 256
-0.998448, 345, 291, 376, 306
-0.998449, 437, 225, 468, 240
-0.99845, 425, 209, 456, 224
-0.998451, 277, 147, 308, 162
-0.998452, 37, 93, 68, 108
-0.998452, 305, 245, 336, 260
-0.998453, 405, 133, 436, 148
-0.998454, 361, 299, 392, 314
-0.998457, 437, 207, 468, 222
-0.998459, 361, 223, 392, 238
-0.998459, 353, 191, 384, 206
-0.99846, 281, 117, 312, 132
-0.99846, 221, 151, 252, 166
-0.998462, 265, 153, 328, 168
-0.998463, 337, 229, 368, 244
-0.998464, 309, 155, 340, 170
-0.998465, 345, 209, 408, 224
-0.998466, 405, 191, 436, 206
-0.998466, 333, 1, 364, 256
-0.998467, 361, 143, 424, 158
-0.998467, 425, 189, 488, 204
-0.998468, 317, 221, 348, 236
-0.998468, 125, 207, 156, 222
-0.998469, 401, 205, 464, 220
-0.99847, 89, 261, 120, 276
-0.99847, 149, 209, 180, 224
-0.998473, 361, 197, 424, 212
-0.998475, 265, 147, 328, 162
-0.998476, 277, 123, 308, 138
-0.998477, 257, 229, 320, 244
-0.998477, 461, 221, 492, 236
-0.998478, 361, 207, 392, 222
-0.99848, 257, 133, 288, 148
-0.998481, 361, 235, 392, 250
-0.998481, 265, 1, 296, 256
-0.998482, 305, 223, 336, 238
-0.998483, 433, 215, 496, 230
-0.998483, 457, 199, 488, 214
-0.998484, 469, 247, 500, 262
-0.998486, 445, 217, 476, 232
-0.998486, 449, 223, 480, 238
-0.998486, 241, 139, 304, 154
-0.998487, 409, 197, 440, 212
-0.998487, 425, 251, 488, 266
-0.99849, 329, 235, 392, 250
-0.998491, 469, 263, 500, 278
-0.998492, 433, 209, 496, 224
-0.998494, 289, 123, 320, 138
-0.998495, 281, 123, 344, 138
-0.998496, 313, 123, 344, 138
-0.998497, 1, 133, 32, 148
-0.998501, 297, 153, 328, 168
-0.998504, 469, 253, 500, 268
-0.998504, 289, 223, 352, 238
-0.998504, 257, 243, 320, 258
-0.998506, 409, 197, 472, 212
-0.998507, 305, 117, 336, 132
-0.998509, 433, 183, 464, 198
-0.998509, 273, 109, 304, 124
-0.998509, 341, 235, 372, 250
-0.99851, 329, 227, 392, 242
-0.99851, 393, 139, 456, 154
-0.998513, 25, 191, 56, 206
-0.998515, 357, 199, 388, 214
-0.998515, 329, 221, 360, 236
-0.998516, 355, 193, 370, 320
-0.998518, 321, 221, 384, 236
-0.998519, 465, 215, 496, 230
-0.99852, 1, 177, 128, 208
-0.998522, 225, 145, 288, 160
-0.998522, 433, 183, 496, 198
-0.998522, 273, 129, 336, 144
-0.998522, 433, 225, 496, 240
-0.998523, 417, 191, 448, 206
-0.998523, 441, 173, 472, 188
-0.998525, 461, 207, 492, 222
-0.998527, 425, 263, 488, 278
-0.998529, 437, 195, 468, 210
-0.99853, 233, 227, 296, 242
-0.99853, 257, 237, 320, 252
-0.998532, 1, 191, 64, 206
-0.998533, 433, 243, 496, 258
-0.998535, 13, 189, 44, 204
-0.998536, 249, 109, 312, 124
-0.998536, 329, 241, 392, 256
-0.998538, 289, 153, 352, 168
-0.998542, 377, 133, 440, 148
-0.998544, 457, 185, 488, 200
-0.998545, 437, 189, 468, 204
-0.998545, 353, 237, 416, 252
-0.998546, 457, 191, 488, 206
-0.998547, 81, 243, 144, 258
-0.998548, 337, 203, 400, 218
-0.99855, 265, 227, 296, 242
-0.99855, 373, 195, 404, 210
-0.998551, 425, 283, 488, 298
-0.998553, 433, 195, 496, 210
-0.998553, 277, 129, 308, 144
-0.998553, 113, 219, 176, 234
-0.998554, 469, 231, 500, 246
-0.998555, 425, 269, 488, 284
-0.998556, 265, 135, 328, 150
-0.998556, 409, 213, 472, 228
-0.998557, 209, 223, 272, 238
-0.998558, 425, 257, 488, 272
-0.998559, 373, 203, 404, 218
-0.998561, 433, 235, 496, 250
-0.998561, 437, 201, 468, 216
-0.998561, 321, 213, 384, 228
-0.998563, 65, 251, 128, 266
-0.998563, 121, 265, 184, 280
-0.998564, 225, 113, 288, 128
-0.998566, 413, 205, 444, 220
-0.998566, 65, 259, 128, 274
-0.998567, 297, 245, 360, 260
-0.99857, 129, 209, 192, 224
-0.99857, 385, 243, 448, 258
-0.998572, 97, 253, 160, 268
-0.998573, 169, 209, 232, 224
-0.998574, 401, 147, 464, 162
-0.998575, 257, 223, 320, 238
-0.998575, 409, 227, 472, 242
-0.998576, 393, 199, 424, 214
-0.998576, 97, 263, 160, 278
-0.998576, 217, 151, 280, 166
-0.998577, 225, 157, 288, 172
-0.998577, 273, 159, 336, 174
-0.998577, 385, 283, 448, 298
-0.998579, 337, 197, 400, 212
-0.998579, 269, 115, 300, 130
-0.99858, 377, 305, 440, 320
-0.998581, 97, 115, 160, 130
-0.998582, 265, 97, 280, 224
-0.998582, 145, 117, 208, 132
-0.998583, 433, 177, 496, 192
-0.998584, 233, 119, 296, 134
-0.998585, 293, 117, 324, 132
-0.998586, 353, 265, 416, 280
-0.998586, 401, 187, 464, 202
-0.998587, 73, 225, 136, 240
-0.998587, 277, 135, 308, 150
-0.99859, 353, 281, 416, 296
-0.99859, 305, 123, 368, 138
-0.99859, 297, 299, 360, 314
-0.998591, 145, 265, 208, 280
-0.998591, 41, 99, 104, 114
-0.998592, 65, 269, 128, 284
-0.998592, 209, 209, 272, 224
-0.998592, 193, 115, 256, 130
-0.998593, 273, 249, 336, 264
-0.998594, 393, 263, 456, 278
-0.998595, 349, 227, 380, 242
-0.998596, 353, 231, 416, 246
-0.998596, 305, 177, 432, 208
-0.998599, 201, 217, 264, 232
-0.998601, 297, 229, 360, 244
-0.998601, 369, 191, 432, 206
-0.998601, 417, 301, 480, 316
-0.998601, 329, 149, 392, 164
-0.998601, 289, 239, 352, 254
-0.998602, 265, 141, 328, 156
-0.998602, 169, 215, 232, 230
-0.998605, 201, 231, 264, 246
-0.998605, 361, 1, 392, 256
-0.998605, 385, 253, 448, 268
-0.998606, 169, 223, 232, 238
-0.998607, 381, 177, 396, 304
-0.998607, 353, 129, 416, 144
-0.998607, 161, 337, 288, 368
-0.998608, 233, 163, 296, 178
-0.998608, 321, 299, 384, 314
-0.998608, 73, 231, 136, 246
-0.998609, 421, 197, 452, 212
-0.998609, 177, 155, 240, 170
-0.998609, 9, 89, 72, 104
-0.99861, 81, 237, 144, 252
-0.99861, 265, 121, 296, 136
-0.99861, 297, 129, 360, 144
-0.998612, 273, 165, 336, 180
-0.998612, 209, 203, 272, 218
-0.998613, 249, 249, 312, 264
-0.998614, 349, 213, 380, 228
-0.998615, 209, 247, 272, 262
-0.998616, 261, 127, 292, 142
-0.998619, 65, 107, 128, 122
-0.99862, 353, 259, 416, 274
-0.99862, 385, 269, 448, 284
-0.998621, 225, 131, 288, 146
-0.998622, 177, 255, 240, 270
-0.998623, 345, 295, 408, 310
-0.998624, 345, 221, 408, 236
-0.998625, 349, 219, 380, 234
-0.998626, 97, 207, 160, 222
-0.998626, 25, 191, 88, 206
-0.998627, 353, 149, 416, 164
-0.998628, 433, 169, 496, 184
-0.998629, 321, 247, 384, 262
-0.998629, 17, 217, 80, 232
-0.99863, 353, 301, 416, 316
-0.99863, 401, 153, 464, 168
-0.998632, 285, 111, 316, 126
-0.998632, 49, 235, 112, 250
-0.998632, 57, 279, 120, 294
-0.998632, 81, 275, 144, 290
-0.998634, 209, 325, 336, 356
-0.998642, 249, 113, 264, 240
-0.998658, 441, 129, 456, 256
-0.99866, 255, 97, 270, 224
-0.998665, 161, 269, 288, 300
-0.998668, 65, 313, 192, 344
-0.998694, 65, 341, 192, 372
-0.998704, 309, 1, 340, 256
-0.998705, 279, 97, 294, 224
-0.99871, 49, 1, 176, 128
-0.998712, 405, 1, 436, 256
-0.998748, 391, 113, 406, 240
-0.998748, 193, 17, 448, 144
-0.998755, 259, 161, 274, 288
-0.998757, 381, 113, 396, 240
-0.998762, 367, 193, 382, 320
-0.998768, 257, 81, 500, 144
-0.998769, 333, 113, 348, 240
-0.998773, 81, 301, 208, 332
-0.998778, 433, 129, 448, 256
-0.998781, 337, 89, 464, 152
-0.998785, 237, 113, 252, 240
-0.998787, 205, 1, 236, 256
-0.998811, 411, 177, 426, 304
-0.998811, 241, 1, 272, 256
-0.998818, 193, 289, 320, 320
-0.998826, 161, 189, 288, 220
-0.99883, 1, 21, 128, 52
-0.998836, 399, 113, 414, 240
-0.998839, 243, 113, 258, 240
-0.998847, 309, 97, 324, 224
-0.998848, 113, 129, 240, 160
-0.99885, 49, 325, 176, 356
-0.998851, 429, 33, 460, 288
-0.998857, 463, 161, 478, 288
-0.998866, 321, 97, 336, 224
-0.998869, 275, 209, 290, 336
-0.998871, 425, 113, 440, 240
-0.998876, 17, 65, 32, 192
-0.998885, 451, 161, 466, 288
-0.998887, 445, 33, 476, 288
-0.998891, 269, 209, 284, 336
-0.998893, 249, 161, 264, 288
-0.998899, 285, 97, 300, 224
-0.998903, 405, 113, 420, 240
-0.998904, 3, 65, 18, 192
-0.998912, 113, 153, 240, 184
-0.998915, 113, 345, 240, 375
-0.998919, 371, 113, 386, 240
-0.998922, 373, 193, 388, 320
-0.998928, 303, 113, 318, 240
-0.99893, 27, 65, 42, 192
-0.998932, 65, 193, 192, 224
-0.998933, 403, 177, 418, 304
-0.998937, 231, 113, 246, 240
-0.998938, 241, 285, 368, 316
-0.998939, 423, 177, 438, 304
-0.998941, 17, 145, 144, 176
-0.998953, 271, 97, 286, 224
-0.998954, 1, 157, 128, 188
-0.998956, 387, 177, 402, 304
-0.998959, 359, 113, 374, 240
-0.998962, 137, 1, 168, 256
-0.998974, 275, 161, 290, 288
-0.998986, 311, 209, 326, 336
-0.998993, 327, 145, 342, 272
-0.999, 305, 165, 432, 196
-0.999026, 65, 85, 192, 116
-0.999029, 93, 1, 124, 256
-0.999033, 419, 113, 434, 240
-0.999034, 481, 161, 496, 288
-0.999034, 361, 177, 376, 304
-0.999039, 225, 97, 240, 224
-0.999042, 457, 161, 472, 288
-0.999042, 9, 65, 24, 192
-0.999043, 229, 1, 260, 256
-0.999046, 339, 113, 354, 240
-0.999051, 169, 1, 200, 256
-0.999051, 473, 161, 488, 288
-0.999052, 485, 209, 500, 336
-0.999053, 281, 209, 296, 336
-0.999056, 411, 113, 426, 240
-0.999079, 43, 81, 58, 208
-0.999079, 291, 113, 306, 240
-0.99908, 347, 209, 362, 336
-0.999097, 109, 1, 140, 256
-0.999098, 331, 193, 346, 320
-0.999099, 149, 1, 180, 256
-0.999108, 269, 161, 284, 288
-0.999108, 241, 161, 256, 288
-0.999112, 337, 117, 464, 148
-0.999112, 411, 225, 426, 352
-0.999114, 193, 1, 224, 256
-0.999117, 33, 81, 48, 208
-0.999123, 349, 113, 364, 240
-0.999124, 1, 85, 128, 116
-0.999126, 311, 145, 326, 272
-0.999133, 419, 225, 434, 352
-0.999135, 365, 113, 380, 240
-0.999139, 393, 177, 408, 304
-0.99915, 441, 177, 456, 304
-0.999152, 161, 305, 288, 336
-0.999157, 363, 241, 378, 368
-0.999158, 129, 317, 256, 348
-0.999164, 257, 269, 384, 300
-0.999177, 49, 81, 64, 208
-0.999177, 403, 225, 418, 352
-0.999178, 129, 209, 144, 336
-0.999183, 219, 97, 234, 224
-0.999184, 273, 309, 400, 340
-0.999188, 357, 241, 372, 368
-0.999192, 477, 209, 492, 336
-0.999196, 425, 225, 440, 352
-0.999197, 63, 81, 78, 208
-0.999203, 55, 81, 70, 208
-0.999205, 303, 161, 318, 288
-0.999205, 73, 81, 88, 208
-0.999207, 79, 81, 94, 208
-0.99921, 263, 225, 278, 352
-0.999217, 431, 209, 446, 336
-0.999219, 327, 97, 342, 224
-0.99923, 349, 1, 380, 256
-0.999234, 201, 97, 216, 224
-0.999234, 317, 209, 332, 336
-0.999235, 17, 293, 144, 324
-0.999239, 369, 313, 496, 344
-0.999247, 85, 81, 100, 208
-0.999248, 225, 145, 240, 272
-0.999248, 417, 177, 432, 304
-0.999251, 141, 97, 156, 224
-0.999255, 201, 193, 216, 320
-0.999261, 449, 113, 464, 240
-0.999262, 467, 209, 482, 336
-0.999262, 121, 1, 152, 256
-0.999269, 315, 97, 330, 224
-0.999272, 213, 97, 228, 224
-0.999276, 91, 225, 106, 352
-0.999276, 321, 1, 352, 256
-0.999278, 7, 17, 22, 144
-0.999278, 97, 97, 112, 224
-0.999279, 235, 161, 250, 288
-0.999281, 29, 193, 44, 320
-0.999296, 297, 97, 312, 224
-0.999298, 305, 225, 320, 352
-0.999303, 193, 97, 208, 224
-0.999305, 325, 193, 340, 320
-0.999306, 129, 97, 144, 224
-0.999307, 107, 97, 122, 224
-0.999308, 21, 129, 36, 256
-0.999309, 209, 301, 336, 332
-0.999313, 113, 97, 128, 224
-0.999316, 195, 193, 210, 320
-0.999325, 451, 209, 466, 336
-0.999327, 249, 225, 264, 352
-0.999339, 245, 65, 260, 192
-0.999347, 271, 49, 286, 176
-0.999349, 217, 1, 248, 256
-0.99935, 341, 225, 356, 352
-0.99935, 123, 241, 138, 368
-0.999356, 121, 97, 136, 224
-0.999359, 281, 161, 296, 288
-0.999363, 65, 289, 192, 320
-0.999363, 91, 97, 106, 224
-0.999364, 135, 97, 150, 224
-0.999364, 259, 49, 274, 176
-0.999364, 49, 181, 176, 212
-0.999372, 23, 193, 38, 320
-0.999373, 135, 193, 150, 320
-0.999374, 173, 209, 188, 336
-0.999376, 85, 241, 100, 368
-0.999377, 13, 17, 28, 144
-0.999382, 255, 209, 270, 336
-0.999382, 183, 209, 198, 336
-0.999382, 147, 193, 162, 320
-0.999383, 147, 97, 162, 224
-0.999384, 93, 177, 108, 304
-0.999388, 385, 225, 400, 352
-0.999421, 181, 1, 212, 256
-0.999446, 49, 97, 176, 128
-0.999467, 49, 129, 112, 256
-0.999474, 1, 325, 128, 356
-0.999532, 225, 65, 352, 128
-0.99955, 65, 125, 192, 156
-0.99961, 17, 85, 32, 100
-0.99961, 469, 261, 484, 276
-0.99961, 405, 201, 420, 216
-0.999611, 471, 199, 486, 214
-0.999611, 425, 207, 440, 222
-0.999611, 361, 229, 376, 244
-0.999612, 441, 193, 456, 208
-0.999612, 353, 227, 368, 242
-0.999613, 401, 281, 416, 296
-0.999614, 213, 251, 228, 266
-0.999614, 469, 225, 484, 240
-0.999614, 395, 197, 410, 212
-0.999615, 93, 237, 108, 252
-0.999616, 435, 253, 450, 268
-0.999616, 423, 201, 438, 216
-0.999616, 149, 209, 164, 224
-0.999617, 313, 115, 328, 130
-0.999618, 369, 279, 384, 294
-0.999618, 293, 145, 308, 160
-0.99962, 85, 245, 100, 260
-0.999621, 327, 157, 342, 172
-0.999621, 291, 115, 306, 130
-0.999621, 431, 195, 446, 210
-0.999621, 435, 207, 450, 222
-0.999622, 277, 227, 292, 242
-0.999622, 475, 189, 490, 204
-0.999622, 7, 81, 22, 96
-0.999623, 361, 215, 376, 230
-0.999624, 415, 193, 430, 208
-0.999624, 231, 151, 246, 166
-0.999625, 479, 259, 494, 274
-0.999625, 367, 267, 382, 282
-0.999625, 357, 193, 372, 208
-0.999625, 35, 191, 50, 206
-0.999626, 457, 217, 472, 232
-0.999626, 411, 205, 426, 220
-0.999626, 483, 195, 498, 210
-0.999626, 297, 135, 312, 150
-0.999626, 213, 77, 228, 92
-0.999628, 363, 203, 378, 218
-0.999628, 367, 241, 382, 256
-0.99963, 371, 221, 386, 236
-0.99963, 447, 217, 462, 232
-0.999631, 271, 109, 286, 124
-0.999633, 467, 219, 482, 234
-0.999634, 461, 183, 476, 198
-0.999634, 303, 151, 318, 166
-0.999635, 371, 143, 386, 158
-0.999635, 307, 223, 322, 238
-0.999635, 447, 191, 462, 206
-0.999635, 255, 247, 270, 262
-0.999635, 343, 225, 358, 240
-0.999636, 117, 279, 132, 294
-0.999638, 333, 139, 348, 154
-0.999638, 385, 197, 400, 212
-0.999639, 207, 251, 222, 266
-0.99964, 1, 131, 16, 146
-0.99964, 275, 125, 290, 140
-0.999641, 219, 155, 234, 170
-0.999641, 303, 157, 318, 172
-0.999642, 155, 209, 170, 224
-0.999642, 367, 299, 382, 314
-0.999643, 359, 277, 374, 292
-0.999643, 357, 237, 372, 252
-0.999643, 97, 261, 112, 276
-0.999644, 433, 201, 448, 216
-0.999644, 269, 227, 284, 242
-0.999646, 353, 221, 368, 236
-0.999646, 145, 77, 272, 108
-0.999647, 385, 203, 400, 218
-0.999647, 309, 121, 324, 136
-0.999648, 91, 243, 106, 258
-0.99965, 367, 211, 382, 226
-0.999651, 477, 213, 492, 228
-0.999652, 21, 189, 36, 204
-0.999653, 319, 121, 334, 136
-0.999653, 279, 131, 294, 146
-0.999654, 453, 227, 468, 242
-0.999656, 453, 167, 468, 182
-0.999656, 459, 225, 474, 240
-0.999657, 369, 235, 384, 250
-0.999658, 359, 293, 374, 308
-0.999658, 99, 243, 114, 258
-0.999658, 437, 185, 452, 200
-0.999659, 467, 207, 482, 222
-0.999661, 291, 135, 306, 150
-0.999662, 329, 221, 344, 236
-0.999662, 143, 209, 158, 224
-0.999665, 481, 201, 496, 216
-0.999666, 5, 129, 36, 375
-0.999667, 17, 27, 32, 42
-0.999668, 457, 191, 472, 206
-0.999669, 481, 189, 496, 204
-0.999669, 423, 189, 438, 204
-0.99967, 425, 195, 440, 210
-0.99967, 483, 209, 498, 224
-0.999671, 417, 199, 432, 214
-0.999673, 193, 89, 320, 120
-0.999673, 343, 231, 358, 246
-0.999674, 373, 207, 388, 222
-0.999675, 95, 253, 110, 268
-0.999676, 481, 231, 496, 246
-0.999677, 463, 233, 478, 248
-0.999677, 285, 115, 300, 130
-0.999681, 379, 193, 394, 208
-0.999682, 225, 153, 240, 168
-0.999682, 359, 299, 374, 314
-0.999682, 451, 197, 466, 212
-0.999685, 307, 115, 322, 130
-0.999685, 379, 203, 394, 218
-0.999687, 297, 111, 312, 126
-0.999689, 213, 227, 228, 242
-0.999689, 441, 205, 456, 220
-0.999692, 309, 151, 324, 166
-0.999694, 279, 109, 294, 124
-0.999694, 369, 199, 384, 214
-0.999698, 273, 115, 288, 130
-0.999699, 477, 195, 492, 210
-0.9997, 369, 273, 384, 288
-0.9997, 285, 127, 300, 142
-0.999706, 355, 213, 370, 228
-0.999713, 27, 215, 42, 230
-0.999713, 289, 109, 304, 124
-0.999713, 27, 189, 42, 204
-0.999716, 279, 137, 294, 152
-0.999716, 411, 199, 426, 214
-0.999718, 429, 189, 444, 204
-0.999725, 475, 207, 490, 222
-0.99973, 417, 205, 432, 220
-0.999751, 471, 213, 486, 228
-0.999754, 193, 69, 320, 100
-0.999774, 279, 115, 294, 130
-0.999774, 321, 313, 448, 344
-0.999785, 269, 121, 284, 136
-0.999806, 283, 121, 298, 136
-0.999824, 461, 33, 492, 288
-0.999862, 17, 309, 144, 340
-0.999893, 97, 329, 224, 360
-0.99996, 1, 1, 256, 64
-0.999991, 209, 273, 336, 304
-1.00004, 65, 137, 192, 168
-1.00005, 113, 65, 240, 96
-1.00008, 97, 161, 224, 224
-1.0001, 241, 85, 368, 116
-1.00011, 209, 41, 336, 104
-1.00019, 49, 153, 176, 216
-1.00019, 129, 177, 256, 208
-1.0002, 65, 57, 192, 120
-1.00025, 369, 325, 496, 356
-1.00026, 353, 337, 480, 368
-1.00028, 1, 9, 128, 40
-1.00057, 353, 49, 480, 112
-1.00075, 1, 41, 256, 104
-1.00079, 417, 49, 480, 176
-1.00079, 113, 41, 240, 104
-1.00081, 113, 1, 240, 64
-1.00082, 289, 65, 416, 128
-1.00092, 161, 65, 416, 128
-1.00107, 257, 313, 384, 375
-1.00132, 257, 49, 500, 112
-1.00133, 49, 1, 176, 64
-1.0015, 97, 1, 352, 64
-1.00156, 225, 25, 480, 88
-1.00157, 321, 25, 448, 88
-1.00161, 257, 41, 384, 104
-1.00175, 161, 57, 288, 120
-1.00178, 129, 41, 384, 104
-1.00181, 1, 49, 500, 112
-1.00191, 369, 25, 496, 88
-1.00207, 161, 1, 288, 64
-1.00208, 161, 33, 288, 96
-1.00211, 193, 1, 448, 64
-1.00244, 65, 25, 192, 88
-1.00255, 353, 1, 480, 64
-1.00275, 209, 17, 336, 80
-1.0029, 257, 17, 384, 80
-1.00297, 305, 1, 432, 64
-1.00298, 1, 17, 500, 80
-1.00444, 369, 17, 496, 144
-1.00581, 97, 1, 352, 128
-1.00661, 321, 1, 448, 128
-1.00741, 113, 1, 240, 128
-1.00933, 209, 1, 336, 128
-1.00973, 289, 17, 352, 144
-1.00996, 313, 17, 376, 144
-1.01116, 89, 1, 152, 128
-1.01157, 393, 17, 456, 144
-1.01181, 121, 1, 184, 128
-1.0125, 241, 1, 304, 128
-1.0126, 433, 1, 496, 128
-1.01269, 201, 1, 264, 128
-1.01283, 161, 1, 288, 128
-1.01299, 169, 1, 232, 128
-1.01333, 257, 1, 384, 128
-1.01412, 353, 17, 416, 144
-1.01627, 145, 1, 208, 128
