1542
-0.135352, 1, 1, 308, 308
-0.320175, 65, 1, 308, 308
-0.339099, 1, 1, 308, 256
-0.456534, 1, 1, 256, 256
-0.81682, 33, 1, 160, 308
-0.841791, 145, 1, 272, 308
-0.843985, 81, 1, 208, 308
-0.850433, 161, 65, 288, 308
-0.856697, 49, 1, 176, 256
-0.859978, 1, 33, 308, 160
-0.861517, 1, 81, 308, 208
-0.862545, 1, 161, 308, 288
-0.866508, 97, 1, 224, 256
-0.889948, 1, 65, 128, 308
-0.899054, 1, 1, 256, 128
-0.90807, 1, 97, 256, 224
-0.911634, 33, 161, 288, 288
-0.913017, 33, 49, 288, 176
-0.923505, 81, 33, 208, 160
-0.923744, 161, 65, 288, 192
-0.928525, 113, 161, 240, 288
-0.929522, 169, 1, 232, 128
-0.931764, 145, 113, 272, 240
-0.933493, 129, 17, 256, 144
-0.935063, 145, 17, 208, 144
-0.93551, 17, 1, 144, 128
-0.935712, 49, 81, 176, 208
-0.936033, 89, 1, 152, 128
-0.937129, 113, 1, 176, 128
-0.938006, 33, 177, 160, 304
-0.938105, 41, 1, 104, 128
-0.939311, 177, 49, 240, 176
-0.939848, 97, 81, 224, 208
-0.940395, 129, 161, 192, 288
-0.940568, 121, 97, 184, 224
-0.941131, 161, 161, 288, 288
-0.941391, 153, 113, 216, 240
-0.941419, 17, 129, 144, 256
-0.942607, 25, 97, 88, 224
-0.943159, 73, 49, 136, 176
-0.94449, 177, 1, 304, 128
-0.945086, 65, 1, 128, 128
-0.945413, 105, 161, 168, 288
-0.945975, 169, 161, 232, 288
-0.946614, 201, 81, 264, 208
-0.946628, 17, 177, 80, 304
-0.946801, 121, 49, 184, 176
-0.948056, 17, 33, 80, 160
-0.948217, 49, 81, 112, 208
-0.949038, 201, 33, 264, 160
-0.949337, 241, 161, 304, 288
-0.9496, 225, 1, 288, 128
-0.950153, 233, 81, 296, 208
-0.950288, 1, 97, 64, 224
-0.951186, 81, 177, 144, 304
-0.95126, 161, 49, 224, 112
-0.951461, 89, 9, 152, 72
-0.951928, 113, 1, 176, 64
-0.9533, 153, 65, 216, 192
-0.953556, 1, 81, 128, 208
-0.953571, 209, 161, 272, 288
-0.954058, 97, 49, 160, 176
-0.954119, 41, 177, 104, 304
-0.954769, 129, 49, 192, 112
-0.955131, 161, 121, 224, 184
-0.955783, 105, 33, 168, 96
-0.956219, 65, 129, 192, 256
-0.956814, 105, 177, 168, 240
-0.95689, 145, 161, 208, 224
-0.956948, 145, 1, 208, 64
-0.957429, 89, 57, 152, 120
-0.957533, 169, 17, 232, 80
-0.958437, 73, 129, 136, 256
-0.958677, 177, 113, 240, 240
-0.958832, 137, 209, 200, 272
-0.959067, 241, 17, 304, 80
-0.959317, 25, 185, 88, 248
-0.959389, 201, 81, 264, 144
-0.959425, 177, 81, 240, 144
-0.959871, 41, 1, 104, 64
-0.960047, 201, 25, 264, 88
-0.960211, 121, 89, 184, 152
-0.960671, 121, 137, 184, 200
-0.960692, 97, 97, 160, 224
-0.960789, 225, 57, 288, 120
-0.961645, 1, 57, 64, 120
-0.961778, 49, 89, 112, 152
-0.961852, 185, 49, 248, 112
-0.962045, 177, 161, 240, 224
-0.962063, 49, 33, 112, 96
-0.96257, 25, 217, 88, 280
-0.962586, 169, 225, 232, 288
-0.963006, 81, 33, 144, 96
-0.963552, 145, 25, 208, 88
-0.963695, 153, 209, 184, 272
-0.963716, 1, 97, 64, 160
-0.963783, 185, 137, 248, 200
-0.964805, 25, 65, 88, 128
-0.964851, 25, 105, 88, 168
-0.965146, 25, 241, 88, 304
-0.965522, 9, 137, 72, 200
-0.965573, 57, 1, 120, 256
-0.96594, 97, 217, 160, 280
-0.96602, 241, 81, 304, 144
-0.966137, 217, 1, 280, 64
-0.966508, 129, 185, 192, 248
-0.966508, 1, 201, 64, 264
-0.966966, 65, 1, 128, 64
-0.967249, 185, 1, 248, 256
-0.967297, 1, 33, 64, 96
-0.967665, 169, 185, 232, 248
-0.968174, 81, 17, 208, 80
-0.968192, 161, 49, 288, 112
-0.968768, 153, 73, 216, 136
-0.968803, 161, 17, 192, 144
-0.969052, 33, 97, 64, 224
-0.969104, 209, 65, 240, 128
-0.969307, 113, 49, 240, 112
-0.96944, 105, 1, 136, 128
-0.969669, 33, 65, 96, 308
-0.969792, 113, 1, 176, 256
-0.969792, 165, 97, 196, 224
-0.969959, 65, 225, 128, 288
-0.970143, 89, 1, 120, 128
-0.970179, 29, 177, 60, 304
-0.970181, 29, 97, 60, 160
-0.970275, 157, 161, 188, 288
-0.970318, 157, 177, 188, 240
-0.97064, 137, 1, 200, 256
-0.970697, 145, 233, 176, 296
-0.970713, 241, 209, 304, 272
-0.970753, 81, 1, 144, 256
-0.970957, 217, 49, 248, 176
-0.971031, 121, 1, 152, 64
-0.971103, 49, 129, 112, 256
-0.971167, 201, 105, 264, 168
-0.971272, 193, 1, 256, 64
-0.971618, 25, 161, 88, 224
-0.971661, 137, 233, 200, 296
-0.971703, 161, 81, 288, 144
-0.971905, 241, 65, 304, 308
-0.972036, 169, 121, 200, 184
-0.972094, 101, 49, 132, 176
-0.97218, 161, 17, 288, 80
-0.972183, 201, 225, 264, 288
-0.972242, 209, 33, 272, 288
-0.972352, 89, 97, 152, 160
-0.972369, 33, 33, 160, 96
-0.972416, 193, 49, 224, 176
-0.972716, 165, 217, 196, 280
-0.972739, 177, 33, 208, 160
-0.972849, 57, 57, 120, 120
-0.972875, 93, 17, 124, 80
-0.972941, 145, 209, 272, 272
-0.973096, 37, 137, 68, 200
-0.973159, 225, 121, 288, 184
-0.973282, 1, 9, 64, 72
-0.973335, 145, 161, 176, 288
-0.9734, 169, 177, 200, 304
-0.97345, 129, 161, 256, 224
-0.973566, 145, 121, 272, 184
-0.973598, 113, 233, 240, 296
-0.973826, 113, 81, 240, 144
-0.973833, 161, 49, 192, 112
-0.973847, 193, 49, 224, 112
-0.973868, 45, 113, 76, 240
-0.97397, 117, 17, 148, 144
-0.973991, 65, 201, 128, 264
-0.974202, 73, 1, 104, 128
-0.974301, 205, 81, 236, 208
-0.974448, 89, 137, 152, 200
-0.974474, 33, 1, 160, 64
-0.974527, 33, 177, 64, 240
-0.974876, 181, 161, 212, 288
-0.974914, 17, 217, 144, 280
-0.974972, 205, 25, 236, 88
-0.975006, 145, 1, 176, 128
-0.975162, 1, 233, 64, 296
-0.975227, 33, 129, 96, 192
-0.975304, 45, 113, 76, 176
-0.975366, 49, 57, 176, 120
-0.975368, 113, 177, 144, 304
-0.975382, 65, 97, 192, 160
-0.975513, 105, 17, 136, 80
-0.975573, 169, 9, 200, 72
-0.975637, 113, 57, 144, 120
-0.975676, 157, 1, 188, 64
-0.975724, 193, 17, 224, 80
-0.975876, 217, 201, 280, 264
-0.976041, 269, 33, 300, 96
-0.976126, 65, 233, 192, 296
-0.976268, 45, 1, 76, 128
-0.976274, 177, 41, 208, 104
-0.976319, 89, 49, 120, 176
-0.976334, 245, 161, 276, 288
-0.976366, 161, 33, 224, 288
-0.976392, 65, 177, 192, 240
-0.976436, 149, 57, 180, 120
-0.976452, 33, 153, 160, 216
-0.976488, 113, 113, 176, 176
-0.976497, 225, 161, 288, 224
-0.976806, 97, 137, 224, 200
-0.976822, 81, 177, 144, 240
-0.976902, 133, 161, 164, 288
-0.976908, 65, 1, 96, 64
-0.976918, 125, 33, 156, 96
-0.976943, 193, 137, 224, 200
-0.977064, 141, 1, 172, 64
-0.977128, 205, 17, 236, 144
-0.977187, 1, 177, 64, 240
-0.977206, 277, 89, 308, 152
-0.977341, 137, 177, 168, 240
-0.977411, 17, 177, 144, 240
-0.977587, 229, 1, 260, 64
-0.977593, 105, 241, 168, 304
-0.977707, 233, 233, 296, 296
-0.977776, 257, 57, 288, 120
-0.97784, 21, 81, 52, 208
-0.977861, 45, 65, 76, 128
-0.977876, 137, 81, 168, 208
-0.977924, 157, 241, 188, 304
-0.978015, 189, 97, 220, 224
-0.978019, 33, 33, 64, 160
-0.978058, 1, 57, 128, 120
-0.978348, 221, 81, 252, 144
-0.978372, 245, 33, 276, 160
-0.97844, 193, 1, 224, 128
-0.978494, 61, 1, 92, 128
-0.978529, 201, 161, 264, 224
-0.97855, 149, 49, 180, 176
-0.978591, 141, 209, 172, 272
-0.978614, 21, 129, 52, 256
-0.978626, 193, 89, 224, 152
-0.978673, 229, 65, 260, 192
-0.978676, 257, 33, 288, 160
-0.97875, 9, 65, 72, 308
-0.978834, 181, 9, 212, 72
-0.978881, 177, 225, 208, 288
-0.978901, 181, 161, 212, 224
-0.978915, 121, 145, 152, 208
-0.978945, 121, 81, 152, 208
-0.978974, 65, 89, 96, 152
-0.979083, 257, 81, 288, 208
-0.979152, 29, 57, 60, 120
-0.979186, 41, 177, 72, 304
-0.979263, 225, 161, 256, 288
-0.97928, 153, 153, 184, 216
-0.979361, 249, 17, 280, 80
-0.979419, 177, 113, 208, 240
-0.97944, 21, 137, 52, 200
-0.979533, 9, 57, 40, 120
-0.979554, 117, 177, 148, 240
-0.979737, 217, 1, 248, 128
-0.979801, 45, 49, 76, 176
-0.979873, 229, 41, 260, 104
-0.979882, 65, 153, 128, 216
-0.97999, 265, 161, 296, 288
-0.980081, 217, 17, 248, 80
-0.980137, 17, 89, 144, 152
-0.980144, 65, 81, 96, 208
-0.980189, 265, 9, 296, 72
-0.980262, 169, 177, 200, 240
-0.980304, 277, 33, 308, 160
-0.980325, 33, 201, 64, 264
-0.980337, 133, 57, 164, 120
-0.980435, 277, 57, 308, 120
-0.980487, 153, 97, 184, 224
-0.980499, 17, 209, 48, 272
-0.980551, 277, 81, 308, 208
-0.980953, 177, 161, 304, 224
-0.980985, 65, 1, 128, 308
-0.981002, 81, 1, 112, 64
-0.981109, 77, 177, 108, 304
-0.981137, 137, 113, 200, 176
-0.981204, 205, 177, 236, 304
-0.98124, 113, 129, 144, 256
-0.981286, 125, 81, 156, 144
-0.981344, 133, 1, 164, 128
-0.981354, 205, 121, 236, 184
-0.981445, 205, 129, 236, 256
-0.981614, 193, 201, 256, 264
-0.981659, 17, 177, 48, 304
-0.981722, 101, 41, 132, 104
-0.981745, 97, 201, 224, 264
-0.981854, 181, 65, 212, 128
-0.982026, 73, 25, 104, 88
-0.982109, 69, 225, 100, 288
-0.982175, 209, 89, 240, 152
-0.982244, 17, 233, 48, 296
-0.98225, 53, 177, 84, 304
-0.982347, 141, 25, 172, 88
-0.982358, 161, 1, 224, 308
-0.982395, 153, 81, 184, 144
-0.982439, 193, 177, 224, 304
-0.982473, 89, 41, 120, 104
-0.98258, 217, 97, 248, 224
-0.982703, 165, 81, 196, 144
-0.982752, 33, 129, 160, 192
-0.982773, 21, 177, 52, 240
-0.982784, 245, 49, 276, 112
-0.982811, 245, 113, 276, 240
-0.982813, 77, 81, 108, 208
-0.982983, 5, 33, 36, 96
-0.983035, 277, 161, 308, 288
-0.983079, 29, 33, 60, 96
-0.983221, 133, 153, 164, 216
-0.983261, 129, 217, 160, 280
-0.983313, 89, 129, 120, 256
-0.983493, 137, 1, 200, 308
-0.983737, 229, 17, 260, 144
-0.983773, 105, 97, 136, 160
-0.983876, 117, 121, 148, 184
-0.983941, 101, 177, 132, 304
-0.983991, 49, 177, 112, 240
-0.984042, 217, 41, 248, 104
-0.984079, 29, 225, 60, 288
-0.98411, 261, 121, 292, 184
-0.984113, 49, 1, 80, 64
-0.984146, 41, 1, 104, 308
-0.984245, 137, 81, 168, 144
-0.984313, 277, 9, 308, 72
-0.984498, 53, 89, 84, 152
-0.984507, 5, 145, 36, 272
-0.984517, 193, 1, 256, 308
-0.984525, 177, 201, 208, 264
-0.984606, 5, 201, 36, 264
-0.984645, 169, 153, 200, 216
-0.984683, 161, 233, 288, 296
-0.984719, 101, 97, 132, 224
-0.984732, 17, 33, 48, 96
-0.98483, 93, 65, 124, 128
-0.985032, 181, 121, 212, 184
-0.985116, 145, 185, 272, 248
-0.985123, 265, 81, 296, 144
-0.985204, 205, 217, 236, 280
-0.985222, 25, 33, 88, 96
-0.985276, 17, 241, 144, 304
-0.985312, 57, 113, 120, 176
-0.985336, 17, 1, 80, 308
-0.98536, 53, 185, 84, 248
-0.985477, 9, 97, 40, 224
-0.985488, 241, 209, 272, 272
-0.985509, 157, 129, 188, 192
-0.985578, 233, 113, 264, 240
-0.985689, 113, 1, 176, 308
-0.985696, 81, 89, 112, 152
-0.985702, 33, 9, 64, 72
-0.985738, 241, 185, 304, 248
-0.985745, 229, 209, 260, 272
-0.985774, 157, 25, 188, 88
-0.985781, 241, 1, 304, 308
-0.986091, 245, 121, 276, 184
-0.986164, 233, 81, 264, 144
-0.986282, 109, 145, 140, 208
-0.986375, 205, 1, 236, 64
-0.986386, 5, 97, 36, 160
-0.986548, 77, 193, 108, 256
-0.986633, 145, 129, 176, 192
-0.986666, 205, 161, 236, 224
-0.986713, 17, 33, 48, 160
-0.986802, 57, 129, 88, 256
-0.986877, 49, 225, 80, 288
-0.986881, 129, 105, 160, 168
-0.986968, 273, 121, 304, 184
-0.987154, 237, 161, 268, 224
-0.987159, 41, 33, 72, 96
-0.98724, 193, 161, 224, 224
-0.987285, 89, 1, 152, 308
-0.987513, 249, 161, 280, 224
-0.987633, 117, 217, 148, 280
-0.987683, 177, 97, 208, 160
-0.987729, 193, 113, 224, 176
-0.987809, 57, 161, 88, 224
-0.987909, 5, 33, 36, 160
-0.987929, 225, 161, 256, 224
-0.987937, 105, 217, 136, 280
-0.988041, 65, 177, 96, 304
-0.988096, 5, 241, 36, 304
-0.988201, 113, 9, 176, 40
-0.988236, 217, 121, 248, 184
-0.98825, 105, 121, 136, 184
-0.988281, 77, 49, 108, 112
-0.98829, 193, 225, 224, 288
-0.988458, 89, 41, 152, 72
-0.98848, 217, 217, 248, 280
-0.98852, 93, 97, 124, 160
-0.988567, 113, 45, 176, 76
-0.988573, 233, 121, 264, 184
-0.988767, 133, 241, 164, 304
-0.98877, 113, 173, 176, 204
-0.988789, 17, 113, 48, 176
-0.988806, 81, 25, 144, 56
-0.988969, 161, 161, 224, 192
-0.989067, 1, 89, 256, 152
-0.98907, 153, 1, 216, 32
-0.989097, 217, 1, 280, 308
-0.98911, 89, 177, 120, 304
-0.989116, 17, 81, 48, 144
-0.989154, 153, 41, 216, 72
-0.989236, 1, 137, 256, 200
-0.989335, 1, 9, 256, 72
-0.989338, 185, 73, 248, 104
-0.98939, 145, 81, 208, 112
-0.989489, 57, 93, 120, 124
-0.98951, 145, 173, 208, 204
-0.989547, 1, 41, 256, 104
-0.989645, 97, 57, 160, 88
-0.989689, 17, 101, 80, 132
-0.989692, 153, 129, 216, 160
-0.989872, 57, 5, 120, 36
-0.989923, 201, 85, 264, 116
-0.989965, 113, 129, 176, 160
-0.989969, 217, 61, 280, 92
-0.989975, 89, 5, 152, 36
-0.990044, 129, 57, 192, 88
-0.9901, 121, 33, 184, 64
-0.990155, 33, 225, 288, 288
-0.99019, 1, 145, 64, 176
-0.990197, 153, 149, 216, 180
-0.990213, 145, 185, 208, 216
-0.990244, 193, 37, 256, 68
-0.990278, 185, 157, 248, 188
-0.990295, 129, 249, 192, 280
-0.990305, 161, 69, 224, 100
-0.990307, 25, 225, 88, 256
-0.990323, 105, 189, 168, 220
-0.990353, 225, 73, 288, 104
-0.990373, 9, 209, 72, 240
-0.990419, 185, 25, 248, 56
-0.990423, 41, 193, 104, 224
-0.990433, 121, 93, 184, 124
-0.990435, 185, 61, 248, 92
-0.990436, 33, 17, 96, 48
-0.990442, 241, 93, 304, 124
-0.9905, 105, 201, 168, 232
-0.990566, 169, 173, 232, 204
-0.990573, 49, 33, 112, 64
-0.990575, 121, 21, 184, 52
-0.990658, 17, 197, 80, 228
-0.990683, 177, 5, 240, 36
-0.990692, 65, 57, 128, 88
-0.990696, 161, 17, 224, 48
-0.990708, 161, 57, 224, 88
-0.990724, 137, 213, 200, 244
-0.99073, 241, 37, 304, 68
-0.990744, 169, 113, 232, 144
-0.990747, 185, 125, 248, 156
-0.990757, 129, 157, 192, 188
-0.990814, 9, 125, 72, 156
-0.99086, 241, 25, 304, 56
-0.990869, 113, 141, 176, 172
-0.990869, 137, 225, 200, 256
-0.99089, 169, 201, 232, 232
-0.990898, 57, 45, 120, 76
-0.990915, 1, 217, 308, 280
-0.990917, 41, 109, 104, 140
-0.990925, 185, 49, 248, 80
-0.990948, 121, 77, 184, 108
-0.990953, 177, 93, 240, 124
-0.990973, 17, 253, 80, 284
-0.990981, 185, 145, 248, 176
-0.990982, 217, 25, 280, 56
-0.990985, 17, 61, 80, 92
-0.991001, 1, 77, 64, 108
-0.991015, 169, 241, 232, 272
-0.991015, 241, 61, 304, 92
-0.991028, 193, 169, 256, 200
-0.991051, 41, 245, 104, 276
-0.99107, 201, 5, 264, 36
-0.991073, 97, 89, 160, 120
-0.991077, 17, 113, 80, 144
-0.991107, 9, 237, 72, 268
-0.991107, 1, 145, 308, 208
-0.99113, 9, 181, 72, 212
-0.991154, 65, 209, 128, 240
-0.991172, 33, 125, 96, 156
-0.991214, 33, 181, 96, 212
-0.991228, 33, 5, 96, 36
-0.99125, 145, 29, 208, 60
-0.991272, 1, 89, 308, 152
-0.991313, 1, 33, 64, 64
-0.991315, 9, 21, 72, 52
-0.991319, 209, 109, 272, 140
-0.991353, 41, 205, 104, 236
-0.991383, 97, 257, 160, 288
-0.99142, 169, 229, 232, 260
-0.991427, 25, 145, 88, 176
-0.991433, 137, 237, 200, 268
-0.991454, 241, 241, 304, 272
-0.991467, 105, 161, 168, 192
-0.991487, 1, 33, 308, 96
-0.991491, 217, 37, 280, 68
-0.991499, 81, 189, 144, 220
-0.991505, 97, 69, 160, 100
-0.991508, 65, 221, 128, 252
-0.99151, 225, 5, 288, 36
-0.99151, 209, 125, 272, 156
-0.991514, 9, 269, 72, 300
-0.991516, 41, 257, 104, 288
-0.991519, 241, 225, 304, 256
-0.991547, 65, 65, 308, 128
-0.991557, 89, 129, 152, 160
-0.991573, 153, 253, 216, 284
-0.991596, 209, 49, 272, 80
-0.991597, 241, 169, 304, 200
-0.991599, 1, 225, 64, 256
-0.991612, 25, 77, 88, 108
-0.991616, 97, 245, 160, 276
-0.991632, 97, 217, 160, 248
-0.991637, 145, 93, 208, 124
-0.991663, 9, 157, 72, 188
-0.991664, 17, 89, 80, 120
-0.991668, 241, 105, 304, 136
-0.991673, 217, 253, 280, 284
-0.991679, 57, 17, 120, 48
-0.99172, 129, 117, 192, 148
-0.991722, 121, 261, 184, 292
-0.991723, 161, 213, 224, 244
-0.991748, 145, 241, 176, 272
-0.991763, 241, 125, 304, 156
-0.991809, 169, 189, 232, 220
-0.99181, 89, 177, 152, 208
-0.991815, 89, 101, 152, 132
-0.99184, 201, 97, 264, 128
-0.991844, 33, 161, 288, 224
-0.991851, 49, 137, 112, 168
-0.991875, 137, 197, 200, 228
-0.99188, 217, 169, 280, 200
-0.991971, 65, 249, 128, 280
-0.991975, 193, 261, 256, 292
-0.992005, 201, 241, 264, 272
-0.992017, 153, 1, 184, 32
-0.992021, 73, 261, 136, 292
-0.992058, 1, 1, 308, 64
-0.992088, 1, 169, 308, 232
-0.992115, 213, 81, 244, 112
-0.992142, 141, 1, 172, 32
-0.992189, 157, 225, 188, 256
-0.992225, 157, 241, 188, 272
-0.992245, 1, 57, 308, 120
-0.99225, 217, 69, 248, 100
-0.992288, 173, 5, 204, 36
-0.992298, 153, 173, 184, 204
-0.992302, 157, 209, 188, 240
-0.992313, 145, 229, 176, 260
-0.992367, 121, 41, 152, 72
-0.992397, 117, 5, 148, 36
-0.992403, 29, 101, 60, 132
-0.99244, 93, 41, 124, 72
-0.992462, 161, 45, 192, 76
-0.992463, 1, 121, 308, 184
-0.992477, 157, 253, 188, 284
-0.992479, 177, 45, 208, 76
-0.992503, 141, 53, 172, 84
-0.992509, 125, 89, 156, 120
-0.992534, 185, 161, 216, 192
-0.992546, 81, 41, 208, 72
-0.992563, 161, 13, 192, 44
-0.992563, 65, 93, 96, 124
-0.992563, 145, 253, 176, 284
-0.992567, 117, 173, 148, 204
-0.99257, 33, 181, 64, 212
-0.992575, 177, 173, 208, 204
-0.992582, 173, 125, 204, 156
-0.992584, 109, 41, 140, 72
-0.992586, 37, 137, 68, 168
-0.992586, 133, 177, 164, 208
-0.992587, 21, 141, 52, 172
-0.992597, 109, 53, 140, 84
-0.992601, 105, 1, 136, 32
-0.992602, 93, 13, 124, 44
-0.992606, 141, 13, 172, 44
-0.992615, 121, 53, 152, 84
-0.992639, 133, 41, 164, 72
-0.992643, 145, 217, 176, 248
-0.992675, 121, 129, 152, 160
-0.992681, 149, 41, 180, 72
-0.992684, 45, 121, 76, 152
-0.992694, 197, 73, 228, 104
-0.9927, 273, 93, 304, 124
-0.992703, 65, 1, 96, 32
-0.992716, 53, 1, 84, 32
-0.99272, 229, 65, 260, 96
-0.99273, 205, 93, 236, 124
-0.992732, 33, 113, 64, 144
-0.992734, 77, 5, 108, 36
-0.992734, 193, 37, 224, 68
-0.992735, 257, 61, 288, 92
-0.992742, 33, 17, 64, 48
-0.992746, 189, 149, 220, 180
-0.992754, 89, 29, 120, 60
-0.992757, 25, 129, 56, 160
-0.99276, 193, 57, 224, 88
-0.992761, 141, 77, 172, 108
-0.992761, 29, 217, 60, 248
-0.992766, 61, 13, 92, 44
-0.992792, 25, 261, 56, 292
-0.992792, 49, 93, 80, 124
-0.992796, 125, 17, 156, 48
-0.992796, 133, 245, 164, 276
-0.992799, 169, 185, 200, 216
-0.992802, 109, 29, 140, 60
-0.99281, 205, 37, 236, 68
-0.992814, 269, 25, 300, 56
-0.992819, 37, 201, 68, 232
-0.992819, 49, 109, 80, 140
-0.992819, 205, 61, 236, 92
-0.992822, 145, 93, 176, 124
-0.99283, 105, 17, 136, 48
-0.992834, 153, 185, 184, 216
-0.992836, 197, 169, 228, 200
-0.992838, 269, 37, 300, 68
-0.992852, 209, 125, 240, 156
-0.992855, 265, 81, 296, 112
-0.99286, 269, 61, 300, 92
-0.992861, 129, 1, 160, 32
-0.992865, 125, 65, 156, 96
-0.992865, 213, 25, 244, 56
-0.992873, 193, 137, 224, 168
-0.992875, 205, 153, 236, 184
-0.992877, 277, 73, 308, 104
-0.992878, 225, 85, 256, 116
-0.992879, 161, 129, 192, 160
-0.992879, 209, 49, 240, 80
-0.992883, 37, 149, 68, 180
-0.992895, 161, 25, 192, 56
-0.992897, 5, 77, 36, 108
-0.9929, 21, 153, 52, 184
-0.992903, 169, 161, 200, 192
-0.992906, 153, 57, 184, 88
-0.992907, 13, 253, 44, 284
-0.992914, 45, 17, 76, 48
-0.992918, 169, 81, 200, 112
-0.99292, 185, 73, 216, 104
-0.99292, 25, 245, 56, 276
-0.992922, 93, 1, 124, 32
-0.992927, 17, 61, 48, 92
-0.992936, 1, 65, 32, 96
-0.992938, 25, 193, 56, 224
-0.992939, 249, 25, 280, 56
-0.992939, 229, 37, 260, 68
-0.99294, 29, 61, 60, 92
-0.992941, 21, 205, 52, 236
-0.992945, 193, 93, 224, 124
-0.992953, 73, 37, 104, 68
-0.992957, 169, 213, 200, 244
-0.992958, 81, 49, 112, 80
-0.992959, 233, 53, 264, 84
-0.992962, 45, 185, 76, 216
-0.992967, 157, 197, 188, 228
-0.992969, 73, 21, 104, 52
-0.99297, 177, 29, 208, 60
-0.992972, 157, 89, 188, 120
-0.992973, 173, 229, 204, 260
-0.992982, 177, 113, 208, 144
-0.992983, 13, 237, 44, 268
-0.992984, 193, 117, 224, 148
-0.992985, 277, 105, 308, 136
-0.992987, 193, 25, 224, 56
-0.99299, 145, 205, 176, 236
-0.992997, 33, 161, 64, 192
-0.993001, 17, 225, 48, 256
-0.993003, 77, 129, 108, 256
-0.993006, 81, 1, 208, 32
-0.993006, 117, 185, 148, 216
-0.993018, 253, 73, 284, 104
-0.993023, 97, 53, 128, 84
-0.993032, 177, 61, 208, 92
-0.993185, 33, 113, 288, 176
-0.993322, 1, 201, 256, 264
-0.993401, 177, 73, 304, 104
-0.99343, 129, 85, 256, 116
-0.993641, 81, 21, 208, 52
-0.993779, 129, 73, 256, 104
-0.99379, 107, 1, 122, 64
-0.993809, 145, 241, 272, 272
-0.993975, 169, 209, 184, 272
-0.993977, 1, 193, 308, 256
-0.994033, 129, 169, 256, 200
-0.994065, 49, 85, 176, 116
-0.994067, 161, 49, 288, 80
-0.994074, 213, 65, 228, 128
-0.994076, 223, 65, 238, 128
-0.994085, 159, 209, 174, 272
-0.994163, 17, 21, 144, 52
-0.994179, 173, 1, 188, 64
-0.994183, 171, 177, 186, 240
-0.994202, 45, 97, 60, 160
-0.994251, 177, 85, 304, 116
-0.994317, 123, 145, 138, 208
-0.994321, 115, 1, 130, 64
-0.994377, 117, 25, 132, 88
-0.994388, 277, 17, 292, 80
-0.994396, 33, 181, 160, 212
-0.994397, 283, 81, 298, 144
-0.994405, 97, 181, 224, 212
-0.99441, 129, 61, 256, 92
-0.994426, 83, 1, 98, 64
-0.994452, 1, 241, 308, 304
-0.994495, 203, 49, 218, 112
-0.994502, 187, 41, 202, 104
-0.994532, 153, 201, 168, 264
-0.994545, 177, 37, 304, 68
-0.994563, 199, 17, 214, 80
-0.994576, 221, 25, 236, 88
-0.994612, 145, 121, 272, 152
-0.994632, 161, 1, 288, 32
-0.994635, 177, 201, 192, 264
-0.994653, 81, 53, 208, 84
-0.994697, 33, 169, 160, 200
-0.994698, 33, 9, 160, 40
-0.994705, 135, 1, 150, 64
-0.994712, 65, 241, 192, 272
-0.994713, 209, 25, 224, 88
-0.994729, 141, 1, 156, 64
-0.99473, 285, 57, 300, 120
-0.994735, 215, 17, 230, 80
-0.994755, 181, 1, 196, 64
-0.994832, 93, 9, 108, 72
-0.994845, 177, 41, 192, 104
-0.994852, 181, 161, 196, 224
-0.994863, 123, 57, 138, 120
-0.994891, 33, 57, 48, 120
-0.994894, 81, 253, 208, 284
-0.994915, 123, 25, 138, 88
-0.994985, 129, 57, 144, 120
-0.994987, 285, 17, 300, 80
-0.994988, 129, 21, 256, 52
-0.995002, 187, 9, 202, 72
-0.995003, 293, 17, 308, 80
-0.995045, 157, 1, 172, 64
-0.995045, 187, 153, 202, 216
-0.99505, 101, 17, 116, 80
-0.995059, 41, 121, 56, 184
-0.995065, 129, 37, 256, 68
-0.995077, 187, 121, 202, 184
-0.995101, 151, 177, 166, 240
-0.995107, 291, 89, 306, 152
-0.995116, 279, 57, 294, 120
-0.995118, 163, 49, 178, 112
-0.995118, 169, 49, 184, 112
-0.995145, 129, 17, 144, 80
-0.995146, 93, 49, 108, 112
-0.99516, 23, 193, 38, 256
-0.99516, 49, 101, 176, 132
-0.995175, 271, 33, 286, 96
-0.995185, 159, 233, 174, 296
-0.995188, 149, 233, 164, 296
-0.995191, 45, 153, 60, 216
-0.995213, 197, 129, 212, 192
-0.995217, 33, 37, 160, 68
-0.995218, 193, 33, 208, 96
-0.99522, 145, 157, 272, 188
-0.995232, 229, 81, 244, 144
-0.995261, 53, 73, 68, 136
-0.995264, 125, 97, 140, 160
-0.995284, 39, 73, 54, 136
-0.9953, 45, 177, 60, 240
-0.995302, 17, 265, 144, 296
-0.99531, 129, 145, 144, 208
-0.995318, 271, 9, 286, 72
-0.995332, 119, 177, 134, 240
-0.995338, 237, 1, 252, 64
-0.995344, 123, 1, 138, 64
-0.995345, 265, 33, 280, 96
-0.995362, 7, 57, 22, 120
-0.995372, 97, 125, 224, 156
-0.995376, 161, 169, 176, 232
-0.995395, 167, 17, 182, 80
-0.995437, 145, 41, 160, 104
-0.99544, 145, 133, 272, 164
-0.995444, 33, 97, 48, 160
-0.995448, 177, 105, 304, 136
-0.995461, 39, 97, 54, 160
-0.99548, 49, 121, 64, 184
-0.995483, 207, 81, 222, 144
-0.995488, 173, 241, 188, 304
-0.995497, 29, 177, 44, 240
-0.995497, 229, 41, 244, 104
-0.995502, 81, 185, 96, 248
-0.995507, 67, 89, 82, 152
-0.995512, 65, 1, 80, 64
-0.99552, 291, 57, 306, 120
-0.99552, 145, 229, 272, 260
-0.995537, 125, 121, 140, 184
-0.99555, 179, 81, 194, 144
-0.995554, 1, 93, 128, 124
-0.995555, 137, 81, 152, 144
-0.995558, 77, 1, 92, 64
-0.99556, 269, 57, 284, 120
-0.995572, 193, 1, 208, 64
-0.995577, 111, 25, 126, 88
-0.995582, 135, 33, 150, 96
-0.995602, 35, 153, 50, 216
-0.995618, 215, 41, 230, 104
-0.995618, 33, 65, 160, 96
-0.995656, 259, 17, 274, 80
-0.995664, 17, 245, 144, 276
-0.995672, 177, 169, 304, 200
-0.99569, 131, 81, 146, 144
-0.995714, 27, 57, 42, 120
-0.995718, 113, 97, 240, 128
-0.995719, 87, 25, 102, 88
-0.995734, 227, 17, 242, 80
-0.995736, 69, 1, 100, 256
-0.995739, 217, 89, 232, 152
-0.995749, 157, 57, 172, 120
-0.995757, 33, 53, 160, 84
-0.995765, 193, 153, 208, 216
-0.995795, 207, 137, 222, 200
-0.99581, 257, 49, 272, 112
-0.995812, 29, 217, 44, 280
-0.995828, 143, 65, 158, 128
-0.995838, 181, 113, 196, 176
-0.995851, 253, 17, 268, 80
-0.99586, 17, 225, 144, 256
-0.995865, 221, 1, 236, 64
-0.995865, 145, 169, 160, 232
-0.995867, 35, 33, 50, 96
-0.995875, 243, 1, 258, 64
-0.995881, 177, 61, 304, 92
-0.995882, 7, 33, 22, 96
-0.995883, 53, 185, 68, 248
-0.995889, 167, 233, 182, 296
-0.995893, 275, 81, 290, 144
-0.995905, 125, 169, 140, 232
-0.995905, 13, 57, 28, 120
-0.995931, 35, 177, 50, 240
-0.995951, 171, 121, 186, 184
-0.995958, 135, 145, 150, 208
-0.995958, 179, 225, 194, 288
-0.995959, 97, 153, 224, 184
-0.995968, 147, 1, 162, 64
-0.995971, 97, 137, 224, 168
-0.996012, 139, 169, 154, 232
-0.996032, 45, 57, 60, 120
-0.996052, 75, 225, 90, 288
-0.996072, 49, 125, 176, 156
-0.996077, 115, 57, 130, 120
-0.99608, 55, 113, 70, 176
-0.996106, 185, 81, 200, 144
-0.996118, 151, 57, 166, 120
-0.996124, 81, 65, 208, 96
-0.996128, 177, 33, 208, 288
-0.996143, 155, 25, 170, 88
-0.996154, 173, 81, 188, 144
-0.996161, 245, 209, 260, 272
-0.996219, 81, 1, 112, 256
-0.996251, 217, 1, 248, 256
-0.996305, 29, 65, 60, 308
-0.996306, 133, 33, 164, 288
-0.996337, 145, 145, 272, 176
-0.996365, 205, 1, 236, 256
-0.996407, 129, 205, 256, 236
-0.996452, 33, 193, 160, 224
-0.996473, 33, 157, 160, 188
-0.996482, 117, 1, 148, 256
-0.996487, 65, 229, 192, 260
-0.996496, 245, 65, 276, 308
-0.996528, 93, 1, 124, 256
-0.996626, 145, 261, 272, 292
-0.996668, 113, 109, 240, 140
-0.996685, 277, 65, 308, 308
-0.996725, 17, 213, 144, 244
-0.996745, 17, 141, 144, 172
-0.996745, 257, 1, 288, 256
-0.996775, 57, 33, 88, 288
-0.996814, 193, 1, 224, 256
-0.996817, 49, 113, 176, 144
-0.996828, 165, 1, 180, 32
-0.996842, 81, 169, 208, 200
-0.996856, 97, 193, 224, 224
-0.996873, 229, 1, 260, 256
-0.996964, 149, 1, 164, 32
-0.997084, 177, 25, 304, 56
-0.997117, 153, 65, 184, 308
-0.997132, 119, 1, 134, 32
-0.997146, 159, 1, 174, 32
-0.997174, 175, 5, 190, 36
-0.997185, 149, 241, 164, 272
-0.997194, 125, 41, 140, 72
-0.997197, 65, 5, 80, 36
-0.997228, 1, 109, 128, 140
-0.997241, 165, 1, 196, 256
-0.997245, 17, 65, 48, 308
-0.997256, 227, 73, 242, 104
-0.997291, 145, 189, 272, 220
-0.997324, 1, 125, 128, 156
-0.997336, 41, 133, 56, 164
-0.997343, 279, 85, 294, 116
-0.997344, 177, 13, 304, 44
-0.997363, 159, 241, 174, 272
-0.997378, 153, 209, 168, 240
-0.997406, 41, 1, 72, 256
-0.997411, 117, 49, 132, 80
-0.997419, 167, 245, 182, 276
-0.997429, 117, 21, 132, 52
-0.997435, 177, 209, 304, 240
-0.997442, 185, 165, 200, 196
-0.997471, 125, 125, 140, 156
-0.997473, 159, 225, 174, 256
-0.997475, 121, 173, 136, 204
-0.997477, 133, 85, 148, 116
-0.997491, 169, 209, 184, 240
-0.997522, 181, 1, 196, 32
-0.997537, 215, 81, 230, 112
-0.997539, 287, 89, 302, 120
-0.997543, 143, 1, 158, 32
-0.997553, 43, 101, 58, 132
-0.99756, 193, 153, 208, 184
-0.997568, 165, 45, 180, 76
-0.997574, 93, 29, 108, 60
-0.997579, 197, 37, 212, 68
-0.997583, 199, 49, 214, 80
-0.997602, 135, 1, 150, 32
-0.997608, 187, 45, 202, 76
-0.997612, 219, 65, 234, 96
-0.997613, 209, 81, 224, 112
-0.997618, 233, 81, 248, 112
-0.99762, 147, 177, 162, 208
-0.997628, 143, 45, 158, 76
-0.997636, 131, 49, 146, 80
-0.997639, 167, 233, 182, 264
-0.997647, 159, 209, 174, 240
-0.99765, 113, 5, 128, 36
-0.997653, 65, 265, 192, 296
-0.997661, 209, 93, 224, 124
-0.997662, 49, 185, 64, 216
-0.997669, 201, 169, 216, 200
-0.997677, 69, 93, 84, 124
-0.997678, 71, 1, 86, 32
-0.997702, 261, 57, 276, 88
-0.997708, 81, 205, 208, 236
-0.99771, 177, 45, 192, 76
-0.997711, 99, 45, 114, 76
-0.997721, 107, 9, 122, 40
-0.997738, 283, 73, 298, 104
-0.997742, 199, 141, 214, 172
-0.997744, 97, 217, 224, 248
-0.997745, 141, 89, 156, 120
-0.997748, 179, 121, 194, 152
-0.997751, 223, 85, 238, 116
-0.99777, 47, 117, 62, 148
-0.997772, 111, 41, 126, 72
-0.99779, 169, 13, 184, 44
-0.997804, 175, 209, 190, 240
-0.997805, 213, 69, 228, 100
-0.997825, 233, 65, 248, 96
-0.997845, 81, 189, 96, 220
-0.997863, 167, 133, 182, 164
-0.997875, 125, 5, 140, 36
-0.997877, 97, 9, 112, 40
-0.997882, 207, 153, 222, 184
-0.99789, 171, 189, 186, 220
-0.99789, 45, 197, 60, 228
-0.997893, 173, 253, 188, 284
-0.997898, 143, 57, 158, 88
-0.997901, 283, 25, 298, 56
-0.997903, 149, 229, 164, 260
-0.997911, 137, 37, 152, 68
-0.997912, 127, 17, 142, 48
-0.997914, 271, 65, 286, 96
-0.997916, 203, 89, 218, 120
-0.997918, 149, 253, 164, 284
-0.997918, 155, 41, 170, 72
-0.997935, 1, 33, 32, 288
-0.997939, 1, 77, 128, 108
-0.997941, 141, 13, 156, 44
-0.997941, 105, 41, 120, 72
-0.997948, 169, 221, 184, 252
-0.997956, 195, 173, 210, 204
-0.997959, 215, 125, 230, 156
-0.997961, 37, 181, 52, 212
-0.997963, 281, 61, 296, 92
-0.997969, 161, 173, 176, 204
-0.997974, 123, 53, 138, 84
-0.997985, 139, 177, 154, 208
-0.997988, 127, 89, 142, 120
-0.99799, 221, 25, 236, 56
-0.997994, 149, 41, 164, 72
-0.997994, 215, 25, 230, 56
-0.998001, 273, 77, 288, 108
-0.998002, 47, 17, 62, 48
-0.998005, 149, 77, 164, 108
-0.998016, 159, 253, 174, 284
-0.998019, 165, 77, 180, 108
-0.998022, 227, 61, 242, 92
-0.998031, 119, 33, 134, 64
-0.998032, 105, 1, 136, 256
-0.99804, 33, 61, 48, 92
-0.998046, 77, 209, 92, 240
-0.998055, 55, 97, 70, 128
-0.998064, 75, 229, 90, 260
-0.998066, 177, 177, 192, 208
-0.998067, 149, 165, 164, 196
-0.998068, 203, 37, 218, 68
-0.998068, 23, 209, 38, 240
-0.998069, 85, 9, 100, 40
-0.998077, 171, 37, 186, 68
-0.998078, 35, 145, 50, 176
-0.998085, 171, 77, 186, 108
-0.998085, 35, 101, 50, 132
-0.998086, 155, 81, 170, 112
-0.99809, 93, 49, 108, 80
-0.998092, 125, 29, 140, 60
-0.998106, 5, 65, 20, 96
-0.99811, 185, 29, 200, 60
-0.998112, 85, 37, 100, 68
-0.998112, 207, 61, 222, 92
-0.998113, 57, 17, 72, 48
-0.998122, 201, 157, 216, 188
-0.998124, 275, 25, 290, 56
-0.998125, 153, 53, 168, 84
-0.998128, 233, 25, 248, 56
-0.998128, 173, 165, 188, 196
-0.998129, 137, 53, 152, 84
-0.998135, 131, 133, 146, 164
-0.998136, 137, 69, 152, 100
-0.998259, 121, 1, 136, 128
-0.998419, 137, 19, 168, 34
-0.998419, 161, 133, 192, 148
-0.99842, 25, 131, 56, 146
-0.998422, 105, 45, 136, 60
-0.998423, 29, 109, 60, 124
-0.998423, 105, 15, 168, 30
-0.998424, 117, 57, 148, 72
-0.998424, 41, 133, 72, 148
-0.998425, 129, 261, 160, 276
-0.998426, 185, 81, 216, 96
-0.998427, 13, 259, 44, 274
-0.998427, 261, 83, 292, 98
-0.998428, 45, 125, 76, 140
-0.998428, 229, 71, 260, 86
-0.998429, 153, 187, 184, 202
-0.998429, 125, 15, 156, 30
-0.998429, 113, 5, 176, 20
-0.99843, 121, 133, 152, 148
-0.998431, 225, 79, 256, 94
-0.998431, 249, 59, 280, 74
-0.998431, 25, 143, 56, 158
-0.998433, 193, 153, 224, 168
-0.998433, 141, 87, 172, 102
-0.998434, 117, 139, 148, 154
-0.998435, 97, 59, 160, 74
-0.998436, 257, 65, 288, 80
-0.998436, 89, 37, 120, 52
-0.998437, 33, 119, 64, 134
-0.998438, 205, 63, 236, 78
-0.998438, 49, 115, 80, 130
-0.998439, 157, 91, 188, 106
-0.99844, 81, 45, 144, 60
-0.99844, 153, 57, 184, 72
-0.998441, 105, 177, 168, 192
-0.998443, 21, 273, 52, 288
-0.998444, 181, 177, 212, 192
-0.998444, 173, 15, 204, 30
-0.998446, 137, 179, 168, 194
-0.998446, 149, 19, 180, 34
-0.998447, 133, 255, 164, 270
-0.998447, 25, 191, 56, 206
-0.998448, 217, 63, 248, 78
-0.99845, 213, 39, 244, 54
-0.99845, 217, 89, 248, 104
-0.998452, 49, 109, 80, 124
-0.998453, 93, 51, 124, 66
-0.998453, 197, 139, 228, 154
-0.998454, 33, 217, 64, 232
-0.998454, 273, 93, 304, 108
-0.998455, 197, 171, 228, 186
-0.998457, 185, 47, 216, 62
-0.998458, 165, 255, 196, 270
-0.998458, 153, 161, 216, 176
-0.998459, 141, 63, 172, 78
-0.998459, 37, 151, 68, 166
-0.998461, 121, 127, 152, 142
-0.998461, 145, 223, 176, 238
-0.998461, 133, 39, 164, 54
-0.998461, 153, 133, 216, 148
-0.998462, 161, 49, 192, 64
-0.998462, 229, 65, 260, 80
-0.998463, 21, 155, 52, 170
-0.998464, 145, 181, 208, 196
-0.998464, 161, 171, 224, 186
-0.998464, 81, 35, 144, 50
-0.998465, 129, 57, 160, 72
-0.998467, 189, 159, 220, 174
-0.998468, 41, 17, 72, 32
-0.998468, 149, 13, 180, 28
-0.998469, 113, 7, 144, 22
-0.99847, 37, 139, 68, 154
-0.998471, 153, 215, 184, 230
-0.998471, 137, 1, 200, 16
-0.998473, 185, 73, 248, 88
-0.998474, 177, 263, 208, 278
-0.998474, 89, 9, 152, 24
-0.998475, 213, 129, 244, 144
-0.998475, 141, 51, 172, 66
-0.998475, 29, 223, 60, 238
-0.998476, 25, 267, 56, 282
-0.998476, 113, 47, 176, 62
-0.998476, 73, 19, 136, 34
-0.998477, 21, 149, 52, 164
-0.998477, 153, 47, 216, 62
-0.998477, 197, 71, 228, 86
-0.998478, 169, 87, 232, 102
-0.998479, 33, 183, 64, 198
-0.998481, 117, 177, 148, 192
-0.998481, 89, 51, 152, 66
-0.998482, 73, 21, 104, 36
-0.998483, 105, 1, 136, 16
-0.998484, 145, 95, 176, 110
-0.998484, 121, 41, 184, 56
-0.998485, 173, 9, 204, 24
-0.998485, 129, 61, 192, 76
-0.998486, 201, 91, 232, 106
-0.998486, 149, 43, 180, 58
-0.998486, 45, 99, 76, 114
-0.998487, 173, 1, 204, 16
-0.998488, 181, 171, 212, 186
-0.998488, 193, 39, 224, 54
-0.998489, 161, 15, 192, 30
-0.99849, 157, 221, 188, 236
-0.998491, 173, 43, 204, 58
-0.998492, 169, 171, 200, 186
-0.998495, 97, 95, 160, 110
-0.998496, 57, 99, 120, 114
-0.998496, 177, 127, 208, 142
-0.998497, 65, 7, 128, 22
-0.998498, 133, 45, 164, 60
-0.998499, 157, 209, 188, 224
-0.998501, 169, 181, 200, 196
-0.998501, 153, 155, 216, 170
-0.998502, 17, 103, 80, 118
-0.998503, 37, 145, 68, 160
-0.998503, 65, 5, 96, 20
-0.998503, 201, 83, 264, 98
-0.998504, 177, 79, 240, 94
-0.998505, 129, 11, 192, 26
-0.998505, 113, 39, 144, 54
-0.998506, 213, 69, 244, 84
-0.998508, 121, 21, 152, 36
-0.998509, 137, 171, 200, 186
-0.998512, 97, 11, 128, 26
-0.998513, 105, 59, 136, 74
-0.998513, 185, 39, 248, 54
-0.998514, 201, 67, 264, 82
-0.998514, 81, 29, 144, 44
-0.998516, 49, 17, 112, 32
-0.998518, 177, 165, 240, 180
-0.998519, 153, 175, 184, 190
-0.998519, 113, 139, 176, 154
-0.998521, 113, 53, 176, 68
-0.998521, 153, 15, 216, 30
-0.998522, 65, 95, 96, 110
-0.998522, 121, 49, 152, 64
-0.998522, 113, 129, 176, 144
-0.998531, 145, 229, 176, 244
-0.998532, 121, 63, 152, 78
-0.998532, 185, 129, 248, 144
-0.998533, 73, 1, 136, 16
-0.998533, 137, 93, 200, 108
-0.998534, 145, 261, 208, 276
-0.998534, 165, 261, 196, 276
-0.998535, 157, 247, 188, 262
-0.998535, 1, 145, 64, 160
-0.998536, 213, 75, 244, 90
-0.998537, 89, 67, 152, 82
-0.998537, 9, 209, 72, 224
-0.998539, 185, 165, 216, 180
-0.998539, 121, 1, 152, 16
-0.998545, 93, 45, 124, 60
-0.998546, 25, 265, 88, 280
-0.998546, 157, 241, 188, 256
-0.998546, 157, 181, 188, 196
-0.998547, 113, 21, 176, 36
-0.998547, 129, 81, 192, 96
-0.998548, 9, 215, 72, 230
-0.998549, 193, 45, 256, 60
-0.998549, 193, 89, 256, 104
-0.998552, 225, 65, 288, 80
-0.998557, 1, 151, 64, 166
-0.998559, 161, 73, 224, 88
-0.998559, 49, 37, 112, 52
-0.998559, 137, 255, 200, 270
-0.998559, 161, 55, 224, 70
-0.998561, 217, 73, 280, 88
-0.998562, 17, 109, 80, 124
-0.998563, 177, 1, 240, 16
-0.998563, 57, 93, 120, 108
-0.998566, 25, 223, 88, 238
-0.998567, 145, 1, 176, 16
-0.998567, 113, 15, 144, 30
-0.998568, 105, 183, 168, 198
-0.998568, 209, 125, 272, 140
-0.998569, 105, 261, 168, 276
-0.998569, 1, 37, 64, 52
-0.998571, 145, 187, 208, 202
-0.998571, 157, 227, 188, 242
-0.998572, 185, 135, 248, 150
-0.998573, 105, 205, 168, 220
-0.998573, 25, 97, 88, 112
-0.998573, 29, 103, 60, 118
-0.998574, 61, 15, 92, 30
-0.998575, 153, 139, 216, 154
-0.998575, 141, 57, 172, 72
-0.998579, 145, 41, 208, 56
-0.998579, 233, 89, 296, 104
-0.99858, 129, 93, 160, 108
-0.99858, 145, 87, 208, 102
-0.99858, 9, 203, 72, 218
-0.998581, 33, 197, 96, 212
-0.998581, 213, 83, 244, 98
-0.998582, 41, 203, 104, 218
-0.998582, 103, 1, 118, 128
-0.998583, 125, 7, 156, 22
-0.998583, 17, 273, 80, 288
-0.998584, 137, 239, 200, 254
-0.998584, 185, 141, 248, 156
-0.998585, 57, 61, 120, 76
-0.998586, 157, 235, 188, 250
-0.998586, 41, 109, 104, 124
-0.998586, 169, 9, 232, 24
-0.998587, 17, 125, 80, 140
-0.998588, 93, 19, 124, 34
-0.998589, 25, 229, 88, 244
-0.998592, 201, 17, 264, 32
-0.998592, 185, 171, 248, 186
-0.998593, 25, 237, 88, 252
-0.998594, 141, 7, 172, 22
-0.998595, 17, 259, 80, 274
-0.998596, 17, 115, 80, 130
-0.998596, 209, 39, 272, 54
-0.998596, 241, 39, 304, 54
-0.998596, 169, 123, 232, 138
-0.998596, 145, 239, 176, 254
-0.998597, 81, 13, 112, 28
-0.998597, 113, 147, 176, 162
-0.998598, 145, 259, 176, 274
-0.998598, 105, 189, 168, 204
-0.998598, 161, 21, 224, 36
-0.998599, 9, 139, 72, 154
-0.998599, 153, 7, 184, 22
-0.9986, 161, 61, 224, 76
-0.998603, 193, 261, 256, 276
-0.998603, 169, 257, 232, 272
-0.998604, 241, 99, 304, 114
-0.998604, 161, 147, 224, 162
-0.998605, 9, 131, 72, 146
-0.998605, 169, 243, 232, 258
-0.998608, 201, 61, 264, 76
-0.998608, 185, 99, 248, 114
-0.998608, 105, 199, 168, 214
-0.998609, 137, 233, 200, 248
-0.998609, 33, 135, 96, 150
-0.99861, 137, 13, 168, 28
-0.99861, 33, 191, 96, 206
-0.99861, 169, 265, 232, 280
-0.998611, 1, 221, 64, 236
-0.998611, 137, 215, 200, 230
-0.998612, 65, 209, 128, 224
-0.998612, 113, 101, 176, 116
-0.998614, 137, 225, 200, 240
-0.998614, 41, 11, 104, 26
-0.998614, 233, 83, 296, 98
-0.998616, 185, 155, 248, 170
-0.998616, 17, 253, 80, 268
-0.998616, 129, 123, 192, 138
-0.998617, 217, 3, 280, 18
-0.998617, 1, 157, 64, 172
-0.998617, 25, 17, 88, 32
-0.998617, 169, 1, 184, 128
-0.998618, 1, 247, 64, 262
-0.998619, 1, 197, 64, 212
-0.998621, 65, 215, 128, 230
-0.998621, 161, 145, 176, 272
-0.998621, 137, 21, 200, 36
-0.998621, 41, 209, 104, 224
-0.998622, 113, 171, 176, 186
-0.998625, 133, 1, 164, 16
-0.998634, 161, 1, 192, 16
-0.998649, 153, 253, 184, 268
-0.998657, 47, 113, 62, 240
-0.99868, 175, 17, 190, 144
-0.998691, 145, 245, 176, 260
-0.998699, 213, 65, 228, 192
-0.998714, 169, 177, 184, 304
-0.998718, 91, 1, 106, 128
-0.998729, 185, 17, 200, 144
-0.99873, 221, 49, 236, 176
-0.998774, 115, 1, 130, 128
-0.998778, 179, 65, 194, 192
-0.998787, 127, 1, 142, 128
-0.99879, 231, 1, 246, 128
-0.998792, 33, 145, 48, 272
-0.998792, 169, 97, 184, 224
-0.998797, 79, 1, 94, 128
-0.998817, 187, 129, 202, 256
-0.998819, 109, 1, 124, 128
-0.998819, 39, 129, 54, 256
-0.998822, 113, 49, 128, 176
-0.998828, 45, 1, 60, 128
-0.998831, 199, 49, 214, 176
-0.998834, 155, 1, 170, 128
-0.998835, 37, 81, 52, 208
-0.998841, 161, 1, 176, 128
-0.998842, 119, 177, 134, 304
-0.998847, 123, 81, 138, 208
-0.998857, 85, 1, 100, 128
-0.998864, 177, 177, 192, 304
-0.998869, 185, 65, 200, 192
-0.998878, 107, 49, 122, 176
-0.998883, 149, 161, 164, 288
-0.998891, 147, 1, 162, 128
-0.998897, 135, 1, 150, 128
-0.998901, 207, 81, 222, 208
-0.998912, 81, 177, 96, 304
-0.998914, 253, 161, 268, 288
-0.998919, 277, 81, 292, 208
-0.998927, 123, 129, 138, 256
-0.99893, 65, 1, 80, 128
-0.998933, 39, 17, 54, 144
-0.998936, 177, 113, 192, 240
-0.998936, 97, 33, 112, 160
-0.998937, 165, 49, 180, 176
-0.998949, 203, 1, 218, 128
-0.998961, 227, 177, 242, 304
-0.998965, 211, 177, 226, 304
-0.998969, 113, 177, 128, 304
-0.998969, 271, 33, 286, 160
-0.998973, 211, 1, 226, 128
-0.998974, 263, 33, 278, 160
-0.99898, 235, 177, 250, 304
-0.998981, 155, 177, 170, 304
-0.998984, 191, 33, 206, 160
-0.998995, 73, 1, 88, 128
-0.998995, 27, 161, 42, 288
-0.998996, 243, 161, 258, 288
-0.998997, 273, 161, 288, 288
-0.999001, 259, 161, 274, 288
-0.999004, 267, 161, 282, 288
-0.999009, 21, 177, 36, 304
-0.999019, 29, 81, 44, 208
-0.999022, 279, 129, 294, 256
-0.999025, 281, 33, 296, 160
-0.99903, 221, 177, 236, 304
-0.999032, 57, 113, 72, 240
-0.999032, 59, 1, 74, 128
-0.999042, 193, 113, 208, 240
-0.999045, 227, 65, 242, 192
-0.999045, 159, 97, 174, 224
-0.999047, 205, 177, 220, 304
-0.999047, 219, 97, 234, 224
-0.999052, 257, 113, 272, 240
-0.999056, 283, 81, 298, 208
-0.99906, 271, 81, 286, 208
-0.99906, 197, 1, 212, 128
-0.99906, 293, 97, 308, 224
-0.999068, 263, 81, 278, 208
-0.999069, 255, 1, 270, 128
-0.999073, 191, 177, 206, 304
-0.999074, 53, 65, 68, 192
-0.999083, 41, 177, 56, 304
-0.999083, 183, 177, 198, 304
-0.999085, 203, 129, 218, 256
-0.999087, 125, 177, 140, 304
-0.999092, 53, 177, 68, 304
-0.999094, 63, 81, 78, 208
-0.999106, 237, 49, 252, 176
-0.999107, 141, 1, 156, 128
-0.999115, 129, 65, 144, 192
-0.999116, 285, 161, 300, 288
-0.999126, 91, 49, 106, 176
-0.999128, 291, 33, 306, 160
-0.999129, 245, 97, 260, 224
-0.999135, 75, 177, 90, 304
-0.999137, 233, 97, 248, 224
-0.999137, 137, 81, 152, 208
-0.999139, 143, 145, 158, 272
-0.999149, 117, 97, 132, 224
-0.999152, 251, 113, 266, 240
-0.999153, 33, 33, 48, 160
-0.999161, 209, 129, 224, 256
-0.99917, 85, 65, 100, 192
-0.999176, 197, 177, 212, 304
-0.999176, 159, 49, 174, 176
-0.999179, 131, 177, 146, 304
-0.999182, 221, 1, 236, 128
-0.999183, 293, 145, 308, 272
-0.999185, 129, 129, 144, 256
-0.999187, 97, 81, 112, 208
-0.999192, 79, 81, 94, 208
-0.999193, 137, 177, 152, 304
-0.999202, 71, 81, 86, 208
-0.999221, 153, 81, 168, 208
-0.999228, 51, 1, 66, 128
-0.999231, 23, 113, 38, 240
-0.999236, 143, 81, 158, 208
-0.999236, 87, 177, 102, 304
-0.99925, 89, 129, 104, 256
-0.999253, 43, 65, 58, 192
-0.999256, 249, 33, 264, 160
-0.999279, 257, 65, 272, 192
-0.999306, 239, 97, 254, 224
-0.999319, 243, 49, 258, 176
-0.99933, 237, 1, 252, 128
-0.999336, 227, 129, 242, 256
-0.999337, 111, 97, 126, 224
-0.99934, 5, 81, 20, 208
-0.99953, 1, 277, 128, 308
-0.999608, 169, 207, 184, 222
-0.999609, 123, 133, 138, 148
-0.999609, 195, 261, 210, 276
-0.99961, 171, 81, 186, 96
-0.99961, 155, 95, 170, 110
-0.999611, 111, 43, 126, 58
-0.999612, 147, 97, 162, 112
-0.999612, 287, 101, 302, 116
-0.999613, 55, 17, 70, 32
-0.999613, 283, 77, 298, 92
-0.999614, 95, 45, 110, 60
-0.999615, 175, 1, 190, 16
-0.999615, 155, 39, 170, 54
-0.999615, 145, 55, 160, 70
-0.999616, 123, 11, 138, 26
-0.999616, 151, 233, 166, 248
-0.999617, 181, 79, 196, 94
-0.999617, 197, 151, 212, 166
-0.999617, 153, 225, 168, 240
-0.999618, 137, 53, 152, 68
-0.999619, 69, 1, 84, 16
-0.99962, 73, 15, 88, 30
-0.99962, 65, 9, 80, 24
-0.99962, 39, 147, 54, 162
-0.999622, 103, 45, 118, 60
-0.999622, 161, 209, 176, 224
-0.999622, 127, 47, 142, 62
-0.999624, 127, 23, 142, 38
-0.999624, 137, 89, 152, 104
-0.999625, 51, 189, 66, 204
-0.999625, 281, 83, 296, 98
-0.999625, 181, 43, 196, 58
-0.999626, 177, 261, 192, 276
-0.999628, 207, 45, 222, 60
-0.999629, 125, 59, 140, 74
-0.999629, 117, 51, 132, 66
-0.999629, 205, 91, 220, 106
-0.99963, 145, 41, 160, 56
-0.99963, 131, 63, 146, 78
-0.99963, 173, 177, 188, 192
-0.999631, 173, 15, 188, 30
-0.999632, 47, 17, 62, 32
-0.999632, 41, 141, 56, 156
-0.999634, 87, 21, 102, 36
-0.999635, 179, 85, 194, 100
-0.999635, 127, 3, 142, 18
-0.999635, 133, 19, 148, 34
-0.999636, 179, 121, 194, 136
-0.999636, 131, 89, 146, 104
-0.999637, 143, 89, 158, 104
-0.999637, 161, 227, 176, 242
-0.999637, 187, 169, 202, 184
-0.999638, 113, 9, 128, 24
-0.99964, 175, 209, 190, 224
-0.99964, 135, 41, 150, 56
-0.99964, 149, 179, 164, 194
-0.999641, 231, 65, 246, 80
-0.999642, 169, 227, 184, 242
-0.999644, 209, 69, 224, 84
-0.999646, 115, 23, 130, 38
-0.999646, 49, 195, 64, 210
-0.999648, 119, 59, 134, 74
-0.999648, 187, 43, 202, 58
-0.999648, 95, 21, 110, 36
-0.999649, 63, 15, 78, 30
-0.99965, 143, 13, 158, 28
-0.999651, 167, 233, 182, 248
-0.999651, 213, 83, 228, 98
-0.999652, 161, 175, 176, 190
-0.999652, 167, 49, 182, 64
-0.999652, 157, 3, 172, 18
-0.999652, 107, 17, 122, 32
-0.999654, 191, 163, 206, 178
-0.999655, 159, 259, 174, 274
-0.999655, 133, 7, 148, 22
-0.999656, 121, 175, 136, 190
-0.999658, 199, 51, 214, 66
-0.999658, 201, 171, 216, 186
-0.99966, 153, 55, 168, 70
-0.999661, 73, 7, 88, 22
-0.999661, 259, 61, 274, 76
-0.999663, 195, 157, 210, 172
-0.999663, 131, 57, 146, 72
-0.999663, 165, 7, 180, 22
-0.999664, 67, 95, 82, 110
-0.999664, 139, 59, 154, 74
-0.999664, 275, 85, 290, 100
-0.999664, 43, 135, 58, 150
-0.999664, 125, 41, 140, 56
-0.999665, 217, 127, 232, 142
-0.999666, 157, 243, 172, 258
-0.999668, 227, 75, 242, 90
-0.999668, 137, 13, 152, 28
-0.999668, 159, 253, 174, 268
-0.999669, 169, 1, 184, 16
-0.99967, 221, 67, 236, 82
-0.99967, 43, 101, 58, 116
-0.999671, 133, 95, 148, 110
-0.999673, 167, 243, 182, 258
-0.999673, 223, 85, 238, 100
-0.999673, 47, 129, 62, 144
-0.999674, 167, 17, 182, 32
-0.999678, 181, 5, 196, 20
-0.999678, 155, 211, 170, 226
-0.999682, 149, 239, 164, 254
-0.999682, 87, 15, 102, 30
-0.999683, 173, 9, 188, 24
-0.999683, 167, 249, 182, 264
-0.999684, 159, 15, 174, 30
-0.999686, 159, 9, 174, 24
-0.999686, 119, 5, 134, 20
-0.999687, 285, 91, 300, 106
-0.99969, 159, 235, 174, 250
-0.999692, 149, 245, 164, 260
-0.999693, 141, 95, 156, 110
-0.999694, 127, 127, 142, 142
-0.999698, 137, 1, 152, 16
-0.999703, 123, 53, 138, 68
-0.999705, 171, 257, 186, 272
-0.999706, 125, 17, 140, 32
-0.999708, 231, 81, 246, 96
-0.999713, 151, 1, 166, 16
-0.999715, 105, 11, 120, 26
-0.999723, 141, 7, 156, 22
-0.999733, 149, 255, 164, 270
-0.999741, 151, 7, 166, 22
-0.999748, 95, 15, 110, 30
-0.999749, 163, 1, 178, 16
-0.999756, 145, 1, 160, 16
-0.999769, 115, 15, 130, 30
-0.999986, 113, 273, 240, 304
-1.00034, 161, 273, 288, 304
-1.00045, 49, 277, 176, 308
