1883
-0.400095, 65, 1, 320, 333
-0.424646, 1, 65, 500, 320
-0.439432, 1, 1, 500, 333
-0.60451, 193, 1, 448, 333
-0.633623, 129, 65, 384, 320
-0.637273, 33, 65, 288, 320
-0.763858, 225, 65, 480, 320
-0.851049, 81, 1, 208, 333
-0.867465, 81, 33, 208, 288
-0.869117, 1, 177, 500, 304
-0.873036, 209, 65, 336, 320
-0.873572, 129, 1, 256, 333
-0.876516, 273, 65, 400, 320
-0.879377, 33, 1, 160, 333
-0.879578, 161, 65, 288, 320
-0.886371, 1, 97, 500, 224
-0.891385, 209, 1, 336, 333
-0.895598, 257, 1, 384, 333
-0.896011, 193, 161, 448, 288
-0.896454, 33, 1, 160, 256
-0.89918, 97, 145, 352, 272
-0.909719, 369, 65, 496, 320
-0.915291, 1, 49, 500, 176
-0.915467, 321, 65, 448, 320
-0.918006, 97, 193, 352, 320
-0.919731, 97, 97, 352, 224
-0.920974, 193, 145, 320, 272
-0.92149, 337, 1, 464, 333
-0.921677, 1, 161, 256, 288
-0.926142, 273, 161, 400, 288
-0.929016, 249, 145, 312, 272
-0.9305, 257, 209, 500, 333
-0.93075, 1, 1, 500, 128
-0.932416, 1, 97, 256, 224
-0.932876, 145, 177, 272, 304
-0.93475, 137, 97, 200, 224
-0.935546, 209, 193, 336, 320
-0.936052, 129, 97, 256, 224
-0.936364, 321, 145, 448, 272
-0.936873, 225, 177, 288, 304
-0.936901, 281, 177, 344, 304
-0.938275, 353, 177, 416, 304
-0.938356, 65, 97, 192, 224
-0.93953, 201, 193, 264, 320
-0.940348, 257, 193, 320, 320
-0.940395, 89, 129, 152, 256
-0.941, 81, 161, 208, 288
-0.941401, 121, 49, 184, 176
-0.941539, 257, 209, 384, 333
-0.94358, 273, 113, 400, 240
-0.944567, 337, 209, 464, 333
-0.944699, 1, 209, 256, 333
-0.944869, 297, 113, 360, 240
-0.945775, 193, 145, 256, 272
-0.946286, 241, 177, 304, 240
-0.946689, 329, 145, 392, 272
-0.946933, 193, 113, 448, 240
-0.947081, 161, 129, 224, 256
-0.947186, 305, 193, 368, 320
-0.947212, 113, 97, 176, 224
-0.947597, 97, 137, 160, 200
-0.948142, 385, 177, 448, 304
-0.948173, 97, 49, 224, 176
-0.948434, 169, 177, 232, 304
-0.948788, 425, 209, 488, 333
-0.949275, 217, 209, 280, 272
-0.950237, 121, 145, 184, 272
-0.950366, 33, 49, 288, 176
-0.951567, 273, 129, 336, 256
-0.954178, 129, 49, 384, 176
-0.95437, 369, 129, 496, 256
-0.954566, 297, 169, 360, 232
-0.954723, 241, 209, 304, 272
-0.954751, 137, 145, 200, 208
-0.954784, 97, 113, 160, 176
-0.954789, 209, 249, 272, 312
-0.954875, 225, 97, 352, 224
-0.955129, 345, 161, 408, 224
-0.955474, 273, 153, 336, 216
-0.955924, 353, 129, 416, 256
-0.955996, 321, 145, 384, 208
-0.956326, 161, 81, 224, 208
-0.957, 217, 129, 280, 256
-0.957014, 273, 209, 336, 272
-0.957059, 249, 145, 312, 208
-0.957368, 329, 193, 392, 320
-0.957564, 73, 137, 136, 200
-0.958033, 217, 185, 280, 248
-0.958511, 273, 185, 336, 248
-0.958625, 209, 153, 272, 216
-0.958767, 105, 161, 168, 224
-0.958777, 65, 161, 128, 288
-0.959125, 129, 105, 192, 168
-0.959419, 129, 1, 384, 128
-0.959498, 81, 81, 144, 208
-0.960273, 345, 241, 408, 304
-0.960957, 177, 97, 304, 224
-0.96128, 409, 145, 472, 272
-0.961349, 177, 177, 240, 240
-0.961799, 49, 49, 176, 176
-0.962621, 297, 145, 360, 208
-0.962686, 273, 65, 400, 192
-0.962722, 225, 65, 480, 192
-0.962977, 33, 161, 160, 288
-0.963788, 57, 113, 120, 240
-0.963804, 385, 113, 448, 240
-0.963993, 241, 249, 304, 312
-0.964005, 169, 81, 232, 144
-0.964394, 185, 225, 248, 288
-0.965439, 137, 169, 200, 232
-0.965463, 65, 209, 192, 333
-0.965695, 193, 201, 256, 264
-0.965766, 97, 33, 160, 160
-0.966033, 81, 161, 144, 224
-0.966155, 177, 185, 304, 248
-0.966279, 329, 97, 392, 224
-0.966625, 145, 177, 208, 304
-0.966719, 321, 169, 384, 232
-0.966833, 369, 153, 432, 216
-0.966987, 161, 145, 224, 208
-0.967173, 289, 121, 352, 184
-0.967521, 125, 121, 156, 184
-0.967544, 433, 161, 496, 288
-0.967579, 425, 217, 488, 280
-0.967832, 353, 185, 416, 248
-0.9681, 257, 169, 384, 232
-0.968112, 161, 17, 288, 144
-0.968203, 17, 113, 144, 240
-0.968654, 401, 185, 464, 248
-0.968735, 369, 241, 432, 304
-0.968785, 81, 1, 208, 128
-0.968854, 285, 145, 316, 272
-0.969318, 313, 241, 376, 304
-0.969372, 233, 193, 264, 320
-0.969381, 209, 89, 272, 152
-0.969506, 241, 97, 304, 224
-0.969577, 185, 249, 248, 312
-0.969661, 209, 161, 336, 224
-0.969746, 145, 81, 208, 144
-0.969882, 185, 113, 248, 176
-0.970167, 265, 249, 328, 312
-0.970237, 97, 129, 128, 192
-0.970403, 141, 145, 172, 208
-0.970506, 209, 209, 336, 272
-0.970634, 129, 161, 256, 224
-0.970723, 401, 225, 464, 288
-0.970811, 273, 145, 304, 272
-0.970868, 141, 97, 172, 224
-0.970885, 49, 137, 176, 200
-0.970985, 281, 193, 312, 320
-0.971003, 185, 97, 248, 224
-0.971008, 169, 17, 232, 144
-0.971246, 273, 81, 336, 208
-0.971313, 257, 177, 288, 240
-0.97135, 185, 153, 248, 216
-0.971381, 369, 209, 432, 272
-0.9715, 89, 177, 152, 304
-0.971677, 217, 81, 280, 208
-0.971817, 161, 233, 224, 296
-0.971831, 209, 249, 336, 312
-0.971845, 161, 209, 288, 272
-0.971955, 309, 153, 340, 216
-0.971994, 17, 209, 144, 333
-0.972248, 297, 145, 328, 272
-0.972406, 293, 185, 324, 248
-0.972457, 97, 1, 160, 256
-0.972479, 137, 105, 168, 168
-0.972495, 137, 1, 200, 256
-0.972498, 273, 145, 400, 208
-0.972574, 329, 201, 392, 264
-0.972695, 97, 105, 224, 168
-0.972757, 245, 209, 276, 272
-0.972901, 217, 145, 248, 272
-0.973074, 377, 129, 440, 192
-0.973258, 293, 193, 324, 320
-0.97338, 145, 1, 208, 128
-0.973434, 277, 145, 308, 208
-0.973493, 253, 153, 284, 216
-0.973584, 373, 161, 404, 224
-0.973596, 233, 177, 264, 240
-0.973681, 257, 209, 384, 272
-0.97376, 329, 121, 392, 184
-0.973805, 81, 169, 208, 232
-0.973905, 297, 65, 360, 192
-0.974, 269, 177, 300, 240
-0.974209, 253, 177, 284, 304
-0.974253, 241, 1, 368, 128
-0.974302, 321, 161, 352, 224
-0.974332, 109, 145, 140, 208
-0.974344, 121, 113, 152, 240
-0.974431, 221, 193, 252, 320
-0.974484, 73, 113, 136, 176
-0.974518, 109, 121, 140, 184
-0.974518, 321, 97, 448, 224
-0.974597, 233, 209, 264, 272
-0.974763, 169, 201, 232, 264
-0.975058, 277, 209, 308, 272
-0.975099, 321, 33, 384, 288
-0.975109, 297, 161, 328, 224
-0.975279, 161, 233, 288, 296
-0.975406, 109, 113, 140, 240
-0.97543, 265, 121, 328, 184
-0.975438, 205, 177, 236, 304
-0.975525, 265, 209, 296, 272
-0.975616, 161, 97, 192, 224
-0.975622, 357, 193, 388, 320
-0.975625, 245, 177, 276, 240
-0.975823, 185, 129, 216, 256
-0.975833, 313, 265, 376, 328
-0.975886, 57, 169, 120, 232
-0.975937, 233, 145, 264, 272
-0.975971, 305, 169, 432, 232
-0.976109, 305, 17, 432, 144
-0.976346, 85, 137, 116, 200
-0.976415, 205, 217, 236, 280
-0.976471, 57, 209, 120, 333
-0.976501, 297, 209, 360, 272
-0.976546, 213, 249, 244, 312
-0.976602, 41, 161, 104, 288
-0.976667, 113, 193, 176, 320
-0.976726, 169, 273, 232, 333
-0.976741, 49, 129, 112, 192
-0.976743, 221, 209, 252, 272
-0.97679, 177, 145, 208, 208
-0.976793, 409, 97, 472, 224
-0.976905, 337, 241, 464, 304
-0.976993, 369, 145, 400, 272
-0.977069, 225, 137, 352, 200
-0.97708, 125, 145, 156, 208
-0.977099, 85, 161, 116, 288
-0.977101, 353, 249, 384, 312
-0.977111, 153, 153, 184, 216
-0.977131, 221, 185, 252, 248
-0.97718, 173, 129, 204, 256
-0.977271, 321, 145, 448, 208
-0.977296, 141, 49, 172, 176
-0.977344, 97, 137, 224, 200
-0.977382, 65, 225, 128, 288
-0.977387, 85, 113, 116, 240
-0.977465, 353, 177, 384, 240
-0.977528, 325, 145, 356, 272
-0.97761, 257, 233, 384, 296
-0.977651, 305, 193, 336, 320
-0.977704, 85, 169, 116, 232
-0.977715, 185, 57, 248, 120
-0.977716, 381, 161, 412, 288
-0.977745, 225, 249, 256, 312
-0.977783, 305, 185, 336, 248
-0.977815, 65, 1, 128, 256
-0.977873, 153, 105, 216, 168
-0.977969, 129, 57, 192, 120
-0.978103, 353, 145, 384, 272
-0.978151, 249, 249, 280, 312
-0.978193, 257, 17, 500, 144
-0.978211, 321, 49, 384, 176
-0.978234, 225, 49, 352, 176
-0.978242, 145, 257, 208, 320
-0.978268, 305, 193, 432, 256
-0.978338, 273, 65, 336, 320
-0.97845, 1, 1, 256, 128
-0.978564, 73, 33, 136, 160
-0.978601, 341, 145, 372, 272
-0.978833, 317, 185, 348, 248
-0.978971, 49, 113, 176, 176
-0.979129, 113, 233, 240, 296
-0.979144, 369, 81, 496, 208
-0.979163, 65, 249, 128, 312
-0.979202, 289, 209, 320, 272
-0.979243, 345, 153, 376, 216
-0.979265, 309, 113, 340, 240
-0.979308, 353, 129, 416, 192
-0.979377, 357, 153, 388, 216
-0.979427, 433, 1, 496, 128
-0.97945, 345, 193, 376, 320
-0.979533, 177, 137, 304, 200
-0.979544, 369, 193, 400, 320
-0.979597, 297, 33, 360, 288
-0.979611, 289, 233, 352, 296
-0.979737, 173, 81, 204, 208
-0.979756, 105, 241, 168, 304
-0.979803, 345, 273, 408, 333
-0.979818, 129, 81, 256, 144
-0.979834, 237, 249, 268, 312
-0.979842, 281, 177, 312, 240
-0.979876, 161, 65, 224, 320
-0.979898, 133, 169, 164, 232
-0.979918, 233, 153, 264, 216
-0.979962, 201, 185, 232, 248
-0.980124, 49, 105, 112, 168
-0.980143, 369, 241, 400, 304
-0.980164, 225, 121, 288, 184
-0.980267, 233, 89, 296, 152
-0.980551, 17, 1, 144, 128
-0.980634, 369, 129, 496, 192
-0.980656, 105, 265, 168, 328
-0.980704, 133, 145, 164, 272
-0.980784, 97, 153, 128, 216
-0.98081, 289, 257, 416, 320
-0.98081, 193, 273, 256, 333
-0.980916, 129, 185, 256, 248
-0.980939, 145, 257, 272, 320
-0.981098, 97, 1, 160, 333
-0.981119, 305, 121, 432, 184
-0.981181, 341, 185, 372, 248
-0.981189, 189, 177, 220, 240
-0.981228, 377, 185, 440, 248
-0.981242, 97, 113, 128, 240
-0.981329, 205, 129, 236, 256
-0.981389, 369, 65, 432, 192
-0.981392, 185, 65, 248, 320
-0.981432, 269, 193, 300, 320
-0.981477, 121, 97, 152, 160
-0.981478, 189, 153, 220, 216
-0.981481, 81, 57, 208, 120
-0.981503, 333, 145, 364, 208
-0.981543, 153, 49, 184, 176
-0.981553, 161, 33, 224, 96
-0.981594, 225, 65, 288, 320
-0.98165, 193, 49, 256, 176
-0.981699, 129, 49, 160, 176
-0.981724, 261, 249, 292, 312
-0.981785, 113, 49, 144, 176
-0.98189, 33, 209, 96, 333
-0.981904, 329, 185, 360, 248
-0.981934, 253, 129, 284, 256
-0.98195, 265, 145, 296, 208
-0.981959, 393, 201, 424, 264
-0.981962, 149, 105, 180, 168
-0.981988, 425, 193, 488, 256
-0.982013, 265, 89, 328, 152
-0.982024, 165, 137, 196, 200
-0.982024, 213, 161, 244, 224
-0.982099, 129, 233, 192, 296
-0.982107, 121, 1, 184, 128
-0.98214, 249, 33, 312, 288
-0.982344, 377, 265, 440, 328
-0.982359, 425, 153, 488, 216
-0.982451, 193, 177, 224, 304
-0.982489, 289, 97, 320, 224
-0.982618, 433, 81, 496, 208
-0.982682, 369, 177, 496, 240
-0.982693, 265, 97, 296, 224
-0.982705, 121, 1, 184, 333
-0.982713, 289, 1, 352, 128
-0.98275, 161, 145, 192, 272
-0.983042, 393, 161, 456, 224
-0.983078, 429, 209, 460, 333
-0.98308, 433, 105, 496, 168
-0.983143, 301, 209, 332, 272
-0.983204, 81, 265, 208, 328
-0.983272, 33, 169, 160, 232
-0.98334, 165, 97, 196, 160
-0.983426, 445, 209, 476, 333
-0.983463, 409, 129, 472, 192
-0.983471, 401, 209, 432, 333
-0.983503, 389, 209, 420, 333
-0.983586, 145, 105, 272, 168
-0.983635, 321, 137, 352, 200
-0.983638, 461, 209, 492, 333
-0.983644, 409, 49, 472, 176
-0.983726, 305, 217, 432, 280
-0.983773, 193, 233, 224, 296
-0.983793, 73, 1, 136, 333
-0.983801, 113, 209, 240, 272
-0.98382, 373, 185, 404, 248
-0.983828, 345, 65, 408, 320
-0.983884, 265, 57, 328, 120
-0.983969, 185, 89, 216, 152
-0.983983, 121, 169, 152, 232
-0.984026, 185, 81, 216, 208
-0.984063, 409, 225, 440, 288
-0.984115, 173, 73, 204, 136
-0.98419, 321, 57, 384, 120
-0.984254, 353, 201, 480, 264
-0.984272, 321, 1, 384, 128
-0.984348, 289, 81, 352, 144
-0.984417, 1, 233, 128, 296
-0.984556, 413, 209, 444, 333
-0.984591, 385, 177, 416, 240
-0.984627, 393, 241, 424, 304
-0.984663, 149, 145, 180, 272
-0.984681, 209, 89, 336, 152
-0.984724, 1, 193, 64, 320
-0.984741, 353, 1, 480, 128
-0.984762, 85, 113, 116, 176
-0.984802, 145, 1, 208, 333
-0.984832, 181, 177, 212, 304
-0.98484, 381, 241, 412, 304
-0.98486, 369, 153, 496, 216
-0.984868, 369, 65, 432, 320
-0.984876, 81, 185, 144, 248
-0.984888, 161, 57, 288, 120
-0.984892, 457, 145, 488, 272
-0.984969, 81, 273, 144, 333
-0.984971, 277, 249, 308, 312
-0.984985, 441, 225, 472, 288
-0.985022, 305, 129, 336, 192
-0.985034, 385, 145, 416, 208
-0.985092, 321, 97, 352, 224
-0.985163, 337, 265, 464, 328
-0.985241, 433, 41, 496, 104
-0.985287, 145, 201, 208, 264
-0.985334, 65, 241, 192, 304
-0.985358, 281, 273, 344, 333
-0.985408, 241, 65, 304, 128
-0.985472, 293, 129, 324, 192
-0.985505, 217, 65, 248, 128
-0.985595, 445, 161, 476, 288
-0.985614, 185, 1, 248, 333
-0.985642, 221, 89, 252, 152
-0.985665, 25, 233, 88, 296
-0.985688, 393, 65, 456, 320
-0.985696, 193, 273, 320, 333
-0.985718, 349, 225, 380, 288
-0.985812, 73, 89, 136, 152
-0.985855, 233, 97, 264, 224
-0.985895, 33, 113, 96, 240
-0.985933, 393, 89, 456, 152
-0.985936, 453, 217, 484, 280
-0.985961, 105, 217, 168, 280
-0.985965, 401, 257, 464, 320
-0.985982, 165, 161, 196, 224
-0.986003, 257, 113, 384, 176
-0.986004, 425, 257, 488, 320
-0.986015, 233, 89, 264, 152
-0.98602, 393, 161, 424, 288
-0.986042, 317, 193, 348, 320
-0.986044, 437, 193, 468, 256
-0.986048, 321, 89, 384, 152
-0.986147, 177, 121, 208, 184
-0.98619, 1, 257, 64, 320
-0.986302, 201, 161, 232, 224
-0.986311, 333, 49, 364, 112
-0.986319, 153, 65, 184, 128
-0.986329, 121, 33, 184, 96
-0.986337, 97, 105, 128, 168
-0.986341, 209, 65, 272, 128
-0.986353, 105, 89, 168, 152
-0.986592, 405, 161, 436, 288
-0.986692, 289, 241, 320, 304
-0.986719, 361, 201, 392, 264
-0.986721, 277, 97, 308, 224
-0.986911, 189, 129, 220, 192
-0.986941, 361, 105, 424, 168
-0.986958, 89, 65, 120, 192
-0.986971, 1, 145, 128, 208
-0.986972, 225, 1, 288, 333
-0.986984, 329, 225, 360, 288
-0.986989, 177, 169, 208, 232
-0.986994, 297, 57, 360, 120
-0.986996, 265, 1, 328, 128
-0.987044, 421, 225, 452, 288
-0.987045, 161, 57, 224, 120
-0.987091, 349, 97, 380, 224
-0.9871, 69, 113, 100, 240
-0.987116, 405, 193, 436, 256
-0.987194, 73, 177, 104, 304
-0.987239, 345, 49, 408, 176
-0.987248, 273, 49, 400, 112
-0.987252, 333, 249, 364, 312
-0.98731, 1, 49, 128, 176
-0.987328, 49, 1, 112, 128
-0.987333, 181, 233, 212, 296
-0.987353, 193, 113, 320, 176
-0.987362, 225, 65, 352, 128
-0.987385, 65, 193, 192, 256
-0.987469, 205, 137, 236, 200
-0.987477, 361, 129, 392, 192
-0.98754, 329, 49, 360, 176
-0.9876, 417, 81, 480, 144
-0.987611, 209, 113, 240, 176
-0.987655, 273, 73, 400, 136
-0.987777, 249, 185, 312, 216
-0.987856, 273, 193, 336, 224
-0.987886, 109, 169, 140, 232
-0.987902, 417, 1, 480, 256
-0.987932, 73, 153, 104, 216
-0.987966, 241, 197, 304, 228
-0.988029, 385, 113, 416, 240
-0.988031, 197, 81, 228, 208
-0.988033, 217, 273, 280, 333
-0.98804, 97, 157, 160, 188
-0.988051, 41, 1, 104, 256
-0.988097, 161, 201, 416, 264
-0.988097, 201, 73, 232, 136
-0.988157, 401, 161, 432, 224
-0.988196, 113, 185, 176, 248
-0.988216, 309, 65, 340, 192
-0.988252, 209, 193, 272, 224
-0.988285, 333, 193, 364, 320
-0.988306, 81, 81, 208, 144
-0.988364, 433, 161, 464, 288
-0.988379, 465, 217, 496, 280
-0.988425, 201, 257, 232, 320
-0.988485, 105, 145, 168, 176
-0.988524, 145, 33, 272, 96
-0.988532, 101, 65, 132, 192
-0.988548, 297, 181, 360, 212
-0.988567, 17, 257, 144, 320
-0.988632, 337, 189, 400, 220
-0.988676, 97, 249, 128, 312
-0.988702, 101, 161, 132, 288
-0.988734, 113, 161, 144, 288
-0.988777, 193, 209, 224, 272
-0.988809, 97, 169, 160, 200
-0.988857, 97, 129, 160, 160
-0.988863, 389, 121, 420, 184
-0.988876, 97, 145, 352, 208
-0.98888, 193, 153, 448, 216
-0.988881, 109, 97, 140, 160
-0.988933, 137, 149, 200, 180
-0.98909, 421, 201, 452, 264
-0.989119, 273, 1, 336, 333
-0.989159, 149, 1, 180, 128
-0.989195, 225, 177, 288, 208
-0.989202, 201, 181, 264, 212
-0.989208, 193, 1, 256, 128
-0.989212, 73, 153, 136, 184
-0.989253, 373, 97, 404, 224
-0.989284, 341, 1, 372, 128
-0.989329, 297, 193, 360, 224
-0.98935, 337, 249, 400, 280
-0.989398, 417, 161, 448, 288
-0.989404, 401, 1, 464, 128
-0.989424, 217, 209, 280, 240
-0.989442, 265, 121, 296, 184
-0.989442, 241, 273, 304, 333
-0.989445, 373, 137, 404, 200
-0.989464, 217, 1, 280, 128
-0.989465, 149, 177, 180, 240
-0.989506, 209, 221, 272, 252
-0.989509, 361, 97, 392, 224
-0.989522, 273, 165, 336, 196
-0.989532, 57, 193, 120, 256
-0.989545, 201, 233, 264, 264
-0.989557, 321, 49, 448, 112
-0.989649, 1, 105, 128, 168
-0.989658, 137, 161, 200, 192
-0.98967, 249, 129, 280, 192
-0.989671, 33, 161, 96, 224
-0.989701, 273, 149, 336, 180
-0.989724, 25, 257, 88, 320
-0.989753, 241, 273, 368, 333
-0.989756, 257, 185, 500, 248
-0.989758, 169, 177, 232, 208
-0.989762, 329, 153, 392, 184
-0.989762, 273, 181, 336, 212
-0.98977, 49, 1, 112, 333
-0.989805, 337, 97, 464, 160
-0.989807, 433, 129, 496, 192
-0.989815, 233, 237, 296, 268
-0.989834, 341, 273, 372, 333
-0.989835, 425, 1, 488, 64
-0.98985, 73, 133, 136, 164
-0.989875, 281, 205, 344, 236
-0.989901, 129, 193, 160, 320
-0.989908, 405, 249, 436, 312
-0.989926, 153, 129, 184, 192
-0.989952, 249, 1, 312, 333
-0.989978, 97, 33, 160, 96
-0.989993, 105, 57, 168, 120
-0.989999, 233, 153, 296, 184
-0.990004, 97, 117, 160, 148
-0.990006, 353, 173, 416, 204
-0.990007, 81, 33, 208, 96
-0.990009, 169, 233, 232, 264
-0.990028, 225, 93, 288, 124
-0.990043, 129, 101, 192, 132
-0.99008, 213, 81, 244, 208
-0.990105, 361, 185, 424, 216
-0.990107, 177, 141, 240, 172
-0.990112, 137, 125, 200, 156
-0.990122, 249, 173, 312, 204
-0.990124, 201, 253, 264, 284
-0.990129, 73, 165, 136, 196
-0.990155, 449, 193, 480, 256
-0.990169, 377, 209, 408, 272
-0.990205, 305, 249, 336, 312
-0.990219, 97, 177, 128, 240
-0.990233, 73, 177, 136, 208
-0.990245, 469, 145, 500, 272
-0.990276, 241, 209, 304, 240
-0.990309, 137, 137, 200, 168
-0.990327, 169, 93, 232, 124
-0.990329, 165, 33, 196, 160
-0.990339, 49, 273, 112, 333
-0.990354, 233, 129, 264, 192
-0.990391, 137, 173, 200, 204
-0.990426, 193, 249, 448, 312
-0.990475, 65, 177, 320, 240
-0.9905, 361, 81, 424, 144
-0.990524, 193, 157, 256, 188
-0.990533, 73, 121, 136, 152
-0.990534, 297, 157, 360, 188
-0.990538, 185, 193, 248, 224
-0.99055, 377, 169, 440, 200
-0.990552, 273, 1, 400, 64
-0.990567, 181, 209, 212, 272
-0.990568, 165, 209, 196, 333
-0.990577, 249, 49, 312, 176
-0.990592, 353, 161, 416, 192
-0.990616, 201, 93, 264, 124
-0.990622, 265, 249, 328, 280
-0.990641, 197, 97, 228, 160
-0.990649, 161, 177, 416, 240
-0.990657, 333, 97, 364, 224
-0.990668, 321, 177, 384, 208
-0.990679, 1, 233, 64, 296
-0.990691, 321, 141, 384, 172
-0.990717, 161, 165, 224, 196
-0.990726, 345, 1, 408, 128
-0.990753, 369, 241, 432, 272
-0.990758, 169, 245, 232, 276
-0.990796, 145, 9, 208, 72
-0.990806, 393, 65, 456, 128
-0.990831, 193, 169, 256, 200
-0.99087, 169, 217, 232, 248
-0.990877, 241, 253, 304, 284
-0.990907, 193, 205, 256, 236
-0.990931, 305, 237, 368, 268
-0.990934, 369, 149, 432, 180
-0.990936, 337, 233, 400, 264
-0.990962, 1, 145, 500, 208
-0.990967, 401, 25, 464, 88
-0.990976, 97, 225, 352, 288
-0.990994, 433, 221, 496, 252
-0.99101, 305, 253, 368, 284
-0.991011, 321, 1, 384, 333
-0.991039, 305, 205, 368, 236
-0.991057, 297, 141, 360, 172
-0.991062, 353, 201, 416, 232
-0.991087, 1, 209, 128, 272
-0.99111, 241, 225, 304, 256
-0.991114, 49, 121, 112, 152
-0.991115, 385, 181, 448, 212
-0.991115, 337, 1, 464, 64
-0.991118, 401, 229, 464, 260
-0.991138, 49, 217, 176, 280
-0.991176, 305, 81, 336, 144
-0.99118, 73, 25, 136, 88
-0.99121, 125, 241, 156, 304
-0.991217, 281, 121, 312, 184
-0.991222, 397, 81, 428, 144
-0.991239, 81, 225, 112, 288
-0.991282, 105, 105, 168, 136
-0.991286, 305, 265, 368, 296
-0.991289, 329, 205, 392, 236
-0.991293, 225, 185, 352, 216
-0.991355, 177, 33, 208, 160
-0.991371, 249, 141, 312, 172
-0.991385, 185, 109, 248, 140
-0.991387, 249, 81, 280, 208
-0.991407, 1, 177, 500, 240
-0.991431, 129, 113, 192, 144
-0.991432, 297, 169, 360, 200
-0.991455, 161, 153, 224, 184
-0.991505, 329, 165, 392, 196
-0.991513, 97, 181, 160, 212
-0.991515, 361, 229, 424, 260
-0.991524, 321, 25, 448, 88
-0.991553, 209, 33, 336, 96
-0.991557, 393, 117, 456, 148
-0.99156, 129, 253, 192, 284
-0.991563, 169, 205, 232, 236
-0.991592, 33, 17, 160, 80
-0.991606, 445, 81, 476, 208
-0.991627, 49, 173, 112, 204
-0.991632, 225, 141, 288, 172
-0.991636, 369, 137, 432, 168
-0.991655, 385, 217, 448, 248
-0.991659, 97, 249, 352, 312
-0.991665, 281, 129, 344, 160
-0.991665, 281, 85, 344, 116
-0.991667, 137, 189, 200, 220
-0.99167, 209, 105, 272, 136
-0.991702, 169, 265, 232, 296
-0.991731, 345, 261, 408, 292
-0.99177, 81, 105, 144, 136
-0.991777, 145, 193, 176, 320
-0.99178, 145, 89, 208, 120
-0.991801, 153, 105, 216, 136
-0.991816, 49, 161, 112, 192
-0.991819, 65, 249, 128, 280
-0.991834, 273, 237, 336, 268
-0.991838, 409, 209, 472, 240
-0.991853, 185, 81, 248, 112
-0.991863, 33, 185, 96, 248
-0.991894, 301, 185, 332, 216
-0.991931, 249, 89, 312, 120
-0.991931, 97, 261, 160, 292
-0.991931, 25, 209, 88, 272
-0.991942, 217, 165, 280, 196
-0.991949, 97, 1, 224, 64
-0.991968, 105, 249, 168, 280
-0.991977, 97, 157, 128, 188
-0.991978, 345, 141, 408, 172
-0.991984, 345, 57, 408, 120
-0.991998, 49, 137, 112, 168
-0.992008, 289, 185, 320, 216
-0.992015, 177, 281, 240, 312
-0.992022, 65, 201, 320, 264
-0.992035, 417, 145, 480, 176
-0.992052, 17, 81, 144, 144
-0.992061, 1, 153, 256, 216
-0.992069, 129, 241, 192, 272
-0.992077, 65, 229, 128, 260
-0.992093, 305, 73, 368, 104
-0.992094, 393, 157, 456, 188
-0.992101, 337, 273, 400, 304
-0.992104, 425, 169, 488, 200
-0.992106, 273, 273, 336, 304
-0.992121, 361, 125, 424, 156
-0.992138, 305, 225, 368, 256
-0.992143, 93, 133, 124, 164
-0.992145, 121, 53, 184, 84
-0.992145, 257, 181, 288, 212
-0.992147, 145, 265, 208, 296
-0.992153, 305, 49, 368, 80
-0.992155, 289, 181, 416, 212
-0.992155, 269, 185, 300, 216
-0.992174, 169, 57, 232, 88
-0.992186, 241, 189, 272, 220
-0.992188, 49, 149, 112, 180
-0.992192, 369, 113, 432, 144
-0.992195, 129, 281, 192, 312
-0.992211, 109, 145, 140, 176
-0.992258, 193, 225, 448, 288
-0.992265, 365, 189, 396, 220
-0.992268, 121, 133, 152, 164
-0.992271, 353, 185, 384, 216
-0.992322, 409, 1, 472, 333
-0.992341, 325, 185, 356, 216
-0.992343, 201, 221, 232, 252
-0.992352, 141, 165, 172, 196
-0.992357, 313, 185, 344, 216
-0.99236, 85, 169, 116, 200
-0.99236, 213, 189, 244, 220
-0.992367, 157, 153, 188, 184
-0.992374, 1, 209, 500, 272
-0.992375, 241, 177, 272, 208
-0.992375, 105, 129, 136, 160
-0.99239, 65, 121, 320, 184
-0.992411, 249, 205, 280, 236
-0.99242, 121, 157, 152, 188
-0.992442, 109, 157, 140, 188
-0.992453, 321, 33, 384, 96
-0.992455, 125, 109, 156, 140
-0.992463, 209, 41, 272, 104
-0.99248, 289, 197, 320, 228
-0.992482, 229, 177, 260, 208
-0.992486, 93, 145, 124, 176
-0.992488, 121, 1, 184, 64
-0.992492, 233, 93, 264, 124
-0.992508, 341, 49, 372, 176
-0.992513, 97, 89, 352, 152
-0.99252, 349, 249, 380, 280
-0.992525, 269, 197, 300, 228
-0.992531, 213, 237, 244, 268
-0.992533, 193, 177, 224, 208
-0.992543, 101, 169, 132, 200
-0.992549, 141, 153, 172, 184
-0.99255, 281, 145, 312, 176
-0.992556, 85, 157, 116, 188
-0.992559, 221, 97, 252, 128
-0.992565, 1, 1, 64, 128
-0.992565, 309, 157, 340, 188
-0.992574, 341, 185, 372, 216
-0.992577, 109, 117, 140, 148
-0.99258, 257, 193, 288, 224
-0.992584, 193, 197, 320, 228
-0.992589, 321, 197, 352, 228
-0.99259, 85, 121, 116, 152
-0.992599, 293, 157, 324, 188
-0.992601, 125, 145, 156, 176
-0.992617, 173, 165, 204, 196
-0.99262, 81, 137, 112, 168
-0.992634, 225, 17, 288, 80
-0.992657, 229, 189, 260, 220
-0.992661, 201, 193, 232, 224
-0.992669, 177, 141, 208, 172
-0.992681, 209, 253, 240, 284
-0.992684, 201, 233, 232, 264
-0.992699, 381, 181, 412, 212
-0.9927, 201, 209, 232, 240
-0.99271, 305, 197, 336, 228
-0.992714, 233, 205, 264, 236
-0.992716, 141, 105, 172, 136
-0.992716, 241, 237, 272, 268
-0.992718, 137, 137, 168, 168
-0.992718, 253, 237, 284, 268
-0.992739, 333, 197, 364, 228
-0.992739, 125, 121, 156, 152
-0.992758, 301, 173, 332, 204
-0.992759, 369, 245, 400, 276
-0.992762, 229, 233, 260, 264
-0.992763, 373, 169, 404, 200
-0.992764, 49, 209, 80, 333
-0.992769, 121, 169, 152, 200
-0.992777, 273, 161, 304, 192
-0.992779, 85, 209, 116, 333
-0.992786, 221, 205, 252, 236
-0.992798, 221, 217, 252, 248
-0.992808, 257, 153, 288, 184
-0.992818, 469, 1, 500, 128
-0.992826, 229, 249, 260, 280
-0.992835, 269, 209, 300, 240
-0.992838, 433, 1, 496, 333
-0.992859, 241, 221, 272, 252
-0.992862, 321, 161, 352, 192
-0.992864, 269, 145, 300, 176
-0.992877, 153, 101, 184, 132
-0.992878, 137, 117, 168, 148
-0.992887, 161, 169, 192, 200
-0.992897, 329, 1, 360, 128
-0.9929, 253, 253, 284, 284
-0.992903, 165, 141, 196, 172
-0.992904, 349, 237, 380, 268
-0.992908, 273, 173, 304, 204
-0.99292, 205, 173, 236, 204
-0.992924, 365, 157, 396, 188
-0.992925, 177, 153, 208, 184
-0.992929, 289, 173, 320, 204
-0.992932, 253, 169, 284, 200
-0.992936, 385, 201, 416, 232
-0.992936, 301, 145, 332, 176
-0.992951, 457, 221, 488, 252
-0.992952, 97, 113, 128, 144
-0.992958, 313, 173, 344, 204
-0.992959, 189, 237, 220, 268
-0.992959, 289, 245, 320, 276
-0.992967, 265, 253, 296, 284
-0.992969, 397, 113, 428, 240
-0.992971, 345, 197, 376, 228
-0.992989, 197, 97, 228, 128
-0.992998, 205, 161, 236, 192
-0.993001, 257, 25, 384, 88
-0.993005, 385, 169, 416, 200
-0.99301, 177, 129, 208, 160
-0.993011, 241, 253, 272, 284
-0.993011, 189, 153, 220, 184
-0.993014, 437, 225, 468, 256
-0.993023, 209, 89, 240, 120
-0.993027, 265, 237, 296, 268
-0.993033, 405, 237, 436, 268
-0.993033, 397, 185, 428, 216
-0.993038, 185, 205, 216, 236
-0.993045, 253, 225, 284, 256
-0.993046, 337, 249, 368, 280
-0.993049, 249, 97, 280, 128
-0.993056, 309, 81, 340, 112
-0.993064, 381, 237, 412, 268
-0.993067, 217, 177, 248, 208
-0.993068, 165, 101, 196, 132
-0.993078, 421, 229, 452, 260
-0.993079, 369, 145, 400, 176
-0.99308, 149, 177, 180, 208
-0.993085, 177, 185, 304, 216
-0.993086, 285, 209, 316, 240
-0.993089, 237, 165, 268, 196
-0.993089, 357, 173, 388, 204
-0.993091, 385, 149, 416, 180
-0.993092, 177, 89, 208, 120
-0.993103, 245, 153, 276, 184
-0.993112, 189, 141, 220, 172
-0.993116, 329, 145, 360, 176
-0.993117, 365, 233, 396, 264
-0.993119, 221, 109, 252, 140
-0.993123, 317, 101, 348, 132
-0.993168, 61, 193, 92, 320
-0.993212, 97, 157, 224, 188
-0.993239, 257, 197, 384, 228
-0.993251, 337, 73, 464, 136
-0.993377, 1, 249, 500, 312
-0.993407, 297, 1, 360, 333
-0.993531, 177, 153, 304, 184
-0.993534, 241, 161, 368, 192
-0.993538, 193, 129, 448, 192
-0.993633, 1, 1, 64, 333
-0.993644, 81, 169, 208, 200
-0.993738, 313, 161, 328, 224
-0.993743, 369, 1, 432, 333
-0.993748, 337, 185, 464, 216
-0.99377, 289, 153, 416, 184
-0.99383, 129, 1, 160, 128
-0.993832, 145, 93, 272, 124
-0.99387, 25, 1, 88, 333
-0.993933, 177, 209, 304, 240
-0.993934, 217, 217, 232, 280
-0.993957, 323, 153, 338, 216
-0.993958, 161, 1, 288, 64
-0.994009, 1, 249, 256, 312
-0.994036, 97, 145, 112, 208
-0.994038, 129, 177, 256, 208
-0.99405, 209, 9, 336, 72
-0.99407, 149, 145, 164, 208
-0.994072, 109, 209, 140, 333
-0.994083, 139, 145, 154, 208
-0.994112, 189, 33, 220, 160
-0.994132, 137, 105, 152, 168
-0.99421, 177, 173, 304, 204
-0.994219, 129, 65, 384, 128
-0.994252, 245, 209, 260, 272
-0.994262, 193, 249, 320, 280
-0.994264, 469, 65, 500, 192
-0.994275, 1, 225, 256, 288
-0.994282, 301, 161, 316, 224
-0.994307, 89, 17, 120, 144
-0.994316, 33, 193, 64, 320
-0.994358, 375, 153, 390, 216
-0.994371, 147, 105, 162, 168
-0.994372, 281, 185, 296, 248
-0.994405, 41, 49, 104, 176
-0.994415, 289, 165, 416, 196
-0.994426, 249, 177, 264, 240
-0.994442, 255, 177, 270, 240
-0.994453, 81, 133, 208, 164
-0.994492, 107, 137, 122, 200
-0.994499, 275, 177, 290, 240
-0.994511, 381, 153, 396, 216
-0.994528, 433, 1, 464, 128
-0.994535, 1, 105, 500, 168
-0.994535, 345, 1, 408, 333
-0.994551, 247, 249, 262, 312
-0.994556, 269, 153, 284, 216
-0.994574, 129, 145, 256, 176
-0.994581, 81, 145, 208, 176
-0.994582, 33, 65, 288, 128
-0.994619, 251, 209, 266, 272
-0.99462, 307, 185, 322, 248
-0.99464, 125, 129, 140, 192
-0.994654, 241, 177, 256, 240
-0.994663, 291, 209, 306, 272
-0.994677, 131, 105, 146, 168
-0.994695, 293, 185, 308, 248
-0.9947, 223, 225, 238, 288
-0.994713, 129, 189, 256, 220
-0.994729, 307, 161, 322, 224
-0.994736, 269, 177, 284, 240
-0.994739, 97, 273, 352, 333
-0.994765, 155, 145, 170, 208
-0.994808, 289, 145, 304, 208
-0.994839, 283, 209, 298, 272
-0.994857, 275, 209, 290, 272
-0.994887, 247, 153, 262, 216
-0.994904, 33, 133, 160, 164
-0.994917, 207, 177, 222, 240
-0.994917, 225, 209, 352, 240
-0.994948, 193, 237, 320, 268
-0.994971, 255, 249, 270, 312
-0.994979, 329, 161, 344, 224
-0.99498, 279, 145, 294, 208
-0.994983, 369, 49, 496, 112
-0.994987, 257, 241, 384, 272
-0.994996, 233, 249, 248, 312
-0.995042, 305, 197, 432, 228
-0.995068, 215, 193, 230, 256
-0.995085, 113, 113, 128, 176
-0.995098, 193, 273, 448, 333
-0.99512, 119, 145, 134, 208
-0.995123, 225, 249, 240, 312
-0.99513, 301, 185, 316, 248
-0.99516, 295, 161, 310, 224
-0.995163, 321, 185, 336, 248
-0.995164, 193, 225, 320, 256
-0.995166, 239, 209, 254, 272
-0.99517, 305, 245, 432, 276
-0.995171, 97, 109, 224, 140
-0.995175, 345, 185, 360, 248
-0.99519, 91, 129, 106, 192
-0.995214, 261, 249, 276, 312
-0.995224, 101, 121, 116, 184
-0.995225, 211, 233, 226, 296
-0.995227, 185, 129, 200, 192
-0.995248, 265, 209, 280, 272
-0.995263, 239, 249, 254, 312
-0.995268, 133, 137, 148, 200
-0.995282, 369, 169, 496, 200
-0.995307, 261, 177, 276, 240
-0.995311, 241, 141, 368, 172
-0.995323, 287, 177, 302, 240
-0.995324, 219, 249, 234, 312
-0.995329, 361, 153, 376, 216
-0.995338, 229, 185, 244, 248
-0.99534, 235, 153, 250, 216
-0.995343, 145, 237, 272, 268
-0.99535, 257, 209, 272, 272
-0.995357, 9, 209, 40, 333
-0.99536, 317, 17, 348, 144
-0.995373, 365, 249, 380, 312
-0.995416, 429, 97, 460, 224
-0.995419, 355, 177, 370, 240
-0.995444, 339, 161, 354, 224
-0.995447, 229, 217, 244, 280
-0.995454, 223, 201, 238, 264
-0.995469, 97, 209, 128, 333
-0.99548, 209, 1, 240, 128
-0.995483, 255, 153, 270, 216
-0.995494, 1, 89, 256, 152
-0.995499, 263, 153, 278, 216
-0.995504, 257, 229, 384, 260
-0.995514, 49, 157, 176, 188
-0.995518, 387, 145, 402, 208
-0.995528, 147, 169, 162, 232
-0.995543, 297, 209, 312, 272
-0.995544, 353, 241, 368, 304
-0.995546, 101, 17, 132, 144
-0.995547, 453, 33, 484, 160
-0.995581, 329, 137, 344, 200
-0.995585, 91, 169, 106, 232
-0.99559, 119, 113, 134, 176
-0.995592, 349, 153, 364, 216
-0.995601, 353, 149, 480, 180
-0.995604, 113, 137, 128, 200
-0.995617, 365, 177, 380, 240
-0.995619, 17, 1, 80, 256
-0.995655, 267, 249, 282, 312
-0.995665, 273, 249, 288, 312
-0.995673, 129, 41, 384, 104
-0.995694, 125, 105, 140, 168
-0.995719, 1, 273, 500, 333
-0.99572, 313, 193, 328, 256
-0.99576, 85, 153, 100, 216
-0.99576, 367, 153, 382, 216
-0.995768, 321, 129, 336, 192
-0.99577, 359, 249, 374, 312
-0.995782, 191, 145, 206, 208
-0.995802, 205, 201, 220, 264
-0.995802, 107, 113, 122, 176
-0.995804, 199, 201, 214, 264
-0.99583, 235, 177, 250, 240
-0.99585, 179, 145, 194, 208
-0.995859, 97, 169, 112, 232
-0.99587, 379, 241, 394, 304
-0.995873, 305, 209, 320, 272
-0.995884, 145, 221, 272, 252
-0.995906, 401, 185, 416, 248
-0.995908, 201, 169, 216, 232
-0.995921, 355, 153, 370, 216
-0.995923, 283, 249, 298, 312
-0.995933, 153, 105, 168, 168
-0.995933, 305, 17, 336, 144
-0.995947, 385, 241, 400, 304
-0.995973, 145, 249, 272, 280
-0.995999, 369, 25, 496, 88
-0.996028, 97, 121, 224, 152
-0.996029, 171, 145, 186, 208
-0.996034, 305, 225, 432, 256
-0.996034, 353, 237, 480, 268
-0.996044, 233, 49, 264, 176
-0.996048, 335, 185, 350, 248
-0.99606, 133, 169, 148, 232
-0.996066, 371, 249, 386, 312
-0.996077, 141, 169, 156, 232
-0.996099, 33, 41, 160, 104
-0.996107, 81, 181, 208, 212
-0.996111, 209, 93, 336, 124
-0.996135, 187, 105, 202, 168
-0.996139, 49, 121, 176, 152
-0.996141, 241, 173, 368, 204
-0.996157, 315, 137, 330, 200
-0.996159, 409, 241, 424, 304
-0.996184, 179, 97, 194, 160
-0.996207, 169, 65, 184, 128
-0.996207, 163, 145, 178, 208
-0.996215, 285, 49, 316, 176
-0.996231, 411, 217, 426, 280
-0.996233, 203, 225, 218, 288
-0.996236, 273, 257, 400, 288
-0.996243, 77, 1, 108, 128
-0.996248, 375, 129, 390, 192
-0.996292, 353, 201, 368, 264
-0.996303, 33, 177, 160, 208
-0.996303, 193, 89, 208, 152
-0.996311, 181, 169, 196, 232
-0.99633, 425, 233, 440, 296
-0.996331, 81, 257, 208, 288
-0.996336, 175, 73, 190, 136
-0.996365, 97, 97, 224, 128
-0.996366, 153, 169, 168, 232
-0.996387, 107, 169, 122, 232
-0.99639, 445, 225, 460, 288
-0.996398, 33, 145, 160, 176
-0.99641, 129, 201, 256, 232
-0.996426, 371, 185, 386, 248
-0.99643, 145, 105, 272, 136
-0.996444, 405, 209, 420, 272
-0.996463, 335, 137, 350, 200
-0.996463, 329, 185, 344, 248
-0.996464, 309, 137, 324, 200
-0.996467, 291, 185, 306, 216
-0.996533, 305, 141, 432, 172
-0.996545, 161, 65, 288, 96
-0.996564, 353, 133, 480, 164
-0.996564, 225, 273, 352, 304
-0.996568, 225, 81, 352, 112
-0.996571, 129, 133, 256, 164
-0.996581, 297, 185, 312, 216
-0.996616, 313, 185, 328, 216
-0.99667, 385, 65, 416, 192
-0.996674, 289, 269, 416, 300
-0.996685, 337, 257, 464, 288
-0.996697, 177, 141, 304, 172
-0.996709, 361, 17, 392, 144
-0.996713, 129, 269, 256, 300
-0.996758, 161, 77, 288, 108
-0.996762, 303, 185, 318, 216
-0.996788, 49, 109, 176, 140
-0.99679, 81, 65, 208, 96
-0.996835, 97, 241, 224, 272
-0.996848, 417, 97, 448, 224
-0.996879, 85, 1, 116, 256
-0.996891, 125, 1, 156, 256
-0.996891, 141, 65, 172, 320
-0.996904, 33, 245, 160, 276
-0.99692, 255, 177, 270, 208
-0.996957, 69, 65, 100, 192
-0.996964, 111, 157, 126, 188
-0.996972, 457, 97, 488, 224
-0.997063, 193, 105, 320, 136
-0.997066, 285, 193, 300, 224
-0.997071, 255, 189, 270, 220
-0.997072, 81, 77, 208, 108
-0.997085, 261, 177, 276, 208
-0.99709, 351, 249, 366, 280
-0.997091, 193, 89, 448, 152
-0.997101, 369, 225, 496, 256
-0.997108, 165, 33, 196, 288
-0.997127, 225, 57, 480, 120
-0.997135, 325, 33, 356, 288
-0.997137, 81, 273, 208, 304
-0.997149, 105, 137, 120, 168
-0.99715, 103, 161, 118, 192
-0.997164, 249, 193, 264, 224
-0.997187, 277, 33, 308, 288
-0.997188, 201, 225, 216, 256
-0.997226, 337, 269, 464, 300
-0.997236, 293, 33, 324, 288
-0.997244, 261, 189, 276, 220
-0.997246, 137, 129, 152, 160
-0.99725, 305, 65, 336, 320
-0.997257, 273, 209, 400, 240
-0.997264, 245, 173, 260, 204
-0.997269, 337, 213, 464, 244
-0.997283, 209, 209, 224, 240
-0.997284, 101, 125, 116, 156
-0.997288, 119, 145, 134, 176
-0.997292, 117, 1, 148, 128
-0.997319, 137, 109, 152, 140
-0.997321, 369, 1, 432, 128
-0.997327, 353, 201, 480, 232
-0.997334, 97, 157, 112, 188
-0.997354, 49, 97, 176, 128
-0.997368, 33, 257, 160, 288
-0.997374, 319, 185, 334, 216
-0.997386, 149, 149, 164, 180
-0.997389, 153, 1, 184, 256
-0.99739, 147, 169, 162, 200
-0.997394, 211, 221, 226, 252
-0.997396, 81, 193, 208, 224
-0.997401, 129, 281, 256, 312
-0.997403, 371, 181, 386, 212
-0.997412, 91, 157, 106, 188
-0.997414, 351, 189, 366, 220
-0.997416, 111, 145, 126, 176
-0.997421, 253, 209, 268, 240
-0.997429, 293, 197, 308, 228
-0.997441, 289, 81, 416, 112
-0.997445, 279, 185, 294, 216
-0.997447, 129, 133, 144, 164
-0.997447, 1, 41, 256, 104
-0.997453, 325, 181, 340, 212
-0.997465, 1, 81, 500, 144
-0.997469, 177, 145, 192, 176
-0.99747, 97, 293, 224, 324
-0.997471, 149, 101, 164, 132
-0.997473, 91, 137, 106, 168
-0.997479, 243, 205, 258, 236
-0.99748, 287, 149, 302, 180
-0.997486, 341, 181, 356, 212
-0.99749, 1, 273, 256, 333
-0.997499, 323, 197, 338, 228
-0.997502, 229, 1, 260, 128
-0.997514, 343, 197, 358, 228
-0.997518, 289, 289, 416, 320
-0.997519, 115, 125, 130, 156
-0.997521, 1, 233, 128, 264
-0.997533, 93, 169, 108, 200
-0.997539, 231, 97, 246, 128
-0.997541, 187, 137, 202, 168
-0.997547, 305, 129, 432, 160
-0.997553, 87, 117, 102, 148
-0.997556, 217, 221, 232, 252
-0.997558, 143, 113, 158, 144
-0.997564, 207, 233, 222, 264
-0.997565, 365, 189, 380, 220
-0.997571, 219, 237, 234, 268
-0.997571, 335, 193, 350, 224
-0.997577, 109, 125, 124, 156
-0.997584, 303, 153, 318, 184
-0.997588, 311, 153, 326, 184
-0.997597, 209, 285, 336, 316
-0.997599, 137, 141, 152, 172
-0.997608, 307, 173, 322, 204
-0.997608, 131, 109, 146, 140
-0.997608, 219, 189, 234, 220
-0.997617, 285, 1, 316, 128
-0.997621, 337, 33, 368, 288
-0.99763, 99, 177, 114, 208
-0.997632, 143, 137, 158, 168
-0.997633, 181, 65, 212, 320
-0.997636, 273, 93, 400, 124
-0.997637, 285, 181, 300, 212
-0.997638, 97, 1, 128, 256
-0.99764, 241, 41, 368, 72
-0.997649, 269, 197, 284, 228
-0.997649, 235, 185, 250, 216
-0.99765, 107, 173, 122, 204
-0.997651, 1, 157, 128, 188
-0.997652, 199, 213, 214, 244
-0.997653, 265, 49, 296, 176
-0.997656, 243, 193, 258, 224
-0.997663, 381, 157, 396, 188
-0.997663, 97, 229, 224, 260
-0.997665, 217, 209, 232, 240
-0.997669, 125, 157, 140, 188
-0.997678, 263, 205, 278, 236
-0.997686, 357, 181, 372, 212
-0.997688, 155, 149, 170, 180
-0.997701, 237, 89, 252, 120
-0.997702, 109, 1, 140, 256
-0.997716, 137, 157, 152, 188
-0.997717, 1, 117, 128, 148
-0.997718, 65, 1, 320, 64
-0.997719, 357, 193, 372, 224
-0.997722, 33, 273, 160, 304
-0.997723, 197, 173, 212, 204
-0.997729, 267, 181, 282, 212
-0.997732, 251, 237, 266, 268
-0.997732, 279, 197, 294, 228
-0.997737, 385, 189, 400, 220
-0.997738, 145, 301, 272, 332
-0.99774, 321, 157, 336, 188
-0.997742, 303, 197, 318, 228
-0.997743, 257, 33, 288, 288
-0.997747, 329, 197, 344, 228
-0.997749, 131, 121, 146, 152
-0.997757, 209, 181, 224, 212
-0.997759, 313, 173, 328, 204
-0.997766, 119, 161, 134, 192
-0.997769, 203, 173, 218, 204
-0.997776, 273, 181, 288, 212
-0.997783, 379, 189, 394, 220
-0.9978, 225, 185, 240, 216
-0.997802, 369, 293, 496, 324
-0.997805, 85, 153, 100, 184
-0.997813, 213, 233, 228, 264
-0.997814, 81, 53, 208, 84
-0.997815, 281, 149, 296, 180
-0.99782, 243, 233, 258, 264
-0.997827, 357, 249, 372, 280
-0.997827, 369, 281, 496, 312
-0.99783, 295, 157, 310, 188
-0.997833, 121, 113, 136, 144
-0.997837, 125, 145, 140, 176
-0.997844, 241, 1, 304, 128
-0.997853, 229, 233, 244, 264
-0.997854, 225, 97, 240, 128
-0.997857, 317, 197, 332, 228
-0.997857, 421, 49, 452, 176
-0.997857, 49, 233, 176, 264
-0.99786, 183, 161, 198, 192
-0.997862, 257, 57, 384, 88
-0.997872, 285, 165, 300, 196
-0.997878, 381, 173, 396, 204
-0.997879, 193, 261, 320, 292
-0.997891, 171, 145, 186, 176
-0.997892, 363, 249, 378, 280
-0.997893, 161, 53, 288, 84
-0.997893, 123, 125, 138, 156
-0.997895, 381, 245, 396, 276
-0.997906, 87, 169, 102, 200
-0.997907, 213, 193, 228, 224
-0.997907, 301, 173, 316, 204
-0.99791, 185, 125, 200, 156
-0.997917, 397, 185, 412, 216
-0.997917, 109, 113, 124, 144
-0.997918, 243, 93, 258, 124
-0.997927, 227, 245, 242, 276
-0.997928, 387, 153, 402, 184
-0.99793, 237, 237, 252, 268
-0.997931, 213, 249, 228, 280
-0.997932, 391, 189, 406, 220
-0.997936, 309, 197, 324, 228
-0.997937, 97, 141, 112, 172
-0.997938, 295, 173, 310, 204
-0.997939, 143, 101, 158, 132
-0.99794, 375, 145, 390, 176
-0.997946, 237, 173, 252, 204
-0.997947, 305, 301, 432, 332
-0.997982, 225, 125, 352, 156
-0.997987, 337, 41, 464, 72
-0.998018, 201, 65, 232, 320
-0.998047, 21, 193, 52, 320
-0.998057, 177, 25, 304, 56
-0.998094, 253, 17, 284, 144
-0.998104, 257, 69, 384, 100
-0.998111, 233, 33, 264, 288
-0.998126, 353, 117, 480, 148
-0.99814, 97, 217, 224, 248
-0.998145, 369, 85, 496, 116
-0.998158, 57, 113, 88, 240
-0.998225, 17, 297, 144, 328
-0.998248, 213, 65, 244, 320
-0.99825, 33, 285, 160, 316
-0.99827, 337, 73, 464, 104
-0.998289, 73, 1, 104, 256
-0.998292, 241, 105, 368, 136
-0.998342, 225, 181, 288, 196
-0.998342, 193, 301, 320, 332
-0.99835, 137, 153, 200, 168
-0.998365, 273, 1, 304, 128
-0.998366, 33, 189, 160, 220
-0.998368, 369, 105, 496, 136
-0.998368, 461, 65, 492, 320
-0.998382, 97, 155, 160, 170
-0.998389, 1, 17, 500, 80
-0.998395, 241, 207, 304, 222
-0.998396, 97, 135, 160, 150
-0.998401, 377, 65, 408, 320
-0.998408, 97, 147, 160, 162
-0.998411, 245, 65, 276, 320
-0.998418, 177, 273, 304, 304
-0.998421, 249, 189, 312, 204
-0.998426, 241, 199, 304, 214
-0.998428, 281, 159, 344, 174
-0.998431, 273, 153, 336, 168
-0.998433, 289, 247, 320, 262
-0.998433, 245, 213, 276, 228
-0.998434, 245, 195, 276, 210
-0.998434, 377, 191, 408, 206
-0.998435, 305, 53, 432, 84
-0.998436, 225, 95, 256, 110
-0.998436, 113, 169, 176, 184
-0.998437, 237, 103, 268, 118
-0.998437, 105, 163, 168, 178
-0.998437, 137, 125, 168, 140
-0.998437, 269, 253, 300, 268
-0.998438, 161, 159, 192, 174
-0.998438, 333, 187, 364, 202
-0.998439, 317, 159, 348, 174
-0.998439, 277, 179, 308, 194
-0.998439, 81, 179, 112, 194
-0.99844, 201, 205, 232, 220
-0.99844, 165, 145, 196, 160
-0.99844, 149, 159, 180, 174
-0.998442, 273, 197, 336, 212
-0.998442, 213, 223, 244, 238
-0.998443, 193, 185, 224, 200
-0.998444, 213, 245, 244, 260
-0.998444, 281, 183, 344, 198
-0.998445, 73, 159, 136, 174
-0.998446, 453, 221, 484, 236
-0.998446, 381, 153, 412, 168
-0.998446, 173, 171, 204, 186
-0.998447, 313, 183, 376, 198
-0.998448, 205, 157, 236, 172
-0.998449, 249, 107, 280, 122
-0.99845, 305, 199, 368, 214
-0.998451, 357, 249, 388, 264
-0.998452, 345, 251, 376, 266
-0.998453, 285, 195, 316, 210
-0.998454, 81, 205, 208, 236
-0.998455, 129, 21, 256, 52
-0.998455, 185, 205, 216, 220
-0.998455, 249, 187, 280, 202
-0.998456, 213, 205, 244, 220
-0.998456, 97, 141, 160, 156
-0.998457, 201, 177, 264, 192
-0.998458, 301, 179, 332, 194
-0.998458, 209, 191, 272, 206
-0.998459, 233, 205, 264, 220
-0.99846, 253, 155, 284, 170
-0.998463, 381, 161, 412, 176
-0.998464, 309, 205, 340, 220
-0.998464, 321, 93, 448, 124
-0.998464, 209, 205, 272, 220
-0.998465, 273, 199, 304, 214
-0.998465, 201, 223, 232, 238
-0.998466, 209, 185, 240, 200
-0.998468, 397, 195, 428, 210
-0.998469, 177, 147, 208, 162
-0.99847, 209, 233, 272, 248
-0.998471, 229, 109, 260, 124
-0.998471, 121, 173, 152, 188
-0.998471, 189, 179, 220, 194
-0.998472, 185, 159, 216, 174
-0.998473, 245, 207, 276, 222
-0.998473, 73, 151, 136, 166
-0.998474, 369, 185, 400, 200
-0.998475, 177, 153, 240, 168
-0.998475, 301, 153, 332, 168
-0.998475, 277, 187, 308, 202
-0.998475, 377, 177, 408, 192
-0.998477, 133, 131, 164, 146
-0.998478, 357, 193, 388, 208
-0.99848, 97, 115, 128, 130
-0.99848, 257, 199, 288, 214
-0.998481, 85, 121, 116, 136
-0.998481, 349, 33, 380, 288
-0.998482, 233, 233, 264, 248
-0.998482, 225, 155, 288, 170
-0.998482, 137, 147, 200, 162
-0.998483, 109, 115, 140, 130
-0.998483, 281, 207, 344, 222
-0.998483, 213, 103, 244, 118
-0.998483, 369, 247, 400, 262
-0.998485, 377, 157, 440, 172
-0.998485, 137, 161, 200, 176
-0.998486, 213, 229, 244, 244
-0.998487, 97, 175, 160, 190
-0.998487, 109, 137, 140, 152
-0.998488, 401, 65, 432, 320
-0.99849, 289, 207, 320, 222
-0.99849, 141, 105, 172, 120
-0.998491, 213, 255, 244, 270
-0.998491, 277, 159, 308, 174
-0.998492, 201, 211, 232, 226
-0.998492, 81, 165, 144, 180
-0.998493, 209, 97, 272, 112
-0.998497, 217, 199, 280, 214
-0.998499, 177, 159, 240, 174
-0.998499, 249, 155, 312, 170
-0.998499, 73, 139, 136, 154
-0.9985, 301, 191, 332, 206
-0.9985, 209, 223, 272, 238
-0.998501, 337, 249, 400, 264
-0.998501, 353, 179, 416, 194
-0.998501, 217, 109, 248, 124
-0.998502, 89, 165, 120, 180
-0.998502, 113, 153, 144, 168
-0.998503, 137, 115, 168, 130
-0.998504, 337, 157, 400, 172
-0.998507, 337, 199, 368, 214
-0.998509, 201, 185, 264, 200
-0.99851, 233, 193, 264, 208
-0.99851, 369, 159, 400, 174
-0.99851, 269, 205, 300, 220
-0.998512, 113, 167, 144, 182
-0.998512, 297, 189, 360, 204
-0.998512, 313, 179, 344, 194
-0.998512, 133, 151, 164, 166
-0.998513, 137, 169, 200, 184
-0.998514, 137, 135, 200, 150
-0.998514, 101, 143, 132, 158
-0.998516, 73, 171, 136, 186
-0.998516, 185, 153, 216, 168
-0.998516, 221, 185, 252, 200
-0.998516, 205, 235, 236, 250
-0.998517, 287, 145, 302, 272
-0.998517, 337, 193, 400, 208
-0.998518, 89, 115, 152, 130
-0.998519, 229, 177, 260, 192
-0.998519, 169, 183, 232, 198
-0.99852, 265, 155, 296, 170
-0.99852, 209, 107, 272, 122
-0.99852, 101, 173, 132, 188
-0.998524, 97, 129, 160, 144
-0.998524, 125, 119, 156, 134
-0.998529, 273, 191, 336, 206
-0.998531, 177, 233, 240, 248
-0.998531, 153, 169, 184, 184
-0.998533, 385, 199, 416, 214
-0.998533, 117, 131, 148, 146
-0.998535, 129, 107, 160, 122
-0.998535, 137, 103, 200, 118
-0.998535, 241, 227, 304, 242
-0.998537, 301, 197, 332, 212
-0.998537, 97, 1, 224, 32
-0.998538, 133, 163, 164, 178
-0.998539, 257, 183, 320, 198
-0.998539, 337, 185, 400, 200
-0.998543, 313, 155, 376, 170
-0.998544, 185, 191, 248, 206
-0.998544, 237, 97, 268, 112
-0.998545, 301, 185, 332, 200
-0.998545, 125, 113, 156, 128
-0.998545, 81, 173, 112, 188
-0.998546, 273, 177, 336, 192
-0.998546, 361, 187, 424, 202
-0.998546, 201, 255, 264, 270
-0.998547, 73, 145, 136, 160
-0.998547, 161, 171, 224, 186
-0.998547, 21, 1, 52, 128
-0.998547, 241, 213, 304, 228
-0.998548, 265, 185, 296, 200
-0.998549, 73, 123, 136, 138
-0.998549, 93, 127, 124, 142
-0.99855, 97, 121, 160, 136
-0.99855, 89, 145, 120, 160
-0.99855, 209, 245, 272, 260
-0.99855, 201, 171, 264, 186
-0.99855, 333, 181, 364, 196
-0.998551, 165, 151, 196, 166
-0.998552, 201, 211, 264, 226
-0.998552, 257, 161, 320, 176
-0.998552, 185, 227, 248, 242
-0.998556, 121, 141, 184, 156
-0.998557, 137, 175, 200, 190
-0.998557, 85, 153, 116, 168
-0.998559, 113, 115, 176, 130
-0.998559, 169, 99, 232, 114
-0.998562, 125, 145, 156, 160
-0.998566, 245, 201, 276, 216
-0.998566, 313, 205, 376, 220
-0.998566, 105, 121, 136, 136
-0.998567, 185, 201, 248, 216
-0.998567, 213, 191, 244, 206
-0.99857, 201, 155, 264, 170
-0.99857, 201, 229, 232, 244
-0.998572, 353, 183, 384, 198
-0.998572, 193, 239, 256, 254
-0.998573, 73, 177, 136, 192
-0.998574, 113, 147, 144, 162
-0.998574, 177, 147, 240, 162
-0.998574, 369, 243, 432, 258
-0.998574, 329, 199, 392, 214
-0.998576, 233, 97, 296, 112
-0.998576, 141, 171, 172, 186
-0.998576, 385, 163, 448, 178
-0.998577, 73, 133, 136, 148
-0.998577, 361, 151, 424, 166
-0.998577, 209, 217, 272, 232
-0.998579, 257, 207, 288, 222
-0.998579, 293, 145, 308, 272
-0.998579, 121, 109, 184, 124
-0.99858, 273, 247, 336, 262
-0.998582, 273, 25, 400, 56
-0.998583, 305, 161, 368, 176
-0.998584, 321, 201, 352, 216
-0.998585, 117, 125, 148, 140
-0.998585, 353, 203, 416, 218
-0.998585, 193, 41, 320, 72
-0.998585, 121, 137, 152, 152
-0.998585, 281, 165, 344, 180
-0.998586, 293, 193, 308, 320
-0.998587, 377, 171, 440, 186
-0.998588, 233, 185, 264, 200
-0.998588, 241, 245, 304, 260
-0.998588, 97, 151, 128, 166
-0.998588, 233, 233, 296, 248
-0.99859, 73, 183, 136, 198
-0.998591, 101, 167, 132, 182
-0.998593, 305, 245, 368, 260
-0.998594, 177, 141, 240, 156
-0.998594, 169, 249, 232, 264
-0.998595, 313, 253, 376, 268
-0.998595, 169, 177, 232, 192
-0.998599, 89, 159, 120, 174
-0.9986, 249, 177, 312, 192
-0.9986, 125, 157, 156, 172
-0.998603, 97, 137, 128, 152
-0.998604, 277, 153, 308, 168
-0.998605, 105, 161, 136, 176
-0.998605, 145, 153, 176, 168
-0.998606, 305, 259, 368, 274
-0.998607, 297, 177, 360, 192
-0.998607, 169, 239, 232, 254
-0.998608, 369, 197, 432, 212
-0.998609, 169, 261, 232, 276
-0.99861, 313, 149, 376, 164
-0.99861, 433, 223, 496, 238
-0.998611, 217, 149, 280, 164
-0.998611, 233, 91, 296, 106
-0.998611, 401, 225, 464, 240
-0.998611, 137, 189, 200, 204
-0.998611, 337, 241, 400, 256
-0.998612, 217, 239, 280, 254
-0.998612, 241, 253, 304, 268
-0.998612, 85, 135, 116, 150
-0.998613, 49, 137, 112, 152
-0.998613, 49, 153, 112, 168
-0.998614, 185, 109, 248, 124
-0.998614, 393, 179, 456, 194
-0.998615, 305, 271, 368, 286
-0.998615, 49, 175, 112, 190
-0.998619, 289, 187, 320, 202
-0.998619, 401, 233, 464, 248
-0.99862, 161, 227, 224, 242
-0.998621, 97, 181, 160, 196
-0.998621, 385, 149, 448, 164
-0.998622, 265, 253, 328, 268
-0.998623, 337, 21, 464, 52
-0.998624, 241, 239, 304, 254
-0.998624, 89, 109, 152, 124
-0.998635, 305, 159, 336, 174
-0.998638, 305, 117, 432, 148
-0.998641, 253, 181, 284, 196
-0.998645, 281, 145, 296, 272
-0.99866, 241, 179, 272, 194
-0.99866, 313, 185, 344, 200
-0.998665, 251, 177, 266, 304
-0.99868, 105, 131, 136, 146
-0.998691, 1, 57, 500, 120
-0.998691, 299, 145, 314, 272
-0.998692, 289, 159, 320, 174
-0.998702, 229, 193, 244, 320
-0.998714, 363, 193, 378, 320
-0.998722, 97, 33, 224, 64
-0.998733, 147, 97, 162, 224
-0.998733, 305, 193, 320, 320
-0.998739, 361, 65, 392, 320
-0.998762, 177, 129, 304, 160
-0.998765, 245, 193, 260, 320
-0.998768, 137, 97, 152, 224
-0.998772, 193, 9, 448, 72
-0.998781, 209, 61, 336, 92
-0.998785, 273, 9, 400, 40
-0.998786, 299, 193, 314, 320
-0.998788, 241, 297, 368, 328
-0.998789, 217, 193, 232, 320
-0.998789, 221, 145, 236, 272
-0.998794, 153, 97, 168, 224
-0.998801, 227, 145, 242, 272
-0.998801, 163, 97, 178, 224
-0.998803, 129, 129, 144, 256
-0.998803, 287, 193, 302, 320
-0.998805, 273, 145, 288, 272
-0.99881, 207, 177, 222, 304
-0.998817, 441, 65, 472, 320
-0.998819, 239, 193, 254, 320
-0.998823, 87, 113, 102, 240
-0.998841, 311, 193, 326, 320
-0.998844, 109, 113, 124, 240
-0.998849, 267, 145, 282, 272
-0.998867, 259, 177, 274, 304
-0.998868, 353, 1, 480, 32
-0.998869, 223, 193, 238, 320
-0.998872, 343, 145, 358, 272
-0.998882, 311, 145, 326, 272
-0.998883, 355, 193, 370, 320
-0.998894, 369, 193, 384, 320
-0.998901, 367, 145, 382, 272
-0.998906, 305, 113, 320, 240
-0.998917, 187, 129, 202, 256
-0.998923, 175, 81, 190, 208
-0.998931, 215, 145, 230, 272
-0.998932, 355, 145, 370, 272
-0.99894, 233, 145, 248, 272
-0.998951, 281, 193, 296, 320
-0.998959, 257, 129, 272, 256
-0.998959, 225, 17, 352, 48
-0.99896, 389, 65, 420, 320
-0.998971, 239, 145, 254, 272
-0.998973, 143, 49, 158, 176
-0.998975, 349, 145, 364, 272
-0.998976, 389, 161, 404, 288
-0.998982, 317, 161, 332, 288
-0.998982, 153, 49, 168, 176
-0.998987, 245, 145, 260, 272
-0.999004, 375, 193, 390, 320
-0.999004, 361, 145, 376, 272
-0.999011, 177, 129, 192, 256
-0.999017, 123, 113, 138, 240
-0.999022, 93, 129, 108, 256
-0.999036, 169, 97, 184, 224
-0.999043, 203, 129, 218, 256
-0.999045, 399, 177, 414, 304
-0.999048, 373, 145, 388, 272
-0.99905, 127, 49, 142, 176
-0.999057, 383, 161, 398, 288
-0.999059, 209, 129, 224, 256
-0.999065, 115, 97, 130, 224
-0.999067, 87, 161, 102, 288
-0.999084, 427, 209, 442, 333
-0.999092, 349, 193, 364, 320
-0.999095, 167, 49, 182, 176
-0.999095, 319, 113, 334, 240
-0.999098, 99, 97, 114, 224
-0.999107, 143, 145, 158, 272
-0.999109, 81, 161, 96, 288
-0.999114, 289, 97, 304, 224
-0.999116, 273, 193, 288, 320
-0.999117, 115, 49, 130, 176
-0.999125, 195, 145, 210, 272
-0.99913, 101, 161, 116, 288
-0.999132, 477, 209, 492, 333
-0.999134, 137, 49, 152, 176
-0.999135, 439, 209, 454, 333
-0.999145, 417, 209, 432, 333
-0.999145, 25, 1, 88, 128
-0.999151, 187, 81, 202, 208
-0.999152, 275, 97, 290, 224
-0.999153, 323, 161, 338, 288
-0.999154, 257, 33, 500, 96
-0.999154, 167, 145, 182, 272
-0.999154, 61, 33, 92, 288
-0.99916, 445, 209, 460, 333
-0.999166, 161, 49, 176, 176
-0.999173, 407, 209, 422, 333
-0.999175, 335, 129, 350, 256
-0.999184, 121, 49, 136, 176
-0.999187, 465, 209, 480, 333
-0.999193, 269, 97, 284, 224
-0.999193, 433, 177, 448, 304
-0.999196, 181, 81, 196, 208
-0.9992, 299, 97, 314, 224
-0.999209, 313, 97, 328, 224
-0.999216, 155, 145, 170, 272
-0.999221, 379, 113, 394, 240
-0.999221, 81, 113, 96, 240
-0.999225, 457, 145, 472, 272
-0.999226, 241, 1, 272, 128
-0.999228, 135, 145, 150, 272
-0.99923, 391, 113, 406, 240
-0.999231, 161, 145, 176, 272
-0.999232, 149, 145, 164, 272
-0.999234, 483, 193, 498, 320
-0.999237, 429, 65, 460, 320
-0.999241, 175, 177, 190, 304
-0.999252, 397, 65, 428, 192
-0.999253, 267, 193, 282, 320
-0.999254, 251, 129, 266, 256
-0.999261, 109, 49, 124, 176
-0.999262, 459, 209, 474, 333
-0.999264, 451, 177, 466, 304
-0.999268, 413, 33, 444, 288
-0.999269, 173, 33, 188, 160
-0.999278, 281, 97, 296, 224
-0.99928, 415, 161, 430, 288
-0.999287, 467, 145, 482, 272
-0.999289, 345, 97, 360, 224
-0.999292, 471, 209, 486, 333
-0.999295, 201, 177, 216, 304
-0.999297, 325, 113, 340, 240
-0.999298, 225, 97, 240, 224
-0.999299, 93, 81, 108, 208
-0.999306, 405, 161, 420, 288
-0.999317, 199, 81, 214, 208
-0.999331, 341, 49, 356, 176
-0.99934, 321, 65, 336, 192
-0.999341, 385, 113, 400, 240
-0.999342, 473, 145, 488, 272
-0.999343, 329, 49, 344, 176
-0.999344, 159, 1, 174, 128
-0.999363, 421, 161, 436, 288
-0.999367, 389, 209, 404, 333
-0.99937, 439, 145, 454, 272
-0.999637, 245, 95, 260, 110
-0.999638, 381, 247, 396, 262
-0.999639, 97, 175, 112, 190
-0.99964, 199, 207, 214, 222
-0.999641, 103, 149, 118, 164
-0.999641, 389, 201, 404, 216
-0.999641, 219, 109, 234, 124
-0.999642, 99, 143, 114, 158
-0.999643, 217, 191, 232, 206
-0.999644, 231, 185, 246, 200
-0.999644, 255, 175, 270, 190
-0.999644, 89, 117, 104, 132
-0.999645, 237, 109, 252, 124
-0.999646, 187, 141, 202, 156
-0.999646, 197, 217, 212, 232
-0.999647, 137, 119, 152, 134
-0.999647, 109, 163, 124, 178
-0.999647, 115, 125, 130, 140
-0.999647, 383, 165, 398, 180
-0.999647, 315, 153, 330, 168
-0.999647, 113, 137, 128, 152
-0.999648, 139, 125, 154, 140
-0.99965, 379, 151, 394, 166
-0.999651, 335, 181, 350, 196
-0.999653, 283, 205, 298, 220
-0.999653, 309, 153, 324, 168
-0.999654, 303, 153, 318, 168
-0.999654, 217, 157, 232, 172
-0.999656, 235, 99, 250, 114
-0.999657, 147, 105, 162, 120
-0.999658, 259, 201, 274, 216
-0.999658, 91, 143, 106, 158
-0.999658, 291, 195, 306, 210
-0.999658, 107, 131, 122, 146
-0.999658, 297, 187, 312, 202
-0.999658, 325, 159, 340, 174
-0.999659, 115, 167, 130, 182
-0.999659, 155, 153, 170, 168
-0.999659, 137, 137, 152, 152
-0.99966, 87, 151, 102, 166
-0.99966, 257, 189, 272, 204
-0.999661, 291, 209, 306, 224
-0.999661, 201, 177, 216, 192
-0.999662, 381, 179, 396, 194
-0.999662, 155, 169, 170, 184
-0.999662, 107, 125, 122, 140
-0.999662, 341, 181, 356, 196
-0.999663, 269, 153, 284, 168
-0.999663, 313, 179, 328, 194
-0.999663, 95, 157, 110, 172
-0.999663, 123, 163, 138, 178
-0.999663, 113, 145, 128, 160
-0.999666, 21, 1, 52, 256
-0.999669, 243, 207, 258, 222
-0.999669, 95, 163, 110, 178
-0.999669, 179, 147, 194, 162
-0.99967, 85, 133, 100, 148
-0.999671, 269, 207, 284, 222
-0.999671, 313, 191, 328, 206
-0.999671, 377, 159, 392, 174
-0.999672, 223, 187, 238, 202
-0.999672, 133, 107, 148, 122
-0.999673, 349, 253, 364, 268
-0.999673, 231, 109, 246, 124
-0.999674, 91, 137, 106, 152
-0.999676, 249, 191, 264, 206
-0.999677, 239, 93, 254, 108
-0.999678, 357, 183, 372, 198
-0.999678, 341, 201, 356, 216
-0.999679, 137, 159, 152, 174
-0.999679, 127, 143, 142, 158
-0.999682, 173, 151, 188, 166
-0.999682, 109, 151, 124, 166
-0.999682, 137, 113, 152, 128
-0.999682, 331, 201, 346, 216
-0.999684, 117, 131, 132, 146
-0.999684, 389, 157, 404, 172
-0.999684, 207, 227, 222, 242
-0.999685, 245, 185, 260, 200
-0.999685, 205, 207, 220, 222
-0.999686, 95, 149, 110, 164
-0.999687, 249, 177, 264, 192
-0.99969, 383, 159, 398, 174
-0.99969, 103, 165, 118, 180
-0.99969, 395, 199, 410, 214
-0.999691, 237, 187, 252, 202
-0.999691, 41, 1, 72, 256
-0.999692, 217, 223, 232, 238
-0.999694, 121, 147, 136, 162
-0.999695, 277, 187, 292, 202
-0.999695, 249, 205, 264, 220
-0.999695, 143, 115, 158, 130
-0.999695, 363, 183, 378, 198
-0.999695, 121, 125, 136, 140
-0.999695, 91, 171, 106, 186
-0.999699, 145, 151, 160, 166
-0.999699, 305, 185, 320, 200
-0.9997, 139, 107, 154, 122
-0.999702, 139, 151, 154, 166
-0.999702, 107, 137, 122, 152
-0.999703, 207, 233, 222, 248
-0.999704, 347, 197, 362, 212
-0.999705, 145, 171, 160, 186
-0.999705, 129, 135, 144, 150
-0.999709, 287, 159, 302, 174
-0.999709, 103, 155, 118, 170
-0.999709, 325, 181, 340, 196
-0.99971, 371, 185, 386, 200
-0.999711, 97, 125, 112, 140
-0.999713, 103, 171, 118, 186
-0.999713, 201, 227, 216, 242
-0.999713, 137, 131, 152, 146
-0.999714, 131, 149, 146, 164
-0.999716, 323, 201, 338, 216
-0.999716, 217, 229, 232, 244
-0.99972, 111, 157, 126, 172
-0.99972, 283, 187, 298, 202
-0.999722, 291, 187, 306, 202
-0.999727, 179, 155, 194, 170
-0.999727, 279, 153, 294, 168
-0.999732, 97, 137, 112, 152
-0.999735, 271, 183, 286, 198
-0.999739, 265, 181, 280, 196
-0.99974, 315, 185, 330, 200
-0.999745, 149, 163, 164, 178
-0.999748, 255, 181, 270, 196
-0.999751, 241, 177, 256, 192
-0.999754, 319, 159, 334, 174
-0.999762, 137, 145, 152, 160
-0.999765, 293, 159, 308, 174
-0.999768, 309, 159, 324, 174
-0.999789, 303, 159, 318, 174
-1.00006, 9, 1, 40, 256
-1.00218, 17, 49, 80, 176
-1.00404, 9, 145, 72, 272
-1.0047, 9, 97, 72, 224
