1890
-0.724487, 1, 65, 500, 320
-0.893667, 1, 1, 500, 333
-0.927633, 129, 1, 384, 333
-0.934451, 33, 1, 288, 333
-0.936863, 225, 1, 480, 333
-0.96849, 113, 1, 240, 333
-0.968554, 193, 1, 320, 333
-0.971805, 161, 153, 224, 216
-0.976763, 1, 145, 500, 272
-0.976885, 121, 153, 184, 216
-0.97716, 97, 65, 224, 320
-0.978419, 289, 1, 416, 333
-0.978831, 337, 1, 464, 333
-0.97895, 33, 1, 160, 333
-0.979242, 241, 1, 368, 333
-0.979613, 161, 65, 288, 320
-0.981045, 169, 129, 232, 192
-0.981364, 145, 129, 208, 192
-0.985141, 201, 145, 232, 208
-0.985211, 353, 65, 480, 320
-0.985423, 121, 129, 184, 192
-0.986314, 273, 65, 400, 320
-0.986684, 17, 65, 144, 320
-0.98675, 113, 137, 240, 200
-0.986778, 97, 153, 160, 216
-0.987235, 193, 137, 256, 200
-0.987281, 169, 145, 232, 272
-0.987656, 185, 161, 248, 224
-0.987844, 225, 65, 352, 320
-0.987939, 113, 161, 240, 224
-0.988185, 189, 153, 220, 216
-0.988307, 177, 137, 208, 200
-0.98839, 149, 153, 180, 216
-0.98852, 189, 129, 220, 192
-0.989267, 73, 153, 136, 216
-0.989618, 1, 97, 500, 224
-0.990015, 133, 153, 164, 216
-0.990699, 65, 153, 192, 216
-0.990937, 161, 137, 288, 200
-0.99103, 105, 177, 168, 240
-0.991187, 33, 129, 288, 256
-0.991279, 153, 157, 216, 188
-0.991424, 145, 129, 208, 256
-0.99152, 169, 145, 232, 176
-0.992012, 337, 153, 400, 216
-0.992179, 129, 157, 192, 188
-0.99233, 161, 169, 224, 200
-0.992341, 177, 157, 240, 188
-0.992379, 113, 153, 144, 216
-0.992474, 1, 209, 500, 333
-0.99258, 145, 145, 208, 176
-0.992599, 81, 161, 144, 192
-0.992623, 161, 161, 192, 224
-0.992778, 105, 153, 168, 184
-0.992825, 289, 153, 352, 184
-0.99289, 197, 145, 228, 176
-0.99297, 17, 153, 144, 216
-0.99299, 177, 157, 208, 188
-0.993024, 153, 133, 216, 164
-0.993114, 321, 153, 384, 184
-0.993115, 353, 157, 416, 188
-0.993134, 189, 157, 220, 188
-0.993284, 129, 169, 192, 200
-0.993316, 193, 145, 256, 176
-0.993318, 201, 157, 232, 188
-0.993341, 105, 165, 168, 196
-0.993343, 201, 161, 264, 192
-0.993368, 181, 145, 212, 176
-0.993393, 189, 133, 220, 164
-0.993448, 177, 161, 304, 224
-0.993454, 361, 157, 392, 188
-0.993492, 265, 157, 328, 188
-0.993494, 109, 161, 140, 192
-0.993506, 29, 161, 60, 192
-0.993546, 41, 157, 72, 188
-0.993548, 193, 169, 224, 200
-0.99356, 169, 145, 200, 176
-0.993564, 145, 161, 176, 192
-0.993573, 325, 157, 356, 188
-0.993573, 25, 165, 88, 196
-0.993597, 165, 165, 196, 196
-0.993602, 213, 157, 244, 188
-0.993621, 181, 169, 212, 200
-0.993648, 57, 157, 120, 188
-0.993661, 169, 125, 200, 156
-0.993667, 209, 141, 240, 172
-0.993675, 121, 161, 152, 192
-0.993679, 157, 153, 188, 184
-0.993686, 341, 157, 372, 188
-0.993697, 313, 145, 376, 208
-0.993716, 289, 157, 320, 188
-0.993719, 321, 145, 352, 176
-0.993722, 89, 161, 120, 192
-0.993728, 133, 157, 164, 188
-0.993728, 341, 145, 372, 176
-0.993729, 129, 177, 192, 240
-0.993731, 133, 169, 164, 200
-0.993748, 121, 173, 152, 204
-0.993779, 301, 153, 332, 184
-0.993801, 373, 157, 404, 188
-0.993809, 129, 145, 160, 176
-0.993821, 109, 149, 140, 180
-0.993828, 69, 165, 100, 196
-0.993831, 153, 173, 184, 204
-0.993831, 457, 181, 488, 212
-0.993832, 53, 157, 84, 188
-0.993832, 65, 177, 96, 208
-0.99384, 129, 129, 192, 160
-0.993855, 157, 137, 188, 168
-0.993855, 93, 149, 124, 180
-0.993856, 277, 153, 308, 184
-0.993869, 181, 121, 212, 152
-0.993879, 109, 173, 140, 204
-0.993886, 157, 121, 188, 152
-0.993899, 41, 177, 104, 208
-0.99391, 289, 141, 352, 172
-0.993916, 329, 141, 392, 172
-0.99392, 121, 141, 184, 172
-0.99392, 81, 149, 144, 180
-0.993927, 225, 153, 256, 184
-0.993929, 205, 169, 236, 200
-0.993935, 361, 145, 392, 176
-0.993937, 37, 145, 68, 176
-0.993937, 53, 169, 84, 200
-0.99394, 145, 141, 176, 172
-0.993948, 141, 125, 172, 156
-0.993952, 25, 149, 56, 180
-0.993953, 209, 129, 240, 160
-0.993963, 313, 157, 344, 188
-0.993972, 445, 181, 476, 212
-0.993972, 281, 153, 344, 216
-0.993977, 13, 181, 44, 212
-0.993979, 301, 141, 332, 172
-0.993979, 105, 177, 168, 208
-0.993981, 33, 173, 64, 204
-0.993981, 425, 181, 488, 212
-0.993986, 193, 121, 224, 152
-0.993986, 73, 173, 136, 204
-0.993991, 457, 169, 488, 200
-0.994004, 305, 217, 336, 248
-0.994006, 329, 165, 392, 196
-0.994006, 377, 145, 408, 176
-0.994006, 305, 201, 336, 232
-0.994009, 17, 165, 48, 196
-0.994012, 421, 205, 452, 236
-0.994013, 77, 177, 108, 208
-0.994018, 369, 145, 432, 176
-0.994021, 133, 205, 164, 236
-0.99403, 257, 209, 288, 240
-0.994035, 289, 141, 320, 172
-0.994036, 69, 153, 100, 184
-0.994037, 49, 145, 80, 176
-0.994037, 165, 177, 196, 208
-0.994041, 445, 169, 476, 200
-0.994043, 81, 149, 112, 180
-0.994046, 93, 173, 124, 204
-0.994047, 409, 213, 440, 244
-0.994049, 181, 109, 212, 140
-0.99405, 397, 201, 428, 232
-0.994054, 293, 197, 324, 228
-0.994058, 273, 141, 304, 172
-0.994058, 5, 165, 36, 196
-0.994059, 25, 185, 56, 216
-0.994063, 121, 201, 152, 232
-0.994063, 145, 225, 176, 256
-0.994064, 317, 193, 348, 224
-0.994066, 65, 217, 96, 248
-0.994067, 393, 157, 424, 188
-0.994068, 137, 181, 168, 212
-0.994068, 233, 201, 264, 232
-0.994069, 273, 197, 304, 228
-0.994069, 269, 213, 300, 244
-0.99407, 433, 173, 464, 204
-0.994071, 137, 193, 168, 224
-0.994074, 405, 173, 436, 204
-0.994075, 333, 233, 364, 264
-0.994076, 157, 109, 188, 140
-0.99408, 417, 161, 448, 192
-0.99408, 85, 197, 116, 228
-0.994081, 177, 133, 240, 164
-0.994083, 13, 153, 44, 184
-0.994083, 305, 189, 336, 220
-0.994083, 397, 213, 428, 244
-0.994084, 205, 117, 236, 148
-0.994087, 469, 177, 500, 208
-0.994091, 249, 193, 280, 224
-0.994092, 293, 217, 324, 248
-0.994092, 85, 209, 116, 240
-0.994095, 413, 189, 444, 220
-0.994099, 321, 233, 352, 264
-0.994099, 125, 221, 156, 252
-0.994103, 145, 209, 176, 240
-0.994104, 185, 221, 216, 252
-0.994105, 25, 213, 56, 244
-0.994106, 297, 201, 360, 232
-0.994108, 329, 197, 360, 228
-0.994108, 169, 221, 200, 252
-0.994108, 281, 213, 312, 244
-0.99411, 429, 221, 460, 252
-0.994111, 309, 229, 340, 260
-0.994112, 289, 185, 320, 216
-0.994113, 149, 237, 180, 268
-0.994114, 345, 229, 376, 260
-0.994114, 185, 181, 216, 212
-0.994116, 113, 221, 144, 252
-0.994118, 121, 189, 152, 220
-0.99412, 197, 229, 228, 260
-0.994121, 157, 225, 188, 256
-0.994122, 321, 221, 352, 252
-0.994123, 101, 221, 132, 252
-0.994125, 149, 197, 180, 228
-0.994125, 433, 209, 464, 240
-0.994126, 33, 197, 64, 228
-0.994142, 33, 153, 96, 184
-0.994156, 265, 205, 328, 236
-0.994195, 241, 145, 304, 176
-0.994205, 1, 157, 64, 188
-0.994218, 113, 129, 240, 256
-0.994226, 193, 173, 256, 204
-0.994234, 273, 217, 336, 248
-0.994247, 241, 161, 304, 192
-0.994249, 161, 121, 224, 152
-0.99425, 153, 221, 216, 252
-0.994307, 409, 169, 472, 200
-0.994322, 113, 205, 176, 236
-0.994346, 393, 213, 456, 244
-0.994351, 1, 177, 64, 208
-0.994359, 217, 149, 280, 180
-0.994359, 297, 217, 360, 248
-0.994362, 385, 157, 448, 188
-0.994421, 265, 193, 328, 224
-0.994426, 129, 117, 192, 148
-0.994433, 17, 153, 80, 216
-0.994447, 73, 197, 136, 228
-0.994453, 297, 165, 360, 196
-0.994461, 41, 213, 104, 244
-0.994463, 273, 153, 400, 216
-0.994465, 201, 133, 264, 164
-0.994484, 169, 181, 232, 212
-0.994494, 425, 209, 488, 240
-0.9945, 137, 197, 200, 228
-0.994512, 241, 193, 304, 224
-0.994513, 65, 209, 128, 240
-0.994515, 313, 233, 376, 264
-0.994525, 409, 157, 472, 188
-0.994531, 97, 221, 160, 252
-0.994536, 241, 213, 304, 244
-0.994536, 121, 217, 184, 248
-0.994536, 153, 237, 216, 268
-0.994539, 129, 273, 192, 304
-0.994559, 385, 193, 448, 224
-0.994573, 289, 189, 352, 220
-0.994581, 313, 189, 376, 220
-0.994586, 369, 217, 432, 248
-0.99459, 89, 137, 152, 168
-0.99459, 265, 141, 328, 172
-0.994591, 129, 229, 192, 260
-0.994596, 377, 173, 440, 204
-0.994599, 433, 269, 496, 300
-0.994601, 9, 261, 72, 292
-0.994604, 281, 229, 344, 260
-0.994611, 169, 197, 232, 228
-0.994612, 73, 225, 136, 256
-0.994614, 41, 201, 104, 232
-0.994622, 217, 201, 280, 232
-0.99463, 433, 197, 496, 228
-0.994634, 433, 161, 496, 192
-0.994636, 353, 201, 416, 232
-0.994643, 153, 209, 216, 240
-0.994644, 57, 145, 120, 176
-0.994648, 105, 125, 168, 156
-0.994661, 17, 221, 80, 252
-0.994661, 57, 289, 120, 320
-0.994664, 169, 253, 232, 284
-0.994668, 185, 121, 248, 152
-0.994669, 217, 177, 280, 208
-0.994669, 433, 225, 496, 256
-0.994671, 1, 201, 64, 232
-0.994672, 313, 245, 376, 276
-0.994677, 313, 177, 376, 208
-0.994679, 193, 217, 256, 248
-0.994682, 9, 145, 72, 176
-0.994682, 393, 225, 456, 256
-0.994682, 393, 261, 456, 292
-0.99469, 89, 209, 152, 240
-0.994695, 97, 193, 160, 224
-0.994695, 177, 233, 240, 264
-0.994695, 233, 237, 296, 268
-0.994698, 9, 189, 72, 220
-0.9947, 33, 249, 96, 280
-0.994703, 105, 233, 168, 264
-0.994708, 265, 241, 328, 272
-0.994711, 369, 261, 432, 292
-0.994719, 129, 185, 192, 216
-0.994721, 409, 197, 472, 228
-0.994721, 193, 197, 256, 228
-0.994723, 425, 249, 488, 280
-0.994726, 33, 265, 96, 296
-0.994736, 33, 141, 96, 172
-0.994737, 337, 185, 400, 216
-0.994742, 321, 201, 384, 232
-0.994742, 337, 237, 400, 268
-0.994747, 169, 265, 232, 296
-0.994747, 161, 301, 224, 332
-0.99475, 33, 277, 96, 308
-0.994752, 249, 173, 312, 204
-0.994752, 217, 217, 280, 248
-0.994752, 209, 249, 272, 280
-0.994755, 49, 225, 112, 256
-0.99476, 273, 177, 336, 208
-0.994763, 345, 225, 408, 256
-0.994765, 393, 237, 456, 268
-0.994768, 361, 189, 424, 220
-0.994776, 329, 257, 392, 288
-0.994943, 65, 177, 192, 240
-0.995039, 149, 129, 180, 192
-0.995381, 65, 129, 192, 192
-0.995423, 29, 161, 60, 224
-0.995533, 129, 129, 384, 256
-0.995647, 209, 129, 336, 192
-0.995681, 201, 121, 232, 184
-0.995754, 165, 137, 196, 200
-0.995914, 41, 153, 72, 216
-0.995982, 161, 129, 288, 256
-0.996075, 257, 161, 320, 224
-0.996321, 205, 153, 220, 216
-0.996376, 177, 161, 208, 224
-0.996557, 49, 169, 112, 232
-0.99656, 33, 161, 288, 224
-0.996662, 145, 153, 160, 216
-0.996714, 163, 153, 178, 216
-0.996734, 361, 153, 392, 216
-0.996737, 199, 153, 214, 216
-0.996779, 361, 145, 424, 208
-0.996804, 129, 153, 384, 216
-0.996817, 81, 177, 144, 240
-0.996829, 353, 153, 480, 216
-0.99685, 153, 153, 168, 216
-0.996896, 139, 153, 154, 216
-0.996896, 225, 161, 352, 224
-0.996915, 17, 129, 144, 192
-0.996918, 203, 129, 218, 192
-0.99719, 169, 153, 184, 216
-0.997255, 97, 129, 160, 192
-0.99727, 197, 129, 212, 192
-0.997308, 211, 145, 226, 208
-0.997403, 1, 137, 256, 200
-0.99751, 123, 153, 138, 216
-0.997546, 179, 137, 194, 200
-0.997614, 113, 149, 240, 180
-0.997632, 101, 153, 132, 216
-0.997673, 213, 153, 244, 216
-0.997682, 289, 129, 352, 192
-0.997729, 273, 129, 400, 192
-0.997895, 117, 153, 132, 216
-0.99791, 193, 161, 208, 224
-0.997986, 129, 153, 144, 216
-0.998009, 113, 161, 240, 192
-0.998038, 433, 185, 496, 248
-0.998074, 191, 137, 206, 200
-0.99814, 129, 207, 160, 222
-0.99814, 269, 215, 300, 230
-0.998141, 197, 239, 228, 254
-0.998142, 269, 161, 300, 176
-0.998142, 57, 181, 88, 196
-0.998142, 29, 181, 60, 196
-0.998143, 213, 175, 244, 190
-0.998144, 33, 169, 64, 184
-0.998144, 201, 129, 232, 144
-0.998144, 45, 171, 76, 186
-0.998145, 365, 181, 396, 196
-0.998145, 409, 217, 440, 232
-0.998145, 5, 169, 36, 184
-0.998145, 293, 149, 324, 164
-0.998146, 409, 175, 440, 190
-0.998146, 93, 179, 124, 194
-0.998146, 217, 153, 248, 168
-0.998146, 469, 201, 500, 216
-0.998146, 201, 139, 232, 154
-0.998149, 257, 157, 288, 172
-0.99815, 353, 179, 384, 194
-0.998151, 201, 175, 232, 190
-0.998151, 421, 175, 452, 190
-0.998151, 433, 175, 464, 190
-0.998152, 147, 129, 162, 192
-0.998154, 45, 177, 76, 192
-0.998155, 57, 169, 88, 184
-0.998156, 121, 161, 152, 176
-0.998156, 9, 163, 40, 178
-0.998157, 161, 149, 192, 164
-0.998157, 17, 171, 48, 186
-0.998158, 409, 163, 440, 178
-0.998159, 129, 147, 160, 162
-0.99816, 49, 153, 80, 168
-0.998161, 145, 137, 176, 152
-0.998161, 301, 221, 332, 236
-0.998161, 113, 173, 144, 188
-0.998162, 45, 165, 76, 180
-0.998164, 161, 143, 192, 158
-0.998164, 401, 155, 432, 170
-0.998165, 449, 183, 480, 198
-0.998167, 393, 175, 424, 190
-0.998167, 217, 165, 248, 180
-0.998168, 369, 175, 400, 190
-0.998168, 213, 141, 244, 156
-0.998169, 333, 149, 364, 164
-0.998169, 169, 173, 200, 188
-0.998169, 153, 177, 184, 192
-0.998169, 417, 181, 448, 196
-0.99817, 81, 181, 112, 196
-0.99817, 133, 163, 164, 178
-0.998171, 33, 175, 64, 190
-0.998171, 277, 153, 308, 168
-0.998171, 93, 155, 124, 170
-0.998171, 153, 129, 184, 144
-0.998173, 57, 161, 88, 176
-0.998174, 57, 175, 88, 190
-0.998174, 77, 159, 108, 174
-0.998175, 361, 165, 392, 180
-0.998176, 145, 143, 176, 158
-0.998176, 141, 155, 172, 170
-0.998177, 129, 113, 256, 176
-0.998179, 97, 129, 352, 192
-0.99818, 17, 155, 48, 170
-0.998181, 5, 179, 36, 194
-0.998182, 141, 129, 172, 144
-0.998182, 381, 173, 412, 188
-0.998182, 169, 129, 184, 192
-0.998183, 105, 155, 136, 170
-0.998184, 381, 165, 412, 180
-0.998185, 245, 159, 276, 174
-0.998185, 149, 149, 180, 164
-0.998185, 381, 153, 412, 168
-0.998186, 133, 175, 164, 190
-0.998186, 161, 123, 192, 138
-0.998187, 65, 157, 192, 188
-0.998189, 397, 163, 428, 178
-0.99819, 181, 121, 212, 136
-0.99819, 189, 131, 220, 146
-0.99819, 69, 179, 100, 194
-0.998191, 109, 167, 140, 182
-0.998192, 69, 165, 100, 180
-0.998195, 17, 177, 48, 192
-0.998197, 157, 135, 188, 150
-0.998198, 129, 169, 160, 184
-0.998201, 77, 171, 108, 186
-0.998202, 229, 157, 260, 172
-0.998206, 201, 145, 232, 160
-0.998207, 33, 155, 64, 170
-0.998207, 281, 159, 312, 174
-0.998209, 385, 159, 416, 174
-0.998209, 437, 181, 468, 196
-0.998209, 297, 161, 328, 176
-0.998214, 129, 155, 160, 170
-0.998217, 353, 153, 384, 168
-0.99822, 369, 153, 400, 168
-0.998221, 309, 161, 340, 176
-0.998223, 153, 155, 184, 170
-0.998225, 321, 149, 352, 164
-0.998227, 205, 167, 236, 182
-0.998232, 93, 169, 124, 184
-0.998234, 205, 153, 236, 168
-0.998238, 177, 129, 208, 144
-0.998239, 109, 161, 140, 176
-0.998243, 293, 155, 324, 170
-0.998243, 21, 161, 52, 176
-0.998252, 165, 129, 196, 144
-0.998253, 149, 167, 180, 182
-0.998254, 169, 137, 200, 152
-0.998256, 173, 145, 204, 160
-0.998259, 45, 159, 76, 174
-0.998259, 181, 167, 212, 182
-0.99826, 89, 161, 120, 176
-0.998262, 189, 137, 220, 152
-0.998267, 177, 145, 304, 176
-0.998268, 349, 161, 380, 176
-0.998273, 165, 155, 196, 170
-0.998274, 333, 161, 364, 176
-0.998277, 305, 155, 336, 170
-0.998284, 213, 159, 244, 174
-0.998285, 161, 167, 192, 182
-0.998299, 145, 161, 176, 176
-0.998299, 373, 159, 404, 174
-0.998301, 1, 161, 500, 224
-0.998303, 191, 153, 206, 184
-0.998305, 189, 145, 220, 160
-0.998311, 321, 161, 352, 176
-0.998315, 193, 151, 224, 166
-0.998316, 113, 177, 144, 240
-0.998318, 161, 157, 288, 188
-0.99832, 185, 137, 200, 200
-0.998322, 341, 155, 372, 170
-0.998325, 165, 161, 196, 176
-0.998326, 33, 161, 64, 176
-0.998342, 193, 167, 224, 182
-0.998359, 361, 159, 392, 174
-0.99836, 181, 155, 212, 170
-0.99836, 321, 155, 352, 170
-0.998399, 209, 161, 272, 224
-0.998402, 201, 161, 232, 176
-0.998403, 111, 153, 126, 216
-0.998416, 201, 153, 216, 184
-0.998417, 325, 153, 356, 216
-0.998422, 137, 129, 168, 192
-0.998431, 217, 153, 232, 216
-0.998435, 189, 161, 220, 176
-0.998453, 177, 161, 208, 176
-0.998485, 161, 129, 176, 192
-0.998486, 97, 129, 224, 160
-0.998498, 189, 129, 220, 256
-0.998531, 129, 177, 160, 240
-0.998551, 273, 153, 400, 184
-0.99857, 161, 161, 224, 176
-0.998586, 209, 149, 224, 180
-0.99861, 161, 167, 224, 182
-0.998612, 181, 141, 196, 172
-0.998615, 195, 141, 210, 172
-0.998622, 135, 129, 150, 192
-0.998628, 185, 157, 248, 172
-0.998635, 289, 155, 352, 170
-0.998646, 17, 161, 144, 192
-0.998655, 153, 155, 216, 170
-0.998657, 45, 153, 60, 216
-0.998661, 193, 163, 256, 178
-0.998662, 321, 157, 384, 172
-0.998667, 17, 177, 144, 240
-0.998669, 137, 161, 200, 176
-0.998669, 365, 145, 380, 208
-0.998672, 373, 153, 388, 216
-0.99869, 113, 161, 176, 176
-0.998691, 169, 147, 232, 162
-0.9987, 145, 145, 208, 160
-0.998706, 293, 153, 308, 216
-0.998711, 297, 161, 360, 176
-0.998715, 137, 169, 200, 184
-0.99872, 145, 137, 208, 152
-0.998721, 353, 159, 416, 174
-0.998728, 193, 129, 256, 256
-0.998733, 329, 151, 392, 166
-0.998738, 25, 161, 88, 176
-0.998745, 321, 163, 384, 178
-0.998749, 337, 153, 352, 184
-0.998749, 175, 161, 190, 224
-0.99875, 89, 161, 152, 176
-0.998751, 49, 161, 112, 176
-0.998752, 185, 169, 248, 184
-0.998754, 137, 131, 200, 146
-0.998754, 169, 137, 232, 152
-0.998757, 113, 169, 176, 184
-0.99876, 265, 155, 328, 170
-0.99876, 129, 155, 192, 170
-0.998762, 97, 155, 160, 170
-0.998762, 73, 167, 136, 182
-0.998772, 209, 157, 272, 172
-0.998773, 343, 153, 358, 216
-0.99878, 153, 129, 168, 192
-0.998781, 169, 131, 232, 146
-0.998782, 273, 161, 336, 176
-0.998785, 49, 155, 112, 170
-0.998785, 73, 155, 136, 170
-0.998786, 1, 159, 64, 174
-0.998786, 289, 149, 352, 164
-0.998786, 25, 177, 88, 192
-0.998788, 121, 149, 184, 164
-0.99879, 49, 177, 112, 192
-0.998792, 361, 153, 424, 168
-0.998793, 417, 183, 480, 198
-0.998793, 193, 151, 256, 166
-0.998794, 33, 169, 96, 184
-0.998795, 353, 165, 416, 180
-0.998796, 377, 163, 440, 178
-0.998797, 393, 175, 456, 190
-0.998798, 89, 173, 152, 188
-0.998801, 129, 175, 192, 190
-0.998802, 137, 125, 200, 140
-0.998803, 161, 173, 224, 188
-0.998804, 241, 159, 304, 174
-0.998807, 1, 179, 64, 194
-0.998808, 361, 175, 424, 190
-0.99881, 57, 183, 120, 198
-0.998812, 113, 131, 176, 146
-0.998813, 193, 143, 256, 158
-0.998813, 203, 141, 218, 172
-0.998813, 217, 163, 280, 178
-0.998813, 393, 183, 456, 198
-0.998815, 241, 153, 304, 168
-0.998819, 337, 145, 352, 208
-0.998819, 377, 203, 440, 218
-0.998821, 393, 157, 456, 172
-0.998821, 337, 175, 400, 190
-0.998822, 121, 141, 184, 156
-0.998822, 185, 175, 248, 190
-0.998823, 393, 211, 456, 226
-0.998824, 265, 213, 328, 228
-0.998824, 97, 179, 160, 194
-0.998825, 97, 149, 160, 164
-0.998825, 1, 153, 64, 168
-0.998826, 1, 223, 64, 238
-0.998827, 273, 221, 336, 236
-0.998827, 1, 165, 64, 180
-0.998828, 257, 181, 320, 196
-0.998828, 297, 221, 360, 236
-0.998829, 73, 215, 136, 230
-0.998829, 33, 183, 96, 198
-0.99883, 9, 171, 72, 186
-0.99883, 177, 125, 240, 140
-0.99883, 281, 181, 344, 196
-0.998831, 241, 215, 304, 230
-0.998831, 41, 213, 104, 228
-0.998831, 41, 191, 104, 206
-0.998831, 121, 203, 184, 218
-0.998832, 161, 191, 224, 206
-0.998832, 81, 207, 144, 222
-0.998833, 313, 175, 376, 190
-0.998833, 97, 213, 160, 228
-0.998833, 97, 235, 160, 250
-0.998833, 33, 221, 96, 236
-0.998834, 417, 175, 480, 190
-0.998834, 17, 189, 80, 204
-0.998834, 289, 245, 352, 260
-0.998835, 193, 183, 256, 198
-0.998835, 353, 181, 416, 196
-0.998835, 193, 197, 256, 212
-0.998835, 281, 237, 344, 252
-0.998835, 265, 205, 328, 220
-0.998835, 425, 209, 488, 224
-0.998836, 65, 241, 128, 256
-0.998836, 121, 197, 184, 212
-0.998836, 313, 215, 376, 230
-0.998836, 241, 221, 304, 236
-0.998837, 321, 183, 384, 198
-0.998837, 121, 209, 184, 224
-0.998837, 153, 201, 216, 216
-0.998837, 393, 217, 456, 232
-0.998837, 37, 153, 52, 216
-0.998837, 289, 205, 352, 220
-0.998837, 121, 229, 184, 244
-0.998837, 249, 237, 312, 252
-0.998838, 57, 221, 120, 236
-0.998838, 145, 237, 208, 252
-0.998838, 433, 203, 496, 218
-0.998839, 97, 227, 160, 242
-0.998839, 393, 243, 456, 258
-0.998839, 153, 223, 216, 238
-0.998839, 81, 197, 144, 212
-0.998839, 401, 163, 464, 178
-0.99884, 25, 155, 88, 170
-0.99884, 289, 199, 352, 214
-0.99884, 217, 173, 280, 188
-0.99884, 401, 193, 464, 208
-0.998841, 281, 175, 344, 190
-0.998841, 1, 195, 64, 210
-0.998841, 433, 277, 496, 292
-0.998841, 25, 229, 88, 244
-0.998841, 145, 185, 208, 200
-0.998842, 249, 199, 312, 214
-0.998842, 153, 179, 216, 194
-0.998842, 305, 233, 368, 248
-0.998842, 49, 197, 112, 212
-0.998842, 1, 233, 64, 248
-0.998848, 215, 153, 230, 184
-0.998878, 123, 177, 138, 240
-0.998879, 177, 125, 192, 156
-0.998886, 187, 141, 202, 172
-0.998891, 143, 161, 158, 192
-0.9989, 53, 153, 68, 216
-0.998901, 365, 153, 380, 184
-0.998919, 199, 169, 214, 200
-0.998921, 169, 157, 184, 188
-0.998934, 123, 161, 138, 192
-0.998936, 141, 129, 156, 192
-0.998941, 165, 177, 180, 240
-0.998942, 209, 161, 224, 192
-0.998947, 117, 177, 132, 240
-0.998948, 149, 177, 180, 240
-0.99897, 321, 129, 448, 192
-0.998975, 159, 177, 174, 240
-0.998991, 193, 165, 208, 196
-0.999021, 163, 161, 178, 192
-0.999031, 293, 157, 308, 188
-0.999035, 177, 157, 192, 188
-0.999052, 223, 153, 238, 216
-0.999058, 115, 161, 130, 192
-0.999071, 209, 121, 224, 184
-0.999071, 185, 161, 200, 192
-0.999077, 105, 161, 120, 224
-0.999077, 221, 157, 236, 188
-0.999089, 65, 169, 192, 200
-0.999107, 209, 157, 336, 188
-0.99911, 217, 129, 232, 192
-0.999121, 43, 161, 58, 192
-0.999136, 331, 145, 346, 176
-0.999139, 145, 177, 160, 240
-0.999141, 151, 161, 166, 192
-0.999143, 129, 161, 144, 192
-0.999143, 137, 157, 152, 188
-0.999147, 185, 129, 200, 160
-0.999156, 169, 169, 184, 200
-0.99916, 373, 157, 388, 188
-0.99917, 177, 113, 192, 176
-0.999175, 343, 157, 358, 188
-0.999178, 109, 161, 124, 192
-0.999183, 299, 153, 314, 216
-0.999191, 161, 169, 288, 200
-0.999199, 199, 129, 214, 160
-0.999204, 205, 129, 220, 160
-0.999205, 359, 153, 374, 216
-0.999205, 153, 177, 168, 240
-0.999206, 129, 177, 144, 240
-0.99921, 187, 161, 202, 224
-0.999215, 37, 157, 52, 188
-0.999233, 53, 157, 68, 188
-0.999238, 135, 169, 150, 200
-0.999256, 409, 153, 472, 216
-0.999271, 379, 153, 394, 216
-0.999272, 157, 161, 172, 192
-0.999304, 215, 141, 230, 172
-0.999309, 111, 177, 126, 240
-0.99932, 359, 157, 374, 188
-0.999323, 71, 161, 86, 224
-0.99933, 327, 157, 342, 188
-0.999341, 299, 157, 314, 188
-0.999348, 1, 49, 500, 176
-0.99936, 203, 177, 218, 240
-0.999363, 31, 165, 46, 196
-0.999365, 375, 129, 390, 192
-0.999365, 331, 145, 346, 208
-0.999367, 175, 137, 190, 168
-0.999368, 459, 177, 474, 208
-0.999369, 319, 153, 334, 184
-0.99937, 193, 133, 320, 164
-0.999372, 459, 169, 474, 232
-0.999374, 153, 177, 216, 240
-0.999375, 321, 157, 448, 188
-0.999379, 149, 149, 164, 180
-0.999384, 17, 149, 144, 180
-0.99939, 79, 169, 94, 232
-0.9994, 103, 161, 118, 192
-0.999405, 121, 155, 136, 170
-0.999405, 157, 131, 172, 146
-0.999405, 27, 177, 42, 192
-0.999406, 213, 143, 228, 158
-0.999406, 83, 171, 98, 186
-0.999406, 1, 209, 128, 272
-0.999406, 215, 175, 230, 190
-0.999406, 307, 161, 322, 176
-0.999406, 419, 163, 434, 178
-0.999406, 55, 155, 70, 170
-0.999406, 383, 165, 398, 180
-0.999407, 373, 165, 388, 180
-0.999407, 93, 155, 108, 170
-0.999409, 287, 153, 302, 184
-0.99941, 145, 169, 160, 184
-0.99941, 173, 173, 188, 188
-0.99941, 131, 169, 146, 184
-0.999411, 39, 153, 54, 168
-0.999412, 129, 161, 144, 176
-0.999413, 393, 165, 408, 180
-0.999413, 295, 153, 310, 168
-0.999414, 441, 181, 456, 196
-0.999414, 377, 153, 392, 168
-0.999415, 153, 169, 168, 184
-0.999415, 93, 169, 108, 184
-0.999415, 397, 173, 412, 188
-0.999415, 301, 161, 316, 176
-0.999416, 247, 157, 262, 172
-0.999416, 401, 161, 416, 176
-0.999417, 47, 129, 62, 192
-0.999417, 139, 161, 154, 176
-0.999417, 71, 165, 86, 196
-0.999418, 369, 177, 496, 240
-0.999419, 33, 155, 48, 170
-0.999419, 27, 159, 42, 174
-0.99942, 189, 171, 204, 186
-0.99942, 459, 183, 474, 198
-0.99942, 129, 173, 144, 204
-0.99942, 139, 169, 154, 184
-0.99942, 193, 135, 208, 150
-0.999421, 289, 159, 304, 174
-0.999421, 231, 159, 246, 174
-0.999422, 205, 173, 220, 204
-0.999422, 83, 165, 98, 180
-0.999423, 115, 149, 130, 180
-0.999424, 179, 123, 194, 138
-0.999424, 83, 179, 98, 194
-0.999425, 167, 129, 182, 144
-0.999425, 99, 169, 114, 184
-0.999426, 217, 153, 232, 168
-0.999426, 315, 161, 330, 176
-0.999429, 201, 145, 216, 160
-0.99943, 199, 129, 214, 144
-0.999431, 163, 155, 178, 170
-0.999432, 225, 163, 240, 178
-0.999432, 465, 177, 480, 208
-0.999432, 451, 181, 466, 196
-0.999432, 19, 179, 34, 194
-0.999432, 147, 153, 162, 168
-0.999434, 379, 157, 394, 188
-0.999435, 105, 161, 120, 176
-0.999435, 167, 145, 182, 176
-0.999435, 113, 167, 128, 182
-0.999439, 155, 155, 170, 170
-0.999439, 57, 161, 72, 176
-0.99944, 347, 161, 362, 176
-0.99944, 389, 159, 404, 174
-0.99944, 179, 153, 194, 168
-0.99944, 375, 145, 390, 176
-0.999441, 89, 161, 104, 176
-0.999441, 123, 161, 138, 176
-0.999442, 217, 165, 232, 180
-0.999443, 395, 159, 410, 174
-0.999443, 327, 161, 342, 176
-0.999445, 357, 153, 372, 168
-0.999445, 295, 159, 310, 174
-0.999446, 49, 155, 64, 170
-0.999448, 123, 149, 138, 180
-0.999448, 465, 169, 480, 232
-0.999448, 343, 145, 358, 176
-0.999449, 173, 135, 188, 150
-0.99945, 159, 149, 174, 180
-0.999451, 179, 167, 194, 182
-0.999451, 107, 167, 122, 182
-0.999451, 215, 165, 230, 196
-0.999454, 353, 159, 368, 174
-0.999454, 333, 149, 348, 164
-0.999454, 203, 137, 218, 152
-0.999456, 171, 155, 186, 170
-0.999457, 293, 145, 308, 176
-0.999458, 113, 161, 128, 176
-0.999459, 65, 145, 192, 176
-0.999459, 161, 161, 176, 176
-0.999459, 173, 123, 188, 138
-0.999459, 147, 159, 162, 174
-0.99946, 171, 121, 186, 152
-0.99946, 185, 133, 200, 148
-0.99946, 347, 155, 362, 170
-0.999461, 195, 145, 210, 160
-0.999461, 305, 149, 320, 180
-0.999463, 175, 169, 190, 200
-0.999463, 301, 155, 316, 170
-0.999465, 185, 165, 200, 180
-0.999465, 325, 155, 340, 170
-0.999466, 99, 161, 114, 176
-0.999466, 173, 129, 188, 144
-0.999466, 103, 149, 118, 180
-0.999466, 383, 159, 398, 174
-0.999469, 159, 169, 174, 184
-0.999469, 365, 153, 380, 168
-0.999469, 321, 161, 336, 176
-0.999469, 77, 173, 92, 204
-0.99947, 207, 145, 222, 160
-0.999472, 371, 153, 386, 168
-0.999473, 47, 145, 62, 176
-0.999475, 293, 129, 308, 192
-0.999476, 335, 161, 350, 176
-0.999477, 109, 149, 124, 180
-0.999477, 33, 161, 48, 176
-0.999481, 39, 159, 54, 174
-0.999481, 311, 155, 326, 170
-0.999483, 51, 161, 66, 176
-0.999483, 209, 167, 224, 182
-0.999484, 179, 147, 194, 162
-0.999485, 177, 113, 208, 240
-0.999486, 153, 161, 168, 176
-0.999486, 179, 135, 194, 150
-0.999487, 319, 155, 334, 170
-0.999489, 201, 151, 216, 166
-0.99949, 63, 161, 78, 224
-0.99949, 359, 159, 374, 174
-0.999494, 145, 121, 272, 152
-0.999496, 197, 169, 212, 184
-0.999496, 341, 153, 356, 168
-0.999496, 85, 165, 100, 196
-0.999499, 223, 157, 238, 172
-0.999499, 165, 167, 180, 182
-0.9995, 35, 129, 50, 192
-0.999503, 187, 139, 202, 154
-0.999503, 337, 141, 352, 172
-0.999505, 179, 141, 194, 156
-0.999505, 211, 161, 226, 176
-0.999505, 31, 153, 46, 216
-0.999506, 91, 161, 106, 192
-0.999507, 185, 153, 200, 168
-0.99951, 377, 159, 392, 174
-0.999514, 131, 149, 146, 180
-0.999514, 143, 149, 158, 180
-0.999515, 179, 129, 194, 144
-0.999516, 191, 129, 206, 160
-0.999517, 227, 153, 242, 184
-0.999519, 185, 145, 200, 160
-0.999522, 211, 155, 226, 170
-0.999522, 35, 145, 50, 176
-0.999522, 311, 157, 326, 188
-0.999523, 177, 161, 192, 176
-0.999524, 195, 151, 210, 166
-0.999525, 353, 153, 368, 184
-0.999525, 45, 161, 60, 176
-0.99953, 311, 161, 326, 224
-0.999531, 171, 167, 186, 182
-0.999532, 217, 159, 232, 174
-0.999533, 203, 167, 218, 182
-0.999538, 25, 161, 40, 192
-0.99954, 221, 145, 236, 176
-0.999541, 363, 141, 378, 172
-0.999549, 187, 159, 202, 174
-0.999552, 325, 145, 340, 176
-0.999553, 167, 161, 182, 176
-0.999554, 97, 153, 112, 184
-0.999558, 193, 163, 208, 178
-0.99956, 287, 145, 302, 208
-0.99956, 371, 159, 386, 174
-0.999563, 341, 159, 356, 174
-0.999575, 161, 225, 288, 288
-0.999576, 117, 173, 132, 204
-0.999581, 199, 161, 214, 176
-0.999583, 331, 155, 346, 170
-0.999583, 25, 181, 40, 212
-0.999586, 91, 149, 106, 180
-0.999587, 321, 145, 336, 208
-0.999595, 113, 173, 240, 204
-0.999596, 163, 173, 178, 204
-0.999601, 141, 173, 156, 204
-0.999603, 309, 209, 324, 240
-0.999604, 161, 249, 288, 312
-0.999605, 59, 161, 74, 192
-0.999606, 205, 161, 220, 176
-0.999607, 193, 157, 208, 172
-0.999608, 67, 177, 82, 208
-0.999612, 365, 159, 380, 174
-0.999612, 139, 177, 154, 240
-0.999616, 241, 225, 368, 288
-0.99962, 319, 141, 334, 172
-0.999621, 303, 129, 318, 192
-0.999623, 373, 153, 404, 216
-0.999627, 125, 129, 140, 192
-0.99963, 123, 173, 138, 204
-0.999631, 137, 145, 152, 176
-0.999632, 299, 145, 314, 176
-0.999633, 157, 137, 172, 168
-0.999636, 471, 181, 486, 212
-0.999646, 77, 161, 92, 192
-0.99965, 387, 153, 402, 184
-0.999652, 31, 177, 46, 208
-0.999654, 83, 177, 98, 208
-0.999657, 459, 189, 474, 220
-0.999658, 145, 137, 160, 168
-0.99966, 183, 117, 198, 148
-0.99966, 169, 133, 184, 164
-0.999665, 303, 205, 318, 236
-0.999669, 25, 161, 40, 224
-0.99967, 453, 177, 468, 208
-0.999671, 157, 173, 172, 204
-0.999673, 225, 161, 480, 288
-0.999679, 211, 169, 226, 232
-0.999684, 197, 117, 212, 148
-0.999686, 125, 129, 156, 192
-0.999687, 103, 137, 118, 200
-0.999689, 177, 113, 192, 144
-0.999691, 141, 125, 156, 156
-0.999692, 201, 169, 232, 232
-0.999692, 65, 161, 80, 192
-0.999696, 177, 201, 304, 264
-0.999697, 309, 197, 324, 228
-0.999698, 163, 125, 178, 156
-0.9997, 317, 205, 332, 236
-0.999708, 321, 165, 336, 196
-0.999709, 85, 161, 100, 224
-0.999709, 1, 177, 128, 208
-0.999715, 111, 173, 126, 204
-0.999718, 419, 213, 434, 244
-0.99972, 285, 161, 316, 224
-0.999722, 53, 145, 68, 176
-0.999722, 19, 169, 34, 200
-0.999727, 157, 125, 172, 156
-0.999728, 149, 125, 164, 156
-0.999734, 343, 233, 358, 264
-0.999736, 353, 129, 368, 192
-0.999737, 207, 117, 222, 148
-0.999737, 41, 145, 56, 176
-0.999739, 141, 197, 156, 228
-0.99974, 471, 169, 486, 200
-0.99974, 425, 209, 440, 240
-0.999766, 363, 121, 378, 184
-0.999781, 181, 161, 196, 224
-0.999783, 177, 129, 192, 256
-0.999794, 145, 133, 272, 164
-0.999794, 99, 161, 114, 224
-0.999795, 69, 169, 100, 232
-0.999798, 33, 145, 160, 272
-0.9998, 191, 113, 206, 176
-0.999802, 49, 209, 176, 272
-0.999803, 61, 137, 76, 200
-0.99981, 471, 169, 486, 232
-0.999825, 187, 113, 202, 240
-0.999831, 451, 153, 466, 216
-0.999835, 183, 113, 198, 176
-0.999836, 385, 145, 400, 208
-0.999836, 201, 129, 216, 256
-0.999836, 225, 145, 352, 176
-0.999839, 223, 129, 238, 192
-0.999844, 97, 209, 352, 333
-0.999855, 341, 153, 372, 216
-0.999855, 113, 129, 128, 192
-0.999855, 337, 249, 464, 312
-0.999878, 193, 113, 208, 240
-0.999884, 71, 137, 86, 200
-0.999898, 343, 129, 358, 192
-0.999899, 145, 81, 208, 208
-0.999906, 169, 113, 184, 240
-0.999907, 369, 209, 496, 272
-0.999919, 321, 209, 448, 272
-0.999923, 321, 145, 448, 176
-0.999929, 207, 113, 222, 240
-0.999932, 89, 153, 120, 216
-0.999934, 53, 129, 68, 192
-0.999934, 349, 161, 364, 224
-0.999944, 465, 193, 480, 256
-0.999949, 273, 165, 400, 196
-0.999955, 93, 169, 108, 232
-0.999956, 459, 193, 474, 256
-0.999958, 229, 145, 244, 208
-0.99996, 195, 161, 210, 288
-0.999961, 453, 185, 468, 248
-0.999969, 331, 121, 346, 184
-0.99997, 225, 201, 352, 232
-0.999975, 199, 81, 214, 208
-0.999989, 41, 129, 56, 192
-0.999991, 163, 161, 178, 288
-0.999996, 31, 161, 46, 288
-1, 209, 161, 224, 288
-1, 23, 177, 38, 304
-1.00001, 155, 129, 170, 256
-1.00001, 175, 81, 190, 208
-1.00001, 305, 201, 432, 232
-1.00001, 321, 169, 336, 232
-1.00001, 81, 117, 208, 148
-1.00001, 183, 161, 198, 288
-1.00001, 369, 153, 496, 184
-1.00002, 181, 81, 196, 208
-1.00002, 273, 141, 400, 172
-1.00002, 119, 129, 134, 192
-1.00002, 203, 177, 218, 304
-1.00002, 95, 161, 110, 288
-1.00003, 143, 129, 158, 256
-1.00003, 87, 161, 102, 288
-1.00004, 163, 113, 178, 240
-1.00005, 225, 153, 480, 216
-1.00005, 7, 1, 22, 128
-1.00005, 169, 161, 184, 288
-1.00006, 327, 169, 342, 232
-1.00006, 215, 145, 230, 272
-1.00006, 149, 113, 164, 240
-1.00007, 333, 129, 348, 256
-1.00007, 177, 177, 192, 304
-1.00007, 187, 65, 202, 192
-1.00007, 13, 1, 28, 128
-1.00007, 199, 225, 214, 288
-1.00007, 43, 177, 58, 304
-1.00008, 1, 193, 16, 320
-1.00008, 73, 185, 88, 248
-1.00008, 1, 1, 16, 128
-1.00008, 11, 177, 26, 304
-1.00009, 375, 145, 390, 272
-1.00009, 79, 145, 94, 272
-1.00009, 35, 113, 50, 240
-1.00009, 457, 145, 472, 272
-1.00009, 93, 209, 108, 333
-1.00009, 393, 161, 408, 288
-1.00009, 257, 193, 272, 320
-1.0001, 481, 161, 496, 224
-1.0001, 265, 193, 280, 320
-1.0001, 265, 145, 280, 272
-1.0001, 193, 65, 208, 192
-1.0001, 59, 145, 74, 272
-1.0001, 189, 161, 204, 288
-1.0001, 37, 177, 52, 304
-1.0001, 105, 177, 120, 304
-1.0001, 125, 161, 140, 288
-1.0001, 451, 209, 466, 333
-1.0001, 29, 113, 44, 240
-1.0001, 1, 145, 16, 272
-1.00011, 327, 129, 342, 256
-1.00011, 459, 193, 474, 320
-1.00011, 285, 145, 300, 272
-1.00011, 427, 209, 442, 333
-1.00011, 137, 113, 152, 240
-1.00011, 343, 145, 358, 272
-1.00011, 259, 145, 274, 272
-1.00011, 71, 177, 86, 304
-1.00011, 249, 193, 264, 320
-1.00011, 465, 193, 480, 320
-1.00011, 369, 173, 496, 204
-1.00011, 19, 129, 34, 256
-1.00011, 149, 161, 164, 288
-1.00011, 385, 161, 400, 288
-1.00011, 297, 145, 312, 272
-1.00011, 343, 193, 358, 320
-1.00011, 369, 145, 384, 272
-1.00011, 399, 145, 414, 272
-1.00011, 417, 177, 432, 304
-1.00011, 409, 145, 424, 272
-1.00011, 429, 145, 444, 272
-1.00012, 281, 193, 296, 320
-1.00012, 19, 1, 34, 128
-1.00012, 25, 1, 40, 128
-1.00012, 275, 145, 290, 272
-1.00012, 467, 145, 482, 272
-1.00012, 97, 273, 224, 333
-1.00012, 169, 65, 184, 192
-1.00012, 321, 161, 336, 288
-1.00012, 315, 145, 330, 272
-1.00012, 155, 81, 170, 208
-1.00012, 213, 97, 228, 224
-1.00012, 163, 65, 178, 192
-1.00013, 449, 145, 464, 272
-1.00013, 337, 209, 352, 333
-1.00013, 239, 161, 254, 288
-1.00013, 437, 209, 452, 333
-1.00013, 363, 145, 378, 272
-1.00013, 435, 145, 450, 272
-1.00013, 131, 161, 146, 288
-1.00013, 225, 217, 352, 248
-1.00013, 253, 145, 268, 272
-1.00013, 131, 209, 146, 333
-1.00013, 461, 145, 476, 208
-1.00013, 49, 177, 64, 304
-1.00013, 207, 65, 222, 192
-1.00013, 93, 113, 108, 240
-1.00013, 157, 193, 172, 320
-1.00013, 287, 193, 302, 320
-1.00013, 413, 209, 428, 272
-1.00013, 291, 145, 306, 272
-1.00014, 167, 105, 182, 168
-1.00014, 475, 193, 490, 320
-1.00014, 187, 209, 202, 333
-1.00014, 271, 193, 286, 320
-1.00014, 309, 209, 324, 333
-1.00014, 353, 145, 368, 272
-1.00014, 85, 209, 100, 333
-1.00014, 303, 145, 318, 272
-1.00014, 227, 193, 242, 320
-1.00014, 423, 145, 438, 272
-1.00014, 443, 145, 458, 272
-1.00014, 31, 1, 46, 128
-1.00014, 11, 129, 26, 256
-1.00014, 65, 145, 80, 272
-1.00014, 115, 161, 130, 288
-1.00014, 309, 145, 324, 272
-1.00014, 163, 209, 178, 333
-1.00014, 85, 113, 100, 240
-1.00014, 401, 193, 416, 320
-1.00014, 407, 193, 422, 320
-1.00015, 479, 145, 494, 272
-1.00015, 229, 145, 244, 272
-1.00015, 137, 193, 152, 320
-1.00015, 25, 129, 40, 192
-1.00015, 271, 161, 286, 224
-1.00015, 47, 129, 62, 256
-1.00015, 329, 193, 344, 320
-1.00015, 219, 97, 234, 224
-1.00015, 349, 193, 364, 320
-1.00015, 117, 209, 132, 333
-1.00015, 77, 193, 92, 320
-1.00015, 375, 209, 390, 333
-1.00016, 473, 145, 488, 272
-1.00016, 39, 1, 54, 128
-1.00016, 315, 193, 330, 320
-1.00016, 367, 193, 382, 320
-1.00016, 65, 213, 192, 244
-1.00017, 315, 129, 330, 192
-1.00018, 87, 137, 102, 200
-1.00018, 49, 197, 176, 228
-1.00018, 395, 161, 410, 224
-1.00018, 241, 189, 368, 220
-1.00018, 65, 181, 192, 212
-1.00018, 241, 161, 256, 224
-1.00018, 419, 201, 434, 264
-1.00019, 97, 137, 112, 200
-1.0002, 277, 209, 292, 272
-1.0002, 97, 225, 224, 288
-1.0002, 271, 209, 286, 272
-1.0002, 337, 121, 352, 184
-1.00021, 17, 213, 144, 244
-1.00021, 305, 161, 320, 224
-1.00022, 77, 145, 92, 208
-1.00023, 209, 257, 336, 320
-1.00023, 471, 145, 486, 208
-1.00023, 19, 169, 34, 232
-1.00023, 37, 1, 52, 64
-1.00023, 261, 161, 276, 224
-1.00023, 413, 161, 428, 224
-1.00024, 289, 185, 416, 216
-1.00024, 387, 121, 402, 184
-1.00024, 369, 197, 496, 228
-1.00024, 251, 161, 266, 224
-1.00024, 365, 169, 380, 232
-1.00025, 281, 161, 296, 224
-1.00026, 477, 185, 492, 248
-1.00026, 99, 209, 114, 272
-1.00026, 323, 249, 338, 312
-1.00026, 161, 109, 288, 140
-1.00026, 257, 233, 384, 264
-1.00026, 305, 221, 432, 252
-1.00027, 65, 225, 192, 256
-1.00029, 17, 241, 144, 304
-1.0003, 129, 233, 256, 264
-1.0003, 369, 121, 496, 184
-1.00031, 145, 185, 272, 216
-1.00033, 17, 253, 144, 284
-1.00034, 321, 233, 448, 264
-1.00036, 353, 217, 480, 248
-1.00037, 129, 261, 256, 292
-1.00038, 193, 257, 320, 288
-1.00039, 1, 113, 256, 176
-1.0004, 81, 249, 208, 312
-1.00041, 177, 233, 304, 264
-1.00042, 353, 185, 480, 216
-1.00042, 257, 245, 384, 276
-1.00042, 57, 161, 88, 224
-1.00043, 113, 221, 240, 252
-1.00045, 41, 145, 104, 208
-1.00045, 81, 245, 208, 276
-1.00046, 369, 141, 496, 172
-1.00046, 161, 197, 288, 228
-1.00046, 97, 197, 224, 228
-1.00047, 81, 105, 208, 136
-1.00047, 1, 197, 128, 228
-1.00048, 177, 245, 304, 276
-1.00049, 129, 185, 256, 248
-1.0005, 17, 225, 144, 256
-1.0005, 177, 209, 304, 240
-1.0005, 49, 133, 176, 164
-1.0005, 289, 265, 416, 328
-1.00051, 97, 277, 224, 308
-1.00051, 49, 297, 176, 328
-1.00052, 225, 173, 352, 204
-1.00053, 129, 209, 256, 240
-1.00053, 1, 1, 128, 32
-1.00054, 193, 121, 320, 152
-1.00054, 97, 289, 224, 320
-1.00054, 129, 245, 256, 276
-1.00056, 369, 237, 496, 268
-1.00057, 177, 273, 304, 304
-1.00057, 193, 185, 320, 216
-1.00057, 17, 241, 144, 272
-1.00058, 137, 1, 200, 333
-1.00058, 81, 265, 208, 296
-1.00059, 337, 269, 464, 300
-1.00059, 257, 281, 384, 312
-1.0006, 33, 265, 160, 296
-1.00061, 329, 121, 392, 184
-1.00061, 369, 249, 496, 280
-1.00063, 177, 105, 304, 168
-1.00064, 161, 221, 288, 252
-1.00064, 17, 281, 144, 312
-1.00066, 369, 301, 496, 332
-1.00067, 97, 301, 224, 332
-1.00067, 225, 193, 352, 256
-1.00068, 257, 265, 384, 296
-1.00069, 305, 185, 432, 248
-1.00069, 177, 1, 240, 333
-1.00069, 193, 129, 448, 192
-1.00069, 321, 281, 448, 312
-1.00069, 321, 173, 448, 204
-1.00069, 65, 129, 128, 192
-1.00069, 225, 293, 352, 324
-1.00072, 181, 65, 212, 320
-1.00073, 321, 249, 448, 280
-1.00074, 1, 1, 128, 64
-1.00075, 177, 285, 304, 316
-1.00078, 165, 113, 196, 240
-1.00083, 33, 185, 288, 248
-1.00083, 1, 293, 128, 324
-1.00083, 33, 121, 160, 152
-1.00084, 321, 301, 448, 332
-1.00084, 177, 297, 304, 328
-1.00085, 145, 273, 272, 333
-1.00085, 337, 273, 464, 333
-1.00087, 49, 1, 176, 32
-1.00088, 273, 293, 400, 324
-1.00089, 369, 281, 496, 312
-1.00089, 321, 133, 448, 164
-1.00091, 1, 133, 128, 164
-1.00091, 257, 257, 500, 320
-1.00093, 213, 129, 244, 192
-1.00094, 349, 129, 380, 192
-1.00094, 457, 177, 488, 240
-1.00094, 225, 209, 480, 272
-1.00097, 273, 129, 400, 160
-1.00098, 161, 249, 416, 312
-1.00098, 193, 65, 224, 320
-1.00099, 257, 185, 500, 248
-1.001, 129, 97, 256, 128
-1.00101, 169, 65, 200, 320
-1.00101, 217, 137, 280, 200
-1.00102, 1, 137, 500, 200
-1.00103, 81, 93, 208, 124
-1.00104, 169, 113, 200, 176
-1.00105, 33, 109, 160, 140
-1.00107, 185, 81, 248, 208
-1.00107, 289, 233, 416, 296
-1.00107, 369, 65, 496, 96
-1.00107, 81, 69, 208, 100
-1.00107, 273, 69, 400, 100
-1.00107, 321, 69, 448, 100
-1.00107, 33, 73, 160, 104
-1.00107, 129, 73, 256, 104
-1.00107, 225, 73, 352, 104
-1.00107, 177, 77, 304, 108
-1.00107, 369, 77, 496, 108
-1.00107, 81, 81, 208, 112
-1.00107, 273, 81, 400, 112
-1.00107, 321, 81, 448, 112
-1.00107, 33, 85, 160, 116
-1.00107, 129, 85, 256, 116
-1.00107, 225, 85, 352, 116
-1.00107, 177, 89, 304, 120
-1.00107, 369, 89, 496, 120
-1.00107, 273, 93, 400, 124
-1.00107, 321, 93, 448, 124
-1.00107, 17, 97, 144, 128
-1.00107, 225, 97, 352, 128
-1.00107, 369, 101, 496, 132
-1.00107, 273, 105, 400, 136
-1.00107, 321, 105, 448, 136
-1.00107, 225, 109, 352, 140
-1.00107, 369, 113, 496, 144
-1.00107, 273, 117, 400, 148
-1.00107, 321, 117, 448, 148
-1.00107, 369, 125, 496, 156
-1.00109, 81, 105, 208, 168
-1.00111, 153, 65, 184, 320
-1.00113, 1, 177, 256, 304
-1.00114, 33, 225, 288, 288
-1.00117, 241, 129, 304, 192
-1.00118, 137, 65, 168, 320
-1.00119, 25, 65, 56, 320
-1.0012, 1, 265, 128, 328
-1.00122, 97, 65, 128, 320
-1.00122, 209, 65, 240, 320
-1.00128, 65, 273, 320, 333
-1.00129, 305, 65, 336, 320
-1.00131, 129, 225, 384, 288
-1.00132, 77, 65, 108, 320
-1.00132, 57, 65, 88, 320
-1.00134, 129, 177, 384, 240
-1.00134, 277, 65, 308, 320
-1.00135, 125, 65, 156, 320
-1.00138, 325, 65, 356, 320
-1.00138, 201, 1, 264, 333
-1.00139, 1, 65, 32, 320
-1.00139, 37, 65, 68, 320
-1.00139, 433, 65, 464, 320
-1.0014, 161, 273, 416, 333
-1.00142, 345, 65, 376, 320
-1.00143, 353, 161, 480, 288
-1.00143, 113, 33, 144, 288
-1.00144, 453, 65, 484, 320
-1.00144, 257, 33, 288, 288
-1.00145, 1, 249, 256, 312
-1.00147, 393, 65, 424, 320
-1.00149, 421, 65, 452, 320
-1.0015, 365, 65, 396, 320
-1.0015, 293, 65, 324, 320
-1.0015, 409, 65, 440, 320
-1.00151, 301, 145, 332, 208
-1.00152, 73, 1, 136, 333
-1.00154, 245, 65, 276, 320
-1.00154, 233, 65, 264, 320
-1.00155, 1, 1, 256, 64
-1.00155, 13, 65, 44, 320
-1.00157, 381, 65, 412, 320
-1.00157, 469, 65, 500, 320
-1.00158, 129, 201, 384, 264
-1.00159, 221, 33, 252, 288
-1.00159, 161, 81, 416, 208
-1.0016, 53, 137, 84, 200
-1.00161, 193, 105, 448, 168
-1.00165, 241, 1, 304, 333
-1.00167, 257, 233, 500, 296
-1.00172, 289, 1, 352, 333
-1.00175, 161, 81, 288, 208
-1.00178, 425, 1, 488, 333
-1.00182, 345, 1, 408, 333
-1.00185, 37, 129, 68, 192
-1.00193, 33, 89, 288, 152
-1.00199, 33, 1, 96, 333
-1.00204, 129, 81, 384, 144
-1.00204, 1, 1, 64, 333
-1.00205, 65, 97, 192, 224
-1.00205, 265, 1, 328, 333
-1.00206, 113, 1, 176, 333
-1.00207, 313, 169, 376, 232
-1.0021, 33, 65, 288, 128
-1.00212, 161, 9, 416, 72
-1.00212, 257, 9, 500, 72
-1.00212, 161, 33, 416, 96
-1.00212, 257, 33, 500, 96
-1.00212, 65, 41, 320, 104
-1.00212, 161, 57, 416, 120
-1.00212, 257, 57, 500, 120
-1.00212, 257, 81, 500, 144
-1.00212, 129, 89, 256, 152
-1.00214, 273, 145, 304, 208
-1.00215, 1, 1, 500, 128
-1.00216, 401, 1, 464, 333
-1.00218, 109, 129, 140, 192
-1.00218, 201, 129, 232, 256
-1.00222, 313, 1, 376, 333
-1.00222, 113, 177, 240, 304
-1.00228, 325, 129, 356, 192
-1.00229, 101, 177, 132, 240
-1.00234, 385, 153, 448, 216
-1.00236, 193, 209, 448, 333
-1.00237, 393, 209, 456, 272
-1.00238, 273, 97, 400, 160
-1.00243, 369, 1, 432, 333
-1.00245, 369, 121, 432, 184
-1.00251, 409, 185, 472, 248
-1.00252, 49, 273, 176, 333
-1.00253, 49, 81, 176, 144
-1.00259, 49, 1, 176, 64
-1.00261, 1, 241, 500, 304
-1.00273, 1, 201, 500, 264
-1.00273, 225, 145, 256, 208
-1.00274, 17, 153, 48, 216
-1.00275, 181, 105, 212, 168
-1.00278, 361, 129, 392, 192
-1.00279, 121, 113, 184, 240
-1.00283, 113, 65, 240, 128
-1.00288, 321, 89, 448, 152
-1.00291, 273, 1, 400, 64
-1.00291, 177, 9, 304, 72
-1.00291, 225, 9, 352, 72
-1.00291, 129, 17, 256, 80
-1.00291, 321, 17, 448, 80
-1.00291, 369, 17, 496, 80
-1.00291, 33, 25, 160, 88
-1.00291, 273, 25, 400, 88
-1.00291, 81, 33, 208, 96
-1.00291, 177, 33, 304, 96
-1.00291, 225, 33, 352, 96
-1.00291, 129, 41, 256, 104
-1.00291, 321, 41, 448, 104
-1.00291, 369, 41, 496, 104
-1.00291, 17, 49, 144, 112
-1.00291, 273, 49, 400, 112
-1.00291, 65, 57, 192, 120
-1.00291, 177, 57, 304, 120
-1.00291, 225, 57, 352, 120
-1.00291, 321, 65, 448, 128
-1.00291, 369, 65, 496, 128
-1.00291, 1, 73, 128, 136
-1.00291, 273, 73, 400, 136
-1.00291, 225, 81, 352, 144
-1.00291, 369, 89, 496, 152
-1.00291, 1, 97, 128, 160
-1.00294, 265, 209, 328, 272
-1.00296, 457, 153, 488, 216
-1.00296, 445, 169, 476, 232
-1.00298, 1, 265, 500, 328
-1.00305, 1, 161, 64, 288
-1.00311, 1, 113, 500, 176
-1.00316, 289, 161, 416, 288
-1.00332, 313, 161, 344, 224
-1.00333, 433, 161, 496, 224
-1.00335, 225, 105, 352, 168
-1.00336, 289, 233, 352, 296
-1.00338, 161, 265, 224, 328
-1.00342, 177, 81, 304, 144
-1.00343, 161, 105, 224, 168
-1.00344, 153, 113, 184, 240
-1.00354, 169, 161, 200, 288
-1.00357, 141, 129, 172, 256
-1.00359, 409, 257, 472, 320
-1.00365, 241, 161, 368, 288
-1.00368, 25, 177, 88, 240
-1.00368, 305, 257, 368, 320
-1.00373, 25, 161, 56, 288
-1.00373, 17, 1, 80, 64
-1.00374, 1, 89, 500, 152
-1.0038, 69, 145, 100, 208
-1.00386, 381, 129, 412, 192
-1.00387, 1, 33, 500, 96
-1.00387, 1, 57, 500, 120
-1.00389, 1, 1, 500, 64
-1.00389, 89, 217, 152, 280
-1.00393, 1, 81, 256, 208
-1.00394, 193, 113, 256, 176
-1.00394, 1, 185, 64, 248
-1.00397, 193, 177, 224, 304
-1.00398, 337, 129, 368, 192
-1.00406, 189, 81, 220, 208
-1.0041, 137, 273, 200, 333
-1.00411, 305, 209, 432, 333
-1.00417, 73, 241, 136, 304
-1.00418, 161, 193, 288, 320
-1.00422, 81, 177, 112, 240
-1.00426, 241, 209, 304, 272
-1.00428, 257, 265, 320, 328
-1.00428, 329, 265, 392, 328
-1.00432, 21, 129, 52, 192
-1.00433, 369, 209, 432, 272
-1.00437, 469, 169, 500, 232
-1.0044, 289, 209, 352, 272
-1.00441, 81, 161, 112, 288
-1.00446, 113, 81, 240, 208
-1.00447, 189, 177, 220, 240
-1.00457, 65, 193, 192, 320
-1.0046, 321, 225, 384, 288
-1.00461, 125, 129, 156, 256
-1.00465, 273, 185, 336, 248
-1.00465, 73, 265, 136, 328
-1.00465, 177, 241, 240, 304
-1.00467, 209, 113, 336, 240
-1.00469, 433, 137, 496, 200
-1.00471, 417, 209, 448, 272
-1.00474, 49, 233, 112, 296
-1.00474, 233, 265, 296, 328
-1.00475, 153, 65, 216, 320
-1.00477, 369, 265, 432, 328
-1.00481, 137, 105, 200, 168
-1.00485, 17, 129, 80, 192
-1.00486, 13, 161, 44, 288
-1.00486, 17, 193, 144, 320
-1.00488, 193, 273, 256, 333
-1.00489, 289, 137, 320, 200
-1.0049, 57, 209, 120, 272
-1.00491, 69, 145, 100, 272
-1.00492, 201, 81, 232, 208
-1.00494, 181, 177, 212, 304
-1.00502, 265, 241, 328, 304
-1.00506, 433, 153, 464, 216
-1.00506, 105, 257, 168, 320
-1.00507, 93, 161, 124, 288
-1.00516, 37, 145, 68, 272
-1.00516, 49, 257, 112, 320
-1.00516, 153, 161, 184, 288
-1.00517, 89, 129, 120, 192
-1.00518, 137, 201, 200, 264
-1.0052, 1, 1, 32, 128
-1.0052, 233, 233, 296, 296
-1.00526, 257, 113, 500, 240
-1.00526, 313, 145, 376, 272
-1.00528, 361, 169, 424, 232
-1.0053, 265, 129, 328, 192
-1.00532, 321, 129, 352, 256
-1.00532, 113, 201, 176, 264
-1.00533, 177, 65, 208, 192
-1.00534, 409, 129, 472, 192
-1.00536, 113, 233, 176, 296
-1.00541, 153, 233, 216, 296
-1.00541, 193, 201, 256, 264
-1.00542, 57, 161, 88, 288
-1.00545, 369, 209, 496, 333
-1.00546, 233, 169, 296, 232
-1.00547, 261, 209, 292, 272
-1.00548, 257, 209, 384, 333
-1.00552, 301, 121, 332, 184
-1.00553, 401, 201, 432, 264
-1.00553, 201, 241, 264, 304
-1.00554, 141, 81, 172, 208
-1.00555, 361, 241, 424, 304
-1.00562, 385, 177, 448, 240
-1.00562, 445, 193, 476, 256
-1.00569, 29, 1, 60, 64
-1.00569, 313, 201, 376, 264
-1.00572, 157, 65, 188, 192
-1.00572, 249, 145, 312, 272
-1.00576, 313, 137, 344, 200
-1.00577, 213, 145, 244, 272
-1.00577, 129, 65, 192, 320
-1.00577, 353, 113, 480, 240
-1.00579, 5, 169, 36, 232
-1.0058, 261, 145, 292, 272
-1.0058, 421, 145, 452, 272
-1.0058, 33, 201, 96, 264
-1.0058, 417, 209, 480, 272
-1.00583, 281, 265, 344, 328
-1.00584, 25, 161, 88, 288
-1.00585, 253, 161, 284, 224
-1.00585, 201, 233, 232, 296
-1.00586, 453, 209, 484, 333
-1.00587, 273, 113, 400, 240
-1.0059, 97, 217, 128, 280
-1.00591, 445, 161, 476, 288
-1.00591, 169, 209, 200, 333
-1.00591, 185, 225, 216, 288
-1.00593, 185, 65, 248, 320
-1.00595, 273, 121, 304, 184
-1.00596, 161, 209, 224, 272
-1.00597, 225, 121, 256, 184
-1.00601, 333, 129, 364, 256
-1.00601, 237, 161, 268, 224
-1.00602, 289, 145, 320, 272
-1.00604, 337, 185, 400, 248
-1.00604, 409, 233, 472, 296
-1.00604, 309, 145, 340, 272
-1.00605, 409, 145, 440, 272
-1.00607, 445, 145, 476, 208
-1.00607, 13, 1, 44, 128
-1.00611, 205, 97, 236, 160
-1.00616, 149, 201, 180, 264
-1.00617, 1, 97, 128, 224
-1.00617, 1, 273, 64, 333
-1.00618, 57, 185, 88, 248
-1.0062, 421, 209, 452, 333
-1.00622, 249, 201, 280, 264
-1.00624, 1, 249, 64, 312
-1.00625, 25, 113, 56, 240
-1.00626, 317, 265, 348, 328
-1.00629, 73, 217, 104, 280
-1.0063, 17, 1, 48, 64
-1.0063, 305, 233, 336, 296
-1.00631, 1, 1, 64, 128
-1.00631, 33, 209, 64, 333
-1.00631, 433, 265, 496, 328
-1.00633, 5, 113, 36, 240
-1.00633, 469, 193, 500, 256
-1.00635, 273, 209, 304, 272
-1.00635, 297, 169, 328, 232
-1.00635, 333, 233, 364, 296
-1.00635, 269, 249, 300, 312
-1.00636, 217, 193, 280, 256
-1.00636, 41, 1, 104, 64
-1.00636, 389, 153, 420, 216
-1.00637, 433, 145, 464, 272
-1.00638, 433, 233, 496, 296
-1.00639, 353, 257, 384, 320
-1.0064, 25, 249, 88, 312
-1.00641, 365, 161, 396, 288
-1.00642, 153, 105, 184, 168
-1.00642, 241, 193, 272, 320
-1.00643, 425, 185, 456, 248
-1.00644, 461, 145, 492, 272
-1.00647, 9, 129, 40, 192
-1.00647, 321, 177, 352, 304
-1.00649, 249, 145, 280, 272
-1.00649, 89, 33, 152, 288
-1.00649, 197, 201, 228, 264
-1.00652, 385, 145, 416, 272
-1.00653, 397, 161, 428, 288
-1.00656, 197, 265, 228, 328
-1.00656, 217, 265, 248, 328
-1.0066, 229, 233, 260, 296
-1.0066, 81, 113, 112, 240
-1.0066, 301, 193, 332, 320
-1.0066, 73, 209, 104, 333
-1.00661, 421, 161, 452, 224
-1.00661, 213, 97, 244, 224
-1.00662, 145, 209, 208, 333
-1.00663, 261, 193, 292, 320
-1.00663, 273, 193, 304, 320
-1.00664, 409, 161, 440, 224
-1.00664, 317, 193, 348, 256
-1.00667, 301, 209, 332, 272
-1.0067, 385, 233, 448, 296
-1.00673, 249, 225, 280, 288
-1.00673, 185, 265, 216, 328
-1.00674, 353, 145, 384, 272
-1.00677, 413, 233, 444, 296
-1.00677, 53, 113, 84, 240
-1.00677, 229, 161, 260, 288
-1.00677, 137, 193, 168, 320
-1.00677, 157, 209, 188, 333
-1.00677, 217, 209, 248, 333
-1.00678, 141, 97, 172, 160
-1.00678, 317, 217, 348, 280
-1.00682, 281, 161, 344, 288
-1.00684, 25, 1, 56, 128
-1.00684, 165, 225, 196, 288
-1.00684, 9, 225, 72, 288
-1.00684, 37, 201, 68, 264
-1.00685, 469, 145, 500, 208
-1.00686, 13, 265, 44, 328
-1.00686, 345, 233, 376, 296
-1.00687, 281, 185, 312, 248
-1.00687, 401, 225, 432, 288
-1.00688, 305, 65, 368, 320
-1.00688, 97, 113, 128, 240
-1.00689, 361, 145, 424, 272
-1.00691, 1, 161, 32, 288
-1.00692, 433, 209, 464, 333
-1.00692, 429, 265, 460, 328
-1.00693, 117, 209, 148, 333
-1.00694, 141, 241, 172, 304
-1.00695, 209, 193, 272, 320
-1.00695, 245, 137, 276, 200
-1.00696, 1, 1, 128, 128
-1.00697, 17, 177, 48, 240
-1.00697, 117, 201, 148, 264
-1.00698, 89, 209, 120, 333
-1.00698, 337, 265, 368, 328
-1.00701, 265, 177, 296, 240
-1.00701, 181, 201, 212, 264
-1.00703, 5, 209, 36, 333
-1.00703, 1, 1, 32, 64
-1.00703, 249, 257, 280, 320
-1.00706, 49, 65, 112, 320
-1.00706, 81, 241, 112, 304
-1.00706, 401, 265, 432, 328
-1.00706, 205, 193, 236, 320
-1.00707, 45, 177, 76, 240
-1.00707, 69, 193, 100, 256
-1.00707, 169, 265, 200, 328
-1.00708, 41, 1, 72, 64
-1.00709, 397, 177, 428, 240
-1.00709, 137, 209, 168, 272
-1.00715, 121, 81, 152, 208
-1.00717, 333, 177, 364, 304
-1.00724, 41, 121, 104, 184
-1.00727, 465, 209, 496, 333
-1.00728, 277, 145, 308, 272
-1.00729, 257, 65, 320, 320
-1.00732, 113, 161, 144, 288
-1.00732, 349, 193, 380, 320
-1.00732, 389, 209, 420, 333
-1.00737, 345, 217, 408, 280
-1.00738, 209, 209, 336, 333
-1.00743, 273, 105, 336, 168
-1.00744, 409, 193, 440, 320
-1.00745, 209, 33, 272, 288
-1.00746, 105, 89, 168, 152
-1.00751, 53, 209, 84, 333
-1.00755, 401, 97, 432, 224
-1.00757, 353, 97, 384, 224
-1.0076, 25, 273, 88, 333
-1.00763, 49, 145, 112, 272
-1.00765, 237, 113, 268, 240
-1.00766, 37, 97, 68, 224
-1.00766, 89, 161, 152, 288
-1.00766, 257, 193, 320, 320
-1.0077, 421, 97, 452, 224
-1.00773, 65, 97, 96, 224
-1.00773, 445, 113, 476, 240
-1.00774, 313, 81, 344, 208
-1.00774, 381, 97, 412, 224
-1.00778, 185, 89, 248, 152
-1.00784, 433, 97, 464, 224
-1.00784, 365, 209, 396, 333
-1.00786, 281, 33, 344, 288
-1.00786, 393, 145, 456, 272
-1.00786, 337, 161, 400, 288
-1.00789, 369, 113, 400, 240
-1.00789, 329, 65, 392, 320
-1.0079, 333, 81, 364, 208
-1.00793, 105, 209, 136, 333
-1.00797, 17, 65, 80, 320
-1.00797, 225, 113, 256, 240
-1.00797, 161, 81, 224, 144
-1.00798, 461, 97, 492, 224
-1.008, 385, 65, 448, 320
-1.00802, 269, 97, 300, 224
-1.00802, 293, 97, 324, 224
-1.00809, 281, 97, 312, 224
-1.0081, 37, 1, 68, 128
-1.00813, 377, 193, 408, 320
-1.00815, 185, 193, 248, 320
-1.00818, 1, 209, 64, 333
-1.00819, 209, 65, 336, 192
-1.00819, 257, 97, 288, 224
-1.00822, 109, 113, 140, 240
-1.00822, 17, 209, 48, 333
-1.00826, 229, 209, 260, 333
-1.00828, 113, 161, 176, 288
-1.00832, 353, 33, 416, 288
-1.00834, 233, 65, 296, 320
-1.00835, 65, 193, 128, 320
-1.00838, 289, 209, 320, 333
-1.0085, 129, 81, 192, 144
-1.00857, 425, 145, 488, 272
-1.00864, 17, 105, 80, 168
-1.00876, 445, 65, 476, 192
-1.00882, 409, 33, 472, 288
-1.00886, 225, 65, 256, 192
-1.00887, 225, 145, 288, 272
-1.00887, 89, 209, 152, 333
-1.00889, 365, 65, 396, 192
-1.00894, 237, 65, 268, 192
-1.00899, 65, 1, 128, 64
-1.00901, 49, 1, 80, 128
-1.00903, 137, 33, 168, 160
-1.00903, 217, 81, 280, 144
-1.00904, 61, 1, 92, 128
-1.00904, 365, 1, 396, 128
-1.00904, 377, 1, 408, 128
-1.00904, 273, 65, 400, 192
-1.00904, 321, 65, 448, 192
-1.00906, 25, 113, 88, 240
-1.0091, 433, 113, 496, 176
-1.00914, 297, 105, 360, 168
-1.00916, 433, 65, 496, 320
-1.00917, 49, 49, 176, 176
-1.00918, 33, 33, 288, 160
-1.00921, 97, 1, 128, 128
-1.00921, 109, 1, 140, 128
-1.00924, 169, 57, 232, 120
-1.00924, 193, 57, 256, 120
-1.00924, 217, 57, 280, 120
-1.00926, 89, 65, 120, 192
-1.00926, 353, 97, 416, 160
-1.00927, 257, 65, 500, 192
-1.00928, 81, 97, 144, 160
-1.00929, 385, 65, 448, 128
-1.00929, 409, 65, 472, 128
-1.00929, 433, 65, 496, 128
-1.00929, 361, 73, 424, 136
-1.00929, 9, 81, 72, 144
-1.00929, 33, 81, 96, 144
-1.00929, 281, 81, 344, 144
-1.00929, 305, 81, 368, 144
-1.00929, 329, 81, 392, 144
-1.00929, 57, 89, 120, 152
-1.00929, 249, 89, 312, 152
-1.00929, 385, 89, 448, 152
-1.00929, 409, 89, 472, 152
-1.00929, 433, 89, 496, 152
-1.00935, 109, 65, 140, 192
-1.00937, 25, 65, 56, 192
-1.00938, 313, 193, 376, 320
-1.00939, 125, 33, 156, 160
-1.00939, 257, 49, 288, 176
-1.00939, 73, 1, 104, 128
-1.00939, 25, 209, 88, 333
-1.00941, 89, 97, 152, 224
-1.00942, 201, 33, 232, 160
-1.00943, 13, 65, 44, 192
-1.00943, 185, 1, 216, 128
-1.00945, 369, 193, 432, 320
-1.00946, 57, 49, 88, 176
-1.00947, 325, 17, 356, 144
-1.00951, 165, 1, 196, 128
-1.00953, 257, 1, 500, 128
-1.00955, 77, 49, 108, 176
-1.00956, 445, 17, 476, 144
-1.00956, 457, 17, 488, 144
-1.00956, 469, 17, 500, 144
-1.00958, 273, 97, 336, 224
-1.00961, 409, 193, 472, 320
-1.00966, 161, 33, 288, 160
-1.00968, 113, 209, 176, 333
-1.00971, 233, 209, 296, 333
-1.00977, 209, 81, 272, 208
-1.00982, 369, 65, 496, 192
-1.00984, 337, 113, 400, 240
-1.00989, 97, 1, 224, 128
-1.00994, 345, 209, 408, 333
-1.01012, 129, 33, 384, 160
-1.01016, 313, 97, 376, 224
-1.01029, 1, 113, 64, 240
-1.01032, 49, 1, 176, 128
-1.01032, 225, 17, 352, 144
-1.01038, 273, 17, 400, 144
-1.01038, 321, 17, 448, 144
-1.01038, 369, 17, 496, 144
-1.01039, 433, 209, 496, 333
-1.01042, 361, 97, 424, 224
-1.01068, 249, 97, 312, 224
-1.01117, 409, 97, 472, 224
-1.0112, 121, 65, 184, 192
-1.01133, 289, 209, 352, 333
-1.01137, 25, 1, 88, 128
-1.01153, 49, 97, 112, 224
-1.01175, 1, 49, 128, 176
-1.01192, 385, 81, 448, 208
-1.01244, 433, 97, 496, 224
-1.01302, 337, 65, 400, 192
-1.01357, 97, 49, 160, 176
-1.01371, 369, 1, 432, 128
-1.01382, 161, 33, 224, 160
-1.01393, 17, 65, 80, 192
-1.01406, 65, 1, 128, 128
-1.01406, 345, 1, 408, 128
-1.01435, 105, 1, 168, 128
-1.01442, 401, 1, 464, 128
-1.01442, 217, 17, 280, 144
-1.01451, 273, 49, 336, 176
-1.01465, 305, 17, 368, 144
-1.01478, 281, 1, 344, 128
-1.01478, 249, 17, 312, 144
-1.01478, 433, 17, 496, 144
-1.01507, 137, 1, 200, 128
-1.0151, 73, 49, 136, 176
-1.01513, 409, 49, 472, 176
-1.0152, 193, 1, 256, 128
-1.01533, 361, 49, 424, 176
-1.01546, 41, 49, 104, 176
-1.04138, 97, 65, 352, 320
-1.04852, 193, 65, 448, 320
-1.06098, 1, 65, 256, 320
