1952
-0.368644, 1, 129, 500, 375
-0.475106, 1, 1, 500, 375
-0.484735, 65, 1, 320, 375
-0.513846, 1, 1, 500, 256
-0.514469, 65, 65, 320, 320
-0.533208, 257, 1, 500, 375
-0.566223, 225, 129, 480, 375
-0.589565, 161, 1, 416, 375
-0.728708, 193, 33, 448, 288
-0.850566, 241, 97, 368, 352
-0.85761, 337, 129, 464, 375
-0.867002, 177, 97, 304, 352
-0.8672, 129, 65, 256, 320
-0.870764, 289, 129, 416, 375
-0.871399, 65, 65, 192, 320
-0.874697, 145, 1, 272, 375
-0.879835, 241, 1, 368, 375
-0.88454, 353, 1, 480, 375
-0.887018, 1, 145, 500, 272
-0.887606, 1, 129, 128, 375
-0.888601, 1, 97, 500, 224
-0.891868, 289, 1, 416, 375
-0.892357, 1, 225, 500, 352
-0.892827, 193, 1, 320, 375
-0.893418, 65, 81, 320, 208
-0.897474, 1, 1, 128, 256
-0.897728, 49, 1, 176, 375
-0.898551, 97, 1, 224, 375
-0.903134, 1, 1, 128, 375
-0.907072, 177, 1, 304, 256
-0.909534, 225, 1, 352, 256
-0.909799, 161, 113, 416, 240
-0.910019, 369, 33, 496, 288
-0.910883, 305, 33, 432, 288
-0.924206, 1, 33, 500, 160
-0.924285, 97, 225, 352, 352
-0.925251, 257, 145, 500, 272
-0.931602, 193, 97, 320, 224
-0.932358, 1, 17, 256, 144
-0.932653, 73, 113, 136, 240
-0.934123, 257, 65, 500, 192
-0.934197, 81, 81, 208, 208
-0.934417, 1, 129, 256, 256
-0.937178, 129, 81, 256, 208
-0.93747, 145, 65, 208, 192
-0.937477, 113, 81, 176, 208
-0.938288, 353, 145, 480, 272
-0.938492, 17, 81, 144, 208
-0.941515, 225, 225, 288, 352
-0.941802, 17, 129, 144, 256
-0.942917, 361, 145, 424, 272
-0.943887, 281, 113, 344, 240
-0.94412, 257, 193, 500, 320
-0.944523, 177, 209, 304, 336
-0.945135, 209, 65, 272, 192
-0.945583, 273, 129, 400, 256
-0.945749, 73, 105, 136, 168
-0.945888, 97, 33, 352, 160
-0.946219, 65, 177, 320, 304
-0.946615, 257, 241, 500, 368
-0.947705, 113, 81, 176, 144
-0.948107, 81, 65, 144, 192
-0.948249, 177, 97, 240, 224
-0.948683, 233, 97, 296, 224
-0.949203, 113, 145, 240, 272
-0.949283, 233, 145, 296, 272
-0.950455, 193, 161, 320, 288
-0.951021, 257, 97, 320, 224
-0.95197, 33, 129, 96, 256
-0.952388, 1, 65, 64, 192
-0.952957, 257, 225, 320, 352
-0.953063, 153, 81, 216, 144
-0.953167, 409, 145, 472, 272
-0.953936, 361, 153, 424, 216
-0.954035, 65, 129, 192, 256
-0.954751, 1, 241, 256, 368
-0.954814, 409, 161, 472, 224
-0.955029, 25, 65, 88, 192
-0.955333, 121, 113, 184, 176
-0.955553, 193, 89, 256, 152
-0.955672, 177, 33, 304, 160
-0.955978, 137, 113, 200, 240
-0.956301, 17, 33, 144, 160
-0.956454, 241, 201, 304, 264
-0.95668, 433, 177, 496, 304
-0.956923, 193, 209, 256, 336
-0.957028, 161, 161, 416, 288
-0.957068, 241, 225, 368, 352
-0.957585, 113, 161, 176, 288
-0.957858, 233, 49, 296, 176
-0.958281, 65, 177, 192, 304
-0.958501, 321, 97, 448, 224
-0.9586, 385, 145, 448, 272
-0.958895, 385, 153, 448, 216
-0.959221, 129, 33, 256, 160
-0.960249, 337, 145, 400, 272
-0.960304, 193, 17, 448, 144
-0.960604, 225, 65, 288, 320
-0.960688, 433, 113, 496, 240
-0.960723, 241, 177, 368, 304
-0.960759, 137, 153, 200, 216
-0.96087, 33, 241, 96, 368
-0.960981, 257, 113, 320, 176
-0.96139, 137, 161, 200, 288
-0.961513, 225, 233, 288, 296
-0.961577, 225, 73, 288, 136
-0.96167, 185, 233, 248, 296
-0.961819, 145, 17, 208, 144
-0.962167, 121, 33, 184, 160
-0.962328, 81, 81, 144, 144
-0.962585, 185, 201, 248, 264
-0.962587, 9, 129, 72, 256
-0.962673, 433, 185, 496, 248
-0.962703, 257, 49, 320, 176
-0.962709, 233, 161, 296, 224
-0.962787, 313, 145, 376, 272
-0.963116, 177, 145, 240, 272
-0.963418, 241, 81, 368, 208
-0.963725, 65, 225, 192, 352
-0.963765, 185, 17, 248, 144
-0.96428, 321, 97, 384, 224
-0.964298, 33, 89, 96, 152
-0.964427, 321, 241, 384, 368
-0.964873, 169, 153, 232, 216
-0.964905, 257, 177, 320, 304
-0.964947, 185, 305, 248, 368
-0.964994, 257, 297, 320, 360
-0.965037, 73, 129, 136, 192
-0.965181, 281, 97, 344, 352
-0.965206, 217, 193, 280, 256
-0.965451, 225, 289, 288, 352
-0.965451, 137, 305, 200, 368
-0.965721, 321, 265, 384, 328
-0.965752, 369, 97, 496, 224
-0.965893, 353, 241, 480, 368
-0.965983, 33, 145, 96, 208
-0.966181, 81, 161, 144, 288
-0.966329, 225, 113, 288, 176
-0.966575, 1, 177, 128, 304
-0.966797, 353, 129, 416, 375
-0.967025, 305, 289, 368, 352
-0.967265, 201, 65, 264, 128
-0.967308, 81, 225, 144, 352
-0.967314, 113, 241, 240, 368
-0.96739, 241, 257, 304, 320
-0.967961, 393, 97, 456, 224
-0.968011, 161, 105, 224, 168
-0.968022, 169, 241, 232, 368
-0.968221, 33, 113, 96, 176
-0.968303, 81, 185, 144, 248
-0.968415, 433, 161, 496, 224
-0.96866, 97, 105, 160, 168
-0.968861, 193, 161, 256, 224
-0.968887, 249, 97, 312, 352
-0.968947, 129, 193, 256, 320
-0.969018, 209, 145, 272, 272
-0.969052, 129, 89, 256, 152
-0.969069, 65, 33, 192, 160
-0.969327, 17, 241, 144, 368
-0.969359, 49, 81, 112, 208
-0.969607, 161, 305, 224, 368
-0.969655, 281, 225, 344, 352
-0.969941, 321, 161, 384, 224
-0.970077, 401, 241, 464, 368
-0.970231, 409, 185, 472, 248
-0.970478, 105, 313, 168, 375
-0.970802, 65, 89, 192, 152
-0.970812, 353, 193, 480, 320
-0.970819, 401, 129, 464, 375
-0.970852, 9, 137, 72, 200
-0.971189, 193, 209, 320, 272
-0.971278, 89, 81, 120, 208
-0.971338, 113, 161, 176, 224
-0.971456, 281, 129, 344, 192
-0.971456, 217, 313, 280, 375
-0.971553, 89, 89, 120, 152
-0.97175, 201, 89, 232, 152
-0.971759, 281, 289, 344, 352
-0.971918, 105, 241, 168, 368
-0.972044, 409, 193, 472, 320
-0.972091, 353, 153, 480, 216
-0.972093, 361, 97, 424, 224
-0.97234, 73, 65, 136, 320
-0.972385, 57, 297, 120, 360
-0.972466, 289, 49, 416, 176
-0.972498, 81, 161, 144, 224
-0.972515, 1, 1, 64, 128
-0.972641, 281, 65, 344, 192
-0.97269, 81, 241, 144, 304
-0.972707, 17, 97, 144, 160
-0.97273, 57, 153, 120, 216
-0.972795, 265, 161, 296, 288
-0.972813, 1, 25, 32, 88
-0.972893, 337, 193, 400, 320
-0.973071, 225, 137, 288, 200
-0.973167, 377, 129, 440, 375
-0.973344, 193, 65, 256, 320
-0.973359, 169, 177, 232, 240
-0.973629, 101, 89, 132, 152
-0.973903, 57, 161, 120, 288
-0.974087, 145, 217, 208, 280
-0.974145, 201, 257, 264, 320
-0.974191, 201, 281, 264, 344
-0.974281, 57, 241, 120, 368
-0.974335, 417, 153, 448, 216
-0.974372, 117, 81, 148, 208
-0.974647, 209, 113, 336, 176
-0.974658, 193, 137, 256, 200
-0.974675, 1, 177, 64, 304
-0.97468, 1, 113, 64, 176
-0.974703, 169, 65, 200, 192
-0.974718, 173, 81, 204, 144
-0.974814, 129, 65, 160, 192
-0.974862, 345, 289, 408, 352
-0.974872, 1, 57, 64, 120
-0.975083, 217, 81, 248, 208
-0.975216, 1, 1, 32, 128
-0.975325, 113, 137, 176, 200
-0.975391, 65, 217, 128, 280
-0.975483, 25, 305, 88, 368
-0.975531, 65, 113, 192, 176
-0.975534, 253, 225, 284, 352
-0.975568, 225, 281, 352, 344
-0.975573, 433, 65, 496, 192
-0.975669, 17, 145, 144, 208
-0.975689, 185, 81, 216, 144
-0.975735, 153, 241, 216, 304
-0.975744, 17, 49, 48, 176
-0.975806, 149, 65, 180, 192
-0.976029, 221, 97, 252, 160
-0.97612, 429, 161, 460, 224
-0.976236, 209, 17, 272, 144
-0.976237, 277, 97, 308, 224
-0.976337, 249, 81, 312, 144
-0.976347, 145, 65, 208, 320
-0.976387, 245, 225, 276, 288
-0.976465, 121, 65, 184, 320
-0.976476, 145, 241, 208, 368
-0.976543, 85, 113, 116, 176
-0.976585, 225, 17, 352, 144
-0.976617, 433, 137, 496, 200
-0.976668, 33, 241, 96, 304
-0.976671, 329, 129, 392, 375
-0.976681, 1, 1, 32, 64
-0.976692, 237, 65, 268, 192
-0.976767, 265, 201, 296, 264
-0.976767, 385, 177, 448, 240
-0.97684, 217, 129, 248, 256
-0.976928, 257, 97, 288, 224
-0.976981, 177, 297, 304, 360
-0.977032, 149, 113, 180, 176
-0.97704, 25, 17, 88, 144
-0.977072, 281, 313, 344, 375
-0.977104, 345, 265, 408, 328
-0.977171, 221, 193, 252, 320
-0.977243, 137, 185, 200, 248
-0.977266, 117, 81, 148, 144
-0.977336, 1, 81, 64, 144
-0.977376, 377, 209, 440, 336
-0.977536, 297, 265, 360, 328
-0.977558, 245, 273, 276, 336
-0.977578, 305, 129, 368, 375
-0.977593, 273, 145, 400, 208
-0.977608, 17, 65, 48, 128
-0.977787, 161, 233, 288, 296
-0.977881, 229, 145, 260, 272
-0.9779, 65, 313, 192, 375
-0.977914, 265, 169, 328, 232
-0.977916, 169, 129, 232, 192
-0.977948, 441, 169, 472, 232
-0.977964, 17, 129, 80, 375
-0.977969, 305, 225, 432, 352
-0.977992, 129, 81, 160, 144
-0.978025, 321, 129, 384, 192
-0.97812, 105, 113, 136, 240
-0.978138, 1, 313, 64, 375
-0.978192, 105, 233, 168, 296
-0.978219, 193, 185, 320, 248
-0.97823, 33, 193, 96, 320
-0.978237, 89, 17, 152, 144
-0.978387, 273, 289, 400, 352
-0.978608, 433, 241, 496, 368
-0.978622, 321, 313, 384, 375
-0.978632, 273, 169, 400, 232
-0.978681, 297, 153, 360, 216
-0.978744, 365, 153, 396, 216
-0.97886, 261, 297, 292, 360
-0.978955, 233, 225, 264, 352
-0.978961, 137, 57, 200, 120
-0.978984, 97, 65, 224, 128
-0.979135, 261, 161, 292, 224
-0.979166, 17, 65, 144, 128
-0.979202, 353, 177, 480, 240
-0.979322, 237, 73, 268, 136
-0.979403, 117, 161, 148, 288
-0.979509, 365, 145, 396, 272
-0.979558, 177, 57, 240, 120
-0.979601, 69, 129, 100, 256
-0.979608, 425, 129, 488, 375
-0.979616, 193, 161, 320, 224
-0.979645, 225, 233, 256, 296
-0.979664, 265, 201, 328, 264
-0.979725, 177, 281, 240, 344
-0.979759, 469, 193, 500, 256
-0.979772, 273, 209, 304, 336
-0.979805, 345, 241, 408, 368
-0.979868, 97, 289, 160, 352
-0.979874, 425, 273, 488, 336
-0.979898, 97, 153, 224, 216
-0.979917, 377, 289, 440, 352
-0.979948, 49, 97, 112, 352
-0.979949, 225, 265, 256, 328
-0.979991, 97, 65, 160, 320
-0.979997, 81, 313, 144, 375
-0.980026, 193, 81, 224, 208
-0.980066, 369, 1, 496, 128
-0.980157, 281, 177, 344, 304
-0.9802, 221, 153, 252, 216
-0.980236, 145, 177, 272, 240
-0.980238, 225, 249, 352, 312
-0.98029, 397, 153, 428, 216
-0.980305, 321, 281, 352, 344
-0.980341, 105, 113, 136, 176
-0.980454, 273, 313, 400, 375
-0.980485, 237, 113, 268, 176
-0.980499, 293, 281, 324, 344
-0.98051, 201, 113, 264, 176
-0.980563, 1, 33, 64, 288
-0.980575, 249, 225, 312, 288
-0.980602, 397, 145, 428, 272
-0.980659, 1, 17, 64, 80
-0.980693, 265, 265, 328, 328
-0.980742, 241, 193, 368, 256
-0.98077, 229, 209, 260, 272
-0.980773, 177, 89, 304, 152
-0.980845, 429, 145, 460, 272
-0.980863, 225, 305, 352, 368
-0.980897, 233, 289, 264, 352
-0.980904, 109, 313, 140, 375
-0.98091, 305, 193, 368, 320
-0.980923, 177, 257, 304, 320
-0.980925, 241, 49, 304, 112
-0.980927, 113, 305, 240, 368
-0.980928, 313, 241, 376, 304
-0.981021, 401, 281, 464, 344
-0.981031, 385, 145, 416, 272
-0.981038, 205, 305, 236, 368
-0.981041, 33, 1, 96, 256
-0.981047, 17, 121, 144, 184
-0.981062, 241, 201, 272, 264
-0.981164, 81, 185, 208, 248
-0.981243, 181, 241, 212, 304
-0.981255, 145, 89, 176, 152
-0.981414, 317, 129, 348, 256
-0.98142, 469, 177, 500, 304
-0.981512, 209, 161, 240, 224
-0.981547, 133, 313, 164, 375
-0.981576, 249, 1, 312, 256
-0.981583, 453, 185, 484, 248
-0.981626, 169, 65, 232, 320
-0.981688, 33, 281, 96, 344
-0.981695, 345, 177, 408, 240
-0.981735, 345, 313, 408, 375
-0.981763, 229, 177, 260, 240
-0.981962, 69, 137, 100, 200
-0.981962, 369, 33, 432, 288
-0.981992, 73, 273, 136, 336
-0.982007, 445, 177, 476, 304
-0.982016, 177, 153, 208, 216
-0.982045, 217, 1, 280, 375
-0.982048, 29, 129, 60, 256
-0.982056, 145, 129, 208, 192
-0.982067, 233, 1, 296, 128
-0.98208, 17, 217, 144, 280
-0.982084, 41, 177, 104, 240
-0.982143, 269, 113, 300, 176
-0.982246, 105, 137, 136, 200
-0.982324, 321, 297, 448, 360
-0.982327, 105, 241, 136, 304
-0.982342, 113, 121, 240, 184
-0.982419, 289, 177, 416, 304
-0.982473, 153, 305, 184, 368
-0.982523, 113, 185, 176, 248
-0.982537, 145, 113, 176, 240
-0.982549, 145, 201, 272, 264
-0.982567, 309, 281, 340, 344
-0.982646, 209, 177, 240, 304
-0.982726, 353, 49, 480, 176
-0.982755, 205, 97, 236, 224
-0.982767, 41, 65, 104, 128
-0.982859, 217, 201, 248, 264
-0.982914, 217, 129, 248, 192
-0.982954, 333, 289, 364, 352
-0.982994, 349, 241, 380, 368
-0.983002, 277, 289, 308, 352
-0.983037, 353, 201, 416, 264
-0.983062, 409, 305, 472, 368
-0.98309, 157, 1, 188, 128
-0.983121, 97, 225, 224, 288
-0.983131, 1, 241, 64, 368
-0.98315, 181, 81, 212, 208
-0.98316, 101, 65, 132, 192
-0.983213, 33, 289, 160, 352
-0.983217, 49, 33, 112, 160
-0.983253, 385, 153, 416, 216
-0.983277, 341, 161, 372, 288
-0.98333, 165, 153, 196, 216
-0.983356, 217, 305, 248, 368
-0.983466, 41, 217, 104, 280
-0.983556, 113, 209, 176, 272
-0.983577, 1, 217, 64, 280
-0.983598, 301, 113, 332, 240
-0.983645, 413, 145, 444, 272
-0.983664, 433, 33, 496, 288
-0.983756, 265, 257, 296, 320
-0.983763, 21, 113, 52, 176
-0.983839, 369, 289, 496, 352
-0.98387, 353, 145, 384, 272
-0.983878, 321, 49, 384, 176
-0.98388, 205, 281, 236, 344
-0.983905, 469, 129, 500, 256
-0.983973, 9, 241, 72, 304
-0.984001, 313, 137, 344, 200
-0.984005, 121, 313, 152, 375
-0.984065, 29, 65, 60, 192
-0.984081, 93, 137, 124, 200
-0.984106, 157, 81, 188, 144
-0.984116, 133, 113, 164, 240
-0.984136, 345, 169, 376, 232
-0.984161, 197, 161, 228, 288
-0.984231, 305, 265, 432, 328
-0.984259, 245, 249, 276, 312
-0.98427, 105, 161, 136, 288
-0.984275, 49, 145, 80, 272
-0.984279, 305, 113, 432, 176
-0.984285, 37, 145, 68, 208
-0.984328, 341, 265, 372, 328
-0.984328, 329, 145, 360, 272
-0.984398, 469, 153, 500, 216
-0.984403, 169, 161, 200, 288
-0.984467, 89, 305, 120, 368
-0.984493, 153, 9, 216, 72
-0.984508, 281, 225, 344, 288
-0.984569, 173, 1, 204, 128
-0.98472, 281, 113, 312, 176
-0.984734, 145, 153, 176, 216
-0.984851, 17, 193, 144, 256
-0.984884, 77, 81, 108, 208
-0.984909, 301, 121, 332, 184
-0.984909, 17, 41, 144, 104
-0.984958, 429, 241, 460, 368
-0.984981, 5, 49, 36, 112
-0.984981, 25, 137, 56, 200
-0.985015, 1, 1, 64, 375
-0.985029, 385, 201, 448, 264
-0.985053, 253, 201, 284, 264
-0.985089, 185, 305, 216, 368
-0.985232, 265, 49, 296, 176
-0.985251, 329, 153, 360, 216
-0.985274, 1, 241, 128, 304
-0.985285, 161, 113, 288, 176
-0.985287, 1, 193, 64, 256
-0.985314, 93, 241, 124, 304
-0.985367, 17, 169, 144, 232
-0.985387, 117, 153, 148, 216
-0.985392, 321, 33, 384, 288
-0.985414, 189, 217, 220, 280
-0.985478, 401, 33, 464, 288
-0.9855, 217, 241, 248, 368
-0.985519, 153, 281, 216, 344
-0.98562, 281, 73, 344, 136
-0.985676, 25, 41, 88, 104
-0.985683, 261, 233, 292, 296
-0.985698, 361, 129, 424, 192
-0.985708, 209, 65, 336, 128
-0.985755, 49, 241, 176, 304
-0.985817, 41, 81, 72, 208
-0.985821, 161, 193, 224, 320
-0.985831, 241, 217, 368, 280
-0.985837, 273, 169, 304, 232
-0.985843, 369, 297, 400, 360
-0.985859, 281, 1, 344, 375
-0.985867, 97, 57, 160, 120
-0.985894, 145, 153, 272, 216
-0.985905, 57, 145, 88, 208
-0.985916, 17, 113, 48, 240
-0.985924, 249, 81, 280, 144
-0.985934, 193, 1, 256, 375
-0.985983, 81, 225, 112, 352
-0.986022, 353, 201, 480, 264
-0.98604, 161, 1, 224, 375
-0.986048, 305, 97, 368, 160
-0.986113, 429, 185, 460, 248
-0.986136, 457, 177, 488, 304
-0.986139, 257, 113, 288, 176
-0.986211, 49, 313, 80, 375
-0.986244, 129, 273, 256, 336
-0.986361, 321, 185, 384, 248
-0.986379, 225, 137, 352, 200
-0.986413, 401, 1, 464, 128
-0.986415, 277, 265, 308, 328
-0.986434, 185, 17, 216, 144
-0.98661, 425, 273, 456, 336
-0.986613, 37, 89, 68, 152
-0.986626, 353, 225, 416, 288
-0.986721, 165, 297, 196, 360
-0.986767, 17, 313, 144, 375
-0.986785, 241, 113, 272, 240
-0.986795, 177, 257, 240, 320
-0.9868, 85, 177, 116, 304
-0.986812, 189, 105, 220, 168
-0.98684, 425, 1, 488, 128
-0.986849, 181, 241, 212, 368
-0.986851, 1, 265, 128, 328
-0.986868, 409, 209, 472, 272
-0.986922, 121, 281, 184, 344
-0.98698, 157, 113, 188, 240
-0.987018, 413, 97, 444, 224
-0.987042, 369, 313, 496, 375
-0.987059, 233, 313, 264, 375
-0.987068, 21, 89, 52, 152
-0.987076, 69, 241, 100, 368
-0.98713, 129, 153, 160, 216
-0.987185, 389, 289, 420, 352
-0.987189, 337, 241, 464, 304
-0.987206, 85, 129, 116, 256
-0.987209, 201, 41, 264, 104
-0.98721, 17, 41, 48, 104
-0.987254, 353, 265, 384, 328
-0.987302, 377, 17, 440, 144
-0.987324, 217, 73, 248, 136
-0.987345, 361, 1, 424, 375
-0.987358, 433, 297, 496, 360
-0.987364, 393, 1, 456, 375
-0.987364, 65, 193, 96, 320
-0.987471, 257, 1, 320, 375
-0.987498, 13, 1, 44, 128
-0.987533, 145, 17, 176, 144
-0.987554, 345, 33, 408, 288
-0.98756, 9, 161, 72, 224
-0.987563, 21, 225, 52, 288
-0.987575, 201, 225, 232, 288
-0.987614, 217, 17, 248, 144
-0.987614, 333, 225, 364, 352
-0.987633, 281, 97, 344, 160
-0.987634, 65, 89, 320, 152
-0.987666, 353, 313, 384, 375
-0.987707, 309, 305, 340, 368
-0.987724, 289, 113, 320, 240
-0.987741, 249, 297, 280, 360
-0.987756, 377, 97, 408, 224
-0.987805, 105, 177, 136, 240
-0.987807, 57, 241, 120, 304
-0.987829, 369, 129, 496, 192
-0.987842, 369, 265, 496, 328
-0.987852, 273, 1, 336, 256
-0.98786, 185, 129, 216, 256
-0.987865, 377, 313, 440, 375
-0.987888, 353, 289, 384, 352
-0.98803, 301, 65, 332, 192
-0.988065, 253, 49, 284, 176
-0.988072, 81, 281, 208, 344
-0.988178, 73, 113, 104, 176
-0.988189, 269, 89, 300, 152
-0.988236, 81, 241, 112, 304
-0.988266, 205, 49, 236, 176
-0.988267, 393, 97, 424, 224
-0.988269, 149, 57, 180, 120
-0.98828, 73, 109, 136, 140
-0.98829, 173, 217, 204, 280
-0.988302, 105, 89, 168, 120
-0.988302, 93, 281, 124, 344
-0.98831, 165, 105, 196, 168
-0.988312, 65, 1, 128, 375
-0.988324, 173, 9, 204, 72
-0.988356, 237, 153, 268, 216
-0.98837, 241, 89, 368, 152
-0.988431, 457, 113, 488, 240
-0.988436, 237, 17, 268, 144
-0.988442, 113, 109, 176, 140
-0.988468, 145, 17, 272, 80
-0.988518, 165, 185, 196, 248
-0.988531, 433, 1, 496, 375
-0.988546, 285, 225, 316, 352
-0.988547, 89, 209, 120, 272
-0.988559, 325, 313, 356, 375
-0.988634, 113, 1, 176, 375
-0.988636, 281, 17, 344, 144
-0.988654, 81, 137, 112, 200
-0.988733, 177, 57, 208, 120
-0.988751, 441, 241, 472, 368
-0.988756, 157, 161, 188, 288
-0.988771, 453, 241, 484, 368
-0.988779, 197, 241, 228, 368
-0.988787, 161, 89, 224, 120
-0.988791, 201, 65, 232, 128
-0.988834, 241, 177, 272, 304
-0.988922, 97, 241, 128, 368
-0.988956, 1, 161, 32, 288
-0.989022, 97, 17, 224, 80
-0.989027, 113, 33, 144, 160
-0.989071, 137, 1, 200, 375
-0.989081, 61, 313, 92, 375
-0.989121, 73, 129, 136, 160
-0.989145, 433, 185, 496, 216
-0.989164, 213, 241, 244, 304
-0.989179, 341, 241, 372, 304
-0.989204, 145, 165, 208, 196
-0.989214, 9, 185, 40, 248
-0.989307, 25, 225, 56, 352
-0.989313, 81, 93, 144, 124
-0.98932, 137, 85, 200, 116
-0.989341, 113, 217, 144, 280
-0.989343, 201, 97, 264, 128
-0.989362, 145, 101, 208, 132
-0.989403, 313, 113, 344, 176
-0.989411, 409, 289, 440, 352
-0.989415, 109, 225, 140, 352
-0.989438, 41, 1, 104, 375
-0.989459, 5, 49, 36, 176
-0.989477, 233, 229, 296, 260
-0.989489, 97, 249, 224, 312
-0.989535, 337, 1, 400, 375
-0.989559, 49, 241, 80, 368
-0.98959, 273, 1, 400, 128
-0.989603, 257, 117, 320, 148
-0.989651, 345, 97, 376, 224
-0.98967, 1, 17, 128, 80
-0.989679, 365, 97, 396, 224
-0.989705, 241, 193, 304, 224
-0.989814, 193, 229, 256, 260
-0.989815, 361, 209, 392, 336
-0.989836, 305, 1, 368, 375
-0.989867, 145, 113, 208, 144
-0.989901, 313, 225, 344, 352
-0.989908, 209, 309, 272, 340
-0.989916, 145, 65, 272, 128
-0.989958, 113, 121, 176, 152
-0.990007, 65, 81, 96, 208
-0.99004, 241, 205, 304, 236
-0.99005, 225, 153, 480, 216
-0.990055, 185, 113, 248, 144
-0.990065, 429, 193, 460, 320
-0.990083, 153, 321, 216, 352
-0.990104, 65, 113, 320, 176
-0.990139, 253, 177, 284, 304
-0.990144, 217, 241, 280, 272
-0.990167, 33, 89, 96, 120
-0.990169, 209, 81, 272, 112
-0.990184, 145, 309, 208, 340
-0.990196, 169, 305, 232, 336
-0.990259, 313, 281, 376, 312
-0.990273, 289, 65, 320, 192
-0.990289, 49, 145, 112, 176
-0.990312, 393, 157, 456, 188
-0.990322, 409, 177, 472, 208
-0.990341, 409, 193, 440, 320
-0.990353, 217, 217, 280, 248
-0.990355, 129, 41, 256, 104
-0.990379, 193, 181, 256, 212
-0.99038, 313, 65, 344, 192
-0.990405, 153, 177, 216, 208
-0.990416, 9, 141, 72, 172
-0.990422, 89, 1, 152, 375
-0.990472, 241, 309, 304, 340
-0.990479, 321, 1, 448, 128
-0.990481, 233, 165, 296, 196
-0.990492, 361, 157, 424, 188
-0.990504, 217, 113, 280, 144
-0.99052, 281, 289, 344, 320
-0.990525, 337, 289, 400, 320
-0.990528, 297, 1, 360, 256
-0.990538, 277, 49, 308, 176
-0.990546, 433, 153, 496, 184
-0.990556, 177, 241, 240, 272
-0.990566, 193, 161, 256, 192
-0.99058, 333, 81, 364, 208
-0.990595, 209, 193, 272, 224
-0.990606, 185, 329, 248, 360
-0.990616, 33, 121, 96, 152
-0.990651, 241, 241, 304, 272
-0.990652, 241, 217, 304, 248
-0.990723, 429, 97, 460, 224
-0.990752, 249, 325, 312, 356
-0.990755, 277, 161, 308, 288
-0.99076, 53, 97, 84, 224
-0.990763, 169, 193, 232, 224
-0.990778, 409, 285, 472, 316
-0.990825, 177, 317, 240, 348
-0.990827, 225, 325, 288, 356
-0.990864, 33, 309, 96, 340
-0.990887, 145, 153, 208, 184
-0.99094, 273, 325, 336, 356
-0.990949, 57, 341, 120, 372
-0.990954, 233, 253, 296, 284
-0.990959, 265, 309, 328, 340
-0.99096, 113, 165, 176, 196
-0.990963, 65, 309, 128, 340
-0.990971, 1, 77, 64, 108
-0.990985, 89, 337, 152, 368
-0.991026, 201, 269, 264, 300
-0.991032, 177, 41, 304, 104
-0.991035, 321, 165, 384, 196
-0.99104, 409, 189, 472, 220
-0.991043, 105, 177, 168, 208
-0.991062, 337, 277, 400, 308
-0.991069, 177, 145, 240, 176
-0.991081, 129, 329, 192, 360
-0.991081, 81, 181, 144, 212
-0.99109, 217, 205, 280, 236
-0.991093, 193, 209, 256, 240
-0.991104, 105, 313, 168, 344
-0.991107, 385, 293, 448, 324
-0.991118, 297, 269, 360, 300
-0.991119, 121, 153, 184, 184
-0.991148, 301, 241, 332, 368
-0.991151, 345, 345, 408, 375
-0.991156, 161, 341, 224, 372
-0.991156, 33, 105, 96, 136
-0.99116, 169, 225, 232, 256
-0.991175, 177, 289, 240, 320
-0.991203, 225, 153, 288, 184
-0.991221, 289, 89, 416, 152
-0.991226, 313, 293, 376, 324
-0.991272, 201, 289, 264, 320
-0.991277, 225, 101, 288, 132
-0.991286, 169, 157, 232, 188
-0.991296, 249, 297, 312, 328
-0.991297, 193, 129, 448, 192
-0.991312, 305, 305, 368, 336
-0.991317, 41, 329, 104, 360
-0.991318, 441, 129, 472, 256
-0.991318, 25, 153, 88, 184
-0.991345, 385, 185, 448, 216
-0.991351, 185, 77, 248, 108
-0.99136, 1, 329, 64, 360
-0.991367, 73, 141, 136, 172
-0.991369, 297, 345, 360, 375
-0.991369, 113, 77, 176, 108
-0.99137, 81, 241, 144, 272
-0.991372, 353, 73, 480, 136
-0.991375, 169, 225, 200, 352
-0.991399, 321, 149, 384, 180
-0.991412, 265, 197, 328, 228
-0.991424, 145, 237, 208, 268
-0.991435, 241, 181, 304, 212
-0.991441, 9, 129, 72, 160
-0.991443, 121, 345, 184, 375
-0.991457, 433, 197, 496, 228
-0.991474, 73, 161, 136, 192
-0.991478, 49, 133, 112, 164
-0.991482, 145, 161, 176, 288
-0.991491, 57, 229, 120, 260
-0.991516, 57, 97, 120, 128
-0.991521, 297, 153, 360, 184
-0.991546, 113, 225, 176, 256
-0.991549, 137, 125, 200, 156
-0.991574, 145, 73, 208, 104
-0.991616, 417, 241, 448, 368
-0.991632, 1, 97, 64, 128
-0.991635, 353, 177, 416, 208
-0.991645, 321, 341, 384, 372
-0.991657, 433, 289, 496, 320
-0.991658, 273, 341, 336, 372
-0.991672, 289, 137, 352, 168
-0.991675, 9, 345, 72, 375
-0.991687, 361, 289, 424, 320
-0.991692, 225, 297, 288, 328
-0.99173, 265, 129, 328, 160
-0.991732, 33, 261, 96, 292
-0.991738, 225, 61, 288, 92
-0.991753, 33, 345, 96, 375
-0.991755, 257, 229, 320, 260
-0.991757, 217, 181, 280, 212
-0.991759, 65, 321, 128, 352
-0.991762, 105, 237, 168, 268
-0.991769, 257, 177, 500, 240
-0.991789, 89, 33, 120, 160
-0.991907, 273, 241, 400, 304
-0.991907, 353, 17, 416, 144
-0.991944, 133, 161, 164, 288
-0.992029, 169, 113, 200, 240
-0.992209, 1, 145, 500, 208
-0.992334, 89, 97, 120, 128
-0.99235, 237, 229, 268, 260
-0.992352, 1, 49, 32, 80
-0.992362, 129, 161, 384, 224
-0.992371, 205, 93, 236, 124
-0.99239, 149, 109, 180, 140
-0.992413, 149, 97, 180, 128
-0.992432, 225, 105, 256, 136
-0.992438, 189, 89, 220, 120
-0.992447, 113, 89, 144, 120
-0.992452, 133, 89, 164, 120
-0.992457, 257, 289, 500, 352
-0.992465, 165, 89, 196, 120
-0.992514, 1, 33, 32, 64
-0.992528, 173, 157, 204, 188
-0.992535, 221, 193, 252, 224
-0.992553, 221, 181, 252, 212
-0.992553, 153, 85, 184, 116
-0.992581, 253, 229, 284, 260
-0.992584, 101, 113, 132, 144
-0.992599, 265, 213, 296, 244
-0.992612, 177, 89, 208, 120
-0.992623, 21, 177, 52, 304
-0.992644, 265, 193, 296, 224
-0.992647, 441, 185, 472, 216
-0.992656, 257, 65, 384, 128
-0.99267, 181, 177, 212, 304
-0.992673, 85, 117, 116, 148
-0.992678, 257, 113, 384, 176
-0.99268, 353, 165, 384, 196
-0.992696, 201, 277, 232, 308
-0.992699, 205, 113, 236, 144
-0.992699, 245, 213, 276, 244
-0.992704, 353, 277, 384, 308
-0.992709, 85, 269, 116, 300
-0.992714, 193, 181, 224, 212
-0.992716, 281, 117, 312, 148
-0.992717, 217, 161, 248, 192
-0.992719, 141, 241, 172, 368
-0.992727, 85, 129, 116, 160
-0.992739, 101, 89, 132, 120
-0.992742, 245, 241, 276, 272
-0.99275, 201, 321, 232, 352
-0.992754, 237, 309, 268, 340
-0.992759, 105, 129, 136, 160
-0.992768, 17, 105, 48, 136
-0.99277, 101, 241, 132, 272
-0.992771, 97, 89, 224, 120
-0.992773, 457, 193, 488, 224
-0.992776, 181, 181, 212, 212
-0.992781, 1, 65, 256, 128
-0.992783, 81, 337, 112, 368
-0.992789, 145, 129, 176, 160
-0.992797, 185, 241, 216, 272
-0.992801, 333, 289, 364, 320
-0.992801, 221, 209, 252, 240
-0.992802, 97, 269, 128, 300
-0.992806, 221, 285, 252, 316
-0.99281, 421, 185, 452, 216
-0.992821, 33, 305, 288, 368
-0.992821, 429, 165, 460, 196
-0.992838, 217, 305, 248, 336
-0.992844, 17, 133, 48, 164
-0.992849, 145, 165, 176, 196
-0.992852, 201, 193, 232, 224
-0.992853, 313, 289, 344, 320
-0.992854, 345, 289, 376, 320
-0.992858, 369, 157, 400, 188
-0.992866, 97, 309, 128, 340
-0.992866, 37, 241, 68, 368
-0.992867, 49, 345, 80, 375
-0.992874, 225, 229, 256, 260
-0.992877, 253, 305, 284, 336
-0.99288, 33, 145, 64, 176
-0.99288, 17, 65, 48, 96
-0.99288, 189, 113, 220, 144
-0.992889, 265, 237, 296, 268
-0.992895, 341, 169, 372, 200
-0.992896, 177, 321, 208, 352
-0.992898, 425, 285, 456, 316
-0.992899, 1, 1, 32, 32
-0.992902, 117, 157, 148, 188
-0.992904, 253, 193, 284, 224
-0.992907, 1, 21, 32, 52
-0.992911, 217, 93, 248, 124
-0.992915, 25, 77, 56, 108
-0.99292, 65, 149, 96, 180
-0.992924, 269, 117, 300, 148
-0.992928, 1, 137, 256, 200
-0.992928, 217, 269, 248, 300
-0.992934, 185, 341, 216, 372
-0.992937, 345, 265, 376, 296
-0.992938, 113, 237, 144, 268
-0.992941, 233, 217, 264, 248
-0.992945, 233, 181, 264, 212
-0.99295, 201, 305, 232, 336
-0.992953, 441, 173, 472, 204
-0.992953, 61, 341, 92, 372
-0.992954, 241, 97, 272, 128
-0.992955, 173, 237, 204, 268
-0.992956, 169, 177, 200, 208
-0.99296, 181, 305, 212, 336
-0.99296, 189, 329, 220, 360
-0.992966, 77, 321, 108, 352
-0.99297, 29, 93, 60, 124
-0.992972, 133, 157, 164, 188
-0.992981, 361, 177, 392, 208
-0.992985, 317, 141, 348, 172
-0.992985, 297, 125, 328, 156
-0.992987, 257, 117, 288, 148
-0.992989, 265, 225, 296, 256
-0.992989, 173, 77, 204, 108
-0.99299, 209, 217, 240, 248
-0.99299, 261, 181, 292, 212
-0.992991, 209, 181, 240, 212
-0.992993, 185, 101, 216, 132
-0.992993, 253, 293, 284, 324
-0.992994, 301, 289, 332, 320
-0.992995, 133, 117, 164, 148
-0.992995, 153, 149, 184, 180
-0.992996, 165, 101, 196, 132
-0.992997, 161, 309, 192, 340
-0.992999, 469, 157, 500, 188
-0.993005, 413, 157, 444, 188
-0.993005, 149, 329, 180, 360
-0.993006, 133, 77, 164, 108
-0.993013, 201, 289, 232, 320
-0.993015, 305, 313, 336, 344
-0.993019, 25, 345, 56, 375
-0.99302, 229, 145, 260, 176
-0.99302, 217, 129, 248, 160
-0.99302, 237, 193, 268, 224
-0.993021, 89, 233, 120, 264
-0.993022, 105, 181, 136, 212
-0.993022, 129, 305, 384, 368
-0.993023, 37, 345, 68, 375
-0.993024, 189, 317, 220, 348
-0.993026, 253, 321, 284, 352
-0.993028, 405, 341, 436, 372
-0.993029, 373, 289, 404, 320
-0.993035, 233, 293, 264, 324
-0.99304, 261, 165, 292, 196
-0.993044, 233, 325, 264, 356
-0.99311, 469, 81, 500, 208
-0.993209, 305, 209, 432, 272
-0.993252, 465, 241, 496, 368
-0.993255, 13, 241, 44, 368
-0.993343, 65, 185, 320, 248
-0.993482, 109, 89, 124, 152
-0.993489, 145, 101, 272, 132
-0.993512, 153, 241, 184, 368
-0.993514, 353, 157, 480, 188
-0.993527, 125, 17, 156, 144
-0.993542, 97, 89, 112, 152
-0.9936, 1, 97, 32, 224
-0.993616, 273, 41, 400, 104
-0.99365, 65, 109, 192, 140
-0.993652, 277, 161, 292, 224
-0.993747, 193, 201, 448, 264
-0.993988, 115, 89, 130, 152
-0.993991, 213, 89, 228, 152
-0.994008, 25, 1, 56, 128
-0.994013, 225, 265, 480, 328
-0.994037, 193, 117, 320, 148
-0.994077, 1, 305, 500, 368
-0.994084, 125, 241, 156, 368
-0.99411, 1, 225, 256, 288
-0.994131, 11, 17, 26, 80
-0.994149, 401, 241, 432, 368
-0.994212, 161, 105, 416, 168
-0.994223, 89, 97, 104, 160
-0.99423, 1, 201, 500, 264
-0.994236, 17, 97, 144, 128
-0.994241, 485, 161, 500, 224
-0.994253, 205, 1, 236, 128
-0.994253, 193, 237, 320, 268
-0.994269, 237, 225, 252, 288
-0.994333, 431, 153, 446, 216
-0.994347, 401, 49, 464, 176
-0.99436, 123, 81, 138, 144
-0.994374, 129, 281, 384, 344
-0.994405, 353, 177, 480, 208
-0.994407, 199, 89, 214, 152
-0.994505, 369, 9, 496, 72
-0.994509, 241, 73, 256, 136
-0.994537, 253, 209, 268, 272
-0.994556, 189, 225, 204, 288
-0.994559, 193, 189, 320, 220
-0.994571, 17, 141, 144, 172
-0.994582, 17, 109, 144, 140
-0.994597, 65, 41, 192, 104
-0.994607, 161, 65, 416, 128
-0.99461, 33, 273, 288, 336
-0.994637, 445, 161, 460, 224
-0.994637, 439, 161, 454, 224
-0.994713, 191, 81, 206, 144
-0.994735, 33, 161, 288, 224
-0.994735, 225, 33, 352, 96
-0.994782, 31, 65, 46, 128
-0.994792, 33, 341, 160, 372
-0.9948, 1, 1, 16, 64
-0.994808, 321, 49, 448, 112
-0.994819, 231, 97, 246, 160
-0.994819, 273, 177, 400, 208
-0.994823, 233, 265, 248, 328
-0.99484, 425, 153, 440, 216
-0.994862, 223, 217, 238, 280
-0.994865, 225, 313, 480, 375
-0.994904, 155, 89, 170, 152
-0.994925, 65, 133, 192, 164
-0.994939, 1, 249, 500, 312
-0.994944, 1, 121, 500, 184
-0.994978, 263, 217, 278, 280
-0.994984, 243, 225, 258, 288
-0.994992, 97, 157, 224, 188
-0.995016, 369, 189, 496, 220
-0.995032, 413, 153, 428, 216
-0.995035, 1, 121, 128, 152
-0.99506, 247, 201, 262, 264
-0.99508, 239, 281, 254, 344
-0.995092, 223, 305, 238, 368
-0.995099, 113, 137, 128, 200
-0.995099, 485, 193, 500, 256
-0.995103, 17, 81, 144, 112
-0.995106, 219, 89, 234, 152
-0.995118, 145, 113, 272, 144
-0.995126, 169, 81, 184, 144
-0.995143, 273, 157, 400, 188
-0.995147, 173, 153, 188, 216
-0.995174, 1, 25, 256, 88
-0.995196, 419, 153, 434, 216
-0.995201, 97, 241, 352, 304
-0.995203, 129, 313, 256, 344
-0.995207, 323, 281, 338, 344
-0.99521, 241, 289, 368, 320
-0.995225, 103, 89, 118, 152
-0.995233, 485, 137, 500, 200
-0.995239, 361, 161, 376, 224
-0.995243, 145, 89, 272, 120
-0.995243, 269, 113, 284, 176
-0.995272, 113, 225, 128, 288
-0.995293, 225, 225, 480, 288
-0.995298, 245, 97, 276, 352
-0.995302, 331, 281, 346, 344
-0.995325, 231, 233, 246, 296
-0.995327, 205, 89, 220, 152
-0.995333, 1, 169, 500, 232
-0.995342, 143, 81, 158, 144
-0.99535, 247, 73, 262, 136
-0.995365, 407, 153, 422, 216
-0.995367, 123, 161, 138, 224
-0.995379, 373, 153, 388, 216
-0.995404, 239, 257, 254, 320
-0.995417, 159, 313, 174, 375
-0.995424, 229, 305, 244, 368
-0.995439, 217, 201, 232, 264
-0.995442, 225, 97, 240, 160
-0.99545, 257, 129, 288, 375
-0.995477, 233, 161, 248, 224
-0.995479, 193, 225, 320, 256
-0.99548, 309, 281, 324, 344
-0.995508, 451, 177, 466, 240
-0.995531, 161, 177, 288, 208
-0.995535, 21, 49, 36, 112
-0.995553, 393, 153, 408, 216
-0.995599, 149, 305, 164, 368
-0.995604, 223, 193, 238, 256
-0.995607, 193, 209, 320, 240
-0.995614, 337, 293, 464, 324
-0.995615, 181, 153, 196, 216
-0.995617, 233, 97, 264, 352
-0.995621, 193, 1, 320, 64
-0.995621, 479, 161, 494, 224
-0.995622, 97, 209, 352, 272
-0.995651, 81, 237, 208, 268
-0.995655, 237, 305, 252, 368
-0.995672, 471, 185, 486, 248
-0.995694, 235, 201, 250, 264
-0.995696, 185, 81, 200, 144
-0.995704, 107, 113, 122, 176
-0.995708, 159, 113, 174, 176
-0.995725, 37, 137, 52, 200
-0.995738, 369, 105, 496, 168
-0.99574, 357, 265, 372, 328
-0.995741, 65, 121, 192, 152
-0.995746, 117, 161, 132, 224
-0.995755, 355, 177, 370, 240
-0.995761, 183, 1, 198, 64
-0.995779, 257, 105, 500, 168
-0.995789, 129, 81, 144, 144
-0.995831, 367, 153, 382, 216
-0.995841, 233, 137, 248, 200
-0.995842, 81, 137, 96, 200
-0.995853, 193, 161, 320, 192
-0.995858, 289, 345, 416, 375
-0.995861, 135, 153, 150, 216
-0.995871, 257, 317, 384, 348
-0.995877, 259, 113, 274, 176
-0.995877, 81, 181, 208, 212
-0.995883, 245, 249, 260, 312
-0.995885, 287, 297, 302, 360
-0.995889, 295, 113, 310, 176
-0.9959, 5, 25, 20, 88
-0.995919, 269, 217, 284, 280
-0.995924, 97, 225, 224, 256
-0.995925, 369, 33, 496, 96
-0.995929, 315, 129, 330, 192
-0.99593, 1, 1, 256, 64
-0.995933, 235, 73, 250, 136
-0.995941, 383, 153, 398, 216
-0.995953, 241, 201, 256, 264
-0.995966, 1, 97, 500, 160
-0.995967, 289, 293, 416, 324
-0.995968, 149, 89, 164, 152
-0.995974, 273, 257, 288, 320
-0.995978, 221, 65, 252, 320
-0.995992, 115, 113, 130, 176
-0.995994, 197, 305, 212, 368
-0.996017, 281, 97, 312, 352
-0.99602, 479, 193, 494, 256
-0.996025, 277, 185, 292, 248
-0.996028, 281, 257, 296, 320
-0.996029, 289, 277, 416, 308
-0.99603, 97, 341, 224, 372
-0.996044, 37, 73, 52, 136
-0.996048, 113, 77, 240, 108
-0.99605, 241, 145, 368, 176
-0.996052, 347, 289, 362, 352
-0.996067, 267, 185, 282, 248
-0.996077, 241, 189, 368, 220
-0.996077, 275, 297, 290, 360
-0.996077, 239, 113, 254, 176
-0.996079, 15, 41, 30, 104
-0.99608, 209, 301, 336, 332
-0.99608, 163, 89, 178, 152
-0.996093, 97, 325, 224, 356
-0.996097, 257, 1, 320, 128
-0.996097, 49, 1, 176, 64
-0.996099, 401, 153, 416, 216
-0.996108, 187, 313, 202, 375
-0.996108, 325, 137, 340, 200
-0.99611, 65, 145, 192, 176
-0.99611, 269, 161, 284, 224
-0.996116, 215, 177, 230, 240
-0.996118, 225, 161, 240, 224
-0.996124, 17, 233, 144, 264
-0.996131, 241, 201, 368, 232
-0.996143, 243, 305, 258, 368
-0.996146, 305, 145, 432, 176
-0.996146, 365, 129, 396, 375
-0.996147, 429, 129, 460, 375
-0.99616, 259, 193, 274, 256
-0.996164, 221, 281, 236, 344
-0.996164, 293, 281, 308, 344
-0.996171, 251, 233, 266, 296
-0.996183, 145, 225, 272, 256
-0.996191, 151, 113, 166, 176
-0.996193, 113, 125, 240, 156
-0.996201, 209, 161, 224, 224
-0.996208, 145, 161, 272, 192
-0.996213, 267, 289, 282, 352
-0.996223, 63, 153, 78, 216
-0.996224, 285, 113, 300, 176
-0.996226, 45, 145, 60, 208
-0.996248, 343, 161, 358, 224
-0.996252, 315, 289, 330, 352
-0.996265, 441, 185, 456, 248
-0.996277, 89, 121, 104, 184
-0.996277, 7, 49, 22, 112
-0.996286, 193, 329, 320, 360
-0.996296, 107, 241, 122, 304
-0.996297, 321, 1, 448, 64
-0.996307, 329, 129, 360, 375
-0.996308, 257, 73, 500, 136
-0.996311, 209, 313, 336, 344
-0.996313, 417, 185, 432, 248
-0.996321, 253, 81, 268, 144
-0.996326, 269, 97, 300, 352
-0.996337, 241, 261, 368, 292
-0.996376, 401, 129, 432, 375
-0.996427, 177, 285, 304, 316
-0.996435, 1, 153, 128, 184
-0.996436, 17, 309, 144, 340
-0.996448, 81, 309, 208, 340
-0.99646, 225, 129, 352, 160
-0.996511, 241, 213, 368, 244
-0.996512, 1, 57, 128, 88
-0.99652, 97, 137, 352, 200
-0.996524, 145, 337, 272, 368
-0.996537, 321, 329, 448, 360
-0.996538, 381, 129, 412, 375
-0.996562, 209, 101, 336, 132
-0.996583, 1, 281, 500, 344
-0.996584, 241, 273, 368, 304
-0.996594, 161, 301, 288, 332
-0.996619, 161, 249, 288, 280
-0.996638, 209, 65, 240, 320
-0.996666, 193, 261, 320, 292
-0.996701, 1, 73, 500, 136
-0.996716, 1, 269, 128, 300
-0.996755, 21, 65, 52, 320
-0.996791, 209, 173, 336, 204
-0.99682, 85, 65, 116, 320
-0.996832, 145, 149, 272, 180
-0.996835, 413, 129, 444, 375
-0.996857, 17, 69, 144, 100
-0.996871, 243, 229, 258, 260
-0.996901, 353, 309, 480, 340
-0.996928, 5, 1, 36, 256
-0.996941, 145, 237, 272, 268
-0.996956, 49, 325, 176, 356
-0.996956, 257, 333, 384, 364
-0.996957, 301, 97, 332, 352
-0.996963, 337, 277, 464, 308
-0.996971, 273, 109, 400, 140
-0.996985, 231, 101, 246, 132
-0.996994, 125, 65, 156, 320
-0.996997, 17, 165, 144, 196
-0.997026, 317, 129, 348, 375
-0.997087, 145, 193, 272, 224
-0.997115, 33, 181, 160, 212
-0.99713, 253, 229, 268, 260
-0.997131, 17, 221, 144, 252
-0.997132, 89, 97, 104, 128
-0.997139, 369, 345, 496, 375
-0.997142, 241, 225, 368, 256
-0.997167, 113, 237, 128, 268
-0.997182, 11, 9, 26, 40
-0.997196, 155, 109, 170, 140
-0.997235, 353, 129, 384, 375
-0.997243, 13, 37, 28, 68
-0.997248, 13, 25, 28, 56
-0.997254, 187, 237, 202, 268
-0.997259, 99, 93, 114, 124
-0.997275, 259, 229, 274, 260
-0.997276, 193, 65, 224, 320
-0.99728, 53, 345, 68, 375
-0.997294, 209, 89, 336, 120
-0.997294, 177, 273, 304, 304
-0.997302, 97, 169, 224, 200
-0.997324, 173, 1, 204, 256
-0.997329, 213, 93, 228, 124
-0.997331, 65, 129, 96, 375
-0.997367, 209, 185, 224, 216
-0.997369, 145, 65, 176, 320
-0.997375, 3, 29, 18, 60
-0.997375, 1, 329, 128, 360
-0.997378, 65, 77, 192, 108
-0.997381, 233, 1, 264, 256
-0.997384, 1, 245, 128, 276
-0.997386, 223, 221, 238, 252
-0.99739, 203, 181, 218, 212
-0.997397, 65, 273, 192, 304
-0.997403, 1, 257, 128, 288
-0.997413, 209, 249, 336, 280
-0.997428, 113, 109, 128, 140
-0.997436, 155, 89, 170, 120
-0.997437, 97, 293, 224, 324
-0.99744, 115, 89, 130, 120
-0.997447, 1, 1, 16, 32
-0.997457, 305, 317, 432, 348
-0.99746, 17, 297, 144, 328
-0.99747, 277, 165, 292, 196
-0.99747, 195, 89, 210, 120
-0.997475, 167, 89, 182, 120
-0.99748, 49, 193, 176, 224
-0.997483, 101, 65, 132, 320
-0.997484, 147, 89, 162, 120
-0.997492, 257, 305, 384, 336
-0.997495, 179, 153, 194, 184
-0.997512, 17, 281, 144, 312
-0.997513, 195, 181, 210, 212
-0.997515, 445, 169, 460, 200
-0.997515, 1, 225, 500, 288
-0.997516, 239, 89, 254, 120
-0.997545, 469, 129, 500, 375
-0.997547, 3, 49, 18, 80
-0.997552, 173, 85, 188, 116
-0.997564, 277, 193, 292, 224
-0.997573, 357, 273, 372, 304
-0.997573, 35, 77, 50, 108
-0.997578, 201, 89, 216, 120
-0.997579, 89, 133, 104, 164
-0.997583, 363, 165, 378, 196
-0.997583, 321, 189, 448, 220
-0.997589, 107, 109, 122, 140
-0.99759, 41, 129, 72, 375
-0.99759, 241, 345, 368, 375
-0.997596, 223, 97, 238, 128
-0.997606, 207, 93, 222, 124
-0.997616, 239, 101, 254, 132
-0.997623, 217, 197, 232, 228
-0.99763, 109, 89, 124, 120
-0.997637, 161, 93, 176, 124
-0.997637, 353, 201, 480, 232
-0.99764, 145, 213, 272, 244
-0.997642, 253, 241, 268, 272
-0.997643, 1, 45, 128, 76
-0.997645, 145, 325, 272, 356
-0.997651, 289, 117, 304, 148
-0.997656, 369, 333, 496, 364
-0.997665, 427, 185, 442, 216
-0.997677, 1, 205, 128, 236
-0.997677, 441, 129, 472, 375
-0.99768, 289, 121, 416, 152
-0.997683, 221, 209, 236, 240
-0.997688, 121, 89, 136, 120
-0.997688, 177, 77, 304, 108
-0.997708, 13, 49, 28, 80
-0.99771, 113, 65, 144, 320
-0.997714, 189, 89, 204, 120
-0.997718, 235, 241, 250, 272
-0.997724, 241, 61, 256, 92
-0.997726, 337, 265, 464, 296
-0.997727, 257, 217, 272, 248
-0.997728, 65, 261, 192, 292
-0.997728, 17, 33, 144, 64
-0.99773, 219, 289, 234, 320
-0.997734, 3, 13, 18, 44
-0.997737, 241, 9, 368, 72
-0.997744, 29, 129, 44, 160
-0.997751, 31, 105, 46, 136
-0.997752, 215, 185, 230, 216
-0.997756, 1, 49, 500, 112
-0.997763, 231, 221, 246, 252
-0.997765, 161, 81, 176, 112
-0.997767, 241, 237, 368, 268
-0.997768, 323, 289, 338, 320
-0.997774, 265, 1, 296, 256
-0.997776, 401, 33, 432, 288
-0.997778, 237, 229, 252, 260
-0.997791, 97, 41, 352, 104
-0.997792, 273, 249, 400, 280
-0.997796, 221, 125, 236, 156
-0.997808, 237, 261, 252, 292
-0.997816, 193, 165, 208, 196
-0.997821, 141, 81, 156, 112
-0.997827, 235, 181, 250, 212
-0.997834, 27, 65, 42, 96
-0.997837, 357, 169, 372, 200
-0.997843, 203, 321, 218, 352
-0.997846, 367, 277, 382, 308
-0.997859, 253, 313, 268, 344
-0.99786, 485, 137, 500, 168
-0.997885, 19, 53, 34, 84
-0.997898, 227, 237, 242, 268
-0.997904, 471, 189, 486, 220
-0.997907, 349, 289, 364, 320
-0.997907, 449, 185, 464, 216
-0.997911, 305, 133, 432, 164
-0.997912, 123, 161, 138, 192
-0.99792, 201, 101, 216, 132
-0.997922, 255, 193, 270, 224
-0.997923, 25, 113, 40, 144
-0.997929, 185, 177, 200, 208
-0.997931, 233, 161, 248, 192
-0.997933, 359, 289, 374, 320
-0.997936, 109, 177, 124, 208
-0.997943, 261, 193, 276, 224
-0.997943, 313, 289, 328, 320
-0.997945, 353, 221, 480, 252
-0.997947, 191, 321, 206, 352
-0.99795, 193, 145, 320, 176
-0.997953, 261, 305, 276, 336
-0.997959, 1, 249, 256, 312
-0.997963, 245, 101, 260, 132
-0.997968, 223, 113, 238, 144
-0.99797, 231, 269, 246, 300
-0.997971, 369, 141, 496, 172
-0.997973, 161, 65, 192, 320
-0.99798, 113, 165, 128, 196
-0.997981, 89, 109, 104, 140
-0.997987, 95, 337, 110, 368
-0.997988, 305, 305, 432, 336
-0.99799, 257, 41, 500, 104
-0.997991, 241, 73, 256, 104
-0.997997, 231, 205, 246, 236
-0.998001, 183, 89, 198, 120
-0.99802, 369, 321, 496, 352
-0.998021, 39, 345, 54, 375
-0.998021, 215, 273, 230, 304
-0.998024, 327, 145, 342, 176
-0.998026, 195, 341, 210, 372
-0.998029, 353, 241, 480, 272
-0.99803, 351, 277, 366, 308
-0.99803, 341, 129, 372, 375
-0.998044, 131, 153, 146, 184
-0.998045, 317, 137, 332, 168
-0.998045, 247, 197, 262, 228
-0.998049, 63, 345, 78, 375
-0.998049, 129, 273, 256, 304
-0.99805, 221, 237, 236, 268
-0.998051, 295, 117, 310, 148
-0.998052, 355, 181, 370, 212
-0.998052, 317, 325, 332, 356
-0.998053, 439, 165, 454, 196
-0.998054, 131, 89, 146, 120
-0.998057, 37, 141, 52, 172
-0.998058, 343, 165, 358, 196
-0.998059, 435, 185, 450, 216
-0.998059, 111, 225, 126, 256
-0.998062, 217, 221, 232, 252
-0.998073, 271, 117, 286, 148
-0.998074, 379, 289, 394, 320
-0.998075, 463, 193, 478, 224
-0.998076, 113, 137, 240, 168
-0.99808, 279, 117, 294, 148
-0.998082, 97, 261, 112, 292
-0.998084, 25, 53, 40, 84
-0.998086, 337, 157, 352, 188
-0.998087, 263, 241, 278, 272
-0.998089, 251, 209, 266, 240
-0.99809, 253, 1, 284, 256
-0.998118, 53, 129, 84, 375
-0.998133, 177, 49, 304, 80
-0.998139, 389, 33, 420, 288
-0.998146, 1, 193, 128, 224
-0.998151, 457, 129, 488, 375
-0.998163, 193, 341, 320, 372
-0.99817, 81, 249, 208, 280
-0.998176, 145, 9, 272, 40
-0.998223, 277, 1, 308, 256
-0.9983, 421, 33, 452, 288
-0.998356, 377, 33, 408, 288
-0.998358, 65, 1, 96, 256
-0.998387, 129, 89, 192, 104
-0.998401, 73, 113, 136, 128
-0.998407, 161, 91, 224, 106
-0.998407, 105, 91, 168, 106
-0.998407, 241, 69, 368, 100
-0.998418, 465, 195, 496, 210
-0.998419, 381, 293, 412, 308
-0.998419, 61, 357, 92, 372
-0.998419, 269, 323, 300, 338
-0.998419, 129, 333, 160, 348
-0.99842, 269, 251, 300, 266
-0.99842, 305, 313, 336, 328
-0.998421, 85, 115, 116, 130
-0.998421, 197, 271, 228, 286
-0.998422, 413, 159, 444, 174
-0.998422, 193, 243, 224, 258
-0.998423, 237, 265, 268, 280
-0.998426, 253, 203, 284, 218
-0.998427, 369, 293, 400, 308
-0.998427, 197, 93, 228, 108
-0.998427, 357, 179, 388, 194
-0.998428, 265, 229, 296, 244
-0.998428, 429, 165, 460, 180
-0.998428, 5, 361, 36, 375
-0.998429, 173, 159, 204, 174
-0.998429, 21, 107, 52, 122
-0.99843, 253, 327, 284, 342
-0.99843, 25, 89, 56, 104
-0.99843, 373, 159, 404, 174
-0.99843, 233, 203, 264, 218
-0.998431, 21, 79, 52, 94
-0.998432, 153, 345, 184, 360
-0.998432, 201, 183, 232, 198
-0.998433, 17, 137, 48, 152
-0.998433, 89, 237, 120, 252
-0.998434, 301, 325, 332, 340
-0.998434, 1, 23, 32, 38
-0.998434, 221, 229, 252, 244
-0.998435, 321, 317, 352, 332
-0.998435, 149, 191, 180, 206
-0.998437, 189, 343, 220, 358
-0.998437, 121, 111, 184, 126
-0.998437, 261, 121, 292, 136
-0.998437, 129, 261, 256, 292
-0.998438, 261, 165, 292, 180
-0.998439, 233, 191, 264, 206
-0.998439, 261, 235, 292, 250
-0.99844, 341, 293, 372, 308
-0.998441, 237, 331, 268, 346
-0.998441, 81, 279, 112, 294
-0.998441, 429, 285, 460, 300
-0.998442, 249, 193, 280, 208
-0.998442, 349, 167, 380, 182
-0.998442, 1, 55, 32, 70
-0.998442, 97, 17, 352, 80
-0.998442, 217, 229, 280, 244
-0.998442, 145, 129, 176, 144
-0.998443, 221, 235, 252, 250
-0.998443, 349, 33, 380, 288
-0.998444, 317, 289, 348, 304
-0.998444, 101, 247, 132, 262
-0.998446, 241, 193, 304, 208
-0.998446, 185, 321, 216, 336
-0.998446, 21, 117, 52, 132
-0.998446, 209, 129, 240, 144
-0.998446, 101, 181, 132, 196
-0.998446, 233, 197, 264, 212
-0.998447, 113, 121, 176, 136
-0.998448, 233, 243, 264, 258
-0.998448, 229, 213, 260, 228
-0.99845, 217, 335, 248, 350
-0.998451, 153, 99, 184, 114
-0.998451, 409, 185, 440, 200
-0.998452, 221, 203, 252, 218
-0.998453, 265, 199, 296, 214
-0.998454, 41, 359, 72, 374
-0.998455, 441, 191, 472, 206
-0.998456, 9, 61, 40, 76
-0.998457, 257, 1, 500, 64
-0.998457, 421, 185, 452, 200
-0.998458, 209, 319, 240, 334
-0.998458, 293, 1, 324, 256
-0.99846, 33, 145, 64, 160
-0.998461, 421, 191, 452, 206
-0.998466, 73, 121, 136, 136
-0.998467, 49, 347, 80, 362
-0.998468, 209, 97, 240, 112
-0.998468, 221, 163, 252, 178
-0.998468, 225, 267, 256, 282
-0.998469, 73, 129, 136, 144
-0.99847, 141, 91, 172, 106
-0.99847, 253, 209, 284, 224
-0.998471, 41, 361, 104, 375
-0.998472, 189, 335, 220, 350
-0.998472, 201, 285, 232, 300
-0.998472, 193, 237, 256, 252
-0.998473, 241, 233, 304, 248
-0.998474, 265, 205, 296, 220
-0.998474, 13, 67, 44, 82
-0.998476, 29, 355, 60, 370
-0.998477, 33, 349, 64, 364
-0.998477, 181, 247, 212, 262
-0.998477, 329, 291, 360, 306
-0.998477, 49, 353, 80, 368
-0.998478, 149, 85, 180, 100
-0.998478, 241, 217, 272, 232
-0.99848, 265, 191, 296, 206
-0.99848, 201, 189, 232, 204
-0.99848, 1, 3, 32, 18
-0.99848, 241, 239, 304, 254
-0.998482, 217, 237, 280, 252
-0.998485, 185, 91, 216, 106
-0.998485, 85, 133, 116, 148
-0.998485, 241, 209, 272, 224
-0.998485, 73, 361, 104, 375
-0.998486, 1, 35, 32, 50
-0.998486, 257, 121, 320, 136
-0.998486, 149, 117, 180, 132
-0.998488, 97, 95, 128, 110
-0.998489, 241, 199, 304, 214
-0.998491, 121, 127, 184, 142
-0.998493, 117, 89, 148, 104
-0.998493, 349, 173, 380, 188
-0.998493, 205, 327, 236, 342
-0.998494, 173, 191, 204, 206
-0.998496, 173, 341, 204, 356
-0.998498, 153, 189, 216, 204
-0.998499, 73, 107, 136, 122
-0.998501, 221, 105, 252, 120
-0.998502, 241, 209, 304, 224
-0.998504, 145, 111, 208, 126
-0.998504, 185, 183, 216, 198
-0.998507, 205, 113, 236, 128
-0.998507, 165, 185, 196, 200
-0.998507, 433, 189, 496, 204
-0.998507, 281, 121, 312, 136
-0.998507, 81, 93, 144, 108
-0.998507, 85, 97, 116, 112
-0.998508, 97, 113, 160, 128
-0.998508, 101, 113, 132, 128
-0.998508, 409, 185, 472, 200
-0.998509, 73, 353, 136, 368
-0.998511, 217, 185, 248, 200
-0.998512, 453, 193, 484, 208
-0.998513, 121, 97, 184, 112
-0.998513, 145, 117, 208, 132
-0.998515, 221, 287, 252, 302
-0.998515, 193, 111, 256, 126
-0.998518, 185, 111, 216, 126
-0.998519, 177, 243, 240, 258
-0.998523, 193, 191, 256, 206
-0.998524, 233, 165, 296, 180
-0.998525, 81, 213, 208, 244
-0.998526, 297, 307, 360, 322
-0.998528, 185, 329, 248, 344
-0.998528, 105, 241, 136, 256
-0.998531, 221, 195, 252, 210
-0.998534, 433, 185, 464, 200
-0.998535, 137, 83, 200, 98
-0.998536, 193, 183, 256, 198
-0.998538, 305, 291, 368, 306
-0.998539, 153, 327, 216, 342
-0.998539, 153, 183, 216, 198
-0.998539, 177, 155, 240, 170
-0.99854, 217, 203, 280, 218
-0.99854, 337, 293, 400, 308
-0.998542, 233, 237, 264, 252
-0.998543, 85, 103, 116, 118
-0.998543, 49, 149, 112, 164
-0.998543, 361, 159, 424, 174
-0.998544, 177, 335, 240, 350
-0.998545, 469, 33, 500, 288
-0.998546, 221, 111, 252, 126
-0.998548, 145, 333, 208, 348
-0.998549, 241, 323, 304, 338
-0.998551, 129, 89, 160, 104
-0.998554, 169, 89, 200, 104
-0.998554, 433, 157, 496, 172
-0.998554, 265, 211, 296, 226
-0.998554, 137, 155, 200, 170
-0.998555, 217, 111, 280, 126
-0.998556, 241, 215, 304, 230
-0.998557, 321, 165, 384, 180
-0.998557, 273, 323, 336, 338
-0.998558, 185, 93, 248, 108
-0.998559, 265, 301, 328, 316
-0.998559, 409, 193, 472, 208
-0.99856, 209, 319, 272, 334
-0.998562, 5, 49, 36, 64
-0.998563, 209, 91, 272, 106
-0.998563, 73, 101, 136, 116
-0.998564, 181, 241, 212, 256
-0.998565, 353, 353, 416, 368
-0.998566, 265, 317, 328, 332
-0.998566, 217, 209, 280, 224
-0.998567, 225, 121, 288, 136
-0.998568, 377, 295, 440, 310
-0.99857, 249, 239, 280, 254
-0.99857, 33, 105, 96, 120
-0.998571, 233, 295, 296, 310
-0.998571, 17, 361, 80, 375
-0.998572, 217, 251, 280, 266
-0.998574, 41, 345, 104, 360
-0.998574, 321, 155, 384, 170
-0.998575, 225, 159, 288, 174
-0.998575, 73, 135, 136, 150
-0.998575, 161, 163, 224, 178
-0.998575, 33, 97, 96, 112
-0.998576, 249, 309, 312, 324
-0.998576, 233, 229, 264, 244
-0.998576, 241, 221, 304, 236
-0.998576, 33, 143, 96, 158
-0.998578, 217, 215, 280, 230
-0.998578, 1, 143, 64, 158
-0.998579, 97, 241, 160, 256
-0.998579, 241, 259, 304, 274
-0.99858, 65, 359, 128, 374
-0.99858, 217, 243, 280, 258
-0.99858, 73, 241, 136, 256
-0.99858, 393, 161, 456, 176
-0.998581, 9, 355, 72, 370
-0.998582, 33, 113, 96, 128
-0.998582, 209, 289, 272, 304
-0.998583, 401, 289, 464, 304
-0.998583, 257, 251, 320, 266
-0.998584, 433, 195, 496, 210
-0.998584, 185, 317, 248, 332
-0.998584, 129, 189, 192, 204
-0.998585, 33, 315, 96, 330
-0.998585, 217, 189, 280, 204
-0.998587, 1, 41, 32, 56
-0.998587, 145, 241, 208, 256
-0.998587, 225, 329, 288, 344
-0.998588, 169, 307, 232, 322
-0.998588, 1, 81, 64, 96
-0.998589, 33, 137, 96, 152
-0.998589, 225, 307, 288, 322
-0.998589, 193, 163, 256, 178
-0.99859, 185, 117, 248, 132
-0.998592, 105, 105, 168, 120
-0.998592, 153, 91, 184, 106
-0.998592, 65, 311, 128, 326
-0.998594, 257, 333, 320, 348
-0.998594, 297, 353, 360, 368
-0.998594, 105, 359, 168, 374
-0.998594, 121, 161, 184, 176
-0.998595, 257, 127, 320, 142
-0.998595, 149, 111, 180, 126
-0.998595, 433, 165, 496, 180
-0.998595, 153, 321, 216, 336
-0.998596, 209, 85, 272, 100
-0.998596, 145, 195, 208, 210
-0.998596, 241, 227, 304, 242
-0.998597, 241, 245, 304, 260
-0.998597, 89, 183, 152, 198
-0.998597, 185, 103, 248, 118
-0.998597, 153, 347, 216, 362
-0.998597, 321, 171, 384, 186
-0.998598, 153, 339, 216, 354
-0.998598, 33, 155, 96, 170
-0.998598, 217, 223, 280, 238
-0.998599, 17, 349, 80, 364
-0.998599, 161, 133, 288, 164
-0.9986, 33, 1, 64, 256
-0.9986, 33, 123, 96, 138
-0.998601, 105, 349, 168, 364
-0.998601, 201, 265, 264, 280
-0.998601, 145, 99, 208, 114
-0.998602, 217, 195, 280, 210
-0.998623, 89, 81, 104, 208
-0.99866, 11, 1, 26, 128
-0.998674, 245, 231, 276, 246
-0.99869, 361, 33, 392, 288
-0.998693, 45, 33, 76, 288
-0.998697, 231, 81, 246, 208
-0.9987, 441, 33, 472, 288
-0.998744, 125, 81, 140, 208
-0.998744, 277, 145, 292, 272
-0.998768, 267, 97, 282, 224
-0.998773, 237, 65, 252, 192
-0.998774, 277, 97, 292, 224
-0.99879, 285, 97, 300, 224
-0.998804, 231, 225, 246, 352
-0.998804, 181, 97, 212, 352
-0.998809, 485, 145, 500, 272
-0.998829, 143, 65, 158, 192
-0.998846, 5, 1, 20, 128
-0.998849, 119, 81, 134, 208
-0.998865, 97, 81, 112, 208
-0.998866, 233, 161, 248, 288
-0.998869, 29, 49, 44, 176
-0.99888, 171, 65, 186, 192
-0.998899, 37, 65, 52, 192
-0.998909, 261, 225, 276, 352
-0.998913, 427, 145, 442, 272
-0.998913, 17, 33, 32, 160
-0.998914, 225, 193, 240, 320
-0.998915, 131, 81, 146, 208
-0.998931, 79, 129, 94, 256
-0.998938, 109, 113, 124, 240
-0.99894, 237, 209, 252, 336
-0.99895, 119, 161, 134, 288
-0.998957, 225, 81, 240, 208
-0.998967, 259, 97, 274, 224
-0.998974, 269, 193, 284, 320
-0.998978, 343, 145, 358, 272
-0.998982, 353, 161, 368, 288
-0.998995, 479, 113, 494, 240
-0.999015, 243, 97, 258, 224
-0.99902, 215, 193, 230, 320
-0.999024, 251, 225, 266, 352
-0.999025, 287, 193, 302, 320
-0.999036, 243, 241, 258, 368
-0.999043, 373, 145, 388, 272
-0.999049, 103, 81, 118, 208
-0.999052, 413, 145, 428, 272
-0.999055, 181, 81, 196, 208
-0.999059, 171, 1, 186, 128
-0.999061, 209, 81, 224, 208
-0.999062, 363, 145, 378, 272
-0.999062, 225, 241, 240, 368
-0.999066, 113, 65, 128, 192
-0.999073, 39, 129, 54, 256
-0.999079, 313, 33, 344, 288
-0.999082, 23, 33, 38, 160
-0.999086, 453, 33, 484, 288
-0.99909, 407, 145, 422, 272
-0.999091, 157, 65, 172, 192
-0.999093, 393, 145, 408, 272
-0.999094, 193, 81, 208, 208
-0.999097, 419, 145, 434, 272
-0.999097, 185, 17, 200, 144
-0.999099, 125, 145, 140, 272
-0.999101, 327, 129, 342, 256
-0.999103, 479, 177, 494, 304
-0.999104, 451, 161, 466, 288
-0.999106, 321, 25, 448, 88
-0.999108, 247, 49, 262, 176
-0.99911, 401, 145, 416, 272
-0.999111, 223, 145, 238, 272
-0.999112, 65, 129, 80, 256
-0.999114, 217, 97, 232, 224
-0.999116, 163, 65, 178, 192
-0.999118, 199, 81, 214, 208
-0.999121, 171, 145, 186, 272
-0.999134, 177, 161, 192, 288
-0.99914, 137, 81, 152, 208
-0.999146, 291, 97, 306, 224
-0.999148, 83, 81, 98, 208
-0.999148, 387, 145, 402, 272
-0.999148, 53, 145, 68, 272
-0.999156, 313, 113, 328, 240
-0.999157, 253, 97, 268, 224
-0.999162, 187, 81, 202, 208
-0.999165, 243, 193, 258, 320
-0.999168, 209, 129, 224, 256
-0.999169, 421, 193, 436, 320
-0.99918, 443, 145, 458, 272
-0.999182, 269, 241, 284, 368
-0.999183, 179, 17, 194, 144
-0.99919, 45, 129, 60, 256
-0.999191, 73, 129, 88, 256
-0.999192, 149, 65, 164, 192
-0.999197, 277, 225, 292, 352
-0.999199, 381, 145, 396, 272
-0.9992, 473, 177, 488, 304
-0.999201, 437, 145, 452, 272
-0.999206, 299, 113, 314, 240
-0.999208, 3, 49, 18, 176
-0.99921, 43, 81, 58, 208
-0.999215, 255, 49, 270, 176
-0.999216, 59, 145, 74, 272
-0.999216, 113, 161, 128, 288
-0.999218, 209, 177, 224, 304
-0.999218, 235, 17, 250, 144
-0.99922, 321, 129, 336, 256
-0.999229, 441, 241, 456, 368
-0.99923, 191, 17, 206, 144
-0.999234, 165, 1, 180, 128
-0.999243, 269, 145, 284, 272
-0.999247, 465, 177, 480, 304
-0.999254, 219, 241, 234, 368
-0.999263, 13, 81, 28, 208
-0.999264, 261, 161, 276, 288
-0.99927, 217, 145, 232, 272
-0.999273, 135, 129, 150, 256
-0.999277, 457, 177, 472, 304
-0.999279, 13, 161, 28, 288
-0.999281, 337, 145, 352, 272
-0.999283, 87, 129, 102, 256
-0.999284, 485, 193, 500, 320
-0.999292, 283, 241, 298, 368
-0.999294, 337, 33, 368, 288
-0.999296, 241, 145, 256, 272
-0.999304, 429, 241, 444, 368
-0.99931, 189, 129, 204, 256
-0.999311, 165, 113, 180, 240
-0.999314, 241, 17, 256, 144
-0.999314, 447, 241, 462, 368
-0.999317, 9, 97, 40, 352
-0.999318, 219, 49, 234, 176
-0.99932, 159, 1, 174, 128
-0.999323, 405, 97, 420, 224
-0.999324, 263, 49, 278, 176
-0.999324, 183, 145, 198, 272
-0.999325, 417, 97, 432, 224
-0.999326, 345, 241, 360, 368
-0.999326, 203, 161, 218, 288
-0.999329, 485, 97, 500, 224
-0.999409, 325, 1, 356, 256
-0.999621, 107, 241, 122, 256
-0.999622, 263, 239, 278, 254
-0.999622, 241, 67, 256, 82
-0.999623, 223, 235, 238, 250
-0.999623, 379, 291, 394, 306
-0.999623, 215, 97, 230, 112
-0.999624, 181, 339, 196, 354
-0.999624, 127, 155, 142, 170
-0.999624, 187, 185, 202, 200
-0.999624, 217, 185, 232, 200
-0.999624, 277, 171, 292, 186
-0.999624, 37, 89, 52, 104
-0.999624, 187, 249, 202, 264
-0.999624, 35, 79, 50, 94
-0.999625, 53, 147, 68, 162
-0.999625, 117, 353, 132, 368
-0.999626, 351, 293, 366, 308
-0.999626, 219, 325, 234, 340
-0.999626, 223, 195, 238, 210
-0.999628, 339, 291, 354, 306
-0.999628, 341, 315, 356, 330
-0.99963, 357, 273, 372, 288
-0.99963, 177, 185, 192, 200
-0.999631, 261, 215, 276, 230
-0.999631, 231, 109, 246, 124
-0.999631, 33, 139, 48, 154
-0.999632, 315, 137, 330, 152
-0.999632, 53, 349, 68, 364
-0.999633, 21, 61, 36, 76
-0.999633, 253, 197, 268, 212
-0.999633, 219, 289, 234, 304
-0.999633, 277, 213, 292, 228
-0.999635, 51, 361, 66, 375
-0.999635, 485, 147, 500, 162
-0.999636, 113, 247, 128, 262
-0.999637, 231, 161, 246, 176
-0.999638, 213, 205, 228, 220
-0.999639, 43, 145, 58, 160
-0.999639, 171, 185, 186, 200
-0.999639, 241, 77, 256, 92
-0.99964, 11, 19, 26, 34
-0.999641, 449, 189, 464, 204
-0.999642, 27, 129, 42, 144
-0.999643, 321, 141, 336, 156
-0.999644, 195, 335, 210, 350
-0.999645, 109, 93, 124, 108
-0.999645, 425, 191, 440, 206
-0.999646, 239, 235, 254, 250
-0.999646, 43, 349, 58, 364
-0.999646, 3, 19, 18, 34
-0.999648, 223, 129, 238, 144
-0.999649, 355, 185, 370, 200
-0.999651, 127, 89, 142, 104
-0.999651, 299, 125, 314, 140
-0.999651, 33, 109, 48, 124
-0.999652, 277, 193, 292, 208
-0.999653, 323, 323, 338, 338
-0.999653, 153, 85, 168, 100
-0.999654, 355, 171, 370, 186
-0.999654, 479, 151, 494, 166
-0.999654, 187, 91, 202, 106
-0.999657, 179, 89, 194, 104
-0.999657, 165, 89, 180, 104
-0.999657, 3, 33, 18, 48
-0.999658, 225, 109, 240, 124
-0.999658, 203, 327, 218, 342
-0.999659, 469, 191, 484, 206
-0.999659, 63, 357, 78, 372
-0.99966, 445, 167, 460, 182
-0.99966, 239, 99, 254, 114
-0.999661, 231, 267, 246, 282
-0.999662, 51, 355, 66, 370
-0.999662, 3, 25, 18, 40
-0.999663, 149, 339, 164, 354
-0.999664, 213, 327, 228, 342
-0.999665, 363, 165, 378, 180
-0.999666, 187, 339, 202, 354
-0.999666, 289, 119, 304, 134
-0.999667, 423, 185, 438, 200
-0.999669, 17, 55, 32, 70
-0.999669, 159, 91, 174, 106
-0.999669, 345, 291, 360, 306
-0.999669, 89, 135, 104, 150
-0.99967, 181, 159, 196, 174
-0.999672, 223, 227, 238, 242
-0.999675, 101, 95, 116, 110
-0.999676, 25, 67, 40, 82
-0.999677, 13, 33, 28, 48
-0.999678, 235, 185, 250, 200
-0.999679, 197, 181, 212, 196
-0.999681, 245, 203, 260, 218
-0.999685, 209, 183, 224, 198
-0.999686, 1, 11, 16, 26
-0.999686, 13, 25, 28, 40
-0.999687, 223, 99, 238, 114
-0.999688, 259, 231, 274, 246
-0.999688, 11, 5, 26, 20
-0.999689, 213, 319, 228, 334
-0.999691, 239, 229, 254, 244
-0.999692, 239, 265, 254, 280
-0.999695, 243, 195, 258, 210
-0.999696, 275, 165, 290, 180
-0.999698, 137, 89, 152, 104
-0.999698, 223, 219, 238, 234
-0.9997, 5, 5, 20, 20
-0.999701, 231, 237, 246, 252
-0.999705, 11, 13, 26, 28
-0.999711, 153, 91, 168, 106
-0.999713, 247, 231, 262, 246
-0.999716, 199, 111, 214, 126
-0.999718, 231, 103, 246, 118
-0.999718, 143, 89, 158, 104
-0.99972, 253, 239, 268, 254
-0.999721, 3, 45, 18, 60
-0.999721, 255, 209, 270, 224
-0.999721, 173, 89, 188, 104
-0.999723, 13, 45, 28, 60
-0.999723, 213, 191, 228, 206
-0.999727, 95, 97, 110, 112
-0.999731, 203, 185, 218, 200
-0.999735, 217, 199, 232, 214
-0.999738, 221, 207, 236, 222
-0.999746, 89, 101, 104, 116
-0.999751, 223, 213, 238, 228
-0.999754, 253, 231, 268, 246
-0.999765, 3, 39, 18, 54
-0.999765, 13, 39, 28, 54
-0.999781, 245, 237, 260, 252
-0.999808, 113, 241, 128, 256
-0.999827, 189, 241, 204, 256
-1.00124, 1, 1, 500, 64
-1.00125, 305, 1, 368, 128
-1.00136, 1, 25, 500, 88
-1.00411, 329, 1, 392, 128
