1963
-0.378514, 1, 97, 500, 352
-0.404082, 1, 1, 500, 375
-0.427958, 97, 1, 352, 375
-0.465209, 193, 1, 448, 375
-0.480485, 1, 1, 500, 256
-0.603005, 161, 1, 416, 256
-0.631937, 1, 1, 256, 375
-0.636264, 257, 33, 500, 288
-0.661693, 65, 65, 320, 320
-0.702189, 161, 97, 416, 352
-0.749812, 257, 129, 500, 375
-0.839975, 305, 1, 432, 375
-0.854196, 273, 1, 400, 256
-0.857376, 225, 1, 352, 375
-0.865409, 1, 145, 500, 272
-0.866512, 193, 65, 320, 320
-0.875352, 273, 97, 400, 352
-0.880691, 1, 97, 500, 224
-0.880751, 97, 1, 224, 256
-0.881434, 1, 1, 500, 128
-0.882877, 145, 1, 272, 375
-0.883071, 321, 33, 448, 288
-0.888356, 145, 65, 272, 320
-0.889304, 97, 129, 224, 375
-0.894386, 1, 1, 128, 256
-0.89488, 1, 49, 500, 176
-0.897041, 81, 1, 208, 375
-0.9042, 49, 65, 176, 320
-0.904708, 353, 1, 480, 375
-0.904846, 129, 65, 384, 192
-0.914081, 1, 1, 128, 375
-0.919394, 161, 1, 416, 128
-0.920939, 33, 161, 288, 288
-0.922691, 1, 193, 500, 320
-0.926835, 225, 49, 480, 176
-0.928493, 1, 65, 256, 192
-0.930483, 321, 17, 384, 144
-0.930579, 369, 1, 496, 256
-0.931392, 65, 1, 320, 128
-0.932679, 321, 129, 448, 375
-0.936111, 257, 17, 384, 144
-0.936544, 129, 113, 384, 240
-0.936544, 257, 113, 500, 240
-0.937249, 369, 129, 496, 375
-0.937638, 225, 65, 352, 192
-0.937963, 1, 129, 128, 375
-0.938606, 345, 33, 408, 160
-0.939219, 113, 113, 240, 240
-0.940558, 321, 81, 384, 208
-0.94157, 33, 113, 288, 240
-0.94224, 313, 57, 376, 120
-0.942275, 193, 161, 448, 288
-0.943969, 161, 97, 224, 224
-0.944577, 305, 113, 432, 240
-0.945379, 257, 1, 500, 128
-0.945744, 281, 1, 344, 128
-0.945846, 305, 17, 432, 144
-0.945886, 49, 145, 176, 272
-0.947227, 1, 209, 256, 336
-0.948148, 1, 241, 500, 368
-0.949817, 297, 49, 360, 176
-0.950564, 41, 177, 104, 304
-0.950839, 201, 145, 264, 272
-0.951243, 33, 193, 160, 320
-0.951525, 201, 81, 264, 208
-0.953172, 209, 1, 336, 128
-0.953302, 121, 129, 184, 256
-0.95361, 1, 209, 64, 336
-0.953751, 177, 145, 304, 272
-0.953956, 321, 33, 384, 96
-0.955015, 321, 81, 384, 144
-0.955318, 73, 161, 136, 288
-0.955361, 193, 169, 256, 232
-0.955793, 337, 57, 400, 120
-0.955794, 273, 65, 400, 192
-0.95589, 161, 81, 288, 208
-0.95647, 273, 65, 336, 192
-0.957094, 321, 65, 448, 192
-0.957222, 305, 153, 368, 216
-0.957515, 137, 65, 200, 192
-0.957948, 353, 1, 480, 128
-0.958208, 313, 129, 376, 256
-0.95863, 57, 1, 120, 128
-0.958833, 169, 49, 232, 176
-0.958851, 17, 1, 144, 128
-0.959263, 281, 73, 344, 136
-0.959909, 65, 49, 192, 176
-0.959965, 113, 65, 240, 192
-0.960188, 1, 1, 64, 128
-0.960566, 369, 1, 432, 128
-0.96095, 145, 17, 272, 144
-0.961398, 225, 145, 352, 272
-0.961712, 345, 81, 408, 208
-0.961756, 33, 225, 96, 352
-0.961882, 289, 145, 352, 272
-0.96202, 9, 209, 72, 272
-0.962529, 297, 33, 360, 96
-0.962696, 177, 145, 240, 272
-0.962966, 81, 201, 144, 264
-0.963276, 305, 1, 368, 256
-0.963359, 41, 225, 104, 288
-0.963396, 89, 1, 152, 128
-0.96394, 201, 33, 264, 160
-0.964215, 33, 1, 96, 128
-0.964633, 281, 169, 344, 232
-0.96491, 333, 73, 364, 136
-0.965402, 233, 1, 296, 128
-0.965511, 161, 121, 224, 184
-0.96558, 201, 65, 264, 128
-0.96585, 225, 65, 288, 192
-0.9663, 97, 145, 160, 272
-0.966935, 393, 1, 456, 128
-0.966939, 97, 161, 224, 288
-0.967043, 225, 65, 288, 128
-0.96717, 249, 177, 312, 304
-0.967249, 321, 105, 384, 168
-0.967496, 393, 121, 456, 184
-0.967638, 333, 33, 364, 160
-0.967715, 273, 41, 400, 104
-0.967788, 17, 65, 144, 192
-0.967882, 217, 177, 280, 240
-0.968188, 393, 177, 456, 304
-0.968222, 17, 161, 80, 288
-0.968262, 377, 129, 440, 256
-0.968302, 105, 81, 168, 208
-0.96854, 353, 41, 384, 104
-0.968738, 369, 177, 496, 304
-0.969015, 305, 129, 368, 192
-0.969106, 249, 169, 312, 232
-0.969271, 1, 145, 128, 272
-0.969524, 185, 105, 248, 168
-0.969626, 329, 1, 392, 256
-0.970108, 273, 161, 400, 288
-0.970239, 349, 33, 380, 160
-0.970257, 353, 209, 416, 336
-0.970438, 345, 201, 408, 264
-0.970543, 225, 209, 480, 336
-0.97073, 257, 1, 320, 128
-0.971023, 249, 57, 312, 120
-0.971174, 41, 185, 104, 248
-0.971244, 337, 33, 368, 96
-0.971315, 345, 17, 408, 80
-0.97132, 129, 113, 192, 176
-0.971376, 369, 57, 432, 120
-0.971392, 333, 97, 364, 160
-0.971458, 345, 81, 376, 144
-0.971473, 97, 1, 224, 128
-0.971516, 205, 161, 236, 224
-0.971596, 313, 17, 344, 144
-0.971727, 73, 177, 136, 240
-0.97177, 345, 89, 408, 152
-0.971855, 17, 233, 80, 296
-0.972123, 249, 65, 312, 192
-0.972244, 325, 81, 356, 208
-0.972649, 1, 25, 64, 88
-0.972713, 169, 169, 232, 232
-0.972942, 137, 1, 200, 128
-0.972989, 1, 241, 128, 368
-0.973152, 153, 97, 216, 160
-0.973202, 177, 73, 240, 136
-0.973227, 361, 49, 392, 176
-0.973237, 369, 81, 496, 208
-0.973354, 357, 65, 388, 128
-0.973696, 221, 169, 252, 232
-0.973889, 121, 137, 184, 200
-0.974289, 333, 121, 364, 184
-0.97437, 281, 33, 344, 288
-0.974608, 225, 73, 352, 136
-0.974867, 321, 121, 448, 184
-0.974896, 113, 193, 176, 320
-0.974919, 193, 193, 320, 320
-0.97502, 145, 193, 272, 320
-0.975144, 369, 33, 432, 96
-0.975354, 305, 177, 368, 240
-0.975416, 345, 113, 408, 176
-0.975496, 325, 33, 356, 96
-0.975588, 337, 81, 368, 208
-0.975635, 129, 73, 256, 136
-0.975729, 369, 225, 496, 352
-0.97574, 369, 121, 432, 184
-0.975907, 369, 129, 496, 256
-0.975975, 205, 145, 236, 272
-0.976028, 113, 137, 240, 200
-0.976133, 177, 177, 304, 240
-0.976145, 321, 65, 448, 128
-0.976266, 201, 65, 264, 320
-0.976494, 201, 97, 232, 224
-0.976571, 433, 97, 496, 224
-0.976611, 345, 129, 408, 256
-0.976628, 9, 49, 72, 112
-0.976638, 129, 113, 256, 176
-0.976696, 49, 209, 176, 272
-0.976877, 9, 49, 72, 176
-0.976962, 153, 1, 216, 256
-0.977193, 9, 1, 72, 64
-0.977273, 121, 89, 184, 152
-0.977298, 273, 49, 336, 112
-0.977348, 289, 145, 416, 208
-0.97739, 65, 209, 128, 336
-0.977521, 409, 81, 472, 208
-0.977546, 321, 33, 448, 96
-0.977552, 213, 97, 244, 224
-0.977558, 301, 161, 332, 224
-0.977671, 189, 97, 220, 224
-0.97778, 49, 129, 112, 256
-0.977864, 201, 145, 264, 208
-0.977945, 209, 89, 272, 152
-0.977964, 321, 201, 384, 264
-0.977984, 237, 73, 268, 136
-0.97809, 33, 17, 96, 80
-0.978118, 273, 81, 400, 144
-0.978164, 113, 193, 176, 256
-0.978177, 281, 129, 344, 375
-0.978186, 369, 49, 432, 176
-0.978361, 321, 97, 384, 352
-0.978378, 361, 233, 424, 296
-0.978381, 241, 201, 304, 264
-0.978398, 321, 177, 448, 304
-0.9784, 425, 1, 488, 128
-0.97841, 313, 49, 344, 112
-0.978456, 321, 97, 448, 160
-0.978465, 225, 177, 288, 304
-0.978483, 249, 65, 312, 320
-0.978554, 193, 41, 256, 104
-0.978554, 337, 137, 400, 200
-0.978603, 349, 81, 380, 208
-0.978687, 57, 65, 120, 192
-0.978778, 113, 1, 176, 128
-0.978815, 153, 73, 216, 136
-0.978817, 89, 129, 152, 192
-0.978879, 41, 233, 72, 296
-0.978961, 345, 177, 408, 240
-0.979028, 113, 33, 176, 288
-0.979097, 305, 9, 368, 72
-0.9791, 401, 129, 464, 256
-0.97912, 1, 209, 128, 272
-0.979184, 401, 225, 464, 352
-0.979311, 273, 9, 336, 72
-0.979322, 225, 41, 288, 104
-0.979346, 313, 137, 344, 200
-0.979462, 41, 193, 72, 320
-0.979471, 377, 241, 440, 368
-0.979482, 221, 73, 252, 136
-0.979529, 301, 1, 332, 128
-0.979571, 297, 97, 360, 160
-0.979735, 385, 145, 448, 208
-0.979753, 225, 65, 288, 320
-0.979766, 57, 161, 88, 288
-0.979767, 305, 1, 368, 375
-0.979898, 33, 65, 96, 192
-0.979916, 113, 129, 176, 375
-0.979953, 177, 89, 304, 152
-0.979975, 81, 65, 144, 192
-0.979979, 53, 233, 84, 296
-0.979982, 385, 217, 448, 280
-0.980081, 337, 225, 400, 288
-0.980087, 161, 97, 224, 352
-0.980134, 225, 1, 288, 64
-0.980174, 417, 177, 480, 240
-0.980189, 153, 193, 216, 320
-0.980204, 97, 161, 160, 224
-0.980247, 137, 97, 200, 352
-0.980258, 209, 145, 336, 208
-0.980432, 137, 129, 168, 256
-0.980458, 205, 185, 236, 248
-0.980471, 193, 193, 256, 256
-0.98064, 73, 113, 136, 240
-0.980925, 369, 9, 432, 72
-0.980966, 193, 1, 256, 64
-0.981006, 1, 185, 128, 248
-0.981049, 33, 41, 96, 104
-0.981055, 249, 1, 312, 64
-0.981157, 225, 169, 352, 232
-0.981171, 153, 105, 184, 168
-0.981191, 193, 49, 224, 176
-0.981226, 129, 169, 256, 232
-0.981277, 57, 17, 120, 80
-0.981403, 273, 177, 400, 240
-0.981437, 97, 201, 128, 264
-0.981452, 69, 209, 100, 272
-0.981475, 193, 49, 320, 112
-0.981533, 257, 129, 320, 256
-0.98155, 233, 169, 264, 232
-0.981602, 85, 161, 116, 288
-0.981745, 17, 113, 80, 240
-0.981748, 345, 1, 408, 375
-0.981856, 321, 241, 448, 368
-0.981915, 241, 17, 368, 80
-0.981916, 345, 105, 376, 168
-0.982042, 97, 241, 352, 368
-0.9821, 13, 25, 44, 88
-0.982137, 385, 241, 448, 304
-0.982206, 101, 145, 132, 272
-0.982212, 385, 265, 448, 328
-0.982308, 249, 81, 312, 144
-0.982323, 353, 257, 416, 320
-0.982331, 225, 65, 256, 192
-0.982458, 193, 177, 224, 240
-0.982501, 277, 57, 308, 120
-0.982517, 33, 233, 160, 296
-0.982573, 177, 145, 240, 208
-0.982631, 365, 41, 396, 104
-0.982749, 309, 145, 340, 272
-0.982855, 137, 1, 200, 64
-0.982855, 313, 225, 376, 288
-0.982862, 329, 129, 360, 256
-0.982873, 393, 185, 456, 248
-0.982916, 97, 209, 224, 336
-0.982994, 137, 201, 200, 264
-0.983002, 353, 9, 480, 72
-0.983012, 165, 97, 196, 160
-0.983014, 89, 209, 152, 336
-0.983045, 65, 65, 128, 320
-0.98308, 401, 97, 464, 160
-0.983087, 305, 9, 432, 72
-0.983095, 405, 121, 436, 184
-0.983114, 73, 161, 104, 288
-0.983148, 273, 145, 336, 208
-0.983226, 273, 193, 336, 256
-0.983325, 113, 201, 240, 264
-0.983386, 381, 1, 412, 128
-0.983391, 353, 33, 416, 288
-0.983405, 97, 1, 128, 128
-0.983461, 129, 49, 256, 112
-0.983469, 113, 145, 144, 272
-0.983495, 169, 113, 200, 240
-0.983512, 209, 73, 240, 136
-0.983661, 309, 65, 340, 192
-0.983668, 17, 193, 48, 320
-0.983721, 149, 129, 180, 256
-0.983742, 217, 17, 248, 144
-0.983779, 89, 65, 152, 320
-0.983799, 321, 97, 352, 160
-0.983831, 361, 1, 392, 128
-0.983856, 257, 169, 288, 232
-0.983864, 213, 97, 244, 160
-0.983937, 261, 57, 292, 120
-0.98394, 161, 201, 224, 264
-0.983949, 29, 233, 60, 296
-0.984005, 49, 161, 176, 224
-0.98404, 193, 113, 224, 176
-0.984078, 225, 201, 352, 264
-0.984084, 321, 73, 352, 136
-0.984098, 81, 209, 112, 272
-0.984161, 181, 49, 212, 176
-0.984297, 1, 17, 128, 80
-0.984302, 209, 1, 272, 375
-0.984316, 293, 41, 324, 104
-0.984363, 417, 129, 480, 192
-0.984381, 125, 129, 156, 256
-0.984434, 97, 1, 160, 64
-0.984482, 273, 1, 304, 128
-0.984508, 49, 1, 176, 64
-0.984508, 129, 65, 192, 128
-0.984557, 5, 217, 36, 280
-0.984572, 101, 169, 132, 232
-0.984583, 81, 57, 144, 120
-0.984603, 65, 97, 192, 224
-0.984626, 369, 129, 496, 192
-0.984658, 341, 201, 372, 264
-0.984668, 193, 193, 256, 320
-0.984692, 81, 97, 208, 160
-0.984734, 141, 65, 172, 192
-0.984756, 65, 209, 96, 336
-0.984793, 177, 1, 240, 256
-0.984812, 217, 201, 280, 264
-0.984829, 417, 177, 480, 304
-0.984868, 9, 257, 72, 320
-0.984899, 65, 1, 96, 128
-0.98495, 37, 209, 68, 272
-0.98503, 145, 145, 208, 272
-0.98504, 89, 81, 152, 144
-0.98504, 25, 121, 88, 184
-0.985052, 205, 33, 236, 160
-0.985262, 289, 1, 320, 128
-0.985354, 109, 201, 140, 264
-0.98546, 245, 177, 276, 240
-0.985509, 209, 137, 240, 200
-0.985511, 349, 17, 380, 80
-0.985555, 281, 1, 344, 375
-0.985585, 29, 209, 60, 336
-0.985587, 249, 145, 312, 208
-0.985606, 129, 1, 256, 64
-0.985659, 157, 65, 188, 192
-0.985683, 273, 193, 336, 320
-0.985683, 385, 209, 416, 336
-0.985696, 369, 41, 496, 104
-0.985865, 369, 193, 432, 256
-0.985905, 373, 209, 404, 272
-0.985998, 181, 81, 212, 144
-0.986026, 153, 49, 216, 112
-0.986044, 17, 185, 80, 248
-0.986057, 337, 185, 464, 248
-0.986075, 357, 201, 388, 264
-0.986076, 433, 1, 496, 64
-0.986086, 397, 177, 428, 304
-0.986127, 5, 209, 36, 336
-0.986157, 217, 145, 248, 272
-0.986205, 273, 113, 400, 176
-0.986206, 301, 65, 332, 128
-0.986218, 393, 9, 456, 72
-0.986218, 41, 249, 104, 312
-0.986236, 37, 17, 68, 144
-0.986258, 417, 153, 480, 216
-0.986334, 353, 209, 480, 272
-0.986347, 393, 241, 424, 304
-0.986362, 197, 73, 228, 136
-0.986363, 385, 129, 448, 375
-0.986379, 65, 225, 128, 288
-0.986406, 17, 1, 80, 256
-0.98645, 393, 129, 424, 192
-0.986467, 129, 65, 160, 192
-0.986496, 289, 169, 320, 232
-0.986573, 337, 161, 464, 224
-0.986594, 229, 41, 260, 104
-0.986606, 77, 1, 108, 128
-0.986619, 53, 209, 84, 336
-0.986708, 1, 137, 128, 200
-0.986723, 241, 1, 272, 128
-0.986736, 1, 25, 32, 88
-0.986749, 17, 217, 48, 280
-0.986754, 193, 161, 224, 288
-0.986772, 393, 41, 456, 104
-0.986831, 325, 145, 356, 208
-0.986854, 13, 1, 44, 128
-0.986865, 161, 201, 288, 264
-0.986887, 161, 1, 224, 128
-0.986925, 49, 25, 176, 88
-0.986925, 65, 49, 192, 112
-0.986927, 313, 161, 344, 224
-0.986948, 125, 201, 156, 264
-0.986953, 241, 49, 272, 112
-0.987003, 345, 129, 376, 192
-0.987169, 349, 169, 380, 232
-0.98717, 49, 121, 176, 184
-0.987173, 217, 33, 248, 96
-0.987213, 49, 185, 176, 248
-0.987245, 393, 1, 424, 128
-0.98726, 289, 225, 416, 288
-0.987272, 329, 9, 360, 72
-0.987287, 45, 33, 76, 96
-0.987309, 253, 177, 284, 304
-0.987371, 169, 65, 200, 192
-0.987405, 29, 25, 60, 88
-0.987407, 13, 1, 44, 64
-0.987413, 49, 161, 112, 224
-0.987439, 81, 313, 144, 375
-0.987467, 57, 17, 88, 80
-0.987514, 281, 177, 312, 304
-0.987541, 257, 1, 320, 375
-0.987548, 257, 193, 288, 256
-0.987557, 57, 49, 120, 112
-0.987599, 253, 1, 284, 128
-0.987694, 329, 177, 392, 304
-0.987713, 117, 65, 148, 192
-0.987714, 297, 201, 360, 264
-0.987725, 397, 129, 428, 256
-0.987742, 37, 257, 68, 320
-0.987743, 357, 89, 388, 152
-0.987787, 193, 169, 256, 200
-0.988007, 305, 77, 368, 108
-0.988008, 417, 1, 448, 128
-0.988104, 33, 49, 64, 112
-0.988151, 417, 121, 448, 184
-0.988219, 345, 129, 408, 375
-0.988232, 313, 61, 376, 92
-0.988336, 113, 41, 176, 104
-0.988346, 17, 57, 144, 120
-0.988393, 89, 169, 120, 232
-0.988393, 389, 185, 420, 248
-0.988408, 257, 81, 288, 208
-0.988463, 385, 129, 416, 256
-0.988468, 369, 169, 432, 232
-0.988483, 225, 145, 288, 208
-0.988503, 181, 105, 212, 168
-0.988575, 185, 1, 248, 375
-0.988615, 233, 129, 296, 256
-0.988627, 161, 25, 288, 88
-0.988627, 313, 25, 344, 88
-0.988672, 313, 89, 376, 120
-0.988706, 385, 1, 448, 375
-0.988711, 233, 1, 296, 375
-0.988738, 125, 121, 156, 184
-0.988783, 249, 73, 280, 136
-0.988788, 369, 289, 432, 352
-0.988804, 369, 65, 400, 128
-0.988888, 321, 265, 448, 328
-0.988914, 369, 249, 496, 312
-0.988921, 329, 41, 392, 72
-0.988929, 369, 97, 432, 160
-0.988984, 337, 57, 400, 88
-0.988997, 421, 145, 452, 272
-0.98903, 145, 129, 176, 192
-0.989051, 293, 193, 324, 256
-0.989056, 377, 25, 408, 88
-0.989059, 277, 169, 308, 232
-0.989101, 153, 201, 184, 264
-0.989126, 117, 193, 148, 320
-0.989128, 17, 49, 48, 112
-0.989136, 65, 137, 128, 200
-0.989164, 193, 1, 320, 64
-0.989174, 301, 17, 332, 80
-0.989233, 433, 49, 496, 176
-0.98926, 269, 49, 300, 176
-0.989271, 397, 225, 428, 352
-0.989303, 161, 1, 224, 64
-0.989309, 25, 1, 56, 128
-0.989325, 89, 105, 152, 168
-0.989348, 237, 145, 268, 272
-0.989358, 409, 145, 440, 272
-0.989369, 141, 97, 172, 160
-0.989407, 245, 201, 276, 264
-0.989418, 425, 89, 488, 152
-0.989435, 245, 65, 276, 192
-0.989484, 329, 73, 392, 104
-0.989486, 297, 161, 328, 288
-0.989504, 289, 65, 320, 128
-0.989513, 281, 81, 344, 112
-0.989566, 361, 17, 392, 80
-0.989602, 161, 81, 416, 144
-0.989608, 369, 97, 496, 160
-0.989631, 229, 193, 260, 256
-0.989703, 249, 265, 312, 328
-0.989711, 201, 69, 264, 100
-0.989761, 113, 161, 144, 224
-0.989769, 169, 73, 200, 136
-0.989786, 225, 181, 288, 212
-0.989814, 25, 145, 88, 208
-0.989937, 65, 213, 128, 244
-0.989963, 217, 1, 248, 64
-0.989985, 77, 177, 108, 240
-0.989989, 53, 17, 84, 144
-0.989996, 1, 113, 64, 176
-0.989997, 141, 1, 172, 128
-0.989999, 129, 1, 192, 375
-0.990002, 77, 209, 108, 336
-0.990004, 193, 57, 448, 120
-0.990007, 177, 113, 304, 176
-0.990031, 405, 1, 436, 128
-0.990061, 321, 101, 384, 132
-0.990066, 17, 241, 48, 304
-0.990083, 1, 1, 32, 128
-0.9901, 49, 193, 80, 256
-0.990156, 33, 237, 96, 268
-0.990167, 65, 1, 128, 375
-0.990188, 1, 121, 32, 184
-0.990204, 241, 65, 304, 96
-0.990212, 81, 73, 208, 136
-0.990288, 265, 177, 296, 304
-0.990292, 89, 205, 152, 236
-0.990295, 337, 209, 400, 240
-0.990297, 137, 133, 200, 164
-0.990299, 257, 173, 320, 204
-0.990314, 425, 241, 488, 368
-0.990318, 273, 69, 336, 100
-0.990365, 165, 121, 196, 184
-0.990365, 109, 1, 140, 128
-0.990368, 25, 1, 88, 375
-0.990369, 225, 97, 352, 160
-0.990403, 33, 313, 96, 375
-0.990417, 49, 81, 112, 144
-0.990428, 361, 145, 424, 208
-0.990433, 1, 1, 64, 375
-0.990452, 337, 85, 400, 116
-0.990456, 81, 33, 144, 96
-0.990472, 201, 189, 264, 220
-0.990474, 297, 65, 328, 192
-0.990474, 305, 157, 368, 188
-0.990549, 9, 241, 72, 272
-0.990565, 105, 65, 136, 192
-0.990581, 393, 125, 456, 156
-0.990632, 97, 1, 160, 375
-0.990632, 305, 49, 368, 80
-0.990638, 177, 113, 240, 144
-0.990639, 289, 201, 416, 264
-0.990642, 17, 145, 48, 272
-0.99065, 161, 241, 288, 368
-0.9907, 281, 121, 344, 184
-0.990707, 361, 57, 424, 88
-0.990721, 241, 81, 304, 112
-0.99073, 373, 193, 404, 320
-0.990777, 297, 169, 360, 200
-0.990784, 373, 185, 404, 248
-0.99081, 41, 1, 104, 256
-0.99083, 313, 25, 376, 56
-0.99084, 65, 177, 320, 240
-0.990845, 137, 201, 168, 264
-0.990858, 229, 17, 260, 144
-0.990877, 153, 105, 216, 136
-0.990877, 49, 225, 112, 256
-0.990887, 17, 209, 80, 240
-0.990895, 137, 117, 200, 148
-0.990901, 201, 81, 264, 112
-0.99091, 97, 193, 128, 320
-0.990921, 425, 1, 488, 375
-0.990922, 313, 141, 376, 172
-0.990924, 345, 117, 408, 148
-0.990932, 17, 129, 48, 192
-0.990994, 281, 57, 344, 88
-0.991007, 373, 49, 404, 176
-0.991012, 161, 125, 224, 156
-0.991044, 321, 113, 384, 144
-0.991054, 345, 221, 408, 252
-0.991061, 353, 45, 416, 76
-0.99107, 161, 1, 224, 375
-0.991075, 9, 57, 72, 88
-0.991076, 209, 97, 272, 128
-0.991081, 153, 1, 184, 128
-0.991085, 353, 25, 416, 56
-0.9911, 421, 193, 452, 320
-0.991114, 337, 193, 400, 224
-0.991116, 9, 41, 72, 72
-0.99112, 233, 53, 296, 84
-0.991152, 405, 209, 436, 272
-0.99116, 161, 105, 416, 168
-0.991172, 421, 97, 452, 224
-0.991211, 1, 201, 256, 264
-0.991224, 9, 129, 72, 375
-0.991256, 385, 281, 448, 312
-0.991257, 1, 129, 64, 160
-0.991273, 305, 209, 368, 240
-0.991291, 341, 225, 372, 288
-0.991296, 369, 197, 432, 228
-0.991315, 41, 129, 104, 375
-0.991329, 345, 105, 408, 136
-0.991335, 409, 257, 472, 320
-0.991342, 61, 185, 92, 248
-0.991358, 273, 209, 400, 336
-0.991365, 69, 17, 100, 80
-0.991381, 161, 173, 224, 204
-0.991382, 409, 97, 440, 160
-0.991396, 321, 129, 384, 160
-0.991397, 125, 1, 156, 128
-0.991417, 353, 69, 416, 100
-0.991431, 385, 269, 448, 300
-0.991455, 41, 201, 104, 232
-0.991457, 169, 93, 232, 124
-0.991459, 217, 241, 280, 304
-0.99147, 169, 185, 232, 216
-0.991485, 393, 217, 424, 280
-0.991495, 9, 253, 72, 284
-0.991544, 153, 193, 184, 320
-0.991549, 381, 129, 412, 192
-0.991557, 377, 245, 440, 276
-0.991572, 409, 209, 440, 336
-0.991576, 197, 137, 228, 200
-0.991584, 113, 205, 176, 236
-0.991588, 161, 177, 416, 240
-0.991597, 9, 29, 72, 60
-0.991599, 241, 205, 304, 236
-0.991607, 265, 197, 328, 228
-0.991608, 437, 145, 468, 272
-0.991621, 433, 1, 496, 256
-0.991628, 49, 249, 112, 280
-0.991649, 185, 57, 248, 88
-0.991666, 5, 49, 36, 112
-0.99168, 177, 205, 240, 236
-0.991684, 297, 189, 360, 220
-0.991687, 273, 41, 336, 72
-0.991708, 249, 185, 312, 216
-0.991709, 417, 97, 480, 352
-0.99172, 369, 125, 432, 156
-0.991723, 1, 221, 64, 252
-0.991733, 385, 257, 448, 288
-0.991765, 421, 177, 452, 240
-0.991803, 57, 237, 120, 268
-0.991807, 289, 25, 352, 56
-0.99182, 305, 37, 368, 68
-0.991821, 201, 109, 264, 140
-0.991827, 265, 289, 328, 352
-0.991829, 289, 1, 320, 64
-0.991838, 1, 145, 64, 176
-0.991838, 261, 81, 292, 144
-0.991846, 101, 1, 132, 64
-0.991873, 89, 21, 152, 52
-0.991892, 353, 253, 416, 284
-0.991894, 157, 1, 188, 64
-0.991913, 25, 225, 88, 256
-0.991919, 121, 145, 184, 176
-0.991923, 65, 201, 128, 232
-0.991924, 97, 137, 160, 168
-0.991957, 73, 169, 136, 200
-0.991957, 129, 105, 192, 136
-0.991975, 273, 13, 336, 44
-0.991976, 129, 193, 160, 320
-0.991992, 345, 233, 408, 264
-0.992011, 97, 25, 224, 88
-0.992018, 217, 205, 280, 236
-0.992037, 161, 33, 416, 96
-0.99204, 193, 157, 256, 188
-0.992041, 89, 221, 152, 252
-0.992051, 33, 41, 96, 72
-0.992057, 201, 1, 264, 32
-0.992065, 317, 1, 348, 64
-0.992069, 377, 41, 440, 72
-0.992088, 377, 209, 440, 240
-0.99209, 297, 101, 360, 132
-0.99209, 345, 181, 408, 212
-0.992093, 217, 169, 280, 200
-0.992102, 333, 105, 364, 136
-0.992103, 369, 161, 400, 224
-0.992115, 313, 233, 376, 264
-0.992134, 41, 189, 104, 220
-0.992143, 129, 9, 192, 40
-0.992144, 217, 41, 280, 72
-0.992155, 385, 177, 448, 208
-0.992156, 37, 237, 68, 268
-0.992166, 333, 125, 364, 156
-0.992169, 49, 29, 112, 60
-0.992178, 233, 93, 296, 124
-0.992179, 1, 145, 32, 272
-0.992186, 65, 1, 128, 32
-0.992187, 265, 161, 328, 192
-0.992192, 225, 97, 256, 160
-0.992204, 345, 81, 360, 144
-0.99221, 121, 93, 184, 124
-0.992213, 153, 145, 216, 208
-0.992224, 417, 117, 480, 148
-0.992228, 385, 233, 448, 264
-0.992229, 161, 1, 224, 32
-0.992234, 25, 137, 88, 168
-0.992236, 1, 49, 500, 112
-0.992237, 113, 125, 176, 156
-0.992238, 289, 257, 352, 320
-0.992239, 333, 93, 364, 124
-0.992252, 305, 221, 368, 252
-0.992254, 357, 45, 388, 76
-0.992254, 345, 129, 408, 160
-0.992255, 89, 77, 152, 108
-0.992257, 433, 177, 496, 208
-0.99227, 405, 125, 436, 156
-0.992283, 409, 165, 472, 196
-0.992302, 393, 153, 456, 184
-0.992304, 153, 205, 216, 236
-0.992315, 241, 1, 304, 32
-0.992322, 137, 73, 200, 104
-0.992338, 105, 1, 168, 32
-0.992347, 129, 89, 160, 152
-0.992353, 353, 61, 384, 92
-0.992356, 201, 1, 232, 64
-0.992359, 341, 61, 372, 92
-0.992362, 385, 13, 448, 44
-0.992386, 377, 33, 440, 288
-0.992392, 89, 193, 152, 224
-0.992396, 33, 261, 96, 292
-0.992406, 325, 77, 356, 108
-0.992409, 65, 77, 128, 108
-0.992411, 209, 17, 272, 48
-0.99245, 225, 85, 352, 116
-0.992451, 129, 145, 160, 208
-0.99247, 205, 169, 236, 200
-0.99247, 217, 169, 248, 200
-0.992471, 249, 177, 280, 208
-0.992471, 345, 81, 376, 112
-0.992478, 113, 129, 144, 192
-0.992546, 369, 129, 400, 256
-0.9926, 69, 217, 100, 248
-0.9926, 9, 41, 40, 72
-0.992608, 13, 49, 44, 176
-0.992612, 101, 201, 132, 232
-0.992614, 369, 273, 496, 336
-0.99263, 229, 73, 260, 104
-0.992634, 53, 229, 84, 260
-0.992636, 117, 81, 148, 144
-0.992648, 393, 17, 424, 80
-0.992662, 401, 185, 432, 248
-0.992677, 25, 49, 56, 176
-0.992698, 421, 49, 452, 176
-0.992704, 341, 41, 372, 72
-0.992715, 305, 73, 336, 104
-0.992741, 89, 205, 120, 236
-0.992744, 245, 81, 276, 112
-0.992754, 441, 1, 472, 128
-0.992761, 221, 193, 252, 320
-0.992762, 301, 161, 332, 192
-0.992766, 417, 153, 448, 216
-0.992769, 193, 217, 256, 280
-0.992771, 321, 49, 352, 80
-0.992784, 9, 53, 40, 84
-0.992793, 17, 249, 48, 280
-0.992795, 365, 209, 396, 240
-0.992812, 321, 101, 352, 132
-0.992814, 321, 137, 352, 168
-0.992815, 357, 77, 388, 108
-0.992819, 229, 177, 260, 208
-0.992846, 241, 69, 272, 100
-0.992853, 1, 257, 128, 320
-0.992861, 221, 189, 252, 220
-0.992862, 273, 233, 336, 296
-0.992865, 345, 93, 376, 124
-0.992867, 369, 61, 400, 92
-0.992867, 213, 105, 244, 136
-0.992867, 321, 89, 352, 120
-0.992876, 313, 61, 344, 92
-0.992879, 417, 129, 448, 160
-0.992884, 329, 65, 360, 96
-0.992908, 369, 49, 400, 80
-0.992908, 289, 65, 320, 96
-0.992913, 257, 193, 288, 224
-0.992919, 461, 113, 492, 240
-0.992933, 141, 133, 172, 164
-0.992935, 65, 237, 96, 268
-0.992935, 345, 109, 376, 140
-0.992937, 197, 185, 228, 216
-0.992947, 37, 261, 68, 292
-0.992953, 341, 129, 372, 256
-0.992957, 169, 129, 200, 160
-0.992958, 217, 65, 248, 96
-0.992966, 29, 57, 60, 88
-0.992973, 297, 177, 328, 208
-0.992977, 269, 65, 300, 96
-0.992984, 9, 29, 40, 60
-0.992988, 209, 153, 240, 184
-0.992993, 285, 65, 316, 192
-0.992998, 181, 125, 212, 156
-0.992999, 345, 125, 376, 156
-0.993, 209, 189, 240, 220
-0.993, 309, 177, 340, 208
-0.993017, 229, 61, 260, 92
-0.993019, 157, 117, 188, 148
-0.993029, 201, 113, 232, 144
-0.993032, 181, 109, 212, 140
-0.993034, 217, 85, 248, 116
-0.993034, 85, 217, 116, 248
-0.993037, 81, 25, 112, 56
-0.993039, 333, 209, 364, 240
-0.99304, 237, 189, 268, 220
-0.993043, 113, 201, 144, 232
-0.993043, 345, 201, 376, 232
-0.993049, 169, 193, 200, 320
-0.993052, 261, 181, 292, 212
-0.99306, 225, 97, 256, 128
-0.993062, 317, 25, 348, 56
-0.993066, 321, 113, 352, 144
-0.99307, 377, 221, 408, 252
-0.993079, 153, 137, 184, 168
-0.993081, 273, 129, 304, 256
-0.993088, 41, 145, 72, 272
-0.993092, 433, 81, 464, 208
-0.993095, 257, 129, 500, 192
-0.993096, 21, 41, 52, 72
-0.9931, 369, 73, 400, 104
-0.9931, 313, 157, 344, 188
-0.9931, 329, 37, 360, 68
-0.993103, 29, 249, 60, 280
-0.993104, 189, 173, 220, 204
-0.993105, 257, 153, 500, 216
-0.993107, 229, 85, 260, 116
-0.993109, 381, 45, 412, 76
-0.993117, 397, 137, 428, 168
-0.99312, 409, 261, 440, 292
-0.993126, 285, 177, 316, 208
-0.993134, 393, 125, 424, 156
-0.993137, 309, 37, 340, 68
-0.99315, 341, 233, 372, 264
-0.993151, 273, 189, 304, 220
-0.993152, 257, 73, 288, 104
-0.993159, 77, 237, 108, 268
-0.99316, 381, 197, 412, 228
-0.993161, 293, 81, 324, 112
-0.993164, 413, 277, 444, 308
-0.993167, 57, 217, 88, 248
-0.993168, 265, 53, 296, 84
-0.993168, 53, 249, 84, 280
-0.99317, 197, 61, 228, 92
-0.993178, 1, 177, 500, 240
-0.993179, 257, 85, 288, 116
-0.993182, 321, 289, 448, 352
-0.993184, 353, 213, 384, 244
-0.993186, 141, 13, 172, 44
-0.99319, 341, 29, 372, 60
-0.993194, 393, 241, 424, 272
-0.9932, 97, 57, 352, 120
-0.993201, 201, 205, 232, 236
-0.993205, 241, 233, 368, 296
-0.993207, 49, 129, 80, 160
-0.993213, 393, 209, 424, 240
-0.993221, 393, 253, 424, 284
-0.993221, 29, 161, 60, 288
-0.993222, 245, 57, 276, 88
-0.993223, 333, 73, 348, 136
-0.993224, 165, 105, 196, 136
-0.993226, 357, 89, 388, 120
-0.993227, 281, 81, 312, 112
-0.993228, 69, 29, 100, 60
-0.993242, 113, 161, 144, 192
-0.993245, 129, 133, 160, 164
-0.993247, 369, 73, 496, 136
-0.993247, 225, 213, 256, 244
-0.993248, 129, 205, 160, 236
-0.993249, 309, 93, 340, 124
-0.99325, 197, 97, 228, 128
-0.993255, 297, 49, 328, 80
-0.99326, 241, 93, 272, 124
-0.99326, 397, 273, 428, 304
-0.993263, 361, 193, 392, 224
-0.993263, 5, 133, 36, 164
-0.993267, 393, 229, 424, 260
-0.993268, 389, 57, 420, 88
-0.993268, 357, 101, 388, 132
-0.99327, 1, 161, 128, 224
-0.993271, 33, 45, 64, 76
-0.993276, 245, 201, 276, 232
-0.993287, 161, 241, 288, 304
-0.993295, 33, 81, 160, 144
-0.993301, 233, 193, 264, 320
-0.99335, 225, 241, 352, 368
-0.99339, 73, 49, 104, 176
-0.993401, 85, 113, 116, 240
-0.993433, 225, 121, 352, 184
-0.993474, 17, 241, 48, 368
-0.993489, 129, 137, 384, 200
-0.993556, 65, 113, 96, 240
-0.993583, 349, 41, 364, 104
-0.993589, 209, 161, 224, 224
-0.993648, 49, 241, 176, 368
-0.99368, 65, 313, 192, 375
-0.993682, 113, 313, 240, 375
-0.993768, 215, 161, 230, 224
-0.993788, 209, 265, 336, 328
-0.993811, 359, 41, 374, 104
-0.993815, 43, 233, 58, 296
-0.993831, 181, 193, 212, 320
-0.993849, 289, 53, 416, 84
-0.993906, 141, 193, 172, 320
-0.993948, 389, 49, 420, 176
-0.994015, 41, 241, 72, 368
-0.994145, 257, 33, 500, 96
-0.99415, 1, 113, 500, 176
-0.994153, 321, 121, 448, 152
-0.994211, 209, 177, 336, 208
-0.994251, 367, 41, 382, 104
-0.994288, 273, 65, 400, 96
-0.994289, 337, 105, 352, 168
-0.994319, 233, 225, 296, 352
-0.994363, 161, 9, 416, 72
-0.994394, 315, 153, 330, 216
-0.994399, 231, 169, 246, 232
-0.99441, 225, 289, 352, 352
-0.994424, 1, 145, 500, 208
-0.994427, 209, 165, 336, 196
-0.994455, 357, 81, 372, 144
-0.994457, 1, 153, 256, 216
-0.994461, 357, 129, 388, 256
-0.994492, 17, 237, 144, 268
-0.994518, 1, 81, 256, 144
-0.994547, 343, 49, 358, 112
-0.994557, 1, 233, 256, 296
-0.994579, 97, 225, 224, 288
-0.994582, 257, 81, 500, 144
-0.994641, 313, 225, 376, 352
-0.994643, 1, 201, 500, 264
-0.994655, 273, 257, 400, 320
-0.994689, 165, 17, 196, 144
-0.994694, 1, 209, 128, 240
-0.994703, 223, 169, 238, 232
-0.994712, 307, 161, 322, 224
-0.994741, 1, 25, 256, 88
-0.994782, 445, 49, 476, 176
-0.994841, 85, 49, 116, 176
-0.994856, 257, 177, 500, 240
-0.994865, 349, 177, 380, 304
-0.994886, 81, 205, 208, 236
-0.99492, 309, 1, 340, 256
-0.994938, 257, 1, 500, 64
-0.99495, 233, 73, 248, 136
-0.994964, 289, 41, 416, 72
-0.994978, 1, 9, 500, 72
-0.995008, 225, 69, 352, 100
-0.995026, 49, 233, 64, 296
-0.99503, 203, 169, 218, 232
-0.995038, 161, 173, 288, 204
-0.995048, 327, 97, 342, 160
-0.995098, 1, 49, 32, 176
-0.995128, 401, 81, 432, 208
-0.995131, 177, 189, 304, 220
-0.995146, 145, 73, 272, 104
-0.995181, 237, 169, 252, 232
-0.995181, 1, 113, 128, 176
-0.995182, 429, 1, 460, 128
-0.995192, 97, 201, 352, 264
-0.995199, 213, 137, 228, 200
-0.99526, 321, 145, 336, 208
-0.995268, 351, 65, 366, 128
-0.995328, 345, 129, 360, 192
-0.995348, 375, 49, 390, 112
-0.995381, 65, 1, 320, 64
-0.995402, 305, 85, 432, 116
-0.995413, 49, 221, 176, 252
-0.995432, 193, 201, 448, 264
-0.995436, 349, 17, 364, 80
-0.995461, 1, 49, 256, 112
-0.995464, 225, 73, 240, 136
-0.995475, 365, 73, 380, 136
-0.995507, 217, 185, 232, 248
-0.995513, 321, 133, 448, 164
-0.995519, 405, 113, 420, 176
-0.995519, 337, 1, 368, 256
-0.995537, 59, 225, 74, 288
-0.995546, 337, 33, 352, 96
-0.995585, 329, 129, 344, 192
-0.995596, 1, 297, 128, 360
-0.9956, 53, 113, 84, 240
-0.9956, 349, 1, 380, 256
-0.995665, 161, 281, 288, 344
-0.995672, 239, 57, 254, 120
-0.995681, 37, 241, 52, 304
-0.995697, 205, 113, 220, 176
-0.995704, 71, 217, 86, 280
-0.995711, 289, 161, 416, 192
-0.995716, 113, 289, 240, 352
-0.995722, 45, 65, 76, 192
-0.995737, 113, 157, 240, 188
-0.995743, 301, 169, 316, 232
-0.995771, 411, 113, 426, 176
-0.995771, 57, 65, 88, 192
-0.995781, 193, 1, 224, 128
-0.995806, 329, 41, 344, 104
-0.995808, 319, 57, 334, 120
-0.995825, 321, 109, 448, 140
-0.995836, 241, 53, 368, 84
-0.995855, 163, 105, 178, 168
-0.995871, 397, 129, 412, 192
-0.995877, 337, 53, 464, 84
-0.995917, 295, 57, 310, 120
-0.995921, 33, 105, 288, 168
-0.995966, 343, 25, 358, 88
-0.995967, 29, 113, 60, 240
-0.995972, 105, 169, 120, 232
-0.995986, 351, 113, 366, 176
-0.996007, 219, 105, 234, 168
-0.996008, 161, 137, 288, 200
-0.99602, 209, 185, 224, 248
-0.996046, 271, 49, 286, 112
-0.996055, 219, 73, 234, 136
-0.996077, 321, 25, 336, 88
-0.996086, 209, 153, 336, 184
-0.996103, 97, 201, 112, 264
-0.996104, 305, 145, 432, 176
-0.996105, 91, 209, 106, 272
-0.996109, 161, 1, 288, 32
-0.996118, 211, 73, 226, 136
-0.996149, 321, 1, 352, 256
-0.996159, 1, 129, 256, 192
-0.996171, 65, 217, 80, 280
-0.996187, 225, 97, 352, 128
-0.996201, 19, 33, 34, 96
-0.996234, 49, 125, 176, 156
-0.996235, 173, 97, 188, 160
-0.996239, 213, 105, 228, 168
-0.996258, 337, 313, 464, 375
-0.996261, 289, 57, 304, 120
-0.996263, 205, 73, 220, 136
-0.996269, 337, 69, 464, 100
-0.996272, 349, 193, 364, 256
-0.996312, 117, 201, 132, 264
-0.996314, 257, 105, 500, 168
-0.99632, 257, 185, 384, 216
-0.99632, 129, 241, 192, 368
-0.996322, 241, 197, 368, 228
-0.996326, 337, 29, 464, 60
-0.996333, 145, 61, 272, 92
-0.996343, 97, 169, 224, 200
-0.996353, 17, 197, 144, 228
-0.996356, 13, 25, 28, 88
-0.996369, 269, 169, 284, 232
-0.996372, 245, 169, 260, 232
-0.996389, 49, 281, 176, 344
-0.996405, 1, 89, 500, 152
-0.996405, 387, 217, 402, 280
-0.99641, 273, 173, 400, 204
-0.996414, 129, 93, 256, 124
-0.996423, 1, 25, 128, 56
-0.996438, 31, 33, 46, 96
-0.99645, 401, 1, 464, 256
-0.996455, 345, 105, 360, 168
-0.996464, 111, 177, 126, 240
-0.99647, 127, 201, 142, 264
-0.996499, 327, 73, 342, 136
-0.996529, 417, 113, 432, 176
-0.99653, 231, 33, 246, 96
-0.996544, 357, 193, 372, 256
-0.996554, 131, 121, 146, 184
-0.996558, 113, 129, 240, 160
-0.99657, 193, 205, 320, 236
-0.996579, 221, 145, 236, 208
-0.996582, 359, 17, 374, 80
-0.996583, 49, 137, 176, 168
-0.99659, 65, 5, 192, 36
-0.996596, 353, 217, 368, 280
-0.996614, 1, 37, 128, 68
-0.996619, 257, 257, 500, 320
-0.996625, 185, 105, 200, 168
-0.996632, 47, 257, 62, 320
-0.996638, 105, 193, 120, 256
-0.996642, 17, 1, 32, 64
-0.996643, 281, 57, 296, 120
-0.996653, 77, 217, 92, 280
-0.996669, 273, 281, 400, 344
-0.996673, 255, 177, 270, 240
-0.996686, 227, 97, 242, 160
-0.996687, 365, 17, 380, 80
-0.996688, 157, 105, 172, 168
-0.996697, 325, 97, 356, 352
-0.996706, 129, 205, 256, 236
-0.996709, 337, 129, 352, 192
-0.996721, 23, 1, 38, 64
-0.996725, 13, 217, 28, 280
-0.996751, 193, 81, 208, 144
-0.996753, 347, 81, 362, 112
-0.99676, 397, 217, 412, 280
-0.99676, 7, 217, 22, 280
-0.99677, 97, 73, 224, 104
-0.996778, 245, 65, 260, 128
-0.996797, 43, 25, 58, 88
-0.996798, 113, 189, 240, 220
-0.9968, 7, 33, 22, 96
-0.996803, 321, 209, 448, 240
-0.996803, 263, 169, 278, 232
-0.996809, 369, 129, 496, 160
-0.996818, 371, 17, 386, 80
-0.996836, 351, 89, 366, 152
-0.99684, 31, 241, 46, 304
-0.996846, 51, 33, 66, 96
-0.99685, 1, 69, 128, 100
-0.996851, 423, 121, 438, 184
-0.996852, 1, 57, 128, 88
-0.996853, 307, 73, 322, 136
-0.996854, 99, 169, 114, 232
-0.996864, 153, 129, 168, 192
-0.996871, 129, 141, 256, 172
-0.996872, 395, 185, 410, 248
-0.996884, 313, 65, 328, 128
-0.9969, 381, 41, 396, 104
-0.996901, 117, 161, 132, 224
-0.996905, 113, 1, 240, 32
-0.996911, 301, 57, 316, 120
-0.996915, 41, 209, 56, 272
-0.996919, 97, 109, 224, 140
-0.996941, 251, 65, 266, 128
-0.996943, 315, 9, 330, 72
-0.996946, 81, 17, 208, 48
-0.996952, 339, 81, 354, 144
-0.996952, 207, 137, 222, 200
-0.996957, 49, 209, 64, 272
-0.99696, 329, 17, 344, 80
-0.996964, 245, 193, 260, 256
-0.996971, 199, 73, 214, 136
-0.996974, 1, 221, 128, 252
-0.996996, 33, 177, 160, 208
-0.996997, 147, 105, 162, 168
-0.997003, 321, 257, 448, 288
-0.997003, 1, 13, 128, 44
-0.997014, 141, 121, 156, 184
-0.997015, 337, 121, 352, 152
-0.997021, 345, 57, 360, 88
-0.997029, 139, 201, 154, 264
-0.997037, 311, 33, 326, 96
-0.997046, 297, 81, 312, 144
-0.997046, 111, 201, 126, 264
-0.99705, 293, 193, 308, 256
-0.99705, 261, 57, 276, 120
-0.997064, 225, 313, 352, 375
-0.997066, 363, 201, 378, 264
-0.997099, 265, 241, 328, 368
-0.997102, 241, 109, 368, 140
-0.997105, 361, 1, 392, 256
-0.997106, 289, 33, 320, 288
-0.997109, 337, 41, 464, 72
-0.997131, 193, 53, 320, 84
-0.997145, 321, 97, 448, 128
-0.997161, 241, 29, 368, 60
-0.997162, 17, 249, 144, 280
-0.997182, 145, 109, 272, 140
-0.997213, 193, 225, 448, 288
-0.997227, 177, 93, 304, 124
-0.99725, 113, 257, 240, 320
-0.997259, 369, 261, 496, 292
-0.997268, 407, 121, 422, 152
-0.997276, 65, 57, 192, 88
-0.997281, 345, 109, 360, 140
-0.997299, 331, 77, 346, 108
-0.997304, 1, 225, 500, 288
-0.997327, 65, 233, 192, 264
-0.997327, 307, 165, 322, 196
-0.99733, 321, 197, 448, 228
-0.99734, 357, 61, 372, 92
-0.997374, 201, 65, 232, 320
-0.997392, 231, 169, 246, 200
-0.9974, 289, 17, 416, 48
-0.9974, 257, 125, 384, 156
-0.997426, 337, 69, 352, 100
-0.997444, 313, 157, 328, 188
-0.997457, 277, 65, 308, 320
-0.997458, 321, 269, 448, 300
-0.997483, 321, 245, 448, 276
-0.997494, 225, 65, 256, 320
-0.997509, 267, 177, 282, 208
-0.997514, 355, 41, 370, 72
-0.997525, 161, 125, 288, 156
-0.997529, 241, 77, 256, 108
-0.99753, 203, 169, 218, 200
-0.997536, 41, 241, 56, 272
-0.997538, 69, 221, 84, 252
-0.997551, 49, 237, 64, 268
-0.997555, 209, 41, 336, 72
-0.997555, 357, 85, 372, 116
-0.99757, 371, 49, 386, 80
-0.997583, 215, 153, 230, 184
-0.997591, 241, 141, 368, 172
-0.997593, 421, 125, 436, 156
-0.997604, 99, 201, 114, 232
-0.997621, 181, 1, 212, 256
-0.997621, 337, 109, 352, 140
-0.997622, 349, 97, 380, 352
-0.997637, 245, 65, 276, 320
-0.99764, 401, 125, 416, 156
-0.997645, 157, 97, 188, 352
-0.997668, 273, 97, 400, 128
-0.997672, 351, 69, 366, 100
-0.997674, 361, 41, 376, 72
-0.997686, 49, 257, 176, 320
-0.997699, 239, 177, 254, 208
-0.997707, 247, 81, 262, 112
-0.997707, 235, 73, 250, 104
-0.997715, 11, 41, 26, 72
-0.997716, 349, 121, 364, 152
-0.997744, 253, 73, 268, 104
-0.997748, 229, 69, 244, 100
-0.997758, 347, 97, 362, 128
-0.997772, 335, 93, 350, 124
-0.997772, 225, 13, 352, 44
-0.997776, 129, 13, 256, 44
-0.997779, 257, 281, 500, 344
-0.997799, 287, 65, 302, 96
-0.997801, 305, 177, 320, 208
-0.997801, 211, 165, 226, 196
-0.997802, 93, 65, 124, 320
-0.997805, 369, 249, 496, 280
-0.997809, 273, 209, 400, 240
-0.997822, 413, 125, 428, 156
-0.997826, 117, 65, 148, 320
-0.997827, 369, 13, 496, 44
-0.997828, 193, 109, 320, 140
-0.997832, 1, 125, 128, 156
-0.997847, 145, 97, 176, 352
-0.997848, 351, 53, 366, 84
-0.997853, 75, 217, 90, 248
-0.99786, 301, 97, 332, 352
-0.997871, 59, 233, 74, 264
-0.997871, 65, 193, 192, 224
-0.997871, 273, 241, 400, 272
-0.997873, 369, 277, 496, 308
-0.997874, 269, 193, 284, 224
-0.997874, 337, 221, 464, 252
-0.997882, 273, 313, 400, 375
-0.997889, 369, 89, 496, 120
-0.997892, 355, 109, 370, 140
-0.997908, 105, 201, 120, 232
-0.997923, 33, 161, 160, 192
-0.997932, 337, 97, 368, 352
-0.997942, 379, 53, 394, 84
-0.997951, 161, 161, 288, 192
-0.997955, 337, 41, 352, 72
-0.99796, 93, 209, 108, 240
-0.997962, 81, 217, 96, 248
-0.997964, 181, 97, 212, 352
-0.997973, 313, 177, 328, 208
-0.99798, 49, 29, 176, 60
-0.99798, 185, 109, 200, 140
-0.997987, 245, 185, 260, 216
-0.997991, 203, 185, 218, 216
-0.997992, 261, 177, 276, 208
-0.997994, 327, 101, 342, 132
-0.997999, 219, 169, 234, 200
-0.998, 349, 41, 364, 72
-0.998002, 13, 29, 28, 60
-0.998004, 49, 257, 64, 288
-0.998012, 219, 189, 234, 220
-0.998016, 49, 77, 176, 108
-0.99802, 319, 153, 334, 184
-0.998024, 225, 169, 240, 200
-0.998025, 169, 1, 200, 256
-0.998031, 141, 137, 156, 168
-0.998044, 297, 69, 312, 100
-0.998052, 231, 85, 246, 116
-0.998055, 401, 137, 416, 168
-0.998061, 259, 77, 274, 108
-0.998067, 129, 33, 160, 288
-0.998069, 221, 149, 236, 180
-0.998069, 369, 177, 496, 208
-0.998072, 209, 1, 336, 32
-0.998081, 129, 129, 160, 375
-0.998082, 129, 229, 256, 260
-0.998084, 241, 65, 256, 96
-0.998087, 233, 57, 248, 88
-0.998089, 111, 201, 126, 232
-0.99809, 149, 133, 164, 164
-0.998092, 299, 177, 314, 208
-0.998095, 181, 125, 196, 156
-0.998098, 365, 77, 380, 108
-0.998101, 223, 65, 238, 96
-0.998107, 3, 37, 18, 68
-0.998109, 35, 245, 50, 276
-0.998111, 387, 221, 402, 252
-0.998113, 369, 197, 496, 228
-0.998115, 329, 137, 344, 168
-0.998119, 225, 189, 240, 220
-0.998124, 117, 201, 132, 232
-0.998153, 209, 189, 224, 220
-0.998158, 277, 185, 292, 216
-0.998163, 305, 185, 432, 216
-0.998168, 169, 97, 200, 352
-0.99817, 1, 1, 128, 32
-0.99817, 347, 133, 362, 164
-0.99817, 87, 25, 102, 56
-0.998172, 31, 45, 46, 76
-0.998173, 371, 69, 386, 100
-0.998175, 253, 177, 268, 208
-0.998177, 191, 109, 206, 140
-0.998189, 397, 221, 412, 252
-0.998191, 315, 37, 330, 68
-0.998192, 197, 173, 212, 204
-0.998193, 33, 345, 160, 375
-0.998193, 257, 33, 288, 288
-0.998194, 393, 21, 408, 52
-0.998195, 215, 65, 230, 96
-0.9982, 81, 25, 96, 56
-0.998204, 319, 173, 334, 204
-0.998211, 215, 109, 230, 140
-0.998211, 247, 69, 262, 100
-0.998212, 347, 213, 362, 244
-0.998216, 97, 45, 224, 76
-0.998227, 231, 189, 246, 220
-0.998232, 397, 97, 428, 352
-0.998234, 221, 105, 236, 136
-0.998239, 155, 129, 170, 160
-0.99824, 105, 33, 136, 288
-0.998253, 17, 149, 144, 180
-0.998258, 363, 65, 378, 96
-0.998259, 427, 129, 442, 160
-0.998262, 349, 229, 364, 260
-0.998263, 325, 85, 340, 116
-0.998266, 369, 1, 496, 32
-0.998267, 177, 221, 304, 252
-0.998268, 153, 1, 184, 256
-0.998269, 257, 1, 384, 32
-0.998273, 309, 77, 324, 108
-0.998276, 415, 261, 430, 292
-0.998283, 77, 233, 92, 264
-0.998285, 97, 249, 352, 312
-0.99829, 87, 213, 102, 244
-0.998297, 9, 57, 24, 88
-0.9983, 119, 165, 134, 196
-0.998312, 357, 213, 372, 244
-0.998312, 41, 265, 56, 296
-0.998315, 63, 221, 78, 252
-0.998317, 31, 57, 46, 88
-0.998318, 263, 193, 278, 224
-0.998319, 339, 25, 354, 56
-0.998328, 343, 41, 358, 72
-0.998329, 231, 101, 246, 132
-0.99833, 241, 225, 368, 256
-0.998331, 281, 65, 296, 96
-0.998337, 369, 209, 496, 240
-0.998339, 61, 125, 76, 156
-0.998339, 401, 205, 416, 236
-0.99834, 55, 253, 70, 284
-0.998341, 239, 189, 254, 220
-0.998344, 77, 13, 92, 44
-0.998349, 239, 93, 254, 124
-0.99835, 355, 121, 370, 152
-0.998353, 65, 245, 192, 276
-0.998362, 193, 173, 256, 188
-0.998368, 305, 79, 368, 94
-0.998373, 349, 231, 380, 246
-0.998373, 37, 259, 68, 274
-0.998374, 101, 215, 132, 230
-0.998374, 393, 257, 424, 272
-0.998376, 293, 83, 324, 98
-0.998376, 329, 67, 392, 82
-0.998377, 189, 185, 220, 200
-0.998377, 257, 89, 288, 104
-0.998377, 193, 119, 224, 134
-0.998378, 209, 185, 240, 200
-0.998378, 317, 39, 348, 54
-0.998381, 357, 81, 388, 96
-0.998383, 9, 39, 40, 54
-0.998384, 321, 123, 352, 138
-0.998385, 353, 93, 384, 108
-0.998386, 385, 211, 416, 226
-0.998387, 241, 175, 272, 190
-0.998387, 321, 149, 352, 164
-0.998387, 225, 183, 256, 198
-0.998388, 29, 53, 60, 68
-0.998388, 73, 239, 104, 254
-0.998388, 181, 119, 212, 134
-0.998388, 201, 147, 232, 162
-0.998389, 309, 177, 340, 192
-0.99839, 265, 195, 296, 210
-0.998391, 9, 51, 40, 66
-0.998391, 205, 113, 236, 128
-0.998392, 81, 23, 112, 38
-0.998394, 9, 133, 40, 148
-0.998394, 313, 91, 376, 106
-0.998395, 265, 185, 296, 200
-0.998395, 85, 209, 116, 224
-0.998396, 313, 159, 344, 174
-0.998398, 181, 179, 212, 194
-0.998398, 225, 101, 256, 116
-0.9984, 321, 107, 352, 122
-0.998401, 237, 95, 268, 110
-0.998401, 197, 175, 228, 190
-0.998402, 37, 253, 68, 268
-0.998405, 233, 87, 264, 102
-0.998406, 325, 143, 356, 158
-0.998407, 225, 63, 256, 78
-0.998408, 317, 65, 348, 80
-0.998408, 321, 173, 448, 204
-0.99841, 369, 73, 400, 88
-0.99841, 37, 265, 68, 280
-0.99841, 49, 261, 80, 276
-0.998413, 97, 171, 128, 186
-0.998414, 73, 129, 104, 375
-0.998414, 109, 205, 140, 220
-0.998414, 273, 67, 304, 82
-0.998415, 257, 203, 288, 218
-0.998415, 169, 121, 200, 136
-0.998415, 237, 67, 268, 82
-0.998415, 385, 131, 416, 146
-0.998415, 249, 1, 280, 16
-0.998416, 269, 55, 300, 70
-0.998416, 17, 251, 48, 266
-0.998417, 329, 61, 392, 76
-0.998418, 329, 213, 360, 228
-0.99842, 337, 39, 368, 54
-0.998422, 305, 165, 336, 180
-0.998423, 317, 33, 348, 48
-0.998424, 29, 59, 60, 74
-0.998424, 353, 111, 384, 126
-0.998424, 321, 57, 352, 72
-0.998425, 357, 87, 388, 102
-0.998425, 209, 65, 240, 80
-0.998426, 409, 265, 440, 280
-0.998426, 357, 49, 388, 64
-0.998427, 69, 23, 100, 38
-0.998427, 373, 219, 404, 234
-0.998428, 221, 1, 252, 16
-0.998431, 61, 29, 92, 44
-0.998431, 133, 135, 164, 150
-0.998432, 169, 131, 200, 146
-0.998432, 345, 129, 376, 144
-0.998433, 309, 75, 340, 90
-0.998433, 73, 217, 104, 232
-0.99844, 265, 177, 296, 192
-0.99844, 349, 43, 380, 58
-0.998441, 345, 99, 376, 114
-0.998441, 409, 133, 440, 148
-0.998442, 85, 215, 116, 230
-0.998442, 377, 55, 408, 70
-0.998442, 321, 73, 384, 88
-0.998443, 289, 29, 416, 60
-0.998443, 365, 213, 396, 228
-0.998444, 49, 237, 80, 252
-0.998446, 329, 137, 360, 152
-0.998446, 329, 211, 392, 226
-0.998446, 145, 133, 176, 148
-0.998449, 265, 61, 296, 76
-0.99845, 241, 73, 272, 88
-0.998451, 289, 181, 320, 196
-0.998452, 13, 57, 44, 72
-0.998452, 9, 33, 40, 48
-0.998452, 345, 123, 376, 138
-0.998453, 353, 209, 384, 224
-0.998453, 305, 61, 368, 76
-0.998454, 65, 89, 192, 120
-0.998454, 361, 55, 392, 70
-0.998455, 293, 73, 324, 88
-0.998456, 313, 85, 376, 100
-0.998458, 321, 101, 352, 116
-0.998461, 313, 97, 344, 352
-0.998463, 321, 233, 448, 264
-0.99847, 145, 49, 272, 80
-0.998472, 313, 97, 376, 112
-0.998473, 245, 187, 276, 202
-0.998475, 229, 79, 260, 94
-0.998476, 341, 209, 372, 224
-0.998478, 397, 135, 428, 150
-0.998479, 345, 105, 376, 120
-0.998479, 305, 67, 368, 82
-0.998479, 281, 83, 344, 98
-0.99848, 309, 81, 340, 96
-0.998481, 321, 43, 384, 58
-0.998487, 69, 223, 100, 238
-0.998487, 321, 103, 384, 118
-0.998487, 353, 73, 384, 88
-0.998491, 237, 181, 268, 196
-0.998491, 337, 157, 464, 188
-0.998491, 141, 1, 172, 256
-0.998493, 221, 73, 252, 88
-0.998494, 37, 243, 68, 258
-0.998494, 341, 65, 372, 80
-0.998496, 297, 175, 328, 190
-0.998499, 89, 205, 152, 220
-0.998501, 353, 57, 416, 72
-0.998504, 337, 83, 400, 98
-0.998504, 357, 33, 372, 160
-0.998505, 361, 61, 392, 76
-0.998505, 221, 173, 252, 188
-0.998509, 201, 75, 264, 90
-0.998511, 265, 179, 328, 194
-0.998513, 81, 215, 144, 230
-0.998514, 209, 181, 272, 196
-0.998515, 225, 81, 288, 96
-0.998516, 1, 257, 256, 320
-0.998517, 273, 257, 400, 288
-0.998519, 41, 235, 104, 250
-0.998519, 341, 89, 372, 104
-0.998522, 393, 129, 456, 144
-0.998522, 61, 231, 92, 246
-0.998523, 25, 247, 88, 262
-0.998527, 181, 125, 212, 140
-0.998527, 33, 241, 96, 256
-0.998528, 245, 81, 276, 96
-0.998529, 345, 83, 376, 98
-0.998529, 193, 167, 256, 182
-0.998532, 193, 69, 256, 84
-0.998533, 325, 81, 356, 96
-0.998534, 209, 277, 336, 308
-0.998534, 233, 183, 296, 198
-0.998535, 281, 77, 344, 92
-0.998537, 161, 109, 224, 124
-0.998537, 65, 329, 192, 360
-0.998539, 345, 73, 408, 88
-0.998544, 353, 67, 384, 82
-0.998547, 73, 29, 104, 44
-0.99855, 333, 73, 364, 88
-0.998552, 205, 167, 236, 182
-0.998556, 305, 161, 368, 176
-0.998558, 329, 49, 392, 64
-0.998559, 321, 135, 384, 150
-0.998559, 337, 33, 352, 160
-0.99856, 257, 75, 320, 90
-0.998561, 97, 205, 128, 220
-0.998561, 381, 97, 412, 352
-0.998561, 333, 131, 364, 146
-0.998561, 129, 217, 256, 248
-0.998562, 217, 1, 280, 16
-0.998565, 289, 173, 352, 188
-0.998568, 253, 181, 284, 196
-0.99857, 321, 109, 384, 124
-0.998571, 385, 283, 448, 298
-0.998572, 9, 253, 72, 268
-0.998574, 1, 35, 64, 50
-0.998576, 137, 135, 200, 150
-0.998577, 333, 97, 364, 112
-0.998578, 321, 125, 384, 140
-0.99858, 289, 221, 416, 252
-0.998581, 257, 87, 320, 102
-0.998581, 225, 69, 288, 84
-0.998581, 345, 129, 408, 144
-0.998582, 65, 221, 128, 236
-0.998584, 1, 137, 128, 168
-0.998585, 281, 69, 344, 84
-0.998586, 305, 35, 368, 50
-0.998587, 337, 89, 400, 104
-0.998587, 361, 63, 424, 78
-0.998588, 369, 207, 432, 222
-0.998589, 353, 219, 416, 234
-0.998589, 297, 167, 360, 182
-0.998589, 333, 115, 364, 130
-0.99859, 1, 53, 64, 68
-0.998593, 249, 203, 312, 218
-0.998594, 233, 63, 296, 78
-0.998594, 313, 151, 376, 166
-0.998596, 257, 185, 320, 200
-0.998599, 65, 149, 192, 180
-0.9986, 57, 227, 120, 242
-0.9986, 333, 103, 364, 118
-0.9986, 345, 109, 408, 124
-0.9986, 289, 89, 352, 104
-0.998602, 113, 135, 176, 150
-0.998602, 213, 97, 228, 224
-0.998602, 1, 59, 64, 74
-0.998603, 369, 127, 432, 142
-0.998603, 49, 205, 112, 220
-0.998606, 385, 135, 448, 150
-0.998606, 345, 123, 408, 138
-0.998607, 201, 89, 264, 104
-0.998607, 257, 173, 320, 188
-0.998608, 321, 119, 384, 134
-0.998609, 249, 81, 312, 96
-0.998609, 273, 63, 336, 78
-0.99861, 313, 141, 376, 156
-0.99861, 193, 63, 256, 78
-0.998611, 217, 189, 280, 204
-0.998611, 169, 115, 232, 130
-0.998611, 41, 27, 104, 42
-0.998612, 161, 181, 224, 196
-0.998614, 113, 205, 176, 220
-0.998615, 305, 55, 368, 70
-0.998616, 345, 103, 408, 118
-0.998616, 57, 243, 120, 258
-0.998616, 169, 121, 232, 136
-0.998618, 305, 187, 368, 202
-0.998619, 1, 133, 64, 148
-0.99862, 361, 41, 424, 56
-0.998621, 177, 99, 240, 114
-0.998622, 9, 41, 72, 56
-0.998623, 145, 129, 208, 144
-0.998625, 345, 229, 408, 244
-0.998625, 377, 265, 440, 280
-0.998626, 177, 207, 240, 222
-0.998626, 145, 115, 208, 130
-0.998629, 33, 211, 96, 226
-0.998629, 57, 33, 120, 48
-0.998629, 289, 95, 352, 110
-0.998632, 121, 141, 184, 156
-0.998633, 377, 213, 440, 228
-0.998634, 345, 95, 408, 110
-0.998637, 33, 229, 96, 244
-0.998637, 145, 121, 208, 136
-0.998638, 289, 179, 352, 194
-0.998638, 169, 129, 232, 144
-0.998638, 377, 255, 440, 270
-0.998639, 65, 173, 128, 188
-0.998639, 233, 175, 296, 190
-0.998642, 353, 35, 416, 50
-0.998642, 345, 135, 408, 150
-0.998642, 369, 51, 432, 66
-0.998642, 1, 247, 64, 262
-0.998643, 161, 73, 224, 88
-0.998645, 329, 55, 392, 70
-0.998645, 33, 53, 96, 68
-0.998646, 329, 17, 344, 144
-0.998647, 129, 273, 384, 336
-0.998647, 169, 65, 232, 80
-0.998647, 209, 109, 272, 124
-0.998647, 273, 57, 336, 72
-0.998647, 17, 217, 80, 232
-0.998648, 225, 75, 288, 90
-0.998648, 233, 91, 296, 106
-0.998649, 325, 91, 356, 106
-0.998649, 65, 25, 128, 40
-0.99865, 393, 157, 456, 172
-0.99865, 401, 263, 464, 278
-0.998651, 9, 259, 72, 274
-0.998651, 321, 205, 384, 220
-0.998651, 333, 125, 364, 140
-0.998652, 17, 27, 80, 42
-0.998652, 25, 127, 88, 142
-0.998652, 289, 193, 352, 208
-0.998652, 341, 59, 372, 74
-0.998653, 353, 201, 416, 216
-0.998658, 113, 333, 240, 364
-0.998664, 405, 127, 436, 142
-0.998671, 345, 17, 360, 144
-0.99868, 363, 33, 378, 160
-0.998681, 333, 109, 364, 124
-0.998684, 17, 261, 144, 292
-0.998684, 29, 1, 60, 256
-0.998686, 213, 65, 244, 320
-0.998709, 305, 1, 432, 32
-0.998715, 321, 281, 448, 312
-0.998719, 49, 113, 176, 144
-0.998723, 1, 313, 256, 375
-0.99873, 273, 273, 400, 304
-0.998747, 225, 241, 352, 272
-0.998757, 177, 29, 304, 60
-0.998758, 61, 129, 92, 375
-0.998759, 369, 237, 496, 268
-0.99877, 207, 97, 222, 224
-0.998771, 77, 1, 108, 256
-0.998782, 17, 33, 48, 288
-0.9988, 337, 81, 352, 208
-0.998804, 369, 17, 384, 144
-0.998814, 347, 81, 362, 208
-0.998831, 327, 81, 342, 208
-0.998832, 351, 33, 366, 160
-0.998862, 41, 65, 72, 320
-0.998863, 323, 1, 338, 128
-0.998888, 289, 129, 320, 375
-0.998896, 219, 97, 234, 224
-0.998927, 177, 313, 304, 375
-0.998947, 215, 145, 230, 272
-0.998956, 317, 1, 332, 128
-0.998973, 469, 1, 500, 256
-0.998991, 311, 1, 326, 128
-0.998997, 257, 313, 500, 375
-0.998998, 353, 81, 368, 208
-0.999, 201, 97, 216, 224
-0.999021, 225, 97, 240, 224
-0.999023, 41, 193, 56, 320
-0.999029, 105, 129, 136, 375
-0.999032, 65, 33, 96, 288
-0.999036, 69, 161, 84, 288
-0.999063, 77, 161, 92, 288
-0.999063, 209, 145, 224, 272
-0.999064, 305, 1, 320, 128
-0.999065, 209, 49, 224, 176
-0.999072, 193, 65, 208, 192
-0.999072, 87, 161, 102, 288
-0.999074, 321, 49, 336, 176
-0.999082, 47, 209, 62, 336
-0.999083, 187, 65, 202, 192
-0.999086, 395, 1, 410, 128
-0.999091, 9, 1, 24, 128
-0.999093, 59, 177, 74, 304
-0.999097, 375, 33, 390, 160
-0.999106, 401, 1, 432, 256
-0.99911, 151, 129, 166, 256
-0.999114, 149, 65, 164, 192
-0.999122, 221, 49, 236, 176
-0.999128, 121, 145, 136, 272
-0.999131, 319, 129, 334, 256
-0.999137, 77, 1, 92, 128
-0.999144, 373, 1, 404, 256
-0.999152, 53, 1, 84, 256
-0.999155, 157, 129, 172, 256
-0.999157, 181, 113, 196, 240
-0.999166, 15, 1, 30, 128
-0.999166, 361, 97, 392, 352
-0.999168, 127, 145, 142, 272
-0.999169, 369, 65, 384, 192
-0.999173, 135, 145, 150, 272
-0.999174, 143, 129, 158, 256
-0.999177, 235, 65, 250, 192
-0.999178, 115, 145, 130, 272
-0.999187, 325, 129, 340, 256
-0.99919, 399, 193, 414, 320
-0.999193, 199, 33, 214, 160
-0.999193, 269, 1, 284, 128
-0.999194, 221, 145, 236, 272
-0.999196, 179, 65, 194, 192
-0.999205, 281, 1, 296, 128
-0.999212, 97, 225, 352, 288
-0.999216, 215, 33, 230, 160
-0.999216, 359, 81, 374, 208
-0.999222, 105, 1, 120, 128
-0.999224, 91, 1, 106, 128
-0.999235, 143, 65, 158, 192
-0.999235, 13, 209, 28, 336
-0.999237, 31, 193, 46, 320
-0.999239, 53, 177, 68, 304
-0.999247, 39, 17, 54, 144
-0.999248, 293, 177, 308, 304
-0.999254, 99, 1, 114, 128
-0.999255, 155, 65, 170, 192
-0.999257, 195, 113, 210, 240
-0.999259, 413, 129, 444, 375
-0.99926, 189, 113, 204, 240
-0.999264, 29, 17, 44, 144
-0.999264, 203, 161, 218, 288
-0.999265, 173, 113, 188, 240
-0.999265, 155, 1, 170, 128
-0.999268, 395, 129, 410, 256
-0.999279, 227, 17, 242, 144
-0.999281, 265, 129, 296, 375
-0.999282, 101, 161, 116, 288
-0.999287, 83, 1, 98, 128
-0.99929, 311, 65, 326, 192
-0.999294, 289, 1, 304, 128
-0.999301, 437, 81, 452, 208
-0.999302, 7, 209, 22, 336
-0.999303, 263, 1, 278, 128
-0.99931, 431, 129, 446, 256
-0.999314, 239, 145, 254, 272
-0.999315, 53, 17, 68, 144
-0.999317, 1, 289, 256, 352
-0.999318, 79, 209, 94, 336
-0.99932, 295, 1, 310, 128
-0.999322, 163, 129, 178, 256
-0.999323, 95, 161, 110, 288
-0.999332, 343, 129, 358, 256
-0.999334, 47, 1, 62, 128
-0.999345, 109, 145, 124, 272
-0.999345, 113, 1, 128, 128
-0.999349, 423, 145, 438, 272
-0.99935, 405, 1, 420, 128
-0.999352, 121, 1, 136, 128
-0.999352, 427, 1, 442, 128
-0.999354, 65, 209, 80, 336
-0.999354, 161, 81, 176, 208
-0.999355, 23, 193, 38, 320
-0.999356, 97, 313, 352, 375
-0.99936, 389, 1, 404, 128
-0.999361, 131, 65, 146, 192
-0.999361, 433, 1, 448, 128
-0.999367, 405, 225, 420, 352
-0.999369, 59, 17, 74, 144
-0.999371, 401, 113, 416, 240
-0.999375, 257, 1, 272, 128
-0.999377, 29, 97, 60, 352
-0.999377, 71, 209, 86, 336
-0.999378, 273, 161, 288, 288
-0.999378, 275, 1, 290, 128
-0.999378, 389, 209, 404, 336
-0.999381, 137, 97, 152, 224
-0.999382, 311, 145, 326, 272
-0.99939, 243, 65, 258, 192
-0.999394, 149, 1, 164, 128
-0.999396, 261, 177, 276, 304
-0.999399, 411, 129, 426, 256
-0.999399, 121, 193, 136, 320
-0.999409, 251, 1, 266, 128
-0.999412, 251, 161, 266, 288
-0.999414, 331, 129, 346, 256
-0.999418, 163, 1, 178, 128
-0.999422, 1, 1, 16, 128
-0.999422, 53, 225, 68, 352
-0.999423, 173, 65, 188, 192
-0.999435, 267, 177, 282, 304
-0.999444, 441, 1, 456, 128
-0.999445, 37, 241, 52, 368
-0.999475, 413, 1, 444, 256
-0.999516, 457, 1, 488, 256
-0.999559, 5, 129, 36, 375
-0.999586, 315, 177, 330, 192
-0.999587, 395, 225, 410, 240
-0.999587, 337, 95, 352, 110
-0.999587, 321, 31, 336, 46
-0.999587, 255, 77, 270, 92
-0.999587, 245, 89, 260, 104
-0.999588, 321, 175, 336, 190
-0.999589, 47, 263, 62, 278
-0.999589, 65, 131, 80, 146
-0.999591, 405, 135, 420, 150
-0.999592, 351, 207, 366, 222
-0.999593, 203, 169, 218, 184
-0.999593, 337, 43, 352, 58
-0.999593, 341, 67, 356, 82
-0.999594, 245, 73, 260, 88
-0.999594, 307, 83, 322, 98
-0.999594, 89, 29, 104, 44
-0.999594, 329, 141, 344, 156
-0.999595, 65, 225, 80, 240
-0.999595, 357, 39, 372, 54
-0.999595, 237, 181, 252, 196
-0.999595, 201, 185, 216, 200
-0.999595, 353, 231, 368, 246
-0.999596, 87, 215, 102, 230
-0.999596, 77, 219, 92, 234
-0.999597, 215, 113, 230, 128
-0.999597, 227, 1, 242, 16
-0.999597, 371, 75, 386, 90
-0.999598, 369, 209, 384, 224
-0.999598, 329, 89, 344, 104
-0.999598, 105, 205, 120, 220
-0.999599, 201, 175, 216, 190
-0.9996, 175, 127, 190, 142
-0.9996, 295, 81, 310, 96
-0.999601, 191, 125, 206, 140
-0.999602, 257, 83, 272, 98
-0.999602, 469, 97, 500, 352
-0.999603, 443, 163, 458, 178
-0.999603, 303, 181, 318, 196
-0.999604, 297, 197, 312, 212
-0.999606, 41, 267, 56, 282
-0.999607, 29, 249, 44, 264
-0.999607, 217, 61, 232, 76
-0.999607, 355, 123, 370, 138
-0.999608, 241, 67, 256, 82
-0.999608, 363, 81, 378, 96
-0.999608, 357, 207, 372, 222
-0.999608, 31, 59, 46, 74
-0.99961, 109, 171, 124, 186
-0.99961, 79, 237, 94, 252
-0.99961, 327, 101, 342, 116
-0.99961, 297, 175, 312, 190
-0.999611, 245, 81, 260, 96
-0.999611, 357, 111, 372, 126
-0.999612, 357, 75, 372, 90
-0.999614, 357, 103, 372, 118
-0.999614, 229, 103, 244, 118
-0.999615, 285, 65, 300, 80
-0.999615, 217, 67, 232, 82
-0.999615, 331, 79, 346, 94
-0.999617, 223, 107, 238, 122
-0.999617, 427, 129, 442, 144
-0.999617, 181, 131, 196, 146
-0.999618, 251, 83, 266, 98
-0.999618, 45, 239, 60, 254
-0.999621, 393, 25, 408, 40
-0.999621, 9, 43, 24, 58
-0.999623, 371, 49, 386, 64
-0.999623, 307, 167, 322, 182
-0.999624, 115, 205, 130, 220
-0.999625, 53, 259, 68, 274
-0.999626, 361, 61, 376, 76
-0.999626, 353, 129, 368, 144
-0.999626, 371, 63, 386, 78
-0.999626, 271, 183, 286, 198
-0.99963, 337, 73, 352, 88
-0.999631, 51, 237, 66, 252
-0.999631, 355, 117, 370, 132
-0.999632, 347, 135, 362, 150
-0.999632, 399, 131, 414, 146
-0.999634, 381, 55, 396, 70
-0.999635, 223, 67, 238, 82
-0.999637, 337, 117, 352, 132
-0.999637, 71, 29, 86, 44
-0.999638, 357, 87, 372, 102
-0.999639, 39, 243, 54, 258
-0.99964, 347, 123, 362, 138
-0.999641, 183, 123, 198, 138
-0.999642, 399, 137, 414, 152
-0.999642, 263, 185, 278, 200
-0.999643, 347, 91, 362, 106
-0.999646, 77, 27, 92, 42
-0.999646, 345, 59, 360, 74
-0.999647, 385, 1, 416, 256
-0.999647, 249, 183, 264, 198
-0.999648, 161, 109, 176, 124
-0.999648, 279, 63, 294, 78
-0.999648, 433, 33, 464, 288
-0.999651, 71, 221, 86, 236
-0.999651, 309, 177, 324, 192
-0.999653, 231, 171, 246, 186
-0.999654, 337, 211, 352, 226
-0.999655, 271, 57, 286, 72
-0.999655, 239, 79, 254, 94
-0.999656, 99, 205, 114, 220
-0.999657, 83, 29, 98, 44
-0.999657, 93, 211, 108, 226
-0.999659, 345, 205, 360, 220
-0.99966, 345, 115, 360, 130
-0.999661, 337, 101, 352, 116
-0.999662, 347, 107, 362, 122
-0.999663, 261, 179, 276, 194
-0.999663, 347, 97, 362, 112
-0.999664, 269, 195, 284, 210
-0.999666, 385, 219, 400, 234
-0.999669, 379, 215, 394, 230
-0.999669, 415, 127, 430, 142
-0.999669, 351, 79, 366, 94
-0.99967, 231, 71, 246, 86
-0.999677, 255, 181, 270, 196
-0.99968, 347, 129, 362, 144
-0.999691, 337, 131, 352, 146
-0.999696, 215, 147, 230, 162
-0.999699, 421, 127, 436, 142
-0.999701, 211, 165, 226, 180
-0.999703, 337, 109, 352, 124
-0.999704, 243, 183, 258, 198
-0.999705, 407, 125, 422, 140
-0.999705, 303, 173, 318, 188
-0.999711, 267, 177, 282, 192
-0.999711, 425, 129, 456, 375
-0.999713, 347, 85, 362, 100
-0.999722, 351, 59, 366, 74
-0.999734, 337, 125, 352, 140
-0.999812, 1, 257, 500, 320
-0.999853, 5, 1, 36, 256
-0.99989, 457, 97, 488, 352
-0.999967, 17, 129, 48, 375
-1.00006, 1, 313, 500, 375
-1.0001, 1, 281, 500, 344
-1.00013, 445, 1, 476, 256
-1.00021, 185, 241, 248, 368
-1.00025, 437, 129, 468, 375
-1.00251, 161, 241, 224, 368
-1.0035, 289, 241, 352, 368
-1.00395, 209, 241, 272, 368
