1888
-0.503084, 1, 1, 500, 256
-0.576733, 65, 1, 320, 333
-0.579572, 1, 1, 500, 333
-0.670271, 161, 1, 416, 333
-0.740877, 65, 1, 320, 256
-0.742063, 257, 1, 500, 333
-0.814857, 225, 1, 480, 256
-0.887858, 129, 1, 256, 333
-0.89113, 65, 1, 192, 333
-0.898166, 129, 1, 256, 256
-0.900694, 49, 1, 176, 256
-0.903452, 1, 161, 500, 288
-0.903668, 193, 1, 320, 333
-0.903923, 17, 1, 144, 333
-0.9075, 273, 1, 400, 333
-0.914368, 209, 1, 336, 256
-0.915135, 1, 65, 500, 192
-0.922385, 369, 1, 496, 333
-0.926168, 273, 1, 400, 256
-0.927496, 1, 113, 500, 240
-0.934236, 1, 209, 500, 333
-0.936071, 353, 1, 480, 256
-0.936305, 97, 145, 352, 272
-0.936676, 321, 1, 448, 333
-0.939507, 129, 193, 384, 320
-0.944655, 1, 1, 128, 256
-0.944842, 1, 1, 500, 128
-0.948222, 121, 145, 184, 272
-0.948462, 193, 1, 448, 128
-0.953913, 145, 113, 272, 240
-0.954702, 193, 145, 448, 272
-0.956136, 97, 1, 352, 128
-0.956164, 113, 145, 176, 208
-0.95868, 65, 81, 320, 208
-0.95906, 113, 161, 240, 288
-0.959606, 265, 185, 328, 248
-0.959822, 17, 1, 144, 128
-0.960149, 1, 1, 64, 128
-0.960345, 249, 177, 312, 304
-0.960396, 1, 1, 256, 128
-0.960723, 49, 113, 176, 240
-0.963004, 33, 193, 288, 320
-0.963361, 273, 145, 336, 272
-0.964114, 193, 81, 448, 208
-0.964758, 113, 193, 176, 320
-0.964896, 161, 1, 288, 128
-0.964984, 225, 193, 480, 320
-0.965012, 137, 129, 200, 192
-0.966216, 409, 1, 472, 128
-0.966412, 1, 145, 256, 272
-0.967188, 65, 161, 192, 288
-0.967697, 225, 193, 352, 320
-0.967793, 97, 113, 224, 240
-0.968087, 145, 145, 208, 272
-0.96817, 241, 193, 304, 256
-0.968182, 353, 1, 480, 128
-0.968498, 233, 1, 296, 128
-0.969102, 241, 145, 368, 272
-0.969289, 145, 97, 208, 224
-0.969754, 241, 1, 368, 128
-0.969784, 337, 161, 464, 288
-0.969946, 297, 145, 360, 272
-0.970047, 225, 145, 288, 272
-0.970481, 289, 1, 416, 128
-0.970483, 97, 1, 160, 128
-0.970483, 65, 209, 192, 333
-0.970539, 321, 145, 384, 272
-0.970578, 273, 193, 336, 320
-0.9707, 121, 1, 184, 128
-0.970828, 297, 1, 360, 64
-0.971041, 113, 169, 176, 232
-0.971134, 353, 1, 416, 64
-0.971479, 297, 193, 360, 320
-0.971492, 81, 1, 208, 128
-0.971493, 353, 1, 416, 128
-0.971854, 377, 1, 440, 128
-0.971978, 97, 65, 160, 192
-0.972134, 137, 137, 168, 200
-0.972592, 265, 161, 328, 224
-0.97268, 33, 1, 96, 64
-0.972773, 161, 161, 288, 288
-0.973103, 81, 161, 144, 288
-0.973334, 65, 65, 192, 192
-0.974065, 273, 193, 400, 320
-0.974122, 169, 113, 232, 240
-0.974213, 113, 209, 176, 272
-0.974633, 9, 1, 72, 64
-0.974655, 225, 161, 288, 224
-0.975088, 345, 161, 408, 288
-0.975601, 9, 49, 72, 176
-0.975692, 137, 145, 168, 272
-0.975757, 137, 193, 200, 320
-0.97582, 113, 209, 240, 333
-0.975883, 137, 153, 200, 216
-0.976087, 193, 113, 320, 240
-0.976371, 289, 145, 416, 272
-0.976378, 121, 233, 184, 296
-0.976411, 321, 49, 448, 176
-0.976464, 273, 17, 336, 80
-0.976557, 145, 1, 208, 64
-0.976646, 273, 1, 336, 128
-0.976878, 321, 25, 384, 88
-0.976967, 369, 209, 496, 333
-0.97712, 1, 97, 128, 224
-0.977161, 261, 193, 292, 256
-0.977229, 73, 1, 136, 128
-0.977235, 277, 185, 308, 248
-0.977661, 321, 1, 384, 128
-0.977679, 137, 177, 200, 240
-0.977703, 89, 209, 152, 333
-0.977707, 193, 81, 256, 208
-0.977842, 321, 209, 448, 333
-0.97796, 65, 1, 128, 64
-0.978034, 169, 161, 232, 288
-0.978135, 1, 49, 128, 176
-0.9782, 249, 129, 312, 256
-0.978547, 121, 97, 184, 224
-0.978813, 57, 49, 120, 176
-0.978817, 401, 33, 464, 96
-0.978903, 401, 1, 464, 64
-0.979106, 177, 65, 304, 192
-0.9792, 289, 177, 352, 240
-0.979214, 33, 97, 96, 224
-0.979375, 385, 161, 448, 288
-0.979394, 97, 121, 160, 184
-0.979457, 145, 241, 208, 304
-0.979618, 161, 17, 224, 144
-0.979654, 161, 137, 224, 200
-0.979666, 65, 153, 192, 216
-0.979689, 41, 121, 104, 184
-0.979768, 369, 97, 496, 224
-0.97977, 89, 113, 152, 240
-0.979806, 1, 25, 64, 88
-0.97993, 9, 113, 72, 176
-0.979987, 125, 145, 156, 208
-0.980038, 281, 41, 344, 104
-0.98008, 9, 97, 72, 224
-0.980135, 113, 153, 240, 216
-0.980215, 433, 193, 496, 320
-0.980222, 145, 105, 208, 168
-0.980406, 201, 129, 264, 256
-0.980476, 241, 97, 368, 224
-0.980542, 25, 1, 88, 128
-0.98057, 137, 25, 200, 88
-0.980724, 269, 161, 300, 224
-0.980745, 289, 177, 320, 240
-0.980956, 353, 153, 416, 216
-0.980981, 321, 1, 384, 64
-0.981031, 273, 209, 336, 272
-0.98107, 193, 129, 256, 192
-0.981152, 49, 129, 176, 192
-0.981321, 33, 49, 96, 176
-0.981342, 145, 1, 208, 256
-0.981392, 433, 1, 496, 64
-0.981412, 209, 1, 272, 128
-0.981421, 225, 193, 352, 256
-0.981488, 361, 25, 424, 88
-0.981596, 137, 201, 200, 264
-0.981649, 73, 25, 136, 88
-0.981694, 305, 97, 432, 224
-0.981819, 297, 201, 360, 264
-0.981945, 17, 1, 144, 64
-0.981948, 33, 25, 96, 88
-0.982001, 89, 193, 152, 256
-0.982016, 161, 161, 224, 224
-0.982079, 113, 65, 240, 192
-0.982181, 137, 217, 168, 280
-0.982217, 1, 273, 64, 333
-0.982359, 41, 97, 104, 160
-0.982499, 121, 49, 184, 176
-0.982517, 321, 209, 384, 333
-0.98252, 73, 121, 136, 184
-0.982639, 129, 129, 256, 192
-0.982669, 121, 1, 184, 64
-0.982725, 281, 161, 312, 288
-0.982758, 225, 193, 288, 320
-0.982814, 57, 97, 120, 224
-0.982974, 269, 193, 300, 320
-0.983123, 313, 161, 376, 224
-0.983257, 409, 113, 472, 240
-0.983292, 29, 1, 60, 64
-0.983306, 409, 209, 472, 333
-0.983317, 289, 153, 352, 216
-0.983353, 49, 1, 112, 128
-0.983354, 141, 209, 172, 333
-0.983397, 185, 1, 248, 128
-0.983677, 177, 105, 240, 168
-0.983794, 161, 25, 224, 88
-0.983884, 377, 153, 440, 216
-0.983956, 153, 1, 184, 64
-0.984092, 125, 145, 156, 272
-0.984101, 233, 49, 296, 176
-0.984227, 433, 129, 496, 256
-0.984272, 265, 145, 296, 272
-0.984298, 385, 193, 448, 256
-0.984302, 1, 145, 128, 272
-0.984377, 241, 49, 368, 176
-0.984419, 209, 1, 272, 64
-0.984419, 401, 137, 464, 200
-0.984429, 113, 1, 176, 256
-0.984485, 65, 233, 192, 296
-0.984527, 89, 169, 152, 232
-0.984619, 249, 9, 312, 72
-0.984685, 321, 97, 384, 224
-0.984719, 121, 257, 184, 320
-0.984798, 113, 161, 144, 288
-0.984841, 193, 161, 320, 224
-0.985056, 297, 1, 360, 128
-0.985065, 177, 209, 304, 333
-0.985071, 97, 1, 224, 64
-0.985093, 185, 41, 248, 104
-0.985133, 97, 257, 160, 320
-0.985156, 145, 177, 272, 240
-0.985198, 425, 153, 488, 216
-0.985228, 281, 97, 344, 224
-0.985289, 257, 81, 320, 208
-0.985403, 433, 1, 496, 128
-0.985446, 153, 129, 184, 192
-0.985473, 361, 113, 424, 240
-0.985483, 313, 49, 376, 112
-0.985632, 273, 161, 400, 224
-0.985647, 185, 169, 248, 232
-0.985704, 9, 9, 40, 72
-0.985711, 353, 201, 416, 264
-0.985732, 97, 1, 160, 333
-0.985775, 21, 1, 52, 128
-0.985779, 257, 49, 320, 112
-0.985847, 425, 25, 488, 88
-0.985863, 113, 241, 240, 304
-0.985886, 273, 185, 400, 248
-0.986002, 289, 33, 352, 288
-0.986006, 137, 161, 168, 224
-0.986017, 65, 201, 192, 264
-0.986048, 41, 273, 104, 333
-0.986154, 393, 217, 456, 280
-0.986165, 149, 145, 180, 272
-0.986236, 73, 89, 136, 152
-0.986336, 345, 49, 408, 112
-0.986357, 41, 49, 104, 112
-0.986382, 177, 249, 240, 312
-0.986401, 65, 177, 192, 240
-0.98644, 225, 113, 288, 176
-0.986452, 217, 1, 280, 256
-0.986491, 137, 193, 168, 256
-0.986604, 89, 225, 152, 288
-0.986619, 89, 145, 152, 208
-0.986679, 201, 97, 264, 160
-0.986697, 97, 17, 160, 80
-0.986709, 137, 1, 200, 333
-0.986714, 417, 49, 480, 176
-0.98675, 417, 217, 480, 280
-0.986759, 45, 1, 76, 64
-0.986772, 377, 1, 440, 64
-0.986805, 225, 137, 288, 200
-0.986837, 1, 121, 128, 184
-0.986861, 249, 217, 312, 280
-0.986911, 89, 1, 152, 256
-0.986945, 353, 1, 480, 64
-0.986951, 433, 241, 496, 304
-0.986959, 145, 1, 272, 64
-0.987093, 121, 49, 184, 112
-0.987162, 385, 209, 448, 333
-0.987237, 409, 161, 472, 288
-0.987239, 225, 97, 288, 224
-0.987243, 249, 1, 280, 128
-0.98743, 1, 25, 128, 88
-0.987449, 281, 49, 344, 176
-0.987458, 321, 185, 384, 248
-0.987526, 193, 1, 256, 256
-0.987527, 261, 1, 292, 128
-0.98758, 345, 209, 408, 333
-0.987623, 125, 169, 156, 232
-0.987639, 297, 1, 328, 64
-0.987655, 437, 1, 468, 128
-0.98772, 33, 273, 160, 333
-0.987729, 17, 193, 144, 320
-0.987774, 369, 49, 496, 176
-0.987785, 305, 201, 336, 264
-0.987809, 157, 177, 188, 240
-0.987813, 257, 161, 288, 224
-0.98785, 85, 1, 116, 128
-0.98785, 425, 129, 488, 192
-0.987908, 265, 137, 328, 200
-0.987911, 161, 209, 224, 333
-0.987931, 273, 137, 400, 200
-0.987974, 9, 137, 72, 200
-0.987995, 81, 89, 208, 152
-0.988023, 49, 49, 176, 112
-0.988029, 217, 185, 280, 248
-0.988058, 353, 1, 384, 64
-0.98811, 297, 73, 360, 136
-0.988182, 129, 25, 256, 88
-0.988197, 57, 1, 88, 64
-0.988242, 385, 97, 448, 224
-0.988259, 145, 241, 176, 304
-0.988284, 157, 153, 188, 216
-0.988296, 321, 273, 384, 333
-0.988336, 341, 25, 372, 88
-0.988457, 401, 249, 464, 312
-0.988469, 145, 105, 272, 168
-0.988473, 193, 89, 320, 152
-0.988492, 129, 193, 160, 320
-0.988555, 129, 1, 160, 128
-0.988608, 337, 209, 464, 272
-0.988669, 265, 189, 328, 220
-0.988679, 65, 273, 128, 333
-0.98868, 353, 145, 384, 208
-0.988817, 29, 25, 60, 88
-0.988818, 41, 73, 104, 136
-0.988843, 185, 1, 248, 64
-0.988864, 401, 169, 464, 232
-0.988886, 201, 177, 264, 304
-0.988889, 361, 1, 392, 128
-0.988911, 217, 49, 280, 112
-0.988927, 289, 1, 416, 64
-0.988929, 33, 1, 64, 128
-0.988942, 321, 73, 384, 136
-0.989, 313, 233, 376, 296
-0.989025, 297, 145, 328, 272
-0.989033, 257, 57, 384, 120
-0.989095, 273, 1, 336, 333
-0.989108, 253, 193, 284, 320
-0.989127, 33, 1, 96, 256
-0.989143, 425, 177, 488, 240
-0.989143, 381, 1, 412, 128
-0.98921, 137, 137, 200, 168
-0.989227, 329, 1, 392, 256
-0.989232, 169, 1, 232, 256
-0.989233, 41, 209, 104, 333
-0.989244, 101, 1, 132, 128
-0.989279, 1, 17, 32, 144
-0.989348, 225, 1, 352, 64
-0.989357, 141, 1, 172, 64
-0.989366, 241, 1, 304, 333
-0.989378, 401, 57, 464, 120
-0.989384, 125, 209, 156, 272
-0.989399, 65, 25, 192, 88
-0.989438, 209, 137, 336, 200
-0.989544, 129, 65, 256, 128
-0.989605, 137, 113, 168, 176
-0.989644, 29, 113, 60, 176
-0.989651, 225, 1, 256, 128
-0.989659, 33, 97, 160, 160
-0.98971, 121, 153, 184, 184
-0.989727, 241, 201, 304, 232
-0.98973, 177, 25, 304, 88
-0.989747, 273, 225, 400, 288
-0.989769, 177, 201, 304, 264
-0.98978, 277, 209, 308, 272
-0.989798, 369, 137, 496, 200
-0.989824, 65, 113, 96, 176
-0.98986, 361, 225, 424, 288
-0.989886, 353, 161, 384, 288
-0.9899, 389, 161, 420, 224
-0.989949, 161, 185, 224, 248
-0.989982, 253, 129, 284, 256
-0.990021, 377, 129, 440, 192
-0.990051, 241, 185, 304, 216
-0.990107, 353, 177, 416, 240
-0.990117, 293, 153, 324, 216
-0.990122, 385, 49, 448, 176
-0.990247, 137, 97, 168, 224
-0.990253, 161, 49, 224, 112
-0.990258, 113, 201, 240, 264
-0.990258, 17, 241, 144, 304
-0.990279, 1, 161, 64, 288
-0.99028, 377, 1, 440, 333
-0.990288, 165, 1, 196, 64
-0.990296, 225, 89, 288, 152
-0.990323, 65, 1, 128, 256
-0.990367, 113, 165, 176, 196
-0.990385, 149, 201, 180, 264
-0.99042, 425, 273, 488, 333
-0.990424, 205, 97, 236, 224
-0.990431, 293, 1, 324, 128
-0.990437, 241, 161, 272, 224
-0.990479, 113, 137, 176, 168
-0.990483, 353, 161, 480, 224
-0.990532, 17, 153, 144, 216
-0.990539, 105, 97, 168, 160
-0.990547, 109, 137, 140, 200
-0.990552, 265, 1, 328, 256
-0.990582, 157, 97, 188, 224
-0.990585, 145, 149, 208, 180
-0.990597, 125, 249, 156, 312
-0.990602, 425, 49, 488, 112
-0.990627, 217, 257, 280, 320
-0.990636, 297, 153, 360, 184
-0.990743, 1, 249, 64, 312
-0.990752, 265, 201, 328, 232
-0.990766, 57, 161, 120, 288
-0.990785, 337, 241, 400, 304
-0.990816, 257, 33, 384, 96
-0.990818, 305, 145, 336, 208
-0.990822, 169, 65, 232, 192
-0.990827, 373, 1, 404, 64
-0.990848, 353, 1, 416, 256
-0.990853, 85, 1, 116, 64
-0.990906, 1, 1, 64, 256
-0.990908, 337, 249, 464, 312
-0.990927, 241, 145, 272, 272
-0.990973, 1, 49, 64, 112
-0.990987, 397, 1, 428, 128
-0.990988, 193, 225, 256, 288
-0.990997, 161, 1, 224, 333
-0.990999, 449, 1, 480, 128
-0.991006, 249, 185, 280, 248
-0.991022, 1, 21, 64, 52
-0.991051, 237, 1, 268, 128
-0.99106, 377, 57, 440, 120
-0.99106, 273, 73, 336, 136
-0.99106, 329, 209, 392, 272
-0.991066, 285, 1, 316, 64
-0.991111, 113, 181, 176, 212
-0.991135, 329, 1, 360, 64
-0.991154, 281, 213, 344, 244
-0.991168, 125, 121, 156, 184
-0.991171, 281, 177, 344, 208
-0.991171, 121, 241, 184, 272
-0.991186, 369, 97, 496, 160
-0.991195, 297, 1, 360, 333
-0.991234, 273, 45, 336, 76
-0.991236, 177, 145, 208, 208
-0.991253, 309, 145, 340, 272
-0.991263, 301, 177, 332, 240
-0.991287, 193, 49, 320, 112
-0.991299, 145, 125, 208, 156
-0.991305, 101, 129, 132, 256
-0.991309, 73, 1, 136, 333
-0.991335, 37, 49, 68, 176
-0.991371, 153, 177, 216, 208
-0.991424, 161, 249, 288, 312
-0.991427, 65, 49, 128, 112
-0.991433, 213, 1, 244, 128
-0.991434, 361, 157, 424, 188
-0.991437, 257, 157, 320, 188
-0.991457, 401, 1, 464, 333
-0.991459, 113, 229, 176, 260
-0.991461, 101, 9, 132, 72
-0.991465, 197, 161, 228, 288
-0.991471, 285, 113, 316, 240
-0.991473, 321, 57, 448, 120
-0.991476, 1, 33, 64, 64
-0.991498, 265, 1, 328, 32
-0.991499, 153, 189, 216, 220
-0.991512, 321, 137, 448, 200
-0.991542, 297, 193, 328, 320
-0.991545, 1, 273, 32, 333
-0.991579, 177, 93, 240, 124
-0.99158, 289, 25, 352, 56
-0.99158, 305, 209, 368, 240
-0.991603, 321, 153, 384, 184
-0.991613, 417, 97, 480, 160
-0.991616, 81, 25, 112, 88
-0.991639, 177, 121, 240, 152
-0.991641, 57, 129, 120, 160
-0.991641, 169, 1, 200, 128
-0.991641, 193, 113, 320, 176
-0.991644, 97, 149, 160, 180
-0.991669, 265, 13, 328, 44
-0.991687, 185, 113, 216, 240
-0.991697, 177, 137, 240, 168
-0.991721, 17, 89, 80, 152
-0.991734, 153, 1, 184, 128
-0.991736, 437, 89, 468, 152
-0.99174, 53, 113, 84, 176
-0.991788, 241, 169, 304, 200
-0.991789, 17, 297, 80, 328
-0.99179, 305, 1, 368, 32
-0.991793, 209, 181, 272, 212
-0.991799, 249, 57, 312, 88
-0.9918, 337, 185, 464, 248
-0.991803, 265, 145, 328, 176
-0.991807, 113, 201, 176, 232
-0.991827, 33, 1, 96, 32
-0.991827, 121, 217, 184, 248
-0.991836, 401, 1, 464, 256
-0.991838, 313, 33, 376, 64
-0.99184, 153, 161, 216, 192
-0.991842, 121, 73, 184, 136
-0.991844, 157, 233, 188, 296
-0.99187, 369, 249, 432, 312
-0.991875, 13, 33, 44, 96
-0.991893, 129, 257, 192, 288
-0.991904, 425, 157, 488, 188
-0.991913, 225, 25, 288, 88
-0.991929, 341, 1, 372, 128
-0.991937, 337, 25, 464, 88
-0.991939, 49, 33, 80, 160
-0.991951, 225, 225, 352, 288
-0.991958, 305, 221, 368, 252
-0.991961, 217, 193, 280, 224
-0.991968, 233, 37, 296, 68
-0.991971, 25, 137, 88, 168
-0.991979, 89, 137, 152, 168
-0.992002, 1, 193, 64, 256
-0.992005, 25, 29, 88, 60
-0.992009, 289, 265, 352, 328
-0.992009, 9, 1, 72, 32
-0.992011, 49, 1, 112, 333
-0.992018, 121, 97, 152, 224
-0.992028, 113, 1, 144, 128
-0.99204, 61, 89, 92, 152
-0.992041, 49, 117, 112, 148
-0.992044, 113, 209, 144, 333
-0.992045, 313, 17, 344, 80
-0.992052, 97, 65, 160, 128
-0.992054, 313, 189, 376, 220
-0.99206, 417, 1, 480, 32
-0.992064, 353, 129, 416, 192
-0.992074, 289, 121, 352, 184
-0.992077, 145, 1, 208, 32
-0.992085, 141, 1, 172, 128
-0.992088, 385, 149, 448, 180
-0.992107, 161, 13, 224, 44
-0.992121, 281, 49, 312, 112
-0.992132, 329, 225, 392, 256
-0.99214, 129, 21, 192, 52
-0.992148, 121, 1, 184, 32
-0.992181, 177, 109, 240, 140
-0.992187, 217, 1, 280, 32
-0.9922, 201, 133, 264, 164
-0.992225, 97, 125, 160, 156
-0.992225, 49, 301, 112, 332
-0.992231, 225, 149, 288, 180
-0.992231, 25, 1, 88, 333
-0.992238, 141, 133, 172, 164
-0.992239, 361, 221, 424, 252
-0.992244, 285, 25, 316, 88
-0.99226, 129, 193, 384, 256
-0.992267, 241, 1, 304, 256
-0.992272, 369, 57, 496, 120
-0.992277, 433, 209, 464, 333
-0.99228, 393, 33, 456, 64
-0.992294, 289, 189, 352, 220
-0.992307, 281, 165, 344, 196
-0.992312, 377, 33, 440, 288
-0.992315, 145, 113, 208, 144
-0.992321, 265, 185, 296, 216
-0.992324, 329, 145, 360, 272
-0.99233, 353, 73, 416, 136
-0.992343, 305, 177, 368, 208
-0.992343, 337, 165, 400, 196
-0.992355, 25, 217, 88, 280
-0.992358, 81, 225, 144, 256
-0.992361, 309, 1, 340, 128
-0.992367, 305, 49, 368, 80
-0.992371, 33, 73, 160, 136
-0.992372, 269, 197, 300, 228
-0.992376, 457, 193, 488, 320
-0.99238, 17, 209, 80, 333
-0.992382, 137, 201, 200, 232
-0.992383, 177, 189, 240, 220
-0.992391, 41, 113, 72, 176
-0.992395, 81, 165, 144, 196
-0.992404, 289, 189, 320, 220
-0.992408, 281, 209, 312, 333
-0.992408, 81, 21, 144, 52
-0.99241, 313, 165, 376, 196
-0.99241, 25, 113, 88, 144
-0.992416, 225, 81, 256, 144
-0.99242, 257, 213, 320, 244
-0.992437, 129, 57, 192, 88
-0.99244, 425, 101, 488, 132
-0.992445, 265, 25, 328, 56
-0.992449, 337, 21, 400, 52
-0.992453, 133, 149, 164, 180
-0.992457, 217, 109, 280, 140
-0.99246, 329, 1, 392, 32
-0.99246, 225, 97, 288, 128
-0.992461, 393, 213, 456, 244
-0.992461, 33, 41, 96, 72
-0.992466, 161, 29, 224, 60
-0.99247, 337, 33, 400, 64
-0.992473, 241, 25, 304, 56
-0.992476, 185, 169, 248, 200
-0.992476, 177, 113, 208, 176
-0.992478, 225, 133, 288, 164
-0.99248, 41, 13, 104, 44
-0.992481, 89, 1, 152, 32
-0.992481, 129, 93, 192, 124
-0.992489, 281, 153, 312, 216
-0.9925, 273, 89, 336, 120
-0.992501, 73, 153, 136, 184
-0.992507, 89, 253, 152, 284
-0.99252, 137, 229, 200, 260
-0.992521, 409, 89, 472, 120
-0.992523, 25, 97, 88, 128
-0.992528, 433, 45, 496, 76
-0.992546, 97, 33, 160, 64
-0.99255, 113, 269, 176, 300
-0.992552, 113, 185, 144, 248
-0.992561, 273, 57, 336, 88
-0.992562, 241, 5, 304, 36
-0.992562, 289, 141, 352, 172
-0.992578, 409, 177, 440, 304
-0.992579, 217, 85, 280, 116
-0.992583, 41, 273, 72, 333
-0.992599, 9, 285, 72, 316
-0.9926, 297, 13, 360, 44
-0.992606, 265, 101, 328, 132
-0.992616, 361, 169, 424, 200
-0.992616, 89, 193, 152, 224
-0.992622, 81, 237, 144, 268
-0.992637, 161, 225, 288, 288
-0.992637, 337, 141, 400, 172
-0.992647, 73, 297, 136, 328
-0.992651, 277, 185, 308, 216
-0.992656, 153, 101, 216, 132
-0.992664, 189, 137, 220, 200
-0.992666, 97, 301, 160, 332
-0.992669, 217, 205, 280, 236
-0.99267, 253, 193, 284, 224
-0.992677, 465, 1, 496, 128
-0.992679, 137, 25, 168, 88
-0.992692, 393, 201, 456, 232
-0.992694, 409, 45, 472, 76
-0.992702, 257, 69, 320, 100
-0.992703, 385, 161, 448, 192
-0.992704, 169, 149, 232, 180
-0.992711, 153, 193, 184, 320
-0.992727, 261, 25, 292, 88
-0.992754, 209, 145, 240, 272
-0.992757, 153, 105, 184, 168
-0.992774, 425, 1, 488, 333
-0.992824, 153, 149, 184, 180
-0.992859, 277, 209, 308, 240
-0.992895, 1, 97, 32, 224
-0.992903, 129, 137, 160, 168
-0.992915, 257, 249, 384, 312
-0.992922, 153, 137, 184, 168
-0.992928, 133, 213, 164, 244
-0.992956, 185, 1, 248, 333
-0.99296, 265, 97, 296, 224
-0.992972, 293, 153, 324, 184
-0.992995, 273, 17, 304, 144
-0.993031, 241, 81, 368, 144
-0.993033, 141, 161, 172, 192
-0.993037, 305, 209, 336, 240
-0.993062, 185, 125, 216, 156
-0.993072, 225, 65, 256, 192
-0.993077, 289, 209, 320, 240
-0.993078, 25, 1, 56, 32
-0.993079, 433, 41, 464, 104
-0.993081, 17, 201, 144, 264
-0.993082, 137, 201, 168, 232
-0.993088, 173, 133, 204, 164
-0.993089, 141, 245, 172, 276
-0.993093, 149, 1, 180, 32
-0.993107, 21, 17, 52, 48
-0.993118, 157, 125, 188, 156
-0.993128, 269, 173, 300, 204
-0.993133, 261, 153, 292, 184
-0.99314, 289, 177, 320, 208
-0.99314, 257, 205, 288, 236
-0.993154, 113, 273, 240, 333
-0.993163, 121, 149, 152, 180
-0.993173, 125, 257, 156, 288
-0.993174, 209, 105, 240, 168
-0.993177, 157, 169, 188, 200
-0.993178, 117, 137, 148, 168
-0.99318, 377, 157, 408, 188
-0.993191, 437, 97, 468, 128
-0.993193, 341, 161, 372, 224
-0.993199, 229, 89, 260, 120
-0.993206, 1, 1, 64, 333
-0.993209, 129, 245, 160, 276
-0.99321, 245, 149, 276, 180
-0.993218, 105, 145, 136, 176
-0.993221, 33, 17, 64, 48
-0.993222, 449, 81, 480, 208
-0.993222, 317, 149, 348, 180
-0.993223, 245, 29, 276, 60
-0.993224, 61, 117, 92, 148
-0.99323, 245, 1, 276, 32
-0.993234, 329, 153, 360, 184
-0.993235, 281, 49, 312, 80
-0.993239, 153, 205, 184, 236
-0.99324, 5, 33, 36, 64
-0.993241, 45, 5, 76, 36
-0.99325, 185, 161, 216, 288
-0.99325, 157, 241, 188, 272
-0.993252, 81, 125, 112, 156
-0.993252, 37, 297, 68, 328
-0.993258, 325, 17, 356, 48
-0.993258, 45, 133, 76, 164
-0.993267, 365, 161, 396, 288
-0.993267, 9, 13, 40, 44
-0.993267, 309, 181, 340, 212
-0.993269, 125, 181, 156, 212
-0.993272, 193, 161, 224, 224
-0.993272, 125, 21, 156, 52
-0.993274, 141, 173, 172, 204
-0.993275, 125, 229, 156, 260
-0.99328, 113, 17, 144, 48
-0.993281, 337, 25, 368, 56
-0.993282, 313, 193, 344, 320
-0.993282, 353, 209, 384, 333
-0.993302, 109, 229, 140, 260
-0.993306, 137, 121, 168, 152
-0.993306, 141, 233, 172, 264
-0.993307, 109, 165, 140, 196
-0.993308, 373, 1, 404, 32
-0.99331, 137, 17, 168, 48
-0.99331, 189, 137, 220, 168
-0.993314, 301, 193, 332, 224
-0.993314, 389, 157, 420, 188
-0.993315, 397, 1, 428, 32
-0.993318, 1, 45, 32, 76
-0.993318, 453, 1, 484, 32
-0.993321, 437, 1, 468, 32
-0.993323, 265, 57, 296, 88
-0.993327, 125, 33, 156, 64
-0.993327, 373, 145, 404, 208
-0.993334, 253, 181, 284, 212
-0.993334, 125, 169, 156, 200
-0.993338, 317, 137, 348, 168
-0.99334, 29, 29, 60, 60
-0.993342, 189, 113, 220, 176
-0.993342, 293, 13, 324, 44
-0.993345, 305, 157, 336, 188
-0.993346, 105, 161, 136, 224
-0.993347, 357, 153, 388, 184
-0.993347, 209, 105, 240, 136
-0.993348, 357, 165, 388, 196
-0.99335, 353, 5, 384, 36
-0.993351, 201, 117, 232, 148
-0.993353, 229, 137, 260, 168
-0.993353, 241, 197, 272, 228
-0.993354, 141, 185, 172, 216
-0.993359, 209, 129, 240, 160
-0.99336, 21, 293, 52, 324
-0.993362, 317, 201, 348, 232
-0.993366, 209, 93, 240, 124
-0.993367, 337, 213, 368, 244
-0.993369, 349, 17, 380, 48
-0.99337, 285, 165, 316, 196
-0.993373, 257, 1, 288, 32
-0.993375, 125, 269, 156, 300
-0.993379, 97, 1, 128, 32
-0.993385, 417, 1, 448, 32
-0.993385, 17, 33, 48, 64
-0.993389, 113, 265, 144, 296
-0.993397, 237, 41, 268, 72
-0.993397, 181, 109, 212, 140
-0.9934, 201, 181, 232, 212
-0.993402, 317, 41, 348, 104
-0.993403, 177, 153, 208, 184
-0.993404, 65, 129, 96, 160
-0.993408, 417, 213, 448, 244
-0.993412, 77, 109, 108, 140
-0.993413, 305, 9, 336, 40
-0.993413, 89, 109, 120, 140
-0.993416, 341, 37, 372, 68
-0.993416, 433, 85, 464, 116
-0.993422, 117, 1, 148, 32
-0.993423, 345, 157, 376, 188
-0.993424, 153, 181, 184, 212
-0.993427, 113, 249, 144, 280
-0.99343, 305, 49, 368, 176
-0.993431, 1, 297, 32, 328
-0.993433, 113, 213, 144, 244
-0.993435, 305, 21, 336, 52
-0.993435, 93, 149, 124, 180
-0.993436, 117, 125, 148, 156
-0.993436, 185, 177, 216, 208
-0.993437, 145, 49, 176, 80
-0.993438, 385, 1, 416, 32
-0.993438, 253, 133, 284, 164
-0.993439, 413, 193, 444, 224
-0.99344, 61, 37, 92, 68
-0.99344, 465, 213, 496, 244
-0.993456, 361, 65, 424, 192
-0.993456, 181, 1, 212, 64
-0.9935, 293, 209, 324, 272
-0.993504, 333, 209, 364, 333
-0.993509, 65, 169, 320, 232
-0.993564, 1, 41, 32, 104
-0.993565, 25, 145, 88, 272
-0.993567, 21, 273, 52, 333
-0.99357, 341, 161, 372, 288
-0.993586, 1, 49, 128, 112
-0.993612, 241, 113, 368, 176
-0.993679, 225, 161, 256, 288
-0.993693, 9, 113, 40, 176
-0.993696, 37, 249, 68, 312
-0.993698, 325, 1, 356, 128
-0.993703, 61, 33, 92, 96
-0.993722, 305, 273, 432, 333
-0.993728, 321, 1, 384, 333
-0.993731, 145, 129, 160, 192
-0.993741, 61, 49, 92, 176
-0.993743, 289, 113, 416, 176
-0.993771, 1, 209, 32, 333
-0.993775, 417, 1, 448, 128
-0.99387, 241, 1, 272, 64
-0.993918, 377, 161, 408, 288
-0.994011, 321, 81, 448, 144
-0.994042, 109, 81, 140, 208
-0.994044, 13, 49, 44, 176
-0.99405, 69, 1, 100, 64
-0.994098, 121, 1, 152, 64
-0.9941, 41, 129, 72, 256
-0.994114, 137, 49, 168, 176
-0.994128, 345, 81, 376, 208
-0.994143, 65, 1, 96, 128
-0.994144, 209, 257, 336, 320
-0.994151, 161, 145, 192, 272
-0.994206, 81, 89, 112, 152
-0.994208, 469, 233, 500, 296
-0.994222, 421, 193, 452, 320
-0.994226, 49, 81, 80, 208
-0.994246, 181, 241, 212, 304
-0.994254, 397, 185, 428, 248
-0.994258, 453, 73, 484, 136
-0.994275, 433, 1, 464, 64
-0.994318, 409, 193, 440, 256
-0.994332, 225, 129, 256, 192
-0.994338, 277, 177, 292, 240
-0.994338, 217, 1, 280, 333
-0.994353, 113, 241, 144, 304
-0.994358, 149, 49, 180, 176
-0.994361, 465, 209, 496, 272
-0.99443, 1, 193, 500, 256
-0.994431, 397, 193, 428, 320
-0.99444, 425, 217, 456, 280
-0.994459, 13, 97, 44, 224
-0.994492, 341, 1, 372, 64
-0.994528, 353, 273, 480, 333
-0.99456, 353, 1, 416, 333
-0.994564, 73, 49, 104, 112
-0.994572, 273, 17, 304, 80
-0.994579, 329, 153, 360, 216
-0.994584, 285, 185, 300, 248
-0.994591, 313, 169, 344, 232
-0.994593, 421, 1, 452, 64
-0.994596, 117, 33, 148, 96
-0.994598, 225, 169, 480, 232
-0.994634, 229, 113, 260, 240
-0.994643, 81, 121, 112, 184
-0.994653, 205, 153, 236, 216
-0.994674, 425, 65, 456, 128
-0.99473, 373, 121, 404, 184
-0.994734, 205, 73, 236, 136
-0.994737, 305, 49, 336, 112
-0.994753, 389, 1, 420, 64
-0.99478, 193, 33, 224, 96
-0.994813, 89, 49, 120, 112
-0.994878, 417, 49, 448, 176
-0.994878, 89, 81, 120, 208
-0.994895, 9, 145, 40, 272
-0.994919, 449, 1, 480, 64
-0.994921, 421, 161, 452, 224
-0.994972, 261, 137, 292, 200
-0.994973, 1, 129, 500, 192
-0.99498, 151, 129, 166, 192
-0.994981, 225, 1, 256, 64
-0.994992, 257, 273, 384, 333
-0.995021, 461, 49, 492, 176
-0.99505, 269, 193, 284, 256
-0.995062, 429, 265, 460, 328
-0.995079, 253, 81, 284, 208
-0.995103, 129, 1, 384, 64
-0.995246, 385, 217, 416, 280
-0.995254, 365, 113, 396, 240
-0.995254, 157, 1, 172, 64
-0.995273, 275, 201, 290, 264
-0.995298, 139, 129, 154, 192
-0.995299, 147, 153, 162, 216
-0.995321, 45, 25, 76, 88
-0.995333, 317, 193, 348, 256
-0.99534, 405, 249, 436, 312
-0.995369, 257, 1, 500, 64
-0.995383, 269, 49, 300, 112
-0.995385, 153, 25, 184, 88
-0.995404, 329, 57, 360, 120
-0.99541, 53, 265, 84, 328
-0.995424, 33, 97, 288, 160
-0.995431, 25, 49, 56, 176
-0.995478, 181, 169, 212, 232
-0.995493, 353, 217, 384, 280
-0.995526, 201, 257, 232, 320
-0.995574, 173, 113, 204, 240
-0.995597, 65, 153, 192, 184
-0.995606, 33, 1, 288, 64
-0.995612, 241, 189, 368, 220
-0.995621, 265, 169, 280, 232
-0.995663, 129, 145, 384, 208
-0.995707, 61, 113, 92, 240
-0.995716, 113, 137, 240, 168
-0.995756, 93, 177, 124, 304
-0.99577, 153, 217, 168, 280
-0.995838, 285, 161, 300, 224
-0.995847, 271, 161, 286, 224
-0.995863, 193, 189, 320, 220
-0.995866, 225, 193, 480, 256
-0.995868, 17, 177, 144, 240
-0.995869, 65, 129, 192, 160
-0.995895, 437, 49, 468, 176
-0.995895, 465, 129, 496, 256
-0.99592, 425, 65, 488, 320
-0.995929, 29, 1, 44, 64
-0.995942, 33, 121, 288, 184
-0.995989, 325, 49, 356, 176
-0.995992, 113, 153, 240, 184
-0.996015, 257, 33, 500, 96
-0.996021, 29, 97, 60, 224
-0.996136, 1, 25, 256, 88
-0.996141, 291, 161, 306, 224
-0.996166, 173, 161, 204, 288
-0.996171, 445, 209, 476, 333
-0.996184, 89, 129, 120, 256
-0.996201, 301, 185, 316, 248
-0.996234, 35, 1, 50, 64
-0.996241, 65, 209, 128, 333
-0.996252, 153, 169, 168, 232
-0.996257, 17, 9, 32, 72
-0.996294, 161, 25, 416, 88
-0.996302, 309, 209, 324, 272
-0.996336, 241, 205, 368, 236
-0.996376, 377, 209, 408, 333
-0.996379, 33, 209, 64, 333
-0.996394, 17, 1, 144, 32
-0.99642, 291, 193, 306, 256
-0.996425, 1, 153, 500, 216
-0.996429, 163, 1, 178, 64
-0.996437, 277, 153, 292, 216
-0.996439, 97, 165, 224, 196
-0.996455, 17, 17, 144, 48
-0.996463, 309, 97, 340, 224
-0.99648, 151, 193, 166, 256
-0.996493, 65, 141, 192, 172
-0.996499, 157, 137, 172, 200
-0.996504, 77, 97, 108, 224
-0.996515, 189, 33, 220, 160
-0.996522, 161, 273, 288, 333
-0.996536, 145, 105, 160, 168
-0.996547, 393, 129, 424, 256
-0.996547, 311, 185, 326, 248
-0.996596, 273, 153, 400, 184
-0.996617, 49, 1, 64, 64
-0.996636, 1, 1, 500, 64
-0.996675, 209, 49, 240, 176
-0.996709, 145, 193, 160, 256
-0.996713, 131, 233, 146, 296
-0.996715, 129, 125, 256, 156
-0.996716, 145, 165, 272, 196
-0.996717, 297, 81, 328, 208
-0.996724, 129, 185, 256, 216
-0.996733, 129, 153, 144, 216
-0.996793, 263, 193, 278, 256
-0.996827, 137, 209, 152, 272
-0.996832, 149, 133, 164, 164
-0.996842, 7, 9, 22, 72
-0.996866, 129, 1, 160, 256
-0.996869, 289, 9, 304, 72
-0.996891, 141, 153, 156, 216
-0.996894, 129, 233, 384, 296
-0.996894, 225, 233, 480, 296
-0.996904, 209, 1, 336, 32
-0.996905, 65, 193, 192, 224
-0.99694, 279, 185, 294, 216
-0.996948, 161, 33, 288, 64
-0.996949, 241, 193, 272, 320
-0.996952, 147, 217, 162, 280
-0.996964, 321, 97, 352, 224
-0.996983, 193, 209, 224, 333
-0.996986, 81, 117, 208, 148
-0.996989, 169, 1, 184, 64
-0.997026, 65, 237, 192, 268
-0.997028, 43, 1, 58, 64
-0.997083, 59, 1, 74, 64
-0.997108, 65, 177, 192, 208
-0.997113, 185, 153, 200, 216
-0.997119, 1, 105, 500, 168
-0.997122, 159, 177, 174, 240
-0.997122, 17, 133, 144, 164
-0.997125, 347, 25, 362, 88
-0.99715, 37, 25, 52, 88
-0.997156, 143, 133, 158, 164
-0.997158, 81, 1, 208, 32
-0.997173, 51, 265, 66, 328
-0.997174, 145, 197, 272, 228
-0.997189, 77, 113, 92, 176
-0.997193, 83, 113, 98, 176
-0.997202, 57, 113, 72, 176
-0.997225, 289, 1, 416, 32
-0.997229, 193, 201, 320, 232
-0.997229, 301, 17, 316, 80
-0.997229, 243, 161, 258, 224
-0.99723, 45, 113, 60, 176
-0.99723, 289, 185, 416, 216
-0.997232, 379, 1, 394, 64
-0.997255, 151, 1, 166, 64
-0.997268, 295, 41, 310, 104
-0.997274, 279, 201, 294, 232
-0.997274, 83, 1, 98, 64
-0.997287, 125, 201, 140, 264
-0.997288, 257, 129, 500, 192
-0.997309, 209, 29, 336, 60
-0.997311, 159, 233, 174, 296
-0.997313, 193, 81, 448, 144
-0.997321, 209, 165, 336, 196
-0.997325, 67, 1, 82, 64
-0.997325, 161, 17, 288, 48
-0.997329, 287, 193, 302, 224
-0.99734, 161, 45, 288, 76
-0.997341, 127, 257, 142, 320
-0.997347, 393, 1, 408, 64
-0.997358, 295, 9, 310, 72
-0.997362, 41, 273, 56, 333
-0.997362, 65, 105, 80, 168
-0.997363, 77, 49, 108, 176
-0.997369, 29, 25, 44, 88
-0.997376, 353, 217, 480, 248
-0.997378, 257, 193, 272, 256
-0.997394, 143, 241, 158, 304
-0.997395, 1, 273, 256, 333
-0.997395, 109, 1, 124, 64
-0.997403, 353, 1, 368, 64
-0.997403, 151, 25, 166, 88
-0.997404, 193, 153, 320, 184
-0.997426, 1, 301, 128, 332
-0.997427, 77, 33, 92, 96
-0.997434, 281, 209, 296, 272
-0.997435, 1, 109, 128, 140
-0.99745, 77, 1, 92, 64
-0.997463, 33, 93, 160, 124
-0.997466, 353, 25, 368, 88
-0.997474, 269, 189, 284, 220
-0.997474, 307, 1, 322, 64
-0.997481, 129, 57, 384, 120
-0.997481, 119, 137, 134, 200
-0.997487, 241, 81, 272, 208
-0.99749, 317, 201, 332, 264
-0.997494, 21, 145, 52, 272
-0.997495, 161, 1, 288, 32
-0.9975, 273, 201, 288, 232
-0.997502, 341, 153, 356, 216
-0.997511, 33, 193, 288, 256
-0.997515, 393, 153, 408, 216
-0.997521, 445, 161, 476, 288
-0.997531, 97, 249, 224, 280
-0.997533, 279, 1, 294, 64
-0.997549, 299, 161, 314, 224
-0.997551, 243, 1, 258, 64
-0.997553, 3, 265, 18, 328
-0.997559, 153, 1, 184, 256
-0.997572, 307, 153, 322, 216
-0.997572, 257, 21, 384, 52
-0.997575, 253, 169, 268, 232
-0.997585, 269, 137, 284, 200
-0.99759, 181, 121, 196, 184
-0.997592, 147, 153, 162, 184
-0.997594, 263, 189, 278, 220
-0.997596, 141, 149, 156, 180
-0.997599, 259, 169, 274, 232
-0.997601, 49, 29, 176, 60
-0.997608, 33, 145, 288, 208
-0.997609, 71, 105, 86, 168
-0.997611, 65, 205, 192, 236
-0.997616, 33, 73, 288, 136
-0.997633, 303, 225, 318, 288
-0.997637, 155, 145, 170, 176
-0.997639, 23, 9, 38, 72
-0.997644, 191, 145, 206, 208
-0.997649, 97, 21, 224, 52
-0.997651, 135, 257, 150, 320
-0.997654, 189, 1, 204, 64
-0.997655, 273, 173, 400, 204
-0.997655, 403, 161, 418, 224
-0.997656, 81, 45, 208, 76
-0.997659, 197, 113, 212, 176
-0.997662, 469, 209, 500, 333
-0.997667, 209, 89, 336, 120
-0.997678, 289, 33, 304, 96
-0.997678, 359, 1, 374, 64
-0.997678, 451, 1, 466, 64
-0.997679, 51, 113, 66, 176
-0.99768, 27, 113, 42, 176
-0.997681, 179, 1, 194, 64
-0.997681, 317, 1, 332, 64
-0.997683, 49, 165, 176, 196
-0.997696, 289, 197, 416, 228
-0.997697, 1, 25, 16, 88
-0.997701, 133, 121, 148, 184
-0.997713, 59, 273, 74, 333
-0.997714, 309, 209, 324, 240
-0.997715, 373, 1, 388, 64
-0.997715, 269, 1, 284, 64
-0.997718, 261, 145, 276, 208
-0.997719, 321, 97, 448, 128
-0.997723, 161, 201, 176, 264
-0.997728, 151, 105, 166, 168
-0.997729, 145, 249, 272, 280
-0.997739, 99, 9, 114, 72
-0.997741, 39, 113, 54, 176
-0.997743, 173, 137, 188, 200
-0.997763, 165, 41, 180, 104
-0.997763, 65, 225, 192, 256
-0.997764, 289, 229, 416, 260
-0.997776, 259, 1, 274, 64
-0.99778, 1, 29, 128, 60
-0.997785, 215, 73, 230, 136
-0.997785, 179, 153, 194, 216
-0.997785, 347, 169, 362, 232
-0.997787, 321, 161, 448, 192
-0.99779, 451, 49, 466, 112
-0.99779, 129, 177, 144, 240
-0.997791, 457, 1, 472, 64
-0.997794, 249, 1, 264, 64
-0.997795, 17, 225, 144, 256
-0.997796, 135, 169, 150, 232
-0.997802, 1, 1, 16, 64
-0.997807, 1, 217, 500, 280
-0.99781, 205, 209, 236, 333
-0.997818, 165, 161, 180, 224
-0.997824, 443, 1, 458, 64
-0.997827, 209, 49, 336, 80
-0.997831, 369, 101, 496, 132
-0.997831, 313, 161, 328, 224
-0.997843, 331, 161, 346, 224
-0.997844, 159, 257, 174, 320
-0.997845, 189, 121, 204, 184
-0.997884, 241, 141, 368, 172
-0.997894, 337, 1, 464, 32
-0.997901, 177, 177, 304, 208
-0.997921, 137, 137, 152, 168
-0.997926, 81, 57, 208, 88
-0.997934, 337, 141, 464, 172
-0.997951, 309, 153, 324, 184
-0.997965, 1, 217, 256, 280
-0.997968, 33, 49, 288, 112
-0.997981, 285, 181, 300, 212
-0.997986, 97, 261, 224, 292
-0.997995, 289, 209, 304, 240
-0.998005, 289, 37, 416, 68
-0.998008, 337, 201, 464, 232
-0.998029, 141, 33, 172, 288
-0.998039, 311, 197, 326, 228
-0.998047, 165, 49, 196, 176
-0.998056, 257, 57, 384, 88
-0.998063, 177, 125, 304, 156
-0.998064, 385, 65, 416, 192
-0.998069, 217, 209, 248, 333
-0.998069, 293, 185, 308, 216
-0.998077, 369, 169, 496, 200
-0.998082, 31, 17, 46, 48
-0.998087, 173, 1, 204, 256
-0.998091, 1, 41, 128, 72
-0.998097, 305, 81, 432, 112
-0.9981, 369, 157, 496, 188
-0.998101, 209, 1, 240, 256
-0.998111, 193, 213, 320, 244
-0.998113, 33, 249, 160, 280
-0.998117, 129, 257, 144, 288
-0.998122, 129, 113, 256, 144
-0.998123, 305, 217, 432, 248
-0.998126, 405, 97, 436, 224
-0.99813, 253, 1, 284, 256
-0.998136, 369, 113, 496, 144
-0.998138, 49, 297, 176, 328
-0.998147, 317, 205, 332, 236
-0.998148, 129, 257, 384, 320
-0.998151, 183, 125, 198, 156
-0.998158, 153, 217, 168, 248
-0.99816, 161, 137, 288, 168
-0.998179, 257, 57, 500, 120
-0.99819, 365, 209, 396, 333
-0.998193, 337, 37, 464, 68
-0.998193, 159, 1, 174, 32
-0.998199, 157, 237, 172, 268
-0.9982, 189, 141, 204, 172
-0.998205, 177, 113, 304, 144
-0.998206, 151, 197, 166, 228
-0.998209, 37, 17, 52, 48
-0.998212, 129, 121, 384, 184
-0.998213, 297, 1, 312, 32
-0.998216, 81, 73, 208, 104
-0.998221, 113, 33, 240, 64
-0.998227, 1, 45, 16, 76
-0.998237, 17, 153, 144, 184
-0.998258, 289, 169, 304, 200
-0.998261, 293, 1, 324, 256
-0.998264, 113, 209, 240, 240
-0.998267, 257, 105, 500, 168
-0.998267, 81, 193, 112, 320
-0.998267, 261, 149, 276, 180
-0.998273, 253, 197, 268, 228
-0.998275, 267, 201, 282, 232
-0.998283, 449, 93, 464, 124
-0.998297, 307, 1, 322, 32
-0.998314, 145, 97, 272, 128
-0.998317, 375, 1, 390, 32
-0.998319, 65, 105, 192, 136
-0.99832, 287, 45, 302, 76
-0.998324, 349, 173, 380, 188
-0.998325, 37, 301, 68, 316
-0.998325, 341, 149, 372, 164
-0.998325, 153, 127, 184, 142
-0.998325, 141, 29, 172, 44
-0.998325, 49, 299, 80, 314
-0.998325, 229, 9, 260, 24
-0.998326, 437, 1, 468, 16
-0.998326, 109, 309, 140, 324
-0.998326, 153, 247, 184, 262
-0.998327, 321, 201, 352, 216
-0.998328, 233, 89, 264, 104
-0.998328, 249, 9, 280, 24
-0.998329, 293, 13, 324, 28
-0.99833, 329, 177, 360, 192
-0.99833, 41, 311, 72, 326
-0.998331, 257, 153, 288, 168
-0.998331, 141, 245, 172, 260
-0.998331, 61, 133, 92, 148
-0.998331, 261, 51, 292, 66
-0.998331, 361, 1, 392, 16
-0.998331, 265, 211, 296, 226
-0.998332, 17, 293, 48, 308
-0.998332, 381, 165, 412, 180
-0.998332, 281, 47, 312, 62
-0.998333, 329, 189, 360, 204
-0.998334, 189, 181, 220, 196
-0.998334, 29, 27, 60, 42
-0.998334, 325, 81, 356, 96
-0.998334, 125, 37, 156, 52
-0.998335, 321, 207, 352, 222
-0.998336, 417, 1, 448, 16
-0.998336, 157, 241, 188, 256
-0.998337, 289, 169, 320, 184
-0.998337, 305, 217, 336, 232
-0.998338, 169, 127, 200, 142
-0.998338, 21, 37, 52, 52
-0.998338, 193, 149, 224, 164
-0.998339, 113, 233, 240, 264
-0.998339, 109, 151, 140, 166
-0.998339, 345, 229, 376, 244
-0.99834, 417, 99, 448, 114
-0.998341, 133, 221, 164, 236
-0.998341, 259, 201, 274, 232
-0.998341, 77, 157, 108, 172
-0.998341, 85, 129, 116, 144
-0.998342, 33, 15, 64, 30
-0.998342, 153, 173, 184, 188
-0.998343, 145, 1, 176, 16
-0.998344, 297, 21, 328, 36
-0.998344, 237, 149, 268, 164
-0.998344, 321, 25, 352, 40
-0.998344, 5, 311, 36, 326
-0.998347, 45, 293, 76, 308
-0.998347, 1, 301, 32, 316
-0.998349, 105, 161, 136, 176
-0.998349, 153, 157, 168, 188
-0.998352, 173, 157, 204, 172
-0.998354, 129, 243, 160, 258
-0.998354, 161, 179, 192, 194
-0.998354, 181, 143, 212, 158
-0.998355, 305, 159, 336, 174
-0.998355, 389, 183, 420, 198
-0.998355, 315, 153, 330, 184
-0.998356, 33, 21, 64, 36
-0.998356, 281, 53, 312, 68
-0.998356, 125, 261, 156, 276
-0.998356, 293, 1, 324, 16
-0.998357, 229, 95, 260, 110
-0.998358, 17, 121, 144, 152
-0.998358, 121, 31, 152, 46
-0.998358, 433, 101, 464, 116
-0.998359, 41, 301, 56, 332
-0.998359, 129, 65, 256, 96
-0.99836, 289, 149, 320, 164
-0.99836, 309, 189, 340, 204
-0.99836, 293, 185, 324, 200
-0.998361, 125, 267, 156, 282
-0.998361, 141, 177, 172, 192
-0.998361, 45, 135, 76, 150
-0.998362, 337, 29, 368, 44
-0.998362, 289, 215, 320, 230
-0.998363, 97, 313, 128, 328
-0.998363, 257, 185, 288, 200
-0.998364, 137, 201, 168, 216
-0.998364, 301, 147, 332, 162
-0.998365, 141, 251, 172, 266
-0.998365, 17, 237, 144, 268
-0.998366, 161, 151, 192, 166
-0.998366, 369, 159, 400, 174
-0.998369, 125, 139, 156, 154
-0.998372, 285, 199, 316, 214
-0.998373, 349, 181, 380, 196
-0.998374, 135, 149, 150, 180
-0.998376, 1, 39, 32, 54
-0.998376, 1, 49, 32, 64
-0.998377, 145, 239, 176, 254
-0.998377, 13, 13, 44, 28
-0.998379, 257, 265, 500, 328
-0.998379, 129, 159, 160, 174
-0.998379, 21, 305, 52, 320
-0.99838, 421, 145, 452, 272
-0.998381, 181, 151, 212, 166
-0.998381, 303, 149, 318, 180
-0.998381, 153, 161, 184, 176
-0.998381, 17, 27, 48, 42
-0.998383, 309, 205, 340, 220
-0.998383, 237, 195, 268, 210
-0.998384, 297, 205, 328, 220
-0.998384, 277, 217, 308, 232
-0.998385, 49, 261, 176, 292
-0.998386, 235, 85, 250, 116
-0.998389, 181, 127, 212, 142
-0.998393, 133, 215, 164, 230
-0.998394, 341, 153, 356, 184
-0.998395, 157, 133, 188, 148
-0.998395, 33, 295, 64, 310
-0.998396, 335, 149, 350, 180
-0.998397, 269, 181, 300, 196
-0.9984, 33, 241, 288, 304
-0.998401, 225, 177, 352, 208
-0.998403, 241, 201, 272, 216
-0.998404, 393, 157, 408, 188
-0.998405, 369, 181, 496, 212
-0.998406, 301, 217, 316, 248
-0.998406, 281, 183, 312, 198
-0.998406, 3, 33, 18, 64
-0.998406, 33, 57, 160, 88
-0.998407, 317, 153, 348, 168
-0.998408, 453, 1, 484, 16
-0.99841, 305, 211, 336, 226
-0.99841, 165, 1, 180, 32
-0.99841, 257, 29, 272, 60
-0.99841, 149, 155, 180, 170
-0.998411, 125, 145, 156, 160
-0.998411, 159, 161, 174, 192
-0.998415, 289, 155, 320, 170
-0.998417, 157, 139, 188, 154
-0.998422, 277, 205, 308, 220
-0.998422, 135, 265, 150, 296
-0.998427, 273, 177, 288, 208
-0.998429, 145, 197, 160, 228
-0.998433, 265, 189, 328, 204
-0.998433, 323, 201, 338, 232
-0.998434, 295, 173, 310, 204
-0.998435, 177, 137, 192, 168
-0.998437, 253, 205, 284, 220
-0.998438, 333, 1, 364, 256
-0.99844, 169, 145, 200, 160
-0.998444, 349, 25, 364, 56
-0.998445, 21, 19, 52, 34
-0.998454, 381, 159, 412, 174
-0.998455, 337, 69, 464, 100
-0.998457, 265, 201, 328, 216
-0.998464, 193, 101, 320, 132
-0.998464, 49, 273, 176, 304
-0.998464, 129, 153, 144, 184
-0.998465, 87, 121, 102, 152
-0.998467, 265, 21, 280, 52
-0.998476, 353, 57, 480, 88
-0.998479, 165, 209, 196, 333
-0.99848, 305, 153, 336, 168
-0.998483, 129, 245, 144, 276
-0.998486, 297, 153, 312, 184
-0.998494, 39, 1, 54, 32
-0.998494, 209, 77, 336, 108
-0.998495, 257, 191, 288, 206
-0.998495, 369, 13, 496, 44
-0.998496, 137, 135, 200, 150
-0.998497, 265, 195, 328, 210
-0.998498, 113, 157, 176, 172
-0.998499, 149, 149, 180, 164
-0.998501, 387, 157, 402, 188
-0.998502, 129, 85, 256, 116
-0.998503, 257, 85, 384, 116
-0.998505, 147, 209, 162, 240
-0.998507, 137, 147, 168, 162
-0.99851, 73, 117, 88, 148
-0.998517, 337, 229, 464, 260
-0.998518, 273, 193, 304, 208
-0.998518, 273, 199, 304, 214
-0.998518, 337, 293, 464, 324
-0.99852, 157, 205, 172, 236
-0.998521, 131, 29, 146, 60
-0.998522, 277, 211, 308, 226
-0.998523, 319, 25, 334, 56
-0.998525, 241, 187, 304, 202
-0.998526, 155, 181, 170, 212
-0.998527, 129, 153, 160, 168
-0.998529, 301, 189, 316, 220
-0.998532, 155, 133, 170, 164
-0.998534, 257, 217, 384, 248
-0.998536, 241, 197, 304, 212
-0.998537, 321, 173, 448, 204
-0.998537, 129, 147, 192, 162
-0.998539, 227, 93, 242, 124
-0.998539, 315, 1, 330, 32
-0.998541, 197, 129, 212, 160
-0.998542, 345, 1, 376, 256
-0.998543, 137, 213, 152, 244
-0.998543, 113, 221, 240, 252
-0.998544, 289, 191, 320, 206
-0.998546, 9, 33, 24, 64
-0.998549, 129, 141, 192, 156
-0.99855, 21, 33, 36, 64
-0.99855, 23, 13, 38, 44
-0.998552, 277, 57, 292, 88
-0.998555, 241, 203, 304, 218
-0.998555, 283, 169, 298, 200
-0.998557, 145, 121, 160, 152
-0.998557, 113, 171, 176, 186
-0.99856, 79, 129, 94, 160
-0.998561, 329, 149, 344, 180
-0.998563, 331, 161, 346, 192
-0.998563, 263, 177, 278, 208
-0.998563, 353, 81, 480, 112
-0.998568, 73, 129, 88, 160
-0.998575, 209, 17, 336, 48
-0.998577, 257, 129, 384, 160
-0.998581, 49, 293, 64, 324
-0.998582, 281, 183, 344, 198
-0.998584, 113, 177, 176, 192
-0.998585, 105, 145, 168, 160
-0.998585, 189, 109, 204, 140
-0.998587, 265, 205, 296, 220
-0.998588, 373, 165, 388, 196
-0.99859, 1, 37, 64, 52
-0.998592, 105, 137, 168, 152
-0.998593, 337, 159, 400, 174
-0.998594, 105, 151, 168, 166
-0.998594, 257, 1, 320, 16
-0.998595, 317, 189, 332, 220
-0.998595, 183, 137, 198, 168
-0.998596, 313, 205, 376, 220
-0.998596, 265, 213, 328, 228
-0.998597, 137, 137, 168, 152
-0.998597, 153, 175, 216, 190
-0.998598, 289, 1, 352, 16
-0.998598, 209, 237, 336, 268
-0.998599, 257, 11, 320, 26
-0.998601, 281, 155, 344, 170
-0.998602, 121, 163, 184, 178
-0.998603, 259, 1, 274, 32
-0.998603, 81, 117, 96, 148
-0.998604, 269, 153, 284, 184
-0.998604, 1, 43, 64, 58
-0.998606, 153, 185, 216, 200
-0.998608, 41, 133, 104, 148
-0.998608, 145, 157, 208, 172
-0.998608, 377, 159, 440, 174
-0.998609, 153, 141, 216, 156
-0.99861, 279, 213, 294, 244
-0.998611, 289, 189, 352, 204
-0.998611, 433, 1, 496, 16
-0.998612, 289, 211, 352, 226
-0.998613, 289, 29, 352, 44
-0.998613, 401, 1, 464, 16
-0.998615, 307, 181, 322, 212
-0.998616, 221, 109, 236, 140
-0.998617, 329, 153, 392, 168
-0.998618, 61, 1, 76, 32
-0.998622, 113, 193, 176, 208
-0.998623, 9, 313, 72, 328
-0.998625, 257, 197, 288, 212
-0.998626, 93, 121, 108, 152
-0.998626, 81, 155, 144, 170
-0.998626, 265, 207, 328, 222
-0.998627, 121, 233, 184, 248
-0.998627, 113, 259, 176, 274
-0.998628, 113, 187, 176, 202
-0.998629, 417, 7, 480, 22
-0.998632, 33, 73, 160, 104
-0.998632, 1, 21, 64, 36
-0.998634, 299, 201, 314, 232
-0.998634, 377, 1, 440, 16
-0.998634, 33, 301, 48, 332
-0.998634, 145, 165, 208, 180
-0.998634, 273, 19, 336, 34
-0.998635, 31, 29, 46, 60
-0.998636, 121, 199, 184, 214
-0.998636, 249, 157, 312, 172
-0.998636, 123, 257, 138, 288
-0.998637, 289, 161, 352, 176
-0.998637, 81, 149, 144, 164
-0.998638, 209, 201, 272, 216
-0.998638, 121, 243, 184, 258
-0.998638, 51, 133, 66, 164
-0.998639, 289, 205, 352, 220
-0.998639, 249, 181, 312, 196
-0.998639, 17, 137, 80, 152
-0.99864, 89, 313, 152, 328
-0.998641, 337, 229, 400, 244
-0.998642, 89, 31, 152, 46
-0.998642, 289, 277, 416, 308
-0.998643, 209, 159, 272, 174
-0.998644, 289, 141, 416, 172
-0.998644, 385, 153, 448, 168
-0.998644, 1, 143, 64, 158
-0.998646, 195, 177, 210, 208
-0.998647, 33, 317, 96, 332
-0.998647, 281, 51, 344, 66
-0.998647, 241, 37, 304, 52
-0.998647, 357, 229, 372, 260
-0.998648, 241, 59, 304, 74
-0.998649, 133, 125, 148, 156
-0.998649, 113, 31, 176, 46
-0.998649, 177, 137, 240, 152
-0.99865, 343, 25, 358, 56
-0.99865, 265, 219, 328, 234
-0.99865, 145, 1, 208, 16
-0.99865, 445, 41, 460, 72
-0.998651, 169, 117, 232, 132
-0.998652, 17, 297, 80, 312
-0.998652, 57, 309, 120, 324
-0.998652, 337, 1, 400, 16
-0.998653, 265, 29, 328, 44
-0.998653, 169, 147, 232, 162
-0.998653, 217, 185, 280, 200
-0.998653, 41, 107, 104, 122
-0.998653, 27, 293, 42, 324
-0.998653, 225, 153, 288, 168
-0.998654, 177, 181, 240, 196
-0.998654, 137, 129, 200, 144
-0.998654, 1, 49, 64, 64
-0.998654, 121, 227, 184, 242
-0.998654, 41, 139, 104, 154
-0.998655, 169, 153, 184, 184
-0.998657, 81, 163, 144, 178
-0.998657, 41, 45, 104, 60
-0.998658, 193, 125, 256, 140
-0.998658, 161, 129, 176, 160
-0.998658, 207, 145, 222, 176
-0.99866, 31, 1, 46, 32
-0.99866, 121, 253, 184, 268
-0.99866, 385, 1, 400, 32
-0.998661, 229, 121, 244, 152
-0.998661, 121, 205, 184, 220
-0.998661, 409, 43, 472, 58
-0.998662, 113, 281, 240, 312
-0.998662, 249, 163, 312, 178
-0.998662, 321, 183, 384, 198
-0.998662, 313, 25, 376, 40
-0.998662, 153, 191, 216, 206
-0.998663, 45, 1, 60, 32
-0.998664, 137, 253, 152, 284
-0.998664, 433, 1, 448, 32
-0.998665, 97, 21, 160, 36
-0.998665, 401, 35, 464, 50
-0.998665, 249, 147, 312, 162
-0.998666, 65, 129, 128, 144
-0.998666, 269, 187, 300, 202
-0.998666, 165, 241, 180, 272
-0.998667, 1, 291, 64, 306
-0.998668, 321, 35, 384, 50
-0.998668, 305, 153, 368, 168
-0.998668, 225, 1, 256, 256
-0.998669, 401, 95, 464, 110
-0.99867, 289, 167, 352, 182
-0.99867, 1, 27, 64, 42
-0.99867, 153, 199, 216, 214
-0.99867, 361, 165, 424, 180
-0.99867, 185, 153, 200, 184
-0.998671, 281, 35, 344, 50
-0.998671, 201, 97, 264, 112
-0.998671, 121, 219, 184, 234
-0.998671, 265, 57, 328, 72
-0.998671, 89, 129, 152, 144
-0.998671, 217, 165, 280, 180
-0.998673, 233, 15, 296, 30
-0.998673, 265, 45, 328, 60
-0.998673, 289, 1, 304, 32
-0.998673, 217, 123, 280, 138
-0.998674, 33, 27, 96, 42
-0.998675, 241, 209, 304, 224
-0.998675, 257, 169, 320, 184
-0.998675, 281, 177, 344, 192
-0.998676, 217, 191, 280, 206
-0.998676, 153, 1, 168, 32
-0.998677, 193, 87, 256, 102
-0.998677, 423, 1, 438, 32
-0.998677, 161, 27, 224, 42
-0.998677, 33, 35, 96, 50
-0.998678, 89, 1, 152, 16
-0.998678, 313, 199, 376, 214
-0.998678, 297, 59, 360, 74
-0.998678, 259, 13, 274, 44
-0.998678, 161, 255, 224, 270
-0.99868, 213, 145, 228, 176
-0.998706, 321, 33, 352, 288
-0.998719, 193, 65, 224, 320
-0.99874, 17, 185, 144, 216
-0.998745, 257, 101, 384, 132
-0.998752, 17, 213, 144, 244
-0.998759, 161, 233, 288, 264
-0.998766, 401, 1, 432, 256
-0.998772, 241, 1, 272, 256
-0.998776, 117, 1, 148, 256
-0.998778, 369, 25, 496, 56
-0.998779, 337, 49, 400, 176
-0.998807, 209, 249, 336, 280
-0.998821, 225, 269, 352, 300
-0.998826, 89, 1, 120, 256
-0.998841, 81, 93, 208, 124
-0.998861, 49, 285, 176, 316
-0.998861, 321, 25, 448, 56
-0.998881, 151, 145, 166, 272
-0.998913, 321, 117, 448, 148
-0.998919, 281, 65, 312, 320
-0.998965, 1, 1, 32, 256
-0.998966, 143, 145, 158, 272
-0.998977, 145, 269, 272, 300
-0.998988, 177, 61, 304, 92
-0.998992, 289, 253, 416, 284
-0.999008, 97, 293, 224, 324
-0.999014, 257, 69, 384, 100
-0.99902, 389, 1, 420, 256
-0.999064, 461, 33, 492, 288
-0.999071, 135, 193, 150, 320
-0.999081, 277, 161, 292, 288
-0.99912, 417, 65, 448, 320
-0.999122, 157, 161, 172, 288
-0.999127, 135, 145, 150, 272
-0.999133, 45, 1, 76, 256
-0.999134, 269, 1, 300, 256
-0.999157, 283, 177, 298, 304
-0.999193, 437, 33, 468, 288
-0.999225, 129, 129, 144, 256
-0.999227, 29, 1, 60, 256
-0.999228, 129, 209, 144, 333
-0.999231, 271, 161, 286, 288
-0.999246, 113, 1, 128, 128
-0.999256, 277, 113, 292, 240
-0.999259, 305, 33, 336, 288
-0.999259, 377, 65, 408, 320
-0.99926, 149, 97, 164, 224
-0.999277, 289, 161, 304, 288
-0.999277, 145, 193, 160, 320
-0.999278, 259, 1, 274, 128
-0.999309, 289, 1, 304, 128
-0.999318, 277, 209, 292, 333
-0.999318, 105, 33, 136, 288
-0.999321, 41, 1, 56, 128
-0.999322, 283, 129, 298, 256
-0.999323, 35, 1, 50, 128
-0.999325, 151, 193, 166, 320
-0.999333, 299, 145, 314, 272
-0.999338, 157, 113, 172, 240
-0.999338, 123, 161, 138, 288
-0.999346, 55, 1, 70, 128
-0.999346, 335, 145, 350, 272
-0.99935, 451, 1, 466, 128
-0.999356, 365, 1, 380, 128
-0.999375, 243, 1, 258, 128
-0.999378, 1, 257, 500, 320
-0.999382, 13, 17, 28, 144
-0.99939, 393, 1, 408, 128
-0.999392, 129, 1, 144, 128
-0.9994, 1, 17, 16, 144
-0.999403, 445, 1, 460, 128
-0.999416, 307, 145, 322, 272
-0.999417, 265, 1, 280, 128
-0.999418, 139, 1, 154, 128
-0.999425, 175, 1, 190, 128
-0.999425, 13, 1, 44, 256
-0.999428, 261, 145, 276, 272
-0.999429, 405, 1, 420, 128
-0.99943, 19, 1, 34, 128
-0.999439, 205, 113, 220, 240
-0.99944, 223, 1, 238, 128
-0.999449, 103, 1, 118, 128
-0.999453, 123, 1, 138, 128
-0.999454, 305, 193, 320, 320
-0.999456, 269, 113, 284, 240
-0.99946, 435, 209, 450, 333
-0.999464, 147, 1, 162, 128
-0.999471, 383, 1, 398, 128
-0.999474, 51, 49, 66, 176
-0.999478, 163, 161, 178, 288
-0.999479, 7, 1, 22, 128
-0.999481, 411, 1, 426, 128
-0.999482, 299, 193, 314, 320
-0.999482, 327, 145, 342, 272
-0.999483, 363, 161, 378, 288
-0.999489, 143, 81, 158, 208
-0.999489, 273, 1, 288, 128
-0.999491, 209, 161, 224, 288
-0.999497, 349, 161, 364, 288
-0.999499, 283, 33, 298, 160
-0.999501, 135, 97, 150, 224
-0.999502, 379, 145, 394, 272
-0.999503, 289, 113, 304, 240
-0.999504, 161, 1, 176, 128
-0.999508, 97, 1, 112, 128
-0.999511, 313, 145, 328, 272
-0.999511, 199, 161, 214, 288
-0.999513, 89, 1, 104, 128
-0.999514, 157, 49, 172, 176
-0.999518, 375, 1, 390, 128
-0.99952, 197, 113, 212, 240
-0.999521, 233, 49, 248, 176
-0.999525, 191, 33, 206, 160
-0.999526, 255, 145, 270, 272
-0.999526, 45, 49, 60, 176
-0.999527, 337, 193, 352, 320
-0.999528, 441, 209, 456, 333
-0.999529, 439, 1, 454, 128
-0.999532, 63, 81, 78, 208
-0.999534, 229, 113, 244, 240
-0.999534, 57, 1, 88, 256
-0.999535, 419, 1, 434, 128
-0.999537, 305, 1, 320, 128
-0.999538, 9, 65, 24, 192
-0.999539, 35, 49, 50, 176
-0.99954, 67, 133, 82, 148
-0.99954, 259, 199, 274, 214
-0.999541, 449, 95, 464, 110
-0.999541, 231, 197, 246, 212
-0.999542, 121, 155, 136, 170
-0.999542, 381, 1, 396, 16
-0.999542, 459, 1, 474, 16
-0.999543, 157, 241, 172, 256
-0.999543, 23, 15, 38, 30
-0.999544, 51, 135, 66, 150
-0.999544, 387, 161, 402, 288
-0.999544, 159, 161, 174, 176
-0.999544, 135, 31, 150, 46
-0.999544, 227, 99, 242, 114
-0.999545, 393, 165, 408, 180
-0.999545, 111, 145, 126, 272
-0.999546, 167, 147, 182, 162
-0.999547, 143, 143, 158, 158
-0.999547, 7, 49, 22, 64
-0.999547, 353, 1, 368, 16
-0.999548, 197, 141, 212, 156
-0.999548, 185, 127, 200, 142
-0.999548, 69, 109, 84, 124
-0.999548, 57, 313, 72, 328
-0.999549, 445, 43, 460, 58
-0.999549, 155, 171, 170, 186
-0.999549, 223, 113, 238, 240
-0.999549, 163, 175, 178, 190
-0.999549, 293, 155, 308, 170
-0.999549, 153, 195, 168, 210
-0.999549, 137, 267, 152, 282
-0.999549, 31, 313, 46, 328
-0.99955, 61, 1, 76, 128
-0.999551, 225, 93, 240, 108
-0.999551, 41, 21, 56, 36
-0.999551, 49, 301, 64, 316
-0.999551, 1, 81, 500, 144
-0.999552, 347, 1, 362, 128
-0.999552, 225, 105, 240, 120
-0.999552, 319, 205, 334, 220
-0.999552, 451, 43, 466, 58
-0.999552, 135, 141, 150, 156
-0.999553, 97, 125, 112, 140
-0.999553, 203, 147, 218, 162
-0.999553, 255, 193, 270, 320
-0.999553, 23, 23, 38, 38
-0.999554, 11, 43, 26, 58
-0.999554, 361, 1, 392, 256
-0.999554, 251, 149, 266, 164
-0.999555, 301, 1, 316, 16
-0.999555, 475, 193, 490, 320
-0.999556, 313, 159, 328, 174
-0.999557, 57, 81, 72, 208
-0.999558, 31, 293, 46, 308
-0.999558, 315, 211, 330, 226
-0.999559, 175, 143, 190, 158
-0.999559, 393, 157, 408, 172
-0.999559, 29, 31, 44, 46
-0.999559, 39, 37, 54, 52
-0.999559, 21, 311, 36, 326
-0.99956, 1, 297, 16, 312
-0.99956, 331, 81, 346, 208
-0.99956, 415, 193, 430, 320
-0.99956, 299, 185, 314, 200
-0.99956, 25, 1, 40, 128
-0.999561, 351, 29, 366, 44
-0.999561, 265, 197, 280, 212
-0.999561, 299, 13, 314, 28
-0.999561, 133, 153, 148, 168
-0.999562, 129, 31, 144, 46
-0.999562, 339, 153, 354, 168
-0.999562, 305, 149, 320, 164
-0.999562, 217, 145, 232, 272
-0.999562, 157, 209, 172, 333
-0.999563, 471, 1, 486, 128
-0.999564, 1, 25, 500, 88
-0.999564, 43, 309, 58, 324
-0.999564, 249, 113, 264, 240
-0.999564, 425, 177, 440, 304
-0.999565, 433, 1, 448, 16
-0.999565, 47, 295, 62, 310
-0.999566, 279, 213, 294, 228
-0.999566, 449, 33, 480, 288
-0.999566, 257, 205, 272, 220
-0.999567, 157, 177, 172, 192
-0.999567, 197, 147, 212, 162
-0.999567, 143, 155, 158, 170
-0.999567, 265, 193, 280, 320
-0.999568, 223, 111, 238, 126
-0.999568, 159, 141, 174, 156
-0.999568, 325, 151, 340, 166
-0.999569, 355, 161, 370, 288
-0.999569, 1, 113, 16, 240
-0.99957, 357, 229, 372, 244
-0.99957, 177, 137, 192, 152
-0.999571, 311, 1, 326, 128
-0.999571, 157, 155, 172, 170
-0.999571, 129, 259, 144, 274
-0.999571, 277, 57, 292, 72
-0.999572, 303, 7, 318, 22
-0.999573, 317, 25, 332, 40
-0.999573, 191, 151, 206, 166
-0.999573, 163, 97, 178, 224
-0.999574, 341, 145, 356, 272
-0.999574, 129, 269, 144, 284
-0.999575, 37, 27, 52, 42
-0.999575, 293, 183, 308, 198
-0.999575, 355, 209, 370, 333
-0.999575, 135, 147, 150, 162
-0.999576, 121, 81, 136, 208
-0.999577, 371, 1, 386, 16
-0.999577, 265, 205, 280, 220
-0.999577, 237, 1, 252, 128
-0.999577, 213, 113, 228, 128
-0.999578, 91, 129, 106, 144
-0.999578, 467, 81, 482, 208
-0.999578, 211, 113, 226, 240
-0.999578, 63, 313, 78, 328
-0.99958, 305, 221, 320, 236
-0.99958, 265, 183, 280, 198
-0.99958, 311, 1, 326, 16
-0.999581, 289, 209, 304, 333
-0.999582, 475, 129, 490, 256
-0.999582, 321, 177, 336, 304
-0.999586, 253, 1, 268, 128
-0.999586, 3, 39, 18, 54
-0.999586, 191, 141, 206, 156
-0.999586, 373, 161, 388, 288
-0.999587, 333, 157, 348, 172
-0.999588, 233, 95, 248, 110
-0.999588, 457, 65, 472, 192
-0.999588, 457, 1, 472, 128
-0.999589, 285, 181, 300, 196
-0.999589, 169, 33, 184, 160
-0.99959, 241, 83, 256, 98
-0.99959, 49, 1, 64, 128
-0.99959, 31, 97, 46, 224
-0.999592, 103, 129, 118, 256
-0.999593, 359, 1, 374, 128
-0.999599, 69, 1, 84, 128
-0.999599, 185, 145, 200, 160
-0.999602, 319, 153, 334, 168
-0.999602, 155, 149, 170, 164
-0.999603, 41, 295, 56, 310
-0.999603, 29, 19, 44, 34
-0.999603, 299, 155, 314, 170
-0.999604, 401, 209, 416, 333
-0.999604, 481, 193, 496, 320
-0.999605, 3, 65, 18, 192
-0.999609, 31, 25, 46, 40
-0.999611, 149, 155, 164, 170
-0.999612, 21, 317, 36, 332
-0.999616, 289, 197, 304, 212
-0.999618, 299, 217, 314, 232
-0.999619, 309, 211, 324, 226
-0.99962, 35, 19, 50, 34
-0.999622, 1, 45, 16, 60
-0.999623, 235, 89, 250, 104
-0.999635, 381, 161, 396, 176
-0.999638, 313, 203, 328, 218
-0.999639, 283, 199, 298, 214
-0.999645, 149, 145, 164, 160
-0.999645, 305, 155, 320, 170
-0.999649, 271, 199, 286, 214
-0.999659, 271, 205, 286, 220
-0.999659, 149, 135, 164, 150
-0.99966, 289, 211, 304, 226
-0.999662, 313, 153, 328, 168
-0.999665, 293, 189, 308, 204
-0.99967, 141, 149, 156, 164
-0.999689, 387, 157, 402, 172
-0.999689, 265, 189, 280, 204
-0.999689, 277, 195, 292, 210
-0.999698, 283, 187, 298, 202
-0.999705, 143, 135, 158, 150
-0.99971, 275, 185, 290, 200
-0.999767, 279, 205, 294, 220
-0.999933, 77, 1, 108, 256
-0.999965, 1, 57, 500, 120
