1950
-0.231731, 1, 1, 500, 375
-0.304903, 1, 97, 500, 352
-0.415671, 1, 1, 256, 375
-0.440449, 1, 1, 500, 256
-0.47409, 97, 1, 352, 375
-0.478729, 1, 129, 256, 375
-0.48248, 257, 1, 500, 375
-0.534758, 129, 97, 384, 352
-0.583614, 257, 65, 500, 320
-0.588178, 33, 1, 288, 256
-0.66368, 129, 1, 384, 256
-0.823799, 193, 97, 320, 352
-0.834441, 1, 193, 500, 320
-0.840045, 129, 97, 256, 352
-0.843362, 33, 129, 160, 375
-0.845487, 129, 1, 256, 375
-0.849511, 129, 1, 256, 256
-0.854852, 81, 1, 208, 375
-0.856973, 177, 1, 304, 375
-0.857676, 273, 65, 400, 320
-0.858496, 353, 1, 480, 375
-0.859167, 81, 129, 208, 375
-0.859999, 273, 1, 400, 375
-0.862185, 49, 33, 176, 288
-0.862537, 1, 241, 500, 368
-0.869931, 1, 33, 128, 288
-0.870759, 225, 1, 352, 375
-0.874336, 1, 81, 500, 208
-0.875494, 1, 1, 128, 375
-0.878912, 177, 1, 304, 256
-0.886931, 369, 65, 496, 320
-0.889262, 33, 161, 288, 288
-0.89455, 1, 17, 500, 144
-0.898206, 321, 1, 448, 256
-0.898322, 97, 209, 352, 336
-0.901352, 193, 225, 448, 352
-0.903056, 97, 97, 352, 224
-0.903274, 225, 1, 352, 256
-0.903777, 1, 209, 256, 336
-0.906871, 1, 145, 500, 272
-0.908689, 225, 65, 480, 192
-0.90982, 321, 97, 448, 352
-0.910632, 129, 161, 384, 288
-0.914443, 225, 177, 352, 304
-0.916201, 1, 113, 256, 240
-0.919125, 65, 33, 320, 160
-0.920003, 17, 129, 144, 256
-0.920807, 97, 145, 160, 272
-0.921459, 289, 209, 416, 336
-0.924962, 81, 161, 208, 288
-0.925569, 241, 225, 368, 352
-0.926292, 337, 209, 464, 336
-0.926847, 121, 161, 184, 288
-0.927802, 1, 177, 128, 304
-0.928302, 145, 225, 272, 352
-0.928508, 89, 193, 152, 320
-0.929107, 305, 209, 368, 336
-0.929857, 257, 177, 500, 304
-0.930272, 257, 65, 384, 192
-0.930275, 65, 209, 192, 336
-0.930446, 129, 97, 256, 224
-0.932077, 57, 193, 120, 320
-0.932298, 137, 209, 200, 336
-0.932821, 257, 177, 320, 304
-0.933012, 49, 129, 112, 256
-0.933172, 129, 145, 256, 272
-0.934323, 25, 161, 88, 288
-0.934373, 193, 97, 320, 224
-0.935272, 9, 97, 72, 224
-0.936636, 257, 1, 500, 128
-0.936947, 241, 225, 304, 352
-0.937034, 225, 177, 288, 304
-0.937816, 177, 177, 304, 304
-0.937853, 193, 113, 448, 240
-0.938035, 145, 81, 208, 208
-0.938049, 49, 81, 176, 208
-0.938351, 193, 225, 320, 352
-0.93837, 281, 193, 344, 320
-0.938611, 161, 241, 224, 368
-0.938641, 161, 161, 224, 288
-0.939436, 401, 209, 464, 336
-0.939815, 73, 201, 136, 264
-0.940169, 329, 225, 392, 352
-0.940363, 73, 145, 136, 272
-0.940687, 233, 113, 296, 240
-0.94127, 201, 193, 264, 320
-0.941945, 129, 17, 256, 144
-0.943246, 265, 241, 328, 368
-0.944426, 425, 209, 488, 336
-0.944994, 9, 105, 72, 168
-0.945357, 209, 113, 272, 240
-0.945675, 1, 225, 128, 352
-0.94593, 49, 161, 112, 224
-0.946015, 265, 65, 328, 192
-0.946218, 305, 225, 368, 288
-0.946531, 305, 161, 432, 288
-0.946995, 153, 225, 216, 288
-0.947202, 337, 1, 464, 128
-0.947244, 121, 113, 184, 240
-0.947715, 113, 209, 176, 336
-0.948304, 1, 65, 128, 192
-0.94853, 193, 241, 256, 368
-0.948728, 1, 193, 64, 320
-0.948756, 361, 225, 424, 352
-0.948931, 49, 241, 112, 368
-0.948969, 121, 217, 184, 280
-0.949038, 217, 241, 280, 368
-0.949146, 97, 209, 160, 272
-0.949211, 289, 65, 352, 192
-0.94929, 177, 33, 304, 160
-0.949703, 25, 185, 88, 248
-0.950182, 161, 17, 416, 144
-0.95041, 409, 249, 472, 312
-0.950453, 273, 201, 336, 264
-0.950503, 145, 1, 208, 128
-0.950639, 97, 185, 160, 248
-0.95091, 369, 65, 496, 192
-0.950988, 305, 161, 368, 288
-0.951381, 49, 193, 112, 256
-0.952691, 9, 49, 72, 176
-0.952753, 97, 153, 160, 216
-0.953207, 313, 65, 376, 192
-0.95341, 169, 1, 232, 128
-0.953484, 49, 225, 112, 288
-0.953764, 57, 81, 120, 208
-0.953928, 145, 145, 208, 208
-0.954539, 433, 33, 496, 160
-0.954547, 385, 241, 448, 304
-0.954746, 185, 129, 248, 256
-0.954793, 97, 97, 160, 224
-0.954807, 345, 177, 408, 304
-0.954942, 305, 201, 368, 264
-0.955265, 241, 281, 304, 344
-0.955674, 233, 257, 296, 320
-0.956183, 377, 65, 440, 192
-0.956333, 153, 177, 216, 240
-0.956522, 233, 201, 296, 264
-0.956541, 345, 209, 408, 272
-0.957004, 281, 145, 344, 272
-0.957061, 281, 265, 344, 328
-0.957072, 33, 81, 96, 208
-0.957331, 305, 65, 432, 192
-0.957541, 81, 241, 144, 368
-0.957594, 73, 145, 136, 208
-0.957639, 193, 217, 256, 280
-0.958063, 73, 177, 136, 240
-0.958269, 281, 241, 344, 304
-0.958363, 345, 233, 408, 296
-0.958481, 353, 1, 416, 128
-0.958746, 265, 289, 328, 352
-0.958789, 225, 65, 288, 192
-0.959057, 425, 225, 488, 288
-0.959415, 121, 193, 184, 256
-0.9601, 337, 65, 400, 192
-0.960132, 369, 161, 496, 288
-0.960151, 185, 81, 248, 208
-0.960196, 217, 297, 280, 360
-0.960792, 241, 177, 304, 240
-0.960921, 385, 217, 448, 280
-0.961056, 1, 145, 64, 272
-0.961107, 433, 249, 496, 312
-0.961223, 313, 65, 376, 128
-0.96144, 49, 137, 112, 200
-0.961458, 233, 129, 296, 375
-0.961589, 25, 161, 88, 224
-0.961819, 193, 33, 256, 160
-0.961942, 17, 209, 80, 272
-0.962075, 25, 137, 88, 200
-0.962135, 241, 129, 368, 256
-0.962724, 73, 225, 136, 288
-0.962833, 273, 73, 336, 136
-0.962938, 49, 249, 112, 312
-0.963163, 17, 97, 80, 352
-0.963194, 177, 81, 240, 144
-0.963459, 49, 129, 112, 375
-0.963617, 193, 193, 256, 256
-0.963927, 273, 169, 336, 232
-0.964004, 153, 65, 216, 320
-0.964253, 49, 33, 176, 160
-0.964345, 409, 1, 472, 128
-0.964545, 121, 161, 184, 224
-0.964611, 401, 273, 464, 336
-0.96463, 385, 161, 448, 288
-0.964782, 121, 65, 184, 192
-0.964827, 233, 81, 296, 144
-0.964838, 297, 169, 360, 232
-0.964925, 105, 129, 168, 375
-0.964972, 201, 241, 264, 304
-0.964985, 129, 129, 192, 375
-0.965182, 289, 113, 416, 240
-0.965183, 257, 241, 320, 304
-0.965245, 49, 201, 176, 264
-0.965318, 425, 161, 488, 288
-0.965433, 129, 161, 160, 288
-0.965489, 153, 249, 216, 312
-0.965594, 137, 81, 200, 144
-0.965633, 377, 265, 440, 328
-0.965638, 401, 65, 464, 192
-0.965766, 137, 113, 200, 176
-0.965783, 265, 65, 328, 320
-0.965965, 201, 97, 264, 160
-0.966046, 25, 209, 88, 336
-0.966137, 193, 129, 256, 375
-0.966207, 377, 81, 440, 144
-0.966212, 241, 105, 304, 168
-0.96629, 49, 161, 80, 288
-0.966364, 217, 129, 280, 192
-0.966472, 121, 241, 184, 304
-0.966527, 101, 145, 132, 272
-0.96659, 49, 33, 112, 160
-0.966628, 101, 185, 132, 248
-0.966764, 81, 129, 144, 375
-0.966772, 177, 241, 240, 304
-0.966782, 289, 17, 416, 144
-0.966982, 185, 305, 248, 368
-0.967093, 273, 233, 400, 296
-0.967115, 97, 233, 160, 296
-0.967176, 305, 289, 368, 352
-0.967381, 433, 49, 496, 112
-0.967446, 117, 201, 148, 264
-0.967474, 385, 1, 448, 128
-0.967539, 17, 241, 80, 304
-0.967927, 181, 225, 212, 288
-0.96822, 437, 225, 468, 352
-0.968267, 313, 17, 376, 144
-0.968329, 81, 145, 112, 272
-0.968528, 329, 305, 392, 368
-0.968533, 145, 201, 208, 264
-0.968534, 265, 177, 296, 304
-0.968581, 53, 161, 84, 224
-0.968598, 437, 233, 468, 296
-0.968647, 257, 129, 320, 256
-0.968651, 337, 257, 400, 320
-0.968708, 185, 1, 248, 256
-0.968737, 49, 105, 112, 168
-0.968773, 225, 233, 288, 296
-0.968777, 161, 225, 192, 288
-0.968847, 113, 161, 144, 288
-0.969068, 409, 297, 472, 360
-0.969149, 245, 113, 276, 240
-0.969158, 337, 233, 464, 296
-0.96922, 181, 225, 212, 352
-0.969436, 169, 201, 232, 264
-0.969625, 253, 225, 284, 352
-0.96976, 81, 225, 208, 288
-0.969983, 97, 121, 160, 184
-0.970064, 305, 249, 368, 312
-0.970196, 185, 265, 248, 328
-0.970219, 337, 209, 464, 272
-0.970221, 1, 201, 128, 264
-0.970243, 185, 161, 248, 224
-0.970254, 253, 177, 284, 304
-0.970268, 217, 177, 280, 240
-0.970281, 353, 81, 416, 144
-0.970322, 93, 193, 124, 320
-0.970354, 225, 265, 352, 328
-0.970415, 33, 169, 160, 232
-0.970422, 33, 97, 64, 224
-0.970445, 217, 33, 280, 288
-0.970451, 141, 161, 172, 288
-0.970478, 241, 305, 304, 368
-0.970832, 129, 81, 256, 144
-0.970844, 225, 241, 352, 304
-0.970899, 73, 249, 136, 312
-0.971172, 49, 185, 80, 248
-0.971344, 69, 201, 100, 264
-0.971394, 317, 209, 348, 336
-0.971397, 97, 177, 224, 240
-0.971423, 101, 209, 132, 272
-0.971464, 1, 185, 64, 248
-0.971598, 269, 257, 300, 320
-0.971736, 121, 137, 184, 200
-0.971987, 153, 9, 216, 72
-0.972249, 1, 145, 64, 208
-0.972278, 17, 145, 144, 208
-0.972289, 345, 185, 408, 248
-0.972378, 269, 225, 300, 352
-0.97241, 265, 313, 328, 375
-0.972524, 161, 289, 224, 352
-0.972556, 449, 233, 480, 296
-0.972556, 161, 105, 224, 168
-0.972577, 81, 193, 112, 256
-0.972722, 57, 113, 88, 240
-0.972735, 1, 65, 64, 128
-0.972763, 33, 185, 64, 248
-0.972799, 225, 209, 352, 272
-0.972808, 337, 257, 464, 320
-0.972822, 265, 297, 296, 360
-0.972837, 73, 193, 104, 320
-0.97285, 237, 193, 268, 320
-0.9729, 97, 49, 160, 176
-0.972975, 165, 161, 196, 288
-0.973053, 161, 209, 192, 336
-0.973069, 297, 225, 328, 352
-0.973184, 145, 225, 272, 288
-0.973187, 425, 273, 488, 336
-0.973205, 177, 257, 304, 320
-0.973235, 329, 241, 360, 368
-0.973458, 225, 289, 352, 352
-0.973506, 393, 65, 456, 320
-0.973546, 265, 17, 328, 144
-0.973553, 225, 225, 256, 352
-0.973577, 49, 113, 176, 176
-0.973582, 69, 145, 100, 208
-0.973592, 33, 177, 64, 304
-0.973627, 129, 201, 160, 264
-0.973642, 121, 33, 184, 288
-0.973646, 253, 297, 284, 360
-0.973684, 17, 97, 48, 224
-0.973692, 145, 217, 176, 280
-0.973714, 49, 33, 112, 288
-0.973804, 433, 257, 464, 320
-0.973826, 81, 145, 208, 208
-0.973855, 369, 289, 432, 352
-0.973909, 169, 137, 232, 200
-0.973922, 89, 169, 120, 232
-0.973929, 225, 177, 256, 304
-0.974037, 273, 209, 400, 272
-0.974044, 357, 217, 388, 280
-0.974048, 257, 73, 384, 136
-0.974068, 1, 17, 128, 144
-0.974094, 57, 209, 88, 272
-0.974225, 209, 185, 336, 248
-0.974225, 113, 201, 240, 264
-0.974337, 277, 177, 308, 240
-0.97437, 25, 65, 88, 128
-0.97441, 53, 137, 84, 200
-0.97444, 97, 33, 160, 288
-0.974446, 213, 193, 244, 320
-0.974459, 129, 209, 160, 336
-0.97456, 425, 225, 456, 352
-0.974647, 333, 217, 364, 280
-0.974651, 377, 217, 408, 280
-0.974737, 449, 225, 480, 352
-0.974776, 273, 257, 400, 320
-0.974824, 225, 153, 288, 216
-0.97485, 265, 201, 296, 264
-0.974943, 81, 273, 144, 336
-0.974965, 285, 177, 316, 304
-0.975035, 161, 289, 288, 352
-0.975061, 69, 145, 100, 272
-0.975117, 321, 177, 384, 240
-0.975201, 289, 33, 352, 288
-0.975245, 421, 241, 452, 304
-0.975261, 41, 273, 104, 336
-0.975347, 345, 241, 376, 304
-0.975348, 49, 73, 112, 136
-0.975392, 401, 81, 464, 144
-0.975434, 345, 217, 376, 280
-0.975561, 89, 89, 152, 152
-0.975606, 233, 97, 264, 224
-0.975656, 181, 177, 212, 304
-0.975801, 193, 89, 320, 152
-0.975812, 1, 121, 128, 184
-0.975819, 197, 217, 228, 280
-0.975913, 329, 281, 392, 344
-0.975958, 289, 17, 352, 144
-0.975978, 281, 241, 312, 304
-0.976013, 353, 97, 416, 352
-0.976031, 33, 89, 160, 152
-0.976051, 129, 257, 256, 320
-0.976052, 41, 161, 72, 224
-0.976085, 225, 17, 352, 144
-0.976105, 353, 49, 416, 112
-0.976122, 257, 113, 288, 240
-0.976133, 177, 113, 304, 176
-0.976135, 121, 17, 184, 144
-0.976149, 89, 145, 120, 208
-0.976158, 33, 225, 160, 288
-0.976231, 253, 273, 284, 336
-0.976256, 201, 225, 232, 352
-0.976263, 149, 81, 180, 208
-0.976311, 257, 177, 384, 240
-0.97632, 313, 33, 376, 288
-0.976359, 249, 113, 280, 176
-0.976381, 173, 1, 204, 128
-0.976386, 149, 209, 180, 336
-0.976401, 193, 129, 256, 192
-0.976403, 177, 17, 240, 80
-0.976496, 77, 225, 108, 288
-0.97653, 45, 97, 76, 224
-0.976558, 393, 241, 424, 304
-0.97658, 137, 153, 168, 216
-0.976587, 137, 113, 168, 240
-0.976595, 129, 113, 256, 176
-0.976628, 401, 57, 464, 120
-0.976658, 329, 113, 392, 240
-0.97668, 153, 313, 216, 375
-0.976682, 213, 113, 244, 240
-0.976738, 357, 241, 388, 368
-0.976839, 145, 177, 272, 240
-0.97684, 417, 177, 480, 240
-0.976887, 233, 185, 264, 248
-0.976893, 193, 161, 224, 224
-0.976894, 461, 209, 492, 336
-0.976934, 301, 201, 332, 264
-0.976993, 353, 113, 480, 240
-0.977052, 321, 233, 352, 296
-0.977131, 233, 17, 296, 144
-0.97714, 209, 273, 272, 336
-0.977158, 113, 209, 144, 336
-0.977195, 61, 193, 92, 320
-0.977276, 209, 73, 272, 136
-0.977344, 65, 169, 96, 232
-0.97737, 17, 105, 48, 168
-0.977484, 57, 241, 88, 304
-0.977583, 377, 169, 440, 232
-0.977612, 153, 161, 184, 288
-0.97783, 145, 17, 272, 80
-0.977833, 257, 249, 288, 312
-0.977904, 321, 209, 352, 272
-0.977973, 77, 169, 108, 232
-0.977979, 113, 297, 176, 360
-0.978, 113, 97, 176, 160
-0.97801, 229, 97, 260, 160
-0.978086, 141, 193, 172, 256
-0.978143, 133, 225, 164, 288
-0.978165, 289, 265, 320, 328
-0.978208, 13, 193, 44, 320
-0.97829, 445, 177, 476, 304
-0.978294, 89, 217, 120, 280
-0.978308, 289, 201, 320, 264
-0.978477, 333, 281, 364, 344
-0.978504, 241, 241, 272, 368
-0.978505, 293, 65, 324, 192
-0.978537, 353, 1, 416, 256
-0.978561, 265, 177, 296, 240
-0.978561, 277, 281, 308, 344
-0.978583, 101, 145, 132, 208
-0.978631, 121, 153, 152, 216
-0.978632, 341, 225, 372, 352
-0.978649, 129, 145, 256, 208
-0.978663, 17, 49, 48, 176
-0.978683, 245, 169, 276, 232
-0.978748, 197, 161, 228, 288
-0.978797, 177, 57, 240, 120
-0.978806, 233, 281, 264, 344
-0.97881, 297, 177, 328, 304
-0.978884, 213, 185, 244, 248
-0.978945, 349, 65, 380, 192
-0.978997, 269, 81, 300, 208
-0.979067, 425, 73, 488, 136
-0.979099, 365, 81, 396, 208
-0.979148, 41, 105, 72, 168
-0.979231, 1, 241, 64, 368
-0.979261, 25, 1, 88, 128
-0.979313, 405, 257, 436, 320
-0.979367, 337, 81, 464, 144
-0.979407, 81, 249, 208, 312
-0.979425, 145, 57, 208, 120
-0.97945, 13, 201, 44, 264
-0.979539, 305, 113, 368, 240
-0.979582, 161, 201, 288, 264
-0.979607, 245, 241, 276, 304
-0.979671, 177, 153, 304, 216
-0.979678, 297, 241, 328, 304
-0.979689, 73, 121, 136, 184
-0.979695, 461, 257, 492, 320
-0.979732, 1, 265, 64, 328
-0.979807, 117, 177, 148, 240
-0.979827, 233, 241, 264, 304
-0.979844, 181, 249, 212, 312
-0.979847, 337, 65, 368, 192
-0.979917, 273, 289, 400, 352
-0.979937, 337, 49, 464, 112
-0.979995, 253, 193, 284, 256
-0.98005, 321, 129, 384, 375
-0.980058, 413, 289, 444, 352
-0.980082, 389, 65, 420, 192
-0.980084, 117, 113, 148, 240
-0.98009, 253, 81, 284, 144
-0.980109, 265, 97, 328, 160
-0.980134, 81, 297, 144, 360
-0.980164, 305, 313, 368, 375
-0.980252, 329, 65, 360, 128
-0.98026, 121, 265, 184, 328
-0.980262, 249, 145, 312, 208
-0.980284, 293, 65, 324, 128
-0.980287, 405, 225, 436, 288
-0.980308, 413, 209, 444, 336
-0.980334, 85, 241, 116, 368
-0.980345, 153, 1, 216, 375
-0.980376, 417, 1, 480, 256
-0.980377, 169, 153, 200, 216
-0.980388, 241, 97, 368, 160
-0.980391, 353, 1, 416, 64
-0.980416, 41, 209, 72, 272
-0.980445, 5, 81, 36, 208
-0.980449, 385, 313, 448, 375
-0.980485, 393, 209, 424, 336
-0.980513, 129, 129, 160, 192
-0.980535, 185, 1, 248, 375
-0.98054, 45, 241, 76, 304
-0.980578, 289, 49, 352, 112
-0.980579, 5, 97, 36, 160
-0.980637, 29, 49, 60, 176
-0.980649, 369, 281, 496, 344
-0.980677, 193, 49, 320, 112
-0.980773, 113, 281, 240, 344
-0.980836, 37, 137, 68, 200
-0.980844, 201, 265, 232, 328
-0.980846, 257, 65, 288, 192
-0.980888, 81, 89, 208, 152
-0.980972, 81, 97, 112, 224
-0.980973, 225, 217, 256, 280
-0.981057, 233, 57, 296, 120
-0.981116, 185, 1, 216, 128
-0.98115, 177, 313, 304, 375
-0.98121, 353, 313, 416, 375
-0.981226, 277, 73, 308, 136
-0.981311, 149, 137, 180, 200
-0.98144, 321, 297, 448, 360
-0.981525, 349, 73, 380, 136
-0.981528, 173, 97, 204, 224
-0.98156, 281, 65, 312, 192
-0.98168, 161, 81, 192, 208
-0.981812, 333, 193, 364, 256
-0.981887, 301, 265, 332, 328
-0.981898, 241, 153, 368, 216
-0.98192, 169, 81, 200, 144
-0.981974, 69, 97, 100, 224
-0.981979, 129, 177, 160, 240
-0.982032, 157, 185, 188, 248
-0.982034, 181, 145, 212, 208
-0.982052, 1, 65, 128, 128
-0.982062, 369, 209, 400, 336
-0.982074, 309, 233, 340, 296
-0.982096, 317, 265, 348, 328
-0.982138, 141, 97, 172, 160
-0.982143, 245, 49, 276, 176
-0.982165, 321, 49, 352, 176
-0.982171, 433, 297, 496, 360
-0.982177, 305, 177, 432, 240
-0.982217, 121, 1, 184, 375
-0.982299, 409, 1, 472, 375
-0.982455, 269, 225, 300, 288
-0.982459, 449, 257, 480, 320
-0.982517, 189, 73, 220, 136
-0.982546, 9, 1, 72, 256
-0.982597, 157, 1, 188, 128
-0.982603, 269, 129, 300, 256
-0.982619, 5, 121, 36, 184
-0.982734, 221, 289, 252, 352
-0.982747, 181, 185, 212, 248
-0.982763, 33, 233, 64, 296
-0.982792, 461, 233, 492, 296
-0.982795, 113, 305, 240, 368
-0.982822, 93, 97, 124, 224
-0.982837, 337, 305, 368, 368
-0.982838, 25, 65, 56, 128
-0.982869, 205, 241, 236, 304
-0.982892, 209, 89, 240, 152
-0.982912, 361, 1, 424, 375
-0.98294, 45, 49, 76, 176
-0.982962, 217, 241, 248, 304
-0.982979, 425, 65, 456, 192
-0.982987, 21, 145, 52, 272
-0.982988, 357, 241, 388, 304
-0.982991, 353, 113, 416, 240
-0.983081, 241, 33, 304, 288
-0.983099, 273, 1, 336, 375
-0.983161, 441, 49, 472, 176
-0.983162, 17, 273, 144, 336
-0.983172, 385, 73, 416, 136
-0.983178, 433, 1, 496, 375
-0.983194, 421, 265, 452, 328
-0.983206, 345, 193, 376, 256
-0.983227, 389, 217, 420, 280
-0.983231, 377, 65, 408, 192
-0.983265, 269, 97, 300, 160
-0.983311, 289, 297, 320, 360
-0.983318, 285, 225, 316, 352
-0.983398, 305, 65, 336, 192
-0.983429, 421, 161, 452, 288
-0.983445, 1, 193, 32, 320
-0.983507, 17, 249, 144, 312
-0.983544, 29, 97, 60, 160
-0.983561, 225, 1, 288, 375
-0.983564, 441, 57, 472, 120
-0.983611, 61, 113, 92, 176
-0.983652, 65, 297, 192, 360
-0.983659, 257, 313, 384, 375
-0.983693, 369, 185, 496, 248
-0.983773, 73, 33, 136, 288
-0.983785, 301, 177, 332, 240
-0.983789, 181, 297, 212, 360
-0.983811, 401, 65, 432, 192
-0.98382, 117, 233, 148, 296
-0.983825, 25, 1, 88, 375
-0.983846, 309, 161, 340, 288
-0.983907, 417, 129, 480, 375
-0.98392, 209, 17, 240, 144
-0.983947, 417, 1, 448, 128
-0.983983, 369, 89, 400, 152
-0.984075, 417, 217, 448, 280
-0.98415, 193, 305, 224, 368
-0.984195, 457, 209, 488, 272
-0.984235, 13, 225, 44, 288
-0.984272, 233, 129, 264, 192
-0.984319, 1, 129, 32, 256
-0.984325, 369, 305, 496, 368
-0.984369, 65, 1, 128, 375
-0.984371, 33, 225, 64, 352
-0.984379, 221, 33, 252, 160
-0.984391, 297, 129, 328, 256
-0.984434, 313, 1, 376, 375
-0.984465, 49, 225, 80, 352
-0.984623, 197, 17, 228, 144
-0.984661, 469, 161, 500, 288
-0.984788, 361, 33, 392, 160
-0.984825, 73, 241, 104, 368
-0.984929, 49, 65, 176, 128
-0.984995, 249, 1, 312, 375
-0.985007, 337, 1, 400, 375
-0.985103, 321, 137, 448, 200
-0.985109, 381, 225, 412, 352
-0.985255, 373, 161, 404, 288
-0.98531, 385, 1, 448, 375
-0.985336, 1, 313, 128, 375
-0.985371, 97, 241, 128, 368
-0.985413, 173, 49, 204, 176
-0.985458, 233, 33, 264, 160
-0.985557, 413, 81, 444, 208
-0.985569, 333, 177, 364, 304
-0.985692, 145, 57, 272, 120
-0.985731, 225, 121, 352, 184
-0.986204, 461, 33, 492, 160
-0.986259, 281, 129, 312, 256
-0.986289, 97, 57, 224, 120
-0.98632, 1, 1, 64, 375
-0.986426, 297, 129, 360, 375
-0.986568, 321, 161, 352, 288
-0.986823, 137, 65, 168, 192
-0.986921, 65, 49, 96, 176
-0.986949, 105, 97, 136, 224
-0.987016, 257, 233, 500, 296
-0.987046, 197, 65, 228, 192
-0.98715, 401, 161, 432, 288
-0.987167, 145, 1, 176, 128
-0.987211, 349, 17, 380, 144
-0.987347, 429, 1, 460, 128
-0.987381, 73, 193, 136, 224
-0.987384, 89, 1, 152, 375
-0.987434, 353, 161, 384, 288
-0.987504, 65, 273, 192, 336
-0.987635, 289, 49, 416, 112
-0.987742, 97, 201, 352, 264
-0.98796, 405, 1, 436, 128
-0.988067, 377, 113, 440, 240
-0.988086, 197, 113, 228, 240
-0.988098, 161, 225, 416, 288
-0.988104, 337, 25, 464, 88
-0.988126, 73, 205, 136, 236
-0.988141, 137, 233, 200, 264
-0.988184, 321, 241, 384, 272
-0.988222, 49, 189, 112, 220
-0.988261, 97, 217, 160, 248
-0.988316, 361, 245, 424, 276
-0.988319, 73, 33, 136, 160
-0.988329, 49, 173, 112, 204
-0.988342, 409, 253, 472, 284
-0.988342, 1, 185, 256, 248
-0.988389, 433, 161, 464, 288
-0.988436, 273, 245, 336, 276
-0.988492, 185, 65, 216, 192
-0.988566, 301, 17, 332, 144
-0.988602, 401, 237, 464, 268
-0.988615, 433, 113, 496, 240
-0.988636, 1, 225, 256, 288
-0.988705, 185, 113, 216, 240
-0.988707, 89, 229, 152, 260
-0.988724, 329, 253, 392, 284
-0.988777, 257, 257, 500, 320
-0.988804, 193, 245, 256, 276
-0.988855, 241, 261, 304, 292
-0.988902, 297, 253, 360, 284
-0.988903, 273, 201, 336, 232
-0.988915, 213, 241, 244, 368
-0.988941, 281, 269, 344, 300
-0.988945, 97, 193, 160, 224
-0.989001, 241, 293, 304, 324
-0.989007, 169, 245, 232, 276
-0.989017, 97, 17, 224, 80
-0.989042, 305, 221, 368, 252
-0.98907, 241, 197, 304, 228
-0.989088, 241, 305, 304, 336
-0.989089, 385, 257, 448, 288
-0.989133, 89, 181, 152, 212
-0.989154, 153, 257, 216, 288
-0.989172, 373, 1, 404, 128
-0.989192, 225, 249, 288, 280
-0.989197, 9, 109, 72, 140
-0.989205, 425, 237, 488, 268
-0.989216, 49, 217, 112, 248
-0.989219, 281, 73, 344, 104
-0.989277, 161, 229, 224, 260
-0.989289, 313, 73, 376, 104
-0.98929, 33, 105, 288, 168
-0.989299, 201, 201, 264, 232
-0.9893, 49, 233, 112, 264
-0.989307, 433, 249, 496, 280
-0.989348, 25, 149, 88, 180
-0.98935, 25, 193, 88, 224
-0.9894, 25, 169, 88, 200
-0.989436, 321, 105, 448, 168
-0.989445, 385, 161, 416, 288
-0.989447, 113, 177, 176, 208
-0.98946, 273, 213, 336, 244
-0.98947, 97, 81, 352, 144
-0.989471, 433, 261, 496, 292
-0.98948, 249, 249, 312, 280
-0.989489, 97, 249, 352, 312
-0.989538, 281, 233, 344, 264
-0.989557, 217, 313, 280, 344
-0.989565, 217, 189, 280, 220
-0.989571, 297, 209, 360, 240
-0.989582, 345, 233, 408, 264
-0.989582, 1, 161, 256, 224
-0.9896, 17, 121, 80, 152
-0.989602, 49, 161, 112, 192
-0.989653, 265, 301, 328, 332
-0.989704, 137, 173, 200, 204
-0.989705, 97, 157, 160, 188
-0.989736, 241, 281, 304, 312
-0.989737, 25, 181, 88, 212
-0.989739, 257, 73, 500, 136
-0.989752, 121, 217, 184, 248
-0.989798, 209, 125, 272, 156
-0.98986, 273, 313, 336, 344
-0.989871, 377, 85, 440, 116
-0.989905, 377, 233, 440, 264
-0.989909, 97, 205, 160, 236
-0.989911, 201, 301, 264, 332
-0.989917, 113, 245, 176, 276
-0.98992, 249, 317, 312, 348
-0.989929, 281, 289, 344, 320
-0.989932, 209, 105, 272, 136
-0.989935, 193, 185, 256, 216
-0.989941, 353, 1, 480, 64
-0.989942, 297, 305, 360, 336
-0.989952, 241, 209, 304, 240
-0.989954, 49, 201, 112, 232
-0.989958, 177, 313, 240, 344
-0.990002, 337, 265, 400, 296
-0.990016, 241, 185, 304, 216
-0.990029, 409, 281, 472, 312
-0.990071, 153, 161, 216, 192
-0.990151, 217, 237, 280, 268
-0.990158, 177, 173, 240, 204
-0.990165, 385, 177, 448, 208
-0.990183, 1, 201, 500, 264
-0.990196, 25, 225, 88, 256
-0.990202, 129, 105, 192, 136
-0.990236, 385, 269, 448, 300
-0.990246, 17, 133, 80, 164
-0.990252, 321, 309, 384, 340
-0.990254, 73, 165, 136, 196
-0.990272, 409, 265, 472, 296
-0.990272, 153, 109, 216, 140
-0.990278, 137, 145, 200, 176
-0.990303, 137, 133, 200, 164
-0.990311, 17, 205, 80, 236
-0.990331, 185, 225, 248, 256
-0.990342, 161, 125, 224, 156
-0.990367, 161, 189, 224, 220
-0.990392, 225, 325, 288, 356
-0.990398, 273, 189, 336, 220
-0.990407, 193, 297, 448, 360
-0.990413, 425, 225, 488, 256
-0.990434, 361, 257, 424, 288
-0.990443, 89, 245, 152, 276
-0.99045, 73, 153, 136, 184
-0.990471, 1, 253, 64, 284
-0.990504, 57, 129, 120, 160
-0.990507, 153, 305, 216, 336
-0.990513, 33, 245, 96, 276
-0.990515, 297, 325, 360, 356
-0.990531, 161, 13, 224, 44
-0.990533, 233, 113, 296, 144
-0.99055, 233, 85, 296, 116
-0.990554, 257, 209, 500, 272
-0.990563, 49, 1, 176, 64
-0.990567, 433, 53, 496, 84
-0.990569, 121, 161, 184, 192
-0.990576, 401, 225, 464, 256
-0.990582, 113, 233, 176, 264
-0.990631, 305, 289, 368, 320
-0.990647, 169, 85, 232, 116
-0.990671, 129, 261, 192, 292
-0.990674, 201, 265, 264, 296
-0.990681, 177, 109, 240, 140
-0.990706, 145, 245, 208, 276
-0.990712, 1, 193, 64, 224
-0.990717, 369, 145, 496, 208
-0.99073, 273, 257, 336, 288
-0.99074, 121, 197, 184, 228
-0.990742, 337, 209, 400, 240
-0.990744, 321, 321, 384, 352
-0.990767, 433, 273, 496, 304
-0.990783, 1, 97, 64, 128
-0.990797, 41, 269, 104, 300
-0.990806, 1, 233, 500, 296
-0.990825, 353, 81, 416, 112
-0.990845, 289, 177, 352, 208
-0.990848, 193, 289, 256, 320
-0.990855, 1, 221, 64, 252
-0.990887, 185, 125, 248, 156
-0.991026, 1, 273, 500, 336
-0.991091, 33, 137, 288, 200
-0.991164, 97, 177, 352, 240
-0.991235, 1, 249, 256, 312
-0.99132, 161, 273, 416, 336
-0.991347, 273, 129, 400, 192
-0.991478, 241, 49, 368, 112
-0.991718, 49, 217, 176, 248
-0.991788, 433, 237, 464, 268
-0.991811, 49, 25, 176, 88
-0.991848, 433, 257, 464, 288
-0.991941, 117, 205, 148, 236
-0.991953, 57, 169, 88, 200
-0.991978, 253, 305, 284, 336
-0.991981, 101, 193, 132, 224
-0.992079, 65, 273, 320, 336
-0.992087, 449, 249, 480, 280
-0.992122, 41, 185, 72, 216
-0.992203, 265, 305, 296, 336
-0.992208, 261, 253, 292, 284
-0.992208, 77, 229, 108, 260
-0.992211, 121, 217, 152, 248
-0.992219, 177, 241, 208, 272
-0.992221, 365, 249, 396, 280
-0.992222, 101, 209, 132, 240
-0.992252, 225, 185, 480, 248
-0.992262, 233, 245, 264, 276
-0.992274, 265, 193, 296, 224
-0.992279, 257, 317, 288, 348
-0.992285, 381, 241, 412, 272
-0.992286, 337, 241, 368, 272
-0.992294, 353, 249, 384, 280
-0.992295, 317, 233, 348, 264
-0.992299, 81, 173, 112, 204
-0.992308, 81, 197, 112, 228
-0.992316, 317, 249, 348, 280
-0.992317, 249, 189, 280, 220
-0.992319, 417, 253, 448, 284
-0.992322, 397, 257, 428, 288
-0.992345, 93, 173, 124, 204
-0.992354, 33, 205, 64, 236
-0.992354, 177, 229, 208, 260
-0.992366, 301, 205, 332, 236
-0.992372, 161, 237, 192, 268
-0.992373, 245, 249, 276, 280
-0.992373, 189, 245, 220, 276
-0.992375, 53, 201, 84, 232
-0.992378, 449, 269, 480, 300
-0.992385, 253, 293, 284, 324
-0.992389, 161, 245, 288, 276
-0.992396, 369, 113, 496, 176
-0.99241, 225, 261, 352, 292
-0.992417, 213, 181, 244, 212
-0.992427, 141, 225, 172, 256
-0.992427, 61, 229, 92, 260
-0.99243, 57, 213, 88, 244
-0.992434, 161, 225, 192, 256
-0.992434, 393, 245, 424, 276
-0.992448, 285, 285, 316, 316
-0.992453, 273, 249, 400, 280
-0.992471, 301, 265, 332, 296
-0.992472, 81, 153, 112, 184
-0.992479, 269, 293, 300, 324
-0.992481, 281, 193, 312, 224
-0.992497, 13, 105, 44, 136
-0.992501, 57, 189, 88, 220
-0.992503, 317, 261, 348, 292
-0.992513, 437, 281, 468, 312
-0.992521, 385, 81, 416, 112
-0.992522, 461, 257, 492, 288
-0.992522, 45, 173, 76, 204
-0.992524, 145, 173, 176, 204
-0.992524, 45, 213, 76, 244
-0.992526, 321, 209, 352, 240
-0.992528, 213, 241, 244, 272
-0.992542, 221, 253, 252, 284
-0.992544, 229, 189, 260, 220
-0.99255, 349, 233, 380, 264
-0.992553, 361, 237, 392, 268
-0.992556, 437, 269, 468, 300
-0.992557, 453, 237, 484, 268
-0.992562, 125, 181, 156, 212
-0.992563, 77, 185, 108, 216
-0.992567, 185, 257, 216, 288
-0.992567, 405, 245, 436, 276
-0.992571, 237, 313, 268, 344
-0.992572, 353, 249, 480, 280
-0.992581, 337, 257, 368, 288
-0.992581, 21, 197, 52, 228
-0.992583, 269, 277, 300, 308
-0.992586, 201, 241, 232, 272
-0.992587, 233, 105, 264, 136
-0.992591, 281, 261, 312, 292
-0.992595, 165, 249, 196, 280
-0.992597, 61, 149, 92, 180
-0.992597, 317, 221, 348, 252
-0.992621, 293, 73, 324, 104
-0.992622, 133, 237, 164, 268
-0.992623, 113, 193, 144, 224
-0.992631, 285, 213, 316, 244
-0.992631, 89, 229, 120, 260
-0.992633, 277, 305, 308, 336
-0.992637, 105, 177, 136, 208
-0.992639, 329, 269, 360, 300
-0.99264, 201, 297, 232, 328
-0.99264, 241, 301, 272, 332
-0.992642, 277, 245, 308, 276
-0.992643, 301, 221, 332, 252
-0.992646, 213, 201, 244, 232
-0.99265, 245, 261, 276, 292
-0.992651, 233, 273, 264, 304
-0.992653, 193, 169, 224, 200
-0.992656, 241, 129, 272, 160
-0.992658, 1, 1, 64, 128
-0.992659, 49, 173, 176, 204
-0.992663, 1, 169, 500, 232
-0.992672, 447, 233, 462, 296
-0.992673, 285, 273, 316, 304
-0.992674, 417, 241, 448, 272
-0.992674, 69, 217, 100, 248
-0.992676, 413, 265, 444, 296
-0.992681, 181, 305, 212, 336
-0.99269, 233, 233, 264, 264
-0.992692, 221, 169, 252, 200
-0.992695, 369, 89, 400, 120
-0.992695, 169, 109, 200, 140
-0.992699, 189, 137, 220, 168
-0.992701, 465, 233, 496, 264
-0.992707, 301, 245, 332, 276
-0.992712, 157, 93, 188, 124
-0.992717, 101, 225, 132, 256
-0.992721, 341, 73, 372, 104
-0.992722, 69, 165, 100, 196
-0.992723, 9, 201, 40, 232
-0.992724, 257, 241, 288, 272
-0.992724, 229, 201, 260, 232
-0.992725, 97, 305, 352, 368
-0.992729, 33, 105, 64, 136
-0.992732, 241, 201, 272, 232
-0.992742, 385, 229, 416, 260
-0.992744, 337, 309, 368, 340
-0.992747, 253, 113, 284, 144
-0.992753, 117, 241, 148, 272
-0.992754, 325, 305, 356, 336
-0.992758, 285, 225, 316, 256
-0.992759, 133, 201, 164, 232
-0.99276, 201, 109, 232, 140
-0.992762, 333, 209, 364, 240
-0.992762, 261, 133, 292, 164
-0.992764, 89, 209, 120, 240
-0.992767, 61, 129, 92, 160
-0.992845, 273, 77, 400, 108
-0.992845, 1, 81, 256, 144
-0.992852, 33, 201, 160, 232
-0.992916, 117, 185, 132, 248
-0.993003, 225, 229, 352, 260
-0.993074, 97, 49, 352, 112
-0.99309, 401, 113, 464, 240
-0.993094, 209, 189, 336, 220
-0.993104, 305, 237, 432, 268
-0.993131, 225, 277, 352, 308
-0.993213, 209, 205, 336, 236
-0.993215, 441, 225, 456, 288
-0.993231, 161, 153, 416, 216
-0.993252, 225, 293, 352, 324
-0.993273, 127, 201, 142, 264
-0.993275, 1, 185, 128, 216
-0.993364, 193, 97, 448, 160
-0.993402, 33, 229, 160, 260
-0.993408, 175, 225, 190, 288
-0.993418, 81, 229, 208, 260
-0.993436, 457, 241, 472, 304
-0.993464, 353, 237, 480, 268
-0.993509, 59, 161, 74, 224
-0.993511, 49, 169, 64, 232
-0.993514, 453, 265, 468, 328
-0.993521, 225, 249, 352, 280
-0.993537, 225, 305, 352, 336
-0.993557, 191, 225, 206, 288
-0.993632, 273, 225, 400, 256
-0.993633, 111, 185, 126, 248
-0.993637, 1, 25, 500, 88
-0.993709, 435, 233, 450, 296
-0.993716, 103, 169, 118, 232
-0.993771, 161, 225, 176, 288
-0.993788, 71, 161, 86, 224
-0.993792, 85, 145, 100, 208
-0.993815, 253, 201, 268, 264
-0.99383, 351, 225, 366, 288
-0.993854, 357, 217, 372, 280
-0.993886, 289, 213, 416, 244
-0.993894, 129, 225, 256, 256
-0.993904, 133, 193, 148, 256
-0.993913, 161, 309, 288, 340
-0.993915, 369, 261, 496, 292
-0.993922, 77, 201, 92, 264
-0.993937, 1, 81, 500, 144
-0.993939, 1, 173, 128, 204
-0.99401, 103, 209, 118, 272
-0.994035, 97, 145, 112, 208
-0.994051, 169, 225, 184, 288
-0.994052, 117, 209, 132, 272
-0.994075, 81, 153, 208, 184
-0.994078, 177, 289, 304, 320
-0.994109, 17, 89, 32, 152
-0.994139, 93, 185, 108, 248
-0.994143, 71, 201, 86, 264
-0.994144, 185, 225, 200, 288
-0.994153, 305, 265, 432, 296
-0.994164, 129, 129, 384, 192
-0.994172, 129, 173, 256, 204
-0.994177, 123, 177, 138, 240
-0.994222, 273, 281, 400, 312
-0.994232, 81, 185, 208, 216
-0.994235, 91, 161, 106, 224
-0.994277, 267, 289, 282, 352
-0.994286, 285, 241, 300, 304
-0.9943, 193, 85, 320, 116
-0.994306, 33, 25, 288, 88
-0.994308, 61, 241, 76, 304
-0.994338, 35, 193, 50, 256
-0.994349, 1, 153, 128, 184
-0.994355, 65, 169, 80, 232
-0.994372, 289, 177, 304, 240
-0.994372, 305, 1, 432, 64
-0.994375, 249, 225, 264, 288
-0.994382, 271, 249, 286, 312
-0.994394, 161, 109, 288, 140
-0.994406, 447, 257, 462, 320
-0.994406, 129, 257, 256, 288
-0.994417, 255, 113, 270, 176
-0.994471, 315, 201, 330, 264
-0.99448, 209, 177, 336, 208
-0.994481, 1, 297, 256, 360
-0.994482, 1, 25, 128, 88
-0.994507, 37, 97, 68, 352
-0.994518, 427, 249, 442, 312
-0.994522, 243, 201, 258, 264
-0.994537, 77, 161, 92, 224
-0.99454, 345, 225, 360, 288
-0.994602, 237, 185, 252, 248
-0.994607, 337, 85, 464, 116
-0.994637, 113, 105, 240, 136
-0.994646, 199, 209, 214, 272
-0.994646, 145, 269, 272, 300
-0.994656, 113, 241, 240, 272
-0.994663, 139, 225, 154, 288
-0.994672, 257, 197, 384, 228
-0.994677, 111, 145, 126, 208
-0.994679, 57, 137, 72, 200
-0.994682, 129, 145, 256, 176
-0.994707, 441, 249, 456, 312
-0.994715, 65, 209, 80, 272
-0.994718, 265, 241, 280, 304
-0.994739, 103, 145, 118, 208
-0.994749, 369, 209, 384, 272
-0.994763, 281, 169, 296, 232
-0.994774, 261, 113, 276, 176
-0.994784, 111, 209, 126, 272
-0.994786, 269, 113, 284, 176
-0.994788, 25, 105, 40, 168
-0.994788, 257, 185, 384, 216
-0.994794, 257, 289, 272, 352
-0.994795, 185, 153, 200, 216
-0.994803, 53, 129, 84, 375
-0.994804, 65, 241, 192, 272
-0.994804, 209, 1, 336, 64
-0.994813, 129, 189, 256, 220
-0.994829, 65, 145, 80, 208
-0.99483, 155, 185, 170, 248
-0.994836, 59, 185, 74, 248
-0.994838, 417, 257, 432, 320
-0.994844, 363, 217, 378, 280
-0.99485, 127, 153, 142, 216
-0.994863, 193, 185, 208, 248
-0.994873, 209, 25, 336, 88
-0.994875, 257, 265, 272, 328
-0.994875, 33, 137, 160, 168
-0.994878, 1, 217, 128, 248
-0.994898, 247, 289, 262, 352
-0.994909, 129, 205, 256, 236
-0.99494, 145, 89, 272, 120
-0.994941, 191, 153, 206, 216
-0.994942, 1, 49, 500, 112
-0.99496, 421, 289, 436, 352
-0.994983, 225, 49, 480, 112
-0.994989, 225, 217, 352, 248
-0.994995, 51, 241, 66, 304
-0.995004, 241, 97, 272, 352
-0.995018, 297, 201, 312, 264
-0.995021, 57, 209, 72, 272
-0.995026, 321, 225, 336, 288
-0.995051, 399, 249, 414, 312
-0.995055, 1, 305, 500, 368
-0.995079, 177, 257, 304, 288
-0.995103, 1, 241, 128, 272
-0.995118, 453, 217, 468, 280
-0.995118, 197, 241, 212, 304
-0.995134, 17, 65, 48, 320
-0.995143, 339, 265, 354, 328
-0.995146, 375, 209, 390, 272
-0.995147, 1, 121, 128, 152
-0.995155, 85, 233, 100, 296
-0.995159, 253, 129, 284, 375
-0.995174, 145, 153, 160, 216
-0.995182, 237, 249, 252, 312
-0.995199, 53, 113, 68, 176
-0.995203, 279, 281, 294, 344
-0.995214, 1, 129, 500, 192
-0.995215, 265, 97, 296, 352
-0.995223, 1, 105, 500, 168
-0.995229, 147, 209, 162, 272
-0.995238, 83, 177, 98, 240
-0.995254, 65, 121, 80, 184
-0.995261, 73, 233, 88, 296
-0.995278, 311, 241, 326, 304
-0.995289, 83, 201, 98, 264
-0.9953, 259, 241, 274, 304
-0.995313, 243, 225, 258, 288
-0.995322, 209, 97, 336, 128
-0.995324, 139, 201, 154, 264
-0.995326, 129, 25, 256, 56
-0.995329, 391, 209, 406, 272
-0.995344, 81, 137, 208, 168
-0.995349, 69, 129, 100, 375
-0.995355, 337, 213, 464, 244
-0.99536, 327, 65, 342, 128
-0.99536, 153, 209, 168, 272
-0.99537, 291, 201, 306, 264
-0.995371, 43, 177, 58, 240
-0.995373, 265, 137, 280, 200
-0.995374, 463, 257, 478, 320
-0.995378, 349, 201, 364, 264
-0.995378, 11, 113, 26, 176
-0.99538, 233, 209, 248, 272
-0.995384, 271, 177, 286, 240
-0.995393, 245, 105, 260, 168
-0.995405, 253, 177, 268, 240
-0.995409, 49, 125, 176, 156
-0.995409, 281, 65, 312, 320
-0.995414, 133, 217, 148, 280
-0.995417, 237, 97, 252, 160
-0.995422, 267, 313, 282, 375
-0.995438, 179, 81, 194, 144
-0.995443, 289, 73, 304, 136
-0.995448, 257, 89, 384, 120
-0.995451, 143, 129, 158, 192
-0.995462, 279, 201, 294, 264
-0.995471, 135, 153, 150, 216
-0.995473, 89, 129, 120, 375
-0.995479, 357, 73, 372, 136
-0.995481, 27, 225, 42, 288
-0.995491, 353, 177, 480, 208
-0.995496, 257, 161, 500, 224
-0.995499, 95, 225, 110, 288
-0.995507, 177, 233, 304, 264
-0.995509, 127, 233, 142, 296
-0.995514, 257, 317, 384, 348
-0.995518, 153, 65, 184, 320
-0.995521, 181, 249, 196, 312
-0.995521, 341, 65, 356, 128
-0.995525, 183, 113, 198, 176
-0.995532, 339, 209, 354, 272
-0.995532, 137, 129, 168, 375
-0.995536, 261, 313, 276, 375
-0.995538, 427, 273, 442, 336
-0.99554, 211, 177, 226, 240
-0.995541, 153, 153, 168, 216
-0.995542, 209, 321, 336, 352
-0.995546, 49, 109, 176, 140
-0.995547, 1, 1, 128, 64
-0.995547, 129, 125, 256, 156
-0.995553, 337, 65, 464, 96
-0.995624, 33, 1, 288, 64
-0.995635, 273, 301, 400, 332
-0.995658, 289, 173, 416, 204
-0.995755, 17, 261, 144, 292
-0.995764, 97, 269, 224, 300
-0.995787, 257, 101, 384, 132
-0.99582, 177, 161, 304, 192
-0.995839, 33, 93, 160, 124
-0.995864, 129, 161, 256, 192
-0.995881, 49, 273, 176, 304
-0.995933, 81, 197, 208, 228
-0.995935, 193, 137, 320, 168
-0.995946, 129, 25, 384, 88
-0.995953, 1, 105, 128, 136
-0.99598, 229, 97, 260, 352
-0.995982, 193, 73, 320, 104
-0.99599, 337, 293, 464, 324
-0.99601, 65, 253, 192, 284
-0.996021, 177, 221, 304, 252
-0.996031, 321, 225, 448, 256
-0.996035, 221, 1, 252, 256
-0.996055, 193, 1, 224, 256
-0.996063, 101, 97, 132, 352
-0.996081, 169, 129, 200, 375
-0.996091, 337, 313, 464, 344
-0.996105, 209, 113, 336, 144
-0.996108, 369, 225, 496, 256
-0.996172, 257, 329, 384, 360
-0.996207, 369, 273, 496, 304
-0.996226, 161, 321, 288, 352
-0.996258, 257, 25, 500, 88
-0.996311, 97, 77, 224, 108
-0.996369, 121, 129, 152, 375
-0.996397, 305, 325, 432, 356
-0.996401, 177, 125, 304, 156
-0.996433, 97, 301, 224, 332
-0.996443, 213, 97, 244, 352
-0.996475, 129, 37, 256, 68
-0.996501, 123, 201, 138, 232
-0.996513, 59, 169, 74, 200
-0.996553, 97, 289, 224, 320
-0.996563, 137, 33, 168, 288
-0.996574, 1, 49, 256, 112
-0.996616, 5, 65, 36, 320
-0.996627, 177, 333, 304, 364
-0.996672, 225, 121, 480, 184
-0.996673, 193, 1, 448, 64
-0.99668, 189, 97, 220, 352
-0.996707, 453, 249, 468, 280
-0.996726, 445, 253, 460, 284
-0.996727, 81, 93, 208, 124
-0.99674, 337, 189, 464, 220
-0.996742, 221, 181, 236, 212
-0.996767, 305, 201, 432, 232
-0.996776, 33, 325, 160, 356
-0.996778, 293, 33, 324, 288
-0.996792, 241, 125, 368, 156
-0.996829, 459, 253, 474, 284
-0.996891, 101, 173, 116, 204
-0.996899, 69, 213, 84, 244
-0.996931, 385, 65, 416, 320
-0.996941, 209, 1, 240, 256
-0.996944, 49, 285, 176, 316
-0.996959, 437, 1, 468, 256
-0.996974, 225, 149, 352, 180
-0.996995, 433, 253, 448, 284
-0.997004, 185, 241, 200, 272
-0.997006, 369, 245, 384, 276
-0.997009, 97, 321, 224, 352
-0.997024, 361, 65, 392, 320
-0.997024, 33, 297, 160, 328
-0.997032, 237, 245, 252, 276
-0.997033, 115, 209, 130, 240
-0.997034, 409, 65, 440, 320
-0.997054, 299, 201, 314, 232
-0.99706, 125, 33, 156, 288
-0.997073, 375, 245, 390, 276
-0.997077, 321, 277, 448, 308
-0.997096, 175, 237, 190, 268
-0.9971, 51, 177, 66, 208
-0.997102, 267, 301, 282, 332
-0.997112, 177, 149, 304, 180
-0.997119, 129, 209, 144, 240
-0.997126, 451, 269, 466, 300
-0.99714, 273, 249, 288, 280
-0.997151, 399, 237, 414, 268
-0.997187, 201, 97, 232, 352
-0.997208, 257, 289, 272, 320
-0.99721, 55, 213, 70, 244
-0.997211, 93, 169, 108, 200
-0.997214, 293, 129, 324, 375
-0.997217, 439, 233, 454, 264
-0.997223, 263, 189, 278, 220
-0.997237, 225, 161, 352, 192
-0.99724, 363, 249, 378, 280
-0.997242, 339, 241, 354, 272
-0.997246, 89, 229, 104, 260
-0.99725, 57, 33, 88, 288
-0.997253, 397, 65, 428, 320
-0.997254, 61, 213, 76, 244
-0.997255, 329, 33, 360, 288
-0.997268, 81, 33, 112, 288
-0.997271, 257, 341, 384, 372
-0.997273, 447, 237, 462, 268
-0.997276, 177, 249, 192, 280
-0.997288, 191, 245, 206, 276
-0.997296, 337, 165, 464, 196
-0.997304, 257, 65, 384, 96
-0.99731, 333, 241, 348, 272
-0.997322, 439, 257, 454, 288
-0.997331, 309, 33, 340, 288
-0.997338, 309, 201, 324, 232
-0.99734, 373, 65, 404, 320
-0.997353, 41, 189, 56, 220
-0.997354, 91, 189, 106, 220
-0.997364, 193, 61, 320, 92
-0.997366, 79, 229, 94, 260
-0.997374, 263, 133, 278, 164
-0.997375, 229, 245, 244, 276
-0.997378, 97, 209, 112, 240
-0.997387, 103, 193, 118, 224
-0.997392, 71, 169, 86, 200
-0.997393, 269, 193, 284, 224
-0.997393, 251, 197, 266, 228
-0.997395, 407, 261, 422, 292
-0.997397, 17, 97, 32, 128
-0.9974, 97, 333, 224, 364
-0.997403, 353, 329, 480, 360
-0.997404, 261, 249, 276, 280
-0.997414, 159, 173, 174, 204
-0.997416, 339, 269, 354, 300
-0.997416, 171, 249, 186, 280
-0.997424, 287, 185, 302, 216
-0.997427, 141, 221, 156, 252
-0.997434, 233, 1, 264, 256
-0.997435, 73, 229, 88, 260
-0.997437, 431, 241, 446, 272
-0.997439, 337, 1, 464, 32
-0.997442, 259, 301, 274, 332
-0.99745, 405, 241, 420, 272
-0.997458, 67, 197, 82, 228
-0.997459, 169, 237, 184, 268
-0.997462, 139, 237, 154, 268
-0.997464, 289, 197, 304, 228
-0.997469, 267, 249, 282, 280
-0.997473, 275, 197, 290, 228
-0.997474, 33, 1, 64, 256
-0.997475, 165, 1, 196, 256
-0.997477, 181, 229, 196, 260
-0.997478, 145, 13, 272, 44
-0.997478, 235, 257, 250, 288
-0.997483, 171, 225, 186, 256
-0.997485, 421, 1, 452, 256
-0.997488, 269, 313, 284, 344
-0.997489, 49, 81, 176, 112
-0.997493, 83, 153, 98, 184
-0.997497, 123, 213, 138, 244
-0.997498, 289, 81, 304, 112
-0.99751, 83, 173, 98, 204
-0.997518, 229, 201, 244, 232
-0.997521, 255, 249, 270, 280
-0.997522, 197, 309, 212, 340
-0.997534, 293, 273, 308, 304
-0.997537, 33, 337, 160, 368
-0.997539, 357, 233, 372, 264
-0.997546, 345, 209, 360, 240
-0.997551, 321, 229, 336, 260
-0.997551, 145, 77, 272, 108
-0.997554, 109, 209, 124, 240
-0.997556, 453, 237, 468, 268
-0.997556, 95, 229, 110, 260
-0.997556, 425, 97, 456, 352
-0.997562, 59, 201, 74, 232
-0.997566, 439, 277, 454, 308
-0.997573, 201, 237, 216, 268
-0.997579, 177, 345, 304, 375
-0.997588, 339, 253, 354, 284
-0.997598, 459, 241, 474, 272
-0.997599, 249, 253, 264, 284
-0.997599, 341, 33, 372, 288
-0.997602, 257, 185, 272, 216
-0.997607, 93, 153, 108, 184
-0.997611, 331, 269, 346, 300
-0.997613, 161, 233, 176, 264
-0.997616, 399, 257, 414, 288
-0.997616, 347, 241, 362, 272
-0.997622, 165, 253, 180, 284
-0.997624, 393, 241, 408, 272
-0.997634, 117, 193, 132, 224
-0.997634, 63, 229, 78, 260
-0.997637, 315, 213, 330, 244
-0.997637, 247, 233, 262, 264
-0.997642, 351, 229, 366, 260
-0.997642, 285, 265, 300, 296
-0.997643, 65, 149, 80, 180
-0.997643, 103, 209, 118, 240
-0.997643, 283, 245, 298, 276
-0.997644, 189, 105, 204, 136
-0.997647, 263, 321, 278, 352
-0.997654, 241, 193, 256, 224
-0.997654, 337, 53, 464, 84
-0.997657, 131, 197, 146, 228
-0.997657, 147, 229, 162, 260
-0.99766, 257, 113, 384, 144
-0.99766, 457, 269, 472, 300
-0.997661, 73, 201, 88, 232
-0.997671, 113, 33, 144, 288
-0.997675, 123, 189, 138, 220
-0.997681, 245, 1, 276, 256
-0.997682, 337, 225, 352, 256
-0.997682, 253, 121, 268, 152
-0.997683, 311, 249, 326, 280
-0.997684, 363, 237, 378, 268
-0.997685, 323, 253, 338, 284
-0.997693, 415, 173, 430, 204
-0.997698, 433, 269, 448, 300
-0.997701, 79, 197, 94, 228
-0.997702, 77, 161, 92, 192
-0.997705, 45, 105, 60, 136
-0.997709, 287, 285, 302, 316
-0.99771, 237, 101, 252, 132
-0.99771, 61, 189, 76, 220
-0.997713, 389, 81, 404, 112
-0.997717, 439, 245, 454, 276
-0.997718, 155, 225, 170, 256
-0.99772, 97, 345, 224, 375
-0.997724, 69, 33, 100, 288
-0.997729, 289, 161, 416, 192
-0.997763, 145, 49, 272, 80
-0.997792, 353, 341, 480, 372
-0.997801, 1, 285, 128, 316
-0.997841, 257, 9, 384, 72
-0.997849, 177, 33, 208, 288
-0.997871, 305, 341, 432, 372
-0.997879, 337, 97, 464, 128
-0.997933, 317, 129, 348, 375
-0.998001, 453, 33, 484, 288
-0.998177, 305, 129, 336, 375
-0.998235, 257, 1, 288, 256
-0.998327, 441, 209, 456, 336
-0.998333, 329, 245, 392, 260
-0.998342, 409, 263, 472, 278
-0.998379, 73, 211, 136, 226
-0.998379, 49, 181, 112, 196
-0.998382, 73, 203, 136, 218
-0.998392, 361, 239, 424, 254
-0.998393, 127, 161, 142, 288
-0.998393, 49, 169, 112, 184
-0.998394, 417, 247, 480, 262
-0.9984, 153, 255, 216, 270
-0.998406, 385, 241, 448, 256
-0.998407, 361, 249, 424, 264
-0.998409, 433, 265, 496, 280
-0.998409, 101, 161, 116, 288
-0.998412, 133, 145, 148, 272
-0.998417, 329, 239, 392, 254
-0.998419, 349, 129, 380, 375
-0.99842, 313, 259, 376, 274
-0.998426, 305, 243, 368, 258
-0.998427, 425, 253, 488, 268
-0.998431, 385, 263, 448, 278
-0.998431, 305, 209, 368, 224
-0.998433, 257, 201, 320, 216
-0.998435, 417, 241, 480, 256
-0.998437, 217, 313, 280, 328
-0.998439, 441, 129, 472, 375
-0.99844, 89, 195, 152, 210
-0.998441, 33, 209, 96, 224
-0.998442, 297, 265, 360, 280
-0.998443, 273, 211, 336, 226
-0.998444, 45, 1, 76, 256
-0.998445, 385, 257, 448, 272
-0.998448, 225, 253, 288, 268
-0.998448, 269, 1, 300, 256
-0.998449, 49, 203, 112, 218
-0.99845, 273, 227, 336, 242
-0.99845, 305, 73, 368, 88
-0.99845, 49, 231, 112, 246
-0.998451, 401, 233, 464, 248
-0.998452, 233, 259, 296, 274
-0.998456, 137, 235, 200, 250
-0.998457, 401, 269, 464, 284
-0.998457, 177, 249, 240, 264
-0.998457, 241, 207, 304, 222
-0.998457, 137, 229, 200, 244
-0.99846, 241, 295, 304, 310
-0.998461, 113, 223, 176, 238
-0.998463, 385, 247, 448, 262
-0.998463, 361, 83, 424, 98
-0.998464, 469, 33, 500, 288
-0.998466, 209, 131, 272, 146
-0.998467, 361, 263, 424, 278
-0.998469, 33, 187, 96, 202
-0.998469, 305, 249, 368, 264
-0.99847, 73, 189, 136, 204
-0.99847, 241, 281, 304, 296
-0.998471, 95, 161, 110, 288
-0.998471, 353, 255, 416, 270
-0.998474, 9, 113, 72, 128
-0.998474, 241, 193, 304, 208
-0.998476, 241, 301, 304, 316
-0.998477, 209, 201, 272, 216
-0.998478, 281, 79, 344, 94
-0.998479, 425, 235, 488, 250
-0.998484, 185, 243, 248, 258
-0.998486, 41, 175, 104, 190
-0.998486, 241, 309, 304, 324
-0.998486, 337, 265, 400, 280
-0.998487, 97, 229, 160, 244
-0.998487, 17, 135, 80, 150
-0.998488, 313, 233, 376, 248
-0.998491, 229, 105, 260, 120
-0.998493, 193, 103, 256, 118
-0.998493, 201, 177, 232, 192
-0.998493, 317, 247, 348, 262
-0.998493, 241, 135, 272, 150
-0.998493, 61, 195, 92, 210
-0.998493, 61, 165, 92, 180
-0.998494, 101, 201, 132, 216
-0.998494, 233, 243, 264, 258
-0.998495, 93, 271, 124, 286
-0.998495, 193, 185, 256, 200
-0.998495, 449, 257, 480, 272
-0.998495, 425, 271, 488, 286
-0.998495, 9, 119, 72, 134
-0.998495, 1, 105, 64, 120
-0.998495, 273, 267, 336, 282
-0.998496, 333, 211, 364, 226
-0.998496, 109, 181, 140, 196
-0.998496, 229, 257, 260, 272
-0.998497, 429, 231, 460, 246
-0.998497, 209, 109, 272, 124
-0.998499, 177, 231, 208, 246
-0.9985, 405, 271, 436, 286
-0.998501, 245, 315, 276, 330
-0.998501, 233, 199, 296, 214
-0.998501, 433, 259, 496, 274
-0.998503, 233, 199, 264, 214
-0.998503, 21, 225, 52, 240
-0.998504, 33, 193, 96, 208
-0.998504, 49, 239, 112, 254
-0.998505, 425, 249, 456, 264
-0.998505, 281, 267, 312, 282
-0.998505, 305, 219, 368, 234
-0.998507, 321, 217, 352, 232
-0.998507, 213, 243, 244, 258
-0.998507, 193, 259, 256, 274
-0.998507, 13, 109, 44, 124
-0.998509, 17, 129, 80, 144
-0.998509, 33, 149, 96, 164
-0.998509, 277, 325, 308, 340
-0.99851, 217, 247, 280, 262
-0.99851, 169, 179, 232, 194
-0.99851, 257, 259, 320, 274
-0.998511, 417, 285, 480, 300
-0.998511, 257, 321, 320, 336
-0.998511, 329, 253, 392, 268
-0.998512, 153, 249, 216, 264
-0.998513, 225, 249, 256, 264
-0.998513, 137, 153, 200, 168
-0.998514, 137, 241, 200, 256
-0.998515, 161, 241, 224, 256
-0.998515, 469, 271, 500, 286
-0.998515, 49, 179, 80, 194
-0.998515, 397, 239, 428, 254
-0.998515, 281, 323, 344, 338
-0.998516, 269, 317, 300, 332
-0.998516, 177, 111, 208, 126
-0.998517, 97, 213, 128, 228
-0.998517, 385, 83, 448, 98
-0.998517, 273, 297, 304, 312
-0.998518, 97, 205, 160, 220
-0.998518, 281, 297, 344, 312
-0.998518, 33, 209, 64, 224
-0.998519, 385, 181, 448, 196
-0.998519, 265, 251, 296, 266
-0.998519, 249, 193, 280, 208
-0.99852, 25, 199, 88, 214
-0.99852, 221, 313, 252, 328
-0.99852, 205, 185, 236, 200
-0.998521, 297, 73, 328, 88
-0.998521, 377, 247, 408, 262
-0.998522, 153, 159, 216, 174
-0.998522, 289, 203, 352, 218
-0.998522, 145, 227, 176, 242
-0.998523, 289, 211, 320, 226
-0.998524, 337, 217, 400, 232
-0.998525, 273, 187, 304, 202
-0.998525, 9, 207, 72, 222
-0.998525, 233, 325, 296, 340
-0.998526, 437, 269, 468, 284
-0.998526, 201, 305, 264, 320
-0.998526, 173, 13, 204, 28
-0.998526, 281, 287, 344, 302
-0.998527, 209, 201, 240, 216
-0.998527, 145, 137, 208, 152
-0.998528, 241, 289, 304, 304
-0.998528, 113, 217, 176, 232
-0.998528, 265, 303, 296, 318
-0.998529, 81, 187, 112, 202
-0.998529, 273, 247, 336, 262
-0.998529, 269, 259, 300, 274
-0.998531, 257, 331, 320, 346
-0.998532, 49, 245, 112, 260
-0.998532, 169, 253, 200, 268
-0.998532, 97, 185, 160, 200
-0.998533, 285, 289, 316, 304
-0.998533, 41, 275, 104, 290
-0.998533, 73, 179, 136, 194
-0.998533, 281, 277, 312, 292
-0.998534, 273, 187, 336, 202
-0.998534, 193, 125, 256, 140
-0.998535, 253, 293, 284, 308
-0.998535, 365, 249, 396, 264
-0.998535, 329, 211, 392, 226
-0.998536, 249, 249, 312, 264
-0.998536, 25, 231, 88, 246
-0.998536, 73, 237, 136, 252
-0.998536, 33, 217, 96, 232
-0.998538, 169, 85, 232, 100
-0.998538, 73, 227, 136, 242
-0.998538, 281, 277, 344, 292
-0.998539, 153, 109, 216, 124
-0.998539, 265, 311, 296, 326
-0.998539, 453, 243, 484, 258
-0.99854, 337, 259, 368, 274
-0.99854, 233, 265, 296, 280
-0.99854, 177, 113, 240, 128
-0.99854, 1, 261, 64, 276
-0.998541, 321, 263, 352, 278
-0.998541, 373, 237, 404, 252
-0.998541, 237, 303, 268, 318
-0.998541, 153, 261, 216, 276
-0.998542, 177, 137, 240, 152
-0.998542, 89, 217, 152, 232
-0.998543, 285, 205, 316, 220
-0.998543, 217, 115, 280, 130
-0.998543, 9, 245, 72, 260
-0.998544, 137, 171, 200, 186
-0.998544, 377, 269, 440, 284
-0.998545, 77, 205, 108, 220
-0.998545, 253, 199, 284, 214
-0.998547, 269, 281, 300, 296
-0.998548, 81, 181, 112, 196
-0.99855, 121, 213, 152, 228
-0.998552, 273, 193, 304, 208
-0.998554, 77, 241, 108, 256
-0.998556, 325, 281, 356, 296
-0.998558, 301, 209, 332, 224
-0.99856, 53, 171, 84, 186
-0.998561, 301, 267, 332, 282
-0.998561, 201, 311, 232, 326
-0.998561, 201, 251, 232, 266
-0.998562, 421, 287, 452, 302
-0.998562, 321, 207, 352, 222
-0.998564, 53, 231, 84, 246
-0.998564, 157, 255, 188, 270
-0.998564, 265, 177, 280, 304
-0.998567, 57, 203, 88, 218
-0.998568, 389, 245, 420, 260
-0.998569, 433, 285, 464, 300
-0.998574, 353, 257, 384, 272
-0.998576, 193, 245, 224, 260
-0.998576, 73, 233, 104, 248
-0.998576, 333, 245, 364, 260
-0.998577, 237, 251, 268, 266
-0.998577, 45, 187, 76, 202
-0.998577, 177, 237, 208, 252
-0.998578, 239, 177, 254, 304
-0.998579, 65, 171, 96, 186
-0.99858, 253, 303, 284, 318
-0.998581, 13, 205, 44, 220
-0.998581, 393, 263, 424, 278
-0.998584, 81, 197, 112, 212
-0.998584, 73, 165, 104, 180
-0.998585, 185, 255, 216, 270
-0.998587, 53, 211, 84, 226
-0.998591, 353, 241, 384, 256
-0.998594, 345, 247, 376, 262
-0.998595, 429, 261, 460, 276
-0.998595, 453, 249, 484, 264
-0.998595, 385, 239, 416, 254
-0.998595, 441, 249, 472, 264
-0.998597, 111, 129, 126, 256
-0.998597, 171, 209, 186, 336
-0.998599, 447, 225, 462, 352
-0.998601, 433, 243, 464, 258
-0.998602, 317, 241, 348, 256
-0.998608, 469, 265, 500, 280
-0.998608, 217, 183, 248, 198
-0.998609, 337, 129, 368, 375
-0.998615, 181, 247, 212, 262
-0.998616, 257, 257, 288, 272
-0.998618, 405, 257, 436, 272
-0.998618, 405, 265, 436, 280
-0.998618, 169, 161, 184, 288
-0.99862, 89, 173, 120, 188
-0.99862, 253, 251, 284, 266
-0.998621, 389, 83, 420, 98
-0.998624, 161, 229, 192, 244
-0.998624, 457, 271, 488, 286
-0.998627, 229, 209, 244, 336
-0.998627, 453, 263, 484, 278
-0.998628, 145, 233, 176, 248
-0.998629, 117, 205, 148, 220
-0.99863, 253, 309, 284, 324
-0.998634, 297, 203, 328, 218
-0.998636, 253, 323, 284, 338
-0.998641, 85, 129, 100, 256
-0.998642, 109, 211, 140, 226
-0.998646, 313, 225, 328, 352
-0.998648, 75, 129, 90, 256
-0.998657, 257, 317, 288, 332
-0.998661, 51, 161, 66, 288
-0.998664, 265, 203, 296, 218
-0.998667, 121, 219, 152, 234
-0.998671, 417, 263, 448, 278
-0.998673, 141, 161, 156, 288
-0.998674, 281, 199, 312, 214
-0.998675, 97, 189, 128, 204
-0.998676, 433, 237, 464, 252
-0.998679, 37, 97, 52, 224
-0.99868, 437, 255, 468, 270
-0.998685, 193, 225, 208, 352
-0.99869, 269, 97, 284, 224
-0.998692, 115, 177, 130, 304
-0.998696, 277, 177, 292, 304
-0.998696, 121, 145, 136, 272
-0.998699, 79, 177, 94, 304
-0.998709, 185, 209, 200, 336
-0.998711, 271, 177, 286, 304
-0.998714, 65, 161, 80, 288
-0.998716, 249, 177, 264, 304
-0.998728, 35, 161, 50, 288
-0.99873, 43, 97, 58, 224
-0.998732, 193, 161, 208, 288
-0.998732, 307, 225, 322, 352
-0.998732, 147, 145, 162, 272
-0.998736, 257, 225, 272, 352
-0.998749, 337, 225, 352, 352
-0.998751, 139, 209, 154, 336
-0.998755, 89, 193, 104, 320
-0.998766, 177, 209, 192, 336
-0.99878, 73, 177, 88, 304
-0.99878, 267, 241, 282, 368
-0.998784, 259, 113, 274, 240
-0.998793, 247, 113, 262, 240
-0.998793, 65, 113, 80, 240
-0.998799, 19, 65, 34, 192
-0.998799, 31, 97, 46, 224
-0.998805, 435, 225, 450, 352
-0.998809, 461, 209, 476, 336
-0.998809, 163, 161, 178, 288
-0.99884, 59, 97, 74, 224
-0.998841, 129, 209, 144, 336
-0.998846, 103, 209, 118, 336
-0.99885, 253, 113, 268, 240
-0.998851, 221, 97, 236, 224
-0.998851, 51, 113, 66, 240
-0.998859, 175, 161, 190, 288
-0.998861, 121, 193, 136, 320
-0.998862, 347, 209, 362, 336
-0.998872, 305, 177, 320, 304
-0.998872, 311, 177, 326, 304
-0.998873, 57, 161, 72, 288
-0.998875, 299, 193, 314, 320
-0.998876, 275, 97, 290, 224
-0.998882, 97, 209, 112, 336
-0.998883, 255, 177, 270, 304
-0.998885, 301, 241, 316, 368
-0.998886, 187, 161, 202, 288
-0.998887, 153, 129, 168, 256
-0.998897, 273, 225, 288, 352
-0.998898, 165, 209, 180, 336
-0.998903, 181, 161, 196, 288
-0.998903, 457, 129, 488, 375
-0.998907, 455, 225, 470, 352
-0.998912, 241, 113, 256, 240
-0.998915, 331, 209, 346, 336
-0.998916, 319, 193, 334, 320
-0.998917, 25, 97, 40, 224
-0.998917, 1, 1, 500, 64
-0.998922, 233, 81, 248, 208
-0.99893, 103, 113, 118, 240
-0.998931, 281, 81, 296, 208
-0.998937, 227, 161, 242, 288
-0.998939, 213, 161, 228, 288
-0.998939, 233, 145, 248, 272
-0.998942, 153, 81, 168, 208
-0.998945, 221, 225, 236, 352
-0.998954, 141, 97, 156, 224
-0.998958, 201, 241, 216, 368
-0.99896, 43, 161, 58, 288
-0.998961, 89, 241, 104, 368
-0.998964, 91, 113, 106, 240
-0.998965, 237, 225, 252, 352
-0.998978, 365, 209, 380, 336
-0.998978, 295, 65, 310, 192
-0.998982, 97, 113, 112, 240
-0.998985, 147, 209, 162, 336
-0.998994, 381, 81, 396, 208
-0.998995, 15, 193, 30, 320
-0.998995, 289, 161, 304, 288
-0.998996, 355, 65, 370, 192
-0.999001, 147, 81, 162, 208
-0.999001, 157, 209, 172, 336
-0.999003, 61, 225, 76, 352
-0.999005, 247, 225, 262, 352
-0.999008, 45, 49, 60, 176
-0.999008, 29, 49, 44, 176
-0.999016, 85, 81, 100, 208
-0.999016, 283, 209, 298, 336
-0.999019, 67, 209, 82, 336
-0.99903, 175, 1, 190, 128
-0.999033, 257, 65, 272, 192
-0.999034, 109, 177, 124, 304
-0.999035, 221, 177, 236, 304
-0.999035, 27, 177, 42, 304
-0.999037, 263, 65, 278, 192
-0.999037, 375, 81, 390, 208
-0.99905, 199, 161, 214, 288
-0.999051, 135, 97, 150, 224
-0.999054, 215, 97, 230, 224
-0.999055, 367, 81, 382, 208
-0.999057, 327, 49, 342, 176
-0.999069, 305, 49, 320, 176
-0.999076, 11, 113, 26, 240
-0.999076, 5, 177, 20, 304
-0.999081, 467, 193, 482, 320
-0.999085, 193, 1, 208, 128
-0.999086, 451, 177, 466, 304
-0.999086, 373, 225, 388, 352
-0.999087, 357, 241, 372, 368
-0.999094, 313, 65, 328, 192
-0.999094, 159, 113, 174, 240
-0.999095, 389, 65, 404, 192
-0.999097, 427, 65, 442, 192
-0.999288, 101, 1, 132, 256
-0.999666, 429, 87, 444, 102
-0.999667, 405, 271, 420, 286
-0.999667, 73, 233, 88, 248
-0.999667, 157, 175, 172, 190
-0.999668, 143, 235, 158, 250
-0.999668, 371, 253, 386, 268
-0.999669, 209, 309, 224, 324
-0.999669, 425, 285, 440, 300
-0.999669, 447, 241, 462, 256
-0.999671, 339, 263, 354, 278
-0.999671, 293, 279, 308, 294
-0.999671, 189, 109, 204, 124
-0.999672, 167, 105, 182, 120
-0.999672, 199, 239, 214, 254
-0.999672, 437, 287, 452, 302
-0.999672, 69, 203, 84, 218
-0.999673, 269, 327, 284, 342
-0.999673, 101, 175, 116, 190
-0.999673, 397, 263, 412, 278
-0.999673, 165, 257, 180, 272
-0.999675, 101, 205, 116, 220
-0.999676, 243, 249, 258, 264
-0.999677, 403, 255, 418, 270
-0.999679, 15, 205, 30, 220
-0.99968, 359, 255, 374, 270
-0.99968, 253, 203, 268, 218
-0.99968, 159, 233, 174, 248
-0.999682, 341, 209, 356, 224
-0.999682, 107, 269, 122, 284
-0.999683, 279, 193, 294, 208
-0.999683, 341, 281, 356, 296
-0.999683, 257, 315, 272, 330
-0.999684, 265, 201, 280, 216
-0.999685, 227, 249, 242, 264
-0.999685, 175, 229, 190, 244
-0.999686, 259, 257, 274, 272
-0.999686, 305, 265, 320, 280
-0.999687, 229, 203, 244, 218
-0.999687, 263, 193, 278, 208
-0.999688, 453, 275, 468, 290
-0.999688, 455, 261, 470, 276
-0.999688, 255, 251, 270, 266
-0.999689, 403, 263, 418, 278
-0.99969, 461, 247, 476, 262
-0.99969, 285, 187, 300, 202
-0.999691, 461, 273, 476, 288
-0.999692, 339, 269, 354, 284
-0.999693, 365, 251, 380, 266
-0.999693, 199, 247, 214, 262
-0.999695, 333, 243, 348, 258
-0.999695, 423, 291, 438, 306
-0.999695, 375, 245, 390, 260
-0.999696, 339, 245, 354, 260
-0.999696, 267, 305, 282, 320
-0.999697, 257, 301, 272, 316
-0.999698, 85, 165, 100, 180
-0.999698, 93, 239, 108, 254
-0.999699, 297, 209, 312, 224
-0.999699, 75, 167, 90, 182
-0.9997, 479, 265, 494, 280
-0.999701, 463, 265, 478, 280
-0.999702, 165, 227, 180, 242
-0.999704, 295, 287, 310, 302
-0.999704, 79, 235, 94, 250
-0.999704, 129, 199, 144, 214
-0.999705, 103, 187, 118, 202
-0.999708, 71, 209, 86, 224
-0.999709, 217, 313, 232, 328
-0.99971, 155, 227, 170, 242
-0.99971, 59, 183, 74, 198
-0.99971, 263, 139, 278, 154
-0.99971, 259, 309, 274, 324
-0.999711, 123, 189, 138, 204
-0.999711, 453, 267, 468, 282
-0.999711, 193, 253, 208, 268
-0.999711, 93, 187, 108, 202
-0.999712, 115, 209, 130, 224
-0.999713, 431, 287, 446, 302
-0.999714, 149, 231, 164, 246
-0.999714, 443, 255, 458, 270
-0.999716, 469, 267, 484, 282
-0.999716, 273, 199, 288, 214
-0.999716, 221, 199, 236, 214
-0.999716, 237, 249, 252, 264
-0.999717, 89, 231, 104, 246
-0.999717, 307, 207, 322, 222
-0.999717, 287, 203, 302, 218
-0.999718, 453, 243, 468, 258
-0.99972, 159, 257, 174, 272
-0.99972, 285, 277, 300, 292
-0.99972, 17, 99, 32, 114
-0.999721, 275, 251, 290, 266
-0.999724, 431, 253, 446, 268
-0.999725, 443, 235, 458, 250
-0.999727, 409, 259, 424, 274
-0.99973, 229, 119, 244, 134
-0.999733, 265, 251, 280, 266
-0.999733, 221, 111, 236, 126
-0.999733, 221, 121, 236, 136
-0.999734, 65, 211, 80, 226
-0.999735, 185, 247, 200, 262
-0.999738, 401, 249, 416, 264
-0.999738, 191, 247, 206, 262
-0.999739, 227, 125, 242, 140
-0.999739, 435, 239, 450, 254
-0.999742, 237, 257, 252, 272
-0.999743, 409, 265, 424, 280
-0.999744, 95, 171, 110, 186
-0.999745, 315, 207, 330, 222
-0.999747, 311, 263, 326, 278
-0.99975, 269, 317, 284, 332
-0.99975, 273, 257, 288, 272
-0.999758, 51, 181, 66, 196
-0.99976, 123, 211, 138, 226
-0.999762, 415, 265, 430, 280
-0.999762, 123, 217, 138, 232
-0.999769, 421, 263, 436, 278
-0.999773, 399, 239, 414, 254
-0.999774, 367, 243, 382, 258
-0.999781, 289, 197, 304, 212
-0.999785, 59, 169, 74, 184
-0.999787, 443, 283, 458, 298
-0.999793, 437, 257, 452, 272
-0.999795, 429, 261, 444, 276
-0.999796, 221, 181, 236, 196
-0.999798, 129, 211, 144, 226
-0.999801, 299, 203, 314, 218
-0.999803, 455, 251, 470, 266
-0.999808, 449, 253, 464, 268
-0.999835, 123, 205, 138, 220
-0.999945, 469, 129, 500, 375
-1.00028, 97, 1, 160, 128
