1886
-0.321314, 1, 1, 500, 333
-0.327799, 1, 65, 500, 320
-0.440964, 97, 1, 352, 333
-0.465612, 257, 1, 500, 333
-0.493895, 1, 1, 256, 333
-0.510914, 257, 65, 500, 320
-0.59652, 65, 65, 320, 320
-0.629059, 161, 65, 416, 320
-0.836211, 113, 1, 240, 333
-0.842599, 369, 65, 496, 320
-0.843596, 241, 65, 368, 320
-0.847191, 321, 65, 448, 320
-0.8472, 193, 65, 320, 320
-0.85124, 97, 65, 224, 320
-0.860024, 321, 1, 448, 333
-0.861077, 33, 65, 160, 320
-0.870023, 145, 65, 272, 320
-0.873674, 65, 1, 192, 333
-0.873767, 209, 1, 336, 333
-0.8744, 161, 1, 288, 333
-0.875049, 369, 1, 496, 333
-0.875461, 273, 1, 400, 333
-0.878554, 1, 113, 500, 240
-0.884969, 1, 65, 500, 192
-0.886665, 1, 177, 500, 304
-0.909834, 1, 1, 128, 333
-0.91936, 257, 81, 500, 208
-0.919777, 161, 81, 416, 208
-0.920013, 65, 49, 320, 176
-0.924334, 1, 97, 256, 224
-0.932588, 65, 161, 320, 288
-0.93415, 113, 65, 240, 192
-0.934481, 257, 193, 500, 320
-0.93566, 369, 193, 496, 320
-0.936824, 33, 97, 160, 224
-0.937171, 321, 65, 448, 192
-0.937629, 193, 81, 320, 208
-0.937815, 337, 65, 400, 192
-0.939581, 161, 97, 224, 224
-0.939604, 417, 193, 480, 320
-0.939866, 241, 81, 368, 208
-0.941923, 17, 97, 80, 224
-0.942195, 33, 209, 288, 333
-0.942572, 121, 49, 184, 176
-0.942581, 249, 81, 312, 208
-0.943753, 49, 177, 176, 304
-0.944491, 225, 113, 288, 240
-0.945888, 257, 129, 500, 256
-0.945919, 89, 97, 152, 224
-0.945935, 1, 17, 500, 144
-0.946812, 97, 145, 224, 272
-0.947125, 225, 161, 288, 288
-0.947403, 153, 33, 216, 160
-0.947981, 161, 177, 416, 304
-0.948317, 137, 97, 200, 224
-0.948694, 145, 129, 272, 256
-0.949045, 289, 97, 352, 224
-0.949489, 161, 177, 288, 304
-0.949745, 41, 97, 104, 224
-0.949819, 201, 161, 264, 288
-0.949903, 369, 65, 432, 192
-0.950284, 249, 81, 312, 144
-0.951357, 393, 193, 456, 320
-0.951574, 113, 17, 240, 144
-0.952276, 369, 81, 496, 208
-0.952605, 185, 113, 248, 240
-0.954, 161, 33, 288, 160
-0.954208, 153, 97, 216, 160
-0.954935, 313, 65, 376, 192
-0.954962, 185, 121, 248, 184
-0.954999, 209, 193, 336, 320
-0.955997, 249, 177, 312, 304
-0.956179, 425, 225, 488, 288
-0.956218, 417, 81, 480, 208
-0.956285, 65, 49, 192, 176
-0.956592, 97, 209, 224, 333
-0.956878, 65, 97, 128, 224
-0.957893, 153, 65, 216, 128
-0.958592, 281, 105, 344, 168
-0.95881, 121, 89, 184, 152
-0.959081, 1, 145, 128, 272
-0.95923, 393, 65, 456, 192
-0.9596, 161, 33, 416, 160
-0.959653, 273, 193, 400, 320
-0.959673, 121, 145, 184, 272
-0.96002, 209, 121, 272, 184
-0.960793, 177, 49, 240, 176
-0.96083, 433, 145, 496, 272
-0.960963, 17, 177, 80, 304
-0.960979, 57, 161, 120, 288
-0.961153, 161, 33, 224, 288
-0.961199, 105, 209, 168, 333
-0.961395, 161, 129, 416, 256
-0.961496, 153, 41, 216, 104
-0.961497, 161, 145, 224, 272
-0.961558, 113, 97, 176, 224
-0.96208, 425, 65, 488, 320
-0.962116, 89, 113, 152, 176
-0.962612, 201, 209, 264, 333
-0.962675, 281, 193, 344, 320
-0.962802, 129, 113, 192, 176
-0.96285, 401, 241, 464, 304
-0.96309, 377, 73, 440, 136
-0.963127, 321, 193, 448, 320
-0.963296, 225, 209, 288, 333
-0.963319, 417, 89, 480, 152
-0.964053, 425, 201, 488, 264
-0.964123, 241, 65, 304, 320
-0.964141, 465, 177, 496, 304
-0.964334, 233, 113, 296, 176
-0.964439, 369, 177, 432, 304
-0.965247, 337, 65, 400, 128
-0.965504, 209, 153, 272, 216
-0.965597, 313, 89, 376, 152
-0.966298, 97, 49, 160, 176
-0.966522, 81, 209, 144, 333
-0.966671, 1, 97, 64, 160
-0.966707, 1, 193, 128, 320
-0.96717, 345, 209, 408, 333
-0.967332, 257, 33, 500, 160
-0.967357, 49, 233, 112, 296
-0.967396, 153, 121, 216, 184
-0.967496, 41, 105, 104, 168
-0.967708, 425, 177, 488, 240
-0.967934, 401, 65, 464, 320
-0.968057, 225, 65, 288, 192
-0.968062, 81, 161, 144, 288
-0.968466, 241, 33, 368, 160
-0.968763, 105, 65, 168, 320
-0.9688, 361, 225, 424, 288
-0.969345, 425, 249, 488, 312
-0.969496, 201, 193, 264, 256
-0.969554, 377, 65, 440, 320
-0.969627, 201, 49, 264, 176
-0.96963, 129, 65, 192, 128
-0.969775, 1, 65, 64, 320
-0.970132, 177, 81, 240, 144
-0.970408, 161, 209, 224, 333
-0.970513, 313, 113, 376, 240
-0.970539, 41, 209, 104, 333
-0.970628, 41, 65, 104, 320
-0.970668, 297, 177, 360, 240
-0.970748, 25, 233, 88, 296
-0.970992, 73, 201, 136, 264
-0.97101, 305, 193, 368, 320
-0.971029, 321, 73, 448, 136
-0.971034, 265, 65, 328, 320
-0.971215, 241, 225, 304, 288
-0.9713, 305, 65, 368, 320
-0.971313, 153, 1, 216, 64
-0.971344, 209, 145, 336, 272
-0.97135, 137, 1, 200, 256
-0.971678, 385, 217, 448, 280
-0.971847, 73, 65, 136, 320
-0.97187, 233, 137, 296, 200
-0.971934, 185, 153, 248, 216
-0.972127, 161, 145, 224, 208
-0.972491, 273, 161, 336, 224
-0.972606, 129, 209, 192, 333
-0.972809, 257, 113, 320, 176
-0.973202, 89, 89, 152, 152
-0.973205, 49, 169, 112, 232
-0.973252, 181, 81, 212, 208
-0.97326, 217, 65, 280, 320
-0.973394, 185, 217, 248, 280
-0.973432, 289, 49, 352, 176
-0.973523, 65, 105, 128, 168
-0.973583, 129, 137, 192, 200
-0.973586, 329, 249, 392, 312
-0.973611, 193, 81, 320, 144
-0.973663, 225, 89, 288, 152
-0.97379, 105, 201, 168, 264
-0.97383, 121, 41, 184, 104
-0.974047, 209, 225, 272, 288
-0.974085, 225, 113, 352, 176
-0.974216, 213, 113, 244, 240
-0.974468, 305, 249, 368, 312
-0.974482, 97, 97, 224, 160
-0.974543, 253, 81, 284, 208
-0.974571, 273, 81, 336, 144
-0.974585, 457, 225, 488, 288
-0.974605, 289, 137, 352, 200
-0.974625, 105, 225, 168, 288
-0.974727, 333, 65, 364, 192
-0.974775, 469, 233, 500, 296
-0.974904, 197, 129, 228, 192
-0.975037, 241, 89, 368, 152
-0.975083, 1, 49, 64, 176
-0.975169, 177, 97, 208, 160
-0.975211, 193, 65, 256, 320
-0.975222, 273, 241, 336, 304
-0.975276, 369, 145, 496, 272
-0.975294, 453, 209, 484, 333
-0.975309, 329, 65, 392, 320
-0.975369, 313, 153, 376, 216
-0.975565, 177, 49, 240, 112
-0.975569, 353, 65, 416, 320
-0.975644, 177, 193, 240, 256
-0.975682, 337, 225, 400, 288
-0.976032, 177, 121, 304, 184
-0.97605, 249, 161, 312, 224
-0.976083, 289, 113, 416, 240
-0.976331, 157, 97, 188, 224
-0.976366, 409, 129, 472, 256
-0.976391, 237, 97, 268, 224
-0.976405, 433, 153, 496, 216
-0.976427, 181, 65, 212, 128
-0.976519, 17, 49, 144, 176
-0.9766, 145, 225, 208, 288
-0.976602, 33, 113, 160, 176
-0.976661, 105, 161, 168, 224
-0.976669, 33, 97, 64, 224
-0.976754, 73, 161, 136, 224
-0.977049, 133, 97, 164, 224
-0.97715, 17, 161, 80, 224
-0.977392, 353, 241, 480, 304
-0.977401, 253, 89, 284, 152
-0.977487, 65, 137, 128, 200
-0.977678, 401, 65, 432, 192
-0.97768, 421, 193, 452, 320
-0.977716, 457, 201, 488, 264
-0.977719, 9, 193, 72, 256
-0.977889, 209, 161, 336, 224
-0.97804, 401, 193, 464, 256
-0.978056, 213, 121, 244, 184
-0.978195, 289, 97, 320, 160
-0.97823, 257, 33, 320, 160
-0.978255, 81, 225, 208, 288
-0.978319, 353, 65, 384, 192
-0.978362, 269, 81, 300, 144
-0.978399, 369, 249, 432, 312
-0.978414, 313, 129, 376, 192
-0.978532, 45, 97, 76, 224
-0.978559, 113, 49, 240, 112
-0.978626, 229, 161, 260, 288
-0.978641, 133, 33, 164, 160
-0.978842, 161, 1, 224, 333
-0.978869, 369, 89, 496, 152
-0.978954, 369, 33, 496, 160
-0.979075, 273, 65, 304, 192
-0.979133, 129, 1, 192, 128
-0.979464, 97, 169, 224, 232
-0.979478, 209, 233, 336, 296
-0.979561, 213, 177, 244, 304
-0.979583, 125, 105, 156, 168
-0.97962, 65, 97, 96, 224
-0.979675, 145, 81, 176, 208
-0.979702, 269, 177, 300, 304
-0.979718, 41, 49, 104, 176
-0.979722, 469, 97, 500, 224
-0.979797, 337, 113, 400, 240
-0.979862, 377, 65, 408, 192
-0.979868, 9, 81, 40, 208
-0.979939, 113, 137, 240, 200
-0.979981, 145, 201, 272, 264
-0.980009, 469, 177, 500, 240
-0.980073, 33, 201, 160, 264
-0.980101, 317, 97, 348, 224
-0.980103, 33, 137, 96, 200
-0.980109, 437, 233, 468, 296
-0.980141, 21, 97, 52, 224
-0.980144, 225, 113, 256, 240
-0.980202, 1, 177, 128, 240
-0.980216, 1, 1, 256, 128
-0.980223, 449, 81, 480, 208
-0.980321, 193, 129, 224, 256
-0.980325, 185, 41, 216, 104
-0.980384, 377, 129, 440, 192
-0.980387, 417, 217, 448, 280
-0.98041, 449, 89, 480, 152
-0.980433, 49, 209, 112, 272
-0.980452, 129, 161, 192, 224
-0.980488, 377, 129, 440, 256
-0.980597, 365, 65, 396, 192
-0.980642, 389, 65, 420, 192
-0.980659, 169, 97, 200, 224
-0.980681, 229, 121, 260, 184
-0.980693, 245, 113, 276, 176
-0.980808, 121, 97, 152, 224
-0.980867, 337, 161, 400, 224
-0.980921, 93, 97, 124, 224
-0.98098, 289, 97, 320, 224
-0.981003, 425, 241, 456, 304
-0.981103, 77, 97, 108, 224
-0.981145, 325, 89, 356, 152
-0.98119, 145, 97, 272, 160
-0.98121, 109, 113, 140, 240
-0.981234, 141, 89, 172, 152
-0.981236, 153, 121, 184, 184
-0.981335, 113, 25, 240, 88
-0.98136, 225, 193, 288, 256
-0.981451, 297, 225, 360, 288
-0.981537, 57, 225, 88, 288
-0.981537, 421, 81, 452, 208
-0.981543, 289, 57, 352, 120
-0.981589, 369, 193, 432, 256
-0.981717, 405, 73, 436, 136
-0.981741, 337, 137, 400, 200
-0.981884, 413, 241, 444, 304
-0.981924, 417, 65, 480, 128
-0.98197, 253, 161, 284, 288
-0.981983, 109, 113, 140, 176
-0.982067, 181, 33, 212, 160
-0.982107, 57, 105, 88, 168
-0.982119, 177, 25, 240, 88
-0.982131, 273, 217, 336, 280
-0.982136, 273, 153, 400, 216
-0.982181, 309, 105, 340, 168
-0.982246, 393, 73, 424, 136
-0.982251, 369, 209, 496, 272
-0.982268, 441, 193, 472, 320
-0.982352, 137, 1, 200, 333
-0.982381, 273, 185, 336, 248
-0.982451, 97, 73, 224, 136
-0.982475, 289, 97, 416, 160
-0.982478, 337, 137, 464, 200
-0.982521, 33, 225, 160, 288
-0.982552, 417, 81, 448, 144
-0.982564, 273, 249, 400, 312
-0.982618, 321, 161, 448, 224
-0.982661, 265, 225, 296, 288
-0.982712, 129, 201, 192, 264
-0.982805, 393, 97, 456, 160
-0.98282, 145, 161, 272, 224
-0.982826, 129, 57, 160, 120
-0.982939, 301, 97, 332, 224
-0.982956, 257, 137, 320, 200
-0.983005, 457, 177, 488, 240
-0.983116, 141, 145, 172, 272
-0.983131, 449, 249, 480, 312
-0.983214, 97, 65, 160, 128
-0.983247, 25, 257, 88, 320
-0.983331, 153, 177, 184, 304
-0.983342, 33, 97, 64, 160
-0.983345, 321, 1, 384, 333
-0.983433, 97, 113, 128, 176
-0.983493, 357, 65, 388, 128
-0.983502, 345, 73, 376, 136
-0.983516, 81, 113, 112, 176
-0.98365, 197, 65, 228, 192
-0.983663, 33, 145, 160, 208
-0.983684, 345, 17, 408, 144
-0.983689, 373, 209, 404, 333
-0.9837, 81, 193, 208, 256
-0.983701, 97, 193, 128, 256
-0.983701, 81, 225, 144, 288
-0.983744, 5, 89, 36, 152
-0.983747, 225, 137, 352, 200
-0.983752, 249, 1, 312, 333
-0.983863, 161, 225, 288, 288
-0.983892, 89, 137, 152, 200
-0.983969, 213, 153, 244, 216
-0.984001, 377, 1, 440, 333
-0.984061, 377, 233, 408, 296
-0.984069, 273, 145, 336, 272
-0.984074, 121, 161, 152, 288
-0.984077, 197, 89, 228, 152
-0.984111, 201, 97, 264, 160
-0.984191, 133, 129, 164, 192
-0.984246, 469, 105, 500, 168
-0.98426, 289, 177, 320, 304
-0.984317, 157, 49, 188, 176
-0.98434, 329, 161, 392, 288
-0.984347, 145, 73, 272, 136
-0.984353, 21, 97, 52, 160
-0.984423, 117, 81, 148, 144
-0.984468, 369, 17, 432, 144
-0.984486, 177, 137, 208, 200
-0.984486, 225, 201, 256, 264
-0.984536, 241, 177, 272, 304
-0.98454, 305, 225, 432, 288
-0.984576, 113, 1, 176, 333
-0.984597, 409, 193, 440, 320
-0.984656, 373, 65, 404, 128
-0.984682, 225, 153, 256, 216
-0.98478, 345, 113, 408, 176
-0.984914, 61, 177, 92, 304
-0.985012, 161, 169, 224, 232
-0.985025, 41, 177, 72, 304
-0.985051, 417, 33, 480, 160
-0.98506, 269, 121, 300, 184
-0.985112, 109, 201, 140, 264
-0.985204, 1, 257, 64, 320
-0.985363, 289, 129, 416, 192
-0.985364, 437, 177, 468, 240
-0.985367, 273, 201, 400, 264
-0.98539, 417, 1, 480, 333
-0.985398, 117, 49, 148, 176
-0.985421, 145, 33, 176, 160
-0.985437, 165, 161, 196, 288
-0.985466, 9, 137, 72, 200
-0.985474, 433, 81, 464, 208
-0.98549, 345, 1, 408, 333
-0.985497, 361, 225, 392, 288
-0.98553, 1, 249, 128, 312
-0.985555, 113, 209, 144, 333
-0.985565, 1, 73, 64, 136
-0.985569, 337, 89, 400, 152
-0.985605, 333, 169, 364, 232
-0.985606, 49, 81, 176, 144
-0.985611, 257, 225, 384, 288
-0.985629, 73, 225, 104, 288
-0.985702, 161, 49, 288, 112
-0.985716, 165, 97, 196, 160
-0.985748, 25, 81, 88, 144
-0.985761, 273, 65, 400, 128
-0.985787, 429, 89, 460, 152
-0.98583, 369, 265, 496, 328
-0.985886, 101, 193, 132, 320
-0.985942, 209, 185, 336, 248
-0.985955, 1, 217, 64, 280
-0.985965, 289, 17, 416, 144
-0.985983, 369, 105, 432, 168
-0.985995, 257, 209, 288, 333
-0.986139, 69, 105, 100, 168
-0.986308, 169, 33, 200, 160
-0.986327, 401, 265, 464, 328
-0.986381, 213, 193, 244, 256
-0.98644, 401, 129, 464, 192
-0.986441, 185, 1, 248, 333
-0.986442, 469, 265, 500, 328
-0.98647, 313, 65, 376, 128
-0.986508, 169, 33, 200, 96
-0.986536, 385, 161, 448, 224
-0.986589, 185, 241, 248, 304
-0.986608, 49, 169, 176, 232
-0.986643, 321, 249, 352, 312
-0.986672, 329, 193, 392, 256
-0.986828, 81, 177, 112, 304
-0.986873, 333, 249, 364, 312
-0.98689, 345, 169, 376, 232
-0.986901, 273, 1, 336, 333
-0.986902, 229, 233, 260, 296
-0.986977, 225, 209, 256, 333
-0.987004, 393, 257, 424, 320
-0.98704, 353, 193, 384, 320
-0.987052, 369, 161, 496, 224
-0.987072, 361, 249, 392, 312
-0.987133, 297, 1, 360, 333
-0.98714, 129, 81, 160, 144
-0.987223, 185, 17, 216, 80
-0.987244, 209, 217, 240, 280
-0.98729, 305, 201, 368, 264
-0.987337, 389, 233, 420, 296
-0.987407, 301, 161, 332, 224
-0.987422, 437, 145, 468, 272
-0.987489, 225, 1, 288, 333
-0.987582, 369, 185, 496, 248
-0.987651, 269, 113, 300, 240
-0.987672, 125, 209, 156, 333
-0.987734, 201, 193, 232, 320
-0.987741, 1, 81, 128, 144
-0.98783, 133, 225, 164, 288
-0.987851, 113, 1, 240, 64
-0.987852, 201, 73, 264, 136
-0.987867, 393, 17, 456, 144
-0.987876, 349, 249, 380, 312
-0.987894, 469, 153, 500, 216
-0.987986, 369, 49, 432, 112
-0.98801, 141, 33, 172, 96
-0.988021, 5, 177, 36, 304
-0.988058, 397, 177, 428, 304
-0.988072, 257, 81, 500, 144
-0.988073, 405, 217, 436, 280
-0.988098, 309, 249, 340, 312
-0.98814, 129, 1, 192, 64
-0.988159, 165, 65, 196, 128
-0.988164, 177, 161, 208, 288
-0.988169, 437, 201, 468, 264
-0.988195, 321, 185, 448, 248
-0.988203, 65, 257, 128, 320
-0.988205, 337, 193, 368, 320
-0.988216, 45, 105, 76, 168
-0.98824, 361, 153, 424, 216
-0.98825, 257, 113, 288, 176
-0.988286, 325, 193, 356, 320
-0.988292, 153, 225, 184, 288
-0.988296, 469, 201, 500, 264
-0.988328, 457, 129, 488, 256
-0.988331, 233, 97, 264, 160
-0.98836, 117, 177, 148, 240
-0.988433, 285, 241, 316, 304
-0.988467, 249, 249, 312, 312
-0.988594, 89, 161, 120, 224
-0.988597, 321, 169, 352, 232
-0.988606, 153, 113, 216, 144
-0.988684, 313, 193, 344, 320
-0.988685, 57, 81, 120, 144
-0.988694, 393, 49, 456, 112
-0.988728, 433, 113, 496, 176
-0.988796, 93, 145, 124, 272
-0.988802, 249, 85, 312, 116
-0.988859, 433, 273, 496, 333
-0.98901, 25, 177, 56, 304
-0.98902, 157, 145, 188, 208
-0.989059, 145, 153, 176, 216
-0.989059, 237, 153, 268, 216
-0.989129, 73, 49, 136, 176
-0.989152, 133, 153, 164, 216
-0.989161, 153, 201, 216, 264
-0.989279, 297, 241, 328, 304
-0.989282, 65, 1, 192, 128
-0.989312, 45, 233, 76, 296
-0.989312, 209, 209, 336, 272
-0.989315, 249, 129, 312, 256
-0.989405, 257, 177, 384, 240
-0.989433, 369, 233, 432, 264
-0.989464, 233, 113, 296, 144
-0.989469, 137, 209, 168, 333
-0.989501, 281, 105, 344, 136
-0.989501, 129, 97, 192, 128
-0.98951, 9, 1, 72, 333
-0.989518, 409, 245, 472, 276
-0.989521, 417, 209, 480, 240
-0.989602, 337, 113, 368, 240
-0.989608, 193, 125, 256, 156
-0.989629, 369, 65, 496, 128
-0.989639, 257, 101, 320, 132
-0.989683, 417, 93, 480, 124
-0.98972, 301, 193, 332, 320
-0.989741, 153, 101, 216, 132
-0.98979, 153, 77, 216, 108
-0.98979, 241, 225, 272, 288
-0.989817, 425, 185, 488, 216
-0.989846, 289, 153, 320, 216
-0.989899, 121, 109, 184, 140
-0.989915, 169, 225, 200, 288
-0.989942, 45, 177, 76, 240
-0.989966, 325, 145, 356, 208
-0.989971, 437, 265, 468, 328
-0.989988, 153, 65, 216, 96
-0.990047, 165, 121, 196, 184
-0.990076, 173, 1, 204, 64
-0.990136, 425, 229, 488, 260
-0.990169, 241, 225, 304, 256
-0.990246, 297, 185, 360, 216
-0.990262, 177, 149, 240, 180
-0.990274, 417, 197, 480, 228
-0.990281, 305, 81, 336, 144
-0.990286, 345, 73, 408, 104
-0.990295, 337, 113, 464, 176
-0.990296, 153, 37, 216, 68
-0.990296, 121, 145, 152, 208
-0.9903, 253, 217, 284, 280
-0.990348, 353, 245, 416, 276
-0.990364, 169, 129, 232, 160
-0.990372, 289, 121, 320, 184
-0.990375, 393, 129, 424, 192
-0.990388, 281, 117, 344, 148
-0.990396, 377, 77, 440, 108
-0.990399, 9, 129, 40, 256
-0.9904, 97, 113, 160, 144
-0.990414, 129, 153, 192, 184
-0.990416, 153, 81, 184, 144
-0.990438, 153, 53, 216, 84
-0.990442, 433, 249, 496, 280
-0.990443, 157, 1, 188, 64
-0.990473, 393, 225, 456, 256
-0.990482, 97, 217, 128, 280
-0.990484, 193, 109, 256, 140
-0.990505, 385, 245, 448, 276
-0.990517, 333, 65, 364, 128
-0.990525, 153, 89, 216, 120
-0.990539, 1, 97, 64, 128
-0.990545, 385, 193, 416, 320
-0.990586, 97, 121, 352, 184
-0.990595, 121, 65, 184, 96
-0.990596, 457, 153, 488, 216
-0.990672, 25, 105, 88, 136
-0.990684, 145, 137, 208, 168
-0.99073, 65, 73, 320, 136
-0.990795, 61, 249, 92, 312
-0.990797, 109, 153, 140, 216
-0.990809, 309, 49, 340, 176
-0.990839, 185, 1, 248, 128
-0.990839, 49, 241, 112, 272
-0.990858, 305, 97, 368, 128
-0.990859, 73, 189, 136, 220
-0.990868, 289, 173, 352, 204
-0.99087, 177, 89, 240, 120
-0.990875, 129, 121, 192, 152
-0.990882, 73, 209, 136, 240
-0.990885, 89, 1, 152, 333
-0.990917, 281, 73, 312, 136
-0.990918, 209, 193, 272, 224
-0.990942, 177, 1, 240, 64
-0.990981, 329, 85, 392, 116
-0.990995, 201, 137, 264, 168
-0.991, 57, 1, 120, 333
-0.99101, 217, 225, 280, 256
-0.991019, 25, 49, 56, 176
-0.991021, 385, 89, 448, 120
-0.991095, 225, 57, 352, 120
-0.991098, 65, 109, 128, 140
-0.991106, 333, 225, 364, 288
-0.99111, 225, 65, 256, 192
-0.991138, 369, 221, 432, 252
-0.991155, 425, 193, 456, 256
-0.991159, 49, 173, 112, 204
-0.991162, 289, 81, 352, 112
-0.991162, 225, 249, 288, 312
-0.991177, 225, 181, 288, 212
-0.991184, 153, 25, 216, 56
-0.991215, 49, 225, 112, 256
-0.991244, 201, 213, 264, 244
-0.991251, 201, 193, 232, 256
-0.991262, 393, 209, 456, 240
-0.99127, 381, 121, 412, 184
-0.991277, 273, 245, 336, 276
-0.991291, 313, 129, 376, 160
-0.991304, 305, 117, 368, 148
-0.99137, 305, 249, 368, 280
-0.991372, 329, 241, 392, 272
-0.991383, 177, 77, 240, 108
-0.99139, 257, 121, 320, 152
-0.9914, 225, 141, 288, 172
-0.991401, 277, 161, 308, 224
-0.991408, 161, 25, 288, 88
-0.991416, 161, 97, 416, 160
-0.991472, 433, 261, 496, 292
-0.991482, 249, 201, 312, 264
-0.991494, 121, 77, 184, 108
-0.991502, 169, 181, 232, 212
-0.991505, 105, 97, 168, 128
-0.99151, 425, 169, 488, 200
-0.991512, 201, 161, 264, 192
-0.991523, 177, 217, 240, 248
-0.991524, 145, 165, 208, 196
-0.991525, 165, 209, 196, 333
-0.991528, 9, 233, 72, 264
-0.991532, 409, 153, 472, 216
-0.991541, 89, 141, 152, 172
-0.991573, 57, 141, 120, 172
-0.991578, 21, 185, 52, 248
-0.991584, 177, 57, 240, 88
-0.991608, 177, 45, 240, 76
-0.991612, 305, 153, 368, 184
-0.991626, 329, 253, 392, 284
-0.991627, 105, 201, 168, 232
-0.991628, 209, 97, 272, 128
-0.991635, 265, 193, 328, 224
-0.99165, 265, 169, 328, 200
-0.99165, 17, 181, 80, 212
-0.991657, 321, 185, 384, 216
-0.991671, 401, 257, 464, 288
-0.991677, 185, 233, 248, 264
-0.991686, 105, 185, 168, 216
-0.991687, 393, 197, 456, 228
-0.99169, 241, 241, 304, 272
-0.991721, 25, 165, 88, 196
-0.991726, 25, 245, 88, 276
-0.99175, 281, 93, 344, 124
-0.991766, 217, 237, 280, 268
-0.991767, 233, 153, 296, 184
-0.991767, 405, 129, 436, 192
-0.991772, 369, 257, 432, 288
-0.991775, 261, 33, 292, 160
-0.99179, 89, 165, 152, 196
-0.991795, 177, 193, 240, 224
-0.9918, 9, 257, 40, 320
-0.991811, 265, 229, 328, 260
-0.991815, 121, 201, 152, 264
-0.991824, 33, 205, 96, 236
-0.991835, 53, 201, 84, 264
-0.991859, 97, 213, 160, 244
-0.991866, 49, 193, 112, 224
-0.991887, 345, 117, 408, 148
-0.991889, 85, 233, 116, 296
-0.9919, 89, 153, 152, 184
-0.991916, 233, 101, 296, 132
-0.991928, 401, 181, 464, 212
-0.991935, 113, 249, 240, 312
-0.991937, 105, 225, 168, 256
-0.991947, 33, 149, 96, 180
-0.991957, 369, 205, 432, 236
-0.991958, 137, 229, 200, 260
-0.991961, 49, 161, 112, 192
-0.991968, 369, 193, 432, 224
-0.991978, 177, 161, 240, 192
-0.992005, 345, 229, 408, 260
-0.992013, 369, 137, 432, 168
-0.992014, 329, 97, 392, 128
-0.992017, 201, 177, 264, 208
-0.992025, 321, 169, 384, 200
-0.992029, 73, 177, 136, 208
-0.992031, 193, 17, 224, 144
-0.992046, 1, 197, 64, 228
-0.992046, 201, 149, 264, 180
-0.992047, 121, 133, 184, 164
-0.992055, 413, 33, 444, 160
-0.992063, 153, 153, 216, 184
-0.992076, 17, 221, 80, 252
-0.992088, 281, 153, 344, 184
-0.992093, 289, 133, 352, 164
-0.99218, 1, 105, 256, 168
-0.992181, 193, 249, 448, 312
-0.992242, 49, 249, 176, 312
-0.992244, 1, 121, 500, 184
-0.99228, 33, 225, 288, 288
-0.992309, 189, 177, 220, 304
-0.992373, 177, 97, 208, 128
-0.992398, 33, 57, 160, 120
-0.992399, 253, 109, 284, 140
-0.992448, 285, 49, 316, 176
-0.992501, 1, 137, 256, 200
-0.992507, 381, 241, 412, 272
-0.992519, 197, 129, 228, 160
-0.992543, 425, 241, 456, 272
-0.992553, 449, 93, 480, 124
-0.992585, 461, 181, 492, 212
-0.992597, 193, 145, 224, 176
-0.9926, 185, 77, 216, 108
-0.99263, 369, 17, 400, 144
-0.992631, 33, 1, 96, 333
-0.992637, 65, 161, 320, 224
-0.992638, 185, 61, 216, 92
-0.992643, 269, 229, 300, 260
-0.99265, 405, 77, 436, 108
-0.992664, 321, 77, 448, 108
-0.99267, 265, 81, 296, 112
-0.992678, 457, 209, 488, 240
-0.992706, 117, 117, 148, 148
-0.992715, 417, 225, 448, 256
-0.992727, 457, 225, 488, 256
-0.992739, 197, 105, 228, 136
-0.992741, 297, 49, 328, 176
-0.992754, 37, 49, 68, 176
-0.992764, 133, 101, 164, 132
-0.992766, 249, 225, 280, 256
-0.992767, 133, 89, 164, 120
-0.992768, 321, 17, 384, 144
-0.992789, 453, 249, 484, 280
-0.992793, 413, 237, 444, 268
-0.992797, 237, 117, 268, 148
-0.992801, 357, 73, 388, 104
-0.992803, 289, 101, 320, 132
-0.992813, 181, 145, 212, 176
-0.992813, 321, 49, 448, 112
-0.992816, 9, 97, 40, 128
-0.992817, 253, 93, 284, 124
-0.992818, 225, 125, 256, 156
-0.992823, 457, 197, 488, 228
-0.992837, 417, 201, 448, 232
-0.992842, 157, 121, 188, 152
-0.992843, 213, 185, 244, 216
-0.992843, 213, 125, 244, 156
-0.992854, 417, 85, 448, 116
-0.992857, 437, 245, 468, 276
-0.99286, 257, 153, 500, 216
-0.992861, 469, 237, 500, 268
-0.992864, 185, 45, 216, 76
-0.992875, 93, 197, 124, 228
-0.992876, 29, 101, 60, 132
-0.992887, 173, 109, 204, 140
-0.992889, 401, 237, 432, 268
-0.992904, 433, 33, 464, 160
-0.992905, 221, 113, 252, 144
-0.992908, 129, 65, 160, 96
-0.992908, 109, 201, 140, 232
-0.992912, 93, 185, 124, 216
-0.992914, 337, 81, 368, 112
-0.992915, 177, 121, 208, 152
-0.992916, 269, 117, 300, 148
-0.992923, 441, 189, 472, 220
-0.992924, 329, 93, 360, 124
-0.992928, 329, 185, 360, 216
-0.992928, 421, 213, 452, 244
-0.992929, 369, 237, 400, 268
-0.992958, 161, 109, 192, 140
-0.992958, 145, 109, 176, 140
-0.992961, 405, 221, 436, 252
-0.992963, 469, 109, 500, 140
-0.992966, 121, 105, 152, 136
-0.992969, 229, 141, 260, 172
-0.992971, 53, 105, 84, 136
-0.992978, 169, 37, 200, 68
-0.992979, 57, 233, 88, 264
-0.99298, 389, 73, 420, 104
-0.992984, 129, 153, 160, 184
-0.992986, 409, 249, 440, 280
-0.992986, 105, 65, 136, 192
-0.992993, 77, 109, 108, 140
-0.992997, 97, 113, 128, 144
-0.993002, 169, 153, 200, 184
-0.993002, 157, 97, 188, 128
-0.993011, 269, 105, 300, 136
-0.993012, 317, 185, 348, 216
-0.993013, 429, 93, 460, 124
-0.993014, 145, 121, 176, 152
-0.993019, 145, 81, 176, 112
-0.993021, 69, 245, 100, 276
-0.993023, 213, 197, 244, 228
-0.993025, 41, 105, 72, 136
-0.993026, 461, 97, 492, 128
-0.993029, 305, 109, 336, 140
-0.993032, 1, 225, 500, 288
-0.993033, 373, 73, 404, 104
-0.993039, 441, 233, 472, 264
-0.993045, 181, 157, 212, 188
-0.993061, 181, 29, 212, 60
-0.993062, 457, 169, 488, 200
-0.993063, 205, 217, 236, 248
-0.993063, 237, 229, 268, 260
-0.993066, 277, 85, 308, 116
-0.993069, 325, 105, 356, 136
-0.993073, 305, 97, 336, 128
-0.993074, 97, 209, 128, 240
-0.993077, 193, 121, 448, 184
-0.993079, 181, 133, 212, 164
-0.99308, 433, 205, 464, 236
-0.993081, 385, 229, 416, 260
-0.993082, 177, 209, 208, 333
-0.993083, 469, 169, 500, 200
-0.993083, 421, 253, 452, 284
-0.993083, 157, 153, 188, 184
-0.99309, 169, 65, 200, 96
-0.993092, 169, 165, 200, 196
-0.993095, 97, 273, 224, 333
-0.993101, 189, 89, 220, 120
-0.993103, 205, 141, 236, 172
-0.993104, 197, 201, 228, 232
-0.993106, 241, 105, 272, 136
-0.993121, 265, 217, 296, 248
-0.993122, 73, 229, 104, 260
-0.993123, 213, 153, 244, 184
-0.993126, 253, 81, 284, 112
-0.993132, 457, 237, 488, 268
-0.993146, 345, 41, 408, 104
-0.993148, 225, 193, 256, 224
-0.993149, 469, 225, 500, 256
-0.99315, 141, 37, 172, 68
-0.993151, 65, 109, 96, 140
-0.993152, 281, 225, 312, 256
-0.993152, 161, 137, 192, 168
-0.993153, 369, 249, 400, 280
-0.99316, 333, 129, 364, 160
-0.99316, 69, 173, 100, 204
-0.993166, 469, 193, 500, 224
-0.993173, 357, 245, 388, 276
-0.993177, 345, 69, 376, 100
-0.993177, 189, 117, 220, 148
-0.993177, 333, 249, 364, 280
-0.993177, 445, 201, 476, 232
-0.99318, 469, 265, 500, 296
-0.993185, 289, 245, 320, 276
-0.993185, 405, 209, 436, 240
-0.993188, 389, 17, 420, 144
-0.993192, 5, 185, 36, 216
-0.993194, 441, 265, 472, 296
-0.993197, 209, 113, 240, 144
-0.993205, 145, 249, 208, 312
-0.99324, 65, 25, 192, 88
-0.993258, 1, 73, 500, 136
-0.993429, 97, 101, 224, 132
-0.993536, 469, 49, 500, 176
-0.993562, 241, 89, 368, 120
-0.993653, 177, 105, 304, 136
-0.993797, 161, 89, 288, 120
-0.993879, 161, 161, 416, 224
-0.993888, 241, 57, 304, 120
-0.993936, 57, 49, 88, 176
-0.993945, 17, 273, 144, 333
-0.994003, 257, 225, 500, 288
-0.99404, 121, 249, 184, 312
-0.994103, 469, 225, 484, 288
-0.99413, 5, 33, 36, 160
-0.994178, 145, 125, 272, 156
-0.994196, 321, 49, 352, 176
-0.994208, 369, 93, 496, 124
-0.994224, 273, 41, 400, 104
-0.994276, 1, 193, 256, 256
-0.994371, 213, 65, 244, 192
-0.994425, 409, 113, 440, 240
-0.994444, 389, 113, 420, 240
-0.994463, 161, 249, 288, 312
-0.994475, 97, 185, 352, 248
-0.994477, 113, 113, 240, 144
-0.994481, 429, 225, 444, 288
-0.994524, 1, 185, 500, 248
-0.994546, 321, 265, 448, 328
-0.994585, 349, 17, 380, 144
-0.994592, 257, 177, 500, 240
-0.994612, 161, 73, 416, 136
-0.99462, 113, 61, 240, 92
-0.994701, 193, 201, 448, 264
-0.994765, 49, 117, 176, 148
-0.9948, 169, 113, 184, 176
-0.994813, 113, 73, 240, 104
-0.994844, 129, 225, 384, 288
-0.994847, 423, 217, 438, 280
-0.994847, 237, 49, 268, 176
-0.994857, 209, 121, 336, 152
-0.994865, 251, 97, 266, 160
-0.994872, 89, 273, 152, 333
-0.994955, 241, 101, 368, 132
-0.994959, 353, 245, 480, 276
-0.994998, 239, 121, 254, 184
-0.995017, 33, 213, 160, 244
-0.99507, 113, 85, 240, 116
-0.995164, 285, 81, 300, 144
-0.995175, 425, 129, 456, 256
-0.995187, 97, 125, 224, 156
-0.995191, 461, 193, 476, 256
-0.995208, 459, 233, 474, 296
-0.995221, 185, 33, 216, 288
-0.995222, 193, 33, 208, 96
-0.995227, 17, 193, 144, 224
-0.995228, 485, 233, 500, 296
-0.99523, 477, 177, 492, 240
-0.995255, 479, 241, 494, 304
-0.995309, 209, 257, 336, 320
-0.995341, 161, 49, 416, 112
-0.995348, 193, 229, 320, 260
-0.995399, 453, 65, 484, 320
-0.995405, 433, 65, 464, 320
-0.99542, 145, 145, 272, 176
-0.995425, 193, 65, 208, 128
-0.995429, 97, 185, 224, 216
-0.99547, 195, 105, 210, 168
-0.995485, 485, 177, 500, 240
-0.995499, 65, 49, 320, 112
-0.995503, 469, 65, 500, 320
-0.995517, 97, 137, 224, 168
-0.99552, 245, 113, 260, 176
-0.995528, 469, 193, 484, 256
-0.995533, 217, 121, 232, 184
-0.995536, 325, 169, 340, 232
-0.995542, 297, 97, 312, 160
-0.995575, 369, 229, 496, 260
-0.995579, 89, 49, 120, 176
-0.995585, 127, 81, 142, 144
-0.995588, 421, 81, 436, 144
-0.995597, 209, 241, 336, 272
-0.995599, 123, 113, 138, 176
-0.995606, 199, 129, 214, 192
-0.995633, 263, 81, 278, 144
-0.995644, 373, 225, 388, 288
-0.995647, 1, 65, 32, 320
-0.995667, 171, 137, 186, 200
-0.995672, 17, 1, 144, 128
-0.995679, 249, 33, 280, 160
-0.995688, 161, 73, 288, 104
-0.995689, 369, 209, 496, 240
-0.995697, 61, 225, 76, 288
-0.995703, 21, 65, 52, 320
-0.995706, 453, 233, 468, 296
-0.995712, 415, 73, 430, 136
-0.995714, 1, 109, 128, 140
-0.99573, 321, 233, 448, 264
-0.995742, 177, 97, 192, 160
-0.995743, 227, 121, 242, 184
-0.995744, 97, 249, 160, 312
-0.995768, 157, 1, 188, 128
-0.995769, 253, 65, 284, 320
-0.995774, 113, 193, 128, 256
-0.995776, 43, 97, 58, 160
-0.995784, 87, 105, 102, 168
-0.995799, 369, 257, 496, 288
-0.995813, 465, 89, 480, 152
-0.995815, 1, 249, 500, 312
-0.995823, 161, 273, 288, 333
-0.995827, 133, 105, 148, 168
-0.99583, 273, 249, 400, 280
-0.995846, 97, 201, 224, 232
-0.995848, 401, 17, 432, 144
-0.995849, 71, 105, 86, 168
-0.995863, 73, 49, 104, 176
-0.995881, 139, 129, 154, 192
-0.995887, 321, 89, 448, 120
-0.995895, 291, 89, 306, 152
-0.995901, 193, 189, 320, 220
-0.995902, 29, 97, 44, 160
-0.99591, 405, 65, 436, 320
-0.995914, 415, 241, 430, 304
-0.995925, 407, 73, 422, 136
-0.995928, 111, 113, 126, 176
-0.995929, 113, 273, 176, 333
-0.99593, 125, 33, 156, 288
-0.995931, 133, 65, 148, 128
-0.995951, 309, 105, 324, 168
-0.995956, 35, 97, 50, 160
-0.995958, 207, 129, 222, 192
-0.995963, 33, 89, 160, 120
-0.995973, 257, 81, 272, 144
-0.995975, 429, 89, 444, 152
-0.995976, 435, 241, 450, 304
-0.995976, 95, 113, 110, 176
-0.996, 53, 65, 84, 320
-0.996013, 475, 217, 490, 280
-0.996013, 373, 65, 388, 128
-0.996014, 113, 49, 240, 80
-0.996027, 373, 161, 404, 288
-0.996029, 187, 73, 202, 136
-0.996029, 417, 65, 448, 320
-0.99604, 325, 97, 340, 160
-0.996048, 233, 121, 248, 184
-0.99605, 97, 153, 224, 184
-0.996051, 33, 65, 64, 320
-0.996081, 485, 105, 500, 168
-0.996088, 23, 89, 38, 152
-0.996089, 191, 137, 206, 200
-0.996092, 101, 113, 116, 176
-0.996094, 271, 81, 286, 144
-0.9961, 227, 153, 242, 216
-0.996101, 163, 121, 178, 184
-0.996101, 13, 89, 28, 152
-0.996125, 369, 185, 496, 216
-0.996139, 359, 73, 374, 136
-0.996139, 473, 105, 488, 168
-0.996144, 173, 65, 204, 320
-0.996144, 351, 73, 366, 136
-0.99616, 279, 81, 294, 144
-0.996163, 117, 113, 132, 176
-0.996163, 273, 65, 304, 320
-0.996174, 241, 229, 368, 260
-0.996193, 465, 249, 480, 312
-0.996205, 77, 65, 108, 320
-0.996211, 319, 169, 334, 232
-0.996229, 457, 257, 472, 320
-0.996231, 241, 77, 368, 108
-0.996235, 395, 73, 410, 136
-0.99626, 81, 169, 208, 200
-0.996264, 483, 265, 498, 328
-0.996268, 329, 65, 360, 320
-0.996273, 345, 161, 360, 224
-0.996275, 273, 105, 288, 168
-0.996277, 367, 65, 382, 128
-0.996277, 229, 201, 244, 264
-0.996278, 303, 161, 318, 224
-0.996283, 317, 105, 332, 168
-0.996288, 105, 65, 136, 320
-0.996292, 285, 65, 316, 320
-0.996294, 283, 113, 298, 176
-0.996295, 381, 225, 396, 288
-0.996307, 333, 169, 348, 232
-0.99631, 431, 201, 446, 264
-0.996312, 55, 105, 70, 168
-0.996316, 335, 81, 350, 144
-0.996318, 65, 1, 192, 64
-0.996319, 389, 65, 404, 128
-0.996323, 471, 249, 486, 312
-0.996328, 65, 225, 192, 256
-0.996336, 1, 161, 500, 224
-0.996339, 251, 121, 266, 184
-0.996345, 5, 89, 20, 152
-0.996349, 303, 97, 318, 160
-0.99635, 277, 225, 292, 288
-0.996365, 49, 97, 64, 160
-0.996367, 201, 89, 216, 152
-0.996369, 225, 161, 352, 192
-0.996378, 289, 105, 416, 136
-0.996405, 301, 65, 332, 320
-0.996406, 451, 89, 466, 152
-0.996409, 67, 225, 82, 288
-0.99641, 241, 181, 368, 212
-0.996438, 317, 65, 348, 320
-0.996455, 455, 209, 470, 272
-0.996465, 177, 1, 304, 64
-0.996474, 193, 177, 320, 208
-0.996481, 467, 169, 482, 232
-0.996481, 79, 105, 94, 168
-0.996481, 113, 33, 240, 64
-0.996486, 33, 149, 160, 180
-0.996487, 379, 65, 394, 128
-0.996488, 1, 181, 128, 212
-0.996491, 137, 153, 152, 216
-0.996497, 479, 105, 494, 168
-0.996498, 177, 213, 304, 244
-0.996501, 157, 97, 172, 160
-0.996503, 145, 157, 272, 188
-0.996512, 339, 169, 354, 232
-0.996512, 441, 241, 456, 304
-0.996514, 331, 145, 346, 208
-0.996521, 401, 73, 416, 136
-0.996523, 141, 89, 156, 152
-0.996529, 145, 233, 272, 264
-0.99653, 1, 97, 500, 160
-0.996549, 369, 81, 496, 112
-0.996551, 435, 89, 450, 152
-0.996553, 209, 141, 336, 172
-0.996556, 321, 257, 448, 288
-0.996579, 65, 65, 96, 320
-0.996581, 61, 105, 76, 168
-0.996585, 233, 161, 248, 224
-0.996603, 149, 65, 180, 320
-0.996621, 447, 249, 462, 312
-0.996636, 93, 65, 124, 320
-0.996638, 479, 153, 494, 216
-0.996639, 341, 81, 356, 144
-0.996647, 161, 65, 192, 320
-0.99665, 423, 241, 438, 304
-0.996652, 417, 217, 432, 280
-0.996656, 335, 249, 350, 312
-0.996671, 221, 193, 236, 256
-0.996677, 341, 249, 356, 312
-0.996677, 327, 249, 342, 312
-0.996683, 33, 165, 160, 196
-0.996717, 247, 145, 262, 208
-0.99672, 241, 65, 272, 320
-0.996723, 49, 101, 176, 132
-0.996728, 387, 233, 402, 296
-0.996733, 137, 1, 168, 256
-0.996736, 131, 145, 146, 208
-0.996739, 177, 129, 192, 192
-0.99674, 349, 249, 364, 312
-0.996753, 369, 197, 496, 228
-0.996753, 295, 153, 310, 216
-0.996755, 367, 249, 382, 312
-0.996756, 321, 249, 336, 312
-0.996778, 341, 65, 372, 320
-0.99683, 321, 197, 448, 228
-0.996892, 225, 65, 256, 320
-0.996901, 321, 169, 448, 200
-0.996926, 129, 221, 256, 252
-0.99693, 389, 33, 420, 288
-0.996951, 349, 113, 380, 240
-0.996999, 257, 117, 384, 148
-0.997005, 241, 193, 368, 224
-0.997008, 305, 133, 432, 164
-0.997011, 145, 177, 272, 208
-0.997012, 353, 65, 384, 320
-0.997014, 257, 217, 384, 248
-0.997032, 1, 233, 128, 264
-0.997032, 213, 65, 244, 320
-0.997062, 445, 33, 476, 160
-0.997079, 113, 21, 240, 52
-0.997107, 257, 137, 384, 168
-0.997173, 479, 177, 494, 208
-0.997188, 97, 249, 352, 312
-0.997188, 257, 57, 500, 120
-0.99722, 145, 189, 272, 220
-0.997229, 369, 65, 400, 320
-0.997231, 273, 157, 400, 188
-0.997269, 81, 213, 208, 244
-0.997306, 1, 249, 256, 312
-0.997323, 49, 129, 176, 160
-0.997338, 369, 165, 496, 196
-0.997374, 1, 249, 128, 280
-0.997387, 485, 173, 500, 204
-0.9974, 369, 41, 496, 104
-0.997413, 273, 169, 400, 200
-0.997419, 33, 17, 288, 80
-0.997463, 461, 209, 476, 240
-0.997467, 65, 65, 192, 96
-0.99748, 341, 185, 356, 216
-0.99748, 273, 17, 304, 144
-0.997485, 165, 121, 180, 152
-0.99749, 177, 201, 304, 232
-0.9975, 467, 205, 482, 236
-0.997525, 255, 89, 270, 120
-0.997531, 289, 181, 416, 212
-0.997534, 275, 229, 290, 260
-0.997548, 427, 241, 442, 272
-0.997551, 377, 113, 408, 240
-0.997558, 195, 69, 210, 100
-0.997562, 369, 133, 496, 164
-0.997585, 369, 105, 496, 136
-0.997595, 197, 129, 212, 160
-0.997599, 385, 237, 400, 268
-0.9976, 1, 273, 256, 333
-0.997604, 337, 149, 464, 180
-0.997609, 321, 121, 448, 152
-0.99762, 225, 17, 288, 144
-0.997653, 1, 261, 128, 292
-0.997666, 461, 197, 476, 228
-0.997676, 417, 245, 432, 276
-0.997686, 49, 181, 176, 212
-0.997705, 111, 197, 126, 228
-0.997708, 195, 141, 210, 172
-0.997711, 421, 205, 436, 236
-0.997712, 471, 221, 486, 252
-0.99772, 393, 237, 408, 268
-0.99772, 333, 185, 348, 216
-0.997737, 321, 213, 448, 244
-0.99774, 425, 85, 440, 116
-0.997743, 453, 185, 468, 216
-0.997751, 249, 117, 264, 148
-0.997761, 281, 229, 296, 260
-0.997767, 299, 101, 314, 132
-0.997782, 425, 225, 440, 256
-0.997789, 117, 201, 132, 232
-0.99779, 379, 237, 394, 268
-0.997794, 133, 109, 148, 140
-0.997808, 129, 25, 384, 88
-0.997814, 213, 125, 228, 156
-0.997846, 463, 93, 478, 124
-0.997853, 255, 109, 270, 140
-0.997868, 65, 245, 192, 276
-0.997868, 201, 65, 232, 320
-0.997871, 427, 201, 442, 232
-0.997876, 467, 193, 482, 224
-0.997883, 439, 249, 454, 280
-0.997901, 273, 113, 288, 144
-0.997903, 433, 241, 448, 272
-0.99792, 261, 105, 276, 136
-0.99792, 469, 181, 484, 212
-0.99794, 189, 53, 204, 84
-0.997944, 111, 113, 126, 144
-0.997947, 205, 133, 220, 164
-0.99795, 451, 89, 466, 120
-0.997952, 415, 77, 430, 108
-0.997963, 171, 153, 186, 184
-0.997964, 239, 125, 254, 156
-0.997972, 195, 41, 210, 72
-0.997999, 223, 113, 238, 144
-0.998004, 65, 77, 192, 108
-0.998011, 73, 109, 88, 140
-0.998014, 87, 109, 102, 140
-0.998016, 459, 185, 474, 216
-0.998017, 23, 97, 38, 128
-0.998022, 197, 113, 212, 144
-0.998025, 189, 145, 204, 176
-0.998032, 333, 97, 348, 128
-0.998038, 11, 93, 26, 124
-0.998038, 395, 225, 410, 256
-0.998042, 337, 17, 368, 144
-0.998053, 463, 253, 478, 284
-0.998055, 249, 105, 264, 136
-0.99806, 483, 109, 498, 140
-0.998061, 171, 113, 186, 144
-0.998064, 139, 105, 154, 136
-0.998066, 473, 105, 488, 136
-0.998073, 281, 217, 296, 248
-0.998077, 161, 61, 288, 92
-0.99808, 357, 73, 372, 104
-0.998091, 189, 85, 204, 116
-0.998097, 61, 221, 76, 252
-0.998097, 257, 225, 272, 256
-0.998103, 133, 153, 148, 184
-0.998109, 179, 97, 194, 128
-0.998112, 455, 197, 470, 228
-0.998116, 321, 65, 448, 96
-0.998118, 333, 165, 348, 196
-0.998119, 171, 137, 186, 168
-0.99812, 433, 93, 448, 124
-0.998121, 127, 105, 142, 136
-0.998124, 345, 81, 360, 112
-0.998124, 265, 81, 280, 112
-0.998136, 249, 137, 264, 168
-0.998139, 113, 257, 240, 288
-0.998142, 131, 65, 146, 96
-0.998144, 1, 121, 128, 152
-0.998145, 339, 165, 354, 196
-0.998146, 137, 93, 152, 124
-0.998153, 373, 69, 388, 100
-0.998155, 45, 101, 60, 132
-0.998157, 187, 157, 202, 188
-0.998157, 143, 125, 158, 156
-0.998161, 165, 101, 180, 132
-0.998162, 419, 233, 434, 264
-0.998168, 29, 101, 44, 132
-0.99817, 65, 49, 192, 80
-0.998171, 193, 101, 208, 132
-0.998174, 117, 117, 132, 148
-0.998176, 267, 109, 282, 140
-0.998178, 139, 153, 154, 184
-0.998186, 305, 105, 320, 136
-0.998187, 5, 93, 20, 124
-0.998188, 409, 77, 424, 108
-0.998192, 229, 121, 244, 152
-0.998192, 285, 85, 300, 116
-0.998195, 201, 145, 216, 176
-0.998208, 471, 237, 486, 268
-0.99821, 431, 225, 446, 256
-0.998211, 377, 225, 392, 256
-0.998219, 201, 89, 216, 120
-0.998223, 103, 113, 118, 144
-0.998224, 279, 113, 294, 144
-0.998226, 17, 93, 32, 124
-0.998229, 81, 1, 208, 32
-0.998232, 419, 221, 434, 252
-0.998235, 143, 85, 158, 116
-0.998236, 293, 97, 308, 128
-0.998237, 325, 165, 340, 196
-0.99824, 1, 133, 128, 164
-0.998245, 435, 205, 450, 236
-0.998246, 323, 177, 338, 208
-0.998247, 347, 185, 362, 216
-0.99825, 477, 225, 492, 256
-0.998253, 35, 101, 50, 132
-0.998255, 415, 205, 430, 236
-0.99826, 111, 209, 126, 240
-0.998264, 437, 185, 452, 216
-0.998265, 53, 105, 68, 136
-0.998265, 257, 65, 384, 96
-0.998266, 195, 57, 210, 88
-0.998268, 191, 121, 206, 152
-0.998272, 159, 109, 174, 140
-0.998274, 79, 109, 94, 140
-0.998275, 465, 221, 480, 252
-0.998277, 391, 73, 406, 104
-0.998278, 399, 237, 414, 268
-0.998283, 251, 225, 266, 256
-0.998284, 157, 121, 172, 152
-0.998284, 61, 105, 76, 136
-0.998288, 327, 97, 342, 128
-0.99829, 59, 237, 74, 268
-0.998353, 457, 33, 488, 160
-0.998367, 369, 121, 496, 152
-0.998385, 341, 171, 372, 186
-0.998386, 325, 105, 356, 120
-0.998386, 437, 91, 468, 106
-0.998386, 233, 231, 264, 246
-0.998388, 469, 231, 500, 246
-0.99839, 329, 183, 360, 198
-0.99839, 457, 233, 488, 248
-0.998391, 453, 187, 484, 202
-0.998392, 453, 101, 484, 116
-0.998393, 277, 93, 308, 108
-0.998394, 209, 189, 240, 204
-0.998394, 157, 117, 188, 132
-0.998395, 53, 229, 84, 244
-0.998395, 445, 267, 476, 282
-0.998396, 105, 217, 136, 232
-0.998396, 181, 29, 212, 44
-0.998396, 337, 89, 368, 104
-0.998399, 249, 99, 280, 114
-0.998401, 237, 125, 268, 140
-0.998402, 241, 105, 272, 120
-0.998403, 285, 103, 316, 118
-0.998403, 381, 137, 412, 152
-0.998404, 413, 205, 444, 220
-0.998404, 421, 219, 452, 234
-0.998404, 193, 189, 224, 204
-0.998406, 393, 239, 424, 254
-0.998406, 341, 133, 372, 148
-0.998406, 33, 103, 64, 118
-0.998406, 197, 125, 228, 140
-0.99841, 93, 183, 124, 198
-0.99841, 165, 101, 196, 116
-0.998411, 89, 237, 120, 252
-0.998412, 53, 107, 84, 122
-0.998412, 173, 113, 204, 128
-0.998412, 133, 107, 164, 122
-0.998413, 189, 49, 220, 64
-0.998413, 277, 227, 308, 242
-0.998413, 265, 235, 296, 250
-0.998414, 345, 81, 376, 96
-0.998415, 145, 119, 176, 134
-0.998415, 437, 185, 468, 200
-0.998416, 189, 153, 220, 168
-0.998416, 13, 203, 44, 218
-0.998416, 321, 165, 352, 180
-0.998416, 253, 93, 284, 108
-0.998417, 145, 97, 176, 112
-0.998418, 305, 99, 336, 114
-0.998418, 181, 131, 212, 146
-0.998419, 101, 211, 132, 226
-0.998419, 469, 111, 500, 126
-0.998419, 133, 101, 164, 116
-0.99842, 177, 139, 208, 154
-0.99842, 325, 99, 356, 114
-0.99842, 305, 165, 336, 180
-0.998421, 409, 87, 440, 102
-0.998421, 117, 113, 148, 128
-0.998421, 29, 205, 60, 220
-0.998421, 117, 119, 148, 134
-0.998421, 453, 217, 484, 232
-0.998422, 217, 125, 248, 140
-0.998422, 479, 177, 494, 304
-0.998422, 305, 109, 336, 124
-0.998423, 193, 183, 224, 198
-0.998423, 453, 251, 484, 266
-0.998423, 185, 55, 216, 70
-0.998423, 457, 205, 488, 220
-0.998424, 149, 127, 180, 142
-0.998424, 153, 99, 216, 114
-0.998425, 457, 197, 488, 212
-0.998426, 69, 245, 100, 260
-0.998426, 401, 79, 432, 94
-0.998428, 437, 207, 468, 222
-0.998429, 133, 161, 164, 176
-0.99843, 161, 109, 192, 124
-0.99843, 353, 75, 384, 90
-0.998431, 113, 107, 144, 122
-0.998432, 197, 117, 228, 132
-0.998433, 97, 113, 128, 128
-0.998433, 209, 195, 240, 210
-0.998434, 161, 137, 192, 152
-0.998434, 417, 251, 448, 266
-0.998435, 173, 155, 204, 170
-0.998437, 457, 239, 488, 254
-0.998438, 433, 215, 464, 230
-0.998438, 461, 261, 492, 276
-0.998439, 269, 117, 300, 132
-0.99844, 405, 251, 436, 266
-0.998442, 9, 97, 40, 112
-0.998442, 181, 95, 212, 110
-0.998443, 289, 165, 320, 180
-0.998443, 93, 189, 124, 204
-0.998444, 341, 165, 372, 180
-0.998445, 101, 201, 132, 216
-0.998445, 133, 93, 164, 108
-0.998445, 437, 257, 468, 272
-0.998445, 469, 187, 500, 202
-0.998445, 409, 213, 472, 228
-0.998448, 113, 209, 144, 224
-0.998448, 109, 187, 140, 202
-0.998449, 69, 231, 100, 246
-0.998454, 417, 237, 448, 252
-0.998454, 113, 203, 144, 218
-0.998456, 253, 119, 284, 134
-0.998456, 69, 237, 100, 252
-0.998458, 153, 105, 216, 120
-0.998459, 385, 233, 416, 248
-0.998464, 129, 85, 160, 100
-0.998466, 377, 243, 408, 258
-0.998466, 437, 237, 468, 252
-0.998468, 221, 117, 252, 132
-0.99847, 185, 79, 216, 94
-0.998471, 241, 117, 304, 132
-0.998471, 457, 181, 488, 196
-0.998473, 177, 107, 208, 122
-0.998473, 249, 229, 280, 244
-0.998474, 425, 237, 488, 252
-0.998475, 249, 89, 312, 104
-0.998476, 405, 237, 436, 252
-0.998478, 185, 61, 216, 76
-0.998479, 153, 119, 216, 134
-0.998479, 417, 213, 448, 228
-0.998481, 197, 131, 228, 146
-0.998481, 193, 137, 224, 152
-0.998482, 265, 83, 296, 98
-0.998484, 121, 115, 184, 130
-0.998485, 193, 143, 256, 158
-0.998488, 377, 237, 440, 252
-0.998488, 433, 181, 496, 196
-0.998489, 193, 147, 224, 162
-0.998491, 437, 245, 468, 260
-0.998492, 417, 95, 480, 110
-0.998494, 181, 145, 212, 160
-0.998498, 417, 245, 480, 260
-0.998498, 169, 133, 232, 148
-0.998505, 433, 215, 496, 230
-0.998506, 193, 127, 256, 142
-0.998509, 129, 103, 192, 118
-0.998509, 153, 69, 216, 84
-0.998511, 153, 113, 216, 128
-0.998514, 185, 87, 216, 102
-0.998515, 253, 113, 284, 128
-0.998515, 185, 71, 216, 86
-0.998516, 469, 179, 500, 194
-0.998521, 249, 111, 312, 126
-0.998522, 153, 75, 216, 90
-0.998523, 185, 117, 248, 132
-0.998524, 209, 119, 272, 134
-0.998524, 225, 229, 288, 244
-0.998525, 449, 93, 480, 108
-0.998526, 393, 251, 456, 266
-0.998526, 185, 149, 248, 164
-0.998528, 289, 97, 352, 112
-0.998528, 353, 73, 416, 88
-0.998531, 177, 101, 208, 116
-0.998532, 449, 259, 480, 274
-0.998532, 129, 161, 192, 176
-0.998533, 49, 241, 112, 256
-0.998534, 257, 105, 320, 120
-0.998537, 241, 119, 272, 134
-0.998537, 369, 137, 432, 152
-0.998538, 265, 227, 296, 242
-0.998539, 417, 243, 448, 258
-0.998541, 153, 89, 216, 104
-0.998541, 433, 261, 496, 276
-0.998542, 113, 109, 176, 124
-0.998542, 105, 185, 168, 200
-0.998545, 153, 125, 216, 140
-0.998545, 153, 55, 216, 70
-0.998547, 153, 139, 216, 154
-0.998551, 225, 195, 288, 210
-0.998551, 417, 221, 480, 236
-0.998553, 281, 109, 344, 124
-0.998553, 249, 95, 312, 110
-0.998553, 73, 115, 136, 130
-0.998555, 409, 207, 472, 222
-0.998555, 425, 101, 488, 116
-0.998557, 153, 63, 216, 78
-0.998557, 289, 165, 352, 180
-0.998557, 369, 247, 432, 262
-0.998558, 153, 41, 216, 56
-0.998559, 161, 49, 224, 64
-0.998561, 129, 97, 192, 112
-0.998563, 345, 247, 408, 262
-0.998563, 289, 181, 352, 196
-0.998563, 153, 35, 216, 50
-0.998566, 41, 231, 104, 246
-0.998568, 177, 93, 240, 108
-0.998569, 73, 217, 136, 232
-0.998569, 453, 211, 484, 226
-0.998569, 193, 135, 256, 150
-0.998569, 265, 167, 328, 182
-0.998571, 161, 145, 224, 160
-0.998571, 73, 197, 136, 212
-0.998573, 313, 105, 376, 120
-0.998573, 49, 247, 112, 262
-0.998574, 401, 257, 464, 272
-0.998575, 89, 109, 152, 124
-0.998575, 25, 239, 88, 254
-0.998576, 385, 91, 448, 106
-0.998578, 97, 119, 160, 134
-0.99858, 313, 135, 376, 150
-0.998581, 233, 123, 296, 138
-0.998581, 153, 83, 216, 98
-0.998583, 377, 85, 440, 100
-0.998584, 289, 89, 352, 104
-0.998584, 113, 73, 176, 88
-0.998585, 433, 209, 496, 224
-0.998586, 265, 193, 328, 208
-0.998587, 393, 245, 456, 260
-0.998587, 177, 191, 240, 206
-0.99859, 289, 189, 352, 204
-0.998591, 425, 187, 488, 202
-0.998591, 425, 195, 488, 210
-0.998593, 177, 75, 240, 90
-0.998593, 329, 87, 392, 102
-0.998594, 313, 195, 376, 210
-0.998599, 281, 103, 344, 118
-0.998599, 201, 191, 264, 206
-0.9986, 25, 105, 88, 120
-0.9986, 161, 153, 224, 168
-0.9986, 241, 235, 304, 250
-0.998601, 377, 231, 440, 246
-0.998602, 321, 183, 384, 198
-0.998603, 73, 211, 136, 226
-0.998603, 369, 219, 432, 234
-0.998603, 321, 99, 384, 114
-0.998605, 1, 101, 64, 116
-0.998605, 249, 83, 312, 98
-0.998605, 241, 161, 304, 176
-0.998606, 337, 79, 400, 94
-0.998607, 417, 251, 480, 266
-0.998608, 169, 159, 232, 174
-0.998608, 433, 267, 496, 282
-0.998609, 9, 203, 72, 218
-0.998611, 273, 119, 336, 134
-0.998611, 145, 181, 208, 196
-0.998612, 137, 49, 200, 64
-0.998612, 177, 83, 240, 98
-0.998615, 297, 175, 360, 190
-0.998616, 345, 145, 408, 160
-0.998616, 377, 79, 440, 94
-0.998616, 417, 89, 480, 104
-0.998617, 17, 233, 80, 248
-0.998618, 217, 161, 280, 176
-0.998619, 113, 67, 176, 82
-0.998619, 25, 247, 88, 262
-0.998619, 41, 111, 104, 126
-0.998619, 73, 191, 136, 206
-0.99862, 73, 203, 136, 218
-0.99862, 401, 189, 464, 204
-0.99862, 121, 79, 184, 94
-0.998621, 321, 93, 384, 108
-0.998621, 433, 203, 496, 218
-0.998621, 137, 155, 200, 170
-0.998623, 281, 247, 344, 262
-0.998624, 129, 135, 192, 150
-0.998625, 153, 27, 216, 42
-0.998626, 353, 253, 416, 268
-0.998627, 33, 205, 96, 220
-0.998627, 201, 185, 264, 200
-0.998628, 353, 131, 416, 146
-0.998632, 113, 245, 240, 276
-0.998636, 161, 45, 288, 76
-0.998666, 49, 261, 176, 292
-0.998702, 347, 65, 362, 192
-0.998719, 469, 177, 484, 304
-0.998728, 97, 269, 224, 300
-0.998735, 161, 273, 416, 333
-0.998737, 337, 81, 352, 208
-0.998743, 255, 81, 270, 208
-0.998744, 485, 97, 500, 224
-0.99879, 193, 1, 208, 128
-0.998792, 485, 177, 500, 304
-0.998796, 161, 13, 288, 44
-0.998797, 365, 113, 396, 240
-0.998802, 177, 253, 304, 284
-0.998812, 257, 205, 384, 236
-0.998818, 97, 281, 224, 312
-0.998823, 161, 1, 288, 32
-0.998827, 463, 193, 478, 320
-0.998827, 161, 297, 288, 328
-0.998835, 45, 97, 60, 224
-0.998842, 35, 97, 50, 224
-0.998852, 227, 113, 242, 240
-0.998861, 65, 37, 192, 68
-0.998869, 161, 29, 288, 60
-0.998877, 325, 145, 356, 272
-0.998885, 49, 273, 176, 304
-0.998894, 397, 65, 412, 192
-0.998898, 175, 97, 190, 224
-0.9989, 135, 97, 150, 224
-0.998906, 29, 97, 44, 224
-0.998911, 235, 97, 250, 224
-0.998913, 331, 81, 346, 208
-0.998937, 57, 97, 72, 224
-0.998939, 91, 97, 106, 224
-0.998945, 71, 97, 86, 224
-0.998946, 247, 113, 262, 240
-0.998949, 231, 161, 246, 288
-0.998951, 473, 97, 488, 224
-0.998954, 1, 49, 500, 112
-0.998958, 301, 97, 316, 224
-0.998963, 457, 177, 472, 304
-0.998967, 387, 65, 402, 192
-0.998968, 421, 193, 436, 320
-0.998968, 129, 129, 144, 256
-0.998971, 213, 113, 228, 240
-0.998974, 431, 193, 446, 320
-0.998979, 129, 65, 144, 192
-0.998987, 169, 97, 184, 224
-0.998992, 415, 65, 430, 192
-0.998993, 145, 97, 160, 224
-0.998995, 359, 65, 374, 192
-0.999001, 479, 97, 494, 224
-0.999008, 381, 65, 396, 192
-0.999009, 121, 113, 136, 240
-0.999019, 463, 81, 478, 208
-0.999019, 159, 97, 174, 224
-0.999022, 135, 49, 150, 176
-0.999023, 241, 113, 256, 240
-0.999026, 51, 97, 66, 224
-0.999031, 81, 97, 96, 224
-0.99904, 403, 65, 418, 192
-0.999043, 23, 81, 38, 208
-0.999044, 291, 81, 306, 208
-0.999045, 353, 65, 368, 192
-0.999052, 197, 97, 212, 224
-0.999053, 189, 49, 204, 176
-0.999056, 265, 65, 280, 192
-0.999063, 99, 97, 114, 224
-0.999065, 105, 97, 120, 224
-0.999073, 271, 65, 286, 192
-0.999078, 65, 97, 80, 224
-0.999079, 9, 81, 24, 208
-0.999085, 281, 177, 296, 304
-0.999094, 375, 65, 390, 192
-0.999096, 151, 97, 166, 224
-0.999099, 369, 65, 384, 192
-0.999101, 17, 81, 32, 208
-0.999102, 409, 65, 424, 192
-0.999104, 325, 97, 340, 224
-0.999104, 113, 97, 128, 224
-0.999105, 369, 269, 496, 300
-0.999107, 237, 161, 252, 288
-0.999107, 281, 65, 296, 192
-0.999107, 309, 97, 324, 224
-0.99911, 97, 293, 224, 324
-0.999119, 449, 81, 464, 208
-0.99913, 203, 145, 218, 272
-0.99913, 319, 97, 334, 224
-0.999132, 221, 97, 236, 224
-0.999136, 143, 33, 158, 160
-0.99914, 161, 177, 176, 304
-0.999141, 439, 81, 454, 208
-0.999141, 63, 161, 78, 288
-0.999144, 55, 177, 70, 304
-0.999144, 171, 177, 186, 304
-0.99915, 153, 145, 168, 272
-0.999164, 379, 209, 394, 333
-0.999164, 145, 285, 272, 316
-0.999165, 181, 81, 196, 208
-0.999167, 203, 81, 218, 208
-0.999168, 135, 161, 150, 288
-0.99917, 161, 1, 416, 64
-0.999175, 271, 209, 286, 333
-0.999184, 421, 65, 436, 192
-0.999186, 369, 65, 496, 96
-0.999188, 429, 81, 444, 208
-0.999188, 221, 145, 236, 272
-0.999194, 145, 145, 160, 272
-0.999195, 3, 81, 18, 208
-0.999201, 159, 49, 174, 176
-0.999206, 269, 161, 284, 288
-0.999206, 455, 81, 470, 208
-0.999216, 71, 177, 86, 304
-0.999217, 149, 17, 164, 144
-0.999217, 47, 177, 62, 304
-0.99922, 247, 177, 262, 304
-0.999253, 225, 209, 240, 333
-0.999278, 127, 209, 142, 333
-0.99928, 117, 209, 132, 333
-0.999283, 275, 161, 290, 288
-0.999286, 415, 193, 430, 320
-0.999286, 291, 177, 306, 304
-0.999296, 137, 209, 152, 333
-0.999297, 217, 193, 232, 320
-0.999299, 369, 177, 384, 304
-0.9993, 253, 177, 268, 304
-0.999305, 359, 193, 374, 320
-0.999309, 123, 65, 138, 192
-0.99932, 1, 301, 128, 332
-0.999323, 123, 161, 138, 288
-0.999326, 349, 113, 364, 240
-0.999327, 197, 49, 212, 176
-0.999327, 145, 209, 160, 333
-0.999335, 111, 193, 126, 320
-0.999338, 443, 193, 458, 320
-0.999338, 181, 17, 196, 144
-0.999339, 209, 161, 224, 288
-0.999345, 239, 209, 254, 333
-0.999349, 5, 177, 20, 304
-0.999349, 449, 193, 464, 320
-0.99935, 341, 193, 356, 320
-0.999351, 467, 129, 482, 256
-0.999355, 169, 49, 184, 176
-0.999358, 437, 193, 452, 320
-0.99936, 93, 161, 108, 288
-0.999363, 247, 65, 262, 192
-0.999364, 117, 161, 132, 288
-0.999365, 177, 273, 304, 304
-0.999372, 335, 193, 350, 320
-0.999375, 301, 193, 316, 320
-0.999375, 177, 161, 192, 288
-0.999377, 27, 177, 42, 304
-0.999384, 65, 25, 192, 56
-0.999586, 167, 121, 182, 136
-0.999589, 139, 159, 154, 174
-0.99959, 375, 227, 390, 242
-0.99959, 219, 211, 234, 226
-0.99959, 191, 55, 206, 70
-0.99959, 397, 237, 412, 252
-0.99959, 345, 167, 360, 182
-0.999591, 145, 91, 160, 106
-0.999591, 335, 133, 350, 148
-0.999591, 239, 125, 254, 140
-0.999591, 187, 93, 202, 108
-0.999591, 135, 105, 150, 120
-0.999592, 135, 99, 150, 114
-0.999593, 285, 229, 300, 244
-0.999593, 87, 185, 102, 200
-0.999593, 23, 199, 38, 214
-0.999594, 195, 43, 210, 58
-0.999594, 251, 107, 266, 122
-0.999594, 189, 145, 204, 160
-0.999594, 195, 63, 210, 78
-0.999594, 133, 157, 148, 172
-0.999595, 467, 199, 482, 214
-0.999596, 201, 95, 216, 110
-0.999596, 265, 111, 280, 126
-0.999596, 197, 117, 212, 132
-0.999598, 23, 97, 38, 112
-0.999599, 249, 229, 264, 244
-0.9996, 323, 183, 338, 198
-0.999601, 49, 297, 176, 328
-0.999601, 91, 237, 106, 252
-0.999602, 405, 135, 420, 150
-0.999602, 317, 177, 332, 192
-0.999602, 129, 83, 144, 98
-0.999602, 391, 239, 406, 254
-0.999603, 113, 117, 128, 132
-0.999603, 333, 97, 348, 112
-0.999603, 145, 129, 160, 144
-0.999603, 157, 75, 172, 90
-0.999604, 321, 165, 336, 180
-0.999604, 439, 211, 454, 226
-0.999604, 469, 183, 484, 198
-0.999605, 479, 111, 494, 126
-0.999606, 453, 211, 468, 226
-0.999607, 47, 103, 62, 118
-0.999607, 1, 277, 128, 308
-0.999607, 377, 141, 392, 156
-0.999608, 201, 141, 216, 156
-0.999608, 297, 101, 312, 116
-0.99961, 375, 245, 390, 260
-0.99961, 139, 123, 154, 138
-0.99961, 447, 261, 462, 276
-0.999611, 441, 243, 456, 258
-0.999611, 3, 95, 18, 110
-0.999611, 129, 111, 144, 126
-0.999611, 105, 189, 120, 204
-0.999611, 231, 119, 246, 134
-0.999611, 427, 209, 442, 224
-0.999611, 439, 185, 454, 200
-0.999611, 475, 185, 490, 200
-0.999612, 301, 181, 316, 196
-0.999612, 311, 165, 326, 180
-0.999612, 123, 119, 138, 134
-0.999613, 301, 165, 316, 180
-0.999613, 415, 81, 430, 96
-0.999615, 195, 83, 210, 98
-0.999615, 133, 163, 148, 178
-0.999616, 455, 187, 470, 202
-0.999616, 413, 249, 428, 264
-0.999617, 197, 129, 212, 144
-0.999617, 427, 247, 442, 262
-0.999618, 97, 187, 112, 202
-0.999619, 193, 103, 208, 118
-0.999619, 425, 89, 440, 104
-0.999621, 271, 229, 286, 244
-0.999622, 397, 231, 412, 246
-0.999623, 203, 147, 218, 162
-0.999624, 337, 165, 352, 180
-0.999624, 239, 117, 254, 132
-0.999624, 351, 165, 366, 180
-0.999624, 271, 115, 286, 130
-0.999625, 461, 195, 476, 210
-0.999626, 463, 95, 478, 110
-0.999627, 467, 207, 482, 222
-0.999627, 189, 61, 204, 76
-0.999627, 223, 117, 238, 132
-0.999628, 161, 127, 176, 142
-0.999629, 467, 219, 482, 234
-0.99963, 459, 217, 474, 232
-0.999631, 435, 239, 450, 254
-0.999631, 195, 71, 210, 86
-0.999632, 341, 183, 356, 198
-0.999633, 137, 93, 152, 108
-0.999635, 161, 117, 176, 132
-0.999636, 133, 117, 148, 132
-0.999637, 265, 119, 280, 134
-0.999638, 333, 183, 348, 198
-0.999639, 289, 221, 304, 236
-0.999641, 157, 97, 172, 112
-0.999642, 253, 93, 268, 108
-0.999642, 149, 123, 164, 138
-0.999644, 215, 127, 230, 142
-0.999645, 391, 233, 406, 248
-0.999646, 453, 91, 468, 106
-0.999647, 167, 135, 182, 150
-0.999648, 357, 73, 372, 88
-0.999649, 467, 261, 482, 276
-0.999649, 115, 209, 130, 224
-0.999654, 291, 165, 306, 180
-0.999654, 481, 187, 496, 202
-0.999654, 247, 119, 262, 134
-0.999654, 421, 215, 436, 230
-0.999655, 111, 201, 126, 216
-0.999659, 193, 151, 208, 166
-0.99966, 453, 261, 468, 276
-0.99966, 461, 259, 476, 274
-0.999663, 107, 111, 122, 126
-0.999663, 467, 213, 482, 228
-0.999666, 201, 135, 216, 150
-0.99967, 259, 111, 274, 126
-0.999671, 225, 253, 352, 284
-0.999677, 461, 211, 476, 226
-0.999677, 87, 111, 102, 126
-0.999686, 17, 77, 144, 108
-0.999689, 381, 243, 396, 258
-0.999696, 419, 237, 434, 252
-0.9997, 193, 139, 208, 154
-0.999704, 253, 115, 268, 130
-0.999711, 1, 289, 128, 320
-0.999712, 419, 247, 434, 262
-0.999715, 383, 237, 398, 252
-0.999718, 429, 241, 444, 256
-0.99972, 279, 227, 294, 242
-0.999761, 483, 179, 498, 194
-0.999775, 477, 179, 492, 194
-0.999783, 195, 145, 210, 160
-0.999976, 49, 285, 176, 316
-0.999985, 17, 57, 144, 88
-1.00005, 49, 13, 176, 44
-1.00008, 273, 273, 400, 333
-1.00011, 273, 261, 400, 292
-1.00023, 369, 281, 496, 312
-1.00024, 193, 285, 320, 316
-1.0003, 209, 297, 336, 328
-1.0003, 369, 53, 496, 84
-1.00031, 257, 273, 500, 333
-1.00051, 321, 273, 448, 304
-1.00084, 89, 1, 152, 128
-1.00103, 1, 273, 500, 333
-1.00105, 17, 25, 144, 88
-1.0014, 1, 25, 500, 88
-1.00157, 301, 145, 332, 272
-1.0017, 321, 25, 448, 88
-1.00186, 313, 145, 344, 272
-1.00194, 257, 25, 500, 88
-1.00212, 257, 1, 500, 64
-1.00259, 297, 1, 360, 128
-1.00281, 209, 25, 336, 88
-1.00283, 1, 1, 500, 64
-1.00291, 1, 1, 128, 64
-1.00291, 225, 1, 352, 64
-1.00291, 273, 1, 400, 64
-1.00291, 321, 1, 448, 64
-1.00291, 369, 1, 496, 64
-1.0036, 105, 17, 136, 144
-1.00429, 205, 1, 236, 128
-1.00509, 117, 1, 148, 128
-1.00511, 17, 1, 48, 128
-1.0053, 325, 1, 356, 128
-1.0061, 285, 1, 316, 128
-1.00762, 1, 1, 64, 128
-1.01126, 25, 1, 88, 128
-1.01785, 49, 1, 112, 128
