1430
-0.470237, 1, 1, 320, 224
-0.733272, 33, 1, 288, 224
-0.861157, 81, 1, 208, 224
-0.894148, 33, 1, 160, 224
-0.897932, 145, 1, 272, 224
-0.903883, 1, 97, 320, 224
-0.905868, 193, 1, 320, 224
-0.918089, 1, 97, 256, 224
-0.922599, 1, 49, 320, 176
-0.9262, 1, 81, 128, 208
-0.934598, 49, 97, 112, 224
-0.935025, 65, 65, 192, 192
-0.935874, 113, 81, 240, 208
-0.938402, 1, 1, 320, 128
-0.942028, 9, 97, 72, 224
-0.942775, 1, 49, 256, 176
-0.9449, 65, 17, 192, 144
-0.945578, 177, 97, 304, 224
-0.945925, 9, 105, 72, 168
-0.948917, 225, 81, 288, 208
-0.949892, 73, 97, 136, 224
-0.950553, 105, 137, 168, 200
-0.951186, 81, 129, 144, 192
-0.951373, 113, 1, 176, 128
-0.953216, 145, 33, 272, 160
-0.953305, 49, 97, 112, 160
-0.953424, 145, 153, 208, 216
-0.953732, 9, 145, 72, 208
-0.954837, 97, 49, 160, 176
-0.954942, 249, 81, 312, 208
-0.955812, 137, 65, 200, 192
-0.956198, 33, 137, 96, 200
-0.958338, 65, 153, 128, 216
-0.959485, 97, 33, 160, 96
-0.960235, 185, 153, 248, 216
-0.960268, 41, 49, 104, 176
-0.96052, 209, 153, 272, 216
-0.960893, 65, 1, 320, 128
-0.96171, 161, 97, 224, 224
-0.962991, 121, 65, 184, 128
-0.963206, 105, 161, 168, 224
-0.963871, 73, 105, 136, 168
-0.964495, 57, 129, 120, 192
-0.965339, 73, 49, 136, 176
-0.965507, 249, 33, 312, 160
-0.966341, 241, 145, 304, 208
-0.966364, 225, 89, 288, 152
-0.966671, 9, 49, 72, 176
-0.967168, 89, 1, 152, 128
-0.96746, 57, 1, 120, 128
-0.967476, 225, 121, 288, 184
-0.967615, 137, 129, 200, 192
-0.968492, 1, 105, 128, 168
-0.968591, 113, 129, 144, 192
-0.968646, 97, 137, 128, 200
-0.968854, 33, 161, 96, 224
-0.969053, 249, 65, 312, 128
-0.969106, 65, 137, 192, 200
-0.969461, 9, 81, 72, 144
-0.969542, 89, 1, 152, 64
-0.969878, 17, 17, 144, 144
-0.970157, 145, 81, 208, 144
-0.970431, 61, 81, 92, 208
-0.970533, 17, 105, 48, 168
-0.970885, 145, 153, 272, 216
-0.971177, 225, 65, 288, 128
-0.971239, 97, 97, 160, 224
-0.97158, 249, 105, 312, 168
-0.971591, 129, 137, 160, 200
-0.971618, 65, 161, 192, 224
-0.971771, 49, 81, 80, 208
-0.971891, 65, 57, 192, 120
-0.972808, 1, 129, 128, 192
-0.972869, 21, 81, 52, 208
-0.972884, 113, 9, 176, 72
-0.973111, 69, 89, 100, 152
-0.973213, 81, 137, 112, 200
-0.973432, 201, 97, 264, 224
-0.973543, 145, 57, 176, 120
-0.973731, 81, 81, 112, 208
-0.974209, 245, 81, 276, 208
-0.974259, 169, 129, 232, 192
-0.974466, 121, 1, 152, 128
-0.974562, 245, 73, 276, 136
-0.974575, 149, 65, 180, 192
-0.974597, 65, 81, 192, 144
-0.974816, 97, 57, 160, 120
-0.975049, 49, 105, 80, 168
-0.975161, 97, 1, 160, 224
-0.975712, 29, 105, 60, 168
-0.975739, 25, 1, 88, 128
-0.975808, 121, 33, 184, 96
-0.976003, 17, 145, 48, 208
-0.976113, 145, 121, 272, 184
-0.976164, 61, 129, 92, 192
-0.97618, 157, 73, 188, 136
-0.976189, 209, 1, 272, 128
-0.976466, 57, 81, 88, 144
-0.976744, 145, 49, 208, 112
-0.976752, 121, 9, 152, 72
-0.977092, 17, 153, 144, 216
-0.977121, 253, 137, 284, 200
-0.977143, 37, 97, 68, 224
-0.977262, 145, 49, 272, 112
-0.977283, 237, 145, 268, 208
-0.977309, 145, 105, 208, 168
-0.977387, 113, 113, 176, 176
-0.977431, 193, 153, 320, 216
-0.97774, 33, 73, 96, 136
-0.977753, 49, 129, 80, 192
-0.977755, 73, 113, 104, 176
-0.977827, 25, 1, 88, 224
-0.977972, 193, 129, 256, 192
-0.978124, 141, 129, 172, 192
-0.978195, 109, 153, 140, 216
-0.978234, 41, 153, 72, 216
-0.978244, 73, 65, 136, 128
-0.978445, 37, 129, 68, 192
-0.978542, 249, 1, 312, 224
-0.978548, 93, 113, 124, 176
-0.978567, 161, 161, 192, 224
-0.978677, 61, 161, 92, 224
-0.978697, 225, 1, 288, 224
-0.978818, 137, 17, 200, 144
-0.979211, 177, 73, 304, 136
-0.979389, 257, 97, 288, 224
-0.979425, 137, 33, 168, 96
-0.979563, 233, 1, 296, 64
-0.979732, 169, 81, 232, 144
-0.979796, 121, 89, 184, 152
-0.979832, 121, 33, 152, 96
-0.979845, 193, 49, 320, 176
-0.979884, 145, 97, 272, 160
-0.97998, 177, 145, 208, 208
-0.979982, 57, 25, 120, 88
-0.979999, 245, 113, 276, 176
-0.980381, 161, 65, 192, 192
-0.980475, 65, 33, 192, 96
-0.980511, 133, 1, 164, 128
-0.980584, 109, 17, 140, 144
-0.981274, 57, 1, 120, 64
-0.981622, 109, 65, 140, 192
-0.981684, 97, 113, 224, 176
-0.981978, 133, 57, 164, 120
-0.982396, 1, 81, 128, 144
-0.982448, 57, 1, 120, 224
-0.982487, 125, 49, 156, 176
-0.98259, 49, 105, 176, 168
-0.982701, 201, 1, 264, 224
-0.982711, 97, 49, 128, 176
-0.982753, 109, 49, 140, 112
-0.982924, 49, 1, 176, 64
-0.982955, 137, 161, 168, 224
-0.983105, 197, 153, 228, 216
-0.983259, 157, 113, 188, 176
-0.983276, 1, 97, 32, 224
-0.983369, 169, 49, 232, 176
-0.983528, 201, 81, 264, 144
-0.983569, 261, 1, 292, 128
-0.983767, 113, 25, 240, 88
-0.983802, 193, 129, 320, 192
-0.983837, 173, 89, 204, 152
-0.983869, 1, 1, 64, 224
-0.98388, 121, 1, 184, 224
-0.983932, 161, 49, 192, 112
-0.98397, 17, 81, 48, 144
-0.983998, 257, 105, 288, 168
-0.98411, 213, 145, 244, 208
-0.98412, 257, 65, 288, 128
-0.984235, 41, 81, 72, 144
-0.984251, 225, 153, 256, 216
-0.984359, 17, 25, 144, 88
-0.984359, 61, 33, 92, 160
-0.984404, 97, 97, 128, 224
-0.984405, 89, 73, 120, 136
-0.984689, 161, 1, 224, 128
-0.984709, 5, 153, 36, 216
-0.984764, 97, 89, 160, 152
-0.984911, 105, 105, 136, 168
-0.985054, 125, 113, 156, 176
-0.985073, 169, 57, 232, 120
-0.985123, 125, 161, 156, 224
-0.985139, 177, 97, 208, 224
-0.985262, 97, 161, 128, 224
-0.985274, 97, 1, 224, 64
-0.985289, 1, 1, 64, 128
-0.985366, 5, 113, 36, 176
-0.985373, 1, 49, 128, 112
-0.985405, 193, 1, 320, 128
-0.985702, 145, 89, 176, 152
-0.985711, 17, 1, 80, 64
-0.985964, 73, 161, 104, 224
-0.986022, 137, 65, 168, 192
-0.986186, 233, 97, 264, 224
-0.986245, 201, 49, 264, 176
-0.986405, 257, 161, 288, 224
-0.986419, 193, 129, 224, 192
-0.986495, 109, 25, 140, 88
-0.986495, 153, 137, 184, 200
-0.986546, 161, 1, 224, 224
-0.986738, 29, 81, 60, 144
-0.986763, 145, 1, 176, 128
-0.986916, 201, 57, 264, 120
-0.986977, 49, 33, 80, 160
-0.987032, 257, 1, 320, 64
-0.987131, 201, 105, 264, 168
-0.987144, 249, 41, 312, 104
-0.987149, 121, 65, 152, 128
-0.987204, 29, 153, 60, 216
-0.987234, 49, 49, 112, 112
-0.987415, 129, 73, 256, 136
-0.987467, 265, 137, 296, 200
-0.987504, 193, 105, 320, 168
-0.987648, 9, 57, 72, 120
-0.98788, 169, 105, 232, 168
-0.98796, 65, 157, 128, 188
-0.987997, 177, 121, 208, 184
-0.988066, 193, 97, 224, 224
-0.988271, 121, 97, 152, 224
-0.988278, 85, 33, 116, 160
-0.988361, 85, 161, 116, 224
-0.988416, 97, 141, 160, 172
-0.98855, 9, 149, 72, 180
-0.988551, 9, 129, 72, 160
-0.988562, 261, 49, 292, 176
-0.988584, 9, 109, 72, 140
-0.988688, 261, 41, 292, 104
-0.988727, 73, 65, 104, 128
-0.988737, 49, 105, 112, 136
-0.988854, 129, 149, 192, 180
-0.988884, 73, 177, 136, 208
-0.988911, 121, 61, 184, 92
-0.988972, 33, 153, 96, 184
-0.98912, 33, 49, 64, 176
-0.989155, 233, 121, 264, 184
-0.989171, 89, 57, 152, 88
-0.989207, 1, 129, 256, 192
-0.989221, 221, 97, 252, 224
-0.989233, 17, 33, 48, 160
-0.989264, 161, 17, 192, 144
-0.989266, 89, 161, 152, 192
-0.9893, 129, 193, 192, 224
-0.989334, 57, 145, 120, 176
-0.98938, 73, 129, 136, 160
-0.989627, 209, 157, 272, 188
-0.989671, 49, 169, 112, 200
-0.989691, 233, 89, 264, 152
-0.989706, 33, 141, 96, 172
-0.989724, 25, 25, 88, 88
-0.989726, 121, 73, 184, 104
-0.989796, 153, 185, 216, 216
-0.989816, 225, 77, 288, 108
-0.98983, 9, 97, 72, 128
-0.98985, 97, 129, 160, 160
-0.989881, 169, 161, 232, 192
-0.989898, 73, 1, 104, 64
-0.989934, 209, 97, 240, 224
-0.989935, 5, 73, 36, 136
-0.989937, 41, 117, 104, 148
-0.989963, 269, 161, 300, 224
-0.99005, 129, 161, 192, 192
-0.99008, 49, 93, 112, 124
-0.990089, 49, 129, 112, 160
-0.990096, 33, 153, 288, 216
-0.990125, 73, 189, 136, 220
-0.990191, 33, 193, 96, 224
-0.990197, 121, 137, 184, 168
-0.990199, 105, 189, 168, 220
-0.990238, 225, 89, 288, 120
-0.990296, 105, 29, 168, 60
-0.990476, 113, 177, 176, 208
-0.990484, 249, 89, 312, 120
-0.990523, 89, 49, 120, 112
-0.99053, 233, 165, 296, 196
-0.990535, 245, 17, 276, 144
-0.990575, 145, 81, 208, 112
-0.990586, 137, 9, 200, 72
-0.99062, 9, 169, 72, 200
-0.99071, 149, 33, 180, 96
-0.990749, 41, 57, 72, 120
-0.990758, 165, 137, 196, 200
-0.990801, 249, 77, 312, 108
-0.99081, 145, 173, 208, 204
-0.990819, 149, 161, 180, 224
-0.990849, 193, 177, 256, 208
-0.990878, 49, 181, 112, 212
-0.990905, 169, 149, 232, 180
-0.990947, 73, 117, 136, 148
-0.990961, 277, 1, 308, 64
-0.991014, 121, 125, 184, 156
-0.991029, 145, 61, 208, 92
-0.991048, 121, 49, 184, 80
-0.991105, 249, 149, 312, 180
-0.991106, 97, 13, 160, 44
-0.991111, 97, 69, 160, 100
-0.991133, 249, 105, 312, 136
-0.991136, 73, 33, 104, 160
-0.991141, 269, 97, 300, 224
-0.991162, 209, 145, 272, 176
-0.991288, 145, 137, 208, 168
-0.991296, 225, 101, 288, 132
-0.991305, 261, 1, 292, 64
-0.991404, 225, 125, 288, 156
-0.991424, 281, 97, 312, 224
-0.991439, 169, 81, 232, 112
-0.991442, 33, 1, 96, 32
-0.99145, 233, 57, 264, 120
-0.991477, 145, 93, 208, 124
-0.991565, 169, 173, 232, 204
-0.991567, 73, 17, 136, 48
-0.991576, 73, 97, 136, 128
-0.991581, 185, 189, 248, 220
-0.991583, 241, 1, 304, 32
-0.991598, 209, 1, 272, 64
-0.991601, 97, 25, 128, 88
-0.991626, 249, 117, 312, 148
-0.991636, 201, 93, 264, 124
-0.991688, 161, 25, 288, 88
-0.991704, 57, 57, 88, 120
-0.991719, 145, 125, 208, 156
-0.991726, 289, 153, 320, 216
-0.991728, 249, 181, 312, 212
-0.991737, 225, 113, 288, 144
-0.991744, 109, 1, 140, 64
-0.991803, 249, 129, 312, 160
-0.991816, 9, 189, 72, 220
-0.991925, 73, 45, 136, 76
-0.991944, 145, 61, 176, 92
-0.991945, 1, 105, 256, 168
-0.991963, 169, 117, 232, 148
-0.991966, 65, 69, 128, 100
-0.99198, 81, 29, 144, 60
-0.992002, 121, 85, 184, 116
-0.99204, 121, 17, 152, 48
-0.992054, 1, 153, 320, 216
-0.992058, 113, 145, 144, 176
-0.992076, 209, 65, 272, 96
-0.992093, 225, 177, 288, 208
-0.992094, 89, 145, 120, 176
-0.992101, 129, 137, 160, 168
-0.992121, 69, 141, 100, 172
-0.992149, 17, 133, 48, 164
-0.992172, 177, 93, 240, 124
-0.992186, 145, 49, 208, 80
-0.992189, 73, 1, 136, 32
-0.992211, 241, 65, 304, 96
-0.992215, 117, 133, 148, 164
-0.992223, 161, 105, 224, 136
-0.992256, 49, 81, 112, 112
-0.992275, 65, 157, 192, 188
-0.992276, 17, 121, 48, 152
-0.992284, 225, 193, 288, 224
-0.992288, 25, 85, 88, 116
-0.992293, 69, 153, 100, 184
-0.992299, 121, 17, 184, 48
-0.992301, 61, 105, 92, 136
-0.992302, 17, 149, 48, 180
-0.992324, 129, 149, 160, 180
-0.992335, 233, 13, 296, 44
-0.992337, 89, 133, 120, 164
-0.99234, 17, 17, 80, 48
-0.992343, 121, 113, 184, 144
-0.992346, 41, 109, 72, 140
-0.992346, 105, 129, 136, 160
-0.992356, 73, 125, 104, 156
-0.99237, 13, 109, 44, 140
-0.99238, 69, 169, 100, 200
-0.992395, 153, 77, 184, 108
-0.992405, 133, 9, 164, 72
-0.992415, 97, 161, 128, 192
-0.992417, 29, 113, 60, 144
-0.992422, 97, 117, 160, 148
-0.992437, 113, 57, 144, 88
-0.992438, 153, 193, 184, 224
-0.99244, 201, 77, 264, 108
-0.992443, 73, 101, 104, 132
-0.992466, 49, 153, 80, 184
-0.992471, 141, 137, 172, 168
-0.992479, 81, 157, 112, 188
-0.992495, 93, 177, 124, 208
-0.992501, 137, 73, 168, 104
-0.992515, 169, 189, 200, 220
-0.992533, 181, 65, 212, 128
-0.992541, 49, 121, 80, 152
-0.992542, 57, 93, 88, 124
-0.992553, 49, 45, 112, 76
-0.992556, 73, 85, 136, 116
-0.99256, 113, 157, 144, 188
-0.992561, 97, 45, 160, 76
-0.992565, 101, 141, 132, 172
-0.992571, 201, 113, 264, 144
-0.992591, 125, 185, 156, 216
-0.99262, 57, 141, 88, 172
-0.992625, 181, 193, 212, 224
-0.992632, 253, 77, 284, 108
-0.992645, 49, 21, 112, 52
-0.992646, 29, 153, 60, 184
-0.99265, 197, 157, 228, 188
-0.992654, 257, 165, 320, 196
-0.992658, 165, 81, 196, 112
-0.99267, 129, 61, 160, 92
-0.99268, 65, 57, 128, 88
-0.992683, 157, 65, 188, 96
-0.992684, 145, 149, 176, 180
-0.992692, 113, 33, 144, 64
-0.992694, 129, 1, 192, 32
-0.992701, 177, 157, 208, 188
-0.992723, 129, 125, 160, 156
-0.992729, 37, 129, 68, 160
-0.992729, 81, 173, 112, 204
-0.992735, 109, 181, 140, 212
-0.992739, 69, 89, 100, 120
-0.99274, 129, 161, 160, 192
-0.992745, 57, 25, 88, 88
-0.992752, 141, 193, 172, 224
-0.992752, 73, 113, 104, 144
-0.992756, 61, 129, 92, 160
-0.992768, 249, 161, 280, 192
-0.992769, 209, 157, 240, 188
-0.992772, 13, 97, 44, 128
-0.992772, 157, 181, 188, 212
-0.992779, 41, 141, 72, 172
-0.99278, 169, 69, 232, 100
-0.992783, 253, 89, 284, 120
-0.992785, 13, 169, 44, 200
-0.992786, 253, 113, 284, 144
-0.992793, 57, 165, 88, 196
-0.992805, 245, 101, 276, 132
-0.992806, 249, 149, 280, 180
-0.992809, 41, 97, 72, 128
-0.992809, 61, 193, 92, 224
-0.99281, 177, 169, 208, 200
-0.99282, 137, 29, 200, 60
-0.992827, 61, 117, 92, 148
-0.992829, 41, 169, 72, 200
-0.992839, 245, 129, 276, 160
-0.992844, 25, 65, 88, 96
-0.992866, 129, 33, 160, 64
-0.992873, 125, 73, 156, 104
-0.992874, 29, 141, 60, 172
-0.992875, 145, 181, 176, 212
-0.992883, 89, 121, 120, 152
-0.992896, 101, 57, 132, 88
-0.992896, 113, 193, 144, 224
-0.992931, 1, 57, 64, 88
-0.992953, 257, 133, 288, 164
-0.992964, 197, 177, 228, 208
-0.992964, 1, 105, 128, 136
-0.992971, 125, 49, 156, 80
-0.992972, 9, 1, 72, 32
-0.992977, 113, 157, 240, 188
-0.99298, 177, 89, 208, 120
-0.992982, 265, 89, 296, 120
-0.992987, 109, 169, 140, 200
-0.992999, 97, 193, 128, 224
-0.993, 157, 157, 188, 188
-0.993003, 25, 101, 56, 132
-0.993006, 181, 181, 212, 212
-0.993006, 109, 69, 140, 100
-0.993011, 249, 53, 312, 84
-0.993011, 73, 193, 104, 224
-0.993014, 237, 161, 268, 192
-0.993019, 241, 77, 272, 108
-0.993025, 221, 157, 252, 188
-0.993039, 245, 49, 276, 112
-0.993047, 25, 29, 88, 60
-0.993048, 145, 49, 176, 80
-0.99306, 25, 165, 56, 196
-0.993068, 57, 81, 88, 112
-0.993068, 5, 141, 36, 172
-0.993068, 53, 181, 84, 212
-0.993071, 85, 109, 116, 140
-0.993077, 1, 1, 128, 64
-0.993088, 133, 21, 164, 52
-0.99309, 169, 137, 232, 168
-0.99309, 119, 129, 134, 192
-0.99309, 265, 109, 296, 140
-0.993091, 121, 173, 152, 204
-0.993111, 237, 177, 268, 208
-0.993111, 193, 193, 224, 224
-0.993116, 69, 181, 100, 212
-0.993122, 157, 129, 188, 160
-0.993125, 177, 145, 208, 176
-0.99313, 101, 17, 132, 48
-0.993144, 1, 105, 32, 136
-0.993146, 257, 185, 288, 216
-0.99315, 97, 85, 160, 116
-0.993161, 193, 13, 256, 44
-0.993168, 261, 1, 292, 32
-0.993168, 265, 165, 296, 196
-0.99317, 89, 73, 120, 104
-0.993172, 5, 153, 36, 184
-0.993175, 13, 193, 44, 224
-0.993186, 117, 121, 148, 152
-0.993186, 249, 41, 312, 72
-0.993188, 89, 89, 120, 120
-0.993188, 5, 121, 36, 152
-0.993188, 97, 45, 128, 76
-0.993193, 237, 117, 268, 148
-0.993194, 85, 193, 116, 224
-0.993195, 193, 1, 256, 32
-0.993196, 221, 169, 252, 200
-0.993196, 121, 101, 184, 132
-0.993207, 269, 181, 300, 212
-0.993208, 29, 1, 60, 128
-0.993209, 157, 145, 188, 176
-0.993216, 237, 149, 268, 180
-0.993218, 265, 121, 296, 152
-0.993221, 237, 89, 268, 120
-0.99323, 217, 1, 280, 32
-0.993234, 177, 109, 208, 140
-0.993251, 257, 17, 320, 48
-0.993251, 1, 85, 64, 116
-0.993254, 257, 65, 272, 128
-0.993262, 249, 193, 312, 224
-0.993288, 257, 29, 320, 60
-0.993384, 33, 177, 160, 208
-0.993395, 83, 89, 98, 152
-0.993411, 193, 125, 256, 156
-0.993442, 145, 17, 208, 48
-0.993473, 9, 45, 72, 76
-0.9935, 169, 57, 232, 88
-0.993507, 225, 37, 288, 68
-0.993513, 159, 57, 174, 120
-0.99352, 233, 49, 264, 176
-0.993529, 57, 33, 120, 64
-0.993535, 97, 1, 160, 32
-0.993565, 233, 25, 296, 56
-0.99365, 1, 29, 64, 60
-0.993684, 85, 25, 116, 88
-0.993715, 19, 105, 34, 168
-0.993716, 125, 129, 140, 192
-0.993717, 225, 49, 288, 80
-0.993722, 201, 53, 264, 84
-0.993788, 193, 1, 320, 64
-0.993821, 145, 1, 272, 64
-0.993841, 225, 41, 288, 104
-0.993855, 83, 121, 98, 184
-0.993872, 209, 25, 272, 56
-0.993884, 1, 125, 128, 156
-0.993889, 127, 1, 142, 64
-0.993937, 1, 49, 32, 176
-0.993979, 81, 189, 208, 220
-0.993981, 103, 129, 118, 192
-0.994016, 33, 81, 288, 144
-0.994056, 161, 161, 288, 192
-0.994103, 1, 157, 128, 188
-0.994124, 111, 129, 126, 192
-0.994155, 65, 137, 192, 168
-0.994182, 53, 129, 68, 192
-0.994193, 81, 85, 208, 116
-0.994246, 63, 89, 78, 152
-0.994253, 145, 129, 160, 192
-0.994262, 137, 129, 152, 192
-0.994317, 73, 89, 88, 152
-0.994329, 35, 129, 50, 192
-0.994375, 73, 137, 88, 200
-0.994378, 97, 169, 224, 200
-0.994386, 97, 1, 128, 128
-0.9944, 185, 89, 216, 152
-0.994405, 93, 1, 124, 64
-0.994419, 145, 89, 272, 120
-0.99451, 81, 61, 208, 92
-0.994524, 121, 9, 136, 72
-0.994531, 185, 1, 248, 128
-0.994554, 53, 105, 68, 168
-0.994616, 73, 113, 88, 176
-0.99464, 101, 81, 132, 144
-0.994687, 45, 1, 76, 64
-0.994694, 205, 121, 236, 184
-0.994712, 259, 137, 274, 200
-0.994746, 173, 49, 204, 176
-0.994821, 41, 105, 56, 168
-0.994825, 1, 113, 320, 176
-0.994846, 153, 65, 168, 128
-0.99488, 1, 145, 128, 176
-0.994899, 113, 145, 240, 176
-0.994916, 119, 153, 134, 216
-0.994992, 81, 73, 208, 104
-0.995017, 273, 1, 304, 128
-0.99503, 269, 113, 300, 176
-0.995032, 63, 129, 78, 192
-0.99505, 145, 177, 272, 208
-0.995105, 93, 113, 108, 176
-0.995122, 177, 81, 192, 144
-0.995122, 93, 137, 108, 200
-0.995133, 169, 73, 184, 136
-0.995142, 193, 49, 320, 112
-0.995162, 249, 145, 264, 208
-0.995175, 259, 113, 274, 176
-0.99519, 177, 77, 304, 108
-0.995207, 137, 33, 152, 96
-0.995232, 111, 105, 126, 168
-0.99525, 85, 145, 100, 208
-0.995289, 29, 145, 44, 208
-0.995301, 1, 25, 64, 88
-0.995307, 131, 137, 146, 200
-0.995315, 117, 33, 132, 96
-0.995329, 43, 145, 58, 208
-0.995333, 33, 105, 48, 168
-0.995355, 47, 105, 62, 168
-0.995357, 65, 125, 192, 156
-0.995367, 127, 25, 142, 88
-0.995368, 197, 89, 228, 152
-0.995387, 129, 189, 256, 220
-0.99539, 1, 73, 320, 136
-0.995397, 151, 33, 166, 96
-0.995407, 133, 1, 148, 64
-0.995409, 1, 93, 128, 124
-0.995454, 185, 161, 200, 224
-0.995476, 161, 81, 176, 144
-0.995477, 259, 89, 274, 152
-0.995485, 129, 73, 256, 104
-0.995545, 33, 193, 160, 224
-0.99555, 1, 1, 32, 128
-0.995571, 65, 161, 80, 224
-0.995572, 125, 153, 140, 216
-0.995579, 193, 153, 208, 216
-0.995607, 33, 77, 160, 108
-0.995615, 145, 121, 272, 152
-0.995636, 65, 97, 192, 128
-0.995643, 171, 161, 186, 224
-0.995659, 193, 177, 320, 208
-0.995694, 13, 1, 44, 64
-0.995722, 111, 153, 126, 216
-0.995748, 63, 65, 78, 128
-0.995767, 241, 145, 256, 208
-0.995777, 161, 25, 224, 88
-0.995779, 235, 145, 250, 208
-0.995803, 177, 145, 192, 208
-0.995825, 177, 109, 304, 140
-0.995842, 151, 137, 166, 200
-0.995844, 21, 129, 36, 192
-0.995866, 199, 153, 214, 216
-0.995872, 177, 149, 304, 180
-0.995931, 267, 121, 282, 184
-0.99595, 27, 121, 42, 184
-0.995987, 233, 1, 264, 128
-0.9961, 19, 153, 34, 216
-0.99611, 9, 121, 24, 184
-0.996115, 31, 81, 46, 144
-0.996133, 269, 65, 300, 128
-0.996158, 93, 65, 108, 128
-0.996178, 215, 153, 230, 216
-0.996206, 193, 89, 320, 120
-0.996207, 33, 57, 160, 88
-0.996253, 225, 153, 240, 216
-0.996253, 177, 137, 304, 168
-0.996254, 55, 153, 70, 216
-0.996255, 73, 161, 88, 224
-0.996258, 33, 21, 160, 52
-0.996263, 143, 25, 158, 88
-0.996279, 79, 153, 94, 216
-0.996308, 143, 57, 158, 120
-0.996318, 17, 81, 32, 144
-0.996353, 53, 81, 68, 144
-0.996366, 93, 89, 108, 152
-0.996371, 171, 113, 186, 176
-0.996405, 113, 133, 240, 164
-0.996413, 145, 61, 272, 92
-0.996428, 155, 161, 170, 224
-0.996444, 249, 81, 264, 144
-0.996459, 137, 145, 152, 176
-0.996469, 147, 161, 162, 224
-0.996479, 73, 25, 104, 88
-0.996498, 249, 1, 280, 64
-0.996504, 25, 97, 40, 160
-0.996514, 35, 153, 50, 216
-0.996519, 1, 25, 320, 88
-0.996533, 65, 109, 192, 140
-0.996541, 121, 105, 136, 168
-0.996544, 81, 33, 208, 64
-0.99656, 193, 65, 224, 128
-0.996562, 285, 17, 316, 144
-0.996564, 169, 49, 184, 112
-0.996576, 249, 105, 264, 168
-0.99658, 277, 137, 308, 200
-0.99659, 165, 153, 180, 216
-0.996602, 97, 25, 112, 88
-0.996626, 13, 145, 28, 208
-0.99664, 221, 121, 252, 184
-0.996641, 49, 45, 176, 76
-0.99667, 141, 153, 156, 216
-0.99669, 47, 81, 62, 144
-0.996694, 119, 129, 134, 160
-0.996742, 65, 49, 320, 112
-0.996744, 105, 153, 120, 216
-0.996772, 143, 133, 158, 164
-0.996784, 199, 129, 214, 192
-0.996791, 183, 81, 198, 144
-0.996794, 159, 61, 174, 92
-0.996798, 177, 121, 192, 184
-0.996812, 205, 153, 220, 216
-0.996878, 259, 161, 274, 224
-0.996883, 1, 25, 32, 88
-0.996887, 267, 97, 282, 160
-0.996888, 33, 25, 288, 88
-0.996914, 193, 189, 320, 220
-0.996918, 269, 161, 284, 224
-0.996928, 129, 89, 160, 152
-0.996941, 83, 101, 98, 132
-0.996972, 17, 105, 32, 136
-0.996982, 237, 1, 268, 224
-0.996986, 89, 1, 120, 224
-0.996995, 137, 57, 152, 120
-0.997013, 269, 89, 300, 152
-0.997013, 131, 113, 146, 176
-0.997018, 69, 1, 100, 224
-0.997023, 273, 1, 288, 64
-0.997029, 129, 137, 144, 168
-0.99704, 121, 1, 152, 224
-0.997041, 127, 49, 142, 112
-0.997045, 15, 57, 30, 120
-0.997046, 111, 33, 126, 96
-0.997049, 73, 109, 88, 140
-0.99706, 257, 73, 272, 104
-0.997072, 9, 97, 24, 160
-0.997079, 49, 161, 64, 224
-0.997115, 103, 145, 118, 176
-0.997139, 109, 137, 124, 168
-0.997144, 285, 81, 316, 144
-0.997158, 247, 57, 262, 120
-0.997177, 13, 33, 44, 96
-0.997185, 267, 73, 282, 136
-0.997189, 83, 65, 98, 128
-0.99719, 41, 81, 56, 144
-0.997191, 129, 157, 144, 188
-0.997218, 193, 129, 208, 192
-0.997226, 97, 21, 224, 52
-0.997231, 31, 113, 46, 144
-0.997239, 41, 109, 56, 140
-0.997265, 107, 125, 122, 156
-0.997265, 131, 161, 146, 224
-0.997274, 73, 165, 88, 196
-0.997283, 53, 109, 68, 140
-0.997301, 193, 121, 320, 152
-0.997309, 57, 1, 88, 224
-0.997311, 63, 93, 78, 124
-0.997312, 21, 1, 52, 224
-0.997313, 63, 157, 78, 188
-0.997317, 99, 105, 114, 168
-0.997326, 159, 33, 174, 96
-0.99733, 71, 65, 86, 128
-0.99733, 167, 81, 182, 112
-0.99733, 119, 149, 134, 180
-0.997332, 123, 25, 138, 56
-0.997344, 1, 1, 320, 64
-0.997345, 145, 1, 176, 64
-0.99735, 139, 29, 154, 60
-0.997362, 147, 145, 162, 176
-0.997367, 73, 153, 88, 184
-0.99738, 101, 65, 116, 128
-0.997381, 65, 17, 80, 80
-0.997387, 103, 165, 118, 196
-0.997393, 89, 1, 104, 64
-0.997396, 289, 129, 320, 192
-0.997399, 33, 9, 160, 40
-0.997418, 257, 85, 272, 116
-0.997418, 167, 193, 182, 224
-0.997419, 223, 129, 238, 192
-0.997428, 73, 141, 88, 172
-0.99743, 139, 105, 154, 168
-0.997431, 265, 49, 280, 112
-0.997441, 183, 137, 198, 200
-0.997462, 63, 129, 78, 160
-0.997466, 201, 105, 216, 168
-0.997471, 21, 153, 36, 184
-0.997473, 151, 105, 166, 168
-0.997477, 149, 61, 164, 92
-0.997477, 33, 149, 48, 180
-0.997491, 115, 9, 130, 72
-0.997495, 113, 49, 240, 80
-0.997496, 175, 85, 190, 116
-0.997498, 139, 65, 154, 96
-0.997498, 45, 25, 76, 88
-0.997499, 117, 33, 132, 64
-0.9975, 141, 1, 172, 224
-0.997503, 23, 65, 38, 128
-0.997507, 47, 109, 62, 140
-0.997521, 93, 141, 108, 172
-0.997525, 129, 17, 144, 48
-0.997532, 9, 73, 24, 136
-0.997543, 265, 1, 296, 224
-0.997545, 279, 1, 294, 64
-0.997555, 93, 153, 108, 184
-0.997556, 41, 153, 56, 184
-0.99756, 63, 105, 78, 136
-0.997566, 175, 193, 190, 224
-0.997567, 83, 121, 98, 152
-0.997576, 117, 189, 132, 220
-0.997587, 211, 129, 226, 192
-0.997589, 275, 161, 290, 224
-0.997593, 273, 137, 288, 200
-0.997593, 135, 17, 150, 48
-0.9976, 125, 57, 140, 88
-0.997604, 153, 77, 168, 108
-0.997609, 11, 33, 26, 96
-0.997609, 41, 133, 56, 164
-0.997616, 259, 129, 274, 160
-0.99762, 221, 1, 252, 128
-0.997628, 83, 133, 98, 164
-0.997631, 117, 177, 132, 208
-0.997633, 185, 189, 200, 220
-0.997651, 53, 141, 68, 172
-0.997664, 73, 193, 88, 224
-0.997666, 161, 77, 176, 108
-0.997667, 53, 97, 68, 128
-0.997668, 191, 189, 206, 220
-0.997675, 161, 189, 176, 220
-0.997694, 273, 49, 304, 176
-0.997697, 109, 157, 124, 188
-0.997699, 211, 157, 226, 188
-0.99771, 103, 177, 118, 208
-0.997713, 259, 145, 274, 176
-0.997719, 133, 61, 148, 92
-0.997724, 193, 157, 208, 188
-0.997724, 137, 157, 152, 188
-0.99773, 87, 153, 102, 184
-0.997753, 111, 177, 126, 208
-0.997763, 79, 153, 94, 184
-0.997764, 37, 121, 52, 152
-0.997764, 153, 141, 168, 172
-0.997775, 137, 133, 152, 164
-0.997792, 27, 153, 42, 184
-0.997792, 45, 121, 60, 152
-0.997797, 131, 125, 146, 156
-0.997807, 221, 157, 236, 188
-0.997811, 189, 49, 220, 176
-0.997813, 73, 121, 88, 152
-0.997817, 19, 121, 34, 152
-0.997826, 119, 53, 134, 84
-0.997827, 83, 165, 98, 196
-0.997828, 121, 13, 136, 44
-0.997828, 29, 1, 60, 64
-0.99783, 259, 97, 274, 128
-0.997835, 259, 117, 274, 148
-0.997837, 101, 133, 116, 164
-0.99784, 53, 125, 68, 156
-0.99785, 203, 157, 218, 188
-0.997857, 173, 181, 188, 212
-0.997862, 73, 93, 88, 124
-0.997873, 63, 141, 78, 172
-0.997874, 237, 1, 268, 64
-0.997875, 97, 9, 224, 40
-0.997888, 31, 133, 46, 164
-0.997889, 21, 169, 36, 200
-0.997905, 187, 157, 202, 188
-0.997929, 97, 173, 112, 204
-0.997935, 63, 169, 78, 200
-0.99794, 259, 161, 274, 192
-0.997945, 91, 173, 106, 204
-0.997968, 63, 117, 78, 148
-0.99798, 181, 169, 196, 200
-0.997988, 161, 49, 288, 80
-0.99799, 201, 33, 264, 96
-0.997998, 123, 165, 138, 196
-0.998004, 29, 101, 44, 132
-0.998008, 55, 169, 70, 200
-0.998009, 93, 125, 108, 156
-0.998013, 55, 157, 70, 188
-0.998017, 181, 89, 196, 120
-0.998021, 267, 81, 282, 112
-0.998033, 63, 81, 78, 112
-0.998052, 41, 1, 72, 224
-0.998056, 189, 177, 204, 208
-0.998064, 33, 33, 160, 64
-0.99808, 273, 1, 288, 32
-0.998086, 25, 117, 40, 148
-0.998094, 111, 53, 126, 84
-0.998101, 155, 189, 170, 220
-0.998105, 151, 49, 166, 80
-0.998114, 123, 177, 138, 208
-0.998116, 147, 185, 162, 216
-0.998116, 65, 1, 320, 64
-0.998118, 89, 101, 104, 132
-0.998118, 115, 161, 130, 192
-0.998122, 143, 157, 158, 188
-0.998129, 85, 89, 100, 120
-0.998131, 251, 161, 266, 192
-0.998135, 227, 157, 242, 188
-0.998149, 19, 133, 34, 164
-0.998156, 267, 109, 282, 140
-0.998164, 267, 125, 282, 156
-0.998168, 127, 193, 142, 224
-0.998171, 65, 181, 80, 212
-0.998171, 145, 29, 160, 60
-0.99818, 107, 193, 122, 224
-0.998183, 173, 157, 188, 188
-0.998184, 179, 157, 194, 188
-0.99819, 127, 5, 142, 36
-0.998259, 289, 41, 320, 104
-0.998268, 157, 1, 188, 224
-0.998314, 193, 9, 320, 40
-0.998356, 201, 49, 232, 176
-0.998362, 9, 153, 72, 168
-0.998369, 121, 63, 184, 78
-0.998374, 1, 1, 32, 224
-0.998378, 209, 161, 272, 176
-0.998378, 65, 159, 128, 174
-0.998381, 1, 49, 320, 112
-0.998394, 177, 161, 240, 176
-0.998399, 109, 1, 140, 224
-0.998409, 97, 159, 160, 174
-0.998413, 1, 45, 128, 76
-0.99842, 169, 207, 200, 222
-0.998422, 85, 181, 116, 196
-0.998423, 41, 119, 72, 134
-0.998423, 9, 135, 72, 150
-0.998425, 101, 127, 132, 142
-0.998427, 209, 167, 240, 182
-0.998428, 49, 173, 112, 188
-0.99843, 49, 103, 112, 118
-0.99843, 33, 157, 96, 172
-0.99843, 101, 29, 132, 44
-0.998431, 153, 91, 184, 106
-0.998431, 189, 169, 220, 184
-0.998432, 113, 193, 176, 208
-0.998434, 29, 145, 60, 160
-0.998436, 153, 187, 184, 202
-0.998437, 253, 135, 284, 150
-0.99844, 113, 191, 144, 206
-0.99844, 245, 95, 276, 110
-0.998441, 105, 199, 136, 214
-0.998444, 257, 175, 288, 190
-0.998444, 61, 199, 92, 214
-0.998444, 29, 155, 60, 170
-0.998446, 41, 149, 72, 164
-0.998446, 81, 125, 112, 140
-0.998447, 253, 123, 284, 138
-0.998447, 61, 177, 92, 192
-0.998447, 25, 163, 88, 178
-0.998447, 153, 199, 184, 214
-0.998448, 101, 187, 132, 202
-0.998449, 109, 59, 140, 74
-0.998449, 81, 165, 144, 180
-0.998449, 9, 145, 72, 160
-0.99845, 113, 109, 240, 140
-0.998454, 9, 109, 72, 124
-0.998455, 253, 117, 284, 132
-0.998455, 249, 167, 280, 182
-0.998456, 253, 107, 284, 122
-0.998456, 137, 151, 168, 166
-0.998457, 157, 161, 188, 176
-0.998457, 9, 121, 72, 136
-0.998458, 113, 149, 144, 164
-0.998459, 61, 135, 92, 150
-0.998459, 177, 179, 208, 194
-0.99846, 177, 169, 208, 184
-0.99846, 81, 133, 144, 148
-0.998461, 13, 169, 44, 184
-0.998463, 89, 163, 120, 178
-0.998465, 73, 113, 104, 128
-0.998467, 33, 149, 96, 164
-0.998468, 245, 129, 276, 144
-0.998469, 41, 143, 72, 158
-0.998469, 29, 163, 60, 178
-0.998471, 121, 69, 184, 84
-0.998471, 53, 129, 84, 144
-0.998472, 49, 131, 112, 146
-0.998472, 109, 65, 140, 80
-0.998472, 89, 61, 152, 76
-0.998477, 137, 161, 200, 176
-0.998477, 225, 91, 288, 106
-0.998477, 253, 83, 284, 98
-0.998478, 81, 151, 112, 166
-0.998478, 37, 101, 68, 116
-0.998478, 113, 179, 144, 194
-0.998478, 57, 153, 120, 168
-0.99848, 9, 127, 72, 142
-0.998481, 177, 189, 208, 204
-0.998481, 193, 207, 224, 222
-0.998481, 41, 167, 72, 182
-0.998483, 121, 59, 152, 74
-0.998483, 105, 143, 168, 158
-0.998483, 49, 107, 80, 122
-0.998484, 41, 131, 72, 146
-0.998484, 253, 77, 284, 92
-0.998485, 129, 33, 160, 48
-0.998486, 145, 195, 208, 210
-0.998486, 145, 189, 208, 204
-0.998486, 177, 209, 240, 224
-0.998487, 57, 147, 88, 162
-0.998489, 209, 167, 272, 182
-0.998491, 73, 165, 104, 180
-0.998492, 113, 71, 144, 86
-0.998492, 245, 89, 276, 104
-0.998492, 53, 123, 84, 138
-0.998492, 53, 209, 84, 224
-0.998493, 61, 117, 92, 132
-0.998494, 165, 91, 196, 106
-0.998497, 81, 143, 112, 158
-0.998497, 233, 163, 264, 178
-0.998498, 125, 187, 156, 202
-0.998499, 49, 97, 112, 112
-0.9985, 49, 113, 112, 128
-0.998501, 165, 191, 196, 206
-0.998502, 125, 149, 156, 164
-0.998503, 57, 141, 88, 156
-0.998504, 121, 131, 152, 146
-0.998506, 65, 179, 128, 194
-0.998507, 41, 121, 104, 136
-0.998507, 125, 71, 156, 86
-0.998507, 245, 101, 276, 116
-0.998508, 69, 127, 100, 142
-0.998509, 73, 203, 136, 218
-0.998511, 69, 207, 100, 222
-0.998512, 77, 173, 108, 188
-0.998512, 13, 109, 44, 124
-0.998513, 165, 197, 196, 212
-0.998514, 209, 161, 240, 176
-0.998516, 225, 97, 288, 112
-0.998516, 89, 149, 152, 164
-0.998519, 113, 137, 176, 152
-0.99852, 13, 119, 44, 134
-0.998524, 121, 15, 152, 30
-0.998525, 97, 179, 128, 194
-0.998525, 121, 75, 184, 90
-0.998525, 77, 135, 108, 150
-0.998526, 49, 173, 80, 188
-0.998526, 25, 99, 88, 114
-0.998527, 181, 201, 212, 216
-0.998528, 17, 153, 48, 168
-0.998529, 29, 121, 60, 136
-0.99853, 49, 161, 80, 176
-0.998532, 149, 79, 180, 94
-0.998534, 89, 69, 152, 84
-0.998534, 49, 167, 112, 182
-0.998534, 41, 125, 72, 140
-0.998537, 125, 193, 156, 208
-0.998537, 249, 89, 312, 104
-0.998537, 137, 201, 200, 216
-0.998537, 177, 169, 240, 184
-0.99854, 49, 143, 112, 158
-0.99854, 249, 161, 280, 176
-0.998542, 121, 21, 152, 36
-0.998542, 81, 141, 144, 156
-0.998542, 241, 163, 304, 178
-0.998542, 213, 209, 244, 224
-0.998542, 97, 147, 128, 162
-0.998543, 49, 155, 80, 170
-0.998544, 69, 97, 100, 112
-0.998544, 117, 29, 148, 44
-0.998545, 105, 187, 168, 202
-0.998546, 17, 135, 48, 150
-0.998547, 161, 89, 224, 104
-0.998548, 73, 119, 104, 134
-0.998548, 193, 179, 256, 194
-0.99855, 133, 1, 148, 128
-0.998553, 149, 69, 180, 84
-0.998554, 129, 83, 192, 98
-0.998554, 89, 131, 120, 146
-0.998557, 201, 95, 264, 110
-0.998558, 113, 151, 176, 166
-0.998558, 105, 33, 168, 48
-0.998558, 73, 127, 136, 142
-0.998559, 89, 177, 152, 192
-0.998559, 153, 193, 184, 208
-0.99856, 169, 179, 232, 194
-0.99856, 113, 57, 176, 72
-0.99856, 25, 173, 88, 188
-0.998561, 57, 99, 88, 114
-0.998561, 137, 155, 200, 170
-0.998563, 137, 89, 200, 104
-0.998563, 33, 209, 96, 224
-0.998563, 129, 143, 192, 158
-0.998564, 73, 185, 136, 200
-0.998564, 25, 127, 56, 142
-0.998565, 145, 17, 272, 48
-0.998565, 177, 195, 208, 210
-0.998566, 101, 139, 132, 154
-0.998568, 241, 83, 304, 98
-0.998568, 259, 65, 274, 192
-0.998568, 113, 27, 176, 42
-0.998569, 137, 143, 168, 158
-0.998569, 221, 161, 252, 176
-0.998574, 233, 169, 296, 184
-0.998576, 169, 191, 232, 206
-0.998577, 1, 115, 64, 130
-0.998577, 17, 163, 48, 178
-0.998577, 113, 209, 176, 224
-0.998577, 97, 13, 160, 28
-0.998579, 129, 159, 160, 174
-0.998579, 145, 183, 208, 198
-0.998579, 141, 193, 172, 208
-0.99858, 101, 159, 132, 174
-0.998582, 249, 111, 312, 126
-0.998584, 77, 159, 108, 174
-0.998584, 125, 65, 156, 80
-0.998585, 61, 163, 92, 178
-0.998586, 113, 159, 144, 174
-0.998588, 1, 103, 64, 118
-0.998588, 225, 75, 288, 90
-0.998589, 73, 195, 136, 210
-0.998589, 249, 99, 312, 114
-0.998594, 1, 165, 64, 180
-0.998595, 161, 85, 192, 100
-0.998595, 33, 199, 96, 214
-0.998596, 225, 209, 288, 224
-0.998596, 57, 209, 120, 224
-0.998596, 209, 155, 272, 170
-0.998597, 145, 63, 208, 78
-0.998597, 145, 69, 208, 84
-0.998599, 197, 161, 228, 176
-0.9986, 249, 105, 312, 120
-0.998601, 225, 111, 288, 126
-0.998602, 169, 185, 232, 200
-0.998602, 33, 137, 96, 152
-0.998603, 65, 121, 128, 136
-0.998603, 153, 95, 216, 110
-0.998603, 61, 169, 92, 184
-0.998605, 121, 131, 184, 146
-0.998605, 225, 103, 288, 118
-0.998606, 13, 125, 44, 140
-0.998606, 177, 155, 240, 170
-0.998606, 81, 35, 144, 50
-0.99861, 153, 169, 216, 184
-0.998611, 73, 103, 136, 118
-0.998611, 225, 123, 288, 138
-0.998611, 249, 175, 312, 190
-0.998612, 177, 161, 208, 176
-0.998612, 69, 141, 100, 156
-0.998612, 153, 209, 216, 224
-0.998612, 41, 1, 104, 16
-0.998612, 225, 129, 288, 144
-0.998613, 69, 105, 100, 120
-0.998614, 129, 167, 192, 182
-0.998614, 161, 203, 224, 218
-0.998614, 137, 73, 168, 88
-0.998615, 61, 157, 92, 172
-0.998617, 1, 171, 64, 186
-0.998617, 113, 199, 176, 214
-0.998619, 145, 77, 208, 92
-0.99862, 65, 23, 128, 38
-0.99862, 81, 111, 144, 126
-0.99862, 69, 151, 100, 166
-0.99862, 105, 165, 168, 180
-0.998621, 249, 129, 312, 144
-0.998623, 225, 179, 288, 194
-0.998624, 201, 209, 264, 224
-0.998624, 33, 191, 96, 206
-0.998625, 89, 55, 152, 70
-0.998626, 117, 143, 148, 158
-0.998626, 249, 75, 312, 90
-0.998627, 89, 157, 120, 172
-0.998628, 57, 137, 120, 152
-0.998631, 9, 209, 72, 224
-0.998631, 169, 197, 232, 212
-0.998631, 233, 157, 296, 172
-0.998632, 201, 89, 264, 104
-0.998632, 25, 23, 88, 38
-0.998633, 81, 29, 144, 44
-0.998634, 161, 117, 224, 132
-0.998635, 225, 135, 288, 150
-0.998635, 89, 209, 152, 224
-0.998635, 49, 91, 112, 106
-0.998636, 249, 123, 312, 138
-0.998637, 233, 5, 296, 20
-0.998638, 137, 149, 200, 164
-0.998644, 109, 133, 140, 148
-0.998655, 89, 137, 120, 152
-0.99867, 73, 97, 88, 224
-0.998677, 145, 63, 176, 78
-0.998677, 253, 1, 284, 224
-0.998691, 133, 137, 164, 152
-0.998694, 1, 1, 32, 64
-0.998705, 63, 81, 78, 208
-0.998707, 225, 1, 256, 224
-0.998724, 85, 81, 100, 208
-0.998732, 129, 33, 256, 64
-0.998787, 27, 81, 42, 208
-0.998796, 53, 97, 68, 224
-0.998802, 19, 97, 34, 224
-0.998832, 245, 25, 276, 88
-0.998857, 157, 49, 172, 176
-0.998915, 121, 1, 136, 128
-0.998927, 37, 81, 52, 208
-0.998955, 43, 81, 58, 208
-0.998968, 151, 65, 166, 192
-0.998976, 63, 33, 78, 160
-0.99898, 163, 49, 178, 176
-0.999022, 127, 1, 142, 128
-0.999034, 249, 81, 264, 208
-0.999037, 109, 81, 124, 208
-0.999045, 181, 1, 212, 224
-0.999071, 91, 81, 106, 208
-0.999111, 141, 1, 156, 128
-0.999117, 169, 65, 184, 192
-0.999117, 125, 81, 140, 208
-0.999133, 115, 33, 130, 160
-0.999137, 141, 81, 156, 208
-0.999151, 79, 97, 94, 224
-0.999156, 209, 89, 240, 152
-0.999179, 135, 65, 150, 192
-0.999184, 267, 97, 282, 224
-0.999186, 175, 65, 190, 192
-0.999229, 289, 105, 320, 168
-0.999237, 145, 1, 272, 32
-0.999237, 275, 1, 290, 128
-0.999238, 163, 97, 178, 224
-0.999244, 13, 97, 28, 224
-0.999276, 97, 65, 112, 192
-0.999279, 103, 81, 118, 208
-0.999286, 209, 1, 240, 224
-0.9993, 115, 97, 130, 224
-0.999312, 57, 17, 72, 144
-0.999313, 29, 57, 60, 120
-0.999326, 21, 49, 36, 176
-0.999329, 79, 49, 94, 176
-0.999333, 199, 97, 214, 224
-0.999338, 267, 33, 282, 160
-0.999338, 151, 1, 166, 128
-0.999341, 165, 1, 180, 128
-0.999346, 109, 33, 124, 160
-0.999364, 69, 17, 84, 144
-0.999371, 193, 37, 320, 68
-0.999377, 243, 97, 258, 224
-0.999415, 157, 1, 172, 128
-0.999417, 197, 1, 228, 224
-0.999418, 51, 49, 66, 176
-0.999424, 33, 33, 48, 160
-0.999426, 181, 81, 196, 208
-0.999431, 223, 97, 238, 224
-0.999432, 257, 17, 272, 144
-0.999435, 299, 97, 314, 224
-0.999437, 237, 97, 252, 224
-0.999438, 217, 1, 248, 64
-0.999446, 189, 97, 204, 224
-0.999453, 103, 33, 118, 160
-0.999454, 193, 61, 320, 92
-0.999456, 91, 33, 106, 160
-0.999476, 277, 97, 292, 224
-0.999479, 305, 97, 320, 224
-0.999481, 43, 33, 58, 160
-0.999488, 231, 97, 246, 224
-0.999488, 249, 1, 264, 128
-0.999491, 283, 33, 298, 160
-0.999506, 7, 65, 22, 192
-0.99951, 209, 97, 224, 224
-0.99951, 161, 25, 192, 88
-0.999511, 289, 17, 320, 80
-0.999525, 27, 33, 42, 160
-0.999536, 283, 97, 298, 224
-0.999538, 157, 97, 172, 224
-0.999547, 293, 97, 308, 224
-0.999553, 217, 97, 232, 224
-0.999584, 13, 33, 28, 160
-0.999595, 281, 1, 312, 224
-0.999605, 85, 33, 100, 160
-0.999608, 289, 1, 304, 128
-0.999624, 171, 17, 186, 144
-0.999635, 273, 41, 304, 104
-0.999638, 109, 145, 124, 160
-0.999639, 85, 119, 100, 134
-0.99964, 169, 91, 184, 106
-0.999641, 259, 151, 274, 166
-0.999641, 171, 199, 186, 214
-0.999641, 19, 131, 34, 146
-0.999641, 267, 131, 282, 146
-0.999641, 83, 97, 98, 112
-0.999642, 47, 151, 62, 166
-0.999643, 127, 149, 142, 164
-0.999643, 259, 107, 274, 122
-0.999643, 151, 69, 166, 84
-0.999643, 123, 159, 138, 174
-0.999644, 185, 199, 200, 214
-0.999645, 33, 165, 48, 180
-0.999645, 243, 1, 258, 128
-0.999645, 237, 161, 252, 176
-0.999646, 259, 129, 274, 144
-0.999647, 191, 197, 206, 212
-0.999647, 57, 209, 72, 224
-0.999649, 19, 151, 34, 166
-0.999649, 183, 91, 198, 106
-0.999649, 63, 151, 78, 166
-0.999649, 123, 25, 138, 40
-0.99965, 83, 141, 98, 156
-0.999651, 257, 95, 272, 110
-0.999651, 139, 73, 154, 88
-0.999652, 63, 103, 78, 118
-0.999653, 113, 181, 128, 196
-0.999653, 83, 149, 98, 164
-0.999653, 63, 79, 78, 94
-0.999653, 27, 165, 42, 180
-0.999654, 115, 149, 130, 164
-0.999654, 53, 109, 68, 124
-0.999654, 251, 161, 266, 176
-0.999656, 161, 77, 176, 92
-0.999656, 117, 189, 132, 204
-0.999657, 257, 81, 272, 96
-0.999658, 257, 87, 272, 102
-0.999658, 187, 161, 202, 176
-0.999658, 17, 125, 32, 140
-0.999658, 175, 191, 190, 206
-0.999659, 43, 133, 58, 148
-0.999659, 21, 157, 36, 172
-0.999661, 259, 137, 274, 152
-0.999661, 259, 143, 274, 158
-0.999662, 17, 109, 32, 124
-0.999662, 63, 97, 78, 112
-0.999662, 195, 203, 210, 218
-0.999663, 83, 131, 98, 146
-0.999664, 55, 173, 70, 188
-0.999664, 43, 125, 58, 140
-0.999665, 151, 61, 166, 76
-0.999665, 147, 143, 162, 158
-0.999665, 107, 129, 122, 144
-0.999666, 185, 189, 200, 204
-0.999666, 73, 97, 88, 112
-0.999666, 91, 175, 106, 190
-0.999668, 93, 139, 108, 154
-0.999668, 19, 163, 34, 178
-0.999668, 129, 63, 144, 78
-0.999668, 63, 143, 78, 158
-0.999669, 49, 1, 64, 128
-0.99967, 137, 149, 152, 164
-0.999671, 229, 159, 244, 174
-0.999671, 277, 49, 292, 176
-0.999672, 85, 103, 100, 118
-0.999673, 53, 147, 68, 162
-0.999673, 81, 165, 96, 180
-0.999674, 259, 101, 274, 116
-0.999675, 243, 161, 258, 176
-0.999676, 97, 17, 112, 144
-0.999676, 139, 141, 154, 156
-0.999676, 99, 157, 114, 172
-0.999677, 223, 209, 238, 224
-0.999677, 203, 161, 218, 176
-0.999678, 179, 161, 194, 176
-0.99968, 73, 105, 88, 120
-0.99968, 53, 123, 68, 138
-0.99968, 259, 157, 274, 172
-0.999681, 83, 113, 98, 128
-0.999682, 63, 163, 78, 178
-0.999683, 131, 135, 146, 150
-0.999683, 63, 157, 78, 172
-0.999684, 63, 169, 78, 184
-0.999686, 117, 139, 132, 154
-0.999688, 87, 157, 102, 172
-0.999689, 71, 169, 86, 184
-0.99969, 137, 159, 152, 174
-0.999691, 41, 153, 56, 168
-0.999695, 73, 151, 88, 166
-0.9997, 147, 191, 162, 206
-0.999701, 33, 151, 48, 166
-0.999702, 79, 159, 94, 174
-0.999702, 163, 83, 178, 98
-0.999703, 73, 163, 88, 178
-0.999704, 217, 209, 232, 224
-0.999704, 193, 161, 208, 176
-0.999706, 127, 141, 142, 156
-0.999706, 73, 115, 88, 130
-0.999706, 37, 127, 52, 142
-0.999707, 189, 49, 204, 176
-0.999708, 41, 119, 56, 134
-0.99971, 101, 179, 116, 194
-0.999711, 159, 69, 174, 84
-0.999712, 137, 67, 152, 82
-0.999712, 79, 121, 94, 136
-0.999712, 129, 159, 144, 174
-0.999713, 73, 127, 88, 142
-0.999717, 117, 157, 132, 172
-0.999718, 109, 139, 124, 154
-0.999718, 73, 139, 88, 154
-0.999718, 177, 87, 192, 102
-0.999719, 31, 121, 46, 136
-0.999719, 129, 11, 144, 26
-0.99972, 213, 161, 228, 176
-0.999722, 41, 145, 56, 160
-0.999724, 223, 161, 238, 176
-0.999725, 191, 191, 206, 206
-0.999726, 27, 127, 42, 142
-0.999726, 103, 135, 118, 150
-0.999728, 73, 157, 88, 172
-0.999729, 155, 193, 170, 208
-0.999729, 199, 49, 214, 176
-0.999734, 159, 63, 174, 78
-0.999736, 143, 63, 158, 78
-0.999739, 169, 85, 184, 100
-0.999744, 121, 133, 136, 148
-0.999747, 165, 195, 180, 210
-0.999748, 93, 157, 108, 172
-0.999751, 173, 41, 204, 104
-0.999755, 139, 33, 154, 48
-0.999759, 257, 75, 272, 90
-0.999761, 177, 17, 192, 144
-0.999761, 289, 49, 304, 176
-0.999764, 7, 17, 22, 144
-0.999767, 143, 135, 158, 150
-0.999771, 121, 31, 136, 46
-0.999772, 105, 157, 120, 172
-0.999776, 1, 1, 16, 128
-0.999781, 193, 21, 320, 52
-0.999781, 129, 69, 144, 84
-0.999789, 295, 1, 310, 128
-0.999797, 19, 1, 34, 128
-0.999802, 237, 1, 252, 128
-0.999824, 301, 1, 316, 128
-0.999826, 243, 49, 258, 176
-0.99983, 203, 1, 218, 128
-0.99984, 169, 1, 200, 224
-0.999853, 79, 1, 94, 128
-0.999862, 299, 49, 314, 176
-0.999871, 195, 1, 210, 128
-0.999875, 205, 49, 220, 176
-0.999881, 183, 17, 198, 144
-0.999907, 1, 81, 16, 208
-0.999915, 231, 1, 246, 128
-0.99992, 209, 1, 224, 128
-0.999935, 211, 49, 226, 176
-0.999952, 305, 49, 320, 176
-0.999993, 217, 49, 232, 176
-1.00002, 225, 1, 240, 128
-1.00002, 189, 1, 204, 128
-1.00002, 233, 49, 248, 176
-1.00006, 217, 1, 232, 128
-1.00009, 227, 49, 242, 176
-1.00022, 209, 57, 240, 120
-1.00034, 17, 57, 48, 120
-1.00036, 1, 49, 32, 112
-1.00064, 169, 1, 232, 64
-1.00073, 177, 1, 208, 128
-1.00075, 57, 1, 88, 64
-1.00085, 117, 89, 148, 152
-1.00098, 25, 25, 56, 88
-1.001, 201, 1, 232, 128
-1.00109, 221, 73, 252, 136
-1.00123, 233, 33, 264, 96
-1.00143, 189, 1, 220, 128
-1.00217, 189, 41, 220, 104
-1.00395, 213, 49, 244, 176
