1880
-0.395927, 1, 1, 500, 333
-0.401983, 129, 1, 384, 333
-0.41615, 1, 65, 500, 320
-0.557086, 1, 1, 256, 333
-0.566495, 129, 33, 384, 288
-0.589862, 225, 1, 480, 333
-0.735881, 33, 1, 288, 256
-0.767876, 225, 65, 480, 320
-0.849661, 177, 1, 304, 256
-0.871378, 145, 1, 272, 333
-0.875753, 225, 65, 352, 320
-0.879835, 225, 1, 352, 333
-0.885174, 1, 209, 500, 333
-0.890782, 129, 1, 256, 256
-0.893362, 1, 1, 128, 333
-0.904019, 1, 161, 500, 288
-0.908798, 97, 1, 224, 333
-0.910182, 225, 209, 480, 333
-0.911977, 81, 1, 208, 256
-0.914753, 1, 113, 500, 240
-0.918142, 273, 1, 400, 333
-0.92126, 49, 1, 176, 333
-0.925766, 129, 65, 384, 192
-0.926093, 273, 33, 400, 288
-0.928349, 129, 161, 384, 288
-0.929, 33, 1, 160, 256
-0.932667, 129, 209, 384, 333
-0.933469, 1, 17, 500, 144
-0.939128, 321, 1, 448, 333
-0.939198, 129, 113, 384, 240
-0.940444, 321, 209, 448, 333
-0.940592, 225, 161, 480, 288
-0.941662, 129, 17, 384, 144
-0.947455, 161, 209, 288, 333
-0.948056, 241, 209, 368, 333
-0.948279, 33, 177, 288, 304
-0.949229, 321, 65, 448, 320
-0.949442, 161, 33, 288, 160
-0.95115, 1, 1, 256, 128
-0.952074, 129, 129, 256, 256
-0.952826, 337, 193, 400, 320
-0.953144, 361, 209, 424, 333
-0.95396, 193, 113, 320, 240
-0.954096, 209, 161, 336, 288
-0.95417, 177, 209, 240, 333
-0.95586, 305, 161, 432, 288
-0.956389, 369, 65, 496, 320
-0.956791, 113, 193, 240, 320
-0.956801, 225, 241, 288, 304
-0.956979, 217, 209, 280, 333
-0.957464, 1, 65, 500, 192
-0.95866, 257, 49, 320, 176
-0.959057, 193, 265, 256, 328
-0.959636, 33, 49, 288, 176
-0.959955, 225, 81, 480, 208
-0.960292, 161, 273, 224, 333
-0.960793, 257, 161, 384, 288
-0.96188, 225, 81, 288, 208
-0.962021, 33, 97, 288, 224
-0.96229, 257, 17, 500, 144
-0.962356, 257, 97, 320, 224
-0.962369, 241, 49, 368, 176
-0.962442, 153, 113, 216, 240
-0.962855, 217, 161, 280, 288
-0.962984, 361, 209, 424, 272
-0.963919, 305, 209, 368, 333
-0.964422, 65, 209, 192, 333
-0.965004, 241, 97, 368, 224
-0.965062, 313, 209, 376, 272
-0.965503, 257, 161, 320, 288
-0.966041, 385, 209, 448, 333
-0.966167, 145, 81, 272, 208
-0.966932, 209, 153, 272, 216
-0.966972, 169, 249, 232, 312
-0.967096, 217, 273, 280, 333
-0.967278, 193, 145, 256, 272
-0.967305, 201, 241, 264, 304
-0.967539, 137, 265, 200, 328
-0.96777, 169, 65, 232, 192
-0.968027, 313, 161, 376, 288
-0.968086, 81, 1, 208, 128
-0.968335, 241, 1, 368, 128
-0.968596, 145, 161, 208, 288
-0.968711, 369, 1, 496, 333
-0.96906, 393, 257, 456, 320
-0.96917, 177, 1, 240, 256
-0.969459, 121, 193, 184, 320
-0.970012, 369, 161, 496, 288
-0.970296, 81, 113, 208, 240
-0.970373, 193, 97, 256, 224
-0.970506, 153, 169, 216, 232
-0.970721, 233, 33, 296, 160
-0.970831, 169, 137, 232, 200
-0.971304, 369, 161, 432, 288
-0.97182, 209, 113, 272, 176
-0.971868, 321, 241, 448, 304
-0.97203, 145, 209, 208, 333
-0.972234, 321, 233, 384, 296
-0.972707, 321, 185, 384, 248
-0.972727, 169, 17, 232, 144
-0.972955, 177, 161, 240, 224
-0.973054, 17, 1, 144, 128
-0.973078, 145, 265, 272, 328
-0.973101, 241, 161, 304, 224
-0.973107, 137, 1, 200, 128
-0.973242, 81, 65, 208, 192
-0.973538, 201, 249, 232, 312
-0.973691, 137, 1, 200, 64
-0.973791, 281, 97, 344, 224
-0.974411, 233, 137, 296, 200
-0.974526, 145, 49, 208, 176
-0.974586, 17, 177, 144, 304
-0.974604, 233, 1, 296, 256
-0.974865, 241, 265, 304, 328
-0.974957, 281, 161, 344, 288
-0.97498, 257, 41, 320, 104
-0.975166, 305, 209, 432, 272
-0.975282, 161, 241, 288, 304
-0.975312, 241, 241, 272, 304
-0.9754, 257, 1, 320, 128
-0.975628, 201, 217, 264, 280
-0.975755, 153, 225, 216, 288
-0.976368, 233, 81, 296, 144
-0.976483, 337, 209, 400, 272
-0.97666, 65, 161, 192, 288
-0.976707, 281, 49, 344, 176
-0.976765, 241, 249, 368, 312
-0.976829, 369, 233, 432, 296
-0.977039, 265, 169, 328, 232
-0.977067, 257, 1, 320, 256
-0.97711, 417, 273, 480, 333
-0.977132, 169, 49, 232, 112
-0.977178, 313, 273, 376, 333
-0.97722, 161, 49, 288, 112
-0.977286, 145, 145, 208, 208
-0.977691, 193, 137, 320, 200
-0.977704, 369, 185, 432, 248
-0.977712, 129, 97, 192, 224
-0.977858, 257, 113, 320, 176
-0.978025, 289, 113, 416, 240
-0.978199, 257, 81, 320, 144
-0.978211, 289, 185, 352, 248
-0.978346, 193, 185, 256, 248
-0.978446, 281, 225, 344, 288
-0.978505, 241, 225, 368, 288
-0.978561, 321, 209, 352, 272
-0.978793, 229, 249, 260, 312
-0.978857, 205, 209, 236, 333
-0.978924, 165, 273, 196, 333
-0.979082, 185, 113, 248, 176
-0.979392, 105, 145, 168, 272
-0.979453, 329, 161, 392, 224
-0.979506, 177, 25, 240, 88
-0.979537, 249, 265, 280, 328
-0.979746, 241, 273, 368, 333
-0.979796, 213, 249, 244, 312
-0.979926, 325, 209, 356, 333
-0.97997, 209, 17, 272, 144
-0.979992, 129, 177, 256, 240
-0.980406, 161, 73, 224, 136
-0.980471, 189, 257, 220, 320
-0.980495, 97, 1, 224, 64
-0.980577, 113, 1, 176, 64
-0.980621, 177, 209, 240, 272
-0.980678, 257, 137, 320, 200
-0.980882, 33, 1, 96, 128
-0.980994, 113, 17, 176, 144
-0.981033, 161, 25, 288, 88
-0.981076, 129, 153, 256, 216
-0.98116, 97, 209, 160, 333
-0.981161, 421, 265, 452, 328
-0.981166, 297, 249, 360, 312
-0.98117, 289, 1, 352, 256
-0.981193, 209, 1, 272, 256
-0.981224, 205, 161, 236, 224
-0.981237, 353, 265, 480, 328
-0.98128, 213, 225, 244, 288
-0.981309, 153, 1, 216, 256
-0.981315, 209, 273, 240, 333
-0.981327, 217, 49, 280, 112
-0.981574, 281, 41, 344, 104
-0.981617, 129, 225, 192, 288
-0.98167, 209, 25, 272, 88
-0.98178, 337, 145, 400, 272
-0.981846, 169, 161, 232, 288
-0.981889, 205, 145, 236, 272
-0.981902, 129, 129, 256, 192
-0.981935, 221, 273, 252, 333
-0.982067, 173, 249, 204, 312
-0.982095, 397, 217, 428, 280
-0.982158, 209, 169, 336, 232
-0.98217, 281, 209, 344, 333
-0.982527, 393, 225, 456, 288
-0.982548, 193, 1, 256, 64
-0.982595, 193, 113, 320, 176
-0.982622, 193, 265, 320, 328
-0.982691, 153, 25, 216, 88
-0.982724, 161, 113, 224, 176
-0.982747, 221, 97, 252, 224
-0.982845, 297, 145, 360, 208
-0.982866, 345, 241, 408, 304
-0.982944, 65, 1, 128, 64
-0.982947, 241, 113, 368, 176
-0.982951, 229, 209, 260, 333
-0.982981, 257, 241, 320, 304
-0.983138, 225, 217, 288, 280
-0.983185, 233, 113, 296, 176
-0.983241, 121, 97, 184, 160
-0.983366, 289, 17, 416, 144
-0.983399, 145, 97, 272, 160
-0.983448, 105, 161, 168, 224
-0.983452, 273, 169, 400, 232
-0.983463, 113, 225, 240, 288
-0.983483, 225, 201, 352, 264
-0.983562, 317, 233, 348, 296
-0.983571, 217, 185, 280, 248
-0.983626, 389, 209, 420, 333
-0.983737, 369, 209, 496, 333
-0.983768, 217, 137, 248, 200
-0.983897, 149, 265, 180, 328
-0.983986, 129, 33, 192, 96
-0.984006, 409, 209, 472, 333
-0.98401, 241, 41, 368, 104
-0.984171, 281, 1, 344, 128
-0.984329, 1, 113, 64, 176
-0.984388, 241, 209, 304, 333
-0.98439, 205, 137, 236, 200
-0.984436, 253, 241, 284, 304
-0.984637, 237, 273, 268, 333
-0.984669, 81, 25, 208, 88
-0.984673, 193, 209, 224, 333
-0.984687, 145, 193, 208, 256
-0.984689, 249, 137, 280, 200
-0.984854, 369, 209, 400, 272
-0.984902, 221, 113, 252, 176
-0.984993, 269, 121, 300, 184
-0.985019, 97, 225, 160, 288
-0.98506, 401, 209, 432, 333
-0.985062, 249, 17, 312, 80
-0.985192, 177, 273, 208, 333
-0.985229, 89, 9, 152, 72
-0.985245, 321, 185, 352, 248
-0.985275, 297, 17, 360, 80
-0.985311, 261, 265, 292, 328
-0.985432, 129, 201, 256, 264
-0.985469, 265, 193, 328, 256
-0.985529, 337, 209, 368, 333
-0.985548, 333, 217, 364, 280
-0.985615, 229, 137, 260, 200
-0.985665, 437, 265, 468, 328
-0.985682, 241, 137, 368, 200
-0.985684, 265, 33, 296, 160
-0.985686, 137, 57, 200, 120
-0.985689, 357, 209, 388, 333
-0.985705, 113, 185, 176, 248
-0.985755, 393, 161, 456, 288
-0.985845, 65, 169, 192, 232
-0.985886, 285, 97, 316, 224
-0.986027, 225, 1, 288, 333
-0.986296, 1, 193, 64, 320
-0.986329, 281, 89, 344, 152
-0.986389, 49, 225, 176, 288
-0.9864, 245, 209, 276, 333
-0.986456, 189, 233, 220, 296
-0.986471, 193, 161, 224, 288
-0.986535, 161, 73, 288, 136
-0.98655, 145, 1, 176, 64
-0.986612, 17, 1, 144, 64
-0.986613, 329, 241, 360, 304
-0.986632, 41, 1, 104, 64
-0.986639, 177, 217, 304, 280
-0.986754, 189, 153, 220, 216
-0.986779, 1, 129, 128, 256
-0.986906, 217, 209, 248, 333
-0.986931, 25, 145, 88, 272
-0.987004, 113, 1, 176, 256
-0.987019, 209, 81, 336, 144
-0.98705, 113, 265, 176, 328
-0.98706, 225, 1, 352, 64
-0.987136, 137, 121, 200, 184
-0.987154, 321, 185, 448, 248
-0.987161, 353, 273, 416, 333
-0.987162, 157, 113, 188, 240
-0.987195, 373, 209, 404, 333
-0.987251, 289, 273, 416, 333
-0.987318, 97, 257, 224, 320
-0.987364, 133, 193, 164, 320
-0.987482, 405, 249, 436, 312
-0.987554, 173, 33, 204, 160
-0.987627, 217, 161, 248, 288
-0.987765, 201, 225, 232, 288
-0.987779, 225, 225, 256, 288
-0.987785, 89, 1, 152, 128
-0.987812, 173, 49, 204, 112
-0.987815, 273, 113, 304, 240
-0.987854, 281, 65, 344, 128
-0.98786, 281, 49, 312, 176
-0.987921, 49, 193, 176, 256
-0.98796, 173, 137, 204, 200
-0.987969, 9, 121, 40, 184
-0.987992, 409, 225, 440, 288
-0.987995, 177, 1, 304, 64
-0.988025, 225, 161, 256, 224
-0.988111, 9, 1, 72, 128
-0.98816, 1, 145, 64, 208
-0.9882, 81, 97, 208, 160
-0.988209, 237, 161, 268, 224
-0.988272, 261, 97, 292, 224
-0.988352, 325, 265, 356, 328
-0.988377, 153, 193, 184, 320
-0.988458, 221, 185, 252, 248
-0.988489, 153, 153, 184, 216
-0.988511, 241, 193, 304, 256
-0.988563, 249, 49, 280, 176
-0.988585, 313, 209, 344, 333
-0.988593, 317, 161, 348, 288
-0.988618, 265, 1, 328, 333
-0.988723, 153, 1, 216, 333
-0.988781, 33, 25, 160, 88
-0.988794, 185, 1, 248, 333
-0.988813, 17, 33, 80, 96
-0.988813, 81, 33, 144, 96
-0.988814, 9, 1, 72, 333
-0.988877, 309, 201, 340, 264
-0.988883, 357, 217, 388, 280
-0.988967, 353, 209, 480, 272
-0.989028, 261, 145, 292, 208
-0.989074, 217, 245, 280, 276
-0.989092, 189, 177, 220, 240
-0.98911, 225, 241, 480, 304
-0.989121, 257, 81, 384, 144
-0.989142, 449, 273, 480, 333
-0.989236, 177, 193, 304, 256
-0.989252, 65, 161, 128, 288
-0.989272, 169, 293, 232, 324
-0.989276, 185, 25, 216, 88
-0.9893, 289, 121, 352, 184
-0.989388, 201, 293, 264, 324
-0.989434, 105, 33, 168, 96
-0.98945, 25, 1, 88, 256
-0.98946, 305, 97, 368, 224
-0.989461, 337, 273, 368, 333
-0.989513, 293, 161, 324, 288
-0.989578, 345, 185, 408, 248
-0.989635, 369, 177, 496, 240
-0.989681, 169, 113, 200, 240
-0.989686, 17, 177, 48, 304
-0.989696, 289, 1, 352, 333
-0.98973, 385, 217, 416, 280
-0.989762, 193, 253, 256, 284
-0.989785, 261, 145, 292, 272
-0.989803, 249, 161, 280, 224
-0.989805, 161, 65, 192, 192
-0.989833, 217, 273, 280, 304
-0.989836, 185, 281, 248, 312
-0.989844, 201, 193, 232, 256
-0.989956, 289, 153, 320, 216
-0.990045, 161, 269, 224, 300
-0.990062, 49, 33, 112, 96
-0.990064, 273, 1, 336, 64
-0.990066, 281, 129, 312, 192
-0.990077, 161, 253, 224, 284
-0.990115, 81, 57, 208, 120
-0.990172, 129, 1, 192, 333
-0.990194, 161, 265, 416, 328
-0.990198, 345, 233, 376, 296
-0.990215, 345, 209, 376, 272
-0.990215, 289, 145, 416, 208
-0.990256, 193, 129, 224, 192
-0.990265, 161, 113, 192, 176
-0.990274, 1, 201, 128, 264
-0.990303, 169, 153, 232, 184
-0.990306, 81, 129, 208, 192
-0.990389, 113, 65, 176, 128
-0.990456, 185, 265, 248, 296
-0.990477, 209, 153, 272, 184
-0.990485, 73, 1, 104, 64
-0.990543, 145, 173, 208, 204
-0.990567, 249, 217, 280, 280
-0.990591, 369, 241, 432, 272
-0.990635, 409, 201, 472, 264
-0.990646, 321, 241, 384, 272
-0.990653, 145, 285, 208, 316
-0.990664, 377, 161, 408, 288
-0.990683, 177, 161, 208, 224
-0.990712, 265, 241, 296, 304
-0.99072, 25, 113, 88, 176
-0.99072, 9, 209, 72, 272
-0.99072, 313, 209, 376, 240
-0.990734, 229, 161, 260, 288
-0.990745, 57, 1, 120, 128
-0.990752, 361, 217, 424, 248
-0.990753, 185, 73, 248, 136
-0.990758, 133, 145, 164, 272
-0.990761, 173, 209, 204, 333
-0.99077, 333, 161, 364, 288
-0.990771, 217, 257, 280, 288
-0.990792, 137, 253, 200, 284
-0.990808, 261, 41, 292, 104
-0.990818, 329, 229, 392, 260
-0.990829, 305, 1, 336, 128
-0.990849, 169, 141, 232, 172
-0.990865, 209, 229, 272, 260
-0.990903, 233, 145, 296, 176
-0.990906, 209, 141, 272, 172
-0.990909, 177, 165, 240, 196
-0.990918, 257, 193, 288, 320
-0.99092, 113, 137, 176, 200
-0.990937, 389, 161, 420, 288
-0.990955, 137, 273, 200, 304
-0.990957, 161, 1, 192, 128
-0.990983, 137, 301, 200, 332
-0.991035, 57, 193, 120, 256
-0.991035, 233, 113, 264, 176
-0.99105, 417, 249, 480, 312
-0.991066, 193, 181, 256, 212
-0.991084, 257, 145, 320, 176
-0.991098, 209, 113, 240, 176
-0.991153, 353, 229, 416, 260
-0.991188, 161, 237, 224, 268
-0.991196, 185, 237, 248, 268
-0.991199, 89, 193, 152, 256
-0.991208, 257, 165, 320, 196
-0.991216, 249, 45, 312, 76
-0.991225, 257, 217, 320, 280
-0.991247, 257, 85, 320, 116
-0.991251, 145, 149, 208, 180
-0.991293, 73, 209, 136, 333
-0.991305, 417, 161, 480, 288
-0.991359, 185, 209, 216, 272
-0.99136, 281, 193, 344, 224
-0.991396, 225, 293, 288, 324
-0.991447, 201, 165, 264, 196
-0.991537, 153, 177, 184, 240
-0.991544, 401, 265, 464, 296
-0.991563, 361, 205, 424, 236
-0.991566, 265, 81, 296, 144
-0.991568, 169, 17, 200, 80
-0.991582, 129, 241, 384, 304
-0.991582, 33, 1, 96, 333
-0.991589, 361, 297, 424, 328
-0.991596, 137, 161, 200, 192
-0.991629, 225, 217, 480, 280
-0.99165, 1, 49, 64, 176
-0.991651, 237, 113, 268, 240
-0.991651, 181, 129, 212, 256
-0.991664, 137, 265, 168, 328
-0.991677, 1, 133, 64, 164
-0.991717, 89, 1, 152, 256
-0.991717, 141, 225, 172, 288
-0.991726, 233, 101, 296, 132
-0.99173, 205, 97, 236, 224
-0.991751, 129, 177, 384, 240
-0.991756, 129, 153, 384, 216
-0.991762, 129, 201, 384, 264
-0.991766, 169, 129, 232, 160
-0.991845, 337, 217, 400, 248
-0.991849, 145, 25, 208, 56
-0.991856, 169, 53, 232, 84
-0.991858, 233, 157, 296, 188
-0.991869, 281, 89, 344, 120
-0.991877, 285, 81, 316, 144
-0.99188, 89, 1, 152, 32
-0.99188, 65, 1, 128, 32
-0.991889, 329, 197, 392, 228
-0.991891, 225, 1, 288, 64
-0.991893, 305, 273, 368, 304
-0.991896, 297, 233, 360, 264
-0.991901, 265, 105, 328, 136
-0.991903, 241, 277, 304, 308
-0.991908, 161, 93, 224, 124
-0.991909, 1, 113, 128, 176
-0.991911, 385, 289, 448, 320
-0.991919, 249, 261, 312, 292
-0.991949, 385, 221, 448, 252
-0.991959, 217, 129, 280, 160
-0.991975, 177, 117, 240, 148
-0.991977, 409, 285, 472, 316
-0.991987, 345, 241, 408, 272
-0.991989, 313, 65, 376, 320
-0.991995, 169, 189, 232, 220
-0.992005, 289, 45, 352, 76
-0.992009, 217, 113, 280, 144
-0.992022, 145, 189, 208, 220
-0.992025, 193, 17, 256, 48
-0.992046, 353, 161, 384, 288
-0.992097, 425, 273, 488, 304
-0.992104, 169, 177, 232, 208
-0.992126, 33, 177, 64, 304
-0.992127, 241, 237, 304, 268
-0.992137, 257, 129, 320, 160
-0.992151, 185, 33, 248, 64
-0.992151, 305, 161, 336, 288
-0.992155, 145, 137, 208, 168
-0.992156, 1, 49, 128, 176
-0.992166, 217, 69, 280, 100
-0.992168, 297, 221, 360, 252
-0.992195, 121, 221, 184, 252
-0.992211, 297, 97, 328, 224
-0.992219, 97, 225, 160, 256
-0.992221, 313, 285, 376, 316
-0.992232, 249, 33, 312, 64
-0.992236, 85, 9, 116, 72
-0.99224, 329, 185, 392, 216
-0.992241, 265, 241, 328, 272
-0.992243, 421, 209, 452, 333
-0.992254, 225, 177, 288, 208
-0.992259, 145, 1, 208, 32
-0.99226, 289, 209, 352, 240
-0.992289, 113, 189, 176, 220
-0.992293, 257, 117, 320, 148
-0.992305, 393, 253, 456, 284
-0.99231, 289, 261, 352, 292
-0.992314, 137, 241, 200, 272
-0.992319, 209, 253, 240, 284
-0.992324, 105, 165, 168, 196
-0.99233, 241, 193, 272, 256
-0.992331, 113, 209, 144, 333
-0.99235, 1, 1, 64, 256
-0.992351, 193, 193, 256, 224
-0.992354, 217, 197, 280, 228
-0.992355, 121, 285, 184, 316
-0.992356, 121, 97, 184, 128
-0.992358, 233, 89, 296, 120
-0.992374, 153, 81, 216, 112
-0.992385, 177, 209, 240, 240
-0.992387, 113, 1, 176, 32
-0.992387, 329, 173, 392, 204
-0.99239, 1, 145, 64, 272
-0.992395, 297, 153, 360, 184
-0.992403, 129, 57, 384, 120
-0.992403, 313, 257, 344, 320
-0.992405, 281, 33, 344, 64
-0.992406, 289, 109, 352, 140
-0.992414, 145, 125, 208, 156
-0.992417, 237, 217, 268, 280
-0.992426, 249, 289, 312, 320
-0.992451, 217, 29, 280, 60
-0.992453, 217, 49, 280, 80
-0.992454, 193, 129, 256, 160
-0.992488, 305, 197, 368, 228
-0.992501, 121, 13, 184, 44
-0.992507, 169, 65, 232, 96
-0.992509, 241, 33, 272, 96
-0.992509, 105, 177, 168, 208
-0.992512, 337, 285, 400, 316
-0.992537, 17, 1, 80, 64
-0.992537, 33, 201, 96, 264
-0.992556, 145, 13, 208, 44
-0.992559, 65, 13, 128, 44
-0.99256, 317, 209, 348, 240
-0.992563, 169, 105, 232, 136
-0.992587, 177, 289, 208, 320
-0.99259, 301, 49, 332, 112
-0.992602, 361, 241, 392, 304
-0.992619, 129, 81, 384, 144
-0.992645, 257, 69, 320, 100
-0.992658, 97, 17, 160, 48
-0.992664, 257, 57, 320, 88
-0.992667, 189, 273, 220, 304
-0.992674, 273, 153, 304, 216
-0.992689, 321, 253, 384, 284
-0.992694, 65, 265, 320, 328
-0.992696, 49, 25, 112, 56
-0.992697, 145, 201, 208, 232
-0.9927, 197, 253, 228, 284
-0.992706, 169, 273, 200, 304
-0.992708, 401, 233, 464, 264
-0.99273, 185, 5, 248, 36
-0.992736, 249, 241, 280, 272
-0.992739, 169, 253, 200, 284
-0.992741, 185, 301, 216, 332
-0.992741, 289, 181, 352, 212
-0.992742, 297, 249, 360, 280
-0.992742, 73, 25, 136, 56
-0.992747, 229, 245, 260, 276
-0.992756, 205, 161, 236, 192
-0.992764, 185, 257, 216, 288
-0.992777, 153, 257, 184, 288
-0.992787, 173, 301, 204, 332
-0.992792, 237, 293, 268, 324
-0.992794, 321, 33, 384, 96
-0.992794, 161, 249, 192, 312
-0.9928, 193, 153, 224, 184
-0.992805, 9, 133, 40, 164
-0.992806, 209, 281, 240, 312
-0.992815, 329, 241, 360, 272
-0.992822, 301, 169, 332, 232
-0.992823, 221, 269, 252, 300
-0.992829, 325, 229, 356, 260
-0.992832, 205, 265, 236, 296
-0.992842, 397, 217, 428, 248
-0.992846, 45, 1, 76, 128
-0.99287, 165, 285, 196, 316
-0.992878, 241, 281, 272, 312
-0.992887, 197, 173, 228, 204
-0.99289, 261, 145, 292, 176
-0.992904, 157, 297, 188, 328
-0.992905, 201, 293, 232, 324
-0.992909, 249, 269, 280, 300
-0.992922, 225, 257, 256, 288
-0.992944, 313, 229, 344, 260
-0.992946, 245, 257, 276, 288
-0.992957, 273, 149, 304, 180
-0.992957, 169, 73, 200, 136
-0.992964, 185, 165, 216, 196
-0.992966, 165, 157, 196, 188
-0.992976, 153, 153, 184, 184
-0.992981, 261, 261, 292, 292
-0.992987, 189, 289, 220, 320
-0.992994, 365, 229, 396, 260
-0.993007, 49, 265, 176, 328
-0.993022, 153, 141, 184, 172
-0.993024, 225, 289, 256, 320
-0.993036, 177, 149, 208, 180
-0.993045, 245, 229, 276, 260
-0.993048, 389, 233, 420, 264
-0.993049, 205, 149, 236, 180
-0.993055, 249, 157, 280, 188
-0.99306, 377, 185, 408, 248
-0.993063, 245, 145, 276, 176
-0.993083, 205, 237, 236, 268
-0.993083, 449, 277, 480, 308
-0.993086, 97, 105, 352, 168
-0.99309, 185, 241, 216, 272
-0.993097, 249, 297, 280, 328
-0.9931, 305, 225, 336, 288
-0.993107, 213, 297, 244, 328
-0.993107, 437, 273, 468, 304
-0.993108, 401, 245, 432, 276
-0.993111, 337, 229, 368, 260
-0.993119, 253, 281, 284, 312
-0.993119, 233, 269, 264, 300
-0.993125, 317, 261, 348, 292
-0.993127, 217, 157, 248, 188
-0.993135, 197, 189, 228, 220
-0.993136, 221, 109, 252, 140
-0.993147, 285, 157, 316, 188
-0.993155, 217, 145, 248, 176
-0.993162, 153, 281, 184, 312
-0.993163, 281, 85, 312, 116
-0.993164, 353, 229, 384, 260
-0.993172, 61, 1, 92, 64
-0.993178, 409, 229, 440, 260
-0.993182, 185, 181, 216, 212
-0.993183, 153, 173, 184, 204
-0.993184, 141, 161, 172, 192
-0.993185, 229, 141, 260, 172
-0.99319, 313, 193, 344, 224
-0.993193, 169, 133, 200, 164
-0.993195, 77, 1, 108, 32
-0.993205, 425, 269, 456, 300
-0.993205, 17, 177, 80, 240
-0.993209, 237, 185, 268, 216
-0.993211, 209, 189, 240, 220
-0.993215, 277, 105, 308, 136
-0.993217, 221, 177, 252, 208
-0.993227, 201, 205, 232, 236
-0.993237, 317, 249, 348, 280
-0.993238, 269, 125, 300, 156
-0.993238, 241, 161, 272, 288
-0.993239, 25, 193, 88, 320
-0.993239, 325, 197, 356, 228
-0.993252, 237, 161, 268, 192
-0.993255, 189, 29, 220, 60
-0.993274, 333, 217, 364, 248
-0.993275, 261, 161, 292, 192
-0.993275, 333, 273, 364, 304
-0.993275, 369, 233, 496, 296
-0.993276, 401, 293, 432, 324
-0.993278, 377, 221, 408, 252
-0.993279, 137, 265, 168, 296
-0.993279, 237, 17, 268, 144
-0.993282, 145, 293, 176, 324
-0.993283, 381, 297, 412, 328
-0.993288, 141, 241, 172, 272
-0.993291, 341, 285, 372, 316
-0.993292, 265, 249, 296, 280
-0.993292, 413, 253, 444, 284
-0.993293, 9, 121, 40, 152
-0.993297, 425, 253, 456, 284
-0.993299, 1, 233, 500, 296
-0.9933, 217, 241, 248, 272
-0.993301, 169, 241, 200, 272
-0.993302, 185, 193, 216, 224
-0.993305, 173, 25, 204, 56
-0.993306, 373, 205, 404, 236
-0.993317, 157, 269, 188, 300
-0.993318, 365, 217, 396, 248
-0.993322, 377, 237, 408, 268
-0.99333, 261, 41, 292, 72
-0.993332, 369, 301, 400, 332
-0.993335, 185, 45, 216, 76
-0.993336, 193, 141, 224, 172
-0.993339, 237, 29, 268, 60
-0.99334, 225, 301, 256, 332
-0.993341, 217, 133, 248, 164
-0.993342, 133, 153, 164, 216
-0.993342, 357, 297, 388, 328
-0.993344, 233, 225, 264, 256
-0.993352, 157, 129, 188, 160
-0.993357, 245, 65, 276, 96
-0.993358, 145, 97, 176, 224
-0.993358, 289, 105, 320, 136
-0.993363, 437, 285, 468, 316
-0.993367, 345, 241, 376, 272
-0.993371, 249, 81, 280, 144
-0.993375, 265, 85, 296, 116
-0.993377, 133, 181, 164, 212
-0.993379, 273, 165, 304, 196
-0.99338, 305, 217, 336, 248
-0.99338, 153, 245, 184, 276
-0.99338, 173, 57, 204, 88
-0.993381, 117, 1, 148, 32
-0.993382, 121, 225, 152, 256
-0.993394, 81, 161, 144, 224
-0.993403, 365, 161, 396, 288
-0.993405, 193, 97, 224, 224
-0.993406, 257, 265, 500, 328
-0.993416, 305, 241, 432, 272
-0.993426, 161, 253, 288, 284
-0.993487, 293, 33, 324, 160
-0.993493, 5, 177, 36, 304
-0.99353, 57, 1, 88, 128
-0.993585, 1, 257, 500, 320
-0.993618, 1, 33, 256, 96
-0.993661, 433, 209, 496, 333
-0.993686, 161, 293, 288, 324
-0.993691, 57, 169, 120, 232
-0.993702, 1, 137, 128, 200
-0.993703, 129, 1, 160, 64
-0.993703, 9, 145, 40, 208
-0.993725, 57, 233, 120, 296
-0.993729, 165, 161, 196, 224
-0.993744, 305, 65, 368, 128
-0.993747, 33, 225, 288, 288
-0.993754, 1, 1, 256, 64
-0.993792, 245, 57, 276, 120
-0.993805, 25, 129, 56, 256
-0.99381, 117, 1, 148, 64
-0.993814, 245, 113, 276, 176
-0.993827, 169, 1, 232, 64
-0.993951, 109, 161, 140, 224
-0.993957, 257, 113, 288, 176
-0.993966, 261, 169, 292, 232
-0.993974, 289, 17, 416, 80
-0.993993, 393, 241, 424, 304
-0.994012, 401, 161, 432, 288
-0.994026, 57, 1, 120, 333
-0.994067, 129, 17, 384, 80
-0.994076, 225, 193, 480, 256
-0.994106, 145, 145, 176, 272
-0.994109, 1, 233, 128, 296
-0.994152, 185, 49, 216, 112
-0.994181, 97, 9, 128, 72
-0.994257, 165, 225, 196, 288
-0.994378, 137, 193, 168, 256
-0.994409, 373, 233, 404, 296
-0.994412, 333, 193, 364, 256
-0.994436, 161, 281, 288, 312
-0.994486, 177, 185, 208, 248
-0.99451, 161, 265, 288, 296
-0.994512, 225, 145, 480, 208
-0.994537, 281, 105, 312, 168
-0.994538, 105, 1, 168, 333
-0.99456, 149, 129, 180, 192
-0.994569, 285, 57, 316, 120
-0.99457, 425, 241, 456, 304
-0.99457, 97, 129, 352, 192
-0.994572, 185, 1, 216, 128
-0.99458, 313, 1, 376, 333
-0.994605, 177, 157, 304, 188
-0.994607, 1, 33, 32, 160
-0.994614, 321, 25, 352, 88
-0.994624, 121, 161, 152, 288
-0.994677, 265, 265, 328, 328
-0.994681, 263, 249, 278, 312
-0.994689, 353, 113, 480, 240
-0.994703, 129, 225, 160, 288
-0.994859, 249, 113, 280, 240
-0.994859, 153, 89, 184, 152
-0.994879, 161, 57, 288, 88
-0.994921, 357, 177, 388, 240
-0.99499, 169, 273, 184, 333
-0.994991, 33, 193, 288, 256
-0.994998, 1, 201, 500, 264
-0.995029, 193, 49, 256, 112
-0.995036, 129, 1, 160, 128
-0.995066, 145, 33, 176, 160
-0.995068, 329, 233, 344, 296
-0.995099, 209, 245, 336, 276
-0.995115, 161, 29, 288, 60
-0.995155, 297, 193, 328, 256
-0.995185, 289, 121, 416, 184
-0.995201, 93, 161, 124, 288
-0.995224, 29, 33, 60, 96
-0.995231, 207, 241, 222, 304
-0.995266, 209, 73, 272, 136
-0.995311, 289, 65, 416, 192
-0.995322, 335, 225, 350, 288
-0.995349, 33, 169, 288, 232
-0.995349, 323, 201, 338, 264
-0.995352, 1, 129, 256, 192
-0.995367, 225, 257, 352, 288
-0.995379, 257, 233, 272, 296
-0.995385, 349, 257, 380, 320
-0.995394, 289, 273, 352, 333
-0.995401, 329, 209, 344, 272
-0.995415, 321, 17, 384, 144
-0.995415, 9, 97, 72, 224
-0.995416, 241, 273, 368, 304
-0.995423, 241, 233, 368, 264
-0.99547, 257, 193, 288, 256
-0.995471, 305, 213, 432, 244
-0.995471, 161, 241, 288, 272
-0.995474, 161, 45, 288, 76
-0.995491, 413, 161, 444, 288
-0.995497, 255, 273, 270, 333
-0.995501, 165, 161, 196, 288
-0.995517, 201, 265, 216, 328
-0.99552, 333, 169, 364, 232
-0.995522, 439, 265, 454, 328
-0.995535, 321, 253, 448, 284
-0.995536, 193, 141, 320, 172
-0.995567, 221, 81, 252, 144
-0.995576, 113, 273, 240, 304
-0.995631, 225, 169, 480, 232
-0.995654, 225, 249, 240, 312
-0.995657, 33, 233, 96, 296
-0.995677, 409, 217, 424, 280
-0.99568, 113, 253, 240, 284
-0.995692, 101, 209, 132, 333
-0.995694, 223, 273, 238, 333
-0.995712, 113, 17, 144, 144
-0.995713, 221, 49, 252, 176
-0.995727, 179, 273, 194, 333
-0.995735, 205, 17, 236, 144
-0.995744, 97, 161, 128, 224
-0.995763, 231, 249, 246, 312
-0.995773, 81, 1, 144, 333
-0.99579, 1, 177, 128, 240
-0.995792, 337, 137, 464, 200
-0.995809, 213, 249, 228, 312
-0.995825, 217, 225, 232, 288
-0.99584, 1, 1, 500, 64
-0.995872, 209, 145, 224, 208
-0.995898, 113, 301, 240, 332
-0.9959, 277, 161, 308, 288
-0.995904, 25, 137, 88, 200
-0.995918, 415, 225, 430, 288
-0.995922, 335, 201, 350, 264
-0.995926, 73, 25, 104, 88
-0.995932, 129, 169, 256, 200
-0.995944, 199, 241, 214, 304
-0.995945, 129, 25, 160, 88
-0.995961, 129, 157, 256, 188
-0.995971, 145, 109, 272, 140
-0.995984, 181, 81, 212, 208
-0.996026, 321, 229, 448, 260
-0.996041, 161, 69, 288, 100
-0.996052, 195, 273, 210, 333
-0.996059, 201, 169, 216, 232
-0.996064, 1, 105, 256, 168
-0.996076, 219, 249, 234, 312
-0.996078, 161, 129, 288, 160
-0.996099, 367, 217, 382, 280
-0.9961, 161, 229, 288, 260
-0.996136, 433, 265, 448, 328
-0.996153, 269, 241, 284, 304
-0.996154, 207, 265, 222, 328
-0.996181, 261, 273, 276, 333
-0.996184, 113, 237, 240, 268
-0.996185, 225, 193, 352, 224
-0.996216, 129, 181, 256, 212
-0.996217, 1, 177, 500, 240
-0.996232, 105, 97, 168, 224
-0.996247, 393, 177, 456, 240
-0.996252, 193, 169, 320, 200
-0.996261, 193, 113, 448, 176
-0.996263, 13, 33, 44, 160
-0.996267, 323, 225, 338, 288
-0.996273, 241, 241, 256, 304
-0.996288, 13, 113, 44, 240
-0.996289, 305, 201, 432, 232
-0.996295, 223, 113, 238, 176
-0.996318, 219, 137, 234, 200
-0.996324, 293, 129, 324, 192
-0.996324, 305, 49, 336, 176
-0.996345, 109, 25, 140, 88
-0.996352, 313, 161, 344, 224
-0.996358, 215, 273, 230, 333
-0.996366, 1, 137, 500, 200
-0.996371, 185, 249, 200, 312
-0.996376, 337, 269, 464, 300
-0.996382, 251, 241, 266, 304
-0.996398, 97, 17, 224, 48
-0.996404, 233, 225, 248, 288
-0.996411, 225, 41, 480, 104
-0.996413, 369, 285, 496, 316
-0.99642, 243, 273, 258, 333
-0.996427, 257, 81, 500, 144
-0.996427, 229, 153, 244, 216
-0.996463, 447, 265, 462, 328
-0.996482, 1, 113, 500, 176
-0.996489, 45, 161, 76, 288
-0.996492, 145, 141, 272, 172
-0.996505, 261, 1, 292, 256
-0.996516, 329, 185, 344, 248
-0.996524, 185, 41, 200, 104
-0.996536, 109, 161, 140, 288
-0.996549, 179, 249, 194, 312
-0.996611, 235, 137, 250, 200
-0.996611, 257, 285, 384, 316
-0.996644, 193, 233, 208, 296
-0.99666, 271, 121, 286, 184
-0.996661, 335, 249, 350, 312
-0.996684, 241, 49, 368, 80
-0.996718, 215, 161, 230, 224
-0.996719, 113, 1, 240, 32
-0.996719, 241, 37, 368, 68
-0.996731, 257, 149, 384, 180
-0.996748, 373, 209, 388, 272
-0.996772, 249, 273, 264, 333
-0.996774, 129, 213, 256, 244
-0.996785, 229, 113, 244, 176
-0.996793, 97, 33, 224, 64
-0.996812, 177, 17, 304, 48
-0.996813, 153, 265, 168, 328
-0.996813, 321, 293, 448, 324
-0.996813, 223, 225, 238, 288
-0.996815, 129, 193, 256, 224
-0.996824, 201, 1, 232, 256
-0.996843, 403, 209, 418, 272
-0.996857, 49, 225, 176, 256
-0.99686, 425, 265, 440, 328
-0.996864, 189, 1, 220, 256
-0.996866, 289, 41, 416, 104
-0.996868, 343, 249, 358, 312
-0.996882, 207, 169, 222, 232
-0.996888, 317, 201, 332, 264
-0.996902, 235, 105, 250, 168
-0.996904, 49, 209, 112, 333
-0.996904, 193, 113, 320, 144
-0.99691, 313, 97, 344, 224
-0.996912, 147, 217, 162, 280
-0.996914, 185, 273, 200, 333
-0.996919, 419, 257, 434, 320
-0.99692, 241, 85, 368, 116
-0.996941, 241, 129, 368, 160
-0.996941, 11, 129, 26, 192
-0.996949, 413, 249, 428, 312
-0.99695, 261, 137, 276, 200
-0.996954, 273, 189, 400, 220
-0.996963, 163, 265, 178, 328
-0.996968, 65, 189, 192, 220
-0.996983, 289, 173, 416, 204
-0.997018, 145, 89, 272, 120
-0.997021, 229, 273, 244, 333
-0.997022, 183, 145, 198, 208
-0.99703, 325, 33, 356, 160
-0.99704, 113, 285, 240, 316
-0.997061, 175, 121, 190, 184
-0.997079, 241, 161, 256, 224
-0.997086, 243, 137, 258, 200
-0.997104, 329, 257, 344, 320
-0.997105, 217, 1, 248, 256
-0.99711, 225, 25, 352, 56
-0.997111, 179, 57, 194, 120
-0.997116, 251, 161, 266, 224
-0.997116, 237, 273, 252, 333
-0.997116, 263, 225, 278, 288
-0.997117, 317, 225, 332, 288
-0.997128, 255, 137, 270, 200
-0.997128, 191, 161, 206, 224
-0.99714, 223, 185, 238, 248
-0.997143, 191, 25, 206, 88
-0.997148, 145, 1, 160, 64
-0.997165, 241, 69, 368, 100
-0.997201, 213, 185, 228, 248
-0.997202, 241, 117, 368, 148
-0.997203, 379, 201, 394, 264
-0.99721, 185, 17, 200, 80
-0.997238, 33, 5, 160, 36
-0.997239, 341, 225, 356, 288
-0.997243, 251, 201, 266, 264
-0.997259, 353, 241, 480, 272
-0.997271, 235, 161, 250, 224
-0.997276, 49, 177, 176, 208
-0.99728, 421, 225, 436, 288
-0.997282, 209, 293, 336, 324
-0.997284, 335, 273, 350, 333
-0.997291, 209, 97, 336, 128
-0.997293, 169, 153, 184, 216
-0.997301, 207, 249, 222, 280
-0.997304, 33, 1, 64, 128
-0.997304, 221, 161, 236, 224
-0.997305, 77, 1, 92, 64
-0.99731, 241, 221, 368, 252
-0.997313, 1, 57, 256, 120
-0.997318, 169, 249, 184, 312
-0.99735, 353, 209, 480, 240
-0.997353, 343, 273, 358, 333
-0.997358, 205, 209, 220, 272
-0.99736, 1, 25, 500, 88
-0.99737, 17, 21, 144, 52
-0.997394, 243, 217, 258, 280
-0.997396, 25, 49, 88, 176
-0.997407, 157, 169, 172, 232
-0.997414, 281, 129, 296, 192
-0.997429, 113, 125, 240, 156
-0.997439, 177, 181, 304, 212
-0.997441, 275, 153, 290, 216
-0.997443, 167, 129, 182, 192
-0.997471, 193, 85, 320, 116
-0.997472, 17, 121, 32, 184
-0.99748, 259, 161, 274, 224
-0.997482, 9, 241, 72, 304
-0.997505, 225, 9, 352, 40
-0.997511, 165, 89, 180, 152
-0.997514, 81, 165, 208, 196
-0.997517, 289, 121, 304, 184
-0.997519, 227, 257, 242, 288
-0.997522, 157, 1, 172, 64
-0.997529, 147, 257, 162, 320
-0.997529, 311, 185, 326, 248
-0.997536, 399, 233, 414, 296
-0.997539, 397, 209, 412, 272
-0.997539, 267, 273, 282, 333
-0.997543, 321, 1, 384, 64
-0.997543, 57, 137, 120, 200
-0.99755, 257, 281, 272, 312
-0.997582, 281, 161, 296, 224
-0.997584, 281, 81, 296, 144
-0.997595, 249, 137, 264, 200
-0.997609, 241, 209, 368, 240
-0.997611, 65, 101, 192, 132
-0.997622, 389, 217, 404, 280
-0.997623, 353, 197, 480, 228
-0.997623, 97, 225, 224, 256
-0.997626, 265, 161, 280, 224
-0.997632, 323, 249, 338, 312
-0.997633, 241, 165, 368, 196
-0.997642, 257, 97, 384, 128
-0.997647, 219, 249, 234, 280
-0.997647, 229, 65, 260, 320
-0.997647, 273, 89, 288, 152
-0.997652, 185, 293, 200, 324
-0.997664, 337, 229, 352, 260
-0.997666, 265, 261, 280, 292
-0.997673, 195, 137, 210, 200
-0.997676, 453, 265, 468, 328
-0.99768, 177, 1, 208, 256
-0.997682, 305, 89, 368, 152
-0.997685, 245, 33, 276, 288
-0.99769, 177, 5, 304, 36
-0.997693, 257, 245, 384, 276
-0.997707, 83, 17, 98, 80
-0.997715, 299, 145, 314, 208
-0.997729, 175, 273, 190, 304
-0.99773, 149, 193, 164, 256
-0.997737, 113, 161, 128, 224
-0.997739, 233, 185, 248, 248
-0.997739, 225, 1, 480, 64
-0.99775, 97, 145, 224, 176
-0.997757, 141, 225, 156, 288
-0.997762, 199, 301, 214, 332
-0.997763, 101, 1, 132, 128
-0.997769, 191, 297, 206, 328
-0.997788, 173, 65, 188, 128
-0.997789, 281, 105, 296, 168
-0.9978, 195, 185, 210, 248
-0.997802, 49, 201, 176, 232
-0.997824, 249, 293, 264, 324
-0.997829, 225, 181, 352, 212
-0.997834, 33, 33, 160, 64
-0.997836, 219, 261, 234, 292
-0.997838, 305, 281, 432, 312
-0.99784, 197, 253, 212, 284
-0.997845, 169, 297, 184, 328
-0.997847, 259, 241, 274, 272
-0.997857, 181, 281, 196, 312
-0.997858, 321, 89, 448, 152
-0.997871, 329, 229, 344, 260
-0.997872, 97, 45, 224, 76
-0.997874, 203, 173, 218, 204
-0.997876, 157, 65, 188, 320
-0.997888, 335, 217, 350, 248
-0.997904, 229, 245, 244, 276
-0.997911, 221, 277, 236, 308
-0.997919, 49, 1, 112, 256
-0.997932, 177, 301, 192, 332
-0.997939, 207, 265, 222, 296
-0.997952, 1, 49, 500, 112
-0.997965, 329, 205, 344, 236
-0.997969, 193, 205, 320, 236
-0.99799, 417, 225, 480, 288
-0.997991, 191, 285, 206, 316
-0.997995, 167, 253, 182, 284
-0.997999, 215, 277, 230, 308
-0.998003, 321, 129, 384, 192
-0.998006, 409, 217, 424, 248
-0.998008, 255, 297, 270, 328
-0.99801, 289, 1, 320, 256
-0.998016, 81, 57, 208, 88
-0.998034, 343, 237, 358, 268
-0.998058, 319, 213, 334, 244
-0.998067, 209, 157, 224, 188
-0.998077, 1, 233, 128, 264
-0.998081, 289, 161, 416, 192
-0.998084, 65, 257, 192, 288
-0.998086, 179, 261, 194, 292
-0.998095, 65, 297, 192, 328
-0.998098, 175, 289, 190, 320
-0.998101, 369, 161, 432, 224
-0.99811, 11, 133, 26, 164
-0.998115, 1, 89, 500, 152
-0.998119, 213, 265, 228, 296
-0.998124, 333, 241, 348, 272
-0.998131, 265, 245, 280, 276
-0.998134, 215, 149, 230, 180
-0.998143, 81, 113, 208, 144
-0.99815, 173, 253, 188, 284
-0.99817, 203, 157, 218, 188
-0.998174, 337, 1, 400, 333
-0.998179, 167, 285, 182, 316
-0.998182, 369, 229, 496, 260
-0.998196, 261, 145, 276, 176
-0.998206, 159, 253, 174, 284
-0.998206, 249, 241, 264, 272
-0.99821, 171, 129, 186, 160
-0.998214, 329, 193, 344, 224
-0.998216, 447, 273, 462, 304
-0.998218, 313, 33, 344, 288
-0.998219, 209, 169, 224, 200
-0.998222, 167, 153, 182, 184
-0.998225, 235, 245, 250, 276
-0.99823, 259, 265, 274, 296
-0.998232, 157, 157, 172, 188
-0.998233, 195, 161, 210, 192
-0.998234, 367, 229, 382, 260
-0.998236, 191, 273, 206, 304
-0.998238, 165, 265, 180, 296
-0.998243, 205, 301, 220, 332
-0.998243, 273, 1, 304, 256
-0.99825, 233, 65, 264, 192
-0.998252, 277, 1, 308, 128
-0.998259, 413, 233, 428, 264
-0.998264, 177, 193, 304, 224
-0.998268, 33, 81, 288, 144
-0.998276, 213, 253, 228, 284
-0.998287, 227, 273, 242, 304
-0.99829, 225, 289, 240, 320
-0.998298, 321, 185, 448, 216
-0.9983, 377, 1, 440, 333
-0.998302, 175, 157, 190, 188
-0.998305, 369, 297, 496, 328
-0.998312, 247, 273, 262, 304
-0.99832, 191, 257, 206, 288
-0.998324, 81, 73, 208, 104
-0.998324, 255, 229, 270, 260
-0.998327, 185, 257, 200, 288
-0.998331, 261, 265, 292, 280
-0.998332, 21, 145, 52, 160
-0.998332, 185, 263, 216, 278
-0.998333, 237, 187, 268, 202
-0.998334, 273, 149, 304, 164
-0.998334, 253, 277, 284, 292
-0.998334, 173, 267, 204, 282
-0.998337, 201, 209, 232, 224
-0.998337, 185, 13, 216, 28
-0.998338, 229, 159, 260, 174
-0.998339, 273, 169, 304, 184
-0.998339, 185, 51, 216, 66
-0.998341, 261, 43, 292, 58
-0.998341, 105, 169, 136, 184
-0.998341, 325, 251, 356, 266
-0.998341, 401, 237, 432, 252
-0.998342, 327, 249, 342, 280
-0.998342, 215, 161, 230, 192
-0.998342, 225, 227, 256, 242
-0.998343, 273, 125, 304, 140
-0.998343, 205, 165, 236, 180
-0.998343, 165, 155, 196, 170
-0.998344, 257, 245, 288, 260
-0.998344, 453, 279, 484, 294
-0.998345, 1, 177, 128, 208
-0.998346, 185, 275, 216, 290
-0.998346, 325, 235, 356, 250
-0.998347, 205, 11, 236, 26
-0.998348, 221, 153, 252, 168
-0.998349, 365, 233, 396, 248
-0.99835, 169, 261, 200, 276
-0.998351, 437, 273, 468, 288
-0.998352, 385, 297, 416, 312
-0.998352, 169, 285, 200, 300
-0.998353, 189, 173, 220, 188
-0.998354, 17, 151, 48, 166
-0.998355, 177, 251, 208, 266
-0.998355, 217, 11, 248, 26
-0.998356, 17, 181, 48, 196
-0.998357, 153, 175, 184, 190
-0.998358, 177, 161, 208, 176
-0.998358, 233, 303, 264, 318
-0.998358, 213, 245, 244, 260
-0.998358, 197, 307, 228, 322
-0.998359, 285, 89, 316, 104
-0.998359, 285, 99, 316, 114
-0.998359, 205, 297, 236, 312
-0.998361, 177, 29, 208, 44
-0.998361, 261, 141, 292, 156
-0.998361, 145, 257, 176, 272
-0.998362, 165, 293, 196, 308
-0.998362, 237, 193, 268, 208
-0.998362, 281, 41, 312, 56
-0.998364, 245, 291, 276, 306
-0.998364, 165, 161, 196, 176
-0.998365, 201, 259, 232, 274
-0.998365, 1, 133, 128, 164
-0.998365, 269, 209, 300, 333
-0.998365, 335, 205, 350, 236
-0.998366, 197, 313, 228, 328
-0.998366, 285, 161, 316, 176
-0.998366, 313, 231, 344, 246
-0.998366, 377, 235, 408, 250
-0.998367, 243, 245, 258, 276
-0.998367, 323, 229, 338, 260
-0.99837, 281, 115, 312, 130
-0.99837, 253, 271, 284, 286
-0.998371, 201, 179, 232, 194
-0.998371, 225, 111, 256, 126
-0.998371, 233, 311, 264, 326
-0.998372, 157, 269, 188, 284
-0.998372, 261, 157, 276, 188
-0.998374, 421, 255, 452, 270
-0.998374, 161, 131, 192, 146
-0.998374, 213, 311, 244, 326
-0.998375, 177, 313, 208, 328
-0.998376, 149, 299, 180, 314
-0.998377, 249, 257, 280, 272
-0.998377, 217, 277, 248, 292
-0.998378, 317, 217, 348, 232
-0.998378, 349, 241, 380, 256
-0.998379, 261, 147, 292, 162
-0.99838, 241, 151, 272, 166
-0.99838, 169, 167, 200, 182
-0.998381, 245, 307, 276, 322
-0.998381, 189, 297, 220, 312
-0.998383, 247, 225, 262, 256
-0.998385, 233, 257, 248, 288
-0.998386, 229, 285, 260, 300
-0.998387, 217, 187, 248, 202
-0.998389, 197, 265, 228, 280
-0.998389, 205, 159, 236, 174
-0.99839, 249, 159, 280, 174
-0.99839, 249, 1, 280, 128
-0.998391, 189, 185, 220, 200
-0.998393, 191, 173, 206, 204
-0.998393, 177, 153, 208, 168
-0.998394, 221, 181, 252, 196
-0.998395, 253, 285, 284, 300
-0.998396, 241, 297, 272, 312
-0.998396, 207, 289, 222, 320
-0.998396, 255, 253, 270, 284
-0.998397, 325, 229, 356, 244
-0.998397, 243, 289, 258, 320
-0.998397, 397, 231, 428, 246
-0.998398, 185, 307, 216, 322
-0.9984, 181, 285, 212, 300
-0.998403, 161, 299, 192, 314
-0.998404, 201, 265, 216, 296
-0.998406, 145, 163, 176, 178
-0.998406, 267, 137, 282, 168
-0.998409, 165, 255, 196, 270
-0.998409, 163, 297, 178, 328
-0.998409, 325, 241, 356, 256
-0.998409, 9, 135, 40, 150
-0.99841, 211, 189, 226, 220
-0.998411, 413, 249, 428, 280
-0.998411, 241, 275, 272, 290
-0.998413, 253, 269, 268, 300
-0.998415, 361, 239, 392, 254
-0.998417, 185, 269, 200, 300
-0.998419, 317, 223, 348, 238
-0.998419, 263, 293, 278, 324
-0.998419, 185, 257, 216, 272
-0.998421, 81, 97, 144, 160
-0.998422, 217, 291, 248, 306
-0.998422, 271, 165, 286, 196
-0.998422, 321, 207, 352, 222
-0.998423, 193, 155, 224, 170
-0.998423, 209, 153, 240, 168
-0.998423, 217, 159, 248, 174
-0.998423, 205, 291, 236, 306
-0.998424, 205, 271, 236, 286
-0.998426, 229, 275, 260, 290
-0.998426, 337, 243, 368, 258
-0.998429, 193, 37, 208, 68
-0.998429, 427, 249, 442, 280
-0.99843, 9, 145, 40, 160
-0.998431, 189, 167, 220, 182
-0.998432, 211, 233, 226, 264
-0.998434, 329, 217, 344, 248
-0.998436, 223, 145, 238, 176
-0.998437, 177, 295, 208, 310
-0.998437, 229, 269, 260, 284
-0.998443, 251, 153, 266, 184
-0.998443, 173, 303, 204, 318
-0.998444, 369, 257, 496, 288
-0.998447, 169, 279, 200, 294
-0.998449, 149, 263, 180, 278
-0.998451, 213, 283, 244, 298
-0.998454, 153, 257, 168, 288
-0.998456, 389, 239, 420, 254
-0.998459, 229, 255, 260, 270
-0.998461, 193, 289, 224, 304
-0.998462, 153, 157, 184, 172
-0.998463, 245, 245, 276, 260
-0.998468, 161, 285, 176, 316
-0.998468, 23, 133, 38, 164
-0.998469, 241, 285, 272, 300
-0.998471, 225, 247, 288, 262
-0.998476, 91, 1, 106, 32
-0.998478, 229, 249, 260, 264
-0.998481, 377, 233, 392, 264
-0.998482, 81, 85, 208, 116
-0.998483, 229, 291, 260, 306
-0.998486, 193, 161, 224, 176
-0.998486, 231, 293, 246, 324
-0.998488, 213, 257, 244, 272
-0.998492, 203, 237, 218, 268
-0.998493, 193, 251, 256, 266
-0.998493, 281, 145, 296, 176
-0.998495, 177, 145, 192, 176
-0.998499, 219, 293, 234, 324
-0.9985, 191, 237, 206, 268
-0.9985, 177, 285, 240, 300
-0.998502, 201, 293, 264, 308
-0.998503, 243, 177, 258, 208
-0.998503, 197, 289, 212, 320
-0.998507, 277, 161, 292, 192
-0.998511, 213, 263, 244, 278
-0.998511, 241, 161, 256, 192
-0.998511, 213, 251, 244, 266
-0.998514, 371, 301, 386, 332
-0.998515, 297, 153, 312, 184
-0.998517, 295, 85, 310, 116
-0.998517, 169, 303, 232, 318
-0.998518, 169, 255, 232, 270
-0.998521, 209, 257, 272, 272
-0.998523, 159, 141, 174, 172
-0.998525, 383, 297, 398, 328
-0.998526, 321, 249, 336, 280
-0.99853, 161, 291, 224, 306
-0.998531, 217, 287, 280, 302
-0.998531, 209, 145, 224, 176
-0.998533, 271, 153, 286, 184
-0.998534, 201, 281, 264, 296
-0.998538, 201, 197, 216, 228
-0.998542, 29, 133, 44, 164
-0.998545, 321, 65, 448, 128
-0.998546, 265, 233, 280, 264
-0.998549, 217, 275, 280, 290
-0.99855, 273, 5, 400, 36
-0.998552, 183, 49, 198, 80
-0.998553, 177, 297, 240, 312
-0.998553, 369, 243, 432, 258
-0.998554, 233, 269, 248, 300
-0.998555, 235, 141, 250, 172
-0.998555, 169, 159, 232, 174
-0.998556, 197, 253, 228, 268
-0.998557, 165, 141, 180, 172
-0.998558, 419, 233, 434, 264
-0.99856, 177, 271, 240, 286
-0.998563, 195, 185, 210, 216
-0.998565, 245, 141, 260, 172
-0.998565, 439, 269, 454, 300
-0.998566, 235, 109, 250, 140
-0.998567, 319, 193, 334, 224
-0.998574, 137, 285, 200, 300
-0.998574, 153, 297, 216, 312
-0.998575, 1, 205, 128, 236
-0.998578, 145, 157, 208, 172
-0.99858, 201, 311, 264, 326
-0.998586, 337, 237, 400, 252
-0.998587, 65, 269, 192, 300
-0.998588, 209, 143, 272, 158
-0.998589, 193, 155, 256, 170
-0.998591, 369, 221, 432, 236
-0.998594, 265, 167, 328, 182
-0.998594, 169, 261, 232, 276
-0.998595, 257, 41, 320, 56
-0.998596, 329, 243, 392, 258
-0.998599, 153, 171, 216, 186
-0.9986, 161, 277, 224, 292
-0.9986, 137, 269, 200, 284
-0.998601, 193, 183, 256, 198
-0.998601, 313, 225, 376, 240
-0.998603, 217, 159, 280, 174
-0.998603, 433, 169, 496, 232
-0.998604, 193, 265, 256, 280
-0.998604, 225, 241, 288, 256
-0.998607, 1, 135, 64, 150
-0.998607, 209, 299, 272, 314
-0.998608, 161, 165, 224, 180
-0.998608, 321, 207, 384, 222
-0.998609, 249, 49, 312, 64
-0.99861, 361, 213, 424, 228
-0.99861, 257, 89, 320, 104
-0.998612, 17, 179, 80, 194
-0.998612, 361, 233, 424, 248
-0.998614, 177, 15, 240, 30
-0.998614, 169, 151, 232, 166
-0.998615, 145, 177, 208, 192
-0.998616, 337, 65, 400, 320
-0.998616, 145, 29, 208, 44
-0.998617, 329, 201, 392, 216
-0.998618, 145, 255, 208, 270
-0.998618, 217, 151, 280, 166
-0.99862, 153, 187, 216, 202
-0.99862, 177, 315, 240, 330
-0.99862, 209, 229, 272, 244
-0.998621, 257, 101, 320, 116
-0.998622, 249, 149, 312, 164
-0.998624, 169, 249, 232, 264
-0.998624, 129, 165, 192, 180
-0.998625, 281, 47, 344, 62
-0.998625, 241, 287, 304, 302
-0.998627, 137, 279, 200, 294
-0.998627, 329, 217, 392, 232
-0.998629, 249, 143, 312, 158
-0.99863, 193, 161, 256, 176
-0.99863, 313, 251, 376, 266
-0.998631, 225, 269, 288, 284
-0.998632, 169, 309, 232, 324
-0.998632, 145, 151, 208, 166
-0.998633, 321, 231, 384, 246
-0.998634, 233, 255, 296, 270
-0.998634, 225, 293, 288, 308
-0.998634, 353, 299, 416, 314
-0.998635, 121, 103, 184, 118
-0.998635, 193, 189, 256, 204
-0.998636, 289, 195, 352, 210
-0.998641, 305, 219, 368, 234
-0.998641, 145, 303, 208, 318
-0.998641, 81, 161, 112, 288
-0.998642, 129, 263, 192, 278
-0.998645, 193, 305, 256, 320
-0.998645, 169, 141, 232, 156
-0.998646, 105, 167, 168, 182
-0.998646, 177, 171, 240, 186
-0.998647, 225, 111, 288, 126
-0.998648, 385, 295, 448, 310
-0.998649, 257, 113, 320, 128
-0.998649, 137, 131, 200, 146
-0.998651, 129, 13, 192, 28
-0.998652, 225, 307, 288, 322
-0.998655, 281, 95, 344, 110
-0.998656, 265, 159, 328, 174
-0.998657, 353, 289, 416, 304
-0.998658, 281, 39, 344, 54
-0.998658, 417, 287, 480, 302
-0.998658, 153, 9, 216, 24
-0.998658, 225, 281, 288, 296
-0.998659, 105, 5, 168, 20
-0.998659, 121, 299, 184, 314
-0.998659, 209, 137, 272, 152
-0.998659, 297, 241, 360, 256
-0.99866, 193, 149, 256, 164
-0.99866, 193, 25, 256, 40
-0.998661, 169, 123, 232, 138
-0.998662, 241, 159, 304, 174
-0.998662, 177, 55, 240, 70
-0.998662, 401, 267, 464, 282
-0.998663, 281, 109, 344, 124
-0.998663, 217, 117, 280, 132
-0.998664, 217, 181, 280, 196
-0.998664, 257, 55, 320, 70
-0.998664, 369, 227, 432, 242
-0.998665, 209, 201, 272, 216
-0.998665, 361, 207, 424, 222
-0.998666, 385, 235, 448, 250
-0.998667, 65, 245, 192, 276
-0.998669, 233, 137, 296, 152
-0.998669, 193, 245, 256, 260
-0.998669, 201, 13, 264, 28
-0.998669, 225, 263, 288, 278
-0.998671, 129, 7, 192, 22
-0.998671, 1, 141, 64, 156
-0.998671, 177, 177, 240, 192
-0.998671, 217, 187, 280, 202
-0.998672, 153, 93, 216, 108
-0.998672, 153, 99, 216, 114
-0.998672, 137, 291, 200, 306
-0.998672, 257, 251, 320, 266
-0.998673, 169, 129, 232, 144
-0.998673, 313, 291, 376, 306
-0.998673, 129, 247, 192, 262
-0.998673, 201, 237, 264, 252
-0.998674, 305, 283, 368, 298
-0.998703, 65, 129, 192, 160
-0.998716, 13, 1, 44, 256
-0.998741, 289, 33, 416, 64
-0.998756, 1, 193, 128, 224
-0.998763, 353, 173, 480, 204
-0.998764, 89, 249, 152, 312
-0.998796, 17, 49, 144, 112
-0.998802, 301, 1, 332, 256
-0.998803, 17, 89, 144, 152
-0.998883, 81, 213, 208, 244
-0.998895, 69, 161, 100, 288
-0.998906, 361, 65, 424, 320
-0.998928, 65, 281, 192, 312
-0.998929, 273, 17, 400, 48
-0.998959, 177, 217, 304, 248
-0.998961, 1, 217, 128, 248
-0.998975, 25, 1, 56, 256
-0.999063, 339, 209, 354, 333
-0.999069, 337, 161, 464, 192
-0.99908, 121, 1, 152, 256
-0.999091, 289, 85, 416, 116
-0.999102, 1, 121, 128, 152
-0.999125, 37, 1, 68, 256
-0.999167, 333, 209, 348, 333
-0.999175, 257, 209, 272, 333
-0.999176, 207, 209, 222, 333
-0.99918, 219, 209, 234, 333
-0.999186, 273, 297, 400, 328
-0.999197, 413, 209, 428, 333
-0.999215, 345, 209, 360, 333
-0.999223, 233, 193, 248, 320
-0.999232, 149, 193, 164, 320
-0.999234, 289, 73, 416, 104
-0.999237, 327, 209, 342, 333
-0.999254, 325, 81, 356, 208
-0.999259, 273, 257, 400, 288
-0.99926, 289, 133, 416, 164
-0.999266, 389, 209, 404, 333
-0.999268, 373, 209, 388, 333
-0.999268, 211, 145, 226, 272
-0.999281, 33, 165, 160, 196
-0.999288, 1, 109, 128, 140
-0.99929, 221, 161, 236, 288
-0.999293, 201, 193, 216, 320
-0.999297, 227, 113, 242, 240
-0.999297, 157, 145, 172, 272
-0.999299, 369, 185, 496, 216
-0.999301, 399, 209, 414, 333
-0.999321, 177, 1, 192, 128
-0.999326, 145, 145, 160, 272
-0.999327, 289, 45, 416, 76
-0.999328, 181, 49, 196, 176
-0.999333, 351, 209, 366, 333
-0.99934, 137, 1, 168, 256
-0.999343, 321, 177, 336, 304
-0.999346, 269, 81, 284, 208
-0.999348, 265, 193, 280, 320
-0.999352, 367, 209, 382, 333
-0.999355, 279, 113, 294, 240
-0.999357, 405, 209, 420, 333
-0.999363, 235, 97, 250, 224
-0.999365, 333, 161, 348, 288
-0.999366, 25, 177, 40, 304
-0.999375, 289, 49, 304, 176
-0.999376, 297, 113, 312, 240
-0.999377, 303, 97, 318, 224
-0.999386, 173, 113, 188, 240
-0.999388, 213, 209, 228, 333
-0.99939, 175, 65, 190, 192
-0.999396, 357, 209, 372, 333
-0.999397, 383, 209, 398, 333
-0.999401, 205, 145, 220, 272
-0.999403, 269, 33, 284, 160
-0.999404, 217, 113, 232, 240
-0.99941, 261, 65, 276, 192
-0.999411, 279, 33, 294, 160
-0.999417, 289, 97, 304, 224
-0.99942, 269, 129, 284, 256
-0.999426, 327, 161, 342, 288
-0.999427, 325, 1, 356, 256
-0.999433, 49, 1, 80, 256
-0.999435, 165, 81, 180, 208
-0.999437, 155, 193, 170, 320
-0.99944, 295, 65, 310, 192
-0.999443, 419, 209, 434, 333
-0.999458, 411, 161, 426, 288
-0.999458, 1, 1, 32, 256
-0.99946, 433, 201, 496, 264
-0.99946, 139, 161, 154, 288
-0.999465, 251, 193, 266, 320
-0.999466, 183, 129, 198, 256
-0.999467, 199, 145, 214, 272
-0.999467, 321, 121, 448, 152
-0.999478, 227, 177, 242, 304
-0.999486, 143, 209, 158, 333
-0.999493, 245, 177, 260, 304
-0.999493, 223, 65, 238, 192
-0.999505, 321, 1, 448, 32
-0.999506, 381, 161, 396, 288
-0.999506, 285, 145, 300, 272
-0.999507, 195, 193, 210, 320
-0.999515, 263, 145, 278, 272
-0.999516, 59, 1, 74, 128
-0.999517, 433, 209, 464, 333
-0.999519, 161, 209, 176, 333
-0.999521, 305, 161, 320, 288
-0.999522, 19, 177, 34, 304
-0.999524, 289, 109, 416, 140
-0.999533, 37, 177, 52, 304
-0.999536, 399, 161, 414, 288
-0.999536, 193, 145, 208, 272
-0.999541, 241, 97, 256, 224
-0.999544, 171, 131, 186, 146
-0.999544, 163, 253, 178, 268
-0.999544, 225, 291, 240, 306
-0.999544, 191, 29, 206, 44
-0.999545, 249, 247, 264, 262
-0.999545, 439, 263, 454, 278
-0.999545, 413, 225, 428, 240
-0.999545, 183, 305, 198, 320
-0.999546, 195, 161, 210, 176
-0.999546, 215, 11, 230, 26
-0.999546, 337, 205, 352, 220
-0.999546, 375, 235, 390, 250
-0.999547, 299, 97, 314, 112
-0.999547, 367, 239, 382, 254
-0.999547, 393, 161, 408, 288
-0.999547, 215, 313, 230, 328
-0.999547, 157, 175, 172, 190
-0.999547, 233, 145, 248, 272
-0.999547, 191, 315, 206, 330
-0.999547, 297, 111, 312, 126
-0.999548, 199, 309, 214, 324
-0.999548, 269, 245, 284, 260
-0.999548, 221, 159, 236, 174
-0.999548, 405, 243, 420, 258
-0.999548, 411, 249, 426, 264
-0.999548, 311, 177, 326, 304
-0.999549, 425, 253, 440, 268
-0.99955, 201, 265, 216, 280
-0.999552, 257, 305, 272, 320
-0.999552, 249, 277, 264, 292
-0.999553, 245, 311, 260, 326
-0.999554, 193, 305, 208, 320
-0.999554, 171, 275, 186, 290
-0.999555, 243, 153, 258, 168
-0.999555, 167, 307, 182, 322
-0.999555, 197, 315, 212, 330
-0.999555, 203, 251, 218, 266
-0.999556, 283, 147, 298, 162
-0.999557, 187, 33, 202, 160
-0.999557, 201, 187, 216, 202
-0.999557, 189, 209, 204, 333
-0.999557, 115, 209, 130, 333
-0.999558, 339, 161, 354, 288
-0.999559, 217, 293, 232, 308
-0.999559, 261, 281, 276, 296
-0.999559, 225, 181, 240, 196
-0.999559, 237, 285, 252, 300
-0.99956, 393, 235, 408, 250
-0.99956, 249, 197, 264, 212
-0.99956, 179, 271, 194, 286
-0.99956, 207, 13, 222, 28
-0.999561, 249, 301, 264, 316
-0.999561, 25, 145, 40, 160
-0.999562, 205, 175, 220, 190
-0.999562, 293, 153, 308, 168
-0.999562, 245, 285, 260, 300
-0.999562, 179, 293, 194, 308
-0.999562, 157, 297, 172, 312
-0.999563, 209, 295, 224, 310
-0.999563, 335, 219, 350, 234
-0.999563, 227, 275, 242, 290
-0.999564, 197, 33, 212, 48
-0.999564, 157, 157, 172, 172
-0.999564, 209, 313, 224, 328
-0.999564, 257, 161, 272, 288
-0.999564, 169, 269, 184, 284
-0.999565, 185, 313, 200, 328
-0.999567, 167, 209, 182, 333
-0.999567, 219, 281, 234, 296
-0.999568, 191, 275, 206, 290
-0.99957, 159, 261, 174, 276
-0.99957, 221, 153, 236, 168
-0.999571, 173, 161, 188, 176
-0.999571, 367, 161, 382, 288
-0.999572, 369, 233, 384, 248
-0.999572, 199, 169, 214, 184
-0.999572, 339, 235, 354, 250
-0.999572, 419, 247, 434, 262
-0.999573, 215, 255, 230, 270
-0.999575, 31, 145, 46, 272
-0.999575, 277, 163, 292, 178
-0.999575, 317, 217, 332, 232
-0.999576, 205, 155, 220, 170
-0.999576, 301, 33, 316, 160
-0.999578, 243, 247, 258, 262
-0.999578, 265, 267, 280, 282
-0.999578, 449, 277, 464, 292
-0.999579, 237, 251, 252, 266
-0.999579, 7, 33, 22, 160
-0.99958, 239, 177, 254, 304
-0.99958, 203, 289, 218, 304
-0.999581, 375, 161, 390, 288
-0.999582, 259, 253, 274, 268
-0.999582, 193, 291, 208, 306
-0.999583, 299, 161, 314, 176
-0.999583, 271, 165, 286, 180
-0.999584, 163, 157, 178, 172
-0.999585, 425, 209, 440, 333
-0.999585, 251, 309, 266, 324
-0.999586, 185, 295, 200, 310
-0.999587, 231, 291, 246, 306
-0.999587, 289, 269, 416, 300
-0.999587, 339, 241, 354, 256
-0.999589, 215, 151, 230, 166
-0.999589, 1, 33, 16, 160
-0.99959, 255, 273, 270, 288
-0.99959, 207, 265, 222, 280
-0.99959, 167, 165, 182, 180
-0.999591, 147, 97, 162, 224
-0.999591, 269, 251, 284, 266
-0.999594, 171, 155, 186, 170
-0.999595, 163, 299, 178, 314
-0.999595, 183, 279, 198, 294
-0.999595, 11, 147, 26, 162
-0.999596, 221, 271, 236, 286
-0.999597, 47, 161, 62, 288
-0.999597, 177, 303, 192, 318
-0.999597, 131, 193, 146, 320
-0.999598, 53, 1, 68, 128
-0.999598, 259, 245, 274, 260
-0.999598, 405, 161, 420, 288
-0.999599, 325, 225, 340, 240
-0.999602, 169, 257, 184, 272
-0.999602, 193, 297, 208, 312
-0.999604, 19, 145, 34, 160
-0.999604, 213, 157, 228, 172
-0.999604, 327, 231, 342, 246
-0.999605, 231, 267, 246, 282
-0.999605, 333, 225, 348, 240
-0.999607, 255, 49, 270, 176
-0.999608, 209, 287, 224, 302
-0.999609, 229, 65, 244, 192
-0.99961, 399, 235, 414, 250
-0.999611, 329, 207, 344, 222
-0.999613, 197, 257, 212, 272
-0.999613, 245, 291, 260, 306
-0.999613, 165, 33, 180, 160
-0.999615, 255, 299, 270, 314
-0.999616, 333, 241, 348, 256
-0.999618, 11, 137, 26, 152
-0.999618, 217, 263, 232, 278
-0.999619, 169, 301, 184, 316
-0.999622, 179, 193, 194, 320
-0.999622, 345, 241, 360, 256
-0.999622, 263, 17, 278, 144
-0.999623, 177, 279, 192, 294
-0.999623, 265, 257, 280, 272
-0.999623, 171, 1, 186, 128
-0.999627, 411, 237, 426, 252
-0.999627, 13, 33, 28, 160
-0.999628, 327, 49, 342, 176
-0.99963, 207, 161, 222, 176
-0.999631, 209, 253, 224, 268
-0.999631, 255, 285, 270, 300
-0.999636, 121, 161, 136, 288
-0.999638, 157, 33, 172, 160
-0.999639, 227, 261, 242, 276
-0.999639, 221, 251, 236, 266
-0.99964, 219, 17, 234, 144
-0.999641, 185, 285, 200, 300
-0.999644, 309, 113, 324, 240
-0.999644, 191, 81, 206, 208
-0.999645, 271, 193, 286, 320
-0.999646, 159, 97, 174, 224
-0.999646, 231, 249, 246, 264
-0.999652, 229, 255, 244, 270
-0.999652, 437, 209, 452, 333
-0.999652, 11, 177, 26, 304
-0.999653, 167, 129, 182, 256
-0.999653, 105, 1, 136, 256
-0.999655, 221, 257, 236, 272
-0.999657, 387, 161, 402, 288
-0.999658, 85, 209, 116, 333
-0.999659, 333, 231, 348, 246
-0.999661, 237, 17, 252, 144
-0.999665, 315, 129, 330, 256
-0.999669, 137, 209, 152, 333
-0.999671, 211, 97, 226, 224
-0.999671, 65, 1, 80, 128
-0.999671, 173, 209, 188, 333
-0.999677, 291, 145, 306, 272
-0.99968, 109, 161, 124, 288
-0.99968, 47, 1, 62, 128
-0.999682, 31, 193, 46, 320
-0.999682, 121, 17, 136, 144
-0.999687, 139, 1, 154, 128
-0.999688, 197, 81, 212, 208
-0.999688, 151, 145, 166, 272
-0.99969, 309, 1, 324, 128
-0.999698, 231, 17, 246, 144
-0.999698, 19, 113, 34, 240
-0.999713, 221, 1, 252, 128
-0.99972, 85, 1, 116, 256
-0.99975, 17, 145, 144, 176
-0.999789, 301, 209, 332, 333
-0.999812, 401, 65, 464, 320
-0.999824, 33, 97, 96, 224
-0.999937, 337, 65, 368, 320
-0.999945, 417, 1, 480, 333
-1.00023, 337, 17, 368, 144
-1.00025, 381, 65, 412, 320
-1.00031, 329, 65, 392, 128
-1.00032, 61, 1, 92, 256
-1.00032, 409, 65, 440, 320
-1.0004, 393, 65, 424, 320
-1.00043, 73, 1, 104, 128
-1.00045, 345, 137, 408, 200
-1.00049, 45, 209, 76, 333
-1.00049, 369, 113, 432, 240
-1.00053, 1, 89, 64, 152
-1.00056, 337, 113, 464, 176
-1.0006, 73, 209, 104, 333
-1.00061, 89, 137, 152, 200
-1.00062, 353, 65, 384, 320
-1.00064, 73, 1, 104, 256
-1.00065, 121, 113, 152, 240
-1.00067, 1, 265, 128, 328
-1.00068, 445, 209, 476, 333
-1.00072, 369, 65, 400, 320
-1.00077, 437, 65, 468, 320
-1.00082, 1, 129, 32, 256
-1.00085, 425, 65, 456, 320
-1.0009, 469, 65, 500, 320
-1.00092, 57, 161, 88, 288
-1.00096, 133, 97, 164, 224
-1.00099, 81, 113, 144, 240
-1.00101, 453, 65, 484, 320
-1.00154, 337, 1, 464, 64
-1.0017, 85, 1, 116, 128
-1.00183, 337, 41, 464, 104
-1.00184, 37, 49, 68, 176
-1.00199, 61, 209, 92, 333
-1.00203, 329, 97, 392, 224
-1.00221, 425, 161, 456, 288
-1.00223, 337, 113, 368, 240
-1.0023, 441, 161, 472, 288
-1.00245, 45, 97, 76, 224
-1.00272, 25, 49, 56, 176
-1.00272, 469, 177, 500, 304
-1.00274, 193, 49, 224, 176
-1.00289, 57, 49, 120, 176
-1.00291, 369, 89, 496, 152
-1.00296, 133, 49, 164, 176
-1.00304, 457, 161, 488, 288
-1.00305, 369, 65, 496, 128
-1.00317, 57, 49, 88, 176
-1.00337, 77, 97, 108, 224
-1.00366, 57, 97, 120, 224
-1.00376, 101, 113, 132, 240
-1.00408, 353, 113, 384, 240
-1.00413, 85, 49, 116, 176
-1.00415, 1, 81, 32, 208
-1.00418, 425, 33, 488, 288
-1.00435, 65, 97, 96, 224
-1.00457, 69, 49, 100, 176
-1.00468, 469, 129, 500, 256
-1.00469, 337, 17, 464, 144
-1.00474, 89, 97, 120, 224
-1.00496, 89, 49, 152, 176
-1.00503, 97, 49, 128, 176
-1.00511, 457, 209, 488, 333
-1.00573, 337, 65, 464, 192
-1.00672, 409, 113, 472, 240
-1.00682, 433, 113, 496, 240
-1.00987, 345, 1, 408, 128
-1.01175, 345, 49, 408, 176
-1.01478, 385, 33, 448, 160
-1.01478, 409, 33, 472, 160
-1.01478, 433, 33, 496, 160
