1968
-0.358848, 1, 1, 500, 375
-0.397649, 1, 129, 500, 375
-0.488843, 33, 1, 288, 375
-0.514951, 1, 1, 500, 256
-0.575127, 1, 97, 256, 352
-0.580825, 193, 1, 448, 375
-0.592309, 161, 129, 416, 375
-0.644543, 257, 129, 500, 375
-0.647346, 1, 1, 256, 256
-0.691157, 97, 1, 352, 256
-0.768356, 193, 33, 448, 288
-0.84645, 177, 129, 304, 375
-0.857363, 97, 1, 224, 256
-0.859339, 97, 97, 224, 352
-0.862533, 33, 129, 160, 375
-0.873653, 257, 129, 384, 375
-0.87481, 1, 129, 500, 256
-0.877191, 49, 1, 176, 375
-0.879679, 49, 33, 176, 288
-0.881965, 241, 1, 368, 375
-0.887552, 1, 225, 500, 352
-0.887617, 97, 1, 224, 375
-0.890813, 321, 129, 448, 375
-0.89144, 305, 1, 432, 375
-0.891941, 145, 1, 272, 375
-0.899082, 1, 1, 128, 375
-0.903976, 241, 33, 368, 288
-0.904659, 177, 33, 304, 288
-0.914304, 193, 145, 448, 272
-0.915868, 193, 1, 320, 375
-0.91693, 1, 129, 256, 256
-0.918678, 1, 1, 128, 256
-0.919415, 353, 1, 480, 375
-0.92374, 1, 177, 500, 304
-0.925048, 337, 1, 464, 256
-0.925526, 65, 225, 320, 352
-0.925855, 369, 129, 496, 375
-0.928468, 81, 129, 208, 256
-0.928603, 289, 33, 416, 288
-0.92982, 65, 177, 320, 304
-0.931003, 1, 81, 500, 208
-0.932182, 297, 177, 360, 304
-0.934237, 321, 113, 448, 240
-0.935304, 129, 113, 256, 240
-0.936069, 97, 129, 352, 256
-0.93651, 177, 177, 304, 304
-0.936906, 161, 193, 416, 320
-0.938032, 137, 113, 200, 240
-0.93974, 33, 81, 288, 208
-0.939805, 257, 193, 500, 320
-0.94065, 257, 161, 384, 288
-0.941534, 33, 129, 160, 256
-0.941632, 1, 17, 500, 144
-0.944181, 161, 241, 416, 368
-0.945119, 321, 161, 448, 288
-0.94514, 257, 161, 320, 288
-0.94517, 193, 161, 256, 288
-0.945432, 97, 129, 160, 256
-0.945462, 321, 177, 384, 304
-0.945644, 161, 225, 288, 352
-0.945982, 321, 225, 448, 352
-0.946141, 217, 145, 280, 272
-0.947666, 17, 177, 144, 304
-0.947773, 57, 153, 120, 216
-0.947785, 169, 113, 232, 240
-0.948201, 41, 145, 104, 272
-0.948882, 337, 113, 400, 240
-0.948907, 313, 169, 376, 232
-0.949313, 113, 225, 240, 352
-0.949753, 161, 81, 416, 208
-0.95099, 161, 161, 224, 288
-0.951168, 113, 81, 176, 208
-0.95126, 113, 113, 176, 176
-0.95126, 257, 241, 500, 368
-0.951289, 297, 129, 360, 256
-0.951337, 193, 129, 320, 256
-0.951359, 121, 161, 184, 288
-0.951382, 241, 225, 368, 352
-0.951417, 137, 225, 200, 352
-0.951811, 129, 161, 256, 288
-0.951942, 177, 209, 240, 336
-0.952089, 281, 161, 344, 224
-0.952177, 65, 81, 192, 208
-0.952413, 89, 145, 152, 208
-0.952587, 113, 161, 176, 224
-0.952614, 393, 177, 456, 304
-0.952707, 1, 1, 256, 128
-0.953041, 73, 129, 136, 256
-0.953545, 65, 177, 192, 304
-0.953674, 377, 169, 440, 232
-0.954368, 113, 1, 176, 128
-0.95438, 89, 81, 152, 208
-0.954569, 153, 121, 216, 184
-0.954594, 289, 193, 352, 256
-0.954626, 369, 177, 496, 304
-0.954741, 369, 225, 496, 352
-0.954997, 113, 65, 240, 192
-0.955194, 297, 225, 360, 352
-0.955595, 353, 225, 416, 352
-0.956801, 241, 177, 304, 240
-0.957134, 97, 1, 224, 128
-0.957165, 33, 161, 96, 224
-0.957606, 273, 209, 336, 336
-0.957747, 185, 225, 248, 288
-0.957767, 321, 225, 384, 352
-0.957928, 233, 209, 296, 336
-0.958467, 89, 177, 152, 240
-0.958919, 241, 113, 368, 240
-0.95916, 361, 177, 424, 304
-0.959332, 209, 217, 272, 280
-0.959391, 97, 177, 160, 304
-0.959475, 401, 169, 464, 232
-0.959566, 137, 1, 200, 128
-0.959636, 97, 17, 352, 144
-0.959879, 337, 145, 400, 208
-0.96013, 369, 129, 432, 256
-0.960431, 201, 225, 264, 352
-0.960824, 313, 193, 376, 256
-0.961349, 337, 177, 400, 240
-0.96138, 49, 1, 176, 128
-0.961478, 129, 137, 192, 200
-0.961659, 353, 241, 416, 304
-0.961713, 161, 217, 224, 280
-0.962496, 97, 241, 160, 368
-0.962684, 265, 185, 328, 248
-0.962716, 233, 249, 296, 312
-0.963037, 65, 185, 128, 248
-0.963127, 329, 265, 392, 328
-0.963148, 281, 249, 344, 312
-0.963186, 17, 161, 80, 288
-0.963349, 185, 137, 248, 200
-0.963349, 217, 153, 280, 216
-0.963806, 121, 185, 184, 248
-0.963941, 65, 225, 192, 352
-0.964184, 73, 225, 136, 352
-0.964252, 65, 1, 128, 128
-0.964951, 201, 249, 264, 312
-0.965037, 297, 217, 360, 280
-0.965365, 401, 201, 464, 264
-0.96567, 369, 193, 432, 256
-0.965713, 217, 185, 280, 248
-0.965878, 33, 1, 96, 128
-0.965905, 185, 185, 248, 248
-0.966059, 377, 145, 440, 208
-0.966348, 137, 233, 200, 296
-0.966381, 257, 153, 320, 216
-0.966445, 193, 113, 256, 240
-0.966487, 305, 249, 368, 312
-0.966898, 105, 129, 168, 375
-0.966962, 305, 145, 368, 208
-0.967037, 329, 225, 392, 288
-0.967068, 249, 273, 312, 336
-0.967259, 233, 225, 296, 288
-0.967458, 353, 265, 416, 328
-0.967481, 17, 49, 144, 176
-0.967547, 337, 201, 400, 264
-0.967668, 225, 273, 288, 336
-0.967776, 161, 177, 224, 240
-0.967964, 113, 1, 176, 256
-0.968045, 321, 177, 352, 240
-0.968236, 273, 273, 336, 336
-0.968785, 241, 177, 368, 240
-0.969104, 161, 65, 288, 192
-0.969118, 257, 233, 320, 296
-0.969162, 321, 145, 448, 208
-0.969193, 41, 97, 104, 224
-0.969233, 17, 225, 144, 352
-0.969452, 117, 153, 148, 216
-0.969475, 65, 49, 128, 176
-0.969552, 137, 1, 200, 256
-0.969837, 137, 65, 200, 192
-0.96986, 9, 209, 72, 336
-0.970063, 337, 169, 464, 232
-0.970107, 121, 209, 184, 272
-0.970394, 89, 113, 152, 176
-0.970415, 257, 97, 500, 224
-0.970673, 49, 145, 176, 208
-0.970721, 401, 129, 464, 256
-0.970768, 129, 137, 256, 200
-0.97096, 337, 169, 368, 232
-0.971004, 161, 225, 288, 288
-0.971084, 25, 185, 88, 248
-0.971218, 417, 193, 480, 320
-0.971303, 305, 273, 368, 336
-0.971424, 153, 145, 216, 208
-0.971547, 137, 97, 200, 160
-0.971612, 257, 113, 320, 240
-0.971675, 169, 113, 200, 240
-0.971723, 129, 113, 160, 176
-0.971822, 65, 177, 128, 304
-0.971959, 329, 161, 360, 288
-0.97199, 153, 97, 216, 352
-0.972108, 97, 113, 224, 176
-0.972199, 429, 161, 460, 224
-0.972218, 105, 137, 136, 200
-0.972428, 41, 241, 104, 368
-0.972526, 161, 65, 224, 192
-0.972586, 257, 209, 320, 272
-0.972715, 377, 225, 440, 352
-0.972733, 129, 9, 192, 72
-0.972893, 217, 97, 280, 224
-0.972912, 129, 129, 192, 375
-0.972933, 49, 161, 80, 224
-0.972979, 113, 105, 144, 168
-0.973015, 325, 153, 356, 216
-0.973055, 113, 97, 144, 224
-0.973062, 305, 129, 368, 375
-0.97332, 161, 201, 288, 264
-0.973356, 377, 225, 440, 288
-0.973446, 401, 145, 464, 208
-0.973705, 261, 177, 292, 304
-0.973722, 33, 17, 96, 80
-0.973785, 301, 169, 332, 232
-0.973793, 193, 129, 256, 375
-0.973827, 73, 17, 136, 80
-0.973862, 105, 169, 136, 232
-0.973948, 105, 273, 168, 336
-0.973988, 361, 233, 392, 296
-0.97417, 377, 265, 440, 328
-0.974384, 257, 129, 320, 375
-0.974425, 17, 169, 144, 232
-0.974431, 341, 249, 372, 312
-0.974636, 201, 129, 232, 256
-0.974675, 289, 249, 416, 312
-0.974747, 161, 113, 192, 176
-0.974814, 125, 97, 156, 224
-0.974985, 337, 121, 400, 184
-0.975009, 217, 161, 248, 288
-0.97503, 405, 177, 436, 240
-0.975044, 341, 129, 372, 256
-0.97508, 241, 201, 368, 264
-0.975157, 257, 273, 384, 336
-0.975196, 349, 177, 380, 304
-0.975204, 117, 177, 148, 240
-0.975243, 141, 113, 172, 240
-0.975463, 81, 289, 144, 352
-0.975496, 73, 145, 104, 272
-0.975539, 369, 129, 496, 256
-0.975591, 217, 129, 280, 375
-0.975645, 349, 193, 380, 256
-0.975654, 221, 217, 252, 280
-0.975714, 353, 289, 416, 352
-0.975722, 89, 201, 152, 264
-0.975726, 261, 177, 292, 240
-0.975787, 257, 249, 288, 312
-0.975855, 429, 185, 460, 248
-0.975897, 41, 129, 104, 375
-0.975996, 361, 177, 392, 240
-0.976018, 177, 249, 304, 312
-0.976044, 417, 161, 448, 224
-0.976089, 141, 153, 172, 216
-0.97609, 241, 145, 272, 272
-0.976133, 425, 177, 488, 240
-0.97622, 377, 129, 440, 375
-0.976226, 77, 161, 108, 224
-0.976302, 309, 193, 340, 256
-0.976342, 65, 129, 128, 192
-0.97645, 65, 129, 128, 375
-0.97659, 305, 177, 336, 304
-0.976618, 81, 169, 208, 232
-0.976697, 101, 113, 132, 240
-0.976698, 241, 153, 368, 216
-0.976783, 61, 153, 92, 216
-0.976829, 161, 241, 224, 304
-0.976861, 193, 161, 320, 224
-0.976984, 329, 289, 392, 352
-0.977102, 149, 105, 180, 168
-0.977189, 341, 225, 372, 288
-0.97725, 9, 281, 72, 344
-0.977324, 57, 281, 120, 344
-0.977347, 201, 273, 264, 336
-0.977368, 357, 225, 388, 352
-0.977399, 329, 129, 392, 375
-0.977463, 273, 177, 304, 240
-0.977509, 345, 225, 376, 352
-0.977615, 117, 129, 148, 192
-0.977668, 185, 49, 248, 176
-0.977678, 249, 161, 280, 224
-0.977791, 377, 289, 440, 352
-0.977931, 285, 249, 316, 312
-0.977949, 93, 145, 124, 208
-0.977957, 33, 273, 96, 336
-0.978029, 129, 177, 256, 240
-0.978074, 1, 1, 128, 128
-0.978107, 405, 145, 436, 208
-0.978205, 317, 161, 348, 288
-0.978229, 349, 169, 380, 232
-0.978262, 245, 233, 276, 296
-0.978274, 289, 177, 416, 240
-0.978279, 189, 225, 220, 288
-0.978389, 337, 249, 464, 312
-0.978525, 225, 249, 352, 312
-0.978537, 421, 193, 452, 320
-0.978571, 361, 201, 392, 264
-0.978607, 181, 209, 212, 336
-0.978651, 369, 121, 432, 184
-0.978653, 209, 225, 336, 288
-0.978699, 157, 97, 188, 224
-0.978708, 185, 161, 216, 288
-0.978727, 401, 241, 464, 368
-0.978739, 169, 273, 232, 336
-0.978743, 285, 225, 316, 288
-0.978761, 305, 273, 432, 336
-0.978779, 29, 169, 60, 232
-0.978787, 141, 129, 172, 192
-0.978818, 17, 193, 144, 256
-0.978851, 365, 177, 396, 304
-0.978851, 93, 169, 124, 232
-0.978851, 329, 217, 360, 280
-0.978882, 129, 273, 192, 336
-0.978925, 401, 241, 464, 304
-0.978949, 417, 185, 448, 248
-0.978953, 185, 113, 216, 240
-0.979, 337, 193, 368, 256
-0.979058, 73, 33, 136, 288
-0.979208, 233, 201, 264, 264
-0.979209, 65, 209, 192, 272
-0.979319, 113, 89, 176, 152
-0.979363, 129, 153, 160, 216
-0.979363, 161, 193, 192, 256
-0.97937, 153, 9, 216, 72
-0.979377, 113, 225, 240, 288
-0.979379, 17, 249, 80, 312
-0.979406, 329, 225, 360, 352
-0.979475, 65, 41, 128, 104
-0.979497, 425, 145, 488, 272
-0.979523, 273, 249, 304, 312
-0.979533, 233, 153, 264, 216
-0.979581, 409, 145, 440, 272
-0.979609, 337, 193, 464, 256
-0.979626, 129, 145, 160, 272
-0.979682, 73, 73, 136, 136
-0.979759, 285, 161, 316, 288
-0.979779, 173, 225, 204, 288
-0.979823, 289, 209, 416, 272
-0.979833, 177, 113, 240, 176
-0.97984, 421, 145, 452, 272
-0.979873, 221, 145, 252, 208
-0.979887, 169, 161, 200, 288
-0.979915, 157, 145, 188, 272
-0.979974, 273, 153, 304, 216
-0.98008, 93, 193, 124, 256
-0.980124, 401, 273, 464, 336
-0.980137, 49, 17, 176, 80
-0.980159, 113, 33, 176, 96
-0.980184, 257, 209, 288, 272
-0.980284, 393, 153, 424, 216
-0.980319, 197, 177, 228, 304
-0.980353, 193, 33, 448, 160
-0.980364, 329, 113, 360, 240
-0.980397, 209, 273, 336, 336
-0.980438, 229, 129, 260, 256
-0.980485, 425, 153, 488, 216
-0.980492, 353, 129, 416, 375
-0.980511, 61, 145, 92, 272
-0.980533, 321, 65, 448, 192
-0.980552, 289, 161, 320, 224
-0.980679, 353, 257, 384, 320
-0.980711, 9, 161, 72, 224
-0.980764, 173, 113, 204, 176
-0.980769, 33, 137, 96, 200
-0.980789, 425, 209, 456, 272
-0.98081, 17, 257, 144, 320
-0.980825, 81, 265, 144, 328
-0.980885, 161, 1, 224, 128
-0.980915, 289, 185, 320, 248
-0.980936, 33, 281, 160, 344
-0.981032, 113, 233, 176, 296
-0.981033, 113, 201, 240, 264
-0.981048, 329, 249, 360, 312
-0.981081, 377, 241, 408, 304
-0.981092, 65, 209, 128, 272
-0.981174, 249, 273, 280, 336
-0.98122, 241, 65, 368, 192
-0.981243, 281, 129, 344, 375
-0.981257, 161, 137, 192, 200
-0.981264, 245, 225, 276, 352
-0.98127, 353, 217, 480, 280
-0.981276, 353, 129, 384, 256
-0.981417, 105, 9, 168, 72
-0.98149, 33, 1, 96, 256
-0.981499, 117, 161, 148, 288
-0.981557, 381, 153, 412, 216
-0.98156, 157, 225, 188, 288
-0.981687, 81, 281, 208, 344
-0.981768, 285, 225, 316, 352
-0.981816, 209, 209, 240, 272
-0.981898, 321, 121, 448, 184
-0.981924, 349, 145, 380, 208
-0.981945, 237, 273, 268, 336
-0.98205, 65, 105, 128, 168
-0.982064, 113, 249, 240, 312
-0.982091, 85, 145, 116, 272
-0.982098, 269, 273, 300, 336
-0.9821, 221, 185, 252, 248
-0.982112, 193, 33, 256, 288
-0.982131, 133, 177, 164, 240
-0.98214, 145, 113, 272, 176
-0.982209, 281, 297, 344, 360
-0.982217, 193, 225, 224, 352
-0.982234, 49, 113, 176, 176
-0.982258, 297, 249, 328, 312
-0.982288, 185, 161, 248, 224
-0.982422, 149, 209, 180, 336
-0.982465, 129, 241, 160, 368
-0.982467, 73, 233, 136, 296
-0.982484, 281, 273, 312, 336
-0.982505, 177, 201, 208, 264
-0.982515, 289, 81, 352, 208
-0.982538, 209, 233, 240, 296
-0.982595, 401, 129, 464, 375
-0.982609, 97, 9, 224, 72
-0.982612, 249, 185, 280, 248
-0.982695, 245, 209, 276, 272
-0.982817, 317, 225, 348, 352
-0.982823, 329, 273, 360, 336
-0.982859, 213, 113, 244, 240
-0.982876, 193, 17, 320, 144
-0.982913, 105, 193, 136, 256
-0.982956, 329, 65, 392, 192
-0.983035, 69, 185, 100, 248
-0.983063, 45, 145, 76, 272
-0.983146, 205, 185, 236, 248
-0.983176, 305, 297, 368, 360
-0.983189, 169, 225, 200, 352
-0.983204, 273, 177, 304, 304
-0.983227, 277, 201, 308, 264
-0.983249, 185, 121, 216, 184
-0.983377, 261, 225, 292, 352
-0.983388, 177, 137, 304, 200
-0.983481, 225, 129, 288, 192
-0.983494, 337, 145, 368, 208
-0.983508, 281, 137, 344, 200
-0.983625, 249, 313, 312, 375
-0.983627, 209, 137, 240, 200
-0.983802, 369, 153, 400, 216
-0.983892, 361, 81, 424, 208
-0.983892, 57, 97, 88, 224
-0.983904, 209, 313, 272, 375
-0.983982, 313, 121, 376, 184
-0.983995, 353, 97, 416, 160
-0.984058, 233, 225, 264, 288
-0.984069, 1, 225, 64, 288
-0.984096, 233, 249, 264, 312
-0.984178, 97, 1, 160, 375
-0.984185, 153, 161, 184, 224
-0.984191, 233, 225, 264, 352
-0.984228, 161, 273, 288, 336
-0.984318, 41, 193, 104, 320
-0.984389, 145, 1, 272, 128
-0.984403, 273, 17, 400, 144
-0.984421, 369, 281, 496, 344
-0.984481, 317, 241, 348, 304
-0.984501, 313, 153, 344, 216
-0.984507, 33, 305, 96, 368
-0.984516, 273, 129, 400, 192
-0.984533, 1, 145, 128, 208
-0.984633, 209, 209, 240, 336
-0.984638, 141, 1, 172, 128
-0.984651, 425, 217, 488, 280
-0.984652, 229, 177, 260, 304
-0.984659, 9, 113, 72, 240
-0.984663, 305, 273, 336, 336
-0.984692, 101, 113, 132, 176
-0.984712, 177, 1, 240, 64
-0.984724, 97, 41, 224, 104
-0.984732, 401, 265, 432, 328
-0.984771, 225, 129, 352, 192
-0.984836, 401, 217, 432, 280
-0.984848, 201, 113, 264, 176
-0.984967, 17, 129, 80, 375
-0.984975, 409, 209, 440, 336
-0.984984, 261, 153, 292, 216
-0.984989, 361, 129, 392, 192
-0.98499, 25, 209, 88, 272
-0.98502, 113, 209, 144, 336
-0.985037, 33, 49, 96, 176
-0.985067, 157, 1, 188, 128
-0.985092, 189, 185, 220, 248
-0.985099, 297, 209, 328, 272
-0.985244, 1, 201, 64, 264
-0.985252, 33, 41, 160, 104
-0.985305, 173, 177, 204, 240
-0.985319, 297, 225, 328, 352
-0.985334, 249, 129, 312, 192
-0.985408, 117, 49, 148, 176
-0.985527, 293, 273, 324, 336
-0.985547, 49, 89, 176, 152
-0.98565, 417, 137, 448, 200
-0.985753, 233, 177, 264, 240
-0.985787, 321, 1, 448, 128
-0.985822, 1, 137, 64, 200
-0.985855, 365, 257, 396, 320
-0.985909, 369, 129, 400, 256
-0.985961, 289, 33, 352, 288
-0.985982, 385, 81, 448, 208
-0.986023, 57, 257, 120, 320
-0.98605, 337, 33, 400, 288
-0.986118, 373, 217, 404, 280
-0.986133, 373, 177, 404, 240
-0.986166, 81, 193, 112, 256
-0.986228, 393, 177, 424, 240
-0.986276, 101, 161, 132, 288
-0.986278, 185, 313, 248, 375
-0.9863, 389, 265, 420, 328
-0.986339, 25, 225, 56, 352
-0.98635, 13, 193, 44, 320
-0.986394, 341, 273, 372, 336
-0.986404, 193, 105, 320, 168
-0.986473, 33, 177, 64, 304
-0.986499, 317, 113, 348, 240
-0.986499, 37, 145, 68, 208
-0.986528, 65, 241, 192, 304
-0.986532, 369, 145, 496, 208
-0.98656, 49, 1, 112, 375
-0.986566, 289, 1, 352, 375
-0.986594, 73, 1, 136, 375
-0.986616, 169, 1, 232, 256
-0.986625, 141, 161, 172, 288
-0.986637, 177, 1, 208, 64
-0.986646, 433, 161, 464, 288
-0.986692, 57, 305, 120, 368
-0.986701, 157, 9, 188, 72
-0.986845, 289, 113, 352, 176
-0.986858, 377, 129, 408, 192
-0.986861, 89, 17, 152, 144
-0.986888, 109, 281, 140, 344
-0.986905, 197, 137, 228, 200
-0.986909, 377, 289, 408, 352
-0.986916, 121, 273, 152, 336
-0.986924, 329, 313, 392, 375
-0.987012, 329, 97, 392, 160
-0.987022, 329, 1, 392, 375
-0.987036, 313, 17, 376, 144
-0.987099, 221, 249, 252, 312
-0.987161, 425, 241, 488, 304
-0.987178, 273, 129, 304, 256
-0.987229, 169, 65, 200, 192
-0.987274, 369, 81, 496, 208
-0.987275, 85, 225, 116, 352
-0.987328, 33, 41, 96, 104
-0.987353, 393, 241, 424, 304
-0.987377, 273, 225, 304, 352
-0.987397, 321, 297, 448, 360
-0.987409, 353, 313, 416, 375
-0.987453, 145, 241, 176, 304
-0.987481, 33, 65, 160, 128
-0.987534, 393, 121, 456, 184
-0.987548, 17, 193, 48, 256
-0.987562, 89, 97, 120, 224
-0.987563, 361, 33, 424, 288
-0.987625, 157, 249, 188, 312
-0.987676, 149, 201, 180, 264
-0.987707, 317, 273, 348, 336
-0.987718, 177, 25, 240, 88
-0.987755, 121, 1, 152, 128
-0.987763, 341, 121, 372, 184
-0.987865, 133, 249, 164, 312
-0.98795, 313, 193, 376, 224
-0.988005, 145, 65, 176, 192
-0.988084, 313, 1, 376, 256
-0.988226, 181, 65, 212, 192
-0.988295, 201, 81, 232, 208
-0.988308, 377, 1, 440, 375
-0.988311, 221, 241, 252, 368
-0.988324, 185, 1, 248, 128
-0.988326, 57, 161, 120, 192
-0.988345, 77, 97, 108, 224
-0.988355, 281, 173, 344, 204
-0.988383, 257, 305, 384, 368
-0.988419, 105, 65, 168, 128
-0.988473, 297, 161, 360, 192
-0.988491, 257, 33, 320, 288
-0.98851, 153, 33, 216, 96
-0.988513, 97, 89, 224, 152
-0.988544, 389, 129, 420, 256
-0.988556, 321, 173, 384, 204
-0.988627, 353, 1, 416, 375
-0.988636, 121, 1, 184, 375
-0.988709, 177, 313, 304, 375
-0.988715, 345, 157, 408, 188
-0.988731, 329, 205, 392, 236
-0.98879, 209, 1, 272, 128
-0.988803, 401, 173, 464, 204
-0.988837, 57, 1, 88, 128
-0.98885, 389, 225, 420, 352
-0.98887, 161, 1, 288, 64
-0.98891, 73, 173, 136, 204
-0.988915, 385, 161, 448, 192
-0.988933, 289, 193, 352, 224
-0.988937, 113, 165, 176, 196
-0.988961, 33, 165, 96, 196
-0.989038, 121, 133, 184, 164
-0.989046, 273, 105, 400, 168
-0.989061, 161, 229, 224, 260
-0.989103, 297, 257, 360, 288
-0.989121, 397, 177, 428, 304
-0.989124, 361, 169, 424, 200
-0.989195, 153, 129, 216, 160
-0.9892, 129, 177, 192, 208
-0.989214, 305, 129, 336, 256
-0.989233, 321, 161, 384, 192
-0.989239, 17, 305, 144, 368
-0.989254, 33, 145, 288, 208
-0.989255, 33, 177, 96, 208
-0.989264, 121, 117, 184, 148
-0.989371, 265, 265, 328, 296
-0.989379, 289, 205, 352, 236
-0.989439, 225, 177, 480, 240
-0.98945, 169, 1, 200, 128
-0.989533, 209, 225, 272, 256
-0.989538, 433, 209, 464, 336
-0.98954, 241, 185, 304, 216
-0.98954, 45, 241, 76, 368
-0.989547, 369, 113, 496, 176
-0.989596, 89, 153, 152, 184
-0.989657, 265, 189, 328, 220
-0.989694, 185, 221, 248, 252
-0.98973, 17, 217, 144, 280
-0.989746, 257, 165, 320, 196
-0.989828, 265, 201, 328, 232
-0.989842, 369, 181, 432, 212
-0.989877, 321, 265, 384, 296
-0.989928, 1, 121, 128, 184
-0.989946, 345, 133, 408, 164
-0.989986, 193, 153, 448, 216
-0.989991, 153, 241, 216, 272
-0.990024, 161, 305, 224, 368
-0.990056, 345, 145, 408, 176
-0.990073, 145, 117, 208, 148
-0.990086, 297, 273, 360, 304
-0.990104, 185, 1, 248, 375
-0.990107, 345, 241, 408, 272
-0.990137, 241, 213, 304, 244
-0.990141, 353, 253, 416, 284
-0.990147, 97, 177, 160, 208
-0.990164, 97, 113, 160, 144
-0.990171, 25, 1, 88, 375
-0.990218, 177, 209, 240, 240
-0.99023, 161, 89, 224, 152
-0.990239, 77, 1, 108, 128
-0.990283, 241, 1, 304, 375
-0.990294, 129, 193, 160, 320
-0.990303, 113, 153, 176, 184
-0.990333, 337, 189, 400, 220
-0.990365, 377, 177, 408, 304
-0.990387, 113, 189, 176, 220
-0.990388, 97, 209, 128, 336
-0.990406, 257, 241, 320, 272
-0.990413, 253, 129, 284, 256
-0.990414, 97, 65, 224, 128
-0.990465, 297, 225, 360, 256
-0.990487, 321, 253, 384, 284
-0.990492, 385, 237, 448, 268
-0.990493, 329, 221, 392, 252
-0.990521, 97, 137, 160, 168
-0.990555, 401, 221, 464, 252
-0.990563, 369, 225, 400, 352
-0.990564, 345, 265, 408, 296
-0.990565, 121, 229, 184, 260
-0.990585, 297, 245, 360, 276
-0.990598, 241, 197, 304, 228
-0.990607, 369, 269, 432, 300
-0.990637, 233, 233, 296, 264
-0.990639, 1, 9, 128, 72
-0.990657, 105, 49, 136, 176
-0.990666, 265, 1, 328, 375
-0.990671, 401, 185, 464, 216
-0.990701, 153, 141, 216, 172
-0.990702, 145, 1, 208, 375
-0.990706, 65, 145, 128, 176
-0.990708, 129, 241, 192, 272
-0.990725, 233, 245, 296, 276
-0.990728, 145, 205, 208, 236
-0.99073, 257, 253, 320, 284
-0.990736, 225, 173, 288, 204
-0.990746, 65, 225, 320, 288
-0.990755, 241, 269, 304, 300
-0.99078, 65, 189, 128, 220
-0.990795, 353, 205, 416, 236
-0.990808, 353, 121, 416, 152
-0.990826, 273, 277, 336, 308
-0.990829, 129, 305, 256, 368
-0.99086, 209, 237, 272, 268
-0.990871, 425, 241, 488, 368
-0.990878, 257, 225, 320, 256
-0.990887, 241, 17, 368, 80
-0.990899, 121, 285, 184, 316
-0.990939, 129, 49, 160, 176
-0.990942, 305, 149, 368, 180
-0.990991, 201, 209, 264, 240
-0.991026, 177, 137, 240, 168
-0.991036, 161, 193, 224, 224
-0.991041, 353, 217, 416, 248
-0.991056, 393, 197, 456, 228
-0.991091, 73, 41, 136, 72
-0.991093, 137, 265, 200, 296
-0.991094, 73, 277, 136, 308
-0.991095, 73, 25, 136, 56
-0.991098, 321, 237, 384, 268
-0.991098, 81, 201, 144, 232
-0.991103, 145, 217, 208, 248
-0.991134, 105, 265, 168, 296
-0.991135, 217, 269, 280, 300
-0.991136, 89, 189, 152, 220
-0.991189, 65, 185, 320, 248
-0.991191, 33, 17, 96, 48
-0.991197, 185, 257, 248, 288
-0.991208, 193, 217, 448, 280
-0.991215, 129, 253, 192, 284
-0.991243, 193, 149, 256, 180
-0.991259, 417, 197, 480, 228
-0.991295, 137, 165, 200, 196
-0.991298, 225, 257, 288, 288
-0.991299, 185, 241, 248, 272
-0.991309, 321, 133, 384, 164
-0.991321, 33, 153, 96, 184
-0.991351, 161, 261, 224, 292
-0.991354, 73, 53, 136, 84
-0.99138, 369, 281, 432, 312
-0.991381, 121, 213, 184, 244
-0.991431, 401, 145, 464, 176
-0.991436, 33, 121, 288, 184
-0.991456, 1, 265, 500, 328
-0.991466, 97, 285, 160, 316
-0.991477, 369, 193, 432, 224
-0.991483, 33, 281, 96, 312
-0.991487, 409, 161, 472, 192
-0.991491, 217, 161, 280, 192
-0.991504, 177, 125, 240, 156
-0.991512, 401, 209, 464, 240
-0.991522, 73, 13, 136, 44
-0.991527, 377, 221, 440, 252
-0.991536, 97, 125, 160, 156
-0.991537, 137, 17, 200, 48
-0.99155, 201, 189, 264, 220
-0.991555, 169, 1, 232, 32
-0.991559, 65, 125, 128, 156
-0.991587, 9, 165, 72, 196
-0.991606, 377, 253, 440, 284
-0.991615, 9, 181, 72, 212
-0.991627, 377, 121, 440, 152
-0.991629, 73, 105, 136, 136
-0.991631, 229, 81, 260, 208
-0.991632, 377, 209, 440, 240
-0.991647, 113, 25, 176, 56
-0.991687, 177, 181, 240, 212
-0.991688, 425, 181, 488, 212
-0.991746, 9, 1, 72, 128
-0.991768, 193, 273, 448, 336
-0.99196, 1, 153, 500, 216
-0.991986, 25, 129, 56, 256
-0.992002, 289, 1, 352, 128
-0.992091, 401, 97, 432, 224
-0.992097, 325, 189, 356, 220
-0.992103, 345, 81, 376, 208
-0.992109, 129, 249, 384, 312
-0.992144, 433, 1, 496, 375
-0.992161, 425, 173, 456, 204
-0.992218, 213, 221, 244, 252
-0.992222, 337, 193, 368, 224
-0.992225, 345, 253, 376, 284
-0.992238, 353, 201, 384, 232
-0.992242, 113, 137, 144, 168
-0.992244, 109, 177, 140, 208
-0.992247, 61, 157, 92, 188
-0.992254, 321, 177, 352, 208
-0.992295, 401, 33, 464, 288
-0.992297, 337, 169, 368, 200
-0.992299, 137, 121, 168, 152
-0.992311, 157, 49, 188, 176
-0.992314, 349, 173, 380, 204
-0.992316, 389, 153, 420, 184
-0.992337, 157, 117, 188, 148
-0.992342, 341, 209, 372, 240
-0.992362, 321, 205, 352, 236
-0.992365, 261, 185, 292, 216
-0.992377, 45, 165, 76, 196
-0.992385, 405, 161, 436, 192
-0.992399, 361, 257, 392, 288
-0.992411, 169, 129, 200, 160
-0.992413, 93, 173, 124, 204
-0.992416, 101, 157, 132, 188
-0.992423, 365, 241, 396, 272
-0.992436, 429, 193, 460, 224
-0.992439, 137, 169, 168, 200
-0.992442, 309, 169, 340, 200
-0.992461, 181, 125, 212, 156
-0.992471, 289, 193, 320, 224
-0.992478, 309, 201, 340, 232
-0.99248, 113, 157, 144, 188
-0.992485, 45, 177, 76, 208
-0.992486, 409, 185, 440, 216
-0.992504, 121, 113, 152, 144
-0.992506, 277, 181, 308, 212
-0.992512, 269, 197, 300, 228
-0.992534, 241, 165, 368, 196
-0.992537, 325, 165, 356, 196
-0.992537, 33, 169, 64, 200
-0.992537, 293, 257, 324, 288
-0.992544, 353, 133, 384, 164
-0.992545, 349, 157, 380, 188
-0.99256, 157, 241, 188, 272
-0.992564, 413, 173, 444, 204
-0.992569, 329, 257, 360, 288
-0.992574, 201, 209, 232, 240
-0.99258, 141, 109, 172, 140
-0.992583, 385, 253, 416, 284
-0.992613, 93, 189, 124, 220
-0.992618, 301, 189, 332, 220
-0.992618, 429, 205, 460, 236
-0.992623, 149, 173, 180, 204
-0.992626, 245, 233, 276, 264
-0.99263, 357, 189, 388, 220
-0.99264, 329, 225, 360, 256
-0.992645, 265, 245, 296, 276
-0.992645, 381, 169, 412, 200
-0.992647, 73, 225, 104, 352
-0.992651, 33, 181, 64, 212
-0.992652, 169, 117, 200, 148
-0.992664, 285, 233, 316, 264
-0.992666, 349, 237, 380, 268
-0.992677, 393, 169, 424, 200
-0.992677, 57, 169, 88, 200
-0.992677, 101, 145, 132, 176
-0.992678, 173, 229, 204, 260
-0.992692, 137, 133, 168, 164
-0.992692, 73, 161, 104, 192
-0.992696, 113, 125, 144, 156
-0.992702, 437, 177, 468, 208
-0.992707, 341, 221, 372, 252
-0.992709, 229, 217, 260, 248
-0.992711, 193, 229, 224, 260
-0.992712, 261, 233, 292, 264
-0.992714, 157, 225, 188, 256
-0.99272, 249, 173, 280, 204
-0.992721, 317, 257, 348, 288
-0.992723, 129, 157, 160, 188
-0.992724, 221, 233, 252, 264
-0.992725, 313, 273, 344, 304
-0.992726, 297, 177, 328, 208
-0.99273, 149, 133, 180, 164
-0.992732, 313, 189, 344, 220
-0.992734, 369, 305, 496, 368
-0.99274, 121, 173, 152, 204
-0.992741, 373, 253, 404, 284
-0.992743, 377, 157, 408, 188
-0.992755, 309, 157, 340, 188
-0.992755, 281, 245, 312, 276
-0.992771, 305, 261, 336, 292
-0.992776, 125, 125, 156, 156
-0.992782, 281, 265, 312, 296
-0.992788, 337, 157, 368, 188
-0.992795, 349, 265, 380, 296
-0.992802, 193, 133, 224, 164
-0.992805, 133, 181, 164, 212
-0.992807, 261, 165, 292, 196
-0.992808, 141, 153, 172, 184
-0.992812, 369, 181, 400, 212
-0.992817, 397, 181, 428, 212
-0.992818, 265, 265, 296, 296
-0.992819, 145, 81, 272, 144
-0.992824, 193, 25, 320, 88
-0.992825, 333, 245, 364, 276
-0.992825, 417, 197, 448, 228
-0.992825, 417, 161, 448, 192
-0.99283, 105, 189, 136, 220
-0.992832, 397, 269, 428, 300
-0.992834, 285, 165, 316, 196
-0.992834, 109, 109, 140, 140
-0.992836, 241, 221, 272, 252
-0.99284, 209, 245, 240, 276
-0.992841, 361, 229, 392, 260
-0.992845, 213, 209, 244, 240
-0.992851, 121, 189, 152, 220
-0.992858, 365, 153, 396, 184
-0.992872, 93, 201, 124, 232
-0.99288, 45, 97, 76, 224
-0.992884, 73, 189, 104, 220
-0.992885, 341, 133, 372, 164
-0.992887, 145, 249, 176, 280
-0.992889, 125, 281, 156, 312
-0.992891, 337, 181, 368, 212
-0.992893, 253, 269, 284, 300
-0.992897, 337, 177, 352, 240
-0.992897, 81, 177, 112, 208
-0.992898, 377, 121, 408, 152
-0.992904, 161, 141, 192, 172
-0.992904, 401, 1, 464, 375
-0.992905, 345, 145, 376, 176
-0.992909, 125, 141, 156, 172
-0.99291, 217, 145, 248, 176
-0.992913, 365, 129, 396, 160
-0.992922, 85, 157, 116, 188
-0.992923, 185, 213, 216, 244
-0.992937, 389, 241, 420, 272
-0.992939, 241, 177, 368, 208
-0.992946, 333, 273, 364, 304
-0.992986, 217, 33, 280, 288
-0.993044, 209, 1, 272, 375
-0.99305, 1, 273, 256, 336
-0.993091, 427, 161, 442, 224
-0.993117, 273, 41, 400, 104
-0.993148, 33, 177, 160, 208
-0.993159, 433, 113, 464, 240
-0.993236, 161, 229, 288, 260
-0.99325, 1, 177, 500, 240
-0.993329, 113, 141, 240, 172
-0.993376, 321, 165, 448, 196
-0.993397, 321, 181, 448, 212
-0.993414, 1, 209, 32, 336
-0.993442, 241, 65, 304, 192
-0.993442, 445, 209, 476, 336
-0.99345, 1, 129, 500, 192
-0.993452, 343, 169, 358, 232
-0.993478, 327, 177, 342, 240
-0.993485, 81, 305, 208, 368
-0.993507, 321, 153, 448, 184
-0.993536, 13, 241, 44, 368
-0.993536, 123, 137, 138, 200
-0.993555, 421, 241, 452, 368
-0.993565, 97, 281, 352, 344
-0.993587, 225, 249, 480, 312
-0.993636, 73, 49, 104, 176
-0.993651, 425, 129, 488, 375
-0.993651, 419, 177, 434, 240
-0.993668, 125, 105, 140, 168
-0.993724, 33, 161, 160, 192
-0.993749, 305, 269, 432, 300
-0.993774, 257, 189, 384, 220
-0.993788, 445, 161, 476, 288
-0.993827, 145, 25, 272, 88
-0.993869, 389, 81, 420, 208
-0.993896, 193, 49, 320, 112
-0.993947, 1, 201, 500, 264
-0.993956, 73, 153, 88, 216
-0.99397, 161, 105, 416, 168
-0.994058, 193, 189, 320, 220
-0.994064, 261, 249, 276, 312
-0.9941, 437, 161, 452, 224
-0.994142, 353, 81, 480, 144
-0.994198, 113, 209, 240, 240
-0.994211, 429, 185, 444, 248
-0.994293, 337, 153, 352, 216
-0.994297, 255, 225, 270, 288
-0.994348, 61, 241, 92, 368
-0.994373, 241, 97, 272, 224
-0.994417, 115, 169, 130, 232
-0.994418, 339, 201, 354, 264
-0.994425, 229, 217, 244, 280
-0.994456, 257, 261, 384, 292
-0.99448, 285, 113, 316, 240
-0.994481, 215, 209, 230, 272
-0.994482, 161, 129, 416, 192
-0.994527, 317, 177, 332, 240
-0.994531, 61, 169, 76, 232
-0.994545, 305, 201, 432, 232
-0.994575, 129, 145, 144, 208
-0.994592, 437, 185, 452, 248
-0.9946, 163, 113, 178, 176
-0.994604, 225, 201, 352, 232
-0.99461, 81, 117, 208, 148
-0.99461, 257, 129, 500, 192
-0.994614, 97, 129, 224, 160
-0.994634, 121, 161, 136, 224
-0.994683, 425, 97, 488, 224
-0.994701, 65, 189, 192, 220
-0.994702, 347, 241, 362, 304
-0.994725, 273, 161, 288, 224
-0.994801, 79, 161, 94, 224
-0.994818, 65, 149, 192, 180
-0.994818, 145, 241, 272, 272
-0.994823, 1, 97, 128, 160
-0.994826, 119, 113, 134, 176
-0.994832, 157, 113, 172, 176
-0.994836, 117, 137, 132, 200
-0.994886, 365, 233, 380, 296
-0.994902, 201, 225, 216, 288
-0.994925, 255, 161, 270, 224
-0.994939, 305, 17, 432, 80
-0.994949, 133, 113, 148, 176
-0.99496, 225, 277, 352, 308
-0.994995, 57, 49, 88, 176
-0.995002, 111, 137, 126, 200
-0.995008, 113, 181, 240, 212
-0.995011, 321, 141, 448, 172
-0.995012, 341, 249, 356, 312
-0.995016, 421, 97, 452, 224
-0.995025, 67, 153, 82, 216
-0.995027, 105, 145, 120, 208
-0.995031, 397, 153, 412, 216
-0.995034, 151, 129, 166, 192
-0.995039, 161, 217, 288, 248
-0.995057, 361, 81, 392, 208
-0.995058, 41, 169, 56, 232
-0.995058, 353, 193, 480, 224
-0.995071, 193, 173, 320, 204
-0.995072, 189, 201, 204, 264
-0.995075, 365, 185, 380, 248
-0.995076, 149, 105, 164, 168
-0.995102, 341, 225, 356, 288
-0.995106, 209, 265, 336, 296
-0.995136, 407, 145, 422, 208
-0.995141, 275, 249, 290, 312
-0.995146, 85, 161, 100, 224
-0.995151, 349, 193, 364, 256
-0.99516, 257, 153, 384, 184
-0.995183, 109, 185, 124, 248
-0.995188, 51, 161, 66, 224
-0.995227, 349, 137, 364, 200
-0.995229, 159, 137, 174, 200
-0.99523, 265, 225, 280, 288
-0.995238, 175, 105, 190, 168
-0.99524, 221, 209, 236, 272
-0.995249, 183, 225, 198, 288
-0.995268, 297, 233, 312, 296
-0.995284, 349, 169, 364, 232
-0.995291, 327, 153, 342, 216
-0.995314, 235, 217, 250, 280
-0.995373, 223, 185, 238, 248
-0.995385, 343, 137, 358, 200
-0.995388, 17, 277, 144, 308
-0.995391, 103, 169, 118, 232
-0.995392, 33, 289, 160, 320
-0.995398, 33, 201, 160, 232
-0.995401, 357, 233, 372, 296
-0.99542, 375, 177, 390, 240
-0.995431, 121, 1, 152, 256
-0.995446, 145, 157, 272, 188
-0.995446, 413, 177, 428, 240
-0.995472, 353, 229, 480, 260
-0.995481, 169, 113, 184, 176
-0.995499, 291, 161, 306, 224
-0.995501, 143, 113, 158, 176
-0.995505, 287, 249, 302, 312
-0.995507, 141, 161, 156, 224
-0.995513, 81, 169, 208, 200
-0.99552, 1, 1, 64, 375
-0.995525, 113, 225, 240, 256
-0.995529, 415, 153, 430, 216
-0.995531, 267, 185, 282, 248
-0.995538, 207, 225, 222, 288
-0.995544, 209, 229, 336, 260
-0.995544, 35, 169, 50, 232
-0.995555, 93, 169, 108, 232
-0.995557, 321, 253, 448, 284
-0.995565, 241, 209, 256, 272
-0.995571, 369, 181, 496, 212
-0.995576, 281, 249, 296, 312
-0.995578, 393, 241, 408, 304
-0.995581, 193, 225, 208, 288
-0.995609, 357, 265, 372, 328
-0.995609, 213, 1, 244, 128
-0.995609, 325, 33, 356, 160
-0.99561, 275, 273, 290, 336
-0.995615, 377, 249, 392, 312
-0.995641, 183, 201, 198, 264
-0.995652, 443, 169, 458, 232
-0.995655, 235, 249, 250, 312
-0.995656, 245, 153, 260, 216
-0.995665, 251, 273, 266, 336
-0.995686, 265, 161, 280, 224
-0.995689, 193, 241, 320, 272
-0.995692, 225, 213, 352, 244
-0.995693, 299, 185, 314, 248
-0.9957, 97, 193, 112, 256
-0.995703, 253, 249, 268, 312
-0.995704, 185, 113, 200, 176
-0.995713, 225, 297, 480, 360
-0.995714, 281, 273, 296, 336
-0.995726, 257, 201, 272, 264
-0.995726, 49, 5, 176, 36
-0.995732, 113, 197, 240, 228
-0.99575, 333, 217, 348, 280
-0.99577, 305, 169, 320, 232
-0.995777, 161, 265, 288, 296
-0.995789, 267, 249, 282, 312
-0.995806, 311, 177, 326, 240
-0.995817, 171, 193, 186, 256
-0.995833, 235, 145, 250, 208
-0.995833, 17, 189, 144, 220
-0.995838, 1, 289, 500, 352
-0.995845, 177, 225, 192, 288
-0.995863, 443, 209, 458, 272
-0.995873, 49, 41, 176, 72
-0.995874, 113, 105, 128, 168
-0.995882, 273, 1, 304, 128
-0.995886, 257, 81, 288, 208
-0.995886, 1, 233, 500, 296
-0.995894, 65, 225, 192, 256
-0.995897, 211, 185, 226, 248
-0.995905, 135, 137, 150, 200
-0.995905, 199, 185, 214, 248
-0.995907, 265, 33, 328, 160
-0.995921, 371, 153, 386, 216
-0.995932, 449, 177, 464, 240
-0.995932, 355, 209, 370, 272
-0.995949, 279, 161, 294, 224
-0.995981, 269, 273, 284, 336
-0.995993, 287, 273, 302, 336
-0.995995, 243, 249, 258, 312
-0.995999, 193, 161, 320, 192
-0.996, 371, 249, 386, 312
-0.996018, 155, 161, 170, 224
-0.996018, 285, 161, 300, 224
-0.996027, 369, 169, 496, 200
-0.996034, 217, 185, 232, 248
-0.996036, 227, 145, 242, 208
-0.996037, 303, 249, 318, 312
-0.996039, 131, 169, 146, 232
-0.996051, 45, 193, 76, 320
-0.996051, 161, 201, 176, 264
-0.996063, 293, 273, 308, 336
-0.996064, 177, 253, 304, 284
-0.996075, 209, 49, 272, 176
-0.996085, 1, 297, 256, 360
-0.996093, 161, 205, 288, 236
-0.996099, 229, 185, 244, 248
-0.99611, 49, 21, 176, 52
-0.996113, 421, 145, 436, 208
-0.996122, 399, 273, 414, 336
-0.996123, 103, 193, 118, 256
-0.996138, 33, 249, 288, 312
-0.996138, 251, 185, 266, 248
-0.996142, 393, 129, 408, 192
-0.996142, 213, 49, 244, 176
-0.996143, 399, 129, 414, 192
-0.996148, 97, 17, 352, 80
-0.996166, 321, 217, 448, 248
-0.996171, 289, 81, 416, 144
-0.996188, 113, 129, 144, 375
-0.996221, 1, 1, 64, 256
-0.996257, 369, 157, 496, 188
-0.99626, 257, 241, 384, 272
-0.996266, 337, 129, 368, 375
-0.996271, 321, 41, 448, 104
-0.996281, 337, 129, 464, 160
-0.996333, 49, 133, 176, 164
-0.996338, 97, 41, 352, 104
-0.996338, 33, 53, 160, 84
-0.996349, 97, 277, 224, 308
-0.996352, 161, 145, 288, 176
-0.996362, 305, 241, 432, 272
-0.996366, 145, 1, 176, 256
-0.996386, 49, 105, 176, 136
-0.996425, 241, 129, 272, 375
-0.996426, 181, 97, 212, 352
-0.996465, 33, 213, 160, 244
-0.996484, 321, 281, 448, 312
-0.996503, 257, 225, 384, 256
-0.996512, 289, 297, 416, 328
-0.996556, 97, 73, 352, 136
-0.996564, 113, 265, 240, 296
-0.996618, 169, 1, 200, 256
-0.996636, 1, 33, 256, 96
-0.996639, 1, 1, 256, 64
-0.996643, 145, 277, 272, 308
-0.996648, 125, 97, 156, 352
-0.996652, 157, 129, 188, 375
-0.996685, 133, 1, 164, 256
-0.99669, 33, 97, 288, 160
-0.996694, 229, 129, 260, 375
-0.996708, 369, 33, 496, 96
-0.996729, 113, 21, 240, 52
-0.996741, 273, 213, 400, 244
-0.996765, 129, 117, 256, 148
-0.996771, 129, 313, 384, 375
-0.996773, 1, 105, 500, 168
-0.996791, 369, 249, 496, 280
-0.996831, 101, 1, 132, 128
-0.996842, 97, 129, 128, 375
-0.996859, 97, 45, 224, 76
-0.99687, 169, 97, 200, 352
-0.996913, 81, 289, 208, 320
-0.996936, 425, 173, 440, 204
-0.996968, 97, 249, 224, 280
-0.99697, 145, 57, 272, 120
-0.996972, 257, 137, 384, 168
-0.996983, 305, 229, 432, 260
-0.996995, 335, 169, 350, 200
-0.99702, 329, 169, 344, 200
-0.997021, 427, 185, 442, 216
-0.997021, 157, 1, 188, 256
-0.997026, 209, 145, 336, 176
-0.997104, 193, 97, 224, 352
-0.997108, 425, 1, 488, 256
-0.99711, 97, 9, 224, 40
-0.99711, 347, 253, 362, 284
-0.997114, 355, 197, 370, 228
-0.997145, 395, 153, 410, 184
-0.997173, 269, 165, 284, 196
-0.997175, 187, 125, 202, 156
-0.997175, 73, 129, 104, 375
-0.997179, 61, 161, 76, 192
-0.997186, 181, 125, 196, 156
-0.997201, 69, 157, 84, 188
-0.997206, 65, 237, 192, 268
-0.997209, 353, 205, 480, 236
-0.997213, 297, 129, 328, 375
-0.997217, 325, 129, 356, 375
-0.997219, 17, 149, 144, 180
-0.997223, 111, 169, 126, 200
-0.997225, 253, 129, 284, 375
-0.997228, 341, 189, 356, 220
-0.99723, 341, 161, 356, 192
-0.997232, 215, 213, 230, 244
-0.997238, 17, 265, 144, 296
-0.997241, 403, 165, 418, 196
-0.997245, 225, 221, 240, 252
-0.997249, 193, 33, 224, 160
-0.997255, 41, 173, 56, 204
-0.997266, 113, 157, 128, 188
-0.997267, 149, 113, 164, 144
-0.997268, 341, 173, 356, 204
-0.997268, 329, 185, 344, 216
-0.997269, 289, 313, 416, 344
-0.99728, 61, 193, 92, 320
-0.997282, 409, 129, 440, 375
-0.997283, 33, 65, 160, 96
-0.997286, 145, 129, 176, 375
-0.997287, 119, 173, 134, 204
-0.997288, 433, 189, 448, 220
-0.997293, 435, 173, 450, 204
-0.997296, 419, 177, 434, 208
-0.997303, 273, 185, 288, 216
-0.997305, 341, 221, 356, 252
-0.997315, 143, 113, 158, 144
-0.997317, 359, 133, 374, 164
-0.997329, 193, 133, 320, 164
-0.997337, 365, 201, 380, 232
-0.997338, 281, 185, 296, 216
-0.997348, 47, 169, 62, 200
-0.997356, 97, 57, 224, 88
-0.997364, 53, 165, 68, 196
-0.997366, 349, 193, 364, 224
-0.997369, 61, 1, 92, 256
-0.997378, 109, 1, 140, 256
-0.997394, 335, 205, 350, 236
-0.997399, 381, 253, 396, 284
-0.997402, 1, 57, 256, 120
-0.997404, 277, 129, 308, 375
-0.997413, 97, 33, 224, 64
-0.997414, 161, 117, 176, 148
-0.997414, 389, 153, 404, 184
-0.997417, 241, 301, 368, 332
-0.997418, 77, 161, 92, 192
-0.997421, 337, 1, 400, 128
-0.997426, 361, 129, 392, 375
-0.997428, 325, 201, 340, 232
-0.997432, 123, 141, 138, 172
-0.997432, 405, 153, 420, 184
-0.997441, 213, 129, 244, 375
-0.997443, 347, 177, 362, 208
-0.99745, 335, 181, 350, 212
-0.997457, 257, 233, 272, 264
-0.997465, 97, 105, 224, 136
-0.997466, 289, 189, 304, 220
-0.997469, 105, 173, 120, 204
-0.997474, 349, 205, 364, 236
-0.997477, 265, 129, 296, 375
-0.99748, 353, 269, 480, 300
-0.997488, 205, 229, 220, 260
-0.997502, 337, 17, 368, 144
-0.997502, 439, 201, 454, 232
-0.997504, 261, 173, 276, 204
-0.997506, 117, 137, 132, 168
-0.997511, 413, 173, 428, 204
-0.997519, 111, 141, 126, 172
-0.997522, 351, 157, 366, 188
-0.997524, 153, 169, 168, 200
-0.997526, 137, 117, 152, 148
-0.997529, 111, 185, 126, 216
-0.99754, 375, 245, 390, 276
-0.997543, 267, 181, 282, 212
-0.997544, 319, 193, 334, 224
-0.997549, 369, 141, 496, 172
-0.997556, 341, 257, 356, 288
-0.997566, 349, 129, 380, 375
-0.997567, 145, 169, 272, 200
-0.997567, 175, 117, 190, 148
-0.997578, 241, 81, 368, 144
-0.997583, 373, 261, 388, 292
-0.997593, 391, 249, 406, 280
-0.997596, 369, 33, 496, 160
-0.997597, 169, 117, 184, 148
-0.997601, 161, 297, 288, 328
-0.997605, 429, 213, 444, 244
-0.99761, 183, 229, 198, 260
-0.997615, 365, 189, 380, 220
-0.997619, 189, 229, 204, 260
-0.997622, 131, 113, 146, 144
-0.99763, 397, 165, 412, 196
-0.997634, 241, 313, 368, 344
-0.997642, 369, 217, 496, 248
-0.997645, 307, 265, 322, 296
-0.997647, 145, 129, 272, 160
-0.997653, 161, 1, 288, 32
-0.99766, 173, 129, 188, 160
-0.997667, 335, 217, 350, 248
-0.997676, 157, 245, 172, 276
-0.99768, 35, 177, 50, 208
-0.997681, 319, 165, 334, 196
-0.997682, 293, 265, 308, 296
-0.99769, 389, 129, 420, 375
-0.997695, 231, 217, 246, 248
-0.99771, 139, 177, 154, 208
-0.99771, 121, 161, 136, 192
-0.997711, 41, 129, 72, 375
-0.997719, 367, 261, 382, 292
-0.997725, 345, 137, 360, 168
-0.997725, 153, 133, 168, 164
-0.997727, 65, 265, 192, 296
-0.997728, 411, 157, 426, 188
-0.997731, 421, 193, 436, 224
-0.997734, 373, 181, 388, 212
-0.997738, 83, 165, 98, 196
-0.997753, 161, 229, 176, 260
-0.997769, 119, 125, 134, 156
-0.997773, 291, 201, 306, 232
-0.997775, 279, 197, 294, 228
-0.997777, 81, 301, 208, 332
-0.997777, 1, 313, 500, 375
-0.997778, 443, 173, 458, 204
-0.99778, 155, 117, 170, 148
-0.997786, 351, 145, 366, 176
-0.997788, 357, 261, 372, 292
-0.997791, 309, 129, 340, 375
-0.997792, 199, 225, 214, 256
-0.997793, 281, 245, 296, 276
-0.997801, 147, 169, 162, 200
-0.997801, 335, 257, 350, 288
-0.997804, 343, 209, 358, 240
-0.997811, 101, 189, 116, 220
-0.997819, 217, 225, 232, 256
-0.997821, 177, 229, 192, 260
-0.997822, 337, 309, 464, 340
-0.997836, 351, 129, 366, 160
-0.997846, 127, 157, 142, 188
-0.997847, 317, 273, 332, 304
-0.99785, 239, 233, 254, 264
-0.997856, 337, 297, 464, 328
-0.997856, 255, 165, 270, 196
-0.997858, 417, 161, 432, 192
-0.997858, 171, 237, 186, 268
-0.997859, 385, 121, 400, 152
-0.997862, 323, 177, 338, 208
-0.997865, 201, 213, 216, 244
-0.997873, 99, 177, 114, 208
-0.997877, 309, 161, 324, 192
-0.99788, 269, 81, 300, 208
-0.997882, 33, 117, 160, 148
-0.997883, 125, 125, 140, 156
-0.997884, 273, 281, 400, 312
-0.997886, 163, 133, 178, 164
-0.997891, 45, 1, 76, 128
-0.997893, 181, 1, 212, 256
-0.9979, 299, 257, 314, 288
-0.997901, 119, 105, 134, 136
-0.997902, 329, 257, 344, 288
-0.997906, 197, 129, 212, 160
-0.997906, 353, 169, 368, 200
-0.99791, 399, 121, 414, 152
-0.997912, 211, 233, 226, 264
-0.997913, 229, 233, 244, 264
-0.997915, 341, 237, 356, 268
-0.997929, 85, 129, 116, 375
-0.997945, 421, 129, 452, 375
-0.99795, 289, 125, 416, 156
-0.997953, 17, 305, 144, 336
-0.997972, 177, 313, 304, 344
-0.997977, 161, 13, 288, 44
-0.998009, 241, 1, 304, 128
-0.998045, 1, 137, 128, 168
-0.998052, 353, 1, 480, 64
-0.998057, 17, 245, 144, 276
-0.99806, 97, 73, 224, 104
-0.998091, 77, 33, 108, 288
-0.99813, 197, 1, 228, 256
-0.998137, 61, 129, 92, 375
-0.998143, 33, 81, 160, 112
-0.998158, 377, 129, 408, 375
-0.99817, 49, 93, 176, 124
-0.998197, 29, 129, 60, 375
-0.998198, 353, 117, 480, 148
-0.998205, 1, 17, 128, 48
-0.998264, 325, 33, 356, 288
-0.998284, 97, 93, 224, 124
-0.998285, 345, 1, 376, 256
-0.99829, 241, 37, 368, 68
-0.998327, 273, 113, 400, 144
-0.998339, 305, 81, 336, 208
-0.998353, 193, 41, 320, 72
-0.998403, 321, 175, 384, 190
-0.998411, 297, 171, 360, 186
-0.998417, 25, 177, 88, 192
-0.998423, 181, 17, 212, 144
-0.998423, 265, 271, 328, 286
-0.998424, 1, 81, 500, 144
-0.998424, 225, 289, 352, 320
-0.99843, 401, 177, 464, 192
-0.998436, 337, 167, 400, 182
-0.998436, 129, 133, 192, 148
-0.998437, 313, 195, 376, 210
-0.998438, 41, 167, 104, 182
-0.998438, 273, 201, 336, 216
-0.998438, 369, 281, 496, 312
-0.998445, 313, 205, 376, 220
-0.998445, 249, 167, 312, 182
-0.998449, 145, 123, 208, 138
-0.998452, 97, 175, 160, 190
-0.998454, 305, 163, 368, 178
-0.998456, 73, 177, 136, 192
-0.99846, 253, 235, 284, 250
-0.99846, 241, 235, 272, 250
-0.99846, 373, 127, 404, 142
-0.998461, 17, 229, 144, 260
-0.998461, 297, 271, 328, 286
-0.998461, 313, 261, 376, 276
-0.998462, 25, 181, 56, 196
-0.998462, 377, 179, 440, 194
-0.998462, 413, 167, 444, 182
-0.998463, 321, 195, 352, 210
-0.998465, 193, 225, 256, 240
-0.998465, 341, 205, 372, 220
-0.998466, 361, 157, 424, 172
-0.998467, 113, 115, 176, 130
-0.998467, 393, 175, 424, 190
-0.998468, 265, 237, 296, 252
-0.998468, 101, 183, 132, 198
-0.998469, 33, 183, 96, 198
-0.998471, 249, 281, 280, 296
-0.998471, 237, 269, 268, 284
-0.998472, 113, 161, 144, 176
-0.998472, 49, 173, 112, 188
-0.998472, 225, 275, 288, 290
-0.998474, 265, 195, 296, 210
-0.998475, 153, 129, 216, 144
-0.998475, 57, 159, 120, 174
-0.998475, 405, 183, 436, 198
-0.998475, 337, 159, 400, 174
-0.998476, 193, 229, 224, 244
-0.998477, 329, 233, 360, 248
-0.998478, 37, 181, 68, 196
-0.998478, 281, 177, 344, 192
-0.998478, 213, 213, 244, 228
-0.998478, 333, 255, 364, 270
-0.998479, 269, 183, 300, 198
-0.998479, 273, 195, 336, 210
-0.998479, 289, 185, 352, 200
-0.998479, 121, 127, 184, 142
-0.99848, 349, 193, 380, 208
-0.99848, 153, 137, 216, 152
-0.998481, 173, 231, 204, 246
-0.998481, 129, 283, 160, 298
-0.998481, 293, 161, 324, 176
-0.998481, 433, 181, 464, 196
-0.998481, 385, 121, 416, 136
-0.998482, 341, 221, 372, 236
-0.998482, 141, 169, 172, 184
-0.998482, 409, 183, 472, 198
-0.998483, 289, 203, 320, 218
-0.998483, 329, 211, 392, 226
-0.998484, 157, 131, 188, 146
-0.998486, 325, 265, 356, 280
-0.998487, 265, 167, 296, 182
-0.998488, 85, 185, 116, 200
-0.998488, 169, 123, 200, 138
-0.998488, 105, 135, 168, 150
-0.998489, 377, 255, 408, 270
-0.99849, 129, 309, 256, 340
-0.99849, 357, 253, 388, 268
-0.99849, 201, 217, 232, 232
-0.99849, 281, 195, 312, 210
-0.99849, 137, 117, 200, 132
-0.998492, 425, 217, 456, 232
-0.998493, 353, 209, 384, 224
-0.998493, 121, 175, 152, 190
-0.998493, 285, 245, 316, 260
-0.998495, 361, 173, 424, 188
-0.998495, 389, 169, 420, 184
-0.998495, 85, 173, 116, 188
-0.998496, 133, 133, 164, 148
-0.998496, 169, 237, 232, 252
-0.998496, 97, 167, 160, 182
-0.998497, 313, 157, 376, 172
-0.998498, 61, 169, 92, 184
-0.998498, 225, 269, 288, 284
-0.9985, 249, 277, 312, 292
-0.998501, 101, 169, 132, 184
-0.998501, 349, 173, 380, 188
-0.998501, 249, 191, 312, 206
-0.998502, 345, 161, 376, 176
-0.998503, 369, 159, 400, 174
-0.998503, 357, 237, 388, 252
-0.998504, 345, 247, 376, 262
-0.998504, 337, 153, 400, 168
-0.998504, 345, 205, 408, 220
-0.998505, 309, 271, 340, 286
-0.998505, 329, 167, 360, 182
-0.998505, 305, 277, 336, 292
-0.998507, 329, 267, 392, 282
-0.998507, 273, 209, 304, 224
-0.998508, 409, 189, 472, 204
-0.998509, 101, 157, 132, 172
-0.998511, 413, 189, 444, 204
-0.998511, 285, 275, 316, 290
-0.998511, 233, 239, 296, 254
-0.998512, 329, 225, 392, 240
-0.998512, 333, 179, 364, 194
-0.998513, 169, 231, 232, 246
-0.998514, 429, 197, 460, 212
-0.998515, 381, 175, 412, 190
-0.998515, 125, 117, 156, 132
-0.998515, 145, 175, 176, 190
-0.998515, 145, 131, 176, 146
-0.998517, 273, 265, 336, 280
-0.998518, 265, 207, 328, 222
-0.998519, 145, 247, 208, 262
-0.998519, 129, 139, 192, 154
-0.998519, 381, 157, 412, 172
-0.99852, 313, 175, 344, 190
-0.99852, 105, 157, 168, 172
-0.99852, 265, 249, 296, 264
-0.99852, 105, 143, 168, 158
-0.99852, 273, 171, 336, 186
-0.998521, 317, 259, 348, 274
-0.998521, 281, 259, 344, 274
-0.998522, 145, 121, 176, 136
-0.998522, 297, 265, 328, 280
-0.998522, 297, 269, 360, 284
-0.998524, 297, 275, 360, 290
-0.998524, 417, 177, 448, 192
-0.998524, 209, 231, 272, 246
-0.998525, 157, 241, 188, 256
-0.998526, 425, 189, 456, 204
-0.998526, 217, 221, 248, 236
-0.998526, 365, 247, 396, 262
-0.998526, 341, 227, 372, 242
-0.998526, 313, 183, 376, 198
-0.998527, 185, 137, 216, 152
-0.998527, 97, 181, 160, 196
-0.998528, 289, 207, 352, 222
-0.998528, 113, 113, 144, 128
-0.998529, 385, 159, 448, 174
-0.998529, 309, 203, 340, 218
-0.998529, 65, 165, 128, 180
-0.99853, 285, 269, 316, 284
-0.998531, 345, 131, 408, 146
-0.998532, 273, 277, 336, 292
-0.998533, 393, 171, 456, 186
-0.998533, 301, 197, 332, 212
-0.998534, 133, 185, 164, 200
-0.998534, 177, 217, 240, 232
-0.998534, 261, 189, 292, 204
-0.998534, 361, 165, 424, 180
-0.998534, 73, 189, 136, 204
-0.998535, 169, 137, 200, 152
-0.998535, 169, 143, 232, 158
-0.998536, 113, 143, 144, 158
-0.998536, 385, 189, 448, 204
-0.998536, 121, 177, 184, 192
-0.998537, 157, 247, 188, 262
-0.998538, 265, 161, 328, 176
-0.998538, 309, 169, 340, 184
-0.99854, 209, 239, 272, 254
-0.99854, 361, 259, 392, 274
-0.998541, 249, 197, 312, 212
-0.998542, 337, 191, 400, 206
-0.998543, 353, 167, 384, 182
-0.998544, 337, 263, 368, 278
-0.998544, 429, 211, 460, 226
-0.998546, 81, 157, 144, 172
-0.998547, 113, 181, 144, 196
-0.998547, 337, 245, 400, 260
-0.998547, 237, 275, 268, 290
-0.998547, 41, 169, 72, 184
-0.998549, 197, 139, 228, 154
-0.998549, 49, 163, 80, 178
-0.99855, 113, 109, 176, 124
-0.99855, 133, 125, 164, 140
-0.998551, 253, 165, 284, 180
-0.998551, 105, 121, 168, 136
-0.998552, 201, 213, 264, 228
-0.998553, 353, 271, 416, 286
-0.998553, 341, 211, 372, 226
-0.998554, 257, 269, 288, 284
-0.998554, 105, 189, 136, 204
-0.998556, 321, 183, 352, 198
-0.998557, 245, 241, 276, 256
-0.998557, 321, 205, 352, 220
-0.998557, 241, 215, 304, 230
-0.99856, 329, 239, 392, 254
-0.998561, 337, 199, 368, 214
-0.998562, 325, 189, 356, 204
-0.998563, 417, 183, 448, 198
-0.998563, 277, 189, 308, 204
-0.998564, 341, 145, 356, 272
-0.998565, 113, 195, 176, 210
-0.998565, 17, 171, 80, 186
-0.998566, 121, 285, 184, 300
-0.998566, 201, 275, 264, 290
-0.998567, 401, 217, 464, 232
-0.998567, 121, 235, 184, 250
-0.998567, 297, 219, 360, 234
-0.998568, 353, 265, 416, 280
-0.998568, 257, 275, 288, 290
-0.998568, 113, 137, 144, 152
-0.998568, 97, 187, 160, 202
-0.998569, 313, 189, 376, 204
-0.998569, 121, 171, 184, 186
-0.99857, 369, 243, 432, 258
-0.99857, 297, 225, 360, 240
-0.998571, 157, 121, 188, 136
-0.998571, 361, 265, 392, 280
-0.998571, 337, 253, 400, 268
-0.998572, 385, 165, 448, 180
-0.998572, 241, 205, 304, 220
-0.998572, 269, 271, 300, 286
-0.998574, 225, 281, 288, 296
-0.998574, 217, 223, 280, 238
-0.998574, 1, 177, 64, 192
-0.998576, 405, 175, 436, 190
-0.998576, 177, 251, 240, 266
-0.998576, 113, 151, 176, 166
-0.998576, 145, 241, 208, 256
-0.998578, 249, 175, 312, 190
-0.998578, 257, 247, 320, 262
-0.998578, 353, 199, 416, 214
-0.998578, 241, 159, 304, 174
-0.99858, 265, 185, 328, 200
-0.99858, 97, 175, 128, 190
-0.99858, 65, 151, 128, 166
-0.998581, 61, 161, 92, 176
-0.998581, 145, 207, 208, 222
-0.998581, 369, 257, 432, 272
-0.998582, 33, 161, 96, 176
-0.998583, 89, 113, 152, 128
-0.998584, 369, 215, 432, 230
-0.998585, 233, 249, 296, 264
-0.998585, 225, 187, 288, 202
-0.998585, 73, 31, 136, 46
-0.998585, 305, 255, 368, 270
-0.998586, 329, 217, 392, 232
-0.998586, 121, 131, 152, 146
-0.998586, 169, 129, 200, 144
-0.998586, 337, 147, 400, 162
-0.998586, 289, 213, 352, 228
-0.998587, 201, 251, 264, 266
-0.998588, 257, 253, 320, 268
-0.998588, 369, 233, 432, 248
-0.998589, 353, 203, 384, 218
-0.99859, 49, 177, 80, 192
-0.998593, 341, 167, 372, 182
-0.99861, 141, 113, 172, 128
-0.998615, 393, 157, 424, 172
-0.998617, 1, 57, 500, 120
-0.998625, 345, 255, 376, 270
-0.99863, 193, 41, 448, 104
-0.998651, 37, 175, 68, 190
-0.998653, 1, 37, 128, 68
-0.998657, 329, 173, 360, 188
-0.998662, 185, 131, 216, 146
-0.998672, 161, 105, 288, 136
-0.998679, 171, 113, 186, 240
-0.998679, 1, 1, 128, 32
-0.99869, 217, 33, 248, 288
-0.998696, 13, 145, 44, 272
-0.998705, 1, 1, 500, 64
-0.99871, 257, 53, 384, 84
-0.998723, 347, 225, 362, 352
-0.998728, 241, 25, 368, 56
-0.998758, 193, 81, 320, 144
-0.998768, 369, 57, 496, 120
-0.998772, 193, 29, 320, 60
-0.998773, 365, 177, 380, 304
-0.998786, 127, 129, 142, 256
-0.998787, 223, 161, 238, 288
-0.998796, 177, 117, 304, 148
-0.998803, 137, 97, 152, 224
-0.998831, 125, 81, 140, 208
-0.998837, 195, 161, 210, 288
-0.998842, 341, 225, 356, 352
-0.998852, 213, 129, 228, 256
-0.998866, 285, 33, 316, 160
-0.998872, 409, 33, 440, 288
-0.998875, 347, 177, 362, 304
-0.998885, 89, 33, 120, 288
-0.998887, 207, 129, 222, 256
-0.99889, 119, 81, 134, 208
-0.998894, 267, 177, 282, 304
-0.998906, 181, 97, 196, 224
-0.99891, 165, 97, 180, 224
-0.998915, 213, 177, 228, 304
-0.998923, 77, 145, 92, 272
-0.998925, 87, 145, 102, 272
-0.998928, 191, 113, 206, 240
-0.998928, 433, 1, 496, 128
-0.998931, 201, 161, 216, 288
-0.99894, 365, 225, 380, 352
-0.998941, 231, 129, 246, 256
-0.998949, 429, 161, 444, 288
-0.99895, 419, 161, 434, 288
-0.998953, 117, 129, 132, 256
-0.998956, 187, 193, 202, 320
-0.998957, 131, 81, 146, 208
-0.998958, 335, 161, 350, 288
-0.998959, 277, 33, 308, 288
-0.998966, 259, 225, 274, 352
-0.998971, 17, 129, 48, 375
-0.998977, 201, 225, 216, 352
-0.998978, 347, 113, 362, 240
-0.998985, 159, 129, 174, 256
-0.998993, 257, 81, 500, 144
-0.998997, 229, 33, 260, 288
-0.998997, 257, 33, 288, 288
-0.999, 105, 129, 120, 256
-0.999003, 359, 225, 374, 352
-0.999009, 201, 113, 216, 240
-0.99902, 439, 145, 454, 272
-0.999036, 297, 33, 328, 288
-0.999045, 355, 177, 370, 304
-0.99905, 309, 161, 324, 288
-0.99905, 143, 97, 158, 224
-0.999065, 329, 161, 344, 288
-0.999066, 253, 161, 268, 288
-0.999069, 333, 225, 348, 352
-0.999074, 223, 113, 238, 240
-0.999074, 155, 1, 170, 128
-0.999076, 237, 145, 252, 272
-0.99908, 385, 1, 416, 256
-0.999084, 207, 177, 222, 304
-0.999097, 357, 129, 372, 256
-0.999102, 297, 161, 312, 288
-0.999103, 181, 161, 196, 288
-0.999108, 181, 225, 196, 352
-0.999109, 371, 177, 386, 304
-0.999113, 113, 81, 128, 208
-0.999115, 149, 113, 164, 240
-0.999122, 195, 209, 210, 336
-0.999126, 321, 177, 336, 304
-0.999128, 411, 177, 426, 304
-0.999136, 111, 129, 126, 256
-0.999139, 175, 225, 190, 352
-0.99914, 231, 225, 246, 352
-0.999154, 339, 97, 354, 224
-0.999157, 71, 145, 86, 272
-0.999157, 259, 145, 274, 272
-0.999159, 365, 33, 396, 288
-0.999162, 301, 209, 316, 336
-0.999167, 251, 225, 266, 352
-0.999167, 353, 241, 368, 368
-0.999168, 163, 1, 178, 128
-0.999188, 69, 1, 84, 128
-0.99919, 165, 145, 180, 272
-0.999193, 245, 161, 260, 288
-0.999197, 151, 209, 166, 336
-0.9992, 175, 161, 190, 288
-0.999206, 277, 177, 292, 304
-0.999207, 289, 225, 304, 352
-0.999208, 159, 81, 174, 208
-0.999211, 441, 193, 456, 320
-0.999211, 141, 1, 156, 128
-0.999212, 313, 1, 344, 256
-0.999213, 425, 113, 440, 240
-0.999215, 99, 145, 114, 272
-0.99922, 363, 129, 378, 256
-0.999224, 171, 65, 186, 192
-0.999228, 327, 241, 342, 368
-0.999236, 207, 225, 222, 352
-0.999238, 53, 145, 68, 272
-0.999239, 403, 209, 418, 336
-0.999239, 43, 161, 58, 288
-0.999243, 425, 209, 440, 336
-0.999244, 229, 177, 244, 304
-0.999244, 331, 113, 346, 240
-0.999244, 109, 209, 124, 336
-0.99925, 77, 97, 92, 224
-0.999252, 283, 177, 298, 304
-0.999257, 173, 1, 188, 128
-0.99926, 245, 225, 260, 352
-0.999269, 307, 209, 322, 336
-0.99927, 93, 145, 108, 272
-0.999273, 277, 225, 292, 352
-0.999275, 71, 97, 86, 224
-0.999276, 295, 209, 310, 336
-0.999276, 133, 145, 148, 272
-0.999277, 303, 161, 318, 288
-0.999278, 377, 161, 392, 288
-0.999279, 49, 1, 80, 256
-0.999281, 165, 209, 180, 336
-0.999288, 133, 241, 148, 368
-0.999292, 145, 241, 160, 368
-0.999294, 315, 161, 330, 288
-0.999299, 237, 193, 252, 320
-0.999302, 371, 113, 386, 240
-0.999305, 187, 241, 202, 368
-0.999306, 435, 193, 450, 320
-0.999307, 123, 1, 138, 128
-0.999308, 265, 225, 280, 352
-0.99931, 141, 145, 156, 272
-0.999313, 289, 161, 304, 288
-0.99932, 217, 225, 232, 352
-0.999323, 15, 193, 30, 320
-0.999325, 59, 145, 74, 272
-0.999332, 409, 129, 424, 256
-0.999336, 151, 65, 166, 192
-0.999343, 37, 1, 68, 256
-0.999346, 283, 225, 298, 352
-0.999346, 149, 161, 164, 288
-0.999348, 437, 129, 468, 375
-0.999349, 139, 241, 154, 368
-0.999349, 321, 241, 336, 368
-0.99935, 159, 209, 174, 336
-0.999357, 23, 193, 38, 320
-0.999357, 447, 193, 462, 320
-0.999361, 147, 1, 162, 128
-0.999365, 371, 225, 386, 352
-0.999368, 401, 161, 416, 288
-0.999437, 245, 33, 276, 288
-0.999472, 429, 33, 460, 288
-0.999523, 257, 17, 500, 80
-0.999528, 25, 1, 56, 256
-0.999562, 257, 105, 500, 168
-0.999633, 5, 129, 36, 375
-0.999648, 365, 165, 380, 180
-0.999648, 149, 173, 164, 188
-0.999649, 263, 269, 278, 284
-0.999649, 375, 261, 390, 276
-0.999649, 395, 121, 410, 136
-0.999649, 341, 231, 356, 246
-0.99965, 243, 157, 258, 172
-0.99965, 159, 121, 174, 136
-0.99965, 251, 163, 266, 178
-0.999651, 289, 193, 304, 208
-0.999651, 53, 163, 68, 178
-0.999652, 349, 193, 364, 208
-0.999652, 397, 33, 428, 288
-0.999653, 171, 197, 186, 212
-0.999653, 337, 253, 352, 268
-0.999654, 121, 153, 136, 168
-0.999656, 241, 275, 256, 290
-0.999656, 331, 259, 346, 274
-0.999656, 71, 171, 86, 186
-0.999657, 365, 203, 380, 218
-0.999658, 111, 187, 126, 202
-0.999658, 277, 269, 292, 284
-0.999658, 323, 179, 338, 194
-0.999659, 265, 165, 280, 180
-0.99966, 151, 131, 166, 146
-0.999661, 295, 275, 310, 290
-0.999661, 251, 277, 266, 292
-0.999661, 437, 207, 452, 222
-0.999662, 375, 255, 390, 270
-0.999663, 249, 239, 264, 254
-0.999663, 357, 267, 372, 282
-0.999663, 169, 135, 184, 150
-0.999663, 365, 173, 380, 188
-0.999664, 349, 257, 364, 272
-0.999665, 423, 219, 438, 234
-0.999666, 115, 163, 130, 178
-0.999666, 157, 131, 172, 146
-0.999667, 103, 187, 118, 202
-0.999667, 193, 135, 208, 150
-0.999668, 153, 125, 168, 140
-0.999668, 361, 1, 424, 128
-0.999668, 63, 163, 78, 178
-0.999669, 277, 247, 292, 262
-0.999669, 389, 159, 404, 174
-0.999669, 333, 207, 348, 222
-0.999669, 355, 167, 370, 182
-0.999669, 105, 181, 120, 196
-0.99967, 213, 215, 228, 230
-0.999671, 365, 263, 380, 278
-0.999672, 309, 265, 324, 280
-0.999672, 335, 175, 350, 190
-0.999673, 399, 243, 414, 258
-0.999673, 421, 177, 436, 192
-0.999673, 35, 183, 50, 198
-0.999673, 301, 275, 316, 290
-0.999674, 343, 211, 358, 226
-0.999674, 179, 121, 194, 136
-0.999675, 59, 173, 74, 188
-0.999675, 311, 279, 326, 294
-0.999675, 281, 199, 296, 214
-0.999676, 283, 191, 298, 206
-0.999677, 35, 177, 50, 192
-0.999677, 395, 169, 410, 184
-0.999677, 391, 253, 406, 268
-0.999678, 147, 115, 162, 130
-0.999679, 39, 171, 54, 186
-0.999679, 427, 175, 442, 190
-0.99968, 329, 185, 344, 200
-0.999681, 201, 229, 216, 244
-0.999681, 283, 271, 298, 286
-0.999681, 339, 187, 354, 202
-0.999682, 327, 205, 342, 220
-0.999683, 433, 197, 448, 212
-0.999687, 307, 271, 322, 286
-0.999687, 403, 173, 418, 188
-0.999687, 99, 175, 114, 190
-0.999687, 117, 137, 132, 152
-0.999687, 53, 173, 68, 188
-0.999688, 175, 131, 190, 146
-0.999688, 381, 261, 396, 276
-0.999688, 159, 115, 174, 130
-0.999689, 273, 275, 288, 290
-0.999689, 257, 237, 272, 252
-0.999689, 187, 135, 202, 150
-0.999689, 343, 161, 358, 176
-0.999692, 339, 225, 354, 240
-0.999693, 139, 125, 154, 140
-0.999694, 269, 269, 284, 284
-0.999695, 265, 185, 280, 200
-0.999695, 201, 133, 216, 148
-0.999695, 141, 181, 156, 196
-0.999696, 75, 161, 90, 176
-0.999696, 209, 209, 224, 224
-0.999696, 47, 175, 62, 190
-0.999698, 165, 121, 180, 136
-0.999699, 261, 275, 276, 290
-0.999699, 385, 255, 400, 270
-0.9997, 169, 241, 184, 256
-0.999702, 81, 165, 96, 180
-0.999704, 403, 159, 418, 174
-0.999709, 229, 223, 244, 238
-0.999712, 321, 203, 336, 218
-0.999712, 181, 127, 196, 142
-0.999715, 341, 177, 356, 192
-0.999715, 289, 269, 304, 284
-0.999716, 409, 175, 424, 190
-0.999717, 153, 117, 168, 132
-0.999718, 353, 199, 368, 214
-0.999718, 141, 115, 156, 130
-0.999719, 353, 207, 368, 222
-0.99972, 393, 247, 408, 262
-0.999723, 345, 171, 360, 186
-0.999727, 69, 159, 84, 174
-0.999728, 349, 165, 364, 180
-0.999731, 109, 175, 124, 190
-0.999733, 277, 189, 292, 204
-0.999735, 359, 201, 374, 216
-0.999735, 335, 181, 350, 196
-0.999736, 395, 157, 410, 172
-0.999737, 193, 129, 208, 144
-0.999747, 429, 213, 444, 228
-0.999754, 339, 169, 354, 184
-0.999759, 153, 111, 168, 126
-0.999761, 159, 245, 174, 260
-0.999762, 41, 179, 56, 194
-0.999772, 419, 183, 434, 198
-0.999774, 415, 177, 430, 192
-0.999778, 329, 175, 344, 190
-0.999782, 181, 133, 196, 148
-0.999783, 271, 187, 286, 202
-0.999792, 427, 189, 442, 204
-0.999805, 187, 127, 202, 142
-0.999961, 461, 1, 492, 256
-1.00001, 449, 129, 480, 375
-1.00021, 441, 1, 472, 256
-1.00025, 13, 1, 44, 256
-1.00027, 1, 33, 500, 96
-1.00036, 1, 1, 32, 256
-1.00062, 469, 129, 500, 375
-1.00157, 9, 65, 72, 192
-1.0019, 409, 49, 472, 176
-1.00209, 385, 33, 448, 160
-1.00318, 409, 1, 472, 128
-1.00912, 433, 49, 496, 176
