1877
-0.641625, 1, 1, 500, 256
-0.664887, 1, 1, 256, 330
-0.716728, 1, 1, 500, 330
-0.790273, 161, 1, 416, 330
-0.811512, 257, 1, 500, 330
-0.909094, 1, 1, 256, 256
-0.914319, 49, 1, 176, 330
-0.919385, 1, 1, 128, 330
-0.919615, 193, 33, 448, 288
-0.929076, 97, 1, 224, 330
-0.938001, 1, 17, 500, 144
-0.939692, 209, 1, 336, 330
-0.94012, 49, 1, 176, 256
-0.945692, 209, 65, 336, 320
-0.947438, 97, 1, 224, 256
-0.949379, 1, 1, 128, 256
-0.952931, 289, 1, 416, 330
-0.953085, 289, 65, 416, 320
-0.954382, 1, 1, 64, 128
-0.954514, 161, 1, 288, 330
-0.955775, 145, 33, 272, 288
-0.95977, 1, 193, 500, 320
-0.963, 1, 65, 500, 192
-0.965691, 1, 1, 128, 128
-0.966179, 65, 177, 320, 304
-0.967056, 337, 1, 464, 330
-0.967614, 49, 17, 176, 144
-0.968043, 65, 129, 320, 256
-0.969633, 33, 65, 288, 192
-0.96972, 97, 65, 352, 320
-0.970042, 1, 33, 64, 96
-0.970617, 161, 129, 416, 256
-0.971659, 25, 17, 88, 144
-0.972236, 209, 177, 336, 304
-0.972816, 65, 1, 128, 128
-0.972928, 161, 177, 416, 304
-0.974148, 185, 113, 248, 240
-0.974178, 1, 17, 256, 144
-0.974192, 177, 129, 304, 256
-0.975097, 193, 193, 256, 320
-0.975562, 1, 49, 128, 176
-0.976284, 129, 177, 256, 304
-0.976297, 1, 113, 500, 240
-0.977733, 217, 145, 280, 272
-0.977864, 1, 9, 64, 72
-0.978065, 25, 33, 88, 96
-0.978635, 129, 113, 256, 240
-0.978918, 1, 49, 64, 176
-0.979107, 185, 113, 248, 176
-0.97921, 57, 57, 120, 120
-0.979812, 97, 33, 224, 160
-0.980017, 1, 57, 64, 120
-0.98031, 201, 185, 264, 248
-0.980378, 193, 81, 448, 208
-0.98052, 25, 65, 88, 128
-0.980985, 257, 193, 384, 320
-0.981386, 65, 49, 128, 176
-0.981491, 113, 17, 176, 144
-0.981837, 241, 217, 304, 280
-0.982291, 225, 193, 288, 256
-0.982298, 81, 225, 144, 288
-0.982484, 81, 41, 144, 104
-0.982595, 177, 177, 240, 240
-0.982608, 265, 161, 328, 288
-0.982721, 57, 33, 120, 96
-0.983021, 49, 65, 176, 192
-0.983054, 337, 33, 464, 288
-0.983788, 121, 33, 184, 96
-0.983844, 73, 265, 136, 328
-0.984045, 225, 193, 288, 320
-0.984074, 17, 41, 144, 104
-0.984115, 73, 209, 136, 330
-0.984234, 41, 65, 104, 192
-0.984265, 105, 57, 168, 120
-0.985161, 17, 209, 144, 330
-0.985218, 193, 217, 320, 280
-0.98539, 201, 209, 264, 272
-0.985428, 225, 81, 352, 208
-0.985522, 81, 65, 144, 128
-0.985594, 49, 241, 112, 304
-0.985683, 209, 161, 272, 224
-0.985769, 161, 145, 224, 272
-0.9858, 89, 1, 152, 128
-0.986318, 249, 209, 312, 330
-0.986364, 81, 209, 208, 330
-0.986574, 9, 1, 40, 128
-0.98696, 273, 193, 336, 256
-0.987006, 33, 73, 160, 136
-0.987389, 81, 33, 208, 96
-0.987461, 89, 201, 152, 264
-0.987586, 225, 129, 352, 256
-0.987632, 129, 185, 256, 248
-0.987675, 97, 17, 352, 144
-0.987738, 225, 193, 352, 256
-0.987806, 49, 209, 112, 330
-0.988135, 105, 225, 168, 288
-0.988266, 81, 65, 208, 128
-0.988278, 129, 65, 192, 128
-0.988356, 177, 185, 304, 248
-0.988422, 177, 161, 304, 224
-0.988438, 89, 49, 152, 176
-0.988499, 9, 33, 40, 96
-0.988607, 177, 153, 240, 216
-0.988614, 113, 201, 176, 264
-0.988644, 209, 177, 240, 240
-0.988965, 137, 65, 200, 192
-0.989216, 9, 65, 40, 192
-0.989325, 1, 217, 64, 280
-0.98936, 273, 233, 336, 296
-0.989387, 145, 121, 272, 184
-0.989427, 77, 1, 108, 128
-0.989489, 25, 257, 88, 320
-0.989603, 25, 9, 88, 72
-0.98973, 169, 193, 232, 320
-0.989832, 57, 217, 120, 280
-0.989896, 113, 209, 176, 330
-0.990002, 213, 113, 244, 240
-0.990071, 257, 209, 500, 330
-0.99032, 1, 1, 64, 256
-0.990407, 65, 1, 128, 330
-0.990466, 217, 177, 248, 304
-0.990649, 209, 121, 272, 184
-0.990657, 9, 1, 40, 64
-0.990715, 5, 73, 36, 136
-0.99072, 217, 233, 280, 296
-0.990753, 249, 185, 312, 248
-0.99079, 129, 209, 256, 272
-0.991083, 257, 161, 500, 288
-0.991105, 81, 9, 208, 72
-0.991202, 1, 61, 64, 92
-0.991248, 153, 1, 184, 128
-0.99125, 25, 17, 56, 144
-0.991396, 73, 41, 104, 104
-0.991468, 33, 73, 96, 104
-0.991509, 1, 265, 64, 328
-0.99152, 137, 201, 200, 264
-0.991527, 97, 249, 160, 312
-0.991537, 185, 121, 216, 184
-0.991564, 197, 177, 228, 304
-0.991598, 65, 33, 96, 160
-0.991634, 337, 265, 400, 328
-0.991673, 145, 41, 208, 104
-0.991696, 105, 69, 168, 100
-0.991731, 33, 209, 96, 272
-0.991758, 17, 209, 80, 330
-0.991799, 49, 265, 112, 328
-0.991802, 57, 61, 120, 92
-0.991848, 25, 61, 88, 92
-0.991851, 1, 29, 64, 60
-0.991865, 25, 57, 56, 120
-0.99187, 177, 265, 240, 328
-0.991879, 1, 77, 64, 108
-0.991976, 89, 1, 120, 128
-0.991983, 213, 121, 244, 184
-0.991989, 1, 17, 64, 48
-0.99199, 225, 201, 288, 232
-0.992008, 185, 113, 216, 240
-0.992023, 61, 49, 92, 112
-0.992056, 57, 77, 120, 108
-0.992059, 1, 45, 64, 76
-0.992079, 81, 65, 144, 96
-0.992103, 305, 209, 368, 330
-0.992135, 1, 1, 64, 330
-0.992229, 1, 5, 64, 36
-0.992245, 177, 121, 240, 152
-0.992287, 185, 185, 248, 216
-0.992299, 121, 57, 184, 88
-0.992348, 81, 77, 144, 108
-0.992351, 241, 225, 304, 256
-0.992352, 201, 213, 264, 244
-0.992375, 225, 241, 352, 304
-0.992414, 1, 257, 128, 320
-0.992478, 209, 217, 240, 280
-0.992536, 81, 145, 208, 272
-0.992568, 81, 73, 112, 136
-0.992569, 145, 1, 208, 128
-0.992573, 65, 257, 192, 320
-0.992587, 169, 173, 232, 204
-0.992602, 129, 69, 192, 100
-0.992638, 49, 229, 112, 260
-0.992645, 209, 177, 272, 208
-0.992675, 193, 133, 256, 164
-0.992681, 77, 249, 108, 312
-0.992689, 89, 221, 152, 252
-0.992709, 169, 145, 232, 176
-0.992714, 129, 161, 256, 224
-0.992728, 57, 245, 120, 276
-0.992734, 25, 41, 88, 72
-0.992768, 233, 213, 296, 244
-0.992769, 273, 245, 336, 276
-0.992769, 153, 169, 216, 232
-0.992789, 185, 201, 248, 232
-0.99281, 257, 217, 384, 280
-0.992837, 221, 209, 252, 272
-0.992856, 137, 193, 200, 320
-0.99289, 49, 213, 112, 244
-0.992897, 97, 209, 160, 240
-0.992908, 33, 253, 96, 284
-0.992926, 145, 193, 208, 224
-0.99294, 353, 281, 416, 312
-0.99295, 121, 225, 184, 256
-0.992955, 209, 225, 272, 256
-0.992957, 81, 237, 144, 268
-0.992959, 217, 189, 280, 220
-0.992979, 257, 185, 320, 216
-0.992998, 261, 177, 292, 304
-0.993016, 41, 285, 104, 316
-0.993021, 65, 209, 192, 272
-0.993042, 81, 257, 144, 288
-0.993042, 17, 285, 80, 316
-0.993081, 85, 41, 116, 104
-0.993081, 225, 185, 256, 248
-0.993093, 25, 229, 88, 260
-0.993127, 329, 297, 392, 328
-0.993131, 377, 297, 440, 328
-0.993142, 73, 209, 136, 240
-0.993145, 129, 213, 192, 244
-0.993147, 37, 57, 68, 120
-0.993177, 145, 57, 208, 88
-0.993179, 185, 157, 248, 188
-0.993182, 41, 69, 72, 100
-0.993182, 29, 69, 60, 100
-0.993189, 193, 137, 320, 200
-0.993191, 193, 109, 256, 140
-0.993192, 25, 29, 88, 60
-0.993203, 9, 57, 40, 88
-0.993203, 57, 269, 120, 300
-0.993211, 9, 241, 72, 272
-0.993218, 213, 181, 244, 212
-0.993218, 265, 233, 328, 264
-0.993221, 209, 297, 272, 328
-0.993224, 9, 77, 40, 108
-0.993224, 269, 217, 300, 280
-0.993244, 53, 69, 84, 100
-0.993254, 9, 1, 40, 32
-0.99327, 57, 193, 120, 256
-0.993274, 225, 213, 256, 244
-0.993275, 209, 213, 240, 244
-0.993276, 121, 69, 152, 100
-0.993278, 273, 209, 336, 240
-0.993285, 25, 17, 88, 48
-0.993293, 1, 273, 64, 304
-0.993294, 121, 33, 184, 64
-0.993295, 193, 233, 256, 296
-0.993295, 1, 225, 128, 288
-0.993296, 121, 45, 184, 76
-0.993297, 185, 129, 216, 160
-0.9933, 133, 65, 164, 96
-0.993302, 113, 245, 176, 276
-0.99333, 9, 217, 72, 248
-0.993333, 313, 285, 376, 316
-0.993337, 105, 69, 136, 100
-0.993341, 193, 117, 224, 148
-0.993346, 225, 129, 256, 256
-0.993359, 213, 129, 244, 160
-0.993372, 141, 209, 172, 240
-0.993373, 65, 73, 96, 104
-0.993379, 25, 1, 88, 32
-0.993379, 329, 269, 392, 300
-0.993387, 121, 9, 184, 72
-0.993388, 33, 273, 96, 304
-0.99339, 9, 21, 40, 52
-0.993393, 153, 193, 184, 224
-0.993395, 161, 297, 224, 328
-0.993395, 233, 245, 296, 276
-0.993399, 45, 285, 76, 316
-0.993399, 85, 77, 116, 108
-0.9934, 181, 141, 212, 172
-0.993421, 273, 209, 336, 330
-0.993432, 65, 73, 96, 136
-0.993441, 205, 225, 236, 256
-0.993446, 145, 61, 176, 92
-0.993447, 257, 217, 288, 248
-0.993459, 61, 273, 92, 304
-0.99346, 9, 33, 40, 64
-0.993465, 93, 65, 124, 96
-0.993468, 105, 197, 168, 228
-0.993473, 169, 133, 232, 164
-0.993474, 1, 297, 64, 328
-0.993478, 85, 213, 116, 244
-0.993479, 177, 257, 240, 288
-0.993484, 33, 297, 96, 328
-0.993485, 73, 265, 104, 296
-0.993491, 73, 217, 104, 248
-0.993494, 217, 201, 248, 232
-0.993503, 105, 213, 136, 244
-0.993505, 81, 269, 144, 300
-0.993506, 205, 117, 236, 148
-0.993507, 369, 277, 400, 308
-0.993507, 33, 241, 96, 272
-0.993508, 65, 293, 128, 324
-0.993508, 85, 257, 116, 288
-0.993509, 61, 57, 92, 88
-0.993509, 281, 233, 312, 264
-0.99351, 125, 225, 156, 256
-0.993516, 37, 241, 68, 272
-0.993517, 29, 57, 60, 88
-0.993526, 129, 41, 256, 104
-0.993532, 213, 169, 244, 200
-0.993534, 201, 129, 232, 160
-0.993535, 269, 221, 300, 252
-0.993536, 245, 225, 276, 256
-0.993538, 45, 57, 76, 88
-0.993539, 113, 57, 144, 88
-0.993544, 185, 229, 248, 260
-0.993548, 53, 233, 84, 264
-0.993549, 121, 21, 184, 52
-0.99355, 9, 45, 40, 76
-0.993553, 225, 137, 256, 168
-0.993554, 281, 289, 344, 320
-0.993557, 197, 181, 228, 212
-0.993557, 197, 241, 228, 272
-0.993561, 249, 205, 280, 236
-0.993562, 65, 281, 128, 312
-0.993562, 89, 201, 120, 232
-0.993568, 249, 297, 312, 328
-0.993568, 89, 245, 120, 276
-0.993581, 97, 57, 128, 120
-0.993581, 397, 297, 428, 328
-0.993584, 209, 165, 272, 196
-0.993591, 49, 65, 80, 128
-0.993593, 197, 213, 228, 244
-0.993594, 217, 225, 248, 256
-0.993594, 145, 77, 176, 108
-0.993596, 209, 285, 272, 316
-0.993599, 121, 205, 152, 236
-0.993601, 265, 249, 296, 280
-0.993601, 229, 201, 260, 232
-0.993606, 325, 297, 356, 328
-0.993607, 381, 285, 412, 316
-0.993608, 301, 245, 332, 276
-0.993609, 9, 261, 72, 292
-0.993609, 81, 65, 112, 96
-0.993613, 353, 297, 416, 328
-0.993614, 109, 249, 140, 280
-0.993616, 1, 229, 64, 260
-0.993621, 217, 149, 248, 180
-0.993622, 57, 49, 120, 80
-0.993624, 225, 125, 256, 156
-0.993625, 205, 201, 236, 232
-0.993629, 265, 185, 296, 216
-0.993629, 133, 77, 164, 108
-0.993635, 193, 257, 224, 288
-0.993636, 1, 17, 128, 80
-0.993637, 193, 169, 224, 200
-0.993639, 61, 221, 92, 252
-0.993641, 137, 221, 168, 252
-0.993646, 177, 213, 240, 244
-0.99365, 153, 21, 184, 52
-0.993651, 169, 185, 200, 216
-0.993653, 353, 293, 384, 324
-0.993654, 145, 29, 208, 60
-0.993655, 177, 241, 304, 304
-0.993659, 193, 241, 256, 272
-0.993661, 317, 285, 348, 316
-0.993663, 153, 9, 184, 40
-0.993663, 101, 261, 132, 292
-0.993664, 25, 245, 56, 276
-0.993664, 285, 245, 316, 276
-0.993667, 173, 297, 204, 328
-0.993669, 97, 225, 128, 256
-0.993669, 173, 153, 204, 184
-0.99367, 121, 241, 152, 272
-0.993671, 245, 193, 276, 224
-0.993672, 33, 293, 64, 324
-0.993677, 153, 237, 216, 268
-0.993684, 153, 37, 184, 68
-0.993684, 77, 245, 108, 276
-0.993685, 217, 133, 280, 164
-0.993686, 213, 237, 244, 268
-0.993688, 145, 17, 208, 48
-0.993688, 265, 197, 328, 228
-0.99369, 193, 145, 224, 176
-0.993696, 65, 249, 96, 280
-0.993696, 41, 81, 72, 112
-0.993697, 249, 273, 312, 304
-0.993699, 185, 269, 216, 300
-0.9937, 41, 225, 72, 256
-0.993705, 37, 261, 68, 292
-0.993705, 193, 145, 256, 176
-0.99371, 153, 49, 184, 80
-0.993712, 205, 145, 236, 176
-0.993713, 169, 281, 232, 312
-0.993713, 17, 265, 48, 296
-0.993713, 81, 53, 144, 84
-0.993721, 145, 145, 208, 176
-0.993722, 53, 253, 84, 284
-0.993722, 129, 193, 160, 224
-0.993722, 337, 281, 368, 312
-0.993725, 153, 205, 184, 236
-0.993731, 357, 265, 388, 296
-0.993731, 57, 257, 120, 288
-0.993731, 237, 213, 268, 244
-0.993732, 265, 221, 328, 252
-0.993734, 181, 173, 212, 204
-0.993736, 205, 253, 236, 284
-0.993736, 245, 297, 276, 328
-0.993736, 177, 269, 240, 300
-0.993738, 25, 1, 88, 330
-0.993739, 57, 297, 88, 328
-0.993741, 85, 233, 116, 264
-0.993742, 321, 257, 384, 288
-0.993743, 133, 237, 164, 268
-0.993746, 225, 121, 288, 152
-0.993747, 217, 265, 280, 296
-0.99375, 1, 253, 32, 284
-0.99375, 193, 197, 224, 228
-0.993751, 261, 261, 292, 292
-0.993752, 289, 233, 352, 264
-0.993755, 105, 257, 168, 288
-0.993756, 109, 229, 140, 260
-0.993756, 69, 289, 100, 320
-0.993756, 213, 153, 244, 216
-0.993758, 105, 1, 168, 32
-0.993758, 225, 161, 256, 192
-0.993759, 205, 105, 236, 136
-0.993761, 269, 233, 300, 264
-0.993761, 73, 205, 104, 236
-0.993761, 189, 229, 220, 260
-0.993768, 157, 73, 188, 104
-0.993768, 21, 233, 52, 264
-0.993769, 181, 117, 212, 148
-0.993769, 181, 257, 212, 288
-0.993772, 233, 289, 264, 320
-0.993773, 245, 237, 276, 268
-0.993779, 145, 45, 208, 76
-0.993786, 49, 201, 112, 232
-0.993801, 49, 37, 112, 68
-0.993813, 81, 197, 144, 228
-0.993819, 353, 269, 416, 300
-0.993822, 153, 209, 216, 240
-0.993825, 201, 121, 264, 152
-0.993827, 145, 169, 208, 200
-0.993829, 257, 1, 500, 128
-0.993844, 145, 5, 208, 36
-0.993845, 161, 157, 224, 188
-0.993848, 153, 121, 216, 152
-0.993858, 305, 249, 368, 312
-0.993864, 257, 257, 320, 288
-0.993867, 305, 273, 368, 304
-0.993893, 201, 253, 264, 284
-0.993894, 225, 97, 352, 160
-0.993908, 153, 249, 216, 280
-0.99392, 145, 65, 272, 192
-0.993924, 29, 33, 60, 96
-0.993934, 257, 285, 320, 316
-0.993939, 305, 297, 368, 328
-0.993946, 185, 297, 248, 328
-0.993955, 53, 33, 84, 160
-0.993971, 57, 25, 120, 56
-0.993972, 265, 257, 328, 320
-0.993983, 289, 221, 352, 252
-0.994083, 89, 1, 152, 330
-0.994133, 113, 241, 240, 304
-0.99415, 101, 17, 132, 144
-0.994165, 49, 41, 80, 104
-0.994214, 137, 17, 168, 144
-0.994275, 197, 233, 228, 296
-0.994289, 257, 209, 288, 272
-0.994305, 129, 1, 192, 330
-0.994447, 273, 241, 400, 304
-0.994492, 241, 145, 304, 272
-0.994507, 149, 41, 180, 104
-0.994507, 137, 49, 168, 112
-0.994537, 177, 201, 240, 264
-0.994571, 137, 209, 168, 272
-0.994616, 81, 65, 112, 192
-0.994689, 77, 209, 108, 272
-0.994732, 197, 185, 228, 248
-0.994739, 113, 97, 240, 160
-0.994783, 225, 169, 352, 232
-0.994819, 305, 265, 432, 328
-0.994849, 117, 57, 148, 120
-0.994891, 273, 145, 400, 272
-0.994893, 153, 121, 216, 184
-0.994935, 257, 265, 384, 328
-0.995027, 209, 33, 336, 160
-0.995062, 241, 225, 272, 288
-0.995095, 121, 233, 152, 296
-0.995226, 161, 265, 288, 328
-0.99524, 145, 241, 208, 304
-0.995266, 225, 97, 288, 224
-0.995319, 201, 113, 232, 176
-0.995351, 153, 73, 216, 136
-0.995383, 245, 193, 276, 256
-0.995386, 289, 97, 416, 224
-0.99539, 149, 65, 180, 128
-0.995422, 65, 233, 192, 296
-0.995447, 265, 185, 296, 248
-0.995453, 229, 177, 260, 304
-0.99549, 37, 17, 68, 144
-0.995507, 21, 65, 52, 192
-0.995511, 137, 145, 200, 272
-0.995553, 53, 225, 84, 288
-0.995557, 65, 185, 192, 248
-0.995561, 97, 33, 128, 96
-0.995647, 73, 1, 136, 256
-0.995694, 97, 217, 128, 280
-0.9957, 77, 209, 108, 330
-0.995814, 153, 17, 184, 80
-0.995821, 145, 17, 208, 80
-0.995843, 185, 65, 248, 320
-0.995862, 81, 145, 208, 208
-0.995926, 193, 153, 224, 216
-0.995979, 153, 49, 184, 176
-0.996094, 145, 17, 272, 144
-0.996144, 225, 129, 256, 192
-0.996158, 169, 233, 232, 296
-0.996174, 129, 1, 192, 256
-0.996226, 361, 265, 424, 328
-0.996236, 129, 9, 256, 72
-0.996269, 217, 257, 280, 320
-0.996271, 17, 65, 144, 96
-0.996272, 181, 161, 212, 224
-0.996301, 89, 241, 120, 304
-0.996345, 281, 225, 312, 288
-0.99635, 1, 201, 128, 264
-0.996357, 193, 209, 224, 272
-0.996423, 41, 233, 72, 296
-0.996428, 273, 193, 400, 256
-0.996451, 129, 65, 256, 128
-0.996459, 1, 73, 256, 136
-0.996514, 333, 249, 364, 312
-0.996533, 289, 1, 416, 128
-0.996563, 97, 193, 352, 256
-0.996575, 257, 161, 320, 224
-0.996596, 173, 129, 204, 192
-0.99667, 65, 265, 96, 328
-0.996685, 49, 1, 112, 256
-0.996686, 17, 161, 144, 288
-0.996703, 93, 65, 124, 192
-0.996803, 249, 177, 280, 304
-0.996808, 277, 177, 308, 304
-0.996812, 273, 65, 336, 320
-0.996825, 301, 241, 332, 304
-0.996912, 215, 177, 230, 240
-0.996919, 173, 129, 204, 256
-0.996927, 289, 49, 416, 176
-0.996929, 113, 201, 144, 264
-0.996941, 33, 77, 160, 108
-0.996989, 121, 249, 184, 312
-0.997034, 209, 265, 336, 328
-0.997086, 81, 69, 208, 100
-0.99712, 97, 225, 352, 288
-0.997134, 265, 249, 296, 312
-0.997162, 1, 33, 256, 96
-0.997167, 1, 81, 64, 144
-0.997233, 185, 89, 248, 152
-0.997234, 11, 73, 26, 136
-0.997282, 185, 177, 216, 304
-0.997292, 1, 217, 256, 280
-0.997299, 161, 129, 416, 192
-0.997319, 301, 193, 332, 320
-0.997381, 189, 257, 220, 320
-0.997412, 225, 153, 256, 216
-0.997419, 233, 161, 296, 224
-0.997419, 17, 73, 32, 136
-0.997426, 29, 257, 60, 320
-0.997427, 145, 125, 272, 156
-0.997446, 75, 49, 90, 112
-0.997457, 217, 217, 232, 280
-0.997464, 113, 33, 144, 160
-0.997516, 193, 189, 320, 220
-0.997528, 273, 1, 336, 330
-0.997554, 85, 41, 100, 104
-0.997557, 289, 97, 352, 224
-0.997565, 65, 265, 320, 328
-0.997608, 305, 217, 432, 280
-0.997634, 69, 49, 84, 112
-0.997638, 185, 65, 248, 192
-0.997643, 25, 1, 88, 256
-0.997649, 81, 57, 208, 88
-0.997654, 223, 177, 238, 240
-0.997655, 57, 209, 88, 330
-0.997675, 161, 177, 288, 208
-0.997709, 207, 209, 222, 272
-0.997711, 81, 73, 96, 136
-0.997753, 297, 209, 360, 272
-0.997765, 11, 33, 26, 96
-0.997766, 91, 73, 106, 136
-0.997776, 209, 233, 224, 296
-0.997779, 223, 209, 238, 272
-0.997781, 109, 225, 140, 288
-0.997783, 183, 129, 198, 192
-0.997793, 23, 73, 38, 136
-0.997813, 113, 161, 176, 288
-0.99782, 93, 49, 108, 112
-0.997821, 289, 81, 416, 144
-0.997845, 149, 201, 180, 264
-0.997861, 11, 1, 26, 64
-0.997865, 193, 1, 256, 330
-0.997868, 41, 57, 56, 120
-0.997878, 75, 73, 90, 136
-0.997884, 153, 1, 216, 330
-0.997886, 289, 57, 416, 120
-0.997891, 81, 41, 208, 72
-0.997898, 193, 233, 320, 264
-0.9979, 145, 213, 272, 244
-0.997901, 225, 221, 352, 252
-0.997916, 305, 65, 368, 320
-0.997939, 97, 73, 112, 136
-0.997958, 63, 65, 78, 128
-0.997962, 35, 57, 50, 120
-0.997962, 1, 53, 128, 84
-0.997969, 157, 33, 172, 96
-0.997986, 1, 257, 128, 288
-0.997993, 49, 217, 176, 248
-0.997994, 65, 217, 96, 280
-0.997995, 49, 57, 64, 120
-0.998007, 241, 249, 304, 312
-0.998007, 189, 129, 204, 192
-0.998013, 229, 121, 244, 184
-0.998013, 241, 121, 368, 184
-0.998016, 29, 41, 44, 104
-0.998017, 273, 1, 400, 64
-0.998031, 5, 65, 20, 128
-0.998038, 145, 145, 272, 176
-0.99804, 177, 97, 304, 160
-0.998066, 289, 177, 320, 304
-0.998077, 97, 121, 224, 184
-0.998088, 157, 73, 172, 136
-0.998089, 53, 265, 84, 328
-0.998095, 369, 265, 496, 328
-0.998096, 65, 121, 320, 184
-0.998096, 225, 97, 288, 160
-0.998104, 91, 217, 106, 280
-0.998117, 273, 217, 288, 280
-0.99812, 199, 225, 214, 288
-0.998121, 209, 177, 224, 240
-0.998132, 131, 57, 146, 120
-0.998143, 57, 1, 120, 64
-0.998143, 103, 41, 118, 104
-0.998148, 65, 161, 320, 224
-0.998163, 21, 49, 36, 112
-0.998168, 281, 217, 296, 280
-0.998174, 109, 33, 140, 96
-0.99818, 1, 241, 128, 272
-0.998182, 1, 41, 500, 104
-0.998199, 125, 209, 156, 272
-0.998199, 209, 65, 336, 128
-0.998211, 57, 41, 72, 104
-0.998222, 25, 233, 88, 296
-0.998225, 169, 315, 200, 330
-0.998225, 185, 135, 216, 150
-0.998226, 157, 77, 188, 92
-0.998226, 225, 151, 256, 166
-0.998226, 141, 227, 172, 242
-0.998226, 285, 229, 316, 244
-0.998226, 85, 201, 116, 216
-0.998227, 61, 283, 92, 298
-0.998227, 153, 11, 184, 26
-0.998227, 149, 53, 180, 68
-0.998227, 77, 247, 108, 262
-0.998228, 365, 281, 396, 296
-0.998228, 69, 213, 100, 228
-0.998228, 57, 65, 72, 128
-0.998228, 233, 187, 264, 202
-0.998228, 169, 199, 200, 214
-0.998229, 409, 309, 440, 324
-0.998229, 37, 263, 68, 278
-0.99823, 313, 291, 344, 306
-0.99823, 321, 265, 352, 328
-0.998231, 217, 223, 248, 238
-0.998232, 333, 289, 364, 304
-0.998232, 233, 305, 264, 320
-0.998232, 101, 253, 132, 268
-0.998233, 245, 193, 276, 208
-0.998233, 105, 221, 136, 236
-0.998233, 153, 39, 184, 54
-0.998233, 213, 159, 244, 174
-0.998234, 153, 29, 184, 44
-0.998234, 225, 129, 256, 144
-0.998235, 173, 157, 204, 172
-0.998235, 341, 299, 372, 314
-0.998235, 213, 179, 244, 194
-0.998235, 137, 145, 200, 208
-0.998236, 149, 63, 180, 78
-0.998236, 45, 227, 76, 242
-0.998236, 265, 253, 296, 268
-0.998237, 149, 47, 180, 62
-0.998237, 221, 207, 252, 222
-0.998237, 329, 305, 360, 320
-0.998238, 233, 199, 264, 214
-0.998239, 21, 243, 52, 258
-0.998239, 205, 149, 236, 164
-0.998239, 29, 73, 44, 136
-0.998239, 103, 73, 118, 136
-0.99824, 261, 189, 292, 204
-0.99824, 57, 233, 88, 248
-0.99824, 137, 211, 168, 226
-0.998241, 329, 311, 360, 326
-0.998241, 121, 233, 152, 248
-0.998241, 397, 297, 428, 312
-0.998242, 281, 247, 312, 262
-0.998243, 49, 243, 80, 258
-0.998244, 89, 73, 120, 88
-0.998244, 301, 247, 332, 262
-0.998245, 225, 141, 256, 156
-0.998245, 133, 205, 164, 220
-0.998246, 53, 69, 84, 84
-0.998247, 181, 149, 212, 164
-0.998248, 233, 213, 264, 228
-0.998248, 213, 197, 244, 212
-0.998249, 113, 253, 144, 268
-0.998249, 133, 79, 164, 94
-0.998249, 121, 209, 152, 224
-0.99825, 197, 241, 228, 256
-0.998251, 69, 277, 100, 292
-0.998253, 37, 237, 68, 252
-0.998254, 125, 227, 156, 242
-0.998254, 161, 249, 416, 312
-0.998256, 225, 135, 256, 150
-0.998256, 193, 143, 224, 158
-0.998256, 193, 179, 224, 194
-0.998257, 81, 217, 112, 232
-0.998257, 53, 221, 84, 236
-0.998257, 385, 293, 416, 308
-0.998257, 145, 79, 176, 94
-0.998258, 201, 233, 232, 248
-0.998258, 321, 299, 352, 314
-0.998258, 257, 229, 288, 244
-0.998259, 85, 209, 116, 224
-0.998259, 245, 229, 276, 244
-0.99826, 193, 191, 224, 206
-0.99826, 73, 79, 104, 94
-0.998263, 153, 195, 184, 210
-0.998265, 85, 249, 100, 312
-0.998266, 205, 225, 236, 240
-0.998266, 193, 149, 224, 164
-0.998266, 185, 129, 216, 144
-0.998267, 173, 193, 204, 208
-0.998267, 229, 223, 260, 238
-0.998268, 377, 287, 408, 302
-0.998268, 37, 247, 68, 262
-0.998269, 9, 51, 40, 66
-0.99827, 189, 123, 220, 138
-0.99827, 213, 129, 244, 144
-0.998271, 9, 57, 40, 72
-0.998271, 1, 41, 16, 104
-0.998272, 61, 227, 92, 242
-0.998276, 17, 225, 48, 288
-0.998277, 149, 207, 180, 222
-0.998278, 213, 143, 244, 158
-0.99828, 77, 269, 108, 284
-0.99828, 145, 71, 176, 86
-0.99828, 9, 63, 40, 78
-0.998281, 1, 229, 128, 260
-0.998282, 9, 43, 40, 58
-0.998283, 273, 231, 304, 246
-0.998284, 85, 79, 116, 94
-0.998284, 121, 79, 152, 94
-0.998286, 101, 73, 132, 88
-0.998288, 113, 73, 128, 136
-0.998289, 81, 29, 208, 60
-0.99829, 109, 41, 124, 104
-0.998291, 21, 79, 52, 94
-0.998292, 201, 185, 232, 200
-0.998292, 9, 37, 40, 52
-0.998293, 89, 261, 120, 276
-0.998296, 9, 29, 40, 44
-0.998299, 157, 201, 188, 216
-0.9983, 253, 221, 284, 236
-0.9983, 109, 79, 140, 94
-0.998302, 181, 141, 212, 156
-0.998302, 213, 191, 244, 206
-0.998303, 73, 223, 104, 238
-0.998308, 125, 57, 140, 120
-0.998309, 9, 23, 40, 38
-0.99831, 137, 97, 200, 160
-0.998311, 97, 79, 128, 94
-0.998314, 221, 217, 252, 232
-0.998314, 133, 73, 164, 88
-0.998316, 9, 17, 40, 32
-0.998317, 213, 185, 244, 200
-0.998323, 9, 7, 40, 22
-0.998323, 269, 225, 300, 240
-0.998325, 201, 123, 232, 138
-0.998325, 9, 79, 40, 94
-0.998328, 113, 73, 144, 88
-0.998333, 9, 71, 40, 86
-0.998335, 119, 57, 134, 120
-0.998336, 9, 1, 40, 16
-0.998336, 141, 209, 156, 272
-0.998337, 61, 75, 92, 90
-0.998338, 33, 79, 64, 94
-0.998339, 209, 217, 240, 232
-0.998343, 105, 177, 168, 240
-0.998344, 25, 73, 56, 88
-0.998346, 33, 281, 160, 312
-0.998354, 45, 79, 76, 94
-0.998356, 219, 153, 234, 216
-0.998356, 219, 217, 234, 248
-0.998362, 209, 201, 336, 232
-0.998364, 9, 77, 24, 108
-0.998368, 41, 73, 72, 88
-0.998381, 305, 289, 432, 320
-0.998383, 113, 265, 240, 328
-0.998385, 193, 165, 320, 196
-0.998402, 133, 193, 164, 320
-0.998406, 1, 241, 256, 304
-0.99842, 97, 57, 352, 120
-0.99842, 267, 209, 282, 272
-0.99842, 79, 265, 94, 328
-0.998423, 1, 269, 128, 300
-0.998426, 289, 33, 416, 96
-0.998429, 193, 105, 208, 168
-0.998438, 113, 197, 240, 228
-0.998442, 137, 57, 152, 120
-0.998445, 201, 105, 216, 168
-0.998445, 183, 161, 198, 224
-0.998448, 161, 153, 416, 216
-0.99845, 45, 69, 60, 100
-0.998453, 229, 161, 244, 224
-0.998454, 247, 225, 262, 288
-0.998457, 149, 201, 164, 264
-0.998458, 81, 257, 208, 288
-0.99846, 207, 105, 222, 168
-0.998461, 161, 201, 288, 232
-0.998464, 97, 209, 128, 330
-0.998471, 39, 69, 54, 100
-0.998475, 121, 201, 136, 264
-0.998479, 1, 241, 64, 304
-0.99848, 1, 9, 256, 72
-0.998483, 121, 193, 152, 320
-0.998487, 197, 129, 228, 256
-0.9985, 217, 177, 232, 208
-0.998517, 73, 265, 88, 328
-0.998517, 111, 209, 126, 272
-0.998519, 69, 73, 84, 136
-0.998521, 121, 225, 136, 288
-0.998527, 51, 69, 66, 100
-0.998527, 151, 49, 166, 112
-0.99854, 15, 77, 30, 108
-0.998548, 63, 41, 78, 104
-0.998548, 229, 185, 244, 248
-0.998548, 93, 241, 108, 304
-0.998554, 189, 153, 204, 216
-0.998558, 313, 209, 344, 330
-0.998566, 273, 185, 288, 248
-0.998567, 241, 293, 368, 324
-0.998568, 67, 69, 82, 100
-0.998569, 287, 217, 302, 280
-0.998576, 115, 233, 130, 296
-0.998578, 85, 201, 100, 264
-0.998582, 33, 69, 48, 100
-0.998589, 161, 97, 416, 160
-0.998591, 21, 1, 36, 64
-0.998594, 87, 213, 102, 244
-0.998597, 1, 71, 64, 86
-0.998598, 305, 1, 368, 330
-0.998603, 145, 57, 160, 120
-0.998608, 25, 77, 40, 108
-0.998608, 1, 193, 256, 256
-0.99861, 137, 69, 152, 100
-0.998613, 57, 69, 72, 100
-0.998614, 129, 57, 256, 88
-0.998616, 49, 233, 176, 264
-0.998616, 127, 69, 142, 100
-0.998619, 121, 69, 136, 100
-0.998626, 41, 75, 104, 90
-0.99864, 105, 73, 168, 88
-0.998645, 235, 129, 250, 192
-0.998645, 17, 79, 80, 94
-0.998651, 63, 265, 78, 328
-0.998653, 225, 193, 480, 256
-0.99866, 185, 123, 248, 138
-0.998662, 81, 273, 208, 304
-0.998662, 233, 223, 296, 238
-0.998663, 135, 217, 150, 280
-0.998665, 1, 37, 64, 52
-0.998666, 225, 245, 352, 276
-0.998666, 1, 21, 64, 36
-0.998667, 209, 181, 224, 212
-0.998667, 189, 129, 204, 160
-0.998668, 81, 71, 144, 86
-0.998668, 1, 15, 64, 30
-0.998669, 85, 225, 100, 288
-0.99867, 169, 193, 232, 208
-0.998671, 201, 193, 264, 208
-0.998672, 113, 65, 176, 192
-0.998672, 1, 43, 64, 58
-0.998673, 115, 69, 130, 100
-0.998673, 1, 27, 64, 42
-0.998676, 1, 1, 64, 16
-0.998678, 1, 9, 64, 24
-0.998678, 177, 129, 240, 144
-0.998679, 225, 213, 240, 244
-0.99868, 81, 79, 144, 94
-0.998681, 167, 33, 182, 96
-0.998685, 1, 49, 64, 64
-0.998689, 225, 201, 288, 216
-0.998689, 1, 63, 64, 78
-0.99869, 105, 215, 168, 230
-0.998691, 193, 129, 320, 160
-0.998692, 241, 229, 304, 244
-0.998695, 217, 213, 280, 228
-0.998697, 1, 55, 64, 70
-0.998699, 25, 69, 88, 84
-0.998699, 121, 79, 184, 94
-0.998704, 225, 207, 288, 222
-0.998705, 129, 71, 192, 86
-0.998706, 99, 233, 114, 296
-0.99871, 201, 187, 264, 202
-0.998712, 41, 259, 104, 274
-0.998714, 185, 199, 248, 214
-0.998715, 89, 245, 152, 260
-0.998716, 201, 219, 264, 234
-0.998717, 65, 215, 128, 230
-0.998717, 59, 225, 74, 288
-0.998719, 177, 187, 240, 202
-0.99872, 193, 135, 256, 150
-0.998723, 369, 301, 432, 316
-0.998723, 57, 69, 120, 84
-0.998724, 25, 63, 88, 78
-0.998724, 161, 315, 224, 330
-0.998725, 89, 225, 152, 240
-0.998726, 113, 207, 176, 222
-0.998726, 209, 307, 272, 322
-0.998727, 65, 227, 128, 242
-0.998728, 1, 217, 128, 248
-0.998728, 153, 201, 216, 216
-0.998728, 225, 195, 288, 210
-0.998729, 121, 63, 184, 78
-0.998729, 209, 229, 272, 244
-0.998729, 89, 231, 152, 246
-0.99873, 261, 193, 276, 256
-0.998731, 177, 141, 240, 156
-0.998731, 49, 233, 112, 248
-0.998733, 337, 281, 400, 296
-0.998734, 57, 251, 120, 266
-0.998734, 73, 265, 136, 280
-0.998735, 273, 229, 336, 244
-0.998737, 353, 289, 416, 304
-0.998738, 89, 239, 152, 254
-0.998738, 57, 221, 120, 236
-0.998739, 25, 49, 88, 64
-0.998739, 73, 209, 136, 224
-0.99874, 257, 191, 320, 206
-0.99874, 25, 57, 88, 72
-0.99874, 25, 267, 88, 282
-0.99874, 25, 295, 88, 310
-0.998741, 57, 279, 120, 294
-0.998741, 121, 55, 184, 70
-0.998742, 329, 307, 392, 322
-0.998742, 273, 249, 336, 264
-0.998742, 57, 273, 120, 288
-0.998743, 17, 273, 80, 288
-0.998743, 249, 237, 312, 252
-0.998743, 121, 49, 184, 64
-0.998743, 105, 255, 168, 270
-0.998743, 329, 299, 392, 314
-0.998744, 185, 205, 248, 220
-0.998744, 17, 221, 80, 236
-0.998744, 81, 257, 144, 272
-0.998745, 129, 199, 192, 214
-0.998745, 185, 161, 248, 176
-0.998746, 185, 167, 248, 182
-0.998746, 121, 227, 184, 242
-0.998747, 25, 31, 88, 46
-0.998747, 281, 223, 344, 238
-0.998748, 361, 295, 424, 310
-0.998748, 57, 63, 120, 78
-0.998749, 25, 39, 88, 54
-0.99875, 369, 307, 432, 322
-0.99875, 121, 43, 184, 58
-0.998751, 345, 313, 408, 328
-0.998753, 33, 245, 96, 260
-0.998753, 121, 249, 184, 264
-0.998754, 65, 241, 96, 304
-0.998755, 163, 65, 178, 128
-0.998755, 225, 189, 288, 204
-0.998755, 305, 283, 368, 298
-0.998755, 137, 209, 200, 224
-0.998756, 177, 181, 240, 196
-0.998756, 177, 173, 240, 188
-0.998757, 25, 233, 88, 248
-0.998757, 73, 203, 136, 218
-0.998757, 49, 265, 112, 280
-0.998758, 185, 117, 248, 132
-0.998758, 177, 217, 240, 232
-0.998758, 169, 153, 232, 168
-0.998758, 313, 293, 376, 308
-0.998759, 41, 227, 104, 242
-0.99876, 209, 117, 336, 148
-0.99876, 209, 301, 272, 316
-0.99876, 177, 309, 240, 324
-0.99876, 109, 69, 124, 100
-0.99876, 33, 289, 96, 304
-0.998761, 273, 245, 400, 276
-0.998761, 1, 253, 64, 268
-0.998761, 273, 217, 336, 232
-0.998761, 25, 301, 88, 316
-0.998761, 73, 73, 88, 104
-0.998762, 25, 1, 88, 16
-0.998763, 25, 21, 88, 36
-0.998763, 49, 205, 176, 236
-0.998763, 377, 315, 440, 330
-0.998763, 105, 265, 168, 280
-0.998764, 201, 249, 216, 312
-0.998764, 113, 235, 176, 250
-0.998764, 145, 193, 208, 208
-0.998765, 217, 237, 280, 252
-0.998765, 209, 243, 272, 258
-0.998765, 233, 247, 296, 262
-0.998766, 121, 33, 184, 48
-0.998767, 209, 181, 272, 196
-0.998767, 17, 227, 80, 242
-0.998767, 57, 81, 120, 96
-0.998767, 209, 127, 272, 142
-0.998767, 169, 147, 232, 162
-0.998767, 9, 279, 72, 294
-0.998767, 209, 217, 224, 248
-0.998768, 129, 221, 192, 236
-0.998768, 209, 313, 272, 328
-0.998768, 145, 49, 208, 64
-0.998769, 211, 153, 226, 216
-0.998776, 97, 225, 224, 256
-0.998778, 223, 121, 238, 184
-0.998779, 235, 185, 250, 248
-0.998781, 89, 201, 104, 232
-0.998781, 95, 77, 110, 108
-0.998782, 213, 105, 228, 168
-0.998783, 113, 177, 240, 208
-0.998784, 289, 161, 416, 224
-0.998784, 157, 1, 172, 64
-0.998785, 331, 257, 346, 320
-0.998785, 153, 205, 168, 236
-0.998789, 51, 33, 66, 96
-0.998789, 147, 65, 162, 96
-0.998797, 97, 237, 224, 268
-0.998799, 225, 225, 480, 288
-0.9988, 27, 65, 42, 96
-0.998801, 101, 77, 116, 108
-0.998804, 9, 33, 40, 288
-0.998804, 1, 97, 256, 160
-0.998808, 97, 33, 352, 96
-0.998811, 241, 189, 368, 220
-0.998811, 91, 193, 106, 256
-0.998812, 81, 77, 96, 108
-0.998812, 273, 241, 288, 304
-0.998812, 195, 249, 210, 312
-0.998814, 89, 77, 104, 108
-0.998817, 267, 177, 282, 240
-0.998824, 81, 17, 208, 48
-0.998834, 39, 33, 54, 96
-0.998836, 45, 257, 60, 320
-0.998845, 11, 61, 26, 92
-0.998849, 143, 209, 158, 240
-0.99885, 41, 257, 72, 320
-0.998855, 65, 217, 80, 280
-0.998859, 17, 37, 144, 68
-0.998862, 161, 189, 176, 220
-0.998864, 195, 129, 210, 192
-0.998867, 49, 245, 176, 276
-0.998874, 165, 49, 196, 176
-0.998885, 21, 65, 36, 96
-0.998888, 211, 229, 226, 260
-0.998891, 315, 201, 330, 264
-0.998892, 225, 125, 240, 156
-0.998897, 235, 153, 250, 216
-0.998898, 17, 293, 144, 324
-0.998898, 231, 201, 246, 232
-0.998899, 1, 65, 16, 96
-0.998899, 203, 129, 218, 160
-0.9989, 105, 217, 120, 280
-0.998904, 253, 225, 268, 288
-0.998905, 185, 165, 200, 196
-0.998906, 177, 145, 192, 208
-0.998906, 17, 217, 32, 280
-0.998906, 127, 225, 142, 288
-0.998913, 183, 141, 198, 172
-0.998914, 57, 233, 72, 264
-0.998918, 75, 241, 90, 304
-0.998919, 67, 57, 82, 88
-0.99892, 145, 33, 160, 96
-0.998925, 271, 217, 286, 248
-0.998928, 315, 241, 330, 304
-0.998939, 169, 153, 200, 216
-0.99894, 229, 209, 244, 272
-0.998941, 217, 229, 232, 260
-0.998943, 229, 149, 244, 180
-0.998944, 249, 221, 264, 252
-0.998946, 103, 65, 118, 96
-0.998947, 115, 33, 130, 96
-0.998947, 79, 221, 94, 252
-0.998949, 29, 1, 44, 64
-0.998949, 201, 193, 216, 256
-0.998952, 267, 249, 282, 312
-0.998954, 335, 297, 350, 328
-0.998961, 245, 201, 260, 264
-0.998962, 125, 33, 140, 96
-0.998968, 215, 205, 230, 236
-0.998969, 195, 117, 210, 148
-0.998972, 139, 225, 154, 256
-0.998972, 145, 161, 272, 192
-0.998979, 255, 221, 270, 252
-0.998982, 205, 229, 220, 260
-0.998983, 45, 33, 60, 96
-0.998983, 113, 113, 240, 144
-0.998988, 217, 121, 232, 152
-0.998992, 121, 257, 136, 320
-0.998996, 81, 1, 208, 32
-0.998997, 11, 5, 26, 36
-0.998999, 205, 245, 220, 276
-0.999001, 181, 233, 212, 296
-0.999003, 97, 209, 112, 272
-0.999006, 51, 265, 66, 328
-0.999007, 99, 257, 114, 320
-0.999008, 193, 153, 320, 184
-0.99901, 323, 217, 338, 280
-0.999013, 371, 265, 386, 296
-0.999015, 129, 57, 144, 88
-0.999018, 197, 129, 212, 160
-0.999018, 375, 265, 390, 328
-0.999018, 265, 213, 280, 244
-0.99902, 217, 193, 232, 224
-0.999023, 157, 57, 172, 88
-0.999023, 99, 257, 114, 288
-0.999025, 281, 185, 296, 248
-0.999026, 151, 73, 166, 136
-0.999027, 1, 65, 500, 128
-0.999028, 45, 241, 60, 272
-0.99903, 119, 209, 134, 240
-0.99903, 3, 77, 18, 108
-0.999031, 105, 81, 168, 144
-0.999033, 329, 289, 344, 320
-0.999035, 193, 141, 320, 172
-0.999035, 295, 233, 310, 296
-0.999037, 53, 233, 68, 296
-0.999038, 225, 65, 288, 320
-0.999039, 173, 193, 188, 224
-0.999041, 285, 225, 300, 256
-0.999041, 123, 229, 138, 260
-0.999042, 233, 121, 296, 184
-0.999045, 1, 249, 500, 312
-0.999045, 237, 209, 252, 240
-0.999045, 41, 57, 56, 88
-0.999046, 23, 257, 38, 320
-0.999049, 39, 245, 54, 276
-0.999054, 159, 77, 174, 108
-0.999054, 213, 241, 228, 272
-0.99906, 97, 65, 112, 96
-0.999062, 293, 233, 308, 264
-0.999062, 55, 245, 70, 276
-0.999063, 21, 1, 36, 32
-0.999065, 211, 117, 226, 148
-0.999069, 17, 25, 144, 56
-0.999069, 161, 289, 288, 320
-0.999071, 209, 177, 336, 208
-0.999072, 129, 69, 256, 100
-0.999075, 203, 145, 218, 176
-0.999075, 69, 225, 84, 256
-0.999077, 57, 57, 72, 88
-0.999078, 5, 225, 36, 288
-0.99908, 195, 145, 210, 176
-0.999084, 49, 57, 64, 88
-0.999086, 189, 117, 204, 148
-0.999086, 11, 17, 26, 48
-0.999089, 17, 1, 144, 32
-0.999089, 63, 229, 78, 260
-0.999091, 227, 225, 242, 256
-0.999099, 35, 57, 50, 88
-0.999101, 183, 129, 198, 160
-0.999103, 237, 197, 252, 228
-0.999104, 257, 201, 384, 232
-0.999109, 185, 153, 200, 184
-0.99911, 83, 233, 98, 264
-0.999111, 73, 57, 88, 88
-0.999111, 101, 249, 132, 312
-0.999114, 21, 13, 36, 44
-0.999115, 173, 297, 188, 328
-0.999115, 381, 273, 396, 304
-0.999115, 209, 1, 336, 64
-0.999115, 209, 25, 336, 88
-0.999117, 187, 277, 202, 308
-0.999119, 155, 193, 170, 224
-0.999119, 217, 165, 232, 196
-0.999128, 209, 129, 224, 160
-0.999128, 277, 221, 292, 252
-0.99913, 273, 233, 400, 264
-0.999133, 229, 137, 244, 168
-0.999133, 179, 181, 194, 212
-0.999133, 205, 257, 220, 288
-0.999134, 199, 237, 214, 268
-0.999135, 123, 57, 138, 88
-0.999137, 205, 117, 220, 148
-0.999138, 199, 257, 214, 288
-0.99914, 153, 69, 168, 100
-0.99914, 135, 57, 150, 88
-0.999149, 87, 245, 102, 276
-0.999151, 231, 213, 246, 244
-0.999153, 111, 265, 126, 296
-0.999155, 225, 201, 240, 232
-0.999155, 179, 153, 194, 184
-0.999162, 95, 225, 110, 256
-0.999164, 79, 209, 94, 240
-0.999164, 191, 161, 206, 192
-0.999164, 95, 193, 110, 224
-0.999166, 245, 169, 276, 232
-0.999169, 223, 185, 238, 216
-0.999169, 111, 249, 126, 280
-0.999174, 143, 77, 158, 108
-0.999175, 57, 285, 72, 316
-0.999181, 133, 237, 148, 268
-0.999184, 117, 57, 132, 88
-0.999186, 227, 165, 242, 196
-0.999203, 257, 277, 384, 308
-0.999204, 129, 13, 256, 44
-0.999216, 129, 29, 256, 60
-0.999216, 345, 257, 376, 320
-0.999254, 161, 49, 192, 112
-0.999259, 11, 1, 26, 128
-0.999272, 133, 25, 164, 88
-0.999281, 361, 265, 392, 328
-0.999285, 37, 65, 68, 192
-0.999285, 177, 245, 304, 276
-0.999295, 193, 257, 320, 288
-0.999299, 289, 105, 416, 168
-0.999307, 305, 273, 432, 304
-0.999321, 161, 269, 288, 300
-0.999328, 227, 113, 242, 240
-0.999329, 97, 209, 224, 240
-0.999333, 97, 145, 224, 176
-0.999336, 329, 241, 392, 304
-0.999363, 11, 65, 26, 192
-0.999376, 161, 185, 192, 248
-0.99938, 19, 65, 34, 192
-0.999388, 17, 17, 32, 144
-0.999396, 97, 125, 224, 156
-0.999398, 227, 161, 242, 288
-0.999412, 1, 1, 500, 64
-0.999425, 85, 1, 100, 128
-0.999425, 257, 257, 384, 288
-0.999426, 17, 13, 144, 44
-0.999437, 81, 81, 208, 112
-0.999439, 241, 145, 368, 208
-0.999447, 157, 1, 172, 128
-0.999448, 177, 105, 304, 136
-0.99945, 149, 1, 180, 256
-0.999459, 339, 307, 354, 322
-0.99946, 229, 191, 244, 206
-0.99946, 199, 149, 214, 164
-0.99946, 139, 79, 154, 94
-0.999461, 95, 227, 110, 242
-0.999461, 171, 313, 186, 328
-0.999461, 77, 271, 92, 286
-0.999461, 113, 253, 128, 268
-0.999462, 231, 205, 246, 220
-0.999462, 259, 229, 274, 244
-0.999462, 81, 211, 96, 226
-0.999463, 21, 7, 36, 22
-0.999463, 63, 281, 78, 296
-0.999463, 21, 1, 36, 16
-0.999463, 185, 159, 200, 174
-0.999463, 211, 247, 226, 262
-0.999463, 399, 295, 414, 310
-0.999463, 11, 19, 26, 34
-0.999464, 229, 141, 244, 156
-0.999464, 101, 73, 116, 88
-0.999464, 145, 225, 272, 256
-0.999464, 21, 13, 36, 28
-0.999465, 229, 151, 244, 166
-0.999465, 237, 201, 252, 216
-0.999466, 69, 277, 84, 292
-0.999466, 221, 209, 236, 224
-0.999466, 253, 229, 268, 244
-0.999467, 215, 223, 230, 238
-0.999467, 227, 227, 242, 242
-0.999467, 17, 225, 32, 240
-0.999468, 197, 143, 212, 158
-0.999468, 5, 81, 20, 96
-0.999468, 151, 73, 166, 88
-0.999469, 93, 209, 108, 224
-0.999469, 11, 7, 26, 22
-0.999469, 239, 217, 254, 232
-0.999469, 205, 121, 220, 136
-0.99947, 327, 293, 342, 308
-0.99947, 183, 151, 198, 166
-0.99947, 119, 209, 134, 224
-0.999471, 367, 265, 382, 280
-0.999471, 213, 229, 228, 244
-0.999471, 173, 193, 188, 208
-0.999471, 11, 1, 26, 16
-0.999471, 333, 297, 348, 312
-0.999472, 11, 13, 26, 28
-0.999472, 215, 179, 230, 194
-0.999473, 199, 123, 214, 138
-0.999473, 207, 229, 222, 244
-0.999474, 379, 281, 394, 296
-0.999474, 149, 211, 164, 226
-0.999475, 97, 1, 160, 64
-0.999475, 389, 287, 404, 302
-0.999475, 165, 313, 180, 328
-0.999476, 159, 79, 174, 94
-0.999476, 77, 217, 92, 232
-0.999476, 113, 265, 128, 280
-0.999477, 83, 267, 98, 282
-0.999477, 161, 193, 176, 208
-0.999478, 161, 41, 288, 72
-0.999478, 65, 223, 80, 238
-0.999478, 167, 195, 182, 210
-0.99948, 149, 205, 164, 220
-0.99948, 271, 229, 286, 244
-0.99948, 91, 1, 106, 128
-0.99948, 5, 17, 20, 144
-0.999482, 231, 221, 246, 236
-0.999482, 59, 233, 74, 248
-0.999483, 67, 229, 82, 244
-0.999483, 85, 79, 100, 94
-0.999484, 217, 123, 232, 138
-0.999485, 3, 75, 18, 90
-0.999485, 187, 137, 202, 152
-0.999485, 215, 237, 230, 252
-0.999486, 61, 73, 76, 88
-0.999486, 209, 223, 224, 238
-0.999487, 27, 79, 42, 94
-0.999487, 91, 201, 106, 216
-0.999488, 107, 73, 122, 88
-0.999488, 193, 125, 208, 140
-0.999489, 133, 79, 148, 94
-0.999489, 269, 221, 284, 236
-0.99949, 79, 225, 94, 240
-0.99949, 289, 229, 304, 244
-0.999491, 91, 79, 106, 94
-0.999491, 221, 177, 236, 304
-0.999492, 187, 113, 202, 240
-0.999492, 25, 1, 40, 128
-0.999493, 145, 73, 160, 88
-0.999495, 9, 73, 24, 88
-0.999495, 219, 229, 234, 244
-0.999496, 79, 1, 94, 128
-0.999497, 73, 33, 88, 160
-0.999497, 161, 199, 176, 214
-0.999498, 87, 217, 102, 232
-0.999498, 139, 73, 154, 88
-0.999499, 229, 157, 244, 172
-0.999499, 73, 225, 88, 240
-0.9995, 97, 79, 112, 94
-0.9995, 75, 75, 90, 90
-0.999501, 33, 79, 48, 94
-0.999502, 127, 79, 142, 94
-0.999502, 185, 167, 200, 182
-0.999502, 209, 191, 224, 206
-0.999502, 105, 79, 120, 94
-0.999503, 155, 199, 170, 214
-0.999503, 23, 73, 38, 88
-0.999504, 227, 129, 242, 144
-0.999505, 119, 79, 134, 94
-0.999505, 207, 183, 222, 198
-0.999506, 87, 211, 102, 226
-0.999506, 233, 129, 248, 256
-0.999506, 113, 73, 128, 88
-0.999507, 155, 207, 170, 222
-0.999507, 179, 191, 194, 206
-0.999507, 111, 79, 126, 94
-0.999508, 219, 217, 234, 232
-0.999508, 189, 131, 204, 146
-0.999508, 233, 211, 248, 226
-0.999509, 277, 225, 292, 240
-0.99951, 59, 79, 74, 94
-0.999511, 205, 145, 220, 160
-0.999512, 29, 73, 44, 88
-0.999516, 221, 223, 236, 238
-0.999516, 119, 73, 134, 88
-0.999518, 213, 217, 228, 232
-0.999519, 133, 73, 148, 88
-0.99952, 39, 79, 54, 94
-0.999523, 125, 73, 140, 88
-0.999524, 51, 79, 66, 94
-0.999531, 17, 79, 32, 94
-0.999531, 273, 89, 336, 152
-0.999532, 49, 73, 64, 88
-0.999532, 11, 79, 26, 94
-0.999537, 225, 217, 240, 232
-0.999538, 55, 73, 70, 88
-0.999539, 25, 65, 40, 192
-0.999541, 97, 1, 112, 128
-0.999541, 283, 227, 298, 242
-0.999542, 45, 79, 60, 94
-0.999546, 209, 277, 336, 308
-0.999547, 67, 73, 82, 88
-0.999549, 215, 185, 230, 200
-0.999549, 35, 73, 50, 88
-0.999549, 209, 177, 224, 304
-0.999551, 67, 33, 82, 160
-0.999552, 43, 73, 58, 88
-0.999571, 141, 65, 172, 192
-0.999579, 181, 129, 196, 256
-0.999581, 5, 65, 20, 192
-0.999582, 189, 65, 220, 320
-0.999598, 305, 161, 368, 288
-0.999599, 145, 193, 176, 320
-0.9996, 85, 65, 100, 192
-0.9996, 31, 1, 46, 128
-0.9996, 65, 293, 192, 324
-0.999604, 301, 201, 332, 264
-0.999605, 129, 1, 256, 32
-0.99961, 215, 193, 230, 320
-0.999614, 353, 285, 480, 316
-0.999615, 221, 129, 236, 256
-0.999624, 109, 177, 140, 304
-0.999635, 79, 49, 94, 176
-0.999638, 77, 209, 92, 330
-0.999639, 91, 65, 106, 192
-0.999644, 275, 177, 290, 304
-0.999645, 153, 65, 216, 320
-0.999646, 61, 33, 76, 160
-0.999648, 193, 113, 208, 240
-0.999648, 103, 17, 118, 144
-0.999655, 49, 81, 112, 144
-0.999666, 157, 65, 172, 192
-0.999667, 267, 177, 282, 304
-0.999668, 209, 241, 240, 304
-0.999673, 65, 193, 192, 224
-0.999675, 109, 17, 124, 144
-0.999685, 147, 17, 162, 144
-0.999685, 97, 65, 112, 192
-0.999686, 203, 177, 218, 304
-0.999689, 17, 185, 80, 248
-0.99969, 197, 177, 212, 304
-0.999695, 305, 73, 368, 136
-0.999698, 1, 185, 500, 248
-0.999699, 209, 65, 240, 320
-0.9997, 115, 17, 130, 144
-0.999705, 233, 177, 248, 304
-0.999705, 129, 249, 256, 280
-0.999707, 233, 1, 296, 330
-0.999708, 55, 17, 70, 144
-0.999709, 71, 209, 86, 330
-0.999709, 227, 209, 242, 330
-0.999709, 163, 17, 178, 144
-0.999713, 37, 17, 52, 144
-0.999717, 69, 1, 100, 256
-0.999721, 313, 193, 328, 320
-0.999724, 253, 209, 268, 330
-0.999731, 281, 177, 296, 304
-0.999732, 1, 217, 500, 280
-0.999733, 225, 105, 352, 136
-0.99974, 297, 65, 328, 320
-0.999743, 103, 65, 118, 192
-0.999745, 49, 33, 64, 160
-0.999746, 123, 193, 138, 320
-0.999748, 21, 33, 52, 288
-0.999748, 261, 177, 276, 304
-0.999748, 241, 209, 256, 330
-0.999754, 257, 257, 500, 320
-0.999754, 191, 177, 206, 304
-0.999763, 85, 209, 100, 330
-0.999763, 103, 209, 118, 330
-0.999769, 121, 17, 136, 144
-0.999769, 31, 65, 46, 192
-0.999774, 17, 257, 48, 320
-0.999776, 289, 73, 416, 104
-0.999779, 289, 177, 304, 304
-0.99978, 43, 17, 58, 144
-0.999783, 319, 209, 334, 330
-0.999783, 151, 65, 166, 192
-0.999783, 13, 209, 28, 330
-0.999789, 113, 285, 240, 316
-0.999793, 109, 65, 124, 192
-0.999801, 55, 65, 70, 192
-0.999807, 29, 1, 60, 64
-0.999817, 201, 129, 216, 256
-0.999822, 329, 1, 392, 330
-0.999825, 163, 65, 178, 192
-0.999825, 305, 193, 320, 320
-0.999832, 97, 157, 224, 188
-0.999832, 215, 145, 230, 272
-0.999836, 127, 33, 142, 160
-0.999843, 97, 209, 112, 330
-0.999844, 37, 65, 52, 192
-0.999849, 239, 161, 254, 288
-0.99985, 115, 209, 130, 330
-0.999856, 289, 85, 416, 116
-0.999857, 207, 129, 222, 256
-0.999858, 115, 65, 130, 192
-0.99986, 297, 177, 312, 304
-0.99986, 91, 209, 106, 330
-0.999863, 147, 193, 162, 320
-0.999865, 245, 161, 260, 288
-0.999868, 109, 193, 124, 320
-0.999869, 19, 209, 34, 330
-0.999872, 43, 65, 58, 192
-0.999876, 57, 209, 72, 330
-0.999876, 85, 1, 116, 256
-0.999876, 133, 193, 148, 320
-0.999882, 275, 129, 290, 256
-0.999889, 169, 161, 184, 288
-0.99989, 255, 161, 270, 288
-0.999894, 327, 193, 342, 320
-0.999897, 273, 1, 400, 32
-0.999897, 273, 17, 400, 48
-0.999898, 165, 1, 196, 256
-0.999898, 247, 209, 262, 330
-0.999903, 273, 29, 400, 60
-0.999905, 233, 81, 248, 208
-0.999907, 65, 209, 80, 330
-0.999912, 71, 81, 86, 208
-0.999912, 169, 1, 184, 128
-0.999912, 121, 65, 136, 192
-0.999915, 1, 201, 128, 232
-0.999915, 141, 209, 156, 330
-0.999919, 313, 97, 328, 224
-0.99992, 319, 113, 334, 240
-0.999921, 239, 113, 254, 240
-0.999927, 377, 265, 408, 328
-0.999929, 257, 9, 500, 72
-0.999931, 177, 81, 192, 208
-0.999932, 133, 17, 148, 144
-0.999932, 153, 193, 168, 320
-0.999932, 289, 185, 416, 216
-0.999935, 209, 89, 336, 120
-0.999937, 177, 177, 192, 304
-0.99994, 101, 1, 132, 256
-0.999942, 41, 209, 72, 272
-0.999942, 217, 81, 232, 208
-0.999942, 269, 129, 284, 256
-0.999943, 185, 177, 200, 304
-0.999947, 227, 65, 242, 192
-0.99995, 273, 213, 400, 244
-0.999956, 25, 209, 40, 330
-0.999958, 339, 209, 354, 330
-0.99996, 353, 297, 480, 328
-0.999967, 49, 209, 64, 330
-0.999967, 157, 145, 172, 272
-0.99997, 273, 41, 400, 72
-0.999972, 65, 81, 80, 208
-0.999977, 175, 129, 190, 256
-0.999977, 313, 233, 344, 296
-0.999978, 185, 65, 200, 192
-0.999978, 7, 209, 22, 330
-0.999979, 195, 65, 210, 192
-0.999982, 95, 161, 110, 288
-0.999986, 115, 161, 130, 288
-0.999988, 113, 297, 240, 328
-0.999988, 303, 17, 318, 144
-0.999988, 43, 193, 58, 320
-0.999992, 143, 145, 158, 272
-0.999992, 1, 209, 16, 330
-0.999992, 353, 273, 480, 304
-0.999994, 277, 249, 308, 312
-0.999995, 265, 65, 328, 128
-0.999997, 257, 173, 384, 204
-0.999999, 141, 17, 156, 144
-1, 169, 49, 184, 176
-1, 307, 65, 322, 192
-1.00001, 201, 81, 216, 208
-1.00001, 303, 145, 318, 272
-1.00001, 129, 73, 160, 136
-1.00001, 285, 129, 300, 256
-1.00001, 289, 61, 416, 92
-1.00002, 181, 193, 212, 256
-1.00006, 9, 209, 40, 330
-1.00007, 213, 97, 244, 160
-1.00007, 305, 261, 432, 292
-1.00008, 257, 65, 500, 128
-1.00008, 309, 65, 340, 320
-1.00008, 129, 101, 256, 132
-1.00009, 209, 73, 336, 104
-1.0001, 289, 97, 416, 128
-1.00016, 265, 9, 328, 72
-1.00016, 229, 65, 260, 320
-1.00019, 125, 17, 156, 144
-1.0002, 305, 201, 432, 232
-1.0002, 257, 41, 500, 104
-1.0002, 209, 53, 336, 84
-1.00022, 177, 65, 208, 320
-1.00022, 57, 1, 88, 256
-1.00022, 161, 9, 416, 72
-1.00023, 209, 33, 336, 64
-1.00024, 209, 9, 336, 40
-1.00024, 209, 21, 336, 52
-1.00024, 337, 1, 464, 64
-1.00027, 289, 109, 416, 140
-1.00028, 89, 161, 152, 288
-1.00029, 105, 1, 168, 256
-1.00029, 265, 33, 328, 96
-1.0003, 1, 257, 32, 320
-1.00035, 113, 33, 144, 288
-1.00036, 113, 257, 144, 320
-1.00037, 265, 113, 328, 240
-1.00037, 337, 73, 464, 136
-1.00038, 37, 1, 68, 256
-1.00042, 241, 133, 368, 164
-1.00043, 49, 177, 176, 208
-1.00043, 1, 89, 128, 120
-1.00043, 313, 177, 376, 240
-1.00043, 121, 33, 152, 96
-1.00045, 353, 261, 480, 292
-1.00045, 321, 65, 352, 320
-1.00045, 241, 145, 368, 176
-1.00046, 129, 81, 256, 112
-1.00046, 257, 121, 384, 152
-1.00047, 245, 265, 276, 328
-1.00048, 305, 121, 432, 152
-1.00048, 29, 217, 60, 280
-1.00049, 369, 241, 496, 304
-1.0005, 353, 33, 480, 64
-1.00051, 49, 93, 176, 124
-1.00051, 369, 65, 496, 96
-1.00051, 201, 89, 232, 152
-1.00052, 337, 13, 464, 44
-1.00052, 137, 1, 168, 256
-1.00054, 305, 133, 432, 164
-1.00055, 353, 53, 480, 84
-1.00056, 321, 225, 448, 256
-1.00057, 257, 113, 500, 176
-1.00058, 1, 177, 128, 240
-1.00058, 129, 185, 160, 248
-1.00058, 257, 169, 500, 232
-1.0006, 49, 141, 176, 172
-1.00062, 337, 89, 464, 120
-1.00062, 265, 49, 328, 176
-1.00063, 337, 1, 464, 32
-1.00065, 281, 65, 312, 320
-1.00065, 321, 237, 448, 268
-1.00066, 65, 109, 192, 140
-1.00067, 337, 249, 464, 280
-1.00067, 17, 189, 144, 220
-1.00069, 369, 77, 496, 108
-1.0007, 161, 49, 224, 176
-1.00072, 333, 65, 364, 320
-1.00075, 241, 157, 368, 188
-1.00075, 201, 81, 232, 208
-1.00078, 249, 33, 280, 288
-1.0008, 269, 65, 300, 320
-1.0008, 257, 89, 500, 152
-1.00081, 125, 65, 156, 320
-1.00084, 253, 233, 284, 296
-1.00086, 357, 65, 388, 320
-1.00088, 289, 137, 416, 200
-1.00091, 369, 41, 496, 104
-1.00091, 297, 9, 360, 72
-1.00096, 377, 65, 408, 320
-1.00103, 269, 129, 300, 256
-1.00104, 33, 209, 64, 330
-1.00105, 321, 241, 448, 304
-1.00108, 337, 97, 464, 160
-1.00109, 89, 265, 120, 328
-1.00109, 321, 193, 448, 256
-1.00111, 313, 113, 344, 240
-1.00114, 345, 33, 376, 288
-1.00115, 65, 97, 192, 160
-1.00121, 69, 185, 100, 248
-1.00123, 257, 145, 500, 208
-1.00124, 289, 185, 320, 248
-1.00126, 225, 265, 256, 328
-1.00126, 1, 121, 500, 184
-1.00128, 297, 49, 360, 112
-1.00129, 229, 233, 260, 296
-1.00133, 49, 121, 176, 184
-1.00135, 277, 185, 308, 248
-1.00135, 89, 185, 120, 248
-1.00136, 405, 65, 436, 320
-1.00137, 237, 113, 268, 240
-1.00138, 393, 65, 424, 320
-1.0014, 421, 65, 452, 320
-1.00141, 165, 1, 196, 128
-1.00143, 361, 1, 424, 330
-1.00146, 225, 105, 256, 168
-1.0015, 161, 97, 224, 224
-1.00151, 449, 65, 480, 320
-1.00152, 393, 1, 456, 330
-1.00156, 1, 161, 500, 224
-1.00158, 461, 1, 492, 256
-1.0016, 433, 1, 464, 256
-1.0016, 173, 177, 204, 304
-1.0016, 133, 233, 164, 296
-1.00161, 133, 1, 164, 64
-1.00161, 177, 257, 208, 320
-1.00164, 189, 97, 220, 160
-1.00164, 353, 241, 416, 304
-1.00168, 1, 89, 500, 152
-1.00171, 145, 265, 208, 328
-1.00172, 165, 25, 196, 88
-1.00177, 17, 97, 144, 160
-1.00182, 305, 33, 368, 160
-1.00185, 65, 81, 96, 208
-1.00191, 213, 265, 244, 328
-1.00193, 37, 81, 68, 144
-1.00195, 129, 145, 160, 272
-1.00197, 313, 209, 344, 272
-1.00198, 417, 1, 480, 330
-1.00199, 337, 121, 464, 184
-1.002, 301, 97, 332, 224
-1.00207, 305, 97, 368, 160
-1.00208, 53, 201, 84, 264
-1.00213, 25, 81, 56, 144
-1.00219, 225, 81, 256, 208
-1.0022, 305, 209, 432, 330
-1.00224, 113, 81, 144, 144
-1.00228, 389, 265, 420, 328
-1.00237, 301, 145, 332, 272
-1.00242, 149, 145, 180, 272
-1.00242, 201, 265, 232, 328
-1.00244, 101, 81, 132, 144
-1.00246, 129, 169, 192, 232
-1.00248, 1, 153, 128, 216
-1.00251, 265, 161, 296, 224
-1.00253, 369, 217, 496, 280
-1.00261, 73, 17, 104, 80
-1.00262, 353, 145, 480, 208
-1.00262, 45, 209, 76, 330
-1.00263, 161, 73, 192, 136
-1.00264, 185, 65, 216, 192
-1.00264, 273, 113, 336, 176
-1.00265, 61, 25, 92, 88
-1.00268, 1, 129, 128, 192
-1.00271, 237, 145, 268, 208
-1.00276, 253, 129, 284, 256
-1.00281, 161, 113, 192, 240
-1.00282, 17, 201, 48, 264
-1.00284, 165, 1, 196, 64
-1.00288, 65, 161, 128, 288
-1.00291, 353, 169, 480, 232
-1.00291, 369, 193, 496, 256
-1.00295, 293, 33, 324, 160
-1.00297, 213, 65, 244, 192
-1.00299, 161, 113, 192, 176
-1.00302, 317, 161, 348, 288
-1.00305, 249, 65, 312, 320
-1.00307, 153, 161, 184, 224
-1.00307, 293, 73, 324, 136
-1.00307, 165, 233, 196, 296
-1.00315, 161, 161, 192, 288
-1.00317, 169, 33, 232, 96
-1.00318, 81, 169, 144, 232
-1.00322, 53, 81, 84, 208
-1.00323, 309, 1, 340, 128
-1.00324, 301, 265, 332, 328
-1.00333, 337, 65, 464, 192
-1.00338, 321, 217, 384, 280
-1.00343, 281, 161, 344, 224
-1.00356, 281, 129, 312, 256
-1.00357, 333, 209, 364, 330
-1.0036, 265, 1, 328, 128
-1.0039, 353, 209, 384, 330
-1.00393, 161, 97, 224, 160
-1.00395, 353, 17, 480, 144
-1.00401, 321, 161, 448, 288
-1.00402, 329, 65, 392, 320
-1.00415, 53, 161, 84, 288
-1.0042, 385, 265, 448, 328
-1.00431, 93, 161, 124, 288
-1.00433, 409, 265, 472, 328
-1.00436, 309, 49, 340, 176
-1.00438, 321, 81, 384, 208
-1.00439, 21, 193, 52, 320
-1.00446, 273, 137, 336, 200
-1.00463, 305, 153, 368, 216
-1.00466, 69, 161, 100, 288
-1.00479, 161, 209, 192, 330
-1.00483, 125, 65, 156, 192
-1.00501, 129, 121, 192, 184
-1.00502, 81, 161, 112, 288
-1.0051, 49, 169, 112, 232
-1.00513, 325, 81, 356, 208
-1.00516, 337, 113, 464, 240
-1.00523, 113, 81, 144, 208
-1.00524, 169, 9, 232, 72
-1.00536, 33, 161, 64, 288
-1.00537, 297, 121, 360, 184
-1.00557, 353, 209, 480, 330
-1.00562, 361, 65, 424, 320
-1.0057, 341, 97, 372, 224
-1.0059, 9, 161, 72, 288
-1.00602, 337, 209, 400, 330
-1.00608, 377, 241, 440, 304
-1.00627, 337, 81, 400, 144
-1.00628, 329, 129, 360, 256
-1.00632, 217, 49, 280, 176
-1.00642, 209, 73, 272, 136
-1.00645, 33, 161, 96, 288
-1.00655, 177, 17, 208, 144
-1.00686, 393, 33, 456, 288
-1.00686, 377, 209, 408, 330
-1.00691, 237, 65, 268, 192
-1.00693, 361, 81, 392, 208
-1.00703, 225, 33, 256, 160
-1.00714, 329, 105, 392, 168
-1.00717, 377, 113, 408, 240
-1.0072, 1, 161, 32, 288
-1.00721, 361, 81, 424, 144
-1.00726, 345, 217, 408, 280
-1.00736, 345, 161, 376, 288
-1.0074, 197, 33, 228, 160
-1.00744, 401, 65, 464, 128
-1.00745, 105, 129, 136, 256
-1.0075, 321, 33, 352, 160
-1.00758, 289, 81, 320, 208
-1.00758, 401, 105, 464, 168
-1.00768, 361, 129, 392, 256
-1.00774, 241, 57, 304, 120
-1.00782, 341, 49, 372, 176
-1.00793, 17, 113, 144, 240
-1.00793, 425, 65, 488, 128
-1.00795, 241, 33, 304, 96
-1.00797, 417, 33, 480, 288
-1.00802, 1, 105, 64, 168
-1.00808, 373, 49, 404, 176
-1.00811, 389, 113, 420, 240
-1.00814, 385, 33, 448, 96
-1.00817, 249, 81, 280, 208
-1.00818, 425, 105, 488, 168
-1.0082, 241, 9, 304, 72
-1.0082, 321, 129, 384, 192
-1.00823, 377, 113, 440, 176
-1.00827, 425, 33, 488, 96
-1.00827, 97, 105, 160, 168
-1.0083, 329, 57, 392, 120
-1.00833, 117, 129, 148, 256
-1.00834, 185, 57, 248, 120
-1.00834, 377, 57, 440, 120
-1.00835, 405, 81, 436, 208
-1.00836, 389, 209, 420, 330
-1.00838, 385, 65, 416, 192
-1.00845, 105, 145, 168, 208
-1.00848, 25, 97, 88, 160
-1.00859, 17, 145, 48, 272
-1.00859, 277, 1, 308, 128
-1.00865, 369, 161, 496, 288
-1.00865, 361, 33, 392, 160
-1.00865, 441, 97, 472, 224
-1.00865, 405, 129, 436, 256
-1.00869, 425, 1, 488, 64
-1.00869, 353, 105, 416, 168
-1.00871, 353, 57, 416, 120
-1.00873, 261, 81, 292, 208
-1.00883, 429, 129, 460, 256
-1.00886, 417, 81, 448, 208
-1.00887, 365, 193, 396, 320
-1.00891, 397, 33, 428, 160
-1.00893, 353, 113, 416, 240
-1.00894, 405, 209, 436, 330
-1.00896, 329, 129, 392, 256
-1.00902, 277, 49, 308, 176
-1.00904, 437, 49, 468, 176
-1.00904, 457, 65, 488, 192
-1.00905, 413, 33, 444, 160
-1.00908, 417, 209, 448, 330
-1.00911, 361, 209, 424, 330
-1.00915, 381, 1, 412, 128
-1.00918, 105, 113, 168, 240
-1.00932, 457, 17, 488, 144
-1.00936, 437, 1, 468, 128
-1.00936, 425, 17, 456, 144
-1.00936, 453, 113, 484, 240
-1.00939, 469, 1, 500, 128
-1.00939, 417, 129, 448, 256
-1.00939, 469, 129, 500, 256
-1.00939, 441, 145, 472, 272
-1.00941, 81, 113, 112, 240
-1.00942, 349, 1, 380, 128
-1.00996, 169, 1, 232, 128
-1.01029, 353, 65, 416, 192
-1.01111, 377, 97, 440, 224
-1.01218, 401, 81, 464, 208
-1.01236, 81, 113, 144, 240
-1.01247, 377, 49, 440, 176
-1.01273, 329, 33, 392, 160
-1.01289, 241, 1, 304, 128
-1.01299, 425, 129, 488, 256
-1.01312, 361, 1, 424, 128
-1.01318, 361, 161, 424, 288
-1.01322, 401, 129, 464, 256
-1.01324, 409, 209, 472, 330
-1.01335, 1, 97, 64, 224
-1.01344, 401, 1, 464, 128
-1.01371, 425, 65, 488, 192
-1.01415, 241, 49, 304, 176
-1.01416, 433, 1, 496, 128
-1.01421, 193, 17, 256, 144
-1.01445, 433, 193, 496, 320
-1.01451, 385, 193, 448, 320
-1.01467, 49, 113, 112, 240
-1.0151, 217, 1, 280, 128
-1.01633, 25, 113, 88, 240
