1918
-0.324126, 129, 1, 384, 375
-0.328063, 1, 1, 500, 375
-0.367579, 1, 65, 500, 320
-0.436559, 1, 1, 256, 375
-0.451186, 129, 65, 384, 320
-0.547648, 257, 65, 500, 320
-0.560985, 257, 1, 500, 375
-0.578233, 1, 65, 256, 320
-0.846153, 161, 1, 288, 375
-0.849621, 49, 65, 176, 320
-0.853671, 289, 65, 416, 320
-0.862806, 225, 65, 352, 320
-0.863751, 145, 33, 272, 288
-0.871561, 113, 1, 240, 375
-0.872257, 289, 1, 416, 375
-0.878155, 241, 1, 368, 375
-0.878254, 97, 1, 224, 256
-0.879401, 97, 97, 224, 352
-0.879454, 177, 129, 304, 375
-0.882776, 1, 81, 500, 208
-0.885237, 1, 65, 128, 320
-0.885313, 65, 1, 192, 375
-0.886456, 1, 193, 500, 320
-0.887213, 369, 65, 496, 320
-0.89552, 129, 129, 384, 256
-0.897258, 129, 177, 384, 304
-0.89762, 161, 241, 416, 368
-0.899805, 257, 81, 500, 208
-0.901528, 1, 145, 500, 272
-0.902171, 1, 1, 128, 375
-0.904971, 369, 1, 496, 375
-0.907831, 129, 81, 384, 208
-0.911509, 33, 81, 288, 208
-0.913652, 1, 33, 500, 160
-0.915946, 1, 241, 500, 368
-0.921497, 65, 65, 192, 192
-0.922578, 273, 81, 400, 208
-0.926791, 145, 81, 272, 208
-0.930084, 177, 241, 240, 368
-0.932048, 257, 241, 500, 368
-0.934318, 289, 81, 352, 208
-0.934886, 1, 161, 256, 288
-0.935128, 1, 241, 256, 368
-0.935257, 193, 81, 320, 208
-0.938203, 209, 129, 336, 256
-0.938675, 177, 241, 304, 368
-0.939016, 113, 65, 176, 192
-0.939616, 209, 81, 272, 208
-0.94127, 233, 81, 296, 208
-0.943262, 217, 241, 280, 368
-0.943362, 241, 241, 368, 368
-0.943955, 289, 193, 352, 320
-0.944963, 65, 33, 320, 160
-0.945128, 249, 129, 312, 256
-0.945723, 225, 193, 480, 320
-0.946064, 145, 129, 272, 256
-0.947443, 241, 177, 368, 304
-0.949586, 241, 241, 304, 368
-0.950251, 145, 113, 208, 240
-0.950288, 145, 225, 208, 352
-0.950399, 17, 81, 144, 208
-0.950543, 225, 129, 480, 256
-0.950811, 265, 81, 328, 208
-0.951886, 97, 177, 224, 304
-0.952637, 121, 73, 184, 136
-0.952789, 369, 81, 432, 208
-0.952843, 305, 241, 432, 368
-0.952889, 425, 81, 488, 208
-0.952982, 369, 81, 496, 208
-0.95316, 97, 225, 224, 352
-0.953697, 241, 265, 304, 328
-0.953979, 265, 273, 328, 336
-0.954112, 113, 17, 176, 144
-0.954238, 169, 81, 232, 144
-0.954342, 321, 81, 448, 208
-0.95441, 161, 177, 288, 304
-0.954622, 265, 97, 328, 160
-0.954958, 209, 89, 272, 152
-0.955096, 329, 81, 392, 208
-0.955224, 145, 33, 272, 160
-0.955458, 265, 241, 328, 368
-0.956099, 169, 65, 232, 192
-0.956134, 145, 65, 208, 192
-0.956288, 65, 65, 128, 192
-0.95632, 81, 17, 208, 144
-0.956715, 17, 97, 80, 224
-0.956806, 145, 1, 208, 128
-0.956972, 89, 65, 152, 192
-0.957099, 233, 105, 296, 168
-0.957639, 97, 57, 160, 120
-0.957735, 297, 241, 360, 368
-0.958317, 353, 89, 416, 152
-0.958381, 161, 249, 224, 312
-0.958826, 393, 81, 456, 208
-0.958982, 41, 81, 104, 208
-0.959072, 185, 273, 248, 336
-0.9591, 289, 273, 352, 336
-0.959368, 193, 193, 256, 320
-0.959578, 161, 33, 416, 160
-0.960285, 257, 153, 320, 216
-0.960673, 409, 89, 472, 152
-0.960838, 145, 153, 208, 216
-0.961024, 289, 313, 352, 375
-0.961567, 137, 177, 200, 304
-0.961958, 49, 89, 112, 152
-0.961983, 321, 89, 384, 152
-0.962714, 97, 129, 224, 256
-0.963069, 273, 145, 336, 272
-0.963136, 433, 89, 496, 152
-0.964017, 145, 97, 272, 160
-0.96418, 225, 129, 288, 256
-0.964184, 289, 65, 352, 320
-0.964477, 313, 273, 376, 336
-0.964518, 73, 81, 136, 144
-0.964523, 161, 177, 224, 240
-0.965006, 257, 33, 500, 160
-0.965315, 241, 129, 304, 192
-0.96534, 185, 241, 216, 368
-0.965706, 321, 241, 384, 368
-0.966134, 289, 241, 352, 304
-0.96642, 257, 65, 320, 320
-0.966608, 89, 17, 152, 144
-0.966667, 17, 105, 80, 168
-0.966707, 377, 89, 440, 152
-0.966729, 217, 265, 280, 328
-0.967238, 169, 161, 232, 288
-0.967656, 273, 193, 336, 256
-0.967977, 225, 89, 256, 152
-0.968234, 65, 73, 192, 136
-0.968293, 145, 81, 208, 144
-0.968747, 145, 129, 208, 192
-0.969315, 33, 17, 160, 144
-0.969689, 241, 289, 304, 352
-0.969759, 293, 273, 324, 336
-0.969767, 237, 97, 268, 160
-0.969891, 317, 209, 348, 336
-0.970217, 249, 241, 280, 368
-0.970257, 121, 129, 184, 256
-0.970305, 225, 33, 352, 160
-0.970352, 113, 177, 176, 240
-0.970413, 305, 177, 432, 304
-0.970924, 249, 193, 312, 320
-0.97111, 145, 161, 272, 224
-0.971134, 209, 121, 272, 184
-0.971152, 185, 153, 248, 216
-0.97116, 149, 73, 180, 136
-0.971237, 237, 81, 268, 208
-0.971365, 257, 97, 384, 160
-0.971505, 97, 81, 160, 144
-0.971565, 305, 129, 432, 256
-0.971693, 177, 209, 240, 272
-0.971726, 253, 105, 284, 168
-0.971823, 137, 209, 200, 272
-0.971827, 185, 113, 248, 240
-0.971885, 313, 193, 376, 256
-0.972055, 209, 177, 272, 240
-0.972061, 121, 65, 184, 320
-0.972079, 281, 81, 312, 208
-0.972093, 153, 297, 216, 360
-0.972122, 329, 65, 392, 320
-0.972383, 289, 97, 352, 160
-0.97247, 161, 273, 288, 336
-0.972544, 185, 297, 248, 360
-0.972639, 213, 81, 244, 144
-0.97297, 329, 249, 392, 312
-0.973059, 305, 161, 368, 224
-0.973083, 301, 81, 332, 208
-0.973103, 161, 105, 224, 168
-0.973109, 265, 305, 328, 368
-0.973184, 121, 97, 184, 160
-0.973219, 145, 65, 208, 320
-0.973236, 217, 193, 280, 320
-0.973425, 113, 73, 240, 136
-0.973461, 197, 241, 228, 368
-0.973506, 113, 33, 144, 96
-0.973614, 121, 73, 152, 136
-0.973681, 145, 273, 208, 336
-0.973854, 169, 17, 232, 144
-0.974137, 273, 97, 304, 160
-0.97418, 145, 65, 176, 192
-0.974186, 173, 225, 204, 352
-0.974255, 209, 169, 336, 232
-0.974325, 241, 273, 368, 336
-0.974355, 73, 57, 136, 120
-0.974374, 145, 185, 272, 248
-0.974377, 337, 313, 400, 375
-0.974386, 241, 305, 368, 368
-0.974722, 393, 65, 456, 320
-0.974727, 353, 33, 480, 160
-0.97495, 249, 265, 280, 328
-0.975053, 225, 81, 256, 208
-0.975145, 153, 1, 216, 64
-0.975301, 297, 217, 360, 280
-0.97531, 121, 49, 184, 112
-0.975311, 145, 121, 272, 184
-0.975382, 209, 305, 272, 368
-0.975408, 157, 81, 188, 208
-0.97541, 1, 97, 64, 352
-0.975413, 433, 65, 496, 320
-0.97558, 393, 33, 456, 160
-0.975668, 233, 65, 296, 320
-0.97584, 269, 81, 300, 208
-0.975842, 209, 137, 336, 200
-0.975848, 369, 89, 496, 152
-0.975909, 277, 137, 308, 200
-0.975913, 113, 249, 240, 312
-0.976006, 109, 57, 140, 120
-0.976012, 281, 169, 344, 232
-0.976065, 109, 49, 140, 176
-0.976139, 413, 89, 444, 152
-0.976307, 97, 65, 160, 320
-0.976317, 225, 193, 352, 256
-0.976423, 289, 137, 352, 200
-0.976433, 213, 81, 244, 208
-0.97647, 325, 273, 356, 336
-0.976489, 353, 65, 416, 320
-0.97664, 185, 113, 248, 176
-0.976641, 353, 89, 384, 152
-0.976661, 281, 129, 312, 256
-0.976683, 313, 313, 376, 375
-0.976895, 201, 89, 232, 152
-0.976912, 125, 49, 156, 112
-0.976932, 269, 265, 300, 328
-0.977096, 293, 161, 324, 224
-0.977165, 145, 1, 176, 128
-0.977166, 157, 129, 188, 192
-0.97718, 49, 65, 112, 320
-0.977235, 265, 129, 296, 192
-0.977255, 153, 57, 216, 120
-0.97747, 337, 89, 368, 152
-0.977507, 329, 177, 392, 304
-0.977639, 233, 177, 296, 240
-0.97766, 193, 281, 224, 344
-0.977683, 305, 193, 336, 256
-0.977747, 137, 185, 200, 248
-0.977768, 265, 249, 328, 312
-0.977836, 85, 65, 116, 192
-0.977869, 193, 97, 320, 160
-0.977972, 113, 153, 176, 216
-0.978091, 385, 89, 416, 152
-0.978159, 369, 81, 400, 144
-0.978231, 321, 233, 352, 296
-0.978322, 365, 81, 396, 208
-0.978372, 157, 153, 188, 216
-0.978439, 93, 73, 124, 136
-0.978519, 233, 81, 296, 144
-0.978547, 65, 17, 128, 144
-0.978573, 305, 177, 336, 304
-0.978708, 241, 233, 368, 296
-0.978732, 181, 297, 212, 360
-0.978816, 321, 313, 352, 375
-0.978908, 201, 241, 264, 304
-0.978932, 417, 33, 480, 160
-0.978993, 361, 33, 424, 160
-0.978996, 201, 129, 264, 375
-0.979003, 1, 249, 64, 312
-0.979133, 189, 257, 220, 320
-0.979165, 305, 33, 432, 160
-0.979181, 429, 81, 460, 208
-0.979181, 273, 241, 304, 368
-0.979223, 161, 209, 192, 336
-0.97925, 1, 97, 128, 160
-0.979266, 9, 49, 72, 176
-0.979274, 25, 65, 88, 320
-0.97937, 213, 113, 244, 176
-0.979387, 313, 129, 376, 256
-0.979403, 289, 265, 416, 328
-0.979503, 121, 129, 184, 192
-0.979535, 321, 89, 448, 152
-0.979615, 353, 81, 384, 208
-0.97963, 453, 81, 484, 208
-0.979631, 289, 97, 320, 160
-0.979642, 337, 81, 368, 208
-0.979745, 1, 129, 64, 192
-0.97978, 241, 241, 304, 304
-0.979794, 257, 129, 384, 256
-0.979837, 337, 33, 400, 160
-0.979898, 313, 33, 376, 160
-0.979932, 73, 65, 136, 320
-0.979966, 117, 1, 148, 128
-0.979996, 281, 273, 312, 336
-0.980001, 197, 81, 228, 208
-0.980016, 321, 297, 448, 360
-0.980128, 369, 65, 432, 128
-0.980213, 97, 185, 224, 248
-0.980222, 229, 241, 260, 368
-0.980259, 253, 81, 284, 208
-0.980319, 97, 153, 224, 216
-0.980321, 65, 129, 192, 192
-0.980385, 49, 161, 176, 288
-0.980516, 61, 81, 92, 208
-0.980525, 333, 241, 364, 368
-0.980563, 121, 265, 184, 328
-0.980569, 161, 209, 288, 272
-0.980599, 433, 89, 464, 152
-0.980649, 393, 81, 424, 208
-0.980677, 193, 73, 320, 136
-0.98092, 113, 289, 240, 352
-0.980956, 149, 161, 180, 288
-0.981085, 33, 33, 96, 160
-0.981091, 169, 97, 232, 352
-0.981101, 293, 145, 324, 272
-0.981132, 201, 65, 264, 128
-0.981156, 133, 73, 164, 136
-0.981169, 397, 89, 428, 152
-0.981183, 309, 281, 340, 344
-0.981187, 469, 81, 500, 208
-0.981217, 177, 297, 304, 360
-0.981227, 49, 97, 176, 160
-0.981308, 113, 1, 176, 375
-0.981334, 313, 81, 344, 208
-0.981347, 73, 81, 104, 208
-0.981413, 185, 177, 248, 240
-0.981421, 177, 249, 208, 312
-0.981452, 133, 65, 164, 192
-0.98146, 205, 273, 236, 336
-0.98147, 409, 305, 472, 368
-0.981502, 237, 121, 268, 184
-0.981656, 305, 185, 432, 248
-0.981675, 161, 105, 192, 168
-0.981678, 105, 25, 168, 88
-0.981694, 289, 161, 416, 224
-0.98174, 461, 89, 492, 152
-0.981794, 29, 97, 60, 224
-0.981823, 97, 49, 128, 112
-0.981834, 149, 177, 180, 240
-0.981873, 417, 81, 448, 208
-0.981913, 445, 89, 476, 152
-0.981941, 309, 97, 340, 160
-0.981959, 261, 241, 292, 368
-0.98199, 245, 297, 276, 360
-0.982067, 233, 33, 296, 160
-0.982088, 313, 65, 376, 128
-0.982097, 269, 129, 300, 256
-0.982125, 341, 313, 372, 375
-0.982244, 169, 145, 200, 208
-0.982286, 177, 1, 208, 64
-0.98231, 73, 81, 104, 144
-0.98231, 161, 209, 192, 272
-0.982323, 97, 49, 128, 176
-0.982354, 441, 81, 472, 208
-0.98247, 209, 145, 272, 208
-0.982484, 73, 257, 136, 320
-0.982499, 81, 217, 208, 280
-0.982531, 9, 225, 72, 352
-0.982601, 433, 305, 496, 368
-0.982682, 65, 49, 192, 112
-0.982722, 289, 73, 352, 136
-0.982761, 193, 249, 320, 312
-0.982792, 137, 233, 200, 296
-0.982834, 161, 129, 192, 256
-0.982842, 249, 1, 312, 375
-0.982863, 317, 209, 348, 272
-0.982901, 393, 65, 456, 128
-0.982909, 161, 73, 192, 136
-0.982962, 137, 41, 168, 104
-0.983014, 45, 81, 76, 208
-0.98311, 337, 249, 368, 312
-0.983139, 129, 313, 256, 375
-0.983146, 13, 113, 44, 240
-0.983176, 217, 201, 280, 264
-0.983309, 217, 177, 248, 240
-0.983327, 337, 225, 400, 288
-0.983414, 173, 225, 204, 288
-0.983471, 145, 113, 176, 240
-0.983476, 193, 161, 224, 224
-0.983488, 113, 177, 176, 304
-0.983537, 49, 241, 112, 368
-0.983539, 105, 1, 136, 128
-0.983622, 209, 241, 240, 368
-0.983637, 97, 265, 160, 328
-0.98366, 121, 65, 152, 192
-0.98367, 325, 81, 356, 208
-0.983701, 225, 121, 256, 184
-0.98376, 141, 97, 172, 160
-0.983854, 37, 105, 68, 168
-0.983866, 325, 97, 356, 160
-0.983893, 17, 257, 144, 320
-0.983979, 289, 1, 352, 375
-0.983992, 209, 33, 272, 160
-0.984007, 169, 1, 232, 375
-0.984031, 97, 97, 224, 160
-0.984146, 337, 281, 400, 344
-0.984285, 177, 177, 208, 240
-0.984302, 145, 1, 208, 375
-0.984318, 273, 33, 336, 160
-0.984326, 289, 137, 320, 200
-0.984354, 193, 33, 256, 288
-0.984409, 301, 225, 332, 352
-0.984419, 113, 17, 240, 80
-0.98443, 225, 313, 256, 375
-0.984467, 405, 81, 436, 208
-0.98455, 253, 129, 284, 192
-0.984589, 337, 289, 368, 352
-0.984614, 57, 97, 88, 160
-0.984663, 189, 73, 220, 136
-0.984671, 49, 241, 176, 368
-0.984679, 377, 81, 408, 208
-0.984724, 1, 121, 128, 184
-0.984758, 233, 129, 264, 256
-0.984828, 21, 113, 52, 176
-0.984844, 225, 1, 288, 375
-0.984874, 273, 137, 400, 200
-0.984898, 1, 177, 128, 304
-0.984904, 385, 297, 448, 360
-0.984915, 229, 193, 260, 320
-0.984948, 145, 145, 176, 208
-0.984948, 241, 177, 272, 240
-0.985025, 425, 65, 488, 128
-0.985064, 105, 81, 136, 144
-0.985082, 193, 313, 224, 375
-0.985083, 113, 241, 176, 304
-0.985103, 369, 305, 496, 368
-0.985252, 117, 9, 148, 72
-0.985309, 5, 121, 36, 184
-0.985408, 337, 65, 400, 128
-0.985417, 309, 313, 340, 375
-0.985496, 321, 233, 448, 296
-0.985507, 181, 161, 212, 288
-0.98551, 305, 209, 432, 272
-0.985646, 129, 17, 160, 144
-0.986021, 289, 241, 320, 368
-0.986178, 145, 121, 176, 184
-0.986246, 233, 313, 296, 375
-0.986251, 1, 113, 32, 240
-0.986306, 169, 65, 200, 192
-0.986357, 161, 273, 192, 336
-0.986371, 65, 265, 192, 328
-0.986373, 313, 1, 376, 375
-0.986447, 81, 1, 144, 375
-0.98645, 237, 273, 268, 336
-0.986491, 353, 241, 480, 368
-0.986512, 249, 129, 280, 256
-0.986529, 33, 81, 288, 144
-0.986599, 217, 153, 248, 216
-0.986651, 465, 305, 496, 368
-0.986657, 281, 305, 312, 368
-0.986704, 33, 249, 96, 312
-0.986744, 129, 177, 384, 240
-0.98684, 433, 241, 496, 368
-0.986907, 181, 1, 212, 128
-0.987011, 253, 81, 284, 144
-0.987041, 121, 241, 184, 368
-0.9871, 433, 1, 496, 375
-0.987302, 265, 129, 328, 192
-0.987359, 337, 65, 464, 128
-0.987396, 297, 305, 328, 368
-0.987416, 149, 1, 180, 64
-0.987463, 149, 49, 180, 112
-0.987554, 361, 241, 424, 368
-0.987556, 201, 1, 264, 375
-0.987564, 113, 49, 240, 112
-0.987588, 393, 1, 456, 375
-0.987624, 201, 193, 232, 320
-0.987642, 281, 161, 312, 224
-0.987737, 161, 273, 416, 336
-0.987774, 1, 129, 128, 256
-0.987793, 229, 169, 260, 232
-0.987829, 321, 113, 384, 176
-0.987845, 409, 241, 472, 368
-0.987848, 221, 129, 252, 256
-0.987913, 173, 73, 204, 136
-0.98792, 217, 33, 248, 160
-0.98795, 41, 113, 104, 176
-0.988074, 369, 281, 496, 344
-0.988157, 321, 145, 352, 272
-0.988163, 1, 225, 128, 352
-0.988169, 121, 77, 184, 108
-0.988259, 177, 1, 240, 64
-0.988265, 129, 201, 384, 264
-0.988347, 233, 153, 296, 216
-0.988364, 193, 129, 224, 256
-0.988366, 337, 1, 400, 375
-0.988426, 249, 241, 280, 304
-0.988434, 49, 65, 112, 128
-0.988448, 201, 277, 264, 308
-0.988525, 161, 81, 224, 112
-0.988544, 201, 93, 264, 124
-0.988594, 17, 81, 80, 144
-0.988597, 249, 193, 280, 320
-0.988619, 233, 145, 264, 208
-0.988626, 293, 185, 324, 248
-0.988648, 305, 137, 336, 200
-0.988655, 249, 277, 312, 308
-0.988679, 121, 1, 184, 64
-0.988761, 49, 177, 176, 240
-0.988867, 213, 305, 244, 368
-0.98887, 345, 93, 408, 124
-0.988897, 325, 185, 356, 248
-0.988904, 129, 137, 384, 200
-0.988927, 161, 225, 416, 288
-0.988942, 17, 73, 144, 136
-0.989017, 273, 65, 400, 128
-0.989028, 265, 73, 328, 136
-0.989032, 337, 169, 400, 232
-0.98905, 425, 281, 488, 344
-0.989078, 369, 161, 496, 288
-0.989118, 1, 225, 64, 288
-0.989231, 169, 97, 232, 128
-0.989266, 225, 97, 480, 160
-0.989271, 197, 185, 228, 248
-0.989272, 205, 249, 236, 312
-0.989281, 129, 105, 384, 168
-0.989287, 49, 153, 176, 216
-0.989301, 201, 105, 264, 136
-0.989303, 361, 145, 424, 208
-0.989403, 145, 157, 208, 188
-0.989428, 97, 77, 160, 108
-0.989447, 289, 289, 352, 320
-0.989474, 377, 113, 440, 176
-0.989496, 161, 297, 416, 360
-0.989507, 169, 109, 232, 140
-0.989564, 165, 177, 196, 240
-0.989621, 377, 93, 440, 124
-0.989633, 181, 145, 212, 208
-0.989635, 17, 1, 80, 375
-0.989648, 289, 277, 352, 308
-0.989659, 401, 65, 432, 128
-0.989665, 145, 141, 208, 172
-0.98968, 401, 93, 464, 124
-0.989691, 185, 81, 216, 208
-0.989692, 321, 113, 448, 176
-0.989782, 177, 269, 240, 300
-0.989799, 269, 193, 300, 320
-0.989818, 193, 137, 224, 200
-0.989849, 233, 105, 296, 136
-0.98985, 321, 93, 384, 124
-0.98986, 245, 153, 276, 216
-0.989896, 49, 193, 112, 320
-0.989913, 317, 73, 348, 136
-0.989936, 233, 125, 296, 156
-0.989945, 177, 297, 240, 328
-0.989954, 309, 129, 340, 256
-0.989957, 369, 1, 432, 375
-0.989965, 17, 65, 48, 192
-0.989967, 145, 169, 208, 200
-0.989972, 313, 345, 376, 375
-0.989975, 209, 121, 272, 152
-0.98998, 249, 141, 312, 172
-0.98999, 433, 93, 496, 124
-0.990001, 169, 297, 200, 360
-0.990021, 241, 289, 304, 320
-0.990027, 205, 33, 236, 160
-0.990029, 5, 65, 36, 192
-0.990042, 361, 169, 424, 232
-0.990064, 49, 1, 112, 375
-0.990101, 281, 213, 344, 244
-0.990129, 153, 185, 216, 216
-0.990135, 361, 297, 424, 360
-0.99016, 225, 273, 288, 304
-0.990188, 25, 177, 88, 240
-0.99021, 157, 1, 188, 128
-0.990228, 249, 201, 312, 264
-0.990234, 185, 201, 216, 264
-0.990248, 97, 65, 160, 96
-0.990255, 289, 237, 352, 268
-0.99028, 265, 173, 328, 204
-0.990299, 393, 177, 456, 240
-0.990315, 273, 201, 336, 232
-0.990317, 257, 153, 320, 184
-0.990359, 73, 85, 136, 116
-0.990362, 137, 177, 168, 240
-0.99042, 213, 177, 244, 304
-0.990455, 81, 33, 144, 96
-0.990463, 177, 273, 208, 336
-0.990485, 169, 321, 232, 352
-0.990548, 257, 105, 320, 136
-0.990552, 289, 101, 352, 132
-0.990556, 297, 265, 360, 296
-0.990594, 149, 201, 180, 264
-0.990605, 145, 129, 208, 160
-0.990606, 41, 273, 104, 336
-0.990639, 265, 185, 328, 216
-0.990656, 129, 89, 192, 120
-0.99066, 161, 201, 224, 232
-0.990679, 341, 193, 372, 320
-0.990716, 145, 309, 208, 340
-0.99073, 289, 313, 352, 344
-0.990741, 313, 161, 344, 224
-0.990745, 249, 345, 312, 375
-0.990745, 113, 273, 144, 336
-0.990751, 205, 145, 236, 208
-0.990751, 217, 337, 280, 368
-0.990762, 129, 265, 160, 328
-0.990764, 161, 253, 224, 284
-0.990795, 201, 265, 264, 296
-0.990841, 289, 225, 352, 256
-0.990846, 113, 201, 176, 264
-0.990848, 209, 173, 272, 204
-0.990851, 121, 173, 184, 204
-0.990874, 417, 153, 480, 216
-0.990893, 33, 105, 96, 136
-0.990897, 121, 65, 184, 96
-0.990908, 49, 93, 112, 124
-0.990944, 349, 65, 380, 128
-0.990971, 225, 265, 256, 328
-0.990977, 129, 249, 384, 312
-0.990994, 321, 301, 384, 332
-0.990994, 313, 277, 376, 308
-0.990999, 329, 313, 392, 344
-0.991005, 1, 125, 64, 156
-0.991013, 445, 305, 476, 368
-0.991013, 57, 161, 120, 224
-0.991025, 201, 113, 232, 176
-0.991032, 273, 141, 336, 172
-0.991033, 177, 281, 240, 312
-0.991035, 297, 193, 360, 224
-0.991037, 97, 89, 160, 120
-0.99104, 297, 165, 360, 196
-0.991058, 409, 33, 440, 160
-0.991102, 397, 33, 428, 160
-0.991107, 145, 241, 208, 272
-0.991134, 153, 277, 216, 308
-0.991144, 193, 333, 256, 364
-0.991155, 169, 213, 232, 244
-0.991158, 73, 225, 136, 352
-0.991162, 9, 273, 72, 336
-0.991172, 121, 153, 184, 184
-0.991186, 121, 101, 184, 132
-0.991192, 137, 229, 200, 260
-0.991193, 33, 233, 160, 296
-0.991203, 305, 241, 336, 304
-0.99122, 1, 81, 500, 144
-0.991223, 65, 289, 192, 352
-0.991231, 253, 185, 284, 248
-0.991234, 209, 189, 272, 220
-0.991236, 361, 105, 424, 136
-0.991239, 209, 129, 240, 256
-0.991245, 305, 333, 368, 364
-0.991252, 289, 153, 352, 184
-0.991277, 185, 185, 248, 216
-0.991323, 281, 193, 312, 320
-0.991324, 17, 49, 144, 112
-0.991336, 265, 301, 328, 332
-0.991344, 225, 93, 288, 124
-0.991345, 73, 281, 136, 344
-0.991375, 1, 233, 500, 296
-0.991387, 129, 213, 192, 244
-0.991388, 1, 105, 256, 168
-0.99139, 53, 73, 84, 136
-0.991391, 153, 1, 216, 32
-0.991405, 185, 169, 248, 200
-0.991411, 265, 289, 328, 320
-0.991413, 17, 281, 144, 344
-0.991418, 129, 185, 192, 216
-0.991424, 329, 245, 392, 276
-0.991425, 281, 129, 344, 160
-0.991434, 121, 289, 184, 352
-0.991448, 25, 117, 88, 148
-0.991453, 233, 181, 296, 212
-0.991458, 329, 257, 392, 288
-0.991458, 313, 229, 376, 260
-0.991462, 313, 209, 376, 240
-0.991471, 137, 289, 200, 320
-0.991471, 297, 249, 360, 280
-0.991474, 249, 265, 312, 296
-0.991478, 121, 125, 184, 156
-0.991483, 257, 129, 320, 160
-0.991484, 237, 73, 268, 136
-0.991493, 341, 225, 372, 288
-0.991499, 297, 177, 360, 208
-0.991499, 313, 289, 376, 320
-0.991503, 209, 201, 272, 232
-0.991534, 169, 1, 232, 256
-0.991535, 121, 197, 184, 228
-0.991551, 377, 81, 440, 112
-0.991553, 273, 241, 304, 304
-0.991557, 121, 45, 184, 76
-0.991558, 97, 53, 160, 84
-0.991572, 145, 113, 208, 144
-0.991633, 405, 297, 436, 360
-0.991633, 185, 157, 248, 188
-0.991651, 113, 273, 176, 304
-0.991662, 297, 301, 360, 332
-0.991663, 153, 265, 216, 296
-0.99167, 401, 105, 464, 136
-0.991681, 121, 141, 184, 172
-0.991681, 345, 113, 408, 176
-0.991687, 353, 81, 416, 112
-0.991687, 417, 309, 480, 340
-0.991709, 433, 33, 464, 160
-0.991723, 257, 289, 288, 352
-0.991736, 129, 25, 192, 88
-0.99179, 1, 241, 256, 304
-0.991792, 241, 301, 304, 332
-0.991803, 5, 249, 36, 312
-0.991805, 297, 141, 360, 172
-0.991807, 185, 81, 248, 112
-0.991816, 201, 65, 232, 128
-0.991843, 353, 301, 416, 332
-0.991852, 421, 33, 452, 160
-0.991857, 273, 217, 336, 280
-0.991872, 193, 317, 256, 348
-0.991873, 241, 193, 304, 224
-0.991887, 373, 33, 404, 160
-0.991894, 93, 1, 124, 128
-0.991898, 73, 73, 136, 104
-0.991904, 25, 261, 88, 292
-0.991908, 185, 121, 248, 152
-0.991916, 329, 325, 392, 356
-0.991927, 201, 289, 264, 320
-0.991941, 417, 185, 480, 248
-0.991942, 265, 117, 328, 148
-0.991942, 193, 33, 224, 160
-0.991952, 185, 237, 248, 268
-0.991956, 213, 93, 244, 124
-0.991962, 353, 341, 416, 372
-0.991963, 89, 273, 152, 304
-0.991974, 169, 145, 232, 176
-0.991975, 177, 225, 240, 256
-0.991978, 329, 145, 392, 208
-0.991978, 233, 169, 296, 200
-0.992064, 229, 101, 260, 132
-0.992078, 249, 277, 280, 308
-0.992098, 433, 217, 496, 280
-0.992174, 117, 77, 148, 108
-0.992184, 397, 93, 428, 124
-0.992234, 361, 273, 424, 336
-0.992248, 293, 277, 324, 308
-0.992277, 65, 33, 96, 160
-0.992281, 201, 89, 232, 120
-0.992283, 349, 93, 380, 124
-0.992284, 345, 33, 376, 160
-0.992291, 205, 273, 236, 304
-0.992313, 333, 97, 364, 128
-0.992318, 105, 77, 136, 108
-0.992335, 377, 93, 408, 124
-0.992337, 109, 57, 140, 88
-0.992342, 285, 149, 316, 180
-0.992371, 269, 285, 300, 316
-0.992415, 269, 137, 300, 168
-0.992421, 129, 81, 384, 144
-0.992437, 149, 77, 180, 108
-0.992443, 409, 93, 440, 124
-0.992472, 145, 113, 272, 144
-0.992494, 185, 297, 216, 328
-0.992494, 401, 113, 464, 176
-0.992509, 425, 93, 456, 124
-0.99251, 337, 341, 368, 372
-0.992513, 241, 113, 272, 144
-0.992517, 1, 297, 500, 360
-0.992518, 305, 197, 336, 228
-0.992531, 361, 93, 392, 124
-0.992547, 125, 61, 156, 92
-0.992548, 157, 165, 188, 196
-0.99255, 317, 229, 348, 260
-0.992551, 209, 105, 240, 136
-0.992567, 85, 77, 116, 108
-0.992584, 309, 213, 340, 244
-0.992585, 145, 93, 272, 124
-0.992599, 1, 1, 64, 256
-0.992615, 129, 77, 160, 108
-0.992632, 113, 41, 144, 72
-0.992632, 257, 105, 288, 136
-0.992639, 177, 57, 240, 120
-0.99264, 29, 49, 60, 176
-0.992644, 253, 125, 284, 156
-0.992658, 309, 289, 340, 320
-0.992663, 161, 33, 224, 96
-0.992667, 321, 277, 352, 308
-0.992669, 189, 321, 220, 352
-0.992669, 181, 17, 212, 48
-0.992674, 33, 25, 160, 88
-0.992676, 221, 117, 252, 148
-0.992678, 153, 153, 184, 184
-0.992683, 65, 81, 192, 112
-0.992684, 385, 33, 416, 160
-0.992692, 289, 169, 320, 200
-0.992694, 317, 317, 348, 348
-0.992702, 321, 241, 352, 272
-0.992717, 381, 105, 412, 136
-0.992729, 193, 265, 224, 296
-0.992729, 297, 185, 328, 216
-0.992734, 289, 293, 320, 324
-0.99274, 461, 93, 492, 124
-0.992753, 197, 101, 228, 132
-0.992753, 273, 273, 304, 304
-0.992763, 65, 233, 128, 296
-0.992764, 441, 93, 472, 124
-0.99277, 281, 137, 312, 168
-0.992774, 161, 141, 192, 172
-0.992774, 169, 157, 200, 188
-0.992783, 161, 77, 192, 108
-0.992783, 229, 33, 260, 160
-0.992789, 305, 161, 336, 192
-0.9928, 241, 177, 272, 208
-0.992815, 321, 293, 352, 324
-0.992822, 161, 129, 192, 160
-0.992822, 169, 309, 200, 340
-0.992824, 305, 101, 336, 132
-0.992827, 189, 85, 220, 116
-0.992833, 117, 29, 148, 60
-0.992837, 189, 165, 220, 196
-0.992838, 249, 289, 280, 320
-0.992842, 469, 33, 500, 160
-0.992843, 317, 97, 348, 128
-0.992859, 317, 33, 348, 160
-0.99286, 205, 285, 236, 316
-0.99288, 73, 89, 104, 120
-0.992883, 241, 33, 272, 160
-0.992886, 149, 133, 180, 164
-0.992891, 189, 1, 220, 32
-0.992892, 113, 49, 128, 112
-0.992893, 261, 345, 292, 375
-0.992908, 1, 177, 64, 304
-0.992908, 229, 337, 260, 368
-0.992908, 201, 325, 232, 356
-0.992911, 97, 65, 128, 96
-0.992912, 213, 333, 244, 364
-0.992916, 169, 193, 200, 224
-0.992917, 157, 177, 188, 208
-0.992918, 209, 117, 240, 148
-0.992919, 97, 89, 128, 120
-0.992921, 457, 33, 488, 160
-0.992923, 221, 189, 252, 220
-0.992924, 153, 205, 184, 236
-0.992928, 129, 45, 160, 76
-0.992932, 141, 153, 172, 184
-0.992935, 269, 105, 300, 136
-0.992936, 209, 177, 240, 208
-0.992938, 173, 205, 204, 236
-0.992939, 249, 265, 280, 296
-0.992946, 337, 261, 368, 292
-0.992952, 385, 241, 448, 368
-0.992953, 305, 277, 336, 308
-0.992954, 181, 281, 212, 312
-0.992957, 229, 169, 260, 200
-0.99297, 389, 81, 420, 112
-0.992971, 145, 169, 176, 200
-0.992973, 301, 305, 332, 336
-0.992974, 393, 113, 424, 144
-0.992975, 241, 101, 272, 132
-0.992977, 157, 117, 188, 148
-0.992979, 145, 193, 176, 224
-0.992981, 189, 177, 220, 208
-0.992992, 225, 269, 256, 300
-0.992995, 285, 101, 316, 132
-0.992998, 193, 285, 224, 316
-0.992999, 273, 149, 304, 180
-0.993011, 141, 29, 172, 60
-0.993014, 161, 221, 192, 252
-0.993016, 249, 341, 280, 372
-0.993019, 181, 153, 212, 184
-0.993019, 173, 237, 204, 268
-0.99302, 49, 101, 80, 132
-0.993032, 169, 93, 200, 124
-0.993036, 277, 297, 308, 328
-0.993037, 181, 253, 212, 284
-0.993039, 145, 181, 176, 212
-0.99304, 153, 89, 184, 120
-0.99304, 61, 97, 92, 128
-0.993049, 213, 81, 244, 112
-0.99305, 337, 313, 368, 344
-0.99306, 29, 113, 60, 144
-0.993061, 297, 225, 328, 256
-0.993067, 5, 129, 36, 160
-0.993071, 297, 149, 328, 180
-0.993071, 253, 177, 284, 208
-0.993074, 157, 193, 188, 224
-0.99308, 173, 81, 204, 112
-0.993081, 177, 321, 208, 352
-0.99309, 409, 105, 440, 136
-0.993093, 217, 281, 248, 312
-0.993098, 177, 1, 208, 32
-0.993105, 373, 81, 404, 112
-0.993105, 149, 17, 180, 48
-0.993113, 445, 33, 476, 160
-0.993128, 293, 273, 308, 336
-0.993137, 145, 181, 272, 212
-0.993156, 33, 177, 288, 240
-0.993184, 173, 113, 204, 240
-0.9933, 337, 257, 464, 320
-0.993305, 33, 265, 288, 328
-0.993314, 229, 89, 244, 152
-0.993326, 49, 33, 80, 160
-0.993358, 263, 105, 278, 168
-0.993362, 257, 313, 500, 375
-0.993392, 1, 257, 500, 320
-0.993393, 193, 277, 320, 308
-0.993396, 257, 265, 500, 328
-0.993397, 361, 33, 392, 160
-0.993434, 215, 81, 230, 144
-0.993447, 191, 1, 206, 64
-0.993475, 133, 49, 148, 112
-0.993489, 225, 161, 480, 224
-0.993491, 333, 33, 364, 160
-0.993495, 235, 97, 250, 160
-0.993524, 1, 105, 500, 168
-0.993556, 113, 81, 240, 112
-0.993636, 129, 165, 256, 196
-0.993698, 127, 49, 142, 112
-0.993698, 253, 105, 268, 168
-0.993705, 159, 153, 174, 216
-0.99371, 243, 97, 258, 160
-0.993726, 97, 241, 160, 368
-0.993738, 269, 105, 284, 168
-0.993761, 337, 145, 464, 208
-0.993792, 409, 129, 472, 256
-0.993806, 195, 257, 210, 320
-0.993807, 1, 209, 500, 272
-0.993911, 277, 97, 292, 160
-0.993954, 281, 33, 312, 160
-0.993968, 209, 173, 336, 204
-0.994009, 433, 193, 496, 320
-0.994012, 81, 17, 112, 144
-0.994056, 113, 269, 240, 300
-0.994062, 33, 153, 288, 216
-0.994081, 319, 201, 334, 264
-0.994098, 49, 225, 80, 352
-0.994122, 1, 289, 256, 352
-0.994122, 397, 89, 412, 152
-0.994146, 165, 73, 180, 136
-0.994159, 365, 89, 380, 152
-0.994202, 1, 217, 256, 280
-0.994205, 25, 177, 88, 304
-0.994209, 433, 129, 496, 256
-0.994247, 241, 277, 368, 308
-0.994247, 293, 33, 324, 160
-0.994302, 341, 249, 356, 312
-0.994312, 355, 89, 370, 152
-0.99432, 193, 297, 208, 360
-0.994343, 97, 93, 224, 124
-0.994373, 257, 289, 500, 352
-0.994388, 289, 97, 304, 160
-0.994425, 299, 273, 314, 336
-0.99443, 325, 209, 340, 272
-0.99444, 1, 177, 500, 240
-0.994441, 301, 145, 316, 208
-0.994462, 123, 73, 138, 136
-0.994465, 199, 81, 214, 144
-0.994467, 207, 81, 222, 144
-0.994474, 209, 101, 336, 132
-0.994475, 1, 177, 128, 240
-0.994485, 81, 313, 208, 375
-0.994506, 137, 161, 168, 288
-0.994555, 109, 73, 124, 136
-0.994559, 161, 293, 288, 324
-0.994564, 419, 89, 434, 152
-0.994565, 305, 301, 432, 332
-0.99457, 199, 289, 214, 352
-0.994572, 295, 145, 310, 208
-0.994576, 147, 73, 162, 136
-0.994587, 257, 121, 500, 184
-0.994599, 225, 73, 480, 136
-0.994602, 187, 297, 202, 360
-0.994626, 139, 41, 154, 104
-0.994637, 207, 265, 222, 328
-0.994637, 201, 257, 216, 320
-0.994644, 159, 121, 174, 184
-0.994663, 33, 313, 288, 375
-0.994663, 221, 97, 236, 160
-0.994664, 341, 89, 356, 152
-0.994666, 369, 93, 496, 124
-0.994679, 283, 97, 298, 160
-0.994682, 321, 93, 448, 124
-0.994687, 311, 185, 326, 248
-0.994704, 253, 265, 268, 328
-0.994706, 303, 169, 318, 232
-0.994709, 165, 169, 180, 232
-0.994711, 225, 193, 352, 224
-0.994713, 333, 145, 364, 272
-0.994722, 309, 65, 340, 320
-0.994736, 157, 73, 172, 136
-0.994742, 165, 113, 180, 176
-0.994746, 257, 333, 384, 364
-0.994752, 1, 129, 256, 192
-0.994793, 285, 65, 316, 320
-0.994815, 381, 81, 396, 144
-0.994816, 33, 225, 64, 352
-0.994835, 161, 9, 288, 72
-0.994847, 139, 73, 154, 136
-0.994895, 369, 113, 496, 176
-0.994924, 209, 153, 336, 184
-0.994926, 409, 97, 424, 160
-0.994958, 113, 257, 240, 288
-0.994959, 261, 265, 276, 328
-0.994965, 273, 289, 400, 320
-0.994971, 117, 25, 132, 88
-0.994972, 225, 185, 480, 248
-0.994973, 313, 273, 328, 336
-0.994985, 335, 241, 350, 304
-0.995011, 287, 273, 302, 336
-0.995026, 145, 209, 272, 240
-0.995029, 281, 137, 296, 200
-0.99504, 287, 137, 302, 200
-0.99508, 177, 129, 304, 160
-0.99509, 61, 225, 92, 352
-0.995111, 49, 97, 176, 128
-0.995112, 433, 89, 448, 152
-0.995115, 433, 241, 464, 368
-0.995121, 353, 169, 480, 232
-0.995133, 321, 97, 336, 160
-0.995175, 269, 129, 284, 192
-0.995186, 1, 137, 500, 200
-0.995202, 329, 313, 344, 375
-0.995204, 169, 17, 200, 144
-0.995214, 307, 273, 322, 336
-0.995218, 297, 65, 328, 320
-0.995248, 319, 281, 334, 344
-0.995257, 183, 233, 198, 296
-0.995282, 267, 273, 282, 336
-0.995316, 189, 161, 204, 224
-0.995317, 213, 105, 228, 168
-0.995325, 145, 197, 272, 228
-0.995339, 151, 169, 166, 232
-0.995351, 273, 97, 400, 128
-0.995381, 341, 313, 356, 375
-0.995403, 193, 89, 320, 120
-0.995419, 451, 89, 466, 152
-0.995432, 189, 249, 204, 312
-0.995436, 97, 113, 160, 240
-0.995437, 241, 213, 368, 244
-0.995459, 321, 317, 448, 348
-0.99546, 193, 265, 320, 296
-0.995506, 275, 129, 290, 192
-0.99551, 241, 245, 368, 276
-0.995513, 321, 257, 448, 288
-0.995529, 169, 137, 184, 200
-0.995529, 311, 161, 326, 224
-0.99554, 215, 265, 230, 328
-0.995554, 335, 97, 350, 160
-0.995569, 305, 213, 432, 244
-0.995586, 225, 297, 352, 328
-0.995586, 459, 89, 474, 152
-0.995591, 159, 185, 174, 248
-0.9956, 177, 225, 192, 288
-0.995633, 99, 81, 114, 144
-0.995649, 239, 121, 254, 184
-0.995653, 335, 273, 350, 336
-0.995656, 469, 89, 484, 152
-0.995672, 159, 1, 174, 64
-0.995675, 257, 233, 500, 296
-0.995681, 327, 97, 342, 160
-0.995698, 273, 273, 288, 336
-0.995701, 289, 165, 416, 196
-0.995723, 323, 313, 338, 375
-0.995727, 129, 57, 384, 120
-0.995734, 171, 217, 186, 280
-0.995743, 153, 145, 168, 208
-0.995776, 403, 89, 418, 152
-0.995789, 133, 73, 148, 136
-0.99579, 335, 313, 350, 375
-0.995795, 165, 201, 180, 264
-0.995795, 249, 81, 264, 144
-0.995799, 81, 221, 208, 252
-0.995822, 371, 81, 386, 144
-0.995825, 391, 89, 406, 152
-0.995848, 145, 281, 272, 312
-0.995854, 81, 201, 208, 232
-0.99586, 81, 169, 208, 200
-0.995865, 305, 273, 432, 304
-0.995867, 321, 65, 352, 320
-0.995868, 445, 89, 460, 152
-0.995884, 193, 141, 320, 172
-0.995901, 369, 225, 496, 288
-0.995928, 145, 149, 272, 180
-0.995938, 427, 89, 442, 152
-0.995945, 257, 297, 272, 360
-0.995945, 241, 265, 368, 296
-0.995946, 229, 113, 244, 176
-0.995954, 293, 305, 308, 368
-0.995955, 297, 97, 312, 160
-0.995962, 241, 225, 368, 256
-0.995967, 117, 73, 132, 136
-0.995974, 439, 89, 454, 152
-0.995974, 477, 89, 492, 152
-0.995982, 257, 345, 384, 375
-0.995997, 97, 309, 224, 340
-0.996009, 153, 65, 184, 320
-0.996018, 1, 117, 128, 148
-0.996024, 329, 193, 360, 320
-0.996025, 161, 237, 288, 268
-0.996026, 119, 49, 134, 112
-0.996046, 325, 281, 340, 344
-0.996047, 81, 149, 208, 180
-0.996062, 17, 201, 144, 264
-0.996066, 315, 97, 330, 160
-0.99607, 87, 81, 102, 144
-0.996098, 81, 81, 96, 144
-0.996102, 97, 285, 224, 316
-0.996104, 305, 225, 432, 256
-0.996105, 483, 89, 498, 152
-0.996107, 257, 209, 500, 272
-0.996128, 93, 73, 108, 136
-0.996134, 161, 329, 288, 360
-0.996148, 255, 81, 270, 144
-0.996149, 349, 89, 364, 152
-0.99615, 307, 97, 322, 160
-0.996164, 65, 113, 128, 240
-0.996166, 305, 33, 336, 160
-0.996173, 173, 73, 188, 136
-0.99618, 55, 97, 70, 160
-0.996191, 205, 289, 220, 352
-0.996201, 241, 309, 368, 340
-0.996219, 171, 161, 186, 224
-0.996227, 29, 113, 44, 176
-0.996248, 251, 297, 266, 360
-0.99626, 413, 241, 444, 368
-0.996275, 241, 321, 368, 352
-0.996287, 341, 289, 356, 352
-0.996305, 347, 313, 362, 375
-0.996311, 289, 185, 416, 216
-0.996329, 123, 1, 138, 64
-0.996339, 199, 313, 214, 375
-0.996342, 97, 245, 224, 276
-0.996345, 65, 97, 80, 160
-0.996346, 103, 57, 118, 120
-0.996347, 247, 273, 262, 336
-0.996359, 75, 81, 90, 144
-0.996362, 129, 133, 256, 164
-0.99638, 273, 65, 304, 320
-0.996381, 97, 97, 128, 224
-0.996381, 81, 189, 208, 220
-0.996404, 369, 193, 496, 256
-0.996407, 169, 97, 200, 352
-0.996468, 189, 9, 204, 40
-0.996533, 305, 201, 432, 232
-0.996565, 113, 21, 240, 52
-0.996569, 9, 97, 40, 352
-0.996571, 193, 341, 320, 372
-0.996572, 257, 121, 384, 152
-0.996572, 129, 57, 144, 88
-0.996573, 141, 33, 172, 288
-0.996584, 161, 221, 288, 252
-0.996591, 353, 241, 384, 368
-0.996595, 273, 153, 400, 184
-0.996602, 65, 129, 192, 160
-0.996627, 217, 89, 232, 120
-0.996635, 337, 65, 368, 320
-0.996658, 273, 137, 400, 168
-0.996668, 97, 233, 224, 264
-0.996708, 385, 193, 448, 320
-0.996717, 125, 69, 140, 100
-0.996731, 397, 65, 428, 320
-0.996773, 321, 345, 448, 375
-0.996802, 321, 237, 448, 268
-0.996804, 261, 33, 292, 160
-0.996805, 389, 241, 420, 368
-0.996809, 113, 321, 240, 352
-0.99681, 21, 225, 52, 352
-0.996834, 369, 65, 400, 320
-0.996839, 1, 49, 256, 112
-0.996841, 109, 1, 140, 256
-0.996892, 65, 1, 192, 64
-0.996917, 17, 85, 144, 116
-0.996927, 33, 41, 160, 72
-0.996929, 217, 273, 232, 304
-0.996947, 355, 93, 370, 124
-0.996971, 211, 89, 226, 120
-0.996979, 65, 61, 192, 92
-0.996984, 1, 261, 128, 292
-0.996991, 239, 101, 254, 132
-0.997002, 113, 41, 240, 72
-0.997018, 65, 269, 192, 300
-0.997018, 137, 45, 152, 76
-0.997046, 17, 1, 144, 64
-0.997049, 97, 105, 224, 136
-0.997051, 391, 93, 406, 124
-0.997073, 357, 65, 388, 320
-0.997074, 89, 65, 120, 320
-0.997079, 433, 65, 464, 320
-0.997087, 193, 117, 320, 148
-0.997089, 349, 93, 364, 124
-0.997089, 397, 97, 412, 128
-0.997096, 21, 97, 52, 352
-0.997109, 337, 97, 352, 128
-0.997118, 57, 65, 88, 320
-0.997135, 337, 81, 464, 112
-0.997136, 81, 117, 208, 148
-0.997137, 277, 133, 292, 164
-0.997157, 261, 65, 292, 320
-0.997159, 209, 273, 224, 304
-0.997161, 245, 101, 260, 132
-0.997165, 119, 77, 134, 108
-0.997176, 271, 281, 286, 312
-0.997178, 293, 277, 308, 308
-0.997183, 181, 129, 212, 375
-0.997185, 17, 305, 144, 368
-0.997186, 299, 165, 314, 196
-0.997186, 229, 97, 244, 128
-0.997186, 223, 97, 238, 128
-0.997187, 163, 77, 178, 108
-0.99719, 111, 81, 126, 112
-0.997194, 385, 93, 400, 124
-0.997203, 125, 225, 156, 352
-0.997212, 159, 149, 174, 180
-0.997213, 201, 65, 232, 320
-0.997213, 161, 253, 288, 284
-0.997232, 291, 145, 306, 176
-0.997236, 41, 65, 72, 320
-0.99724, 159, 165, 174, 196
-0.997251, 73, 65, 104, 320
-0.997265, 177, 305, 304, 336
-0.997268, 283, 285, 298, 316
-0.997278, 251, 105, 266, 136
-0.997286, 381, 65, 412, 320
-0.997286, 1, 129, 128, 160
-0.997289, 283, 137, 298, 168
-0.997293, 309, 185, 324, 216
-0.997303, 363, 93, 378, 124
-0.997303, 379, 89, 394, 120
-0.997312, 419, 93, 434, 124
-0.997316, 105, 225, 136, 352
-0.99732, 263, 277, 278, 308
-0.997323, 233, 65, 264, 320
-0.997325, 201, 265, 216, 296
-0.997327, 97, 297, 224, 328
-0.997333, 349, 345, 364, 375
-0.997344, 221, 33, 252, 288
-0.997345, 327, 229, 342, 260
-0.997345, 129, 65, 160, 320
-0.997349, 407, 97, 422, 128
-0.997352, 457, 65, 488, 320
-0.997356, 343, 261, 358, 292
-0.997356, 251, 277, 266, 308
-0.997382, 161, 49, 288, 112
-0.997391, 445, 65, 476, 320
-0.997398, 133, 77, 148, 108
-0.997399, 203, 89, 218, 120
-0.997433, 369, 305, 496, 336
-0.997439, 299, 149, 314, 180
-0.997443, 165, 161, 180, 192
-0.997443, 337, 333, 464, 364
-0.997455, 311, 197, 326, 228
-0.997464, 303, 177, 318, 208
-0.997472, 249, 33, 280, 288
-0.997484, 165, 117, 180, 148
-0.997487, 429, 93, 444, 124
-0.997494, 323, 217, 338, 248
-0.997498, 181, 1, 212, 256
-0.997507, 417, 65, 448, 320
-0.99751, 305, 157, 320, 188
-0.997512, 469, 65, 500, 320
-0.997516, 241, 85, 368, 116
-0.997519, 271, 129, 286, 160
-0.997525, 257, 109, 272, 140
-0.997531, 139, 77, 154, 108
-0.997556, 145, 77, 160, 108
-0.997561, 155, 77, 170, 108
-0.997564, 183, 157, 198, 188
-0.997567, 229, 109, 244, 140
-0.997574, 161, 13, 288, 44
-0.997582, 211, 105, 226, 136
-0.997582, 293, 293, 308, 324
-0.997586, 197, 81, 212, 112
-0.997601, 337, 245, 352, 276
-0.997603, 149, 209, 180, 336
-0.997605, 1, 105, 128, 136
-0.997631, 105, 73, 120, 104
-0.997633, 173, 77, 188, 108
-0.997649, 355, 345, 370, 375
-0.99765, 165, 89, 180, 120
-0.997655, 343, 93, 358, 124
-0.997664, 25, 177, 56, 304
-0.997668, 241, 113, 256, 144
-0.997668, 257, 277, 272, 308
-0.997676, 369, 321, 496, 352
-0.997681, 203, 321, 218, 352
-0.997701, 341, 277, 356, 308
-0.997702, 263, 105, 278, 136
-0.997704, 191, 297, 206, 328
-0.997704, 373, 89, 388, 120
-0.997711, 353, 293, 480, 324
-0.997712, 313, 285, 328, 316
-0.997713, 223, 109, 238, 140
-0.997717, 169, 189, 184, 220
-0.997722, 325, 101, 340, 132
-0.997729, 343, 341, 358, 372
-0.997729, 217, 105, 232, 136
-0.997734, 113, 57, 128, 88
-0.997735, 441, 93, 456, 124
-0.997737, 1, 249, 128, 280
-0.997745, 189, 169, 204, 200
-0.997747, 99, 77, 114, 108
-0.99775, 263, 125, 278, 156
-0.997752, 33, 281, 160, 312
-0.997754, 449, 93, 464, 124
-0.997764, 167, 149, 182, 180
-0.997764, 115, 45, 130, 76
-0.997776, 319, 297, 334, 328
-0.997785, 353, 105, 368, 136
-0.997793, 145, 69, 272, 100
-0.997795, 333, 273, 348, 304
-0.997797, 179, 229, 194, 260
-0.997798, 189, 321, 204, 352
-0.997798, 143, 33, 158, 64
-0.997812, 401, 109, 416, 140
-0.99782, 157, 133, 172, 164
-0.997824, 435, 93, 450, 124
-0.997824, 397, 85, 412, 116
-0.997824, 213, 329, 228, 360
-0.997825, 207, 77, 222, 108
-0.997848, 183, 17, 198, 48
-0.99785, 251, 121, 266, 152
-0.997854, 183, 317, 198, 348
-0.997855, 163, 129, 178, 160
-0.997868, 231, 121, 246, 152
-0.997868, 475, 93, 490, 124
-0.997869, 159, 1, 174, 32
-0.99787, 257, 177, 272, 208
-0.997874, 257, 341, 272, 372
-0.997878, 319, 205, 334, 236
-0.997884, 153, 149, 168, 180
-0.997887, 315, 237, 330, 268
-0.997892, 203, 281, 218, 312
-0.997902, 1, 57, 500, 120
-0.997905, 223, 277, 238, 308
-0.997905, 117, 33, 132, 64
-0.997906, 305, 101, 320, 132
-0.997911, 413, 101, 428, 132
-0.997914, 135, 57, 150, 88
-0.997916, 389, 105, 404, 136
-0.99792, 151, 173, 166, 204
-0.997922, 293, 157, 308, 188
-0.997926, 407, 113, 422, 144
-0.997926, 185, 305, 200, 336
-0.99793, 305, 277, 320, 308
-0.997933, 103, 89, 118, 120
-0.997936, 97, 25, 352, 88
-0.997936, 185, 241, 200, 272
-0.997936, 157, 189, 172, 220
-0.997942, 321, 113, 448, 144
-0.997944, 413, 89, 428, 120
-0.997949, 221, 181, 236, 212
-0.997968, 57, 177, 88, 304
-0.997971, 1, 145, 128, 208
-0.998049, 1, 69, 128, 100
-0.998109, 457, 193, 488, 320
-0.998117, 113, 53, 240, 84
-0.998123, 97, 9, 224, 40
-0.998172, 33, 177, 160, 208
-0.998216, 161, 317, 288, 348
-0.998229, 9, 225, 40, 352
-0.998256, 465, 145, 496, 272
-0.998265, 193, 205, 320, 236
-0.998285, 369, 109, 496, 140
-0.998299, 469, 241, 500, 368
-0.998305, 361, 129, 424, 256
-0.998334, 257, 109, 384, 140
-0.998336, 121, 79, 184, 94
-0.998338, 49, 253, 176, 284
-0.998353, 73, 193, 104, 320
-0.998366, 241, 279, 304, 294
-0.998373, 377, 95, 440, 110
-0.998381, 185, 225, 200, 352
-0.998395, 161, 83, 224, 98
-0.998402, 329, 97, 392, 112
-0.998408, 201, 103, 264, 118
-0.998417, 197, 241, 212, 368
-0.998418, 177, 1, 304, 32
-0.998419, 169, 315, 200, 330
-0.99842, 157, 175, 188, 190
-0.998422, 229, 275, 260, 290
-0.998423, 133, 47, 164, 62
-0.998423, 137, 79, 168, 94
-0.998425, 257, 295, 288, 310
-0.998425, 425, 101, 456, 116
-0.998426, 321, 247, 352, 262
-0.998426, 325, 361, 356, 375
-0.998428, 325, 255, 356, 270
-0.998428, 341, 265, 372, 280
-0.998429, 201, 331, 232, 346
-0.99843, 181, 81, 212, 96
-0.998431, 201, 283, 264, 298
-0.998434, 189, 265, 220, 280
-0.998434, 157, 183, 188, 198
-0.998435, 161, 125, 192, 140
-0.998435, 157, 131, 188, 146
-0.998435, 317, 319, 348, 334
-0.998435, 121, 93, 152, 108
-0.998436, 161, 97, 224, 112
-0.998436, 201, 325, 232, 340
-0.998436, 289, 179, 320, 194
-0.998438, 193, 95, 224, 110
-0.99844, 261, 107, 292, 122
-0.99844, 301, 311, 332, 326
-0.998441, 189, 179, 220, 194
-0.998442, 193, 97, 256, 112
-0.998442, 233, 339, 264, 354
-0.998443, 153, 141, 184, 156
-0.998443, 213, 119, 244, 134
-0.998445, 281, 351, 312, 366
-0.998445, 89, 85, 120, 100
-0.998445, 165, 203, 196, 218
-0.998446, 177, 255, 208, 270
-0.998447, 433, 95, 464, 110
-0.998447, 345, 105, 408, 120
-0.998447, 341, 353, 372, 368
-0.998448, 129, 55, 160, 70
-0.998448, 161, 197, 192, 212
-0.998449, 265, 281, 328, 296
-0.998449, 305, 357, 336, 372
-0.99845, 321, 281, 352, 296
-0.998453, 305, 289, 336, 304
-0.998453, 161, 191, 192, 206
-0.998453, 277, 105, 308, 120
-0.998453, 301, 237, 332, 252
-0.998455, 353, 93, 416, 108
-0.998455, 237, 125, 268, 140
-0.998457, 249, 343, 280, 358
-0.998459, 381, 107, 412, 122
-0.998459, 461, 93, 492, 108
-0.99846, 217, 335, 248, 350
-0.99846, 217, 277, 280, 292
-0.998461, 201, 103, 232, 118
-0.998463, 349, 113, 380, 128
-0.998464, 273, 277, 304, 292
-0.998465, 281, 155, 312, 170
-0.998466, 193, 87, 224, 102
-0.998466, 405, 105, 436, 120
-0.998467, 173, 249, 204, 264
-0.998468, 157, 149, 188, 164
-0.998469, 113, 69, 144, 84
-0.998469, 249, 283, 280, 298
-0.998469, 285, 165, 316, 180
-0.998471, 313, 223, 344, 238
-0.998471, 261, 347, 292, 362
-0.998475, 301, 169, 332, 184
-0.998475, 149, 157, 180, 172
-0.998476, 249, 127, 280, 142
-0.998477, 293, 151, 324, 166
-0.998477, 201, 109, 232, 124
-0.998477, 417, 95, 480, 110
-0.998478, 377, 101, 440, 116
-0.998478, 177, 301, 208, 316
-0.998478, 153, 163, 184, 178
-0.998479, 157, 169, 188, 184
-0.998479, 117, 45, 148, 60
-0.99848, 241, 287, 304, 302
-0.998482, 237, 119, 268, 134
-0.998483, 297, 277, 360, 292
-0.998483, 209, 179, 240, 194
-0.998483, 161, 89, 224, 104
-0.998484, 117, 53, 148, 68
-0.998484, 145, 167, 208, 182
-0.998484, 313, 229, 344, 244
-0.998485, 305, 103, 336, 118
-0.998486, 293, 287, 324, 302
-0.998486, 265, 287, 328, 302
-0.998487, 145, 183, 208, 198
-0.998488, 149, 93, 180, 108
-0.99849, 109, 59, 140, 74
-0.998491, 265, 187, 328, 202
-0.998491, 217, 125, 280, 140
-0.998492, 213, 103, 244, 118
-0.998492, 177, 275, 240, 290
-0.998492, 337, 97, 368, 112
-0.998494, 169, 103, 232, 118
-0.998496, 361, 91, 392, 106
-0.998497, 385, 99, 416, 114
-0.998499, 225, 97, 256, 112
-0.998501, 261, 131, 292, 146
-0.998501, 225, 121, 256, 136
-0.998501, 269, 291, 300, 306
-0.998502, 293, 187, 324, 202
-0.998502, 209, 109, 272, 124
-0.998503, 449, 95, 480, 110
-0.998505, 369, 345, 496, 375
-0.998506, 109, 83, 140, 98
-0.998507, 313, 351, 376, 366
-0.998507, 109, 77, 140, 92
-0.998507, 153, 197, 216, 212
-0.998508, 297, 101, 360, 116
-0.998508, 81, 85, 144, 100
-0.99851, 249, 147, 312, 162
-0.99851, 241, 81, 256, 208
-0.998511, 189, 323, 220, 338
-0.998512, 197, 271, 228, 286
-0.998515, 281, 219, 344, 234
-0.998516, 353, 111, 416, 126
-0.998518, 89, 79, 152, 94
-0.998518, 389, 113, 420, 128
-0.998519, 205, 283, 236, 298
-0.998519, 169, 109, 232, 124
-0.99852, 301, 195, 332, 210
-0.998521, 229, 281, 260, 296
-0.998522, 369, 99, 400, 114
-0.998522, 273, 105, 336, 120
-0.998523, 305, 209, 336, 224
-0.998524, 145, 173, 208, 188
-0.998524, 153, 157, 216, 172
-0.998527, 161, 323, 224, 338
-0.998527, 317, 101, 348, 116
-0.998528, 201, 119, 264, 134
-0.998529, 145, 147, 208, 162
-0.99853, 273, 143, 304, 158
-0.998531, 369, 217, 496, 248
-0.998531, 181, 19, 212, 34
-0.998531, 293, 81, 308, 208
-0.998531, 269, 137, 300, 152
-0.998532, 305, 201, 336, 216
-0.998533, 93, 79, 124, 94
-0.998535, 233, 131, 296, 146
-0.998536, 265, 159, 328, 174
-0.998537, 309, 215, 340, 230
-0.998537, 317, 235, 348, 250
-0.998537, 289, 81, 416, 112
-0.998539, 101, 89, 132, 104
-0.99854, 273, 205, 336, 220
-0.99854, 121, 77, 152, 92
-0.998543, 169, 215, 232, 230
-0.998543, 293, 157, 324, 172
-0.998543, 289, 241, 352, 256
-0.998546, 129, 99, 192, 114
-0.998546, 421, 95, 452, 110
-0.998548, 97, 91, 160, 106
-0.998548, 225, 101, 288, 116
-0.998549, 119, 1, 134, 128
-0.99855, 249, 109, 280, 124
-0.998551, 191, 241, 206, 368
-0.998552, 297, 247, 360, 262
-0.998553, 281, 213, 344, 228
-0.998554, 241, 107, 304, 122
-0.998554, 241, 141, 304, 156
-0.998555, 161, 115, 224, 130
-0.998556, 73, 91, 136, 106
-0.998556, 297, 163, 328, 178
-0.998557, 289, 291, 352, 306
-0.998557, 145, 189, 208, 204
-0.998558, 177, 331, 240, 346
-0.998558, 233, 297, 296, 312
-0.998558, 113, 191, 176, 206
-0.998559, 273, 197, 336, 212
-0.998559, 313, 109, 376, 124
-0.99856, 265, 181, 328, 196
-0.998561, 145, 249, 208, 264
-0.998561, 329, 269, 392, 284
-0.998561, 289, 283, 352, 298
-0.998561, 353, 99, 416, 114
-0.998561, 105, 85, 168, 100
-0.998561, 129, 91, 192, 106
-0.998562, 281, 149, 312, 164
-0.998564, 257, 153, 320, 168
-0.998565, 337, 109, 368, 124
-0.998565, 193, 91, 256, 106
-0.998566, 289, 229, 352, 244
-0.998567, 153, 289, 216, 304
-0.998568, 281, 299, 344, 314
-0.998568, 201, 289, 264, 304
-0.99857, 273, 283, 304, 298
-0.998571, 169, 1, 200, 256
-0.998572, 241, 273, 304, 288
-0.998573, 169, 299, 232, 314
-0.998573, 257, 173, 320, 188
-0.998574, 153, 261, 216, 276
-0.998574, 257, 167, 320, 182
-0.998575, 113, 173, 176, 188
-0.998575, 161, 207, 224, 222
-0.998575, 153, 131, 216, 146
-0.998577, 225, 185, 288, 200
-0.998578, 153, 255, 216, 270
-0.998578, 297, 179, 360, 194
-0.998579, 317, 241, 348, 256
-0.99858, 149, 79, 180, 94
-0.99858, 145, 141, 208, 156
-0.998582, 97, 55, 160, 70
-0.998584, 57, 97, 120, 112
-0.998584, 257, 305, 320, 320
-0.998584, 297, 165, 360, 180
-0.998584, 273, 353, 336, 368
-0.998585, 313, 361, 376, 375
-0.998585, 153, 1, 216, 16
-0.998585, 153, 125, 216, 140
-0.998589, 161, 269, 224, 284
-0.998589, 217, 271, 280, 286
-0.99859, 273, 137, 336, 152
-0.99859, 393, 107, 456, 122
-0.99859, 129, 85, 192, 100
-0.99859, 289, 159, 352, 174
-0.998591, 305, 193, 368, 208
-0.998592, 129, 221, 192, 236
-0.998592, 121, 155, 184, 170
-0.998593, 313, 213, 376, 228
-0.998593, 273, 311, 336, 326
-0.998593, 321, 223, 384, 238
-0.998594, 297, 255, 360, 270
-0.998594, 303, 81, 318, 208
-0.998595, 161, 281, 224, 296
-0.998595, 161, 77, 224, 92
-0.998595, 233, 345, 296, 360
-0.998596, 121, 161, 184, 176
-0.998596, 201, 265, 264, 280
-0.998598, 261, 241, 276, 368
-0.998598, 313, 199, 376, 214
-0.998598, 161, 65, 176, 192
-0.998599, 289, 235, 352, 250
-0.998599, 305, 305, 368, 320
-0.998601, 397, 93, 428, 108
-0.998601, 329, 261, 392, 276
-0.998601, 217, 339, 280, 354
-0.998602, 377, 89, 440, 104
-0.998602, 145, 235, 208, 250
-0.998603, 201, 181, 264, 196
-0.998603, 313, 239, 376, 254
-0.998604, 121, 197, 184, 212
-0.998604, 129, 211, 192, 226
-0.998605, 397, 99, 428, 114
-0.998606, 401, 89, 464, 104
-0.998606, 329, 325, 392, 340
-0.998607, 273, 147, 336, 162
-0.998608, 313, 283, 376, 298
-0.99861, 313, 311, 376, 326
-0.99861, 297, 171, 360, 186
-0.99861, 113, 33, 128, 160
-0.998611, 209, 277, 240, 292
-0.998612, 221, 109, 252, 124
-0.998618, 409, 95, 440, 110
-0.998618, 73, 177, 136, 304
-0.998622, 349, 95, 380, 110
-0.998625, 333, 225, 348, 352
-0.998627, 161, 113, 176, 240
-0.998627, 205, 91, 236, 106
-0.99864, 289, 281, 320, 296
-0.998643, 373, 91, 404, 106
-0.998647, 329, 103, 360, 118
-0.998654, 287, 81, 302, 208
-0.998672, 249, 277, 280, 292
-0.998681, 385, 93, 416, 108
-0.998701, 213, 97, 244, 112
-0.998704, 229, 103, 260, 118
-0.998706, 255, 241, 270, 368
-0.998724, 369, 169, 496, 200
-0.998727, 321, 193, 336, 320
-0.998757, 281, 81, 296, 208
-0.99877, 155, 65, 170, 192
-0.998797, 203, 241, 218, 368
-0.998804, 369, 273, 496, 304
-0.998804, 161, 1, 416, 64
-0.998816, 33, 29, 160, 60
-0.998832, 247, 81, 262, 208
-0.998837, 205, 65, 220, 192
-0.998839, 175, 209, 190, 336
-0.998847, 33, 161, 160, 192
-0.998852, 353, 81, 368, 208
-0.998853, 337, 81, 352, 208
-0.998858, 141, 129, 172, 375
-0.998863, 267, 241, 282, 368
-0.998864, 295, 129, 310, 256
-0.99887, 305, 161, 320, 288
-0.998876, 133, 33, 148, 160
-0.998883, 33, 189, 160, 220
-0.998888, 95, 65, 110, 192
-0.998891, 275, 81, 290, 208
-0.998894, 327, 209, 342, 336
-0.998899, 369, 157, 496, 188
-0.998909, 165, 193, 180, 320
-0.998918, 273, 241, 288, 368
-0.99892, 309, 81, 324, 208
-0.998921, 235, 81, 250, 208
-0.998926, 49, 293, 176, 324
-0.998932, 321, 153, 448, 184
-0.998948, 321, 125, 448, 156
-0.998971, 431, 81, 446, 208
-0.998971, 229, 81, 244, 208
-0.998972, 221, 81, 236, 208
-0.998973, 311, 177, 326, 304
-0.998973, 269, 81, 284, 208
-0.998975, 213, 81, 228, 208
-0.998978, 169, 129, 184, 256
-0.998981, 105, 65, 120, 192
-0.998982, 193, 77, 320, 108
-0.998983, 169, 65, 184, 192
-0.998983, 363, 81, 378, 208
-0.998983, 453, 81, 468, 208
-0.998986, 1, 221, 128, 252
-0.998987, 221, 241, 236, 368
-0.998989, 259, 81, 274, 208
-0.99899, 339, 241, 354, 368
-0.998992, 63, 81, 78, 208
-0.998994, 321, 81, 336, 208
-0.999009, 141, 65, 156, 192
-0.999012, 463, 81, 478, 208
-0.999016, 415, 81, 430, 208
-0.999017, 315, 81, 330, 208
-0.999017, 183, 177, 198, 304
-0.999025, 437, 81, 452, 208
-0.999025, 123, 65, 138, 192
-0.999027, 379, 81, 394, 208
-0.999029, 249, 241, 264, 368
-0.999043, 293, 241, 308, 368
-0.999044, 155, 1, 170, 128
-0.99905, 479, 81, 494, 208
-0.99905, 253, 81, 268, 208
-0.999052, 149, 65, 164, 192
-0.999053, 369, 81, 384, 208
-0.999055, 407, 81, 422, 208
-0.999056, 395, 81, 410, 208
-0.999059, 369, 189, 496, 220
-0.999063, 89, 65, 104, 192
-0.999064, 175, 129, 190, 256
-0.999064, 421, 81, 436, 208
-0.999067, 469, 81, 484, 208
-0.999073, 283, 129, 298, 256
-0.99909, 443, 81, 458, 208
-0.99909, 289, 129, 304, 256
-0.999097, 159, 177, 174, 304
-0.999102, 145, 1, 160, 128
-0.999105, 155, 113, 170, 240
-0.999115, 199, 65, 214, 192
-0.999118, 1, 1, 256, 64
-0.999118, 83, 65, 98, 192
-0.999122, 53, 81, 68, 208
-0.999123, 193, 1, 208, 128
-0.999124, 33, 97, 48, 224
-0.999131, 49, 241, 176, 272
-0.999132, 41, 97, 56, 224
-0.999132, 485, 81, 500, 208
-0.999133, 69, 81, 84, 208
-0.999135, 139, 17, 154, 144
-0.999138, 75, 81, 90, 208
-0.999145, 409, 177, 472, 304
-0.999145, 401, 81, 416, 208
-0.999155, 195, 193, 210, 320
-0.999158, 369, 257, 496, 288
-0.99916, 15, 113, 30, 240
-0.999165, 343, 81, 358, 208
-0.999165, 237, 129, 252, 256
-0.999172, 23, 113, 38, 240
-0.999176, 385, 81, 400, 208
-0.999183, 9, 1, 40, 256
-0.999187, 209, 241, 224, 368
-0.999189, 21, 1, 52, 256
-0.99919, 243, 241, 258, 368
-0.999194, 287, 241, 302, 368
-0.999204, 299, 241, 314, 368
-0.999212, 9, 113, 24, 240
-0.999241, 305, 241, 320, 368
-0.999246, 231, 241, 246, 368
-0.999248, 315, 225, 330, 352
-0.999248, 215, 241, 230, 368
-0.999249, 125, 1, 140, 128
-0.999258, 317, 145, 332, 272
-0.999262, 343, 193, 358, 320
-0.999264, 189, 145, 204, 272
-0.999268, 331, 81, 346, 208
-0.999269, 47, 81, 62, 208
-0.999271, 3, 113, 18, 240
-0.999274, 333, 177, 348, 304
-0.999275, 161, 1, 176, 128
-0.999283, 253, 193, 268, 320
-0.999285, 1, 149, 128, 180
-0.999295, 217, 129, 232, 256
-0.999297, 273, 129, 288, 256
-0.999299, 205, 113, 220, 240
-0.999303, 153, 161, 168, 288
-0.999314, 107, 17, 122, 144
-0.999318, 259, 129, 274, 256
-0.999329, 311, 129, 326, 256
-0.999329, 265, 129, 280, 256
-0.999337, 191, 97, 206, 224
-0.999338, 113, 81, 128, 208
-0.999339, 369, 145, 496, 176
-0.999346, 221, 177, 236, 304
-0.999357, 181, 129, 196, 256
-0.999358, 101, 97, 132, 352
-0.999367, 321, 141, 448, 172
-0.999373, 243, 129, 258, 256
-0.999386, 265, 193, 280, 320
-0.999387, 33, 209, 160, 240
-0.999388, 211, 129, 226, 256
-0.99939, 33, 305, 160, 336
-0.999391, 213, 33, 228, 160
-0.999396, 353, 201, 480, 232
-0.9994, 253, 129, 268, 256
-0.999431, 369, 121, 496, 152
-0.999456, 113, 333, 240, 364
-0.999472, 249, 129, 280, 375
-0.999477, 213, 129, 244, 375
-0.999633, 353, 177, 416, 304
-0.99964, 287, 139, 302, 154
-0.99964, 137, 49, 152, 64
-0.999641, 193, 299, 208, 314
-0.999641, 321, 291, 336, 306
-0.999641, 209, 281, 224, 296
-0.999642, 117, 39, 132, 54
-0.999643, 117, 85, 132, 100
-0.999643, 341, 271, 356, 286
-0.999643, 115, 47, 130, 62
-0.999643, 163, 129, 178, 144
-0.999644, 235, 105, 250, 120
-0.999645, 95, 85, 110, 100
-0.999645, 103, 79, 118, 94
-0.999646, 143, 79, 158, 94
-0.999646, 209, 101, 224, 116
-0.999648, 391, 89, 406, 104
-0.999648, 273, 143, 288, 158
-0.999649, 159, 151, 174, 166
-0.999649, 273, 283, 288, 298
-0.99965, 281, 297, 296, 312
-0.99965, 221, 117, 236, 132
-0.99965, 411, 121, 426, 136
-0.99965, 165, 141, 180, 156
-0.999651, 197, 261, 212, 276
-0.999652, 445, 95, 460, 110
-0.999653, 119, 91, 134, 106
-0.999654, 425, 95, 440, 110
-0.999654, 167, 123, 182, 138
-0.999654, 287, 299, 302, 314
-0.999655, 357, 353, 372, 368
-0.999656, 263, 293, 278, 308
-0.999656, 297, 161, 312, 176
-0.999656, 363, 113, 378, 128
-0.999659, 223, 105, 238, 120
-0.999659, 181, 25, 196, 40
-0.999661, 155, 79, 170, 94
-0.999661, 197, 83, 212, 98
-0.999662, 399, 99, 414, 114
-0.999663, 191, 323, 206, 338
-0.999664, 151, 185, 166, 200
-0.999664, 315, 289, 330, 304
-0.999665, 133, 55, 148, 70
-0.999665, 305, 191, 320, 206
-0.999666, 227, 121, 242, 136
-0.999666, 343, 265, 358, 280
-0.999667, 357, 109, 372, 124
-0.999669, 185, 305, 200, 320
-0.999669, 267, 131, 282, 146
-0.99967, 343, 277, 358, 292
-0.999671, 203, 325, 218, 340
-0.999671, 183, 299, 198, 314
-0.999672, 155, 163, 170, 178
-0.999672, 419, 101, 434, 116
-0.999674, 303, 179, 318, 194
-0.999676, 169, 117, 184, 132
-0.999676, 193, 1, 208, 16
-0.999677, 321, 103, 336, 118
-0.999677, 285, 287, 300, 302
-0.999679, 225, 49, 480, 112
-0.99968, 165, 93, 180, 108
-0.99968, 261, 127, 276, 142
-0.999681, 215, 111, 230, 126
-0.999686, 401, 111, 416, 126
-0.999686, 241, 117, 256, 132
-0.999687, 267, 277, 282, 292
-0.999687, 391, 97, 406, 112
-0.999689, 327, 233, 342, 248
-0.999689, 159, 173, 174, 188
-0.999691, 129, 61, 144, 76
-0.999692, 353, 95, 368, 110
-0.999693, 109, 79, 124, 94
-0.999693, 205, 95, 220, 110
-0.999694, 161, 163, 176, 178
-0.999695, 451, 95, 466, 110
-0.999698, 381, 99, 396, 114
-0.999698, 405, 117, 420, 132
-0.999699, 111, 91, 126, 106
-0.9997, 327, 103, 342, 118
-0.999703, 229, 103, 244, 118
-0.999704, 351, 109, 366, 124
-0.999705, 283, 147, 298, 162
-0.999707, 159, 157, 174, 172
-0.999708, 373, 99, 388, 114
-0.99971, 105, 87, 120, 102
-0.999711, 191, 7, 206, 22
-0.999711, 307, 167, 322, 182
-0.999713, 315, 237, 330, 252
-0.999714, 311, 197, 326, 212
-0.999714, 123, 77, 138, 92
-0.999714, 281, 139, 296, 154
-0.999714, 251, 277, 266, 292
-0.999714, 251, 109, 266, 124
-0.999718, 187, 19, 202, 34
-0.999719, 365, 93, 380, 108
-0.99972, 383, 93, 398, 108
-0.99972, 389, 107, 404, 122
-0.99972, 223, 279, 238, 294
-0.99972, 371, 93, 386, 108
-0.999722, 395, 111, 410, 126
-0.999724, 377, 91, 392, 106
-0.999725, 345, 105, 360, 120
-0.999729, 275, 133, 290, 148
-0.999734, 299, 155, 314, 170
-0.999735, 247, 115, 262, 130
-0.999735, 211, 275, 226, 290
-0.999735, 223, 111, 238, 126
-0.999735, 305, 185, 320, 200
-0.999738, 293, 147, 308, 162
-0.999739, 311, 191, 326, 206
-0.999747, 235, 99, 250, 114
-0.999747, 205, 85, 220, 100
-0.999748, 347, 97, 362, 112
-0.999749, 115, 79, 130, 94
-0.999752, 419, 95, 434, 110
-0.999752, 219, 93, 234, 108
-0.999755, 125, 71, 140, 86
-0.999759, 303, 161, 318, 176
-0.999763, 101, 93, 116, 108
-0.999763, 397, 91, 412, 106
-0.999764, 293, 281, 308, 296
-0.999765, 411, 95, 426, 110
-0.999774, 225, 97, 240, 112
-0.999776, 243, 105, 258, 120
-0.999779, 165, 79, 180, 94
-0.99978, 215, 101, 230, 116
-0.999784, 405, 93, 420, 108
-0.999799, 337, 101, 352, 116
-0.999808, 111, 85, 126, 100
-0.999815, 217, 277, 232, 292
-0.99982, 117, 97, 148, 352
-0.999832, 189, 13, 204, 28
-0.999834, 211, 91, 226, 106
-0.999898, 257, 1, 500, 64
-1.00003, 385, 145, 448, 272
-1.00003, 225, 49, 352, 112
-1.00025, 41, 129, 104, 256
-1.0005, 337, 129, 400, 256
-1.00086, 1, 25, 256, 88
-1.00145, 257, 25, 500, 88
-1.00211, 1, 9, 500, 72
-1.00211, 209, 1, 336, 64
-1.00233, 257, 1, 384, 64
-1.00243, 305, 25, 432, 88
-1.00277, 225, 25, 352, 88
-1.00277, 353, 25, 480, 88
-1.0028, 321, 1, 448, 64
-1.00304, 369, 1, 496, 64
-1.00396, 1, 33, 500, 96
-1.00939, 1, 1, 64, 128
