1965
-0.266667, 1, 1, 500, 375
-0.381602, 1, 1, 500, 256
-0.384869, 97, 1, 352, 375
-0.4002, 1, 1, 256, 375
-0.437817, 225, 1, 480, 375
-0.476305, 1, 97, 500, 352
-0.579402, 97, 97, 352, 352
-0.607313, 1, 1, 256, 256
-0.641132, 97, 1, 352, 256
-0.64544, 1, 97, 256, 352
-0.653542, 225, 1, 480, 256
-0.80714, 257, 129, 500, 375
-0.844112, 177, 1, 304, 375
-0.849652, 161, 97, 288, 352
-0.862553, 97, 1, 224, 375
-0.866265, 65, 1, 192, 256
-0.868237, 161, 1, 288, 256
-0.872609, 241, 1, 368, 375
-0.881087, 33, 1, 160, 375
-0.882683, 1, 97, 128, 352
-0.886975, 241, 1, 368, 256
-0.889811, 17, 1, 144, 256
-0.892109, 113, 1, 240, 256
-0.893005, 289, 1, 416, 375
-0.897054, 81, 97, 208, 352
-0.900255, 1, 33, 500, 160
-0.903935, 1, 113, 500, 240
-0.907221, 97, 129, 352, 256
-0.911429, 1, 33, 256, 160
-0.911748, 209, 129, 336, 375
-0.914483, 305, 1, 432, 256
-0.919287, 257, 129, 384, 375
-0.919987, 353, 1, 480, 375
-0.921281, 1, 161, 500, 288
-0.92715, 1, 241, 500, 368
-0.930951, 97, 81, 352, 208
-0.931644, 97, 241, 352, 368
-0.932336, 65, 177, 320, 304
-0.932692, 1, 129, 256, 256
-0.93935, 25, 65, 88, 192
-0.939584, 1, 49, 64, 176
-0.940249, 1, 241, 256, 368
-0.941126, 353, 1, 480, 256
-0.944265, 49, 129, 176, 256
-0.944478, 9, 1, 72, 128
-0.94525, 177, 81, 304, 208
-0.946139, 1, 81, 256, 208
-0.946969, 129, 129, 192, 256
-0.949177, 129, 113, 256, 240
-0.949645, 161, 177, 416, 304
-0.949978, 17, 49, 80, 112
-0.950489, 201, 49, 264, 176
-0.950516, 97, 33, 224, 160
-0.950678, 161, 113, 224, 240
-0.950681, 225, 241, 480, 368
-0.95083, 41, 129, 104, 256
-0.950986, 241, 113, 304, 240
-0.951356, 97, 33, 352, 160
-0.951356, 33, 81, 160, 208
-0.95213, 1, 1, 128, 128
-0.952152, 225, 33, 480, 160
-0.95263, 257, 161, 500, 288
-0.954641, 1, 97, 64, 224
-0.955299, 1, 161, 128, 288
-0.956542, 17, 73, 80, 136
-0.956955, 97, 177, 224, 304
-0.957108, 209, 241, 336, 368
-0.957256, 177, 177, 304, 304
-0.957522, 49, 49, 112, 176
-0.958096, 321, 129, 448, 375
-0.958736, 145, 33, 272, 160
-0.958782, 281, 241, 344, 368
-0.958831, 105, 129, 168, 256
-0.95919, 57, 1, 120, 128
-0.959888, 193, 33, 320, 160
-0.960244, 257, 193, 320, 320
-0.960688, 177, 129, 304, 256
-0.960923, 65, 129, 128, 256
-0.961485, 201, 81, 264, 144
-0.962621, 225, 113, 480, 240
-0.963807, 41, 145, 104, 208
-0.96422, 161, 225, 288, 352
-0.964618, 241, 241, 304, 368
-0.964667, 137, 177, 200, 304
-0.964819, 177, 33, 240, 160
-0.964832, 1, 241, 128, 368
-0.965173, 41, 89, 104, 152
-0.965661, 49, 177, 176, 304
-0.965684, 1, 145, 64, 272
-0.965709, 369, 129, 496, 375
-0.966465, 273, 273, 336, 336
-0.966697, 33, 313, 96, 375
-0.96705, 241, 129, 304, 192
-0.967569, 1, 121, 64, 184
-0.96773, 153, 33, 216, 160
-0.967744, 257, 241, 384, 368
-0.967875, 241, 193, 368, 320
-0.967945, 249, 33, 312, 160
-0.968057, 225, 33, 288, 160
-0.968383, 49, 241, 112, 368
-0.968649, 177, 161, 240, 288
-0.968824, 185, 113, 248, 240
-0.969022, 41, 65, 104, 128
-0.969128, 41, 177, 104, 304
-0.969381, 33, 121, 96, 184
-0.969382, 45, 65, 76, 192
-0.969424, 265, 145, 328, 272
-0.969549, 105, 145, 168, 208
-0.969595, 137, 177, 200, 240
-0.969693, 1, 33, 64, 288
-0.969782, 129, 137, 192, 200
-0.969827, 49, 33, 176, 160
-0.969851, 105, 33, 168, 160
-0.969931, 337, 289, 400, 352
-0.970073, 241, 33, 368, 160
-0.970337, 257, 185, 320, 248
-0.970727, 49, 225, 112, 288
-0.971187, 241, 273, 304, 336
-0.971487, 225, 129, 352, 256
-0.971686, 49, 81, 80, 144
-0.971805, 281, 297, 344, 360
-0.971901, 217, 113, 280, 240
-0.972559, 41, 169, 104, 232
-0.972813, 249, 153, 312, 216
-0.972883, 25, 241, 88, 368
-0.972917, 105, 1, 168, 256
-0.972995, 265, 249, 328, 312
-0.973112, 41, 201, 104, 264
-0.973355, 81, 81, 144, 208
-0.973731, 65, 297, 128, 360
-0.974015, 1, 49, 32, 176
-0.974199, 1, 97, 64, 160
-0.97439, 169, 169, 232, 232
-0.97454, 209, 1, 272, 256
-0.974613, 37, 65, 68, 128
-0.974619, 33, 153, 160, 216
-0.974763, 1, 161, 64, 224
-0.974836, 17, 65, 48, 128
-0.974856, 49, 241, 176, 368
-0.975372, 81, 145, 144, 208
-0.975413, 57, 65, 88, 192
-0.975497, 305, 289, 368, 352
-0.975554, 153, 1, 216, 256
-0.975576, 193, 41, 256, 104
-0.975916, 97, 225, 224, 352
-0.976032, 113, 177, 176, 240
-0.97614, 233, 177, 296, 304
-0.976228, 257, 1, 320, 256
-0.976327, 201, 1, 264, 128
-0.976368, 153, 121, 216, 184
-0.976532, 233, 41, 296, 104
-0.976754, 49, 273, 112, 336
-0.976954, 33, 1, 96, 128
-0.977543, 241, 249, 304, 312
-0.977556, 137, 225, 200, 352
-0.977564, 241, 97, 304, 352
-0.977595, 25, 65, 88, 320
-0.977688, 61, 313, 92, 375
-0.977708, 233, 1, 296, 256
-0.97778, 129, 1, 192, 256
-0.977793, 65, 49, 128, 112
-0.978154, 305, 33, 432, 160
-0.978274, 65, 177, 192, 240
-0.978295, 173, 113, 204, 240
-0.978392, 177, 121, 304, 184
-0.978474, 177, 97, 240, 160
-0.978539, 65, 201, 128, 264
-0.978607, 273, 297, 400, 360
-0.978622, 65, 177, 128, 240
-0.978638, 169, 97, 232, 352
-0.978808, 5, 57, 36, 120
-0.978838, 13, 49, 44, 176
-0.978983, 9, 25, 72, 88
-0.979042, 177, 281, 240, 344
-0.979055, 145, 129, 176, 256
-0.979143, 61, 241, 92, 368
-0.979165, 105, 81, 168, 208
-0.979203, 65, 81, 128, 144
-0.979305, 17, 57, 144, 120
-0.979475, 217, 121, 280, 184
-0.979481, 37, 89, 68, 152
-0.979539, 281, 193, 344, 320
-0.979599, 277, 145, 308, 272
-0.979648, 9, 193, 72, 320
-0.979795, 137, 81, 200, 208
-0.979814, 129, 33, 192, 160
-0.979877, 217, 161, 280, 224
-0.979924, 25, 241, 88, 304
-0.979979, 65, 113, 128, 176
-0.98, 177, 121, 240, 184
-0.980066, 105, 41, 168, 104
-0.980071, 177, 97, 304, 160
-0.980171, 45, 137, 76, 200
-0.980173, 137, 97, 200, 352
-0.980209, 33, 113, 160, 176
-0.980267, 281, 1, 344, 256
-0.980282, 177, 241, 304, 304
-0.980434, 169, 193, 232, 256
-0.980449, 45, 129, 76, 256
-0.980468, 209, 265, 336, 328
-0.980474, 185, 1, 248, 256
-0.980524, 305, 313, 368, 375
-0.980525, 297, 265, 360, 328
-0.980597, 161, 185, 288, 248
-0.980646, 129, 129, 160, 256
-0.980682, 237, 33, 268, 160
-0.980756, 193, 161, 256, 224
-0.980757, 113, 129, 240, 192
-0.980813, 5, 1, 36, 128
-0.980835, 17, 217, 80, 280
-0.980931, 157, 113, 188, 240
-0.980982, 257, 273, 384, 336
-0.981283, 65, 305, 192, 368
-0.981417, 57, 249, 120, 312
-0.98142, 257, 209, 320, 272
-0.981451, 169, 225, 232, 352
-0.981598, 65, 193, 128, 320
-0.981614, 1, 313, 128, 375
-0.981643, 49, 57, 80, 120
-0.981647, 273, 33, 336, 160
-0.981655, 233, 185, 296, 248
-0.981668, 273, 97, 400, 224
-0.981717, 217, 97, 280, 352
-0.981723, 17, 1, 48, 128
-0.981742, 253, 113, 284, 240
-0.981902, 81, 1, 144, 256
-0.981945, 285, 241, 316, 368
-0.982055, 49, 209, 80, 272
-0.982159, 1, 81, 128, 144
-0.982184, 17, 177, 144, 240
-0.982234, 49, 97, 112, 352
-0.982338, 37, 17, 68, 144
-0.982648, 285, 265, 316, 328
-0.982648, 209, 33, 240, 160
-0.982778, 65, 289, 96, 352
-0.982813, 81, 81, 208, 208
-0.982827, 265, 129, 328, 375
-0.982828, 269, 193, 300, 320
-0.982942, 33, 113, 64, 176
-0.982975, 61, 113, 92, 240
-0.982991, 241, 1, 304, 375
-0.983129, 25, 65, 56, 192
-0.983195, 125, 145, 156, 208
-0.983262, 17, 185, 80, 248
-0.983292, 189, 113, 220, 240
-0.983342, 225, 73, 288, 136
-0.983433, 337, 313, 400, 375
-0.983441, 113, 177, 176, 304
-0.983484, 9, 297, 72, 360
-0.983503, 177, 217, 304, 280
-0.983522, 161, 161, 192, 288
-0.983537, 233, 225, 296, 288
-0.983543, 61, 73, 92, 136
-0.983561, 33, 1, 96, 375
-0.983606, 265, 113, 296, 240
-0.983627, 141, 137, 172, 200
-0.983741, 129, 313, 192, 375
-0.983796, 33, 113, 64, 240
-0.98385, 337, 241, 400, 368
-0.983863, 417, 193, 480, 320
-0.984062, 137, 1, 200, 375
-0.98415, 353, 241, 480, 368
-0.984177, 273, 201, 304, 264
-0.984208, 249, 297, 312, 360
-0.984219, 193, 153, 320, 216
-0.984221, 161, 281, 288, 344
-0.984237, 297, 1, 360, 64
-0.984272, 197, 97, 228, 160
-0.984301, 225, 97, 288, 160
-0.984302, 81, 33, 144, 160
-0.984318, 49, 185, 80, 248
-0.984372, 361, 1, 424, 64
-0.984401, 153, 281, 216, 344
-0.984405, 65, 201, 96, 264
-0.984413, 1, 129, 64, 375
-0.98445, 73, 313, 104, 375
-0.984482, 49, 177, 80, 304
-0.984579, 157, 177, 188, 240
-0.98461, 1, 89, 32, 152
-0.984777, 57, 25, 120, 88
-0.984778, 69, 161, 100, 224
-0.984787, 225, 17, 288, 80
-0.984805, 1, 217, 128, 280
-0.984815, 225, 33, 256, 160
-0.984879, 209, 281, 272, 344
-0.984886, 361, 305, 424, 368
-0.984971, 185, 33, 216, 160
-0.984976, 265, 17, 328, 80
-0.985064, 265, 129, 296, 192
-0.985068, 321, 1, 384, 64
-0.985118, 1, 1, 64, 375
-0.985142, 49, 313, 80, 375
-0.985176, 253, 33, 284, 160
-0.985195, 169, 1, 232, 375
-0.9852, 49, 1, 112, 256
-0.985226, 105, 113, 168, 176
-0.985244, 201, 1, 264, 375
-0.985247, 281, 1, 344, 375
-0.985269, 229, 41, 260, 104
-0.985309, 349, 281, 380, 344
-0.985319, 97, 41, 224, 104
-0.985341, 197, 33, 228, 160
-0.985368, 265, 233, 296, 296
-0.985405, 25, 265, 88, 328
-0.985449, 105, 1, 168, 375
-0.985555, 281, 177, 312, 240
-0.985601, 229, 73, 260, 136
-0.985687, 61, 121, 92, 184
-0.985692, 185, 121, 216, 184
-0.985722, 1, 25, 128, 88
-0.985757, 29, 41, 60, 104
-0.985761, 137, 209, 200, 272
-0.985789, 73, 97, 136, 352
-0.985815, 65, 17, 96, 144
-0.985818, 225, 81, 352, 208
-0.985835, 305, 273, 336, 336
-0.985857, 145, 41, 272, 104
-0.985869, 169, 313, 232, 375
-0.985965, 317, 281, 348, 344
-0.985983, 153, 97, 216, 160
-0.986036, 89, 177, 152, 240
-0.986036, 169, 257, 232, 320
-0.986056, 273, 153, 304, 216
-0.98606, 53, 241, 84, 304
-0.986061, 1, 97, 32, 224
-0.986088, 97, 201, 224, 264
-0.986117, 209, 177, 272, 304
-0.986123, 369, 1, 432, 256
-0.986197, 73, 129, 104, 192
-0.986235, 241, 193, 368, 256
-0.986265, 169, 41, 232, 104
-0.986268, 113, 281, 240, 344
-0.986462, 369, 33, 432, 160
-0.98654, 273, 161, 336, 224
-0.986557, 205, 81, 236, 208
-0.986665, 65, 1, 128, 375
-0.986679, 137, 241, 200, 304
-0.986683, 273, 241, 304, 368
-0.9867, 49, 105, 80, 168
-0.986755, 145, 161, 272, 224
-0.986765, 169, 225, 232, 288
-0.986831, 53, 289, 84, 352
-0.986839, 225, 305, 352, 368
-0.986843, 1, 241, 64, 368
-0.986914, 385, 297, 448, 360
-0.986932, 393, 1, 456, 64
-0.986957, 193, 17, 256, 80
-0.986999, 177, 73, 304, 136
-0.987008, 85, 305, 116, 368
-0.987027, 281, 97, 344, 224
-0.987077, 305, 241, 432, 368
-0.987171, 81, 153, 208, 216
-0.987207, 433, 209, 496, 272
-0.987293, 305, 225, 368, 352
-0.98734, 273, 145, 400, 272
-0.987431, 113, 153, 144, 216
-0.987446, 369, 33, 432, 96
-0.987486, 105, 305, 168, 368
-0.987501, 321, 297, 448, 360
-0.987536, 225, 41, 352, 104
-0.987547, 129, 289, 192, 352
-0.987574, 237, 81, 268, 208
-0.987625, 117, 129, 148, 256
-0.987717, 281, 193, 312, 320
-0.987733, 33, 25, 96, 88
-0.987747, 177, 169, 208, 232
-0.987764, 253, 121, 284, 184
-0.987784, 305, 273, 432, 336
-0.987896, 57, 145, 88, 208
-0.987936, 181, 193, 212, 256
-0.987956, 1, 241, 128, 304
-0.988014, 17, 77, 80, 108
-0.988118, 49, 17, 80, 144
-0.988132, 281, 121, 344, 184
-0.988142, 173, 33, 204, 160
-0.988145, 257, 249, 384, 312
-0.988162, 1, 249, 64, 312
-0.988208, 321, 265, 384, 328
-0.988232, 37, 177, 68, 304
-0.988325, 321, 193, 448, 320
-0.988334, 185, 161, 216, 288
-0.988369, 289, 1, 416, 64
-0.988371, 185, 97, 216, 160
-0.988387, 49, 225, 80, 352
-0.98841, 289, 185, 352, 248
-0.988414, 49, 281, 176, 344
-0.988492, 17, 41, 48, 104
-0.988555, 241, 169, 368, 232
-0.988571, 193, 257, 256, 320
-0.98858, 369, 297, 400, 360
-0.988599, 145, 41, 208, 104
-0.98866, 361, 273, 424, 336
-0.988689, 169, 17, 232, 80
-0.988745, 49, 89, 176, 152
-0.988797, 225, 129, 352, 192
-0.988835, 193, 17, 320, 80
-0.988845, 129, 105, 256, 168
-0.988887, 57, 265, 88, 328
-0.988891, 97, 81, 224, 144
-0.988907, 73, 273, 136, 336
-0.988917, 289, 225, 352, 288
-0.988974, 97, 257, 224, 320
-0.989015, 241, 81, 272, 144
-0.989025, 161, 73, 224, 136
-0.989029, 49, 217, 176, 280
-0.989078, 209, 97, 240, 160
-0.989078, 369, 193, 496, 320
-0.989135, 41, 289, 72, 352
-0.989173, 313, 1, 376, 256
-0.989183, 281, 241, 312, 304
-0.989206, 141, 81, 172, 208
-0.989208, 193, 97, 256, 352
-0.989328, 217, 81, 248, 208
-0.989372, 253, 41, 284, 104
-0.989387, 369, 297, 496, 360
-0.98952, 105, 17, 168, 80
-0.989545, 257, 41, 320, 104
-0.989562, 241, 217, 368, 280
-0.9896, 385, 241, 448, 368
-0.989614, 337, 1, 464, 64
-0.989655, 369, 1, 432, 375
-0.989719, 25, 65, 88, 96
-0.989732, 97, 225, 224, 288
-0.989742, 73, 225, 136, 288
-0.989745, 145, 17, 272, 80
-0.989747, 217, 73, 248, 136
-0.989751, 113, 97, 176, 352
-0.989755, 65, 225, 96, 288
-0.989793, 337, 305, 368, 368
-0.989805, 409, 65, 472, 192
-0.989832, 209, 185, 272, 248
-0.989854, 45, 161, 76, 224
-0.989863, 289, 25, 352, 88
-0.989876, 353, 33, 480, 160
-0.989884, 1, 273, 128, 336
-0.989892, 273, 273, 336, 304
-0.989941, 225, 73, 352, 136
-0.98997, 217, 49, 248, 112
-0.989981, 409, 81, 472, 144
-0.989996, 297, 1, 360, 128
-0.990001, 17, 53, 80, 84
-0.990006, 233, 153, 264, 216
-0.990099, 325, 313, 356, 375
-0.990141, 33, 89, 96, 120
-0.990145, 145, 17, 208, 80
-0.99015, 281, 289, 344, 320
-0.99016, 73, 241, 136, 368
-0.990171, 241, 33, 272, 96
-0.990193, 33, 129, 96, 160
-0.990198, 41, 165, 104, 196
-0.990201, 321, 33, 384, 160
-0.990209, 289, 145, 352, 272
-0.990209, 305, 33, 432, 96
-0.990234, 269, 257, 300, 320
-0.990256, 329, 1, 392, 375
-0.990299, 249, 89, 312, 152
-0.990314, 89, 177, 152, 304
-0.990337, 1, 133, 64, 164
-0.990343, 73, 129, 104, 256
-0.990343, 33, 325, 96, 356
-0.990364, 273, 145, 400, 208
-0.990397, 1, 273, 64, 336
-0.990401, 129, 313, 256, 375
-0.990427, 261, 241, 292, 368
-0.990503, 189, 161, 220, 224
-0.990508, 353, 273, 480, 336
-0.990559, 293, 289, 324, 352
-0.990603, 1, 89, 64, 120
-0.990623, 181, 273, 212, 336
-0.990632, 261, 193, 292, 256
-0.990634, 305, 241, 336, 368
-0.990644, 241, 105, 272, 168
-0.990645, 337, 289, 400, 320
-0.990653, 241, 1, 368, 64
-0.990686, 253, 169, 284, 232
-0.990741, 305, 1, 368, 375
-0.99077, 161, 33, 192, 160
-0.99079, 69, 65, 100, 192
-0.990813, 233, 129, 296, 160
-0.990814, 97, 17, 224, 80
-0.990826, 113, 33, 144, 160
-0.99085, 153, 129, 216, 160
-0.990878, 33, 101, 96, 132
-0.990879, 33, 145, 96, 176
-0.99088, 33, 225, 96, 256
-0.990884, 257, 189, 320, 220
-0.990884, 169, 129, 200, 192
-0.990895, 337, 309, 400, 340
-0.990896, 249, 173, 312, 204
-0.990932, 201, 225, 264, 352
-0.990963, 49, 309, 112, 340
-0.990991, 97, 145, 352, 208
-0.991001, 133, 177, 164, 240
-0.991037, 305, 277, 368, 308
-0.991039, 305, 301, 368, 332
-0.991064, 49, 177, 112, 208
-0.991073, 37, 201, 68, 264
-0.991108, 61, 177, 92, 304
-0.991111, 57, 89, 120, 120
-0.991112, 249, 277, 312, 308
-0.991165, 209, 85, 272, 116
-0.991173, 33, 117, 96, 148
-0.991182, 209, 97, 272, 128
-0.991185, 137, 185, 200, 216
-0.991224, 57, 77, 120, 108
-0.991292, 61, 49, 92, 112
-0.991303, 257, 205, 320, 236
-0.991342, 257, 105, 384, 168
-0.991346, 57, 321, 120, 352
-0.991355, 113, 41, 144, 104
-0.991373, 25, 89, 56, 152
-0.991373, 1, 145, 64, 176
-0.991386, 173, 193, 204, 320
-0.99139, 249, 161, 312, 192
-0.991404, 337, 1, 400, 256
-0.991408, 41, 201, 104, 232
-0.991424, 289, 317, 352, 348
-0.99143, 1, 165, 64, 196
-0.991431, 321, 25, 384, 88
-0.991456, 417, 1, 480, 64
-0.991457, 81, 157, 144, 188
-0.991478, 313, 289, 376, 320
-0.991482, 129, 265, 192, 328
-0.991484, 105, 177, 168, 208
-0.991494, 1, 121, 64, 152
-0.991508, 257, 193, 288, 320
-0.991513, 129, 137, 192, 168
-0.99152, 41, 213, 104, 244
-0.991533, 65, 209, 128, 240
-0.991543, 57, 65, 120, 96
-0.991544, 233, 189, 296, 220
-0.991574, 329, 281, 360, 344
-0.991575, 65, 121, 320, 184
-0.991602, 149, 33, 180, 160
-0.991609, 169, 177, 232, 208
-0.991667, 205, 57, 236, 120
-0.991681, 249, 265, 312, 296
-0.991688, 281, 301, 344, 332
-0.991699, 33, 337, 96, 368
-0.991738, 241, 149, 304, 180
-0.991761, 257, 217, 320, 248
-0.991763, 1, 177, 64, 208
-0.991775, 257, 89, 288, 152
-0.991784, 265, 65, 296, 192
-0.991815, 129, 265, 384, 328
-0.991832, 57, 133, 120, 164
-0.991854, 193, 113, 256, 144
-0.991856, 41, 237, 104, 268
-0.991863, 9, 337, 72, 368
-0.991875, 81, 169, 112, 232
-0.99188, 49, 17, 176, 80
-0.991889, 129, 185, 384, 248
-0.991892, 17, 313, 80, 344
-0.991918, 41, 189, 104, 220
-0.991923, 93, 153, 124, 216
-0.991926, 57, 225, 120, 256
-0.991927, 305, 297, 336, 360
-0.991942, 409, 1, 472, 128
-0.99196, 73, 145, 136, 176
-0.991961, 273, 261, 336, 292
-0.991972, 105, 145, 168, 176
-0.991975, 177, 193, 240, 224
-0.991978, 17, 213, 80, 244
-0.99199, 265, 313, 328, 344
-0.991997, 9, 229, 72, 260
-0.992024, 377, 305, 440, 336
-0.992051, 1, 105, 64, 136
-0.992065, 73, 341, 136, 372
-0.992081, 105, 41, 168, 72
-0.992085, 41, 33, 72, 96
-0.992087, 1, 65, 256, 128
-0.992088, 57, 101, 120, 132
-0.992102, 201, 73, 264, 104
-0.992104, 89, 133, 152, 164
-0.992126, 57, 53, 120, 84
-0.992127, 277, 33, 308, 160
-0.992142, 33, 225, 64, 352
-0.992142, 345, 1, 408, 128
-0.992154, 169, 281, 232, 312
-0.99216, 217, 117, 280, 148
-0.992162, 177, 125, 240, 156
-0.992185, 313, 321, 376, 352
-0.992192, 49, 265, 112, 296
-0.992194, 293, 193, 324, 320
-0.992219, 145, 177, 176, 240
-0.992226, 337, 321, 400, 352
-0.992229, 217, 41, 280, 72
-0.992238, 49, 297, 112, 328
-0.99227, 81, 301, 144, 332
-0.992285, 129, 169, 192, 200
-0.992286, 1, 189, 64, 220
-0.992294, 25, 177, 88, 208
-0.992302, 249, 65, 312, 128
-0.992303, 65, 121, 128, 152
-0.992316, 1, 65, 64, 96
-0.992326, 137, 345, 200, 375
-0.992338, 209, 161, 272, 192
-0.992343, 245, 273, 276, 336
-0.992346, 169, 217, 232, 248
-0.99236, 185, 93, 248, 124
-0.992366, 157, 129, 188, 192
-0.992387, 241, 237, 304, 268
-0.992388, 17, 241, 80, 272
-0.9924, 49, 277, 112, 308
-0.992412, 9, 325, 72, 356
-0.99243, 37, 89, 68, 120
-0.992442, 73, 177, 136, 208
-0.992452, 249, 109, 312, 140
-0.992453, 217, 161, 248, 224
-0.992455, 217, 177, 280, 208
-0.992465, 65, 193, 128, 224
-0.992473, 233, 289, 296, 320
-0.992476, 293, 233, 324, 296
-0.992488, 201, 61, 264, 92
-0.992492, 1, 89, 256, 152
-0.992495, 53, 85, 84, 116
-0.99251, 281, 145, 344, 176
-0.992521, 137, 325, 200, 356
-0.992553, 93, 129, 124, 256
-0.99256, 65, 321, 96, 352
-0.99256, 281, 329, 344, 360
-0.992581, 289, 185, 352, 216
-0.992581, 161, 209, 192, 336
-0.992596, 41, 133, 72, 164
-0.992613, 201, 129, 232, 256
-0.992615, 361, 321, 424, 352
-0.992617, 45, 109, 76, 140
-0.992617, 169, 145, 232, 208
-0.992619, 325, 1, 356, 64
-0.992626, 241, 305, 304, 336
-0.99264, 169, 205, 232, 236
-0.992643, 177, 41, 240, 72
-0.992645, 281, 161, 344, 192
-0.992647, 45, 73, 76, 104
-0.992666, 305, 273, 336, 304
-0.992667, 385, 273, 448, 336
-0.992667, 21, 73, 52, 104
-0.992698, 137, 277, 200, 308
-0.99271, 385, 289, 416, 352
-0.992713, 241, 69, 304, 100
-0.992716, 393, 193, 456, 320
-0.992717, 273, 41, 336, 72
-0.992719, 41, 249, 104, 280
-0.992733, 49, 97, 80, 128
-0.992734, 209, 285, 272, 316
-0.992737, 137, 221, 200, 252
-0.992739, 265, 229, 328, 260
-0.992752, 209, 189, 272, 220
-0.992755, 169, 237, 232, 268
-0.99276, 5, 69, 36, 100
-0.992767, 185, 165, 248, 196
-0.992773, 137, 301, 200, 332
-0.992778, 37, 313, 68, 375
-0.992786, 241, 41, 304, 72
-0.992791, 9, 293, 72, 324
-0.992795, 61, 157, 92, 188
-0.992799, 45, 145, 76, 176
-0.992804, 249, 89, 312, 120
-0.992809, 273, 133, 336, 164
-0.99282, 257, 273, 288, 336
-0.992823, 53, 321, 84, 352
-0.992833, 181, 241, 212, 368
-0.992837, 241, 317, 304, 348
-0.992837, 65, 309, 96, 340
-0.992843, 433, 213, 496, 244
-0.992859, 97, 281, 160, 344
-0.992864, 37, 61, 68, 92
-0.99288, 77, 217, 108, 280
-0.992882, 49, 201, 80, 232
-0.992895, 337, 301, 368, 332
-0.992915, 393, 193, 456, 256
-0.992921, 197, 121, 228, 184
-0.992932, 65, 89, 96, 120
-0.99294, 241, 57, 272, 120
-0.992955, 33, 117, 64, 148
-0.992956, 21, 57, 52, 88
-0.992962, 205, 97, 236, 128
-0.992968, 185, 125, 216, 156
-0.992971, 73, 209, 104, 336
-0.993003, 325, 289, 356, 320
-0.993012, 305, 293, 336, 324
-0.993017, 45, 213, 76, 244
-0.993024, 9, 57, 40, 88
-0.993038, 285, 269, 316, 300
-0.99304, 249, 125, 280, 156
-0.99304, 277, 193, 308, 224
-0.993046, 45, 229, 76, 260
-0.993054, 33, 77, 64, 108
-0.993056, 49, 249, 176, 312
-0.993061, 53, 57, 84, 88
-0.99307, 273, 229, 304, 260
-0.993077, 237, 77, 268, 108
-0.993083, 261, 129, 292, 160
-0.993083, 229, 97, 260, 160
-0.993085, 45, 157, 76, 188
-0.993085, 277, 177, 308, 208
-0.993086, 21, 85, 52, 116
-0.993088, 345, 289, 376, 320
-0.993089, 77, 317, 108, 348
-0.99309, 77, 169, 108, 200
-0.993095, 157, 185, 188, 216
-0.993097, 237, 105, 268, 136
-0.993098, 61, 169, 92, 200
-0.993106, 253, 185, 284, 216
-0.993107, 317, 309, 348, 340
-0.993109, 61, 217, 92, 248
-0.993112, 273, 33, 304, 96
-0.993115, 49, 241, 80, 272
-0.993117, 49, 189, 80, 220
-0.993117, 145, 137, 176, 168
-0.993119, 409, 105, 472, 168
-0.99312, 285, 281, 316, 312
-0.993126, 253, 217, 284, 280
-0.993136, 5, 209, 36, 336
-0.99314, 61, 129, 92, 160
-0.993149, 285, 313, 316, 344
-0.993152, 125, 177, 156, 208
-0.993163, 369, 305, 400, 336
-0.993163, 1, 33, 32, 96
-0.993171, 65, 333, 96, 364
-0.993173, 305, 249, 432, 312
-0.993174, 129, 145, 160, 176
-0.993179, 65, 73, 96, 104
-0.993193, 41, 321, 72, 352
-0.993195, 41, 177, 72, 208
-0.993202, 29, 129, 60, 160
-0.993205, 205, 161, 236, 224
-0.993211, 177, 177, 208, 208
-0.993212, 49, 265, 80, 296
-0.99322, 97, 241, 160, 368
-0.993222, 49, 121, 80, 152
-0.993223, 297, 313, 328, 344
-0.993225, 73, 141, 104, 172
-0.993225, 269, 265, 300, 296
-0.993227, 205, 109, 236, 140
-0.99324, 169, 129, 200, 160
-0.993242, 1, 89, 32, 120
-0.993244, 321, 277, 352, 308
-0.993245, 381, 305, 412, 336
-0.993248, 273, 217, 304, 248
-0.993249, 53, 301, 84, 332
-0.993251, 393, 1, 424, 64
-0.993257, 261, 197, 292, 228
-0.993274, 253, 113, 284, 144
-0.993277, 109, 45, 140, 76
-0.993279, 277, 165, 308, 196
-0.99328, 85, 337, 116, 368
-0.993291, 457, 97, 488, 160
-0.993291, 57, 277, 88, 308
-0.993292, 181, 197, 212, 228
-0.993292, 25, 329, 56, 360
-0.993292, 317, 321, 348, 352
-0.993295, 129, 241, 384, 304
-0.993298, 289, 325, 320, 356
-0.993306, 157, 133, 188, 164
-0.993308, 273, 245, 304, 276
-0.993308, 25, 97, 56, 128
-0.993309, 193, 97, 224, 128
-0.99331, 57, 145, 88, 176
-0.993313, 369, 317, 400, 348
-0.993319, 261, 281, 292, 312
-0.993322, 181, 281, 212, 312
-0.993326, 241, 285, 272, 316
-0.993328, 113, 157, 144, 188
-0.993329, 61, 257, 92, 288
-0.993332, 49, 253, 80, 284
-0.993341, 357, 289, 388, 320
-0.993342, 61, 201, 92, 232
-0.993343, 329, 317, 360, 348
-0.993347, 29, 233, 60, 264
-0.993349, 233, 189, 264, 220
-0.993353, 69, 297, 100, 328
-0.993353, 145, 177, 176, 304
-0.993353, 1, 137, 500, 200
-0.993361, 461, 97, 492, 128
-0.993362, 269, 145, 300, 176
-0.993364, 169, 189, 200, 220
-0.993364, 381, 321, 412, 352
-0.993366, 233, 177, 264, 208
-0.993367, 237, 161, 268, 192
-0.993368, 45, 45, 76, 76
-0.993369, 409, 25, 472, 88
-0.99337, 285, 293, 316, 324
-0.993374, 141, 185, 172, 216
-0.993376, 349, 305, 380, 336
-0.993377, 89, 177, 120, 208
-0.993377, 337, 1, 368, 64
-0.993379, 65, 61, 96, 92
-0.993386, 225, 85, 256, 116
-0.993387, 33, 49, 64, 80
-0.993392, 237, 117, 268, 148
-0.993392, 33, 197, 64, 228
-0.993395, 181, 209, 212, 240
-0.993398, 33, 209, 64, 240
-0.993399, 225, 41, 256, 72
-0.993401, 257, 89, 288, 120
-0.993402, 237, 93, 268, 124
-0.993402, 213, 41, 244, 72
-0.993404, 21, 117, 52, 148
-0.993404, 73, 157, 104, 188
-0.993404, 353, 145, 480, 272
-0.993409, 261, 225, 292, 256
-0.993416, 377, 289, 408, 320
-0.993416, 17, 345, 48, 375
-0.993423, 269, 281, 300, 344
-0.993423, 61, 237, 92, 268
-0.993449, 217, 249, 280, 312
-0.993531, 313, 1, 344, 64
-0.993612, 1, 177, 256, 240
-0.993644, 345, 25, 408, 88
-0.993653, 33, 177, 64, 240
-0.993669, 55, 81, 70, 144
-0.993683, 1, 305, 256, 368
-0.993691, 129, 105, 192, 168
-0.993732, 293, 313, 324, 375
-0.993775, 1, 121, 32, 184
-0.993801, 225, 273, 480, 336
-0.993825, 361, 1, 392, 64
-0.993854, 233, 129, 264, 192
-0.993868, 253, 17, 284, 80
-0.993876, 237, 129, 268, 256
-0.993889, 1, 145, 256, 208
-0.993891, 1, 41, 256, 104
-0.993914, 59, 49, 74, 112
-0.993933, 301, 1, 332, 64
-0.993933, 373, 1, 404, 64
-0.993959, 409, 1, 472, 256
-0.993962, 129, 289, 384, 352
-0.993994, 81, 17, 144, 80
-0.993997, 113, 81, 144, 208
-0.994, 69, 257, 100, 320
-0.994012, 417, 177, 480, 240
-0.994062, 129, 209, 384, 272
-0.994063, 85, 281, 116, 344
-0.994069, 1, 257, 256, 320
-0.994073, 1, 209, 256, 272
-0.994117, 233, 289, 264, 352
-0.99413, 89, 201, 152, 264
-0.99421, 349, 1, 380, 64
-0.994247, 417, 233, 480, 296
-0.994252, 369, 209, 496, 272
-0.994257, 21, 17, 52, 80
-0.994266, 197, 33, 228, 96
-0.994289, 357, 305, 388, 368
-0.994318, 221, 17, 252, 80
-0.994362, 257, 169, 500, 232
-0.994436, 133, 177, 164, 304
-0.994437, 61, 81, 76, 144
-0.994467, 19, 57, 34, 120
-0.994508, 137, 1, 168, 128
-0.994541, 57, 25, 88, 88
-0.994565, 217, 313, 280, 375
-0.994566, 433, 145, 496, 272
-0.994591, 9, 65, 24, 128
-0.994598, 161, 217, 192, 280
-0.994623, 1, 41, 500, 104
-0.994629, 77, 313, 92, 375
-0.994643, 445, 193, 476, 320
-0.994674, 113, 177, 144, 240
-0.994684, 21, 113, 52, 176
-0.994693, 1, 325, 128, 356
-0.994749, 47, 97, 62, 160
-0.994763, 181, 225, 212, 288
-0.994813, 1, 145, 32, 272
-0.994825, 257, 65, 288, 128
-0.994844, 289, 1, 320, 64
-0.994856, 325, 241, 356, 368
-0.994885, 277, 1, 308, 64
-0.99492, 257, 305, 500, 368
-0.994937, 161, 189, 288, 220
-0.994983, 417, 1, 480, 375
-0.994998, 13, 89, 44, 152
-0.995019, 125, 1, 156, 128
-0.995029, 225, 249, 480, 312
-0.995042, 369, 25, 496, 88
-0.995118, 45, 65, 60, 128
-0.995128, 257, 145, 500, 208
-0.995139, 1, 65, 16, 128
-0.995165, 1, 185, 500, 248
-0.995208, 177, 125, 304, 156
-0.995216, 177, 305, 304, 368
-0.995232, 85, 241, 116, 368
-0.995238, 275, 193, 290, 256
-0.995241, 97, 41, 352, 104
-0.995246, 51, 57, 66, 120
-0.995257, 241, 281, 368, 312
-0.995283, 273, 301, 400, 332
-0.995289, 393, 1, 456, 375
-0.995302, 289, 225, 416, 288
-0.995312, 1, 233, 256, 296
-0.995315, 409, 113, 472, 240
-0.995315, 33, 137, 160, 168
-0.995318, 89, 1, 120, 128
-0.995344, 33, 173, 160, 204
-0.995373, 225, 121, 480, 184
-0.995377, 321, 177, 448, 240
-0.995382, 1, 89, 16, 152
-0.995385, 377, 145, 440, 272
-0.995389, 97, 313, 352, 375
-0.995391, 321, 97, 448, 224
-0.995422, 353, 249, 480, 312
-0.995463, 369, 81, 496, 144
-0.995471, 33, 157, 160, 188
-0.99549, 63, 305, 78, 368
-0.995496, 1, 281, 256, 344
-0.995496, 17, 77, 144, 108
-0.995506, 25, 65, 40, 128
-0.995511, 41, 89, 56, 152
-0.995568, 193, 169, 320, 200
-0.995575, 1, 65, 500, 128
-0.995583, 65, 185, 192, 216
-0.995647, 1, 337, 128, 368
-0.995674, 257, 193, 500, 256
-0.995697, 177, 253, 304, 284
-0.995701, 65, 57, 80, 120
-0.995729, 289, 289, 416, 320
-0.995755, 161, 201, 288, 232
-0.995756, 105, 129, 136, 256
-0.995767, 21, 113, 52, 240
-0.99579, 277, 97, 308, 224
-0.995791, 45, 121, 60, 184
-0.9958, 69, 241, 84, 304
-0.995826, 59, 281, 74, 344
-0.995833, 49, 305, 176, 336
-0.995842, 225, 33, 480, 96
-0.995869, 51, 201, 66, 264
-0.995883, 257, 225, 500, 288
-0.99589, 139, 145, 154, 208
-0.9959, 397, 33, 428, 160
-0.995924, 1, 97, 500, 160
-0.995924, 289, 97, 352, 352
-0.99595, 49, 321, 176, 352
-0.995956, 69, 153, 84, 216
-0.995957, 273, 317, 400, 348
-0.995962, 73, 289, 88, 352
-0.995999, 97, 97, 352, 160
-0.996002, 245, 241, 276, 368
-0.996019, 193, 1, 448, 64
-0.996031, 1, 313, 500, 375
-0.996037, 321, 201, 448, 264
-0.996063, 177, 237, 304, 268
-0.996072, 1, 161, 500, 224
-0.996096, 129, 145, 144, 208
-0.996103, 17, 97, 144, 128
-0.996117, 31, 73, 46, 136
-0.996125, 369, 105, 496, 168
-0.996139, 69, 313, 84, 375
-0.99617, 193, 93, 320, 124
-0.996195, 321, 153, 448, 216
-0.996196, 177, 265, 304, 296
-0.996205, 97, 17, 352, 80
-0.996206, 1, 289, 500, 352
-0.996207, 129, 81, 160, 208
-0.996219, 261, 1, 292, 256
-0.996219, 177, 289, 304, 320
-0.99625, 177, 113, 304, 144
-0.996266, 147, 137, 162, 200
-0.996286, 53, 137, 68, 200
-0.99629, 93, 81, 124, 208
-0.996311, 161, 217, 288, 248
-0.996343, 1, 57, 128, 88
-0.996343, 225, 269, 352, 300
-0.996347, 1, 205, 128, 236
-0.996354, 273, 129, 304, 375
-0.996369, 73, 129, 88, 192
-0.996372, 287, 153, 302, 216
-0.996372, 63, 217, 78, 280
-0.996379, 169, 177, 184, 240
-0.996423, 249, 81, 264, 144
-0.996424, 57, 313, 72, 375
-0.996455, 217, 145, 248, 272
-0.996489, 113, 1, 144, 256
-0.9965, 129, 133, 256, 164
-0.996526, 173, 1, 204, 256
-0.996527, 67, 281, 82, 344
-0.99653, 49, 125, 176, 156
-0.996537, 237, 1, 268, 256
-0.996565, 177, 277, 304, 308
-0.996565, 321, 73, 448, 136
-0.996565, 321, 129, 448, 192
-0.996584, 209, 89, 224, 152
-0.99659, 83, 313, 98, 375
-0.996603, 253, 97, 284, 352
-0.996614, 235, 41, 250, 104
-0.996614, 225, 97, 480, 160
-0.996619, 1, 217, 128, 248
-0.996624, 81, 337, 208, 368
-0.996632, 79, 289, 94, 352
-0.996666, 241, 41, 256, 104
-0.99667, 1, 313, 128, 344
-0.996675, 183, 177, 198, 240
-0.996676, 197, 121, 212, 184
-0.996682, 39, 113, 54, 176
-0.996702, 67, 121, 82, 184
-0.996721, 97, 213, 224, 244
-0.996733, 33, 49, 48, 112
-0.996737, 217, 241, 248, 368
-0.996739, 81, 81, 112, 208
-0.996755, 97, 41, 224, 72
-0.996765, 203, 97, 218, 160
-0.996769, 1, 201, 16, 264
-0.996777, 209, 181, 336, 212
-0.996778, 285, 257, 300, 320
-0.996786, 339, 297, 354, 360
-0.996802, 55, 241, 70, 304
-0.996805, 293, 169, 308, 232
-0.996816, 233, 73, 248, 136
-0.996816, 81, 137, 96, 200
-0.996817, 61, 105, 76, 168
-0.996826, 387, 297, 402, 360
-0.99683, 311, 265, 326, 328
-0.996832, 25, 41, 40, 104
-0.996837, 317, 289, 332, 352
-0.996841, 275, 129, 290, 192
-0.996844, 1, 1, 128, 64
-0.996847, 49, 65, 80, 320
-0.996866, 225, 313, 352, 344
-0.996869, 17, 185, 144, 216
-0.996875, 139, 177, 154, 240
-0.996877, 193, 137, 320, 168
-0.996883, 5, 1, 36, 256
-0.996902, 249, 1, 280, 256
-0.996908, 73, 209, 88, 272
-0.996921, 275, 241, 290, 304
-0.996936, 257, 329, 384, 360
-0.996939, 273, 1, 304, 256
-0.996952, 161, 1, 192, 256
-0.996968, 175, 185, 190, 248
-0.996971, 29, 33, 60, 288
-0.996972, 59, 145, 74, 208
-0.996985, 89, 313, 104, 375
-0.99699, 59, 77, 74, 108
-0.996992, 245, 153, 260, 216
-0.996998, 161, 97, 192, 352
-0.997, 227, 41, 242, 104
-0.997002, 457, 65, 488, 192
-0.997005, 57, 201, 72, 264
-0.997008, 13, 41, 28, 104
-0.997011, 369, 49, 496, 112
-0.997041, 53, 85, 68, 116
-0.997051, 17, 109, 144, 140
-0.997062, 1, 249, 16, 312
-0.99707, 123, 145, 138, 208
-0.997077, 253, 105, 268, 168
-0.997077, 141, 1, 172, 256
-0.997081, 39, 65, 54, 128
-0.997082, 67, 81, 82, 144
-0.997085, 193, 157, 320, 188
-0.997098, 145, 169, 272, 200
-0.99711, 221, 49, 236, 112
-0.997115, 145, 97, 272, 128
-0.99712, 225, 293, 352, 324
-0.997121, 1, 17, 256, 80
-0.997122, 197, 89, 212, 152
-0.997122, 281, 137, 296, 200
-0.997124, 247, 57, 262, 120
-0.997128, 77, 161, 92, 224
-0.997134, 267, 217, 282, 280
-0.997141, 425, 193, 456, 320
-0.997141, 217, 1, 248, 256
-0.997146, 321, 97, 448, 160
-0.997148, 19, 81, 34, 144
-0.997155, 323, 273, 338, 336
-0.997158, 53, 105, 68, 168
-0.997165, 53, 289, 68, 352
-0.997172, 393, 297, 408, 360
-0.997176, 67, 185, 82, 248
-0.997181, 321, 313, 448, 344
-0.997195, 305, 33, 336, 160
-0.997195, 81, 201, 208, 232
-0.997227, 1, 145, 16, 208
-0.997234, 381, 297, 396, 360
-0.997239, 247, 33, 262, 96
-0.997244, 265, 121, 280, 184
-0.997251, 113, 185, 240, 216
-0.997252, 241, 197, 368, 228
-0.997255, 45, 177, 60, 240
-0.997271, 1, 233, 128, 264
-0.997281, 197, 1, 228, 256
-0.997282, 117, 153, 132, 216
-0.997291, 317, 33, 348, 160
-0.997292, 193, 81, 320, 112
-0.997298, 191, 121, 206, 184
-0.997303, 51, 313, 66, 375
-0.997319, 317, 265, 332, 328
-0.997321, 113, 41, 128, 104
-0.997325, 193, 341, 320, 372
-0.997333, 293, 1, 324, 128
-0.997336, 221, 161, 236, 224
-0.997343, 41, 121, 56, 152
-0.997344, 61, 241, 76, 304
-0.997344, 309, 289, 324, 352
-0.997349, 329, 281, 344, 344
-0.997353, 79, 321, 94, 352
-0.997353, 1, 265, 500, 328
-0.997364, 241, 65, 256, 128
-0.99738, 345, 289, 360, 352
-0.997396, 417, 241, 480, 368
-0.997418, 155, 137, 170, 200
-0.997426, 145, 77, 272, 108
-0.997428, 181, 97, 212, 352
-0.997439, 293, 233, 308, 296
-0.997448, 153, 177, 168, 240
-0.997458, 97, 285, 224, 316
-0.997476, 53, 169, 68, 232
-0.997486, 185, 121, 200, 184
-0.997518, 43, 97, 58, 128
-0.997523, 79, 217, 94, 280
-0.997526, 175, 209, 190, 272
-0.997527, 1, 249, 128, 280
-0.997532, 1, 301, 128, 332
-0.997535, 147, 177, 162, 240
-0.997536, 49, 233, 64, 296
-0.997536, 277, 273, 292, 336
-0.997546, 9, 89, 24, 152
-0.997552, 253, 161, 268, 224
-0.997552, 45, 133, 60, 164
-0.997555, 81, 149, 208, 180
-0.997558, 185, 1, 216, 256
-0.997563, 275, 217, 290, 280
-0.99757, 269, 241, 284, 304
-0.997571, 161, 65, 416, 128
-0.997575, 351, 281, 366, 344
-0.997589, 61, 177, 76, 240
-0.997601, 3, 225, 18, 288
-0.997606, 241, 225, 368, 256
-0.997609, 185, 225, 200, 288
-0.997624, 241, 241, 368, 272
-0.997627, 183, 273, 198, 336
-0.99763, 17, 1, 48, 256
-0.997637, 241, 169, 368, 200
-0.997642, 373, 297, 388, 360
-0.997643, 81, 137, 208, 168
-0.997646, 163, 177, 178, 240
-0.997648, 361, 241, 424, 368
-0.997658, 233, 241, 264, 368
-0.997662, 257, 137, 384, 168
-0.997663, 21, 69, 36, 100
-0.99767, 323, 297, 338, 360
-0.99767, 97, 273, 224, 304
-0.997677, 257, 149, 384, 180
-0.997691, 321, 325, 448, 356
-0.997694, 239, 161, 254, 224
-0.997699, 423, 201, 438, 264
-0.997699, 21, 57, 36, 88
-0.997704, 55, 97, 70, 128
-0.997706, 199, 161, 214, 224
-0.997709, 259, 89, 274, 152
-0.99772, 203, 49, 218, 112
-0.997723, 241, 213, 368, 244
-0.997726, 185, 201, 200, 264
-0.997726, 97, 225, 224, 256
-0.997731, 321, 301, 448, 332
-0.997739, 47, 113, 62, 144
-0.997739, 51, 209, 66, 240
-0.9978, 81, 173, 208, 204
-0.997806, 145, 41, 272, 72
-0.997811, 1, 261, 128, 292
-0.997821, 57, 53, 72, 84
-0.99783, 305, 277, 432, 308
-0.997839, 1, 97, 32, 352
-0.997839, 73, 317, 88, 348
-0.997844, 59, 321, 74, 352
-0.99786, 265, 17, 296, 144
-0.997874, 25, 161, 56, 288
-0.997877, 31, 73, 46, 104
-0.997884, 361, 241, 392, 368
-0.997888, 125, 1, 156, 256
-0.997912, 145, 333, 272, 364
-0.997915, 17, 45, 144, 76
-0.997921, 51, 133, 66, 164
-0.997921, 69, 157, 84, 188
-0.997921, 289, 1, 320, 256
-0.997938, 17, 25, 144, 56
-0.99795, 61, 89, 76, 120
-0.997956, 193, 41, 320, 72
-0.997967, 209, 97, 224, 128
-0.997979, 193, 329, 320, 360
-0.997981, 305, 41, 432, 72
-0.997986, 97, 109, 224, 140
-0.997987, 413, 193, 444, 320
-0.997992, 53, 73, 68, 104
-0.997993, 257, 253, 384, 284
-0.997997, 39, 109, 54, 140
-0.998001, 15, 69, 30, 100
-0.998039, 275, 193, 290, 224
-0.998044, 369, 185, 496, 248
-0.998049, 57, 213, 72, 244
-0.998053, 339, 301, 354, 332
-0.998058, 313, 277, 328, 308
-0.998059, 297, 145, 328, 272
-0.998066, 65, 77, 80, 108
-0.998076, 273, 181, 400, 212
-0.998081, 149, 97, 180, 352
-0.998099, 79, 309, 94, 340
-0.998103, 353, 33, 384, 160
-0.998103, 145, 345, 272, 375
-0.998114, 85, 321, 100, 352
-0.998123, 61, 1, 92, 256
-0.998132, 59, 141, 74, 172
-0.998141, 97, 85, 224, 116
-0.998153, 63, 309, 78, 340
-0.998163, 1, 1, 500, 64
-0.998165, 65, 321, 80, 352
-0.998171, 273, 345, 400, 375
-0.998175, 289, 97, 320, 224
-0.998176, 45, 77, 60, 108
-0.998182, 49, 293, 176, 324
-0.998186, 97, 97, 224, 128
-0.998194, 63, 153, 78, 184
-0.998202, 49, 221, 176, 252
-0.998203, 37, 129, 68, 375
-0.998221, 369, 301, 496, 332
-0.998227, 105, 177, 136, 304
-0.998237, 193, 69, 320, 100
-0.998241, 53, 197, 68, 228
-0.998243, 277, 133, 292, 164
-0.998245, 59, 65, 74, 96
-0.998255, 29, 53, 44, 84
-0.998256, 381, 317, 396, 348
-0.998257, 369, 81, 496, 208
-0.998258, 389, 305, 404, 336
-0.998269, 275, 221, 290, 252
-0.998287, 319, 277, 334, 308
-0.998288, 15, 53, 30, 84
-0.99829, 53, 321, 68, 352
-0.998294, 61, 265, 76, 296
-0.998301, 69, 305, 84, 336
-0.998308, 97, 257, 224, 288
-0.998309, 1, 285, 128, 316
-0.998321, 39, 133, 54, 164
-0.998324, 217, 167, 248, 182
-0.998325, 29, 139, 60, 154
-0.998325, 17, 357, 48, 372
-0.998326, 273, 263, 304, 278
-0.998326, 193, 99, 224, 114
-0.998326, 113, 155, 144, 170
-0.998327, 49, 319, 80, 334
-0.998329, 289, 327, 320, 342
-0.998331, 261, 283, 292, 298
-0.998331, 171, 185, 186, 216
-0.998332, 41, 329, 72, 344
-0.998332, 347, 289, 362, 320
-0.998333, 45, 175, 76, 190
-0.998334, 61, 227, 92, 242
-0.998334, 29, 93, 60, 108
-0.998335, 285, 289, 316, 304
-0.998335, 5, 91, 36, 106
-0.998337, 141, 143, 172, 158
-0.998337, 73, 315, 104, 330
-0.998339, 337, 309, 368, 324
-0.998339, 205, 107, 236, 122
-0.99834, 197, 121, 212, 152
-0.99834, 337, 295, 368, 310
-0.998341, 237, 97, 268, 112
-0.998342, 85, 331, 116, 346
-0.998342, 205, 93, 236, 108
-0.998343, 181, 283, 212, 298
-0.998343, 265, 277, 296, 292
-0.998344, 249, 187, 280, 202
-0.998344, 285, 295, 316, 310
-0.998344, 53, 165, 84, 180
-0.998344, 307, 277, 322, 308
-0.998345, 53, 73, 84, 88
-0.998346, 145, 187, 176, 202
-0.998347, 377, 307, 408, 322
-0.998347, 349, 303, 380, 318
-0.998347, 67, 261, 82, 292
-0.998348, 257, 109, 272, 140
-0.998348, 75, 161, 90, 192
-0.998348, 297, 317, 328, 332
-0.998349, 77, 177, 108, 192
-0.998349, 49, 267, 80, 282
-0.99835, 285, 283, 316, 298
-0.99835, 45, 151, 76, 166
-0.99835, 225, 187, 256, 202
-0.998351, 269, 197, 300, 212
-0.998351, 49, 199, 80, 214
-0.998352, 45, 227, 76, 242
-0.998352, 25, 237, 56, 252
-0.998353, 33, 107, 64, 122
-0.998353, 383, 305, 398, 336
-0.998354, 13, 231, 44, 246
-0.998355, 69, 171, 100, 186
-0.998355, 273, 229, 304, 244
-0.998356, 177, 199, 208, 214
-0.998356, 325, 303, 356, 318
-0.998356, 61, 307, 92, 322
-0.998356, 37, 211, 68, 226
-0.998357, 9, 65, 40, 80
-0.998357, 129, 149, 160, 164
-0.998357, 109, 45, 140, 60
-0.998357, 129, 121, 256, 152
-0.998358, 177, 189, 208, 204
-0.99836, 321, 317, 352, 332
-0.99836, 65, 129, 96, 375
-0.998362, 45, 159, 76, 174
-0.998363, 225, 125, 352, 156
-0.998364, 177, 183, 208, 198
-0.998364, 41, 71, 72, 86
-0.998364, 25, 331, 56, 346
-0.998365, 325, 289, 356, 304
-0.998365, 61, 263, 92, 278
-0.998365, 17, 89, 48, 104
-0.998365, 357, 309, 388, 324
-0.998365, 309, 325, 340, 340
-0.998366, 53, 101, 84, 116
-0.998367, 237, 103, 268, 118
-0.998368, 233, 79, 264, 94
-0.99837, 25, 113, 56, 128
-0.99837, 149, 137, 180, 152
-0.998371, 25, 63, 56, 78
-0.998371, 273, 243, 304, 258
-0.998373, 53, 127, 84, 142
-0.998374, 49, 233, 64, 264
-0.998376, 309, 285, 340, 300
-0.998376, 277, 181, 308, 196
-0.998377, 285, 277, 316, 292
-0.998377, 289, 169, 304, 200
-0.998379, 81, 325, 112, 340
-0.99838, 45, 133, 76, 148
-0.99838, 45, 65, 76, 80
-0.998381, 45, 233, 76, 248
-0.998384, 249, 283, 280, 298
-0.998384, 45, 241, 76, 256
-0.998384, 349, 297, 380, 312
-0.998385, 305, 273, 336, 288
-0.998389, 349, 289, 380, 304
-0.998389, 165, 133, 196, 148
-0.99839, 65, 335, 96, 350
-0.998391, 33, 273, 160, 304
-0.998392, 57, 159, 88, 174
-0.998393, 53, 325, 84, 340
-0.998394, 365, 303, 396, 318
-0.998395, 49, 217, 80, 232
-0.998395, 337, 303, 368, 318
-0.998396, 49, 101, 64, 132
-0.998398, 273, 235, 304, 250
-0.998398, 69, 329, 100, 344
-0.998398, 61, 221, 92, 236
-0.998399, 157, 187, 188, 202
-0.998399, 225, 105, 352, 136
-0.9984, 23, 81, 38, 112
-0.998401, 125, 181, 156, 196
-0.998401, 45, 145, 60, 176
-0.998402, 101, 33, 132, 160
-0.998408, 57, 133, 88, 148
-0.998408, 49, 205, 80, 220
-0.99841, 59, 201, 74, 232
-0.99841, 45, 59, 76, 74
-0.998411, 45, 53, 76, 68
-0.998414, 57, 229, 72, 260
-0.998414, 1, 125, 128, 156
-0.998415, 301, 269, 316, 300
-0.998416, 205, 99, 236, 114
-0.998417, 33, 55, 64, 70
-0.998419, 285, 271, 316, 286
-0.998419, 305, 293, 336, 308
-0.998419, 41, 115, 72, 130
-0.99842, 29, 69, 60, 84
-0.99842, 57, 81, 88, 96
-0.99842, 17, 83, 80, 98
-0.998421, 325, 323, 356, 338
-0.998422, 113, 321, 240, 352
-0.998423, 45, 145, 76, 160
-0.998424, 249, 105, 264, 136
-0.998425, 63, 165, 78, 196
-0.998429, 181, 177, 196, 208
-0.998429, 185, 127, 216, 142
-0.99843, 49, 211, 80, 226
-0.99843, 65, 165, 96, 180
-0.99843, 29, 77, 60, 92
-0.998431, 277, 191, 308, 206
-0.998432, 277, 261, 292, 292
-0.998432, 145, 61, 272, 92
-0.998437, 339, 313, 354, 344
-0.998438, 309, 279, 340, 294
-0.998438, 61, 317, 92, 332
-0.998441, 93, 1, 124, 256
-0.998441, 53, 93, 84, 108
-0.998442, 65, 89, 96, 104
-0.998443, 85, 309, 100, 340
-0.998444, 253, 129, 284, 144
-0.998447, 255, 121, 270, 152
-0.998449, 377, 301, 392, 332
-0.99845, 41, 77, 72, 92
-0.99845, 137, 177, 152, 208
-0.998456, 9, 69, 24, 100
-0.998458, 237, 97, 268, 352
-0.998459, 45, 109, 76, 124
-0.998464, 193, 97, 224, 352
-0.998467, 21, 83, 52, 98
-0.998468, 325, 285, 340, 316
-0.998468, 397, 1, 428, 256
-0.998471, 61, 277, 76, 308
-0.998475, 135, 149, 150, 180
-0.998475, 35, 57, 50, 88
-0.998476, 49, 221, 64, 252
-0.998476, 269, 237, 284, 268
-0.998476, 85, 177, 116, 304
-0.998478, 9, 89, 72, 104
-0.998478, 53, 145, 68, 176
-0.998479, 1, 93, 16, 124
-0.998483, 67, 221, 82, 252
-0.998484, 341, 289, 356, 320
-0.998487, 183, 197, 198, 228
-0.998488, 53, 177, 68, 208
-0.998488, 67, 249, 82, 280
-0.998492, 17, 65, 80, 80
-0.998496, 65, 65, 80, 96
-0.998496, 65, 323, 96, 338
-0.998498, 365, 1, 396, 128
-0.998499, 47, 157, 62, 188
-0.998501, 9, 71, 40, 86
-0.998504, 25, 75, 88, 90
-0.998507, 257, 41, 384, 72
-0.998507, 41, 99, 72, 114
-0.998507, 281, 145, 296, 176
-0.998509, 145, 185, 160, 216
-0.998514, 97, 305, 224, 336
-0.998515, 33, 133, 64, 148
-0.998518, 233, 329, 248, 360
-0.998519, 97, 161, 224, 192
-0.998526, 89, 333, 104, 364
-0.998527, 285, 265, 300, 296
-0.998529, 33, 89, 96, 104
-0.998529, 185, 129, 200, 160
-0.998529, 1, 265, 16, 296
-0.99853, 41, 169, 104, 184
-0.99853, 33, 133, 96, 148
-0.998531, 41, 85, 72, 100
-0.998534, 297, 289, 360, 304
-0.998535, 9, 233, 24, 264
-0.998538, 273, 275, 336, 290
-0.99854, 41, 139, 72, 154
-0.998549, 273, 21, 400, 52
-0.998551, 105, 181, 168, 196
-0.998553, 193, 57, 320, 88
-0.998554, 53, 87, 84, 102
-0.998555, 19, 345, 34, 375
-0.998557, 41, 91, 72, 106
-0.998559, 275, 205, 290, 236
-0.998559, 55, 269, 70, 300
-0.998559, 319, 293, 334, 324
-0.99856, 291, 313, 306, 344
-0.998561, 57, 309, 72, 340
-0.998562, 113, 45, 128, 76
-0.998562, 193, 225, 224, 352
-0.998562, 389, 325, 404, 356
-0.998565, 273, 281, 336, 296
-0.998565, 129, 145, 256, 176
-0.998565, 337, 289, 464, 320
-0.99857, 233, 131, 296, 146
-0.998572, 49, 325, 112, 340
-0.998572, 249, 179, 312, 194
-0.998572, 257, 193, 320, 208
-0.998574, 33, 139, 96, 154
-0.998577, 9, 59, 72, 74
-0.998577, 321, 291, 384, 306
-0.998578, 169, 191, 232, 206
-0.998578, 49, 177, 112, 192
-0.998579, 3, 225, 18, 256
-0.99858, 273, 293, 336, 308
-0.998583, 1, 141, 64, 156
-0.998583, 33, 101, 96, 116
-0.998583, 201, 97, 264, 112
-0.998583, 249, 85, 264, 116
-0.998585, 273, 287, 336, 302
-0.998585, 47, 65, 62, 96
-0.998587, 57, 91, 120, 106
-0.998587, 33, 227, 96, 242
-0.998588, 61, 245, 76, 276
-0.99859, 161, 131, 224, 146
-0.998591, 281, 299, 344, 314
-0.998591, 33, 111, 96, 126
-0.998592, 285, 157, 300, 188
-0.998594, 345, 301, 360, 332
-0.998595, 137, 187, 200, 202
-0.998595, 241, 283, 304, 298
-0.998595, 17, 53, 80, 68
-0.998596, 175, 129, 190, 160
-0.998596, 47, 197, 62, 228
-0.998597, 33, 145, 96, 160
-0.9986, 69, 273, 84, 304
-0.998601, 417, 97, 480, 352
-0.998602, 1, 147, 64, 162
-0.998602, 237, 177, 268, 304
-0.998603, 41, 211, 104, 226
-0.998605, 49, 311, 112, 326
-0.998609, 257, 209, 320, 224
-0.99861, 297, 321, 360, 336
-0.998611, 337, 307, 400, 322
-0.998612, 25, 329, 88, 344
-0.998612, 33, 335, 96, 350
-0.998612, 337, 319, 400, 334
-0.998613, 79, 333, 94, 364
-0.998614, 3, 49, 18, 176
-0.998616, 257, 199, 320, 214
-0.998617, 1, 135, 64, 150
-0.998617, 337, 297, 400, 312
-0.998617, 233, 137, 296, 152
-0.998618, 1, 175, 64, 190
-0.998619, 41, 81, 104, 96
-0.99862, 17, 85, 32, 116
-0.998623, 209, 87, 272, 102
-0.998623, 233, 187, 296, 202
-0.998625, 33, 95, 96, 110
-0.998625, 1, 173, 16, 204
-0.998625, 281, 315, 344, 330
-0.998625, 297, 283, 360, 298
-0.998625, 33, 127, 96, 142
-0.998626, 313, 305, 376, 320
-0.998627, 57, 97, 120, 112
-0.998627, 353, 289, 368, 320
-0.998628, 293, 189, 308, 220
-0.998631, 249, 165, 312, 180
-0.998631, 1, 153, 64, 168
-0.998631, 241, 157, 304, 172
-0.998631, 257, 219, 320, 234
-0.998632, 187, 173, 202, 204
-0.998633, 73, 209, 88, 240
-0.998633, 169, 289, 232, 304
-0.998633, 299, 313, 314, 344
-0.998633, 59, 49, 74, 176
-0.998635, 67, 201, 82, 232
-0.998636, 193, 193, 256, 208
-0.998637, 257, 225, 320, 240
-0.998637, 337, 313, 400, 328
-0.998638, 49, 317, 112, 332
-0.998639, 49, 305, 112, 320
-0.99864, 41, 151, 104, 166
-0.998641, 1, 95, 64, 110
-0.998641, 33, 163, 96, 178
-0.998641, 81, 169, 96, 200
-0.998641, 469, 193, 500, 320
-0.998641, 41, 237, 104, 252
-0.998641, 273, 325, 336, 340
-0.998642, 209, 103, 272, 118
-0.998643, 265, 269, 328, 284
-0.998644, 177, 185, 240, 200
-0.998645, 305, 327, 368, 342
-0.998645, 271, 129, 286, 160
-0.998646, 383, 289, 398, 320
-0.998646, 65, 209, 128, 224
-0.998647, 249, 173, 312, 188
-0.998647, 313, 297, 376, 312
-0.998648, 89, 175, 152, 190
-0.99865, 1, 71, 64, 86
-0.998651, 1, 333, 64, 348
-0.998651, 49, 221, 112, 236
-0.998651, 345, 291, 408, 306
-0.998652, 9, 353, 72, 368
-0.998652, 257, 187, 320, 202
-0.998652, 329, 305, 344, 336
-0.998653, 41, 359, 104, 374
-0.998653, 137, 179, 200, 194
-0.998653, 201, 283, 264, 298
-0.998654, 149, 141, 164, 172
-0.998654, 41, 205, 104, 220
-0.998654, 81, 303, 144, 318
-0.998654, 1, 181, 64, 196
-0.998655, 217, 193, 280, 208
-0.998655, 65, 85, 128, 100
-0.998655, 41, 243, 104, 258
-0.998656, 369, 9, 496, 40
-0.998656, 205, 109, 220, 140
-0.998656, 277, 245, 292, 276
-0.998656, 9, 231, 72, 246
-0.998657, 209, 165, 272, 180
-0.998657, 57, 105, 120, 120
-0.998661, 1, 169, 64, 184
-0.998661, 289, 187, 352, 202
-0.998661, 57, 145, 120, 160
-0.998661, 73, 351, 136, 366
-0.998662, 69, 145, 84, 176
-0.998662, 25, 117, 88, 132
-0.998663, 257, 231, 320, 246
-0.998663, 1, 161, 64, 176
-0.998663, 209, 109, 272, 124
-0.998664, 129, 149, 192, 164
-0.998664, 65, 129, 128, 144
-0.998664, 321, 21, 448, 52
-0.998664, 41, 187, 104, 202
-0.998665, 1, 77, 64, 92
-0.998666, 105, 45, 168, 60
-0.998666, 241, 289, 304, 304
-0.998666, 41, 195, 104, 210
-0.998666, 137, 143, 200, 158
-0.998666, 169, 199, 232, 214
-0.998666, 185, 125, 248, 140
-0.998667, 49, 55, 112, 70
-0.998667, 305, 315, 368, 330
-0.998667, 209, 81, 272, 96
-0.998667, 321, 283, 384, 298
-0.998668, 89, 143, 152, 158
-0.998668, 281, 331, 344, 346
-0.998669, 241, 277, 304, 292
-0.998669, 1, 129, 64, 144
-0.99867, 225, 21, 352, 52
-0.99867, 105, 135, 168, 150
-0.998671, 49, 75, 112, 90
-0.998672, 169, 283, 232, 298
-0.998673, 241, 265, 304, 280
-0.998673, 281, 307, 344, 322
-0.998673, 1, 241, 500, 304
-0.998674, 57, 49, 120, 64
-0.998678, 65, 25, 192, 56
-0.998679, 289, 265, 416, 296
-0.998683, 161, 305, 288, 336
-0.99869, 325, 1, 356, 256
-0.998696, 369, 21, 496, 52
-0.9987, 97, 245, 224, 276
-0.99872, 129, 21, 256, 52
-0.998725, 333, 33, 364, 160
-0.998756, 97, 65, 224, 96
-0.998766, 369, 313, 496, 344
-0.998769, 49, 249, 176, 280
-0.998773, 285, 129, 316, 375
-0.998776, 309, 1, 340, 256
-0.998786, 53, 49, 68, 176
-0.998799, 9, 49, 24, 176
-0.998808, 137, 97, 168, 352
-0.998828, 369, 97, 432, 224
-0.99883, 377, 97, 440, 352
-0.998832, 97, 53, 224, 84
-0.998835, 369, 129, 496, 192
-0.998839, 217, 97, 248, 352
-0.998842, 377, 241, 408, 368
-0.998845, 177, 21, 304, 52
-0.99885, 13, 97, 44, 352
-0.998882, 11, 1, 26, 128
-0.998886, 161, 317, 288, 348
-0.998897, 77, 129, 108, 375
-0.998898, 33, 13, 160, 44
-0.998898, 305, 9, 432, 40
-0.998906, 353, 1, 384, 256
-0.998906, 341, 241, 372, 368
-0.998945, 369, 329, 496, 360
-0.998953, 21, 49, 36, 176
-0.998954, 365, 1, 396, 256
-0.998968, 17, 1, 32, 128
-0.998969, 273, 125, 400, 156
-0.998972, 285, 145, 300, 272
-0.998974, 53, 129, 68, 256
-0.998989, 177, 113, 192, 240
-0.998994, 139, 129, 154, 256
-0.998997, 47, 49, 62, 176
-0.998997, 337, 1, 368, 256
-0.999007, 277, 177, 292, 304
-0.999007, 205, 97, 236, 352
-0.999013, 155, 129, 170, 256
-0.999018, 149, 129, 164, 256
-0.999019, 197, 113, 212, 240
-0.999022, 15, 49, 30, 176
-0.999024, 171, 113, 186, 240
-0.999026, 165, 113, 180, 240
-0.999035, 377, 1, 408, 256
-0.999052, 47, 113, 62, 240
-0.999052, 353, 277, 480, 308
-0.999057, 291, 241, 306, 368
-0.999066, 65, 65, 80, 192
-0.999068, 49, 233, 176, 264
-0.999092, 291, 161, 306, 288
-0.999094, 273, 113, 288, 240
-0.999101, 23, 1, 38, 128
-0.999101, 175, 177, 190, 304
-0.999103, 183, 113, 198, 240
-0.999107, 377, 33, 408, 160
-0.999116, 133, 129, 148, 256
-0.999118, 465, 113, 496, 240
-0.999125, 249, 65, 264, 192
-0.999131, 67, 129, 82, 256
-0.999132, 5, 1, 20, 128
-0.999139, 69, 241, 84, 368
-0.999142, 57, 1, 72, 128
-0.999155, 239, 33, 254, 160
-0.999158, 227, 33, 242, 160
-0.999164, 279, 129, 294, 256
-0.999169, 59, 129, 74, 256
-0.999174, 29, 1, 44, 128
-0.999181, 257, 9, 384, 40
-0.999188, 289, 169, 416, 200
-0.999189, 191, 113, 206, 240
-0.999198, 1, 193, 16, 320
-0.9992, 257, 73, 500, 136
-0.999201, 207, 33, 222, 160
-0.999212, 3, 97, 18, 224
-0.999213, 199, 33, 214, 160
-0.999214, 221, 33, 236, 160
-0.999216, 259, 33, 274, 160
-0.999226, 55, 225, 70, 352
-0.999227, 51, 177, 66, 304
-0.999231, 203, 113, 218, 240
-0.999232, 145, 9, 272, 40
-0.999245, 97, 97, 128, 352
-0.999252, 61, 241, 76, 368
-0.999258, 271, 177, 286, 304
-0.999264, 273, 225, 288, 352
-0.999267, 209, 81, 224, 208
-0.999268, 47, 1, 62, 128
-0.999269, 73, 113, 88, 240
-0.999269, 369, 161, 496, 224
-0.999271, 169, 161, 184, 288
-0.999273, 39, 49, 54, 176
-0.999277, 233, 49, 248, 176
-0.99928, 213, 33, 228, 160
-0.99929, 267, 113, 282, 240
-0.999292, 67, 17, 82, 144
-0.999305, 1, 145, 16, 272
-0.999309, 257, 97, 272, 224
-0.999319, 285, 241, 300, 368
-0.999328, 193, 33, 208, 160
-0.999328, 41, 113, 56, 240
-0.999343, 27, 65, 42, 192
-0.999348, 177, 33, 192, 160
-0.999349, 71, 65, 86, 192
-0.999352, 77, 1, 108, 128
-0.999363, 185, 177, 200, 304
-0.999364, 45, 177, 60, 304
-0.999365, 249, 17, 264, 144
-0.999367, 233, 1, 248, 128
-0.999369, 75, 241, 90, 368
-0.999378, 265, 33, 280, 160
-0.999379, 185, 33, 200, 160
-0.999385, 79, 129, 94, 256
-0.999393, 73, 1, 104, 256
-0.999394, 1, 241, 16, 368
-0.9994, 109, 97, 140, 352
-0.999402, 171, 33, 186, 160
-0.999405, 283, 193, 298, 320
-0.999431, 7, 209, 22, 336
-0.999433, 67, 177, 82, 304
-0.999435, 273, 49, 288, 176
-0.999437, 127, 129, 142, 256
-0.999438, 113, 33, 128, 160
-0.999438, 161, 161, 176, 288
-0.999448, 81, 81, 96, 208
-0.999451, 145, 177, 160, 304
-0.999458, 49, 225, 64, 352
-0.999458, 125, 97, 156, 352
-0.999462, 165, 33, 180, 160
-0.99947, 279, 241, 294, 368
-0.999473, 59, 177, 74, 304
-0.999476, 33, 65, 48, 192
-0.999482, 297, 177, 312, 304
-0.999484, 145, 81, 160, 208
-0.999485, 215, 81, 230, 208
-0.999493, 225, 193, 256, 320
-0.999497, 251, 113, 266, 240
-0.999506, 35, 1, 50, 128
-0.999514, 83, 225, 98, 352
-0.999517, 227, 81, 242, 208
-0.999522, 273, 57, 400, 120
-0.999527, 137, 81, 152, 208
-0.99953, 183, 241, 198, 368
-0.999532, 155, 33, 170, 160
-0.999532, 279, 33, 294, 160
-0.999536, 249, 97, 264, 112
-0.999536, 45, 101, 60, 116
-0.999537, 27, 65, 42, 80
-0.999537, 269, 131, 284, 146
-0.999538, 69, 275, 84, 290
-0.999538, 67, 211, 82, 226
-0.999538, 321, 277, 336, 292
-0.999538, 1, 271, 16, 286
-0.999538, 267, 239, 282, 254
-0.999539, 19, 51, 34, 66
-0.999539, 53, 193, 68, 208
-0.99954, 297, 225, 312, 352
-0.999542, 73, 161, 88, 288
-0.999543, 155, 187, 170, 202
-0.999543, 261, 281, 276, 296
-0.999543, 61, 147, 76, 162
-0.999543, 307, 289, 322, 304
-0.999544, 151, 177, 166, 304
-0.999544, 181, 187, 196, 202
-0.999544, 7, 69, 22, 84
-0.999544, 59, 71, 74, 86
-0.999545, 71, 165, 86, 180
-0.999545, 357, 309, 372, 324
-0.999546, 345, 293, 360, 308
-0.999546, 187, 129, 202, 144
-0.999546, 383, 321, 398, 336
-0.999546, 151, 81, 166, 208
-0.999546, 113, 45, 128, 60
-0.999547, 59, 159, 74, 174
-0.999547, 147, 187, 162, 202
-0.999547, 183, 199, 198, 214
-0.999547, 181, 193, 196, 208
-0.999548, 253, 119, 268, 134
-0.999548, 55, 325, 70, 340
-0.999548, 253, 285, 268, 300
-0.999549, 29, 55, 44, 70
-0.999549, 9, 233, 24, 248
-0.999549, 87, 347, 102, 362
-0.999549, 347, 305, 362, 320
-0.999549, 29, 331, 44, 346
-0.99955, 49, 233, 64, 248
-0.99955, 309, 273, 324, 288
-0.999551, 171, 133, 186, 148
-0.999551, 13, 91, 28, 106
-0.999552, 53, 201, 68, 216
-0.999552, 457, 193, 488, 320
-0.999552, 61, 283, 76, 298
-0.999552, 15, 63, 30, 78
-0.999552, 275, 227, 290, 242
-0.999552, 69, 317, 84, 332
-0.999554, 57, 141, 72, 156
-0.999554, 61, 275, 76, 290
-0.999554, 339, 315, 354, 330
-0.999554, 341, 301, 356, 316
-0.999555, 63, 307, 78, 322
-0.999555, 133, 151, 148, 166
-0.999556, 1, 209, 500, 272
-0.999556, 47, 55, 62, 70
-0.999557, 249, 161, 264, 176
-0.999557, 55, 211, 70, 226
-0.999558, 47, 65, 62, 80
-0.999559, 155, 139, 170, 154
-0.999559, 25, 81, 40, 96
-0.99956, 3, 231, 18, 246
-0.999561, 19, 87, 34, 102
-0.999561, 79, 335, 94, 350
-0.999561, 325, 291, 340, 306
-0.999562, 69, 305, 84, 320
-0.999562, 363, 303, 378, 318
-0.999562, 75, 317, 90, 332
-0.999564, 69, 269, 84, 284
-0.999564, 115, 129, 130, 256
-0.999565, 85, 129, 100, 256
-0.999565, 39, 129, 54, 144
-0.999566, 23, 57, 38, 72
-0.999566, 35, 115, 50, 130
-0.999567, 89, 329, 104, 344
-0.999568, 253, 127, 268, 142
-0.999568, 39, 103, 54, 118
-0.99957, 351, 289, 366, 304
-0.999571, 147, 143, 162, 158
-0.999571, 49, 207, 64, 222
-0.999571, 59, 265, 74, 280
-0.999571, 275, 133, 290, 148
-0.999571, 337, 323, 352, 338
-0.999571, 141, 147, 156, 162
-0.999573, 61, 99, 76, 114
-0.999573, 275, 201, 290, 216
-0.999574, 243, 113, 258, 240
-0.999574, 157, 81, 172, 208
-0.999574, 51, 223, 66, 238
-0.999575, 197, 177, 228, 304
-0.999575, 239, 189, 254, 204
-0.999575, 77, 167, 92, 182
-0.999575, 359, 289, 374, 304
-0.999576, 45, 127, 60, 142
-0.999576, 137, 181, 152, 196
-0.999577, 57, 63, 72, 78
-0.999577, 377, 303, 392, 318
-0.999578, 127, 1, 142, 128
-0.999578, 57, 219, 72, 234
-0.999578, 81, 329, 96, 344
-0.999579, 285, 33, 300, 160
-0.99958, 39, 135, 54, 150
-0.99958, 291, 97, 306, 224
-0.999581, 249, 187, 264, 202
-0.999581, 107, 129, 122, 256
-0.999582, 43, 95, 58, 110
-0.999582, 313, 241, 328, 368
-0.999582, 45, 117, 60, 132
-0.999583, 251, 103, 266, 118
-0.999583, 21, 65, 36, 80
-0.999585, 63, 317, 78, 332
-0.999585, 305, 241, 320, 368
-0.999587, 55, 105, 70, 120
-0.999587, 209, 129, 224, 256
-0.999587, 43, 89, 58, 104
-0.999587, 275, 195, 290, 210
-0.999588, 39, 121, 54, 136
-0.999591, 51, 133, 66, 148
-0.999592, 65, 81, 80, 96
-0.999593, 169, 185, 184, 200
-0.999596, 53, 75, 68, 90
-0.999601, 59, 77, 74, 92
-0.999602, 63, 153, 78, 168
-0.999605, 265, 177, 280, 304
-0.999606, 57, 51, 72, 66
-0.999608, 73, 323, 88, 338
-0.999608, 221, 81, 236, 208
-0.999609, 133, 1, 148, 128
-0.99961, 47, 109, 62, 124
-0.999613, 67, 87, 82, 102
-0.999614, 49, 239, 64, 254
-0.999615, 197, 125, 212, 140
-0.999616, 145, 1, 160, 128
-0.999624, 85, 323, 100, 338
-0.999627, 51, 139, 66, 154
-0.999627, 121, 1, 136, 128
-0.999628, 39, 161, 54, 288
-0.999628, 177, 225, 192, 352
-0.999628, 285, 97, 300, 224
-0.99963, 447, 193, 462, 320
-0.999632, 235, 113, 250, 240
-0.999641, 63, 93, 78, 108
-0.999644, 207, 97, 222, 112
-0.999644, 69, 159, 84, 174
-0.999646, 423, 193, 438, 320
-0.999646, 49, 93, 64, 108
-0.999651, 61, 325, 76, 340
-0.999651, 139, 1, 154, 128
-0.999659, 23, 71, 38, 86
-0.999659, 31, 75, 46, 90
-0.99966, 79, 323, 94, 338
-0.999662, 49, 213, 64, 228
-0.999662, 45, 139, 60, 154
-0.999663, 41, 111, 56, 126
-0.999681, 55, 99, 70, 114
-0.999727, 45, 133, 60, 148
-0.999733, 205, 241, 236, 368
-0.999758, 409, 1, 440, 256
-0.999768, 25, 129, 56, 375
-0.999774, 59, 83, 74, 98
-0.999779, 55, 89, 70, 104
-0.999801, 421, 1, 452, 256
-0.999881, 297, 129, 328, 375
-1.00009, 457, 1, 488, 256
-1.00014, 429, 241, 460, 368
-1.0002, 465, 97, 496, 352
-1.00026, 405, 129, 436, 375
-1.00036, 421, 97, 452, 352
-1.00046, 433, 1, 464, 256
-1.00047, 449, 97, 480, 352
-1.00049, 421, 145, 452, 272
-1.00053, 469, 1, 500, 256
-1.00055, 149, 225, 180, 352
-1.00055, 445, 1, 476, 256
-1.00068, 317, 129, 348, 375
-1.00069, 289, 49, 320, 176
-1.00072, 433, 97, 464, 352
-1.00076, 117, 177, 148, 304
-1.00079, 337, 129, 368, 375
-1.00096, 129, 225, 160, 352
-1.00098, 365, 129, 396, 375
-1.001, 377, 97, 408, 352
-1.00105, 401, 129, 432, 256
-1.00116, 349, 129, 380, 375
-1.00116, 417, 1, 448, 128
-1.00117, 389, 241, 420, 368
-1.0012, 393, 129, 424, 375
-1.00125, 273, 81, 400, 144
-1.00133, 105, 225, 136, 352
-1.00154, 461, 17, 492, 144
-1.00167, 305, 193, 336, 320
-1.00173, 401, 241, 432, 368
-1.00187, 17, 241, 48, 368
-1.00191, 433, 1, 496, 256
-1.00198, 433, 65, 496, 192
-1.00208, 209, 193, 240, 320
-1.00371, 345, 49, 408, 176
-1.00394, 329, 129, 392, 375
-1.00443, 353, 193, 416, 320
-1.00511, 313, 177, 376, 304
-1.00526, 297, 49, 360, 176
-1.00546, 353, 129, 416, 375
-1.00581, 433, 1, 496, 128
-1.00919, 329, 113, 392, 240
-1.01129, 305, 97, 368, 224
-1.0125, 353, 145, 416, 272
