1972
-0.387994, 1, 65, 500, 320
-0.514149, 161, 97, 416, 352
-0.520211, 1, 1, 500, 375
-0.581769, 193, 1, 448, 375
-0.637286, 1, 1, 256, 375
-0.641581, 65, 97, 320, 352
-0.64697, 97, 1, 352, 375
-0.663695, 257, 97, 500, 352
-0.79782, 1, 1, 256, 256
-0.808725, 161, 1, 416, 256
-0.821632, 257, 1, 500, 256
-0.847482, 145, 97, 272, 352
-0.848647, 209, 65, 336, 320
-0.870711, 257, 97, 384, 352
-0.870857, 97, 97, 224, 352
-0.874553, 1, 113, 500, 240
-0.875162, 305, 97, 432, 352
-0.880676, 33, 97, 160, 352
-0.892313, 1, 225, 500, 352
-0.895819, 353, 65, 480, 320
-0.901695, 33, 1, 160, 375
-0.902621, 225, 1, 352, 375
-0.902795, 273, 1, 400, 375
-0.908545, 97, 113, 352, 240
-0.908643, 1, 161, 500, 288
-0.911378, 145, 1, 272, 375
-0.912549, 369, 1, 496, 375
-0.914515, 97, 161, 352, 288
-0.9149, 321, 1, 448, 375
-0.9154, 81, 1, 208, 256
-0.915695, 193, 97, 448, 224
-0.921765, 81, 1, 208, 375
-0.922816, 145, 1, 272, 256
-0.924892, 225, 193, 480, 320
-0.928907, 257, 1, 384, 256
-0.932097, 145, 113, 272, 240
-0.93462, 1, 1, 128, 256
-0.935897, 1, 145, 256, 272
-0.936066, 281, 177, 344, 304
-0.937384, 121, 145, 184, 272
-0.937452, 305, 1, 432, 256
-0.938032, 97, 97, 224, 224
-0.938044, 265, 97, 328, 224
-0.938459, 241, 193, 368, 320
-0.938585, 1, 97, 256, 224
-0.938649, 209, 97, 336, 224
-0.938845, 65, 225, 320, 352
-0.938872, 273, 97, 400, 224
-0.940216, 49, 129, 176, 256
-0.941399, 1, 65, 500, 192
-0.942489, 145, 161, 272, 288
-0.942607, 137, 97, 200, 224
-0.94297, 369, 97, 496, 224
-0.942982, 97, 145, 224, 272
-0.945196, 169, 145, 232, 272
-0.946316, 73, 129, 136, 256
-0.946633, 321, 97, 384, 224
-0.946834, 425, 97, 488, 224
-0.946946, 241, 97, 304, 224
-0.947034, 209, 113, 272, 240
-0.947462, 321, 209, 448, 336
-0.948184, 193, 193, 320, 320
-0.948573, 193, 241, 448, 368
-0.948753, 97, 97, 160, 224
-0.949661, 193, 145, 448, 272
-0.949759, 321, 113, 448, 240
-0.949881, 193, 145, 320, 272
-0.950446, 321, 161, 448, 288
-0.951225, 1, 113, 128, 240
-0.952313, 289, 113, 352, 240
-0.952609, 33, 97, 96, 224
-0.952909, 273, 145, 400, 272
-0.953001, 361, 193, 424, 320
-0.953011, 241, 193, 304, 320
-0.953785, 201, 161, 264, 288
-0.95399, 97, 177, 160, 304
-0.955024, 185, 97, 248, 224
-0.955558, 313, 193, 376, 320
-0.95728, 1, 81, 64, 208
-0.958133, 385, 113, 448, 240
-0.958335, 49, 177, 176, 304
-0.959461, 49, 81, 176, 208
-0.960071, 33, 49, 288, 176
-0.960597, 361, 113, 424, 240
-0.96081, 81, 121, 144, 184
-0.960928, 49, 113, 112, 176
-0.961002, 249, 97, 312, 160
-0.961161, 369, 161, 496, 288
-0.961607, 337, 193, 400, 320
-0.961877, 81, 161, 144, 224
-0.962276, 233, 145, 296, 272
-0.9626, 145, 177, 208, 304
-0.962799, 1, 161, 128, 288
-0.96341, 113, 193, 176, 256
-0.963441, 1, 97, 64, 160
-0.963531, 121, 169, 184, 232
-0.963678, 97, 193, 224, 320
-0.96388, 273, 177, 336, 240
-0.964147, 409, 113, 472, 176
-0.964606, 177, 97, 240, 352
-0.964669, 113, 137, 176, 200
-0.964728, 385, 177, 448, 304
-0.964944, 273, 121, 336, 184
-0.96502, 177, 177, 240, 240
-0.965057, 161, 97, 224, 224
-0.965083, 137, 137, 200, 200
-0.965529, 321, 121, 384, 184
-0.965769, 273, 65, 336, 320
-0.965872, 137, 113, 200, 176
-0.966029, 273, 97, 336, 160
-0.966067, 329, 145, 392, 272
-0.966087, 225, 49, 480, 176
-0.966657, 33, 145, 96, 208
-0.967093, 129, 49, 384, 176
-0.96755, 313, 185, 376, 248
-0.96761, 145, 225, 272, 352
-0.967752, 241, 217, 304, 280
-0.96786, 9, 145, 72, 208
-0.968036, 177, 129, 240, 192
-0.968105, 273, 241, 400, 368
-0.968206, 233, 97, 296, 352
-0.968223, 313, 97, 376, 352
-0.968351, 337, 241, 400, 368
-0.968357, 249, 177, 312, 240
-0.968482, 125, 193, 156, 256
-0.968629, 249, 121, 312, 184
-0.969307, 25, 145, 88, 272
-0.969467, 25, 105, 88, 168
-0.96983, 385, 121, 448, 184
-0.970189, 201, 97, 264, 352
-0.970206, 153, 201, 216, 264
-0.970394, 409, 177, 472, 304
-0.970795, 121, 193, 184, 320
-0.970924, 433, 113, 496, 176
-0.970982, 209, 129, 272, 192
-0.971177, 297, 97, 360, 160
-0.971562, 209, 241, 336, 368
-0.971635, 321, 65, 448, 192
-0.971816, 369, 209, 496, 336
-0.971885, 241, 145, 304, 208
-0.97208, 57, 153, 120, 216
-0.972305, 57, 81, 120, 208
-0.972412, 313, 233, 376, 296
-0.972451, 209, 177, 272, 240
-0.972924, 105, 105, 168, 168
-0.973113, 145, 65, 272, 192
-0.973154, 257, 145, 320, 272
-0.973182, 313, 241, 376, 368
-0.973187, 345, 121, 408, 184
-0.973335, 81, 193, 144, 256
-0.973342, 153, 97, 216, 352
-0.973826, 401, 225, 464, 352
-0.973944, 225, 105, 288, 168
-0.974073, 49, 145, 112, 272
-0.974201, 109, 145, 140, 272
-0.974214, 121, 233, 184, 296
-0.974227, 49, 161, 176, 224
-0.974274, 241, 201, 368, 264
-0.97428, 65, 137, 192, 200
-0.974382, 129, 129, 160, 256
-0.974409, 217, 209, 280, 336
-0.974623, 249, 225, 280, 288
-0.974848, 129, 161, 160, 224
-0.974936, 145, 145, 176, 272
-0.975039, 433, 145, 496, 272
-0.975246, 369, 241, 432, 304
-0.975355, 129, 97, 192, 352
-0.975468, 189, 129, 220, 256
-0.97547, 73, 177, 136, 304
-0.975519, 273, 225, 336, 352
-0.975558, 213, 113, 244, 240
-0.975623, 297, 161, 360, 224
-0.975694, 409, 233, 472, 296
-0.975732, 273, 249, 336, 312
-0.975757, 161, 129, 288, 192
-0.975833, 385, 201, 448, 264
-0.975836, 105, 97, 136, 224
-0.9759, 293, 97, 324, 224
-0.976054, 85, 129, 116, 256
-0.976089, 257, 97, 288, 160
-0.976163, 305, 49, 368, 176
-0.976222, 145, 169, 208, 232
-0.97624, 265, 49, 328, 176
-0.976352, 41, 97, 104, 352
-0.976628, 337, 233, 400, 296
-0.976635, 97, 233, 160, 296
-0.976638, 1, 17, 500, 144
-0.976644, 129, 169, 256, 232
-0.976746, 309, 113, 340, 240
-0.976876, 49, 225, 176, 352
-0.9769, 217, 217, 280, 280
-0.976965, 133, 177, 164, 304
-0.977073, 237, 113, 268, 240
-0.97715, 361, 209, 424, 272
-0.977152, 273, 113, 304, 240
-0.977197, 337, 209, 400, 272
-0.977322, 145, 169, 176, 232
-0.977361, 217, 153, 280, 216
-0.97744, 161, 97, 192, 224
-0.977511, 281, 97, 312, 160
-0.977543, 241, 241, 304, 304
-0.977663, 113, 137, 240, 200
-0.977687, 225, 177, 352, 240
-0.977699, 281, 161, 312, 288
-0.977708, 65, 113, 192, 176
-0.977713, 353, 97, 416, 352
-0.977728, 401, 89, 464, 152
-0.97789, 81, 97, 144, 352
-0.97805, 409, 97, 472, 352
-0.978053, 33, 169, 96, 232
-0.978187, 297, 177, 328, 304
-0.978189, 297, 121, 360, 184
-0.978276, 413, 121, 444, 184
-0.978292, 145, 233, 208, 296
-0.9783, 1, 145, 64, 272
-0.978353, 345, 169, 408, 232
-0.978451, 69, 121, 100, 184
-0.978466, 1, 65, 128, 192
-0.978527, 185, 241, 248, 304
-0.978564, 273, 121, 400, 184
-0.978645, 321, 193, 352, 320
-0.978647, 225, 49, 352, 176
-0.978717, 361, 193, 392, 320
-0.978819, 173, 129, 204, 256
-0.978847, 121, 177, 152, 304
-0.978872, 49, 105, 80, 168
-0.97899, 109, 137, 140, 200
-0.978997, 113, 169, 144, 232
-0.979233, 225, 121, 352, 184
-0.979245, 1, 65, 64, 320
-0.979274, 273, 217, 336, 280
-0.979427, 289, 233, 416, 296
-0.979443, 433, 137, 496, 200
-0.979446, 97, 201, 224, 264
-0.979473, 89, 137, 120, 200
-0.979559, 17, 105, 144, 168
-0.979581, 185, 225, 248, 352
-0.979639, 261, 225, 292, 288
-0.979735, 409, 201, 472, 264
-0.979768, 69, 113, 100, 240
-0.979833, 177, 169, 304, 232
-0.979837, 145, 225, 208, 352
-0.979887, 145, 137, 176, 200
-0.979892, 429, 105, 460, 168
-0.979959, 89, 113, 120, 176
-0.97996, 321, 161, 384, 224
-0.980055, 125, 137, 156, 200
-0.980071, 241, 97, 368, 160
-0.980094, 433, 209, 496, 336
-0.980123, 333, 193, 364, 320
-0.980171, 161, 105, 224, 168
-0.980176, 17, 137, 144, 200
-0.9802, 153, 193, 184, 256
-0.98021, 457, 97, 488, 224
-0.980227, 49, 193, 176, 256
-0.980251, 141, 193, 172, 256
-0.980266, 225, 113, 256, 240
-0.980305, 321, 257, 384, 320
-0.980341, 9, 169, 72, 232
-0.980362, 321, 121, 448, 184
-0.980416, 369, 241, 432, 368
-0.980456, 397, 129, 428, 192
-0.980472, 377, 65, 440, 192
-0.980514, 201, 113, 232, 240
-0.980521, 321, 209, 448, 272
-0.980549, 297, 97, 328, 160
-0.980612, 261, 193, 292, 320
-0.980688, 285, 177, 316, 240
-0.980761, 253, 97, 284, 224
-0.980787, 345, 193, 376, 320
-0.980799, 201, 105, 264, 168
-0.98082, 385, 169, 448, 232
-0.980836, 209, 65, 272, 192
-0.980872, 117, 217, 148, 280
-0.980889, 401, 49, 464, 176
-0.980957, 193, 217, 320, 280
-0.981021, 289, 177, 416, 240
-0.981033, 25, 105, 56, 168
-0.98113, 353, 265, 416, 328
-0.981161, 161, 145, 192, 272
-0.981225, 329, 97, 360, 224
-0.981244, 377, 265, 440, 328
-0.981315, 33, 97, 64, 224
-0.981496, 321, 97, 384, 160
-0.981535, 153, 113, 184, 176
-0.981667, 257, 185, 288, 248
-0.98176, 425, 89, 488, 152
-0.981768, 369, 241, 496, 304
-0.981818, 81, 97, 144, 160
-0.981822, 65, 233, 192, 296
-0.98199, 393, 113, 424, 240
-0.982011, 269, 97, 300, 160
-0.982054, 341, 97, 372, 224
-0.98209, 369, 121, 496, 184
-0.982099, 429, 81, 460, 208
-0.982147, 241, 233, 368, 296
-0.982184, 209, 241, 272, 304
-0.982241, 165, 201, 196, 264
-0.982348, 113, 113, 240, 176
-0.98246, 173, 177, 204, 240
-0.982471, 157, 169, 188, 232
-0.98249, 413, 113, 444, 240
-0.982514, 173, 177, 204, 304
-0.98259, 273, 153, 336, 216
-0.982592, 97, 145, 128, 272
-0.982648, 325, 121, 356, 184
-0.98268, 441, 97, 472, 224
-0.982878, 173, 137, 204, 200
-0.982984, 1, 161, 128, 224
-0.983006, 361, 97, 424, 160
-0.983041, 245, 129, 276, 192
-0.983073, 369, 113, 400, 240
-0.983087, 161, 193, 288, 256
-0.98312, 177, 153, 240, 216
-0.983127, 113, 233, 240, 296
-0.983141, 321, 257, 448, 320
-0.983258, 469, 113, 500, 240
-0.983261, 309, 193, 340, 256
-0.983265, 105, 129, 168, 375
-0.983279, 1, 121, 64, 184
-0.983341, 433, 97, 496, 352
-0.983377, 309, 177, 340, 304
-0.983387, 469, 113, 500, 176
-0.983438, 177, 105, 304, 168
-0.983528, 245, 185, 276, 248
-0.983585, 273, 49, 400, 176
-0.983619, 81, 161, 112, 224
-0.983622, 37, 105, 68, 168
-0.983627, 433, 161, 496, 224
-0.98365, 21, 81, 52, 208
-0.98383, 233, 161, 264, 288
-0.983859, 361, 145, 424, 208
-0.983942, 129, 81, 160, 208
-0.983962, 145, 97, 176, 224
-0.98397, 377, 97, 440, 352
-0.983979, 117, 97, 148, 224
-0.983991, 25, 81, 88, 144
-0.984031, 101, 113, 132, 176
-0.984165, 297, 185, 328, 248
-0.984172, 257, 145, 288, 272
-0.984214, 113, 193, 144, 256
-0.984214, 193, 249, 320, 312
-0.98422, 5, 89, 36, 152
-0.984292, 193, 129, 224, 192
-0.984316, 81, 225, 144, 352
-0.98434, 177, 49, 240, 176
-0.984363, 37, 145, 68, 208
-0.984414, 337, 185, 464, 248
-0.984416, 445, 113, 476, 176
-0.984428, 233, 49, 296, 176
-0.984433, 345, 65, 408, 192
-0.984482, 1, 81, 32, 208
-0.984529, 309, 121, 340, 184
-0.984529, 101, 169, 132, 232
-0.984542, 49, 89, 112, 152
-0.984557, 185, 177, 216, 240
-0.984623, 273, 257, 400, 320
-0.984667, 369, 145, 496, 208
-0.984713, 225, 129, 256, 192
-0.984732, 297, 257, 360, 320
-0.98477, 49, 97, 80, 224
-0.984802, 353, 97, 480, 160
-0.984891, 433, 225, 496, 288
-0.984913, 241, 153, 368, 216
-0.984924, 353, 97, 384, 224
-0.984954, 337, 121, 368, 184
-0.984978, 213, 161, 244, 288
-0.985022, 281, 121, 312, 184
-0.985112, 433, 49, 496, 176
-0.98512, 241, 153, 272, 216
-0.985194, 293, 129, 324, 192
-0.985195, 401, 193, 432, 320
-0.985249, 9, 153, 40, 216
-0.985259, 457, 113, 488, 176
-0.985296, 177, 1, 240, 256
-0.985335, 125, 105, 156, 168
-0.985335, 321, 185, 352, 248
-0.985362, 385, 145, 448, 208
-0.985452, 321, 145, 352, 272
-0.985633, 409, 145, 472, 208
-0.985663, 33, 1, 96, 256
-0.985676, 373, 161, 404, 288
-0.98575, 153, 209, 184, 336
-0.985992, 265, 121, 296, 184
-0.986073, 313, 97, 344, 160
-0.986082, 409, 265, 472, 328
-0.986087, 345, 241, 376, 368
-0.986162, 289, 97, 416, 160
-0.986215, 57, 185, 120, 248
-0.986247, 49, 129, 80, 192
-0.986259, 209, 129, 240, 192
-0.986264, 105, 217, 136, 280
-0.986283, 433, 185, 496, 248
-0.986452, 25, 153, 56, 216
-0.986519, 321, 233, 352, 296
-0.986558, 185, 81, 216, 208
-0.986661, 165, 113, 196, 176
-0.986711, 341, 185, 372, 248
-0.986718, 237, 225, 268, 288
-0.986723, 385, 121, 416, 184
-0.986763, 89, 81, 120, 208
-0.986831, 249, 193, 280, 320
-0.986859, 309, 249, 340, 312
-0.986963, 269, 177, 300, 240
-0.986979, 337, 233, 368, 296
-0.986986, 277, 209, 308, 336
-0.987007, 161, 137, 192, 200
-0.987008, 321, 209, 352, 272
-0.987033, 409, 177, 472, 240
-0.987046, 69, 153, 100, 216
-0.987048, 201, 161, 232, 288
-0.987052, 113, 49, 176, 176
-0.987108, 425, 177, 456, 304
-0.987146, 353, 105, 384, 168
-0.987154, 313, 209, 376, 272
-0.987169, 369, 49, 496, 176
-0.987319, 277, 225, 308, 288
-0.987329, 305, 1, 368, 375
-0.987386, 405, 161, 436, 224
-0.987408, 201, 1, 264, 256
-0.98742, 325, 97, 356, 160
-0.987493, 389, 161, 420, 288
-0.987527, 313, 161, 344, 224
-0.987563, 245, 105, 276, 168
-0.987634, 369, 273, 496, 336
-0.987718, 417, 185, 448, 248
-0.987774, 261, 153, 292, 216
-0.987774, 1, 209, 128, 336
-0.987778, 405, 201, 436, 264
-0.987786, 65, 225, 128, 288
-0.987803, 105, 33, 168, 288
-0.987865, 373, 209, 404, 336
-0.987865, 25, 129, 56, 192
-0.987879, 113, 113, 144, 176
-0.987914, 269, 249, 300, 312
-0.987971, 281, 249, 312, 312
-0.988018, 433, 265, 496, 328
-0.988018, 273, 1, 336, 375
-0.988056, 25, 1, 88, 375
-0.988082, 193, 217, 256, 280
-0.988109, 289, 153, 416, 216
-0.988112, 413, 177, 444, 304
-0.988173, 109, 209, 140, 336
-0.988174, 141, 113, 172, 176
-0.988311, 137, 1, 200, 256
-0.988441, 417, 145, 448, 208
-0.98846, 57, 161, 88, 224
-0.988489, 185, 177, 216, 304
-0.988594, 233, 177, 264, 240
-0.988632, 229, 153, 260, 216
-0.988694, 153, 217, 184, 280
-0.988719, 1, 129, 32, 192
-0.988764, 173, 81, 204, 208
-0.988775, 389, 209, 420, 336
-0.988843, 365, 201, 396, 264
-0.988997, 97, 193, 128, 256
-0.989004, 237, 225, 268, 352
-0.989079, 73, 161, 104, 288
-0.989126, 241, 1, 304, 256
-0.989169, 1, 1, 64, 375
-0.989174, 369, 209, 496, 272
-0.98922, 297, 1, 360, 256
-0.989291, 329, 241, 360, 368
-0.989291, 353, 201, 384, 264
-0.989298, 337, 145, 368, 272
-0.989315, 49, 121, 112, 152
-0.989336, 353, 169, 384, 232
-0.989394, 277, 145, 308, 208
-0.989411, 1, 73, 64, 136
-0.989417, 33, 109, 96, 140
-0.989494, 65, 89, 192, 152
-0.989498, 73, 177, 136, 208
-0.989519, 193, 241, 224, 304
-0.989524, 281, 65, 312, 192
-0.989537, 365, 113, 396, 176
-0.989546, 97, 121, 160, 152
-0.989606, 329, 113, 392, 144
-0.989671, 105, 193, 168, 224
-0.98976, 297, 117, 360, 148
-0.98977, 97, 241, 224, 368
-0.989781, 81, 157, 144, 188
-0.989828, 137, 233, 168, 296
-0.989872, 177, 233, 208, 296
-0.989879, 381, 113, 412, 240
-0.989903, 81, 201, 144, 232
-0.989906, 425, 113, 488, 144
-0.989955, 137, 197, 200, 228
-0.990001, 33, 169, 96, 200
-0.990203, 97, 177, 160, 208
-0.990214, 361, 205, 424, 236
-0.99022, 273, 101, 336, 132
-0.990221, 73, 121, 136, 152
-0.990225, 49, 137, 112, 168
-0.990241, 309, 225, 340, 352
-0.990255, 381, 201, 412, 264
-0.990304, 249, 1, 312, 375
-0.990322, 233, 201, 264, 264
-0.990327, 241, 133, 304, 164
-0.990331, 145, 137, 208, 168
-0.990343, 297, 105, 360, 136
-0.990344, 217, 133, 280, 164
-0.990351, 1, 109, 64, 140
-0.990358, 309, 217, 340, 280
-0.990359, 357, 241, 388, 368
-0.990372, 337, 97, 368, 160
-0.990392, 265, 117, 328, 148
-0.990401, 61, 97, 92, 160
-0.990404, 97, 177, 352, 240
-0.990409, 9, 165, 72, 196
-0.990418, 49, 193, 112, 320
-0.990474, 177, 177, 240, 208
-0.990481, 33, 193, 96, 256
-0.990486, 33, 49, 96, 176
-0.990493, 345, 129, 408, 160
-0.990501, 305, 197, 368, 228
-0.990503, 113, 233, 176, 264
-0.990538, 17, 141, 80, 172
-0.990566, 89, 141, 152, 172
-0.990587, 297, 257, 328, 320
-0.990591, 385, 125, 448, 156
-0.990611, 329, 185, 392, 216
-0.990614, 265, 185, 328, 216
-0.990627, 137, 185, 200, 216
-0.990635, 121, 137, 184, 168
-0.990637, 321, 249, 384, 280
-0.990669, 81, 1, 144, 256
-0.990674, 361, 117, 424, 148
-0.990683, 393, 201, 424, 264
-0.990709, 265, 133, 328, 164
-0.990815, 409, 233, 472, 264
-0.990827, 241, 117, 304, 148
-0.990852, 33, 157, 96, 188
-0.990864, 321, 125, 384, 156
-0.990868, 193, 137, 256, 168
-0.990908, 377, 193, 440, 224
-0.990909, 417, 193, 480, 224
-0.990931, 17, 217, 144, 280
-0.990939, 57, 165, 120, 196
-0.990942, 329, 161, 360, 224
-0.990962, 345, 1, 408, 375
-0.990972, 9, 177, 72, 208
-0.990977, 105, 217, 168, 248
-0.990989, 461, 161, 492, 288
-0.990996, 249, 101, 312, 132
-0.991049, 361, 253, 424, 284
-0.991056, 9, 121, 72, 152
-0.991059, 185, 105, 216, 168
-0.991065, 205, 177, 236, 240
-0.991072, 121, 121, 184, 152
-0.991076, 249, 217, 312, 248
-0.99108, 205, 241, 236, 304
-0.991093, 113, 165, 176, 196
-0.991113, 441, 161, 472, 288
-0.991121, 405, 241, 436, 304
-0.991122, 9, 153, 72, 184
-0.991163, 401, 113, 464, 144
-0.991179, 385, 1, 448, 256
-0.991209, 81, 189, 144, 220
-0.991216, 265, 89, 328, 120
-0.991225, 161, 125, 224, 156
-0.991239, 169, 193, 232, 224
-0.991261, 297, 185, 360, 216
-0.991304, 209, 177, 272, 208
-0.991308, 161, 241, 224, 272
-0.991312, 233, 201, 296, 232
-0.99132, 225, 213, 288, 244
-0.991327, 41, 145, 72, 272
-0.991351, 421, 233, 452, 296
-0.991355, 417, 1, 480, 375
-0.991362, 409, 265, 472, 296
-0.991366, 169, 137, 232, 168
-0.991391, 233, 181, 296, 212
-0.99142, 289, 133, 352, 164
-0.991443, 273, 253, 336, 284
-0.991447, 357, 145, 388, 272
-0.991449, 329, 197, 392, 228
-0.991466, 9, 33, 72, 160
-0.991487, 49, 189, 112, 220
-0.991487, 89, 49, 152, 176
-0.991524, 233, 165, 296, 196
-0.991525, 81, 213, 144, 244
-0.991538, 1, 97, 64, 128
-0.991557, 217, 121, 280, 152
-0.991568, 417, 1, 480, 256
-0.991569, 49, 1, 112, 375
-0.991579, 289, 225, 320, 352
-0.991582, 233, 65, 264, 192
-0.991582, 225, 121, 480, 184
-0.991583, 137, 165, 200, 196
-0.991592, 89, 233, 152, 264
-0.991618, 217, 241, 248, 304
-0.991623, 41, 217, 104, 280
-0.991642, 241, 233, 304, 264
-0.991664, 217, 105, 248, 168
-0.991665, 113, 205, 176, 236
-0.991666, 361, 265, 424, 296
-0.991669, 177, 201, 208, 264
-0.991675, 297, 173, 360, 204
-0.991696, 297, 245, 360, 276
-0.991705, 409, 125, 472, 156
-0.991707, 273, 197, 336, 228
-0.991717, 17, 81, 144, 144
-0.991727, 185, 125, 248, 156
-0.991734, 17, 17, 144, 144
-0.991734, 65, 129, 320, 192
-0.991749, 73, 109, 136, 140
-0.991759, 433, 269, 496, 300
-0.991767, 217, 161, 248, 224
-0.991776, 1, 129, 500, 192
-0.991785, 425, 101, 488, 132
-0.991786, 425, 225, 456, 352
-0.991796, 193, 197, 256, 228
-0.991814, 345, 241, 408, 272
-0.991822, 245, 249, 276, 312
-0.991823, 393, 169, 424, 232
-0.991829, 393, 101, 456, 132
-0.991835, 297, 209, 328, 272
-0.99186, 257, 173, 320, 204
-0.991864, 217, 65, 248, 192
-0.991877, 373, 177, 404, 240
-0.991892, 353, 193, 416, 224
-0.991919, 401, 205, 464, 236
-0.991933, 385, 141, 448, 172
-0.991937, 29, 177, 60, 240
-0.99199, 57, 153, 120, 184
-0.992001, 201, 249, 264, 280
-0.992008, 433, 237, 496, 268
-0.992041, 409, 145, 472, 176
-0.992056, 385, 253, 448, 284
-0.992065, 241, 145, 304, 176
-0.992065, 313, 65, 344, 192
-0.992071, 81, 1, 144, 375
-0.992071, 433, 149, 496, 180
-0.992112, 241, 253, 304, 284
-0.992121, 209, 161, 272, 192
-0.99213, 65, 153, 320, 216
-0.992134, 217, 237, 280, 268
-0.992135, 433, 225, 496, 256
-0.992135, 177, 165, 240, 196
-0.992141, 137, 237, 200, 268
-0.992141, 25, 81, 56, 144
-0.992144, 1, 185, 128, 248
-0.992158, 385, 233, 448, 264
-0.992173, 73, 249, 136, 312
-0.992176, 121, 1, 184, 375
-0.992208, 225, 105, 288, 136
-0.99221, 433, 137, 496, 168
-0.992213, 329, 261, 392, 292
-0.992232, 329, 209, 392, 240
-0.992251, 369, 217, 432, 248
-0.992258, 273, 209, 336, 240
-0.992259, 253, 229, 284, 260
-0.99226, 421, 209, 452, 272
-0.992266, 41, 213, 104, 244
-0.992273, 469, 65, 500, 192
-0.992305, 409, 181, 472, 212
-0.992308, 269, 201, 300, 264
-0.99231, 65, 225, 128, 256
-0.992311, 429, 81, 460, 144
-0.992317, 257, 249, 288, 312
-0.992326, 257, 73, 320, 136
-0.99234, 385, 265, 448, 296
-0.992386, 425, 129, 456, 256
-0.992393, 225, 1, 288, 375
-0.992397, 125, 201, 156, 232
-0.992432, 225, 201, 480, 264
-0.992462, 137, 109, 200, 140
-0.992463, 61, 65, 92, 192
-0.992472, 137, 153, 200, 184
-0.992479, 77, 121, 108, 152
-0.992486, 333, 109, 364, 140
-0.992496, 433, 105, 464, 136
-0.992502, 281, 145, 344, 176
-0.99251, 57, 113, 88, 144
-0.992531, 433, 177, 496, 208
-0.992535, 161, 97, 416, 160
-0.99254, 361, 149, 424, 180
-0.992541, 337, 225, 400, 256
-0.992544, 361, 181, 424, 212
-0.992544, 257, 169, 500, 232
-0.992555, 109, 189, 140, 220
-0.992562, 301, 189, 332, 220
-0.992569, 101, 121, 132, 152
-0.992572, 33, 109, 64, 140
-0.992578, 125, 181, 156, 212
-0.992583, 125, 169, 156, 200
-0.992604, 65, 233, 320, 296
-0.992605, 201, 209, 264, 240
-0.992616, 117, 213, 148, 244
-0.992618, 161, 233, 416, 296
-0.992621, 433, 257, 496, 288
-0.99263, 361, 229, 424, 260
-0.992649, 313, 117, 344, 148
-0.992662, 161, 1, 224, 375
-0.992666, 269, 65, 300, 192
-0.992666, 321, 105, 352, 136
-0.992674, 293, 117, 324, 148
-0.992688, 345, 117, 376, 148
-0.992699, 413, 225, 444, 352
-0.992704, 409, 129, 440, 160
-0.992705, 117, 121, 148, 152
-0.992711, 9, 105, 40, 136
-0.992724, 153, 137, 184, 168
-0.992726, 205, 209, 236, 336
-0.992737, 89, 121, 120, 152
-0.992742, 341, 249, 372, 280
-0.992745, 257, 133, 288, 164
-0.992746, 141, 197, 172, 228
-0.992748, 101, 177, 132, 208
-0.99275, 321, 201, 352, 232
-0.992758, 269, 213, 300, 244
-0.992759, 389, 133, 420, 164
-0.992784, 89, 137, 120, 168
-0.992785, 261, 101, 292, 132
-0.992792, 81, 169, 112, 200
-0.992797, 325, 125, 356, 156
-0.992802, 245, 133, 276, 164
-0.992808, 249, 217, 280, 248
-0.992824, 285, 93, 316, 124
-0.992837, 369, 205, 400, 236
-0.992845, 129, 121, 160, 152
-0.992846, 273, 121, 304, 152
-0.992849, 137, 49, 200, 176
-0.992853, 13, 165, 44, 196
-0.992867, 113, 141, 144, 172
-0.992871, 125, 137, 156, 168
-0.992879, 1, 177, 256, 240
-0.99288, 273, 133, 304, 164
-0.992882, 241, 241, 304, 368
-0.992889, 153, 197, 184, 228
-0.992891, 293, 133, 324, 164
-0.992895, 61, 173, 92, 204
-0.992898, 141, 137, 172, 168
-0.992906, 305, 105, 336, 136
-0.992918, 141, 181, 172, 212
-0.992923, 41, 125, 72, 156
-0.992927, 429, 233, 460, 264
-0.992943, 285, 181, 316, 212
-0.992944, 461, 117, 492, 148
-0.992946, 265, 201, 296, 232
-0.99295, 369, 129, 400, 160
-0.992956, 241, 237, 272, 268
-0.992957, 425, 117, 456, 148
-0.992961, 421, 97, 452, 128
-0.992962, 357, 117, 388, 148
-0.992963, 169, 137, 200, 168
-0.992964, 201, 137, 232, 168
-0.992965, 125, 157, 156, 188
-0.992965, 113, 173, 144, 204
-0.992966, 345, 237, 376, 268
-0.992967, 169, 197, 200, 228
-0.992984, 345, 197, 376, 228
-0.992984, 309, 201, 340, 232
-0.992987, 321, 189, 352, 220
-0.992988, 221, 137, 252, 168
-0.992994, 389, 205, 420, 236
-0.993003, 29, 133, 60, 164
-0.993015, 125, 233, 156, 264
-0.993019, 1, 161, 32, 192
-0.993023, 329, 241, 360, 272
-0.993027, 97, 201, 128, 232
-0.993028, 101, 141, 132, 172
-0.99303, 353, 249, 384, 280
-0.99303, 257, 121, 288, 152
-0.993048, 261, 241, 292, 272
-0.993053, 141, 125, 172, 156
-0.993058, 417, 233, 448, 264
-0.99306, 233, 133, 264, 164
-0.99307, 41, 137, 72, 168
-0.993075, 109, 233, 140, 264
-0.993076, 205, 65, 236, 192
-0.993077, 441, 49, 472, 176
-0.993078, 81, 185, 112, 216
-0.993079, 21, 129, 52, 256
-0.99308, 61, 125, 92, 156
-0.99308, 29, 161, 60, 192
-0.993084, 229, 121, 260, 152
-0.993087, 69, 157, 100, 188
-0.993089, 189, 137, 220, 168
-0.993091, 21, 109, 52, 140
-0.993091, 401, 205, 432, 236
-0.993092, 373, 249, 404, 280
-0.993096, 85, 177, 116, 304
-0.993099, 13, 153, 44, 184
-0.9931, 353, 185, 384, 216
-0.993101, 397, 193, 428, 224
-0.993105, 385, 121, 416, 152
-0.993108, 297, 93, 328, 124
-0.99311, 129, 89, 256, 152
-0.993111, 69, 137, 100, 168
-0.993114, 29, 145, 60, 176
-0.993115, 113, 201, 144, 232
-0.993116, 169, 125, 200, 156
-0.993117, 121, 241, 184, 368
-0.993119, 293, 49, 324, 176
-0.993119, 357, 201, 388, 232
-0.993123, 109, 161, 140, 192
-0.993124, 181, 177, 212, 208
-0.993127, 309, 137, 340, 168
-0.993128, 265, 181, 296, 212
-0.993137, 89, 153, 120, 184
-0.993141, 281, 105, 312, 136
-0.993153, 13, 177, 44, 208
-0.993168, 321, 1, 384, 256
-0.993169, 193, 177, 224, 208
-0.99317, 369, 189, 400, 220
-0.99317, 293, 105, 324, 136
-0.99317, 337, 129, 368, 160
-0.993183, 105, 221, 136, 252
-0.993184, 25, 121, 56, 152
-0.993186, 153, 125, 184, 156
-0.99319, 333, 193, 364, 224
-0.993194, 181, 125, 212, 156
-0.993196, 213, 125, 244, 156
-0.9932, 133, 213, 164, 244
-0.993202, 449, 117, 480, 148
-0.993204, 289, 197, 320, 228
-0.993207, 97, 233, 128, 264
-0.993216, 469, 237, 500, 268
-0.99322, 253, 201, 284, 232
-0.99322, 241, 121, 272, 152
-0.993221, 5, 93, 36, 124
-0.993223, 417, 189, 448, 220
-0.993226, 97, 49, 224, 176
-0.993231, 241, 249, 272, 280
-0.993354, 321, 281, 448, 344
-0.993358, 41, 49, 72, 176
-0.993378, 65, 209, 320, 272
-0.993403, 73, 65, 104, 192
-0.993412, 53, 145, 84, 272
-0.993568, 257, 233, 500, 296
-0.993701, 445, 209, 476, 336
-0.993726, 25, 193, 88, 320
-0.99378, 369, 1, 432, 375
-0.993878, 217, 225, 248, 352
-0.993922, 241, 117, 368, 148
-0.993932, 225, 257, 480, 320
-0.993935, 135, 169, 150, 232
-0.993936, 453, 49, 484, 176
-0.993977, 49, 169, 176, 200
-0.994007, 161, 153, 416, 216
-0.994044, 321, 73, 448, 136
-0.994077, 393, 1, 456, 375
-0.994083, 81, 121, 208, 152
-0.994161, 127, 193, 142, 256
-0.994178, 257, 97, 500, 160
-0.994237, 193, 1, 256, 375
-0.994344, 263, 225, 278, 288
-0.994354, 1, 241, 500, 304
-0.994386, 163, 169, 178, 232
-0.994393, 1, 105, 500, 168
-0.994396, 65, 97, 320, 160
-0.994437, 289, 197, 416, 228
-0.994438, 97, 257, 224, 320
-0.99447, 1, 177, 500, 240
-0.994491, 405, 65, 436, 192
-0.994507, 123, 169, 138, 232
-0.994513, 185, 225, 216, 352
-0.994529, 241, 209, 368, 240
-0.994553, 149, 169, 164, 232
-0.994556, 33, 121, 160, 152
-0.994603, 129, 169, 144, 232
-0.994735, 305, 129, 432, 160
-0.994743, 49, 257, 176, 320
-0.994764, 173, 177, 188, 240
-0.994782, 145, 257, 272, 320
-0.994796, 225, 81, 288, 144
-0.994808, 167, 193, 182, 256
-0.994925, 73, 113, 88, 176
-0.994974, 141, 225, 172, 352
-0.994991, 97, 209, 128, 336
-0.995002, 145, 137, 272, 168
-0.995004, 9, 129, 40, 256
-0.99501, 145, 177, 272, 208
-0.995017, 17, 109, 144, 140
-0.995034, 225, 185, 352, 216
-0.995072, 91, 145, 106, 208
-0.995084, 289, 117, 416, 148
-0.995125, 155, 193, 170, 256
-0.995162, 317, 193, 332, 256
-0.995186, 139, 193, 154, 256
-0.995186, 249, 241, 280, 368
-0.995217, 135, 145, 150, 208
-0.995224, 147, 137, 162, 200
-0.995249, 127, 137, 142, 200
-0.995252, 81, 137, 208, 168
-0.995265, 255, 129, 270, 192
-0.995295, 185, 137, 200, 200
-0.995296, 437, 89, 452, 152
-0.995311, 225, 273, 352, 336
-0.995326, 277, 105, 292, 168
-0.995326, 107, 121, 122, 184
-0.995331, 305, 185, 432, 216
-0.995332, 345, 1, 408, 256
-0.995345, 257, 145, 500, 208
-0.995363, 369, 117, 496, 148
-0.995364, 181, 177, 196, 240
-0.995366, 97, 233, 224, 264
-0.995368, 241, 105, 368, 136
-0.995381, 87, 121, 102, 184
-0.995429, 415, 121, 430, 184
-0.995429, 273, 73, 400, 136
-0.995433, 161, 193, 176, 256
-0.99545, 253, 209, 268, 272
-0.995457, 141, 169, 156, 232
-0.995466, 325, 49, 356, 176
-0.995479, 101, 145, 116, 208
-0.995497, 193, 133, 320, 164
-0.995497, 271, 233, 286, 296
-0.995502, 259, 185, 274, 248
-0.995504, 271, 97, 286, 160
-0.995506, 21, 33, 52, 160
-0.995512, 425, 121, 440, 184
-0.995524, 157, 169, 172, 232
-0.995529, 485, 113, 500, 176
-0.995545, 327, 105, 342, 168
-0.99555, 283, 97, 298, 160
-0.995567, 297, 65, 328, 320
-0.995591, 281, 73, 344, 136
-0.995601, 117, 209, 132, 272
-0.995606, 33, 97, 48, 160
-0.995611, 173, 225, 204, 352
-0.995616, 49, 185, 176, 216
-0.99562, 1, 201, 500, 264
-0.995626, 1, 169, 128, 200
-0.995638, 385, 65, 416, 192
-0.995647, 417, 65, 448, 192
-0.995654, 403, 121, 418, 184
-0.99566, 81, 121, 96, 184
-0.995668, 39, 97, 54, 160
-0.995677, 225, 245, 352, 276
-0.995678, 47, 105, 62, 168
-0.995679, 153, 137, 168, 200
-0.995698, 241, 133, 368, 164
-0.995738, 273, 241, 400, 272
-0.995739, 321, 221, 448, 252
-0.995765, 353, 193, 480, 224
-0.995788, 273, 253, 400, 284
-0.995788, 447, 105, 462, 168
-0.995794, 85, 145, 100, 208
-0.995802, 369, 265, 496, 296
-0.995811, 333, 129, 348, 192
-0.995834, 141, 129, 156, 192
-0.995843, 133, 193, 148, 256
-0.995862, 269, 185, 284, 248
-0.995863, 217, 97, 248, 352
-0.995865, 177, 137, 192, 200
-0.99587, 475, 113, 490, 176
-0.995871, 305, 89, 320, 152
-0.995871, 295, 177, 310, 240
-0.995878, 271, 209, 286, 272
-0.995888, 173, 201, 188, 264
-0.99589, 277, 65, 308, 320
-0.995894, 193, 197, 320, 228
-0.995904, 161, 121, 288, 152
-0.995906, 121, 121, 136, 184
-0.99591, 309, 97, 340, 352
-0.995941, 25, 153, 40, 216
-0.995942, 33, 137, 160, 168
-0.995948, 53, 105, 68, 168
-0.995953, 241, 197, 368, 228
-0.995956, 1, 289, 128, 352
-0.995959, 323, 129, 338, 192
-0.995961, 161, 257, 224, 320
-0.995968, 193, 233, 320, 264
-0.995972, 117, 169, 132, 232
-0.995975, 115, 121, 130, 184
-0.995975, 229, 97, 260, 352
-0.995992, 193, 81, 320, 144
-0.995997, 253, 49, 284, 176
-0.995998, 259, 153, 274, 216
-0.996003, 1, 193, 64, 320
-0.996011, 121, 145, 136, 208
-0.996026, 409, 129, 424, 192
-0.996028, 289, 177, 304, 240
-0.996037, 95, 121, 110, 184
-0.99605, 281, 217, 296, 280
-0.996072, 191, 137, 206, 200
-0.996083, 43, 129, 58, 192
-0.996088, 249, 129, 264, 192
-0.996092, 261, 241, 292, 368
-0.996092, 241, 97, 272, 352
-0.996104, 193, 97, 224, 352
-0.996105, 337, 205, 464, 236
-0.996108, 17, 145, 32, 208
-0.996113, 1, 265, 128, 328
-0.99612, 293, 89, 308, 152
-0.996122, 307, 185, 322, 248
-0.996137, 163, 113, 178, 176
-0.996138, 431, 121, 446, 184
-0.996145, 235, 129, 250, 192
-0.996154, 337, 105, 352, 168
-0.996161, 241, 221, 368, 252
-0.996164, 365, 65, 396, 192
-0.996168, 173, 97, 204, 352
-0.996179, 87, 169, 102, 232
-0.996182, 321, 253, 448, 284
-0.996184, 49, 201, 176, 232
-0.996186, 353, 105, 480, 136
-0.996205, 299, 89, 314, 152
-0.996211, 317, 105, 332, 168
-0.996221, 167, 137, 182, 200
-0.996227, 101, 121, 116, 184
-0.996234, 261, 129, 276, 192
-0.996239, 279, 129, 294, 192
-0.996248, 161, 145, 176, 208
-0.996251, 97, 189, 224, 220
-0.996256, 101, 169, 116, 232
-0.996263, 49, 153, 176, 184
-0.99627, 431, 161, 446, 224
-0.996292, 63, 105, 78, 168
-0.996295, 401, 241, 432, 368
-0.996298, 469, 113, 484, 176
-0.996301, 321, 233, 448, 264
-0.996302, 253, 177, 268, 240
-0.996309, 275, 185, 290, 248
-0.996313, 301, 177, 316, 240
-0.996314, 129, 225, 160, 352
-0.996315, 253, 233, 268, 296
-0.996321, 187, 177, 202, 240
-0.996337, 317, 249, 332, 312
-0.996339, 65, 161, 80, 224
-0.996341, 265, 65, 296, 320
-0.996342, 321, 97, 352, 352
-0.996344, 79, 145, 94, 208
-0.996345, 265, 153, 280, 216
-0.996352, 285, 129, 300, 192
-0.996352, 265, 97, 280, 160
-0.996372, 257, 93, 384, 124
-0.996378, 311, 97, 326, 160
-0.996391, 289, 209, 416, 240
-0.996392, 327, 193, 342, 256
-0.996406, 455, 113, 470, 176
-0.996408, 97, 165, 224, 196
-0.996414, 179, 201, 194, 264
-0.996414, 1, 153, 500, 216
-0.996418, 65, 281, 192, 344
-0.99642, 213, 129, 228, 192
-0.996426, 17, 89, 32, 152
-0.996426, 281, 249, 296, 312
-0.996434, 267, 129, 282, 192
-0.996437, 145, 193, 160, 256
-0.996466, 157, 113, 172, 176
-0.996473, 127, 113, 142, 176
-0.996473, 243, 129, 258, 192
-0.996475, 1, 157, 128, 188
-0.996477, 259, 97, 274, 160
-0.996483, 369, 297, 496, 360
-0.996495, 49, 129, 64, 192
-0.996498, 415, 161, 430, 224
-0.996502, 353, 185, 368, 248
-0.996513, 281, 177, 296, 240
-0.996526, 273, 281, 400, 344
-0.996535, 309, 121, 324, 184
-0.996538, 425, 161, 440, 224
-0.996549, 205, 97, 236, 352
-0.996549, 199, 129, 214, 192
-0.996553, 461, 209, 492, 336
-0.996555, 71, 161, 86, 224
-0.996555, 347, 105, 362, 168
-0.996561, 1, 241, 128, 304
-0.996562, 295, 121, 310, 184
-0.996579, 385, 289, 448, 352
-0.996586, 415, 201, 430, 264
-0.996591, 357, 209, 372, 272
-0.996595, 247, 177, 262, 240
-0.996596, 223, 129, 238, 192
-0.996601, 369, 237, 496, 268
-0.996603, 163, 217, 178, 280
-0.996609, 115, 145, 130, 208
-0.996612, 113, 201, 240, 232
-0.996625, 33, 273, 96, 336
-0.996636, 161, 97, 192, 352
-0.99664, 145, 213, 272, 244
-0.996645, 97, 177, 224, 208
-0.99667, 129, 89, 192, 152
-0.996694, 61, 193, 92, 320
-0.996706, 193, 173, 320, 204
-0.996754, 337, 49, 368, 176
-0.996787, 57, 241, 120, 368
-0.996788, 353, 49, 384, 176
-0.996789, 1, 265, 500, 328
-0.996876, 177, 249, 304, 280
-0.996903, 1, 181, 128, 212
-0.996903, 273, 273, 336, 336
-0.99691, 253, 65, 284, 320
-0.996922, 1, 193, 64, 256
-0.996926, 257, 73, 500, 136
-0.996971, 289, 173, 416, 204
-0.996972, 321, 269, 448, 300
-0.996996, 369, 145, 496, 176
-0.997021, 305, 281, 368, 344
-0.997061, 73, 281, 136, 344
-0.997136, 113, 49, 144, 176
-0.997136, 149, 97, 180, 352
-0.997163, 425, 65, 456, 320
-0.997164, 145, 161, 272, 192
-0.99719, 341, 97, 372, 352
-0.997193, 241, 145, 368, 176
-0.997199, 209, 93, 336, 124
-0.997201, 41, 97, 72, 352
-0.997204, 49, 237, 176, 268
-0.99722, 65, 257, 320, 320
-0.997233, 349, 113, 364, 144
-0.99725, 321, 305, 448, 368
-0.997313, 77, 97, 108, 352
-0.997318, 49, 313, 176, 375
-0.997325, 137, 181, 152, 212
-0.997342, 143, 193, 158, 224
-0.997343, 119, 177, 134, 208
-0.997361, 313, 193, 328, 224
-0.997368, 131, 201, 146, 232
-0.997371, 81, 221, 208, 252
-0.997385, 343, 113, 358, 144
-0.997386, 129, 245, 256, 276
-0.997409, 105, 81, 168, 144
-0.997416, 267, 225, 282, 256
-0.997435, 329, 281, 392, 344
-0.997436, 125, 197, 140, 228
-0.997437, 289, 105, 416, 136
-0.99744, 127, 169, 142, 200
-0.997459, 137, 97, 168, 352
-0.997467, 307, 117, 322, 148
-0.997472, 105, 97, 136, 352
-0.997476, 461, 97, 492, 352
-0.997481, 307, 189, 322, 220
-0.997489, 193, 161, 320, 192
-0.997496, 255, 221, 270, 252
-0.9975, 29, 97, 60, 352
-0.99751, 361, 97, 392, 352
-0.997526, 353, 181, 480, 212
-0.997542, 135, 169, 150, 200
-0.997549, 193, 109, 320, 140
-0.997551, 113, 149, 240, 180
-0.997569, 73, 121, 88, 152
-0.997571, 249, 265, 312, 328
-0.997572, 321, 141, 448, 172
-0.997578, 137, 201, 152, 232
-0.99758, 65, 105, 192, 136
-0.997582, 319, 197, 334, 228
-0.997584, 437, 65, 468, 320
-0.997588, 89, 121, 104, 152
-0.997594, 141, 169, 156, 200
-0.997595, 161, 193, 176, 224
-0.997602, 283, 117, 298, 148
-0.997611, 181, 181, 196, 212
-0.997614, 439, 101, 454, 132
-0.997615, 9, 65, 40, 320
-0.997625, 153, 49, 184, 176
-0.997636, 353, 129, 480, 160
-0.997676, 261, 233, 276, 264
-0.99768, 193, 57, 320, 120
-0.997686, 37, 109, 52, 140
-0.997686, 107, 121, 122, 152
-0.997687, 121, 209, 136, 240
-0.997689, 355, 113, 370, 144
-0.99771, 225, 265, 288, 328
-0.997724, 225, 281, 480, 344
-0.997731, 135, 157, 150, 188
-0.997734, 63, 109, 78, 140
-0.997735, 9, 225, 72, 288
-0.997736, 261, 217, 276, 248
-0.997737, 83, 125, 98, 156
-0.997749, 335, 105, 350, 136
-0.997753, 131, 181, 146, 212
-0.997756, 33, 217, 160, 248
-0.997757, 95, 129, 110, 160
-0.997759, 369, 165, 496, 196
-0.99776, 271, 237, 286, 268
-0.997762, 121, 121, 136, 152
-0.997768, 405, 129, 420, 160
-0.997769, 327, 117, 342, 148
-0.997772, 89, 129, 120, 375
-0.997782, 115, 121, 130, 152
-0.997784, 151, 181, 166, 212
-0.997787, 369, 249, 496, 280
-0.997791, 337, 117, 352, 148
-0.997817, 299, 185, 314, 216
-0.99782, 163, 181, 178, 212
-0.997821, 405, 97, 436, 352
-0.997823, 171, 177, 186, 208
-0.997839, 157, 181, 172, 212
-0.997848, 369, 205, 384, 236
-0.997855, 85, 169, 100, 200
-0.99786, 117, 225, 132, 256
-0.997866, 319, 121, 334, 152
-0.997885, 347, 237, 362, 268
-0.997886, 381, 205, 396, 236
-0.99789, 127, 213, 142, 244
-0.997894, 91, 141, 106, 172
-0.997901, 131, 137, 146, 168
-0.997903, 329, 129, 344, 160
-0.997903, 155, 137, 170, 168
-0.997921, 17, 149, 32, 180
-0.997927, 125, 97, 156, 352
-0.997932, 277, 117, 292, 148
-0.997934, 27, 109, 42, 140
-0.997938, 83, 157, 98, 188
-0.997941, 47, 125, 62, 156
-0.997946, 375, 113, 390, 144
-0.997951, 261, 133, 276, 164
-0.997963, 127, 121, 142, 152
-0.997965, 283, 101, 298, 132
-0.997967, 97, 193, 112, 224
-0.997968, 253, 237, 268, 268
-0.99797, 307, 101, 322, 132
-0.99797, 27, 165, 42, 196
-0.997972, 419, 125, 434, 156
-0.997979, 399, 125, 414, 156
-0.997986, 125, 137, 140, 168
-0.997994, 313, 117, 328, 148
-0.998, 105, 177, 120, 208
-0.998009, 301, 117, 316, 148
-0.998011, 289, 121, 304, 152
-0.998015, 25, 153, 40, 184
-0.998015, 313, 105, 328, 136
-0.998016, 113, 109, 240, 140
-0.998018, 367, 117, 382, 148
-0.998022, 279, 133, 294, 164
-0.998027, 241, 169, 368, 200
-0.998029, 115, 141, 130, 172
-0.998029, 163, 137, 178, 168
-0.998032, 65, 65, 96, 320
-0.998032, 267, 133, 282, 164
-0.998033, 261, 205, 276, 236
-0.998039, 193, 221, 320, 252
-0.99805, 433, 97, 448, 128
-0.99805, 171, 197, 186, 228
-0.998051, 329, 105, 344, 136
-0.998064, 177, 197, 192, 228
-0.998067, 367, 249, 382, 280
-0.998073, 47, 109, 62, 140
-0.998077, 285, 133, 300, 164
-0.998078, 275, 213, 290, 244
-0.998079, 101, 121, 116, 152
-0.99808, 181, 137, 196, 168
-0.99809, 53, 121, 68, 152
-0.998091, 91, 153, 106, 184
-0.998093, 257, 157, 384, 188
-0.998096, 57, 109, 72, 140
-0.998097, 3, 173, 18, 204
-0.998099, 1, 81, 500, 144
-0.99811, 75, 169, 90, 200
-0.998111, 147, 165, 162, 196
-0.998113, 193, 177, 208, 208
-0.998113, 149, 193, 164, 224
-0.998113, 389, 97, 420, 352
-0.998116, 141, 137, 156, 168
-0.99812, 411, 129, 426, 160
-0.99812, 119, 189, 134, 220
-0.998121, 331, 201, 346, 232
-0.998131, 31, 97, 46, 128
-0.998133, 273, 133, 288, 164
-0.998135, 415, 153, 430, 184
-0.99814, 17, 57, 144, 120
-0.998141, 173, 137, 188, 168
-0.998142, 387, 205, 402, 236
-0.998157, 147, 137, 162, 168
-0.998159, 375, 205, 390, 236
-0.998159, 125, 185, 140, 216
-0.998161, 17, 161, 32, 192
-0.998163, 429, 233, 444, 264
-0.998172, 21, 105, 36, 136
-0.998175, 449, 97, 480, 352
-0.998178, 275, 105, 290, 136
-0.998178, 253, 133, 268, 164
-0.998179, 237, 161, 252, 192
-0.99818, 85, 141, 100, 172
-0.998181, 133, 121, 148, 152
-0.998184, 245, 133, 260, 164
-0.998191, 415, 193, 430, 224
-0.998192, 361, 113, 376, 144
-0.998195, 469, 117, 484, 148
-0.998197, 293, 181, 308, 212
-0.998201, 485, 121, 500, 152
-0.998203, 53, 141, 68, 172
-0.998203, 57, 1, 120, 256
-0.998238, 377, 97, 408, 352
-0.998258, 101, 49, 132, 176
-0.99826, 309, 1, 340, 256
-0.998276, 177, 149, 304, 180
-0.998279, 53, 97, 84, 352
-0.998283, 337, 281, 464, 312
-0.998306, 369, 225, 496, 256
-0.998328, 193, 1, 224, 256
-0.998343, 225, 257, 352, 288
-0.998375, 337, 93, 464, 124
-0.998386, 41, 139, 72, 154
-0.998387, 9, 113, 40, 128
-0.998387, 297, 101, 328, 116
-0.998387, 113, 177, 144, 192
-0.998387, 97, 233, 128, 248
-0.998387, 105, 133, 136, 148
-0.998388, 361, 201, 392, 216
-0.998388, 465, 273, 496, 288
-0.998388, 145, 131, 176, 146
-0.998389, 373, 207, 404, 222
-0.998389, 161, 179, 192, 194
-0.998389, 217, 137, 248, 152
-0.998389, 121, 191, 152, 206
-0.99839, 305, 137, 336, 152
-0.998391, 165, 139, 196, 154
-0.998392, 145, 141, 176, 156
-0.998392, 137, 235, 168, 250
-0.998392, 297, 95, 328, 110
-0.998392, 261, 247, 292, 262
-0.998393, 25, 127, 56, 142
-0.998393, 277, 105, 308, 120
-0.998395, 153, 119, 184, 134
-0.998395, 285, 117, 316, 132
-0.998396, 461, 121, 492, 136
-0.998397, 257, 201, 288, 216
-0.998399, 397, 125, 428, 140
-0.998399, 177, 139, 208, 154
-0.998399, 389, 265, 420, 280
-0.998399, 321, 237, 352, 252
-0.9984, 97, 313, 224, 375
-0.9984, 261, 181, 292, 196
-0.9984, 121, 235, 152, 250
-0.998401, 89, 197, 120, 212
-0.998403, 277, 135, 308, 150
-0.998403, 325, 107, 356, 122
-0.998403, 229, 137, 260, 152
-0.998405, 69, 177, 100, 192
-0.998407, 265, 135, 296, 150
-0.998409, 1, 103, 32, 118
-0.998411, 401, 207, 432, 222
-0.998411, 405, 199, 436, 214
-0.998411, 105, 239, 136, 254
-0.998412, 145, 179, 176, 194
-0.998413, 269, 253, 300, 268
-0.998414, 417, 207, 448, 222
-0.998416, 341, 241, 372, 256
-0.998417, 281, 183, 312, 198
-0.998417, 133, 141, 164, 156
-0.998419, 109, 189, 140, 204
-0.998419, 329, 131, 360, 146
-0.99842, 125, 171, 156, 186
-0.99842, 129, 161, 160, 176
-0.99842, 337, 257, 368, 272
-0.99842, 173, 179, 204, 194
-0.998421, 409, 267, 440, 282
-0.998422, 253, 239, 284, 254
-0.998422, 381, 133, 412, 148
-0.998423, 361, 263, 392, 278
-0.998423, 337, 247, 368, 262
-0.998424, 381, 127, 412, 142
-0.998424, 73, 137, 104, 152
-0.998426, 109, 229, 140, 244
-0.998426, 25, 111, 88, 126
-0.998426, 317, 257, 348, 272
-0.998429, 13, 179, 44, 194
-0.99843, 389, 207, 420, 222
-0.998431, 89, 141, 120, 156
-0.998431, 377, 263, 408, 278
-0.998432, 117, 219, 148, 234
-0.998432, 69, 171, 100, 186
-0.998432, 85, 123, 116, 138
-0.998432, 253, 211, 284, 226
-0.998433, 317, 199, 348, 214
-0.998434, 125, 125, 156, 140
-0.998434, 121, 141, 152, 156
-0.998435, 293, 135, 324, 150
-0.998435, 189, 179, 220, 194
-0.998435, 273, 99, 304, 114
-0.998437, 425, 103, 456, 118
-0.998442, 417, 125, 448, 140
-0.998443, 125, 211, 156, 226
-0.998444, 133, 119, 164, 134
-0.998445, 309, 209, 340, 224
-0.998447, 425, 235, 456, 250
-0.998448, 321, 121, 352, 136
-0.998448, 93, 183, 124, 198
-0.998449, 353, 123, 384, 138
-0.998449, 129, 257, 192, 320
-0.998449, 269, 223, 300, 238
-0.998449, 101, 203, 132, 218
-0.99845, 141, 207, 172, 222
-0.998453, 253, 217, 284, 232
-0.998454, 269, 205, 300, 220
-0.998457, 153, 199, 184, 214
-0.998461, 329, 205, 360, 220
-0.998461, 305, 117, 336, 132
-0.998461, 301, 195, 332, 210
-0.998461, 341, 207, 372, 222
-0.998461, 273, 265, 400, 296
-0.998462, 341, 113, 372, 128
-0.998463, 241, 215, 272, 230
-0.998464, 25, 105, 56, 120
-0.998464, 285, 93, 316, 108
-0.998464, 173, 205, 204, 220
-0.998464, 361, 257, 392, 272
-0.998468, 213, 1, 244, 256
-0.998469, 53, 111, 84, 126
-0.998472, 429, 109, 460, 124
-0.998473, 81, 171, 112, 186
-0.998477, 397, 131, 428, 146
-0.998478, 129, 197, 160, 212
-0.99848, 105, 121, 136, 136
-0.998481, 289, 255, 320, 270
-0.998483, 73, 177, 136, 192
-0.998486, 81, 121, 144, 136
-0.998487, 93, 133, 124, 148
-0.998487, 13, 107, 44, 122
-0.998487, 125, 185, 156, 200
-0.998489, 57, 119, 88, 134
-0.998491, 341, 123, 372, 138
-0.998494, 193, 209, 320, 240
-0.998496, 97, 199, 160, 214
-0.998499, 121, 209, 184, 224
-0.998502, 253, 233, 284, 248
-0.998503, 73, 123, 104, 138
-0.998504, 425, 115, 488, 130
-0.998506, 285, 99, 316, 114
-0.998508, 33, 167, 96, 182
-0.998509, 273, 255, 336, 270
-0.99851, 81, 183, 112, 198
-0.998511, 153, 205, 184, 220
-0.998512, 361, 207, 392, 222
-0.998518, 33, 177, 96, 192
-0.998519, 49, 137, 112, 152
-0.998519, 433, 115, 464, 130
-0.998519, 253, 105, 284, 120
-0.998525, 89, 133, 152, 148
-0.998525, 37, 111, 68, 126
-0.998525, 297, 119, 360, 134
-0.998527, 145, 233, 272, 264
-0.998528, 361, 265, 424, 280
-0.99853, 301, 255, 332, 270
-0.99853, 121, 199, 184, 214
-0.998531, 101, 177, 132, 192
-0.998531, 329, 257, 392, 272
-0.998532, 141, 199, 172, 214
-0.998532, 273, 103, 336, 118
-0.998535, 321, 115, 384, 130
-0.998535, 209, 215, 272, 230
-0.998536, 313, 205, 376, 220
-0.998536, 9, 175, 72, 190
-0.998537, 41, 125, 104, 140
-0.998543, 41, 117, 104, 132
-0.998544, 265, 217, 296, 232
-0.998544, 121, 237, 184, 252
-0.998547, 361, 125, 424, 140
-0.998547, 329, 123, 392, 138
-0.998547, 305, 257, 368, 272
-0.998548, 145, 205, 208, 220
-0.998548, 241, 217, 304, 232
-0.99855, 89, 33, 120, 288
-0.998551, 257, 135, 320, 150
-0.998555, 385, 125, 448, 140
-0.998556, 121, 203, 152, 218
-0.998559, 177, 179, 240, 194
-0.998559, 393, 269, 456, 284
-0.998559, 249, 181, 312, 196
-0.99856, 89, 205, 152, 220
-0.998561, 81, 159, 144, 174
-0.998561, 113, 123, 176, 138
-0.998562, 97, 177, 160, 192
-0.998562, 369, 207, 432, 222
-0.998563, 113, 141, 176, 156
-0.998564, 361, 259, 424, 274
-0.998566, 137, 193, 200, 208
-0.998566, 1, 111, 64, 126
-0.998567, 409, 235, 472, 250
-0.998567, 185, 265, 248, 328
-0.998567, 109, 195, 140, 210
-0.998568, 169, 197, 232, 212
-0.998568, 113, 193, 176, 208
-0.998569, 121, 117, 184, 132
-0.99857, 321, 131, 384, 146
-0.998572, 329, 199, 392, 214
-0.998575, 185, 213, 248, 228
-0.998575, 161, 211, 224, 226
-0.998575, 253, 225, 284, 240
-0.998576, 89, 141, 152, 156
-0.998579, 9, 157, 72, 172
-0.998581, 105, 231, 168, 246
-0.998583, 81, 177, 112, 192
-0.998585, 305, 187, 368, 202
-0.998585, 265, 95, 328, 110
-0.998585, 297, 109, 360, 124
-0.998585, 73, 171, 136, 186
-0.998586, 145, 121, 208, 136
-0.998587, 145, 139, 208, 154
-0.998589, 313, 193, 376, 208
-0.998589, 273, 199, 336, 214
-0.998591, 217, 201, 280, 216
-0.998592, 1, 105, 64, 120
-0.998592, 113, 171, 176, 186
-0.998593, 313, 247, 376, 262
-0.998594, 241, 105, 304, 120
-0.998594, 33, 161, 96, 176
-0.998595, 9, 127, 72, 142
-0.998595, 137, 131, 200, 146
-0.998597, 257, 223, 320, 238
-0.998598, 33, 155, 96, 170
-0.998598, 369, 119, 432, 134
-0.998599, 257, 205, 320, 220
-0.9986, 353, 131, 416, 146
-0.9986, 417, 121, 480, 136
-0.998601, 113, 133, 176, 148
-0.998602, 425, 273, 488, 288
-0.998603, 233, 209, 296, 224
-0.998604, 201, 137, 264, 152
-0.998605, 9, 169, 72, 184
-0.998606, 137, 187, 200, 202
-0.998606, 273, 193, 336, 208
-0.998607, 257, 117, 320, 132
-0.998607, 161, 131, 224, 146
-0.998607, 113, 187, 176, 202
-0.998608, 41, 131, 104, 146
-0.99861, 361, 201, 424, 216
-0.99861, 401, 115, 464, 130
-0.998611, 233, 135, 296, 150
-0.998612, 297, 199, 360, 214
-0.998613, 241, 231, 304, 246
-0.998614, 281, 135, 344, 150
-0.998615, 377, 73, 440, 136
-0.998619, 65, 203, 128, 218
-0.998619, 1, 73, 256, 136
-0.99862, 137, 181, 200, 196
-0.99862, 169, 139, 232, 154
-0.998621, 81, 193, 144, 208
-0.998623, 73, 183, 136, 198
-0.998624, 433, 149, 496, 164
-0.998624, 433, 239, 496, 254
-0.998625, 433, 157, 496, 172
-0.998625, 345, 207, 408, 222
-0.998625, 193, 199, 256, 214
-0.998627, 337, 247, 400, 262
-0.998627, 33, 185, 96, 200
-0.998627, 281, 125, 344, 140
-0.998628, 17, 121, 80, 136
-0.99863, 297, 181, 360, 196
-0.99863, 169, 243, 232, 258
-0.998632, 81, 165, 144, 180
-0.998635, 401, 147, 464, 162
-0.998636, 265, 187, 328, 202
-0.998636, 385, 131, 448, 146
-0.998636, 337, 239, 400, 254
-0.998636, 81, 233, 144, 248
-0.998639, 329, 263, 392, 278
-0.99864, 225, 181, 288, 196
-0.998641, 249, 253, 312, 268
-0.998642, 81, 213, 144, 228
-0.998643, 9, 181, 72, 196
-0.998643, 89, 127, 152, 142
-0.998643, 33, 223, 96, 238
-0.998644, 385, 235, 448, 250
-0.998644, 369, 223, 432, 238
-0.998645, 169, 203, 232, 218
-0.998646, 137, 173, 200, 188
-0.998646, 401, 211, 464, 226
-0.998648, 49, 143, 112, 158
-0.998648, 185, 129, 248, 144
-0.998649, 225, 225, 288, 240
-0.998649, 241, 99, 304, 114
-0.998657, 289, 81, 416, 112
-0.998664, 177, 1, 208, 256
-0.99867, 433, 65, 496, 128
-0.99869, 65, 249, 192, 280
-0.998693, 321, 153, 448, 184
-0.998705, 183, 129, 198, 256
-0.998719, 117, 129, 132, 256
-0.998738, 123, 145, 138, 272
-0.998771, 153, 129, 168, 256
-0.998776, 323, 113, 338, 240
-0.998779, 1, 97, 128, 128
-0.998803, 229, 113, 244, 240
-0.998808, 129, 129, 144, 256
-0.99882, 233, 1, 264, 256
-0.998824, 305, 97, 320, 224
-0.998826, 191, 129, 206, 256
-0.998832, 329, 1, 360, 256
-0.998836, 215, 113, 230, 240
-0.998839, 167, 129, 182, 256
-0.998841, 161, 129, 176, 256
-0.998866, 285, 177, 300, 304
-0.998876, 105, 97, 120, 224
-0.998888, 137, 145, 152, 272
-0.998889, 235, 113, 250, 240
-0.998907, 147, 145, 162, 272
-0.998918, 1, 197, 128, 228
-0.998922, 201, 129, 216, 256
-0.998923, 165, 1, 196, 256
-0.998923, 73, 97, 88, 224
-0.998923, 223, 97, 238, 224
-0.998925, 93, 129, 108, 256
-0.998931, 299, 161, 314, 288
-0.998933, 173, 145, 188, 272
-0.998936, 29, 1, 60, 256
-0.998944, 163, 177, 178, 304
-0.998944, 437, 81, 452, 208
-0.998948, 477, 113, 492, 240
-0.998954, 99, 129, 114, 256
-0.998954, 369, 293, 496, 324
-0.998957, 331, 161, 346, 288
-0.998968, 209, 129, 224, 256
-0.998968, 1, 313, 128, 375
-0.998973, 311, 113, 326, 240
-0.998978, 173, 97, 188, 224
-0.998979, 1, 233, 128, 264
-0.99898, 471, 97, 486, 224
-0.998986, 275, 113, 290, 240
-0.998989, 461, 97, 476, 224
-0.998993, 85, 129, 100, 256
-0.998998, 247, 113, 262, 240
-0.998999, 279, 193, 294, 320
-0.999003, 315, 177, 330, 304
-0.999009, 347, 193, 362, 320
-0.999013, 365, 193, 380, 320
-0.999014, 355, 193, 370, 320
-0.999015, 317, 129, 332, 256
-0.999017, 123, 97, 138, 224
-0.999022, 153, 1, 184, 256
-0.999026, 259, 81, 274, 208
-0.99903, 341, 193, 356, 320
-0.999033, 325, 177, 340, 304
-0.999036, 305, 177, 320, 304
-0.999042, 453, 1, 484, 256
-0.999042, 241, 113, 256, 240
-0.999043, 145, 17, 272, 144
-0.999046, 111, 129, 126, 256
-0.999052, 291, 177, 306, 304
-0.999055, 273, 193, 288, 320
-0.999057, 187, 177, 202, 304
-0.99906, 177, 281, 304, 344
-0.999067, 117, 177, 132, 304
-0.999069, 415, 113, 430, 240
-0.999072, 281, 113, 296, 240
-0.999076, 335, 113, 350, 240
-0.999076, 425, 113, 440, 240
-0.999078, 181, 177, 196, 304
-0.999083, 299, 97, 314, 224
-0.999086, 145, 189, 272, 220
-0.999088, 431, 97, 446, 224
-0.99909, 129, 177, 144, 304
-0.999091, 269, 145, 284, 272
-0.999099, 113, 289, 240, 352
-0.999099, 37, 97, 52, 224
-0.999103, 73, 209, 104, 336
-0.999106, 293, 97, 308, 224
-0.999106, 193, 81, 320, 112
-0.999113, 63, 97, 78, 224
-0.999124, 403, 113, 418, 240
-0.999157, 65, 281, 320, 344
-0.999157, 79, 113, 94, 240
-0.99916, 447, 97, 462, 224
-0.999163, 105, 145, 120, 272
-0.999168, 373, 193, 388, 320
-0.99917, 161, 81, 176, 208
-0.999171, 129, 261, 256, 292
-0.999174, 155, 177, 170, 304
-0.999183, 415, 161, 430, 288
-0.999184, 485, 97, 500, 224
-0.999185, 209, 81, 224, 208
-0.999187, 135, 97, 150, 224
-0.999188, 147, 97, 162, 224
-0.99919, 141, 97, 156, 224
-0.999191, 383, 113, 398, 240
-0.999192, 53, 97, 68, 224
-0.999198, 393, 113, 408, 240
-0.999203, 453, 97, 468, 224
-0.999207, 97, 73, 352, 136
-0.999207, 253, 113, 268, 240
-0.999209, 49, 273, 176, 304
-0.999212, 43, 81, 58, 208
-0.999214, 269, 97, 284, 224
-0.99922, 217, 161, 232, 288
-0.99922, 329, 97, 344, 224
-0.999222, 389, 161, 404, 288
-0.999231, 379, 193, 394, 320
-0.999233, 153, 81, 168, 208
-0.999237, 287, 97, 302, 224
-0.999245, 167, 81, 182, 208
-0.999248, 371, 97, 386, 224
-0.99925, 413, 1, 444, 256
-0.999252, 291, 225, 306, 352
-0.999258, 355, 97, 370, 224
-0.999269, 409, 129, 424, 256
-0.999271, 255, 161, 270, 288
-0.999274, 179, 81, 194, 208
-0.999276, 161, 97, 288, 128
-0.999278, 31, 81, 46, 208
-0.999283, 17, 85, 144, 116
-0.999286, 141, 49, 172, 176
-0.999292, 187, 81, 202, 208
-0.999301, 341, 97, 356, 224
-0.999302, 93, 81, 108, 208
-0.999302, 273, 281, 400, 312
-0.999308, 17, 81, 32, 208
-0.999309, 343, 241, 358, 368
-0.999312, 255, 209, 270, 336
-0.999313, 261, 161, 276, 288
-0.999316, 129, 81, 144, 208
-0.999325, 231, 161, 246, 288
-0.999327, 361, 113, 376, 240
-0.99933, 395, 161, 410, 288
-0.999334, 171, 209, 186, 336
-0.999336, 465, 1, 496, 256
-0.99934, 81, 321, 208, 352
-0.999341, 323, 225, 338, 352
-0.999341, 45, 1, 76, 256
-0.999342, 349, 241, 364, 368
-0.999345, 425, 177, 440, 304
-0.999345, 237, 161, 252, 288
-0.999348, 199, 81, 214, 208
-0.999349, 265, 209, 280, 336
-0.999354, 285, 225, 300, 352
-0.999355, 117, 81, 132, 208
-0.999356, 139, 193, 154, 320
-0.999359, 347, 97, 362, 224
-0.999359, 357, 241, 372, 368
-0.999362, 257, 305, 500, 368
-0.999364, 361, 1, 392, 256
-0.99937, 223, 161, 238, 288
-0.99937, 123, 193, 138, 320
-0.999376, 111, 177, 126, 304
-0.999376, 195, 177, 210, 304
-0.999377, 161, 313, 288, 375
-0.999385, 407, 193, 422, 320
-0.999387, 335, 225, 350, 352
-0.999389, 363, 241, 378, 368
-0.99939, 245, 161, 260, 288
-0.999416, 1, 293, 128, 324
-0.999442, 17, 325, 144, 356
-0.999454, 65, 309, 192, 340
-0.999459, 1, 33, 32, 160
-0.999473, 401, 1, 432, 256
-0.999473, 341, 1, 372, 256
-0.999477, 49, 297, 176, 328
-0.999489, 137, 1, 168, 256
-0.999537, 389, 1, 420, 256
-0.999556, 209, 269, 336, 300
-0.999579, 65, 33, 128, 160
-0.999593, 1, 245, 128, 276
-0.999596, 41, 111, 56, 126
-0.999597, 151, 141, 166, 156
-0.999598, 371, 123, 386, 138
-0.999598, 437, 111, 452, 126
-0.999598, 251, 215, 266, 230
-0.999598, 317, 139, 332, 154
-0.999598, 87, 171, 102, 186
-0.999599, 139, 141, 154, 156
-0.9996, 431, 115, 446, 130
-0.9996, 135, 161, 150, 176
-0.9996, 161, 191, 176, 206
-0.999601, 293, 253, 308, 268
-0.999602, 53, 149, 68, 164
-0.999603, 75, 177, 90, 192
-0.999603, 263, 103, 278, 118
-0.999603, 397, 133, 412, 148
-0.999605, 133, 167, 148, 182
-0.999605, 363, 123, 378, 138
-0.999605, 485, 123, 500, 138
-0.999606, 95, 197, 110, 212
-0.999606, 183, 199, 198, 214
-0.999606, 135, 119, 150, 134
-0.999606, 367, 207, 382, 222
-0.999606, 409, 133, 424, 148
-0.999606, 97, 171, 112, 186
-0.999607, 427, 235, 442, 250
-0.999607, 279, 217, 294, 232
-0.999608, 123, 207, 138, 222
-0.999608, 305, 93, 320, 108
-0.999609, 271, 209, 286, 224
-0.999609, 349, 207, 364, 222
-0.999609, 299, 185, 314, 200
-0.99961, 63, 155, 78, 170
-0.999612, 335, 129, 350, 144
-0.999612, 97, 183, 112, 198
-0.999612, 349, 123, 364, 138
-0.999613, 143, 179, 158, 194
-0.999613, 29, 101, 44, 116
-0.999613, 1, 281, 128, 312
-0.999613, 415, 159, 430, 174
-0.999614, 411, 209, 426, 224
-0.999614, 79, 167, 94, 182
-0.999615, 1, 289, 500, 352
-0.999615, 135, 195, 150, 210
-0.999616, 313, 117, 328, 132
-0.999616, 305, 255, 320, 270
-0.999617, 93, 143, 108, 158
-0.999617, 329, 121, 344, 136
-0.999617, 275, 109, 290, 124
-0.999617, 125, 1, 156, 256
-0.999617, 17, 125, 32, 140
-0.999617, 171, 207, 186, 222
-0.999617, 167, 193, 182, 208
-0.99962, 27, 115, 42, 130
-0.99962, 445, 113, 460, 128
-0.999622, 161, 203, 176, 218
-0.999625, 65, 165, 80, 180
-0.999625, 319, 117, 334, 132
-0.999626, 417, 205, 432, 220
-0.999627, 253, 229, 268, 244
-0.999627, 127, 219, 142, 234
-0.999628, 305, 189, 320, 204
-0.999628, 81, 125, 96, 140
-0.999628, 469, 119, 484, 134
-0.999628, 1, 175, 16, 190
-0.999629, 69, 117, 84, 132
-0.999629, 129, 183, 144, 198
-0.999631, 265, 209, 280, 224
-0.999632, 355, 123, 370, 138
-0.999633, 321, 301, 448, 332
-0.999633, 345, 241, 360, 256
-0.999635, 339, 123, 354, 138
-0.999635, 279, 203, 294, 218
-0.999636, 119, 121, 134, 136
-0.999636, 161, 181, 176, 196
-0.999636, 397, 127, 412, 142
-0.999637, 299, 253, 314, 268
-0.999638, 421, 125, 436, 140
-0.999639, 319, 199, 334, 214
-0.999639, 1, 305, 128, 336
-0.99964, 147, 193, 162, 208
-0.999641, 93, 137, 108, 152
-0.999641, 349, 113, 364, 128
-0.999642, 265, 225, 280, 240
-0.999642, 307, 117, 322, 132
-0.999642, 49, 261, 176, 292
-0.999643, 225, 297, 352, 360
-0.999646, 115, 197, 130, 212
-0.999647, 135, 179, 150, 194
-0.999647, 73, 123, 88, 138
-0.999647, 317, 205, 332, 220
-0.999648, 17, 103, 32, 118
-0.999649, 25, 109, 40, 124
-0.99965, 155, 203, 170, 218
-0.99965, 311, 255, 326, 270
-0.999651, 125, 121, 140, 136
-0.999651, 329, 203, 344, 218
-0.999653, 269, 203, 284, 218
-0.999654, 185, 205, 200, 220
-0.999654, 117, 233, 132, 248
-0.999655, 289, 221, 304, 236
-0.999657, 143, 199, 158, 214
-0.999658, 89, 123, 104, 138
-0.99966, 131, 203, 146, 218
-0.999663, 361, 207, 376, 222
-0.999666, 101, 199, 116, 214
-0.999668, 119, 179, 134, 194
-0.999668, 257, 215, 272, 230
-0.999669, 317, 255, 332, 270
-0.999671, 191, 179, 206, 194
-0.999672, 167, 179, 182, 194
-0.999673, 271, 217, 286, 232
-0.999677, 173, 179, 188, 194
-0.999677, 65, 285, 192, 316
-0.999682, 177, 201, 192, 216
-0.999684, 369, 345, 496, 375
-0.999684, 403, 129, 418, 144
-0.999685, 137, 201, 152, 216
-0.999685, 141, 173, 156, 188
-0.999688, 437, 99, 452, 114
-0.999691, 63, 111, 78, 126
-0.999692, 439, 105, 454, 120
-0.999693, 167, 201, 182, 216
-0.999699, 369, 305, 496, 336
-0.9997, 45, 139, 60, 154
-0.999701, 97, 177, 112, 192
-0.999701, 127, 173, 142, 188
-0.999702, 313, 195, 328, 210
-0.999702, 87, 177, 102, 192
-0.999702, 267, 233, 282, 248
-0.999705, 259, 225, 274, 240
-0.999715, 123, 193, 138, 208
-0.999718, 161, 197, 176, 212
-0.999718, 181, 179, 196, 194
-0.999731, 265, 215, 280, 230
-0.999732, 105, 177, 120, 192
-0.999732, 121, 213, 136, 228
-0.999736, 125, 199, 140, 214
-0.999742, 145, 65, 272, 128
-0.999744, 353, 333, 480, 364
-0.999749, 33, 107, 48, 122
-0.999758, 135, 173, 150, 188
-0.999773, 1, 257, 128, 288
-0.999773, 225, 281, 352, 312
-0.999798, 113, 333, 240, 364
-0.999848, 161, 81, 224, 144
-0.999852, 1, 73, 128, 104
-0.999852, 113, 281, 240, 312
-0.999862, 161, 333, 288, 364
-0.999875, 33, 337, 160, 368
-0.99988, 109, 1, 140, 256
-0.999919, 321, 313, 448, 344
-0.999967, 425, 305, 488, 368
-0.99997, 369, 317, 496, 348
-0.999979, 13, 177, 44, 304
-0.999986, 1, 269, 128, 300
-1.00002, 377, 313, 440, 375
-1.00002, 161, 273, 288, 304
-1.00006, 377, 1, 408, 256
-1.00008, 369, 25, 496, 88
-1.00008, 41, 297, 104, 360
-1.0001, 129, 345, 256, 375
-1.00014, 273, 305, 400, 368
-1.00015, 77, 1, 108, 256
-1.00017, 305, 73, 368, 136
-1.00018, 129, 317, 256, 348
-1.00019, 305, 325, 432, 356
-1.00019, 305, 337, 432, 368
-1.00022, 113, 293, 240, 324
-1.00023, 225, 345, 352, 375
-1.00025, 105, 257, 168, 320
-1.00025, 177, 285, 304, 316
-1.00029, 1, 313, 256, 375
-1.00031, 429, 33, 460, 160
-1.00052, 161, 305, 416, 368
-1.00052, 353, 289, 416, 352
-1.00063, 49, 9, 176, 72
-1.00065, 1, 313, 500, 375
-1.0007, 321, 17, 448, 144
-1.00072, 273, 49, 400, 112
-1.00084, 369, 49, 496, 112
-1.00093, 257, 49, 500, 112
-1.00103, 113, 25, 240, 88
-1.00106, 1, 1, 128, 64
-1.00113, 97, 1, 352, 128
-1.00115, 321, 49, 448, 112
-1.00118, 1, 1, 256, 64
-1.00119, 73, 305, 136, 368
-1.00121, 33, 249, 96, 312
-1.0013, 257, 25, 500, 88
-1.00133, 113, 1, 240, 64
-1.00135, 193, 25, 320, 88
-1.00139, 97, 49, 352, 112
-1.00143, 305, 25, 432, 88
-1.00147, 1, 289, 64, 352
-1.00149, 161, 1, 416, 64
-1.00152, 353, 1, 480, 64
-1.00153, 73, 73, 136, 136
-1.00163, 65, 25, 320, 88
-1.00163, 113, 305, 176, 368
-1.00167, 193, 1, 320, 64
-1.0017, 161, 25, 416, 88
-1.00173, 97, 57, 224, 120
-1.00178, 201, 81, 264, 144
-1.00183, 1, 33, 128, 96
-1.0019, 257, 1, 500, 64
-1.00191, 369, 73, 496, 136
-1.00193, 137, 313, 200, 375
-1.00215, 305, 1, 432, 64
-1.00217, 257, 25, 384, 88
-1.00217, 65, 33, 192, 96
-1.00234, 241, 1, 368, 64
-1.00235, 1, 49, 256, 112
-1.00294, 1, 9, 500, 72
-1.0032, 1, 57, 500, 120
-1.00329, 1, 33, 500, 96
-1.0043, 97, 1, 224, 128
-1.00455, 345, 17, 408, 144
-1.00456, 97, 1, 160, 128
-1.005, 17, 241, 80, 368
-1.00516, 377, 17, 440, 144
-1.00603, 225, 1, 480, 128
-1.00724, 209, 17, 272, 144
-1.00836, 193, 1, 320, 128
-1.01004, 41, 1, 104, 128
-1.01052, 433, 1, 496, 128
-1.01064, 1, 1, 256, 128
-1.01073, 145, 1, 208, 128
-1.01102, 169, 1, 232, 128
-1.01103, 249, 1, 312, 128
-1.01127, 401, 1, 464, 128
-1.01162, 369, 1, 496, 128
-1.01204, 273, 1, 400, 128
-1.01229, 121, 1, 184, 128
-1.01412, 305, 1, 368, 128
-1.01711, 281, 1, 344, 128
