1888
-0.100999, 1, 1, 500, 335
-0.267092, 1, 1, 500, 256
-0.417907, 65, 1, 320, 335
-0.422679, 161, 1, 416, 335
-0.578841, 161, 1, 416, 256
-0.592641, 257, 1, 500, 335
-0.645168, 1, 1, 256, 256
-0.799501, 257, 1, 500, 256
-0.834135, 1, 17, 500, 144
-0.840408, 257, 1, 384, 335
-0.850676, 49, 1, 176, 335
-0.861344, 1, 209, 500, 335
-0.862286, 257, 1, 384, 256
-0.869081, 1, 65, 500, 192
-0.873689, 49, 1, 176, 256
-0.876457, 177, 1, 304, 335
-0.878112, 129, 1, 256, 335
-0.878931, 321, 1, 448, 335
-0.885266, 1, 1, 128, 335
-0.88795, 1, 65, 128, 320
-0.891192, 1, 161, 500, 288
-0.891426, 209, 1, 336, 256
-0.89334, 337, 65, 464, 320
-0.894904, 193, 17, 448, 144
-0.898134, 1, 113, 500, 240
-0.899692, 113, 1, 240, 256
-0.906794, 161, 1, 288, 256
-0.915846, 273, 193, 400, 320
-0.916829, 33, 33, 288, 160
-0.921135, 257, 193, 500, 320
-0.925522, 313, 161, 376, 288
-0.928823, 65, 17, 192, 144
-0.931107, 273, 1, 400, 128
-0.93384, 289, 193, 352, 320
-0.939142, 121, 1, 184, 128
-0.94081, 161, 209, 416, 335
-0.943183, 65, 49, 128, 176
-0.943562, 369, 1, 496, 335
-0.943951, 1, 81, 256, 208
-0.944408, 145, 33, 272, 160
-0.945, 321, 1, 384, 128
-0.946514, 329, 209, 392, 335
-0.946682, 305, 185, 368, 248
-0.948348, 265, 209, 328, 335
-0.948613, 97, 1, 160, 128
-0.950125, 9, 193, 72, 320
-0.950939, 33, 193, 288, 320
-0.951585, 113, 17, 176, 80
-0.952157, 145, 1, 208, 128
-0.953344, 345, 1, 408, 128
-0.953673, 345, 17, 408, 80
-0.954488, 209, 17, 336, 144
-0.955054, 337, 161, 400, 288
-0.956103, 161, 161, 416, 288
-0.956179, 337, 145, 464, 272
-0.95635, 9, 201, 72, 264
-0.956477, 225, 209, 352, 335
-0.956545, 33, 209, 96, 335
-0.95728, 257, 145, 500, 272
-0.957286, 321, 9, 384, 72
-0.958407, 1, 113, 128, 240
-0.958525, 257, 145, 384, 272
-0.958633, 281, 201, 344, 264
-0.958847, 169, 1, 232, 128
-0.958953, 81, 41, 144, 104
-0.95913, 321, 1, 448, 128
-0.959245, 49, 65, 176, 192
-0.959458, 161, 65, 416, 192
-0.95955, 1, 193, 128, 320
-0.960767, 113, 41, 176, 104
-0.960954, 345, 113, 408, 240
-0.961019, 289, 1, 352, 128
-0.961219, 329, 185, 392, 248
-0.961285, 25, 113, 88, 240
-0.961359, 153, 33, 216, 96
-0.961677, 369, 49, 432, 176
-0.961736, 313, 209, 376, 272
-0.961841, 321, 161, 384, 224
-0.962348, 353, 41, 416, 104
-0.962374, 105, 49, 168, 176
-0.962509, 241, 17, 304, 144
-0.962676, 249, 225, 312, 288
-0.962703, 265, 1, 328, 128
-0.963282, 1, 129, 64, 256
-0.963466, 89, 17, 152, 80
-0.963844, 193, 1, 256, 128
-0.964159, 1, 49, 128, 176
-0.964535, 321, 193, 448, 320
-0.9646, 337, 161, 368, 288
-0.964754, 217, 1, 280, 128
-0.96509, 333, 169, 364, 232
-0.965761, 385, 257, 448, 320
-0.965762, 73, 1, 136, 128
-0.965862, 353, 49, 480, 176
-0.96599, 241, 209, 304, 335
-0.966008, 289, 49, 416, 176
-0.966578, 1, 129, 256, 256
-0.967898, 293, 193, 324, 320
-0.968398, 97, 65, 224, 192
-0.968481, 129, 49, 192, 176
-0.968491, 345, 241, 408, 304
-0.968642, 65, 65, 128, 128
-0.96867, 321, 33, 384, 96
-0.968985, 33, 217, 96, 280
-0.969212, 257, 209, 384, 272
-0.969214, 313, 177, 344, 304
-0.969569, 133, 1, 164, 128
-0.969673, 353, 145, 384, 272
-0.96993, 281, 145, 344, 272
-0.969997, 357, 9, 388, 72
-0.969998, 49, 177, 176, 304
-0.970191, 321, 233, 384, 296
-0.970433, 265, 25, 328, 88
-0.970474, 321, 49, 384, 176
-0.970535, 65, 25, 192, 88
-0.970904, 337, 193, 368, 256
-0.970939, 357, 1, 388, 128
-0.971161, 337, 97, 464, 224
-0.971181, 297, 1, 360, 64
-0.971545, 169, 1, 232, 64
-0.971837, 297, 25, 360, 88
-0.971856, 117, 25, 148, 88
-0.971908, 273, 249, 336, 312
-0.971929, 265, 1, 328, 64
-0.972045, 321, 1, 384, 256
-0.97216, 325, 177, 356, 304
-0.972324, 129, 113, 384, 240
-0.972405, 225, 1, 288, 64
-0.972566, 361, 65, 424, 128
-0.972634, 289, 1, 352, 256
-0.972652, 201, 25, 264, 88
-0.972658, 121, 65, 184, 128
-0.972727, 33, 65, 96, 320
-0.972756, 289, 17, 416, 80
-0.97303, 153, 49, 216, 176
-0.973099, 137, 1, 200, 64
-0.973219, 113, 33, 144, 160
-0.973243, 257, 233, 384, 296
-0.973385, 345, 161, 376, 224
-0.973402, 65, 9, 128, 72
-0.973426, 249, 249, 312, 312
-0.97344, 281, 217, 312, 280
-0.973719, 65, 49, 192, 112
-0.973887, 145, 1, 176, 128
-0.974184, 337, 217, 368, 280
-0.974477, 113, 25, 240, 88
-0.974521, 165, 33, 196, 96
-0.974635, 41, 65, 104, 192
-0.974643, 281, 209, 312, 335
-0.974723, 345, 153, 408, 216
-0.974913, 33, 161, 96, 288
-0.974971, 409, 265, 472, 328
-0.975069, 241, 161, 304, 288
-0.975154, 317, 185, 348, 248
-0.975207, 353, 209, 416, 335
-0.975293, 345, 65, 408, 192
-0.97532, 241, 25, 368, 88
-0.975718, 377, 1, 440, 128
-0.97579, 225, 25, 288, 88
-0.975958, 257, 65, 500, 192
-0.975964, 105, 273, 168, 335
-0.97605, 297, 233, 360, 296
-0.976106, 361, 33, 392, 96
-0.976266, 193, 161, 320, 288
-0.97647, 141, 17, 172, 80
-0.976545, 157, 1, 188, 128
-0.976588, 305, 233, 432, 296
-0.976601, 105, 25, 136, 88
-0.976783, 369, 17, 400, 144
-0.976896, 257, 177, 384, 240
-0.977054, 377, 33, 440, 96
-0.977074, 13, 201, 44, 264
-0.977185, 129, 17, 160, 80
-0.977276, 377, 209, 440, 335
-0.977312, 97, 49, 128, 112
-0.977321, 25, 121, 88, 184
-0.977339, 361, 113, 424, 176
-0.977389, 329, 97, 392, 160
-0.977446, 373, 25, 404, 88
-0.977573, 345, 9, 376, 72
-0.977589, 201, 1, 264, 64
-0.977622, 57, 1, 120, 256
-0.977627, 97, 33, 128, 160
-0.977685, 41, 97, 104, 160
-0.977723, 337, 257, 464, 320
-0.977866, 177, 49, 240, 176
-0.977953, 345, 209, 376, 335
-0.978032, 177, 33, 240, 96
-0.978334, 41, 209, 72, 272
-0.978637, 345, 65, 408, 320
-0.978643, 57, 41, 120, 104
-0.978709, 269, 225, 300, 288
-0.978954, 49, 113, 176, 240
-0.979086, 305, 185, 432, 248
-0.979176, 293, 209, 324, 272
-0.979302, 169, 1, 200, 128
-0.979364, 321, 97, 384, 224
-0.97939, 13, 193, 44, 320
-0.979429, 313, 1, 376, 335
-0.979472, 273, 225, 336, 288
-0.979488, 341, 1, 372, 128
-0.979586, 337, 49, 464, 112
-0.979636, 65, 73, 192, 136
-0.979668, 265, 1, 328, 256
-0.979709, 161, 33, 288, 96
-0.979717, 33, 241, 96, 304
-0.979793, 353, 193, 416, 256
-0.979855, 113, 1, 176, 256
-0.979857, 129, 1, 256, 64
-0.980285, 269, 209, 300, 335
-0.980289, 349, 193, 380, 256
-0.980439, 129, 273, 160, 335
-0.980466, 365, 57, 396, 120
-0.980634, 17, 1, 144, 128
-0.980693, 117, 49, 148, 112
-0.980706, 89, 65, 152, 128
-0.980769, 357, 209, 388, 335
-0.980785, 361, 97, 392, 224
-0.980867, 65, 89, 128, 152
-0.980883, 337, 65, 400, 128
-0.98091, 289, 1, 352, 335
-0.980929, 49, 113, 112, 240
-0.981111, 49, 1, 112, 128
-0.981456, 361, 89, 424, 152
-0.981471, 129, 193, 256, 320
-0.98148, 209, 1, 336, 64
-0.981537, 29, 193, 60, 320
-0.981597, 85, 33, 116, 160
-0.981638, 141, 41, 172, 104
-0.981708, 225, 257, 288, 320
-0.981819, 325, 1, 356, 128
-0.981834, 129, 265, 192, 328
-0.981913, 153, 65, 184, 128
-0.982041, 361, 265, 424, 328
-0.982048, 433, 273, 496, 335
-0.982189, 81, 1, 144, 256
-0.982239, 209, 217, 336, 280
-0.982301, 137, 209, 200, 335
-0.982313, 65, 1, 128, 335
-0.982337, 369, 209, 496, 335
-0.982354, 337, 1, 400, 335
-0.982356, 357, 89, 388, 152
-0.982425, 209, 241, 336, 304
-0.982525, 373, 65, 404, 192
-0.982538, 409, 257, 440, 320
-0.982583, 65, 177, 128, 304
-0.982592, 73, 97, 136, 224
-0.982664, 369, 241, 400, 304
-0.982674, 357, 145, 388, 208
-0.982712, 337, 17, 464, 80
-0.982717, 333, 25, 364, 88
-0.982722, 153, 25, 184, 88
-0.982764, 9, 65, 72, 320
-0.982822, 257, 97, 384, 224
-0.982974, 9, 177, 72, 240
-0.983061, 41, 193, 72, 320
-0.983127, 33, 105, 160, 168
-0.98313, 321, 145, 448, 208
-0.983151, 185, 33, 216, 160
-0.983241, 17, 41, 144, 104
-0.983321, 1, 209, 128, 272
-0.983476, 161, 1, 192, 64
-0.983483, 353, 49, 384, 176
-0.983501, 105, 1, 136, 64
-0.983544, 81, 249, 144, 312
-0.983588, 17, 65, 80, 192
-0.983726, 33, 185, 96, 248
-0.983748, 17, 249, 144, 312
-0.983793, 241, 1, 304, 256
-0.98381, 149, 49, 180, 176
-0.983838, 177, 209, 304, 335
-0.983839, 161, 1, 224, 256
-0.983873, 293, 1, 324, 128
-0.983912, 1, 137, 64, 200
-0.983927, 81, 1, 208, 64
-0.983959, 173, 1, 204, 64
-0.98415, 313, 233, 344, 296
-0.984184, 25, 209, 56, 272
-0.984318, 257, 17, 288, 144
-0.984337, 273, 1, 304, 64
-0.98435, 273, 17, 304, 144
-0.984548, 33, 273, 160, 335
-0.98455, 369, 1, 432, 256
-0.984579, 353, 73, 480, 136
-0.984619, 325, 1, 356, 64
-0.984627, 233, 1, 296, 335
-0.984656, 369, 9, 432, 72
-0.984681, 277, 25, 308, 88
-0.984727, 29, 113, 60, 240
-0.984732, 421, 257, 452, 320
-0.984837, 289, 25, 320, 88
-0.984837, 285, 249, 316, 312
-0.984886, 105, 1, 168, 335
-0.984909, 325, 209, 356, 272
-0.984951, 273, 89, 400, 152
-0.984993, 305, 193, 336, 256
-0.985004, 349, 233, 380, 296
-0.985043, 225, 1, 256, 64
-0.985057, 353, 121, 480, 184
-0.985142, 209, 1, 272, 256
-0.985203, 385, 257, 416, 320
-0.985297, 265, 1, 328, 335
-0.985457, 225, 25, 256, 88
-0.985487, 301, 25, 332, 88
-0.985491, 209, 1, 240, 64
-0.985595, 73, 33, 104, 160
-0.9856, 53, 209, 84, 335
-0.985611, 305, 17, 336, 144
-0.985627, 237, 1, 268, 128
-0.985776, 1, 129, 128, 192
-0.985779, 209, 33, 240, 96
-0.985786, 49, 273, 112, 335
-0.98579, 273, 49, 400, 112
-0.985893, 301, 241, 332, 304
-0.985959, 349, 41, 380, 104
-0.985983, 57, 241, 120, 304
-0.986014, 197, 1, 228, 128
-0.986067, 185, 1, 248, 256
-0.986074, 369, 1, 400, 64
-0.986098, 265, 25, 296, 88
-0.986125, 113, 49, 240, 112
-0.986169, 385, 233, 448, 296
-0.986185, 397, 257, 428, 320
-0.986195, 33, 1, 96, 335
-0.98621, 293, 1, 324, 64
-0.986272, 313, 1, 344, 64
-0.986289, 145, 65, 208, 128
-0.986345, 49, 113, 80, 240
-0.986406, 17, 1, 144, 64
-0.986419, 161, 1, 224, 335
-0.986422, 9, 225, 72, 288
-0.98644, 225, 233, 288, 296
-0.986465, 53, 233, 84, 296
-0.986606, 13, 145, 44, 272
-0.986661, 85, 41, 116, 104
-0.986668, 261, 1, 292, 64
-0.986693, 313, 25, 344, 88
-0.986702, 33, 185, 160, 248
-0.986772, 337, 129, 400, 192
-0.986809, 237, 249, 268, 312
-0.98681, 89, 209, 152, 335
-0.986867, 129, 41, 160, 104
-0.986867, 173, 49, 204, 176
-0.986915, 369, 1, 496, 128
-0.986961, 401, 209, 464, 335
-0.986979, 109, 73, 140, 136
-0.986995, 1, 25, 500, 88
-0.987065, 57, 201, 120, 264
-0.987133, 1, 97, 64, 160
-0.987331, 129, 1, 192, 335
-0.987352, 17, 81, 144, 144
-0.987367, 209, 1, 240, 128
-0.987407, 373, 81, 404, 144
-0.987408, 225, 201, 288, 264
-0.987414, 325, 233, 356, 296
-0.987503, 401, 33, 464, 160
-0.987522, 433, 265, 464, 328
-0.98754, 225, 1, 256, 128
-0.987574, 237, 33, 268, 96
-0.987636, 305, 193, 368, 224
-0.987735, 193, 1, 256, 335
-0.987759, 65, 241, 192, 304
-0.987759, 281, 177, 344, 240
-0.987867, 197, 1, 228, 64
-0.987884, 305, 209, 432, 272
-0.987903, 237, 1, 268, 64
-0.987919, 117, 273, 148, 335
-0.987936, 369, 209, 400, 335
-0.98794, 249, 9, 280, 72
-0.987997, 93, 17, 124, 80
-0.988015, 361, 1, 424, 335
-0.988057, 41, 65, 104, 128
-0.988058, 249, 249, 280, 312
-0.988087, 353, 97, 480, 160
-0.988099, 53, 209, 84, 272
-0.988142, 61, 81, 92, 208
-0.988278, 281, 161, 312, 288
-0.988295, 185, 17, 216, 80
-0.988412, 209, 193, 272, 320
-0.988538, 121, 25, 184, 56
-0.988568, 385, 33, 416, 96
-0.988599, 141, 265, 172, 328
-0.9886, 161, 49, 192, 176
-0.988639, 121, 53, 184, 84
-0.988697, 193, 25, 448, 88
-0.988719, 137, 1, 200, 256
-0.988855, 289, 113, 416, 176
-0.988878, 125, 49, 156, 176
-0.988927, 273, 153, 400, 216
-0.988929, 197, 33, 228, 96
-0.988995, 97, 97, 160, 224
-0.989014, 289, 205, 352, 236
-0.98904, 329, 193, 392, 224
-0.989053, 349, 65, 380, 128
-0.989128, 9, 213, 72, 244
-0.989154, 377, 57, 408, 120
-0.989216, 289, 153, 352, 216
-0.989314, 81, 45, 144, 76
-0.989326, 73, 41, 104, 104
-0.989351, 329, 21, 392, 52
-0.989424, 97, 273, 224, 335
-0.989428, 89, 89, 152, 152
-0.989434, 49, 209, 176, 272
-0.989457, 345, 37, 408, 68
-0.989465, 225, 241, 480, 304
-0.98947, 49, 97, 80, 160
-0.989527, 105, 41, 168, 72
-0.989582, 25, 265, 88, 328
-0.989586, 365, 145, 396, 272
-0.989696, 313, 57, 376, 120
-0.989757, 313, 181, 376, 212
-0.989771, 33, 25, 96, 88
-0.989854, 321, 161, 352, 224
-0.98986, 345, 217, 408, 280
-0.989878, 73, 273, 136, 335
-0.989917, 313, 233, 376, 264
-0.989937, 273, 225, 336, 256
-0.989972, 81, 29, 144, 60
-0.989999, 409, 241, 472, 304
-0.990017, 249, 33, 280, 96
-0.990038, 265, 249, 328, 280
-0.990072, 273, 249, 304, 312
-0.990083, 81, 65, 112, 128
-0.990084, 393, 265, 456, 296
-0.990091, 381, 17, 412, 144
-0.990109, 1, 89, 500, 152
-0.990128, 33, 185, 64, 248
-0.990136, 153, 41, 216, 72
-0.990161, 305, 25, 368, 56
-0.990209, 93, 73, 124, 136
-0.990298, 53, 161, 84, 288
-0.990365, 65, 97, 96, 160
-0.990372, 177, 25, 240, 56
-0.990463, 65, 33, 320, 96
-0.990466, 9, 1, 72, 335
-0.990488, 225, 153, 352, 216
-0.990527, 1, 193, 32, 320
-0.990552, 185, 37, 248, 68
-0.990555, 249, 237, 312, 268
-0.990559, 129, 37, 192, 68
-0.990575, 257, 257, 384, 320
-0.990602, 225, 29, 288, 60
-0.990609, 373, 105, 404, 168
-0.99062, 345, 49, 408, 80
-0.990636, 201, 25, 264, 56
-0.990649, 65, 177, 96, 304
-0.99066, 301, 145, 332, 272
-0.990672, 81, 57, 144, 88
-0.990673, 29, 121, 60, 184
-0.990687, 321, 9, 384, 40
-0.990692, 137, 49, 168, 176
-0.990693, 369, 41, 432, 72
-0.990707, 249, 177, 312, 240
-0.990791, 341, 113, 372, 240
-0.990852, 241, 249, 304, 280
-0.990855, 145, 53, 208, 84
-0.990885, 65, 69, 128, 100
-0.99089, 329, 205, 392, 236
-0.990919, 353, 61, 416, 92
-0.990926, 281, 29, 344, 60
-0.990957, 161, 13, 224, 44
-0.990959, 125, 249, 156, 312
-0.990979, 177, 193, 304, 256
-0.990986, 113, 73, 240, 136
-0.990987, 1, 145, 32, 272
-0.991006, 1, 65, 500, 128
-0.991018, 113, 13, 176, 44
-0.991074, 105, 277, 168, 308
-0.991169, 25, 225, 88, 256
-0.991177, 353, 21, 416, 52
-0.991183, 1, 201, 64, 232
-0.991185, 1, 209, 500, 272
-0.991205, 49, 121, 112, 184
-0.991225, 209, 265, 336, 328
-0.991245, 177, 41, 208, 104
-0.991258, 121, 65, 184, 96
-0.991273, 353, 73, 416, 104
-0.991277, 137, 201, 200, 264
-0.991279, 25, 1, 88, 128
-0.99132, 1, 161, 128, 224
-0.991329, 225, 17, 288, 48
-0.991331, 353, 253, 416, 284
-0.991349, 257, 29, 320, 60
-0.991388, 1, 201, 32, 264
-0.991403, 129, 273, 192, 304
-0.991416, 73, 13, 136, 44
-0.991425, 281, 189, 344, 220
-0.991517, 361, 161, 424, 288
-0.991532, 337, 273, 400, 335
-0.991539, 321, 37, 384, 68
-0.99154, 153, 29, 216, 60
-0.991546, 361, 93, 424, 124
-0.991556, 329, 165, 392, 196
-0.991573, 337, 241, 400, 272
-0.991597, 113, 249, 144, 312
-0.991602, 417, 269, 480, 300
-0.991618, 361, 137, 424, 168
-0.99162, 289, 241, 352, 272
-0.991635, 361, 113, 424, 144
-0.991639, 33, 245, 96, 276
-0.991666, 337, 193, 368, 224
-0.99167, 329, 105, 392, 136
-0.991671, 385, 29, 448, 60
-0.991678, 329, 217, 392, 248
-0.991699, 225, 261, 288, 292
-0.991707, 57, 45, 120, 76
-0.991724, 101, 81, 132, 208
-0.991725, 317, 113, 348, 240
-0.991736, 33, 213, 96, 244
-0.991742, 57, 177, 120, 240
-0.991768, 25, 125, 88, 156
-0.99177, 73, 85, 136, 116
-0.991784, 345, 153, 408, 184
-0.991801, 1, 249, 500, 312
-0.991811, 369, 265, 432, 296
-0.991811, 249, 17, 312, 48
-0.99184, 73, 273, 136, 304
-0.991846, 137, 9, 200, 40
-0.991847, 33, 265, 96, 296
-0.991854, 129, 249, 256, 312
-0.991855, 345, 9, 408, 40
-0.991875, 377, 53, 440, 84
-0.991914, 1, 113, 500, 176
-0.991915, 305, 217, 368, 248
-0.991937, 97, 1, 352, 64
-0.99194, 329, 121, 392, 152
-0.991993, 385, 253, 448, 284
-0.991995, 297, 13, 360, 44
-0.99205, 329, 93, 392, 124
-0.992063, 353, 197, 416, 228
-0.992071, 13, 177, 44, 240
-0.992116, 361, 125, 424, 156
-0.992134, 193, 13, 256, 44
-0.992145, 273, 17, 336, 48
-0.992164, 161, 201, 192, 264
-0.992175, 81, 261, 144, 292
-0.992179, 357, 13, 388, 44
-0.992181, 69, 65, 100, 128
-0.992192, 317, 185, 348, 216
-0.992207, 65, 249, 128, 280
-0.992216, 201, 257, 264, 320
-0.992231, 105, 241, 168, 304
-0.992254, 57, 97, 120, 128
-0.992258, 49, 65, 80, 192
-0.99231, 321, 65, 384, 96
-0.992323, 49, 233, 112, 264
-0.992327, 25, 201, 88, 232
-0.992329, 289, 177, 352, 208
-0.99233, 273, 237, 400, 268
-0.992333, 1, 129, 64, 160
-0.992335, 117, 49, 148, 80
-0.992341, 41, 57, 104, 88
-0.992342, 233, 225, 296, 256
-0.992348, 265, 213, 328, 244
-0.992357, 433, 281, 496, 312
-0.992364, 321, 53, 384, 84
-0.992364, 49, 109, 112, 140
-0.992365, 229, 193, 260, 320
-0.992398, 125, 21, 156, 52
-0.992403, 413, 25, 444, 88
-0.992411, 357, 49, 388, 80
-0.992422, 153, 201, 216, 232
-0.992424, 217, 249, 280, 280
-0.99243, 361, 113, 392, 176
-0.992434, 117, 37, 148, 68
-0.992455, 145, 53, 176, 84
-0.992483, 9, 205, 40, 236
-0.992495, 341, 169, 356, 232
-0.992499, 333, 221, 364, 252
-0.992499, 321, 81, 384, 112
-0.9925, 129, 49, 160, 80
-0.9925, 357, 37, 388, 68
-0.9925, 105, 49, 136, 80
-0.992505, 409, 33, 472, 64
-0.992517, 169, 1, 232, 32
-0.992526, 257, 193, 500, 256
-0.992541, 329, 133, 392, 164
-0.992543, 165, 37, 196, 68
-0.992555, 373, 33, 404, 64
-0.992556, 65, 1, 128, 32
-0.992559, 97, 69, 160, 100
-0.992563, 105, 289, 168, 320
-0.992578, 129, 205, 192, 236
-0.992592, 105, 33, 136, 64
-0.992601, 329, 177, 360, 208
-0.992611, 337, 25, 368, 56
-0.992616, 425, 209, 488, 335
-0.992624, 377, 241, 440, 272
-0.992637, 233, 209, 296, 240
-0.99264, 1, 233, 64, 264
-0.992648, 347, 185, 362, 248
-0.992686, 357, 25, 388, 56
-0.992701, 89, 1, 152, 32
-0.992719, 61, 33, 92, 160
-0.992725, 129, 273, 160, 304
-0.992727, 369, 9, 432, 40
-0.992734, 365, 77, 396, 108
-0.99274, 225, 237, 288, 268
-0.99274, 117, 61, 148, 92
-0.992758, 165, 49, 196, 80
-0.992774, 281, 217, 312, 248
-0.992776, 49, 277, 112, 308
-0.992781, 313, 241, 344, 272
-0.992789, 97, 85, 160, 116
-0.99279, 137, 261, 200, 292
-0.992795, 177, 41, 208, 72
-0.992805, 237, 25, 268, 56
-0.992813, 353, 185, 416, 216
-0.992813, 249, 193, 312, 224
-0.992824, 273, 241, 304, 272
-0.992826, 117, 277, 148, 308
-0.992827, 25, 109, 88, 140
-0.992828, 41, 213, 72, 244
-0.992843, 41, 69, 104, 100
-0.992851, 365, 61, 396, 92
-0.992851, 165, 13, 196, 44
-0.992853, 225, 29, 256, 60
-0.992869, 373, 249, 404, 280
-0.992869, 333, 233, 364, 264
-0.992873, 153, 29, 184, 60
-0.992874, 57, 261, 120, 292
-0.992896, 41, 85, 104, 116
-0.992905, 357, 241, 388, 272
-0.992912, 85, 45, 116, 76
-0.992913, 105, 265, 168, 296
-0.992919, 49, 121, 112, 152
-0.992921, 193, 41, 224, 72
-0.992923, 413, 261, 444, 292
-0.992924, 349, 157, 380, 188
-0.992932, 381, 209, 412, 335
-0.992934, 169, 53, 232, 84
-0.99294, 325, 21, 356, 52
-0.992947, 393, 265, 424, 296
-0.992947, 261, 233, 292, 264
-0.992957, 213, 25, 244, 56
-0.992959, 353, 193, 384, 224
-0.992959, 313, 197, 344, 228
-0.992966, 333, 205, 364, 236
-0.992969, 137, 285, 200, 316
-0.992973, 393, 305, 456, 335
-0.992973, 357, 101, 388, 132
-0.992975, 209, 41, 272, 72
-0.992977, 301, 197, 332, 228
-0.992978, 345, 13, 376, 44
-0.992984, 149, 65, 180, 96
-0.992986, 57, 217, 120, 248
-0.992989, 113, 1, 176, 32
-0.99299, 345, 221, 376, 252
-0.99299, 105, 21, 136, 52
-0.992992, 345, 37, 376, 68
-0.993001, 97, 69, 128, 100
-0.993001, 93, 57, 124, 88
-0.993002, 265, 25, 296, 56
-0.993005, 237, 253, 268, 284
-0.993008, 141, 17, 172, 48
-0.993017, 289, 29, 320, 60
-0.99302, 177, 25, 208, 56
-0.99302, 249, 21, 280, 52
-0.99302, 1, 1, 500, 64
-0.993021, 397, 209, 428, 335
-0.993039, 341, 173, 372, 204
-0.993046, 33, 161, 96, 224
-0.993059, 193, 1, 448, 64
-0.993061, 21, 209, 52, 240
-0.993063, 333, 9, 364, 40
-0.993063, 369, 89, 400, 120
-0.99307, 301, 245, 332, 276
-0.993073, 277, 29, 308, 60
-0.993081, 129, 37, 160, 68
-0.993085, 345, 65, 376, 96
-0.99309, 53, 233, 84, 264
-0.993094, 345, 209, 376, 240
-0.993095, 113, 73, 144, 104
-0.9931, 1, 129, 32, 192
-0.993106, 345, 233, 376, 264
-0.993107, 249, 249, 280, 280
-0.993108, 65, 233, 96, 296
-0.993114, 413, 33, 444, 64
-0.993115, 305, 29, 336, 60
-0.99312, 425, 265, 456, 296
-0.993122, 373, 113, 404, 144
-0.993122, 33, 201, 64, 232
-0.993128, 373, 21, 404, 52
-0.993133, 377, 45, 408, 76
-0.993133, 161, 201, 192, 232
-0.993136, 257, 201, 320, 264
-0.993136, 73, 45, 104, 76
-0.99314, 177, 1, 208, 32
-0.993141, 361, 145, 392, 176
-0.993145, 321, 213, 352, 244
-0.993147, 209, 37, 240, 68
-0.993147, 201, 25, 232, 56
-0.993147, 165, 73, 196, 136
-0.993165, 253, 33, 284, 64
-0.993177, 293, 209, 324, 240
-0.99318, 161, 177, 416, 240
-0.99319, 141, 41, 172, 72
-0.99319, 289, 253, 320, 284
-0.993198, 393, 41, 424, 72
-0.993199, 351, 161, 366, 224
-0.993207, 189, 25, 220, 56
-0.993211, 309, 17, 340, 48
-0.993212, 61, 265, 92, 296
-0.993214, 85, 73, 116, 104
-0.993215, 153, 17, 184, 48
-0.99322, 313, 273, 376, 335
-0.993232, 389, 233, 420, 296
-0.993234, 137, 5, 168, 36
-0.993235, 153, 5, 184, 36
-0.993237, 53, 245, 84, 276
-0.993238, 105, 85, 136, 116
-0.993238, 113, 25, 240, 56
-0.993241, 141, 269, 172, 300
-0.993245, 409, 45, 440, 76
-0.993247, 357, 121, 388, 152
-0.993248, 385, 253, 416, 284
-0.99325, 373, 129, 404, 160
-0.993251, 289, 233, 320, 264
-0.993252, 353, 85, 384, 116
-0.993257, 221, 13, 252, 44
-0.993266, 149, 201, 180, 232
-0.99328, 253, 261, 284, 292
-0.993284, 261, 249, 292, 312
-0.993284, 73, 61, 104, 92
-0.993285, 97, 225, 352, 288
-0.993285, 121, 9, 152, 40
-0.993285, 281, 17, 312, 48
-0.993288, 437, 269, 468, 300
-0.993302, 397, 249, 428, 280
-0.993313, 261, 245, 292, 276
-0.993317, 377, 61, 408, 92
-0.993318, 53, 217, 84, 248
-0.993319, 153, 41, 184, 72
-0.993323, 129, 289, 160, 320
-0.993329, 109, 9, 140, 40
-0.993337, 257, 225, 288, 288
-0.993347, 41, 125, 72, 156
-0.99336, 297, 17, 328, 48
-0.99336, 57, 169, 88, 200
-0.993363, 5, 133, 36, 164
-0.993372, 65, 45, 192, 76
-0.993377, 345, 1, 376, 32
-0.993409, 433, 249, 496, 312
-0.993412, 33, 65, 288, 128
-0.993423, 41, 121, 72, 184
-0.993438, 1, 177, 500, 240
-0.993467, 1, 273, 500, 335
-0.993498, 369, 233, 496, 296
-0.993544, 1, 105, 256, 168
-0.993551, 81, 9, 112, 72
-0.993611, 119, 25, 134, 88
-0.993614, 333, 145, 364, 208
-0.993618, 97, 97, 224, 160
-0.993659, 33, 1, 96, 64
-0.993679, 289, 197, 416, 228
-0.993689, 65, 61, 192, 92
-0.993742, 289, 21, 416, 52
-0.993806, 397, 33, 428, 96
-0.993812, 283, 217, 298, 280
-0.993875, 9, 225, 40, 288
-0.99389, 357, 193, 372, 256
-0.993909, 137, 241, 200, 304
-0.993924, 357, 153, 372, 216
-0.993928, 339, 193, 354, 256
-0.99396, 33, 201, 288, 264
-0.993974, 257, 217, 384, 248
-0.993986, 359, 9, 374, 72
-0.993987, 201, 225, 264, 288
-0.994, 161, 65, 288, 128
-0.994024, 363, 33, 378, 96
-0.994045, 425, 33, 456, 96
-0.994078, 117, 1, 148, 64
-0.994082, 225, 217, 480, 280
-0.994092, 163, 25, 178, 88
-0.994102, 265, 161, 296, 288
-0.994114, 369, 97, 432, 224
-0.994141, 127, 25, 142, 88
-0.994177, 61, 185, 92, 248
-0.99423, 369, 65, 384, 128
-0.994273, 293, 209, 308, 272
-0.994283, 257, 265, 500, 328
-0.99434, 369, 41, 384, 104
-0.99437, 245, 193, 276, 320
-0.994375, 161, 225, 288, 288
-0.994378, 37, 233, 68, 296
-0.99439, 153, 89, 216, 152
-0.994395, 109, 41, 124, 104
-0.99444, 445, 265, 476, 328
-0.994489, 361, 185, 392, 248
-0.994511, 241, 29, 368, 60
-0.994536, 365, 9, 380, 72
-0.994542, 129, 249, 384, 312
-0.994556, 313, 121, 376, 184
-0.994573, 65, 25, 192, 56
-0.994612, 413, 209, 444, 335
-0.994629, 353, 193, 480, 256
-0.994654, 133, 17, 148, 80
-0.994691, 17, 129, 48, 192
-0.994719, 225, 249, 352, 280
-0.994728, 425, 209, 456, 335
-0.994739, 69, 265, 100, 328
-0.99474, 331, 169, 346, 232
-0.994747, 193, 81, 448, 144
-0.994754, 401, 33, 464, 96
-0.994779, 353, 9, 368, 72
-0.994797, 57, 73, 88, 136
-0.994822, 385, 57, 448, 120
-0.994837, 1, 9, 256, 72
-0.994895, 353, 169, 480, 232
-0.994983, 1, 257, 64, 320
-0.994986, 161, 21, 288, 52
-0.994997, 113, 37, 240, 68
-0.995012, 371, 9, 386, 72
-0.995026, 413, 33, 444, 160
-0.995029, 139, 265, 154, 328
-0.995059, 347, 209, 362, 272
-0.995076, 57, 257, 88, 320
-0.995079, 1, 137, 500, 200
-0.995127, 369, 97, 384, 160
-0.995148, 329, 113, 360, 240
-0.995165, 237, 225, 268, 288
-0.995192, 155, 17, 170, 80
-0.995192, 289, 249, 416, 280
-0.995208, 161, 37, 288, 68
-0.995211, 353, 265, 480, 296
-0.995239, 373, 129, 404, 192
-0.995241, 81, 81, 112, 208
-0.995242, 115, 73, 130, 136
-0.995253, 169, 33, 184, 96
-0.99526, 339, 217, 354, 280
-0.995263, 333, 193, 348, 256
-0.995292, 37, 97, 68, 160
-0.995385, 121, 73, 152, 136
-0.995422, 45, 177, 76, 240
-0.995459, 257, 209, 288, 335
-0.995464, 369, 217, 400, 280
-0.995482, 193, 105, 448, 168
-0.9955, 193, 57, 448, 120
-0.995539, 241, 129, 368, 192
-0.995574, 145, 145, 272, 272
-0.995594, 17, 73, 80, 136
-0.995602, 129, 201, 384, 264
-0.995614, 145, 97, 272, 224
-0.995621, 361, 65, 392, 320
-0.995624, 157, 49, 172, 112
-0.995625, 337, 57, 464, 88
-0.995631, 313, 241, 328, 304
-0.995639, 139, 17, 154, 80
-0.99564, 55, 209, 70, 272
-0.995643, 299, 209, 314, 272
-0.995649, 97, 113, 224, 240
-0.995654, 273, 185, 400, 216
-0.995691, 177, 1, 192, 64
-0.995736, 119, 49, 134, 112
-0.995743, 97, 201, 224, 264
-0.995747, 73, 113, 136, 176
-0.995759, 277, 217, 292, 280
-0.995768, 289, 33, 416, 64
-0.995771, 29, 65, 60, 192
-0.995775, 1, 97, 32, 224
-0.995799, 321, 173, 448, 204
-0.995802, 209, 233, 336, 264
-0.995807, 377, 241, 392, 304
-0.995815, 337, 33, 464, 64
-0.995831, 241, 205, 368, 236
-0.995847, 385, 249, 400, 312
-0.995848, 295, 249, 310, 312
-0.995853, 341, 1, 372, 256
-0.995859, 325, 233, 340, 296
-0.995869, 33, 273, 160, 304
-0.995874, 277, 1, 292, 64
-0.995937, 367, 145, 382, 208
-0.995942, 301, 249, 316, 312
-0.995949, 27, 201, 42, 264
-0.995949, 65, 73, 192, 104
-0.995952, 49, 209, 64, 272
-0.995965, 409, 257, 424, 320
-0.995968, 133, 265, 148, 328
-0.995971, 305, 201, 320, 264
-0.995988, 15, 201, 30, 264
-0.995995, 145, 17, 160, 80
-0.995997, 113, 53, 240, 84
-0.996029, 165, 57, 180, 120
-0.996037, 33, 273, 288, 335
-0.996051, 361, 233, 376, 296
-0.996077, 385, 33, 400, 96
-0.996088, 391, 257, 406, 320
-0.99611, 283, 241, 298, 304
-0.996124, 1, 241, 256, 304
-0.996148, 375, 49, 390, 112
-0.996168, 225, 1, 240, 64
-0.996169, 1, 221, 128, 252
-0.996171, 1, 177, 256, 240
-0.996184, 363, 65, 378, 128
-0.996202, 111, 9, 126, 72
-0.996217, 357, 41, 372, 104
-0.996221, 331, 233, 346, 296
-0.996225, 327, 1, 342, 64
-0.996228, 145, 273, 272, 335
-0.996231, 305, 25, 320, 88
-0.996242, 339, 1, 354, 64
-0.996251, 113, 89, 176, 152
-0.996274, 353, 113, 480, 144
-0.996281, 415, 257, 430, 320
-0.996333, 271, 1, 286, 64
-0.996337, 21, 201, 36, 264
-0.996346, 295, 25, 310, 88
-0.996346, 289, 249, 304, 312
-0.996347, 161, 193, 224, 256
-0.996348, 353, 81, 480, 112
-0.996353, 171, 1, 186, 64
-0.99636, 133, 41, 148, 104
-0.996363, 369, 277, 496, 308
-0.996367, 377, 17, 392, 80
-0.99637, 303, 1, 318, 64
-0.996371, 311, 25, 326, 88
-0.996371, 175, 33, 190, 96
-0.996386, 127, 1, 142, 64
-0.996388, 277, 25, 292, 88
-0.996391, 285, 25, 300, 88
-0.996397, 333, 1, 348, 64
-0.99641, 273, 9, 400, 40
-0.996425, 347, 25, 362, 88
-0.996432, 319, 25, 334, 88
-0.996439, 337, 45, 464, 76
-0.996466, 337, 17, 464, 48
-0.996475, 49, 285, 176, 316
-0.996477, 325, 25, 340, 88
-0.996478, 43, 209, 58, 272
-0.996485, 353, 137, 480, 168
-0.996494, 65, 161, 192, 224
-0.996496, 37, 209, 52, 272
-0.996499, 321, 185, 336, 248
-0.9965, 283, 1, 298, 64
-0.996507, 311, 193, 326, 256
-0.99651, 355, 233, 370, 296
-0.996516, 219, 9, 234, 72
-0.996525, 371, 241, 386, 304
-0.996529, 337, 153, 464, 184
-0.996534, 345, 1, 360, 64
-0.996536, 113, 81, 144, 208
-0.996541, 1, 237, 128, 268
-0.996545, 145, 265, 160, 328
-0.996571, 307, 241, 322, 304
-0.996581, 231, 1, 246, 64
-0.996594, 161, 129, 416, 192
-0.996601, 289, 1, 304, 64
-0.99661, 113, 13, 240, 44
-0.996618, 265, 273, 328, 335
-0.996619, 161, 1, 176, 64
-0.996627, 423, 257, 438, 320
-0.996629, 331, 25, 346, 88
-0.996644, 231, 25, 246, 88
-0.996656, 219, 33, 234, 96
-0.99666, 125, 49, 140, 112
-0.996666, 397, 257, 412, 320
-0.996667, 375, 81, 390, 144
-0.99667, 271, 25, 286, 88
-0.996675, 317, 1, 348, 256
-0.996693, 209, 17, 336, 48
-0.996698, 53, 65, 84, 320
-0.996702, 237, 25, 252, 88
-0.996705, 429, 257, 444, 320
-0.996733, 49, 261, 176, 292
-0.996738, 213, 1, 228, 64
-0.996739, 127, 273, 142, 335
-0.996741, 313, 1, 328, 64
-0.996742, 121, 1, 136, 64
-0.996754, 403, 257, 418, 320
-0.996757, 225, 33, 240, 96
-0.996761, 109, 73, 124, 136
-0.996764, 353, 93, 480, 124
-0.996775, 243, 33, 258, 96
-0.996806, 225, 193, 352, 224
-0.996814, 295, 1, 310, 64
-0.996833, 341, 25, 356, 88
-0.996835, 391, 33, 406, 96
-0.996836, 319, 233, 334, 296
-0.996844, 257, 169, 500, 232
-0.996845, 183, 1, 198, 64
-0.996852, 249, 249, 264, 312
-0.99686, 1, 125, 128, 156
-0.996866, 249, 33, 264, 96
-0.996875, 435, 257, 450, 320
-0.996886, 375, 105, 390, 168
-0.996889, 321, 1, 336, 64
-0.996901, 33, 109, 160, 140
-0.996908, 65, 13, 192, 44
-0.996912, 103, 49, 118, 112
-0.996913, 353, 69, 480, 100
-0.99692, 263, 9, 278, 72
-0.996923, 273, 97, 400, 128
-0.996929, 345, 145, 360, 208
-0.99694, 273, 69, 400, 100
-0.996948, 203, 1, 218, 64
-0.996952, 237, 1, 252, 64
-0.996953, 329, 1, 360, 256
-0.997039, 161, 97, 288, 160
-0.997065, 1, 129, 256, 192
-0.997072, 337, 253, 464, 284
-0.997083, 301, 1, 332, 256
-0.997094, 65, 85, 192, 116
-0.997109, 97, 277, 224, 308
-0.997119, 17, 25, 144, 56
-0.99714, 37, 65, 68, 320
-0.997141, 289, 117, 416, 148
-0.997146, 1, 209, 128, 240
-0.997146, 337, 197, 464, 228
-0.997209, 161, 153, 416, 216
-0.997231, 337, 177, 352, 208
-0.99724, 129, 41, 144, 72
-0.997261, 49, 137, 176, 200
-0.997263, 1, 65, 128, 96
-0.997273, 17, 45, 144, 76
-0.997279, 121, 33, 136, 64
-0.99728, 113, 65, 240, 96
-0.997293, 393, 81, 456, 144
-0.997298, 49, 97, 176, 128
-0.997301, 155, 53, 170, 84
-0.997312, 339, 193, 354, 224
-0.997327, 357, 17, 372, 48
-0.997335, 285, 1, 316, 256
-0.997342, 129, 273, 384, 335
-0.997352, 121, 49, 136, 80
-0.997384, 111, 49, 126, 80
-0.99739, 65, 245, 192, 276
-0.99741, 347, 221, 362, 252
-0.997412, 365, 37, 380, 68
-0.997414, 289, 57, 416, 88
-0.997415, 331, 181, 346, 212
-0.997427, 351, 193, 366, 224
-0.997429, 343, 173, 358, 204
-0.997469, 377, 1, 408, 256
-0.997472, 149, 193, 180, 320
-0.997487, 1, 77, 128, 108
-0.997495, 49, 233, 176, 264
-0.997496, 49, 221, 176, 252
-0.997505, 193, 221, 320, 252
-0.997509, 273, 85, 400, 116
-0.997521, 393, 17, 424, 144
-0.997523, 367, 69, 382, 100
-0.997525, 417, 57, 480, 120
-0.997527, 283, 221, 298, 252
-0.997535, 17, 97, 48, 224
-0.997551, 193, 205, 320, 236
-0.997552, 49, 209, 176, 240
-0.997554, 173, 37, 188, 68
-0.997559, 273, 1, 304, 256
-0.997563, 337, 217, 352, 248
-0.997569, 257, 145, 500, 208
-0.997575, 273, 45, 400, 76
-0.997576, 125, 21, 140, 52
-0.997578, 353, 125, 480, 156
-0.997588, 161, 53, 176, 84
-0.99759, 363, 49, 378, 80
-0.997601, 257, 145, 384, 176
-0.997618, 167, 33, 182, 64
-0.997624, 127, 53, 142, 84
-0.997631, 351, 25, 366, 56
-0.997646, 1, 249, 128, 280
-0.997653, 337, 185, 464, 216
-0.997661, 197, 49, 228, 176
-0.99767, 117, 1, 148, 256
-0.99768, 359, 193, 374, 224
-0.997692, 179, 41, 194, 72
-0.997702, 33, 1, 160, 32
-0.997709, 177, 245, 304, 276
-0.99771, 369, 81, 384, 112
-0.997727, 149, 49, 164, 80
-0.997728, 131, 21, 146, 52
-0.997729, 137, 273, 152, 304
-0.997743, 65, 65, 96, 320
-0.997756, 121, 61, 136, 92
-0.997757, 425, 1, 488, 128
-0.997767, 239, 25, 254, 56
-0.997785, 17, 197, 144, 228
-0.997785, 161, 9, 288, 40
-0.997786, 161, 65, 176, 96
-0.997793, 277, 237, 292, 268
-0.997795, 355, 157, 370, 188
-0.997798, 1, 261, 128, 292
-0.997815, 273, 129, 400, 160
-0.997817, 367, 13, 382, 44
-0.997823, 185, 41, 200, 72
-0.997834, 359, 37, 374, 68
-0.997846, 241, 161, 368, 192
-0.997852, 137, 49, 152, 80
-0.997859, 225, 5, 352, 36
-0.99787, 367, 145, 382, 176
-0.997889, 85, 1, 116, 256
-0.997895, 117, 73, 132, 104
-0.9979, 305, 209, 432, 240
-0.997907, 13, 201, 28, 232
-0.997907, 25, 65, 56, 320
-0.997929, 1, 141, 128, 172
-0.997929, 145, 257, 272, 288
-0.99793, 245, 1, 276, 256
-0.997942, 261, 1, 292, 256
-0.997943, 359, 65, 374, 96
-0.997948, 165, 201, 180, 232
-0.997949, 129, 97, 192, 224
-0.997949, 321, 189, 336, 220
-0.997956, 143, 49, 158, 80
-0.997958, 1, 93, 128, 124
-0.997961, 305, 293, 432, 324
-0.997965, 369, 101, 384, 132
-0.99797, 425, 17, 456, 144
-0.997975, 369, 49, 384, 80
-0.997978, 173, 1, 204, 256
-0.997979, 283, 245, 298, 276
-0.997995, 311, 245, 326, 276
-0.998004, 113, 61, 128, 92
-0.998007, 257, 173, 384, 204
-0.998007, 317, 241, 332, 272
-0.99801, 385, 253, 400, 284
-0.998011, 167, 45, 182, 76
-0.998023, 369, 237, 496, 268
-0.998032, 313, 197, 328, 228
-0.998036, 195, 41, 210, 72
-0.998042, 131, 277, 146, 308
-0.998044, 1, 177, 128, 208
-0.998058, 345, 189, 360, 220
-0.99806, 51, 213, 66, 244
-0.998062, 337, 233, 352, 264
-0.998066, 357, 237, 372, 268
-0.998081, 81, 1, 208, 32
-0.998084, 345, 209, 360, 240
-0.998086, 301, 205, 316, 236
-0.998087, 13, 65, 44, 320
-0.998089, 295, 213, 310, 244
-0.998092, 397, 265, 412, 296
-0.998097, 167, 69, 182, 100
-0.998106, 371, 29, 386, 60
-0.998115, 327, 237, 342, 268
-0.998117, 65, 129, 96, 256
-0.998119, 307, 201, 322, 232
-0.99812, 167, 57, 182, 88
-0.998124, 393, 1, 456, 335
-0.99813, 391, 257, 406, 288
-0.998138, 353, 5, 480, 36
-0.998142, 367, 241, 382, 272
-0.998143, 171, 17, 186, 48
-0.998143, 233, 1, 264, 256
-0.998143, 377, 245, 392, 276
-0.99815, 17, 13, 144, 44
-0.998153, 299, 253, 314, 284
-0.998155, 137, 21, 152, 52
-0.998163, 161, 29, 176, 60
-0.998164, 355, 205, 370, 236
-0.998164, 361, 153, 376, 184
-0.998166, 185, 1, 216, 256
-0.998167, 357, 145, 372, 272
-0.998176, 321, 305, 448, 335
-0.998177, 293, 29, 308, 60
-0.998185, 143, 269, 158, 300
-0.998187, 233, 29, 248, 60
-0.998199, 111, 89, 126, 120
-0.998201, 129, 169, 256, 232
-0.998203, 107, 61, 122, 92
-0.998203, 407, 265, 422, 296
-0.998208, 289, 213, 304, 244
-0.998222, 161, 53, 288, 84
-0.998223, 209, 261, 336, 292
-0.998229, 129, 1, 160, 256
-0.998231, 97, 265, 224, 296
-0.998237, 125, 277, 140, 308
-0.99824, 277, 21, 292, 52
-0.998246, 97, 1, 128, 256
-0.998257, 289, 249, 304, 280
-0.998258, 349, 169, 364, 200
-0.99826, 201, 193, 264, 256
-0.998261, 103, 45, 118, 76
-0.998275, 377, 113, 392, 144
-0.998277, 263, 21, 278, 52
-0.998278, 337, 21, 352, 52
-0.998279, 97, 289, 224, 320
-0.998295, 153, 1, 184, 256
-0.998299, 113, 77, 240, 108
-0.998302, 355, 217, 370, 248
-0.998306, 153, 5, 168, 36
-0.998307, 347, 13, 362, 44
-0.998308, 221, 21, 236, 52
-0.998311, 387, 37, 402, 68
-0.998312, 305, 29, 320, 60
-0.998318, 251, 253, 266, 284
-0.99833, 313, 193, 376, 208
-0.99833, 109, 73, 124, 104
-0.998334, 413, 41, 428, 72
-0.998339, 353, 37, 368, 68
-0.998339, 299, 29, 314, 60
-0.99834, 239, 193, 254, 224
-0.998347, 269, 33, 284, 64
-0.998348, 333, 179, 364, 194
-0.998349, 277, 231, 308, 246
-0.998349, 253, 35, 284, 50
-0.998351, 357, 129, 388, 144
-0.998352, 69, 67, 100, 82
-0.998352, 117, 67, 148, 82
-0.998352, 249, 27, 280, 42
-0.998353, 357, 57, 388, 72
-0.998353, 305, 29, 336, 44
-0.998353, 85, 47, 116, 62
-0.998353, 177, 25, 192, 56
-0.998354, 227, 37, 242, 68
-0.998354, 353, 45, 384, 60
-0.998354, 353, 215, 384, 230
-0.998355, 153, 27, 184, 42
-0.998356, 141, 17, 172, 32
-0.998357, 53, 237, 84, 252
-0.998359, 305, 265, 432, 296
-0.998359, 373, 129, 404, 144
-0.99836, 365, 71, 396, 86
-0.998361, 289, 255, 320, 270
-0.998361, 209, 39, 240, 54
-0.998361, 373, 137, 388, 168
-0.998361, 397, 43, 428, 58
-0.998362, 321, 281, 448, 312
-0.998362, 377, 259, 408, 274
-0.998364, 337, 17, 368, 32
-0.998364, 237, 37, 268, 52
-0.998364, 197, 35, 228, 50
-0.998365, 125, 35, 156, 50
-0.998367, 169, 27, 200, 42
-0.998368, 33, 209, 64, 224
-0.998368, 345, 225, 376, 240
-0.998368, 169, 57, 232, 120
-0.998368, 305, 249, 320, 280
-0.998369, 365, 95, 396, 110
-0.998369, 373, 65, 388, 96
-0.99837, 413, 261, 428, 292
-0.99837, 121, 55, 184, 70
-0.99837, 425, 265, 456, 280
-0.99837, 321, 25, 352, 40
-0.99837, 357, 205, 388, 220
-0.998371, 377, 21, 392, 52
-0.998371, 365, 45, 396, 60
-0.998372, 373, 121, 404, 136
-0.998372, 181, 35, 212, 50
-0.998373, 153, 73, 184, 88
-0.998374, 365, 149, 396, 164
-0.998374, 373, 253, 404, 268
-0.998374, 57, 267, 88, 282
-0.998376, 281, 219, 312, 234
-0.998376, 157, 13, 188, 28
-0.998377, 345, 39, 376, 54
-0.998377, 205, 1, 236, 256
-0.998378, 237, 259, 268, 274
-0.998378, 357, 111, 388, 126
-0.998378, 297, 249, 328, 264
-0.998379, 305, 203, 336, 218
-0.998379, 227, 25, 242, 56
-0.99838, 261, 239, 292, 254
-0.99838, 321, 225, 448, 256
-0.998381, 287, 29, 302, 60
-0.998382, 115, 25, 130, 56
-0.998382, 253, 251, 284, 266
-0.998382, 393, 259, 424, 274
-0.998383, 361, 197, 392, 212
-0.998383, 409, 47, 440, 62
-0.998384, 221, 39, 252, 54
-0.998384, 125, 43, 156, 58
-0.998384, 155, 41, 170, 72
-0.998385, 49, 297, 176, 328
-0.998385, 113, 23, 176, 38
-0.998387, 177, 53, 208, 68
-0.998388, 89, 65, 120, 80
-0.99839, 337, 31, 368, 46
-0.998391, 185, 41, 216, 56
-0.998391, 329, 217, 360, 232
-0.998391, 293, 211, 324, 226
-0.998392, 173, 43, 204, 58
-0.998393, 341, 173, 372, 188
-0.998395, 141, 271, 172, 286
-0.998396, 377, 89, 392, 120
-0.998397, 269, 33, 300, 48
-0.998397, 27, 209, 42, 240
-0.998397, 143, 9, 158, 40
-0.998398, 345, 67, 376, 82
-0.998399, 357, 105, 388, 120
-0.9984, 259, 249, 274, 280
-0.9984, 257, 25, 272, 56
-0.998402, 351, 161, 366, 288
-0.998403, 289, 31, 320, 46
-0.998403, 289, 243, 320, 258
-0.998403, 153, 21, 168, 52
-0.998405, 147, 21, 162, 52
-0.998405, 165, 13, 180, 44
-0.998406, 277, 225, 292, 256
-0.998406, 427, 33, 442, 64
-0.998406, 213, 25, 228, 56
-0.998407, 161, 19, 192, 34
-0.998407, 365, 247, 396, 262
-0.998408, 397, 267, 428, 282
-0.998409, 157, 33, 188, 48
-0.998409, 277, 225, 308, 240
-0.998415, 289, 207, 352, 222
-0.998416, 353, 31, 384, 46
-0.998417, 113, 283, 144, 298
-0.998417, 345, 29, 360, 60
-0.998418, 217, 31, 248, 46
-0.998419, 325, 237, 356, 252
-0.998419, 233, 17, 248, 48
-0.99842, 377, 43, 408, 58
-0.998421, 305, 199, 368, 214
-0.998421, 13, 211, 44, 226
-0.998422, 353, 241, 384, 256
-0.998423, 101, 67, 132, 82
-0.998423, 129, 281, 160, 296
-0.998427, 413, 33, 444, 48
-0.998429, 149, 67, 180, 82
-0.998431, 333, 223, 364, 238
-0.998432, 353, 161, 384, 176
-0.998434, 365, 89, 396, 104
-0.998437, 365, 65, 396, 80
-0.998437, 105, 27, 136, 42
-0.99844, 109, 39, 140, 54
-0.998441, 313, 243, 344, 258
-0.998444, 129, 61, 160, 76
-0.998445, 129, 49, 160, 64
-0.998446, 265, 245, 296, 260
-0.998447, 113, 209, 144, 335
-0.998448, 361, 51, 392, 66
-0.998448, 237, 31, 268, 46
-0.998449, 297, 193, 312, 320
-0.998451, 157, 203, 188, 218
-0.998453, 365, 77, 396, 92
-0.998453, 145, 53, 208, 68
-0.998455, 105, 61, 136, 76
-0.998456, 413, 263, 444, 278
-0.998457, 105, 33, 136, 48
-0.998458, 333, 23, 364, 38
-0.998459, 321, 237, 384, 252
-0.998463, 341, 215, 372, 230
-0.998463, 41, 215, 72, 230
-0.998463, 289, 213, 352, 228
-0.998467, 121, 61, 184, 76
-0.998469, 329, 185, 360, 200
-0.99847, 105, 49, 168, 64
-0.99847, 373, 35, 404, 50
-0.998471, 105, 47, 136, 62
-0.998471, 165, 57, 196, 72
-0.998476, 385, 265, 448, 280
-0.998476, 145, 61, 176, 76
-0.998479, 77, 193, 108, 320
-0.998485, 345, 39, 408, 54
-0.998486, 145, 197, 272, 228
-0.99849, 141, 23, 172, 38
-0.998491, 277, 251, 308, 266
-0.998495, 105, 55, 136, 70
-0.998499, 369, 297, 496, 328
-0.998499, 121, 31, 184, 46
-0.998502, 353, 25, 384, 40
-0.998502, 249, 247, 312, 262
-0.998502, 145, 273, 272, 304
-0.998503, 321, 25, 384, 40
-0.998506, 365, 83, 396, 98
-0.998508, 117, 61, 148, 76
-0.998511, 81, 45, 144, 60
-0.998511, 9, 205, 40, 220
-0.998511, 129, 275, 160, 290
-0.998513, 9, 213, 72, 228
-0.998514, 317, 197, 348, 212
-0.998517, 81, 59, 144, 74
-0.998525, 329, 203, 392, 218
-0.998525, 265, 253, 328, 268
-0.998535, 81, 51, 144, 66
-0.998536, 305, 193, 320, 320
-0.998538, 345, 33, 408, 48
-0.998538, 81, 65, 144, 80
-0.998539, 153, 51, 184, 66
-0.998543, 117, 49, 148, 64
-0.998545, 337, 203, 368, 218
-0.998546, 273, 235, 336, 250
-0.998547, 337, 209, 368, 224
-0.998547, 345, 49, 408, 64
-0.998547, 329, 19, 392, 34
-0.998548, 329, 209, 392, 224
-0.998549, 121, 25, 152, 40
-0.998551, 165, 51, 196, 66
-0.998552, 313, 187, 376, 202
-0.998556, 369, 45, 432, 60
-0.998564, 281, 245, 344, 260
-0.998564, 1, 285, 128, 316
-0.998565, 329, 177, 344, 304
-0.998567, 81, 39, 144, 54
-0.998568, 169, 41, 232, 56
-0.998572, 121, 279, 184, 294
-0.998573, 357, 39, 388, 54
-0.998574, 225, 31, 288, 46
-0.998575, 345, 27, 408, 42
-0.998575, 169, 35, 232, 50
-0.998576, 153, 17, 216, 32
-0.998577, 81, 33, 144, 48
-0.998577, 217, 1, 248, 256
-0.998581, 1, 207, 64, 222
-0.998581, 317, 191, 348, 206
-0.998582, 357, 15, 388, 30
-0.998583, 281, 199, 344, 214
-0.998583, 105, 43, 168, 58
-0.998585, 121, 177, 184, 240
-0.998587, 201, 31, 264, 46
-0.998587, 233, 241, 296, 256
-0.998589, 339, 193, 354, 320
-0.99859, 225, 37, 288, 52
-0.99859, 121, 37, 184, 52
-0.998591, 289, 189, 352, 204
-0.998591, 9, 225, 72, 240
-0.998592, 201, 39, 264, 54
-0.998595, 385, 33, 448, 48
-0.998595, 121, 67, 184, 82
-0.998597, 257, 33, 320, 48
-0.998598, 353, 63, 416, 78
-0.9986, 129, 47, 192, 62
-0.998602, 289, 157, 416, 188
-0.998603, 353, 199, 416, 214
-0.998605, 145, 59, 208, 74
-0.998605, 321, 177, 336, 304
-0.998606, 361, 97, 424, 112
-0.998606, 281, 29, 344, 44
-0.998607, 9, 219, 72, 234
-0.998607, 337, 233, 368, 248
-0.998607, 105, 285, 168, 300
-0.998607, 369, 23, 432, 38
-0.998607, 81, 27, 144, 42
-0.998608, 137, 55, 168, 70
-0.99861, 289, 209, 304, 335
-0.99861, 161, 23, 224, 38
-0.998611, 361, 259, 424, 274
-0.998612, 385, 259, 448, 274
-0.998612, 329, 215, 392, 230
-0.998613, 305, 245, 368, 260
-0.998614, 129, 273, 192, 288
-0.998615, 385, 51, 448, 66
-0.998615, 1, 157, 128, 188
-0.998616, 313, 31, 376, 46
-0.998618, 117, 55, 148, 70
-0.998618, 369, 1, 384, 128
-0.998618, 337, 193, 400, 208
-0.99862, 345, 55, 408, 70
-0.998621, 353, 17, 416, 32
-0.998626, 225, 259, 288, 274
-0.998626, 353, 73, 416, 88
-0.99863, 361, 105, 424, 120
-0.99863, 73, 277, 136, 292
-0.99863, 65, 71, 128, 86
-0.99863, 345, 253, 408, 268
-0.998631, 345, 159, 408, 174
-0.998631, 161, 29, 224, 44
-0.998633, 185, 23, 248, 38
-0.998633, 353, 91, 416, 106
-0.998633, 369, 39, 432, 54
-0.998634, 329, 105, 392, 120
-0.998634, 315, 177, 330, 304
-0.998635, 273, 221, 336, 236
-0.998636, 81, 271, 144, 286
-0.998636, 33, 241, 96, 256
-0.998636, 33, 269, 96, 284
-0.998637, 329, 13, 392, 28
-0.998638, 257, 241, 320, 256
-0.998638, 97, 277, 160, 292
-0.998639, 145, 37, 208, 52
-0.998639, 25, 233, 88, 248
-0.99864, 361, 119, 424, 134
-0.998641, 329, 179, 392, 194
-0.998641, 361, 125, 424, 140
-0.998641, 241, 253, 304, 268
-0.998642, 361, 145, 424, 160
-0.998642, 353, 85, 416, 100
-0.998642, 233, 235, 296, 250
-0.998642, 329, 111, 392, 126
-0.998642, 33, 215, 96, 230
-0.998643, 409, 271, 472, 286
-0.998643, 73, 87, 136, 102
-0.998644, 321, 41, 384, 56
-0.998644, 377, 57, 440, 72
-0.998645, 337, 169, 400, 184
-0.998647, 353, 79, 416, 94
-0.998648, 337, 247, 400, 262
-0.998648, 329, 135, 392, 150
-0.998648, 49, 121, 176, 152
-0.998649, 25, 127, 88, 142
-0.998649, 361, 133, 424, 148
-0.998649, 249, 27, 312, 42
-0.998649, 233, 229, 296, 244
-0.998651, 329, 121, 392, 136
-0.998652, 153, 205, 216, 220
-0.998652, 73, 21, 136, 36
-0.998653, 97, 105, 224, 136
-0.998654, 409, 265, 472, 280
-0.998656, 305, 15, 368, 30
-0.998656, 361, 139, 424, 154
-0.998658, 329, 127, 392, 142
-0.998658, 41, 275, 104, 290
-0.998658, 129, 205, 192, 220
-0.998659, 321, 67, 384, 82
-0.998659, 57, 47, 120, 62
-0.99866, 361, 113, 424, 128
-0.99866, 353, 151, 416, 166
-0.99866, 33, 247, 96, 262
-0.99866, 225, 25, 288, 40
-0.99866, 329, 99, 392, 114
-0.998681, 113, 93, 240, 124
-0.998685, 339, 145, 354, 272
-0.998688, 305, 141, 432, 172
-0.998697, 341, 193, 372, 208
-0.998739, 345, 161, 360, 288
-0.99874, 153, 1, 168, 128
-0.998741, 97, 89, 352, 152
-0.998745, 357, 209, 372, 335
-0.998757, 141, 1, 172, 256
-0.998767, 363, 145, 378, 272
-0.998768, 139, 1, 154, 128
-0.99878, 283, 209, 298, 335
-0.998781, 159, 1, 174, 128
-0.998798, 169, 1, 184, 128
-0.998798, 365, 81, 380, 208
-0.998828, 127, 17, 142, 144
-0.998836, 145, 1, 160, 128
-0.998838, 1, 1, 64, 64
-0.998843, 49, 173, 176, 204
-0.99887, 359, 1, 374, 128
-0.998871, 1, 301, 128, 332
-0.998874, 241, 301, 368, 332
-0.998891, 133, 1, 148, 128
-0.998891, 161, 65, 288, 96
-0.998898, 217, 193, 248, 320
-0.998924, 209, 181, 336, 212
-0.998936, 97, 205, 224, 236
-0.998946, 351, 209, 366, 335
-0.99895, 107, 17, 122, 144
-0.998964, 375, 17, 390, 144
-0.998982, 1, 33, 32, 288
-0.999002, 273, 281, 400, 312
-0.999016, 371, 65, 386, 192
-0.999026, 321, 237, 448, 268
-0.999029, 353, 1, 368, 128
-0.999036, 369, 129, 384, 256
-0.999046, 117, 17, 132, 144
-0.999051, 27, 193, 42, 320
-0.999053, 363, 209, 378, 335
-0.999067, 163, 49, 178, 176
-0.999075, 101, 33, 116, 160
-0.999088, 209, 113, 336, 240
-0.999124, 161, 233, 288, 264
-0.999141, 385, 17, 400, 144
-0.999151, 195, 33, 210, 160
-0.999153, 287, 17, 302, 144
-0.999161, 33, 193, 48, 320
-0.999163, 377, 65, 392, 192
-0.999163, 359, 49, 374, 176
-0.999167, 331, 1, 346, 128
-0.999176, 347, 17, 362, 144
-0.999178, 115, 65, 130, 192
-0.999183, 179, 33, 194, 160
-0.999187, 43, 193, 58, 320
-0.999191, 95, 33, 110, 160
-0.999192, 21, 193, 36, 320
-0.999195, 267, 17, 282, 144
-0.999201, 17, 145, 32, 272
-0.999203, 273, 17, 288, 144
-0.999205, 341, 49, 372, 176
-0.999212, 345, 209, 360, 335
-0.999216, 277, 209, 292, 335
-0.999219, 371, 209, 386, 335
-0.999227, 187, 1, 202, 128
-0.999228, 341, 17, 356, 144
-0.99923, 319, 17, 334, 144
-0.999231, 205, 1, 220, 128
-0.999232, 289, 161, 304, 288
-0.999234, 295, 1, 310, 128
-0.999239, 281, 17, 296, 144
-0.999243, 313, 17, 328, 144
-0.999258, 325, 1, 340, 128
-0.999261, 41, 113, 56, 240
-0.999271, 301, 1, 316, 128
-0.999276, 15, 193, 30, 320
-0.999277, 187, 49, 202, 176
-0.999278, 241, 17, 256, 144
-0.999279, 65, 209, 80, 335
-0.99928, 261, 17, 276, 144
-0.999284, 89, 33, 104, 160
-0.999285, 35, 113, 50, 240
-0.999288, 157, 49, 172, 176
-0.999293, 307, 1, 322, 128
-0.999295, 211, 1, 226, 128
-0.999297, 61, 97, 76, 224
-0.999304, 97, 301, 224, 332
-0.999307, 49, 193, 64, 320
-0.999312, 283, 161, 298, 288
-0.999313, 47, 113, 62, 240
-0.999319, 25, 113, 40, 240
-0.999331, 247, 17, 262, 144
-0.999347, 235, 1, 250, 128
-0.999348, 253, 1, 268, 128
-0.99935, 55, 193, 70, 320
-0.999359, 229, 1, 244, 128
-0.999373, 381, 193, 396, 320
-0.999389, 67, 81, 82, 208
-0.999396, 347, 113, 362, 240
-0.999397, 161, 89, 288, 120
-0.999405, 109, 65, 124, 192
-0.999406, 223, 17, 238, 144
-0.999406, 161, 193, 192, 320
-0.999409, 81, 193, 208, 224
-0.999415, 65, 161, 80, 288
-0.999416, 65, 161, 192, 192
-0.999433, 11, 145, 26, 272
-0.999441, 217, 33, 232, 160
-0.999442, 53, 113, 68, 240
-0.999452, 169, 65, 184, 192
-0.999461, 1, 153, 256, 216
-0.999461, 387, 209, 402, 335
-0.999462, 113, 225, 240, 288
-0.999463, 75, 33, 90, 160
-0.99947, 83, 33, 98, 160
-0.999472, 391, 17, 406, 144
-0.999476, 309, 145, 324, 272
-0.999484, 359, 97, 374, 224
-0.999489, 329, 129, 344, 256
-0.99949, 201, 49, 264, 176
-0.999494, 241, 177, 256, 304
-0.999508, 423, 33, 438, 160
-0.999511, 71, 209, 86, 335
-0.999514, 151, 49, 166, 176
-0.999524, 73, 97, 88, 224
-0.999532, 5, 129, 20, 256
-0.999534, 133, 49, 148, 176
-0.999538, 427, 209, 442, 335
-0.99954, 129, 185, 256, 216
-0.999541, 375, 113, 390, 240
-0.999545, 145, 49, 160, 176
-0.999546, 69, 33, 84, 160
-0.999547, 9, 193, 24, 320
-0.99955, 145, 209, 272, 240
-0.999554, 71, 161, 86, 288
-0.999559, 59, 145, 74, 272
-0.999559, 193, 273, 320, 304
-0.999561, 45, 213, 60, 228
-0.999561, 353, 223, 368, 238
-0.999562, 405, 267, 420, 282
-0.999563, 119, 41, 134, 56
-0.999563, 357, 23, 372, 38
-0.999563, 129, 23, 144, 38
-0.999564, 357, 209, 372, 224
-0.999564, 421, 51, 436, 66
-0.999564, 247, 193, 262, 320
-0.999565, 373, 141, 388, 156
-0.999566, 143, 21, 158, 36
-0.999567, 429, 31, 444, 46
-0.999567, 111, 45, 126, 60
-0.999568, 331, 211, 346, 226
-0.999568, 115, 85, 130, 100
-0.99957, 417, 263, 432, 278
-0.999571, 107, 83, 122, 98
-0.999571, 361, 201, 376, 216
-0.999571, 117, 69, 132, 84
-0.999572, 107, 65, 122, 80
-0.999572, 185, 193, 248, 320
-0.999572, 113, 209, 176, 335
-0.999573, 109, 57, 124, 72
-0.999573, 349, 23, 364, 38
-0.999574, 129, 245, 256, 276
-0.999574, 151, 61, 166, 76
-0.999574, 301, 255, 316, 270
-0.999574, 179, 41, 194, 56
-0.999575, 241, 35, 256, 50
-0.999576, 337, 23, 352, 38
-0.999576, 135, 61, 150, 76
-0.999577, 411, 265, 426, 280
-0.999577, 175, 11, 190, 26
-0.999578, 361, 157, 376, 172
-0.99958, 151, 23, 166, 38
-0.999581, 413, 45, 428, 60
-0.999582, 363, 49, 378, 64
-0.999582, 135, 23, 150, 38
-0.999582, 113, 63, 128, 78
-0.999583, 291, 253, 306, 268
-0.999583, 275, 239, 290, 254
-0.999584, 367, 87, 382, 102
-0.999584, 185, 45, 200, 60
-0.999584, 303, 145, 318, 272
-0.999584, 369, 127, 384, 142
-0.999584, 123, 283, 138, 298
-0.999585, 421, 209, 436, 335
-0.999586, 339, 223, 354, 238
-0.999587, 335, 217, 350, 232
-0.999587, 291, 31, 306, 46
-0.99959, 371, 105, 386, 120
-0.999591, 363, 195, 378, 210
-0.999592, 123, 65, 138, 192
-0.999593, 395, 209, 410, 335
-0.999593, 339, 205, 354, 220
-0.999594, 371, 111, 386, 126
-0.999594, 365, 241, 380, 256
-0.999595, 307, 251, 322, 266
-0.999595, 317, 195, 332, 210
-0.999595, 25, 209, 40, 224
-0.999596, 391, 261, 406, 276
-0.999596, 357, 239, 372, 254
-0.999596, 349, 33, 364, 48
-0.999597, 433, 209, 448, 335
-0.999597, 351, 193, 366, 208
-0.999597, 339, 199, 354, 214
-0.999597, 369, 15, 384, 30
-0.999599, 239, 195, 254, 210
-0.9996, 169, 33, 184, 48
-0.9996, 345, 213, 360, 228
-0.999607, 233, 33, 248, 48
-0.999608, 429, 17, 444, 144
-0.999609, 55, 65, 70, 192
-0.999609, 371, 245, 386, 260
-0.999611, 145, 105, 272, 136
-0.999611, 339, 177, 354, 192
-0.999611, 355, 43, 370, 58
-0.999611, 125, 209, 156, 335
-0.999613, 369, 147, 384, 162
-0.999613, 163, 71, 178, 86
-0.999613, 319, 243, 334, 258
-0.999613, 377, 119, 392, 134
-0.999614, 137, 209, 152, 335
-0.999614, 235, 193, 250, 320
-0.999616, 121, 47, 136, 62
-0.999618, 385, 253, 400, 268
-0.999619, 333, 237, 348, 252
-0.999619, 323, 129, 338, 256
-0.99962, 325, 241, 340, 256
-0.999621, 51, 215, 66, 230
-0.999622, 367, 65, 382, 80
-0.999623, 173, 51, 188, 66
-0.999623, 117, 31, 132, 46
-0.999624, 241, 29, 256, 44
-0.999625, 303, 207, 318, 222
-0.999625, 359, 17, 374, 32
-0.999625, 133, 277, 148, 292
-0.999626, 185, 51, 200, 66
-0.999628, 77, 193, 92, 320
-0.999629, 341, 233, 356, 248
-0.99963, 157, 25, 172, 40
-0.999631, 359, 67, 374, 82
-0.999631, 287, 219, 302, 234
-0.999632, 279, 245, 294, 260
-0.999632, 165, 203, 180, 218
-0.999633, 163, 29, 178, 44
-0.999633, 145, 271, 160, 286
-0.999633, 417, 17, 432, 144
-0.999634, 359, 37, 374, 52
-0.999634, 281, 225, 296, 240
-0.999635, 379, 249, 394, 264
-0.999637, 295, 213, 310, 228
-0.999637, 121, 63, 136, 78
-0.999638, 125, 41, 140, 56
-0.999639, 311, 199, 326, 214
-0.999639, 139, 49, 154, 176
-0.999639, 161, 57, 176, 72
-0.999639, 423, 31, 438, 46
-0.999641, 127, 63, 142, 78
-0.999645, 167, 57, 182, 72
-0.999647, 13, 203, 28, 218
-0.999648, 345, 171, 360, 186
-0.99965, 347, 219, 362, 234
-0.999651, 313, 247, 328, 262
-0.999654, 179, 51, 194, 66
-0.999654, 285, 249, 300, 264
-0.999661, 323, 191, 338, 206
-0.999662, 161, 51, 176, 66
-0.999663, 129, 47, 144, 62
-0.999668, 111, 51, 126, 66
-0.999672, 81, 225, 144, 288
-0.999673, 159, 63, 174, 78
-0.999677, 139, 273, 154, 288
-0.999678, 367, 75, 382, 90
-0.999678, 365, 39, 380, 54
-0.999679, 341, 193, 356, 208
-0.999679, 127, 55, 142, 70
-0.99968, 139, 55, 154, 70
-0.999682, 333, 185, 348, 200
-0.999685, 347, 233, 362, 248
-0.999685, 367, 81, 382, 96
-0.999686, 149, 55, 164, 70
-0.99969, 209, 41, 336, 72
-0.999693, 167, 51, 182, 66
-0.999698, 123, 25, 138, 40
-0.999705, 355, 161, 370, 176
-0.999709, 357, 193, 372, 208
-0.999711, 133, 55, 148, 70
-0.999713, 121, 53, 136, 68
-0.999724, 401, 1, 464, 256
-0.999738, 177, 89, 240, 152
-0.999739, 345, 227, 360, 242
-0.999739, 155, 53, 170, 68
-0.999992, 57, 145, 120, 208
-1, 137, 193, 168, 320
-1.00005, 289, 273, 352, 335
-1.00011, 113, 121, 240, 184
-1.00011, 409, 1, 440, 256
-1.00011, 385, 65, 416, 192
-1.00012, 81, 201, 144, 264
-1.00012, 161, 169, 224, 232
-1.00013, 209, 49, 240, 176
-1.00025, 1, 1, 64, 128
-1.00025, 397, 1, 428, 256
-1.00037, 393, 9, 456, 72
-1.00042, 153, 97, 216, 224
-1.00042, 441, 209, 472, 335
-1.00045, 17, 49, 48, 176
-1.00049, 225, 97, 352, 160
-1.00052, 177, 121, 304, 184
-1.00062, 153, 97, 184, 224
-1.00069, 209, 73, 336, 136
-1.00069, 5, 49, 36, 176
-1.00072, 265, 153, 328, 216
-1.00077, 425, 65, 456, 320
-1.0008, 425, 33, 488, 96
-1.00092, 225, 49, 352, 112
-1.00094, 105, 113, 168, 176
-1.00103, 129, 113, 192, 176
-1.00105, 449, 65, 480, 320
-1.00107, 433, 1, 496, 335
-1.0011, 417, 89, 480, 152
-1.0011, 369, 169, 432, 232
-1.00115, 129, 145, 256, 208
-1.00116, 469, 1, 500, 256
-1.00126, 437, 65, 468, 320
-1.00128, 377, 161, 408, 288
-1.00137, 185, 169, 248, 232
-1.00138, 49, 17, 80, 144
-1.0014, 169, 97, 200, 224
-1.00163, 257, 113, 320, 240
-1.00171, 153, 265, 216, 328
-1.00175, 125, 97, 156, 224
-1.00177, 89, 209, 120, 335
-1.00184, 81, 161, 144, 224
-1.00189, 141, 97, 172, 224
-1.00197, 177, 169, 304, 232
-1.00206, 177, 145, 304, 208
-1.0021, 433, 225, 496, 288
-1.00214, 237, 145, 268, 272
-1.00228, 221, 49, 252, 176
-1.00255, 173, 177, 204, 304
-1.00259, 161, 209, 224, 335
-1.00282, 77, 145, 108, 272
-1.00316, 121, 161, 184, 288
-1.00316, 33, 1, 64, 128
-1.00323, 453, 209, 484, 335
-1.00329, 225, 145, 256, 272
-1.00346, 285, 113, 316, 240
-1.00352, 101, 193, 132, 320
-1.00373, 249, 145, 280, 272
-1.0039, 5, 1, 36, 128
-1.00406, 213, 129, 244, 256
-1.00412, 389, 161, 420, 288
-1.00425, 161, 161, 224, 288
-1.00427, 369, 145, 496, 208
-1.0043, 193, 65, 320, 192
-1.00435, 401, 65, 432, 192
-1.00465, 185, 97, 216, 224
-1.00486, 297, 97, 360, 224
-1.00489, 161, 145, 192, 272
-1.0049, 305, 97, 336, 224
-1.0049, 425, 49, 488, 176
-1.00492, 377, 113, 408, 240
-1.00493, 233, 49, 264, 176
-1.00496, 193, 145, 256, 272
-1.00501, 469, 209, 500, 335
-1.00528, 185, 209, 216, 335
-1.00529, 437, 1, 468, 128
-1.00539, 417, 81, 448, 208
-1.00556, 145, 145, 176, 272
-1.00562, 225, 97, 256, 224
-1.00568, 205, 209, 236, 335
-1.00575, 405, 161, 436, 288
-1.00577, 89, 129, 120, 256
-1.00634, 17, 1, 48, 128
-1.00652, 429, 65, 460, 192
-1.00653, 185, 161, 216, 288
-1.0072, 177, 97, 240, 224
-1.00763, 401, 81, 464, 208
-1.00783, 217, 145, 280, 272
-1.008, 425, 65, 488, 320
-1.00895, 385, 161, 448, 288
-1.00915, 97, 145, 160, 272
-1.00966, 209, 97, 272, 224
-1.01069, 409, 129, 472, 256
-1.01124, 433, 113, 496, 240
-1.01176, 273, 49, 336, 176
-1.01226, 233, 97, 296, 224
-1.01375, 433, 161, 496, 288
-1.01973, 297, 49, 360, 176
