1984
-0.40415, 257, 1, 500, 375
-0.472084, 1, 129, 500, 375
-0.498824, 1, 33, 500, 288
-0.52748, 1, 1, 500, 375
-0.599242, 257, 97, 500, 352
-0.60937, 129, 1, 384, 375
-0.663871, 161, 129, 416, 375
-0.719452, 65, 129, 320, 375
-0.720926, 257, 1, 500, 256
-0.723953, 1, 1, 256, 375
-0.82674, 161, 33, 416, 288
-0.845091, 1, 33, 256, 288
-0.868426, 241, 129, 368, 375
-0.871777, 337, 1, 464, 375
-0.876609, 337, 129, 464, 375
-0.884478, 289, 97, 416, 352
-0.884944, 289, 1, 416, 375
-0.888788, 369, 33, 496, 288
-0.892807, 177, 97, 304, 352
-0.894452, 241, 1, 368, 375
-0.900034, 1, 193, 500, 320
-0.904423, 257, 145, 500, 272
-0.911682, 129, 129, 256, 375
-0.915235, 193, 1, 320, 375
-0.9154, 1, 145, 500, 272
-0.917549, 225, 193, 480, 320
-0.917756, 81, 129, 208, 375
-0.919593, 257, 97, 500, 224
-0.919788, 1, 1, 128, 375
-0.922061, 1, 65, 128, 320
-0.922606, 145, 1, 272, 375
-0.922904, 241, 33, 368, 288
-0.927304, 129, 193, 384, 320
-0.929725, 1, 241, 500, 368
-0.931549, 1, 49, 500, 176
-0.931864, 257, 177, 320, 304
-0.932269, 225, 177, 352, 304
-0.932491, 273, 193, 400, 320
-0.935564, 305, 1, 432, 256
-0.93601, 97, 1, 224, 375
-0.93823, 1, 97, 500, 224
-0.938677, 97, 129, 352, 256
-0.940078, 433, 177, 496, 304
-0.94013, 257, 49, 500, 176
-0.941781, 281, 193, 344, 320
-0.942226, 49, 1, 176, 375
-0.943491, 409, 177, 472, 304
-0.943697, 337, 193, 464, 320
-0.944454, 1, 113, 256, 240
-0.945884, 377, 177, 440, 304
-0.946064, 345, 193, 408, 320
-0.946335, 65, 241, 320, 368
-0.947626, 289, 145, 416, 272
-0.947804, 241, 129, 304, 256
-0.947928, 193, 1, 320, 256
-0.948679, 233, 177, 296, 304
-0.950214, 209, 113, 336, 240
-0.950302, 361, 129, 424, 256
-0.950873, 369, 129, 496, 256
-0.951462, 409, 193, 472, 256
-0.952251, 129, 33, 256, 288
-0.952271, 257, 185, 320, 248
-0.952627, 377, 193, 440, 256
-0.952728, 241, 225, 304, 352
-0.952733, 433, 185, 496, 248
-0.953832, 265, 129, 328, 256
-0.955086, 1, 97, 128, 224
-0.955735, 161, 241, 416, 368
-0.956195, 273, 97, 400, 224
-0.956717, 401, 129, 464, 256
-0.957163, 305, 209, 368, 336
-0.957261, 161, 81, 416, 208
-0.957346, 49, 33, 176, 288
-0.957556, 225, 225, 352, 352
-0.958744, 257, 241, 500, 368
-0.959015, 433, 129, 496, 256
-0.959983, 1, 1, 500, 128
-0.960136, 177, 177, 304, 304
-0.961192, 97, 225, 224, 352
-0.961293, 161, 97, 288, 224
-0.961859, 241, 225, 304, 288
-0.962016, 353, 201, 416, 264
-0.963348, 369, 65, 496, 192
-0.963862, 329, 217, 392, 280
-0.964031, 217, 97, 280, 224
-0.964313, 305, 161, 368, 288
-0.964772, 1, 129, 64, 256
-0.964873, 289, 217, 352, 280
-0.965188, 281, 185, 344, 248
-0.96543, 265, 217, 328, 280
-0.965801, 233, 121, 296, 184
-0.965961, 233, 193, 296, 256
-0.966644, 305, 185, 368, 248
-0.966939, 265, 241, 328, 368
-0.968157, 353, 177, 416, 240
-0.96823, 1, 65, 256, 192
-0.968242, 257, 129, 320, 375
-0.968478, 273, 161, 336, 224
-0.968724, 273, 241, 400, 368
-0.968799, 321, 49, 448, 176
-0.9688, 437, 193, 468, 256
-0.969735, 273, 177, 304, 304
-0.969888, 433, 209, 496, 272
-0.969888, 409, 217, 472, 280
-0.970021, 177, 225, 304, 352
-0.970098, 285, 177, 316, 304
-0.97015, 433, 153, 496, 216
-0.97043, 337, 201, 464, 264
-0.970457, 377, 217, 440, 280
-0.970586, 257, 1, 500, 128
-0.970738, 233, 161, 296, 224
-0.97076, 321, 241, 448, 368
-0.97077, 225, 193, 352, 256
-0.971369, 329, 145, 392, 272
-0.97157, 201, 161, 264, 288
-0.971939, 433, 65, 496, 192
-0.971971, 393, 161, 456, 224
-0.972022, 285, 185, 316, 248
-0.972405, 25, 121, 88, 184
-0.97262, 25, 97, 88, 224
-0.972911, 113, 209, 176, 336
-0.973247, 97, 113, 224, 240
-0.973816, 409, 193, 440, 256
-0.97384, 1, 161, 64, 224
-0.973866, 321, 97, 448, 224
-0.973915, 129, 161, 256, 288
-0.974059, 1, 161, 256, 288
-0.974257, 121, 225, 184, 288
-0.974469, 393, 137, 456, 200
-0.974505, 401, 225, 464, 352
-0.974665, 345, 257, 408, 320
-0.97473, 233, 249, 296, 312
-0.97482, 273, 185, 400, 248
-0.974908, 273, 129, 304, 256
-0.975027, 137, 225, 200, 352
-0.975372, 385, 113, 448, 176
-0.9756, 369, 17, 496, 144
-0.975714, 273, 49, 400, 176
-0.975789, 437, 177, 468, 304
-0.975885, 241, 217, 368, 280
-0.975969, 353, 145, 416, 208
-0.976406, 345, 241, 408, 368
-0.976462, 353, 193, 384, 320
-0.976488, 361, 129, 424, 375
-0.976643, 297, 241, 360, 304
-0.976932, 1, 145, 128, 272
-0.97712, 345, 49, 408, 176
-0.97715, 385, 49, 448, 176
-0.977415, 273, 185, 304, 248
-0.97742, 209, 209, 272, 336
-0.977762, 329, 193, 392, 256
-0.977806, 289, 209, 416, 272
-0.977945, 409, 177, 440, 304
-0.978025, 281, 161, 312, 224
-0.978086, 381, 129, 412, 256
-0.978128, 393, 193, 424, 256
-0.978131, 265, 241, 328, 304
-0.978389, 253, 177, 284, 304
-0.978467, 437, 217, 468, 280
-0.978516, 369, 137, 496, 200
-0.978522, 433, 113, 496, 176
-0.978622, 161, 17, 416, 144
-0.978811, 289, 113, 352, 240
-0.978921, 369, 177, 496, 240
-0.978975, 425, 177, 456, 240
-0.979007, 297, 177, 328, 304
-0.979008, 385, 129, 448, 375
-0.979074, 89, 225, 152, 352
-0.979086, 433, 1, 496, 128
-0.979389, 257, 137, 320, 200
-0.979392, 209, 257, 272, 320
-0.979395, 281, 129, 344, 375
-0.979583, 329, 97, 392, 224
-0.979632, 161, 161, 224, 288
-0.979676, 369, 241, 496, 368
-0.979755, 249, 193, 280, 256
-0.979781, 1, 129, 64, 192
-0.979934, 393, 129, 424, 256
-0.980043, 421, 201, 452, 264
-0.980452, 201, 209, 264, 272
-0.980533, 273, 161, 400, 224
-0.980617, 337, 209, 368, 336
-0.980682, 393, 177, 424, 304
-0.980784, 369, 225, 432, 352
-0.980851, 353, 201, 384, 264
-0.980913, 209, 153, 272, 216
-0.980969, 353, 225, 480, 288
-0.980978, 241, 81, 304, 208
-0.980993, 345, 113, 408, 176
-0.981039, 309, 193, 340, 320
-0.981135, 321, 241, 384, 304
-0.981161, 449, 177, 480, 304
-0.981312, 265, 265, 328, 328
-0.981374, 201, 177, 264, 240
-0.981399, 233, 129, 296, 375
-0.981411, 241, 265, 368, 328
-0.981411, 337, 65, 400, 320
-0.981416, 269, 225, 300, 352
-0.981417, 5, 161, 36, 224
-0.981732, 1, 129, 128, 192
-0.981746, 285, 129, 316, 256
-0.981777, 373, 193, 404, 320
-0.981789, 449, 193, 480, 256
-0.981896, 161, 169, 288, 232
-0.981897, 409, 97, 472, 352
-0.981912, 417, 241, 480, 304
-0.982133, 425, 129, 456, 256
-0.982191, 381, 193, 412, 256
-0.982348, 89, 289, 152, 352
-0.982367, 225, 65, 352, 192
-0.982408, 433, 129, 496, 375
-0.982421, 225, 241, 352, 304
-0.982437, 369, 105, 496, 168
-0.982458, 425, 193, 456, 320
-0.982608, 385, 153, 416, 216
-0.982745, 49, 129, 176, 256
-0.982917, 369, 193, 400, 256
-0.982994, 177, 121, 304, 184
-0.983132, 329, 169, 392, 232
-0.983153, 337, 217, 368, 280
-0.98317, 209, 233, 272, 296
-0.98317, 345, 281, 408, 344
-0.98318, 321, 265, 384, 328
-0.983428, 289, 209, 320, 272
-0.983559, 209, 97, 272, 352
-0.983624, 309, 225, 340, 288
-0.983665, 161, 209, 288, 272
-0.983721, 321, 1, 448, 128
-0.983753, 353, 65, 480, 128
-0.983777, 1, 153, 128, 216
-0.983845, 193, 145, 320, 208
-0.98385, 253, 225, 284, 352
-0.984006, 273, 241, 400, 304
-0.984078, 253, 97, 284, 224
-0.984106, 5, 145, 36, 272
-0.984341, 377, 241, 440, 304
-0.984385, 433, 33, 496, 288
-0.984437, 325, 209, 356, 336
-0.984495, 273, 113, 400, 176
-0.984581, 353, 265, 480, 328
-0.984606, 433, 73, 496, 136
-0.984677, 297, 161, 360, 224
-0.984699, 241, 249, 272, 312
-0.984701, 269, 161, 300, 224
-0.984708, 361, 33, 424, 288
-0.984749, 301, 201, 332, 264
-0.984772, 137, 137, 200, 200
-0.984788, 277, 225, 308, 288
-0.984867, 305, 177, 336, 240
-0.984886, 1, 97, 64, 352
-0.984968, 225, 169, 352, 232
-0.984995, 261, 193, 292, 256
-0.985027, 161, 249, 288, 312
-0.985109, 321, 169, 448, 232
-0.985109, 457, 129, 488, 256
-0.985478, 305, 129, 368, 375
-0.985597, 97, 225, 224, 288
-0.985597, 465, 193, 496, 320
-0.985705, 81, 137, 208, 200
-0.985726, 209, 113, 272, 176
-0.985728, 253, 225, 284, 288
-0.985731, 1, 105, 128, 168
-0.985769, 89, 129, 152, 256
-0.985769, 137, 129, 200, 256
-0.985778, 397, 169, 428, 232
-0.985778, 313, 201, 344, 264
-0.985819, 353, 1, 416, 375
-0.985834, 461, 177, 492, 240
-0.985866, 425, 233, 456, 296
-0.985943, 377, 273, 440, 336
-0.985986, 161, 241, 224, 368
-0.986061, 113, 129, 176, 192
-0.986202, 361, 145, 392, 272
-0.986224, 241, 137, 368, 200
-0.98631, 1, 49, 128, 176
-0.986317, 369, 169, 400, 232
-0.986388, 469, 201, 500, 264
-0.9864, 377, 1, 440, 375
-0.986405, 401, 129, 432, 192
-0.986557, 469, 145, 500, 272
-0.986619, 281, 225, 312, 352
-0.986628, 321, 113, 448, 176
-0.986657, 377, 57, 440, 120
-0.986676, 269, 121, 300, 184
-0.986688, 433, 225, 496, 352
-0.986726, 249, 113, 280, 176
-0.986757, 265, 233, 296, 296
-0.986834, 281, 137, 312, 200
-0.986852, 357, 265, 388, 328
-0.986945, 1, 97, 32, 224
-0.987041, 49, 97, 112, 224
-0.987201, 329, 145, 392, 208
-0.987333, 1, 97, 64, 160
-0.987347, 161, 305, 224, 368
-0.98736, 381, 129, 412, 192
-0.987371, 241, 209, 272, 336
-0.987406, 49, 81, 176, 208
-0.987432, 289, 265, 416, 328
-0.987461, 217, 281, 280, 344
-0.987603, 113, 313, 240, 375
-0.987644, 405, 113, 436, 240
-0.987696, 409, 113, 472, 176
-0.987701, 433, 1, 496, 64
-0.987713, 33, 241, 160, 368
-0.987751, 185, 129, 248, 192
-0.987776, 233, 209, 264, 272
-0.987815, 401, 1, 464, 375
-0.987854, 297, 265, 360, 328
-0.987878, 105, 313, 168, 375
-0.987942, 281, 137, 344, 200
-0.987967, 229, 121, 260, 184
-0.988, 81, 273, 208, 336
-0.988002, 193, 113, 256, 240
-0.988005, 385, 33, 448, 288
-0.988096, 177, 281, 304, 344
-0.988101, 21, 129, 52, 192
-0.988136, 293, 241, 324, 368
-0.988167, 433, 1, 496, 375
-0.98822, 21, 113, 52, 240
-0.988279, 433, 189, 496, 220
-0.988289, 353, 313, 416, 375
-0.988303, 161, 145, 224, 208
-0.988328, 293, 241, 324, 304
-0.98843, 437, 169, 468, 232
-0.988465, 225, 193, 480, 256
-0.98848, 433, 49, 496, 112
-0.988503, 153, 233, 216, 296
-0.988527, 49, 177, 176, 304
-0.988539, 337, 161, 368, 288
-0.988585, 433, 201, 496, 232
-0.988599, 409, 217, 440, 280
-0.988626, 369, 257, 400, 320
-0.988669, 357, 177, 388, 240
-0.9887, 377, 201, 440, 232
-0.98871, 25, 145, 88, 208
-0.988813, 437, 129, 468, 256
-0.988823, 409, 81, 472, 208
-0.988842, 1, 65, 64, 192
-0.988921, 401, 265, 464, 328
-0.988955, 449, 217, 480, 280
-0.988985, 353, 57, 416, 120
-0.98903, 409, 201, 472, 232
-0.989037, 433, 25, 496, 88
-0.989042, 137, 129, 200, 375
-0.989047, 113, 113, 176, 240
-0.989093, 289, 137, 416, 200
-0.989112, 9, 137, 40, 200
-0.989158, 257, 89, 384, 152
-0.989176, 257, 193, 320, 224
-0.989188, 345, 205, 408, 236
-0.98921, 321, 161, 352, 288
-0.989252, 329, 249, 360, 312
-0.989265, 233, 97, 296, 160
-0.989331, 97, 257, 160, 320
-0.98935, 97, 249, 224, 312
-0.989408, 353, 225, 416, 288
-0.989463, 293, 161, 324, 224
-0.989488, 225, 113, 352, 176
-0.989551, 229, 113, 260, 240
-0.98956, 433, 213, 496, 244
-0.989576, 361, 241, 392, 368
-0.989587, 409, 189, 472, 220
-0.989595, 253, 169, 284, 232
-0.989645, 325, 217, 356, 280
-0.989815, 253, 249, 284, 312
-0.98986, 161, 209, 224, 272
-0.989888, 177, 169, 240, 232
-0.989943, 353, 305, 480, 368
-0.990028, 129, 49, 256, 176
-0.990064, 185, 233, 248, 296
-0.990065, 297, 129, 328, 256
-0.990069, 113, 97, 176, 352
-0.99007, 313, 289, 376, 352
-0.990092, 41, 97, 104, 160
-0.990104, 297, 1, 360, 375
-0.990131, 257, 145, 288, 208
-0.990192, 401, 213, 464, 244
-0.990202, 313, 213, 376, 244
-0.990205, 265, 257, 296, 320
-0.990206, 169, 265, 232, 328
-0.990224, 33, 113, 64, 176
-0.990235, 297, 201, 360, 232
-0.990277, 369, 233, 400, 296
-0.990279, 297, 229, 360, 260
-0.990317, 257, 169, 500, 232
-0.990332, 145, 145, 272, 208
-0.990343, 349, 145, 380, 272
-0.990365, 185, 225, 248, 352
-0.990391, 273, 305, 400, 368
-0.9904, 273, 65, 336, 192
-0.990433, 433, 177, 496, 208
-0.990437, 241, 1, 304, 375
-0.990439, 241, 97, 272, 224
-0.990492, 349, 233, 380, 296
-0.990493, 273, 113, 336, 176
-0.990553, 257, 181, 320, 212
-0.990569, 321, 89, 448, 152
-0.990573, 377, 189, 440, 220
-0.990638, 145, 209, 176, 336
-0.990649, 329, 313, 392, 375
-0.990653, 377, 213, 440, 244
-0.990667, 289, 217, 352, 248
-0.990692, 137, 289, 200, 352
-0.990698, 233, 197, 296, 228
-0.990744, 17, 125, 80, 156
-0.990757, 265, 217, 328, 248
-0.990766, 409, 1, 472, 128
-0.990774, 333, 193, 364, 256
-0.990812, 273, 1, 400, 128
-0.990872, 465, 145, 496, 208
-0.990879, 353, 193, 416, 224
-0.990882, 329, 1, 392, 375
-0.990927, 241, 273, 304, 336
-0.990929, 233, 33, 296, 288
-0.990938, 225, 217, 480, 280
-0.990945, 225, 117, 288, 148
-0.99097, 185, 313, 248, 375
-0.991002, 273, 205, 336, 236
-0.991021, 101, 241, 132, 368
-0.99103, 161, 129, 224, 375
-0.991089, 121, 225, 184, 256
-0.991115, 281, 189, 344, 220
-0.991125, 241, 225, 304, 256
-0.991134, 401, 225, 464, 256
-0.991138, 17, 137, 80, 168
-0.991209, 393, 177, 456, 208
-0.991212, 249, 169, 312, 200
-0.991216, 353, 141, 416, 172
-0.991218, 337, 225, 400, 256
-0.991226, 9, 1, 72, 256
-0.991269, 265, 229, 328, 260
-0.991277, 233, 249, 296, 280
-0.991279, 9, 169, 72, 200
-0.991336, 433, 165, 496, 196
-0.991387, 241, 261, 304, 292
-0.991406, 353, 153, 416, 184
-0.991408, 249, 153, 312, 184
-0.991411, 81, 161, 208, 224
-0.991427, 377, 137, 440, 168
-0.991485, 297, 241, 360, 272
-0.991505, 273, 41, 400, 104
-0.991517, 273, 157, 336, 188
-0.991525, 401, 49, 432, 176
-0.991562, 369, 129, 400, 192
-0.991581, 409, 89, 472, 152
-0.991593, 257, 249, 320, 280
-0.991614, 337, 253, 400, 284
-0.991638, 377, 153, 440, 184
-0.991651, 241, 213, 304, 244
-0.991657, 397, 233, 428, 296
-0.991677, 425, 233, 488, 264
-0.991686, 241, 237, 304, 268
-0.991727, 321, 105, 384, 168
-0.991739, 345, 173, 408, 204
-0.991744, 369, 41, 496, 104
-0.991755, 289, 177, 352, 208
-0.991779, 265, 269, 328, 300
-0.991784, 413, 257, 444, 320
-0.991785, 1, 181, 64, 212
-0.99179, 289, 265, 320, 328
-0.99182, 201, 205, 264, 236
-0.991845, 233, 181, 296, 212
-0.991889, 361, 289, 392, 352
-0.991901, 225, 273, 288, 304
-0.991901, 433, 153, 496, 184
-0.991914, 241, 133, 304, 164
-0.991918, 321, 241, 384, 272
-0.991922, 89, 129, 152, 375
-0.991933, 65, 313, 192, 375
-0.991956, 145, 177, 208, 240
-0.991958, 257, 145, 500, 208
-0.991965, 305, 189, 368, 220
-0.992007, 377, 245, 440, 276
-0.99201, 297, 253, 360, 284
-0.992026, 217, 157, 280, 188
-0.992048, 201, 253, 264, 284
-0.99207, 345, 265, 408, 296
-0.992125, 1, 297, 128, 360
-0.992135, 433, 141, 496, 172
-0.992163, 321, 49, 384, 176
-0.992189, 273, 1, 336, 375
-0.992197, 321, 201, 384, 232
-0.992202, 1, 1, 64, 375
-0.992202, 305, 265, 368, 296
-0.992235, 433, 113, 496, 144
-0.992239, 361, 225, 424, 256
-0.99224, 353, 129, 416, 160
-0.992245, 449, 185, 464, 248
-0.992246, 241, 273, 272, 336
-0.992246, 257, 33, 320, 288
-0.992247, 405, 201, 436, 232
-0.992249, 437, 193, 468, 224
-0.992255, 177, 157, 240, 188
-0.992257, 377, 125, 440, 156
-0.992262, 201, 237, 264, 268
-0.992262, 89, 309, 152, 340
-0.992308, 285, 189, 316, 220
-0.992309, 217, 305, 280, 368
-0.992326, 449, 169, 480, 232
-0.992329, 357, 205, 388, 236
-0.992367, 217, 133, 280, 164
-0.992369, 433, 129, 496, 160
-0.992383, 445, 205, 476, 236
-0.992392, 9, 157, 72, 188
-0.992399, 373, 241, 404, 368
-0.992401, 385, 165, 448, 196
-0.992405, 373, 205, 404, 236
-0.992407, 105, 321, 168, 352
-0.992423, 65, 113, 128, 176
-0.992441, 121, 133, 184, 164
-0.992463, 249, 281, 312, 312
-0.992475, 401, 141, 464, 172
-0.992478, 409, 1, 472, 256
-0.992482, 469, 65, 500, 128
-0.992493, 393, 201, 424, 232
-0.992505, 369, 65, 432, 96
-0.992546, 413, 225, 444, 352
-0.99255, 365, 97, 396, 224
-0.992565, 401, 237, 464, 268
-0.992567, 305, 201, 336, 232
-0.99258, 353, 301, 416, 332
-0.992593, 217, 145, 280, 176
-0.992595, 345, 89, 408, 152
-0.992599, 441, 225, 472, 256
-0.992607, 17, 161, 48, 224
-0.992608, 305, 65, 432, 128
-0.992617, 425, 193, 456, 224
-0.992624, 217, 217, 280, 248
-0.992628, 313, 301, 376, 332
-0.992638, 225, 285, 288, 316
-0.992646, 145, 141, 208, 172
-0.992652, 81, 329, 144, 360
-0.992653, 425, 205, 456, 236
-0.992655, 417, 289, 480, 352
-0.99266, 385, 217, 416, 280
-0.992661, 433, 77, 496, 108
-0.992664, 341, 265, 372, 328
-0.992674, 129, 97, 256, 160
-0.992674, 433, 101, 496, 132
-0.992684, 401, 125, 464, 156
-0.992696, 161, 225, 192, 352
-0.992723, 185, 129, 248, 375
-0.99273, 201, 193, 264, 224
-0.992744, 249, 197, 280, 228
-0.992744, 417, 249, 480, 280
-0.992745, 393, 189, 424, 220
-0.992746, 129, 137, 384, 200
-0.992751, 353, 1, 416, 128
-0.992757, 369, 321, 432, 352
-0.992759, 201, 265, 264, 296
-0.99276, 345, 285, 408, 316
-0.992762, 457, 205, 488, 236
-0.992763, 161, 241, 224, 272
-0.992764, 257, 121, 500, 184
-0.992768, 369, 257, 432, 288
-0.992775, 281, 173, 312, 204
-0.992775, 393, 213, 424, 244
-0.992778, 353, 345, 416, 375
-0.992787, 225, 249, 256, 312
-0.992789, 413, 213, 444, 244
-0.992801, 301, 185, 332, 216
-0.992801, 337, 221, 368, 252
-0.992803, 1, 1, 128, 128
-0.992812, 433, 89, 496, 120
-0.992824, 309, 145, 340, 272
-0.992832, 381, 265, 412, 328
-0.992833, 433, 65, 496, 96
-0.992836, 169, 313, 232, 344
-0.992841, 349, 241, 380, 368
-0.992849, 225, 289, 352, 352
-0.992859, 129, 201, 192, 264
-0.992859, 289, 221, 320, 252
-0.99286, 49, 113, 176, 176
-0.992864, 353, 237, 416, 268
-0.992873, 177, 177, 240, 208
-0.992874, 385, 89, 448, 152
-0.992874, 89, 297, 152, 328
-0.992877, 113, 161, 176, 288
-0.992885, 185, 145, 248, 176
-0.992885, 457, 193, 488, 224
-0.992892, 209, 181, 272, 212
-0.992895, 381, 193, 412, 224
-0.992909, 433, 13, 496, 44
-0.992917, 273, 193, 304, 224
-0.992931, 289, 145, 352, 176
-0.992934, 313, 285, 376, 316
-0.992935, 241, 161, 272, 288
-0.992938, 153, 213, 216, 244
-0.992947, 249, 121, 312, 152
-0.99295, 13, 169, 44, 200
-0.992954, 353, 117, 416, 148
-0.992956, 433, 53, 496, 84
-0.992957, 121, 237, 184, 268
-0.992963, 377, 333, 440, 364
-0.992964, 289, 33, 352, 288
-0.992968, 329, 125, 392, 156
-0.992976, 241, 257, 272, 288
-0.992976, 313, 313, 376, 344
-0.992979, 345, 177, 376, 240
-0.992988, 1, 109, 64, 140
-0.992995, 273, 253, 304, 284
-0.993001, 385, 153, 416, 184
-0.993004, 29, 125, 60, 156
-0.993009, 425, 217, 456, 248
-0.993012, 321, 221, 352, 252
-0.993014, 349, 217, 380, 248
-0.993019, 297, 165, 360, 196
-0.993023, 1, 209, 500, 272
-0.993031, 261, 197, 292, 228
-0.993033, 41, 113, 104, 144
-0.993033, 281, 161, 312, 192
-0.993034, 33, 113, 64, 240
-0.993042, 401, 269, 464, 300
-0.993047, 433, 1, 496, 32
-0.993053, 453, 217, 484, 248
-0.993055, 433, 37, 496, 68
-0.993061, 369, 193, 400, 224
-0.993066, 269, 177, 300, 208
-0.993066, 1, 181, 32, 212
-0.99307, 305, 213, 336, 244
-0.99307, 465, 65, 496, 192
-0.993071, 469, 221, 500, 252
-0.993072, 445, 181, 476, 212
-0.993077, 337, 205, 464, 236
-0.993085, 261, 157, 292, 188
-0.993094, 337, 209, 368, 240
-0.993095, 329, 149, 392, 180
-0.993103, 293, 209, 324, 240
-0.993105, 257, 249, 288, 280
-0.993108, 5, 113, 36, 176
-0.993108, 373, 137, 404, 168
-0.993109, 369, 253, 400, 284
-0.99311, 153, 177, 216, 208
-0.993113, 265, 141, 328, 172
-0.993117, 73, 177, 136, 304
-0.993133, 241, 269, 272, 300
-0.993134, 409, 313, 472, 375
-0.993139, 225, 17, 352, 144
-0.993145, 253, 269, 284, 300
-0.993153, 365, 49, 396, 176
-0.99316, 249, 213, 280, 244
-0.993162, 185, 289, 248, 352
-0.993162, 333, 241, 364, 272
-0.993164, 373, 217, 404, 248
-0.993165, 361, 225, 392, 256
-0.993168, 353, 261, 384, 292
-0.993169, 317, 209, 348, 240
-0.993175, 277, 225, 308, 256
-0.993181, 421, 113, 452, 176
-0.993186, 65, 241, 320, 304
-0.993193, 309, 229, 340, 260
-0.993194, 429, 233, 460, 264
-0.993198, 385, 133, 416, 164
-0.993207, 465, 161, 496, 192
-0.993216, 265, 225, 296, 256
-0.993218, 345, 233, 376, 264
-0.993222, 273, 133, 304, 164
-0.993232, 269, 241, 300, 272
-0.993234, 401, 137, 432, 168
-0.993234, 261, 281, 292, 312
-0.993238, 425, 181, 456, 212
-0.993238, 281, 149, 312, 180
-0.99324, 285, 249, 316, 280
-0.993241, 9, 141, 40, 172
-0.993241, 289, 233, 320, 264
-0.99325, 233, 209, 264, 240
-0.993254, 425, 253, 456, 284
-0.993255, 381, 169, 412, 200
-0.993267, 413, 225, 444, 256
-0.993275, 137, 221, 168, 252
-0.99328, 89, 145, 152, 208
-0.993284, 253, 273, 284, 336
-0.993285, 13, 157, 44, 188
-0.993285, 357, 277, 388, 308
-0.993288, 245, 113, 276, 144
-0.99329, 293, 173, 324, 204
-0.993293, 225, 201, 352, 232
-0.993297, 349, 249, 380, 280
-0.9933, 457, 181, 488, 212
-0.9933, 357, 193, 388, 224
-0.9933, 393, 169, 424, 200
-0.9933, 41, 117, 72, 148
-0.993304, 465, 149, 496, 180
-0.993309, 277, 269, 308, 300
-0.993322, 469, 209, 500, 240
-0.993327, 329, 261, 360, 292
-0.993333, 129, 201, 384, 264
-0.993333, 241, 281, 272, 312
-0.993346, 257, 237, 288, 268
-0.993348, 313, 81, 376, 144
-0.993348, 313, 33, 376, 288
-0.99335, 261, 125, 292, 156
-0.993351, 1, 169, 32, 200
-0.993353, 453, 233, 484, 264
-0.993355, 253, 225, 284, 256
-0.993355, 249, 185, 280, 216
-0.993358, 405, 189, 436, 220
-0.993362, 29, 137, 60, 168
-0.993364, 245, 237, 276, 268
-0.993367, 369, 269, 400, 300
-0.99337, 269, 145, 300, 176
-0.993373, 393, 225, 424, 352
-0.99339, 469, 73, 500, 104
-0.993397, 57, 305, 120, 368
-0.993399, 377, 181, 408, 212
-0.9934, 289, 261, 320, 292
-0.993404, 417, 269, 448, 300
-0.993405, 373, 233, 404, 264
-0.993406, 289, 209, 416, 240
-0.993408, 425, 241, 456, 368
-0.993409, 377, 313, 440, 375
-0.993411, 273, 213, 304, 244
-0.993411, 469, 61, 500, 92
-0.993417, 233, 117, 264, 148
-0.993434, 321, 237, 352, 268
-0.993438, 169, 145, 200, 176
-0.99344, 361, 293, 392, 324
-0.993442, 265, 265, 296, 296
-0.993446, 465, 137, 496, 168
-0.993447, 257, 141, 288, 172
-0.99345, 17, 129, 48, 160
-0.993453, 5, 129, 36, 160
-0.993455, 305, 241, 336, 368
-0.993455, 469, 93, 500, 124
-0.993457, 397, 153, 428, 184
-0.99346, 1, 153, 32, 184
-0.993467, 469, 49, 500, 80
-0.993467, 337, 197, 368, 228
-0.993468, 397, 225, 428, 256
-0.993469, 405, 345, 436, 375
-0.993475, 241, 217, 368, 248
-0.993476, 361, 237, 392, 268
-0.993483, 397, 125, 428, 156
-0.993484, 469, 33, 500, 64
-0.993487, 313, 49, 376, 112
-0.993488, 441, 237, 472, 268
-0.993491, 257, 173, 288, 204
-0.993492, 313, 189, 344, 220
-0.993493, 229, 197, 260, 228
-0.99352, 113, 185, 240, 248
-0.993565, 409, 169, 440, 232
-0.99359, 425, 153, 456, 216
-0.993591, 73, 81, 136, 208
-0.993597, 149, 225, 180, 288
-0.993612, 129, 273, 256, 336
-0.99363, 469, 1, 500, 128
-0.993658, 25, 97, 88, 352
-0.993666, 377, 1, 440, 128
-0.99372, 321, 41, 448, 104
-0.993763, 469, 33, 500, 96
-0.993823, 257, 97, 500, 160
-0.993868, 97, 289, 128, 352
-0.993876, 161, 313, 288, 375
-0.993877, 161, 137, 192, 200
-0.993884, 65, 17, 320, 144
-0.993958, 49, 217, 176, 280
-0.993962, 401, 281, 432, 344
-0.993963, 113, 225, 144, 352
-0.994012, 229, 209, 260, 336
-0.994026, 441, 241, 472, 304
-0.994087, 217, 1, 280, 375
-0.994138, 133, 217, 164, 280
-0.994156, 421, 193, 436, 256
-0.994234, 129, 113, 384, 176
-0.994264, 1, 121, 256, 184
-0.99427, 465, 113, 496, 176
-0.994285, 277, 249, 308, 312
-0.994318, 353, 65, 384, 192
-0.99433, 97, 233, 160, 296
-0.994333, 125, 209, 156, 336
-0.994343, 377, 49, 408, 176
-0.994375, 169, 97, 232, 224
-0.994425, 395, 153, 410, 216
-0.994459, 469, 89, 500, 152
-0.994496, 129, 121, 256, 184
-0.994501, 409, 33, 472, 96
-0.994547, 299, 185, 314, 248
-0.994561, 225, 249, 480, 312
-0.994563, 177, 49, 304, 176
-0.994563, 413, 193, 428, 256
-0.994584, 273, 197, 400, 228
-0.99463, 81, 313, 144, 375
-0.994657, 337, 217, 464, 248
-0.994658, 369, 33, 432, 96
-0.994671, 25, 1, 88, 128
-0.994703, 373, 297, 404, 360
-0.994708, 361, 65, 392, 128
-0.99472, 129, 313, 192, 375
-0.99473, 469, 9, 500, 72
-0.99473, 361, 313, 392, 375
-0.994769, 449, 225, 480, 352
-0.994785, 289, 185, 304, 248
-0.994791, 129, 177, 384, 240
-0.994799, 201, 161, 232, 288
-0.994803, 229, 161, 260, 288
-0.99483, 225, 189, 352, 220
-0.99487, 257, 65, 500, 128
-0.994883, 359, 201, 374, 264
-0.994912, 401, 105, 432, 168
-0.994925, 1, 177, 128, 240
-0.995048, 125, 313, 156, 375
-0.99506, 429, 265, 460, 328
-0.995085, 161, 145, 192, 272
-0.995086, 237, 153, 268, 216
-0.995201, 45, 113, 76, 176
-0.995213, 1, 265, 128, 328
-0.995239, 283, 161, 298, 224
-0.995249, 209, 89, 336, 152
-0.995251, 121, 217, 152, 280
-0.99527, 265, 89, 328, 152
-0.995272, 395, 177, 410, 240
-0.995284, 241, 229, 368, 260
-0.995286, 337, 217, 352, 280
-0.995292, 277, 193, 292, 256
-0.995323, 441, 201, 456, 264
-0.995333, 1, 145, 256, 208
-0.995345, 369, 137, 496, 168
-0.995371, 317, 249, 348, 312
-0.995376, 49, 137, 112, 200
-0.995383, 405, 313, 436, 375
-0.995398, 337, 1, 464, 64
-0.995405, 427, 201, 442, 264
-0.995412, 229, 177, 260, 240
-0.995414, 65, 265, 320, 328
-0.995427, 405, 201, 420, 264
-0.99544, 1, 185, 32, 248
-0.9955, 49, 177, 112, 240
-0.99551, 289, 233, 416, 264
-0.995513, 257, 273, 500, 336
-0.995517, 397, 129, 412, 192
-0.995532, 381, 241, 412, 304
-0.995544, 365, 201, 380, 264
-0.995569, 421, 297, 452, 360
-0.995576, 483, 185, 498, 248
-0.995581, 217, 113, 248, 240
-0.995594, 437, 225, 468, 352
-0.995601, 137, 265, 200, 328
-0.995602, 13, 169, 28, 232
-0.995614, 283, 185, 298, 248
-0.99563, 385, 201, 400, 264
-0.995664, 369, 125, 496, 156
-0.995664, 317, 177, 348, 240
-0.995682, 225, 273, 256, 336
-0.995697, 289, 221, 416, 252
-0.995703, 141, 129, 172, 256
-0.995709, 353, 229, 480, 260
-0.995716, 1, 177, 64, 304
-0.995717, 1, 113, 500, 176
-0.995718, 25, 1, 88, 375
-0.995727, 273, 17, 400, 80
-0.99578, 289, 185, 416, 216
-0.995801, 257, 65, 384, 128
-0.995853, 275, 153, 290, 216
-0.995865, 447, 217, 462, 280
-0.99588, 349, 289, 380, 352
-0.995888, 271, 193, 286, 256
-0.995897, 413, 137, 444, 200
-0.995909, 273, 81, 304, 208
-0.995914, 49, 97, 80, 224
-0.995926, 281, 129, 312, 375
-0.99593, 251, 249, 266, 312
-0.995943, 1, 185, 500, 248
-0.995947, 1, 241, 500, 304
-0.99599, 161, 233, 192, 296
-0.996004, 169, 1, 232, 375
-0.996007, 125, 121, 156, 184
-0.996024, 181, 153, 212, 216
-0.996025, 241, 245, 368, 276
-0.996031, 391, 201, 406, 264
-0.99606, 255, 193, 270, 256
-0.996082, 435, 201, 450, 264
-0.996091, 269, 129, 300, 375
-0.996096, 1, 165, 128, 196
-0.996101, 369, 193, 496, 224
-0.996104, 1, 153, 16, 216
-0.996115, 369, 249, 384, 312
-0.996117, 401, 161, 416, 224
-0.996123, 389, 289, 420, 352
-0.996143, 381, 105, 412, 168
-0.996148, 371, 201, 386, 264
-0.996158, 389, 169, 404, 232
-0.996177, 1, 125, 128, 156
-0.996188, 309, 177, 324, 240
-0.996192, 399, 201, 414, 264
-0.996209, 1, 1, 128, 64
-0.996219, 331, 217, 346, 280
-0.99622, 457, 201, 472, 264
-0.996224, 439, 177, 454, 240
-0.996227, 1, 97, 256, 160
-0.99626, 291, 217, 306, 280
-0.996275, 89, 169, 152, 232
-0.99628, 265, 193, 280, 256
-0.996284, 261, 265, 276, 328
-0.996298, 285, 225, 300, 288
-0.996343, 337, 113, 368, 240
-0.99635, 241, 297, 304, 360
-0.996358, 249, 217, 264, 280
-0.996362, 391, 129, 406, 192
-0.996369, 385, 313, 416, 375
-0.996372, 7, 161, 22, 224
-0.996378, 289, 145, 304, 208
-0.996379, 289, 249, 416, 280
-0.996397, 379, 193, 394, 256
-0.996404, 209, 313, 336, 375
-0.996405, 273, 233, 288, 296
-0.996423, 1, 193, 128, 320
-0.996423, 453, 241, 484, 304
-0.996428, 369, 153, 496, 184
-0.996454, 425, 265, 488, 328
-0.996461, 241, 269, 368, 300
-0.996467, 305, 249, 336, 312
-0.996478, 113, 1, 176, 375
-0.996482, 353, 209, 368, 272
-0.996482, 413, 65, 444, 192
-0.996524, 161, 221, 288, 252
-0.996531, 1, 177, 16, 240
-0.996532, 209, 125, 336, 156
-0.996551, 161, 289, 416, 352
-0.996593, 181, 241, 212, 304
-0.996596, 305, 201, 320, 264
-0.996599, 363, 177, 378, 240
-0.996609, 289, 261, 416, 292
-0.996615, 295, 161, 310, 224
-0.996637, 409, 65, 472, 128
-0.996639, 217, 153, 248, 216
-0.996644, 357, 177, 372, 240
-0.99668, 393, 257, 424, 320
-0.996685, 337, 241, 352, 304
-0.99671, 241, 145, 368, 176
-0.996726, 337, 69, 464, 100
-0.99673, 379, 257, 394, 320
-0.996744, 243, 209, 258, 272
-0.996747, 261, 241, 276, 304
-0.996747, 273, 125, 400, 156
-0.99675, 295, 241, 310, 304
-0.996756, 13, 145, 28, 208
-0.996771, 193, 177, 320, 208
-0.996773, 449, 189, 464, 220
-0.99678, 25, 137, 40, 200
-0.996794, 413, 217, 428, 280
-0.996801, 113, 289, 176, 352
-0.996803, 371, 177, 386, 240
-0.996825, 49, 185, 176, 248
-0.996825, 217, 297, 248, 360
-0.996838, 357, 113, 388, 176
-0.99686, 49, 89, 176, 152
-0.996872, 209, 165, 336, 196
-0.996873, 197, 177, 228, 240
-0.996875, 13, 65, 44, 192
-0.996876, 269, 169, 284, 232
-0.996902, 177, 177, 208, 304
-0.996906, 243, 241, 258, 304
-0.996907, 89, 1, 152, 375
-0.996911, 301, 241, 316, 304
-0.996913, 19, 153, 34, 216
-0.996929, 257, 129, 288, 375
-0.996951, 1, 137, 128, 168
-0.996957, 373, 225, 388, 288
-0.996966, 1, 153, 128, 184
-0.996968, 321, 137, 448, 168
-0.996969, 369, 165, 496, 196
-0.996969, 403, 129, 418, 192
-0.996972, 161, 157, 288, 188
-0.996972, 221, 225, 252, 288
-0.996977, 193, 249, 320, 280
-0.996999, 177, 233, 304, 264
-0.99702, 357, 145, 388, 208
-0.997021, 439, 225, 454, 288
-0.997027, 49, 249, 176, 312
-0.997036, 249, 193, 264, 256
-0.997038, 33, 177, 288, 240
-0.997045, 267, 225, 282, 288
-0.997048, 277, 121, 292, 184
-0.997049, 283, 137, 298, 200
-0.997049, 343, 225, 358, 288
-0.997053, 331, 241, 346, 304
-0.99706, 81, 305, 112, 368
-0.997061, 337, 33, 400, 96
-0.997067, 273, 173, 400, 204
-0.997098, 137, 1, 200, 375
-0.997105, 299, 209, 314, 272
-0.99711, 1, 185, 64, 248
-0.997117, 257, 41, 500, 104
-0.99712, 181, 177, 212, 240
-0.997122, 433, 233, 448, 296
-0.997124, 369, 109, 496, 140
-0.997134, 33, 289, 288, 352
-0.997165, 177, 105, 240, 168
-0.997166, 189, 241, 220, 368
-0.997168, 305, 129, 368, 192
-0.997193, 421, 201, 436, 232
-0.997203, 363, 249, 378, 312
-0.997205, 1, 73, 64, 136
-0.997207, 475, 201, 490, 264
-0.997209, 177, 261, 304, 292
-0.997212, 193, 145, 320, 176
-0.997213, 193, 1, 256, 375
-0.997223, 57, 129, 120, 375
-0.997223, 31, 129, 46, 192
-0.997225, 133, 185, 164, 248
-0.997229, 389, 129, 420, 375
-0.99723, 209, 65, 336, 128
-0.997233, 407, 177, 422, 240
-0.997241, 449, 205, 464, 236
-0.997248, 485, 161, 500, 224
-0.997252, 415, 169, 430, 232
-0.997253, 1, 81, 128, 144
-0.997262, 311, 209, 326, 272
-0.997267, 7, 185, 22, 248
-0.99727, 481, 217, 496, 280
-0.99728, 279, 233, 294, 296
-0.997281, 337, 181, 464, 212
-0.997284, 383, 169, 398, 232
-0.997292, 389, 205, 404, 236
-0.997322, 395, 193, 410, 224
-0.997329, 419, 217, 434, 280
-0.997331, 1, 161, 500, 224
-0.99735, 353, 277, 480, 308
-0.997367, 351, 185, 366, 248
-0.997372, 453, 225, 468, 288
-0.997374, 337, 261, 464, 292
-0.997376, 415, 201, 430, 232
-0.997382, 295, 189, 310, 220
-0.997385, 369, 97, 496, 128
-0.997385, 1, 177, 128, 208
-0.997387, 361, 205, 376, 236
-0.99739, 257, 17, 500, 80
-0.997391, 313, 1, 376, 128
-0.997392, 427, 177, 442, 240
-0.997393, 177, 197, 304, 228
-0.997394, 289, 157, 416, 188
-0.997403, 395, 161, 410, 192
-0.997404, 383, 205, 398, 236
-0.997409, 271, 129, 286, 192
-0.997413, 257, 109, 384, 140
-0.997423, 97, 233, 224, 264
-0.997426, 109, 233, 140, 296
-0.997427, 37, 121, 52, 184
-0.997432, 317, 193, 332, 256
-0.997439, 97, 249, 224, 280
-0.997447, 1, 137, 500, 200
-0.997452, 113, 321, 240, 352
-0.997456, 325, 217, 340, 280
-0.997458, 243, 185, 258, 248
-0.997466, 287, 249, 302, 312
-0.99747, 353, 245, 480, 276
-0.997471, 427, 233, 442, 296
-0.997476, 377, 169, 392, 232
-0.997497, 379, 233, 394, 296
-0.997499, 449, 225, 464, 256
-0.997503, 385, 257, 400, 320
-0.997511, 265, 113, 280, 176
-0.997516, 1, 113, 128, 144
-0.997524, 337, 81, 464, 112
-0.997533, 241, 257, 368, 288
-0.997545, 447, 161, 462, 224
-0.997561, 409, 129, 440, 375
-0.997573, 161, 277, 288, 308
-0.997587, 407, 201, 422, 232
-0.997596, 145, 209, 272, 240
-0.9976, 301, 161, 316, 224
-0.99762, 377, 205, 392, 236
-0.997638, 253, 273, 268, 336
-0.997655, 459, 177, 474, 240
-0.997677, 161, 133, 288, 164
-0.997683, 385, 129, 400, 192
-0.997695, 57, 1, 120, 64
-0.997696, 1, 265, 500, 328
-0.997702, 395, 149, 410, 180
-0.99771, 97, 89, 352, 152
-0.997712, 225, 1, 352, 64
-0.997714, 113, 129, 144, 256
-0.997731, 129, 313, 384, 375
-0.997736, 395, 137, 410, 168
-0.997742, 241, 113, 256, 176
-0.99775, 395, 173, 410, 204
-0.99775, 443, 225, 458, 256
-0.997752, 419, 257, 434, 320
-0.997754, 307, 233, 322, 296
-0.997755, 485, 137, 500, 200
-0.997758, 255, 225, 270, 288
-0.997762, 423, 113, 438, 176
-0.997778, 81, 201, 144, 264
-0.997788, 371, 205, 386, 236
-0.997796, 395, 209, 410, 240
-0.997799, 353, 313, 480, 344
-0.997808, 389, 193, 404, 224
-0.997817, 421, 169, 436, 232
-0.997821, 97, 289, 112, 352
-0.997822, 129, 129, 160, 256
-0.997854, 251, 105, 266, 168
-0.997862, 371, 273, 386, 336
-0.997872, 429, 97, 460, 352
-0.997873, 477, 177, 492, 240
-0.997873, 161, 65, 416, 128
-0.997879, 237, 249, 252, 312
-0.99788, 49, 113, 64, 176
-0.997881, 65, 309, 192, 340
-0.997883, 177, 289, 304, 320
-0.997895, 337, 221, 352, 252
-0.997896, 225, 41, 352, 104
-0.997897, 301, 129, 332, 375
-0.9979, 25, 49, 88, 176
-0.997902, 439, 213, 454, 244
-0.997905, 15, 169, 30, 200
-0.997905, 33, 217, 288, 280
-0.997907, 257, 113, 272, 176
-0.997908, 293, 265, 308, 328
-0.997913, 307, 185, 322, 216
-0.997922, 457, 213, 472, 244
-0.997928, 353, 273, 368, 336
-0.997937, 425, 81, 456, 208
-0.997941, 275, 193, 290, 224
-0.997944, 363, 225, 378, 288
-0.997947, 321, 121, 448, 152
-0.99795, 431, 209, 446, 240
-0.997958, 257, 281, 384, 312
-0.997959, 283, 173, 298, 204
-0.997962, 417, 113, 432, 176
-0.997976, 267, 265, 282, 328
-0.997981, 401, 201, 416, 232
-0.997983, 433, 257, 448, 320
-0.997987, 157, 225, 172, 288
-0.997991, 1, 65, 32, 320
-0.997992, 33, 313, 288, 375
-0.997998, 283, 193, 298, 224
-0.998004, 373, 129, 404, 375
-0.998008, 449, 177, 464, 208
-0.998012, 455, 225, 470, 256
-0.998012, 385, 233, 400, 296
-0.998014, 321, 109, 448, 140
-0.998021, 245, 97, 276, 352
-0.998031, 81, 273, 208, 304
-0.998044, 137, 177, 200, 304
-0.998054, 481, 205, 496, 236
-0.998058, 253, 197, 268, 228
-0.998069, 309, 201, 324, 232
-0.99807, 469, 129, 500, 375
-0.998071, 329, 217, 344, 248
-0.998076, 49, 1, 112, 375
-0.998088, 113, 333, 240, 364
-0.998095, 161, 41, 416, 104
-0.998105, 65, 325, 192, 356
-0.998106, 5, 177, 20, 208
-0.998109, 353, 213, 368, 244
-0.998136, 81, 261, 208, 292
-0.998138, 389, 49, 420, 176
-0.998143, 161, 121, 288, 152
-0.998145, 277, 177, 292, 208
-0.998156, 1, 17, 64, 144
-0.998161, 337, 237, 352, 268
-0.998167, 439, 193, 454, 224
-0.998176, 253, 269, 268, 300
-0.998183, 145, 245, 272, 276
-0.998185, 11, 181, 26, 212
-0.998194, 3, 189, 18, 220
-0.998197, 289, 253, 304, 284
-0.998209, 353, 97, 384, 352
-0.998214, 445, 129, 476, 375
-0.998215, 299, 205, 314, 236
-0.998225, 97, 137, 224, 168
-0.998226, 485, 173, 500, 204
-0.998228, 371, 253, 386, 284
-0.998232, 81, 285, 208, 316
-0.998233, 31, 129, 46, 160
-0.998245, 261, 273, 276, 304
-0.998261, 401, 189, 416, 220
-0.998263, 405, 33, 436, 288
-0.998264, 13, 97, 44, 352
-0.998276, 423, 213, 438, 244
-0.998278, 41, 281, 104, 344
-0.998279, 289, 189, 304, 220
-0.998285, 301, 189, 316, 220
-0.99829, 379, 249, 394, 280
-0.998294, 321, 93, 448, 124
-0.9983, 251, 245, 266, 276
-0.998301, 305, 305, 432, 336
-0.998304, 459, 201, 474, 232
-0.998312, 61, 129, 92, 256
-0.998315, 369, 263, 400, 278
-0.998315, 373, 131, 404, 146
-0.998316, 297, 241, 328, 256
-0.998317, 329, 265, 360, 280
-0.998317, 265, 169, 296, 184
-0.998318, 315, 189, 330, 220
-0.998318, 309, 233, 340, 248
-0.998318, 353, 269, 384, 284
-0.998318, 365, 257, 396, 272
-0.998318, 285, 205, 316, 220
-0.99832, 281, 179, 312, 194
-0.99832, 299, 253, 314, 284
-0.998321, 381, 143, 412, 158
-0.998322, 389, 163, 420, 178
-0.998323, 241, 269, 272, 284
-0.998323, 345, 361, 376, 375
-0.998323, 409, 215, 440, 230
-0.998324, 361, 201, 392, 216
-0.998324, 277, 241, 292, 272
-0.998325, 321, 241, 352, 256
-0.998325, 465, 155, 496, 170
-0.998325, 357, 279, 388, 294
-0.998327, 209, 113, 336, 144
-0.998327, 465, 161, 496, 176
-0.998327, 9, 139, 40, 154
-0.998328, 281, 161, 312, 176
-0.998329, 265, 155, 296, 170
-0.998331, 253, 269, 284, 284
-0.998332, 311, 213, 326, 244
-0.998333, 365, 251, 396, 266
-0.998334, 261, 287, 292, 302
-0.998336, 145, 177, 272, 208
-0.998336, 233, 215, 264, 230
-0.998337, 445, 185, 476, 200
-0.998338, 249, 149, 280, 164
-0.998338, 245, 281, 276, 296
-0.998338, 333, 241, 364, 256
-0.998338, 465, 175, 496, 190
-0.998339, 393, 173, 424, 188
-0.998339, 321, 229, 352, 244
-0.998339, 381, 183, 412, 198
-0.998339, 433, 185, 464, 200
-0.99834, 337, 233, 368, 248
-0.99834, 265, 163, 296, 178
-0.99834, 229, 205, 260, 220
-0.998343, 245, 117, 276, 132
-0.998345, 29, 135, 60, 150
-0.998345, 465, 167, 496, 182
-0.998345, 249, 221, 280, 236
-0.998346, 281, 271, 312, 286
-0.998346, 261, 275, 292, 290
-0.998347, 241, 275, 272, 290
-0.998349, 483, 185, 498, 216
-0.99835, 449, 227, 480, 242
-0.99835, 289, 259, 320, 274
-0.99835, 353, 225, 384, 240
-0.99835, 449, 237, 480, 252
-0.998353, 37, 125, 68, 140
-0.998353, 273, 69, 400, 100
-0.998353, 373, 201, 404, 216
-0.998354, 277, 149, 308, 164
-0.998357, 269, 247, 300, 262
-0.998358, 9, 175, 40, 190
-0.998358, 417, 233, 448, 248
-0.998358, 295, 177, 310, 208
-0.998358, 381, 155, 412, 170
-0.998358, 273, 265, 304, 280
-0.998363, 381, 173, 412, 188
-0.998365, 243, 253, 258, 284
-0.998366, 293, 199, 324, 214
-0.998366, 285, 167, 316, 182
-0.998368, 289, 211, 320, 226
-0.99837, 1, 189, 32, 204
-0.99837, 293, 247, 324, 262
-0.99837, 249, 211, 280, 226
-0.998371, 413, 225, 444, 240
-0.998373, 377, 213, 408, 228
-0.998377, 425, 227, 456, 242
-0.998377, 425, 193, 456, 208
-0.998379, 273, 223, 304, 238
-0.99838, 133, 223, 164, 238
-0.998381, 293, 267, 324, 282
-0.998381, 261, 235, 292, 250
-0.998382, 393, 205, 456, 220
-0.998382, 269, 193, 284, 224
-0.998382, 253, 227, 284, 242
-0.998384, 321, 209, 336, 240
-0.998386, 237, 259, 268, 274
-0.998387, 393, 135, 424, 150
-0.998388, 433, 201, 496, 216
-0.99839, 301, 225, 332, 240
-0.998391, 353, 341, 480, 372
-0.998392, 393, 153, 424, 168
-0.998393, 317, 215, 348, 230
-0.998393, 401, 169, 416, 200
-0.998395, 347, 221, 362, 252
-0.998395, 385, 199, 416, 214
-0.998396, 457, 193, 488, 208
-0.998397, 285, 241, 316, 256
-0.998397, 129, 345, 256, 375
-0.998399, 345, 207, 408, 222
-0.998399, 305, 211, 336, 226
-0.9984, 189, 161, 220, 288
-0.998401, 137, 81, 200, 208
-0.998401, 289, 219, 320, 234
-0.998403, 257, 195, 320, 210
-0.998403, 353, 325, 480, 356
-0.998404, 337, 225, 368, 240
-0.998405, 289, 253, 320, 268
-0.998408, 261, 197, 292, 212
-0.99841, 425, 213, 456, 228
-0.998412, 433, 193, 496, 208
-0.998412, 361, 193, 376, 224
-0.998413, 281, 187, 312, 202
-0.998416, 413, 209, 444, 224
-0.998417, 349, 209, 380, 224
-0.998417, 101, 145, 132, 272
-0.998417, 367, 225, 382, 256
-0.998422, 397, 211, 428, 226
-0.998423, 277, 153, 292, 184
-0.998425, 375, 193, 390, 224
-0.998427, 253, 257, 268, 288
-0.998429, 437, 225, 452, 256
-0.998432, 301, 193, 332, 208
-0.998433, 281, 173, 312, 188
-0.998433, 321, 223, 352, 238
-0.998435, 273, 239, 304, 254
-0.998435, 81, 297, 208, 328
-0.998438, 305, 217, 336, 232
-0.998439, 381, 137, 412, 152
-0.99844, 433, 207, 496, 222
-0.99844, 461, 221, 492, 236
-0.99844, 9, 183, 40, 198
-0.998443, 105, 201, 168, 264
-0.998445, 355, 201, 370, 232
-0.998445, 49, 125, 176, 156
-0.998447, 305, 205, 336, 220
-0.998449, 337, 213, 368, 228
-0.99845, 433, 221, 464, 236
-0.998453, 273, 193, 304, 208
-0.998453, 289, 225, 320, 240
-0.998454, 285, 233, 316, 248
-0.998457, 359, 217, 374, 248
-0.998459, 457, 199, 488, 214
-0.998461, 283, 241, 298, 272
-0.998461, 1, 309, 128, 340
-0.998461, 225, 313, 480, 375
-0.998463, 409, 199, 472, 214
-0.998463, 249, 201, 280, 216
-0.998464, 445, 221, 476, 236
-0.998469, 475, 221, 490, 252
-0.998471, 303, 217, 318, 248
-0.998472, 365, 33, 396, 288
-0.998474, 463, 233, 478, 264
-0.998477, 331, 229, 346, 260
-0.998477, 113, 221, 240, 252
-0.99848, 245, 201, 260, 232
-0.99848, 433, 187, 496, 202
-0.998484, 281, 247, 312, 262
-0.998484, 37, 125, 52, 156
-0.998487, 457, 209, 488, 224
-0.998488, 21, 161, 36, 192
-0.998489, 137, 113, 200, 176
-0.998489, 409, 213, 424, 244
-0.998492, 305, 199, 336, 214
-0.998493, 425, 199, 456, 214
-0.998493, 437, 227, 468, 242
-0.998495, 305, 215, 368, 230
-0.998498, 337, 289, 464, 320
-0.998498, 433, 215, 496, 230
-0.998498, 261, 197, 276, 228
-0.9985, 337, 219, 368, 234
-0.998501, 241, 237, 304, 252
-0.998505, 353, 215, 384, 230
-0.998507, 445, 215, 476, 230
-0.998508, 301, 187, 332, 202
-0.998509, 457, 215, 488, 230
-0.998511, 257, 227, 320, 242
-0.998513, 385, 211, 448, 226
-0.998515, 373, 207, 404, 222
-0.998516, 437, 209, 468, 224
-0.998516, 437, 191, 468, 206
-0.998517, 287, 229, 302, 260
-0.998519, 409, 211, 472, 226
-0.998519, 443, 181, 458, 212
-0.998521, 389, 169, 404, 200
-0.998521, 337, 129, 368, 375
-0.998523, 273, 221, 336, 236
-0.998527, 481, 221, 496, 252
-0.998527, 273, 229, 304, 244
-0.998527, 177, 345, 304, 375
-0.998529, 425, 207, 456, 222
-0.998529, 369, 205, 432, 220
-0.998531, 65, 221, 192, 252
-0.998533, 279, 129, 294, 160
-0.998538, 329, 219, 392, 234
-0.998541, 271, 141, 286, 172
-0.998542, 265, 247, 328, 262
-0.998543, 345, 213, 408, 228
-0.998547, 381, 193, 396, 224
-0.998548, 375, 217, 390, 248
-0.99855, 433, 221, 496, 236
-0.998552, 273, 233, 336, 248
-0.998553, 317, 225, 332, 256
-0.998555, 273, 189, 336, 204
-0.998556, 361, 207, 392, 222
-0.998556, 295, 221, 310, 252
-0.998556, 273, 201, 336, 216
-0.998557, 81, 169, 208, 200
-0.998559, 193, 325, 320, 356
-0.99856, 367, 193, 382, 224
-0.998561, 305, 209, 368, 224
-0.998562, 393, 205, 424, 220
-0.998562, 297, 229, 360, 244
-0.998564, 287, 217, 302, 248
-0.998564, 281, 225, 296, 256
-0.998565, 145, 145, 272, 176
-0.998565, 437, 197, 468, 212
-0.998565, 365, 249, 380, 280
-0.998566, 225, 97, 256, 352
-0.998568, 289, 239, 352, 254
-0.998569, 161, 129, 192, 375
-0.99857, 409, 217, 472, 232
-0.99857, 409, 193, 472, 208
-0.998571, 241, 221, 304, 236
-0.998575, 369, 199, 432, 214
-0.998575, 329, 225, 392, 240
-0.998575, 403, 213, 418, 244
-0.998576, 301, 177, 316, 208
-0.998578, 379, 265, 394, 296
-0.998582, 233, 201, 296, 216
-0.998584, 431, 197, 446, 228
-0.998587, 265, 239, 328, 254
-0.998588, 315, 201, 330, 232
-0.998589, 297, 223, 360, 238
-0.99859, 417, 227, 480, 242
-0.998592, 437, 203, 468, 218
-0.998592, 433, 181, 496, 196
-0.998592, 281, 215, 344, 230
-0.998592, 401, 153, 416, 184
-0.998596, 249, 233, 264, 264
-0.998597, 297, 201, 360, 216
-0.998597, 17, 137, 80, 152
-0.998598, 353, 155, 416, 170
-0.998599, 257, 213, 320, 228
-0.998601, 485, 161, 500, 192
-0.998601, 289, 195, 352, 210
-0.998603, 289, 177, 304, 304
-0.998604, 393, 185, 456, 200
-0.998605, 257, 271, 320, 286
-0.998606, 249, 153, 312, 168
-0.998606, 1, 183, 64, 198
-0.998607, 433, 173, 496, 188
-0.998607, 233, 227, 296, 242
-0.998608, 297, 265, 360, 280
-0.998609, 225, 121, 288, 136
-0.99861, 81, 157, 208, 188
-0.998612, 353, 145, 416, 160
-0.998612, 241, 247, 304, 262
-0.998616, 279, 253, 294, 284
-0.998616, 265, 183, 328, 198
-0.998616, 417, 235, 480, 250
-0.998618, 295, 177, 310, 304
-0.998618, 361, 225, 424, 240
-0.99862, 273, 325, 400, 356
-0.99862, 273, 81, 400, 112
-0.998623, 17, 131, 80, 146
-0.998626, 121, 225, 184, 240
-0.998628, 257, 175, 320, 190
-0.998629, 273, 229, 288, 260
-0.998629, 377, 155, 440, 170
-0.998629, 233, 265, 296, 280
-0.998629, 113, 309, 240, 340
-0.99863, 233, 207, 296, 222
-0.998631, 17, 143, 80, 158
-0.998631, 473, 209, 488, 240
-0.998631, 311, 225, 326, 256
-0.998632, 257, 207, 320, 222
-0.998632, 285, 193, 316, 208
-0.998633, 263, 117, 278, 148
-0.998634, 25, 125, 88, 140
-0.998634, 289, 245, 352, 260
-0.998635, 385, 139, 448, 154
-0.998636, 385, 233, 448, 248
-0.998636, 389, 33, 420, 288
-0.998637, 331, 241, 346, 272
-0.998639, 381, 217, 396, 248
-0.99864, 285, 161, 300, 192
-0.998643, 389, 153, 404, 184
-0.998644, 257, 261, 320, 276
-0.998644, 407, 189, 422, 220
-0.998644, 385, 225, 448, 240
-0.998644, 345, 201, 408, 216
-0.998644, 9, 173, 72, 188
-0.998645, 249, 169, 312, 184
-0.998646, 273, 57, 400, 88
-0.998646, 329, 257, 392, 272
-0.998646, 393, 149, 456, 164
-0.998647, 385, 217, 448, 232
-0.998648, 201, 205, 264, 220
-0.998649, 201, 211, 264, 226
-0.99865, 225, 277, 288, 292
-0.998652, 353, 175, 416, 190
-0.998653, 353, 185, 416, 200
-0.998653, 261, 261, 276, 292
-0.998653, 281, 209, 344, 224
-0.998654, 433, 159, 496, 174
-0.998655, 1, 189, 64, 204
-0.998655, 249, 189, 312, 204
-0.998656, 249, 147, 312, 162
-0.998656, 369, 65, 432, 80
-0.998656, 1, 289, 64, 352
-0.998658, 373, 233, 388, 264
-0.998658, 385, 191, 448, 206
-0.998659, 377, 173, 440, 188
-0.99866, 297, 189, 360, 204
-0.99866, 345, 263, 408, 278
-0.99866, 353, 219, 416, 234
-0.998661, 249, 163, 312, 178
-0.998661, 255, 289, 270, 320
-0.998661, 121, 231, 184, 246
-0.998663, 257, 255, 320, 270
-0.998663, 353, 165, 416, 180
-0.998663, 329, 233, 392, 248
-0.998664, 271, 181, 286, 212
-0.998664, 369, 251, 432, 266
-0.998665, 217, 157, 280, 172
-0.998667, 289, 183, 352, 198
-0.998667, 345, 133, 408, 148
-0.998667, 273, 161, 336, 176
-0.998668, 209, 217, 272, 232
-0.998669, 387, 217, 402, 248
-0.99867, 433, 123, 496, 138
-0.99867, 433, 151, 496, 166
-0.99867, 457, 97, 488, 352
-0.99867, 405, 203, 436, 218
-0.998671, 289, 251, 352, 266
-0.998673, 289, 167, 352, 182
-0.998676, 233, 253, 296, 268
-0.998676, 289, 173, 352, 188
-0.998677, 427, 249, 442, 280
-0.998677, 297, 237, 312, 268
-0.998678, 45, 121, 60, 152
-0.998678, 415, 213, 430, 244
-0.998678, 209, 225, 272, 240
-0.998678, 433, 165, 496, 180
-0.99868, 457, 189, 472, 220
-0.99868, 433, 143, 496, 158
-0.998682, 233, 215, 296, 230
-0.998683, 273, 155, 336, 170
-0.998685, 217, 145, 280, 160
-0.998686, 225, 259, 288, 274
-0.998687, 329, 251, 392, 266
-0.998687, 285, 145, 300, 176
-0.998688, 201, 261, 264, 276
-0.998688, 433, 117, 496, 132
-0.998688, 233, 129, 296, 144
-0.998689, 89, 321, 152, 336
-0.99869, 241, 137, 304, 152
-0.998691, 297, 259, 360, 274
-0.998691, 257, 245, 272, 276
-0.998693, 17, 149, 80, 164
-0.998693, 105, 329, 168, 344
-0.998693, 1, 297, 128, 328
-0.998694, 233, 271, 296, 286
-0.998694, 385, 133, 448, 148
-0.998694, 121, 237, 184, 252
-0.998694, 369, 57, 496, 88
-0.998694, 201, 253, 264, 268
-0.998695, 201, 197, 264, 212
-0.998695, 217, 243, 280, 258
-0.998747, 129, 265, 256, 296
-0.99875, 353, 301, 480, 332
-0.998756, 313, 129, 344, 375
-0.998774, 257, 97, 384, 128
-0.998783, 447, 177, 462, 304
-0.998784, 301, 177, 316, 304
-0.998791, 283, 177, 298, 304
-0.998798, 395, 129, 410, 256
-0.998802, 283, 129, 298, 256
-0.998825, 277, 177, 292, 304
-0.998827, 169, 33, 232, 288
-0.998842, 321, 57, 448, 88
-0.998855, 305, 277, 432, 308
-0.998863, 145, 129, 176, 375
-0.998876, 29, 65, 60, 192
-0.998883, 49, 113, 176, 144
-0.998891, 217, 161, 248, 288
-0.998894, 421, 177, 436, 304
-0.998894, 361, 193, 376, 320
-0.998906, 289, 129, 304, 256
-0.998915, 113, 117, 240, 148
-0.998922, 289, 293, 416, 324
-0.998925, 257, 313, 384, 344
-0.998932, 177, 305, 304, 336
-0.998934, 1, 289, 500, 352
-0.998945, 225, 293, 352, 324
-0.998955, 173, 129, 204, 256
-0.998976, 271, 177, 286, 304
-0.998977, 73, 97, 104, 224
-0.998989, 377, 33, 408, 288
-0.999, 201, 225, 232, 352
-0.999, 265, 33, 296, 288
-0.999007, 453, 177, 468, 304
-0.99901, 415, 177, 430, 304
-0.999016, 401, 129, 416, 256
-0.999025, 65, 337, 192, 368
-0.999033, 275, 129, 290, 256
-0.999038, 265, 177, 280, 304
-0.999046, 1, 101, 128, 132
-0.999081, 1, 1, 500, 64
-0.999081, 1, 241, 128, 304
-0.999085, 89, 113, 152, 176
-0.999087, 351, 193, 366, 320
-0.999093, 485, 129, 500, 256
-0.999095, 469, 33, 500, 288
-0.999106, 409, 177, 424, 304
-0.999106, 249, 209, 264, 336
-0.999107, 305, 337, 432, 368
-0.99911, 25, 65, 56, 320
-0.999118, 431, 193, 446, 320
-0.999119, 367, 193, 382, 320
-0.999121, 295, 129, 310, 256
-0.999123, 373, 193, 388, 320
-0.99913, 1, 89, 500, 152
-0.999134, 285, 81, 316, 208
-0.99914, 255, 177, 270, 304
-0.999144, 379, 193, 394, 320
-0.999149, 417, 33, 448, 288
-0.999157, 325, 129, 356, 375
-0.999158, 1, 281, 128, 312
-0.999159, 389, 145, 404, 272
-0.999162, 337, 209, 352, 336
-0.999174, 309, 177, 324, 304
-0.999186, 33, 1, 96, 256
-0.999186, 17, 161, 48, 288
-0.999189, 441, 193, 456, 320
-0.99921, 15, 145, 30, 272
-0.999215, 385, 193, 400, 320
-0.999218, 271, 225, 286, 352
-0.999222, 5, 113, 20, 240
-0.999227, 395, 177, 410, 304
-0.999234, 269, 129, 284, 256
-0.999237, 125, 97, 156, 352
-0.999243, 17, 321, 144, 352
-0.999244, 373, 145, 388, 272
-0.99925, 441, 145, 456, 272
-0.999256, 13, 1, 44, 256
-0.999257, 403, 177, 418, 304
-0.999257, 449, 129, 464, 256
-0.99926, 327, 193, 342, 320
-0.999269, 285, 225, 300, 352
-0.999273, 365, 145, 380, 272
-0.999279, 1, 313, 500, 375
-0.99928, 11, 97, 26, 224
-0.999285, 343, 209, 358, 336
-0.999287, 299, 241, 314, 368
-0.999289, 479, 161, 494, 288
-0.999293, 265, 225, 280, 352
-0.999296, 277, 225, 292, 352
-0.999302, 161, 17, 416, 80
-0.999303, 263, 97, 278, 224
-0.999323, 291, 225, 306, 352
-0.999346, 65, 181, 192, 212
-0.999354, 161, 105, 288, 136
-0.999356, 9, 161, 24, 288
-0.999365, 459, 193, 474, 320
-0.999371, 375, 241, 390, 368
-0.999379, 255, 225, 270, 352
-0.999385, 3, 177, 18, 304
-0.999387, 359, 145, 374, 272
-0.999392, 415, 129, 430, 256
-0.999396, 429, 145, 444, 272
-0.999396, 273, 45, 400, 76
-0.999402, 363, 241, 378, 368
-0.999402, 369, 241, 384, 368
-0.999407, 379, 145, 394, 272
-0.999417, 485, 209, 500, 336
-0.999419, 425, 17, 456, 144
-0.999419, 315, 193, 330, 320
-0.99942, 455, 129, 470, 256
-0.999422, 49, 137, 176, 168
-0.999423, 33, 113, 48, 240
-0.999429, 21, 145, 36, 272
-0.99943, 421, 113, 436, 240
-0.999432, 49, 1, 176, 64
-0.999432, 409, 129, 424, 256
-0.999435, 243, 193, 258, 320
-0.999445, 321, 209, 336, 336
-0.999446, 251, 97, 266, 224
-0.999451, 1, 1, 128, 32
-0.999454, 301, 129, 316, 256
-0.999456, 331, 241, 346, 368
-0.999457, 1, 49, 32, 176
-0.999458, 337, 161, 352, 288
-0.999462, 177, 129, 208, 375
-0.999471, 479, 209, 494, 336
-0.999472, 305, 241, 320, 368
-0.999474, 345, 161, 360, 288
-0.999476, 21, 81, 36, 208
-0.999483, 473, 193, 488, 320
-0.999484, 157, 209, 172, 336
-0.999486, 281, 33, 312, 288
-0.999503, 435, 129, 450, 256
-0.999506, 473, 145, 488, 272
-0.999506, 17, 261, 144, 292
-0.99951, 177, 225, 208, 352
-0.999515, 353, 145, 368, 272
-0.999515, 245, 97, 260, 224
-0.999517, 109, 129, 140, 375
-0.99952, 45, 1, 76, 128
-0.999523, 97, 129, 128, 375
-0.999534, 33, 209, 160, 240
-0.99954, 249, 239, 264, 254
-0.99954, 337, 37, 464, 68
-0.999542, 279, 235, 294, 250
-0.999542, 473, 219, 488, 234
-0.999542, 389, 97, 404, 224
-0.999542, 109, 241, 124, 368
-0.999543, 461, 145, 476, 272
-0.999544, 387, 155, 402, 170
-0.999544, 389, 131, 404, 146
-0.999545, 401, 131, 416, 146
-0.999545, 413, 211, 428, 226
-0.999545, 277, 245, 292, 260
-0.999546, 441, 191, 456, 206
-0.999546, 485, 169, 500, 184
-0.999547, 463, 235, 478, 250
-0.999547, 271, 237, 286, 252
-0.999548, 401, 179, 416, 194
-0.999549, 403, 155, 418, 170
-0.99955, 481, 211, 496, 226
-0.99955, 337, 233, 352, 248
-0.999552, 391, 213, 406, 228
-0.999552, 363, 65, 378, 192
-0.999553, 263, 287, 278, 302
-0.999554, 465, 193, 480, 320
-0.999554, 293, 269, 308, 284
-0.999554, 285, 235, 300, 250
-0.999555, 303, 267, 318, 282
-0.999555, 431, 231, 446, 246
-0.999555, 397, 213, 412, 228
-0.999555, 441, 229, 456, 244
-0.999555, 379, 257, 394, 272
-0.999556, 261, 199, 276, 214
-0.999556, 269, 227, 284, 242
-0.999557, 289, 221, 304, 236
-0.999557, 481, 217, 496, 232
-0.999558, 285, 171, 300, 186
-0.999559, 301, 253, 316, 268
-0.999559, 33, 129, 48, 144
-0.99956, 483, 189, 498, 204
-0.99956, 139, 209, 154, 336
-0.99956, 383, 97, 398, 224
-0.99956, 389, 201, 404, 216
-0.999561, 387, 137, 402, 152
-0.999562, 321, 5, 448, 36
-0.999562, 321, 17, 448, 48
-0.999562, 415, 241, 430, 368
-0.999563, 369, 259, 384, 274
-0.999563, 301, 209, 316, 224
-0.999563, 231, 113, 246, 240
-0.999564, 249, 161, 264, 288
-0.999564, 279, 189, 294, 204
-0.999565, 389, 241, 404, 368
-0.999566, 303, 239, 318, 254
-0.999566, 485, 181, 500, 196
-0.999566, 349, 223, 364, 238
-0.999567, 253, 273, 268, 288
-0.999568, 243, 205, 258, 220
-0.999568, 481, 205, 496, 220
-0.999569, 407, 211, 422, 226
-0.999569, 265, 277, 280, 292
-0.999569, 17, 249, 144, 280
-0.99957, 291, 239, 306, 254
-0.999571, 341, 223, 356, 238
-0.999571, 7, 187, 22, 202
-0.999571, 459, 221, 474, 236
-0.999572, 459, 213, 474, 228
-0.999574, 453, 225, 468, 240
-0.999575, 437, 217, 452, 232
-0.999576, 371, 97, 386, 224
-0.999576, 27, 113, 42, 240
-0.999577, 289, 251, 304, 266
-0.999577, 431, 203, 446, 218
-0.999577, 423, 209, 438, 224
-0.999578, 369, 49, 384, 176
-0.99958, 251, 249, 266, 264
-0.999581, 315, 201, 330, 216
-0.999581, 485, 81, 500, 208
-0.999582, 439, 209, 454, 224
-0.999583, 331, 223, 346, 238
-0.999583, 13, 175, 28, 190
-0.999583, 287, 265, 302, 280
-0.999586, 243, 241, 258, 368
-0.999587, 457, 201, 472, 216
-0.999587, 149, 209, 164, 336
-0.999588, 257, 21, 384, 52
-0.999588, 273, 33, 400, 64
-0.999589, 283, 241, 298, 256
-0.999589, 399, 81, 414, 208
-0.99959, 293, 231, 308, 246
-0.99959, 309, 207, 324, 222
-0.999591, 5, 181, 20, 196
-0.999591, 315, 207, 330, 222
-0.999592, 297, 187, 312, 202
-0.999592, 459, 207, 474, 222
-0.999593, 399, 137, 414, 152
-0.999593, 441, 197, 456, 212
-0.999594, 359, 213, 374, 228
-0.999597, 367, 253, 382, 268
-0.999598, 3, 193, 18, 208
-0.999598, 373, 207, 388, 222
-0.999599, 301, 245, 316, 260
-0.999599, 375, 249, 390, 264
-0.999601, 17, 237, 144, 268
-0.999601, 439, 203, 454, 218
-0.999602, 311, 217, 326, 232
-0.999602, 257, 129, 272, 256
-0.999602, 391, 49, 406, 176
-0.999603, 287, 193, 302, 208
-0.999607, 297, 261, 312, 276
-0.999608, 447, 227, 462, 242
-0.999608, 289, 245, 304, 260
-0.999609, 275, 229, 290, 244
-0.999609, 321, 161, 336, 288
-0.99961, 381, 241, 396, 368
-0.99961, 395, 191, 410, 206
-0.999611, 381, 207, 396, 222
-0.999612, 315, 193, 330, 208
-0.999612, 281, 195, 296, 210
-0.999612, 337, 241, 352, 256
-0.999613, 293, 33, 324, 288
-0.999613, 415, 49, 430, 176
-0.999614, 281, 227, 296, 242
-0.999615, 271, 197, 286, 212
-0.999615, 251, 201, 266, 216
-0.999617, 295, 253, 310, 268
-0.999617, 345, 215, 360, 230
-0.999621, 259, 281, 274, 296
-0.999621, 367, 207, 382, 222
-0.999626, 129, 289, 256, 320
-0.999626, 353, 211, 368, 226
-0.999627, 395, 177, 410, 192
-0.999631, 395, 201, 410, 216
-0.999631, 163, 209, 178, 336
-0.999631, 353, 217, 368, 232
-0.999633, 393, 207, 408, 222
-0.999634, 449, 217, 464, 232
-0.999634, 449, 185, 464, 200
-0.999635, 449, 211, 464, 226
-0.999635, 423, 225, 438, 352
-0.999636, 393, 137, 408, 152
-0.999638, 439, 223, 454, 238
-0.999638, 355, 241, 370, 368
-0.999638, 307, 129, 322, 256
-0.99964, 239, 113, 254, 240
-0.999642, 429, 241, 444, 368
-0.999643, 395, 159, 410, 174
-0.999643, 307, 187, 322, 202
-0.999644, 481, 1, 496, 128
-0.999646, 307, 199, 322, 214
-0.999646, 431, 209, 446, 224
-0.999647, 395, 145, 410, 160
-0.999648, 283, 81, 298, 208
-0.999649, 155, 129, 170, 256
-0.999653, 103, 241, 118, 368
-0.999653, 297, 193, 312, 208
-0.999654, 257, 345, 384, 375
-0.999654, 201, 161, 216, 288
-0.999658, 13, 183, 28, 198
-0.999659, 287, 229, 302, 244
-0.999662, 349, 241, 364, 368
-0.999662, 115, 241, 130, 368
-0.999665, 295, 245, 310, 260
-0.999665, 479, 81, 494, 208
-0.999668, 1, 189, 128, 220
-0.999671, 395, 171, 410, 186
-0.999672, 1, 49, 16, 176
-0.999672, 427, 97, 442, 224
-0.999677, 133, 209, 148, 336
-0.999684, 387, 207, 402, 222
-0.999684, 39, 113, 54, 240
-0.999687, 449, 225, 464, 352
-0.999687, 415, 203, 430, 218
-0.999689, 421, 65, 436, 192
-0.999689, 169, 225, 184, 352
-0.999689, 307, 193, 322, 208
-0.99969, 395, 153, 410, 168
-0.99969, 1, 57, 128, 120
-0.999692, 361, 207, 376, 222
-0.9997, 407, 203, 422, 218
-0.999713, 399, 207, 414, 222
-0.999714, 213, 97, 244, 352
-0.999722, 395, 165, 410, 180
-0.999726, 449, 203, 464, 218
-0.999732, 449, 197, 464, 212
-0.999742, 395, 185, 410, 200
-0.999785, 421, 203, 436, 218
-0.999789, 449, 191, 464, 206
-0.999818, 429, 1, 460, 256
-0.999908, 57, 65, 88, 320
-0.999921, 453, 1, 484, 256
-0.999923, 1, 57, 500, 120
-0.999923, 41, 97, 72, 352
-0.999926, 253, 1, 284, 256
-0.999964, 185, 113, 216, 240
-0.999998, 201, 129, 232, 375
-0.999999, 177, 41, 304, 104
-1.00006, 217, 241, 248, 368
-1.00014, 237, 1, 268, 256
-1.00015, 189, 129, 220, 375
-1.00015, 37, 1, 68, 256
-1.00016, 441, 33, 472, 288
-1.00016, 341, 33, 372, 288
-1.00017, 325, 33, 356, 288
-1.00019, 345, 17, 376, 144
-1.0002, 409, 1, 440, 128
-1.00021, 33, 1, 288, 64
-1.00023, 141, 33, 172, 288
-1.00025, 353, 1, 384, 256
-1.00025, 41, 145, 104, 272
-1.00025, 65, 25, 320, 88
-1.00026, 161, 73, 288, 136
-1.00026, 341, 65, 372, 192
-1.00027, 89, 161, 120, 288
-1.00027, 73, 33, 136, 288
-1.00032, 177, 1, 304, 64
-1.00035, 85, 129, 116, 375
-1.00036, 305, 33, 336, 288
-1.0004, 165, 33, 196, 288
-1.00043, 89, 97, 120, 224
-1.00045, 69, 97, 100, 352
-1.00048, 1, 25, 500, 88
-1.00049, 137, 81, 168, 208
-1.00051, 229, 65, 260, 192
-1.00052, 77, 1, 108, 256
-1.00057, 101, 33, 132, 288
-1.00061, 1, 217, 128, 280
-1.00062, 153, 33, 184, 288
-1.00062, 1, 73, 256, 136
-1.00065, 177, 33, 208, 288
-1.00065, 65, 49, 320, 112
-1.00068, 201, 33, 232, 288
-1.00069, 217, 1, 248, 256
-1.00072, 297, 65, 360, 192
-1.00074, 105, 65, 168, 192
-1.00076, 49, 33, 176, 160
-1.00081, 49, 241, 112, 368
-1.00083, 113, 33, 144, 288
-1.00085, 205, 97, 236, 224
-1.00087, 461, 241, 492, 368
-1.00088, 445, 81, 476, 208
-1.00089, 189, 33, 220, 288
-1.00098, 89, 1, 120, 256
-1.001, 125, 1, 156, 256
-1.00101, 245, 49, 276, 176
-1.00106, 157, 81, 188, 208
-1.0011, 201, 49, 264, 176
-1.0011, 81, 33, 208, 96
-1.00128, 129, 1, 256, 64
-1.00129, 177, 1, 304, 128
-1.00138, 137, 33, 200, 288
-1.0014, 1, 33, 128, 96
-1.00143, 129, 25, 256, 88
-1.00154, 365, 1, 396, 128
-1.0017, 397, 1, 428, 128
-1.00177, 57, 1, 88, 128
-1.0018, 321, 113, 352, 240
-1.00188, 109, 81, 140, 208
-1.00189, 113, 57, 240, 120
-1.00192, 33, 1, 64, 128
-1.00208, 49, 65, 176, 128
-1.00214, 89, 241, 120, 368
-1.00216, 257, 49, 288, 176
-1.00219, 121, 81, 152, 208
-1.00223, 209, 1, 272, 256
-1.00224, 1, 1, 32, 128
-1.00227, 385, 1, 416, 128
-1.00234, 41, 49, 72, 176
-1.00235, 61, 81, 92, 208
-1.00241, 257, 17, 320, 144
-1.00253, 113, 177, 144, 304
-1.00272, 297, 81, 328, 208
-1.00301, 173, 81, 204, 208
-1.00306, 73, 161, 104, 288
-1.00308, 233, 33, 296, 160
-1.00321, 97, 1, 160, 256
-1.0033, 309, 97, 340, 224
-1.00346, 453, 1, 484, 128
-1.00376, 77, 241, 108, 368
-1.00387, 49, 161, 80, 288
-1.00421, 49, 1, 112, 128
-1.00541, 49, 49, 112, 176
-1.00598, 177, 49, 240, 176
-1.0077, 97, 1, 224, 128
-1.00785, 289, 17, 352, 144
-1.00896, 1, 225, 64, 352
-1.00973, 73, 33, 136, 160
-1.01031, 49, 193, 112, 320
-1.01037, 137, 33, 200, 160
-1.01059, 25, 225, 88, 352
-1.01082, 161, 1, 224, 128
-1.011, 201, 1, 264, 128
-1.01175, 105, 1, 168, 128
