1985
-0.395667, 1, 161, 375, 416
-0.488184, 1, 257, 375, 500
-0.505154, 1, 1, 375, 500
-0.545829, 97, 1, 352, 500
-0.547395, 1, 1, 375, 256
-0.561753, 1, 1, 256, 500
-0.573333, 129, 129, 375, 384
-0.622333, 1, 193, 256, 448
-0.688868, 129, 257, 375, 500
-0.726723, 1, 97, 256, 352
-0.800767, 129, 33, 375, 288
-0.853693, 145, 129, 272, 384
-0.861223, 241, 129, 368, 384
-0.863803, 65, 193, 192, 448
-0.869639, 129, 1, 256, 500
-0.876365, 33, 1, 288, 256
-0.87681, 241, 1, 368, 500
-0.881907, 97, 97, 224, 352
-0.882203, 1, 1, 128, 500
-0.884897, 177, 1, 304, 500
-0.886644, 193, 225, 320, 480
-0.88709, 65, 1, 192, 500
-0.887597, 1, 225, 128, 480
-0.89638, 113, 225, 240, 480
-0.897416, 1, 97, 128, 352
-0.89862, 1, 209, 375, 336
-0.899588, 1, 305, 375, 432
-0.903433, 145, 33, 272, 288
-0.909679, 241, 33, 368, 288
-0.912255, 49, 97, 176, 352
-0.912278, 1, 353, 375, 480
-0.912692, 1, 129, 375, 256
-0.914231, 97, 1, 224, 256
-0.91731, 193, 65, 320, 320
-0.921506, 241, 225, 368, 480
-0.923169, 1, 257, 375, 384
-0.923924, 129, 177, 375, 304
-0.924123, 129, 321, 375, 448
-0.925907, 1, 177, 256, 304
-0.930087, 129, 257, 375, 384
-0.930265, 1, 321, 256, 448
-0.931055, 129, 369, 375, 496
-0.932882, 129, 113, 375, 240
-0.933914, 1, 113, 256, 240
-0.937638, 129, 257, 192, 384
-0.938471, 1, 81, 375, 208
-0.939226, 33, 225, 288, 352
-0.94065, 145, 209, 272, 336
-0.940976, 1, 273, 256, 400
-0.941262, 145, 161, 272, 288
-0.942564, 113, 289, 240, 416
-0.942712, 177, 289, 240, 416
-0.942926, 169, 297, 232, 360
-0.943723, 65, 209, 192, 336
-0.945302, 113, 113, 240, 240
-0.94537, 49, 1, 176, 256
-0.945836, 177, 289, 304, 416
-0.94598, 241, 129, 368, 256
-0.94616, 97, 161, 224, 288
-0.946306, 305, 321, 368, 448
-0.946467, 1, 257, 128, 384
-0.946488, 145, 97, 208, 224
-0.947603, 177, 113, 240, 240
-0.947895, 217, 161, 280, 288
-0.948344, 177, 97, 304, 224
-0.948743, 241, 321, 368, 448
-0.950383, 241, 193, 368, 320
-0.950599, 169, 161, 232, 288
-0.951437, 177, 321, 240, 384
-0.952322, 81, 225, 144, 352
-0.953685, 145, 305, 208, 432
-0.953979, 65, 257, 192, 384
-0.955454, 313, 361, 375, 424
-0.955964, 217, 185, 280, 248
-0.956779, 177, 353, 304, 480
-0.957263, 225, 209, 288, 336
-0.958252, 1, 33, 375, 160
-0.958787, 129, 65, 375, 192
-0.95902, 1, 257, 64, 384
-0.959308, 241, 369, 368, 496
-0.959584, 1, 369, 256, 496
-0.959617, 273, 353, 336, 480
-0.959699, 313, 369, 375, 496
-0.959778, 9, 369, 72, 496
-0.960044, 233, 289, 296, 416
-0.960202, 129, 313, 192, 376
-0.961367, 121, 161, 184, 288
-0.961537, 145, 145, 208, 272
-0.961959, 193, 161, 256, 288
-0.961989, 233, 113, 296, 240
-0.962023, 129, 273, 192, 336
-0.962029, 265, 289, 328, 416
-0.96286, 1, 1, 128, 256
-0.963092, 289, 337, 352, 400
-0.963744, 153, 241, 216, 368
-0.963811, 313, 273, 375, 400
-0.964005, 313, 129, 375, 256
-0.964069, 121, 233, 184, 296
-0.964255, 209, 321, 272, 384
-0.964666, 145, 145, 208, 208
-0.964728, 257, 145, 320, 272
-0.964919, 241, 241, 368, 368
-0.965019, 153, 321, 216, 384
-0.965057, 169, 153, 232, 216
-0.965384, 1, 369, 128, 496
-0.965454, 193, 241, 320, 368
-0.965483, 217, 209, 280, 272
-0.965754, 193, 161, 256, 224
-0.966256, 105, 257, 168, 384
-0.966286, 121, 409, 184, 472
-0.966413, 129, 353, 256, 480
-0.966598, 1, 361, 64, 424
-0.966632, 225, 81, 352, 208
-0.966644, 81, 225, 144, 288
-0.966812, 193, 177, 320, 304
-0.966936, 297, 385, 360, 448
-0.967012, 1, 305, 64, 432
-0.967092, 313, 337, 375, 400
-0.967268, 121, 209, 184, 336
-0.967336, 169, 1, 232, 128
-0.967448, 169, 113, 232, 176
-0.967564, 197, 297, 228, 360
-0.967665, 129, 121, 192, 184
-0.967684, 169, 337, 232, 464
-0.967699, 17, 209, 144, 336
-0.968125, 1, 385, 64, 448
-0.968153, 113, 297, 240, 360
-0.96825, 249, 321, 312, 384
-0.96845, 193, 297, 256, 360
-0.968649, 81, 425, 144, 488
-0.968743, 1, 337, 32, 464
-0.968764, 209, 321, 272, 448
-0.968831, 209, 345, 272, 408
-0.969069, 97, 65, 224, 192
-0.969085, 185, 305, 216, 368
-0.969142, 289, 129, 352, 256
-0.969156, 105, 305, 168, 368
-0.969664, 289, 81, 352, 208
-0.969993, 121, 113, 184, 240
-0.970138, 249, 353, 312, 480
-0.970138, 313, 129, 375, 192
-0.970518, 241, 297, 304, 360
-0.970639, 57, 241, 120, 368
-0.97067, 113, 305, 176, 432
-0.970699, 33, 305, 160, 432
-0.970742, 177, 49, 304, 176
-0.970874, 169, 177, 232, 240
-0.971218, 173, 297, 204, 360
-0.971298, 265, 345, 328, 408
-0.97132, 5, 401, 36, 464
-0.971321, 157, 241, 188, 368
-0.971372, 81, 337, 208, 464
-0.971591, 289, 257, 352, 384
-0.971769, 177, 97, 208, 224
-0.971835, 193, 129, 256, 192
-0.971918, 185, 241, 248, 368
-0.971927, 313, 81, 375, 208
-0.972053, 217, 161, 280, 416
-0.972168, 1, 161, 128, 288
-0.972284, 201, 113, 264, 240
-0.972287, 89, 257, 152, 320
-0.972394, 145, 177, 272, 240
-0.972402, 177, 289, 208, 416
-0.972421, 225, 337, 352, 400
-0.972708, 145, 409, 208, 472
-0.972945, 1, 321, 64, 384
-0.973161, 65, 225, 192, 288
-0.973207, 33, 257, 96, 384
-0.973253, 145, 321, 272, 384
-0.973295, 5, 361, 36, 424
-0.973315, 209, 273, 272, 400
-0.973379, 169, 129, 232, 384
-0.973684, 145, 209, 272, 272
-0.973769, 265, 433, 328, 496
-0.974148, 121, 201, 184, 264
-0.974325, 241, 345, 304, 408
-0.974335, 169, 321, 200, 384
-0.974355, 257, 193, 320, 320
-0.974447, 9, 257, 72, 500
-0.974822, 177, 345, 240, 408
-0.974857, 177, 425, 240, 488
-0.974883, 177, 145, 208, 208
-0.975099, 9, 177, 72, 304
-0.975258, 289, 361, 352, 424
-0.97537, 313, 209, 375, 336
-0.975382, 1, 409, 64, 472
-0.975394, 97, 145, 224, 208
-0.975604, 113, 433, 176, 496
-0.975611, 25, 361, 56, 424
-0.97563, 189, 113, 220, 240
-0.975669, 25, 369, 88, 432
-0.975739, 249, 185, 280, 248
-0.975772, 145, 169, 208, 232
-0.975847, 161, 297, 288, 360
-0.975848, 1, 321, 32, 384
-0.976069, 65, 113, 192, 240
-0.976128, 145, 1, 208, 128
-0.976138, 117, 257, 148, 384
-0.976281, 337, 345, 368, 408
-0.976297, 145, 129, 208, 384
-0.976367, 129, 121, 256, 184
-0.976411, 105, 281, 168, 344
-0.976419, 197, 321, 228, 384
-0.976421, 233, 129, 296, 192
-0.976465, 213, 153, 244, 216
-0.976586, 173, 145, 204, 272
-0.976594, 97, 17, 224, 144
-0.97668, 97, 409, 224, 472
-0.976749, 185, 65, 248, 192
-0.976765, 13, 353, 44, 480
-0.976797, 209, 129, 240, 256
-0.977103, 145, 1, 272, 128
-0.97711, 145, 9, 208, 72
-0.977246, 1, 97, 128, 224
-0.977248, 153, 257, 216, 320
-0.977318, 241, 193, 304, 256
-0.977342, 225, 233, 288, 296
-0.97739, 145, 353, 208, 480
-0.977398, 157, 129, 188, 256
-0.977422, 233, 185, 264, 248
-0.977478, 193, 185, 256, 248
-0.97749, 145, 193, 208, 320
-0.977506, 345, 289, 375, 416
-0.977538, 153, 321, 184, 384
-0.977704, 217, 161, 280, 224
-0.977714, 185, 1, 248, 64
-0.978069, 89, 305, 152, 432
-0.978225, 145, 49, 208, 176
-0.9783, 297, 425, 360, 488
-0.978357, 345, 369, 375, 496
-0.978391, 97, 145, 160, 272
-0.978468, 337, 369, 368, 432
-0.978505, 209, 145, 336, 208
-0.978559, 213, 313, 244, 376
-0.978584, 225, 161, 256, 288
-0.978597, 1, 65, 256, 192
-0.978672, 145, 153, 272, 216
-0.978693, 121, 145, 184, 208
-0.978696, 9, 265, 72, 328
-0.97871, 197, 273, 228, 400
-0.978711, 289, 313, 352, 376
-0.978724, 49, 161, 176, 288
-0.978768, 97, 321, 224, 384
-0.978822, 265, 409, 328, 472
-0.978974, 225, 337, 256, 400
-0.979095, 81, 313, 144, 376
-0.979175, 225, 369, 288, 496
-0.979284, 225, 145, 256, 208
-0.979314, 233, 105, 296, 168
-0.979326, 101, 225, 132, 288
-0.97942, 121, 161, 184, 416
-0.979444, 313, 257, 375, 500
-0.979466, 113, 353, 176, 480
-0.979527, 189, 153, 220, 216
-0.979528, 153, 433, 216, 496
-0.979588, 265, 97, 328, 224
-0.97967, 249, 177, 280, 304
-0.979695, 33, 249, 160, 312
-0.979859, 241, 425, 368, 488
-0.9799, 329, 321, 360, 448
-0.979942, 97, 401, 160, 464
-0.97997, 41, 241, 104, 304
-0.980046, 145, 225, 208, 480
-0.980146, 225, 193, 352, 256
-0.980245, 241, 225, 304, 480
-0.980353, 289, 281, 352, 344
-0.980356, 133, 153, 164, 216
-0.980413, 65, 281, 192, 344
-0.980426, 325, 337, 356, 400
-0.980448, 233, 65, 296, 192
-0.980507, 265, 297, 328, 360
-0.980515, 325, 369, 356, 432
-0.980573, 145, 201, 208, 264
-0.980598, 265, 241, 328, 368
-0.98061, 177, 273, 304, 336
-0.980623, 209, 177, 240, 240
-0.980838, 297, 97, 360, 160
-0.980843, 201, 153, 232, 216
-0.980867, 177, 345, 304, 408
-0.980877, 241, 377, 368, 440
-0.980956, 209, 313, 336, 376
-0.981064, 225, 273, 288, 336
-0.981077, 193, 161, 256, 416
-0.98116, 281, 121, 344, 184
-0.98127, 105, 417, 136, 480
-0.981306, 313, 185, 375, 248
-0.981442, 17, 273, 48, 400
-0.981477, 25, 353, 56, 480
-0.98149, 217, 321, 248, 448
-0.981528, 241, 169, 368, 232
-0.981662, 273, 305, 304, 368
-0.98172, 129, 337, 192, 400
-0.981782, 1, 385, 128, 448
-0.981791, 1, 241, 64, 304
-0.981803, 313, 313, 375, 376
-0.981844, 165, 305, 196, 432
-0.981949, 145, 233, 272, 296
-0.981992, 241, 265, 368, 328
-0.982038, 257, 129, 320, 384
-0.982056, 97, 209, 128, 336
-0.982139, 89, 193, 152, 448
-0.982163, 153, 265, 184, 328
-0.98217, 313, 337, 344, 400
-0.982175, 9, 97, 72, 224
-0.98218, 265, 377, 328, 440
-0.982198, 65, 201, 192, 264
-0.9822, 117, 233, 148, 296
-0.982202, 137, 145, 168, 272
-0.982229, 161, 121, 192, 184
-0.982291, 181, 329, 212, 392
-0.982323, 25, 401, 88, 464
-0.982391, 313, 217, 375, 280
-0.982417, 113, 433, 240, 496
-0.982484, 289, 145, 352, 208
-0.982492, 117, 425, 148, 488
-0.982532, 241, 345, 272, 408
-0.98255, 269, 289, 300, 416
-0.982638, 257, 241, 320, 304
-0.982759, 113, 265, 240, 328
-0.982782, 273, 353, 304, 480
-0.98282, 157, 209, 188, 272
-0.98283, 313, 273, 375, 336
-0.982836, 145, 1, 208, 256
-0.982855, 225, 65, 288, 320
-0.98293, 341, 241, 372, 368
-0.982931, 169, 89, 232, 152
-0.982947, 161, 417, 288, 480
-0.983036, 1, 225, 128, 288
-0.983112, 153, 345, 216, 408
-0.983141, 1, 257, 32, 384
-0.983143, 169, 25, 232, 88
-0.98315, 333, 369, 364, 496
-0.983186, 221, 121, 252, 184
-0.983246, 137, 273, 168, 336
-0.983275, 209, 121, 336, 184
-0.983322, 137, 273, 168, 400
-0.983385, 17, 385, 48, 448
-0.983408, 145, 233, 208, 296
-0.983436, 173, 1, 204, 128
-0.983559, 257, 217, 320, 280
-0.983652, 13, 337, 44, 400
-0.983654, 1, 409, 128, 472
-0.983664, 229, 209, 260, 272
-0.983789, 329, 129, 360, 192
-0.983874, 169, 33, 232, 288
-0.983885, 5, 425, 36, 488
-0.983935, 341, 401, 372, 464
-0.983945, 345, 113, 375, 176
-0.984009, 241, 233, 368, 296
-0.984033, 209, 337, 240, 400
-0.984055, 169, 1, 232, 500
-0.984056, 81, 281, 144, 344
-0.984084, 205, 129, 236, 192
-0.984146, 145, 97, 208, 160
-0.984299, 141, 129, 172, 192
-0.984305, 233, 433, 296, 496
-0.984353, 117, 313, 148, 376
-0.984397, 145, 97, 272, 160
-0.984415, 189, 161, 220, 288
-0.984468, 193, 369, 256, 496
-0.984525, 177, 169, 208, 232
-0.984577, 133, 425, 164, 488
-0.984692, 1, 321, 128, 384
-0.984718, 297, 129, 360, 384
-0.984771, 269, 329, 300, 392
-0.984825, 173, 113, 204, 176
-0.98483, 213, 177, 244, 304
-0.984832, 285, 369, 316, 496
-0.984857, 165, 177, 196, 240
-0.984903, 161, 297, 192, 360
-0.984922, 25, 337, 56, 400
-0.984929, 193, 129, 224, 192
-0.984965, 1, 145, 32, 272
-0.985043, 49, 425, 176, 488
-0.985047, 241, 369, 304, 432
-0.985105, 137, 193, 168, 256
-0.985115, 65, 225, 128, 480
-0.985174, 161, 177, 192, 304
-0.985176, 129, 345, 256, 408
-0.985215, 285, 305, 316, 432
-0.985261, 313, 385, 344, 448
-0.985263, 173, 9, 204, 72
-0.985389, 241, 89, 368, 152
-0.98544, 185, 281, 216, 344
-0.985495, 121, 153, 152, 216
-0.985518, 253, 345, 284, 408
-0.985524, 77, 233, 108, 296
-0.98553, 133, 297, 164, 360
-0.985569, 313, 153, 375, 216
-0.985575, 161, 145, 192, 208
-0.985594, 289, 337, 320, 400
-0.985684, 173, 241, 204, 368
-0.985699, 333, 297, 364, 360
-0.985729, 165, 81, 196, 208
-0.985744, 189, 425, 220, 488
-0.985752, 1, 153, 32, 216
-0.985849, 277, 425, 308, 488
-0.985853, 65, 177, 192, 240
-0.985883, 305, 433, 336, 496
-0.985939, 225, 113, 256, 240
-0.985968, 185, 209, 248, 272
-0.986019, 129, 1, 192, 500
-0.986036, 157, 233, 188, 296
-0.986053, 193, 105, 256, 168
-0.986054, 265, 153, 328, 216
-0.986068, 33, 369, 96, 496
-0.986093, 73, 241, 104, 368
-0.986106, 329, 97, 360, 224
-0.986183, 121, 129, 152, 192
-0.98619, 121, 169, 184, 232
-0.98624, 221, 177, 252, 240
-0.986249, 345, 97, 375, 224
-0.986324, 97, 153, 160, 216
-0.986334, 245, 321, 276, 384
-0.986413, 81, 113, 208, 176
-0.986432, 105, 329, 168, 392
-0.986452, 161, 409, 192, 472
-0.98651, 89, 225, 120, 288
-0.986541, 145, 153, 176, 216
-0.986566, 1, 161, 64, 416
-0.986586, 41, 265, 104, 328
-0.9866, 1, 297, 128, 360
-0.986618, 81, 97, 144, 224
-0.986641, 217, 209, 248, 272
-0.986698, 261, 369, 292, 496
-0.986724, 193, 1, 256, 256
-0.986757, 205, 321, 236, 448
-0.986807, 313, 337, 344, 464
-0.986861, 193, 401, 256, 464
-0.986863, 33, 257, 96, 500
-0.986972, 217, 257, 280, 500
-0.987001, 117, 257, 148, 320
-0.987063, 113, 257, 176, 500
-0.987186, 65, 249, 128, 312
-0.987231, 113, 209, 144, 336
-0.987243, 201, 1, 264, 500
-0.987247, 313, 241, 375, 304
-0.987326, 37, 369, 68, 432
-0.987401, 237, 177, 268, 304
-0.987417, 121, 65, 184, 320
-0.987428, 301, 321, 332, 448
-0.987441, 17, 409, 48, 472
-0.987526, 65, 393, 128, 456
-0.987545, 17, 273, 144, 336
-0.987547, 273, 97, 336, 160
-0.987606, 325, 393, 356, 456
-0.987671, 265, 265, 328, 328
-0.987698, 9, 217, 72, 280
-0.987699, 49, 65, 176, 192
-0.987706, 49, 305, 176, 368
-0.987716, 169, 305, 232, 336
-0.987739, 105, 121, 168, 184
-0.987751, 193, 273, 256, 336
-0.987884, 193, 217, 320, 280
-0.987885, 189, 321, 220, 448
-0.987905, 137, 193, 168, 320
-0.987933, 25, 345, 88, 408
-0.987946, 41, 305, 104, 432
-0.987953, 105, 249, 136, 312
-0.987978, 345, 145, 375, 272
-0.987996, 257, 121, 320, 184
-0.988015, 289, 257, 352, 500
-0.988048, 81, 89, 208, 152
-0.988064, 345, 297, 375, 360
-0.988086, 9, 169, 72, 232
-0.988129, 185, 241, 216, 368
-0.988215, 269, 145, 300, 272
-0.988228, 85, 209, 116, 336
-0.988302, 133, 97, 164, 224
-0.988324, 125, 145, 156, 272
-0.988356, 145, 297, 176, 360
-0.988396, 333, 145, 364, 272
-0.988398, 165, 433, 196, 496
-0.988398, 1, 201, 128, 264
-0.988405, 309, 81, 340, 208
-0.988498, 217, 297, 280, 360
-0.988574, 177, 393, 304, 456
-0.9886, 225, 313, 256, 376
-0.988613, 313, 361, 344, 424
-0.988628, 301, 377, 332, 440
-0.988638, 29, 257, 60, 384
-0.988638, 257, 289, 288, 416
-0.988649, 257, 433, 288, 496
-0.988666, 129, 321, 160, 384
-0.988747, 265, 177, 328, 240
-0.98876, 33, 297, 96, 360
-0.988778, 65, 1, 320, 128
-0.988786, 225, 273, 256, 400
-0.988793, 313, 73, 375, 136
-0.988807, 45, 257, 76, 384
-0.988816, 265, 1, 328, 500
-0.988865, 301, 369, 332, 496
-0.988879, 237, 129, 268, 256
-0.988883, 333, 193, 364, 320
-0.988892, 177, 337, 208, 464
-0.988968, 101, 257, 132, 384
-0.988968, 1, 365, 64, 396
-0.989001, 177, 417, 208, 480
-0.989023, 137, 249, 168, 312
-0.989027, 169, 321, 232, 352
-0.989078, 1, 241, 32, 304
-0.989091, 225, 1, 288, 500
-0.989138, 345, 321, 375, 384
-0.989138, 313, 129, 344, 256
-0.989145, 61, 257, 92, 384
-0.989202, 89, 1, 152, 500
-0.98921, 145, 309, 208, 340
-0.98922, 169, 233, 232, 296
-0.989233, 289, 1, 352, 500
-0.989244, 209, 289, 240, 352
-0.989312, 185, 9, 216, 72
-0.989339, 249, 209, 280, 272
-0.989354, 317, 289, 348, 416
-0.989359, 133, 401, 164, 464
-0.989366, 185, 257, 248, 500
-0.989372, 197, 345, 228, 408
-0.98938, 301, 345, 332, 408
-0.989385, 185, 105, 216, 168
-0.989394, 113, 49, 176, 176
-0.989397, 229, 321, 260, 448
-0.989403, 189, 177, 220, 240
-0.989418, 241, 169, 304, 232
-0.989426, 313, 385, 375, 416
-0.989434, 341, 273, 372, 336
-0.98949, 209, 81, 240, 208
-0.989492, 149, 409, 180, 472
-0.989523, 193, 97, 320, 160
-0.989534, 289, 33, 352, 288
-0.98954, 281, 97, 312, 224
-0.989548, 81, 345, 208, 408
-0.989573, 1, 1, 64, 500
-0.989623, 201, 417, 232, 480
-0.989628, 81, 113, 144, 176
-0.989662, 333, 233, 364, 296
-0.989732, 161, 1, 288, 64
-0.989756, 265, 209, 296, 336
-0.989759, 177, 49, 208, 176
-0.989768, 145, 329, 208, 360
-0.989772, 289, 209, 352, 336
-0.98978, 97, 97, 160, 352
-0.989801, 241, 401, 368, 464
-0.989817, 217, 193, 280, 224
-0.989822, 153, 385, 216, 448
-0.989853, 105, 313, 136, 376
-0.989877, 117, 289, 148, 352
-0.989885, 233, 401, 296, 464
-0.98989, 265, 225, 328, 480
-0.989939, 313, 1, 375, 500
-0.989983, 313, 373, 375, 404
-0.990023, 141, 321, 172, 384
-0.990034, 209, 345, 272, 376
-0.990039, 121, 317, 184, 348
-0.990086, 213, 273, 244, 400
-0.990105, 73, 97, 136, 352
-0.990168, 149, 177, 180, 304
-0.990232, 33, 113, 160, 176
-0.990236, 289, 313, 320, 376
-0.990237, 25, 381, 88, 412
-0.990275, 5, 289, 36, 352
-0.990283, 73, 369, 136, 496
-0.990292, 229, 361, 260, 424
-0.9903, 329, 273, 360, 400
-0.990303, 37, 353, 68, 480
-0.990308, 289, 417, 320, 480
-0.990314, 9, 297, 72, 360
-0.990314, 241, 289, 368, 352
-0.990334, 129, 297, 192, 328
-0.990337, 313, 33, 375, 288
-0.990358, 113, 145, 144, 272
-0.990369, 145, 149, 208, 180
-0.990375, 93, 417, 124, 480
-0.990401, 1, 377, 64, 408
-0.990439, 185, 345, 248, 376
-0.990501, 57, 241, 88, 304
-0.990506, 193, 313, 256, 344
-0.990509, 153, 81, 184, 208
-0.990518, 29, 401, 60, 464
-0.990561, 29, 265, 60, 328
-0.990566, 81, 229, 144, 260
-0.990571, 89, 429, 152, 460
-0.990576, 169, 437, 232, 468
-0.990583, 169, 117, 232, 148
-0.990593, 217, 213, 280, 244
-0.99063, 241, 353, 304, 384
-0.990631, 321, 297, 352, 360
-0.990635, 113, 261, 176, 292
-0.990654, 269, 273, 300, 336
-0.990655, 145, 33, 208, 96
-0.99066, 333, 209, 364, 272
-0.990671, 149, 305, 180, 432
-0.990681, 145, 225, 176, 288
-0.990683, 129, 429, 192, 460
-0.990698, 249, 241, 280, 368
-0.990704, 1, 353, 64, 384
-0.99071, 329, 97, 360, 160
-0.990738, 169, 345, 200, 408
-0.990787, 145, 181, 208, 212
-0.990798, 269, 353, 300, 416
-0.990815, 145, 117, 208, 148
-0.99082, 153, 177, 184, 240
-0.990871, 161, 17, 192, 144
-0.990876, 1, 345, 128, 408
-0.990884, 193, 153, 256, 184
-0.990944, 169, 333, 232, 364
-0.990959, 201, 177, 232, 304
-0.991005, 217, 225, 280, 256
-0.99101, 273, 457, 336, 488
-0.991046, 169, 149, 232, 180
-0.99105, 137, 137, 200, 168
-0.99106, 129, 237, 192, 268
-0.991065, 81, 269, 144, 300
-0.991069, 317, 417, 348, 480
-0.991091, 193, 325, 256, 356
-0.991095, 209, 365, 272, 396
-0.991096, 169, 17, 232, 48
-0.991096, 289, 385, 352, 416
-0.991127, 1, 393, 64, 424
-0.991135, 265, 445, 328, 476
-0.991137, 217, 369, 280, 432
-0.991153, 17, 405, 80, 436
-0.991163, 113, 249, 176, 280
-0.991164, 169, 161, 232, 192
-0.99117, 257, 321, 288, 384
-0.991174, 73, 257, 136, 288
-0.991182, 289, 361, 352, 392
-0.991202, 177, 133, 240, 164
-0.991204, 289, 345, 352, 376
-0.99121, 1, 269, 64, 300
-0.991241, 161, 353, 192, 480
-0.991243, 97, 17, 224, 80
-0.991244, 129, 313, 375, 376
-0.991248, 113, 277, 176, 308
-0.991253, 161, 345, 224, 376
-0.991257, 1, 161, 128, 224
-0.991258, 97, 317, 160, 348
-0.991282, 313, 349, 375, 380
-0.991296, 121, 329, 184, 360
-0.991304, 33, 1, 96, 500
-0.991305, 265, 341, 328, 372
-0.991335, 261, 97, 292, 224
-0.991347, 1, 421, 64, 452
-0.99135, 209, 425, 272, 488
-0.991353, 313, 397, 375, 428
-0.991353, 273, 421, 336, 452
-0.991376, 1, 325, 64, 356
-0.991376, 9, 65, 72, 320
-0.991378, 265, 381, 328, 412
-0.991379, 185, 1, 216, 128
-0.991384, 121, 305, 152, 432
-0.991389, 169, 357, 232, 388
-0.991398, 193, 169, 320, 232
-0.991459, 297, 465, 360, 496
-0.991489, 201, 81, 264, 144
-0.991491, 265, 357, 328, 388
-0.991506, 57, 193, 120, 320
-0.991506, 145, 17, 208, 48
-0.991518, 41, 261, 104, 292
-0.991531, 97, 385, 224, 448
-0.991534, 185, 5, 248, 36
-0.991534, 97, 441, 160, 472
-0.991608, 149, 353, 180, 480
-0.991609, 113, 153, 176, 184
-0.991623, 233, 333, 296, 364
-0.991634, 49, 153, 176, 216
-0.991636, 105, 417, 168, 448
-0.991638, 225, 33, 352, 160
-0.991638, 65, 425, 128, 456
-0.991654, 169, 181, 232, 212
-0.991658, 33, 337, 288, 400
-0.99166, 241, 305, 304, 336
-0.991666, 73, 245, 136, 276
-0.9917, 313, 209, 375, 240
-0.991709, 233, 145, 296, 176
-0.991717, 145, 417, 208, 448
-0.991718, 313, 129, 375, 160
-0.991731, 217, 237, 280, 268
-0.99174, 145, 265, 208, 296
-0.991744, 233, 457, 296, 488
-0.991749, 57, 417, 120, 480
-0.991755, 113, 141, 176, 172
-0.991768, 161, 193, 224, 224
-0.991768, 129, 225, 192, 256
-0.991779, 121, 97, 184, 160
-0.991782, 129, 349, 192, 380
-0.991789, 173, 193, 204, 320
-0.991797, 129, 209, 192, 240
-0.991809, 233, 133, 296, 164
-0.99182, 121, 441, 184, 472
-0.991828, 145, 445, 208, 476
-0.991866, 9, 137, 72, 200
-0.991881, 313, 409, 375, 440
-0.99189, 233, 445, 296, 476
-0.991894, 1, 249, 64, 280
-0.991912, 25, 369, 88, 400
-0.991918, 289, 125, 352, 156
-0.991929, 185, 425, 248, 456
-0.991947, 113, 129, 176, 160
-0.991954, 201, 181, 264, 212
-0.991962, 129, 197, 192, 228
-0.991964, 65, 1, 128, 500
-0.991992, 73, 325, 136, 356
-0.991999, 313, 141, 375, 172
-0.992003, 169, 105, 232, 136
-0.992008, 241, 373, 304, 404
-0.992019, 217, 1, 280, 64
-0.992021, 9, 361, 40, 392
-0.992036, 241, 193, 304, 224
-0.992041, 313, 197, 375, 228
-0.992044, 249, 321, 312, 352
-0.992053, 173, 309, 204, 340
-0.992056, 217, 317, 280, 348
-0.992061, 257, 205, 320, 236
-0.992063, 257, 33, 320, 288
-0.992068, 193, 369, 320, 432
-0.99207, 313, 229, 375, 260
-0.992107, 1, 341, 64, 372
-0.992125, 217, 225, 248, 352
-0.992126, 289, 373, 352, 404
-0.992147, 129, 165, 192, 196
-0.992148, 193, 113, 256, 144
-0.992157, 257, 433, 320, 464
-0.992158, 145, 73, 272, 136
-0.992164, 313, 177, 375, 208
-0.992188, 193, 165, 256, 196
-0.992203, 193, 301, 256, 332
-0.992203, 153, 293, 216, 324
-0.992207, 289, 137, 352, 168
-0.992213, 313, 361, 375, 392
-0.992216, 105, 293, 168, 324
-0.992223, 297, 437, 360, 468
-0.992225, 289, 301, 352, 332
-0.992231, 249, 217, 312, 248
-0.992237, 345, 373, 375, 404
-0.992242, 185, 305, 216, 336
-0.992263, 225, 261, 288, 292
-0.992275, 217, 249, 280, 280
-0.992276, 153, 213, 216, 244
-0.992289, 9, 409, 40, 440
-0.99229, 137, 353, 168, 480
-0.992299, 9, 193, 72, 256
-0.992299, 313, 293, 375, 324
-0.992305, 217, 157, 280, 188
-0.992309, 57, 289, 120, 352
-0.992347, 9, 373, 40, 404
-0.992353, 129, 337, 375, 400
-0.992358, 13, 385, 44, 416
-0.992359, 193, 241, 320, 304
-0.992385, 265, 193, 328, 224
-0.992395, 185, 321, 216, 352
-0.992406, 1, 349, 32, 380
-0.99241, 25, 369, 56, 400
-0.992419, 313, 241, 375, 272
-0.99243, 173, 329, 204, 360
-0.992435, 197, 305, 228, 336
-0.992481, 173, 13, 204, 44
-0.992483, 1, 421, 32, 452
-0.992487, 297, 81, 328, 208
-0.992497, 325, 385, 356, 416
-0.992499, 145, 25, 272, 88
-0.992524, 145, 73, 208, 136
-0.992528, 249, 193, 280, 224
-0.992566, 121, 97, 152, 224
-0.992612, 29, 381, 60, 412
-0.992621, 105, 425, 136, 456
-0.992623, 197, 317, 228, 348
-0.992625, 5, 329, 36, 360
-0.992628, 177, 149, 208, 180
-0.992654, 65, 257, 320, 320
-0.992663, 185, 333, 216, 364
-0.992667, 345, 389, 375, 420
-0.992686, 121, 433, 152, 464
-0.992694, 333, 369, 364, 400
-0.992696, 157, 333, 188, 364
-0.992718, 9, 397, 40, 428
-0.992721, 1, 233, 256, 296
-0.992732, 153, 317, 184, 348
-0.992732, 185, 345, 216, 376
-0.992739, 189, 165, 220, 196
-0.992748, 229, 209, 260, 240
-0.992756, 29, 305, 60, 432
-0.992763, 13, 425, 44, 456
-0.992773, 157, 213, 188, 244
-0.99278, 213, 153, 244, 184
-0.992808, 1, 337, 375, 400
-0.992819, 269, 305, 300, 336
-0.992821, 229, 345, 260, 376
-0.992821, 17, 349, 48, 380
-0.992828, 1, 209, 32, 336
-0.992833, 249, 353, 280, 384
-0.992836, 117, 265, 148, 296
-0.992859, 245, 321, 276, 448
-0.992875, 157, 265, 188, 296
-0.992875, 129, 177, 375, 240
-0.992876, 133, 157, 164, 188
-0.992883, 137, 189, 168, 220
-0.992884, 177, 181, 208, 212
-0.992884, 105, 229, 136, 260
-0.992893, 281, 145, 312, 272
-0.992894, 329, 129, 360, 160
-0.992899, 233, 193, 264, 224
-0.992903, 173, 341, 204, 372
-0.992908, 97, 425, 352, 488
-0.992917, 197, 341, 228, 372
-0.992921, 217, 345, 248, 376
-0.992921, 133, 269, 164, 300
-0.992926, 225, 153, 256, 184
-0.992929, 345, 353, 375, 384
-0.992929, 189, 425, 220, 456
-0.992933, 157, 229, 188, 260
-0.992948, 145, 201, 176, 232
-0.992954, 317, 373, 348, 404
-0.992958, 5, 269, 36, 300
-0.992959, 265, 49, 328, 176
-0.992966, 93, 229, 124, 260
-0.992969, 261, 353, 292, 384
-0.992972, 133, 437, 164, 468
-0.992974, 157, 253, 188, 284
-0.992975, 161, 149, 192, 180
-0.992981, 1, 385, 32, 416
-0.992983, 177, 113, 208, 144
-0.993001, 101, 257, 132, 288
-0.993001, 189, 181, 220, 212
-0.993004, 25, 393, 56, 424
-0.993006, 229, 225, 260, 352
-0.993007, 329, 349, 360, 380
-0.993015, 157, 181, 188, 212
-0.993016, 309, 465, 340, 496
-0.993025, 293, 453, 324, 484
-0.993029, 1, 317, 32, 348
-0.993033, 189, 149, 220, 180
-0.993037, 121, 157, 152, 188
-0.993043, 117, 321, 148, 352
-0.993044, 117, 249, 148, 280
-0.993065, 185, 437, 216, 468
-0.993067, 21, 409, 52, 440
-0.993068, 175, 305, 190, 368
-0.99307, 157, 241, 188, 272
-0.993076, 329, 141, 360, 172
-0.993077, 177, 169, 208, 200
-0.993078, 201, 153, 232, 184
-0.99308, 257, 441, 288, 472
-0.993085, 65, 289, 320, 352
-0.993089, 153, 297, 184, 328
-0.99309, 297, 381, 328, 412
-0.993091, 133, 281, 164, 312
-0.993095, 221, 125, 252, 156
-0.993096, 145, 329, 176, 360
-0.993099, 341, 405, 372, 436
-0.993106, 183, 297, 198, 360
-0.993108, 137, 313, 168, 344
-0.993109, 201, 429, 232, 460
-0.99311, 197, 353, 228, 384
-0.993111, 217, 213, 248, 244
-0.993112, 37, 369, 68, 400
-0.993113, 321, 469, 352, 500
-0.993119, 249, 129, 280, 256
-0.99312, 169, 445, 200, 476
-0.993122, 73, 261, 104, 292
-0.993125, 9, 437, 40, 468
-0.993125, 113, 445, 144, 476
-0.993126, 297, 129, 328, 256
-0.993135, 229, 221, 260, 252
-0.993136, 345, 129, 375, 160
-0.993139, 157, 345, 188, 376
-0.993139, 137, 257, 168, 288
-0.993144, 217, 193, 248, 224
-0.993146, 37, 269, 68, 300
-0.993146, 93, 425, 124, 456
-0.993146, 161, 121, 192, 152
-0.993147, 201, 137, 232, 168
-0.993149, 89, 257, 120, 288
-0.993153, 309, 389, 340, 420
-0.993153, 57, 257, 88, 288
-0.993155, 105, 321, 136, 352
-0.993155, 185, 293, 216, 324
-0.993157, 317, 345, 348, 376
-0.993158, 81, 245, 112, 276
-0.993163, 157, 197, 188, 228
-0.993164, 329, 401, 360, 432
-0.993166, 173, 353, 204, 384
-0.993169, 345, 305, 375, 336
-0.993172, 161, 137, 192, 168
-0.993172, 117, 237, 148, 268
-0.993172, 137, 169, 168, 200
-0.993175, 249, 209, 280, 240
-0.993176, 137, 297, 168, 328
-0.993177, 89, 257, 120, 384
-0.993181, 201, 329, 232, 360
-0.993185, 101, 437, 132, 468
-0.993189, 217, 329, 248, 360
-0.993191, 1, 257, 32, 288
-0.993192, 213, 313, 244, 344
-0.993194, 269, 337, 300, 368
-0.993217, 189, 305, 204, 368
-0.993217, 45, 305, 76, 432
-0.993224, 49, 401, 176, 464
-0.993227, 113, 305, 240, 336
-0.99323, 33, 193, 96, 320
-0.993309, 1, 313, 256, 376
-0.993334, 1, 321, 16, 384
-0.993334, 129, 233, 375, 296
-0.993381, 129, 153, 375, 216
-0.993411, 195, 297, 210, 360
-0.993479, 49, 369, 176, 432
-0.993484, 41, 129, 104, 384
-0.993519, 13, 209, 44, 336
-0.993598, 205, 297, 220, 360
-0.993613, 1, 241, 375, 304
-0.993621, 129, 361, 375, 424
-0.99363, 125, 193, 156, 320
-0.993638, 189, 49, 220, 176
-0.993644, 1, 361, 375, 424
-0.993646, 145, 213, 272, 244
-0.993656, 21, 353, 36, 416
-0.993674, 313, 241, 344, 368
-0.99368, 235, 185, 250, 248
-0.993752, 1, 177, 256, 240
-0.993835, 9, 393, 24, 456
-0.993958, 345, 193, 375, 320
-0.993961, 229, 201, 244, 264
-0.994059, 1, 401, 16, 464
-0.994078, 213, 321, 228, 384
-0.994108, 97, 425, 224, 456
-0.994197, 23, 393, 38, 456
-0.994221, 183, 145, 198, 208
-0.994268, 15, 353, 30, 416
-0.994285, 65, 233, 192, 264
-0.994297, 81, 317, 208, 348
-0.994314, 33, 261, 160, 292
-0.994332, 97, 41, 224, 104
-0.994367, 1, 409, 256, 472
-0.994375, 229, 177, 244, 240
-0.994406, 113, 329, 240, 360
-0.994413, 161, 317, 288, 348
-0.994415, 145, 193, 272, 224
-0.994419, 241, 185, 256, 248
-0.994421, 17, 429, 144, 460
-0.994437, 349, 361, 364, 424
-0.994462, 1, 137, 128, 200
-0.994472, 189, 369, 220, 496
-0.994492, 1, 153, 256, 216
-0.994493, 161, 201, 176, 264
-0.994495, 97, 201, 352, 264
-0.994498, 15, 409, 30, 472
-0.994521, 145, 369, 272, 432
-0.994523, 229, 153, 244, 216
-0.994529, 345, 49, 375, 176
-0.994564, 181, 321, 196, 384
-0.994596, 9, 345, 24, 408
-0.9946, 1, 201, 256, 264
-0.994605, 241, 361, 368, 392
-0.994679, 357, 345, 372, 408
-0.994682, 241, 65, 368, 128
-0.994691, 65, 245, 192, 276
-0.994695, 193, 153, 208, 216
-0.994701, 129, 149, 256, 180
-0.994705, 225, 465, 352, 496
-0.994718, 129, 97, 375, 160
-0.994734, 129, 401, 375, 464
-0.994798, 177, 305, 304, 336
-0.994859, 135, 153, 150, 216
-0.994932, 145, 225, 272, 256
-0.994997, 325, 49, 356, 176
-0.994999, 97, 65, 224, 128
-0.995048, 161, 225, 176, 288
-0.995169, 27, 353, 42, 416
-0.995175, 239, 217, 254, 280
-0.995175, 1, 217, 375, 280
-0.995181, 199, 161, 214, 224
-0.995186, 65, 121, 320, 184
-0.995187, 145, 49, 272, 112
-0.995192, 233, 369, 264, 496
-0.995223, 7, 313, 22, 376
-0.99523, 15, 321, 30, 384
-0.995268, 193, 349, 320, 380
-0.995288, 117, 369, 148, 496
-0.995298, 283, 297, 298, 360
-0.995315, 1, 185, 375, 248
-0.995346, 337, 345, 352, 408
-0.995368, 237, 337, 252, 400
-0.995373, 217, 297, 232, 360
-0.995377, 35, 353, 50, 416
-0.995397, 1, 313, 375, 376
-0.995403, 261, 185, 276, 248
-0.995437, 205, 161, 220, 224
-0.995447, 219, 321, 234, 384
-0.995448, 249, 369, 280, 496
-0.995466, 355, 369, 370, 432
-0.995472, 1, 433, 128, 496
-0.995475, 169, 209, 184, 272
-0.995481, 1, 145, 375, 208
-0.995497, 123, 233, 138, 296
-0.9955, 175, 329, 190, 392
-0.995512, 247, 185, 262, 248
-0.995514, 177, 157, 304, 188
-0.995515, 57, 209, 88, 336
-0.995515, 167, 321, 182, 384
-0.99552, 1, 73, 128, 136
-0.995524, 141, 153, 156, 216
-0.99553, 241, 197, 368, 228
-0.995549, 13, 97, 44, 224
-0.995554, 133, 425, 148, 488
-0.995559, 241, 345, 368, 376
-0.995584, 183, 9, 198, 72
-0.995584, 221, 153, 236, 216
-0.9956, 1, 361, 16, 424
-0.995642, 199, 321, 214, 384
-0.995646, 211, 153, 226, 216
-0.995658, 329, 337, 344, 400
-0.995664, 145, 345, 272, 376
-0.995671, 93, 305, 124, 432
-0.995683, 177, 293, 304, 324
-0.995706, 177, 113, 192, 176
-0.995724, 339, 377, 354, 440
-0.995731, 147, 153, 162, 216
-0.995757, 235, 145, 250, 208
-0.995775, 219, 177, 234, 240
-0.995784, 161, 361, 288, 392
-0.9958, 177, 9, 192, 72
-0.9958, 17, 385, 32, 448
-0.995827, 209, 145, 336, 176
-0.995833, 1, 433, 256, 496
-0.995846, 155, 137, 170, 200
-0.995854, 97, 181, 224, 212
-0.995855, 207, 321, 222, 384
-0.995866, 243, 337, 258, 400
-0.99587, 183, 113, 198, 176
-0.995889, 211, 297, 226, 360
-0.995897, 241, 289, 368, 320
-0.9959, 161, 433, 288, 464
-0.995902, 253, 185, 268, 248
-0.995902, 343, 345, 358, 408
-0.995907, 117, 417, 132, 480
-0.995921, 221, 121, 236, 184
-0.995932, 349, 385, 364, 448
-0.995933, 227, 337, 242, 400
-0.995938, 241, 177, 368, 208
-0.995946, 129, 117, 256, 148
-0.99597, 129, 137, 256, 168
-0.99597, 331, 377, 346, 440
-0.995993, 159, 321, 174, 384
-0.995994, 145, 129, 160, 192
-0.996, 123, 425, 138, 488
-0.996016, 161, 329, 288, 360
-0.99603, 113, 437, 240, 468
-0.996042, 335, 297, 350, 360
-0.996061, 197, 225, 228, 352
-0.996081, 65, 273, 192, 304
-0.996084, 113, 225, 128, 288
-0.996086, 225, 377, 352, 408
-0.996092, 277, 305, 292, 368
-0.996096, 145, 237, 272, 268
-0.996098, 103, 417, 118, 480
-0.99611, 229, 225, 244, 288
-0.996118, 97, 293, 224, 324
-0.996128, 113, 265, 240, 296
-0.996134, 353, 113, 368, 176
-0.996138, 245, 209, 260, 272
-0.996141, 159, 249, 174, 312
-0.996142, 225, 209, 352, 240
-0.996147, 189, 329, 204, 392
-0.996179, 249, 345, 264, 408
-0.99618, 323, 353, 338, 416
-0.996207, 9, 425, 24, 488
-0.996237, 189, 281, 204, 344
-0.996241, 209, 49, 272, 176
-0.996252, 65, 437, 192, 468
-0.996253, 235, 121, 250, 184
-0.996257, 313, 33, 375, 160
-0.996266, 151, 193, 166, 256
-0.996266, 129, 241, 144, 304
-0.996276, 9, 369, 24, 432
-0.996285, 65, 289, 128, 416
-0.99629, 9, 153, 24, 216
-0.996297, 41, 353, 56, 416
-0.996302, 129, 161, 256, 192
-0.996329, 125, 121, 140, 184
-0.99633, 225, 133, 352, 164
-0.99634, 1, 137, 16, 200
-0.996354, 127, 313, 142, 376
-0.996354, 241, 277, 368, 308
-0.996358, 97, 349, 224, 380
-0.996366, 109, 425, 124, 488
-0.996378, 145, 249, 272, 280
-0.996381, 277, 425, 292, 488
-0.996384, 193, 73, 320, 136
-0.996393, 177, 105, 304, 136
-0.996408, 241, 265, 368, 296
-0.99642, 347, 121, 362, 184
-0.996426, 107, 217, 122, 280
-0.996437, 21, 417, 36, 480
-0.996448, 293, 257, 324, 384
-0.996449, 319, 377, 334, 440
-0.996453, 361, 369, 375, 432
-0.996456, 267, 345, 282, 408
-0.996457, 177, 313, 192, 344
-0.996468, 145, 181, 272, 212
-0.996479, 1, 361, 256, 424
-0.996484, 359, 113, 374, 176
-0.996488, 189, 17, 204, 80
-0.996494, 153, 313, 168, 376
-0.996497, 255, 345, 270, 408
-0.996503, 227, 121, 242, 184
-0.99652, 209, 449, 336, 480
-0.996528, 187, 417, 202, 480
-0.996534, 61, 369, 92, 496
-0.996538, 249, 321, 264, 384
-0.99654, 227, 313, 242, 376
-0.996545, 277, 337, 292, 400
-0.996546, 209, 129, 224, 192
-0.996554, 157, 193, 188, 448
-0.99656, 1, 417, 128, 448
-0.996583, 241, 437, 368, 468
-0.99659, 325, 385, 340, 448
-0.996592, 225, 333, 352, 364
-0.996594, 157, 401, 172, 464
-0.996601, 121, 313, 136, 376
-0.996621, 133, 305, 148, 368
-0.996627, 333, 129, 348, 192
-0.996633, 155, 169, 170, 232
-0.996637, 205, 417, 220, 480
-0.996655, 1, 329, 128, 360
-0.996659, 1, 249, 128, 280
-0.996674, 1, 313, 128, 344
-0.996684, 31, 377, 46, 440
-0.99669, 169, 233, 184, 296
-0.996713, 1, 385, 256, 448
-0.996714, 1, 425, 375, 488
-0.99672, 73, 193, 104, 320
-0.996724, 215, 345, 230, 408
-0.996725, 65, 205, 192, 236
-0.996731, 65, 329, 192, 360
-0.996734, 23, 329, 38, 392
-0.996735, 1, 233, 128, 264
-0.996744, 361, 297, 375, 360
-0.996751, 241, 245, 368, 276
-0.996752, 13, 161, 44, 288
-0.996752, 207, 309, 222, 340
-0.996757, 241, 225, 368, 256
-0.996768, 271, 297, 286, 360
-0.99678, 163, 177, 178, 240
-0.996796, 97, 413, 224, 444
-0.9968, 17, 257, 48, 500
-0.99682, 217, 369, 248, 496
-0.996842, 195, 301, 210, 332
-0.996848, 177, 133, 304, 164
-0.996855, 17, 273, 144, 304
-0.996882, 1, 385, 375, 448
-0.996899, 205, 369, 236, 496
-0.996925, 177, 161, 208, 416
-0.99693, 13, 429, 28, 460
-0.996961, 9, 361, 24, 392
-0.996962, 193, 197, 320, 228
-0.99697, 1, 393, 128, 424
-0.996999, 97, 105, 224, 136
-0.997014, 241, 389, 368, 420
-0.997022, 161, 445, 288, 476
-0.997024, 65, 221, 192, 252
-0.997031, 225, 309, 352, 340
-0.997035, 17, 365, 32, 396
-0.997044, 1, 257, 32, 500
-0.997052, 213, 129, 244, 384
-0.997057, 105, 305, 136, 432
-0.997061, 193, 221, 320, 252
-0.997064, 333, 129, 364, 384
-0.997111, 185, 321, 200, 352
-0.99712, 213, 309, 228, 340
-0.997125, 177, 169, 304, 200
-0.997136, 179, 337, 194, 368
-0.997138, 229, 209, 244, 240
-0.997141, 77, 305, 108, 432
-0.997162, 183, 305, 198, 336
-0.997165, 201, 305, 216, 336
-0.99718, 19, 421, 34, 452
-0.997198, 177, 373, 304, 404
-0.997207, 1, 121, 375, 184
-0.997212, 225, 157, 352, 188
-0.99722, 1, 425, 16, 456
-0.997222, 209, 425, 336, 456
-0.997244, 245, 161, 276, 416
-0.997247, 33, 97, 288, 160
-0.997255, 7, 409, 22, 440
-0.997257, 1, 381, 128, 412
-0.997272, 189, 301, 204, 332
-0.997273, 1, 221, 128, 252
-0.997278, 1, 325, 16, 356
-0.997279, 9, 349, 24, 380
-0.997283, 133, 161, 164, 416
-0.997289, 81, 153, 208, 184
-0.997291, 341, 257, 372, 500
-0.997293, 161, 421, 288, 452
-0.997303, 183, 13, 198, 44
-0.997314, 9, 373, 24, 404
-0.997323, 189, 161, 220, 416
-0.997325, 27, 385, 42, 416
-0.99733, 3, 337, 18, 368
-0.997336, 13, 417, 28, 448
-0.997346, 1, 97, 32, 224
-0.99735, 39, 365, 54, 396
-0.997353, 17, 381, 32, 412
-0.997371, 221, 49, 252, 176
-0.997394, 165, 65, 196, 320
-0.997405, 177, 65, 208, 320
-0.997416, 1, 365, 16, 396
-0.99742, 117, 129, 148, 384
-0.997435, 161, 213, 176, 244
-0.997457, 1, 349, 128, 380
-0.997471, 23, 361, 38, 392
-0.997479, 93, 193, 124, 448
-0.99748, 183, 149, 198, 180
-0.997481, 355, 373, 370, 404
-0.997491, 113, 281, 240, 312
-0.997498, 81, 137, 208, 168
-0.997505, 81, 225, 112, 480
-0.997516, 209, 1, 336, 64
-0.997522, 105, 425, 120, 456
-0.99753, 17, 17, 144, 144
-0.997531, 1, 413, 16, 444
-0.997546, 81, 121, 208, 152
-0.997551, 199, 317, 214, 348
-0.997553, 131, 433, 146, 464
-0.99756, 177, 13, 192, 44
-0.997562, 23, 409, 38, 440
-0.997581, 229, 129, 260, 384
-0.997582, 145, 17, 272, 48
-0.997585, 7, 321, 22, 352
-0.99759, 209, 321, 224, 352
-0.997594, 33, 369, 48, 400
-0.997603, 81, 449, 208, 480
-0.99761, 25, 373, 40, 404
-0.997619, 341, 365, 356, 396
-0.997622, 347, 373, 362, 404
-0.997624, 65, 193, 192, 224
-0.997625, 65, 305, 192, 336
-0.997629, 173, 333, 188, 364
-0.997637, 161, 261, 288, 292
-0.997643, 21, 393, 36, 424
-0.997648, 179, 325, 194, 356
-0.99765, 15, 353, 30, 384
-0.99765, 169, 321, 184, 352
-0.997658, 49, 285, 176, 316
-0.99767, 191, 321, 206, 352
-0.997671, 349, 389, 364, 420
-0.997685, 1, 145, 16, 176
-0.997692, 225, 153, 240, 184
-0.997696, 189, 337, 204, 368
-0.997698, 1, 161, 32, 416
-0.997701, 109, 225, 140, 480
-0.997707, 225, 121, 352, 152
-0.99771, 195, 337, 210, 368
-0.997729, 193, 233, 320, 264
-0.997732, 1, 353, 16, 384
-0.997748, 235, 193, 250, 224
-0.997749, 169, 209, 184, 240
-0.997774, 29, 257, 60, 500
-0.997775, 239, 221, 254, 252
-0.99778, 33, 209, 64, 336
-0.997781, 337, 381, 352, 412
-0.997787, 141, 161, 156, 192
-0.997788, 269, 49, 300, 176
-0.997802, 231, 153, 246, 184
-0.997807, 131, 265, 146, 296
-0.997816, 161, 225, 176, 256
-0.997819, 1, 405, 128, 436
-0.997822, 125, 433, 140, 464
-0.997823, 11, 385, 26, 416
-0.997842, 163, 249, 178, 280
-0.997848, 263, 193, 278, 224
-0.99785, 1, 401, 16, 432
-0.997852, 229, 225, 244, 256
-0.997857, 241, 209, 256, 240
-0.997868, 163, 197, 178, 228
-0.997881, 161, 457, 288, 488
-0.997883, 7, 421, 22, 452
-0.997889, 243, 349, 258, 380
-0.997894, 13, 325, 28, 356
-0.997898, 283, 305, 298, 336
-0.997905, 201, 129, 232, 384
-0.997909, 189, 17, 204, 48
-0.997909, 111, 425, 126, 456
-0.99792, 37, 381, 52, 412
-0.997928, 33, 49, 96, 176
-0.997939, 81, 49, 144, 176
-0.997942, 9, 397, 24, 428
-0.997944, 207, 341, 222, 372
-0.997946, 49, 341, 176, 372
-0.997949, 119, 429, 134, 460
-0.997982, 135, 157, 150, 188
-0.997985, 7, 437, 22, 468
-0.997986, 269, 129, 300, 384
-0.99799, 1, 365, 128, 396
-0.997991, 123, 245, 138, 276
-0.997995, 177, 281, 304, 312
-0.997996, 1, 281, 375, 344
-0.998004, 161, 261, 176, 292
-0.998015, 193, 161, 208, 192
-0.998017, 21, 433, 36, 464
-0.998027, 97, 93, 224, 124
-0.998035, 11, 161, 26, 192
-0.998037, 193, 245, 320, 276
-0.998055, 199, 149, 214, 180
-0.998064, 17, 109, 144, 140
-0.998072, 225, 181, 240, 212
-0.998074, 151, 181, 166, 212
-0.998075, 219, 153, 234, 184
-0.998079, 209, 321, 336, 352
-0.998083, 237, 345, 252, 376
-0.998097, 17, 461, 144, 492
-0.998098, 145, 129, 176, 384
-0.998102, 241, 193, 256, 224
-0.998112, 319, 465, 334, 496
-0.998114, 173, 25, 188, 56
-0.998114, 11, 261, 26, 292
-0.99812, 177, 93, 304, 124
-0.998123, 121, 229, 136, 260
-0.998123, 217, 325, 232, 356
-0.998124, 257, 193, 288, 448
-0.998127, 229, 345, 244, 376
-0.998127, 177, 301, 192, 332
-0.99813, 327, 385, 342, 416
-0.998138, 199, 349, 214, 380
-0.998141, 153, 201, 168, 232
-0.998147, 225, 193, 240, 224
-0.998147, 97, 17, 224, 48
-0.998147, 199, 181, 214, 212
-0.998153, 221, 225, 252, 480
-0.998158, 17, 441, 144, 472
-0.998165, 361, 305, 375, 336
-0.99817, 163, 237, 178, 268
-0.998171, 29, 397, 44, 428
-0.998172, 13, 441, 28, 472
-0.998178, 261, 445, 276, 476
-0.998179, 221, 345, 236, 376
-0.99818, 177, 117, 192, 148
-0.998181, 311, 461, 326, 492
-0.998184, 207, 297, 222, 328
-0.998192, 321, 385, 336, 416
-0.9982, 219, 313, 234, 344
-0.998204, 57, 257, 88, 500
-0.998223, 113, 361, 240, 392
-0.998223, 135, 181, 150, 212
-0.998223, 333, 129, 348, 160
-0.99823, 251, 193, 266, 224
-0.998234, 349, 217, 364, 248
-0.998234, 101, 229, 116, 260
-0.998236, 253, 349, 268, 380
-0.998239, 181, 173, 196, 204
-0.99824, 159, 329, 174, 360
-0.99824, 169, 225, 184, 256
-0.998245, 351, 409, 366, 440
-0.998245, 151, 157, 166, 188
-0.998253, 169, 245, 184, 276
-0.998257, 167, 333, 182, 364
-0.998257, 49, 413, 176, 444
-0.998258, 189, 149, 204, 180
-0.99826, 177, 117, 304, 148
-0.998267, 313, 257, 344, 500
-0.998311, 241, 85, 368, 116
-0.998327, 345, 129, 375, 384
-0.998355, 245, 65, 276, 320
-0.998379, 1, 161, 128, 192
-0.998381, 169, 313, 232, 328
-0.998388, 121, 257, 152, 500
-0.998391, 169, 323, 232, 338
-0.998393, 233, 195, 264, 210
-0.998394, 193, 181, 320, 212
-0.998394, 1, 339, 32, 354
-0.998395, 129, 185, 160, 200
-0.998396, 25, 363, 56, 378
-0.998396, 189, 193, 220, 208
-0.998396, 9, 267, 40, 282
-0.998398, 13, 325, 44, 340
-0.998398, 73, 267, 104, 282
-0.998399, 85, 329, 116, 344
-0.9984, 157, 451, 188, 466
-0.9984, 25, 483, 56, 498
-0.9984, 249, 211, 280, 226
-0.998401, 113, 273, 144, 288
-0.998402, 13, 425, 44, 440
-0.998402, 157, 151, 188, 166
-0.998404, 221, 127, 252, 142
-0.998405, 157, 257, 188, 272
-0.998405, 345, 387, 375, 402
-0.998406, 253, 353, 284, 368
-0.998407, 25, 273, 56, 288
-0.998407, 109, 325, 140, 340
-0.998407, 5, 441, 36, 456
-0.998408, 177, 445, 208, 460
-0.998408, 157, 227, 188, 242
-0.998408, 241, 453, 272, 468
-0.99841, 13, 359, 44, 374
-0.998411, 205, 433, 236, 448
-0.998413, 213, 319, 244, 334
-0.998413, 177, 119, 208, 134
-0.998415, 117, 261, 148, 276
-0.998415, 153, 319, 184, 334
-0.998416, 9, 401, 40, 416
-0.998417, 49, 165, 176, 196
-0.998417, 13, 413, 44, 428
-0.998417, 101, 257, 132, 272
-0.998417, 193, 437, 224, 452
-0.998418, 9, 395, 40, 410
-0.998419, 121, 447, 152, 462
-0.99842, 325, 471, 356, 486
-0.998422, 157, 221, 188, 236
-0.998423, 313, 383, 344, 398
-0.998423, 157, 247, 188, 262
-0.998423, 233, 349, 264, 364
-0.998423, 193, 429, 224, 444
-0.998426, 169, 307, 232, 322
-0.998427, 157, 263, 188, 278
-0.998428, 17, 353, 48, 368
-0.998428, 5, 433, 36, 448
-0.998429, 141, 187, 172, 202
-0.998429, 157, 233, 188, 248
-0.998429, 205, 163, 236, 178
-0.998429, 93, 263, 124, 278
-0.99843, 193, 155, 224, 170
-0.99843, 93, 229, 124, 244
-0.99843, 109, 233, 140, 248
-0.998431, 1, 319, 32, 334
-0.998432, 217, 217, 248, 232
-0.998432, 201, 187, 232, 202
-0.998432, 177, 181, 208, 196
-0.998433, 185, 341, 216, 356
-0.998434, 129, 441, 160, 456
-0.998434, 137, 155, 168, 170
-0.998436, 177, 159, 208, 174
-0.998437, 329, 257, 360, 500
-0.998437, 169, 343, 200, 358
-0.998437, 229, 219, 260, 234
-0.99844, 197, 359, 228, 374
-0.998442, 113, 433, 144, 448
-0.998442, 121, 157, 152, 172
-0.998443, 189, 257, 220, 500
-0.998445, 153, 269, 184, 284
-0.998451, 345, 381, 375, 396
-0.998452, 249, 197, 280, 212
-0.998453, 325, 391, 356, 406
-0.998453, 345, 401, 375, 416
-0.998453, 325, 399, 356, 414
-0.998455, 213, 187, 244, 202
-0.998457, 157, 193, 188, 208
-0.998458, 165, 335, 196, 350
-0.998459, 5, 385, 36, 400
-0.998459, 157, 211, 188, 226
-0.998465, 133, 275, 164, 290
-0.998465, 189, 163, 220, 178
-0.998466, 5, 273, 36, 288
-0.998467, 173, 153, 204, 168
-0.99847, 177, 349, 208, 364
-0.99847, 189, 311, 220, 326
-0.99847, 333, 375, 364, 390
-0.99847, 133, 161, 164, 176
-0.99847, 137, 193, 168, 208
-0.998471, 129, 319, 192, 334
-0.998471, 201, 343, 232, 358
-0.998473, 201, 321, 232, 336
-0.998475, 181, 335, 212, 350
-0.998477, 117, 267, 148, 282
-0.998477, 345, 371, 375, 386
-0.998478, 1, 353, 32, 368
-0.998478, 153, 187, 184, 202
-0.998478, 9, 407, 40, 422
-0.998481, 345, 393, 375, 408
-0.998482, 29, 369, 60, 384
-0.998486, 161, 327, 192, 342
-0.998492, 313, 393, 375, 408
-0.998493, 173, 187, 204, 202
-0.998494, 225, 155, 256, 170
-0.998494, 145, 311, 208, 326
-0.998494, 189, 187, 220, 202
-0.998499, 325, 385, 356, 400
-0.9985, 313, 399, 375, 414
-0.9985, 29, 383, 60, 398
-0.9985, 1, 365, 64, 380
-0.998501, 209, 1, 240, 256
-0.998504, 145, 153, 208, 168
-0.998507, 1, 371, 64, 386
-0.998507, 5, 375, 36, 390
-0.998509, 17, 389, 48, 404
-0.998509, 161, 187, 224, 202
-0.998513, 1, 413, 32, 428
-0.998513, 193, 315, 256, 330
-0.998516, 141, 447, 172, 462
-0.998516, 333, 369, 364, 384
-0.998519, 145, 331, 208, 346
-0.99852, 313, 385, 375, 400
-0.998521, 49, 65, 176, 128
-0.998521, 129, 443, 192, 458
-0.998522, 1, 361, 32, 376
-0.998525, 185, 155, 248, 170
-0.998525, 169, 329, 232, 344
-0.998527, 225, 33, 256, 288
-0.998529, 29, 375, 60, 390
-0.998529, 89, 235, 152, 250
-0.998531, 113, 265, 176, 280
-0.998532, 1, 185, 128, 216
-0.998534, 225, 97, 352, 128
-0.998535, 229, 211, 260, 226
-0.998538, 129, 305, 192, 320
-0.998539, 217, 219, 280, 234
-0.998541, 205, 311, 236, 326
-0.998541, 217, 195, 280, 210
-0.998541, 213, 157, 244, 172
-0.998543, 1, 325, 32, 340
-0.998549, 1, 331, 32, 346
-0.998552, 169, 341, 232, 356
-0.998552, 177, 323, 208, 338
-0.998553, 69, 257, 100, 500
-0.998553, 229, 161, 244, 288
-0.998553, 1, 209, 128, 240
-0.998554, 9, 419, 40, 434
-0.998555, 101, 429, 132, 444
-0.998557, 297, 377, 360, 392
-0.998558, 145, 159, 208, 174
-0.998558, 89, 273, 152, 288
-0.998558, 9, 381, 72, 396
-0.99856, 89, 429, 152, 444
-0.99856, 173, 329, 204, 344
-0.998562, 193, 343, 256, 358
-0.998562, 1, 347, 32, 362
-0.998563, 145, 325, 208, 340
-0.998563, 269, 225, 300, 480
-0.998564, 189, 323, 220, 338
-0.998565, 169, 349, 232, 364
-0.998566, 169, 17, 232, 32
-0.998568, 17, 407, 80, 422
-0.998569, 193, 323, 256, 338
-0.998569, 193, 187, 256, 202
-0.99857, 177, 311, 208, 326
-0.998572, 217, 225, 280, 240
-0.998573, 129, 243, 192, 258
-0.998574, 89, 325, 152, 340
-0.998575, 17, 383, 48, 398
-0.998575, 177, 359, 240, 374
-0.998576, 9, 401, 72, 416
-0.998581, 153, 193, 216, 208
-0.998582, 73, 257, 136, 272
-0.998584, 1, 271, 64, 286
-0.998584, 41, 269, 104, 284
-0.998585, 17, 373, 48, 388
-0.998586, 129, 187, 192, 202
-0.998587, 137, 349, 200, 364
-0.998588, 129, 271, 192, 286
-0.998589, 169, 163, 232, 178
-0.998589, 217, 213, 280, 228
-0.998591, 189, 33, 220, 288
-0.998591, 173, 317, 204, 332
-0.998592, 1, 427, 32, 442
-0.998592, 193, 305, 224, 320
-0.998596, 209, 367, 272, 382
-0.998596, 129, 299, 192, 314
-0.998597, 273, 459, 336, 474
-0.998597, 257, 453, 320, 468
-0.998598, 185, 437, 248, 452
-0.998602, 297, 363, 360, 378
-0.998602, 265, 381, 328, 396
-0.998602, 313, 369, 375, 384
-0.998602, 17, 161, 48, 416
-0.998602, 113, 435, 176, 450
-0.998603, 121, 279, 184, 294
-0.998603, 145, 17, 208, 32
-0.998603, 73, 251, 136, 266
-0.998603, 145, 437, 208, 452
-0.998604, 185, 149, 248, 164
-0.998604, 217, 231, 280, 246
-0.998604, 225, 349, 288, 364
-0.998604, 179, 289, 194, 416
-0.998605, 25, 387, 88, 402
-0.998606, 233, 373, 296, 388
-0.998606, 121, 311, 184, 326
-0.998606, 201, 349, 264, 364
-0.998606, 145, 121, 208, 136
-0.998606, 249, 355, 312, 370
-0.998607, 17, 413, 80, 428
-0.998608, 193, 161, 256, 176
-0.99861, 193, 309, 256, 324
-0.99861, 73, 265, 136, 280
-0.998611, 169, 335, 232, 350
-0.998611, 177, 5, 304, 36
-0.998611, 169, 121, 232, 136
-0.998611, 121, 285, 184, 300
-0.998614, 321, 129, 352, 384
-0.998614, 9, 481, 72, 496
-0.998615, 9, 367, 40, 382
-0.998618, 281, 465, 344, 480
-0.998619, 193, 193, 256, 208
-0.998619, 289, 385, 352, 400
-0.998619, 169, 443, 232, 458
-0.998622, 89, 441, 152, 456
-0.998623, 121, 331, 184, 346
-0.998624, 145, 343, 208, 358
-0.998624, 129, 237, 192, 252
-0.998625, 189, 317, 220, 332
-0.998625, 81, 229, 144, 244
-0.998626, 289, 391, 352, 406
-0.998627, 153, 181, 216, 196
-0.998627, 1, 355, 64, 370
-0.998629, 105, 447, 168, 462
-0.99863, 233, 151, 296, 166
-0.99863, 233, 459, 296, 474
-0.99863, 129, 211, 192, 226
-0.998631, 113, 157, 176, 172
-0.998631, 169, 127, 232, 142
-0.998631, 129, 231, 192, 246
-0.998631, 217, 237, 280, 252
-0.998631, 9, 265, 72, 280
-0.998631, 145, 29, 272, 60
-0.998632, 73, 243, 136, 258
-0.998632, 281, 427, 344, 442
-0.998632, 1, 349, 64, 364
-0.998634, 217, 321, 280, 336
-0.998634, 129, 147, 192, 162
-0.998636, 289, 127, 352, 142
-0.998636, 169, 133, 232, 148
-0.998636, 313, 223, 375, 238
-0.998636, 33, 381, 96, 396
-0.998637, 305, 469, 368, 484
-0.998637, 1, 325, 64, 340
-0.998638, 225, 203, 288, 218
-0.99864, 121, 325, 184, 340
-0.998641, 177, 409, 304, 440
-0.998641, 89, 435, 152, 450
-0.998641, 313, 207, 375, 222
-0.998642, 345, 33, 375, 288
-0.998642, 193, 127, 256, 142
-0.998642, 217, 357, 280, 372
-0.998642, 1, 395, 64, 410
-0.998642, 209, 155, 272, 170
-0.998644, 169, 115, 232, 130
-0.998644, 145, 127, 208, 142
-0.998644, 1, 419, 64, 434
-0.998645, 1, 97, 375, 160
-0.998645, 217, 243, 280, 258
-0.998645, 113, 251, 176, 266
-0.998646, 1, 389, 64, 404
-0.998646, 25, 393, 88, 408
-0.998647, 17, 145, 144, 176
-0.998648, 1, 425, 64, 440
-0.998648, 113, 423, 176, 438
-0.99865, 121, 291, 184, 306
-0.99865, 313, 201, 375, 216
-0.998656, 169, 257, 200, 500
-0.998661, 181, 97, 196, 224
-0.998662, 1, 173, 128, 204
-0.998665, 181, 305, 212, 320
-0.998687, 13, 337, 28, 464
-0.998689, 173, 17, 204, 32
-0.998694, 137, 257, 168, 500
-0.998698, 241, 401, 368, 432
-0.998704, 17, 301, 144, 332
-0.998723, 97, 33, 224, 64
-0.998729, 1, 321, 16, 448
-0.998737, 19, 353, 34, 480
-0.998758, 349, 353, 364, 480
-0.99878, 209, 225, 240, 480
-0.998787, 97, 97, 128, 352
-0.998793, 189, 273, 204, 400
-0.998809, 1, 197, 128, 228
-0.998817, 193, 97, 208, 224
-0.998839, 359, 289, 374, 416
-0.998839, 1, 73, 256, 136
-0.998842, 241, 413, 368, 444
-0.998868, 145, 469, 272, 500
-0.998883, 203, 145, 218, 272
-0.998887, 7, 337, 22, 464
-0.998889, 25, 353, 40, 480
-0.998907, 81, 465, 208, 496
-0.998925, 133, 65, 164, 320
-0.998939, 1, 97, 128, 128
-0.99894, 161, 177, 176, 304
-0.998943, 169, 241, 184, 368
-0.998948, 209, 289, 224, 416
-0.998954, 239, 161, 254, 288
-0.998956, 177, 81, 304, 112
-0.998958, 183, 145, 198, 272
-0.998966, 187, 97, 202, 224
-0.998973, 41, 257, 72, 500
-0.998975, 145, 41, 272, 72
-0.998992, 339, 321, 354, 448
-0.998994, 221, 129, 236, 256
-0.999003, 173, 129, 188, 256
-0.999024, 257, 33, 288, 288
-0.999027, 49, 181, 176, 212
-0.999033, 19, 273, 34, 400
-0.999037, 201, 289, 216, 416
-0.999049, 125, 241, 140, 368
-0.999057, 359, 369, 374, 496
-0.99906, 353, 289, 368, 416
-0.999064, 49, 401, 176, 432
-0.999064, 173, 289, 188, 416
-0.999066, 193, 1, 256, 128
-0.999078, 309, 97, 340, 352
-0.99908, 209, 113, 224, 240
-0.999083, 3, 145, 18, 272
-0.999092, 221, 321, 236, 448
-0.999094, 173, 177, 188, 304
-0.999096, 275, 369, 290, 496
-0.999102, 215, 289, 230, 416
-0.999104, 285, 305, 300, 432
-0.999104, 195, 289, 210, 416
-0.999107, 1, 369, 16, 496
-0.999109, 13, 289, 28, 416
-0.999111, 221, 177, 236, 304
-0.999111, 159, 225, 174, 352
-0.999122, 197, 145, 212, 272
-0.999127, 181, 241, 196, 368
-0.999129, 167, 129, 182, 256
-0.999131, 333, 289, 348, 416
-0.999143, 31, 337, 46, 464
-0.999151, 347, 289, 362, 416
-0.999152, 233, 113, 248, 240
-0.999154, 73, 97, 104, 352
-0.99916, 175, 1, 190, 128
-0.999163, 233, 225, 264, 480
-0.999166, 175, 81, 190, 208
-0.999167, 131, 257, 146, 384
-0.999173, 251, 177, 266, 304
-0.999177, 183, 17, 198, 144
-0.999179, 89, 1, 152, 256
-0.999181, 141, 113, 156, 240
-0.999184, 1, 73, 375, 136
-0.999186, 229, 209, 244, 336
-0.99919, 283, 369, 298, 496
-0.999191, 199, 97, 214, 224
-0.999212, 263, 177, 278, 304
-0.999215, 209, 161, 224, 288
-0.999216, 153, 145, 168, 272
-0.99922, 279, 289, 294, 416
-0.999223, 189, 145, 204, 272
-0.999234, 215, 161, 230, 288
-0.999234, 269, 289, 284, 416
-0.999238, 189, 1, 204, 128
-0.999238, 343, 369, 358, 496
-0.99924, 119, 257, 134, 384
-0.999242, 309, 321, 324, 448
-0.999243, 333, 97, 348, 224
-0.999244, 97, 209, 112, 336
-0.999244, 7, 289, 22, 416
-0.999245, 359, 129, 374, 256
-0.999245, 333, 33, 364, 288
-0.999254, 81, 225, 96, 352
-0.999258, 289, 369, 304, 496
-0.999258, 129, 145, 144, 272
-0.99926, 227, 321, 242, 448
-0.999261, 189, 321, 204, 448
-0.99927, 11, 241, 26, 368
-0.999277, 241, 41, 368, 104
-0.999278, 353, 97, 368, 224
-0.999278, 271, 209, 286, 336
-0.999285, 109, 33, 140, 288
-0.999287, 151, 273, 166, 400
-0.99929, 215, 113, 230, 240
-0.9993, 135, 97, 150, 224
-0.999311, 1, 65, 32, 320
-0.999311, 355, 241, 370, 368
-0.999312, 49, 257, 64, 384
-0.999313, 9, 145, 24, 272
-0.999314, 153, 33, 184, 288
-0.999319, 349, 241, 364, 368
-0.999319, 89, 241, 104, 368
-0.999323, 321, 81, 336, 208
-0.999329, 215, 337, 230, 464
-0.99933, 291, 305, 306, 432
-0.999336, 297, 369, 312, 496
-0.999337, 107, 209, 122, 336
-0.999342, 119, 209, 134, 336
-0.999343, 351, 145, 366, 272
-0.999347, 227, 257, 242, 384
-0.999351, 325, 129, 340, 256
-0.999352, 227, 113, 242, 240
-0.999353, 293, 225, 324, 480
-0.999356, 125, 193, 140, 320
-0.999358, 221, 257, 236, 384
-0.999359, 269, 369, 284, 496
-0.999361, 181, 337, 196, 464
-0.999361, 283, 113, 298, 240
-0.99938, 57, 257, 72, 384
-0.999382, 113, 225, 128, 352
-0.999384, 339, 273, 354, 400
-0.999385, 273, 129, 288, 256
-0.999388, 167, 177, 182, 304
-0.999388, 175, 241, 190, 368
-0.999389, 327, 289, 342, 416
-0.99939, 315, 369, 330, 496
-0.99939, 135, 161, 150, 288
-0.999394, 359, 65, 374, 192
-0.999396, 199, 241, 214, 368
-0.999398, 341, 97, 356, 224
-0.9994, 159, 129, 174, 256
-0.999404, 257, 177, 272, 304
-0.999406, 31, 257, 46, 384
-0.999408, 1, 273, 16, 400
-0.999409, 39, 353, 54, 480
-0.999413, 265, 241, 280, 368
-0.999421, 71, 257, 86, 384
-0.999422, 151, 193, 166, 320
-0.999422, 85, 97, 116, 352
-0.999424, 349, 193, 364, 320
-0.999426, 303, 353, 318, 480
-0.99943, 263, 289, 278, 416
-0.999443, 25, 273, 40, 400
-0.999443, 239, 209, 254, 336
-0.999446, 233, 321, 248, 448
-0.999448, 245, 177, 260, 304
-0.99945, 281, 65, 312, 320
-0.999455, 347, 97, 362, 224
-0.999552, 293, 65, 324, 320
-0.999567, 313, 1, 344, 256
-0.999589, 61, 97, 92, 352
-0.999591, 281, 257, 312, 500
-0.999593, 129, 1, 375, 64
-0.999599, 269, 33, 300, 288
-0.999608, 239, 229, 254, 244
-0.99961, 209, 187, 224, 202
-0.999612, 161, 239, 176, 254
-0.999613, 181, 347, 196, 362
-0.999613, 199, 349, 214, 364
-0.999614, 33, 367, 48, 382
-0.999614, 23, 365, 38, 380
-0.999614, 347, 391, 362, 406
-0.999614, 201, 187, 216, 202
-0.999614, 123, 233, 138, 248
-0.999614, 17, 419, 32, 434
-0.999614, 221, 161, 236, 176
-0.999615, 335, 375, 350, 390
-0.999615, 205, 163, 220, 178
-0.999615, 17, 323, 32, 338
-0.999615, 163, 245, 178, 260
-0.999616, 39, 367, 54, 382
-0.999616, 11, 161, 26, 176
-0.999617, 161, 193, 176, 208
-0.999618, 1, 371, 16, 386
-0.99962, 209, 341, 224, 356
-0.999621, 151, 187, 166, 202
-0.999621, 13, 271, 28, 286
-0.999621, 33, 397, 48, 412
-0.999622, 27, 393, 42, 408
-0.999622, 229, 229, 244, 244
-0.999624, 135, 157, 150, 172
-0.999624, 199, 163, 214, 178
-0.999624, 159, 187, 174, 202
-0.999624, 1, 405, 16, 420
-0.999624, 217, 323, 232, 338
-0.999629, 263, 197, 278, 212
-0.999629, 219, 155, 234, 170
-0.999631, 227, 187, 242, 202
-0.999633, 13, 329, 28, 344
-0.999633, 175, 325, 190, 340
-0.999633, 13, 359, 28, 374
-0.999634, 187, 311, 202, 326
-0.999634, 169, 187, 184, 202
-0.999635, 243, 211, 258, 226
-0.999636, 151, 163, 166, 178
-0.999636, 131, 267, 146, 282
-0.999639, 151, 201, 166, 216
-0.99964, 21, 411, 36, 426
-0.99964, 1, 337, 16, 352
-0.999643, 331, 381, 346, 396
-0.999644, 1, 319, 16, 334
-0.999645, 339, 367, 354, 382
-0.999647, 33, 373, 48, 388
-0.999648, 151, 195, 166, 210
-0.999648, 203, 305, 218, 320
-0.999649, 15, 377, 30, 392
-0.99965, 23, 425, 38, 440
-0.999651, 163, 211, 178, 226
-0.999651, 1, 359, 16, 374
-0.999655, 229, 223, 244, 238
-0.999655, 17, 395, 32, 410
-0.999656, 19, 441, 34, 456
-0.999657, 161, 263, 176, 278
-0.999658, 3, 435, 18, 450
-0.999659, 177, 309, 192, 324
-0.999659, 169, 211, 184, 226
-0.999659, 231, 209, 246, 224
-0.99966, 229, 215, 244, 230
-0.999661, 187, 329, 202, 344
-0.999661, 183, 151, 198, 166
-0.999662, 189, 17, 204, 32
-0.999664, 1, 153, 16, 168
-0.999664, 49, 9, 176, 72
-0.999664, 209, 323, 224, 338
-0.999665, 341, 377, 356, 392
-0.999665, 169, 327, 184, 342
-0.999667, 239, 221, 254, 236
-0.999667, 161, 227, 176, 242
-0.999668, 23, 373, 38, 388
-0.99967, 213, 311, 228, 326
-0.99967, 197, 315, 212, 330
-0.999671, 23, 399, 38, 414
-0.999673, 11, 425, 26, 440
-0.999675, 233, 155, 248, 170
-0.999677, 357, 375, 372, 390
-0.999679, 347, 369, 362, 384
-0.99968, 9, 371, 24, 386
-0.99968, 103, 427, 118, 442
-0.999681, 9, 387, 24, 402
-0.999682, 17, 425, 32, 440
-0.999682, 191, 305, 206, 320
-0.999683, 175, 17, 190, 32
-0.999684, 3, 411, 18, 426
-0.999687, 15, 389, 30, 404
-0.999688, 23, 417, 38, 432
-0.99969, 35, 379, 50, 394
-0.999692, 25, 379, 40, 394
-0.999692, 41, 373, 56, 388
-0.999693, 21, 389, 36, 404
-0.999694, 337, 385, 352, 400
-0.999696, 11, 347, 26, 362
-0.9997, 161, 233, 176, 248
-0.999702, 195, 321, 210, 336
-0.999706, 1, 353, 16, 368
-0.999708, 161, 221, 176, 236
-0.999711, 11, 365, 26, 380
-0.999712, 181, 333, 196, 348
-0.999713, 11, 323, 26, 338
-0.999713, 121, 33, 152, 288
-0.999716, 17, 353, 32, 368
-0.99972, 7, 355, 22, 370
-0.999723, 189, 317, 204, 332
-0.999723, 189, 323, 204, 338
-0.999725, 19, 431, 34, 446
-0.999725, 3, 331, 18, 346
-0.999727, 175, 331, 190, 346
-0.999728, 1, 365, 16, 380
-0.999732, 17, 367, 32, 382
-0.999737, 213, 317, 228, 332
-0.999741, 227, 155, 242, 170
-0.999742, 181, 321, 196, 336
-0.999742, 19, 383, 34, 398
-0.999744, 27, 387, 42, 402
-0.999747, 1, 427, 16, 442
-0.999748, 17, 65, 48, 320
-0.999748, 177, 315, 192, 330
-0.999748, 9, 417, 24, 432
-0.999754, 3, 421, 18, 436
-0.999755, 1, 343, 16, 358
-0.999755, 5, 325, 20, 340
-0.999755, 9, 377, 24, 392
-0.999758, 205, 317, 220, 332
-0.999759, 197, 305, 212, 320
-0.99976, 281, 161, 312, 416
-0.999762, 193, 49, 320, 112
-0.999769, 13, 433, 28, 448
-0.999772, 49, 97, 80, 352
-0.999782, 37, 97, 68, 352
-0.999791, 11, 439, 26, 454
-0.999794, 183, 305, 198, 320
-0.999817, 207, 311, 222, 326
-0.999822, 129, 57, 375, 120
-0.999869, 245, 257, 276, 500
-1.00002, 1, 49, 128, 112
-1.00032, 33, 1, 288, 64
-1.00039, 57, 1, 88, 256
-1.00047, 1, 25, 128, 88
-1.00048, 193, 25, 320, 88
-1.00049, 81, 1, 112, 256
-1.00049, 33, 1, 64, 256
-1.00062, 45, 1, 76, 256
-1.00066, 97, 1, 128, 256
-1.00069, 1, 1, 128, 64
-1.00079, 49, 33, 176, 96
-1.00081, 57, 65, 120, 192
-1.00103, 69, 1, 100, 256
-1.00104, 289, 33, 352, 160
-1.00113, 129, 33, 375, 96
-1.00116, 33, 25, 288, 88
-1.00117, 1, 49, 375, 112
-1.00123, 1, 1, 375, 64
-1.00132, 1, 49, 256, 112
-1.00141, 1, 49, 64, 176
-1.00193, 49, 1, 112, 256
-1.00265, 57, 17, 120, 144
-1.00302, 1, 25, 375, 88
-1.00317, 217, 1, 280, 128
-1.00478, 33, 97, 96, 224
-1.0048, 257, 1, 320, 128
-1.0052, 121, 1, 184, 128
-1.00525, 1, 1, 64, 128
-1.00668, 33, 1, 96, 128
-1.00672, 73, 145, 136, 272
-1.00694, 89, 1, 152, 128
-1.00956, 49, 145, 112, 272
