1968
-0.462847, 1, 97, 500, 352
-0.516811, 65, 1, 320, 375
-0.553353, 1, 1, 500, 375
-0.559342, 1, 1, 500, 256
-0.621047, 161, 1, 416, 375
-0.662494, 257, 129, 500, 375
-0.679291, 33, 1, 288, 256
-0.701581, 161, 65, 416, 320
-0.707906, 257, 1, 500, 375
-0.800062, 65, 97, 320, 352
-0.860724, 145, 1, 272, 375
-0.87252, 305, 129, 432, 375
-0.877434, 177, 65, 304, 320
-0.878987, 257, 97, 384, 352
-0.879669, 193, 1, 320, 375
-0.880288, 353, 129, 480, 375
-0.888775, 49, 1, 176, 256
-0.892025, 257, 33, 500, 288
-0.892212, 1, 241, 500, 368
-0.893137, 17, 1, 144, 375
-0.898051, 129, 1, 256, 256
-0.902417, 65, 1, 192, 375
-0.903745, 257, 1, 384, 375
-0.91061, 33, 97, 160, 352
-0.911989, 321, 1, 448, 375
-0.912443, 1, 161, 500, 288
-0.916225, 97, 129, 224, 375
-0.916768, 1, 1, 128, 256
-0.919498, 241, 1, 368, 256
-0.920666, 1, 113, 500, 240
-0.925674, 1, 209, 256, 336
-0.929844, 369, 1, 496, 375
-0.933146, 305, 33, 432, 288
-0.933286, 65, 49, 320, 176
-0.935301, 1, 1, 500, 128
-0.935992, 225, 97, 480, 224
-0.937061, 241, 97, 368, 224
-0.937145, 257, 145, 500, 272
-0.939118, 225, 241, 480, 368
-0.940321, 17, 161, 80, 288
-0.940908, 33, 1, 288, 128
-0.94224, 25, 209, 88, 336
-0.942994, 65, 209, 128, 336
-0.943589, 1, 65, 500, 192
-0.944804, 1, 225, 128, 352
-0.946124, 9, 1, 72, 128
-0.946948, 113, 17, 240, 144
-0.947375, 257, 193, 500, 320
-0.947506, 129, 241, 384, 368
-0.947697, 161, 65, 288, 192
-0.949015, 217, 49, 280, 176
-0.950178, 353, 33, 480, 288
-0.95036, 97, 193, 352, 320
-0.950648, 321, 145, 448, 272
-0.950743, 289, 241, 352, 368
-0.952193, 33, 1, 160, 128
-0.953038, 65, 97, 320, 224
-0.953216, 297, 97, 360, 224
-0.953314, 1, 241, 64, 368
-0.954272, 257, 193, 384, 320
-0.954516, 1, 161, 128, 288
-0.954631, 97, 65, 224, 192
-0.954823, 193, 177, 320, 304
-0.954903, 41, 161, 104, 288
-0.955217, 33, 49, 160, 176
-0.955272, 161, 145, 416, 272
-0.955602, 273, 145, 400, 272
-0.955782, 193, 225, 320, 352
-0.956057, 177, 1, 240, 128
-0.956372, 337, 265, 400, 328
-0.956465, 281, 193, 344, 320
-0.956755, 89, 209, 152, 336
-0.957499, 49, 17, 112, 144
-0.957511, 377, 145, 440, 272
-0.957626, 1, 153, 64, 216
-0.957887, 49, 209, 176, 336
-0.958548, 337, 241, 464, 368
-0.958633, 1, 113, 64, 240
-0.959213, 313, 273, 376, 336
-0.959273, 161, 17, 288, 144
-0.960758, 65, 161, 192, 288
-0.960814, 209, 49, 336, 176
-0.961224, 329, 241, 392, 368
-0.961358, 177, 113, 304, 240
-0.961499, 241, 241, 368, 368
-0.961799, 305, 193, 432, 320
-0.961868, 249, 177, 312, 304
-0.96187, 65, 161, 128, 288
-0.962307, 9, 65, 72, 192
-0.962311, 49, 113, 112, 240
-0.962946, 97, 209, 224, 336
-0.963013, 369, 241, 432, 368
-0.963205, 89, 1, 152, 128
-0.96321, 65, 145, 320, 272
-0.963286, 321, 145, 384, 272
-0.963291, 297, 113, 360, 176
-0.963835, 289, 241, 416, 368
-0.963913, 369, 161, 496, 288
-0.963922, 25, 225, 88, 288
-0.964076, 281, 89, 344, 152
-0.964169, 217, 73, 280, 136
-0.964276, 9, 9, 72, 72
-0.964341, 401, 209, 464, 336
-0.964357, 113, 1, 176, 128
-0.964362, 433, 145, 496, 272
-0.964518, 401, 161, 464, 288
-0.964533, 361, 153, 424, 216
-0.964649, 241, 225, 304, 352
-0.964772, 145, 1, 208, 128
-0.964849, 257, 81, 320, 208
-0.964911, 209, 249, 272, 312
-0.965638, 73, 49, 136, 176
-0.966101, 65, 225, 128, 288
-0.966293, 353, 177, 416, 304
-0.966429, 257, 97, 320, 160
-0.966478, 369, 265, 432, 328
-0.966515, 241, 185, 304, 248
-0.966965, 49, 97, 176, 224
-0.967004, 313, 153, 376, 216
-0.967118, 41, 17, 104, 80
-0.967319, 113, 129, 240, 256
-0.967514, 33, 161, 96, 224
-0.967754, 217, 97, 280, 224
-0.96807, 161, 49, 416, 176
-0.968122, 193, 49, 256, 176
-0.968131, 113, 177, 176, 304
-0.9685, 321, 193, 384, 320
-0.968525, 193, 225, 256, 288
-0.968743, 305, 249, 368, 312
-0.969186, 217, 105, 280, 168
-0.969356, 289, 273, 352, 336
-0.969628, 169, 1, 232, 64
-0.969694, 137, 209, 200, 336
-0.969742, 281, 249, 344, 312
-0.970033, 289, 97, 416, 224
-0.970096, 201, 241, 264, 368
-0.970099, 65, 257, 128, 320
-0.970231, 97, 1, 160, 64
-0.970268, 177, 33, 240, 96
-0.970392, 185, 249, 248, 312
-0.970506, 145, 225, 208, 288
-0.970553, 425, 241, 488, 368
-0.97084, 113, 65, 176, 192
-0.970884, 393, 161, 456, 224
-0.971635, 1, 209, 64, 272
-0.971744, 337, 289, 400, 352
-0.971795, 209, 49, 272, 112
-0.972149, 225, 145, 288, 272
-0.9722, 353, 129, 416, 256
-0.972531, 89, 161, 152, 288
-0.972615, 265, 241, 328, 368
-0.972788, 1, 297, 64, 360
-0.972806, 9, 81, 72, 144
-0.972909, 209, 33, 272, 288
-0.973294, 297, 145, 360, 272
-0.973525, 177, 241, 240, 368
-0.973555, 433, 161, 496, 224
-0.973576, 9, 177, 72, 240
-0.973676, 185, 193, 248, 320
-0.973754, 321, 129, 384, 375
-0.97376, 241, 129, 368, 192
-0.973827, 337, 153, 400, 216
-0.973962, 1, 33, 64, 96
-0.974068, 265, 129, 328, 256
-0.974077, 25, 249, 88, 312
-0.97418, 57, 209, 88, 336
-0.974209, 241, 217, 304, 280
-0.974215, 281, 97, 344, 352
-0.974226, 201, 289, 264, 352
-0.974395, 393, 249, 456, 312
-0.974425, 113, 113, 176, 240
-0.974626, 241, 105, 368, 168
-0.974627, 41, 137, 104, 200
-0.974691, 161, 49, 224, 176
-0.974745, 369, 129, 432, 375
-0.974778, 1, 129, 64, 192
-0.975259, 145, 241, 272, 368
-0.97549, 289, 177, 352, 240
-0.975533, 177, 89, 240, 152
-0.97554, 425, 265, 488, 328
-0.975687, 233, 249, 296, 312
-0.975715, 73, 1, 136, 64
-0.975722, 145, 73, 208, 136
-0.975848, 73, 113, 136, 240
-0.975897, 185, 113, 248, 240
-0.975901, 217, 129, 280, 192
-0.975946, 193, 1, 448, 128
-0.976433, 233, 161, 296, 224
-0.976439, 1, 233, 64, 296
-0.97646, 69, 209, 100, 336
-0.976597, 193, 137, 256, 200
-0.976779, 265, 193, 328, 256
-0.976811, 1, 225, 128, 288
-0.976812, 81, 193, 112, 320
-0.976825, 17, 57, 80, 120
-0.977068, 137, 65, 200, 192
-0.977163, 321, 273, 352, 336
-0.97717, 345, 129, 408, 375
-0.977286, 113, 81, 176, 144
-0.977369, 41, 185, 104, 248
-0.977737, 281, 217, 344, 280
-0.977745, 213, 33, 244, 160
-0.977797, 337, 273, 464, 336
-0.9778, 41, 209, 72, 336
-0.977877, 317, 105, 348, 168
-0.977964, 369, 113, 496, 240
-0.977969, 265, 145, 328, 208
-0.977982, 49, 65, 112, 128
-0.978022, 257, 73, 320, 136
-0.978041, 129, 33, 256, 96
-0.978077, 305, 153, 432, 216
-0.97812, 49, 65, 112, 192
-0.978143, 233, 281, 296, 344
-0.978151, 201, 1, 264, 128
-0.978202, 297, 297, 360, 360
-0.978284, 229, 249, 260, 312
-0.978324, 393, 129, 456, 375
-0.978392, 241, 153, 368, 216
-0.978406, 105, 233, 168, 296
-0.978432, 41, 161, 72, 288
-0.978482, 433, 225, 496, 288
-0.97851, 169, 289, 232, 352
-0.97855, 73, 193, 136, 256
-0.978578, 161, 249, 224, 312
-0.978579, 289, 273, 416, 336
-0.978659, 349, 273, 380, 336
-0.978801, 169, 225, 232, 288
-0.978801, 401, 225, 464, 288
-0.978953, 417, 129, 480, 375
-0.979004, 169, 65, 232, 128
-0.979042, 41, 97, 104, 352
-0.979049, 233, 129, 296, 375
-0.979084, 257, 33, 320, 160
-0.979105, 161, 97, 224, 224
-0.97916, 177, 113, 240, 176
-0.979188, 113, 257, 240, 320
-0.979253, 41, 41, 104, 104
-0.979266, 137, 161, 200, 288
-0.979296, 377, 185, 440, 248
-0.97931, 13, 225, 44, 288
-0.979382, 113, 241, 176, 368
-0.979409, 329, 241, 392, 304
-0.979517, 29, 209, 60, 336
-0.979571, 73, 153, 136, 216
-0.979606, 361, 289, 424, 352
-0.979624, 401, 273, 464, 336
-0.979637, 145, 193, 272, 320
-0.979697, 217, 209, 280, 272
-0.979722, 289, 153, 352, 216
-0.979722, 25, 289, 88, 352
-0.97974, 353, 241, 416, 304
-0.979753, 257, 121, 320, 184
-0.979783, 333, 289, 364, 352
-0.979806, 17, 209, 48, 336
-0.979959, 145, 57, 272, 120
-0.979988, 97, 57, 160, 120
-0.980099, 113, 169, 176, 232
-0.980141, 1, 225, 32, 352
-0.980174, 1, 97, 128, 224
-0.980191, 93, 209, 124, 336
-0.980202, 333, 257, 364, 320
-0.98031, 137, 49, 200, 112
-0.980392, 49, 257, 176, 320
-0.980431, 145, 105, 208, 168
-0.980452, 33, 73, 160, 136
-0.980464, 129, 25, 192, 88
-0.980533, 1, 1, 64, 256
-0.980547, 301, 89, 332, 152
-0.98055, 61, 217, 92, 280
-0.980603, 265, 273, 328, 336
-0.980659, 337, 249, 464, 312
-0.980682, 233, 33, 296, 288
-0.980683, 213, 281, 244, 344
-0.980723, 169, 1, 232, 256
-0.980814, 105, 209, 168, 272
-0.980832, 361, 257, 392, 320
-0.980843, 389, 153, 420, 216
-0.980888, 33, 89, 96, 152
-0.980918, 97, 233, 224, 296
-0.980924, 321, 97, 384, 224
-0.980941, 161, 121, 288, 184
-0.980943, 161, 249, 288, 312
-0.980953, 265, 169, 328, 232
-0.980956, 329, 129, 392, 192
-0.980968, 33, 225, 64, 288
-0.980971, 377, 193, 440, 320
-0.981023, 337, 153, 368, 216
-0.981127, 105, 265, 168, 328
-0.981279, 321, 97, 352, 224
-0.981311, 49, 233, 176, 296
-0.981355, 245, 65, 276, 192
-0.981436, 209, 249, 336, 312
-0.981463, 113, 145, 176, 208
-0.981542, 37, 169, 68, 232
-0.981612, 133, 17, 164, 144
-0.981633, 1, 201, 128, 264
-0.981666, 25, 113, 88, 240
-0.9817, 169, 201, 232, 264
-0.981757, 113, 1, 240, 64
-0.981874, 241, 81, 368, 144
-0.981992, 81, 33, 144, 96
-0.982012, 97, 105, 224, 168
-0.982088, 149, 73, 180, 136
-0.982101, 17, 1, 48, 128
-0.982126, 17, 129, 80, 375
-0.982162, 129, 265, 192, 328
-0.982194, 401, 161, 432, 224
-0.982258, 105, 209, 136, 336
-0.982306, 61, 249, 92, 312
-0.982349, 73, 1, 136, 256
-0.982428, 217, 1, 280, 375
-0.982451, 413, 177, 444, 304
-0.982513, 85, 1, 116, 128
-0.982537, 285, 193, 316, 320
-0.98257, 225, 185, 352, 248
-0.982572, 357, 241, 388, 368
-0.982588, 29, 161, 60, 288
-0.982597, 69, 161, 100, 288
-0.982599, 161, 145, 288, 208
-0.982641, 105, 33, 168, 96
-0.982777, 177, 97, 304, 160
-0.982779, 241, 281, 368, 344
-0.982784, 197, 1, 228, 64
-0.982863, 137, 1, 200, 64
-0.982887, 53, 161, 84, 288
-0.982901, 289, 249, 416, 312
-0.983015, 401, 193, 464, 256
-0.983051, 41, 1, 104, 256
-0.983061, 401, 113, 464, 240
-0.983069, 105, 33, 136, 160
-0.983163, 321, 249, 352, 312
-0.983216, 73, 65, 136, 128
-0.983222, 161, 193, 224, 320
-0.983256, 9, 105, 72, 168
-0.98328, 65, 185, 192, 248
-0.983313, 425, 193, 488, 320
-0.983356, 273, 177, 400, 240
-0.983366, 345, 145, 376, 272
-0.983424, 433, 161, 464, 288
-0.98344, 369, 153, 400, 216
-0.983452, 65, 41, 192, 104
-0.983475, 225, 49, 256, 176
-0.983518, 353, 161, 480, 224
-0.983547, 153, 1, 184, 128
-0.983585, 65, 209, 192, 272
-0.98359, 73, 97, 136, 160
-0.983611, 1, 1, 64, 375
-0.983749, 137, 113, 200, 240
-0.983791, 201, 177, 264, 240
-0.983808, 117, 1, 148, 128
-0.983837, 137, 185, 200, 248
-0.983849, 225, 209, 352, 272
-0.983853, 401, 161, 432, 288
-0.983916, 1, 249, 128, 312
-0.983918, 325, 129, 356, 192
-0.983939, 177, 1, 208, 128
-0.983953, 97, 65, 224, 128
-0.98399, 77, 225, 108, 288
-0.984003, 137, 65, 168, 192
-0.984039, 257, 65, 320, 320
-0.984055, 205, 41, 236, 104
-0.984057, 289, 89, 320, 152
-0.984147, 433, 289, 496, 352
-0.984191, 269, 177, 300, 304
-0.984196, 129, 281, 256, 344
-0.984209, 217, 249, 248, 312
-0.98421, 373, 265, 404, 328
-0.984246, 209, 193, 272, 320
-0.984307, 153, 65, 184, 192
-0.984311, 17, 169, 144, 232
-0.984434, 257, 249, 320, 312
-0.98446, 201, 1, 232, 128
-0.98447, 305, 217, 368, 280
-0.984483, 113, 121, 176, 184
-0.984486, 17, 9, 48, 72
-0.984515, 337, 297, 464, 360
-0.984533, 89, 25, 120, 88
-0.984603, 177, 281, 304, 344
-0.984641, 433, 273, 464, 336
-0.984642, 337, 225, 368, 352
-0.984667, 1, 297, 128, 360
-0.984715, 313, 185, 376, 248
-0.984765, 245, 65, 276, 128
-0.984768, 49, 225, 80, 288
-0.984776, 165, 193, 196, 256
-0.98486, 369, 145, 400, 272
-0.984885, 105, 1, 136, 64
-0.984931, 33, 113, 96, 176
-0.984948, 113, 25, 144, 88
-0.98495, 45, 25, 76, 88
-0.984967, 229, 57, 260, 120
-0.984993, 5, 297, 36, 360
-0.985003, 309, 249, 340, 312
-0.985021, 177, 209, 304, 272
-0.985051, 153, 41, 184, 104
-0.985068, 49, 281, 112, 344
-0.985069, 305, 81, 336, 208
-0.985116, 389, 145, 420, 272
-0.985186, 145, 1, 176, 64
-0.985219, 1, 257, 64, 320
-0.985261, 9, 89, 40, 152
-0.985274, 117, 193, 148, 320
-0.985316, 61, 9, 92, 72
-0.985325, 273, 297, 336, 360
-0.985354, 249, 161, 280, 224
-0.985395, 33, 1, 160, 64
-0.985426, 193, 249, 224, 312
-0.985443, 1, 177, 32, 304
-0.985497, 353, 177, 416, 240
-0.985514, 9, 97, 40, 224
-0.985538, 389, 241, 420, 368
-0.985565, 73, 129, 136, 192
-0.985582, 49, 249, 80, 312
-0.985585, 273, 209, 400, 272
-0.985602, 193, 73, 320, 136
-0.985628, 289, 113, 416, 176
-0.985702, 29, 145, 60, 208
-0.985704, 321, 153, 352, 216
-0.985706, 301, 225, 332, 352
-0.985711, 81, 241, 112, 368
-0.985735, 33, 97, 160, 160
-0.985754, 105, 49, 136, 112
-0.985775, 249, 113, 280, 240
-0.985783, 309, 273, 340, 336
-0.985799, 173, 49, 204, 112
-0.985835, 389, 257, 420, 320
-0.985878, 157, 1, 188, 64
-0.9859, 165, 25, 196, 88
-0.985903, 133, 49, 164, 112
-0.985903, 49, 161, 80, 224
-0.985908, 345, 249, 376, 312
-0.985921, 209, 1, 336, 128
-0.985939, 337, 185, 464, 248
-0.986019, 425, 225, 456, 352
-0.986039, 177, 169, 304, 232
-0.986065, 361, 281, 392, 344
-0.986066, 209, 1, 272, 64
-0.986117, 17, 121, 144, 184
-0.986229, 357, 145, 388, 272
-0.986235, 289, 297, 416, 360
-0.986303, 89, 97, 152, 352
-0.986397, 53, 1, 84, 128
-0.986401, 1, 49, 128, 112
-0.98641, 229, 225, 260, 288
-0.986443, 157, 225, 188, 288
-0.98654, 201, 129, 264, 375
-0.986603, 193, 201, 256, 264
-0.986618, 1, 9, 32, 72
-0.986679, 33, 145, 160, 208
-0.986783, 13, 145, 44, 272
-0.986858, 145, 1, 208, 256
-0.986861, 169, 137, 232, 200
-0.986862, 217, 49, 248, 112
-0.986898, 137, 81, 168, 144
-0.986901, 1, 17, 32, 144
-0.986914, 349, 161, 380, 224
-0.986927, 169, 233, 200, 296
-0.986939, 425, 161, 456, 224
-0.986939, 281, 241, 312, 368
-0.986984, 213, 225, 244, 352
-0.987005, 225, 289, 256, 352
-0.987031, 165, 49, 196, 176
-0.987068, 329, 145, 360, 272
-0.987108, 93, 97, 124, 224
-0.98714, 97, 1, 160, 256
-0.987194, 93, 49, 124, 176
-0.987209, 249, 257, 280, 320
-0.987219, 181, 225, 212, 288
-0.98724, 269, 185, 300, 248
-0.987254, 89, 225, 120, 288
-0.9873, 113, 81, 144, 208
-0.987315, 377, 193, 408, 320
-0.98732, 41, 17, 72, 144
-0.987365, 393, 137, 456, 200
-0.987382, 269, 241, 300, 368
-0.98744, 13, 201, 44, 264
-0.987471, 113, 129, 240, 192
-0.98752, 77, 41, 108, 104
-0.987564, 41, 1, 104, 375
-0.987597, 93, 161, 124, 288
-0.987599, 89, 1, 152, 375
-0.987671, 425, 193, 456, 256
-0.987692, 177, 129, 240, 375
-0.987699, 213, 225, 244, 288
-0.987757, 137, 129, 200, 192
-0.987833, 185, 1, 248, 375
-0.987872, 97, 105, 128, 168
-0.9879, 33, 65, 64, 192
-0.987913, 1, 153, 32, 216
-0.987948, 145, 201, 176, 264
-0.987948, 445, 241, 476, 368
-0.987996, 441, 161, 472, 224
-0.98802, 413, 161, 444, 224
-0.988021, 445, 145, 476, 272
-0.988053, 1, 273, 128, 336
-0.988056, 173, 89, 204, 152
-0.988102, 353, 217, 416, 280
-0.988109, 133, 1, 164, 64
-0.988161, 285, 201, 316, 264
-0.988224, 113, 97, 144, 160
-0.988236, 17, 289, 48, 352
-0.988269, 9, 33, 40, 96
-0.988377, 13, 113, 44, 176
-0.988379, 57, 57, 88, 120
-0.988418, 133, 129, 164, 256
-0.988425, 137, 161, 200, 224
-0.98845, 201, 225, 232, 352
-0.988463, 49, 81, 80, 208
-0.98848, 369, 241, 400, 368
-0.988503, 205, 257, 236, 320
-0.988546, 389, 193, 420, 320
-0.988557, 153, 113, 184, 240
-0.988573, 193, 25, 224, 88
-0.988628, 93, 257, 124, 320
-0.988734, 361, 193, 392, 320
-0.988772, 161, 145, 224, 272
-0.988782, 9, 237, 72, 268
-0.988793, 201, 25, 264, 88
-0.988808, 133, 169, 164, 232
-0.988828, 29, 17, 60, 144
-0.988843, 249, 233, 280, 296
-0.988845, 253, 161, 284, 288
-0.988846, 65, 305, 128, 368
-0.98886, 413, 185, 444, 248
-0.988876, 193, 49, 320, 112
-0.988894, 141, 177, 172, 304
-0.988903, 85, 89, 116, 152
-0.988914, 97, 161, 224, 224
-0.988926, 433, 185, 496, 248
-0.98894, 33, 193, 64, 256
-0.988947, 377, 97, 440, 224
-0.988955, 117, 73, 148, 136
-0.988955, 141, 257, 172, 320
-0.988986, 413, 129, 444, 256
-0.989004, 89, 1, 120, 64
-0.98901, 321, 241, 352, 368
-0.989012, 205, 113, 236, 240
-0.98902, 433, 313, 496, 375
-0.989036, 193, 9, 320, 72
-0.989055, 457, 145, 488, 272
-0.989056, 113, 201, 240, 264
-0.989063, 137, 105, 168, 168
-0.989074, 469, 161, 500, 288
-0.98908, 1, 233, 32, 296
-0.989169, 113, 145, 144, 208
-0.989178, 289, 1, 352, 375
-0.989186, 113, 129, 176, 375
-0.989215, 337, 121, 368, 184
-0.989225, 265, 97, 296, 224
-0.989231, 253, 185, 284, 248
-0.989252, 125, 65, 156, 192
-0.98926, 37, 297, 68, 360
-0.989282, 137, 25, 168, 88
-0.989317, 369, 277, 432, 308
-0.989327, 113, 1, 176, 375
-0.989329, 269, 97, 300, 160
-0.989391, 61, 273, 92, 336
-0.98943, 205, 105, 236, 168
-0.989482, 65, 1, 96, 128
-0.989492, 329, 265, 392, 296
-0.989516, 1, 169, 64, 200
-0.989531, 165, 1, 196, 128
-0.989533, 77, 185, 108, 248
-0.989552, 269, 241, 300, 304
-0.989562, 53, 137, 84, 200
-0.989611, 337, 285, 400, 316
-0.989614, 305, 113, 336, 176
-0.989624, 45, 201, 76, 264
-0.989625, 305, 277, 368, 308
-0.989628, 433, 249, 464, 312
-0.989643, 41, 1, 72, 64
-0.989655, 145, 1, 208, 375
-0.989657, 245, 137, 276, 200
-0.989801, 13, 153, 44, 216
-0.989814, 465, 241, 496, 368
-0.989816, 369, 265, 432, 296
-0.989822, 213, 81, 244, 144
-0.989862, 9, 21, 72, 52
-0.989867, 89, 289, 152, 352
-0.989877, 117, 1, 148, 64
-0.989879, 105, 161, 136, 288
-0.989906, 13, 249, 44, 312
-0.989932, 469, 169, 500, 232
-0.989935, 37, 249, 68, 312
-0.989946, 249, 241, 280, 368
-0.989965, 373, 289, 404, 352
-0.989971, 313, 289, 376, 320
-0.989985, 273, 285, 336, 316
-0.989987, 129, 209, 160, 336
-0.989991, 49, 289, 176, 352
-0.989993, 225, 225, 256, 352
-0.990005, 265, 1, 328, 375
-0.990006, 257, 281, 288, 344
-0.990064, 201, 49, 232, 176
-0.990101, 421, 273, 452, 336
-0.990134, 1, 193, 32, 256
-0.990138, 85, 65, 116, 128
-0.990154, 9, 181, 72, 212
-0.990166, 313, 297, 344, 360
-0.990186, 77, 129, 108, 192
-0.990217, 213, 177, 244, 304
-0.990266, 81, 49, 112, 176
-0.990325, 169, 1, 232, 32
-0.990336, 313, 1, 376, 375
-0.990344, 33, 169, 96, 200
-0.990358, 41, 21, 104, 52
-0.990391, 41, 33, 104, 64
-0.990401, 289, 113, 352, 144
-0.990404, 17, 25, 144, 88
-0.990405, 49, 313, 176, 375
-0.990435, 33, 113, 64, 240
-0.990458, 313, 161, 376, 192
-0.990471, 369, 157, 432, 188
-0.990475, 41, 229, 104, 260
-0.990521, 217, 85, 280, 116
-0.990585, 409, 225, 440, 352
-0.990591, 185, 285, 248, 316
-0.990597, 313, 193, 344, 320
-0.990616, 241, 1, 304, 375
-0.990645, 9, 225, 72, 256
-0.990651, 189, 65, 220, 192
-0.990654, 337, 225, 464, 288
-0.990656, 33, 181, 96, 212
-0.990658, 217, 109, 280, 140
-0.990697, 9, 157, 72, 188
-0.990731, 169, 17, 232, 48
-0.99076, 393, 277, 456, 308
-0.990768, 217, 73, 280, 104
-0.990796, 281, 49, 344, 176
-0.9908, 297, 177, 328, 304
-0.990804, 185, 241, 248, 272
-0.990812, 257, 105, 320, 136
-0.990838, 289, 101, 352, 132
-0.990843, 193, 49, 256, 80
-0.990843, 257, 89, 320, 120
-0.990862, 281, 273, 344, 304
-0.990894, 9, 9, 72, 40
-0.990898, 13, 49, 44, 176
-0.990903, 229, 145, 260, 272
-0.990927, 433, 169, 496, 200
-0.990949, 81, 145, 112, 272
-0.990955, 145, 237, 208, 268
-0.990974, 145, 305, 272, 368
-0.990987, 297, 145, 360, 176
-0.99102, 201, 61, 264, 92
-0.99107, 217, 129, 280, 160
-0.991072, 177, 121, 240, 152
-0.991086, 65, 257, 128, 288
-0.991102, 337, 161, 400, 192
-0.991107, 297, 125, 360, 156
-0.991152, 313, 33, 376, 288
-0.991171, 177, 73, 240, 104
-0.991172, 445, 193, 476, 320
-0.99118, 33, 253, 96, 284
-0.991193, 41, 157, 104, 188
-0.991207, 217, 145, 280, 176
-0.991216, 369, 289, 432, 320
-0.991223, 9, 33, 72, 64
-0.991231, 393, 165, 456, 196
-0.991262, 145, 97, 208, 352
-0.991272, 1, 333, 64, 364
-0.991284, 393, 289, 456, 320
-0.991312, 97, 1, 160, 32
-0.991325, 233, 285, 296, 316
-0.991326, 49, 289, 112, 320
-0.991385, 241, 305, 368, 368
-0.991388, 217, 157, 280, 188
-0.991401, 105, 265, 168, 296
-0.991411, 177, 97, 240, 128
-0.991421, 1, 85, 64, 116
-0.991447, 177, 37, 240, 68
-0.991447, 73, 37, 136, 68
-0.991455, 73, 213, 136, 244
-0.991459, 393, 261, 456, 292
-0.991468, 217, 97, 280, 128
-0.991471, 265, 193, 328, 224
-0.991474, 337, 297, 400, 328
-0.991481, 393, 189, 456, 220
-0.991488, 349, 193, 380, 320
-0.991494, 185, 253, 248, 284
-0.991508, 305, 265, 368, 296
-0.991516, 209, 257, 272, 288
-0.99152, 273, 177, 336, 208
-0.991524, 305, 89, 432, 152
-0.991539, 9, 113, 72, 144
-0.991541, 49, 89, 112, 120
-0.991543, 89, 85, 152, 116
-0.991543, 121, 97, 184, 128
-0.991562, 73, 233, 136, 264
-0.991564, 25, 89, 88, 120
-0.991576, 161, 241, 192, 368
-0.991587, 73, 169, 136, 200
-0.99159, 145, 1, 208, 32
-0.991591, 417, 285, 480, 316
-0.991593, 233, 245, 296, 276
-0.991605, 49, 9, 112, 40
-0.991625, 33, 337, 96, 368
-0.99164, 257, 145, 320, 176
-0.991644, 177, 61, 240, 92
-0.991653, 225, 97, 256, 224
-0.991661, 113, 85, 176, 116
-0.991666, 161, 85, 224, 116
-0.991674, 257, 125, 320, 156
-0.991675, 33, 241, 96, 272
-0.991676, 145, 253, 208, 284
-0.991681, 1, 45, 64, 76
-0.991681, 161, 221, 224, 252
-0.991694, 17, 297, 80, 328
-0.991695, 169, 273, 232, 304
-0.991717, 161, 109, 224, 140
-0.991724, 177, 133, 240, 164
-0.991724, 121, 217, 184, 248
-0.991727, 353, 253, 416, 284
-0.99174, 433, 269, 496, 300
-0.991742, 1, 217, 256, 280
-0.991746, 1, 97, 64, 128
-0.991747, 225, 173, 288, 204
-0.991753, 81, 25, 144, 56
-0.991778, 73, 97, 136, 128
-0.99178, 121, 181, 184, 212
-0.991796, 393, 177, 456, 208
-0.991809, 289, 297, 352, 328
-0.991828, 145, 225, 176, 352
-0.991831, 145, 121, 208, 152
-0.991835, 1, 193, 64, 224
-0.991846, 41, 45, 104, 76
-0.991849, 241, 193, 304, 224
-0.99186, 41, 217, 104, 248
-0.99187, 49, 101, 112, 132
-0.991877, 321, 145, 384, 176
-0.991879, 49, 61, 112, 92
-0.991892, 97, 57, 160, 88
-0.991895, 225, 273, 288, 304
-0.991913, 145, 265, 208, 296
-0.991921, 209, 285, 272, 316
-0.991938, 105, 281, 168, 312
-0.991957, 313, 193, 376, 224
-0.991957, 433, 181, 496, 212
-0.991962, 105, 253, 168, 284
-0.991967, 417, 225, 480, 256
-0.991969, 9, 213, 72, 244
-0.991975, 137, 17, 200, 48
-0.991978, 273, 245, 336, 276
-0.99198, 9, 73, 72, 104
-0.991982, 313, 253, 376, 284
-0.991999, 305, 181, 368, 212
-0.992001, 257, 281, 500, 344
-0.992059, 225, 153, 480, 216
-0.99211, 161, 281, 416, 344
-0.992135, 193, 313, 320, 375
-0.992214, 241, 57, 368, 120
-0.992238, 121, 129, 152, 256
-0.992262, 165, 193, 196, 320
-0.992342, 65, 97, 128, 352
-0.992407, 257, 49, 384, 176
-0.992435, 13, 237, 44, 268
-0.992475, 381, 277, 412, 308
-0.992482, 333, 97, 364, 224
-0.992505, 65, 1, 128, 375
-0.992514, 237, 241, 268, 368
-0.992544, 325, 193, 356, 320
-0.992557, 33, 17, 288, 80
-0.99257, 345, 1, 408, 375
-0.992574, 37, 161, 68, 192
-0.992604, 361, 265, 392, 296
-0.99262, 213, 285, 244, 316
-0.992645, 321, 109, 352, 140
-0.992655, 237, 193, 268, 320
-0.99267, 337, 277, 368, 308
-0.992673, 381, 153, 412, 184
-0.992676, 281, 285, 312, 316
-0.992694, 321, 277, 352, 308
-0.992729, 393, 277, 424, 308
-0.992732, 301, 93, 332, 124
-0.992765, 389, 265, 420, 296
-0.992765, 153, 69, 184, 100
-0.99279, 353, 281, 384, 312
-0.992802, 345, 265, 376, 296
-0.992806, 353, 137, 480, 200
-0.992819, 333, 265, 364, 296
-0.992836, 113, 1, 144, 32
-0.992852, 49, 161, 80, 192
-0.992852, 133, 61, 164, 92
-0.992854, 85, 37, 116, 68
-0.992858, 337, 161, 368, 192
-0.992859, 377, 265, 408, 296
-0.992872, 37, 173, 68, 204
-0.992872, 269, 193, 300, 224
-0.99289, 25, 237, 56, 268
-0.992901, 61, 233, 92, 264
-0.992913, 145, 17, 176, 48
-0.992918, 165, 81, 196, 112
-0.99292, 213, 273, 244, 304
-0.992929, 13, 105, 44, 136
-0.992934, 309, 285, 340, 316
-0.992934, 89, 109, 120, 140
-0.992952, 133, 1, 164, 32
-0.992959, 297, 285, 328, 316
-0.99296, 197, 25, 228, 56
-0.992962, 109, 109, 140, 140
-0.992964, 41, 17, 72, 48
-0.992975, 53, 21, 84, 52
-0.992976, 153, 29, 184, 60
-0.992976, 133, 261, 164, 292
-0.99298, 369, 281, 400, 312
-0.992983, 393, 161, 424, 192
-0.992986, 53, 253, 84, 284
-0.992996, 429, 169, 460, 200
-0.992999, 449, 165, 480, 196
-0.992999, 113, 45, 144, 76
-0.993004, 405, 181, 436, 212
-0.993007, 405, 277, 436, 308
-0.993008, 145, 257, 176, 288
-0.993009, 197, 1, 228, 32
-0.993018, 189, 1, 220, 128
-0.99302, 337, 289, 368, 320
-0.993025, 405, 161, 436, 192
-0.993027, 133, 73, 164, 104
-0.993033, 61, 281, 92, 312
-0.993039, 145, 81, 176, 112
-0.993041, 225, 53, 256, 84
-0.993044, 421, 189, 452, 220
-0.993044, 213, 49, 244, 80
-0.993045, 321, 121, 352, 152
-0.993046, 69, 29, 100, 60
-0.993048, 289, 89, 320, 120
-0.993048, 249, 97, 280, 128
-0.99305, 325, 153, 356, 184
-0.99305, 21, 97, 52, 224
-0.993053, 197, 13, 228, 44
-0.993054, 165, 29, 196, 60
-0.993058, 77, 169, 108, 200
-0.993061, 317, 189, 348, 220
-0.993062, 49, 289, 80, 320
-0.993068, 249, 153, 280, 184
-0.99307, 97, 1, 128, 32
-0.993075, 61, 9, 92, 40
-0.993076, 377, 293, 408, 324
-0.993078, 417, 277, 448, 308
-0.993078, 89, 25, 120, 56
-0.993081, 9, 85, 40, 116
-0.993083, 45, 33, 76, 64
-0.993087, 137, 49, 168, 80
-0.993087, 313, 297, 344, 328
-0.993089, 37, 229, 68, 260
-0.993091, 113, 57, 144, 88
-0.993098, 193, 93, 224, 124
-0.9931, 65, 169, 96, 200
-0.993101, 97, 45, 128, 76
-0.993103, 349, 161, 380, 192
-0.993104, 325, 297, 356, 328
-0.993107, 133, 113, 164, 144
-0.993108, 173, 93, 204, 124
-0.993108, 69, 269, 100, 300
-0.993114, 361, 161, 392, 192
-0.993116, 241, 69, 272, 100
-0.993119, 113, 281, 144, 312
-0.993122, 49, 233, 80, 264
-0.993123, 157, 133, 188, 164
-0.993123, 25, 225, 56, 256
-0.993125, 309, 105, 340, 136
-0.99313, 97, 125, 128, 156
-0.993131, 153, 185, 184, 216
-0.993131, 185, 1, 216, 32
-0.993133, 469, 169, 500, 200
-0.993134, 433, 273, 464, 304
-0.993138, 57, 85, 88, 116
-0.993141, 193, 245, 224, 276
-0.993143, 161, 249, 416, 312
-0.993145, 293, 273, 324, 304
-0.993145, 229, 257, 260, 288
-0.993145, 401, 265, 432, 296
-0.993148, 5, 117, 36, 148
-0.993148, 225, 289, 256, 320
-0.993148, 77, 49, 108, 80
-0.993148, 249, 113, 280, 144
-0.993151, 229, 245, 260, 276
-0.993152, 157, 5, 188, 36
-0.993153, 37, 245, 68, 276
-0.993156, 193, 77, 224, 108
-0.993156, 309, 269, 340, 300
-0.993159, 13, 21, 44, 52
-0.993159, 277, 273, 308, 304
-0.993161, 9, 333, 40, 364
-0.993162, 197, 285, 228, 316
-0.993163, 173, 45, 204, 76
-0.993164, 49, 177, 80, 208
-0.993166, 257, 189, 288, 220
-0.993169, 213, 85, 244, 116
-0.993173, 133, 185, 164, 216
-0.993173, 213, 249, 244, 280
-0.993176, 389, 289, 420, 320
-0.993177, 9, 217, 40, 248
-0.993177, 157, 237, 188, 268
-0.993179, 325, 165, 356, 196
-0.993181, 37, 85, 68, 116
-0.993185, 153, 177, 184, 304
-0.993239, 65, 65, 320, 128
-0.993255, 61, 113, 92, 240
-0.993258, 237, 17, 268, 144
-0.99335, 361, 33, 424, 288
-0.993445, 429, 113, 460, 240
-0.993455, 345, 97, 376, 224
-0.993519, 293, 97, 324, 224
-0.993526, 433, 97, 496, 224
-0.993585, 241, 109, 368, 140
-0.993698, 69, 49, 100, 176
-0.993709, 189, 225, 220, 352
-0.993733, 129, 89, 384, 152
-0.993837, 385, 1, 448, 375
-0.993848, 1, 273, 256, 336
-0.993979, 241, 149, 368, 180
-0.994057, 177, 65, 208, 192
-0.994065, 321, 285, 448, 316
-0.994158, 193, 113, 224, 240
-0.994179, 225, 129, 480, 192
-0.99423, 33, 41, 288, 104
-0.99423, 401, 113, 432, 240
-0.994259, 305, 273, 432, 304
-0.994314, 1, 281, 500, 344
-0.994326, 327, 105, 342, 168
-0.994447, 97, 305, 224, 368
-0.994533, 433, 1, 496, 375
-0.994619, 321, 49, 448, 176
-0.994627, 1, 249, 256, 312
-0.99464, 257, 201, 500, 264
-0.994661, 33, 297, 288, 360
-0.994722, 225, 97, 352, 128
-0.994733, 173, 129, 204, 256
-0.994734, 65, 113, 320, 176
-0.994792, 285, 145, 316, 272
-0.994807, 1, 233, 128, 264
-0.994809, 49, 161, 64, 224
-0.994844, 225, 285, 352, 316
-0.99485, 257, 257, 500, 320
-0.994853, 315, 97, 330, 160
-0.994857, 73, 225, 88, 288
-0.994961, 273, 289, 400, 320
-0.994975, 241, 137, 368, 168
-0.994977, 65, 153, 320, 216
-0.994994, 345, 257, 360, 320
-0.994997, 177, 225, 208, 352
-0.994999, 389, 97, 420, 224
-0.995015, 305, 157, 432, 188
-0.99504, 121, 33, 184, 288
-0.995061, 353, 81, 416, 208
-0.99508, 241, 121, 368, 152
-0.995091, 225, 1, 288, 128
-0.995123, 77, 97, 108, 224
-0.995144, 409, 1, 472, 375
-0.995157, 369, 289, 496, 320
-0.995186, 145, 53, 272, 84
-0.995272, 333, 113, 348, 176
-0.995273, 113, 1, 240, 32
-0.995293, 403, 153, 418, 216
-0.995334, 75, 257, 90, 320
-0.995338, 337, 273, 352, 336
-0.995345, 151, 81, 166, 144
-0.995354, 307, 89, 322, 152
-0.995386, 113, 273, 240, 304
-0.995412, 225, 105, 480, 168
-0.995421, 27, 233, 42, 296
-0.995443, 353, 257, 368, 320
-0.995461, 337, 261, 464, 292
-0.995464, 79, 225, 94, 288
-0.995506, 113, 17, 240, 48
-0.995513, 81, 237, 208, 268
-0.995535, 289, 65, 416, 128
-0.995547, 161, 225, 416, 288
-0.995593, 61, 249, 76, 312
-0.99565, 33, 69, 160, 100
-0.995692, 67, 225, 82, 288
-0.995713, 97, 61, 224, 92
-0.995753, 241, 33, 368, 96
-0.995754, 107, 49, 122, 112
-0.995756, 1, 89, 256, 152
-0.995757, 53, 17, 68, 80
-0.995769, 417, 33, 480, 288
-0.995777, 379, 265, 394, 328
-0.995782, 317, 145, 348, 272
-0.995788, 213, 17, 228, 80
-0.995801, 325, 273, 340, 336
-0.995818, 219, 41, 234, 104
-0.995848, 353, 153, 368, 216
-0.995855, 373, 265, 388, 328
-0.995865, 19, 233, 34, 296
-0.995888, 1, 249, 500, 312
-0.995892, 17, 165, 144, 196
-0.995901, 221, 273, 236, 336
-0.995912, 369, 97, 400, 224
-0.995919, 261, 97, 276, 160
-0.995923, 349, 289, 364, 352
-0.995925, 35, 225, 50, 288
-0.995933, 161, 69, 288, 100
-0.995938, 45, 225, 60, 288
-0.995944, 161, 105, 288, 136
-0.995959, 129, 41, 256, 72
-0.995962, 229, 49, 244, 112
-0.995964, 69, 257, 84, 320
-0.99597, 161, 201, 416, 264
-0.995972, 333, 249, 348, 312
-0.995992, 353, 273, 480, 304
-0.995992, 85, 225, 100, 288
-0.995994, 157, 65, 172, 128
-0.995995, 419, 161, 434, 224
-0.995998, 59, 225, 74, 288
-0.996003, 431, 161, 446, 224
-0.996007, 353, 301, 480, 332
-0.996009, 161, 177, 416, 240
-0.996013, 259, 65, 274, 128
-0.996021, 27, 209, 42, 272
-0.996028, 241, 161, 368, 192
-0.996034, 337, 153, 352, 216
-0.996035, 1, 153, 500, 216
-0.996035, 33, 41, 160, 72
-0.996037, 355, 281, 370, 344
-0.996038, 111, 1, 126, 64
-0.996044, 337, 33, 400, 288
-0.996047, 247, 257, 262, 320
-0.996066, 339, 121, 354, 184
-0.996066, 11, 81, 26, 144
-0.996084, 361, 161, 376, 224
-0.996099, 107, 113, 122, 176
-0.996104, 343, 153, 358, 216
-0.996121, 241, 185, 368, 216
-0.996134, 113, 105, 240, 136
-0.996137, 161, 289, 288, 320
-0.996142, 53, 225, 68, 288
-0.996156, 331, 273, 346, 336
-0.996172, 281, 1, 344, 256
-0.996191, 21, 209, 36, 272
-0.996196, 283, 193, 298, 256
-0.9962, 397, 153, 412, 216
-0.996201, 55, 161, 70, 224
-0.996204, 359, 257, 374, 320
-0.996218, 13, 233, 28, 296
-0.996225, 9, 153, 24, 216
-0.996234, 257, 305, 500, 368
-0.996238, 313, 281, 328, 344
-0.996238, 33, 57, 160, 88
-0.996245, 161, 9, 416, 72
-0.996257, 65, 121, 192, 152
-0.996258, 113, 97, 128, 160
-0.996273, 403, 257, 418, 320
-0.99628, 179, 225, 194, 288
-0.996282, 65, 177, 320, 240
-0.996282, 367, 257, 382, 320
-0.996285, 321, 105, 336, 168
-0.996296, 161, 117, 288, 148
-0.996311, 189, 225, 204, 288
-0.996313, 217, 249, 232, 312
-0.996313, 1, 225, 500, 288
-0.996331, 261, 137, 276, 200
-0.996332, 367, 153, 382, 216
-0.996335, 249, 65, 264, 128
-0.996336, 229, 281, 244, 344
-0.996348, 209, 273, 336, 304
-0.996349, 257, 177, 500, 240
-0.996353, 161, 253, 288, 284
-0.996359, 9, 297, 24, 360
-0.99636, 369, 165, 496, 196
-0.996362, 19, 9, 34, 72
-0.996364, 151, 57, 166, 120
-0.996385, 65, 221, 192, 252
-0.996394, 113, 33, 128, 96
-0.996408, 273, 261, 400, 292
-0.996408, 83, 33, 98, 96
-0.996416, 49, 153, 176, 184
-0.99642, 113, 117, 240, 148
-0.996423, 177, 85, 304, 116
-0.996426, 177, 25, 192, 88
-0.996428, 101, 105, 116, 168
-0.996432, 235, 257, 250, 320
-0.996449, 273, 201, 400, 232
-0.996457, 1, 289, 16, 352
-0.996469, 199, 105, 214, 168
-0.996473, 343, 289, 358, 352
-0.996477, 157, 33, 172, 96
-0.99648, 17, 253, 144, 284
-0.996484, 363, 281, 378, 344
-0.996507, 219, 73, 234, 136
-0.996511, 305, 145, 432, 176
-0.996514, 109, 73, 124, 136
-0.996516, 337, 189, 464, 220
-0.99652, 151, 33, 166, 96
-0.996521, 269, 257, 284, 320
-0.996521, 323, 249, 338, 312
-0.996521, 33, 81, 160, 112
-0.996522, 1, 305, 500, 368
-0.996524, 113, 29, 240, 60
-0.996535, 41, 137, 56, 200
-0.996537, 33, 5, 160, 36
-0.996551, 243, 57, 258, 120
-0.996566, 81, 261, 208, 292
-0.996574, 129, 1, 144, 64
-0.996576, 211, 249, 226, 312
-0.99658, 209, 89, 224, 152
-0.996581, 241, 225, 256, 288
-0.996582, 411, 161, 426, 224
-0.996583, 177, 153, 304, 184
-0.996584, 1, 25, 128, 56
-0.996585, 235, 225, 250, 288
-0.996587, 289, 301, 416, 332
-0.996593, 437, 193, 452, 256
-0.996601, 209, 41, 224, 104
-0.996602, 61, 25, 76, 88
-0.996604, 161, 305, 416, 368
-0.996608, 151, 145, 166, 208
-0.996621, 327, 145, 342, 208
-0.996624, 101, 41, 116, 104
-0.996625, 183, 49, 198, 112
-0.996625, 431, 273, 446, 336
-0.996626, 275, 185, 290, 248
-0.996637, 219, 113, 234, 176
-0.996642, 241, 173, 368, 204
-0.996643, 113, 73, 240, 104
-0.996646, 53, 89, 68, 152
-0.996649, 65, 25, 192, 56
-0.996665, 49, 185, 64, 248
-0.996666, 105, 1, 120, 64
-0.996671, 257, 273, 384, 304
-0.996675, 199, 73, 214, 136
-0.996683, 33, 97, 160, 128
-0.996692, 211, 273, 226, 336
-0.996696, 49, 161, 64, 192
-0.996698, 159, 1, 174, 64
-0.996704, 101, 81, 116, 144
-0.99672, 9, 113, 24, 176
-0.996721, 307, 281, 322, 344
-0.996724, 1, 221, 128, 252
-0.996728, 485, 169, 500, 232
-0.996729, 319, 273, 334, 336
-0.996733, 391, 145, 406, 208
-0.996744, 127, 33, 142, 96
-0.996748, 241, 257, 256, 320
-0.996753, 161, 133, 288, 164
-0.996762, 81, 85, 208, 116
-0.996765, 209, 65, 224, 128
-0.996775, 131, 65, 146, 128
-0.996781, 257, 249, 272, 312
-0.996781, 125, 73, 140, 136
-0.996794, 65, 209, 192, 240
-0.996797, 445, 161, 460, 224
-0.996801, 257, 225, 500, 288
-0.996802, 241, 249, 368, 280
-0.996807, 151, 257, 166, 320
-0.996812, 177, 173, 304, 204
-0.996819, 171, 81, 186, 144
-0.996821, 51, 249, 66, 312
-0.996831, 157, 121, 172, 184
-0.996833, 51, 137, 66, 200
-0.996843, 33, 109, 160, 140
-0.996924, 113, 185, 240, 216
-0.996935, 357, 129, 388, 375
-0.996948, 17, 281, 144, 312
-0.99698, 1, 341, 128, 372
-0.996987, 1, 121, 500, 184
-0.996998, 161, 65, 416, 128
-0.997004, 345, 129, 376, 375
-0.997005, 193, 189, 320, 220
-0.997009, 193, 237, 320, 268
-0.997029, 273, 217, 400, 248
-0.99707, 225, 213, 352, 244
-0.997074, 65, 185, 192, 216
-0.997089, 369, 129, 400, 375
-0.997094, 289, 185, 416, 216
-0.997098, 129, 237, 256, 268
-0.997118, 245, 33, 276, 288
-0.997125, 353, 249, 480, 280
-0.997126, 113, 285, 240, 316
-0.997176, 221, 33, 252, 288
-0.997194, 353, 205, 480, 236
-0.997196, 385, 33, 448, 288
-0.997202, 337, 177, 464, 208
-0.997238, 225, 201, 352, 232
-0.997238, 225, 225, 352, 256
-0.997248, 113, 169, 240, 200
-0.997277, 1, 97, 500, 160
-0.997301, 329, 129, 360, 375
-0.99731, 317, 97, 348, 352
-0.997312, 161, 269, 288, 300
-0.997339, 305, 65, 336, 320
-0.997356, 449, 129, 480, 375
-0.997388, 145, 225, 272, 256
-0.997398, 65, 173, 192, 204
-0.997399, 429, 129, 460, 375
-0.997422, 399, 157, 414, 188
-0.997432, 381, 129, 412, 375
-0.99745, 225, 85, 352, 116
-0.99746, 395, 277, 410, 308
-0.997469, 81, 49, 208, 80
-0.997471, 401, 269, 416, 300
-0.997485, 335, 113, 350, 144
-0.997486, 1, 1, 500, 64
-0.997492, 1, 177, 128, 208
-0.997518, 409, 129, 440, 375
-0.997521, 397, 129, 428, 375
-0.997524, 273, 237, 400, 268
-0.997525, 45, 129, 76, 375
-0.997527, 1, 137, 128, 168
-0.99753, 129, 89, 256, 120
-0.997556, 145, 301, 272, 332
-0.997562, 305, 121, 432, 152
-0.997571, 15, 237, 30, 268
-0.997589, 17, 301, 144, 332
-0.997599, 55, 17, 70, 48
-0.997606, 17, 125, 144, 156
-0.997607, 1, 201, 500, 264
-0.997616, 113, 157, 240, 188
-0.997641, 1, 49, 500, 112
-0.997652, 65, 273, 192, 304
-0.997656, 317, 101, 332, 132
-0.997663, 193, 33, 448, 96
-0.997692, 13, 1, 44, 256
-0.997697, 205, 33, 236, 288
-0.997699, 389, 277, 404, 308
-0.9977, 49, 141, 176, 172
-0.997705, 289, 169, 416, 200
-0.997712, 323, 105, 338, 136
-0.997719, 329, 109, 344, 140
-0.997745, 75, 261, 90, 292
-0.997746, 97, 249, 224, 280
-0.997754, 353, 153, 480, 184
-0.997758, 289, 133, 416, 164
-0.997773, 1, 25, 500, 88
-0.997777, 307, 93, 322, 124
-0.997786, 407, 161, 422, 192
-0.997789, 411, 277, 426, 308
-0.997794, 113, 137, 240, 168
-0.997808, 53, 1, 84, 256
-0.997818, 325, 277, 340, 308
-0.997827, 67, 253, 82, 284
-0.997834, 383, 281, 398, 312
-0.997836, 145, 205, 272, 236
-0.997841, 241, 317, 368, 348
-0.997843, 193, 33, 320, 64
-0.997856, 113, 105, 128, 136
-0.997856, 149, 253, 164, 284
-0.997887, 1, 201, 128, 232
-0.997889, 29, 33, 60, 288
-0.99789, 227, 289, 242, 320
-0.997894, 259, 97, 274, 128
-0.997896, 35, 237, 50, 268
-0.9979, 355, 281, 370, 312
-0.997901, 393, 153, 408, 184
-0.997902, 149, 1, 180, 256
-0.997911, 1, 153, 128, 184
-0.997911, 401, 285, 416, 316
-0.997913, 337, 313, 464, 344
-0.997914, 41, 169, 56, 200
-0.997925, 49, 197, 176, 228
-0.99794, 233, 33, 264, 288
-0.997946, 33, 129, 64, 375
-0.997948, 67, 281, 82, 312
-0.997954, 257, 49, 500, 176
-0.997955, 211, 13, 226, 44
-0.997955, 241, 305, 368, 336
-0.997955, 265, 129, 296, 375
-0.99796, 347, 277, 362, 308
-0.997961, 135, 61, 150, 92
-0.997967, 47, 237, 62, 268
-0.997971, 145, 329, 272, 360
-0.997975, 193, 321, 320, 352
-0.997976, 209, 73, 336, 104
-0.997986, 27, 237, 42, 268
-0.997991, 291, 281, 306, 312
-0.997995, 103, 109, 118, 140
-0.997996, 79, 249, 94, 280
-0.998001, 49, 181, 64, 212
-0.998005, 289, 109, 416, 140
-0.998007, 293, 97, 324, 352
-0.998015, 361, 265, 376, 296
-0.998019, 313, 285, 328, 316
-0.998019, 335, 273, 350, 304
-0.998025, 355, 269, 370, 300
-0.998036, 395, 265, 410, 296
-0.99804, 21, 237, 36, 268
-0.998042, 129, 1, 144, 32
-0.998047, 235, 241, 250, 272
-0.998049, 193, 301, 320, 332
-0.998059, 149, 185, 164, 216
-0.998065, 461, 129, 492, 375
-0.998066, 41, 237, 56, 268
-0.998068, 213, 285, 228, 316
-0.998069, 13, 105, 28, 136
-0.99807, 109, 1, 124, 32
-0.998072, 209, 1, 224, 32
-0.998074, 111, 45, 126, 76
-0.998085, 211, 25, 226, 56
-0.998095, 289, 313, 416, 344
-0.998104, 345, 289, 360, 320
-0.998105, 219, 77, 234, 108
-0.998106, 61, 289, 76, 320
-0.998114, 129, 61, 144, 92
-0.998117, 193, 13, 320, 44
-0.998119, 375, 265, 390, 296
-0.998142, 151, 69, 166, 100
-0.998146, 81, 297, 208, 328
-0.998157, 289, 93, 416, 124
-0.99816, 87, 33, 102, 64
-0.998164, 69, 269, 84, 300
-0.998166, 221, 277, 236, 308
-0.998167, 347, 161, 362, 192
-0.998169, 361, 285, 376, 316
-0.998171, 351, 297, 366, 328
-0.998179, 55, 33, 70, 64
-0.998181, 35, 225, 50, 256
-0.998182, 223, 49, 238, 80
-0.998188, 271, 189, 286, 220
-0.998189, 283, 277, 298, 308
-0.998189, 485, 169, 500, 200
-0.99819, 257, 73, 272, 104
-0.998193, 53, 89, 68, 120
-0.998196, 159, 9, 174, 40
-0.998201, 445, 165, 460, 196
-0.998203, 53, 233, 68, 264
-0.998204, 347, 265, 362, 296
-0.998205, 135, 49, 150, 80
-0.998206, 149, 17, 164, 48
-0.998208, 143, 261, 158, 292
-0.998211, 353, 161, 368, 192
-0.998214, 289, 249, 416, 280
-0.998215, 1, 313, 128, 344
-0.998217, 425, 173, 440, 204
-0.99822, 337, 157, 352, 188
-0.998222, 155, 185, 170, 216
-0.998226, 7, 177, 22, 208
-0.99823, 377, 289, 392, 320
-0.998233, 391, 289, 406, 320
-0.998236, 129, 17, 144, 48
-0.998238, 301, 89, 316, 120
-0.99824, 97, 97, 128, 352
-0.998246, 103, 1, 118, 32
-0.998248, 341, 277, 356, 308
-0.998248, 81, 33, 96, 64
-0.998248, 79, 169, 94, 200
-0.998251, 9, 193, 24, 224
-0.998251, 363, 161, 378, 192
-0.998253, 133, 1, 164, 256
-0.998254, 63, 233, 78, 264
-0.998256, 419, 273, 434, 304
-0.998261, 429, 193, 444, 224
-0.998261, 135, 1, 150, 32
-0.998263, 331, 285, 346, 316
-0.998267, 417, 165, 432, 196
-0.998269, 13, 85, 28, 116
-0.998271, 203, 1, 218, 32
-0.998274, 43, 225, 58, 256
-0.998275, 41, 1, 72, 256
-0.998276, 145, 313, 272, 344
-0.998286, 9, 245, 24, 276
-0.998288, 261, 153, 276, 184
-0.998296, 179, 73, 194, 104
-0.998297, 255, 269, 270, 300
-0.998297, 281, 193, 296, 224
-0.998298, 3, 97, 18, 128
-0.998298, 449, 221, 464, 252
-0.998298, 319, 293, 334, 324
-0.998301, 261, 137, 276, 168
-0.998302, 111, 117, 126, 148
-0.998304, 59, 169, 74, 200
-0.998306, 477, 289, 492, 320
-0.998307, 111, 33, 126, 64
-0.998311, 105, 49, 120, 80
-0.998322, 203, 77, 218, 108
-0.998323, 177, 25, 192, 56
-0.998323, 429, 273, 444, 304
-0.998326, 159, 65, 174, 96
-0.998327, 353, 217, 480, 248
-0.998331, 259, 113, 274, 144
-0.998333, 435, 169, 450, 200
-0.998336, 65, 17, 80, 48
-0.998336, 97, 345, 224, 375
-0.998337, 263, 177, 278, 208
-0.998343, 193, 53, 320, 84
-0.998344, 463, 165, 478, 196
-0.998345, 353, 257, 368, 288
-0.998348, 307, 285, 322, 316
-0.998355, 229, 53, 244, 84
-0.998362, 49, 333, 176, 364
-0.998378, 153, 37, 184, 52
-0.998378, 117, 65, 148, 80
-0.998378, 153, 181, 184, 196
-0.998378, 317, 187, 348, 202
-0.998379, 221, 55, 252, 70
-0.99838, 309, 157, 340, 172
-0.99838, 197, 37, 228, 52
-0.99838, 193, 1, 320, 32
-0.998381, 461, 171, 492, 186
-0.998381, 113, 121, 144, 136
-0.998381, 9, 249, 40, 264
-0.998382, 13, 17, 44, 32
-0.998382, 9, 341, 40, 356
-0.998383, 329, 49, 392, 176
-0.998383, 129, 13, 160, 28
-0.998383, 113, 285, 144, 300
-0.998384, 157, 69, 188, 84
-0.998385, 193, 97, 224, 112
-0.998385, 137, 7, 168, 22
-0.998385, 49, 89, 80, 104
-0.998386, 53, 173, 84, 188
-0.998387, 93, 49, 124, 64
-0.998387, 145, 79, 176, 94
-0.998387, 361, 269, 392, 284
-0.998388, 37, 159, 68, 174
-0.998389, 341, 285, 372, 300
-0.99839, 409, 285, 440, 300
-0.99839, 129, 183, 160, 198
-0.99839, 133, 267, 164, 282
-0.99839, 157, 187, 188, 202
-0.99839, 145, 25, 176, 40
-0.998391, 113, 59, 144, 74
-0.998393, 249, 159, 280, 174
-0.998393, 137, 53, 168, 68
-0.998393, 429, 275, 460, 290
-0.998393, 153, 239, 184, 254
-0.998393, 133, 79, 164, 94
-0.998393, 225, 261, 352, 292
-0.998394, 25, 159, 56, 174
-0.998394, 197, 25, 228, 40
-0.998395, 321, 161, 352, 176
-0.998395, 133, 177, 164, 192
-0.998396, 113, 45, 144, 60
-0.998396, 45, 35, 76, 50
-0.998396, 173, 29, 204, 44
-0.998396, 125, 73, 156, 88
-0.998397, 345, 297, 376, 312
-0.998398, 369, 281, 400, 296
-0.998399, 89, 35, 120, 50
-0.998399, 69, 37, 100, 52
-0.998399, 153, 85, 184, 100
-0.9984, 93, 115, 124, 130
-0.9984, 317, 283, 348, 298
-0.9984, 61, 13, 92, 28
-0.998403, 165, 83, 196, 98
-0.998403, 133, 1, 164, 16
-0.998403, 229, 247, 260, 262
-0.998404, 193, 91, 224, 106
-0.998404, 249, 103, 280, 118
-0.998405, 137, 67, 168, 82
-0.998406, 125, 59, 156, 74
-0.998407, 41, 21, 72, 36
-0.998408, 429, 185, 460, 200
-0.998408, 313, 295, 344, 310
-0.998408, 53, 179, 84, 194
-0.998409, 213, 291, 244, 306
-0.99841, 425, 197, 456, 212
-0.998411, 37, 177, 68, 192
-0.998411, 153, 31, 184, 46
-0.998412, 249, 111, 280, 126
-0.998412, 425, 281, 456, 296
-0.998414, 213, 49, 244, 64
-0.998414, 61, 31, 92, 46
-0.998415, 101, 1, 132, 16
-0.998417, 145, 73, 176, 88
-0.998419, 109, 109, 140, 124
-0.99842, 37, 183, 68, 198
-0.99842, 213, 251, 244, 266
-0.998421, 1, 325, 128, 356
-0.998423, 449, 167, 480, 182
-0.998424, 197, 1, 228, 16
-0.998426, 137, 59, 168, 74
-0.998426, 89, 29, 120, 44
-0.998427, 197, 31, 228, 46
-0.998428, 397, 163, 428, 178
-0.998429, 37, 237, 68, 252
-0.998429, 85, 43, 116, 58
-0.998433, 173, 89, 204, 104
-0.998434, 49, 165, 80, 180
-0.998434, 289, 289, 320, 304
-0.998434, 341, 163, 372, 178
-0.998435, 321, 155, 352, 170
-0.998437, 409, 183, 440, 198
-0.998438, 325, 119, 356, 134
-0.998438, 165, 239, 196, 254
-0.998439, 193, 117, 224, 132
-0.998439, 25, 231, 56, 246
-0.998441, 53, 231, 84, 246
-0.998442, 389, 269, 420, 284
-0.998443, 289, 91, 320, 106
-0.998443, 413, 279, 444, 294
-0.998444, 345, 271, 376, 286
-0.998448, 289, 283, 320, 298
-0.998452, 373, 287, 404, 302
-0.998454, 317, 113, 348, 128
-0.998454, 357, 263, 388, 278
-0.998458, 277, 289, 308, 304
-0.998459, 117, 5, 148, 20
-0.998459, 337, 265, 368, 280
-0.998459, 189, 1, 220, 256
-0.99846, 113, 51, 144, 66
-0.998463, 309, 107, 340, 122
-0.998465, 353, 287, 384, 302
-0.998467, 337, 273, 400, 288
-0.998471, 213, 285, 244, 300
-0.998473, 337, 279, 368, 294
-0.998474, 305, 289, 368, 304
-0.998475, 25, 231, 88, 246
-0.998476, 185, 241, 216, 256
-0.998477, 393, 283, 424, 298
-0.998479, 109, 115, 140, 130
-0.99848, 37, 231, 68, 246
-0.99848, 401, 277, 432, 292
-0.998483, 281, 285, 344, 300
-0.998484, 37, 171, 68, 186
-0.998486, 297, 97, 328, 112
-0.998489, 265, 193, 296, 208
-0.998489, 325, 265, 356, 280
-0.998494, 81, 233, 112, 248
-0.998494, 345, 287, 408, 302
-0.9985, 9, 31, 72, 46
-0.998506, 313, 295, 376, 310
-0.998507, 17, 237, 48, 252
-0.998509, 161, 1, 192, 256
-0.998512, 329, 265, 392, 280
-0.998514, 309, 289, 340, 304
-0.998515, 393, 279, 456, 294
-0.998516, 1, 183, 64, 198
-0.998516, 9, 239, 72, 254
-0.998518, 277, 283, 308, 298
-0.998521, 325, 295, 356, 310
-0.998523, 369, 279, 432, 294
-0.998524, 325, 271, 356, 286
-0.998524, 33, 165, 96, 180
-0.998525, 321, 279, 384, 294
-0.998527, 361, 157, 424, 172
-0.998528, 9, 19, 72, 34
-0.99853, 281, 103, 344, 118
-0.998533, 257, 105, 320, 120
-0.998535, 37, 165, 68, 180
-0.998536, 217, 113, 280, 128
-0.998537, 369, 269, 432, 284
-0.998538, 49, 231, 112, 246
-0.998538, 329, 287, 360, 302
-0.998541, 337, 295, 400, 310
-0.998542, 341, 291, 372, 306
-0.998544, 281, 109, 344, 124
-0.998544, 257, 93, 320, 108
-0.998544, 353, 263, 416, 278
-0.998544, 185, 49, 248, 64
-0.998544, 381, 279, 412, 294
-0.998547, 281, 291, 344, 306
-0.998549, 9, 25, 72, 40
-0.99855, 297, 159, 360, 174
-0.99855, 33, 179, 96, 194
-0.99855, 289, 115, 352, 130
-0.998551, 433, 169, 496, 184
-0.998551, 1, 177, 64, 192
-0.998551, 73, 235, 136, 250
-0.998552, 385, 157, 416, 172
-0.998552, 17, 171, 80, 186
-0.998553, 69, 1, 100, 256
-0.998556, 145, 239, 208, 254
-0.998556, 297, 121, 360, 136
-0.998558, 185, 289, 248, 304
-0.998561, 9, 13, 72, 28
-0.998561, 49, 159, 112, 174
-0.998562, 33, 237, 96, 252
-0.998562, 1, 161, 64, 176
-0.998563, 177, 1, 208, 256
-0.998564, 305, 265, 368, 280
-0.998564, 185, 243, 248, 258
-0.998565, 1, 189, 64, 204
-0.998565, 305, 271, 368, 286
-0.998566, 369, 285, 432, 300
-0.998569, 1, 177, 500, 240
-0.998569, 41, 29, 104, 44
-0.998571, 169, 19, 232, 34
-0.998572, 41, 21, 104, 36
-0.998573, 41, 37, 104, 52
-0.998575, 185, 55, 248, 70
-0.998575, 281, 279, 344, 294
-0.998576, 257, 285, 320, 300
-0.998579, 73, 39, 136, 54
-0.99858, 1, 43, 64, 58
-0.998581, 217, 89, 280, 104
-0.998581, 329, 301, 392, 316
-0.998583, 321, 163, 384, 178
-0.998583, 117, 1, 148, 256
-0.998585, 297, 127, 360, 142
-0.998585, 217, 81, 280, 96
-0.998586, 185, 121, 248, 136
-0.998586, 393, 167, 456, 182
-0.998588, 201, 63, 264, 78
-0.998591, 217, 119, 280, 134
-0.998591, 393, 291, 456, 306
-0.998592, 217, 155, 280, 170
-0.998592, 217, 75, 280, 90
-0.998593, 9, 37, 72, 52
-0.998593, 433, 263, 496, 278
-0.998594, 217, 107, 280, 122
-0.998594, 1, 337, 64, 352
-0.998594, 393, 191, 456, 206
-0.998595, 241, 195, 304, 210
-0.998598, 169, 1, 232, 16
-0.998598, 1, 1, 32, 256
-0.9986, 217, 135, 280, 150
-0.9986, 225, 283, 288, 298
-0.9986, 41, 43, 104, 58
-0.998601, 185, 283, 248, 298
-0.998601, 345, 279, 408, 294
-0.998602, 417, 175, 480, 190
-0.998603, 393, 185, 456, 200
-0.998603, 281, 211, 344, 226
-0.998605, 241, 203, 304, 218
-0.998605, 161, 117, 224, 132
-0.998606, 217, 95, 280, 110
-0.998606, 209, 69, 272, 84
-0.998606, 57, 169, 120, 184
-0.998607, 169, 71, 232, 86
-0.998607, 361, 163, 424, 178
-0.998607, 17, 295, 80, 310
-0.998607, 257, 111, 320, 126
-0.998608, 393, 261, 456, 276
-0.998608, 217, 171, 280, 186
-0.998608, 1, 123, 64, 138
-0.99861, 409, 285, 472, 300
-0.99861, 321, 155, 384, 170
-0.99861, 433, 271, 496, 286
-0.99861, 9, 251, 72, 266
-0.998611, 169, 13, 232, 28
-0.998612, 17, 155, 80, 170
-0.998612, 257, 155, 320, 170
-0.998612, 121, 179, 184, 194
-0.998612, 1, 245, 64, 260
-0.998613, 145, 187, 208, 202
-0.998613, 105, 265, 168, 280
-0.998613, 177, 25, 240, 40
-0.998615, 97, 1, 160, 16
-0.998615, 297, 153, 360, 168
-0.998615, 169, 7, 232, 22
-0.998618, 193, 237, 256, 252
-0.998619, 217, 101, 280, 116
-0.998619, 49, 89, 112, 104
-0.99862, 217, 149, 280, 164
-0.99862, 401, 197, 464, 212
-0.998621, 281, 297, 344, 312
-0.998621, 33, 185, 96, 200
-0.998622, 177, 89, 240, 104
-0.998622, 177, 79, 240, 94
-0.998622, 193, 295, 256, 310
-0.998622, 1, 93, 64, 108
-0.998622, 73, 99, 136, 114
-0.998622, 297, 147, 360, 162
-0.998623, 257, 99, 320, 114
-0.998624, 209, 257, 272, 272
-0.998625, 169, 31, 232, 46
-0.998626, 409, 273, 472, 288
-0.998626, 249, 87, 312, 102
-0.998626, 185, 249, 248, 264
-0.998627, 393, 179, 456, 194
-0.998632, 101, 1, 132, 256
-0.99864, 249, 129, 280, 375
-0.998657, 89, 1, 120, 256
-0.998657, 5, 97, 36, 352
-0.998761, 69, 97, 100, 352
-0.99879, 21, 129, 52, 375
-0.998796, 277, 129, 308, 375
-0.998844, 67, 209, 82, 336
-0.99885, 61, 209, 76, 336
-0.998851, 79, 209, 94, 336
-0.998859, 265, 33, 296, 288
-0.998865, 217, 129, 248, 375
-0.998927, 55, 193, 70, 320
-0.998937, 19, 209, 34, 336
-0.998949, 55, 241, 70, 368
-0.998953, 73, 209, 88, 336
-0.998975, 19, 1, 34, 128
-0.998982, 51, 145, 66, 272
-0.99899, 237, 129, 268, 375
-0.99899, 59, 1, 74, 128
-0.998992, 81, 161, 96, 288
-0.998995, 25, 209, 40, 336
-0.999002, 57, 97, 88, 352
-0.999021, 131, 1, 146, 128
-0.999023, 43, 209, 58, 336
-0.999029, 81, 97, 112, 352
-0.999035, 33, 209, 48, 336
-0.999038, 149, 97, 180, 352
-0.999042, 89, 209, 104, 336
-0.999048, 49, 241, 64, 368
-0.99905, 105, 209, 120, 336
-0.99906, 229, 33, 244, 160
-0.99906, 249, 49, 264, 176
-0.999066, 105, 33, 120, 160
-0.999068, 337, 97, 352, 224
-0.999084, 261, 81, 276, 208
-0.999091, 219, 33, 234, 160
-0.999091, 135, 49, 150, 176
-0.999092, 113, 49, 128, 176
-0.999095, 115, 209, 130, 336
-0.999099, 13, 17, 28, 144
-0.999102, 1, 73, 500, 136
-0.999112, 209, 1, 224, 128
-0.999117, 13, 225, 28, 352
-0.999124, 155, 1, 170, 128
-0.999133, 361, 145, 376, 272
-0.999136, 129, 97, 160, 352
-0.999146, 49, 193, 64, 320
-0.999147, 235, 49, 250, 176
-0.999152, 325, 97, 340, 224
-0.999152, 71, 161, 86, 288
-0.999168, 357, 241, 372, 368
-0.999173, 289, 241, 304, 368
-0.999174, 113, 1, 128, 128
-0.999175, 263, 129, 278, 256
-0.999185, 243, 49, 258, 176
-0.999185, 437, 177, 452, 304
-0.999192, 411, 161, 426, 288
-0.999194, 95, 193, 110, 320
-0.999203, 289, 193, 304, 320
-0.999214, 149, 1, 164, 128
-0.999214, 401, 241, 416, 368
-0.999221, 447, 145, 462, 272
-0.999235, 405, 145, 420, 272
-0.999243, 193, 1, 208, 128
-0.999247, 53, 17, 68, 144
-0.999252, 345, 145, 360, 272
-0.999253, 429, 177, 444, 304
-0.999254, 369, 241, 384, 368
-0.999255, 255, 65, 270, 192
-0.999259, 181, 97, 212, 352
-0.999261, 113, 129, 144, 375
-0.999265, 311, 81, 326, 208
-0.999266, 89, 161, 104, 288
-0.999272, 13, 65, 28, 192
-0.999273, 127, 49, 142, 176
-0.999273, 57, 145, 72, 272
-0.999274, 299, 209, 314, 336
-0.999277, 7, 225, 22, 352
-0.99928, 137, 1, 152, 128
-0.999282, 271, 177, 286, 304
-0.999282, 351, 145, 366, 272
-0.999289, 155, 65, 170, 192
-0.999289, 45, 145, 60, 272
-0.999292, 3, 177, 18, 304
-0.999298, 385, 145, 400, 272
-0.999298, 13, 177, 28, 304
-0.999299, 169, 97, 200, 352
-0.999301, 281, 177, 296, 304
-0.999301, 217, 177, 232, 304
-0.999304, 379, 145, 394, 272
-0.999308, 179, 1, 194, 128
-0.999308, 351, 209, 366, 336
-0.999308, 421, 145, 436, 272
-0.99931, 79, 1, 94, 128
-0.99931, 99, 1, 114, 128
-0.999312, 331, 97, 346, 224
-0.999313, 211, 241, 226, 368
-0.999328, 227, 225, 242, 352
-0.99933, 477, 161, 492, 288
-0.999331, 395, 241, 410, 368
-0.999332, 87, 17, 102, 144
-0.999336, 1, 225, 16, 352
-0.999338, 99, 49, 114, 176
-0.999338, 333, 241, 348, 368
-0.999338, 395, 177, 410, 304
-0.999342, 115, 161, 130, 288
-0.999344, 25, 1, 40, 128
-0.999345, 63, 161, 78, 288
-0.999345, 161, 1, 176, 128
-0.999347, 33, 161, 48, 288
-0.999348, 109, 97, 124, 224
-0.999349, 363, 241, 378, 368
-0.999351, 221, 113, 236, 240
-0.999353, 459, 145, 474, 272
-0.999353, 9, 129, 24, 256
-0.999354, 431, 129, 446, 256
-0.99936, 129, 177, 144, 304
-0.999362, 247, 241, 262, 368
-0.999363, 203, 49, 218, 176
-0.999365, 367, 145, 382, 272
-0.999369, 151, 177, 166, 304
-0.999369, 283, 225, 298, 352
-0.99937, 319, 81, 334, 208
-0.99937, 375, 241, 390, 368
-0.999376, 51, 81, 66, 208
-0.999377, 339, 145, 354, 272
-0.999378, 193, 97, 224, 352
-0.999379, 123, 97, 138, 224
-0.999385, 199, 1, 214, 128
-0.999385, 451, 241, 466, 368
-0.999386, 439, 225, 454, 352
-0.999389, 477, 241, 492, 368
-0.999392, 433, 225, 448, 352
-0.999392, 343, 241, 358, 368
-0.999393, 107, 161, 122, 288
-0.999393, 413, 241, 428, 368
-0.999397, 19, 97, 34, 224
-0.999397, 123, 177, 138, 304
-0.9994, 373, 145, 388, 272
-0.999403, 483, 161, 498, 288
-0.999403, 155, 129, 170, 256
-0.999405, 305, 81, 320, 208
-0.999409, 323, 193, 338, 320
-0.999413, 39, 161, 54, 288
-0.999415, 135, 97, 150, 224
-0.999415, 357, 193, 372, 320
-0.999416, 95, 241, 110, 368
-0.999418, 459, 241, 474, 368
-0.999458, 361, 33, 392, 288
-0.99946, 389, 33, 420, 288
-0.999498, 345, 33, 376, 288
-0.999536, 257, 81, 500, 144
-0.999584, 307, 291, 322, 306
-0.999584, 111, 9, 126, 24
-0.999584, 331, 265, 346, 280
-0.999585, 235, 245, 250, 260
-0.999585, 13, 105, 28, 120
-0.999585, 155, 187, 170, 202
-0.999585, 61, 287, 76, 302
-0.999586, 179, 27, 194, 42
-0.999586, 43, 227, 58, 242
-0.999587, 403, 167, 418, 182
-0.999587, 17, 237, 32, 252
-0.999587, 213, 43, 228, 58
-0.999587, 113, 119, 128, 134
-0.999588, 159, 13, 174, 28
-0.999588, 69, 231, 84, 246
-0.999588, 49, 183, 64, 198
-0.999589, 151, 73, 166, 88
-0.99959, 201, 241, 216, 256
-0.999591, 85, 233, 100, 248
-0.999591, 73, 271, 88, 286
-0.999591, 51, 175, 66, 190
-0.999592, 211, 31, 226, 46
-0.999592, 389, 155, 404, 170
-0.999592, 201, 87, 216, 102
-0.999592, 57, 11, 72, 26
-0.999592, 395, 291, 410, 306
-0.999593, 11, 123, 26, 138
-0.999594, 107, 119, 122, 134
-0.999594, 329, 271, 344, 286
-0.999594, 465, 169, 480, 184
-0.999595, 41, 173, 56, 188
-0.999595, 289, 279, 304, 294
-0.999595, 329, 295, 344, 310
-0.999596, 209, 5, 224, 20
-0.999597, 435, 171, 450, 186
-0.999597, 147, 267, 162, 282
-0.999597, 93, 31, 108, 46
-0.999598, 59, 231, 74, 246
-0.999598, 219, 77, 234, 92
-0.999599, 455, 167, 470, 182
-0.999599, 417, 33, 448, 288
-0.9996, 321, 157, 336, 172
-0.999601, 395, 277, 410, 292
-0.999601, 351, 279, 366, 294
-0.999601, 17, 243, 32, 258
-0.999601, 395, 157, 410, 172
-0.999602, 211, 17, 226, 32
-0.999602, 337, 159, 352, 174
-0.999603, 259, 99, 274, 114
-0.999603, 401, 289, 416, 304
-0.999603, 149, 191, 164, 206
-0.999603, 389, 285, 404, 300
-0.999603, 151, 19, 166, 34
-0.999603, 257, 57, 500, 120
-0.999604, 129, 63, 144, 78
-0.999605, 51, 237, 66, 252
-0.999606, 41, 159, 56, 174
-0.999606, 209, 93, 224, 108
-0.999606, 363, 263, 378, 278
-0.999607, 83, 37, 98, 52
-0.999607, 139, 1, 154, 16
-0.999607, 345, 265, 360, 280
-0.999607, 301, 287, 316, 302
-0.999607, 209, 11, 224, 26
-0.999608, 53, 37, 68, 52
-0.999608, 129, 5, 144, 20
-0.999608, 339, 275, 354, 290
-0.999609, 11, 41, 26, 56
-0.999609, 357, 285, 372, 300
-0.99961, 51, 89, 66, 104
-0.99961, 343, 297, 358, 312
-0.999612, 115, 43, 130, 58
-0.999612, 211, 23, 226, 38
-0.999612, 331, 113, 346, 128
-0.999613, 129, 73, 144, 88
-0.999613, 107, 1, 122, 16
-0.999614, 159, 67, 174, 82
-0.999615, 353, 265, 368, 280
-0.999616, 259, 105, 274, 120
-0.999616, 315, 101, 330, 116
-0.999617, 75, 265, 90, 280
-0.999617, 351, 163, 366, 178
-0.999618, 225, 287, 240, 302
-0.999618, 55, 293, 70, 308
-0.999619, 377, 285, 392, 300
-0.999619, 429, 33, 460, 288
-0.999619, 429, 279, 444, 294
-0.999619, 281, 289, 296, 304
-0.999621, 401, 271, 416, 286
-0.999622, 9, 187, 24, 202
-0.999623, 195, 241, 210, 256
-0.999623, 383, 289, 398, 304
-0.999624, 409, 163, 424, 178
-0.999625, 273, 193, 288, 208
-0.999626, 69, 255, 84, 270
-0.999627, 345, 279, 360, 294
-0.999627, 105, 113, 120, 128
-0.999627, 37, 231, 52, 246
-0.999627, 445, 169, 460, 184
-0.999628, 113, 109, 128, 124
-0.999628, 231, 291, 246, 306
-0.999629, 449, 219, 464, 234
-0.999629, 339, 269, 354, 284
-0.999629, 323, 107, 338, 122
-0.999632, 283, 283, 298, 298
-0.999633, 149, 261, 164, 276
-0.999634, 79, 255, 94, 270
-0.999634, 403, 277, 418, 292
-0.999636, 63, 15, 78, 30
-0.999637, 135, 53, 150, 68
-0.999638, 53, 231, 68, 246
-0.999644, 49, 169, 64, 184
-0.999645, 339, 289, 354, 304
-0.999649, 79, 233, 94, 248
-0.999649, 335, 119, 350, 134
-0.999649, 189, 241, 204, 256
-0.999653, 421, 277, 436, 292
-0.999653, 55, 21, 70, 36
-0.999656, 321, 289, 336, 304
-0.999656, 303, 91, 318, 106
-0.999657, 331, 289, 346, 304
-0.999657, 351, 289, 366, 304
-0.999669, 335, 295, 350, 310
-0.999674, 395, 283, 410, 298
-0.999677, 411, 279, 426, 294
-0.999678, 347, 271, 362, 286
-0.999682, 387, 279, 402, 294
-0.999683, 313, 289, 328, 304
-0.999683, 401, 159, 416, 174
-0.999687, 43, 233, 58, 248
-0.99969, 345, 291, 360, 306
-0.999706, 333, 33, 364, 288
-0.999709, 281, 33, 312, 288
-0.999726, 405, 33, 436, 288
-0.99974, 291, 285, 306, 300
-0.999765, 377, 33, 408, 288
-0.99977, 205, 129, 236, 375
-0.999785, 441, 33, 472, 288
-0.999808, 49, 163, 64, 178
-0.999969, 337, 113, 464, 176
-1.00005, 469, 33, 500, 288
-1.00022, 457, 33, 488, 288
-1.00029, 321, 1, 352, 256
-1.00063, 293, 1, 324, 256
-1.00144, 305, 49, 368, 176
-1.00252, 257, 1, 500, 64
-1.00264, 353, 81, 480, 144
-1.00291, 273, 9, 400, 72
-1.00291, 321, 9, 448, 72
-1.00291, 369, 9, 496, 72
-1.00291, 321, 33, 448, 96
-1.00291, 369, 33, 496, 96
-1.00291, 369, 57, 496, 120
-1.00383, 289, 1, 416, 128
-1.00603, 401, 65, 464, 192
-1.00655, 369, 65, 496, 192
-1.00751, 313, 1, 376, 128
-1.01038, 369, 17, 496, 144
-1.01354, 281, 1, 344, 128
-1.01465, 361, 17, 424, 144
-1.01465, 385, 17, 448, 144
-1.01478, 409, 17, 472, 144
-1.01478, 433, 17, 496, 144
-1.01895, 337, 1, 400, 128
